app_id,start_app,end_app,effective_cpu,effective_io,effective_iter,total_bytes,stretch,utilization,Tcomp,Tio,iterations,io_size,priority,group_id,timeframe_start,timeframe_end,full_bw
app_1,0,6400,4727,273,78.125,2.66959e+12,1.00121,0.9453,60.5,3.42255,100,3.42255e+10,1,1,1300,6300,1e+10
app_10,0,6424.5,4723.5,276.5,78.125,2.70382e+12,1.00123,0.9453,60.5,3.42255,100,3.42255e+10,1,1,1300,6300,1e+10
app_11,0,6421,4726,274,78.125,2.67937e+12,1.00121,0.9453,60.5,3.42255,100,3.42255e+10,1,1,1300,6300,1e+10
app_12,0,6417.5,4727,273,78.125,2.66959e+12,1.00121,0.9453,60.5,3.42255,100,3.42255e+10,1,1,1300,6300,1e+10
app_13,0,6414,4727,273,78.125,2.66959e+12,1.00121,0.9453,60.5,3.42255,100,3.42255e+10,1,1,1300,6300,1e+10
app_14,0,6410.5,4727,273,78.125,2.66959e+12,1.00121,0.9453,60.5,3.42255,100,3.42255e+10,1,1,1300,6300,1e+10
app_15,0,6407,4727,273,78.125,2.66959e+12,1.00121,0.9453,60.5,3.42255,100,3.42255e+10,1,1,1300,6300,1e+10
app_16,0,6403.5,4727,273,78.125,2.66959e+12,1.00121,0.9453,60.5,3.42255,100,3.42255e+10,1,1,1300,6300,1e+10
app_2,0,6452.5,4727,273,78.125,2.66959e+12,1.00121,0.9453,60.5,3.42255,100,3.42255e+10,1,1,1300,6300,1e+10
app_3,0,6449,4727,273,78.125,2.66959e+12,1.00121,0.9453,60.5,3.42255,100,3.42255e+10,1,1,1300,6300,1e+10
app_4,0,6445.5,4727,273,78.125,2.66959e+12,1.00121,0.9453,60.5,3.42255,100,3.42255e+10,1,1,1300,6300,1e+10
app_5,0,6442,4727,273,78.125,2.66959e+12,1.00121,0.9453,60.5,3.42255,100,3.42255e+10,1,1,1300,6300,1e+10
app_6,0,6438.5,4727,273,78.125,2.66959e+12,1.00121,0.9453,60.5,3.42255,100,3.42255e+10,1,1,1300,6300,1e+10
app_7,0,6435,4727,273,78.125,2.66959e+12,1.00121,0.9453,60.5,3.42255,100,3.42255e+10,1,1,1300,6300,1e+10
app_8,0,6431.5,4727,273,78.125,2.66959e+12,1.00121,0.9453,60.5,3.42255,100,3.42255e+10,1,1,1300,6300,1e+10
app_9,0,6428,4723.5,276.5,78.125,2.70382e+12,1.00123,0.9453,60.5,3.42255,100,3.42255e+10,1,1,1300,6300,1e+10
