app_id,Tcomp,Tio,iter,witer,alpha_io,compute_size,io_size,mu,desyn_time
1,9.501786909649926,0.038133833599290366,2097,9.539920743249217,0.0039972903995324285,9e9,38133833.59929036,10,9.0716563144744
2,9.067571635727083,0.04485371585506516,2195,9.112425351582148,0.004922258797684133,9e9,44853715.85506516,10,7.703178034656357
3,8.399478329486294,0.007095697362329136,2380,8.406574026848624,0.0008440652921947924,8e9,7095697.362329136,10,7.665723848713671
4,9.858913327504059,0.047036079160080985,2019,9.90594940666414,0.004748265636046745,9e9,47036079.160080984,10,7.631977300399462
5,9.66924353025389,0.01239727932000329,2066,9.681640809573894,0.0012804936233271513,9e9,12397279.32000329,10,2.977121388064521
6,7.225046829126174,0.022157204690807425,2760,7.247204033816981,0.0030573452309907707,7e9,22157204.690807424,10,3.3806224276436967
7,9.002598454861724,0.0218836562338042,2217,9.024482111095528,0.0024249210053725323,9e9,21883656.2338042,10,7.123877611401336
8,9.900026061071246,0.027210051710171688,2015,9.927236112781419,0.0027409493842035716,9e9,27210051.71017169,10,2.256346736198226
9,7.377257629069945,0.03172589940109639,2700,7.408983528471041,0.004282085292696489,7e9,31725899.40109639,10,7.349986795153743
10,10.662762387990316,0.059940311914143375,1866,10.72270269990446,0.005590037660437741,10e9,59940311.914143376,10,5.024705980443385
11,10.817033692294434,0.054526622736814356,1840,10.871560315031248,0.005015528696596081,10e9,54526622.73681436,10,2.186939012758362
12,9.974984135847606,0.022738867098756523,2001,9.997723002946362,0.002274404591130931,9e9,22738867.098756522,10,2.5818344842253653
13,10.204241404871553,0.02127006857687785,1956,10.22551147344843,0.0020800982554376596,10e9,21270068.57687785,10,6.150019221315494
14,9.706169122813352,0.01762940648753883,2057,9.72379852930089,0.0018130164291676584,9e9,17629406.48753883,10,6.378862250746513
15,11.413824341512308,0.04616633915531461,1746,11.459990680667623,0.004028479642064168,11e9,46166339.15531461,10,6.768991485793672
16,117.38989331315692,0.4160064557800952,170,117.80589976893701,0.003531287113769726,117e9,416006455.7800952,100,50.00801402679423
17,71.18917878819086,0.0883213792059602,281,71.27750016739682,0.0012391200448744054,71e9,88321379.2059602,100,52.425477429004225
18,101.20839942716005,0.581665633907275,197,101.79006506106732,0.005714365479168463,101e9,581665633.907275,100,101.48443037932967
19,93.29470951482242,0.07210255437957681,215,93.366812069202,0.0007722503615753266,93e9,72102554.37957682,100,32.79664514661904
20,97.28034935346408,0.2670700086851782,206,97.54741936214926,0.0027378480172157976,97e9,267070008.68517822,100,16.93934458494873
21,102.60948640851016,0.5875758303280232,194,103.19706223883819,0.0056937263288381595,102e9,587575830.3280232,100,3.391678081607347
22,99.23054496446261,0.12367545414013191,202,99.35422041860274,0.0012447931614687135,99e9,123675454.1401319,100,79.71251128397695
23,110.26457263625797,0.2402297960550941,181,110.50480243231306,0.0021739308226195945,110e9,240229796.0550941,100,109.8238433251387
24,103.37528931712399,0.5959011220946558,193,103.97119043921865,0.005731406167201851,103e9,595901122.0946559,100,90.22234342838786
25,89.78578928728585,0.460228599282402,222,90.24601788656825,0.005099710879884707,89e9,460228599.282402,100,56.27066466626801
26,129.23503921006176,0.5678660416427321,155,129.8029052517045,0.004374833063571012,129e9,567866041.6427321,100,125.8783908370513
27,125.38900642887698,0.7067061269647045,159,126.09571255584169,0.005604521459456748,125e9,706706126.9647045,100,88.01766717886873
28,107.84478399696195,0.13087837358169038,186,107.97566237054365,0.0012121099394838694,107e9,130878373.58169039,100,72.93602552109951
29,108.84008174479476,0.5511293283636901,183,109.39121107315844,0.005038149984417916,108e9,551129328.3636901,100,77.60482040367444
30,92.06917436665725,0.3944902948945447,217,92.46366466155179,0.004266435862546788,92e9,394490294.89454466,100,38.332218133518275
31,574.5037515811854,2.2274970090440087,35,576.7312485902294,0.003862279032892593,574e9,2227497009.0440087,500,221.5978982497242
32,443.76880404233316,1.353598381885781,45,445.12240242421893,0.0030409576658326654,443e9,1353598381.885781,500,359.73277786098095
33,425.21316936821745,1.8215266425536591,47,427.0346960107711,0.00426552376087894,425e9,1821526642.5536592,500,15.885613774004133
34,499.3009029816183,2.4245505026193097,40,501.7254534842376,0.0048324247569701585,499e9,2424550502.61931,500,189.92626988089813
35,446.5269929103851,0.16800523445117974,45,446.6949981448363,0.000376107265917282,446e9,168005234.45117974,500,219.05681985819226
36,481.1187772842459,1.0857664482696778,42,482.20454373251556,0.0022516719561895397,481e9,1085766448.2696779,500,337.97845473156985
37,572.1982046607918,3.070230024989585,35,575.2684346857814,0.005337038919346552,572e9,3070230024.989585,500,537.3892501976081
38,490.5060473154518,0.3297166997990828,41,490.83576401525085,0.0006717454675711815,490e9,329716699.7990828,500,6.41045017216284
39,480.83283910973836,0.6482296618739476,42,481.4810687716123,0.0013463242979163351,480e9,648229661.8739476,500,416.7922303317402
40,532.3365629873433,1.8836713966509475,38,534.2202343839942,0.0035260203103744214,532e9,1883671396.6509476,500,300.26860410833416
41,595.3714640124225,0.7327600207499085,34,596.1042240331724,0.001229248160316897,595e9,732760020.7499086,500,192.69139679927437
42,523.3321973476199,2.338567078371956,39,525.6707644259918,0.004448729578723221,523e9,2338567078.371956,500,74.68885612842517
43,401.2737865267006,2.014100981802444,50,403.28788750850305,0.004994201522504139,401e9,2014100981.8024437,500,327.47109794072105
44,561.2229788904755,0.7104700514945929,36,561.93344894197,0.0012643313061934528,561e9,710470051.4945929,500,262.0024063194866
45,485.197093830269,1.361593256735546,42,486.55868708700456,0.0027984152639167065,485e9,1361593256.7355459,500,372.9235565509547
46,1104.9048604744592,1.2837187791898528,19,1106.188579253649,0.0011604881873360003,1104e9,1283718779.1898527,1000,578.1156367565089
47,1042.3981133386667,2.375492201370952,20,1044.7736055400376,0.002273690863527389,1042e9,2375492201.3709517,1000,935.7188570740731
48,1006.4181676766259,3.0771311249636044,20,1009.4952988015895,0.003048187672212624,1006e9,3077131124.9636045,1000,156.00620659583205
49,879.1569202298382,5.131375415490181,23,884.2882956453284,0.00580283086495615,879e9,5131375415.490181,1000,194.2094630565148
50,1068.9702142468977,0.44685837913056714,19,1069.4170726260284,0.00041785229595528634,1068e9,446858379.13056713,1000,967.9950460333337
51,766.2346987440866,3.445430313155547,26,769.6801290572421,0.0044764444125324505,766e9,3445430313.1555467,1000,212.9152629144017
52,989.3744808122572,2.6425310511951983,21,992.0170118634524,0.0026637961038907397,989e9,2642531051.195198,1000,799.1110809431901
53,928.8994709846006,0.7343413464036234,22,929.6338123310043,0.0007899253842352225,928e9,734341346.4036233,1000,721.6374198179143
54,1152.4848885606177,2.9128927497238504,18,1155.3977813103415,0.0025211167935776423,1152e9,2912892749.7238503,1000,454.42882417142505
55,1084.2524980818164,6.118607396667748,19,1090.3711054784842,0.005611490772201579,1084e9,6118607396.667748,1000,55.52225859032748
56,1076.106024112546,3.154693159711662,19,1079.2607172722578,0.00292301304886264,1076e9,3154693159.7116623,1000,533.8049404909484
57,943.7186805202183,5.184436624902547,22,948.9031171451209,0.005463610068539446,943e9,5184436624.902547,1000,546.0379370688064
58,1198.539457780384,4.32992544414218,17,1202.8693832245262,0.00359966385754617,1198e9,4329925444.14218,1000,392.5149696225042
59,825.4992145697227,4.812879437355032,25,830.3120940070777,0.00579647035384987,825e9,4812879437.355032,1000,426.7473874164898
60,1111.5110174191725,6.341208386814243,18,1117.8522258059868,0.00567267143225675,1111e9,6341208386.814242,1000,256.2784944193761
