app_id,start_app,end_app,effective_cpu,effective_io,effective_iter,total_bytes,stretch,utilization,Tcomp,Tio,iterations,priority,group_id
app_1,7.61343,19721.3,7912,88,878.554,1.55328e+10,1.00914,0.993813,9,0.017671,2165,1,1
app_10,5.70912,19523.3,7912,88,878.929,1.48511e+10,1.00923,0.993813,9,0.0168955,2143,1.00001,1.00001
app_11,3.72121,18432.2,7900.6,99.4,986.423,3.18742e+10,1.00851,0.993813,8,0.0323268,2274,1.00001,1.00001
app_12,7.98883,19747.8,7905.6,94.4,789.857,5.14888e+10,1.00539,0.993813,10,0.0651757,1952,1.00001,1.00001
app_13,0.161607,18352.1,7883.6,116.4,985.75,5.82142e+10,1.00733,0.993813,8,0.0590408,2265,1.00001,1.00001
app_14,6.39608,19502.5,7918,82,791.882,3.03006e+10,1.0065,0.993813,10,0.0382583,1928,1.00001,1.00001
app_15,5.04342,18811.2,7901.2,98.8,988.575,1.90092e+10,1.01007,0.993813,8,0.0192401,2322,1.00002,1.00002
app_16,11.2663,20051.5,7942.4,57.6,92.7442,4.29049e+10,1.00184,0.993813,86,0.461343,231,1.00002,1.00002
app_17,90.6636,19922.6,7958,42,81.5801,3.07656e+10,1.00141,0.993813,98,0.379822,203,1.00002,1.00002
app_18,26.533,20051.1,7969.5,30.5,76.9681,2.12472e+10,1.00116,0.993813,103,0.275938,194,1.00002,1.00002
app_19,18.4455,20159.9,7943.1,56.9,87.5817,4.27455e+10,1.00177,0.993813,91,0.491327,219,1.00002,1.00002
app_2,7.70352,18111.4,7897.1,102.9,985.098,4.22972e+10,1.00763,0.993813,8,0.0429414,2230,1,1
app_20,88.011,20065.7,7942.8,57.2,86.0023,4.61944e+10,1.00138,0.993813,92,0.537144,216,1.00002,1.00002
app_21,65.7281,20009.4,7945.6,54.4,78.3521,4.18912e+10,1.00157,0.993813,102,0.530268,194,1.00002,1.00002
app_22,31.2354,20191.8,7930.6,69.4,76.4586,5.17946e+10,1.00221,0.993813,103,0.672658,193,1.00002,1.00002
app_23,65.9908,20064.8,7966.4,33.6,72.1151,2.25496e+10,1.00138,0.993813,110,0.313189,181,1.00002,1.00002
app_24,70.5041,20110.3,7974.2,25.8,77.2325,1.61583e+10,1.00121,0.993813,103,0.209848,194,1.00002,1.00002
app_25,21.718,20128.6,7940.7,59.3,84.5967,4.29229e+10,1.00205,0.993813,94,0.510987,212,1.00003,1.00003
app_26,91.4371,19955,7936.1,63.9,82.2215,4.62752e+10,1.00221,0.993813,97,0.557532,204,1.00003,1.00003
app_27,43.4429,20121.6,7966.7,33.3,83.92,2.51233e+10,1.00102,0.993813,94,0.299087,212,1.00003,1.00003
app_28,84.5743,19971.9,7981.4,18.6,87.2694,1.09682e+10,1.00095,0.993813,92,0.126071,215,1.00003,1.00003
app_29,51.5167,19942.4,7982.8,17.2,76.6528,9.44744e+09,1.00097,0.993813,104,0.122694,191,1.00003,1.00003
app_3,1.22565,19622.8,7907,93,789.138,4.51403e+10,1.00602,0.993813,10,0.0572121,1939,1,1
app_30,32.0043,20036.3,7929.2,70.8,69.9701,4.97429e+10,1.00264,0.993813,113,0.710613,175,1.00003,1.00003
app_31,215.653,20423,7959.6,40.4,18.5948,3.10067e+10,1.00118,0.993813,427,1.63193,47,1.00003,1.00003
app_32,165.694,20530.9,7981.8,18.2,17.5993,1.49099e+10,1.00041,0.993813,451,0.877051,45,1.00003,1.00003
app_33,249.37,20030.1,7996.5,3.5,13.8028,2.33033e+09,1.00015,0.993813,590,0.166452,34,1.00003,1.00003
app_34,415.174,20382,7985.1,14.9,16.0701,1.20203e+10,1.00036,0.993813,491,0.751269,41,1.00003,1.00003
app_35,340.659,20857.8,7991,9,15.6079,6.16715e+09,1.00035,0.993813,510,0.411144,40,1.00004,1.00004
app_36,247.253,20425.8,7962,38,16.7749,3.38353e+10,1.00052,0.993813,479,2.11471,42,1.00004,1.00004
app_37,250.227,20094,7977.9,22.1,16.21,1.79725e+10,1.00052,0.993813,500,1.12328,40,1.00004,1.00004
app_38,172.087,20111.4,7952.2,47.8,16.4062,3.15801e+10,1.00203,0.993813,485,1.97376,41,1.00004,1.00004
app_39,230.251,20528.6,7973.9,26.1,16.3713,2.08097e+10,1.00066,0.993813,479,1.30061,42,1.00004,1.00004
app_4,1.63355,19602.3,7908.8,91.2,876.281,3.85808e+10,1.00662,0.993813,9,0.0439918,2149,1,1
app_40,21.3609,20523.4,7961.9,38.1,15.2036,2.75908e+10,1.00132,0.993813,523,1.83939,39,1.00004,1.00004
app_41,344.108,20532.6,7940.2,59.8,17.4668,4.938e+10,1.0013,0.993813,443,2.74333,45,1.00004,1.00004
app_42,3.23212,20051.2,7982.9,17.1,15.0858,1.38705e+10,1.0004,0.993813,527,0.924702,38,1.00004,1.00004
app_43,279.884,20838.4,7984.5,15.5,13.578,1.33633e+10,1.00027,0.993813,586,0.954518,35,1.00004,1.00004
app_44,0.295999,20281.5,7931.7,68.3,16.1481,5.15073e+10,1.0021,0.993813,492,3.21921,41,1.00004,1.00004
app_45,255.071,20531.6,7958,42,13.9183,3.31915e+10,1.0011,0.993813,559,2.37082,36,1.00004,1.00004
app_46,312.755,20449.3,7941.9,58.1,10.1238,4.08507e+10,1.00216,0.993813,799,4.08507,25,1.00005,1.00005
app_47,138.922,20872.8,7943,57,8.37823,4.70775e+10,1.00124,0.993813,929,5.88468,22,1.00005,1.00005
app_48,490.467,20847.5,7984.4,15.6,8.39623,1.30508e+10,1.00032,0.993813,958,1.45009,21,1.00005,1.00005
app_49,658.004,21324.8,7997.2,2.8,7.39301,2.07981e+09,1.00009,0.993813,1083,0.259976,19,1.00005,1.00005
app_5,3.84494,19321.5,7927.2,72.8,718.702,1.90239e+10,1.00677,0.993813,11,0.0264589,1736,1.00001,1.00001
app_50,825.668,21978.4,7985.6,14.4,7.5355,1.30253e+10,1.00017,0.993813,1043,1.62817,20,1.00005,1.00005
app_51,179.269,20843.3,7979.3,20.7,7.28832,1.45716e+10,1.00077,0.993813,1093,2.08166,19,1.00005,1.00005
app_52,15.5562,20675.4,7990.1,9.9,7.77706,7.24346e+09,1.00033,0.993813,1046,0.905433,20,1.00005,1.00005
app_53,718.606,21039.4,7998.9,1.1,9.07672,5.31346e+08,1.00007,0.993813,898,0.0531346,23,1.00005,1.00005
app_54,435.167,21269.8,7929.5,70.5,7.99159,4.92172e+10,1.00267,0.993813,980,6.15215,21,1.00005,1.00005
app_55,320.027,20792.5,7968.8,31.2,9.99614,2.36527e+10,1.00094,0.993813,796,2.36527,26,1.00005,1.00005
app_56,321.154,20698.2,7976.7,23.3,8.13193,1.85955e+10,1.00059,0.993813,1005,2.32444,20,1.00006,1.00006
app_57,837.604,20754,7968.5,31.5,7.96767,2.43669e+10,1.00089,0.993813,1005,3.04586,20,1.00006,1.00006
app_58,477.626,20493.2,7972.1,27.9,9.42288,2.40888e+10,1.00048,0.993813,832,2.40888,24,1.00006,1.00006
app_59,80.1017,20529.4,7934.2,65.8,6.79963,5.30012e+10,1.0016,0.993813,1126,7.5716,18,1.00006,1.00006
app_6,0.933887,19053.5,7921,79,790.014,2.96217e+09,1.0096,0.993813,10,0.00374958,1886,1.00001,1.00001
app_60,946.136,22195.2,7975,25,7.43182,1.98072e+10,1.00065,0.993813,1047,2.4759,20,1.00006,1.00006
app_7,3.0525,19729,7920.6,79.4,793.746,2.29315e+09,1.00973,0.993813,10,0.0028881,1954,1.00001,1.00001
app_8,0.338114,19769.7,7912.3,87.7,876.611,3.89836e+08,1.01103,0.993813,9,0.000444511,2173,1.00001,1.00001
app_9,7.99124,19013.9,7909.2,90.8,876.509,3.19049e+10,1.00742,0.993813,9,0.0364211,2087,1.00001,1.00001
