app_id,Tcomp,Tio,iter,witer,alpha_io,compute_size,io_size,mu,desyn_time
1,6.002381516025027,0.13174367509516027,3261,6.134125191120187,0.02147717416753632,6e9,131743675.09516028,10,0.6075472684772616
2,5.579926119946612,0.11914889099998181,3510,5.6990750109465935,0.02090670692544397,5e9,119148890.9999818,10,3.8283241226536004
3,8.336944768389671,0.11239716196808243,2368,8.449341930357754,0.013302475257185316,8e9,112397161.96808243,10,1.8032621320489315
4,4.788144456433958,0.09561160309916512,4096,4.883756059533123,0.019577473144370236,4e9,95611603.09916513,10,2.7207035044281467
5,10.20982373364102,0.08382123354195864,1943,10.29364496718298,0.008143008021860857,10e9,83821233.54195864,10,9.9180095225075
6,6.731452016833074,0.05748637224068107,2946,6.7889383890737545,0.008467652664693603,6e9,57486372.240681075,10,3.9437677498863217
7,4.697332814109317,0.022842066564668837,4238,4.720174880673986,0.004839241583652353,4e9,22842066.564668838,10,4.357260992258547
8,7.211615613806406,0.08970500158997949,2740,7.301320615396385,0.012286133744191078,7e9,89705001.58997948,10,0.1289945219071129
9,12.03697857765444,0.30345688800844917,1621,12.340435465662889,0.02459045216457833,12e9,303456888.00844914,10,0.5072617977544359
10,5.087207807884013,0.04059572044852292,3901,5.127803528332536,0.00791678546656874,5e9,40595720.448522925,10,4.652920176817185
11,17.740049010619803,0.33089846543235796,1107,18.07094747605216,0.01831107449517346,17e9,330898465.43235797,10,4.238559624719648
12,5.366969092127686,0.14442251142021034,3629,5.511391603547897,0.026204363944532624,5e9,144422511.42021033,10,2.3387299608495
13,14.397788439068448,0.37602415206326456,1354,14.773812591131712,0.02545207269577664,14e9,376024152.06326455,10,2.092852093927075
14,16.688307570948933,0.24887909075370232,1181,16.937186661702636,0.014694240296498177,16e9,248879090.7537023,10,7.355480338650101
15,17.78423900586534,0.21035418818273918,1112,17.99459319404808,0.011689855164512208,17e9,210354188.18273917,10,17.235465633626266
16,14.68219959069367,0.05064039706237353,1358,14.732839987756044,0.003437246118498471,14e9,50640397.06237353,10,12.181402432125772
17,16.76313378573808,0.2292038617381534,1178,16.992337647476234,0.013488659800271544,16e9,229203861.7381534,10,16.044158806497155
18,10.962164228835814,0.018177627284695096,1822,10.980341856120509,0.0016554700684990765,10e9,18177627.284695096,10,5.63075003630643
19,5.643310933730486,0.04324246209105617,3518,5.686553395821543,0.0076043358922525135,5e9,43242462.091056176,10,1.876873032677453
20,16.692176454640233,0.21895224603369076,1183,16.911128700673924,0.012947228414444348,16e9,218952246.03369075,10,2.303168883338707
21,127.28510594233406,2.9679435299426102,154,130.25304947227667,0.022785981149518603,127e9,2967943529.9426103,100,70.22972245813634
22,25.022612317775767,0.4175172017443748,787,25.44012951952014,0.016411756136069,25e9,417517201.7443748,100,22.872292574863835
23,78.01908726727028,0.02649932303202661,257,78.0455865903023,0.00033953647079538167,78e9,26499323.032026608,100,36.839057711985014
24,211.05235466725912,5.147796239999188,93,216.20015090725832,0.023810326766179724,211e9,5147796239.999188,100,208.64776275796027
25,111.88621131551858,1.9374845704696222,176,113.8236958859882,0.017021803372210903,111e9,1937484570.4696221,100,40.27580117983034
26,149.49931827187586,0.9434220585747071,133,150.44274033045056,0.006270970978742219,149e9,943422058.574707,100,136.3944101583208
27,126.46088108506197,0.08270858350800936,159,126.54358966856998,0.0006535975763342198,126e9,82708583.50800936,100,2.374280689138864
28,103.41053801677103,0.912165597689887,192,104.32270361446092,0.008743692083181836,103e9,912165597.689887,100,87.39853603496293
29,3.8073292457452226,0.024056004993525625,5221,3.831385250738748,0.006278670355294412,3e9,24056004.993525624,100,2.1772374667278687
30,175.60275757564528,0.645715585964933,114,176.2484731616102,0.003663666268319085,175e9,645715585.9649329,100,3.558197251273097
31,7.985993525754559,0.19770100030037713,2444,8.183694526054936,0.024157915434275336,7e9,197701000.30037713,100,7.324545082877716
32,80.6116334356253,0.430837245836071,247,81.04247068146137,0.005316190908461851,80e9,430837245.836071,100,59.903936241132655
33,142.34792097904725,2.9545503417287566,138,145.302471320776,0.020333792776353846,142e9,2954550341.7287564,100,89.71326115547627
34,123.5202527116595,1.3973382726257013,161,124.9175909842852,0.01118608085230757,123e9,1397338272.6257014,100,58.82009869963033
35,168.65530492558702,0.6320508793315158,119,169.28735580491855,0.0037335976826282967,168e9,632050879.3315158,100,88.09144925599738
36,48.37847460650535,0.054408320955522005,413,48.432882927460874,0.0011233756420614212,48e9,54408320.95552201,100,37.2105862921233
37,116.07635096526066,1.615295793507035,170,117.69164675876769,0.013724812575848337,116e9,1615295793.5070348,100,3.93771912696947
38,43.914257889600826,0.8678136126344211,447,44.78207150223525,0.019378594681380586,43e9,867813612.6344211,100,31.755629823226037
39,66.02354870961453,1.7708644234801227,296,67.79441313309465,0.026121096734085514,66e9,1770864423.4801228,100,63.99915135515636
40,208.371222438074,0.7187717899082942,96,209.0899942279823,0.003437619253672071,208e9,718771789.9082942,100,193.15530123845488
41,1397.2956386875437,7.193401429882342,15,1404.4890401174262,0.005121721298217406,1397e9,7193401429.882342,1000,63.9704580403239
42,1101.7510915480455,2.4089707921110506,19,1104.1600623401564,0.002181722446114813,1101e9,2408970792.1110506,1000,179.9315869116287
43,1433.5592257533424,18.77371760873362,14,1452.332943362076,0.01292659351599739,1433e9,18773717608.73362,1000,1253.6485652588217
44,860.9980754277791,23.97826464620523,23,884.9763400739844,0.027094808708897952,860e9,23978264646.20523,1000,363.215054729707
45,1852.6015855471435,29.189126133720947,11,1881.7907116808644,0.015511356258979756,1852e9,29189126133.720947,1000,479.4370416094018
46,1212.6687190514403,24.082753244447556,17,1236.7514722958879,0.019472589104535833,1212e9,24082753244.447556,1000,213.7490018605026
47,873.9387190886731,21.08015539932981,23,895.0188744880029,0.023552749556693706,873e9,21080155399.32981,1000,751.8740221330304
48,611.580722258692,13.139985371675083,33,624.7207076303671,0.02103337573283982,611e9,13139985371.675083,1000,472.41599065158925
49,922.5213460949458,15.385649359634376,22,937.9069954545802,0.01640423777005452,922e9,15385649359.634377,1000,535.8346436126529
50,1315.4545891930322,30.811263485301307,15,1346.2658526783334,0.022886462895871366,1315e9,30811263485.301308,1000,29.554750665301672
51,1390.7695922943037,6.2115355183598435,15,1396.9811278126635,0.004446399020497588,1390e9,6211535518.359843,1000,407.2662553437435
52,1936.1520163303176,8.806590577202682,11,1944.9586069075203,0.004527906427379008,1936e9,8806590577.202682,1000,1905.0388405696694
53,1184.300901729777,27.013269274988765,17,1211.3141710047657,0.022300795220270304,1184e9,27013269274.988766,1000,59.923180302719956
54,1621.7527609269985,25.59573178037468,13,1647.3484927073732,0.01553753312895487,1621e9,25595731780.37468,1000,1209.1762914946082
55,182.6130302934104,1.3457208134654886,109,183.95875110687587,0.007315340017087066,182e9,1345720813.4654884,1000,175.53875012534436
56,1382.3342839666248,19.909364214961148,15,1402.243648181586,0.014198220288449437,1382e9,19909364214.961147,1000,605.6992119041339
57,2109.672467382571,44.40474093657323,10,2154.077208319144,0.020614275461009524,2109e9,44404740936.573235,1000,1519.19007693582
58,500.75708646698604,9.516629268490886,40,510.2737157354769,0.01865004795470252,500e9,9516629268.490887,1000,438.8510119679489
59,1973.3072576011439,4.88244877460998,11,1978.1897063757538,0.002468139814333139,1973e9,4882448774.60998,1000,10.35221839677571
60,773.976861510359,9.615459530722092,26,783.592321041081,0.012270997650853684,773e9,9615459530.722092,1000,487.3362978366876
