app_id,Tcomp,Tio,iter,witer,alpha_io,compute_size,io_size,mu,desyn_time
1,10.818175140379811,0.20562018970977772,1815,11.02379533008959,0.018652395436672776,10e9,205620189.7097777,10,7.1706438440922735
2,15.884890544703417,0.19512629388315567,1244,16.080016838586573,0.01213470706168161,15e9,195126293.88315567,10,12.689064233800385
3,1.0186364932605028,0.023339615117315977,19195,1.0419761083778187,0.02239937646329706,1e9,23339615.117315978,10,0.17690702897799088
4,3.973424683570719,0.01156029514081627,5019,3.9849849787115357,0.0029009632915991714,3e9,11560295.14081627,10,1.0526450692079232
5,4.906033360940218,0.07398378506098113,4017,4.980017146001199,0.014856130589909282,4e9,73983785.06098114,10,1.895264534668656
6,20.728356702756752,0.5204179145068236,942,21.248774617263575,0.02449166711401842,20e9,520417914.5068236,10,5.1416592232553215
7,4.908165106873506,0.13654648566278882,3965,5.044711592536295,0.027067253133917668,4e9,136546485.6627888,10,5.033545488948164
8,11.88854813155149,0.30691444426404374,1640,12.195462575815533,0.025166281504784973,11e9,306914444.26404375,10,6.835688200610459
9,27.681610417504817,0.07347216750528225,721,27.7550825850101,0.0026471608319033764,27e9,73472167.50528225,10,10.93114515135518
10,5.747070412280028,0.07251633448340833,3437,5.819586746763436,0.012460736069230052,5e9,72516334.48340833,10,5.038405325150045
11,8.676377542617175,0.25594585957307187,2240,8.932323402190246,0.028653895302347965,8e9,255945859.57307187,10,1.6005133731806938
12,9.291763178125114,0.1821093463577656,2112,9.47387252448288,0.019222271134338047,9e9,182109346.35776561,10,5.8315953684226525
13,7.038990080775989,0.18524440511842344,2769,7.224234485894412,0.025642080898691768,7e9,185244405.11842343,10,3.6054939994072726
14,17.96408067701085,0.11451482329829993,1107,18.07859550030915,0.006334276536932401,17e9,114514823.29829992,10,13.435246808961322
15,14.146672254706502,0.05938506769625765,1408,14.20605732240276,0.004180263837356773,14e9,59385067.69625765,10,1.948851636921014
16,9.277740915539493,0.010519546759763927,2154,9.288260462299256,0.0011325637133521849,9e9,10519546.759763926,10,6.634143442695514
17,16.154069810070308,0.1693841718623024,1226,16.32345398193261,0.010376735956114616,16e9,169384171.8623024,10,7.189973729526674
18,18.816305050380578,0.4192931946729541,1040,19.23559824505353,0.021797772511742707,18e9,419293194.67295414,10,17.25070820884754
19,10.44622162682925,0.23010723105828515,1874,10.676328857887535,0.021553029521780315,10e9,230107231.05828515,10,1.1673482264813424
20,16.618686725954,0.15026392869866226,1193,16.768950654652663,0.008960842678427852,16e9,150263928.69866225,10,0.605939156524878
21,107.00746791183995,0.39742538805276545,187,107.40489329989272,0.0037002540186235854,107e9,397425388.0527654,100,80.66642111092978
22,52.22382531914192,1.1764450829690045,375,53.40027040211093,0.022030695240121842,52e9,1176445082.9690046,100,37.929003857047604
23,125.71725472711408,0.2626872092044651,159,125.97994193631855,0.002085151057914049,125e9,262687209.2044651,100,36.9408884836866
24,118.017199645817,2.7172527626152134,166,120.73445240843222,0.02250602631155378,118e9,2717252762.6152134,100,41.02889327090432
25,251.91644166327603,2.161225140645973,79,254.077666803922,0.00850615942688833,251e9,2161225140.645973,100,158.50406096212006
26,63.14232685817771,1.4021230281329304,310,64.54444988631064,0.021723370957574917,63e9,1402123028.1329305,100,24.645149455754567
27,100.76722091505415,0.4973911285015084,198,101.26461204355566,0.004911796119730078,100e9,497391128.5015084,100,74.99893095183818
28,42.50404356307185,1.30385777879555,457,43.80790134186741,0.029763073300876148,42e9,1303857778.79555,100,24.112842044968794
29,25.217055960524416,0.04454243739680357,792,25.26159839792122,0.0017632469923387342,25e9,44542437.39680357,100,13.702754319685782
30,208.5415912935156,2.630998176387719,95,211.17258946990333,0.012458994716085978,208e9,2630998176.387719,100,185.08170155640332
31,133.54410601721221,1.7946126859659148,148,135.33871870317813,0.013260157205284465,133e9,1794612685.9659147,100,19.2785994528852
32,74.42737420031098,1.0676312669628238,265,75.4950054672738,0.014141746998424016,74e9,1067631266.9628239,100,13.084834138970812
33,157.38209688909535,0.5714803945438054,127,157.95357728363916,0.0036180275519660503,157e9,571480394.5438054,100,11.747033748341337
34,165.30436289222587,2.434272956263065,120,167.73863584848894,0.014512297324641644,165e9,2434272956.2630653,100,48.41878362250808
35,52.745204677174186,0.9637078267162373,373,53.708912503890424,0.01794316402601581,52e9,963707826.7162373,100,20.341005992801556
36,160.87620495184433,3.1443818576099964,122,164.02058680945433,0.019170653628150236,160e9,3144381857.6099963,100,29.387132864871994
37,1.9916823826773422,0.010050475185235665,9992,2.001732857862578,0.005020887350556567,1e9,10050475.185235664,100,0.5468898618674591
38,180.15802426041526,3.8621532526365434,109,184.0201775130518,0.02098766181421935,180e9,3862153252.6365433,100,122.52867894426801
39,49.882001078042975,1.4114554241924835,390,51.29345650223546,0.0275172608835782,49e9,1411455424.1924834,100,22.869022374581483
40,135.27308503431084,0.5752876846889372,148,135.84837271899977,0.004234777886363871,135e9,575287684.6889372,100,100.96602656540637
41,671.7444648217773,17.98165032988606,29,689.7261151516634,0.026070711163273974,671e9,17981650329.886063,1000,567.7528778888628
42,1509.0874259976872,44.98637078746473,13,1554.073796785152,0.028947383889057373,1509e9,44986370787.46473,1000,891.5444384484019
43,34.52878068710435,0.9034855735618607,565,35.43226626066621,0.02549894965552432,34e9,903485573.5618607,1000,6.230828596810516
44,2165.915163526539,6.646810339971254,10,2172.56197386651,0.003059434170313642,2165e9,6646810339.971254,1000,1673.2417843622404
45,638.3271036226555,5.025960358398896,32,643.3530639810544,0.007812134020623707,638e9,5025960358.398896,1000,535.0004595173214
46,2481.1819915731144,17.09228139256767,9,2498.274272965682,0.006841635275008278,2481e9,17092281392.56767,1000,1777.7852529169581
47,714.8025300251743,16.6408943262525,28,731.4434243514268,0.022750760718107537,714e9,16640894326.2525,1000,549.3008091904555
48,438.9636992323163,3.185907649493021,46,442.1496068818093,0.0072054969628066266,438e9,3185907649.493021,1000,77.24822818266422
49,80.0633797226677,0.49380108993433436,249,80.55718081260204,0.006129820891858794,80e9,493801089.93433434,1000,41.677081058950286
50,805.5912707974942,9.890872441623026,25,815.4821432391172,0.012128864529560648,805e9,9890872441.623026,1000,184.75346230301867
51,1136.2631264724735,15.735836593157789,18,1151.9989630656312,0.013659592671231678,1136e9,15735836593.15779,1000,1044.8858797790667
52,1582.3124696064365,9.621343862029736,13,1591.9338134684663,0.006043808970340914,1582e9,9621343862.029736,1000,484.2309367733271
53,645.7612926644968,8.094048317924504,31,653.8553409824212,0.012378958785842678,645e9,8094048317.924503,1000,503.4331701958464
54,1248.8562948794543,0.9559775421393303,17,1249.8122724215937,0.0007648969075068056,1248e9,955977542.1393303,1000,464.514387301305
55,1278.40512558924,8.172855001216144,16,1286.5779805904563,0.006352397697235057,1278e9,8172855001.216144,1000,128.75403479354912
56,1716.2597097741823,14.678417567879585,12,1730.9381273420618,0.00848003596201269,1716e9,14678417567.879585,1000,877.5464175129891
57,958.6572951130117,1.6666069415434823,21,960.3239020545552,0.0017354633556218657,958e9,1666606941.5434823,1000,559.8325847115484
58,1008.2851704084259,13.847883361667028,20,1022.1330537700929,0.013548024213276067,1008e9,13847883361.667028,1000,209.43401661269476
59,835.5194713978608,8.502723045653953,24,844.0221944435148,0.010074051490150698,835e9,8502723045.653954,1000,789.373951711221
60,568.650658243346,0.01806789724015823,36,568.6687261405862,3.177227164008222e-05,568e9,18067897.24015823,1000,192.88575286908323
