app_id,Tcomp,Tio,iter,witer,alpha_io,compute_size,io_size,mu,desyn_time
1,9.464036745980414,0.050692838587303765,2103,9.514729584567718,0.0053278275684812216,9e9,50692838.587303765,10,3.850636483860492
2,15.705057599108352,0.22451242573114016,1256,15.929570024839492,0.014094066907082281,15e9,224512425.73114017,10,12.316807977149029
3,22.7489925557326,0.28247948467925915,869,23.03147204041186,0.012264934007848493,22e9,282479484.6792592,10,10.348169701843133
4,4.239211180880562,0.09937391503788874,4610,4.338585095918451,0.022904682711277307,4e9,99373915.03788874,10,1.4282376809314814
5,16.950105957217698,0.3923802138802193,1154,17.342486171097917,0.0226253727412013,16e9,392380213.88021934,10,0.733412236837228
6,6.661028915791867,0.0806328953358055,2967,6.741661811127672,0.01196038863929873,6e9,80632895.3358055,10,2.9950360625356462
7,12.49627804596553,0.1899277452726897,1577,12.68620579123822,0.014971201665659887,12e9,189927745.2726897,10,8.180563251717645
8,12.869916779066736,0.3308522753554309,1516,13.200769054422167,0.025063106095670813,12e9,330852275.3554309,10,3.3965998503851647
9,7.341119260284979,0.0840816538493696,2694,7.425200914134349,0.01132382205164506,7e9,84081653.8493696,10,0.20467066716462742
10,19.28786580725719,0.07981156613033515,1033,19.367677373387526,0.004120864086676781,19e9,79811566.13033515,10,1.732596747530444
11,17.429063696533287,0.251125646412862,1132,17.68018934294615,0.014203787162101484,17e9,251125646.412862,10,11.000708377854318
12,8.454802494824358,0.04098018208979071,2355,8.49578267691415,0.004823591144950942,8e9,40980182.08979071,10,2.235868157369498
13,16.719123952627157,0.016170969075105634,1196,16.735294921702263,0.0009662793007690104,16e9,16170969.075105634,10,4.751966467200912
14,4.64265651943865,0.11286945717709494,4206,4.755525976615745,0.0237343792741551,4e9,112869457.17709494,10,2.3435334439604616
15,19.407867951465157,0.5152718624464903,1004,19.923139813911646,0.025862984813603204,19e9,515271862.4464903,10,1.4355671830296686
16,7.056268929890751,0.1254736899861701,2785,7.181742619876921,0.01747120394413695,7e9,125473689.98617008,10,0.44495240596357616
17,6.227189137643919,0.12633854091392574,3148,6.353527678557844,0.01988478642192721,6e9,126338540.91392574,10,1.6131019751407172
18,9.786894948902173,0.09297120832220823,2025,9.87986615722438,0.009410168806206508,9e9,92971208.32220823,10,5.47104251507805
19,18.43846879332323,0.010668269960889267,1085,18.44913706328412,0.00057825305998297,18e9,10668269.960889267,10,7.23219971491962
20,18.997493867970498,0.13074989726030234,1046,19.1282437652308,0.006835436586079324,18e9,130749897.26030234,10,10.202361903309244
21,51.14013041485636,0.3573238684015582,389,51.497454283257916,0.00693867052992804,51e9,357323868.4015582,100,46.538371819942235
22,83.91008015345713,1.412009082009895,235,85.32208923546702,0.0165491620594652,83e9,1412009082.0098948,100,69.65096983092225
23,137.94464098245547,0.3904032093348138,145,138.33504419179027,0.00282215697125561,137e9,390403209.33481383,100,65.06551965583643
24,220.904058166321,2.861108149899633,90,223.76516631622061,0.01278620885011374,220e9,2861108149.899633,100,77.84478332479918
25,47.206924194687545,1.0179780225321462,415,48.22490221721969,0.021108970173684585,47e9,1017978022.5321462,100,17.724100886133375
26,131.04635321637852,2.782445862702318,150,133.82879907908085,0.02079108444407501,131e9,2782445862.702318,100,102.00480433948401
27,135.06523218405445,2.1938849640426183,146,137.25911714809706,0.015983528159193277,135e9,2193884964.0426183,100,86.98612345955782
28,69.41476836584323,1.4026936719228686,283,70.8174620377661,0.019807172292828412,69e9,1402693671.9228687,100,20.97347836832761
29,101.02260540969807,2.680377239759262,193,103.70298264945734,0.025846674524489077,101e9,2680377239.7592616,100,68.05060235969631
30,206.35407192197943,2.787652808605689,96,209.1417247305851,0.013329013195223114,206e9,2787652808.605689,100,204.98873895413675
31,119.71173125677824,2.7737563325476864,164,122.48548758932593,0.02264559162998676,119e9,2773756332.5476866,100,50.74109068782697
32,147.73190674823599,3.327216008945711,133,151.05912275718168,0.022025919045577984,147e9,3327216008.9457107,100,124.93383524764234
33,47.39200921555839,0.7910983147686371,416,48.18310753032703,0.016418582264971397,47e9,791098314.7686372,100,36.356236672895164
34,114.66356671623878,2.0685521753960163,172,116.7321188916348,0.01772050567604536,114e9,2068552175.3960164,100,58.359626506986245
35,28.513487791871995,0.1439292668948876,698,28.65741705876688,0.005022408914234534,28e9,143929266.8948876,100,10.393070441679567
36,39.365443339694885,0.3962224864983848,503,39.76166582619327,0.009964936786862952,39e9,396222486.49838483,100,30.20525233793124
37,158.3991109415332,3.4234593733621015,124,161.8225703148953,0.02115563587143803,158e9,3423459373.3621016,100,91.64020158785794
38,73.2426537602838,0.4246681605449957,272,73.6673219208288,0.005764674885309282,73e9,424668160.54499567,100,32.43552956647643
39,36.1698881991213,0.04499574804579056,553,36.214883947167095,0.0012424656147299444,36e9,44995748.04579056,100,25.123867092761667
40,98.2557475416774,1.6482078383776855,201,99.90395538005508,0.01649792375194321,98e9,1648207838.3776855,100,83.37348012508009
41,1975.0091792792439,23.018453710676898,11,1998.0276329899207,0.011520588269458142,1975e9,23018453710.6769,1000,1845.611404703495
42,859.7162441610295,21.091040194464675,23,880.8072843554942,0.02394512462495976,859e9,21091040194.464676,1000,303.20541730152013
43,1183.442149599873,2.6967247133042664,17,1186.1388743131772,0.0022735320220119925,1183e9,2696724713.3042665,1000,1093.785203260181
44,1421.7134319680383,4.009283887354428,15,1425.7227158553928,0.0028121063393094447,1421e9,4009283887.3544283,1000,1058.4717065322784
45,132.3460103854282,3.473075718206763,148,135.81908610363496,0.025571337709905356,132e9,3473075718.2067633,1000,119.87926760394416
46,877.941137856565,9.645785686292971,23,887.5869235428579,0.010867426536424425,877e9,9645785686.29297,1000,739.700871071664
47,985.5531609198227,13.18480378636054,21,998.7379647061833,0.013201464500490227,985e9,13184803786.36054,1000,302.92509795389145
48,1414.6544826585962,10.816527011639241,15,1425.4710096702354,0.007588037173861226,1414e9,10816527011.639242,1000,774.3275240498442
49,980.8690887546874,23.558996429240505,20,1004.4280851839279,0.023455135093047953,980e9,23558996429.240505,1000,652.3714658633686
50,711.5887738148199,9.541549198100741,28,721.1303230129206,0.013231379812508291,711e9,9541549198.10074,1000,449.46601552441143
51,1761.2465647942051,33.93874042456527,12,1795.1853052187705,0.018905424596503878,1761e9,33938740424.565266,1000,500.16369703821766
52,271.0053123042715,5.089644274053931,73,276.0949565783254,0.01843439785040061,271e9,5089644274.053931,1000,184.6724163103535
53,2081.911779427706,16.846585156245514,10,2098.7583645839513,0.008026929369539455,2081e9,16846585156.245514,1000,1757.2670976234538
54,1769.3494226025302,5.6779628415116665,12,1775.027385444042,0.0031988029526041728,1769e9,5677962841.511666,1000,1264.858107856796
55,456.7087426642786,1.8694064008706415,44,458.5781490651492,0.004076527424347598,456e9,1869406400.8706415,1000,377.0110380657428
56,392.20936588805426,1.807925388411097,51,394.01729127646536,0.004588441747198734,392e9,1807925388.411097,1000,365.9445812657086
57,447.40666777939,2.3815730527175227,45,449.7882408321075,0.005294876202880753,447e9,2381573052.7175226,1000,224.82580372523597
58,1740.5776722115788,33.567332811425345,12,1774.1450050230042,0.01892028707709272,1740e9,33567332811.425346,1000,1644.39578589393
59,1632.2000260786733,21.15012485474168,13,1653.350150933415,0.01279228410436904,1632e9,21150124854.74168,1000,645.43541995602
60,326.81505899009954,2.7842818499605695,61,329.5993408400601,0.008447473962976333,326e9,2784281849.9605694,1000,88.47010200434313
