app_id,Tcomp,Tio,iter,witer,alpha_io,compute_size,io_size,mu,desyn_time
1,10.621811426876874,0.02122139202562077,1880,10.643032818902496,0.001993923385064701,10e9,21221392.02562077,10,9.777932576661605
2,21.85925918356673,0.4514489005111124,897,22.310708084077845,0.020234628986665434,21e9,451448900.5111124,10,15.08001698157947
3,8.226177556280456,0.1570045325624114,2386,8.383182088842867,0.018728512741166378,8e9,157004532.5624114,10,4.3563593069015045
4,17.36123136035347,0.300528385745066,1133,17.66175974609854,0.0170157668355472,17e9,300528385.74506605,10,1.536318570147905
5,8.206624769071729,0.1135739011698948,2404,8.320198670241624,0.013650383322709354,8e9,113573901.1698948,10,8.320162718362575
6,10.082450879180845,0.02085130152827388,1980,10.10330218070912,0.002063810539893244,10e9,20851301.52827388,10,4.313498446169615
7,5.848371158988194,0.12542872595507698,3348,5.973799884943271,0.020996472659088425,5e9,125428725.95507698,10,5.401930062414351
8,14.583126211466626,0.04558412501947229,1368,14.628710336486098,0.0031160727070915443,14e9,45584125.019472286,10,8.070614971687343
9,13.09990879243497,0.209767381922695,1503,13.309676174357666,0.01576051732399256,13e9,209767381.922695,10,1.3894306156171543
10,10.748996308974625,0.002655280014820493,1861,10.751651588989446,0.00024696484933902735,10e9,2655280.014820493,10,5.155297411733355
11,10.289168238293884,0.2420114285818248,1900,10.531179666875708,0.022980467168653148,10e9,242011428.5818248,10,3.23276062856506
12,4.652087880461756,0.03743612220544627,4265,4.689524002667202,0.007982925811693084,4e9,37436122.20544627,10,2.4737345170637277
13,9.723902450939676,0.019622490877677454,2053,9.743524941817354,0.0020139006155217463,9e9,19622490.877677456,10,1.7629111223224543
14,6.24149164344241,0.044732468978444795,3182,6.2862241124208555,0.0071159519893760365,6e9,44732468.97844479,10,3.626910806290059
15,11.463841456765971,0.2084695323352152,1714,11.672310989101186,0.017860176320684904,11e9,208469532.3352152,10,4.424680092904284
16,1.787027919988055,0.010942146997104872,11124,1.79797006698516,0.006085833795582975,1e9,10942146.997104872,10,0.2913989611764244
17,12.377364174967761,0.1731571316699672,1594,12.550521306637728,0.01379680791254366,12e9,173157131.6699672,10,4.8180131014818555
18,1.1754877131297161,0.002788504344172056,16974,1.178276217473888,0.002366596476121994,1e9,2788504.3441720563,10,0.50374860591595
19,9.16139200763952,0.1626920228714035,2145,9.324084030510924,0.017448579650186678,9e9,162692022.8714035,10,5.277443770177294
20,20.31463847828358,0.22852355504002528,974,20.543162033323604,0.011124069151055285,20e9,228523555.04002526,10,1.329159942406176
21,155.24529543347046,1.2094105626863105,128,156.45470599615678,0.007730100254804858,155e9,1209410562.6863105,100,97.72133921694493
22,43.177344938047945,0.9323057578316739,454,44.109650695879616,0.021136094780246417,43e9,932305757.8316739,100,37.99443534711074
23,251.49241206542885,4.790872860466175,79,256.28328492589503,0.018693661047194193,251e9,4790872860.466175,100,56.01259952596966
24,76.84482477130214,1.9851489164276983,254,78.82997368772985,0.025182666231648044,76e9,1985148916.4276984,100,26.357745027679
25,18.222793790393368,0.19949254232336777,1086,18.422286332716737,0.01082886991985802,18e9,199492542.32336777,100,1.0884964285658112
26,140.0092799320397,2.8444986824771887,141,142.8537786145169,0.0199119596979854,140e9,2844498682.4771886,100,6.847652567629644
27,153.8863107600157,1.876768360876811,129,155.7630791208925,0.012048865311786713,153e9,1876768360.876811,100,106.54467595283056
28,171.03508908366865,1.0524731824385936,117,172.08756226610726,0.006115916621627215,171e9,1052473182.4385935,100,98.67523539190485
29,11.51272761145601,0.19917565236766246,1708,11.711903263823672,0.01700625832377616,11e9,199175652.36766246,100,8.408064218816989
30,92.78118576885902,1.5209834379836908,213,94.3021692068427,0.016128827690565214,92e9,1520983437.9836907,100,66.72465346487365
31,161.9074950364602,1.0698485261959638,123,162.97734356265616,0.00656440031975772,161e9,1069848526.1959639,100,121.63251508807677
32,46.30951508481453,0.5944271682873347,427,46.90394225310186,0.012673287995275576,46e9,594427168.2873347,100,20.756115259375246
33,119.83733540705785,2.160318144713475,164,121.99765355177132,0.017707866354959977,119e9,2160318144.713475,100,108.52509341257293
34,148.0239096212272,2.672252870640152,133,150.69616249186737,0.017732720106820008,148e9,2672252870.640152,100,43.01554590507904
35,15.181068896629647,0.09120570248848715,1310,15.272274599118134,0.005971978954186277,15e9,91205702.48848715,100,5.869576251750906
36,182.28156343208968,4.053167524675222,108,186.3347309567649,0.021752077585663162,182e9,4053167524.6752214,100,101.42146997581816
37,226.35279813660196,2.7586691403548227,88,229.11146727695677,0.012040729227315633,226e9,2758669140.3548226,100,78.92150670647695
38,146.40642709655694,3.6807644126482435,134,150.08719150920518,0.024524174085984507,146e9,3680764412.6482434,100,93.704429737683
39,114.02873740662005,1.8806377870641897,173,115.90937519368424,0.016225070525327647,114e9,1880637787.0641897,100,44.806140288234715
40,184.05266061058737,1.176482784872833,108,185.2291433954602,0.0063514993553744825,184e9,1176482784.872833,100,3.543360736219777
41,346.3115821254908,5.941841950436397,57,352.2534240759272,0.016868088553074364,346e9,5941841950.436398,1000,96.62848852135922
42,112.47064182651314,1.984313539457225,175,114.45495536597036,0.017337069706701395,112e9,1984313539.457225,1000,7.007948357590262
43,232.8431368897649,4.276637777981099,85,237.11977466774601,0.018035770251441728,232e9,4276637777.981099,1000,46.7269914536065
44,212.5553391096827,3.8286514310220414,93,216.38399054070476,0.01769378326675152,212e9,3828651431.0220413,1000,138.07037597088055
45,1241.7843127028711,22.845966966012238,16,1264.6302796688833,0.01806533287499171,1241e9,22845966966.012238,1000,689.2153126031914
46,945.8464119011355,8.976246903093571,21,954.8226588042291,0.009400957151912337,945e9,8976246903.09357,1000,595.3938602488262
47,346.17405285987985,6.982473969759624,57,353.15652682963946,0.019771612413460864,346e9,6982473969.7596245,1000,229.04992529910677
48,1304.1363693435349,7.302371282923229,16,1311.4387406264582,0.0055682137920029535,1304e9,7302371282.923229,1000,1260.6403834181606
49,499.9871619312955,9.41919783692762,40,509.40635976822307,0.01849053836158092,499e9,9419197836.92762,1000,62.5658863122094
50,352.7641879488883,7.7907138404946075,56,360.55490178938294,0.021607566009587992,352e9,7790713840.494608,1000,242.4385913473347
51,1402.0641323169561,21.89360112444276,15,1423.957733441399,0.015375176250162038,1402e9,21893601124.44276,1000,1077.945051248838
52,1830.6257188933328,2.442936434885665,11,1833.0686553282185,0.001332703184785104,1830e9,2442936434.885665,1000,607.2324217743093
53,1857.4433489567577,20.311549511971517,11,1877.7548984687292,0.01081693331144292,1857e9,20311549511.971516,1000,200.12806145338527
54,1389.3288991723152,24.443123437804108,15,1413.7720226101194,0.01728929632705348,1389e9,24443123437.804108,1000,1250.135367853608
55,2137.40211988793,49.548888025476316,10,2186.951007913406,0.022656606319110664,2137e9,49548888025.47632,1000,1876.194843368649
56,2568.846800611068,37.4124329917733,8,2606.259233602841,0.014354839499237033,2568e9,37412432991.7733,1000,2107.0491155467557
57,527.8690841883488,6.074504857484736,38,533.9435890458335,0.011376679076417009,527e9,6074504857.4847355,1000,108.20289116556977
58,387.40397229405534,0.9982898346472252,52,388.40226212870255,0.0025702472204356726,387e9,998289834.6472253,1000,85.2092961680758
59,681.5357549516806,7.776017288085418,30,689.311772239766,0.011280842140297374,681e9,7776017288.085418,1000,248.11159255422015
60,2396.019689450319,27.135356868051677,9,2423.1550463183708,0.011198357657418528,2396e9,27135356868.051678,1000,500.13387500252696
