app_id,start_app,end_app,effective_cpu,effective_io,effective_iter,total_bytes,stretch,utilization,Tcomp,Tio,iterations,priority,group_id
app_1,1.93081,19953.8,7758.8,116.689,1105.75,6.21866e+10,1.02289,0.960433,7,0.0562265,2767,0.1,1
app_10,18.6236,19612.4,7750.21,216.817,336.522,1.85931e+11,1.00805,0.960433,23,0.552856,824,0.1,1
app_11,10.5362,19547,7784.2,174.362,410.266,1.4539e+11,1.00888,0.960433,19,0.353747,1000,0.1,1
app_12,0.615877,17849.7,7479,243.848,2489.31,1.00259e+11,1.05551,0.960433,3,0.0402648,5563,0.1,1
app_13,0.623043,18033.1,7578,213.639,1893.53,1.3037e+11,1.03783,0.960433,4,0.0688694,4277,0.1,1
app_14,2.49696,16272,7502.3,225.913,2499.79,6.54494e+10,1.05712,0.960433,3,0.0261798,5081,0.1,1
app_15,3.66254,20213.8,7841.4,71.6903,784.117,2.32122e+10,1.01721,0.960433,10,0.0296075,1980,0.1,1
app_16,4.75089,18762.5,7718.2,161.706,1104.47,1.00997e+11,1.02312,0.960433,7,0.0913997,2586,0.1,1
app_17,6.83946,20155.4,7751.6,190.903,596.426,1.53843e+11,1.01196,0.960433,13,0.258126,1503,0.1,1
app_18,8.08218,19916.3,7827.4,87.8022,708.57,5.96343e+10,1.01432,0.960433,11,0.0841105,1768,0.1,1
app_19,3.0557,18801.4,7787.57,98.0707,1110.32,2.40445e+10,1.02412,0.960433,7,0.0216422,2611,0.1,1
app_2,0.711562,19907.5,7804.5,117.959,650.686,6.76224e+10,1.01624,0.960433,12,0.103875,1621,0.1,1
app_20,1.21353,20246.1,7595.9,196.85,1896.52,1.03743e+11,1.03901,0.960433,4,0.054717,4808,0.1,1
app_21,17.1167,20633,7548.22,248.832,136.896,1.44232e+11,1.03998,0.960433,55,1.06053,355,0.01,2
app_22,26.5251,20601.3,7613.1,234.942,113.352,1.46614e+11,1.03097,0.960433,67,1.29747,292,0.01,2
app_23,1.37567,20148.4,7774.5,187.343,371.46,1.58335e+11,1.00847,0.960433,21,0.425632,933,0.1,1
app_24,14.8652,20547.5,7825.7,67.7751,81.9023,3.8093e+10,1.01732,0.960433,94,0.464548,212,0.01,2
app_25,1.37234,20240,7844.2,43.7407,49.1569,2.54258e+10,1.01657,0.960433,160,0.518893,125,0.01,2
app_26,33.9713,20405.5,7708.8,270.231,35.201,1.72927e+11,1.01501,0.960433,218,4.94077,90,0.01,2
app_27,32.2308,20495.4,7519.5,177.003,235.989,1.03254e+11,1.04949,0.960433,32,0.437515,605,0.01,2
app_28,42.0173,20149.9,7803.3,112.213,52.2328,7.41326e+10,1.01556,0.960433,151,1.42563,131,0.01,2
app_29,1.04461,18805.9,7272.31,727.69,7276.28,1.96427e+11,1.07113,0.960433,1,0.0269932,17096,1,0
app_3,1.28126,19257.6,7694.3,233.13,768.631,1.81035e+11,1.01583,0.960433,10,0.235416,1853,0.1,1
app_30,87.717,20212.2,7878.4,25.8437,68.7963,1.26462e+10,1.01381,0.960433,115,0.183278,173,0.01,2
app_31,57.7425,20474.9,7685.8,175.747,100.849,1.0767e+11,1.0265,0.960433,76,1.0767,258,0.01,2
app_32,58.6833,20222.8,7700.9,132.717,123.112,7.88977e+10,1.0283,0.960433,63,0.641444,311,0.01,2
app_33,2.64273,20263.9,7559.55,292.89,135.865,1.8737e+11,1.03267,0.960433,56,1.37865,344,0.01,2
app_34,108.897,20546.9,7763.6,152.031,57.8741,9.73175e+10,1.01769,0.960433,134,1.67789,148,0.01,2
app_35,84.3252,20400.5,7611.9,307.916,80.7857,1.92215e+11,1.0251,0.960433,95,2.40269,204,0.01,2
app_36,126.135,20396.1,7726.8,226.514,53.5197,1.38976e+11,1.01706,0.960433,144,2.62219,136,0.01,2
app_37,1.3645,19601.2,7750.3,223.788,298.283,1.95401e+11,1.00683,0.960433,26,0.655707,730,0.1,1
app_38,16.3725,20117.4,7841.6,103.754,413.213,7.89183e+10,1.01003,0.960433,19,0.190624,1038,0.1,1
app_39,186.905,20429.7,7657.9,298.481,30.0618,1.92033e+11,1.01912,0.960433,259,6.40111,76,0.01,2
app_4,6.10525,19944,7758.1,158.234,778.094,1.11937e+11,1.01651,0.960433,10,0.143878,1936,0.1,1
app_40,19.9444,20555,7645.4,213.01,108.064,1.29159e+11,1.029,0.960433,71,1.19592,277,0.01,2
app_41,258.647,21360.1,7682.05,276.595,6.72813,1.18351e+11,1.02559,0.960433,1117,17.4433,18,0.001,3
app_42,444.33,20924.9,7684.2,312.775,6.70485,1.41846e+11,1.02223,0.960433,1180,20.2638,17,0.001,3
app_43,172.527,20353,7810.7,167.882,32.3464,1.05332e+11,1.01061,0.960433,243,3.29162,81,0.01,2
app_44,572.638,21938.7,7786.5,84.5566,4.17263,4.02387e+10,1.02214,0.960433,1942,10.0597,11,0.001,3
app_45,379.097,21741,7693.4,73.7255,7.89288,1.89088e+10,1.0373,0.960433,971,2.3636,21,0.001,3
app_46,864.544,22104.6,7486,461.295,5.19353,1.8335e+11,1.04311,0.960433,1425,36.67,14,0.001,3
app_47,1739.51,22986.2,7661.7,205.458,4.37771,6.07086e+10,1.03595,0.960433,1767,15.1772,12,0.001,3
app_48,1521.37,22664.1,7742.6,217.71,4.8796,7.69815e+10,1.02307,0.960433,1539,15.3963,13,0.001,3
app_49,1000.31,22532.1,7515.2,396.41,5.42689,1.48462e+11,1.04389,0.960433,1324,29.6924,15,0.001,3
app_5,1.74277,20052.9,7602.3,195.605,1897.22,1.00675e+11,1.03856,0.960433,4,0.0530709,4764,0.1,1
app_50,292.434,21314.3,7391.7,484.737,6.40283,2.07973e+11,1.05268,0.960433,1164,29.7105,17,0.001,3
app_51,298.952,21667.6,7486.1,273.547,12.0494,1.22619e+11,1.05143,0.960433,622,10.2182,32,0.001,3
app_52,646.018,21418.8,7798.4,82.9414,9.65956,3.02724e+10,1.02188,0.960433,809,3.3636,25,0.001,3
app_53,110.61,21372.7,7387.5,2.13623,21.4123,1.6355e+08,1.08289,0.960433,346,0.0077881,58,0.001,3
app_54,50.4819,20178.3,7741.4,219.522,28.6564,1.30971e+11,1.01621,0.960433,273,4.51625,72,0.01,2
app_55,52.4833,20361.2,7831.5,49.3442,69.3297,2.70788e+10,1.018,0.960433,112,0.392446,177,0.01,2
app_56,1539.97,23113.5,7888.4,111.6,4.03133,5.47082e+10,1.00716,0.960433,1917,13.6771,11,0.001,3
app_57,166.36,21616.7,7780.3,116.436,6.02933,5.33075e+10,1.02124,0.960433,1296,8.88458,16,0.001,3
app_58,1690.5,23717.1,7654.2,180.515,4.27729,7.50874e+10,1.03502,0.960433,1702,18.7718,12,0.001,3
app_59,670.579,21928.6,7467.8,464.337,5.50048,1.75563e+11,1.04666,0.960433,1312,29.2605,15,0.001,3
app_6,2.03236,17792.4,7659.1,183.183,1532.16,1.19804e+11,1.02842,0.960433,5,0.0781501,3405,0.1,1
app_60,486.358,21675.7,7537.7,257.537,14.6272,1.19983e+11,1.0447,0.960433,519,7.99887,38,0.001,3
app_7,1.22683,19936,7714.3,236.384,515.019,1.93498e+11,1.01166,0.960433,15,0.375723,1282,0.1,1
app_8,9.7743,20088.2,7864.7,55.1452,717.47,2.89849e+09,1.01683,0.960433,11,0.00404253,1797,0.1,1
app_9,3.7184,20063,7776.6,142.784,777.09,8.23521e+10,1.01795,0.960433,10,0.105987,1950,0.1,1
