app_id,start_app,end_app,effective_cpu,effective_io,effective_iter,total_bytes,stretch,utilization,Tcomp,Tio,iterations,priority,group_id
app_1,7.78235,26293.4,5371.27,65.3778,673.46,2.88537e+10,1.48145,0.85235,8,0.0428733,2427,1,1
app_10,0.720075,25682.8,3945.13,226.084,1971.02,1.38285e+11,1.95914,0.85235,2,0.0701597,7368,1,1
app_11,5.33435,24300.6,6118.23,74.3459,338.174,5.78555e+10,1.29532,0.85235,18,0.17117,1079,1,1
app_12,2.40981,25922.3,5217.7,130.45,745.877,8.62039e+10,1.50832,0.85235,7,0.115555,2653,1,1
app_13,1.04454,28593.8,3316.83,273.764,3317.83,6.87581e+10,2.36296,0.85235,1,0.020729,15437,1,1
app_14,4.23144,25097.8,5222.8,74.7428,743.417,3.83815e+10,1.52057,0.85235,7,0.0516574,2550,1,1
app_15,4.13866,25072.2,5853.1,175.022,417.018,1.56578e+11,1.33119,0.85235,14,0.375487,1376,1,1
app_16,0.263867,24000.1,6065.26,42.4787,357.002,2.63641e+10,1.31328,0.85235,17,0.0737826,1118,1,1
app_17,2.35235,26139.7,4874.6,84.5447,976.127,2.94205e+10,1.63131,0.85235,5,0.0301439,3586,1,1
app_18,3.31411,25286.3,5753.42,171.605,441.621,1.47282e+11,1.35577,0.85235,13,0.333972,1486,1,1
app_19,13.7083,24353.3,6040.59,64.8828,377.846,4.23047e+10,1.31516,0.85235,16,0.112214,1202,1,1
app_2,5.88497,24835.5,5739.11,45.9245,479.291,2.2207e+10,1.38857,0.85235,12,0.0463612,1580,1,1
app_20,14.9904,22966.9,6667.28,17.8947,230.06,5.96795e+09,1.19882,0.85235,29,0.0259476,669,1,1
app_21,25.8111,21254,7346.67,144.084,81.7755,1.39229e+11,1.06868,0.85235,90,1.71888,217,1,1
app_22,31.9797,20963.2,7543.1,60.6068,51.6554,5.80159e+10,1.05248,0.85235,146,1.13757,136,1,1
app_23,186.1,20811.6,7565.4,145.903,35.4685,1.44203e+11,1.03767,0.85235,213,4.00565,92,1,1
app_24,57.6635,20621.6,7677.3,57.3808,42.7768,5.49533e+10,1.03463,0.85235,181,1.30841,110,1,1
app_25,196.261,20714,7721.7,102.892,30.8202,1.01281e+11,1.02263,0.85235,251,3.26712,79,1,1
app_26,32.4973,21334.5,7358.2,97.4625,77.1866,9.31281e+10,1.07363,0.85235,95,1.20946,207,1,1
app_27,1.85003,24764.2,5980.59,173.379,351.224,1.54211e+11,1.30404,0.85235,17,0.439346,1143,1,1
app_28,25.6334,22344.4,6874.84,141.16,147.215,1.32515e+11,1.14166,0.85235,47,0.90146,415,1,1
app_29,2.01087,25746.1,5077.1,110.512,845.599,7.97286e+10,1.55134,0.85235,6,0.0942418,3007,1,1
app_3,3.16975,26177.8,4812.7,183.032,961.146,1.30999e+11,1.61822,0.85235,5,0.136315,3544,1,1
app_30,128.001,20581.7,7605.7,157.031,34.5361,1.55147e+11,1.03082,0.85235,222,4.43278,89,1,1
app_31,24.8673,23417,6630.22,73.6539,207.113,6.24543e+10,1.19534,0.85235,32,0.301712,617,1,1
app_32,48.6901,21251.9,7503.11,79.5144,66.5017,7.60027e+10,1.05553,0.85235,113,1.15156,175,1,1
app_33,64.4389,21438.3,7432.7,84.1382,64.0085,8.08049e+10,1.06475,0.85235,116,1.26258,171,1,1
app_34,57.9754,21370.2,7364.2,87.3713,75.4944,8.30386e+10,1.07422,0.85235,97,1.10718,202,1,1
app_35,129.419,20911.5,7694.5,27.4673,38.9412,2.55493e+10,1.03626,0.85235,196,0.655112,102,1,1
app_36,19.2895,23370.2,6583.19,165.344,227.129,1.55735e+11,1.18713,0.85235,29,0.686055,673,1,1
app_37,45.1896,20923.7,7570.5,152.063,37.8167,1.50098e+11,1.03619,0.85235,199,4.05672,99,1,1
app_38,63.2545,21577.9,7267.3,84.129,85.1162,7.89908e+10,1.08898,0.85235,85,0.918498,232,1,1
app_39,4.82912,21310.9,7468.3,35.1461,62.71,3.15193e+10,1.06669,0.85235,119,0.500307,168,1,1
app_4,7.31683,26488.3,5325.2,112.282,667.393,7.31187e+10,1.48194,0.85235,8,0.109623,2426,1,1
app_40,23.7883,22071.2,7069.79,114.705,115.007,1.09186e+11,1.11437,0.85235,61,0.949443,322,1,1
app_41,81.2185,20816.1,7652,105.175,31.481,1.03589e+11,1.03151,0.85235,246,3.34157,81,1,1
app_42,21.4642,21303.9,7741.3,224.68,4.56721,2.24409e+11,1.0043,0.85235,1739,44.8817,12,1,1
app_43,700.084,22086.2,7871.6,87.6433,5.96797,8.72906e+10,1.00517,0.85235,1301,14.5484,16,1,1
app_44,261.164,21365.1,7857.3,137.643,5.85999,1.37447e+11,1.00066,0.85235,1291,22.9078,16,1,1
app_45,1157.81,22365.4,7921.8,47.4494,5.99414,4.72561e+10,1.00388,0.85235,1318,7.87602,16,1,1
app_46,191.853,20348,7756.9,192.186,11.7958,1.91581e+11,1.00648,0.85235,654,15.965,30,1,1
app_47,50.3923,20670.5,7520.9,174.746,35.1174,1.73162e+11,1.03976,0.85235,215,4.94749,91,1,1
app_48,654.04,21340.8,7875.8,35.5676,8.29003,3.53649e+10,1.01123,0.85235,985,4.42061,21,1,1
app_49,257.471,20941.8,7754,48.4969,21.5568,4.72127e+10,1.02548,0.85235,355,2.14603,56,1,1
app_5,1.95861,24496.9,5403.4,176.849,600.79,1.44477e+11,1.44199,0.85235,9,0.240395,1971,1,1
app_50,1569.12,23194.4,7902.5,92.0676,4.22022,9.19857e+10,1.00069,0.85235,1945,22.9964,11,1,1
app_51,254.091,20736.3,7963.8,7.15807,4.17189,7.03667e+09,1.00366,0.85235,1855,1.75917,11,1,1
app_52,118.815,20474.7,7875,60.1675,10.6527,5.93827e+10,1.00827,0.85235,741,5.39843,27,1,1
app_53,1191.19,23529.5,7956.1,37.5127,3.5804,3.73743e+10,1.00082,0.85235,2187,12.4581,10,1,1
app_54,54.2205,21243.3,7824.8,101.165,8.97388,1.00576e+11,1.00942,0.85235,858,11.1752,24,1,1
app_55,257.751,21471.7,7832.7,61.3443,5.88579,6.0973e+10,1.01347,0.85235,1293,10.1622,16,1,1
app_56,209.971,20939.6,7654.9,209.181,18.1791,2.08308e+11,1.0174,0.85235,429,11.5727,46,1,1
app_57,540.686,21184.3,7802.7,160.851,13.898,1.59941e+11,1.00469,0.85235,573,12.3032,35,1,1
app_58,158.233,20435.6,7870.7,61.826,15.5968,6.1108e+10,1.0086,0.85235,503,3.81925,40,1,1
app_59,73.2973,20272.5,7729.8,195.384,9.08286,1.94927e+11,1.0095,0.85235,871,21.6585,23,1,1
app_6,9.99522,25067.7,5905.14,152.912,393.926,1.31416e+11,1.32526,0.85235,15,0.334393,1302,1,1
app_60,127.918,21566.4,7776.8,184.104,6.63851,1.83757e+11,1.00495,0.85235,1145,26.251,18,1,1
app_7,3.76856,24096.2,6073.35,95.3166,336.166,7.70697e+10,1.30072,0.85235,18,0.229374,1060,1,1
app_8,9.60242,24927.3,6055.91,37.2347,378.334,1.72026e+10,1.31728,0.85235,16,0.0455094,1237,1,1
app_9,12.4779,24734.2,5891.13,39.8599,421.738,1.815e+10,1.3538,0.85235,14,0.0431116,1373,1,1
