app_id,start_app,end_app,effective_cpu,effective_io,effective_iter,total_bytes,stretch,utilization,Tcomp,Tio,iterations,priority,group_id
app_1,0.821315,26421.1,3218.68,280.682,3219.01,9.94941e+10,2.41097,0.849439,1,0.0309084,13032,1,1
app_10,6.73613,25487.6,5368.3,139.78,669.64,1.061e+11,1.46135,0.849439,8,0.158595,2299,1,1
app_11,8.66557,25880.9,5418.35,166.736,602.425,1.33423e+11,1.44098,0.849439,9,0.221632,2108,1,1
app_12,6.5684,25297.4,5980.8,83.2133,425.579,6.01691e+10,1.32429,0.849439,14,0.141574,1411,1,1
app_13,0.875391,24358.1,6077,78.7311,356.238,6.23729e+10,1.30306,0.849439,17,0.175205,1130,1,1
app_14,8.60138,24522.8,5976.8,43.8109,427.121,2.12385e+10,1.33377,0.849439,14,0.049739,1366,1,1
app_15,0.239825,25061.1,5214.58,169.1,745.6,1.37883e+11,1.49464,0.849439,7,0.185077,2507,1,1
app_16,0.834136,25174,5798.46,131.945,484.085,1.04816e+11,1.35518,0.849439,12,0.216563,1597,1,1
app_17,10.4613,24091.7,5942.25,75.2199,398.002,5.35572e+10,1.33426,0.849439,15,0.134566,1243,1,1
app_18,1.74643,24046.8,6291.9,112.138,285.615,9.78555e+10,1.252,0.849439,22,0.343353,885,1,1
app_19,4.37397,24803.7,5207.16,151.835,746.632,1.13472e+11,1.50358,0.849439,7,0.152107,2476,1,1
app_2,2.20215,25199.8,3929.55,138.152,1967.22,2.12308e+10,2.02491,0.849439,2,0.0107935,7041,1,1
app_20,1.55986,24810.5,3935.59,123.33,1966.28,6.82787e+09,2.02921,0.849439,2,0.00347298,6886,1,1
app_21,30.4624,20772,7587.5,156.997,37.4902,1.55398e+11,1.0332,0.849439,203,4.19994,97,1,1
app_22,191.618,20572,7850,29.0752,33.5205,2.7511e+10,1.01555,0.849439,235,0.833667,85,1,1
app_23,45.9067,21147.9,7385.5,109.117,68.5927,1.05376e+11,1.06797,0.849439,108,1.54965,182,1,1
app_24,85.6744,21431.2,7373.7,130.537,80.8887,1.26296e+11,1.06667,0.849439,91,1.55921,216,1,1
app_25,14.8506,21977.6,7131.5,110.057,114.241,1.03634e+11,1.10572,0.849439,63,0.90907,312,1,1
app_26,109.903,21501.9,7399.1,109.944,59.9578,1.0679e+11,1.06583,0.849439,122,1.77983,162,1,1
app_27,27.6705,22285.9,7000.2,60.0145,145.018,5.26228e+10,1.1343,0.849439,48,0.362916,408,1,1
app_28,47.4499,22280.6,6919.7,193.48,146.574,1.85859e+11,1.12588,0.849439,47,1.26434,410,1,1
app_29,6.97004,23419.6,6501.8,52.2503,260.673,3.83396e+10,1.22322,0.849439,25,0.146895,774,1,1
app_3,4.7949,25198.4,4663.48,84.4417,1172.44,1.54851e+10,1.70978,0.849439,4,0.0132126,4063,1,1
app_30,99.8907,20963.7,7508.7,221.5,47.175,2.19032e+11,1.03523,0.849439,158,4.66026,123,1,1
app_31,57.7764,21283.2,7490.1,76.1059,64.4284,7.20846e+10,1.0579,0.849439,116,1.10899,170,1,1
app_32,130.553,20855.8,7629.5,35.1513,48.4641,3.28726e+10,1.04406,0.849439,157,0.67087,127,1,1
app_33,21.98,21791.1,7154.5,145.797,104.508,1.40366e+11,1.09666,0.849439,69,1.33682,285,1,1
app_34,21.7641,21511.6,7325.7,154.604,91.5667,1.50158e+11,1.07011,0.849439,80,1.65009,245,1,1
app_35,13.0317,22452.4,7011.2,23.7804,137.802,1.64379e+10,1.13836,0.849439,51,0.119115,390,1,1
app_36,71.3225,21433.4,7304.2,188.809,84.782,1.85021e+11,1.0682,0.849439,87,2.17672,224,1,1
app_37,8.69053,21459.7,7332.27,105.312,87.8731,1.0107e+11,1.07623,0.849439,83,1.15803,236,1,1
app_38,128.569,21027.8,7625,37.1733,52.891,3.44614e+10,1.04446,0.849439,144,0.650215,139,1,1
app_39,26.9585,20767.7,7444.6,225.462,43.2495,2.23276e+11,1.04331,0.849439,172,5.19246,113,1,1
app_4,7.84645,24773,5447.4,176.331,605.57,1.45327e+11,1.43043,0.849439,9,0.239813,1991,1,1
app_40,29.2937,21225.2,7450.5,86.0454,72.896,8.20532e+10,1.06206,0.849439,102,1.12402,193,1,1
app_41,522.045,21559.8,7758.8,200.014,8.24249,1.99631e+11,1.00522,0.849439,927,24.9539,22,1,1
app_42,460.275,20801.8,7815.3,29.6326,13.4311,2.89041e+10,1.01986,0.849439,577,2.06458,35,1,1
app_43,183.276,20403.1,7863.4,31.8838,14.0341,3.08459e+10,1.0134,0.849439,553,2.20328,36,1,1
app_44,1123.86,22237.6,7833.9,135.495,6.2074,1.35176e+11,1.00388,0.849439,1275,22.5293,16,1,1
app_45,283.34,20890.3,7958.6,8.37074,9.2956,7.9886e+09,1.00419,0.849439,854,0.887622,24,1,1
app_46,431.56,20884.7,7898.1,63.8002,9.01647,6.31598e+10,1.00487,0.849439,871,7.01775,23,1,1
app_47,1634.88,21324.8,7830.1,142.799,4.39995,1.42608e+11,1.00342,0.849439,1791,35.652,11,1,1
app_48,949.585,22339.1,7807.5,134.324,6.72656,1.33929e+11,1.00738,0.849439,1157,19.1327,18,1,1
app_49,732.331,21337.9,7900.6,21.3579,6.92832,2.10341e+10,1.00989,0.849439,1124,3.00487,18,1,1
app_5,2.6006,23529,6292.9,131.816,274.85,1.18171e+11,1.24784,0.849439,23,0.429712,825,1,1
app_50,925.329,21499.5,7869.4,96.5451,6.32936,9.63238e+10,1.0043,0.849439,1279,13.7605,16,1,1
app_51,584.071,21280.5,7828.9,126.064,7.76543,1.25736e+11,1.0057,0.849439,1024,17.4206,20,1,1
app_52,297.318,20827.2,7914.5,32.0216,12.5327,3.13581e+10,1.00681,0.849439,639,2.61317,32,1,1
app_53,12.5974,22864.9,6720.12,152.166,197.164,1.40687e+11,1.16604,0.849439,34,0.714145,568,1,1
app_54,494.066,21053.2,7861.9,97.53,7.21318,9.70547e+10,1.00516,0.849439,1142,13.865,18,1,1
app_55,1246.21,22918.3,7857.8,102.917,5.42326,1.02769e+11,1.00495,0.849439,1397,20.5537,15,1,1
app_56,477.486,20745.9,7799.6,184.738,6.72776,1.8445e+11,1.002,0.849439,1197,26.3501,17,1,1
app_57,536.011,22278.7,7777.8,200.466,5.24268,2.00198e+11,1.00276,0.849439,1472,40.0396,14,1,1
app_58,920.32,21714.5,7914.5,42.4312,6.23232,4.203e+10,1.00546,0.849439,1286,6.00428,16,1,1
app_59,310.47,20843.5,7933.4,54.7825,4.80908,5.46093e+10,1.0015,0.849439,1679,10.9219,12,1,1
app_6,29.2506,23008.4,6612.1,87.2219,228.153,7.51581e+10,1.1963,0.849439,29,0.329641,662,1,1
app_60,81.5158,21429.5,7426.8,116.192,80.2131,1.1239e+11,1.06112,0.849439,92,1.38753,214,1,1
app_7,6.36554,25343.1,5280.8,46.2533,753.11,3.65734e+09,1.51387,0.849439,7,0.00485703,2579,1,1
app_8,4.23862,24671.1,5849.4,170.069,421.219,1.49477e+11,1.33358,0.849439,14,0.355053,1350,1,1
app_9,0.156399,30759,3228.99,232.494,3229.03,3.2238e+10,2.45306,0.849439,1,0.00998391,17063,1,1
