app_id,start_app,end_app,effective_cpu,effective_io,effective_iter,total_bytes,stretch,utilization,Tcomp,Tio,iterations,priority,group_id
app_1,12.0701,19520.1,7931.4,68.6,660.368,6.61095e+09,1.00781,0.948784,12,0.0100014,1610,1,1
app_10,5.38487,19787.7,7608.5,391.5,693.739,1.0077e+11,1.03771,0.948784,11,0.145201,1713,1.00001,1.00001
app_11,1.69941,17078.7,7741.4,258.6,2585.89,4.6279e+09,1.03279,0.948784,3,0.0017896,5514,1.00001,1.00001
app_12,1.18237,18745.5,7448.2,551.8,3720.09,9.65823e+10,1.06034,0.948784,2,0.025963,8713,1.00001,1.00001
app_13,2.91658,19827.5,7791.5,208.5,457.126,5.0492e+10,1.02015,0.948784,17,0.110486,1135,1.00001,1.00001
app_14,1.90308,17961.6,7815.4,184.6,1301.53,3.24583e+10,1.01939,0.948784,6,0.0249488,2921,1.00001,1.00001
app_15,0.250531,20078.4,7172.97,827.032,2388.66,2.15879e+11,1.08271,0.948784,3,0.0903957,6002,1.00002,1.00002
app_16,7.14618,18697.1,7879,121,873.051,2.10437e+10,1.01265,0.948784,9,0.024105,2042,1.00002,1.00002
app_17,6.24993,20521.6,7367.9,632.1,460.547,1.76642e+11,1.06037,0.948784,16,0.383172,1180,1.00002,1.00002
app_18,0.986454,19376.2,7695.9,304.1,640.557,7.29423e+10,1.02975,0.948784,12,0.113795,1552,1.00002,1.00002
app_19,1.32378,19613.3,7301.1,698.9,663.904,1.94116e+11,1.06735,0.948784,11,0.292343,1628,1.00002,1.00002
app_2,5.57735,19550.6,7603.1,396.9,505.398,1.05887e+11,1.03775,0.948784,15,0.209677,1236,1,1
app_20,5.71682,19277,7817,183,1300.25,3.24862e+10,1.01917,0.948784,6,0.0249894,3134,1.00002,1.00002
app_21,88.289,21092.3,7282.88,717.12,64.7618,1.89739e+11,1.07058,0.948784,112,2.93965,173,1.00002,1.00002
app_22,8.77616,20996.5,7487.2,512.8,49.3282,1.51169e+11,1.04734,0.948784,150,3.08509,130,1.00002,1.00002
app_23,146.573,21414.7,7361.1,638.9,39.0046,1.9622e+11,1.05858,0.948784,186,5.03127,105,1.00002,1.00002
app_24,20.4544,20567,7630.3,369.7,104.701,1.05455e+11,1.03416,0.948784,73,1.00433,269,1.00002,1.00002
app_25,1.55481,12810.5,6190.91,619.6,6195.63,1.87058e+10,1.28832,0.948784,1,0.00301902,11651,1.00003,1.00003
app_26,29.7065,21126,7440.6,559.4,89.759,1.71214e+11,1.051,0.948784,83,1.90238,235,1.00003,1.00003
app_27,115.908,20909.2,7600.2,399.8,53.5793,1.00716e+11,1.03884,0.948784,141,1.86511,140,1.00003,1.00003
app_28,37.8651,21081.5,7395.91,604.092,53.4909,1.70264e+11,1.05734,0.948784,138,3.18795,142,1.00003,1.00003
app_29,16.0246,20757.1,7557.6,442.4,54.7212,1.40049e+11,1.03928,0.948784,139,2.54634,141,1.00003,1.00003
app_3,4.09071,19492.2,7648.7,351.3,957.769,8.65757e+10,1.03422,0.948784,8,0.0904657,2330,1,1
app_30,83.4023,20672.3,7765.1,234.9,38.6155,6.8828e+10,1.0212,0.948784,199,1.81126,100,1.00003,1.00003
app_31,34.2639,20961.8,7460.8,539.196,113.109,1.51369e+11,1.05095,0.948784,66,1.32994,296,1.00003,1.00003
app_32,46.4771,20740.1,7579,421,59.081,1.2244e+11,1.03877,0.948784,128,2.04066,154,1.00003,1.00003
app_33,82.2297,20560.3,7723.9,276.1,93.3091,7.53101e+10,1.02574,0.948784,83,0.809786,238,1.00003,1.00003
app_34,55.7177,21069.8,7469.6,530.4,70.0059,1.6657e+11,1.04765,0.948784,107,2.37956,183,1.00003,1.00003
app_35,25.3158,20089.7,7818.9,181.1,212.094,4.78524e+10,1.01694,0.948784,37,0.225719,533,1.00004,1.00004
app_36,22.4142,20326.4,7774.1,225.9,155.485,5.89774e+10,1.02131,0.948784,50,0.380499,395,1.00004,1.00004
app_37,111.305,20885.9,7663.7,336.3,43.9274,1.00536e+11,1.03037,0.948784,172,2.2849,115,1.00004,1.00004
app_38,3.85401,19406.1,7702.1,297.9,642.071,7.28316e+10,1.02895,0.948784,12,0.113445,1556,1.00004,1.00004
app_39,32.9128,21244.3,7275.9,724.1,98.322,2.05311e+11,1.06935,0.948784,74,2.09501,262,1.00004,1.00004
app_4,5.70556,19453.6,7597.8,402.2,542.527,1.0607e+11,1.03844,0.948784,14,0.19534,1323,1,1
app_40,21.9664,21030.1,7584.9,415.1,36.3643,1.17558e+11,1.03863,0.948784,209,3.17724,95,1.00004,1.00004
app_41,69.1105,19988.8,7883.2,116.8,14.9776,3.5502e+10,1.01027,0.948784,538,2.3668,37,1.00004,1.00004
app_42,361.809,21091.3,7967,33,7.82974,1.37618e+10,1.00241,0.948784,976,1.72023,21,1.00004,1.00004
app_43,727.885,22442.4,7334.8,665.2,3.58959,1.84076e+11,1.06399,0.948784,2059,46.019,10,1.00004,1.00004
app_44,723.848,21265.4,7877.2,122.8,7.57795,5.12798e+10,1.00902,0.948784,1007,7.32569,20,1.00004,1.00004
app_45,1437.28,22501.3,7954.9,45.1,4.2219,1.04426e+10,1.00435,0.948784,1889,2.61066,11,1.00004,1.00004
app_46,437.738,22581.1,7712.9,287.1,6.36812,9.36928e+10,1.02477,0.948784,1228,15.6155,17,1.00005,1.00005
app_47,1136.41,22960.9,7513.3,486.7,3.33402,1.36046e+11,1.04584,0.948784,2300,45.3487,9,1.00005,1.00005
app_48,678.578,21412.9,7816.1,183.9,11.4057,5.65503e+10,1.01618,0.948784,683,5.14093,30,1.00005,1.00005
app_49,2.46992,20635.9,7988.5,11.5,7.72673,3.64472e+09,1.00098,0.948784,1014,0.45559,20,1.00005,1.00005
app_5,5.9498,19516.3,7214.2,785.8,1026.13,2.07774e+11,1.07788,0.948784,7,0.202312,2505,1.00001,1.00001
app_50,459.64,21974.5,7908.4,91.6,5.01111,4.3514e+10,1.00605,0.948784,1580,8.7028,13,1.00005,1.00005
app_51,1137.72,22210.3,7778.5,221.5,6.74054,6.84382e+10,1.01951,0.948784,1137,11.4064,18,1.00005,1.00005
app_52,290.304,21242.7,7545.2,454.8,15.0287,1.51289e+11,1.03943,0.948784,500,10.0859,40,1.00005,1.00005
app_53,717.011,22088.4,7454.2,545.8,4.47426,1.56136e+11,1.0512,0.948784,1680,39.0339,12,1.00005,1.00005
app_54,236.11,22262.4,7552.4,447.6,9.26041,1.67337e+11,1.0363,0.948784,809,18.593,25,1.00005,1.00005
app_55,223.961,22695.5,7289.4,710.6,5.53579,1.54941e+11,1.07464,0.948784,1300,30.9881,16,1.00005,1.00005
app_56,478.398,21350.1,7450.4,549.6,15.6821,1.3697e+11,1.05438,0.948784,480,8.5606,41,1.00006,1.00006
app_57,1319.5,23464.6,7720.5,279.5,4.11029,8.61891e+10,1.02476,0.948784,1736,21.5473,12,1.00006,1.00006
app_58,418.857,21562.7,7549.3,450.7,9.5098,1.38199e+11,1.04065,0.948784,796,13.8199,25,1.00006,1.00006
app_59,1049.41,22510.7,7405.1,594.9,5.9563,1.62271e+11,1.05717,0.948784,1251,27.0452,16,1.00006,1.00006
app_6,4.83593,20620.4,7432.8,567.2,925.967,1.47764e+11,1.05533,0.948784,8,0.159572,2393,1.00001,1.00001
app_60,588.268,21666.4,7953.8,46.2,5.36328,1.41667e+10,1.00402,0.948784,1491,2.36112,14,1.00006,1.00006
app_7,5.31209,20142.3,7572.1,427.9,756.889,1.10473e+11,1.04132,0.948784,10,0.145936,1905,1.00001,1.00001
app_8,0.259121,17875.7,7652.7,347.3,2551.36,5.98323e+10,1.03727,0.948784,3,0.0234453,5702,1.00001,1.00001
app_9,9.60985,20004.6,7704.7,295.3,513.76,7.53327e+10,1.02827,0.948784,15,0.146562,1283,1.00001,1.00001
