app_id,start_app,end_app,effective_cpu,effective_io,effective_iter,total_bytes,stretch,utilization,Tcomp,Tio,iterations,priority,group_id
app_1,1.67494,20042.6,7720.1,248.992,592.155,2.02542e+11,1.00976,0.956131,13,0.342132,1486,0.1,1
app_10,9.22872,18943.4,7798.8,154.584,778.513,9.99887e+10,1.01281,0.956131,10,0.128355,1847,0.1,1
app_11,8.451,20143.7,7823.1,135.957,712.792,7.95857e+10,1.01231,0.956131,11,0.111778,1793,0.1,1
app_12,7.67282,19913.1,7859.4,112.383,438.356,8.28864e+10,1.00727,0.956131,18,0.188807,1087,0.1,1
app_13,10.5057,18987.5,7878.5,79.526,716.731,4.45484e+10,1.00971,0.956131,11,0.0621317,1699,0.1,1
app_14,3.50206,18800.2,7804,151.885,782.767,9.06503e+10,1.01334,0.956131,10,0.115773,1837,0.1,1
app_15,10.5359,19887.9,7891.4,71.4256,716.801,3.04895e+10,1.00986,0.956131,11,0.0425237,1783,0.1,1
app_16,7.18049,20176.8,7824.2,115.637,977.304,7.3398e+10,1.01297,0.956131,8,0.0751259,2470,0.1,1
app_17,1.49579,14852.4,7612.9,377.673,3805.22,1.45628e+11,1.03112,0.956131,2,0.0382727,7059,1,0
app_18,8.05999,19558.5,7901.9,65.3094,564.725,4.05781e+10,1.00724,0.956131,14,0.0718196,1380,0.1,1
app_19,4.75271,19273,7823.4,148.264,459.314,1.15269e+11,1.00773,0.956131,17,0.25113,1107,0.1,1
app_2,6.9136,19504,7752.8,218.741,595.145,1.75751e+11,1.00901,0.956131,13,0.29538,1452,0.1,1
app_20,16.9316,19710.2,7860.6,106.719,460.811,8.18706e+10,1.00724,0.956131,17,0.177593,1139,0.1,1
app_21,47.4043,20376.6,7738.86,158.303,83.2008,1.03865e+11,1.02005,0.956131,92,1.23722,214,0.01,2
app_22,13.4469,20573.2,7603.6,202.631,130.477,1.32477e+11,1.03412,0.956131,58,1.01128,336,0.01,2
app_23,20.1801,20408.9,7682.8,254.799,50.5097,1.77925e+11,1.01772,0.956131,153,3.5585,128,0.01,2
app_24,97.8414,20342.5,7886.9,49.1285,57.856,3.06115e+10,1.01042,0.956131,137,0.527784,145,0.01,2
app_25,160.589,20513.2,7885.3,69.5516,35.2545,4.72354e+10,1.0085,0.956131,222,1.34958,90,0.01,2
app_26,58.2236,20472.1,7747.7,169.179,71.5511,1.1227e+11,1.01782,0.956131,108,1.5593,182,0.01,2
app_27,137.48,20308.5,7654.8,301.803,44.3389,2.05377e+11,1.01779,0.956131,173,4.56394,113,0.01,2
app_28,21.7335,20668.1,7716.2,203.822,48.2587,1.4017e+11,1.01828,0.956131,157,2.86062,126,0.01,2
app_29,47.3365,20536.5,7701.6,198.616,84.4922,1.33605e+11,1.02103,0.956131,91,1.57182,216,0.01,2
app_3,9.36129,19489.8,7731.7,228.916,773.268,1.64066e+11,1.0132,0.956131,10,0.212246,1883,0.1,1
app_30,46.7805,20300,7570.9,239.317,107.308,1.62667e+11,1.03445,0.956131,71,1.50617,273,0.01,2
app_31,38.621,20465.4,7560.3,255.519,154.275,1.71447e+11,1.03469,0.956131,49,1.11329,394,0.01,2
app_32,16.9239,20321.1,7839.8,77.1758,87.9797,4.84908e+10,1.01416,0.956131,89,0.551032,223,0.01,2
app_33,189.397,20447.5,7856.2,101.988,35.9907,6.73452e+10,1.00965,0.956131,219,1.8707,91,0.01,2
app_34,39.6843,20311.6,7732.26,190.743,76.7595,1.27764e+11,1.01781,0.956131,101,1.65927,194,0.01,2
app_35,38.6651,20413.7,7807,23.6541,127.503,1.1327e+10,1.02324,0.956131,61,0.0884921,324,0.01,2
app_36,103.334,20494.7,7861.2,26.0406,49.1045,1.62387e+10,1.01556,0.956131,157,0.331401,127,0.01,2
app_37,3.91892,20554.1,7642.5,277.305,61.1312,1.89791e+11,1.02141,0.956131,124,3.11132,158,0.01,2
app_38,44.5054,20430,7743.2,91.6952,143.048,5.48529e+10,1.0259,0.956131,54,0.383587,363,0.01,2
app_39,131.315,20274.2,7899.7,61.4762,44.7646,4.01044e+10,1.00758,0.956131,176,0.891208,113,0.01,2
app_4,3.63185,19062.8,7826,109.973,1123.13,4.17918e+10,1.0168,0.956131,7,0.0371813,2669,0.1,1
app_40,115.835,20602.9,7686.1,282.689,34.3997,1.97693e+11,1.01474,0.956131,223,5.81451,88,0.01,2
app_41,486.05,21787.8,7954.2,24.2787,6.17917,7.86073e+09,1.00477,0.956131,1311,1.31012,16,0.001,3
app_42,373.575,21307.9,7604,385.71,7.3238,1.70886e+11,1.02895,0.956131,1036,24.4123,19,0.001,3
app_43,275.314,21637.9,7233.6,214.065,16.0315,7.89661e+10,1.09401,0.956131,459,4.93538,44,0.001,3
app_44,278.307,21662.9,7440.8,104.427,21.8082,3.98267e+10,1.06943,0.956131,342,1.8103,59,0.001,3
app_45,477.118,21995.2,7213.6,382.526,13.9944,1.42201e+11,1.08758,0.956131,511,10.1572,39,0.001,3
app_46,55.13,20534.9,7681.7,218.365,75.6469,1.46534e+11,1.02194,0.956131,102,1.92807,193,0.01,2
app_47,278.145,21587.6,7213.5,270.62,22.2695,1.14566e+11,1.09169,0.956131,320,4.98112,62,0.001,3
app_48,1001.29,22414.4,7778.5,136.291,6.79776,5.75012e+10,1.02093,0.956131,1150,9.58353,18,0.001,3
app_49,547.131,21884.1,7589,269.716,6.85353,1.13304e+11,1.03865,0.956131,1148,16.1864,18,0.001,3
app_5,2.68094,19775.2,7805.8,156.203,780.311,1.01193e+11,1.01176,0.956131,10,0.129568,1929,0.1,1
app_50,8.23497,21167.1,7630.1,273.144,8.4462,1.25013e+11,1.03158,0.956131,914,15.6266,22,0.001,3
app_51,119.297,22027.7,7599.4,167.475,7.82672,6.17277e+10,1.04423,0.956131,942,7.71596,22,0.001,3
app_52,630.398,20881.1,7752.4,138.826,6.26437,4.86206e+10,1.02551,0.956131,1279,8.10343,16,0.001,3
app_53,1718.21,22864,7357.1,399.069,4.15716,1.73256e+11,1.06237,0.956131,1819,43.314,11,0.001,3
app_54,431.751,20841.1,7588.6,254.26,7.80787,1.16528e+11,1.03827,0.956131,988,14.566,20,0.001,3
app_55,191.639,21867.9,7621.1,300.064,4.42929,1.26436e+11,1.03259,0.956131,1713,31.6089,12,0.001,3
app_56,144.424,20405.3,7772.4,171.383,32.1433,1.15955e+11,1.01415,0.956131,238,3.62359,83,0.01,2
app_57,1455.12,23000,7722.5,199.707,4.04822,7.70509e+10,1.0257,0.956131,1936,19.2627,11,0.001,3
app_58,683.075,21904.4,7521.23,206.658,9.44306,8.52405e+10,1.05174,0.956131,773,9.26234,26,0.001,3
app_59,774.514,21895.1,7444.5,260.191,8.85603,9.82479e+10,1.06062,0.956131,856,10.9164,24,0.001,3
app_6,13.5904,19042.7,7838,137.28,461.445,9.97871e+10,1.00784,0.956131,17,0.216458,1100,0.1,1
app_60,618.894,22054.3,7506.4,244.539,6.25455,1.19611e+11,1.04904,0.956131,1229,19.9352,17,0.001,3
app_7,1.43244,11073.9,4603.09,461.207,4600.65,2.39395e+11,1.65204,0.956131,1,0.0520312,10043,1,0
app_8,3.66118,18589.8,7814.2,119.253,1116.38,6.52088e+10,1.0153,0.956131,7,0.0584308,2594,0.1,1
app_9,0.33658,19563.9,7731.6,237.459,516.278,1.90367e+11,1.00985,0.956131,15,0.368929,1263,0.1,1
