app_id,start_app,end_app,effective_cpu,effective_io,effective_iter,total_bytes,stretch,utilization,Tcomp,Tio,iterations,priority,group_id
app_1,3.64546,20319.9,7334.9,665.1,918.108,1.61602e+11,1.06716,0.945179,8,0.176037,2347,1,1
app_10,7.48376,19061.1,7880.8,119.2,986.551,1.42343e+10,1.0133,0.945179,8,0.0144364,2348,1.00001,1.00001
app_11,7.91642,19964.4,7739.53,260.474,968.306,5.20341e+10,1.02675,0.945179,8,0.0537221,2419,1.00001,1.00001
app_12,0.923717,20147.9,7251.48,748.525,605.426,1.82473e+11,1.07614,0.945179,12,0.301209,1536,1.00001,1.00001
app_13,21.4772,20315.1,7631.1,368.9,364.729,8.91698e+10,1.03623,0.945179,21,0.244301,924,1.00001,1.00001
app_14,11.8698,20180.6,7873.9,126.1,561.385,2.48444e+10,1.01282,0.945179,14,0.0442858,1420,1.00001,1.00001
app_15,11.1163,20580.4,7270.24,729.759,403.772,1.83639e+11,1.07327,0.945179,18,0.45497,1049,1.00002,1.00002
app_16,0.816711,17755.4,7395.6,604.4,3701.65,1.04615e+11,1.06664,0.945179,2,0.0282668,8236,1.00002,1.00002
app_17,3.88297,20252.7,7613.9,386.1,1902.11,7.19705e+10,1.04087,0.945179,4,0.0378394,4830,1.00002,1.00002
app_18,5.80073,19133.1,7764.1,235.9,597.88,5.19333e+10,1.02354,0.945179,13,0.086845,1432,1.00002,1.00002
app_19,2.27061,18325.2,7173.4,826.6,1790.99,1.84139e+11,1.08732,0.945179,4,0.102814,4128,1.00002,1.00002
app_2,0.386774,18385.7,7649.3,350.7,1090.8,7.43478e+10,1.03578,0.945179,7,0.0681464,2513,1,1
app_20,0.475441,20396.4,7736.5,263.5,859.298,5.50582e+10,1.02675,0.945179,9,0.0640957,2201,1.00002,1.00002
app_21,62.3249,20931.2,7497.4,502.6,105.943,1.35263e+11,1.04813,0.945179,71,1.27606,276,1.00002,1.00002
app_22,151.444,20665.9,7873,127,45.3383,3.3935e+10,1.01177,0.945179,172,0.75411,116,1.00002,1.00002
app_23,30.1406,19974,7946.1,53.9,98.8542,1.11023e+10,1.00538,0.945179,80,0.112144,247,1.00002,1.00002
app_24,135.415,21423.4,7227.8,772.2,48.8838,1.85255e+11,1.07918,0.945179,148,3.78071,132,1.00002,1.00002
app_25,76.4399,21254.2,7472.5,527.5,52.921,1.36667e+11,1.05136,0.945179,141,2.57863,140,1.00003,1.00003
app_26,43.8441,20751.6,7454.9,545.1,105.389,1.34566e+11,1.05409,0.945179,71,1.26949,274,1.00003,1.00003
app_27,19.3305,20350,7720.1,279.9,119.492,6.91747e+10,1.02705,0.945179,64,0.5813,306,1.00003,1.00003
app_28,14.1064,20168,7920,80,66.6765,1.95196e+10,1.00762,0.945179,119,0.291338,168,1.00003,1.00003
app_29,31.3818,21091.6,7337.4,662.6,133.659,1.63572e+11,1.06653,0.945179,55,1.22069,355,1.00003,1.00003
app_3,2.80279,20188.1,7858.4,141.6,712.684,2.56369e+10,1.01471,0.945179,11,0.0359564,1804,1,1
app_30,54.1462,21050.7,7476.8,523.2,66.3393,1.37416e+11,1.05067,0.945179,113,2.08206,174,1.00003,1.00003
app_31,4.53859,20610.9,7593.6,406.4,217.762,1.00119e+11,1.03981,0.945179,35,0.459264,562,1.00003,1.00003
app_32,116.332,20224,7982.8,17.2,53.947,3.5226e+09,1.00171,0.945179,149,0.0652334,135,1.00003,1.00003
app_33,13.8129,20513.1,7684.9,315.1,108.876,7.50858e+10,1.03093,0.945179,70,0.688861,282,1.00003,1.00003
app_34,75.9591,21136.6,7327.2,672.8,69.9446,1.70378e+11,1.06701,0.945179,105,2.43398,186,1.00003,1.00003
app_35,82.9402,20961.2,7360.9,639.1,47.6091,1.46827e+11,1.06557,0.945179,157,3.0589,125,1.00004,1.00004
app_36,11.5642,20837.1,7319.1,680.9,192.693,1.78943e+11,1.06695,0.945179,38,0.927166,505,1.00004,1.00004
app_37,44.6479,20469.5,7663.5,336.5,40.5495,7.22191e+10,1.03416,0.945179,191,1.76144,104,1.00004,1.00004
app_38,23.0985,20228.7,7751,249,86.5096,6.00362e+10,1.02419,0.945179,89,0.698096,221,1.00004,1.00004
app_39,104.307,20692.9,7660.5,339.5,46.6135,8.22579e+10,1.03322,0.945179,163,1.75017,121,1.00004,1.00004
app_4,10.1692,20400.8,7652.9,347.1,691.999,7.46821e+10,1.03525,0.945179,11,0.107922,1775,1,1
app_40,38.3281,20788.5,7541.3,458.7,67.6745,1.12786e+11,1.04519,0.945179,110,1.65862,178,1.00004,1.00004
app_41,675.246,21862.8,7853.1,146.9,10.8134,3.4024e+10,1.01431,0.945179,708,3.09309,29,1.00004,1.00004
app_42,1662.24,25226.4,7019.1,980.9,3.25845,1.8435e+11,1.11058,0.945179,2080,46.0874,10,1.00004,1.00004
app_43,534.574,21461.1,7667.86,332.143,6.92077,9.54417e+10,1.03049,0.945179,1058,13.7506,19,1.00004,1.00004
app_44,150.596,21163.9,7581.3,418.7,6.39177,7.67261e+10,1.04466,0.945179,1175,10.9609,17,1.00004,1.00004
app_45,470.438,21582.5,7790.46,209.54,8.70187,5.3752e+10,1.01986,0.945179,901,6.59913,23,1.00004,1.00004
app_46,59.2265,20960,7486.7,513.3,47.7636,1.38436e+11,1.04916,0.945179,156,2.94544,126,1.00005,1.00005
app_47,44.8636,21458.6,7336.4,663.6,4.00204,1.50865e+11,1.06848,0.945179,1837,37.7162,11,1.00005,1.00005
app_48,272.65,22520.4,7698.7,301.3,4.33124,1.04477e+11,1.02522,0.945179,1773,26.1194,12,1.00005,1.00005
app_49,68.3659,21667,7308.35,691.653,5.01846,1.70148e+11,1.06973,0.945179,1424,32.0522,14,1.00005,1.00005
app_5,3.41614,19170.4,7655.2,344.8,954.36,7.60155e+10,1.03477,0.945179,8,0.0796809,2294,1.00001,1.00001
app_50,534.686,22497.7,7357.98,642.023,6.36041,1.21383e+11,1.06961,0.945179,1146,17.3944,18,1.00005,1.00005
app_51,162.141,22178.2,7367.2,632.8,6.9139,1.72324e+11,1.06107,0.945179,1076,24.6177,19,1.00005,1.00005
app_52,451.658,21139,7644.4,355.6,15.0677,1.1447e+11,1.03108,0.945179,515,7.63133,39,1.00005,1.00005
app_53,399.906,21091.2,7285.4,714.6,4.54083,1.6534e+11,1.07372,0.945179,1655,41.3349,12,1.00005,1.00005
app_54,112.922,20601.1,7702,298,3.96759,1.06206e+11,1.02456,0.945179,1995,26.5514,10,1.00005,1.00005
app_55,1351.71,23379.5,7451.3,548.7,3.14883,9.00264e+10,1.06082,0.945179,2326,22.5066,9,1.00005,1.00005
app_56,797.128,21665.7,7558.9,441.1,8.12501,1.0163e+11,1.04431,0.945179,945,12.7037,21,1.00006,1.00006
app_57,683.455,21357.9,7636,364,8.10817,1.21937e+11,1.0312,0.945179,943,15.2422,21,1.00006,1.00006
app_58,526.078,21728.8,7900.9,99.1,7.03488,2.14143e+10,1.00981,0.945179,1100,2.67678,19,1.00006,1.00006
app_59,2100.35,24957,7217.5,782.5,3.39344,1.89678e+11,1.08003,0.945179,2120,47.4195,10,1.00006,1.00006
app_6,7.74503,21263.9,7278.2,721.8,659.889,1.7666e+11,1.07313,0.945179,11,0.267666,1772,1.00001,1.00001
app_60,618.279,21256.2,7905.7,94.3,11.0689,2.65348e+10,1.00854,0.945179,703,2.41225,29,1.00006,1.00006
app_7,6.23634,19003.6,7824.6,175.4,871.503,3.10625e+10,1.01837,0.945179,9,0.0356221,2072,1.00001,1.00001
app_8,2.84462,18823.3,7282.6,717.4,1038.74,1.73954e+11,1.07288,0.945179,7,0.167424,2464,1.00001,1.00001
app_9,10.5879,20915.6,7239.39,760.608,604.319,1.90048e+11,1.0768,0.945179,12,0.314534,1593,1.00001,1.00001
