app_id,start_app,end_app,effective_cpu,effective_io,effective_iter,total_bytes,stretch,utilization,Tcomp,Tio,iterations,priority,group_id
app_1,5.49352,17567.1,7789.6,210.4,1557.09,3.32498e+10,1.02265,0.951048,5,0.021355,3420,1,1
app_10,1.6514,20235.3,7581.5,418.5,421.588,1.12428e+11,1.03978,0.951048,18,0.26705,1065,1.00001,1.00001
app_11,0.997838,20433.2,7584.2,415.8,839.595,1.02707e+11,1.04073,0.951048,9,0.12227,2154,1.00001,1.00001
app_12,19.1763,20615.4,7636.1,363.9,331.448,9.51035e+10,1.03477,0.951048,23,0.287322,856,1.00001,1.00001
app_13,10.7632,20360.2,7804.7,195.3,410.972,4.77369e+10,1.01879,0.951048,19,0.116148,1046,1.00001,1.00001
app_14,1.03621,19539.7,7297.4,702.6,729.978,1.9009e+11,1.06845,0.951048,10,0.260397,1786,1.00001,1.00001
app_15,5.80826,18371.1,7733,267,966.639,6.06624e+10,1.02648,0.951048,8,0.0627975,2222,1.00002,1.00002
app_16,1.65443,20504.9,7621.4,378.6,763.337,9.41522e+10,1.03687,0.951048,10,0.123397,1958,1.00002,1.00002
app_17,11.8066,19722.9,7724.9,275.1,592.017,6.60635e+10,1.02683,0.951048,13,0.111594,1462,1.00002,1.00002
app_18,2.00626,21245.1,7205,795,801.043,2.17389e+11,1.07782,0.951048,9,0.271397,2139,1.00002,1.00002
app_19,1.45105,16654.3,7499.4,500.6,3748.87,7.76167e+10,1.05582,0.951048,2,0.0207033,7821,1.00002,1.00002
app_2,2.02386,19611.1,7734.3,265.7,429.941,6.77492e+10,1.02537,0.951048,18,0.157556,1055,1,1
app_20,7.86465,19109.6,7304.6,695.4,1045.13,1.80764e+11,1.06875,0.951048,7,0.17298,2502,1.00002,1.00002
app_21,25.5538,21018.3,7361.7,638.3,148.029,1.74635e+11,1.06152,0.951048,50,1.17996,389,1.00002,1.00002
app_22,18.0765,20739.3,7672.2,327.8,55.4904,9.53417e+10,1.02993,0.951048,137,1.73349,144,1.00002,1.00002
app_23,38.3057,21050.2,7216.02,783.979,117.141,2.12967e+11,1.07686,0.951048,62,1.81121,310,1.00002,1.00002
app_24,77.9791,20772,7615.9,384.1,44.6815,1.04357e+11,1.03623,0.951048,170,2.31905,116,1.00002,1.00002
app_25,156.185,21321.1,7386.1,613.9,41.0253,1.61669e+11,1.05992,0.951048,181,3.94313,109,1.00003,1.00003
app_26,8.05411,20437.3,7595.2,404.8,346.609,1.0838e+11,1.03848,0.951048,22,0.312335,887,1.00003,1.00003
app_27,5.07385,19961.4,7433.3,566.7,1484.93,1.42902e+11,1.05594,0.951048,5,0.0962301,3718,1.00003,1.00003
app_28,69.7781,20111.1,7994.3,5.7,56.4986,5.94975e+08,1.00064,0.951048,140,0.0106246,143,1.00003,1.00003
app_29,131.265,20513.5,7978.7,21.3,35.8323,4.70207e+09,1.00208,0.951048,221,0.130613,91,1.00003,1.00003
app_3,4.29253,20899.9,7240.2,759.8,1033.77,1.98763e+11,1.07542,0.951048,7,0.192227,2718,1,1
app_30,39.2406,20473,7854.3,145.7,66.8246,4.05717e+10,1.01332,0.951048,116,0.605548,171,1.00003,1.00003
app_31,33.1112,20421.4,7725.3,274.7,98.0234,7.00761e+10,1.02625,0.951048,79,0.715062,251,1.00003,1.00003
app_32,67.199,20902.1,7462.2,537.8,56.6492,1.41634e+11,1.0521,0.951048,132,2.48481,148,1.00003,1.00003
app_33,33.8936,20185.4,7933.6,66.4,43.2778,1.47284e+10,1.0065,0.951048,184,0.342521,109,1.00003,1.00003
app_34,17.7494,20970.6,7347.6,652.4,204.689,1.81379e+11,1.06256,0.951048,36,0.884775,538,1.00003,1.00003
app_35,1.98335,18696.1,7200.1,799.9,1797.42,1.9709e+11,1.08149,0.951048,4,0.109677,4213,1.00004,1.00004
app_36,20.877,20653.5,7547.9,452.1,79.1885,1.26293e+11,1.04245,0.951048,95,1.59865,206,1.00004,1.00004
app_37,116.322,20279.8,7800.6,199.4,59.694,5.06823e+10,1.01894,0.951048,131,0.844705,151,1.00004,1.00004
app_38,39.0976,20512.7,7665.2,334.8,60.1042,8.84931e+10,1.03177,0.951048,128,1.47488,154,1.00004,1.00004
app_39,8.82654,20851.1,7476.5,523.5,86.5425,1.42534e+11,1.05,0.951048,86,1.65737,228,1.00004,1.00004
app_4,7.74564,20081.3,7923.5,76.5,225.198,1.81072e+10,1.00735,0.951048,35,0.0801203,567,1,1
app_40,44.6571,21021.6,7501.62,498.38,53.4797,1.34192e+11,1.04769,0.951048,139,2.52152,141,1.00004,1.00004
app_41,648.502,21193.2,7937.3,62.7,7.79875,1.52963e+10,1.00596,0.951048,1032,1.91203,20,1.00004,1.00004
app_42,533.397,22585.3,7526.5,473.5,6.20911,1.31364e+11,1.04468,0.951048,1213,21.894,17,1.00004,1.00004
app_43,863.414,22785.7,7254.9,745.1,3.81562,2.12122e+11,1.07138,0.951048,1813,53.0305,11,1.00004,1.00004
app_44,19.8651,20382.5,7885.3,114.7,30.4489,3.25686e+10,1.01037,0.951048,256,1.0506,78,1.00004,1.00004
app_45,245.188,20198.3,7928.2,71.8,12.1579,1.48963e+10,1.00716,0.951048,668,1.24136,30,1.00004,1.00004
app_46,429.941,21994.7,7422.7,577.3,8.45842,1.81371e+11,1.05207,0.951048,872,22.6714,23,1.00005,1.00005
app_47,849.894,21476.8,7796.8,203.2,4.18423,6.76887e+10,1.01723,0.951048,1866,16.9222,11,1.00005,1.00005
app_48,725.691,22233.8,7180.5,819.5,6.6162,2.11173e+11,1.0823,0.951048,1098,30.1676,18,1.00005,1.00005
app_49,747.851,20999.9,7918.7,81.3,6.07006,1.70685e+10,1.00809,0.951048,1248,2.84476,16,1.00005,1.00005
app_5,0.782921,20729.6,7325.7,674.3,3670.15,1.34135e+11,1.07241,0.951048,2,0.036549,9530,1.00001,1.00001
app_50,616.266,21605.6,7675.9,324.1,7.04755,1.11749e+11,1.02727,0.951048,1054,15.9642,19,1.00005,1.00005
app_51,82.658,21413.7,7240.8,759.2,89.8406,2.19759e+11,1.07231,0.951048,81,2.44177,240,1.00005,1.00005
app_52,28.7965,20370.4,7716.2,283.8,7.07118,9.76917e+10,1.02382,0.951048,1117,13.956,18,1.00005,1.00005
app_53,499.48,21353.2,7660.7,339.3,13.0247,8.0641e+10,1.03341,0.951048,568,6.20316,35,1.00005,1.00005
app_54,159.594,21488.5,7565.3,434.7,5.68411,1.41432e+11,1.03805,0.951048,1349,28.2865,15,1.00005,1.00005
app_55,671.419,21751.2,7727.3,272.7,6.17598,7.37279e+10,1.02551,0.951048,1286,10.5326,16,1.00005,1.00005
app_56,60.4308,20661.1,7978.4,21.6,12.4503,5.75503e+09,1.00198,0.951048,637,0.442694,32,1.00006,1.00006
app_57,92.7455,21317,7941.7,58.3,5.98732,2.45797e+10,1.00423,0.951048,1309,4.09662,16,1.00006,1.00006
app_58,516.451,21206,7749.3,250.7,14.5505,6.49341e+10,1.02377,0.951048,524,4.63815,38,1.00006,1.00006
app_59,1342.68,24060.2,7358,642,4.45962,1.70249e+11,1.06266,0.951048,1604,34.0498,13,1.00006,1.00006
app_6,1.11825,20444.8,7656.5,343.5,696.166,8.30174e+10,1.03366,0.951048,11,0.119278,1782,1.00001,1.00001
app_60,257.847,22015.3,7456.4,543.6,7.44625,1.72204e+11,1.04868,0.951048,996,24.6005,20,1.00006,1.00006
app_7,6.87067,20253.5,7781.9,218.1,598.081,5.17954e+10,1.02123,0.951048,13,0.0866144,1518,1.00001,1.00001
app_8,9.9264,19731.5,7879.1,120.9,464.7,2.55459e+10,1.01206,0.951048,17,0.0550558,1145,1.00001,1.00001
app_9,0.188154,18886.5,7490.6,509.4,1871.74,1.17056e+11,1.05157,0.951048,4,0.0625297,4428,1.00001,1.00001
