app_id,start_app,end_app,effective_cpu,effective_io,effective_iter,total_bytes,stretch,utilization,Tcomp,Tio,iterations,priority,group_id
app_1,4.34504,24712.7,5835.91,157.036,418.778,1.32896e+11,1.3403,0.849102,14,0.317175,1353,1,1
app_10,4.20878,26087.3,5268.29,91.6566,749.704,6.05414e+10,1.50127,0.849102,7,0.0807219,2678,1,1
app_11,12.4279,24585.3,5974.59,138.683,371.839,1.1626e+11,1.31345,0.849102,16,0.312526,1196,1,1
app_12,4.55632,25094.5,5763.02,149.381,443.112,1.33185e+11,1.35681,0.849102,13,0.299966,1469,1,1
app_13,1.03865,26880.3,4792.24,84.5553,1197.87,1.35575e+10,1.66466,0.849102,4,0.0113167,4537,1,1
app_14,2.72919,24563.8,5619.98,58.5655,561.445,3.0667e+10,1.41577,0.849102,10,0.0545676,1829,1,1
app_15,12.9934,23923.4,6210.3,39.0833,327.176,2.50002e+10,1.28302,0.849102,19,0.0764533,1005,1,1
app_16,4.26951,24390.2,6157.7,109.671,293.702,9.22199e+10,1.28002,0.849102,21,0.313673,929,1,1
app_17,11.751,24602.7,6143,123.052,322.453,1.04308e+11,1.28055,0.849102,19,0.322935,1028,1,1
app_18,6.61737,25258.2,5071.6,164.514,847.617,1.17987e+11,1.54155,0.849102,6,0.139135,2888,1,1
app_19,0.503445,25404.3,4130.6,223.025,2066.28,1.27248e+11,1.87888,0.849102,2,0.0615617,7351,1,1
app_2,0.902282,24113.1,6137.6,133.868,305.675,1.22393e+11,1.27796,0.849102,20,0.399979,954,1,1
app_20,0.9888,25039.6,4729.76,201.438,1183.35,1.26368e+11,1.6474,0.849102,4,0.10673,4029,1,1
app_21,30.9451,20954.2,7615.5,37.07,47.9431,3.48439e+10,1.0457,0.849102,159,0.725915,125,1,1
app_22,27.5454,21266.7,7419,53.0026,56.9461,5.06846e+10,1.071,0.849102,130,0.889204,153,1,1
app_23,18.4877,21847,7193.1,122.241,89.0191,1.17199e+11,1.09435,0.849102,81,1.31684,243,1,1
app_24,74.2435,21162.3,7404.4,185.847,48.7731,1.83144e+11,1.05436,0.849102,150,3.81549,130,1,1
app_25,8.90818,25063.5,5831.39,153.324,415.368,1.30369e+11,1.34189,0.849102,14,0.313387,1376,1,1
app_26,12.9465,23202.2,6603,37.023,205.733,2.55591e+10,1.2069,0.849102,32,0.124073,605,1,1
app_27,99.6025,21007.5,7393.4,94.4366,48.8731,9.20291e+10,1.06874,0.849102,153,1.91727,129,1,1
app_28,40.5655,22509.1,6962.3,126.965,114.92,1.21049e+11,1.12941,0.849102,60,1.0526,327,1,1
app_29,27.0602,21261,7536.5,35.1384,52.0871,3.23955e+10,1.05696,0.849102,146,0.622991,137,1,1
app_3,5.08855,26817.7,4987.64,105.879,999.481,5.83111e+10,1.58543,0.849102,5,0.0583111,3727,1,1
app_30,21.6567,20715.6,7404.1,202.553,47.9038,1.99822e+11,1.05209,0.849102,157,4.25152,124,1,1
app_31,90.3899,21214.8,7389,83.3069,61.3711,8.0099e+10,1.07108,0.849102,121,1.3131,163,1,1
app_32,62.2582,21986.6,7140.6,28.5086,96.0743,2.30723e+10,1.11675,0.849102,74,0.240336,267,1,1
app_33,157.936,20799.2,7543.5,199.958,34.4938,1.97718e+11,1.03343,0.849102,221,5.81522,89,1,1
app_34,26.9088,23652.6,6329.9,175.272,243.766,1.64687e+11,1.2318,0.849102,26,0.674947,737,1,1
app_35,49.696,21320.6,7556,18.8526,41.1328,1.67586e+10,1.05642,0.849102,184,0.408747,109,1,1
app_36,57.4451,21309.9,7298.92,62.0801,63.9545,5.87074e+10,1.08731,0.849102,115,0.930675,172,1,1
app_37,20.3174,24379,6223.4,121.59,283.371,1.11132e+11,1.26292,0.849102,22,0.392691,889,1,1
app_38,1.28463,24368.2,5956.7,53.0617,398.744,3.74444e+10,1.33464,0.849102,15,0.0938456,1266,1,1
app_39,91.0517,20901.8,7703.4,3.70539,31.4396,2.44159e+09,1.03817,0.849102,245,0.078761,82,1,1
app_4,8.75265,24304.8,6111.32,67.4508,357.616,4.87684e+10,1.29868,0.849102,17,0.136225,1125,1,1
app_40,91.2846,21565.1,7254.8,33.6025,60.5298,3.02249e+10,1.09814,0.849102,120,0.503749,166,1,1
app_41,299.529,20755.2,7833.1,78.0428,19.3896,7.70148e+10,1.01136,0.849102,403,4.05341,50,1,1
app_42,71.5904,20499.8,7794.9,144.727,8.26183,1.44379e+11,1.00765,0.849102,961,18.0474,21,1,1
app_43,62.0035,21116.7,7557.5,131.622,44.1718,1.2911e+11,1.04077,0.849102,171,2.93432,115,1,1
app_44,1179.23,23004,7808.6,161.637,4.18261,1.61418e+11,1.00376,0.849102,1920,40.3545,11,1,1
app_45,607.828,21473.1,7930,35.0893,9.096,3.45769e+10,1.00445,0.849102,858,3.84188,24,1,1
app_46,446.631,20893.8,7816.3,180.637,4.23038,1.8042e+11,1.00041,0.849102,1840,45.1051,11,1,1
app_47,894.603,21722.8,7725.7,227.569,4.64738,2.27431e+11,1.00589,0.849102,1737,45.4862,12,1,1
app_48,278.307,21065,7737.9,66.3683,16.8323,6.54749e+10,1.0252,0.849102,453,3.85147,44,1,1
app_49,315.007,21152.9,7836,83.1708,9.49713,8.28138e+10,1.01025,0.849102,813,8.28138,25,1,1
app_5,0.742339,28075.2,4792.93,94.9131,1202.51,2.30865e+10,1.66112,0.849102,4,0.0191908,4827,1,1
app_50,1778.33,21753.6,7824,120.146,4.44194,1.19947e+11,1.00706,0.849102,1804,29.9867,11,1,1
app_51,494.285,21618.9,7779.1,151.571,4.52244,1.5135e+11,1.00877,0.849102,1669,37.8375,12,1,1
app_52,672.511,21084.3,7851.9,102.582,5.44463,1.02267e+11,1.00576,0.849102,1461,17.0446,14,1,1
app_53,2.55868,23527.8,6550.1,105.306,171.417,9.76146e+10,1.20342,0.849102,38,0.570846,515,1,1
app_54,491.97,21412.9,7867.9,82.6123,7.6141,8.23871e+10,1.00625,0.849102,1016,11.7696,20,1,1
app_55,1882.63,23026.7,7895.6,60.2921,3.82357,6.00557e+10,1.00557,0.849102,2087,15.0139,10,1,1
app_56,2346.07,24696.4,7928.1,27.3461,3.29163,2.71128e+10,1.00563,0.849102,2428,9.03761,9,1,1
app_57,92.99,21542.1,7876,108.489,5.00635,1.08224e+11,1.00198,0.849102,1621,21.6447,13,1,1
app_58,406.44,21038.8,7884,93.3594,8.23266,9.29008e+10,1.0029,0.849102,948,11.6126,21,1,1
app_59,280.025,20900.4,7787.3,61.5532,15.0062,6.08864e+10,1.01934,0.849102,515,4.05909,39,1,1
app_6,0.734224,27320.9,5131.8,81.7022,854.83,3.69043e+10,1.54778,0.849102,6,0.0431629,3259,1,1
app_60,71.5724,21669.9,7835.1,126.628,3.38847,1.26456e+11,1.00483,0.849102,2286,42.1519,9,1,1
app_7,10.6814,24251.3,6102.8,63.6155,336.718,4.49434e+10,1.30129,0.849102,18,0.133363,1067,1,1
app_8,7.28366,24902.3,5664.81,160.265,517.238,1.36382e+11,1.37903,0.849102,11,0.263286,1692,1,1
app_9,8.41661,24634.9,6065.31,172.65,321.276,1.59894e+11,1.2851,0.849102,19,0.496564,1023,1,1
