app_id,start_app,end_app,effective_cpu,effective_io,effective_iter,total_bytes,stretch,utilization,Tcomp,Tio,iterations,priority,group_id
app_1,0.122844,25100.8,5453.3,124.445,604.463,9.50088e+10,1.44188,0.848113,9,0.157299,2051,1,1
app_10,2.17592,25435.3,4067.5,159.892,2034.9,3.71461e+10,1.94901,0.848113,2,0.0182536,7463,1,1
app_11,12.3223,24618.4,5757.6,131.106,479.522,1.0188e+11,1.36531,0.848113,12,0.212692,1566,1,1
app_12,5.97638,25295.8,5922.5,38.1752,423.914,1.53908e+10,1.34728,0.848113,14,0.0362991,1425,1,1
app_13,0.823285,25654.4,5103.9,97.4442,849.399,5.9919e+10,1.54924,0.848113,6,0.0704929,3023,1,1
app_14,1.07183,26102.3,5420.2,168.358,601.952,1.34848e+11,1.44013,0.848113,9,0.224,2147,1,1
app_15,5.69626,24533.6,5066.61,189.716,845.189,1.54839e+11,1.53214,0.848113,6,0.183025,2804,1,1
app_16,11.0121,24824.6,5909.2,37.1812,421.528,1.50736e+10,1.35038,0.848113,14,0.0358044,1392,1,1
app_17,2.63633,24084.8,5729.9,188.876,438.997,1.70718e+11,1.35579,0.848113,13,0.388878,1405,1,1
app_18,12.1704,25147.1,5824,72.4519,446.62,4.58788e+10,1.36289,0.848113,13,0.102867,1507,1,1
app_19,6.76065,24632.6,5371.2,86.9261,671.669,6.17057e+10,1.47251,0.848113,8,0.0919608,2234,1,1
app_2,0.238066,26982.3,4399.3,185.773,1469.14,1.33013e+11,1.7651,0.848113,3,0.0905464,5802,1,1
app_20,3.20164,24973.9,4878.7,209.127,977.092,1.65677e+11,1.58592,0.848113,5,0.169577,3357,1,1
app_21,2.51425,21167.2,7345.5,142.78,74.4889,1.40301e+11,1.06869,0.848113,99,1.89596,198,1,1
app_22,10.5475,22758.3,6809.4,78.6622,169.406,6.83287e+10,1.16317,0.848113,40,0.404312,490,1,1
app_23,16.0915,22087.4,7000.8,14.1048,110.061,8.61692e+09,1.14132,0.848113,64,0.0783356,310,1,1
app_24,22.4066,20812,7580,153.162,43.9359,1.50462e+11,1.03487,0.848113,171,3.41958,115,1,1
app_25,10.0569,23782.8,6147.7,196.791,292.982,1.80277e+11,1.26423,0.848113,21,0.615279,906,1,1
app_26,151.528,20795.9,7795.2,29.4303,33.7353,2.77884e+10,1.02263,0.848113,229,0.842072,87,1,1
app_27,38.502,22235.5,6900.7,60.916,130.223,5.35839e+10,1.15037,0.848113,53,0.412184,369,1,1
app_28,4.764,21803.6,7238.3,17.5743,95.8244,1.2027e+10,1.1034,0.848113,75,0.1266,266,1,1
app_29,62.6581,21225.9,7436.4,150.109,56.931,1.47673e+11,1.05484,0.848113,128,2.59075,153,1,1
app_3,3.54715,25194.8,5563.03,94.3315,556.284,6.11927e+10,1.42242,0.848113,10,0.109987,1889,1,1
app_30,28.0459,21491.1,7145.5,192.324,95.25,1.88426e+11,1.09082,0.848113,75,1.98343,258,1,1
app_31,81.2316,21037.7,7440.9,189.489,59.4114,1.86316e+11,1.04888,0.848113,124,3.1579,157,1,1
app_32,13.6556,23862.8,6301.1,38.2936,286.291,2.72275e+10,1.26416,0.848113,22,0.0952009,891,1,1
app_33,96.2534,21173.9,7401.5,156.437,50.9027,1.53142e+11,1.05895,0.848113,145,3.00278,136,1,1
app_34,68.6828,21164.8,7476.2,77.0167,59.8234,7.35452e+10,1.05964,0.848113,124,1.22575,160,1,1
app_35,23.1433,21510.1,7039.3,182.247,87.4806,1.77577e+11,1.10851,0.848113,81,2.01793,240,1,1
app_36,6.80124,20916.4,7620.7,3.19059,42.5123,1.00773e+09,1.04963,0.848113,179,0.0239935,112,1,1
app_37,43.4016,20804.4,7436.9,210.05,46.7857,2.07495e+11,1.04652,0.848113,160,4.41478,122,1,1
app_38,84.1683,20794,7659.7,65.4032,47.828,6.30761e+10,1.0359,0.848113,160,1.34204,124,1,1
app_39,50.1896,21608.5,7180.1,98.1518,84.3804,9.37168e+10,1.09984,0.848113,85,1.10255,230,1,1
app_4,0.41072,25955.6,4938.6,67.3242,987.964,9.12034e+09,1.61691,0.848113,5,0.00923111,3609,1,1
app_40,76.6486,21780.9,7227.4,22.8328,84.3496,1.85687e+10,1.10406,0.848113,86,0.218456,230,1,1
app_41,287.753,20458.4,7761.9,109.025,18.0679,1.08019e+11,1.01653,0.848113,428,6.00105,46,1,1
app_42,484.105,21158.2,7778.9,186.641,4.68768,1.86367e+11,1.00436,0.848113,1709,37.2735,12,1,1
app_43,434.03,21221.2,7829.8,156.968,5.00886,1.5668e+11,1.00169,0.848113,1525,31.3361,13,1,1
app_44,73.5455,21168.2,7603.5,8.51906,50.3329,5.57017e+09,1.05138,0.848113,151,0.111403,132,1,1
app_45,84.1384,21925.3,7872.4,20.3557,5.55444,2.01739e+10,1.01361,0.848113,1423,4.03477,15,1,1
app_46,243.554,21015.4,7889.2,48.9319,16.3039,4.82007e+10,1.00789,0.848113,468,3.01255,43,1,1
app_47,232.175,21119.2,7865,9.97831,18.7976,9.06757e+09,1.01599,0.848113,413,0.47724,49,1,1
app_48,258.197,21562.1,7879.4,16.7848,9.89467,1.61756e+10,1.01323,0.848113,793,1.61756,26,1,1
app_49,771.453,20655.5,7829.7,63.685,8.09773,6.32596e+10,1.01356,0.848113,1008,7.90745,20,1,1
app_5,2.86677,26497.4,5367.4,146.059,671.743,1.17968e+11,1.45843,0.848113,8,0.17581,2444,1,1
app_50,47.2776,20594.7,7787.1,118.234,7.26018,1.17781e+11,1.01203,0.848113,1046,16.8259,19,1,1
app_51,1463.72,23143.9,7782.3,215.285,5.24315,2.14872e+11,1.00035,0.848113,1495,35.812,14,1,1
app_52,372.57,20825.2,7840,22.828,18.8738,2.17465e+10,1.01759,0.848113,412,1.14455,49,1,1
app_53,539.908,20690.6,7754.5,136.425,5.9487,1.36167e+11,1.01386,0.848113,1317,22.6946,15,1,1
app_54,1482.92,23663.4,7949.6,39.9757,3.95646,3.97015e+10,1.00134,0.848113,1929,9.92538,11,1,1
app_55,419.548,21114.6,7785.9,163.03,8.08885,1.62676e+11,1.00647,0.848113,969,20.3344,21,1,1
app_56,714.208,21556.6,7856.6,73.929,8.36808,7.34624e+10,1.00882,0.848113,926,9.1828,22,1,1
app_57,213.861,21094,7749.3,198.518,6.56662,1.9813e+11,1.00661,0.848113,1211,28.3042,17,1,1
app_58,219.286,21507.2,7868.1,105.995,6.50112,1.05605e+11,1.0033,0.848113,1224,15.0865,17,1,1
app_59,1029.97,22016.1,7810.9,148.169,5.34105,1.47867e+11,1.00518,0.848113,1447,29.5735,14,1,1
app_6,3.28932,23600.4,6029.9,150.356,353.173,1.35134e+11,1.29764,0.848113,17,0.381735,1090,1,1
app_60,978.786,21448.4,7781.5,64.7981,6.16773,6.44553e+10,1.01963,0.848113,1264,9.2079,16,1,1
app_7,5.42638,25629.7,5255.2,148.807,751.135,1.103e+11,1.49101,0.848113,7,0.146871,2621,1,1
app_8,13.651,23585.3,6107.1,103.995,338.437,8.67573e+10,1.2916,0.848113,18,0.255921,1041,1,1
app_9,1.62268,24970.6,4470,123.043,1487.34,3.62001e+10,1.77533,0.848113,3,0.024328,5204,1,1
