app_id,start_app,end_app,effective_cpu,effective_io,effective_iter,total_bytes,stretch,utilization,Tcomp,Tio,iterations,priority,group_id
app_1,9.65972,19538.5,7851.4,148.6,655.208,2.87576e+10,1.01521,0.946078,12,0.0439048,1600,1,1
app_10,5.20032,20224.1,7225.75,774.251,803.746,1.95124e+11,1.07804,0.946078,9,0.242805,2044,1.00001,1.00001
app_11,0.0347487,19738.5,7585.66,414.337,758.905,9.72914e+10,1.04127,0.946078,10,0.128218,1875,1.00001,1.00001
app_12,1.13928,19257.2,7358.07,641.931,2451.99,1.30109e+11,1.06835,0.946078,3,0.0530661,5926,1.00001,1.00001
app_13,0.167019,18423.3,7570.9,429.1,3783.07,4.86139e+10,1.04994,0.946078,2,0.0128506,8723,1.00001,1.00001
app_14,7.00382,20834.4,7289.2,710.8,346.808,1.8398e+11,1.07049,0.946078,21,0.530202,907,1.00001,1.00001
app_15,2.70972,19919.7,7360.06,639.943,1226.6,1.49418e+11,1.06532,0.946078,6,0.121795,3067,1.00002,1.00002
app_16,12.5456,19974.8,7611.3,388.7,635.275,9.1258e+10,1.03862,0.946078,12,0.143713,1588,1.00002,1.00002
app_17,4.29434,20677.7,7256,744,603.556,1.85742e+11,1.07502,0.946078,12,0.308029,1573,1.00002,1.00002
app_18,1.66671,20065,7444.26,555.743,496.327,1.43583e+11,1.05432,0.946078,15,0.289161,1248,1.00002,1.00002
app_19,3.56266,19043.7,7859.3,140.7,523.924,2.81429e+10,1.01427,0.946078,15,0.0537078,1250,1.00002,1.00002
app_2,7.61416,19688.5,7441.8,558.2,931.247,1.31826e+11,1.0563,0.946078,8,0.141596,2300,1,1
app_20,4.50517,19113.2,7848.2,151.8,561.596,2.98835e+10,1.01548,0.946078,14,0.0531735,1339,1.00002,1.00002
app_21,18.9123,20408.8,7780.9,219.1,44.1707,4.80127e+10,1.02185,0.946078,176,1.06695,113,1.00002,1.00002
app_22,152.374,20436.6,7740.4,259.6,47.0486,7.08816e+10,1.02416,0.946078,166,1.50812,119,1.00002,1.00002
app_23,211.427,20741.8,7631,369,33.1356,9.34842e+10,1.03567,0.946078,232,2.83285,86,1.00002,1.00002
app_24,19.0438,20986.5,7483.89,516.109,166.1,1.32017e+11,1.05043,0.946078,45,0.795275,436,1.00002,1.00002
app_25,50.2296,20770,7691.8,308.2,30.82,7.55001e+10,1.02996,0.946078,245,2.43549,81,1.00003,1.00003
app_26,10.5654,21096.5,7404.2,595.8,41.3149,1.34405e+11,1.0612,0.946078,177,3.20012,111,1.00003,1.00003
app_27,99.8472,19962.9,7954.8,45.2,63.5591,9.96971e+09,1.00442,0.946078,125,0.158249,159,1.00003,1.00003
app_28,36.2707,20949.5,7413.7,586.3,109.14,1.55336e+11,1.05694,0.946078,68,1.4251,287,1.00003,1.00003
app_29,47.9268,20385.1,7797,203,83.2594,4.71441e+10,1.01987,0.946078,93,0.561239,213,1.00003,1.00003
app_3,8.58404,20500.4,7277,723,809.256,1.78822e+11,1.07299,0.946078,9,0.221041,2090,1,1
app_30,67.875,21371.6,7205.8,794.2,50.9888,1.92197e+11,1.08137,0.946078,141,3.76857,138,1.00003,1.00003
app_31,76.4559,21303.8,7309.8,690.2,91.4806,1.76322e+11,1.06864,0.946078,79,1.91654,246,1.00003,1.00003
app_32,62.8053,20205.9,7925.3,74.7,69.8329,1.72697e+10,1.00723,0.946078,114,0.246709,175,1.00003,1.00003
app_33,27.6031,20798.1,7497.89,502.108,57.7567,1.31447e+11,1.04858,0.946078,130,2.30175,151,1.00003,1.00003
app_34,112.152,20958.8,7449.14,550.857,45.2504,1.55e+11,1.05206,0.946078,164,3.43315,119,1.00003,1.00003
app_35,64.4973,20127.8,7990.9,9.1,47.6721,1.599e+09,1.00094,0.946078,165,0.0340212,121,1.00004,1.00004
app_36,148.536,21312.8,7360.4,639.6,48.0333,1.66325e+11,1.06288,0.946078,152,3.4651,128,1.00004,1.00004
app_37,13.5923,20643.7,7469.3,530.7,172.773,1.3363e+11,1.05223,0.946078,43,0.776919,448,1.00004,1.00004
app_38,25.484,20301.6,7597.1,402.9,230.33,9.62293e+10,1.03986,0.946078,33,0.418388,584,1.00004,1.00004
app_39,103.55,21130.3,7370.8,629.2,42.0181,1.60206e+11,1.06228,0.946078,177,3.81443,111,1.00004,1.00004
app_4,1.68936,20457.2,7697.6,302.4,640.011,6.41286e+10,1.0307,0.946078,12,0.100201,1643,1,1
app_40,9.61714,21041.2,7406.2,593.8,75.6463,1.44495e+11,1.05951,0.946078,97,1.90126,202,1.00004,1.00004
app_41,763.073,21826.5,7877.8,122.2,8.14705,4.48237e+10,1.00977,0.946078,924,5.60296,22,1.00004,1.00004
app_42,1271.23,22455.8,7601.92,398.085,5.56388,7.25618e+10,1.04242,0.946078,1336,12.4455,15,1.00004,1.00004
app_43,536.92,21961.4,7709.3,290.7,5.18767,7.58587e+10,1.0276,0.946078,1498,15.1717,14,1.00004,1.00004
app_44,1481.6,23198.2,7516.9,483.1,4.00851,1.20771e+11,1.04744,0.946078,1896,30.1927,11,1.00004,1.00004
app_45,429.644,21199.3,7447.25,552.75,14.5823,1.4638e+11,1.05351,0.946078,518,9.99141,38,1.00004,1.00004
app_46,135.407,21930.7,7481.4,518.6,4.79168,1.15202e+11,1.0531,0.946078,1622,23.0405,13,1.00005,1.00005
app_47,1189.94,24357.7,7173.69,826.308,3.82849,1.40916e+11,1.0937,0.946078,1944,36.9354,11,1.00005,1.00005
app_48,240.085,20493.7,7939.9,60.1,14.6405,1.22347e+10,1.00602,0.946078,544,0.815647,37,1.00005,1.00005
app_49,931.859,22295.8,7824.2,175.8,5.19934,4.25785e+10,1.01693,0.946078,1472,8.5157,14,1.00005,1.00005
app_5,4.86973,18931,7666.4,333.6,1278.37,6.55733e+10,1.03466,0.946078,6,0.0513093,3030,1.00001,1.00001
app_50,512.832,21306.2,7739,261,14.3614,7.82223e+10,1.02338,0.946078,527,5.58731,38,1.00005,1.00005
app_51,115.933,21430.2,7707.3,292.7,4.9631,5.52615e+10,1.03059,0.946078,1613,11.0523,13,1.00005,1.00005
app_52,1307.36,22235,7721.3,278.7,5.43537,6.00756e+10,1.0281,0.946078,1459,12.0151,14,1.00005,1.00005
app_53,209.31,22117.3,7403.5,596.5,4.3111,1.51359e+11,1.05892,0.946078,1720,37.8397,12,1.00005,1.00005
app_54,191.367,20364.1,7949.3,50.7,6.68152,1.18405e+10,1.00488,0.946078,1186,1.97342,17,1.00005,1.00005
app_55,158.948,21227.6,7585.4,414.6,4.97741,9.31817e+10,1.04186,0.946078,1556,18.6363,13,1.00005,1.00005
app_56,37.7582,20473.4,7499.5,500.5,169.922,1.31573e+11,1.04835,0.946078,44,0.773959,438,1.00006,1.00006
app_57,347.864,21114.3,7942.8,57.2,7.25595,2.04701e+10,1.00461,0.946078,1096,2.9243,19,1.00006,1.00006
app_58,414.027,21025,7818.49,181.514,17.1611,4.38288e+10,1.01751,0.946078,461,2.4991,44,1.00006,1.00006
app_59,222.307,21333,7225.1,774.9,8.1975,1.92071e+11,1.07858,0.946078,889,24.0089,22,1.00006,1.00006
app_6,4.00725,20184.4,7259,741,519.672,1.88414e+11,1.0742,0.946078,14,0.362335,1315,1.00001,1.00001
app_60,380.135,21689.5,7307.6,692.4,11.6943,1.63052e+11,1.07086,0.946078,614,13.5877,32,1.00006,1.00006
app_7,16.7494,20184.8,7605.1,394.9,360.893,9.56771e+10,1.03886,0.946078,21,0.265034,915,1.00001,1.00001
app_8,1.87935,19120.6,7411.6,588.4,1855.24,1.28797e+11,1.06095,0.946078,4,0.0693951,4440,1.00001,1.00001
app_9,7.18287,20742.5,7546.9,453.1,688.428,1.09354e+11,1.0449,0.946078,11,0.158714,1789,1.00001,1.00001
