app_id,start_app,end_app,effective_cpu,effective_io,effective_iter,total_bytes,stretch,utilization,Tcomp,Tio,iterations,priority,group_id
app_1,3.11751,20229.9,7648.4,246.714,1270.57,1.5733e+11,1.02489,0.960125,6,0.123784,3223,0.1,1
app_10,8.61905,20150.4,7825.3,102.815,870.362,6.70242e+10,1.01364,0.960125,9,0.0770393,2194,0.1,1
app_11,6.7793,18882.8,7890.4,64.5033,564.029,4.19008e+10,1.00853,0.960125,14,0.0742922,1334,0.1,1
app_12,8.81762,18594.2,7737,186.133,861.723,1.45004e+11,1.01497,0.960125,9,0.168218,2000,0.1,1
app_13,7.03415,19922,7686.5,216.552,1096.18,1.4722e+11,1.02123,0.960125,7,0.134325,2737,0.1,1
app_14,5.54454,18702.2,7797.6,113.905,976.089,7.40382e+10,1.01631,0.960125,8,0.0758588,2284,0.1,1
app_15,12.2096,19576.2,7719.3,233.168,592.381,1.83201e+11,1.01234,0.960125,13,0.30894,1449,0.1,1
app_16,3.71229,19580.3,7768.8,182.641,598.705,1.43341e+11,1.0111,0.960125,13,0.2397,1463,0.1,1
app_17,3.8141,19286.4,7804.8,153.161,490.306,1.23739e+11,1.00901,0.960125,16,0.252528,1179,0.1,1
app_18,7.11164,18444.2,7729.9,195.208,967.467,1.37711e+11,1.01683,0.960125,8,0.142411,2226,0.1,1
app_19,1.19469,15621,7268.9,711.724,7272.77,5.89613e+10,1.09172,0.960125,1,0.00810687,14197,1,0
app_2,20.7965,19999.2,7885,91.7695,291.086,7.47357e+10,1.00506,0.960125,27,0.256824,729,0.1,1
app_20,10.914,19363.5,7853.1,87.5766,715.032,6.0369e+10,1.01093,0.960125,11,0.0844322,1730,0.1,1
app_21,5.61882,20534.9,7685.2,275.963,43.4883,1.82353e+11,1.01683,0.960125,176,4.24076,111,0.01,2
app_22,86.1684,20310.4,7745.3,217.64,48.1912,1.39483e+11,1.01461,0.960125,163,2.8466,121,0.01,2
app_23,16.9017,20364.9,7759.8,119.912,90.6491,7.32371e+10,1.02132,0.960125,85,0.813746,231,0.01,2
app_24,117.638,20139.4,7928.2,29.5092,45.5541,1.70101e+10,1.0069,0.960125,175,0.369786,114,0.01,2
app_25,24.446,20414,7699.9,82.7778,154.28,4.70009e+10,1.03267,0.960125,50,0.305201,395,0.01,2
app_26,75.1579,20347.1,7814.4,70.9581,71.0553,3.90982e+10,1.01865,0.960125,111,0.550679,179,0.01,2
app_27,4.16451,20416.1,7692.16,113.027,149.157,6.48692e+10,1.03132,0.960125,52,0.43411,380,0.01,2
app_28,154.657,20371.3,7900.8,43.3009,34.3101,2.85027e+10,1.00892,0.960125,229,0.838316,87,0.01,2
app_29,108.689,20481.8,7635.3,294.299,48.9806,1.86862e+11,1.02274,0.960125,155,3.8135,126,0.01,2
app_3,3.01451,20194.3,7757.7,192.448,552.966,1.58036e+11,1.01065,0.960125,14,0.28578,1399,0.1,1
app_30,38.6056,20529.7,7625.4,248.915,108.89,1.55773e+11,1.02812,0.960125,70,1.42911,279,0.01,2
app_31,142.959,20603.6,7679.9,265.477,54.7013,1.7488e+11,1.01849,0.960125,140,3.23851,140,0.01,2
app_32,81.3172,20420,7660.8,257.776,91.5481,1.69525e+11,1.02167,0.960125,84,1.84266,232,0.01,2
app_33,8.62219,20520,7630.83,208.941,115.339,1.33807e+11,1.03031,0.960125,66,1.15351,297,0.01,2
app_34,75.6537,20389.7,7720.6,156.011,76.028,9.79675e+10,1.02321,0.960125,102,1.28905,193,0.01,2
app_35,12.8679,20175,7700.9,168.134,126.276,1.01885e+11,1.02527,0.960125,61,0.808609,319,0.01,2
app_36,101.526,20367.6,7740.1,193.485,49.6636,1.22299e+11,1.0175,0.960125,156,2.44599,126,0.01,2
app_37,14.011,19678.5,7870.7,99.454,342.205,7.13802e+10,1.00729,0.960125,23,0.208714,840,0.1,1
app_38,107.943,20528.2,7712.2,243.593,46.1314,1.60005e+11,1.01623,0.960125,166,3.47836,118,0.01,2
app_39,13.5833,19532.8,7928.5,36.4923,416.734,5.69768e+09,1.00829,0.960125,19,0.0136635,1017,0.1,1
app_4,2.37546,14384.6,7603.7,377.192,3806,1.53196e+11,1.03134,0.960125,2,0.0402511,6847,1,0
app_40,22.208,19665.1,7743.9,234.366,287.221,2.03726e+11,1.00659,0.960125,27,0.709847,707,0.1,1
app_41,1079.78,23346.1,7655.3,212.948,5.24151,9.80384e+10,1.03181,0.960125,1400,19.6077,15,0.001,3
app_42,178.659,21044.5,7595.7,328.384,5.86794,1.4456e+11,1.03356,0.960125,1313,24.0933,15,0.001,3
app_43,550.787,22243.3,7861.1,80.708,3.37456,3.14366e+10,1.01362,0.960125,2323,10.4789,9,0.001,3
app_44,257.563,20961.2,7649.8,171.417,10.2331,6.43555e+10,1.03705,0.960125,741,6.43555,27,0.001,3
app_45,1336.12,23543.3,7515.5,268.359,4.17204,1.21562e+11,1.04752,0.960125,1738,30.3905,12,0.001,3
app_46,955.788,21687.4,7391.6,285.606,4.86154,1.29434e+11,1.06368,0.960125,1539,25.8869,13,0.001,3
app_47,370.185,21310.5,7608.7,66.8969,10.3091,2.52786e+10,1.04795,0.960125,755,2.52786,27,0.001,3
app_48,50.8606,20498.7,7742.5,29.7366,6.86222,1.35224e+10,1.03146,0.960125,1125,2.25373,18,0.001,3
app_49,946.911,22087.1,7424.6,313.418,7.0229,1.32491e+11,1.05861,0.960125,1042,18.9273,19,0.001,3
app_5,3.54334,19812.5,7642.5,200.028,1908.68,1.08966e+11,1.03206,0.960125,4,0.0571103,4732,0.1,1
app_50,620.59,22068.1,7592.2,197.553,4.05282,8.41688e+10,1.04216,0.960125,1820,21.0422,11,0.001,3
app_51,485.144,21629.9,7399.7,319.636,8.16908,1.22498e+11,1.06352,0.960125,927,13.6109,22,0.001,3
app_52,530.514,21223.5,7441.3,304.091,5.99561,1.51906e+11,1.05357,0.960125,1240,25.3176,16,0.001,3
app_53,480.682,21769.1,7604.7,33.8738,13.3635,1.28885e+10,1.0502,0.960125,561,0.991426,36,0.001,3
app_54,393.978,22208.8,7163.85,336.981,13.5272,1.84444e+11,1.08869,0.960125,522,13.322,38,0.001,3
app_55,557.721,22569.1,7430.3,414.988,5.02038,1.69368e+11,1.05268,0.960125,1448,33.8736,14,0.001,3
app_56,456.714,21925.7,7237.8,371.386,15.0966,1.25948e+11,1.0864,0.960125,475,8.39653,42,0.001,3
app_57,85.5372,20359.2,7736.4,247.309,29.0744,1.60708e+11,1.01303,0.960125,261,5.54165,75,0.01,2
app_58,286.199,21484.9,7714.7,218.673,7.84053,8.25371e+10,1.026,0.960125,944,10.3171,21,0.001,3
app_59,18.9319,21195.1,7820.8,150.735,4.18653,6.41668e+10,1.01459,0.960125,1878,16.0417,11,0.001,3
app_6,8.99894,18293,7773.09,143.003,970.783,9.02964e+10,1.01737,0.960125,8,0.0930847,2218,0.1,1
app_60,336.275,21823.4,7807.4,38.5812,5.12483,1.68866e+10,1.02246,0.960125,1510,3.37733,14,0.001,3
app_7,0.0680781,19872.6,7764,116.733,1295.7,3.15462e+10,1.02623,0.960125,6,0.0243412,3214,0.1,1
app_8,13.1829,19980.9,7786.7,172.191,485.692,1.39579e+11,1.0093,0.960125,16,0.287199,1214,0.1,1
app_9,4.86673,18204.6,7648.7,249.421,1275.03,1.65579e+11,1.02377,0.960125,6,0.129866,2901,0.1,1
