app_id,start_app,end_app,effective_cpu,effective_io,effective_iter,total_bytes,stretch,utilization,Tcomp,Tio,iterations,priority,group_id
app_1,5.46614,19413.7,7420.5,579.5,1240.26,1.3349e+11,1.05904,0.94757,6,0.107653,3011,1,1
app_10,2.63982,17727.2,7804.7,195.3,1953.26,8.67046e+09,1.02389,0.94757,4,0.00443956,4327,1.00001,1.00001
app_11,6.11214,20383.8,7398.2,601.8,925.41,1.47873e+11,1.06015,0.94757,8,0.159863,2368,1.00001,1.00001
app_12,8.52327,19685,7234.16,765.839,901.974,1.91359e+11,1.07737,0.94757,8,0.21217,2236,1.00001,1.00001
app_13,1.51481,17896.6,7341.5,658.5,1470.22,1.47551e+11,1.06823,0.94757,5,0.100375,3299,1.00001,1.00001
app_14,1.25978,20218.6,7410,590,3698.84,1.03682e+11,1.06472,0.94757,2,0.0280296,9388,1.00001,1.00001
app_15,14.0208,20242.6,7573.3,426.7,470.06,1.07171e+11,1.0416,0.94757,16,0.228023,1200,1.00002,1.00002
app_16,0.406254,19306.5,7462.4,537.6,933.022,1.27317e+11,1.05406,0.94757,8,0.13646,2261,1.00002,1.00002
app_17,5.05846,19997.2,7610.1,389.9,1087.32,8.9505e+10,1.03901,0.94757,7,0.0822656,2725,1.00002,1.00002
app_18,1.39282,20453.8,7633.8,366.2,636.527,8.61425e+10,1.03628,0.94757,12,0.135444,1635,1.00002,1.00002
app_19,6.37524,19753.6,7818,182,781.9,3.7516e+10,1.01839,0.94757,10,0.0480358,1934,1.00002,1.00002
app_2,3.83333,18204.5,7608.4,391.6,1521.75,7.934e+10,1.04062,0.94757,5,0.052163,3470,1,1
app_20,11.4793,20303.8,7293.46,706.544,455.924,1.81221e+11,1.07028,0.94757,16,0.397819,1164,1.00002,1.00002
app_21,53.5277,20529.6,7563.5,436.5,115.197,1.12027e+11,1.04227,0.94757,66,0.974147,296,1.00002,1.00002
app_22,164.817,20139.7,7993.4,6.6,47.1063,1.15843e+09,1.00068,0.94757,170,0.0246475,118,1.00002,1.00002
app_23,70.6139,20375.2,7904.2,95.8,85.4844,2.31733e+10,1.00916,0.94757,92,0.269457,217,1.00002,1.00002
app_24,38.805,20574.6,7815.3,184.7,67.9437,4.86693e+10,1.0173,0.94757,114,0.715725,175,1.00002,1.00002
app_25,6.57227,20676.2,7637.3,362.7,66.4972,8.10018e+10,1.0365,0.94757,114,1.20898,174,1.00003,1.00003
app_26,63.4621,20312.6,7875.3,124.7,57.5484,3.03682e+10,1.01193,0.94757,138,0.532776,144,1.00003,1.00003
app_27,18.3179,21015.9,7429.4,570.6,162.026,1.50319e+11,1.05545,0.94757,46,0.927894,426,1.00003,1.00003
app_28,5.26795,20818,7189.5,810.5,717.767,2.06957e+11,1.0816,0.94757,10,0.288241,1883,1.00003,1.00003
app_29,50.8106,20750,7599.7,400.3,49.4654,1.01757e+11,1.03876,0.94757,154,2.03515,128,1.00003,1.00003
app_3,8.22093,20031.5,7826.7,173.3,603.989,3.65875e+10,1.01739,0.94757,13,0.0605754,1508,1,1
app_30,59.3919,20834.8,7405.2,594.8,89.9072,1.50046e+11,1.05887,0.94757,83,1.66718,235,1.00003,1.00003
app_31,34.857,20966,7339.5,660.5,74.6793,1.76238e+11,1.06443,0.94757,98,2.34984,199,1.00003,1.00003
app_32,72.3683,20307.8,7821.1,178.9,87.1134,4.31108e+10,1.01727,0.94757,91,0.495526,219,1.00003,1.00003
app_33,36.2948,20801.5,7561.6,438.4,103.167,1.15033e+11,1.04212,0.94757,73,1.11682,269,1.00003,1.00003
app_34,5.84257,20011.7,7991.1,8.9,80.7723,1.01267e+09,1.00099,0.94757,99,0.0125021,202,1.00003,1.00003
app_35,36.9532,20285.5,7819.5,180.5,121.649,4.49861e+10,1.01723,0.94757,64,0.368739,309,1.00004,1.00004
app_36,7.01174,20327.6,7508.2,491.8,468.584,1.23818e+11,1.04822,0.94757,16,0.264003,1198,1.00004,1.00004
app_37,17.6718,21232,7260.63,739.374,54.3363,1.98651e+11,1.07249,0.94757,133,3.65257,146,1.00004,1.00004
app_38,33.1061,20319.9,7726.4,273.6,81.227,7.38266e+10,1.02561,0.94757,96,0.91144,206,1.00004,1.00004
app_39,14.2047,20381.7,7753.8,246.2,143.406,5.74389e+10,1.02417,0.94757,54,0.401671,366,1.00004,1.00004
app_4,6.38651,19849.9,7127.8,872.2,708.639,2.20393e+11,1.0887,0.94757,10,0.31129,1776,1,1
app_40,2.06132,20259.3,7919.1,80.9,67.3986,1.85796e+10,1.00785,0.94757,117,0.277307,171,1.00004,1.00004
app_41,228.61,21632.1,7741.1,258.9,5.95722,6.64913e+10,1.02464,0.94757,1319,11.0819,16,1.00004,1.00004
app_42,59.3329,21109.2,7914.8,85.2,5.64993,1.96863e+10,1.00826,0.94757,1383,3.93726,15,1.00004,1.00004
app_43,821.114,22154.8,7004.6,995.4,4.49724,2.0921e+11,1.10898,0.94757,1625,41.842,12,1.00004,1.00004
app_44,781.548,23057.4,7461.2,538.8,5.68274,1.48829e+11,1.05124,0.94757,1302,24.8048,16,1.00004,1.00004
app_45,1351.24,21610.7,7468.7,531.3,4.78108,1.04432e+11,1.05637,0.94757,1676,20.8864,12,1.00004,1.00004
app_46,415.952,22088.8,7783.7,216.3,5.50739,6.31781e+10,1.01951,0.94757,1404,10.5297,15,1.00005,1.00005
app_47,94.0359,21779.6,7326.2,673.8,11.9233,1.72177e+11,1.0669,0.94757,605,14.3481,33,1.00005,1.00005
app_48,50.572,20594.3,7881.9,118.1,5.0816,3.32693e+10,1.01072,0.94757,1578,6.65386,13,1.00005,1.00005
app_49,361.873,21500.1,7757.1,242.9,8.69737,6.5578e+10,1.02267,0.94757,878,8.19725,23,1.00005,1.00005
app_5,4.52845,18789.7,7589.2,410.8,1516.62,8.53556e+10,1.04241,0.94757,5,0.0563031,3571,1.00001,1.00001
app_50,813.752,21434.8,7940.3,59.7,6.78481,1.09345e+10,1.00613,0.94757,1226,1.56207,17,1.00005,1.00005
app_51,162.044,21482.2,7330.6,669.4,20.9516,1.7567e+11,1.06578,0.94757,354,8.36525,56,1.00005,1.00005
app_52,538.319,21582.1,7396.6,603.4,6.37935,1.77919e+11,1.05617,0.94757,1159,29.6531,17,1.00005,1.00005
app_53,659.709,22520.1,7302.2,697.8,11.5629,2.12244e+11,1.06462,0.94757,642,17.687,31,1.00005,1.00005
app_54,300.034,21275.8,7539.5,460.5,20.8346,1.37342e+11,1.0421,0.94757,365,6.54009,54,1.00005,1.00005
app_55,240.176,21183,7508.2,491.8,10.5833,1.20035e+11,1.04874,0.94757,719,10.9123,28,1.00005,1.00005
app_56,149.518,20571.8,7987.6,12.4,22.6,3.00999e+09,1.00118,0.94757,349,0.130869,58,1.00006,1.00006
app_57,708.199,21471,7410,590,8.03429,1.77526e+11,1.05436,0.94757,932,22.1907,21,1.00006,1.00006
app_58,224.636,21995.9,7643,357,10.63,1.07124e+11,1.03224,0.94757,703,9.73851,29,1.00006,1.00006
app_59,352.68,21632.4,7341.8,658.2,17.4428,1.72135e+11,1.06469,0.94757,420,10.1256,47,1.00006,1.00006
app_6,20.3719,20048.4,7683.5,316.5,366.878,7.58545e+10,1.03101,0.94757,21,0.206688,921,1.00001,1.00001
app_60,266.975,21675.8,7544.5,455.5,17.462,1.44679e+11,1.04042,0.94757,435,8.0377,46,1.00006,1.00006
app_7,5.38053,20330.3,7250,750,402.979,1.94554e+11,1.07461,0.94757,18,0.482764,1030,1.00001,1.00001
app_8,6.61124,19587.8,7886.4,113.6,787.773,1.79791e+10,1.0121,0.94757,10,0.0228162,1931,1.00001,1.00001
app_9,10.1355,19719.8,7464.2,535.8,573.435,1.31889e+11,1.05317,0.94757,13,0.230172,1422,1.00001,1.00001
