app_id,start_app,end_app,effective_cpu,effective_io,effective_iter,total_bytes,stretch,utilization,Tcomp,Tio,iterations,priority,group_id
app_1,5.85211,19865.1,7370.2,629.8,922.165,1.74324e+11,1.06037,0.954502,8,0.189072,2281,1,1
app_10,2.71456,20667.1,7320.8,679.2,1463.43,1.75417e+11,1.0672,0.954502,5,0.119902,3776,1.00001,1.00001
app_11,11.3755,20393.8,7421.1,578.9,619.622,1.58927e+11,1.05541,0.954502,12,0.256334,1573,1.00001,1.00001
app_12,6.37429,20157.8,7340.54,659.463,818.342,1.77574e+11,1.0641,0.954502,9,0.21694,2052,1.00001,1.00001
app_13,4.57659,20112.5,7597,403,281.036,1.1532e+11,1.0373,0.954502,27,0.41039,707,1.00001,1.00001
app_14,9.95611,18759,7928,72,720.818,4.37756e+08,1.00903,0.954502,11,0.000607995,1690,1.00001,1.00001
app_15,2.5495,19295.8,7920.3,79.7,790.023,6.98846e+09,1.00917,0.954502,10,0.00884615,1908,1.00002,1.00002
app_16,8.56503,20009.1,7823.8,176.2,711.739,3.72072e+10,1.01768,0.954502,11,0.0522573,1779,1.00002,1.00002
app_17,0.0979636,19927,7882,118,464.601,2.6467e+10,1.01157,0.954502,17,0.0569183,1156,1.00002,1.00002
app_18,7.42168,20361.6,7681.9,318.1,850.764,8.17572e+10,1.03044,0.954502,9,0.0960719,2168,1.00002,1.00002
app_19,12.5138,19913.2,7735,265,482.318,6.59535e+10,1.02552,0.954502,16,0.136833,1203,1.00002,1.00002
app_2,9.84113,20582.4,7380.6,619.4,671.303,1.72109e+11,1.05922,0.954502,11,0.256496,1724,1,1
app_20,3.23978,19393.5,7450.3,549.7,1066.28,1.42821e+11,1.05359,0.954502,7,0.133978,2580,1.00002,1.00002
app_21,95.6315,21122.3,7382.3,617.7,76.2031,1.83018e+11,1.05746,0.954502,97,2.40813,200,1.00002,1.00002
app_22,11.1142,20726.8,7530.4,469.6,124.658,1.28381e+11,1.04455,0.954502,60,1.02705,324,1.00002,1.00002
app_23,73.6826,21217.9,7450.2,549.8,60.8556,1.65481e+11,1.05046,0.954502,122,2.7128,161,1.00002,1.00002
app_24,162.469,20604.5,7837.5,162.5,45.7152,5.05411e+10,1.01419,0.954502,169,1.09872,117,1.00002,1.00002
app_25,15.0491,20649.1,7712.8,287.204,58.6383,8.13108e+10,1.02642,0.954502,130,1.39406,152,1.00003,1.00003
app_26,125.356,20430.8,7966.1,33.9,56.6251,7.21565e+09,1.00335,0.954502,140,0.128851,143,1.00003,1.00003
app_27,45.8831,20674.7,7505.1,494.9,79.6468,1.44944e+11,1.04575,0.954502,95,1.8118,205,1.00003,1.00003
app_28,23.6635,20155.5,7694.9,305.1,203.451,7.82733e+10,1.02918,0.954502,38,0.383693,510,1.00003,1.00003
app_29,0.744136,20221.7,7958.5,41.5,63.8106,1.13619e+10,1.00378,0.954502,123,0.177529,162,1.00003,1.00003
app_3,0.90385,20040.1,7288.82,711.18,728.922,2.01765e+11,1.06801,0.954502,10,0.277119,1822,1,1
app_30,87.0525,20817.3,7651.2,348.8,87.79,9.59635e+10,1.03264,0.954502,87,1.10303,227,1.00003,1.00003
app_31,13.5386,20255.3,7855.5,144.5,88.8694,4.22903e+10,1.01294,0.954502,88,0.475172,225,1.00003,1.00003
app_32,8.23929,20855.6,7646.3,353.7,48.2489,1.04064e+11,1.03221,0.954502,158,2.12375,125,1.00003,1.00003
app_33,36.3651,20509.5,7876.9,123.1,36.5635,2.79528e+10,1.01204,0.954502,213,0.755482,94,1.00003,1.00003
app_34,41.7054,20345.9,7778.9,221.1,70.1192,6.37468e+10,1.02006,0.954502,112,0.910668,177,1.00003,1.00003
app_35,25.1581,20656.1,7675.3,324.7,158.369,8.83914e+10,1.03044,0.954502,48,0.555921,411,1.00004,1.00004
app_36,18.5218,21141,7547.3,452.7,45.0994,1.41382e+11,1.04049,0.954502,167,3.14182,118,1.00004,1.00004
app_37,91.0468,20101.1,7920.6,79.4,56.9598,2.01324e+10,1.00746,0.954502,140,0.359507,142,1.00004,1.00004
app_38,37.2127,20887.8,7459.5,540.5,44.3445,1.79721e+11,1.04723,0.954502,170,3.99379,115,1.00004,1.00004
app_39,99.2289,21054.4,7499,501,63.373,1.43603e+11,1.04676,0.954502,119,2.2438,165,1.00004,1.00004
app_4,1.15213,19363.9,7652.9,347.1,956.302,8.79088e+10,1.03348,0.954502,8,0.0918587,2312,1,1
app_40,39.093,20342,7766.3,233.7,201.039,6.26617e+10,1.02185,0.954502,39,0.31175,507,1.00004,1.00004
app_41,286.366,21220.9,7682.8,317.2,16.7561,1.13769e+11,1.02609,0.954502,450,7.11056,44,1.00004,1.00004
app_42,108.382,20406.6,7962,38,23.5993,1.15984e+10,1.00331,0.954502,331,0.504279,61,1.00004,1.00004
app_43,232.8,21571.3,7389.8,610.2,18.5277,1.79868e+11,1.05685,0.954502,401,9.46675,49,1.00004,1.00004
app_44,592.14,22521.9,7658.1,341.9,4.68815,1.06687e+11,1.03029,0.954502,1626,26.6718,13,1.00004,1.00004
app_45,804.533,21399.8,7706.7,293.3,6.56162,7.06009e+10,1.02863,0.954502,1196,11.7668,17,1.00004,1.00004
app_46,873.397,21238.3,7990.4,9.6,7.2824,2.70463e+09,1.00086,0.954502,1056,0.338079,19,1.00005,1.00005
app_47,642.647,21298.5,7449.4,550.6,8.19963,1.65448e+11,1.05058,0.954502,934,20.681,21,1.00005,1.00005
app_48,1568.01,23020.7,7588.9,411.1,4.45365,1.44543e+11,1.03447,0.954502,1698,36.1357,12,1.00005,1.00005
app_49,455.97,21206.6,7964.3,35.7,8.26353,9.88136e+09,1.00324,0.954502,917,1.23517,22,1.00005,1.00005
app_5,15.5838,19976.4,7911.6,88.4,466.505,1.74622e+10,1.00895,0.954502,17,0.0373923,1161,1.00001,1.00001
app_50,1953.22,23881.2,7918.4,81.6,3.22353,2.25196e+10,1.00744,0.954502,2490,7.50653,9,1.00005,1.00005
app_51,59.0134,21244.7,7431.5,568.5,11.1796,1.76176e+11,1.05157,0.954502,655,16.016,30,1.00005,1.00005
app_52,219.532,21514.5,7430.7,569.3,18.0881,1.58902e+11,1.05407,0.954502,417,8.82788,47,1.00005,1.00005
app_53,61.8189,21201.6,7275.6,724.4,9.76653,1.88636e+11,1.07178,0.954502,751,18.8636,26,1.00005,1.00005
app_54,1163.99,22974.3,7595.7,404.3,5.76852,1.1936e+11,1.03693,0.954502,1296,19.8933,16,1.00005,1.00005
app_55,73.9478,20814.2,7961.5,38.5,4.13103,9.12996e+09,1.00368,0.954502,1885,2.28249,11,1.00005,1.00005
app_56,187.396,21415.9,7541.8,458.2,6.68342,1.64381e+11,1.03813,0.954502,1177,23.483,17,1.00006,1.00006
app_57,153.192,22687.8,7410.4,589.6,6.61673,2.04949e+11,1.05051,0.954502,1143,29.2784,18,1.00006,1.00006
app_58,35.0927,21456,7615.1,384.9,4.09864,1.41458e+11,1.03139,0.954502,1890,28.2916,11,1.00006,1.00006
app_59,2200.21,23685.1,7801.6,198.4,2.69578,5.1917e+10,1.01865,0.954502,3001,25.9585,7,1.00006,1.00006
app_6,7.40931,19660.2,7423.2,576.8,925.967,1.53539e+11,1.05586,0.954502,8,0.165809,2274,1.00001,1.00001
app_60,755.326,21826.5,7589.1,410.9,9.79173,1.19145e+11,1.03785,0.954502,762,11.9145,26,1.00006,1.00006
app_7,8.36493,20992.2,7456,544,679.196,1.48641e+11,1.05199,0.954502,11,0.218912,1781,1.00001,1.00001
app_8,9.92237,20162.6,7549.21,450.791,629.595,1.23207e+11,1.0427,0.954502,12,0.195726,1584,1.00001,1.00001
app_9,15.4899,21294.9,7349.2,650.8,408.376,1.82945e+11,1.06211,0.954502,18,0.448394,1084,1.00001,1.00001
