app_id,Tcomp,Tio,iter,witer,alpha_io,compute_size,io_size,mu,desyn_time
1,10.16421418991283,0.6517017791906369,1850,10.815915969103466,0.06025396101932332,10e9,651701779.1906369,10,6.308306802956137
2,9.997554922785614,0.7754709076917058,1857,10.77302583047732,0.07198264627732236,9e9,775470907.6917058,10,3.4996769086700366
3,10.277355676029147,0.6394282978780216,1833,10.916783973907169,0.058572955130957595,10e9,639428297.8780216,10,4.953670338652033
4,10.109380313687911,0.41298113295406524,1901,10.522361446641977,0.0392479516169691,10e9,412981132.95406526,10,6.66019862078728
5,8.916219568349417,0.6909792551178989,2082,9.607198823467316,0.07192307225182615,8e9,690979255.117899,10,8.963117787645855
6,96.46561640934453,5.965146499319744,196,102.43076290866428,0.05823588861325538,96e9,5965146499.319743,100,26.15209214864923
7,76.6302166780387,6.604957204221437,241,83.23517388226014,0.07935295736348726,76e9,6604957204.2214365,100,22.48149486673699
8,100.31679703031507,1.5551858034095063,197,101.87198283372457,0.015266079643780767,100e9,1555185803.4095063,100,14.38707465182518
9,89.70093582986813,2.7491365623582826,217,92.45007239222642,0.029736445750900693,89e9,2749136562.3582826,100,74.71333177329402
10,92.27143725749518,7.299632905089017,201,99.57107016258419,0.07331078086405864,92e9,7299632905.089017,100,96.47763778460563
11,1027.6448061341412,57.3743300595973,19,1085.0191361937384,0.052878634252357254,1027e9,57374330059.5973,1000,412.3595697509079
12,984.5691715590725,74.6844389274335,19,1059.253610486506,0.07050666449287021,984e9,74684438927.4335,1000,143.44723239232326
13,989.2743041719405,20.75715845022869,20,1010.0314626221691,0.020551001843388608,989e9,20757158450.22869,1000,552.0626102144878
14,1062.266869718601,21.193096952190334,19,1083.4599666707913,0.019560572244594843,1062e9,21193096952.190334,1000,423.32449732322874
15,899.734363269257,76.77342154728986,21,976.5077848165469,0.07862038863490782,899e9,76773421547.28986,1000,131.2671556035739
