app_id,Tcomp,Tio,iter,witer,alpha_io,compute_size,io_size,mu,desyn_time
1,10.770542419932445,0.15538482673817655,1831,10.925927246670621,0.01422166038910115,10e9,155384826.73817655,10,8.132609814306848
2,8.897824908905335,0.5825377971365908,2110,9.480362706041927,0.061446783757053286,8e9,582537797.1365908,10,7.835971994115683
3,9.016836396958885,0.661376963434138,2067,9.678213360393023,0.0683366793855514,9e9,661376963.434138,10,6.761492225034744
4,8.92072536604941,0.858034946065422,2046,9.778760312114832,0.08774475686886496,8e9,858034946.0654219,10,1.0219209999970913
5,9.277461551504732,0.6839672387360531,2008,9.961428790240785,0.06866155981621191,9e9,683967238.7360531,10,0.9134378208153231
6,94.74166371329709,6.9930894114054265,197,101.73475312470251,0.06873845167573729,94e9,6993089411.405427,100,31.879920572295156
7,101.32624559190916,8.229351813764675,183,109.55559740567384,0.07511575865258785,101e9,8229351813.764674,100,75.71757866435271
8,92.79200440050823,4.68604645172244,206,97.47805085223067,0.04807283702077846,92e9,4686046451.72244,100,14.146307942762519
9,107.15041458764779,1.4753326479529654,185,108.62574723560076,0.013581795159052707,107e9,1475332647.9529653,100,58.21018331728401
10,92.5544145667194,1.167679947571997,214,93.7220945142914,0.012458961290007673,92e9,1167679947.571997,100,76.62138074418132
11,981.7906084487995,64.27008798731048,20,1046.06069643611,0.06144011356728753,981e9,64270087987.31048,1000,831.6442107891398
12,999.0322822917071,90.72720221850277,19,1089.7594845102099,0.0832543359411824,999e9,90727202218.50276,1000,454.5499088519607
13,1047.6877218228792,13.249468744365945,19,1060.9371905672451,0.01248845724531716,1047e9,13249468744.365946,1000,753.6629573626778
14,915.0171860309,48.750258802528535,21,963.7674448334285,0.05058301052174907,915e9,48750258802.528534,1000,840.7724422965857
15,873.4715090925345,69.65441284765751,22,943.125921940192,0.07385483870951712,873e9,69654412847.65752,1000,667.4039790787941
