app_id,Tcomp,Tio,iter,witer,alpha_io,compute_size,io_size,mu,desyn_time
1,8.47063400872522,0.910339575197591,2132,9.380973583922811,0.09704105517978841,8e9,910339575.1975911,10,9.368302862889461
2,9.441847220832042,1.047561653641244,1907,10.489408874473286,0.09986851177005399,9e9,1047561653.6412439,10,8.909232548843752
3,10.010898741932863,0.07727280189598004,1983,10.088171543828842,0.007659743052570268,10e9,77272801.89598005,10,5.111171337596278
4,10.386939457173241,0.5803464183079419,1824,10.967285875481183,0.05291613849561294,10e9,580346418.3079419,10,4.148595829471815
5,8.91823439697241,0.8076685163163706,2057,9.725902913288781,0.08304303708531059,8e9,807668516.3163706,10,1.9815018824513058
6,92.79863892937823,2.674907461037862,210,95.47354639041609,0.028017263023827267,92e9,2674907461.037862,100,70.98754996047202
7,103.73852274223161,1.3994474279875135,191,105.13797017021912,0.013310580618227631,103e9,1399447427.9875135,100,77.1971069235873
8,102.38750805674671,3.0454012466723395,190,105.43290930341905,0.028884731217158788,102e9,3045401246.6723394,100,78.27497811828192
9,104.64311641458049,1.5538693859454948,189,106.19698580052598,0.014631953762456022,104e9,1553869385.945495,100,79.28422261435038
10,88.18468808096743,9.86315737744267,204,98.04784545841011,0.10059535047739952,88e9,9863157377.44267,100,1.6826958024810938
11,917.17281696931,91.51376748401152,20,1008.6865844533215,0.0907256712783677,917e9,91513767484.01152,1000,674.8882040367558
12,919.6968444565451,20.71230980124755,22,940.4091542577927,0.022024785389923716,919e9,20712309801.24755,1000,137.72049275935552
13,875.3747665114678,20.5353955975116,23,895.9101621089794,0.02292126651311904,875e9,20535395597.5116,1000,205.8384412294097
14,929.1221781642593,50.24858772222948,21,979.3707658864887,0.051307012086220884,929e9,50248587722.22948,1000,789.6954246358918
15,954.7141130035228,91.03554002212547,20,1045.7496530256483,0.08705290004996322,954e9,91035540022.12547,1000,859.3126465803487
