app_id,Tcomp,Tio,iter,witer,alpha_io,compute_size,io_size,mu,desyn_time
1,8.323684553582511,0.729483234331879,2210,9.05316778791439,0.0805776774960152,8e9,729483234.331879,10,7.510054120655645
2,8.882507472192392,0.7058496355010687,2086,9.588357107693462,0.07361528440932935,8e9,705849635.5010687,10,6.616475437884473
3,9.390281312614812,0.4167731152796834,2040,9.807054427894496,0.04249727768352578,9e9,416773115.2796834,10,2.2717729247300946
4,10.355987395550162,0.0872740322729568,1916,10.443261427823119,0.0083569709401739,10e9,87274032.2729568,10,5.304768973936584
5,10.363905255214648,0.6221671349614539,1821,10.986072390176103,0.056632353480376145,10e9,622167134.9614539,10,0.20675326026085317
6,89.0382995489784,4.032865308993083,215,93.07116485797148,0.043330985651112444,89e9,4032865308.993083,100,11.529906128246362
7,94.74546297842218,6.98834396407736,197,101.73380694249954,0.06869244525595318,94e9,6988343964.07736,100,73.4683895985293
8,92.2918870326398,5.624015809822647,205,97.91590284246246,0.05743720526042806,92e9,5624015809.822647,100,91.334019924769
9,82.78472120062266,6.10304608751461,226,88.88776728813727,0.06866013483870133,82e9,6103046087.514609,100,77.48477373374423
10,98.00528251853983,6.660599740640231,192,104.66588225918007,0.06363678017013076,98e9,6660599740.640231,100,24.802405780786096
11,1001.17507939949,69.30213605837956,19,1070.4772154578695,0.06473947792409325,1001e9,69302136058.37956,1000,836.077398436757
12,964.4626921163316,19.951674538973048,21,984.4143666553047,0.02026755725514435,964e9,19951674538.97305,1000,346.22220032029674
13,913.3424970003769,74.88170832382691,21,988.2242053242038,0.07577400747764591,913e9,74881708323.82692,1000,569.8607081721063
14,943.5676678549934,15.035075211297094,21,958.6027430662905,0.0156843648946844,943e9,15035075211.297094,1000,89.1121547167043
15,1020.3336848827314,65.24025517987724,19,1085.5739400626087,0.06009747726268614,1020e9,65240255179.877235,1000,265.88737466439903
