app_id,Tcomp,Tio,iter,witer,alpha_io,compute_size,io_size,mu,desyn_time
1,7.798553002944658,0.9371770773741833,2290,8.735730080318842,0.1072809105544133,7e9,937177077.3741833,10,3.085166843854618
2,9.95162412728344,0.5849508633350411,1899,10.536574990618481,0.055516224565939847,9e9,584950863.335041,10,2.8154016853301447
3,9.67955275066931,0.10736245113727529,2044,9.786915201806586,0.010969999118563634,9e9,107362451.13727528,10,6.1246935519502825
4,9.387226789047995,0.20642493162172432,2085,9.593651720669719,0.02151682567097757,9e9,206424931.6217243,10,4.713118978610124
5,8.962768377005924,0.6699521281731601,2077,9.632720505179083,0.06954962804256147,8e9,669952128.1731601,10,5.919281309062011
6,94.01901287340078,5.532033665983226,201,99.551046539384,0.05556981928657741,94e9,5532033665.983226,100,64.95162328016266
7,92.99816450278088,2.1862825489447837,211,95.18444705172567,0.022968905285090345,92e9,2186282548.9447837,100,46.35619107847052
8,95.52452981932908,5.313186456653976,199,100.83771627598306,0.05269046794070881,95e9,5313186456.6539755,100,77.69530980284004
9,94.25225392293824,7.573329284428429,197,101.82558320736666,0.07437550609462681,94e9,7573329284.428429,100,75.24242140821228
10,89.86579021477378,11.212691668136753,198,101.07848188291054,0.11093055078850067,89e9,11212691668.136753,100,6.022581537653885
11,942.1626802264564,130.65363880312935,19,1072.8163190295857,0.12178565564822122,942e9,130653638803.12935,1000,716.4060308054347
12,962.421757299893,47.05215205888657,20,1009.4739093587796,0.04661056776472234,962e9,47052152058.886566,1000,566.2371525027155
13,907.3700710658014,27.280601564330055,22,934.6506726301315,0.02918801897136791,907e9,27280601564.330055,1000,247.6721203686871
14,914.3218711798647,5.729175866911601,22,920.0510470467764,0.006227019560818264,914e9,5729175866.911601,1000,344.26269832754286
15,1062.865163395504,15.9885042315186,19,1078.8536676270226,0.01481990070691041,1062e9,15988504231.5186,1000,402.43130074605364
