app_id,Tcomp,Tio,iter,witer,alpha_io,compute_size,io_size,mu,desyn_time
1,9.22946455911702,1.1598689417325274,1926,10.389333500849547,0.11164036091802075,9e9,1159868941.7325275,10,7.576725066479169
2,9.141125540075755,0.8353508981919462,2005,9.976476438267701,0.08373205744141417,9e9,835350898.1919461,10,7.548734311982918
3,8.758661032311554,0.686375459549894,2118,9.445036491861448,0.0726704931358737,8e9,686375459.549894,10,4.753936426752463
4,10.297575530884034,0.287236527393961,1890,10.584812058277995,0.027136667690695917,10e9,287236527.393961,10,9.782047812475412
5,9.39913523068166,0.6609332744400019,1989,10.060068505121661,0.06569868526278082,9e9,660933274.440002,10,7.9578712247463015
6,92.57527194251864,2.4409117763277774,211,95.01618371884642,0.025689431850372493,92e9,2440911776.3277774,100,62.10492397496745
7,91.64697958061673,8.09301082294282,201,99.73999040355955,0.08114108283144565,91e9,8093010822.94282,100,62.05614028171673
8,92.77274806911987,11.728454992763549,192,104.50120306188342,0.11223272698418796,92e9,11728454992.76355,100,37.9368530596901
9,92.55018453430965,5.419164484293343,205,97.969349018603,0.055314897348805694,92e9,5419164484.293343,100,1.0679147552625186
10,95.8782765803384,6.3289460737258745,196,102.20722265406427,0.06192268911510437,95e9,6328946073.725875,100,37.091122738731244
11,961.594189846033,18.154529215718647,21,979.7487190617517,0.018529781016814375,961e9,18154529215.718647,1000,871.2063522442213
12,901.1332808569102,34.396390466518596,22,935.5296713234288,0.036766755262674256,901e9,34396390466.51859,1000,21.875340039167302
13,1005.4760134994877,25.743581823983806,20,1031.2195953234716,0.024964209311702026,1005e9,25743581823.983807,1000,807.2979200558839
14,951.6755025747104,6.656308230878096,21,958.3318108055885,0.00694572397141101,951e9,6656308230.878097,1000,739.7955435187909
15,987.8341188530588,15.669139264882457,20,1003.5032581179413,0.015614437858696886,987e9,15669139264.882458,1000,156.96142217386216
