app_id,Tcomp,Tio,iter,witer,alpha_io,compute_size,io_size,mu,desyn_time
1,9.35659317679421,0.7254223575752761,1984,10.082015534369486,0.07195211662810068,9e9,725422357.575276,10,8.154323583804409
2,9.473085683037274,0.3468654864378292,2037,9.819951169475104,0.035322526604413845,9e9,346865486.4378292,10,1.8904066618063466
3,8.96711289793271,0.6354349704210619,2083,9.602547868353772,0.06617358008859357,8e9,635434970.4210619,10,8.330211648717503
4,9.644750660175273,0.5146221089657483,1969,10.15937276914102,0.050654909575609544,9e9,514622108.9657483,10,3.3265824581849497
5,9.259565772110701,0.5783398233689997,2033,9.8379055954797,0.05878688484617437,9e9,578339823.3689997,10,9.13535205402096
6,94.6783623533272,1.2243531217256465,209,95.90271547505284,0.012766615790395812,94e9,1224353121.7256465,100,53.255443763007044
7,100.50056147326522,2.431029639759884,195,102.9315911130251,0.0236179156804296,100e9,2431029639.759884,100,52.32179609617812
8,93.26759161123292,1.5665949937313315,211,94.83418660496424,0.016519306484454262,93e9,1566594993.7313316,100,12.593280760295217
9,94.66389848990724,5.176399817533309,201,99.84029830744055,0.05184679838989964,94e9,5176399817.533309,100,15.413220120818371
10,93.06754462729899,4.119427509083724,206,97.1869721363827,0.04238662259487744,93e9,4119427509.0837235,100,87.24791280900448
11,881.5112358240725,96.5423961950202,21,978.0536320190927,0.09870869350560889,881e9,96542396195.0202,1000,337.1676692109167
12,930.2083708283134,75.29251983475356,20,1005.5008906630669,0.07488060978752858,930e9,75292519834.75356,1000,997.8868346372376
13,985.6951362656366,31.317990359688398,20,1017.0131266253251,0.03079408666396316,985e9,31317990359.688396,1000,102.76313247387549
14,949.4407328914767,97.98448975422384,20,1047.4252226457006,0.09354795706248505,949e9,97984489754.22385,1000,844.038760809299
15,932.8126897582791,72.41821809877287,20,1005.230907857052,0.07204137629746561,932e9,72418218098.77287,1000,66.07667936197447
