app_id,start_app,end_app,effective_cpu,effective_io,effective_iter,total_bytes,stretch,utilization,Tcomp,Tio,iterations,priority,group_id
app_1,2.07977,27980,4196.72,466.097,524.233,4.32834e+11,1.72803,0.767567,8,0.824446,2134,1,1
app_10,84.7998,22818.6,6439,423.44,73.2948,4.20119e+11,1.16633,0.767567,88,5.75505,212,1,1
app_11,342.441,21110.5,7575.2,416.596,8.35818,4.15876e+11,1.00112,0.767567,875,46.2084,22,1,1
app_12,658.399,21316.4,7756.2,128.787,8.48038,1.28317e+11,1.01465,0.767567,915,14.2574,22,1,1
app_13,311.206,21274.3,7691.2,288.973,8.54137,2.88786e+11,1.00251,0.767567,913,36.0982,22,1,1
app_14,111.677,20883.6,7254.7,641.619,8.41078,6.4127e+11,1.01318,0.767567,863,80.1587,22,1,1
app_15,237.127,20213.7,7543.1,422.475,8.11914,4.22057e+11,1.00437,0.767567,951,52.7572,20,1,1
app_2,7.78204,27658.2,4524.66,51.7217,499.867,2.76631e+10,1.75735,0.767567,9,0.0553262,2019,1,1
app_3,2.82073,27831.3,4567,33.1818,455.858,2.64881e+09,1.75068,0.767567,10,0.00580879,1847,1,1
app_4,4.3957,28515.9,4469.48,147.027,497.847,1.20863e+11,1.74279,0.767567,9,0.242696,2085,1,1
app_5,6.57773,28110.1,4272.6,468.364,472.909,4.40975e+11,1.69723,0.767567,9,0.932294,1933,1,1
app_6,62.6559,22591.5,6351.58,551.604,66.1941,5.49324e+11,1.15927,0.767567,97,8.2971,189,1,1
app_7,31.2954,22123.9,6360.5,739.181,66.843,7.36915e+11,1.12717,0.767567,95,10.9987,188,1,1
app_8,59.1744,23357,6811.1,13.2813,65.4814,1.00051e+10,1.17283,0.767567,103,0.151592,194,1,1
app_9,57.9268,22064.9,6294.97,759.603,67.6463,7.55084e+11,1.13474,0.767567,93,11.1042,191,1,1
