app_id,start_app,end_app,effective_cpu,effective_io,effective_iter,total_bytes,stretch,utilization,Tcomp,Tio,iterations,priority,group_id
app_1,3.5067,20388.8,7206.1,793.9,721.295,2.6413e+11,1.07092,0.860154,10,0.366338,1843,1,1
app_10,89.0599,21996.1,6599,1401,72.9421,5.29778e+11,1.12221,0.860154,92,7.25723,200,1.00001,1.00001
app_11,86.8547,22668.6,7152.8,847.2,7.14395,3.08629e+11,1.07218,0.860154,969,44.0898,20,1.00001,1.00001
app_12,570.727,23860.5,6497.9,1502.1,6.66618,3.93798e+11,1.16082,0.860154,978,56.2569,20,1.00001,1.00001
app_13,744.638,24455.4,6367.2,1632.8,7.58853,6.78013e+11,1.13552,0.860154,842,84.7516,22,1.00001,1.00001
app_14,1000.36,21834.1,7745.1,254.9,7.78314,8.50059e+10,1.0217,0.860154,999,10.6257,20,1.00001,1.00001
app_15,748.765,23769.8,6629.3,1370.7,6.82781,4.14555e+11,1.13574,0.860154,986,59.2221,20,1.00002,1.00002
app_2,4.63042,20854,7303.6,696.4,731.065,2.21938e+11,1.06305,0.860154,10,0.303608,1904,1,1
app_3,1.50398,20983.9,6531.4,1468.6,814.011,5.23684e+11,1.13393,0.860154,8,0.643347,2148,1,1
app_4,9.1751,19578.2,7227.9,772.1,724.198,2.53995e+11,1.06925,0.860154,10,0.350822,1775,1,1
app_5,8.54388,21250.5,6336,1664,790.361,6.07834e+11,1.1521,0.860154,8,0.769135,2119,1.00001,1.00001
app_6,74.2833,22409.9,6525.46,1474.54,68.1553,5.51181e+11,1.13048,0.860154,96,8.03737,192,1.00001,1.00001
app_7,32.4203,20999.7,7403.9,596.1,77.7562,1.98813e+11,1.05226,0.860154,96,2.54889,203,1.00001,1.00001
app_8,6.89216,22210.4,6593.62,1406.38,74.1868,5.63966e+11,1.1177,0.860154,88,7.5475,209,1.00001,1.00001
app_9,37.1243,21560.9,7099.26,900.741,73.5976,3.36394e+11,1.0759,0.860154,96,4.56389,198,1.00001,1.00001
