app_id,start_app,end_app,effective_cpu,effective_io,effective_iter,total_bytes,stretch,utilization,Tcomp,Tio,iterations,priority,group_id
app_1,8.15432,28083.5,4291.98,375.854,476.821,3.46026e+11,1.72488,0.739506,9,0.725422,1984,1,1
app_10,87.2479,24334.1,6143.1,279.783,66.5456,2.76002e+11,1.24628,0.739506,93,4.11943,206,1,1
app_11,337.168,20898.9,7143.74,850.641,8.10823,8.50254e+11,1.00075,0.739506,881,96.5424,21,1,1
app_12,997.887,21467.1,7296.4,527.266,7.6096,5.27048e+11,1.02257,0.739506,930,75.2925,20,1,1
app_13,102.763,20573.5,7516.2,250.988,7.92952,2.50544e+11,1.03003,0.739506,985,31.318,20,1,1
app_14,844.039,22253.7,7149.4,784.225,7.59603,7.83876e+11,1.00841,0.739506,949,97.9845,20,1,1
app_15,66.0767,20784.4,7330.2,579.81,7.78971,5.79346e+11,1.01144,0.739506,932,72.4182,20,1,1
app_2,1.89041,27955.8,4438.2,197.183,493.052,1.71352e+11,1.73553,0.739506,9,0.346865,2037,1,1
app_3,8.33021,26868.9,4258.86,370.735,532.166,3.38687e+11,1.74006,0.739506,8,0.635435,2083,1,1
app_4,3.32658,27630.6,4349.66,279.774,480.76,2.47533e+11,1.74019,0.739506,9,0.514622,1969,1,1
app_5,9.13535,28249.2,4339.62,296.17,482.884,2.79338e+11,1.73199,0.739506,9,0.57834,2033,1,1
app_6,53.2554,24311.2,6171.9,84.0797,65.5053,8.08073e+10,1.27945,0.739506,94,1.22435,209,1,1
app_7,52.3218,24346.6,6052.8,151.729,60.6008,1.48293e+11,1.2901,0.739506,100,2.43103,195,1,1
app_8,12.5933,24200.7,6219.6,109.515,67.439,1.06528e+11,1.2646,0.739506,93,1.56659,211,1,1
app_9,15.4132,24228.6,6039.1,339.597,64.4825,3.36466e+11,1.25479,0.739506,94,5.1764,201,1,1
