app_id,start_app,end_app,effective_cpu,effective_io,effective_iter,total_bytes,stretch,utilization,Tcomp,Tio,iterations,priority,group_id
app_1,6.29948,20114.7,6647.29,1352.71,830.236,5.22601e+11,1.11578,0.877813,8,0.629637,2087,1,1
app_10,53.298,20767.9,7486.9,513.1,77.828,2.0536e+11,1.04001,0.877813,96,2.63282,202,1.00001,1.00001
app_11,380.157,23091,6529.93,1470.07,7.62078,6.84888e+11,1.10883,0.877813,868,91.7957,21,1.00001,1.00001
app_12,372.223,22932.6,6947,1053,6.66701,4.74843e+11,1.0779,0.877813,1022,67.8347,19,1.00001,1.00001
app_13,238.363,21326.8,7745.5,254.5,7.82183,9.26383e+10,1.02065,0.877813,1024,11.5798,20,1.00001,1.00001
app_14,403.718,22249.5,6933.87,1066.13,6.96315,3.96837e+11,1.0913,0.877813,995,57.9021,19,1.00001,1.00001
app_15,353.113,22634.9,6609.3,1390.7,7.77337,5.85698e+11,1.11188,0.877813,838,73.2123,22,1.00002,1.00002
app_2,0.397767,20866.2,7300.4,699.6,728.787,2.44877e+11,1.06027,0.877813,10,0.335908,1906,1,1
app_3,0.887962,21840.3,5933.5,2066.5,657.826,8.76808e+11,1.17469,0.877813,9,1.33254,1806,1,1
app_4,2.56946,20514.6,7585.3,414.7,759.032,1.42619e+11,1.03521,0.877813,10,0.187903,1946,1,1
app_5,8.62594,20788.2,6995.3,1004.7,778.094,3.79703e+11,1.08475,0.877813,9,0.48805,2022,1.00001,1.00001
app_6,23.7055,19890,7931.4,68.6,81.0757,2.29887e+10,1.00573,0.877813,99,0.283811,200,1.00001,1.00001
app_7,58.5931,21974.2,6768.45,1231.55,70.098,4.58611e+11,1.10695,0.877813,97,6.52658,193,1.00001,1.00001
app_8,0.667298,20543.7,7641.7,358.3,78.1038,1.35326e+11,1.02867,0.877813,98,1.73495,200,1.00001,1.00001
app_9,37.5143,22881.8,6281.7,1718.3,71.27,7.00303e+11,1.1458,0.877813,88,9.86342,205,1.00001,1.00001
