app_id,start_app,end_app,effective_cpu,effective_io,effective_iter,total_bytes,stretch,utilization,Tcomp,Tio,iterations,priority,group_id
app_1,1.12185,20272,7504.6,420.228,833.65,3.72436e+11,1.01561,0.899797,9,0.447102,2114,0.1,1
app_10,17.6437,20605.9,7318.5,534.983,75.3942,3.8665e+11,1.03827,0.899797,98,5.15533,193,0.01,2
app_11,602.553,23005.5,6627.6,1229.74,6.98126,5.29837e+11,1.11772,0.899797,940,75.6911,20,0.001,3
app_12,359.379,22276.1,7346,510.094,7.01953,2.41683e+11,1.05434,0.899797,1024,34.5262,19,0.001,3
app_13,671.68,23686.4,7291.4,86.4857,7.85817,5.07476e+10,1.0896,0.899797,931,6.34345,22,0.001,3
app_14,512.282,22901.7,6459.63,1537.7,7.02054,6.97361e+11,1.11779,0.899797,916,99.2376,20,0.001,3
app_15,567.848,23926.2,6902.6,428.036,7.02155,1.96106e+11,1.12697,0.899797,952,28.0151,21,0.001,3
app_2,7.76874,19567.7,7501.5,447.616,750.322,3.82054e+11,1.01477,0.899797,10,0.509405,1831,0.1,1
app_3,2.34837,19845.2,7279.6,679.798,808.527,6.08724e+11,1.01416,0.899797,9,0.753371,2006,0.1,1
app_4,6.60442,18568.2,7634.5,305.677,764.32,2.55663e+11,1.01392,0.899797,10,0.334638,1772,0.1,1
app_5,0.481235,19979.5,7553.8,372.082,842.533,3.12033e+11,1.01706,0.899797,9,0.370146,2095,0.1,1
app_6,96.1205,20824.7,7242.7,448.344,79.1472,3.23003e+11,1.0574,0.899797,92,4.08864,207,0.01,2
app_7,33.91,20639.3,7309.8,600.593,74.4307,4.37926e+11,1.03256,0.899797,98,5.91793,192,0.01,2
app_8,99.013,20934.2,6983.3,927.95,76.9687,6.67907e+11,1.04559,0.899797,91,8.67411,201,0.01,2
app_9,94.1574,20918.6,7020.1,933.918,76.9747,6.73181e+11,1.03987,0.899797,92,8.74261,199,0.01,2
