app_id,start_app,end_app,effective_cpu,effective_io,effective_iter,total_bytes,stretch,utilization,Tcomp,Tio,iterations,priority,group_id
app_1,6.75616,26933.4,4744.3,60.0195,527.748,3.61416e+10,1.67349,0.771418,9,0.0684501,2023,1,1
app_10,66.8354,23009.8,6525.44,355.711,68.1706,3.53469e+11,1.16297,0.771418,95,5.19807,199,1,1
app_11,870.708,21679.6,7648,181.446,7.97464,1.81124e+11,1.02183,0.771418,956,22.6406,21,1,1
app_12,743.423,21144.1,7177.1,683.687,8.70624,6.83109e+11,1.01778,0.771418,845,75.901,22,1,1
app_13,342.48,21537.4,7383.4,314.763,8.01988,3.14384e+11,1.03926,0.771418,895,39.298,22,1,1
app_14,23.2606,21268.4,7339.8,500.096,7.57921,4.99608e+11,1.02049,0.771418,980,62.451,20,1,1
app_15,941.092,22461.9,7285.2,471.144,7.24243,4.70611e+11,1.03148,0.771418,991,58.8264,20,1,1
app_2,4.81225,26753.7,4521.3,416.547,503.228,4.01884e+11,1.62496,0.771418,9,0.797388,1904,1,1
app_3,1.35732,27218.7,4534.96,397.343,506.265,3.68939e+11,1.63135,0.771418,9,0.728698,1959,1,1
app_4,6.22414,28385.3,4729.3,156.49,524.982,1.29321e+11,1.64656,0.771418,9,0.246326,2155,1,1
app_5,9.80774,27994.9,4490.4,396.039,498.209,3.70011e+11,1.64595,0.771418,9,0.742994,2030,1,1
app_6,83.2359,22788.3,6588.2,327.509,68.0577,3.2406e+11,1.15736,0.771418,97,4.76559,196,1,1
app_7,86.4814,22919,6660.3,298.267,73.0841,2.93134e+11,1.15051,0.771418,91,4.01553,211,1,1
app_8,65.7219,22598.3,6550.39,466.05,63.643,4.61741e+11,1.14088,0.771418,102,7.30825,183,1,1
app_9,1.05274,22879.9,6392.1,510.672,69.9009,5.06542e+11,1.15965,0.771418,91,7.23631,203,1,1
