app_id,start_app,end_app,effective_cpu,effective_io,effective_iter,total_bytes,stretch,utilization,Tcomp,Tio,iterations,priority,group_id
app_1,9.00517,20302.6,6642.6,1357.4,831.327,5.21401e+11,1.11669,0.877853,8,0.627437,2113,1,1
app_10,64.8881,20940.1,7543.4,456.6,71.5258,1.62911e+11,1.03811,0.877853,105,2.29452,187,1.00001,1.00001
app_11,1023.28,23181.6,6950.2,1049.8,7.53135,5.45067e+11,1.06734,0.877853,957,77.8668,20,1.00001,1.00001
app_12,923.742,23016.5,6548.68,1451.32,7.48339,6.42546e+11,1.11247,0.877853,881,83.4014,21,1.00001,1.00001
app_13,399.733,21744.7,7252.2,747.8,7.91415,3.1697e+11,1.05692,0.877853,936,39.6213,21,1.00001,1.00001
app_14,72.5964,21671.4,7242.9,757.1,6.94222,2.86713e+11,1.06247,0.877853,1014,40.959,19,1.00001,1.00001
app_15,645.678,22992.5,6539.9,1460.1,7.13647,6.77933e+11,1.10837,0.877853,922,91.0599,20,1.00002,1.00002
app_2,2.35193,19077.2,7815.8,184.2,870.43,4.63599e+10,1.01753,0.877853,9,0.0532872,2073,1,1
app_3,8.52032,21505.6,6441.6,1558.4,803.038,6.15407e+11,1.13363,0.877853,8,0.766384,2176,1,1
app_4,9.39225,21224,6850.8,1149.2,761.547,4.50817e+11,1.09565,0.877853,9,0.591623,2021,1,1
app_5,8.03155,21141.4,6859.6,1140.4,764.187,4.47507e+11,1.09482,0.877853,9,0.585742,2016,1.00001,1.00001
app_6,38.8021,20194.4,7799.9,200.1,74.4174,7.5955e+10,1.01576,0.877853,106,1.02642,187,1.00001,1.00001
app_7,73.0241,21275.8,7096.4,903.6,78.585,3.52324e+11,1.07401,0.877853,91,4.51698,208,1.00001,1.00001
app_8,30.0318,21231,7174.2,825.8,74.7939,3.08828e+11,1.06909,0.877853,96,4.1177,199,1.00001,1.00001
app_9,4.69759,22231.3,6584.2,1415.8,77.0167,5.43646e+11,1.12236,0.877853,85,7.06033,217,1.00001,1.00001
