app_id,start_app,end_app,effective_cpu,effective_io,effective_iter,total_bytes,stretch,utilization,Tcomp,Tio,iterations,priority,group_id
app_1,8.37874,28362.2,4627.45,232.964,463.628,2.10886e+11,1.65346,0.763477,10,0.455477,1897,1,1
app_10,57.0844,23740.9,6139.9,390.951,71.8135,3.88077e+11,1.22549,0.763477,85,5.38995,220,1,1
app_11,468.437,22125.3,7448.1,286.947,7.06424,2.86601e+11,1.0343,0.763477,1035,40.943,19,1,1
app_12,596.968,22191.3,7821.4,177.617,7.69865,1.77107e+11,1.00019,0.763477,1028,22.1384,20,1,1
app_13,908.033,20991.4,7173.3,710.095,7.98397,7.0976e+11,1.01483,0.763477,915,88.72,20,1,1
app_14,216.38,20665,7264.1,713.612,8.04181,7.13027e+11,1.00287,0.763477,912,89.1284,20,1,1
app_15,731.909,21344.8,7350.5,559.256,7.5515,5.58739e+11,1.01148,0.763477,938,79.8198,20,1,1
app_2,2.77263,28088.6,4652.15,140.199,464.757,1.16533e+11,1.67761,0.763477,10,0.251149,1900,1,1
app_3,9.22159,27614.6,4587.3,252.652,511.543,2.24137e+11,1.6627,0.763477,9,0.438625,2015,1,1
app_4,5.39202,26974.3,4570.24,310.893,508.669,2.90819e+11,1.64573,0.763477,9,0.572479,1933,1,1
app_5,3.98318,28363.2,4477.07,436.741,498.515,3.98694e+11,1.64077,0.763477,9,0.80059,2034,1,1
app_6,44.27,23687.8,6396.2,272.962,67.8399,2.69963e+11,1.20009,0.763477,94,3.97004,205,1,1
app_7,6.57545,23670.3,6381.2,313.05,72.8299,3.08971e+11,1.19578,0.763477,87,4.23248,218,1,1
app_8,63.0483,23844.6,6317.1,293.574,62.8436,2.89828e+11,1.21085,0.763477,101,4.60045,189,1,1
app_9,67.7169,23507.4,6411.28,328.355,69.8204,3.24673e+11,1.18766,0.763477,92,4.65617,207,1,1
