app_id,start_app,end_app,effective_cpu,effective_io,effective_iter,total_bytes,stretch,utilization,Tcomp,Tio,iterations,priority,group_id
app_1,0.327345,19410.9,7271.11,661.016,805.823,5.82741e+11,1.01861,0.899812,9,0.723469,1959,0.1,1
app_10,65.9414,20999,6776.9,1169.28,78.238,7.90453e+11,1.05717,0.899812,87,10.0057,205,0.01,2
app_11,96.7028,23232.5,6733.6,1266.4,7.33812,5.77988e+11,1.09415,0.899812,916,82.5697,21,0.001,3
app_12,346.766,22219.5,6813.7,681.135,7.22635,2.83595e+11,1.12719,0.899812,964,40.5136,20,0.001,3
app_13,884.951,22991,7483.2,421.658,7.86399,1.75622e+11,1.04455,0.899812,945,21.9527,21,0.001,3
app_14,745.598,22302.4,6510.3,1410.11,7.41987,6.11815e+11,1.12326,0.899812,927,76.4769,20,0.001,3
app_15,30.281,21156.2,7544,236.67,7.78298,1.05104e+11,1.04587,0.899812,947,13.138,21,0.001,3
app_2,3.39627,18623.6,7228.8,666.961,906.031,5.88882e+11,1.02332,0.899812,8,0.64998,2106,0.1,1
app_3,9.67138,18784.6,7682.9,159.522,854.043,9.36247e+10,1.02874,0.899812,9,0.109631,2007,0.1,1
app_4,5.75522,18994.9,7414.1,471.132,825.324,4.11898e+11,1.02223,0.899812,9,0.499271,1958,0.1,1
app_5,9.33161,20261.3,7256,676.64,806.232,6.07695e+11,1.01733,0.899812,9,0.753964,2041,0.1,1
app_6,14.6071,20937.9,6873.5,1117.51,78.0426,7.53105e+11,1.04896,0.899812,88,9.65519,205,0.01,2
app_7,80.8877,20570.4,7500.1,307.538,74.4743,2.0898e+11,1.03774,0.899812,101,2.82405,192,0.01,2
app_8,49.8532,20808.1,7639.5,107.791,91.9512,6.99689e+10,1.03768,0.899812,83,0.760531,239,0.01,2
app_9,79.7408,20709.1,7249.7,570.895,78.2896,3.94486e+11,1.04655,0.899812,93,5.05751,203,0.01,2
