app_id,start_app,end_app,effective_cpu,effective_io,effective_iter,total_bytes,stretch,utilization,Tcomp,Tio,iterations,priority,group_id
app_1,6.95209,19635.1,7271.3,706.71,808.226,6.43363e+11,1.01078,0.894912,9,0.796242,1985,0.1,1
app_10,14.9407,21189.1,6652.7,1174.97,78.3116,9.14166e+11,1.05724,0.894912,84,11.7201,209,0.01,2
app_11,630.997,22817.6,6595.3,1293.22,7.29111,5.62451e+11,1.11767,0.894912,939,70.3064,20,0.001,3
app_12,572.836,21940.1,7448,270.672,7.01338,9.7419e+10,1.06025,0.894912,1071,13.917,19,0.001,3
app_13,77.5608,23251.7,6333.88,1320.17,7.1361,5.83016e+11,1.15659,0.894912,865,83.1477,22,0.001,3
app_14,648.732,21856.2,7475.4,128.971,7.19146,6.23747e+10,1.06132,0.894912,1060,8.91068,19,0.001,3
app_15,536.67,22410.8,7078.91,921.09,7.4411,3.93807e+11,1.07056,0.894912,982,51.0705,20,0.001,3
app_2,8.47372,19684,7765.8,193.841,775.917,1.52956e+11,1.01026,0.894912,10,0.197108,1912,0.1,1
app_3,7.88146,18526.8,7816.5,92.7924,869.433,6.15926e+10,1.01547,0.894912,9,0.0707961,2011,0.1,1
app_4,7.98761,18484.4,7411.1,531.207,821.867,4.61473e+11,1.01619,0.894912,9,0.561402,1900,0.1,1
app_5,6.79959,19772.9,7725.2,227.294,771.277,1.62811e+11,1.0142,0.894912,10,0.211169,1909,0.1,1
app_6,89.3957,21490.8,6511.9,1103.99,79.3219,8.47162e+11,1.0871,0.894912,82,10.7236,214,0.01,2
app_7,18.4934,21493.2,7179.32,238.879,78.2704,1.81812e+11,1.08679,0.894912,92,2.30142,211,0.01,2
app_8,26.837,21002.1,7318.5,229.01,78.0815,1.74292e+11,1.06769,0.894912,94,2.20623,207,0.01,2
app_9,93.0656,21082.6,6805.58,1086.41,74.125,8.44567e+11,1.04573,0.894912,91,11.3594,195,0.01,2
