app_id,start_app,end_app,effective_cpu,effective_io,effective_iter,total_bytes,stretch,utilization,Tcomp,Tio,iterations,priority,group_id
app_1,6.66065,19963.4,7012,886.545,871.65,7.9188e+11,1.02513,0.893314,8,0.908119,2184,0.1,1
app_10,38.2046,20920.2,6994,893.903,68.6731,6.16134e+11,1.05123,0.893314,102,8.92948,180,0.01,2
app_11,807.787,22301.2,7189.8,165.058,7.37573,6.76637e+10,1.10231,0.893314,1005,8.45796,20,0.001,3
app_12,963.383,23322.8,6371.7,1616.81,7.02427,7.34229e+11,1.12582,0.893314,912,104.89,20,0.001,3
app_13,622.031,22033.5,7162.8,837.2,7.48534,3.9992e+11,1.05782,0.893314,1018,49.99,19,0.001,3
app_14,788.33,22849.4,6449.8,1476.99,7.40147,6.51816e+11,1.1265,0.893314,937,81.477,20,0.001,3
app_15,362.32,21819.2,7596.1,125.147,7.02137,4.46013e+10,1.04702,0.893314,1051,6.37162,19,0.001,3
app_2,9.3784,19630.4,7557.5,307.132,838.581,2.5133e+11,1.02448,0.893314,9,0.299917,2057,0.1,1
app_3,4.38972,19349.9,7689.12,161.067,852.997,9.18764e+10,1.02815,0.893314,9,0.107793,2067,0.1,1
app_4,9.3153,18891,7536.98,330.527,838.046,2.64357e+11,1.02547,0.893314,9,0.315461,1980,0.1,1
app_5,0.51225,20408.6,7059,868.834,705.12,7.80774e+11,1.02044,0.893314,10,1.10631,1801,0.1,1
app_6,71.9931,21003.4,7279,372.597,75.0155,2.39777e+11,1.064,0.893314,97,3.19703,199,0.01,2
app_7,0.801965,20754.6,7398.2,252.217,73.3997,1.77722e+11,1.05598,0.893314,100,2.40165,194,0.01,2
app_8,36.1051,21034.4,6842.5,983.905,73.0294,6.70043e+11,1.06489,0.893314,93,9.17866,194,0.01,2
app_9,86.4361,21179.4,7059.2,657.63,78.5804,4.48283e+11,1.0656,0.893314,89,5.68379,211,0.01,2
