app_id,start_app,end_app,effective_cpu,effective_io,effective_iter,total_bytes,stretch,utilization,Tcomp,Tio,iterations,priority,group_id
app_1,8.19557,20025,7127.5,746.651,892.284,6.87643e+11,1.02365,0.89813,8,0.770037,2230,0.1,1
app_10,108.538,20582,7512.6,366.265,69.4106,2.43041e+11,1.03151,0.89813,109,3.47201,177,0.01,2
app_11,807.186,23958.5,6602.9,449.756,7.56563,2.3776e+11,1.16948,0.89813,862,32.4798,23,0.001,3
app_12,314.706,22482.6,6707.7,1098.92,7.72887,5.64821e+11,1.10003,0.89813,864,70.6027,22,0.001,3
app_13,96.9531,22633.3,6474.1,1076.57,7.96876,5.45491e+11,1.13967,0.89813,815,68.1864,23,0.001,3
app_14,231.402,21502.5,7644.2,264.246,7.70894,1.59783e+11,1.02512,0.89813,939,19.9728,21,0.001,3
app_15,598.075,23392.4,6594.7,1237.92,6.8696,6.10084e+11,1.11037,0.89813,940,87.1548,20,0.001,3
app_2,8.14376,19759.6,7239.4,666.652,805.534,6.00146e+11,1.02047,0.89813,9,0.745522,1986,0.1,1
app_3,5.60844,19590.4,7839.4,72.0022,781.892,1.22321e+10,1.0189,0.89813,10,0.0156421,1916,0.1,1
app_4,2.3437,19079.6,7554,269.101,839.218,2.26879e+11,1.02816,0.89813,9,0.270416,2008,0.1,1
app_5,7.06669,19911.8,7131.2,821.715,796.061,7.63117e+11,1.01339,0.89813,9,0.95869,1973,0.1,1
app_6,53.1674,20929.9,6999.6,953.69,76.3427,6.44399e+11,1.04657,0.89813,91,8.47893,201,0.01,2
app_7,77.9103,20423.2,7703.26,124.1,76.8765,8.52819e+10,1.02715,0.89813,101,1.11174,196,0.01,2
app_8,3.2782,20506.6,7488,314.674,80.5392,2.25767e+11,1.03711,0.89813,94,2.78724,207,0.01,2
app_9,86.8449,20936.8,7157,759.984,82.3092,5.19633e+11,1.04212,0.89813,87,6.26064,215,0.01,2
