app_id,start_app,end_app,effective_cpu,effective_io,effective_iter,total_bytes,stretch,utilization,Tcomp,Tio,iterations,priority,group_id
app_1,0.0593259,20160.9,7204.6,795.4,801.152,2.81262e+11,1.06868,0.877142,9,0.351139,2023,1,1
app_10,82.0868,22235.9,6604.9,1395.1,68.1567,5.52083e+11,1.11779,0.877142,96,8.11886,191,1.00001,1.00001
app_11,1063.36,23144.5,7023.3,976.7,6.99505,4.16425e+11,1.07531,0.877142,1051,59.4893,19,1.00001,1.00001
app_12,256.626,22679.9,6959.69,1040.31,7.54682,4.96952e+11,1.07287,0.877142,912,69.7831,21,1.00001,1.00001
app_13,668.244,23249,6834.61,1165.39,7.38137,5.17949e+11,1.08806,0.877142,911,69.7511,21,1.00001,1.00001
app_14,742.833,22608.1,7605,395,8.02131,1.44557e+11,1.03232,0.877142,930,18.0696,22,1.00001,1.00001
app_15,361.866,21612.5,7840.2,159.8,7.9207,6.22746e+10,1.01234,0.877142,981,7.78433,21,1.00002,1.00002
app_2,7.80791,19419.8,7548.9,451.1,839.616,1.53072e+11,1.0387,0.877142,9,0.182229,2040,1,1
app_3,2.35771,20540.6,6606.06,1393.94,734.853,5.39538e+11,1.11957,0.877142,9,0.73435,1891,1,1
app_4,3.5863,22226.3,6489.04,1510.96,646.455,5.91953e+11,1.12978,0.877142,10,0.916134,1812,1,1
app_5,2.37305,20654.8,7275.3,724.7,730.354,2.56698e+11,1.06214,0.877142,10,0.351642,1882,1.00001,1.00001
app_6,81.6012,21317.8,7272.7,727.3,76.9415,2.88449e+11,1.05804,0.877142,95,3.74609,203,1.00001,1.00001
app_7,54.9018,21944,6750.5,1249.5,74.8789,5.06088e+11,1.10245,0.877142,90,6.74784,207,1.00001,1.00001
app_8,28.5003,22119.4,6668.1,1331.9,68.7309,5.2611e+11,1.112,0.877142,97,7.62802,191,1.00001,1.00001
app_9,76.6701,22090.2,6574.11,1425.89,68.8057,5.80145e+11,1.11822,0.877142,96,8.45139,190,1.00001,1.00001
