app_id,start_app,end_app,effective_cpu,effective_io,effective_iter,total_bytes,stretch,utilization,Tcomp,Tio,iterations,priority,group_id
app_1,8.13261,19175.8,7600.1,399.9,760.934,1.18248e+11,1.03649,0.8576,10,0.155385,1831,1,1
app_10,76.6214,20460.4,7691.6,308.4,83.8845,9.80851e+10,1.027,0.8576,92,1.16768,214,1.00001,1.00001
app_11,831.644,23628.9,6430.2,1569.8,6.7245,4.49891e+11,1.16278,0.8576,981,64.2701,20,1.00001,1.00001
app_12,454.55,23137.5,6083.9,1916.1,6.3944,6.3509e+11,1.19066,0.8576,999,90.7272,19,1.00001,1.00001
app_13,753.663,21258.5,7735.2,264.8,7.42876,1.05996e+11,1.02025,0.8576,1047,13.2495,19,1.00001,1.00001
app_14,840.772,22854.4,7051.5,948.5,7.60221,3.41252e+11,1.08214,0.8576,915,48.7503,21,1.00001,1.00001
app_15,667.404,23460.4,6417.4,1582.6,7.29545,4.87581e+11,1.15858,0.8576,873,69.6544,22,1.00002,1.00002
app_2,7.83597,20154.1,6647.86,1352.14,828.943,4.82577e+11,1.12195,0.8576,8,0.582538,2110,1,1
app_3,6.76149,22133.2,6644.1,1355.9,737.733,4.88096e+11,1.12167,0.8576,9,0.661377,2067,1,1
app_4,1.02192,20739.6,6214.2,1785.8,776.958,6.66693e+11,1.16264,0.8576,8,0.858035,2046,1,1
app_5,0.913438,21564.9,6607,1393,735.542,5.034e+11,1.12511,0.8576,9,0.683967,2008,1.00001,1.00001
app_6,31.8799,21991.7,6632,1368,70.9999,4.96509e+11,1.12225,0.8576,94,6.99309,197,1.00001,1.00001
app_7,75.7176,22284.3,6503.7,1496.3,64.2767,5.26679e+11,1.13792,0.8576,101,8.22935,183,1.00001,1.00001
app_8,14.1463,21548.8,6979.3,1020.7,75.652,3.5614e+11,1.0906,0.8576,92,4.68605,206,1.00001,1.00001
app_9,58.2102,20643.2,7673.9,326.1,71.9321,1.06224e+11,1.02826,0.8576,107,1.47533,185,1.00001,1.00001
