app_id,start_app,end_app,effective_cpu,effective_io,effective_iter,total_bytes,stretch,utilization,Tcomp,Tio,iterations,priority,group_id
app_1,7.64892,27094.5,4533.89,465.748,503.819,4.49314e+11,1.60539,0.781979,9,0.892673,1920,1,1
app_10,29.1372,23095.6,6723,140.372,69.9751,1.3752e+11,1.16609,0.781979,96,1.96457,204,1,1
app_11,4.27656,20557.4,7214.2,766.163,8.24386,7.65722e+11,1.00252,0.781979,933,95.7153,20,1,1
app_12,865.864,21356.6,7734,104.237,7.50994,1.03877e+11,1.02068,0.781979,1042,12.9846,19,1,1
app_13,707.434,21286.9,7458.4,453.577,8.12356,4.53205e+11,1.01117,0.781979,920,56.6507,21,1,1
app_14,361.617,20718.2,7557.9,375.803,8.70856,3.75268e+11,1.00842,0.781979,871,46.9085,22,1,1
app_15,572.755,21341.5,7721.5,260.274,7.81066,2.59858e+11,1.00234,0.781979,975,32.4823,20,1,1
app_2,4.84564,27516.1,4515.36,461.087,501.813,4.43956e+11,1.61312,0.781979,9,0.884375,1959,1,1
app_3,4.73193,26728,4777.1,107.915,529.771,8.36147e+10,1.64585,0.781979,9,0.158062,1978,1,1
app_4,0.604386,27554.9,4756.3,146.889,529.638,1.12996e+11,1.64295,0.781979,9,0.213603,2068,1,1
app_5,0.278163,27796.1,4672,249.316,518.143,2.1741e+11,1.63619,0.781979,9,0.41971,2055,1,1
app_6,8.09376,22743.9,6702.7,317.133,73.7449,3.12428e+11,1.14039,0.781979,91,4.222,210,1,1
app_7,81.3832,22729.6,6549.5,549.908,69.0824,5.45396e+11,1.12757,0.781979,95,7.90429,193,1,1
app_8,57.6252,22586,6574.2,516.601,73.6654,5.11435e+11,1.12904,0.781979,89,7.00596,207,1,1
app_9,60.9139,22752.8,6347.4,612.917,69.257,6.08859e+11,1.15004,0.781979,91,8.82405,200,1,1
