app_id,start_app,end_app,effective_cpu,effective_io,effective_iter,total_bytes,stretch,utilization,Tcomp,Tio,iterations,priority,group_id
app_1,9.3984,18574.3,7915.8,70.6884,792.366,1.22676e+10,1.00907,0.992164,10,0.0154894,1838,0.1,1
app_10,4.1085,18681.1,7900.5,85.6386,875.979,3.56357e+10,1.00805,0.992164,9,0.04068,2045,0.1,1
app_11,4.33849,19154.3,7923.6,62.7697,720.008,7.7069e+09,1.00866,0.992164,11,0.010704,1722,0.1,1
app_12,1.38735,19158.4,7909.3,75.9923,790.697,2.61844e+10,1.00813,0.992164,10,0.0331029,1892,0.1,1
app_13,6.22837,19975.4,7912.2,73.5166,789.883,1.83913e+10,1.00875,0.992164,10,0.0232801,1974,0.1,1
app_14,4.58312,19024.6,7910.8,75.9099,788.568,3.04105e+10,1.0074,0.992164,10,0.038592,1879,0.1,1
app_15,8.50752,19671.8,7911,75.8878,719.131,4.89719e+10,1.00503,0.992164,11,0.0681112,1765,0.1,1
app_16,4.91271,19950.3,7913.8,73.3853,719.103,4.33178e+10,1.00539,0.992164,11,0.0602473,1791,0.1,1
app_17,8.37869,19471.4,7923.2,66.5138,662.783,3.44527e+10,1.00532,0.992164,12,0.0519648,1611,0.1,1
app_18,6.18123,18786,7896.9,86.9226,874.183,3.96444e+10,1.008,0.992164,9,0.0453078,2057,0.1,1
app_19,1.33759,18811.3,7917.8,69.4737,788.265,3.79874e+09,1.0099,0.992164,10,0.00482074,1856,0.1,1
app_2,0.646221,20035.4,7909.5,77.1693,793.53,2.89163e+10,1.00776,0.992164,10,0.0364645,1984,0.1,1
app_20,2.7139,19721.3,7898.6,84.8439,876.652,3.30578e+10,1.00862,0.992164,9,0.0377373,2163,0.1,1
app_21,1.55815,19155.6,7902.1,81.9575,879.35,2.05616e+10,1.00976,0.992164,9,0.0233655,2100,0.1,1
app_22,4.7739,19723.3,7930.3,59.1527,660.528,8.65717e+09,1.00769,0.992164,12,0.0130971,1625,0.1,1
app_23,7.30653,19479.5,7908,78.7597,793.162,3.66234e+10,1.00697,0.992164,10,0.0461252,1925,0.1,1
app_24,8.48681,18999.3,7912.3,73.7021,793.644,1.92438e+10,1.00863,0.992164,10,0.0242671,1877,0.1,1
app_25,3.98514,19206.2,7905,79.3932,875.63,1.5282e+10,1.01007,0.992164,9,0.0174452,2107,0.1,1
app_26,1.87256,19936.4,7915.2,69.6305,792.257,7.39565e+09,1.00977,0.992164,10,0.00933794,1977,0.1,1
app_27,7.48662,19072.1,7913.2,73.7394,790.604,2.17684e+10,1.0082,0.992164,10,0.0275201,1884,0.1,1
app_28,1.41795,18770.8,7897.4,86.3292,880.278,3.54167e+10,1.00847,0.992164,9,0.0402005,2061,0.1,1
app_29,2.73169,19965.4,7898.6,83.5621,878.824,2.60736e+10,1.00951,0.992164,9,0.0296628,2189,0.1,1
app_3,4.81339,20000.9,7904.4,82.101,877.646,2.30804e+10,1.00915,0.992164,9,0.0262875,2193,0.1,1
app_30,8.73943,18963.5,7913.1,75.5076,717.827,4.92597e+10,1.00473,0.992164,11,0.0686069,1701,0.1,1
app_31,89.7838,20101.3,7942.9,56.0835,73.107,4.66305e+10,1.00131,0.992164,108,0.638774,183,0.01,2
app_32,105.521,20031.1,7966.5,32.0872,75.1653,2.62279e+10,1.00091,0.992164,105,0.349705,189,0.01,2
app_33,12.2865,20062,7989.1,9.65741,80.1757,6.25311e+09,1.00058,0.992164,99,0.0781639,202,0.01,2
app_34,79.509,20061.9,7946,53.2238,85.2947,4.347e+10,1.00132,0.992164,93,0.505465,214,0.01,2
app_35,27.5554,20041.9,7969.3,29.0394,79.6101,2.28643e+10,1.00098,0.992164,101,0.285804,197,0.01,2
app_36,58.8543,20056.8,7950.5,48.436,91.3889,3.87201e+10,1.00135,0.992164,87,0.425495,228,0.01,2
app_37,86.0369,19961.9,7953,46.2094,88.7598,3.67338e+10,1.00128,0.992164,90,0.412739,220,0.01,2
app_38,4.96193,19909,7948.1,50.9489,78.557,4.1698e+10,1.00128,0.992164,102,0.53459,194,0.01,2
app_39,94.5203,20136.9,7946.1,52.8798,70.1999,4.37504e+10,1.00127,0.992164,112,0.625006,177,0.01,2
app_4,1.62177,18943.7,7918,69.0024,793.545,2.85184e+09,1.00999,0.992164,10,0.00359174,1876,0.1,1
app_40,55.0029,19998.1,7985.3,13.2538,88.7649,8.65298e+09,1.00076,0.992164,90,0.0972245,220,0.01,2
app_41,45.9619,19999.5,7937.3,58.958,90.9519,4.87951e+10,1.00174,0.992164,87,0.53621,227,0.01,2
app_42,78.9905,20182.5,7978.5,17.9106,89.473,9.80621e+09,1.00146,0.992164,89,0.108958,224,0.01,2
app_43,17.9441,20038.7,7945,53.47,81.6304,4.42095e+10,1.00135,0.992164,98,0.53914,203,0.01,2
app_44,8.96053,20171.8,7950.5,46.0879,75.4602,3.78159e+10,1.00146,0.992164,105,0.497577,189,0.01,2
app_45,56.6049,19901.3,7969.6,28.2322,92.0055,2.00296e+10,1.0013,0.992164,86,0.217713,230,0.01,2
app_46,938.869,21549,7972,26.1057,8.2827,2.08681e+10,1.00089,0.992164,952,2.60852,21,0.001,3
app_47,943.712,21370.6,7966.3,33.7,8.27746,2.90099e+10,1.00059,0.992164,991,3.62624,21,0.001,3
app_48,417.03,20658.4,7968,32,9.84198,2.74397e+10,1.00057,0.992164,825,2.74397,25,0.001,3
app_49,678.044,21562.3,7949.4,45.3302,8.85054,3.79289e+10,1.00159,0.992164,890,4.21432,23,0.001,3
app_5,0.312447,19434.6,7921.4,67.0029,657.362,3.49822e+10,1.00548,0.992164,12,0.0532454,1601,0.1,1
app_50,834.763,21415.8,7962.4,37.6,7.54461,3.11818e+10,1.0008,0.992164,1029,4.45455,20,0.001,3
app_51,550.541,21435,7972.21,27.7882,8.76433,2.23405e+10,1.00068,0.992164,886,2.71392,23,0.001,3
app_52,78.1718,20501.1,7962.9,37.1,7.1633,3.01199e+10,1.00087,0.992164,1068,4.30284,19,0.001,3
app_53,471.848,21626.4,7966,34,6.79034,2.963e+10,1.00055,0.992164,1160,4.23285,18,0.001,3
app_54,398.062,20770.5,7990.1,9.9,7.77721,8.34953e+09,1.00019,0.992164,1036,1.04369,20,0.001,3
app_55,365.51,20387.6,7960.9,39.1,8.0848,3.3677e+10,1.00068,0.992164,1000,4.20962,20,0.001,3
app_56,278.311,20403,7971.2,28.8,8.31066,2.40585e+10,1.00059,0.992164,954,3.00732,21,0.001,3
app_57,603.574,20752.3,7987.6,12.4,7.85439,1.03448e+10,1.00026,0.992164,1012,1.2931,20,0.001,3
app_58,479.797,20987.6,7946,54,10.2787,4.36905e+10,1.00129,0.992164,780,3.97187,26,0.001,3
app_59,613.132,21541.4,7975.2,24.8,7.55596,2.0432e+10,1.00055,0.992164,1046,2.91886,20,0.001,3
app_6,6.29288,18510.2,7899.6,86.3794,877.038,3.89583e+10,1.00774,0.992164,9,0.0444223,2027,0.1,1
app_60,40.7754,21046.2,7995.2,4.8,8.08415,3.66694e+09,1.00014,0.992164,984,0.458368,21,0.001,3
app_7,3.86968,19834.9,7912.7,74.7381,792.139,2.14427e+10,1.0083,0.992164,10,0.02704,1964,0.1,1
app_8,4.64599,19625,7910.4,76.0445,790.725,2.91553e+10,1.00761,0.992164,10,0.0369054,1942,0.1,1
app_9,5.95629,19211.7,7911.1,75.3599,792.812,2.08318e+10,1.00858,0.992164,10,0.0263027,1902,0.1,1
