app_id,start_app,end_app,effective_cpu,effective_io,effective_iter,total_bytes,stretch,utilization,Tcomp,Tio,iterations,priority,group_id
app_1,2.55008,19333.6,7913.2,71.9699,788.828,1.81893e+10,1.00865,0.991914,10,0.0230828,1910,0.1,1
app_10,1.0154,18674.7,7891.2,87.1745,984.774,1.18629e+10,1.01227,0.991914,8,0.0120435,2297,0.1,1
app_11,8.04652,19653.9,7903.7,79.7477,787.471,4.14175e+10,1.00691,0.991914,10,0.0525603,1939,0.1,1
app_12,9.34412,18594.3,7904.2,79.584,790.295,3.9233e+10,1.00712,0.991914,10,0.0496621,1836,0.1,1
app_13,7.07747,18163,7892.1,91.3545,985.271,2.25135e+10,1.01079,0.991914,8,0.0228563,2241,0.1,1
app_14,4.05887,19045.7,7899.9,82.9258,874.479,2.9501e+10,1.0089,0.991914,9,0.0337154,2087,0.1,1
app_15,6.82246,19210.7,7897,86.9509,876.943,3.83932e+10,1.00814,0.991914,9,0.0437779,2107,0.1,1
app_16,2.71444,19580.1,7884.7,94.0245,986.828,3.11335e+10,1.01063,0.991914,8,0.0315756,2412,0.1,1
app_17,4.76743,19496.6,7906.5,73.8888,878.246,3.13092e+09,1.01143,0.991914,9,0.00356597,2138,0.1,1
app_18,9.62994,19050.6,7917.4,68.0989,790.184,1.49369e+09,1.01024,0.991914,10,0.00189075,1884,0.1,1
app_19,2.25787,18376.2,7903,79.8901,789.145,4.32924e+10,1.00676,0.991914,10,0.05487,1810,0.1,1
app_2,10.543,19698.8,7916.9,67.8443,719.155,2.37352e+10,1.00748,0.991914,11,0.0330114,1770,0.1,1
app_20,4.86402,20011.7,7905,78.8769,793.735,3.67367e+10,1.00734,0.991914,10,0.0462679,1981,0.1,1
app_21,5.72157,19753.9,7903.2,82.036,792.641,4.99266e+10,1.00589,0.991914,10,0.0629592,1950,0.1,1
app_22,2.64464,19862,7912.51,73.8535,719.721,4.01117e+10,1.00596,0.991914,11,0.0557256,1786,0.1,1
app_23,8.45206,19479,7913.3,71.9223,720.318,3.60979e+10,1.00637,0.991914,11,0.0501359,1749,0.1,1
app_24,7.90667,18300.4,7889.1,91.1394,880.856,5.05192e+10,1.00761,0.991914,9,0.057343,2008,0.1,1
app_25,8.30545,18763.9,7913.8,72.7713,721.299,3.58502e+10,1.00633,0.991914,11,0.0497229,1689,0.1,1
app_26,6.83337,19958.1,7894.1,86.0322,984.099,9.49253e+09,1.0122,0.991914,8,0.00964688,2460,0.1,1
app_27,1.57777,18352.5,7888.7,91.2091,986.827,2.28704e+10,1.01118,0.991914,8,0.0231716,2262,0.1,1
app_28,3.29195,18367.2,7889.6,92.8027,877.252,5.65621e+10,1.00678,0.991914,9,0.064495,2012,0.1,1
app_29,8.12932,18502.8,7888.5,92.9535,985.941,3.04776e+10,1.01023,0.991914,8,0.0309104,2278,0.1,1
app_3,2.37801,18700.7,7893.2,90.7808,878.826,5.4935e+10,1.00653,0.991914,9,0.0624971,2050,0.1,1
app_30,3.8227,20087.8,7902.6,80.8573,877.528,1.84136e+10,1.00997,0.991914,9,0.0209961,2203,0.1,1
app_31,87.3174,20043.3,7965.8,32.2645,76.9882,2.52465e+10,1.00112,0.991914,104,0.327876,191,0.01,2
app_32,32.9075,19972,7990.4,8.08336,80.9629,1.60802e+09,1.001,0.991914,98,0.0198521,203,0.01,2
app_33,37.964,20101,7959.5,38.2698,97.5555,2.92069e+10,1.00141,0.991914,81,0.29803,246,0.01,2
app_34,54.6837,20048.9,7982,17.3693,79.8197,1.17527e+10,1.00078,0.991914,100,0.146909,200,0.01,2
app_35,43.4812,20197.8,7944.7,55.3,86.8598,4.57802e+10,1.00119,0.991914,91,0.526209,219,0.01,2
app_36,66.3063,19892.7,7988.1,10.1321,92.2215,5.10067e+09,1.00085,0.991914,87,0.055442,228,0.01,2
app_37,77.0857,20146.6,7942.9,55.6078,78.2771,4.53825e+10,1.00147,0.991914,101,0.574462,196,0.01,2
app_38,63.215,20202,7939.5,59.7316,77.0183,4.96015e+10,1.00136,0.991914,102,0.644175,195,0.01,2
app_39,34.0198,20121.4,7950.4,48.5223,83.912,3.8986e+10,1.00133,0.991914,95,0.46412,210,0.01,2
app_4,8.74854,18526.7,7923.2,62.5761,723.285,3.50618e+09,1.00925,0.991914,11,0.00484949,1671,0.1,1
app_40,77.9586,20002,7978,19.9012,89.4198,1.44193e+10,1.00095,0.991914,89,0.160215,223,0.01,2
app_41,32.9315,19911.1,7950.1,47.1568,76.4758,3.73054e+10,1.00158,0.991914,105,0.49086,189,0.01,2
app_42,80.079,20048.9,7989.7,9.17782,81.2868,4.98272e+09,1.00067,0.991914,98,0.0615151,203,0.01,2
app_43,82.4568,20219.2,7950.7,47.3363,78.7596,3.84606e+10,1.00136,0.991914,101,0.486843,197,0.01,2
app_44,82.1924,20126.3,7991.7,6.8372,70.9627,1.37881e+09,1.00087,0.991914,111,0.0194199,180,0.01,2
app_45,78.1988,20092.8,7974,24.5795,78.0634,1.70796e+10,1.00112,0.991914,102,0.218969,195,0.01,2
app_46,251.201,20487.8,7966.2,33.8,10.233,2.77162e+10,1.00076,0.991914,783,2.77162,26,0.001,3
app_47,181.732,20919.2,7961.8,38.2,9.34777,3.07848e+10,1.00093,0.991914,860,3.42053,24,0.001,3
app_48,805.422,21042.7,7966.2,30.2556,9.09447,2.59991e+10,1.00098,0.991914,878,2.88879,23,0.001,3
app_49,410.367,20762,7977.9,22.1,8.38267,1.82315e+10,1.00048,0.991914,987,2.02572,21,0.001,3
app_5,0.229531,20027.3,7907.9,75.2995,719.946,4.6146e+10,1.00578,0.991914,11,0.0640916,1806,0.1,1
app_50,173.406,20807.9,7937.1,62.9,7.72233,5.31327e+10,1.00122,0.991914,1015,6.64159,20,0.001,3
app_51,158.318,20876.3,7974.8,25.2,6.88038,2.13339e+10,1.00048,0.991914,1147,3.0477,18,0.001,3
app_52,1086.39,21075,7960.8,36.5356,7.08069,2.80599e+10,1.00139,0.991914,1119,4.00856,18,0.001,3
app_53,215.405,20156.8,7947.3,52.7,8.75827,4.51119e+10,1.00095,0.991914,905,5.01244,22,0.001,3
app_54,114.462,20284.7,7990.1,6.72628,9.113,3.97898e+09,1.00074,0.991914,873,0.442109,23,0.001,3
app_55,401.669,21537.3,7971.1,28.9,8.45245,2.42156e+10,1.00059,0.991914,945,2.69062,22,0.001,3
app_56,503.819,20544.4,7986.8,9.60689,9.08053,7.9386e+09,1.00066,0.991914,873,0.882067,23,0.001,3
app_57,226.41,21406.8,7966.7,31.8436,8.92049,2.49458e+10,1.00105,0.991914,858,2.77176,24,0.001,3
app_58,636.536,21157.8,7985.7,14.3,8.15635,1.09756e+10,1.00042,0.991914,972,1.37196,21,0.001,3
app_59,892.508,21309,7964.1,35.9,8.14117,3.12481e+10,1.00058,0.991914,977,3.90601,21,0.001,3
app_6,7.43914,18974.3,7913.2,71.381,793.533,1.3215e+10,1.00928,0.991914,10,0.0166646,1878,0.1,1
app_60,497.781,20751.3,7981.5,18.5,8.30922,1.58841e+10,1.00033,0.991914,956,1.7649,21,0.001,3
app_7,8.96924,20030.2,7904.8,81.3756,788.085,4.87098e+10,1.00585,0.991914,10,0.0618145,1975,0.1,1
app_8,8.92319,18438.8,7909.2,73.9057,787.366,2.47374e+10,1.00833,0.991914,10,0.0314325,1818,0.1,1
app_9,7.94298,20125.1,7901.2,82.3789,876.953,2.42511e+10,1.00941,0.991914,9,0.0276524,2204,0.1,1
