app_id,start_app,end_app,effective_cpu,effective_io,effective_iter,total_bytes,stretch,utilization,Tcomp,Tio,iterations,priority,group_id
app_1,8.47469,18165.3,7901.5,98.5,985.223,6.77206e+08,1.01238,0.991988,8,0.000687519,2236,1,1
app_10,8.35053,18474.4,7911.8,88.2,880.214,2.27617e+10,1.00825,0.991988,9,0.0258656,2031,1.00001,1.00001
app_11,5.1014,18000.9,7887.3,112.7,1127.11,1.73824e+10,1.01206,0.991988,7,0.0154236,2537,1.00001,1.00001
app_12,6.95045,18822.4,7907.7,92.3,880.922,3.9402e+10,1.00666,0.991988,9,0.0447241,2066,1.00001,1.00001
app_13,0.00379269,19057.3,7900.4,99.6,987.529,2.86816e+10,1.00894,0.991988,8,0.0290593,2352,1.00001,1.00001
app_14,0.293071,19654,7908.7,91.3,792.068,4.63188e+10,1.00565,0.991988,10,0.0584833,1944,1.00001,1.00001
app_15,7.89917,19541.7,7911.6,88.4,876.248,2.77565e+10,1.00764,0.991988,9,0.0316856,2144,1.00002,1.00002
app_16,1.49859,18272.2,7912.5,87.5,874.824,5.41382e+09,1.01037,0.991988,9,0.00618722,2003,1.00002,1.00002
app_17,1.19258,18390.1,7920.9,79.1,790.456,7.42764e+09,1.00904,0.991988,10,0.00939019,1820,1.00002,1.00002
app_18,6.78511,18562.8,7916.7,83.3,790.858,3.45223e+10,1.00613,0.991988,10,0.0436438,1837,1.00002,1.00002
app_19,1.94392,18452.2,7912.3,87.7,876.979,2.64645e+09,1.01075,0.991988,9,0.00301762,2024,1.00002,1.00002
app_2,0.534385,18491.2,7899.2,100.8,876.428,5.02193e+10,1.00636,0.991988,9,0.057328,2026,1,1
app_20,6.69508,19107.6,7899.3,100.7,876.122,4.90914e+10,1.00649,0.991988,9,0.0560405,2091,1.00002,1.00002
app_21,0.233291,19238.5,7919.9,80.1,793.57,2.634e+10,1.00677,0.991988,10,0.0332157,1905,1.00002,1.00002
app_22,4.10831,18228.5,7909.9,90.1,878.879,3.65319e+10,1.00674,0.991988,9,0.0415608,2005,1.00002,1.00002
app_23,8.11739,19646.8,7898.8,101.2,988.713,3.78368e+10,1.00798,0.991988,8,0.0382577,2422,1.00002,1.00002
app_24,3.00232,19229.7,7912.3,87.7,877.258,4.82061e+09,1.01047,0.991988,9,0.0054967,2109,1.00002,1.00002
app_25,7.809,18702.3,7920.6,79.4,793.01,1.84676e+10,1.00768,0.991988,10,0.0232883,1853,1.00003,1.00003
app_26,1.57198,20021.8,7911.8,88.2,718.786,5.18953e+10,1.00456,0.991988,11,0.0721771,1798,1.00003,1.00003
app_27,1.83411,19833.5,7911.6,88.4,877.611,2.50569e+10,1.00798,0.991988,9,0.0285711,2181,1.00003,1.00003
app_28,2.7849,18555.9,7912,88,880.323,1.17968e+10,1.00962,0.991988,9,0.0134055,2040,1.00003,1.00003
app_29,4.42714,18786.4,7901.3,98.7,986.463,8.8837e+09,1.01135,0.991988,8,0.00900071,2318,1.00003,1.00003
app_3,2.83826,20240,7911.9,88.1,876.724,2.3981e+10,1.00808,0.991988,9,0.0273443,2216,1,1
app_30,6.74592,19179.4,7920.9,79.1,791.643,1.5927e+10,1.00796,0.991988,10,0.0201352,1899,1.00003,1.00003
app_31,62.9058,19940.1,7970.3,29.7,77.0446,2.17175e+10,1.001,0.991988,104,0.282046,191,1.00003,1.00003
app_32,29.6723,19940,7938.3,61.7,75.2086,4.69482e+10,1.00185,0.991988,107,0.625976,185,1.00003,1.00003
app_33,111.138,20227.4,7967.5,32.5,70.488,2.44003e+10,1.00101,0.991988,112,0.348575,178,1.00003,1.00003
app_34,57.3362,19927.3,7948,52,74.2811,3.85842e+10,1.00168,0.991988,107,0.521408,185,1.00003,1.00003
app_35,47.4314,20107.3,7946.4,53.6,82.9929,4.01682e+10,1.00168,0.991988,96,0.483954,208,1.00004,1.00004
app_36,45.5433,20082.9,7931.7,68.3,75.5548,5.44639e+10,1.00173,0.991988,104,0.726186,190,1.00004,1.00004
app_37,6.1068,19964.6,7991.7,8.3,79.5985,3.78843e+09,1.00056,0.991988,100,0.0473554,199,1.00004,1.00004
app_38,43.6938,20065.4,7957.2,42.8,93.1924,3.12855e+10,1.00144,0.991988,85,0.336403,233,1.00004,1.00004
app_39,74.179,20214.1,7992.6,7.4,71.1216,3.37409e+09,1.0005,0.991988,111,0.0468623,180,1.00004,1.00004
app_4,2.20908,19993.1,7911.1,88.9,879.058,2.63547e+10,1.00788,0.991988,9,0.0299826,2197,1,1
app_40,14.2526,19964.3,7951,49,95.5628,3.61404e+10,1.00161,0.991988,83,0.380426,239,1.00004,1.00004
app_41,76.1567,19932.7,7933.3,66.7,77.4356,5.34868e+10,1.00165,0.991988,103,0.694633,192,1.00004,1.00004
app_42,33.4744,20012.6,7991,9,90.3339,3.50154e+08,1.00108,0.991988,88,0.0038906,227,1.00004,1.00004
app_43,20.3005,19844.1,7960.3,39.7,85.5243,2.75617e+10,1.00152,0.991988,94,0.324255,211,1.00004,1.00004
app_44,110.645,20220,7932.6,67.4,69.6692,5.07199e+10,1.00209,0.991988,112,0.735071,177,1.00004,1.00004
app_45,25.4921,19771,7951.2,48.8,98.9704,3.70305e+10,1.00147,0.991988,81,0.374045,244,1.00004,1.00004
app_46,974.843,21454.8,7926.4,73.6,8.43355,5.70037e+10,1.00208,0.991988,975,6.33374,21,1.00005,1.00005
app_47,546.464,20981.6,7948,52,7.36904,4.09121e+10,1.00139,0.991988,1076,5.84459,19,1.00005,1.00005
app_48,880.992,21087.1,7982.2,17.8,8.7726,1.54167e+10,1.0003,0.991988,914,1.71297,22,1.00005,1.00005
app_49,986.208,21082,7961,39,7.47761,3.40526e+10,1.00062,0.991988,1063,4.25658,19,1.00005,1.00005
app_5,2.01979,18917.5,7900.5,99.5,879.65,4.62681e+10,1.0067,0.991988,9,0.0526372,2076,1.00001,1.00001
app_50,816.552,21291.6,7997.5,2.5,7.93847,1.53605e+09,1.00012,0.991988,1007,0.192006,20,1.00005,1.00005
app_51,140.84,20864.4,7994.8,5.2,9.46529,4.11885e+09,1.00014,0.991988,829,0.411885,25,1.00005,1.00005
app_52,80.3774,20366.6,7997.5,2.5,8.67376,1.99558e+09,1.00006,0.991988,913,0.249447,22,1.00005,1.00005
app_53,283.865,20651.5,7950,50,8.41455,3.85134e+10,1.00144,0.991988,930,4.81417,22,1.00005,1.00005
app_54,893,20798.4,7989.4,10.6,8.69725,8.09093e+09,1.00031,0.991988,916,0.898992,22,1.00005,1.00005
app_55,59.0942,20864.4,7953.7,46.3,7.58898,3.86596e+10,1.00096,0.991988,1040,4.83245,20,1.00005,1.00005
app_56,92.8132,21100.7,7986.9,13.1,8.38511,1.04812e+10,1.00033,0.991988,948,1.31014,22,1.00006,1.00006
app_57,988.129,21740.4,7982.1,17.9,6.81142,1.53036e+10,1.00032,0.991988,1164,2.18623,18,1.00006,1.00006
app_58,284.603,20729.3,7934.9,65.1,8.32881,5.61175e+10,1.00112,0.991988,952,6.23528,21,1.00006,1.00006
app_59,809.75,21325.9,7968.8,31.2,8.1822,2.54582e+10,1.00072,0.991988,952,3.18227,21,1.00006,1.00006
app_6,2.29401,18950.4,7907.1,92.9,788.03,5.47117e+10,1.0048,0.991988,10,0.0694311,1871,1.00001,1.00001
app_60,727.638,21130.9,7944.6,55.4,7.70336,4.63769e+10,1.00113,0.991988,1016,6.62527,20,1.00006,1.00006
app_7,6.50701,19941.2,7920.6,79.4,790.403,2.25084e+10,1.00716,0.991988,10,0.0284917,1973,1.00001,1.00001
app_8,2.14003,19090,7912,88,879.935,7.0702e+09,1.01022,0.991988,9,0.00803432,2098,1.00001,1.00001
app_9,2.35254,19154.8,7901.2,98.8,988.541,2.04421e+10,1.00989,0.991988,8,0.0206904,2363,1.00001,1.00001
