app_id,Tcomp,Tio,iter,witer,alpha_io,compute_size,io_size,mu,desyn_time
1,9.770684216642884,0.05850810658739771,2035,9.829192323230282,0.00595248364905017,9e9,58508106.58739771,10,9.281540138048582
2,9.660961964786962,0.05833091897925361,2058,9.719292883766215,0.006001559956762045,9e9,58330918.97925361,10,7.975839993199612
3,7.5245191586616045,0.04048309082924492,2644,7.565002249490849,0.005351365339246208,7e9,40483090.82924492,10,0.40622357260738307
4,10.212690238968401,0.05471408170098062,1948,10.267404320669382,0.005328910793045846,10e9,54714081.70098062,10,0.38744233994789073
5,11.123586238248478,0.038330608975325225,1792,11.161916847223804,0.0034340525467056165,11e9,38330608.97532523,10,1.2523969603131018
6,8.36035377213548,0.04127638674521649,2381,8.401630158880698,0.0049129021350203675,8e9,41276386.74521649,10,4.013154953672567
7,8.883742384775058,0.05137133639906678,2239,8.935113721174124,0.0057493768968299485,8e9,51371336.39906678,10,7.579162428936176
8,11.380299352232642,0.03473551094675407,1753,11.415034863179397,0.0030429614419135716,11e9,34735510.94675407,10,0.6451376609327087
9,8.730280645356752,0.035660934924031905,2282,8.765941580280783,0.004068123726064079,8e9,35660934.924031906,10,6.722298080922559
10,8.329562206428013,0.04712106997674583,2388,8.376683276404759,0.005625265802931255,8e9,47121069.97674583,10,4.7982586686585815
11,8.162113131819757,0.013281338567269253,2447,8.175394470387026,0.0016245501810801932,8e9,13281338.567269253,10,7.229275392645984
12,11.043727256429264,0.01649903132873097,1809,11.060226287757995,0.001491744463401523,11e9,16499031.32873097,10,8.114121609414154
13,9.430944131449724,0.053931898010532026,2109,9.484876029460256,0.005686094140083459,9e9,53931898.01053203,10,4.190016069284411
14,9.973140274321311,0.011515072241622508,2004,9.984655346562933,0.001153276887577937,9e9,11515072.241622508,10,8.488870168762398
15,10.474409435847216,0.027380034139908537,1905,10.501789469987123,0.00260717796887449,10e9,27380034.139908537,10,6.888622427536889
16,10.613350388221457,0.04540094968026107,1877,10.658751337901718,0.004259499845804518,10e9,45400949.680261075,10,0.1432552374088615
17,8.9247045920932,0.0356268793767901,2233,8.96033147146999,0.003976067123211606,8e9,35626879.3767901,10,8.757016585511776
18,8.714178034439215,0.030680101423718947,2288,8.744858135862934,0.0035083589632974033,8e9,30680101.423718948,10,3.5050198352283863
19,9.731723057092362,0.0026704992473510145,2055,9.734393556339713,0.00027433647837381715,9e9,2670499.2473510145,10,5.277974102997703
20,8.732869512236627,0.01807683450397738,2286,8.750946346740605,0.0020657005297158876,8e9,18076834.50397738,10,6.75466746738015
21,83.65135060282078,0.3701835198900933,239,84.02153412271088,0.0044058171962136706,83e9,370183519.89009327,100,78.3492838054901
22,107.90770666205812,0.5880339028651481,185,108.49574056492327,0.005419880078271568,107e9,588033902.8651481,100,66.9147939212706
23,96.60570419428078,0.13272942304653895,207,96.73843361732732,0.0013720443683384708,96e9,132729423.04653895,100,34.06259525127641
24,124.82660311017756,0.23384448642261887,160,125.06044759660017,0.001869851667066767,124e9,233844486.42261887,100,3.9198855688105128
25,76.0241406271735,0.12393478991412717,263,76.14807541708763,0.0016275498656439609,76e9,123934789.91412717,100,43.98832117331221
26,80.72435901050883,0.4645018384192094,247,81.18886084892804,0.005721250841091735,80e9,464501838.41920936,100,65.09431543787659
27,102.30388765660443,0.36374127273995427,195,102.66762892934439,0.0035429012682301267,102e9,363741272.7399543,100,47.567171144209006
28,98.53694041784509,0.12223993923693185,203,98.65918035708202,0.0012390123128380231,98e9,122239939.23693186,100,34.413236543591694
29,99.03577570540455,0.49649243990446346,201,99.532268145309,0.004988256061638472,99e9,496492439.90446347,100,37.654412466391854
30,94.7148132932024,0.010166179027218312,212,94.72497947222962,0.00010732310615278323,94e9,10166179.027218312,100,90.8717071931897
31,94.92279489224745,0.44778498439698317,210,95.37057987664444,0.004695210881344787,94e9,447784984.39698315,100,46.83244958967616
32,95.5624637567241,0.05445721850255023,210,95.61692097522665,0.0005695353703834443,95e9,54457218.50255023,100,37.07992032923973
33,103.45798157626801,0.37881214808914915,193,103.83679372435716,0.003648149509457461,103e9,378812148.0891492,100,3.5143247508837825
34,101.18275517607415,0.10045472366295737,198,101.28320989973712,0.0009918201028818114,101e9,100454723.66295737,100,55.5719752782579
35,102.55828129818883,0.6396394915750423,194,103.19792078976387,0.006198181966070073,102e9,639639491.5750422,100,10.417680030573969
36,104.26281425577162,0.15436156787048463,192,104.4171758236421,0.0014783158676039785,104e9,154361567.87048462,100,38.75077993793222
37,98.21861553804425,0.47375021592799926,203,98.69236575397224,0.004800272161972482,98e9,473750215.92799926,100,45.10197067872875
38,101.62567468399402,0.2876603114836011,197,101.91333499547763,0.0028225973715448123,101e9,287660311.4836011,100,13.844286330516193
39,88.37450433970513,0.5623577005614174,225,88.93686204026655,0.0063231115609499195,88e9,562357700.5614175,100,73.06072074660871
40,103.84970353692191,0.30072295498018703,193,104.1504264919021,0.0028873905283870235,103e9,300722954.98018706,100,1.9208880255121734
41,658.9753594213267,3.7799677874088253,31,662.7553272087356,0.005703413661461706,658e9,3779967787.4088254,1000,360.2702862587005
42,932.9444640753308,4.110670197371779,22,937.0551342727025,0.004386796514980184,932e9,4110670197.371779,1000,350.4503018745262
43,852.0501408979833,1.1665445249091155,24,853.2166854228924,0.001367231261225188,852e9,1166544524.9091156,1000,683.7837411358214
44,969.2692026069788,3.4049408992938823,21,972.6741435062727,0.003500597730520349,969e9,3404940899.2938824,1000,641.5155960896019
45,944.2034118820151,0.9874853340250179,22,945.1908972160401,0.001044746978555921,944e9,987485334.025018,1000,100.9216273158254
46,858.7462089862181,4.619116158170996,24,863.3653251443891,0.005350129341132036,858e9,4619116158.170997,1000,344.06275055554744
47,1106.0999842652725,3.281191729863311,19,1109.381175995136,0.0029576774880103944,1106e9,3281191729.863311,1000,309.10604546302557
48,931.0946140563857,1.307015118078757,22,932.4016291744645,0.0014017726666093132,931e9,1307015118.078757,1000,499.6197530717473
49,1011.2227313327393,4.116680546743387,20,1015.3394118794827,0.004054487099169182,1011e9,4116680546.743387,1000,988.9282983920066
50,1013.1014902249212,2.2214687081095095,20,1015.3229589330307,0.0021879429481669334,1013e9,2221468708.1095095,1000,672.9870182347078
51,942.0615883737764,1.7905815606615336,22,943.8521699344379,0.0018970995858238176,942e9,1790581560.6615336,1000,580.7938026059072
52,835.721596888692,4.8103064588984275,24,840.5319033475905,0.005722931443459072,835e9,4810306458.898427,1000,393.5941242553413
53,1031.445456205776,6.4046322646794005,20,1037.8500884704554,0.006171057203568107,1031e9,6404632264.6794,1000,952.1149385619105
54,1000.2245035525398,6.061610454412041,20,1006.2861140069518,0.006023744509675471,1000e9,6061610454.412042,1000,337.9874180989499
55,1158.1188246326092,0.2712946244110189,18,1158.3901192570202,0.00023419970517792794,1158e9,271294624.4110189,1000,981.8407286755685
56,1088.8126362180028,2.092976229656623,19,1090.9056124476595,0.0019185676613768837,1088e9,2092976229.6566231,1000,1009.5885031225315
57,1034.3367348341965,1.216519601369437,20,1035.5532544355658,0.0011747532984506025,1034e9,1216519601.369437,1000,232.71746204421913
58,811.778963394377,0.6854183648919596,25,812.4643817592689,0.000843628816573829,811e9,685418364.8919597,1000,424.962003623845
59,968.2529984085144,1.9238039754064573,21,970.1768023839209,0.0019829416356681394,968e9,1923803975.4064574,1000,784.3935681164232
60,985.7626234626614,1.237697904879056,21,987.0003213675404,0.0012539994953235283,985e9,1237697904.879056,1000,940.4343243476532
