execution_id,priority,max_stretch,mean_stretch,utilization,noise,noise_seed,x
0,Exclusive-FCFS,1.04233,1.01188,0.985078,0.3,1665487384,0.3333333333333333
0,FairShare,1.00948,1.00324,0.993378,0.3,1665487389,0.3333333333333333
0,Set-10,1.01031,1.0031,0.993585,0.3,1665487393,0.3333333333333333
1,Exclusive-FCFS,1.05036,1.01474,0.982432,0.3,1665487396,0.3333333333333333
1,FairShare,1.01102,1.00328,0.993352,0.3,1665487401,0.3333333333333333
1,Set-10,1.01142,1.00319,0.993488,0.3,1665487404,0.3333333333333333
2,Exclusive-FCFS,1.03554,1.00984,0.987075,0.3,1665487408,0.3333333333333333
2,FairShare,1.01078,1.00344,0.993161,0.3,1665487412,0.3333333333333333
2,Set-10,1.01184,1.00333,0.993312,0.3,1665487416,0.3333333333333333
3,Exclusive-FCFS,1.04263,1.01198,0.984988,0.3,1665487419,0.3333333333333333
3,FairShare,1.01103,1.00351,0.993091,0.3,1665487424,0.3333333333333333
3,Set-10,1.01162,1.00335,0.993303,0.3,1665487427,0.3333333333333333
4,Exclusive-FCFS,1.03878,1.01174,0.985255,0.3,1665487431,0.3333333333333333
4,FairShare,1.01239,1.00348,0.993121,0.3,1665487436,0.3333333333333333
4,Set-10,1.01266,1.00355,0.993059,0.3,1665487440,0.3333333333333333
5,Exclusive-FCFS,1.0433,1.01147,0.985514,0.3,1665487443,0.3333333333333333
5,FairShare,1.01368,1.00328,0.993341,0.3,1665487448,0.3333333333333333
5,Set-10,1.01401,1.00322,0.99342,0.3,1665487451,0.3333333333333333
6,Exclusive-FCFS,1.03662,1.0112,0.985711,0.3,1665487455,0.3333333333333333
6,FairShare,1.0108,1.00332,0.993317,0.3,1665487459,0.3333333333333333
6,Set-10,1.0115,1.00337,0.993277,0.3,1665487463,0.3333333333333333
7,Exclusive-FCFS,1.04741,1.01367,0.983442,0.3,1665487467,0.3333333333333333
7,FairShare,1.01114,1.00315,0.993505,0.3,1665487471,0.3333333333333333
7,Set-10,1.01176,1.00305,0.993627,0.3,1665487475,0.3333333333333333
8,Exclusive-FCFS,1.0405,1.0113,0.985641,0.3,1665487478,0.3333333333333333
8,FairShare,1.01246,1.00327,0.993368,0.3,1665487483,0.3333333333333333
8,Set-10,1.01259,1.00329,0.993344,0.3,1665487487,0.3333333333333333
9,Exclusive-FCFS,1.03559,1.01105,0.985857,0.3,1665487491,0.3333333333333333
9,FairShare,1.00973,1.00313,0.993472,0.3,1665487495,0.3333333333333333
9,Set-10,1.01019,1.00312,0.9935,0.3,1665487499,0.3333333333333333
10,Exclusive-FCFS,1.04368,1.01296,0.984085,0.3,1665487502,0.3333333333333333
10,FairShare,1.01197,1.00341,0.993202,0.3,1665487507,0.3333333333333333
10,Set-10,1.01236,1.00335,0.99332,0.3,1665487510,0.3333333333333333
11,Exclusive-FCFS,1.0426,1.01293,0.984096,0.3,1665487514,0.3333333333333333
11,FairShare,1.0101,1.0034,0.993226,0.3,1665487518,0.3333333333333333
11,Set-10,1.01046,1.00338,0.993291,0.3,1665487522,0.3333333333333333
12,Exclusive-FCFS,1.04072,1.01115,0.985772,0.3,1665487526,0.3333333333333333
12,FairShare,1.01034,1.00326,0.993383,0.3,1665487530,0.3333333333333333
12,Set-10,1.01074,1.00321,0.993434,0.3,1665487533,0.3333333333333333
13,Exclusive-FCFS,1.03866,1.01243,0.984611,0.3,1665487538,0.3333333333333333
13,FairShare,1.01079,1.00345,0.993159,0.3,1665487543,0.3333333333333333
13,Set-10,1.01102,1.00335,0.993269,0.3,1665487546,0.3333333333333333
14,Exclusive-FCFS,1.04503,1.0126,0.984452,0.3,1665487550,0.3333333333333333
14,FairShare,1.01282,1.00341,0.993237,0.3,1665487554,0.3333333333333333
14,Set-10,1.01327,1.00347,0.993213,0.3,1665487558,0.3333333333333333
15,Exclusive-FCFS,1.04061,1.01163,0.98542,0.3,1665487562,0.3333333333333333
15,FairShare,1.01246,1.00332,0.993342,0.3,1665487566,0.3333333333333333
15,Set-10,1.01266,1.00329,0.993338,0.3,1665487570,0.3333333333333333
16,Exclusive-FCFS,1.04605,1.01328,0.983809,0.3,1665487573,0.3333333333333333
16,FairShare,1.01158,1.00329,0.993346,0.3,1665487577,0.3333333333333333
16,Set-10,1.01214,1.00331,0.993324,0.3,1665487581,0.3333333333333333
17,Exclusive-FCFS,1.0365,1.01104,0.985908,0.3,1665487585,0.3333333333333333
17,FairShare,1.01111,1.0034,0.993274,0.3,1665487589,0.3333333333333333
17,Set-10,1.01124,1.00334,0.993296,0.3,1665487592,0.3333333333333333
18,Exclusive-FCFS,1.04373,1.01248,0.984531,0.3,1665487596,0.3333333333333333
18,FairShare,1.01063,1.00344,0.993161,0.3,1665487600,0.3333333333333333
18,Set-10,1.0112,1.00341,0.993219,0.3,1665487604,0.3333333333333333
19,Exclusive-FCFS,1.03366,1.01112,0.985801,0.3,1665487607,0.3333333333333333
19,FairShare,1.01046,1.00322,0.99343,0.3,1665487612,0.3333333333333333
19,Set-10,1.01077,1.00328,0.993337,0.3,1665487615,0.3333333333333333
20,Exclusive-FCFS,1.04376,1.01282,0.984195,0.3,1665487619,0.3333333333333333
20,FairShare,1.01086,1.003,0.993601,0.3,1665487624,0.3333333333333333
20,Set-10,1.0117,1.00308,0.993542,0.3,1665487627,0.3333333333333333
21,Exclusive-FCFS,1.04324,1.01232,0.984699,0.3,1665487630,0.3333333333333333
21,FairShare,1.01195,1.00321,0.99346,0.3,1665487635,0.3333333333333333
21,Set-10,1.01209,1.00322,0.993428,0.3,1665487638,0.3333333333333333
22,Exclusive-FCFS,1.03138,1.00955,0.987284,0.3,1665487642,0.3333333333333333
22,FairShare,1.01033,1.00299,0.993614,0.3,1665487646,0.3333333333333333
22,Set-10,1.01085,1.00317,0.993434,0.3,1665487649,0.3333333333333333
23,Exclusive-FCFS,1.05423,1.01374,0.983332,0.3,1665487653,0.3333333333333333
23,FairShare,1.01271,1.00322,0.993462,0.3,1665487658,0.3333333333333333
23,Set-10,1.01335,1.00329,0.993302,0.3,1665487661,0.3333333333333333
24,Exclusive-FCFS,1.03731,1.01129,0.985672,0.3,1665487665,0.3333333333333333
24,FairShare,1.01193,1.00326,0.993393,0.3,1665487669,0.3333333333333333
24,Set-10,1.01231,1.00331,0.993374,0.3,1665487673,0.3333333333333333
25,Exclusive-FCFS,1.04635,1.01406,0.983115,0.3,1665487676,0.3333333333333333
25,FairShare,1.01176,1.00349,0.993156,0.3,1665487682,0.3333333333333333
25,Set-10,1.01205,1.00346,0.993166,0.3,1665487686,0.3333333333333333
26,Exclusive-FCFS,1.04293,1.01203,0.984936,0.3,1665487689,0.3333333333333333
26,FairShare,1.01149,1.00326,0.993369,0.3,1665487694,0.3333333333333333
26,Set-10,1.01203,1.00323,0.993387,0.3,1665487697,0.3333333333333333
27,Exclusive-FCFS,1.03891,1.0113,0.985649,0.3,1665487701,0.3333333333333333
27,FairShare,1.01149,1.00332,0.993336,0.3,1665487706,0.3333333333333333
27,Set-10,1.01179,1.00335,0.993336,0.3,1665487710,0.3333333333333333
28,Exclusive-FCFS,1.03605,1.01073,0.986179,0.3,1665487713,0.3333333333333333
28,FairShare,1.01051,1.00334,0.99326,0.3,1665487718,0.3333333333333333
28,Set-10,1.01077,1.0033,0.99332,0.3,1665487721,0.3333333333333333
29,Exclusive-FCFS,1.04196,1.01263,0.984386,0.3,1665487725,0.3333333333333333
29,FairShare,1.01108,1.00334,0.99332,0.3,1665487730,0.3333333333333333
29,Set-10,1.01164,1.0032,0.993447,0.3,1665487733,0.3333333333333333
