app_id,start_app,end_app,effective_cpu,effective_io,effective_iter,total_bytes,stretch,utilization,Tcomp,Tio,iterations,priority,group_id
app_1,5.17269,18940,7909,91,878.795,3.49873e+10,1.00705,0.993378,9,0.0398035,2090,1,1
app_10,7.39158,18869,7911.8,88.2,877.959,2.16272e+10,1.00839,0.993378,9,0.0246323,2076,1.00001,1.00001
app_11,0.599442,18601,7911.7,88.3,881.626,1.84918e+10,1.0088,0.993378,9,0.0209658,2043,1.00001,1.00001
app_12,1.02361,19545.3,7931.1,68.9,658.766,2.5771e+10,1.00542,0.993378,12,0.0391062,1614,1.00001,1.00001
app_13,2.39473,19720.7,7907.2,92.8,882.672,4.14699e+10,1.00646,0.993378,9,0.0469648,2167,1.00001,1.00001
app_14,8.93923,18774.4,7911.6,88.4,881.3,1.84623e+10,1.00882,0.993378,9,0.0209561,2053,1.00001,1.00001
app_15,9.60653,19289.3,7920.5,79.5,794.982,5.97839e+09,1.00928,0.993378,10,0.00751999,1900,1.00002,1.00002
app_16,4.04799,18406.9,7898.8,101.2,982.935,3.5305e+10,1.00831,0.993378,8,0.0359156,2268,1.00002,1.00002
app_17,3.73923,19503.4,7910.9,89.1,722.641,5.2459e+10,1.0046,0.993378,11,0.0726579,1763,1.00002,1.00002
app_18,3.84977,19312.4,7911.7,88.3,874.483,2.31057e+10,1.00822,0.993378,9,0.0264066,2112,1.00002,1.00002
app_19,5.2641,18435.3,7914.1,85.9,799.224,3.79246e+10,1.00603,0.993378,10,0.047465,1836,1.00002,1.00002
app_2,9.678,19892.8,7921.5,78.5,785.172,4.27407e+09,1.00937,0.993378,10,0.00544468,1963,1,1
app_20,4.68316,18444.9,7901.3,98.7,983.149,2.35546e+10,1.00948,0.993378,8,0.0239619,2266,1.00002,1.00002
app_21,22.8381,19746.2,7967.8,32.2,81.175,2.38916e+10,1.00104,0.993378,101,0.294957,197,1.00002,1.00002
app_22,9.49345,19656.2,7974,26,73.9234,1.60535e+10,1.00124,0.993378,110,0.21694,181,1.00002,1.00002
app_23,18.3078,20052.1,7937.19,62.8099,88.8082,4.62619e+10,1.00207,0.993378,87,0.523399,227,1.00002,1.00002
app_24,12.8961,20080.6,7989.1,10.9,83.8135,4.96871e+09,1.00074,0.993378,93,0.0591513,214,1.00002,1.00002
app_25,17.8738,19859.3,7949.1,50.9,81.6556,3.71308e+10,1.00172,0.993378,98,0.458406,203,1.00003,1.00003
app_26,77.2271,19957.3,7943.4,56.6,88.6352,4.27744e+10,1.00173,0.993378,91,0.480611,219,1.00003,1.00003
app_27,4.60138,19702.4,7990.9,9.1,77.2984,4.41562e+09,1.00059,0.993378,104,0.0566105,191,1.00003,1.00003
app_28,32.655,20534.1,7982.3,17.7,76.9639,1.11695e+10,1.00082,0.993378,102,0.145058,196,1.00003,1.00003
app_29,100.798,19795.9,7939,61,77.4061,4.74917e+10,1.00169,0.993378,106,0.616775,187,1.00003,1.00003
app_3,1.77235,19943.4,7919.4,80.6,659.727,4.74519e+10,1.00416,0.993378,12,0.0720059,1644,1,1
app_30,24.9387,19936.3,7960.4,39.6,80.8007,2.82856e+10,1.00142,0.993378,100,0.349205,199,1.00003,1.00003
app_31,32.9203,19938.4,7964.4,35.6,78.4362,2.47148e+10,1.00136,0.993378,102,0.312846,195,1.00003,1.00003
app_32,15.6519,20300.1,7983.5,16.5,74.3819,1.09938e+10,1.00069,0.993378,105,0.146584,190,1.00003,1.00003
app_33,16.3249,20169.2,7980.2,19.8,90.3343,1.1006e+10,1.0011,0.993378,86,0.122289,231,1.00003,1.00003
app_34,87.895,19902.6,7959.2,40.8,81.0069,3.13414e+10,1.00118,0.993378,99,0.386931,200,1.00003,1.00003
app_35,37.1831,20472.9,7931.8,68.2,74.985,5.11463e+10,1.00214,0.993378,105,0.681951,190,1.00004,1.00004
app_36,31.2529,20007.3,7991.3,8.7,87.0218,1.43094e+09,1.00091,0.993378,91,0.0164476,218,1.00004,1.00004
app_37,82.8293,20262.2,7965.1,34.9,75.3402,2.57341e+10,1.00115,0.993378,105,0.343122,189,1.00004,1.00004
app_38,19.24,19902,7979.81,20.1891,77.874,1.36553e+10,1.00082,0.993378,101,0.175567,196,1.00004,1.00004
app_39,10.7559,20053.1,7930,70,73.8118,5.16501e+10,1.0023,0.993378,107,0.707536,186,1.00004,1.00004
app_4,3.66709,19622,7904.4,95.6,791.677,4.87699e+10,1.00589,0.993378,10,0.0616561,1939,1,1
app_40,41.3163,19942.3,7936.4,63.6,70.0458,4.63501e+10,1.00216,0.993378,113,0.662145,176,1.00004,1.00004
app_41,865.512,22930.9,7970.4,29.6,7.73329,2.4926e+10,1.00058,0.993378,1078,3.56086,19,1.00004,1.00004
app_42,246.49,20840.6,7951.5,48.5,7.53126,4.23528e+10,1.00077,0.993378,1065,5.2941,19,1.00004,1.00004
app_43,89.5826,20918.8,7940.5,59.5,9.22319,4.9335e+10,1.00127,0.993378,843,5.48166,24,1.00004,1.00004
app_44,906.475,20506.6,7971.1,28.9,7.6043,2.2279e+10,1.00083,0.993378,1080,2.78488,19,1.00004,1.00004
app_45,402.89,21324.7,7931.7,68.3,7.68918,4.42269e+10,1.00302,0.993378,952,5.52836,21,1.00004,1.00004
app_46,803.075,22141.6,7939,61,8.28415,4.0742e+10,1.00254,0.993378,924,5.09275,22,1.00005,1.00005
app_47,449.178,19649.2,7963.1,36.9,10.0612,2.81283e+10,1.0011,0.993378,836,2.55711,24,1.00005,1.00005
app_48,704.695,20564.3,7956.4,43.6,7.62482,3.6929e+10,1.00083,0.993378,1139,4.61612,18,1.00005,1.00005
app_49,122.519,20483,7926.3,73.7,8.70349,5.88506e+10,1.00186,0.993378,976,6.53896,21,1.00005,1.00005
app_5,2.22147,19884.1,7934.6,65.4,654.807,1.17573e+10,1.00675,0.993378,12,0.0179775,1631,1.00001,1.00001
app_50,343.901,20871.3,7979.8,20.2,8.48538,1.6587e+10,1.00045,0.993378,918,2.07338,22,1.00005,1.00005
app_51,229.904,21423.7,7921.7,78.3,7.37256,5.04469e+10,1.00349,0.993378,1088,6.30586,19,1.00005,1.00005
app_52,379.605,21709.6,7981.4,18.6,9.50022,1.58644e+10,1.00034,0.993378,823,1.58644,25,1.00005,1.00005
app_53,823.722,22903.4,7939.2,60.8,7.96407,4.04142e+10,1.00255,0.993378,933,5.05178,22,1.00005,1.00005
app_54,378.539,22274.1,7993.8,6.2,8.06979,4.95631e+09,1.00016,0.993378,903,0.619539,23,1.00005,1.00005
app_55,859.806,22419.5,7977.1,22.9,7.69697,1.85583e+10,1.00054,0.993378,990,2.65118,21,1.00005,1.00005
app_56,829.07,20719.9,7998.8,1.2,7.99366,4.01629e+08,1.0001,0.993378,1029,0.0502036,20,1.00006,1.00006
app_57,794.457,20568.8,7984.7,15.3,8.619,1.26574e+10,1.00033,0.993378,970,1.40637,21,1.00006,1.00006
app_58,559.163,21119.5,7987.2,12.8,8.43383,9.16491e+09,1.00045,0.993378,1017,1.01832,20,1.00006,1.00006
app_59,252.854,20119.2,7999.2,0.8,7.68358,2.02708e+07,1.0001,0.993378,1164,0.00253386,18,1.00006,1.00006
app_6,0.620208,18322.3,7904.63,95.3748,785.294,5.76034e+10,1.00474,0.993378,10,0.0733257,1813,1.00001,1.00001
app_60,661.885,22723.6,7973.1,26.9,7.40396,2.29051e+10,1.0005,0.993378,964,3.27216,21,1.00006,1.00006
app_7,2.68071,18601.5,7909.5,90.5,872.561,3.20799e+10,1.00736,0.993378,9,0.0367889,2031,1.00001,1.00001
app_8,3.12233,19154.2,7934.4,65.6,656.5,6.30931e+09,1.00747,0.993378,12,0.00961785,1577,1.00001,1.00001
app_9,8.52332,19503.5,7912.2,87.8,878.51,1.45371e+10,1.00924,0.993378,9,0.0165571,2138,1.00001,1.00001
