app_id,start_app,end_app,effective_cpu,effective_io,effective_iter,total_bytes,stretch,utilization,Tcomp,Tio,iterations,priority,group_id
app_1,0.290009,19132.4,7908.5,91.5,869.745,3.86311e+10,1.00665,0.99343,9,0.0444035,2093,1,1
app_10,0.656164,18631.8,7911.3,88.7,886.581,1.43068e+10,1.00939,0.99343,9,0.0161294,2069,1.00001,1.00001
app_11,8.57069,18166.4,7911.5,88.5,884.88,1.10099e+10,1.00978,0.99343,9,0.0124405,2000,1.00001,1.00001
app_12,3.68169,19114.7,7917.5,82.5,793.365,3.19347e+10,1.00636,0.99343,10,0.0402707,1906,1.00001,1.00001
app_13,8.34971,19087.8,7911.6,88.4,880.217,2.65402e+10,1.00779,0.99343,9,0.0301251,2099,1.00001,1.00001
app_14,6.83348,18834,7908.4,91.6,873.678,3.71296e+10,1.00686,0.99343,9,0.0424823,2064,1.00001,1.00001
app_15,8.48787,18599.8,7901.9,98.1,785.461,5.75701e+10,1.00509,0.99343,10,0.0732444,1829,1.00002,1.00002
app_16,2.32425,18465.9,7912.3,87.7,877.167,1.31056e+10,1.00941,0.99343,9,0.0149436,2023,1.00002,1.00002
app_17,7.626,18171,7886.7,113.3,983.965,5.28383e+10,1.00762,0.99343,8,0.0536974,2236,1.00002,1.00002
app_18,5.78256,18620.8,7917,83,788.104,3.2604e+10,1.00634,0.99343,10,0.0413756,1856,1.00002,1.00002
app_19,7.68251,19146.5,7912,88,880.44,6.30285e+09,1.01032,0.99343,9,0.00716233,2100,1.00002,1.00002
app_2,5.63093,18928.2,7906.3,93.7,791.424,4.9313e+10,1.00558,0.99343,10,0.0623427,1870,1,1
app_20,5.81408,20122.3,7906.6,93.4,789.09,4.81759e+10,1.00569,0.99343,10,0.0610595,1988,1.00002,1.00002
app_21,35.3858,20111,7953.2,46.8,85.032,3.46997e+10,1.00151,0.99343,95,0.408231,209,1.00002,1.00002
app_22,40.9515,20100,7991.8,8.2,80.1318,2.42514e+09,1.00072,0.99343,99,0.0303142,201,1.00002,1.00002
app_23,78.5984,20388,7951.7,48.3,69.2772,3.64273e+10,1.00149,0.99343,113,0.527932,177,1.00002,1.00002
app_24,76.5994,19776.9,7953.6,46.4,92.2832,3.33072e+10,1.00164,0.99343,86,0.358142,229,1.00002,1.00002
app_25,72.4377,20174.1,7955.5,44.5,95.824,3.41219e+10,1.0013,0.99343,81,0.355437,245,1.00003,1.00003
app_26,92.8038,20509.5,7960.6,39.4,68.1233,2.85921e+10,1.00135,0.99343,115,0.420473,174,1.00003,1.00003
app_27,12.3063,19921,7970.3,29.7,83.462,1.83013e+10,1.00143,0.99343,94,0.217873,211,1.00003,1.00003
app_28,50.9746,19902.8,7980.3,19.7,89.4234,9.37452e+09,1.00129,0.99343,94,0.104161,213,1.00003,1.00003
app_29,14.4123,19683.1,7990.6,9.4,93.9931,6.02858e+08,1.0011,0.99343,85,0.00641338,233,1.00003,1.00003
app_3,8.28161,18259.5,7912,88,879.416,1.56233e+10,1.00913,0.99343,9,0.0177537,2012,1,1
app_30,39.4636,19998.2,7982.1,17.9,74.5362,1.32815e+10,1.00058,0.99343,104,0.179479,192,1.00003,1.00003
app_31,77.3145,19988,7933,67,78.7753,5.15569e+10,1.00193,0.99343,99,0.652619,200,1.00003,1.00003
app_32,22.2496,20267.6,7977.4,22.6,80.5643,1.51399e+10,1.00093,0.99343,97,0.186912,206,1.00003,1.00003
app_33,36.3516,20127.2,7955.8,44.2,90.7894,3.34779e+10,1.00134,0.99343,86,0.367889,231,1.00003,1.00003
app_34,64.7471,19966.9,7936.9,63.1,86.0695,4.79879e+10,1.00189,0.99343,92,0.557999,214,1.00003,1.00003
app_35,43.1721,19760,7939.3,60.7,81.1496,4.52203e+10,1.00194,0.99343,100,0.558275,198,1.00004,1.00004
app_36,17.1142,19799.2,7950.6,49.4,72.6648,3.71054e+10,1.00154,0.99343,111,0.508294,179,1.00004,1.00004
app_37,69.4435,19929.6,7957.8,42.2,84.8224,3.15908e+10,1.00133,0.99343,92,0.371657,216,1.00004,1.00004
app_38,9.17828,19729.3,7941.8,58.2,97.2179,4.54742e+10,1.00159,0.99343,82,0.468806,241,1.00004,1.00004
app_39,60.4575,19905.9,7958.2,41.8,90.4138,2.99471e+10,1.00148,0.99343,88,0.329088,226,1.00004,1.00004
app_4,4.92378,20116.5,7912.6,87.4,870.531,2.69858e+10,1.00761,0.99343,9,0.0310182,2191,1,1
app_40,58.453,19982,7992.5,7.5,72.8891,2.78755e+09,1.00059,0.99343,110,0.0381856,182,1.00004,1.00004
app_41,461.565,21560.3,7961.5,38.5,7.17328,2.79668e+10,1.00132,0.99343,1099,3.99526,19,1.00004,1.00004
app_42,594.174,23315.3,7997.2,2.8,7.25396,2.2306e+09,1.00007,0.99343,984,0.318657,21,1.00004,1.00004
app_43,122.709,20601.5,7953.6,46.4,8.19754,3.97034e+10,1.00084,0.99343,994,4.96292,21,1.00004,1.00004
app_44,917.241,21942.7,7941.4,58.6,7.0117,4.47866e+10,1.00173,0.99343,1059,6.39809,19,1.00004,1.00004
app_45,730.633,22044.3,7978.2,21.8,7.335,1.77834e+10,1.0005,0.99343,1041,2.54049,20,1.00004,1.00004
app_46,400.641,22219.9,7964.3,35.7,7.6827,3.04393e+10,1.00066,0.99343,1044,3.80491,20,1.00005,1.00005
app_47,209.001,20907.3,7946.6,53.4,9.98063,4.14521e+10,1.0015,0.99343,779,4.14521,26,1.00005,1.00005
app_48,178.062,20876.8,7968.1,31.9,7.41374,2.77327e+10,1.00052,0.99343,1018,3.96181,20,1.00005,1.00005
app_49,777.322,22917,7988.8,11.2,7.88093,8.27736e+09,1.00037,0.99343,942,1.03467,22,1.00005,1.00005
app_5,1.67993,19693.6,7917,83,792.702,3.43383e+10,1.00612,0.99343,10,0.0433017,1947,1.00001,1.00001
app_50,308.96,20486,7969.2,30.8,7.98399,2.59603e+10,1.00061,0.99343,1017,3.24504,20,1.00005,1.00005
app_51,442.193,19907.4,7985.5,14.5,9.53719,1.01616e+10,1.00054,0.99343,882,1.12907,23,1.00005,1.00005
app_52,475.873,21822.3,7979.6,20.4,7.36853,1.46299e+10,1.00072,0.99343,1043,2.08998,20,1.00005,1.00005
app_53,71.821,19798.6,7960.5,39.5,9.01589,3.12369e+10,1.00103,0.99343,947,3.47076,22,1.00005,1.00005
app_54,917.254,20043.1,7995,5,10.0045,3.56975e+09,1.00018,0.99343,921,0.356975,22,1.00005,1.00005
app_55,202.523,20360.4,7944.1,55.9,8.36136,4.54315e+10,1.00131,0.99343,926,5.67893,22,1.00005,1.00005
app_56,678.513,19755.2,7963,37,9.41194,3.0502e+10,1.00081,0.99343,915,3.38911,22,1.00006,1.00006
app_57,588.495,21189.8,7992.5,7.5,9.58584,5.91451e+09,1.0002,0.99343,813,0.591451,25,1.00006,1.00006
app_58,938.065,22487.9,7937.2,62.8,7.50944,5.22049e+10,1.00133,0.99343,1024,6.52561,20,1.00006,1.00006
app_59,698.279,21305.3,7990.5,9.5,8.58924,6.58679e+09,1.00036,0.99343,947,0.823348,22,1.00006,1.00006
app_6,4.15527,20046.8,7920.2,79.8,798.082,2.72812e+09,1.00973,0.99343,10,0.0034187,1985,1.00001,1.00001
app_60,915.042,22591.7,7996.5,3.5,7.96061,3.13003e+09,1.00005,0.99343,973,0.391253,21,1.00006,1.00006
app_7,2.63478,18339.4,7912.5,87.5,875.12,4.69133e+09,1.01046,0.99343,9,0.00536152,2019,1.00001,1.00001
app_8,5.9023,18792.6,7906.3,93.7,885.207,4.18452e+10,1.00652,0.99343,9,0.0472828,2076,1.00001,1.00001
app_9,5.43013,19543.4,7907.7,92.3,720.775,5.33991e+10,1.00489,0.99343,11,0.0740626,1753,1.00001,1.00001
