app_id,Tcomp,Tio,iter,witer,alpha_io,compute_size,io_size,mu,desyn_time
1,10.663630933704725,0.02917389968183935,1871,10.692804833386564,0.0027283673588382102,10e9,29173899.681839347,10,8.115804641876824
2,11.733312557608851,0.1697041693095735,1681,11.903016726918425,0.014257240261268476,11e9,169704169.3095735,10,11.435970145493464
3,10.001255489856515,0.039823145950777517,1992,10.041078635807292,0.00396602271480725,10e9,39823145.950777516,10,8.046442708465111
4,11.254519646261096,0.010289626384349824,1776,11.264809272645445,0.0009134310342329828,11e9,10289626.384349825,10,4.634043124347854
5,9.030190173827128,0.07739166933262276,2196,9.107581843159752,0.008497499189727047,9e9,77391669.33262275,10,8.734254896338
6,7.656956874063799,0.08375153226834711,2584,7.740708406332146,0.010819621134395876,7e9,83751532.26834711,10,7.206237580983316
7,8.458548770529905,0.021400988104350236,2359,8.479949758634255,0.0025237163796353657,8e9,21400988.104350235,10,3.046497785609717
8,10.73791411640651,0.16514474779811744,1835,10.903058864204628,0.015146643694669684,10e9,165144747.79811743,10,1.4691432505923736
9,9.045241210503084,0.19064692576964248,2166,9.235888136272727,0.02064196999321613,9e9,190646925.76964247,10,0.7273756673864025
10,9.338997616074426,0.16949435658544884,2104,9.508491972659876,0.017825577081287163,9e9,169494356.58544883,10,5.798023011198385
11,10.098362080782396,0.18407430110531953,1946,10.282436381887715,0.017901817649906625,10e9,184074301.10531953,10,1.727441209678558
12,10.474422131254634,0.10693138634003614,1891,10.581353517594671,0.010105643494684367,10e9,106931386.34003614,10,0.7155299072108697
13,10.741627344250283,0.04324044989020863,1855,10.784867794140492,0.004009362999674556,10e9,43240449.89020863,10,0.034032224503600064
14,10.047327367211347,0.10416268568752754,1971,10.151490052898874,0.010260827242576345,10e9,104162685.68752754,10,6.277115725357065
15,10.801942254971378,0.16965453445156556,1823,10.971596789422943,0.015463066835915744,10e9,169654534.45156556,10,4.114550668000311
16,9.159414664884169,0.04158082188260767,2174,9.200995486766777,0.004519165555771742,9e9,41580821.88260767,10,0.16013059688543557
17,9.64432690768555,0.18812688475439512,2035,9.832453792439944,0.019133258973364677,9e9,188126884.75439513,10,1.6509533490832151
18,10.957775501959413,0.21860883749230198,1790,11.176384339451715,0.01955988903501026,10e9,218608837.49230197,10,7.984151082614453
19,9.6887433875801,0.2479489614595818,2013,9.936692349039681,0.024952866884677627,9e9,247948961.45958182,10,1.0424536026058975
20,8.036229060473053,0.06824426402679735,2468,8.10447332449985,0.00842056741929111,8e9,68244264.02679735,10,3.3477712556312134
21,103.60114047382895,1.6902628755883278,190,105.29140334941728,0.016053189736478922,103e9,1690262875.588328,100,81.89613955233011
22,95.02017459367754,2.3576926120513386,206,97.37786720572888,0.02421179144404831,95e9,2357692612.0513387,100,57.97064871784982
23,108.12768230147215,2.0570004926330365,182,110.18468279410519,0.018668661019579435,108e9,2057000492.6330366,100,64.26507789186286
24,97.53358917595907,1.7993099275828897,202,99.33289910354195,0.018113937515377834,97e9,1799309927.5828896,100,81.45340110510989
25,99.54076429886028,0.40436310178132784,201,99.94512740064161,0.0040458510814678494,99e9,404363101.78132784,100,99.20720017923843
26,89.19925000714824,0.7043566973928658,223,89.9036067045411,0.007834576645046746,89e9,704356697.3928658,100,83.88911288934369
27,111.76970489738414,2.89798632962854,175,114.66769122701268,0.025272910779124948,111e9,2897986329.62854,100,87.71365744066945
28,95.48772255391984,2.014291246400972,206,97.50201380032081,0.020658970701119453,95e9,2014291246.4009721,100,43.52024344988516
29,111.39782470945401,1.6215154681380535,177,113.01934017759207,0.014347238849475653,111e9,1621515468.1380534,100,91.5952440285252
30,103.08189764656717,1.8799632444493086,191,104.96186089101649,0.01791091762751142,103e9,1879963244.4493086,100,66.82860201414988
31,88.8857827930947,0.8725748404043188,223,89.75835763349902,0.009721377077410585,88e9,872574840.4043188,100,21.096077165182404
32,104.82318985371654,1.8476038314671235,188,106.67079368518367,0.017320615771547893,104e9,1847603831.4671235,100,48.21723222258794
33,98.34654576628701,1.390120287112247,201,99.73666605339926,0.013937906109353738,98e9,1390120287.1122472,100,50.79342324735541
34,111.10487580090742,0.649580305485713,179,111.75445610639314,0.005812567374202025,111e9,649580305.485713,100,66.32004551487091
35,97.27739045429247,1.974466073616559,202,99.25185652790903,0.019893492602441658,97e9,1974466073.6165588,100,52.84742945305383
36,100.52611053103385,0.8836822698260179,198,101.40979280085988,0.008713973724029983,100e9,883682269.826018,100,66.3328549357182
37,82.38970385630574,0.5956698315660797,242,82.98537368787183,0.007178009872035267,82e9,595669831.5660796,100,40.22763506069087
38,105.56162224675411,0.8653777105357042,188,106.42699995728982,0.00813118579761704,105e9,865377710.5357043,100,80.13525134758916
39,117.45252499182854,1.4287602726447752,169,118.88128526447332,0.01201837841394661,117e9,1428760272.6447752,100,80.13989203056377
40,115.45349258594264,1.4213936276988866,172,116.87488621364153,0.012161668547857656,115e9,1421393627.6988866,100,102.73051339631384
41,899.2968862949866,12.78412608865154,22,912.0810123836382,0.014016437043504968,899e9,12784126088.65154,1000,339.04076902379217
42,884.8195796454952,6.201741114701514,23,891.0213207601967,0.00696026118590557,884e9,6201741114.701514,1000,3.9332483128754037
43,1116.8980491073187,15.820259050773636,18,1132.7183081580922,0.01396663136530289,1116e9,15820259050.773636,1000,395.5915992538729
44,1014.58954154536,25.941176134068357,20,1040.5307176794283,0.024930716309771103,1014e9,25941176134.068356,1000,323.58537990590764
45,727.1319407119822,2.5057420369612187,28,729.6376827489435,0.0034342278314364472,727e9,2505742036.961219,1000,47.68325326685308
46,1167.6598957432338,2.0958226681475534,18,1169.7557184113814,0.0017916755055438775,1167e9,2095822668.1475534,1000,145.41348717508885
47,1084.2425180448965,6.773168540647219,19,1091.0156865855438,0.006208131215642381,1084e9,6773168540.647219,1000,692.148281772681
48,1135.2428177687548,18.2644028201291,18,1153.507220588884,0.015833800165381565,1135e9,18264402820.1291,1000,485.59771122981135
49,918.1021205583758,4.6626919967158855,22,922.7648125550917,0.005052958167970357,918e9,4662691996.715885,1000,732.4869511273886
50,890.00057434,6.8951122116771,23,896.895686551677,0.007687752672985812,890e9,6895112211.6771,1000,351.6091524184677
51,935.3295187538441,23.68523039025782,21,959.014749144102,0.024697462068645273,935e9,23685230390.25782,1000,475.10120450460585
52,823.9240524887972,14.830732166367302,24,838.7547846551645,0.01768184508475219,823e9,14830732166.367302,1000,101.17061614956783
53,927.5567898917685,23.263108267742517,22,950.819898159511,0.024466366672355716,927e9,23263108267.742516,1000,8.155408120994558
54,942.2864512792495,23.243235880394572,21,965.529687159644,0.024073041139491606,942e9,23243235880.394573,1000,898.4495606599448
55,1095.5919213867655,5.851811962289007,19,1101.4437333490546,0.005312856013530498,1095e9,5851811962.289007,1000,506.3555756306766
56,928.859496584794,23.803799847263928,21,952.6632964320579,0.024986582286117883,928e9,23803799847.263927,1000,714.8614038124027
57,933.7345584630384,13.836353923511187,22,947.5709123865496,0.014601919225932106,933e9,13836353923.511187,1000,105.5357385292924
58,1020.5182269575241,23.472607290505007,20,1043.9908342480292,0.022483537709803717,1020e9,23472607290.505005,1000,460.9509093701567
59,1020.5298880108636,9.924807996329815,20,1030.4546960071934,0.009631484076676508,1020e9,9924807996.329815,1000,785.6285493820136
60,961.2018336592248,18.1458819880616,21,979.3477156472863,0.01852853863662543,961e9,18145881988.0616,1000,908.2936001601753
