app_id,start_app,end_app,effective_cpu,effective_io,effective_iter,total_bytes,stretch,utilization,Tcomp,Tio,iterations,priority,group_id
app_1,2.60421,26444.5,5236.16,114.439,580.002,8.36767e+10,1.50381,0.848826,9,0.14427,2109,1,1
app_10,1.52981,26596.4,5106.91,125.209,565.005,1.01954e+11,1.53584,0.848826,9,0.18045,2116,1,1
app_11,6.37253,25481.3,5319.62,47.4529,522.994,1.89203e+10,1.49854,0.848826,10,0.0361765,1842,1,1
app_12,2.56405,26506.2,5208.89,74.6503,578.005,5.42952e+10,1.51999,0.848826,9,0.0939364,2139,1,1
app_13,4.10045,26034.4,5103.98,68.7715,644.008,3.86326e+10,1.55563,0.848826,8,0.0599884,2321,1,1
app_14,2.16556,26920.1,5054.04,106.165,634.999,6.70184e+10,1.56218,0.848826,8,0.105541,2407,1,1
app_15,0.0676513,26566.9,5403.01,95.1533,492.008,6.86048e+10,1.46209,0.848826,11,0.139441,1794,1,1
app_16,4.91971,27106.7,5217.66,37.7247,585,6.86307e+08,1.53305,0.848826,9,0.00117317,2209,1,1
app_17,4.50588,27076.5,5191.69,111.067,577.855,8.04922e+10,1.5174,0.848826,9,0.13926,2179,1,1
app_18,6.1776,25624,5406.17,133.232,488.99,1.04065e+11,1.45184,0.848826,11,0.212812,1712,1,1
app_19,3.87474,25937.4,5320.77,58.9213,529.025,3.38226e+10,1.49404,0.848826,10,0.0639369,1894,1,1
app_2,3.44006,26712.9,5202.18,112.328,592.98,8.14498e+10,1.51411,0.848826,9,0.137352,2157,1,1
app_20,5.96546,25731.9,5204.68,153.227,563.993,1.19447e+11,1.50259,0.848826,9,0.211785,2023,1,1
app_21,79.6767,21413.7,7373.6,85.6491,63.8276,8.30687e+10,1.07287,0.848826,117,1.29795,169,1,1
app_22,22.3546,21852.8,7477.7,64.5555,72.9927,6.00944e+10,1.06132,0.848826,97,0.823211,205,1,1
app_23,20.7985,21030.4,7279.31,154.534,70.5479,1.50708e+11,1.07671,0.848826,102,2.15298,191,1,1
app_24,15.9599,21838,7279.6,23.486,87.0752,1.86467e+10,1.09615,0.848826,82,0.21433,243,1,1
app_25,25.0177,21467.5,7302.3,170.067,70.0508,1.6687e+11,1.07107,0.848826,101,2.38386,193,1,1
app_26,63.4631,21867.4,7344.7,146.336,77.3012,1.41948e+11,1.06857,0.848826,93,1.84348,211,1,1
app_27,93.8597,22244.3,7304.6,62.1055,69.9984,5.8247e+10,1.08654,0.848826,102,0.8321,195,1,1
app_28,5.7065,21080.1,7247.5,174.991,73.0457,1.71276e+11,1.07834,0.848826,105,2.34625,187,1,1
app_29,74.0638,21894.1,7300.7,111.83,78.5097,1.08572e+11,1.07973,0.848826,88,1.37433,223,1,1
app_3,2.97242,25916.7,5417.11,64.769,486.013,4.85336e+10,1.46369,0.848826,11,0.0998634,1752,1,1
app_30,6.56893,21315.7,7330,32.6232,79.0221,2.86529e+10,1.08716,0.848826,93,0.362695,213,1,1
app_31,51.8104,21182.7,7296.2,162.174,71.8812,1.58009e+11,1.07322,0.848826,103,2.22548,189,1,1
app_32,92.3494,21403.9,7076.83,174.451,78.1373,1.70413e+11,1.10387,0.848826,96,2.15712,204,1,1
app_33,45.7732,21251.6,7371,14.0966,76.1415,9.76067e+09,1.0839,0.848826,98,0.12843,204,1,1
app_34,108.967,21902.7,7489.16,45.1767,60.874,4.22012e+10,1.06223,0.848826,117,0.703353,170,1,1
app_35,87.8053,21505.2,7504.4,107.597,61.8984,1.04252e+11,1.05143,0.848826,117,1.70905,168,1,1
app_36,89.1496,21812.1,7292,160.238,75.8363,1.56923e+11,1.07398,0.848826,95,2.06478,206,1,1
app_37,34.6108,21224.7,7219.02,173.814,76.2757,1.69779e+11,1.08272,0.848826,97,2.23393,202,1,1
app_38,61.3962,21335.5,7371.21,49.8125,71.2651,4.62976e+10,1.07853,0.848826,102,0.65208,194,1,1
app_39,50.3577,21052,7220.43,178.945,69.6312,1.75126e+11,1.08173,0.848826,107,2.53805,182,1,1
app_4,5.11781,26363.5,5243.8,54.6974,534,2.94364e+10,1.51709,0.848826,10,0.0551243,1944,1,1
app_40,95.7781,21298.8,7276.24,109.74,77.7932,1.06245e+11,1.08365,0.848826,97,1.36212,203,1,1
app_41,687.38,21493.7,7866.08,112.199,7.5556,1.11813e+11,1.00277,0.848826,1114,14.7846,18,1,1
app_42,316.85,19888.2,7807,75.2702,9.58589,7.48117e+10,1.015,0.848826,895,8.31241,23,1,1
app_43,13.2079,21010.1,7690.33,171.646,9.28689,1.7112e+11,1.01762,0.848826,823,18.0325,24,1,1
app_44,440.197,22233.9,7762.7,172.706,8.19881,1.72176e+11,1.00821,0.848826,860,19.1306,23,1,1
app_45,798.776,18860.2,7877.8,50.4565,8.62428,5.00594e+10,1.0091,0.848826,1055,6.25742,19,1,1
app_46,328.897,20311.1,7812.7,70.5368,8.99463,7.01224e+10,1.01486,0.848826,1004,7.79138,20,1,1
app_47,631.006,21513.6,7888.1,55.5873,7.52955,5.52558e+10,1.00713,0.848826,997,7.89368,20,1,1
app_48,474.849,18798,7848.1,132.542,8.18998,1.32114e+11,1.00248,0.848826,1076,16.5142,19,1,1
app_49,574.353,22402.1,7906.2,48.4558,8.21021,4.80155e+10,1.00576,0.848826,1010,6.00193,20,1,1
app_5,7.084,26247.6,5323.66,89.6293,530.063,5.66468e+10,1.4869,0.848826,10,0.106881,1895,1,1
app_50,841.384,20688.4,7729.6,182.194,8.80461,1.81697e+11,1.01121,0.848826,847,20.1885,24,1,1
app_51,934.849,21692,7783.1,206.555,7.71023,2.06248e+11,1.00133,0.848826,1014,25.7811,20,1,1
app_52,346.087,21027.5,7847.7,96.5184,8.34469,9.60849e+10,1.00708,0.848826,934,12.0106,22,1,1
app_53,863.066,22847.1,7845.7,117.116,8.23047,1.16736e+11,1.00472,0.848826,1033,12.9707,20,1,1
app_54,109.638,19857,7738.4,207.304,7.97639,2.06749e+11,1.0069,0.848826,1093,25.8436,18,1,1
app_55,221.445,19282.9,7794.3,170.008,8.89914,1.69397e+11,1.00456,0.848826,919,18.8219,22,1,1
app_56,72.4047,23002.2,7835.4,121.287,7.46521,1.20955e+11,1.00549,0.848826,888,17.2793,23,1,1
app_57,438.056,20933.9,7875.8,30.9106,6.66689,3.0576e+10,1.01184,0.848826,1135,4.368,18,1,1
app_58,500.111,21460.5,7833.9,151.413,8.99287,1.51169e+11,1.00187,0.848826,864,16.7966,23,1,1
app_59,404.106,22393.1,7743.29,170.739,9.61367,1.70353e+11,1.01091,0.848826,808,18.9282,25,1,1
app_6,3.32948,26740.9,5246.12,56.0962,585.32,2.60795e+10,1.51739,0.848826,9,0.0445803,2162,1,1
app_60,273.718,21704.3,7931.8,38.4225,7.42936,3.80824e+10,1.00378,0.848826,981,5.44035,21,1,1
app_7,2.04935,25638.9,5225.33,54.9975,577.998,2.41492e+10,1.52396,0.848826,9,0.0417807,2050,1,1
app_8,4.97928,26188.5,5180.36,99.0587,574.998,6.37606e+10,1.52552,0.848826,9,0.110888,2072,1,1
app_9,0.473009,25874.6,5049.76,136.965,636.991,1.11038e+11,1.55015,0.848826,8,0.174313,2277,1,1
