app_id,start_app,end_app,effective_cpu,effective_io,effective_iter,total_bytes,stretch,utilization,Tcomp,Tio,iterations,priority,group_id
app_1,7.06218,20087.5,7815.3,148.428,794.578,8.67941e+10,1.01239,0.969763,10,0.109312,1974,0.1,1
app_10,9.90783,19442.5,7805.2,160.379,772.207,1.27852e+11,1.00844,0.969763,10,0.165612,1875,0.1,1
app_11,1.82545,20285.3,7893.9,67.9638,778.466,1.07781e+10,1.01206,0.969763,10,0.0138537,1990,0.1,1
app_12,8.19185,18486.4,7876.5,78.5746,866.585,1.82404e+10,1.01333,0.969763,9,0.0210385,2021,0.1,1
app_13,8.959,19668.7,7737.9,221.67,766.44,1.62859e+11,1.01256,0.969763,10,0.21261,1891,0.1,1
app_14,0.91059,18952.2,7718.8,245.856,848.019,1.7784e+11,1.01309,0.969763,9,0.209718,2009,0.1,1
app_15,6.31742,19685.8,7881.9,77.9141,784.489,3.57956e+10,1.01039,0.969763,10,0.0456577,1945,0.1,1
app_16,2.81091,19902.1,7802.11,161.247,763.892,1.3548e+11,1.00786,0.969763,10,0.177483,1924,0.1,1
app_17,2.03364,18308.5,7854.9,98.4756,873.159,7.37401e+10,1.009,0.969763,9,0.0843709,1990,0.1,1
app_18,0.33286,19697,7788.2,170.449,876.527,1.08657e+11,1.01306,0.969763,9,0.123896,2147,0.1,1
app_19,2.9805,18332.5,7864.1,93.5641,859.869,6.17604e+10,1.00935,0.969763,9,0.0718144,1989,0.1,1
app_2,4.25311,19608.2,7816.2,151.393,732.044,1.18391e+11,1.00824,0.969763,11,0.161736,1787,0.1,1
app_20,4.66303,18880.6,7875.3,85.104,800.403,5.17677e+10,1.0092,0.969763,10,0.0647096,1868,0.1,1
app_21,78.1686,20776.5,7934.6,43.8337,78.1626,2.80973e+10,1.00468,0.969763,100,0.360222,199,0.01,2
app_22,57.6816,20424,7890.8,57.9241,76.872,3.9442e+10,1.0088,0.969763,97,0.512233,205,0.01,2
app_23,61.5742,20294.5,7841.8,116.332,70.4209,8.23108e+10,1.00958,0.969763,111,1.17587,178,0.01,2
app_24,92.1021,20751.5,7751.7,207.099,70.7487,1.44957e+11,1.01309,0.969763,105,2.04165,186,0.01,2
app_25,15.3338,19795,7694,255.313,75.0606,1.83346e+11,1.01557,0.969763,107,2.44461,182,0.01,2
app_26,61.6382,20666.7,7821,119.504,92.3505,8.26816e+10,1.01219,0.969763,85,0.889049,232,0.01,2
app_27,27.2489,20632.3,7818.3,121.047,92.265,8.26686e+10,1.01253,0.969763,83,0.898572,238,0.01,2
app_28,15.9408,20235.5,7759.1,192.77,82.1286,1.34664e+11,1.01346,0.969763,90,1.64224,218,0.01,2
app_29,66.7756,20102.6,7866.1,78.5745,89.7534,5.12344e+10,1.01044,0.969763,87,0.569271,228,0.01,2
app_3,8.99841,19833.3,7797,165.667,865.538,1.02681e+11,1.0127,0.969763,9,0.118569,2138,0.1,1
app_30,34.8021,20341.5,7921.1,42.2555,69.1835,2.86583e+10,1.00632,0.969763,113,0.415338,176,0.01,2
app_31,13.0154,20500.8,7809.5,160.535,71.9066,1.13497e+11,1.00972,0.969763,102,1.57635,193,0.01,2
app_32,28.4813,20429.6,7711.2,226.361,82.5849,1.60608e+11,1.01628,0.969763,94,1.95864,209,0.01,2
app_33,61.564,20100.8,7775.8,168.423,81.0841,1.18833e+11,1.01335,0.969763,92,1.46707,212,0.01,2
app_34,104.874,19995.7,7707.2,255.112,73.925,1.774e+11,1.01464,0.969763,103,2.3973,189,0.01,2
app_35,30.5496,19969.4,7909.4,40.0467,79.2383,2.33188e+10,1.00848,0.969763,104,0.295175,192,0.01,2
app_36,46.9533,19811.7,7718.2,228.707,80.6029,1.66314e+11,1.01465,0.969763,98,2.05326,199,0.01,2
app_37,110.404,20135.9,7782.2,158.603,71.0467,1.1172e+11,1.01344,0.969763,111,1.57352,177,0.01,2
app_38,19.6952,20195.9,7835.2,102.995,80.0885,7.12802e+10,1.01183,0.969763,97,0.891002,204,0.01,2
app_39,22.2228,20255.5,7746.1,217.762,78.3776,1.49669e+11,1.0132,0.969763,90,1.89454,217,0.01,2
app_4,5.86757,19444.5,7774,184.118,880.61,1.49004e+11,1.00972,0.969763,9,0.169131,2122,0.1,1
app_40,1.4459,19755.7,7730.9,216.964,84.8378,1.5618e+11,1.01432,0.969763,96,1.83741,204,0.01,2
app_41,205.516,20975.8,7584.7,256.668,7.80191,1.42647e+11,1.03528,0.969763,1009,17.8308,20,0.001,3
app_42,662.956,22127.7,7673.9,239.276,7.18265,1.10325e+11,1.02772,0.969763,971,13.7907,21,0.001,3
app_43,880.051,22385,7623,289.882,6.88224,1.37005e+11,1.03093,0.969763,995,19.5721,20,0.001,3
app_44,978.797,22902.1,7533.4,328.552,6.56581,1.65635e+11,1.03909,0.969763,1048,23.6622,19,0.001,3
app_45,934.252,21861.2,7723.5,276.5,7.28509,1.43827e+11,1.01686,0.969763,985,20.5468,20,0.001,3
app_46,657.176,21042,7526.2,332.826,8.36448,1.66616e+11,1.03993,0.969763,941,20.827,21,0.001,3
app_47,323.484,21593,7761.2,104.679,8.67453,5.65209e+10,1.02332,0.969763,987,6.2801,21,0.001,3
app_48,286.566,21577.9,7756,87.9938,7.56111,4.01537e+10,1.02615,0.969763,1029,5.01922,20,0.001,3
app_49,66.3315,21243.9,7897.2,49.7298,7.84035,2.43493e+10,1.0099,0.969763,963,3.04366,21,0.001,3
app_5,0.624672,19077.7,7901.7,59.6001,706.554,5.80516e+09,1.0117,0.969763,11,0.00821098,1705,0.1,1
app_50,139.011,20353.1,7496.3,283.883,7.36592,1.36006e+11,1.04818,0.969763,996,17.0007,20,0.001,3
app_51,528.13,21349.9,7685.5,190.851,8.38793,9.57687e+10,1.02811,0.969763,918,10.641,22,0.001,3
app_52,382.334,21983.4,7553,353.472,8.53857,1.53479e+11,1.03809,0.969763,1003,19.1849,20,0.001,3
app_53,319.129,20987.7,7712.7,181.357,8.20104,9.5035e+10,1.02462,0.969763,975,11.8794,21,0.001,3
app_54,388.81,21628.2,7385.3,317.095,11.9745,1.56086e+11,1.06081,0.969763,609,13.0071,33,0.001,3
app_55,841.668,21230.1,7628.1,300.097,7.95596,1.50887e+11,1.02841,0.969763,997,18.8609,20,0.001,3
app_56,294.192,20935,7799.7,81.7827,7.3938,4.57642e+10,1.0197,0.969763,978,6.53775,21,0.001,3
app_57,12.9045,19205.8,7803.3,163.73,6.64961,9.23322e+10,1.01322,0.969763,1135,15.3887,18,0.001,3
app_58,881.766,21181.5,7640.5,332.875,7.22832,1.66973e+11,1.02466,0.969763,1033,23.8533,19,0.001,3
app_59,347.219,20813.1,7639.3,188.424,6.41236,1.09566e+11,1.03241,0.969763,1064,15.6523,19,0.001,3
app_6,1.52033,19319.1,7725.2,231.081,964.93,1.75687e+11,1.01254,0.969763,8,0.182059,2317,0.1,1
app_60,321.023,20663.8,7626.98,258.636,6.443,1.17812e+11,1.03295,0.969763,1045,18.1272,19,0.001,3
app_7,6.48383,19555.2,7820.3,145.375,709.394,1.13555e+11,1.00834,0.969763,11,0.160162,1739,0.1,1
app_8,4.32319,19822,7818.4,147.64,717.936,1.13866e+11,1.00854,0.969763,11,0.158588,1770,0.1,1
app_9,5.54325,19728.4,7845.2,105.667,991.682,6.41875e+10,1.01146,0.969763,8,0.0647052,2431,0.1,1
