app_id,start_app,end_app,effective_cpu,effective_io,effective_iter,total_bytes,stretch,utilization,Tcomp,Tio,iterations,priority,group_id
app_1,7.06218,20615.1,7646.2,353.8,762.75,8.34054e+10,1.03498,0.95236,10,0.109312,1974,1,1
app_10,9.90783,19734.1,7502.2,497.8,767.617,1.2719e+11,1.04858,0.95236,10,0.165612,1875,1.00001,1.00001
app_11,1.82545,20125.3,7910.4,89.6,803.352,1.11245e+10,1.00991,0.95236,10,0.0138537,1990,1.00001,1.00001
app_12,8.19185,18550,7882.3,117.7,877.232,1.84508e+10,1.01256,0.95236,9,0.0210385,2021,1.00001,1.00001
app_13,8.959,20627,7405.1,594.9,733.726,1.56056e+11,1.05804,0.95236,10,0.21261,1891,1.00001,1.00001
app_14,0.91059,19793.3,7343.5,656.5,814.438,1.7092e+11,1.06462,0.95236,9,0.209718,2009,1.00001,1.00001
app_15,6.31742,19782.9,7832.1,167.9,789.155,3.60696e+10,1.01675,0.95236,10,0.0456577,1945,1.00002,1.00002
app_16,2.81091,20579.5,7498.8,501.2,748.398,1.32935e+11,1.04825,0.95236,10,0.177483,1924,1.00002,1.00002
app_17,2.03364,18814.5,7710.4,289.6,843.399,7.11246e+10,1.02808,0.95236,9,0.0843709,1990,1.00002,1.00002
app_18,0.33286,20369.6,7568.2,431.8,846.804,1.04816e+11,1.04261,0.95236,9,0.123896,2147,1.00002,1.00002
app_19,2.9805,18594.1,7734.1,265.9,847.805,6.08986e+10,1.0263,0.95236,9,0.0718144,1989,1.00002,1.00002
app_2,4.25311,20892.7,7571.3,428.7,682.961,1.10466e+11,1.04143,0.95236,11,0.161736,1787,1,1
app_20,4.66303,19461,7781.7,218.3,757.859,4.90499e+10,1.02161,0.95236,10,0.0647096,1868,1.00002,1.00002
app_21,78.1686,19837,7878.8,121.2,80.63,2.9178e+10,1.01164,0.95236,100,0.360222,199,1.00002,1.00002
app_22,57.6816,20461.8,7854.7,145.3,80.4096,4.09787e+10,1.01321,0.95236,97,0.512233,205,1.00002,1.00002
app_23,61.5742,20661.7,7706.1,293.9,66.4437,7.76074e+10,1.02779,0.95236,111,1.17587,178,1.00002,1.00002
app_24,92.1021,20933.3,7480.9,519.1,70.7241,1.44957e+11,1.04906,0.95236,105,2.04165,186,1.00002,1.00002
app_25,15.3338,20580.6,7365.2,634.8,73.1963,1.80901e+11,1.06015,0.95236,107,2.44461,182,1.00003,1.00003
app_26,61.6382,20544,7703.7,296.3,89.2729,7.91254e+10,1.0279,0.95236,85,0.889049,232,1.00003,1.00003
app_27,27.2489,20831.3,7705.7,294.3,90.7445,8.177e+10,1.02729,0.95236,83,0.898572,238,1.00003,1.00003
app_28,15.9408,20735.9,7497.4,502.6,85.1063,1.41233e+11,1.04731,0.95236,90,1.64224,218,1.00003,1.00003
app_29,66.7756,20806.8,7800.2,199.8,86.5236,4.95266e+10,1.01914,0.95236,87,0.569271,228,1.00003,1.00003
app_3,8.99841,20415,7586.5,413.5,846.833,1.00428e+11,1.04073,0.95236,9,0.118569,2138,1,1
app_30,34.8021,20154.5,7898.2,101.8,69.4055,2.86583e+10,1.00923,0.95236,113,0.415338,176,1.00003,1.00003
app_31,13.0154,19726.2,7555.2,444.8,79.0278,1.24531e+11,1.0417,0.95236,102,1.57635,193,1.00003,1.00003
app_32,28.4813,20627.5,7476.34,523.665,78.5076,1.54713e+11,1.04835,0.95236,94,1.95864,209,1.00003,1.00003
app_33,61.564,20170.6,7556.99,443.006,83.3833,1.22805e+11,1.04169,0.95236,92,1.46707,212,1.00003,1.00003
app_34,104.874,21335.9,7381.7,618.3,72.4742,1.72606e+11,1.059,0.95236,103,2.3973,189,1.00003,1.00003
app_35,30.5496,19948,7909.9,90.1,78.0144,2.30236e+10,1.00846,0.95236,104,0.295175,192,1.00004,1.00004
app_36,46.9533,20922.5,7436.1,563.9,78.3242,1.60155e+11,1.05315,0.95236,98,2.05326,199,1.00004,1.00004
app_37,110.404,20630.3,7615.8,384.2,65.8039,1.03852e+11,1.03632,0.95236,111,1.57352,177,1.00004,1.00004
app_38,19.6952,21082.4,7738.1,261.9,75.5923,6.77162e+10,1.02488,0.95236,97,0.891002,204,1.00004,1.00004
app_39,22.2228,20815.4,7447.7,552.3,81.5408,1.55352e+11,1.05221,0.95236,90,1.89454,217,1.00004,1.00004
app_4,5.86757,20490,7456.8,543.2,833.074,1.40886e+11,1.05295,0.95236,9,0.169131,2122,1,1
app_40,1.4459,21102.3,7544.67,455.33,73.1739,1.34423e+11,1.04179,0.95236,96,1.83741,204,1.00004,1.00004
app_41,205.516,19925.8,7529.1,470.9,7.18668,1.24816e+11,1.04522,0.95236,1009,17.8308,20,1.00004,1.00004
app_42,662.956,22256.8,7619.3,380.7,7.26728,9.65348e+10,1.03683,0.95236,971,13.7907,21,1.00004,1.00004
app_43,880.051,21643.9,7539,461,7.89115,1.56577e+11,1.03956,0.95236,995,19.5721,20,1.00004,1.00004
app_44,978.797,21839.9,7261.08,738.921,6.98654,1.67565e+11,1.07691,0.95236,1048,23.6622,19,1.00004,1.00004
app_45,934.252,23860.7,7597.8,402.2,7.07642,1.43827e+11,1.03337,0.95236,985,20.5468,20,1.00004,1.00004
app_46,657.176,20621.7,7301.3,698.7,8.29784,1.66616e+11,1.07125,0.95236,941,20.827,21,1.00005,1.00005
app_47,323.484,24071.3,7919.3,80.7,6.69278,4.39607e+10,1.00461,0.95236,987,6.2801,21,1.00005,1.00005
app_48,286.566,18786,7821.8,178.2,9.55894,5.01922e+10,1.01626,0.95236,1029,5.01922,20,1.00005,1.00005
app_49,66.3315,20521.1,7917.7,82.3,8.80851,2.43493e+10,1.0073,0.95236,963,3.04366,21,1.00005,1.00005
app_5,0.624672,18992.8,7927.7,72.3,716.429,5.88727e+09,1.00837,0.95236,11,0.00821098,1705,1.00001,1.00001
app_50,139.011,18862.8,7446.42,553.581,8.05249,1.5055e+11,1.05305,0.95236,996,17.0007,20,1.00005,1.00005
app_51,528.13,21650.3,7678.2,321.8,7.6816,8.51277e+10,1.03049,0.95236,918,10.641,22,1.00005,1.00005
app_52,382.334,22382.1,7464.7,535.3,6.95152,1.34294e+11,1.05277,0.95236,1003,19.1849,20,1.00005,1.00005
app_53,319.129,22315.9,7629.2,370.8,7.68369,9.5035e+10,1.0357,0.95236,975,11.8794,21,1.00005,1.00005
app_54,388.81,23097.9,7388.2,611.8,10.1684,1.30071e+11,1.06407,0.95236,609,13.0071,33,1.00005,1.00005
app_55,841.668,20341.2,7585.4,414.6,8.15389,1.50887e+11,1.03409,0.95236,997,18.8609,20,1.00005,1.00005
app_56,294.192,22817.6,7820.6,179.4,8.38437,5.2302e+10,1.01614,0.95236,978,6.53775,21,1.00006,1.00006
app_57,12.9045,21204.4,7689.7,310.3,6.67018,1.07721e+11,1.02598,0.95236,1135,15.3887,18,1.00006,1.00006
app_58,881.766,23081.9,7603.1,396.9,6.31417,1.4312e+11,1.03276,0.95236,1033,23.8533,19,1.00006,1.00006
app_59,347.219,22461.7,7495.5,504.5,7.37503,1.09566e+11,1.05193,0.95236,1064,15.6523,19,1.00006,1.00006
app_6,1.52033,19830.9,7338.59,661.408,951.519,1.73276e+11,1.06498,0.95236,8,0.182059,2317,1.00001,1.00001
app_60,321.023,22161.2,7722.3,277.7,5.57403,9.06358e+10,1.02394,0.95236,1045,18.1272,19,1.00006,1.00006
app_7,6.48383,20188.9,7561.9,438.1,687.573,1.10192e+11,1.04274,0.95236,11,0.160162,1739,1.00001,1.00001
app_8,4.32319,20681.4,7568.44,431.562,681.859,1.0808e+11,1.04214,0.95236,11,0.158588,1770,1.00001,1.00001
app_9,5.54325,20240.9,7723.4,276.6,964.931,6.24405e+10,1.02751,0.95236,8,0.0647052,2431,1.00001,1.00001
