app_id,Tcomp,Tio,iter,witer,alpha_io,compute_size,io_size,mu,desyn_time
1,10.469298704916657,0.37129900794400433,1845,10.840597712860662,0.034250787436149996,10e9,371299007.94400436,10,7.266696860678081
2,13.973991098723552,0.5342046215317424,1379,14.508195720255294,0.03682088605862441,13e9,534204621.5317424,10,3.8953994902310733
3,9.003474560313059,0.6375843716002948,2075,9.641058931913353,0.06613219316498468,9e9,637584371.6002948,10,3.4898168547495496
4,7.2784327628848455,0.4784678610314414,2579,7.7569006239162865,0.06168286590603163,7e9,478467861.0314414,10,2.2478512275887166
5,4.413021397055866,0.09669820441740849,4435,4.509719601473274,0.021442176667883804,4e9,96698204.4174085,10,1.6445205223036272
6,103.14034678515152,12.72095906721289,173,115.86130585236441,0.10979471510033295,103e9,12720959067.21289,100,7.808143987513665
7,99.09511270072758,11.658367008317486,181,110.75347970904507,0.10526411485169224,99e9,11658367008.317486,100,109.8382156387086
8,117.8075325441607,4.634592807377507,164,122.4421253515382,0.037851293368775914,117e9,4634592807.377506,100,68.82836611666292
9,144.51907158735025,1.3298654361429538,138,145.84893702349322,0.009118101669323378,144e9,1329865436.1429539,100,111.08481986805005
10,44.5674215581483,4.443619687855783,409,49.01104124600408,0.09066568623897733,44e9,4443619687.8557825,100,14.70221511013841
11,1280.1734801467542,127.29215354127022,15,1407.4656336880244,0.09044068323552795,1280e9,127292153541.27022,1000,258.7489603991095
12,1105.0873015524492,106.85943194912176,17,1211.9467335015709,0.08817172322448712,1105e9,106859431949.12175,1000,840.147960158057
13,1186.3383358245374,12.472074713971049,17,1198.8104105385084,0.01040370904717833,1186e9,12472074713.971048,1000,803.6444781436188
14,1247.3646452354378,9.820744388541002,16,1257.1853896239788,0.0078116914733461565,1247e9,9820744388.541002,1000,509.6862588843341
15,835.5511385476261,25.974456120776384,24,861.5255946684025,0.030149372556683984,835e9,25974456120.776386,1000,821.4919260011651
