app_id,Tcomp,Tio,iter,witer,alpha_io,compute_size,io_size,mu,desyn_time
1,8.62843174046678,0.6496792656917014,2156,9.278111006158483,0.07002279507762596,8e9,649679265.6917014,10,8.15272859022695
2,8.687707231817987,0.1969336645215699,2252,8.884640896339556,0.02216563019476746,8e9,196933664.5215699,10,7.658560043847486
3,12.217057420313377,1.2107486049913063,1490,13.427806025304683,0.09016726952337947,12e9,1210748604.9913063,10,2.068944633254535
4,15.645595278915277,0.37031135099165896,1249,16.015906629906937,0.023121472892465952,15e9,370311350.991659,10,3.4358660245964936
5,8.992828797365853,0.5042683376946359,2106,9.49709713506049,0.05309710225380611,8e9,504268337.69463587,10,5.414397440767941
6,54.95479560206461,5.605278824448025,331,60.560074426512635,0.09255733051071162,54e9,5605278824.448025,100,12.882815461497767
7,32.94909935605007,3.1308081191190906,555,36.07990747516916,0.08677428347824254,32e9,3130808119.1190906,100,4.187642298610386
8,167.3424013940991,8.633820799378654,114,175.97622219347778,0.04906242838811578,167e9,8633820799.378654,100,29.374365931226354
9,68.59850711576276,1.2090227188174527,287,69.80752983458021,0.01731937402286573,68e9,1209022718.8174527,100,63.38353598574412
10,82.36519886121943,2.21686364917258,237,84.582062510392,0.02620961919556182,82e9,2216863649.1725802,100,78.00091443393862
11,1035.4359825858398,54.189113350863806,19,1089.6250959367037,0.04973188810806506,1035e9,54189113350.86381,1000,636.0142353447973
12,1266.646318193672,130.88436294769784,15,1397.5306811413698,0.09365401755674085,1266e9,130884362947.69785,1000,965.0874142345162
13,1037.9623499763038,50.21903123721825,19,1088.1813812135222,0.04614950421336451,1037e9,50219031237.218254,1000,714.7288870968691
14,356.0582696872732,13.229258454323363,55,369.28752814159657,0.035823734749175835,356e9,13229258454.323362,1000,173.58545705105178
15,835.6962476570269,38.59428782334394,23,874.2905354803709,0.04414354983511135,835e9,38594287823.34394,1000,532.7037300850333
