app_id,Tcomp,Tio,iter,witer,alpha_io,compute_size,io_size,mu,desyn_time
1,6.947108962806916,0.6032836681589614,2649,7.550392630965877,0.07990096643249489,6e9,603283668.1589614,10,1.5326240897461418
2,11.156916710346232,0.4667682880041544,1721,11.623684998350386,0.04015665325328391,11e9,466768288.0041544,10,6.807808393110243
3,11.994609897824043,0.35473487099744927,1620,12.349344768821492,0.028724995344939414,11e9,354734870.9974493,10,4.640147143282788
4,9.299533583803818,0.5501352153290051,2031,9.849668799132823,0.05585316892862831,9e9,550135215.3290051,10,6.978573640549369
5,5.008664280839623,0.30021013135112984,3768,5.308874412190753,0.0565487348244212,5e9,300210131.35112983,10,2.171885440062475
6,115.7187049007888,2.889414768472462,169,118.60811966926126,0.024361019941380027,115e9,2889414768.472462,100,6.0805138448765765
7,110.6483045203032,6.59043564307869,171,117.23874016338189,0.056213804702220205,110e9,6590435643.078691,100,10.002286252318953
8,53.31784205227049,3.2996811447989285,354,56.617523197069424,0.058280210056411,53e9,3299681144.7989283,100,29.606712765195514
9,122.32089481389559,1.925447008920491,161,124.24634182281608,0.015497011667887271,122e9,1925447008.920491,100,76.5560697015149
10,126.38075402055723,4.323741366277359,154,130.7044953868346,0.033080280471461686,126e9,4323741366.277359,100,63.42988010561737
11,1138.5046394250598,82.9460217956398,17,1221.4506612206997,0.06790779556559802,1138e9,82946021795.6398,1000,750.308328039006
12,1148.5972465628593,117.86164900035659,16,1266.458895563216,0.09306393552389357,1148e9,117861649000.3566,1000,127.7001218674064
13,148.01465357271988,7.922701128791823,129,155.9373547015117,0.050806948366907356,148e9,7922701128.791823,1000,64.92797249382424
14,635.8487042672649,31.044322291277584,30,666.8930265585425,0.04655067762738466,635e9,31044322291.277584,1000,66.3964387331863
15,373.88882286515184,38.361453666385366,49,412.2502765315372,0.09305379729308855,373e9,38361453666.38537,1000,220.92075436602113
