app_id,Tcomp,Tio,iter,witer,alpha_io,compute_size,io_size,mu,desyn_time
1,9.465921736569914,0.2234183485441636,2065,9.689340085114077,0.023058159439300265,9e9,223418348.54416358,10,3.1602558812349404
2,8.657411308043736,1.1246650625030001,2045,9.782076370546736,0.11497201819945929,8e9,1124665062.503,10,9.179161718966892
3,13.041100012763001,0.10268086624995304,1522,13.143780879012954,0.007812125536412926,13e9,102680866.24995305,10,12.138109513287755
4,5.277530642418044,0.46929974332968,3481,5.746830385747724,0.0816623620028102,5e9,469299743.32968,10,1.7547537192076286
5,8.137530042084242,0.5197369597013383,2311,8.65726700178558,0.060034761500845635,8e9,519736959.7013383,10,6.364958791766062
6,67.09617692623792,1.9980064177301309,290,69.09418334396804,0.028917143542800956,67e9,1998006417.730131,100,30.347709623225324
7,124.26054871027081,10.093714959577209,149,134.35426366984802,0.07512761176214502,124e9,10093714959.57721,100,62.524315397660615
8,100.46237162914616,2.0574100349566566,196,102.51978166410282,0.020068419982570605,100e9,2057410034.9566567,100,4.035287550273424
9,64.80542783866156,2.0976164859688207,299,66.90304432463037,0.03135307977602123,64e9,2097616485.9688206,100,50.72056599614209
10,154.74308172247538,2.201438368053506,128,156.9445200905289,0.014026857177196567,154e9,2201438368.053506,100,27.567645110226213
11,1366.821249178872,67.73470765461315,14,1434.5559568334852,0.04721649743389925,1366e9,67734707654.613144,1000,245.23505695891717
12,477.2075813432166,62.445998704793936,38,539.6535800480106,0.11571497162909286,477e9,62445998704.79394,1000,399.3155924034879
13,910.208184301907,104.20268193793626,20,1014.4108662398432,0.10272236369488869,910e9,104202681937.93626,1000,1003.8576578255528
14,869.2176318445844,3.215239366315421,23,872.4328712108999,0.0036853716456749334,869e9,3215239366.315421,1000,18.870360922620296
15,1281.1693875529788,101.82766172781636,15,1382.9970492807952,0.07362825667688168,1281e9,101827661727.81636,1000,786.9192293775147
