app_id,Tcomp,Tio,iter,witer,alpha_io,compute_size,io_size,mu,desyn_time
1,8.0032030868551,0.09843443145483767,2469,8.101637518309937,0.012149942679164919,8e9,98434431.45483766,10,0.03719977851876071
2,2.427074204213814,0.10871518617336658,7888,2.5357893903871807,0.04287232472282221,2e9,108715186.17336658,10,0.8061450755100121
3,14.26774397696264,1.4942863914183229,1269,15.762030368380962,0.09480291285416502,14e9,1494286391.4183228,10,15.619713372309729
4,11.979693544637486,0.751476635061292,1571,12.731170179698779,0.05902651715861928,11e9,751476635.061292,10,6.18592997995569
5,14.413620014030206,1.1602957232283786,1285,15.573915737258584,0.07450250423870734,14e9,1160295723.2283785,10,9.2363738025823
6,97.02714499433883,4.408145765784116,198,101.43529076012294,0.04345771311691337,97e9,4408145765.784117,100,38.14680340053193
7,92.72368891111746,1.573478805515268,213,94.29716771663273,0.016686384582023112,92e9,1573478805.515268,100,30.6116229171232
8,41.521433234181224,0.35065739771717896,478,41.8720906318984,0.008374489843362302,41e9,350657397.71717894,100,41.181612567838584
9,106.05915441940621,8.136792843645095,176,114.19594726305131,0.07125290379090184,106e9,8136792843.645095,100,102.31050196481345
10,73.70997336732505,8.002183089867495,245,81.71215645719255,0.09793136586793774,73e9,8002183089.867496,100,73.50219566440148
11,1038.0512556458557,86.21128342812437,18,1124.26253907398,0.07668251892403524,1038e9,86211283428.12437,1000,257.63714739513415
12,896.1722590543275,2.3744287443567416,23,898.5466877986842,0.002642521280862729,896e9,2374428744.3567414,1000,603.1972808736954
13,1411.8131758207523,66.65618564742083,14,1478.4693614681732,0.04508459044509982,1411e9,66656185647.42083,1000,482.67951833632986
14,819.3856566478722,87.6077015027748,23,906.993358150647,0.09659133742876164,819e9,87607701502.7748,1000,164.04849054885304
15,1226.2003913693752,75.41835855089228,16,1301.6187499202674,0.0579419730666235,1226e9,75418358550.89227,1000,149.85578467209766
