execution_id,priority,max_stretch,mean_stretch,utilization,noise,noise_seed,x
0,Exclusive-FCFS,1.71213,1.24012,0.784787,0.1,1661342989,0.3333333333333333
0,FairShare,1.1575,1.08401,0.876527,0.1,1661342992,0.3333333333333333
0,Set-10,1.15118,1.05927,0.893918,0.1,1661342994,0.3333333333333333
1,Exclusive-FCFS,2.30957,1.44879,0.701145,0.1,1661342996,0.3333333333333333
1,FairShare,1.18775,1.07881,0.880011,0.1,1661343000,0.3333333333333333
1,Set-10,1.14652,1.04792,0.90591,0.1,1661343002,0.3333333333333333
2,Exclusive-FCFS,1.69966,1.27795,0.767242,0.1,1661343004,0.3333333333333333
2,FairShare,1.14317,1.07999,0.879798,0.1,1661343007,0.3333333333333333
2,Set-10,1.17389,1.06358,0.892484,0.1,1661343008,0.3333333333333333
3,Exclusive-FCFS,1.85986,1.3143,0.753414,0.1,1661343009,0.3333333333333333
3,FairShare,1.17041,1.0935,0.867934,0.1,1661343011,0.3333333333333333
3,Set-10,1.26741,1.06881,0.887663,0.1,1661343012,0.3333333333333333
4,Exclusive-FCFS,1.9153,1.23035,0.80117,0.1,1661343014,0.3333333333333333
4,FairShare,1.14925,1.09055,0.868668,0.1,1661343016,0.3333333333333333
4,Set-10,1.14166,1.05475,0.897233,0.1,1661343018,0.3333333333333333
5,Exclusive-FCFS,1.76112,1.29342,0.757753,0.1,1661343020,0.3333333333333333
5,FairShare,1.15875,1.08758,0.873496,0.1,1661343023,0.3333333333333333
5,Set-10,1.13786,1.05677,0.89604,0.1,1661343025,0.3333333333333333
6,Exclusive-FCFS,1.69623,1.24216,0.78806,0.1,1661343027,0.3333333333333333
6,FairShare,1.17218,1.09154,0.86837,0.1,1661343030,0.3333333333333333
6,Set-10,1.21794,1.08095,0.877135,0.1,1661343032,0.3333333333333333
7,Exclusive-FCFS,1.81828,1.32586,0.742743,0.1,1661343034,0.3333333333333333
7,FairShare,1.15412,1.08929,0.871278,0.1,1661343038,0.3333333333333333
7,Set-10,1.1739,1.06572,0.889592,0.1,1661343040,0.3333333333333333
8,Exclusive-FCFS,1.96142,1.30457,0.7597,0.1,1661343041,0.3333333333333333
8,FairShare,1.14954,1.09237,0.868251,0.1,1661343043,0.3333333333333333
8,Set-10,1.20301,1.07219,0.884256,0.1,1661343045,0.3333333333333333
9,Exclusive-FCFS,1.67404,1.23035,0.800045,0.1,1661343046,0.3333333333333333
9,FairShare,1.15689,1.07934,0.879137,0.1,1661343048,0.3333333333333333
9,Set-10,1.12826,1.05328,0.898833,0.1,1661343049,0.3333333333333333
10,Exclusive-FCFS,2.01198,1.30831,0.765113,0.1,1661343051,0.3333333333333333
10,FairShare,1.18541,1.09877,0.861169,0.1,1661343054,0.3333333333333333
10,Set-10,1.17915,1.05612,0.895803,0.1,1661343057,0.3333333333333333
11,Exclusive-FCFS,1.9857,1.30526,0.760481,0.1,1661343059,0.3333333333333333
11,FairShare,1.14939,1.087,0.873235,0.1,1661343063,0.3333333333333333
11,Set-10,1.17407,1.05962,0.895298,0.1,1661343065,0.3333333333333333
12,Exclusive-FCFS,2.2478,1.32906,0.757502,0.1,1661343067,0.3333333333333333
12,FairShare,1.14443,1.08038,0.877853,0.1,1661343072,0.3333333333333333
12,Set-10,1.13685,1.05247,0.900313,0.1,1661343075,0.3333333333333333
13,Exclusive-FCFS,1.66439,1.29554,0.757526,0.1,1661343077,0.3333333333333333
13,FairShare,1.15781,1.09287,0.866449,0.1,1661343079,0.3333333333333333
13,Set-10,1.15464,1.05925,0.893788,0.1,1661343080,0.3333333333333333
14,Exclusive-FCFS,2.29942,1.30566,0.764251,0.1,1661343081,0.3333333333333333
14,FairShare,1.15531,1.09546,0.864543,0.1,1661343083,0.3333333333333333
14,Set-10,1.15834,1.05916,0.893508,0.1,1661343085,0.3333333333333333
15,Exclusive-FCFS,1.75881,1.28932,0.761195,0.1,1661343087,0.3333333333333333
15,FairShare,1.14058,1.08926,0.870096,0.1,1661343089,0.3333333333333333
15,Set-10,1.12833,1.05276,0.900487,0.1,1661343092,0.3333333333333333
16,Exclusive-FCFS,1.86939,1.34435,0.739182,0.1,1661343094,0.3333333333333333
16,FairShare,1.2172,1.10371,0.8616,0.1,1661343098,0.3333333333333333
16,Set-10,1.17138,1.05432,0.899574,0.1,1661343100,0.3333333333333333
17,Exclusive-FCFS,1.82125,1.29387,0.759786,0.1,1661343102,0.3333333333333333
17,FairShare,1.1465,1.08217,0.875384,0.1,1661343105,0.3333333333333333
17,Set-10,1.13484,1.05976,0.892807,0.1,1661343108,0.3333333333333333
18,Exclusive-FCFS,2.06605,1.29733,0.762597,0.1,1661343110,0.3333333333333333
18,FairShare,1.17434,1.09444,0.866597,0.1,1661343113,0.3333333333333333
18,Set-10,1.17637,1.07138,0.884357,0.1,1661343116,0.3333333333333333
19,Exclusive-FCFS,1.84895,1.34957,0.738222,0.1,1661343118,0.3333333333333333
19,FairShare,1.15467,1.08853,0.869728,0.1,1661343120,0.3333333333333333
19,Set-10,1.15615,1.05015,0.903291,0.1,1661343121,0.3333333333333333
20,Exclusive-FCFS,2.17326,1.23688,0.799364,0.1,1661343122,0.3333333333333333
20,FairShare,1.25375,1.10458,0.857767,0.1,1661343124,0.3333333333333333
20,Set-10,1.26419,1.09574,0.862598,0.1,1661343126,0.3333333333333333
21,Exclusive-FCFS,1.76618,1.25754,0.791271,0.1,1661343127,0.3333333333333333
21,FairShare,1.16144,1.09323,0.867283,0.1,1661343129,0.3333333333333333
21,Set-10,1.1285,1.06773,0.886017,0.1,1661343132,0.3333333333333333
22,Exclusive-FCFS,1.65355,1.3048,0.744371,0.1,1661343134,0.3333333333333333
22,FairShare,1.20359,1.08729,0.873153,0.1,1661343137,0.3333333333333333
22,Set-10,1.30721,1.08067,0.880202,0.1,1661343139,0.3333333333333333
23,Exclusive-FCFS,2.06932,1.38791,0.726527,0.1,1661343140,0.3333333333333333
23,FairShare,1.15804,1.0768,0.880928,0.1,1661343144,0.3333333333333333
23,Set-10,1.15363,1.05347,0.89913,0.1,1661343146,0.3333333333333333
24,Exclusive-FCFS,1.49485,1.19056,0.813123,0.1,1661343148,0.3333333333333333
24,FairShare,1.13501,1.07813,0.880502,0.1,1661343151,0.3333333333333333
24,Set-10,1.13562,1.06499,0.889179,0.1,1661343153,0.3333333333333333
25,Exclusive-FCFS,1.66148,1.20714,0.806615,0.1,1661343154,0.3333333333333333
25,FairShare,1.14619,1.09565,0.865112,0.1,1661343155,0.3333333333333333
25,Set-10,1.16161,1.06698,0.887447,0.1,1661343157,0.3333333333333333
26,Exclusive-FCFS,2.07331,1.21815,0.809176,0.1,1661343158,0.3333333333333333
26,FairShare,1.25369,1.10377,0.858346,0.1,1661343160,0.3333333333333333
26,Set-10,1.35797,1.09132,0.86801,0.1,1661343162,0.3333333333333333
27,Exclusive-FCFS,2.09347,1.30998,0.765446,0.1,1661343163,0.3333333333333333
27,FairShare,1.17018,1.09699,0.864968,0.1,1661343166,0.3333333333333333
27,Set-10,1.13866,1.06227,0.891361,0.1,1661343169,0.3333333333333333
28,Exclusive-FCFS,2.2635,1.36566,0.735335,0.1,1661343171,0.3333333333333333
28,FairShare,1.16966,1.0887,0.870175,0.1,1661343175,0.3333333333333333
28,Set-10,1.22336,1.0698,0.888168,0.1,1661343178,0.3333333333333333
29,Exclusive-FCFS,2.09034,1.34581,0.749371,0.1,1661343181,0.3333333333333333
29,FairShare,1.14955,1.09716,0.863236,0.1,1661343184,0.3333333333333333
29,Set-10,1.17408,1.06184,0.891415,0.1,1661343186,0.3333333333333333
30,Exclusive-FCFS,1.78394,1.24492,0.79485,0.1,1661343187,0.3333333333333333
30,FairShare,1.16012,1.08046,0.877379,0.1,1661343189,0.3333333333333333
30,Set-10,1.14709,1.05929,0.894041,0.1,1661343190,0.3333333333333333
31,Exclusive-FCFS,1.58356,1.24717,0.780449,0.1,1661343191,0.3333333333333333
31,FairShare,1.20787,1.0964,0.866392,0.1,1661343193,0.3333333333333333
31,Set-10,1.21656,1.0609,0.894078,0.1,1661343194,0.3333333333333333
32,Exclusive-FCFS,2.12629,1.31164,0.758351,0.1,1661343196,0.3333333333333333
32,FairShare,1.15088,1.08124,0.876551,0.1,1661343198,0.3333333333333333
32,Set-10,1.14983,1.05549,0.897808,0.1,1661343200,0.3333333333333333
33,Exclusive-FCFS,1.73034,1.28237,0.768834,0.1,1661343202,0.3333333333333333
33,FairShare,1.13086,1.07632,0.882092,0.1,1661343205,0.3333333333333333
33,Set-10,1.17668,1.06597,0.890753,0.1,1661343207,0.3333333333333333
34,Exclusive-FCFS,1.63391,1.25858,0.777419,0.1,1661343209,0.3333333333333333
34,FairShare,1.17209,1.07767,0.881327,0.1,1661343212,0.3333333333333333
34,Set-10,1.12211,1.06269,0.890969,0.1,1661343214,0.3333333333333333
35,Exclusive-FCFS,1.75606,1.26896,0.781142,0.1,1661343216,0.3333333333333333
35,FairShare,1.18164,1.07773,0.880842,0.1,1661343219,0.3333333333333333
35,Set-10,1.18975,1.06805,0.887298,0.1,1661343221,0.3333333333333333
36,Exclusive-FCFS,1.73883,1.24985,0.787967,0.1,1661343223,0.3333333333333333
36,FairShare,1.15763,1.09198,0.869057,0.1,1661343225,0.3333333333333333
36,Set-10,1.1411,1.05421,0.898532,0.1,1661343226,0.3333333333333333
37,Exclusive-FCFS,1.82165,1.28202,0.777833,0.1,1661343227,0.3333333333333333
37,FairShare,1.17611,1.09333,0.867941,0.1,1661343229,0.3333333333333333
37,Set-10,1.18219,1.06338,0.890236,0.1,1661343230,0.3333333333333333
38,Exclusive-FCFS,1.68406,1.29219,0.758577,0.1,1661343231,0.3333333333333333
38,FairShare,1.18522,1.08567,0.877046,0.1,1661343233,0.3333333333333333
38,Set-10,1.12576,1.05506,0.897923,0.1,1661343235,0.3333333333333333
39,Exclusive-FCFS,1.78137,1.31545,0.756432,0.1,1661343236,0.3333333333333333
39,FairShare,1.18171,1.09426,0.866499,0.1,1661343239,0.3333333333333333
39,Set-10,1.2105,1.06167,0.892939,0.1,1661343241,0.3333333333333333
40,Exclusive-FCFS,1.75145,1.2591,0.78488,0.1,1661343243,0.3333333333333333
40,FairShare,1.17225,1.09145,0.867657,0.1,1661343247,0.3333333333333333
40,Set-10,1.12859,1.0538,0.897742,0.1,1661343249,0.3333333333333333
41,Exclusive-FCFS,1.75826,1.32256,0.749049,0.1,1661343251,0.3333333333333333
41,FairShare,1.12587,1.07423,0.88137,0.1,1661343255,0.3333333333333333
41,Set-10,1.19795,1.04732,0.905102,0.1,1661343257,0.3333333333333333
42,Exclusive-FCFS,2.23737,1.4323,0.708809,0.1,1661343259,0.3333333333333333
42,FairShare,1.16658,1.08473,0.874308,0.1,1661343263,0.3333333333333333
42,Set-10,1.28833,1.0813,0.877727,0.1,1661343265,0.3333333333333333
43,Exclusive-FCFS,2.26776,1.51324,0.667875,0.1,1661343267,0.3333333333333333
43,FairShare,1.20338,1.08229,0.87644,0.1,1661343270,0.3333333333333333
43,Set-10,1.24531,1.07001,0.889977,0.1,1661343272,0.3333333333333333
44,Exclusive-FCFS,1.92764,1.21566,0.803365,0.1,1661343273,0.3333333333333333
44,FairShare,1.16437,1.08277,0.876628,0.1,1661343275,0.3333333333333333
44,Set-10,1.17776,1.06289,0.891051,0.1,1661343276,0.3333333333333333
45,Exclusive-FCFS,1.84721,1.323,0.74609,0.1,1661343278,0.3333333333333333
45,FairShare,1.17198,1.09069,0.867735,0.1,1661343280,0.3333333333333333
45,Set-10,1.11634,1.04888,0.902984,0.1,1661343281,0.3333333333333333
46,Exclusive-FCFS,1.9203,1.25689,0.785085,0.1,1661343282,0.3333333333333333
46,FairShare,1.14907,1.09416,0.866115,0.1,1661343285,0.3333333333333333
46,Set-10,1.19701,1.07039,0.885157,0.1,1661343287,0.3333333333333333
47,Exclusive-FCFS,1.65875,1.25446,0.781451,0.1,1661343289,0.3333333333333333
47,FairShare,1.18069,1.09623,0.865996,0.1,1661343292,0.3333333333333333
47,Set-10,1.1508,1.06032,0.893084,0.1,1661343294,0.3333333333333333
48,Exclusive-FCFS,1.61705,1.22873,0.790141,0.1,1661343296,0.3333333333333333
48,FairShare,1.15833,1.07863,0.879529,0.1,1661343299,0.3333333333333333
48,Set-10,1.18995,1.0677,0.886864,0.1,1661343300,0.3333333333333333
49,Exclusive-FCFS,1.89933,1.28788,0.772363,0.1,1661343301,0.3333333333333333
49,FairShare,1.16499,1.08987,0.870799,0.1,1661343303,0.3333333333333333
49,Set-10,1.16063,1.06087,0.892098,0.1,1661343304,0.3333333333333333
50,Exclusive-FCFS,1.64591,1.28533,0.760366,0.1,1661343306,0.3333333333333333
50,FairShare,1.17745,1.07869,0.878956,0.1,1661343308,0.3333333333333333
50,Set-10,1.14126,1.05513,0.89711,0.1,1661343309,0.3333333333333333
51,Exclusive-FCFS,2.02144,1.38682,0.722728,0.1,1661343310,0.3333333333333333
51,FairShare,1.15101,1.08558,0.874257,0.1,1661343312,0.3333333333333333
51,Set-10,1.14925,1.06104,0.89298,0.1,1661343313,0.3333333333333333
52,Exclusive-FCFS,1.84949,1.27802,0.773405,0.1,1661343314,0.3333333333333333
52,FairShare,1.14701,1.07877,0.879908,0.1,1661343316,0.3333333333333333
52,Set-10,1.16001,1.06871,0.887223,0.1,1661343317,0.3333333333333333
53,Exclusive-FCFS,1.5475,1.22885,0.79306,0.1,1661343318,0.3333333333333333
53,FairShare,1.16266,1.0961,0.864789,0.1,1661343320,0.3333333333333333
53,Set-10,1.19619,1.06223,0.892282,0.1,1661343322,0.3333333333333333
54,Exclusive-FCFS,1.76713,1.28881,0.762294,0.1,1661343324,0.3333333333333333
54,FairShare,1.16164,1.09558,0.864979,0.1,1661343327,0.3333333333333333
54,Set-10,1.19104,1.05546,0.899284,0.1,1661343329,0.3333333333333333
55,Exclusive-FCFS,1.5841,1.20121,0.809396,0.1,1661343331,0.3333333333333333
55,FairShare,1.14509,1.0869,0.872726,0.1,1661343333,0.3333333333333333
55,Set-10,1.14509,1.06444,0.889963,0.1,1661343335,0.3333333333333333
56,Exclusive-FCFS,1.79756,1.26583,0.772793,0.1,1661343336,0.3333333333333333
56,FairShare,1.13423,1.08017,0.878841,0.1,1661343338,0.3333333333333333
56,Set-10,1.13826,1.05572,0.89719,0.1,1661343339,0.3333333333333333
57,Exclusive-FCFS,1.43409,1.14906,0.839585,0.1,1661343340,0.3333333333333333
57,FairShare,1.15442,1.08473,0.874249,0.1,1661343342,0.3333333333333333
57,Set-10,1.13918,1.06513,0.888722,0.1,1661343343,0.3333333333333333
58,Exclusive-FCFS,1.52228,1.23652,0.785039,0.1,1661343344,0.3333333333333333
58,FairShare,1.14887,1.08626,0.872928,0.1,1661343345,0.3333333333333333
58,Set-10,1.14001,1.06068,0.893026,0.1,1661343347,0.3333333333333333
59,Exclusive-FCFS,2.07211,1.42049,0.718657,0.1,1661343348,0.3333333333333333
59,FairShare,1.18191,1.09014,0.869566,0.1,1661343350,0.3333333333333333
59,Set-10,1.15743,1.05571,0.898781,0.1,1661343351,0.3333333333333333
60,Exclusive-FCFS,1.79491,1.31354,0.751724,0.1,1661343352,0.3333333333333333
60,FairShare,1.15632,1.09441,0.865487,0.1,1661343354,0.3333333333333333
60,Set-10,1.1223,1.04855,0.903311,0.1,1661343355,0.3333333333333333
61,Exclusive-FCFS,1.9938,1.30338,0.763938,0.1,1661343356,0.3333333333333333
61,FairShare,1.15493,1.08872,0.871383,0.1,1661343358,0.3333333333333333
61,Set-10,1.20931,1.06297,0.892774,0.1,1661343359,0.3333333333333333
62,Exclusive-FCFS,2.03388,1.32862,0.750143,0.1,1661343360,0.3333333333333333
62,FairShare,1.16689,1.08251,0.876625,0.1,1661343362,0.3333333333333333
62,Set-10,1.18978,1.06907,0.88589,0.1,1661343364,0.3333333333333333
63,Exclusive-FCFS,1.56124,1.22811,0.794118,0.1,1661343366,0.3333333333333333
63,FairShare,1.1488,1.08081,0.877586,0.1,1661343369,0.3333333333333333
63,Set-10,1.1366,1.05562,0.896922,0.1,1661343371,0.3333333333333333
64,Exclusive-FCFS,1.95822,1.28799,0.776863,0.1,1661343373,0.3333333333333333
64,FairShare,1.20377,1.10352,0.858995,0.1,1661343377,0.3333333333333333
64,Set-10,1.16918,1.05758,0.894381,0.1,1661343378,0.3333333333333333
65,Exclusive-FCFS,1.8373,1.31018,0.757966,0.1,1661343380,0.3333333333333333
65,FairShare,1.15932,1.09027,0.868904,0.1,1661343382,0.3333333333333333
65,Set-10,1.12417,1.05016,0.901321,0.1,1661343383,0.3333333333333333
66,Exclusive-FCFS,1.73221,1.24574,0.788243,0.1,1661343384,0.3333333333333333
66,FairShare,1.15852,1.08343,0.876411,0.1,1661343386,0.3333333333333333
66,Set-10,1.14255,1.06168,0.891709,0.1,1661343387,0.3333333333333333
67,Exclusive-FCFS,2.05356,1.42582,0.703871,0.1,1661343388,0.3333333333333333
67,FairShare,1.16063,1.07961,0.880269,0.1,1661343390,0.3333333333333333
67,Set-10,1.31432,1.08362,0.878969,0.1,1661343391,0.3333333333333333
68,Exclusive-FCFS,1.87737,1.28539,0.767388,0.1,1661343392,0.3333333333333333
68,FairShare,1.14499,1.09356,0.866998,0.1,1661343394,0.3333333333333333
68,Set-10,1.1411,1.05692,0.895224,0.1,1661343395,0.3333333333333333
69,Exclusive-FCFS,1.72787,1.27635,0.774937,0.1,1661343396,0.3333333333333333
69,FairShare,1.14863,1.0974,0.864541,0.1,1661343398,0.3333333333333333
69,Set-10,1.16785,1.05233,0.900317,0.1,1661343399,0.3333333333333333
70,Exclusive-FCFS,1.78215,1.235,0.79439,0.1,1661343400,0.3333333333333333
70,FairShare,1.16103,1.0877,0.872079,0.1,1661343402,0.3333333333333333
70,Set-10,1.12263,1.05605,0.896587,0.1,1661343403,0.3333333333333333
71,Exclusive-FCFS,1.35107,1.15527,0.833013,0.1,1661343404,0.3333333333333333
71,FairShare,1.17041,1.08012,0.878736,0.1,1661343405,0.3333333333333333
71,Set-10,1.12375,1.06089,0.892691,0.1,1661343407,0.3333333333333333
72,Exclusive-FCFS,1.58854,1.19232,0.813159,0.1,1661343408,0.3333333333333333
72,FairShare,1.21294,1.08969,0.869522,0.1,1661343409,0.3333333333333333
72,Set-10,1.16445,1.07217,0.881986,0.1,1661343411,0.3333333333333333
73,Exclusive-FCFS,1.506,1.22008,0.795519,0.1,1661343413,0.3333333333333333
73,FairShare,1.14274,1.08429,0.874161,0.1,1661343416,0.3333333333333333
73,Set-10,1.17014,1.05804,0.894871,0.1,1661343418,0.3333333333333333
74,Exclusive-FCFS,2.04438,1.3067,0.769931,0.1,1661343420,0.3333333333333333
74,FairShare,1.15136,1.08204,0.87763,0.1,1661343423,0.3333333333333333
74,Set-10,1.11234,1.05487,0.898028,0.1,1661343425,0.3333333333333333
75,Exclusive-FCFS,2.08393,1.35785,0.734203,0.1,1661343427,0.3333333333333333
75,FairShare,1.15386,1.07904,0.880059,0.1,1661343429,0.3333333333333333
75,Set-10,1.1772,1.06282,0.892412,0.1,1661343430,0.3333333333333333
76,Exclusive-FCFS,1.62175,1.26079,0.772862,0.1,1661343431,0.3333333333333333
76,FairShare,1.15448,1.09894,0.862718,0.1,1661343433,0.3333333333333333
76,Set-10,1.20066,1.06188,0.892288,0.1,1661343434,0.3333333333333333
77,Exclusive-FCFS,1.71231,1.25896,0.784099,0.1,1661343435,0.3333333333333333
77,FairShare,1.13174,1.09329,0.86583,0.1,1661343437,0.3333333333333333
77,Set-10,1.15383,1.05999,0.893537,0.1,1661343438,0.3333333333333333
78,Exclusive-FCFS,1.78024,1.24288,0.783179,0.1,1661343439,0.3333333333333333
78,FairShare,1.16983,1.085,0.874267,0.1,1661343441,0.3333333333333333
78,Set-10,1.13426,1.06373,0.890306,0.1,1661343442,0.3333333333333333
79,Exclusive-FCFS,1.52269,1.1917,0.812438,0.1,1661343443,0.3333333333333333
79,FairShare,1.17558,1.08661,0.872642,0.1,1661343445,0.3333333333333333
79,Set-10,1.19829,1.06759,0.886486,0.1,1661343446,0.3333333333333333
80,Exclusive-FCFS,1.8509,1.26844,0.776198,0.1,1661343447,0.3333333333333333
80,FairShare,1.14757,1.09312,0.865343,0.1,1661343449,0.3333333333333333
80,Set-10,1.19938,1.06444,0.889701,0.1,1661343450,0.3333333333333333
81,Exclusive-FCFS,1.55657,1.19716,0.813517,0.1,1661343451,0.3333333333333333
81,FairShare,1.15964,1.08328,0.877337,0.1,1661343453,0.3333333333333333
81,Set-10,1.22226,1.07755,0.878565,0.1,1661343454,0.3333333333333333
82,Exclusive-FCFS,1.70308,1.26866,0.777923,0.1,1661343455,0.3333333333333333
82,FairShare,1.16365,1.0992,0.860966,0.1,1661343458,0.3333333333333333
82,Set-10,1.18172,1.06539,0.888103,0.1,1661343460,0.3333333333333333
83,Exclusive-FCFS,1.77456,1.3231,0.744709,0.1,1661343462,0.3333333333333333
83,FairShare,1.16697,1.08081,0.878358,0.1,1661343465,0.3333333333333333
83,Set-10,1.20067,1.0543,0.899632,0.1,1661343467,0.3333333333333333
84,Exclusive-FCFS,1.79578,1.30516,0.753444,0.1,1661343469,0.3333333333333333
84,FairShare,1.20717,1.08802,0.870675,0.1,1661343472,0.3333333333333333
84,Set-10,1.15335,1.06312,0.890684,0.1,1661343474,0.3333333333333333
85,Exclusive-FCFS,1.88953,1.3264,0.746829,0.1,1661343475,0.3333333333333333
85,FairShare,1.14205,1.07238,0.884329,0.1,1661343477,0.3333333333333333
85,Set-10,1.12004,1.04696,0.905494,0.1,1661343478,0.3333333333333333
86,Exclusive-FCFS,1.53658,1.21081,0.799656,0.1,1661343479,0.3333333333333333
86,FairShare,1.13982,1.07847,0.880865,0.1,1661343480,0.3333333333333333
86,Set-10,1.15514,1.06131,0.892952,0.1,1661343481,0.3333333333333333
87,Exclusive-FCFS,1.70637,1.23147,0.796167,0.1,1661343482,0.3333333333333333
87,FairShare,1.17162,1.09202,0.868696,0.1,1661343484,0.3333333333333333
87,Set-10,1.24191,1.05895,0.895637,0.1,1661343485,0.3333333333333333
88,Exclusive-FCFS,2.12181,1.31886,0.759259,0.1,1661343486,0.3333333333333333
88,FairShare,1.17527,1.09321,0.867662,0.1,1661343488,0.3333333333333333
88,Set-10,1.23761,1.06396,0.891811,0.1,1661343490,0.3333333333333333
89,Exclusive-FCFS,2.16014,1.29527,0.772017,0.1,1661343491,0.3333333333333333
89,FairShare,1.17557,1.08803,0.87071,0.1,1661343493,0.3333333333333333
89,Set-10,1.18218,1.05954,0.894215,0.1,1661343494,0.3333333333333333
90,Exclusive-FCFS,1.61421,1.20798,0.804119,0.1,1661343495,0.3333333333333333
90,FairShare,1.18524,1.0756,0.88395,0.1,1661343496,0.3333333333333333
90,Set-10,1.14535,1.06963,0.885702,0.1,1661343498,0.3333333333333333
91,Exclusive-FCFS,1.76266,1.24732,0.789074,0.1,1661343500,0.3333333333333333
91,FairShare,1.15395,1.09887,0.863421,0.1,1661343503,0.3333333333333333
91,Set-10,1.12279,1.05248,0.899321,0.1,1661343505,0.3333333333333333
92,Exclusive-FCFS,1.96832,1.36343,0.721852,0.1,1661343507,0.3333333333333333
92,FairShare,1.14894,1.08704,0.874319,0.1,1661343510,0.3333333333333333
92,Set-10,1.20792,1.06262,0.893628,0.1,1661343513,0.3333333333333333
93,Exclusive-FCFS,1.73434,1.29118,0.760543,0.1,1661343515,0.3333333333333333
93,FairShare,1.15563,1.08731,0.872532,0.1,1661343517,0.3333333333333333
93,Set-10,1.13348,1.05602,0.897471,0.1,1661343518,0.3333333333333333
94,Exclusive-FCFS,1.90595,1.29562,0.771199,0.1,1661343519,0.3333333333333333
94,FairShare,1.16716,1.09694,0.863407,0.1,1661343521,0.3333333333333333
94,Set-10,1.12415,1.06108,0.892079,0.1,1661343523,0.3333333333333333
95,Exclusive-FCFS,1.61571,1.22692,0.792958,0.1,1661343524,0.3333333333333333
95,FairShare,1.16635,1.0847,0.874465,0.1,1661343526,0.3333333333333333
95,Set-10,1.14248,1.06361,0.890147,0.1,1661343527,0.3333333333333333
96,Exclusive-FCFS,2.04022,1.31902,0.761903,0.1,1661343528,0.3333333333333333
96,FairShare,1.15146,1.09011,0.86912,0.1,1661343530,0.3333333333333333
96,Set-10,1.12093,1.06026,0.892692,0.1,1661343531,0.3333333333333333
97,Exclusive-FCFS,1.85068,1.30797,0.758094,0.1,1661343532,0.3333333333333333
97,FairShare,1.14691,1.089,0.871695,0.1,1661343534,0.3333333333333333
97,Set-10,1.15329,1.06476,0.89075,0.1,1661343535,0.3333333333333333
98,Exclusive-FCFS,1.82589,1.30598,0.750112,0.1,1661343536,0.3333333333333333
98,FairShare,1.15252,1.08126,0.876452,0.1,1661343538,0.3333333333333333
98,Set-10,1.1787,1.05982,0.895337,0.1,1661343539,0.3333333333333333
99,Exclusive-FCFS,1.68493,1.31058,0.748888,0.1,1661343540,0.3333333333333333
99,FairShare,1.15714,1.08517,0.874268,0.1,1661343542,0.3333333333333333
99,Set-10,1.13807,1.04543,0.905625,0.1,1661343543,0.3333333333333333
