app_id,start_app,end_app,effective_cpu,effective_io,effective_iter,total_bytes,stretch,utilization,Tcomp,Tio,iterations,priority,group_id
app_1,0.922468,21208.2,6011.38,1988.62,1003.54,7.64307e+11,1.18069,0.865996,6,0.761922,2697,1,1
app_10,86.2055,21204.3,7279.9,720.1,64.7529,2.44724e+11,1.06318,0.865996,111,3.82381,173,1.00001,1.00001
app_11,361.132,22638,6667.3,1332.7,7.66704,3.80156e+11,1.13516,0.865996,861,49.3391,22,1.00001,1.00001
app_12,740.809,23357.6,7574.76,425.235,4.64135,1.56121e+11,1.03481,0.865996,1634,32.2052,13,1.00001,1.00001
app_13,107.335,23042,6383.9,1616.1,32.3888,6.3766e+11,1.13935,0.865996,197,19.9269,93,1.00001,1.00001
app_14,863.797,24411.8,6134.71,1865.29,7.61185,6.69338e+11,1.17577,0.865996,818,88.9056,23,1.00001,1.00001
app_15,152.415,21592.7,7074.7,925.3,29.6663,3.1518e+11,1.08256,0.865996,240,10.506,80,1.00002,1.00002
app_2,3.91696,20340.6,6036,1964,1008.58,7.5109e+11,1.17871,0.865996,6,0.744391,2592,1,1
app_3,3.54817,20327.4,7400.1,599.9,821.731,1.96539e+11,1.0531,0.865996,9,0.239099,2091,1,1
app_4,4.38813,20465,7541.6,458.4,686.651,1.39153e+11,1.04156,0.865996,11,0.202551,1760,1,1
app_5,1.94123,19935.5,7425.7,574.3,673.695,1.89867e+11,1.05048,0.865996,11,0.281701,1684,1.00001,1.00001
app_6,28.9062,22767.1,6162.56,1837.44,84.6388,7.47223e+11,1.15778,0.865996,73,8.89012,244,1.00001,1.00001
app_7,33.5881,21907,6806.8,1193.2,113.924,4.58728e+11,1.10109,0.865996,60,4.02393,312,1.00001,1.00001
app_8,60.3879,20561.8,7598.6,401.4,67.4368,1.40771e+11,1.03368,0.865996,113,2.10106,173,1.00001,1.00001
app_9,111.665,20253.6,7821.46,178.536,70.8761,5.65631e+10,1.01548,0.865996,111,0.797458,178,1.00001,1.00001
