app_id,start_app,end_app,effective_cpu,effective_io,effective_iter,total_bytes,stretch,utilization,Tcomp,Tio,iterations,priority,group_id
app_1,0.916175,27594.4,4791.6,113.316,366.806,9.75802e+10,1.63627,0.763938,13,0.265886,1455,1,1
app_10,60.0856,23567,6240.2,401.653,78.7836,3.96583e+11,1.2054,0.763938,79,5.02004,236,1,1
app_11,704.631,21467.8,7719.9,236.518,6.29123,2.36319e+11,1.0055,0.763938,1255,39.3865,16,1,1
app_12,168.455,20529.8,7284.4,667.69,9.02278,6.67219e+11,1.00608,0.763938,808,74.1355,23,1,1
app_13,205.881,21402.5,7470.1,222.851,15.305,2.22125e+11,1.04001,0.763938,496,14.8084,40,1,1
app_14,734.518,21372.9,7183.6,667.616,6.99804,6.67259e+11,1.019,0.763938,1021,95.3226,18,1,1
app_15,370.674,20583.7,7424.4,470.901,9.7057,4.70314e+11,1.01334,0.763938,797,47.0314,24,1,1
app_2,1.33578,28977.4,3634.7,442.42,907.367,3.77736e+11,1.9938,0.763938,4,0.416468,4096,1,1
app_3,14.6899,27180.3,4985.6,31.1591,333.732,1.27965e+10,1.60051,0.763938,15,0.0383128,1272,1,1
app_4,9.76547,27622.8,4761.9,78.5836,397.71,5.80054e+10,1.65978,0.763938,12,0.145742,1573,1,1
app_5,2.89009,28720.1,4202.9,364.503,526.02,3.35308e+11,1.76281,0.763938,8,0.637468,2244,1,1
app_6,21.9304,22016.6,7110.3,229.736,47.3086,2.27099e+11,1.0903,0.763938,149,4.8319,130,1,1
app_7,53.0617,22215.6,6491.1,670.15,52.3906,6.6731e+11,1.11757,0.763938,127,12.8329,143,1,1
app_8,4.85623,22921.4,6262.3,633.32,60.8232,6.29533e+11,1.16079,0.763938,103,10.3202,175,1,1
app_9,10.5142,24123.6,6109.6,349.049,96.8542,3.44205e+11,1.23958,0.763938,63,3.54851,300,1,1
