app_id,start_app,end_app,effective_cpu,effective_io,effective_iter,total_bytes,stretch,utilization,Tcomp,Tio,iterations,priority,group_id
app_1,8.70082,26612.6,5079.2,216.217,317.194,1.96932e+11,1.51626,0.757526,16,0.621238,1171,1,1
app_10,15.8483,22313.7,6668.8,356.417,40.0916,3.54676e+11,1.13904,0.757526,166,8.86691,115,1,1
app_11,1040.51,22094.3,7346.8,482.011,6.4079,4.81679e+11,1.02191,0.757526,1160,80.2799,17,1,1
app_12,761.683,21570.9,7555.7,395.238,7.22835,3.94667e+11,1.00624,0.757526,1053,49.3333,19,1,1
app_13,441.287,21124.5,7574.6,272.005,5.60824,2.71858e+11,1.01957,0.757526,1434,45.3097,14,1,1
app_14,78.8448,21054.8,7076,687.06,7.58778,6.86598e+11,1.03058,0.757526,948,85.8247,20,1,1
app_15,81.3324,20091.3,7324.8,674.049,7.23653,6.73713e+11,1.00019,0.757526,1035,96.2447,18,1,1
app_2,0.0522023,26733.5,4730.8,111.499,591.286,7.57779e+10,1.66439,0.757526,8,0.12822,2240,1,1
app_3,3.17622,27427.6,4620.6,295.498,575.734,2.73126e+11,1.63475,0.757526,8,0.474178,2258,1,1
app_4,4.06497,26256.1,4474.6,393.439,639.474,3.749e+11,1.64965,0.757526,7,0.586698,2359,1,1
app_5,1.44406,27156.7,4528,499.643,453.134,4.78224e+11,1.59801,0.757526,10,1.05568,1753,1,1
app_6,28.8582,25336.6,5415,354.377,170.419,3.43535e+11,1.38924,0.757526,32,2.0208,574,1,1
app_7,7.3528,23957,6082.8,238.168,89.2824,2.32594e+11,1.26675,0.757526,68,2.61341,281,1,1
app_8,19.5665,25173.2,5570.72,263.928,146.215,2.56836e+11,1.37279,0.757526,38,1.74918,496,1,1
app_9,124.776,22551.5,6854.7,266.901,46.2828,2.64405e+11,1.12374,0.757526,147,5.74794,131,1,1
