app_id,start_app,end_app,effective_cpu,effective_io,effective_iter,total_bytes,stretch,utilization,Tcomp,Tio,iterations,priority,group_id
app_1,4.08278,21735.8,6739.2,1260.8,447.751,4.53318e+11,1.11227,0.858346,15,1.01187,1234,1,1
app_10,48.6921,20761.3,7532,468,100.662,1.54996e+11,1.04072,0.858346,75,1.54996,261,1.00001,1.00001
app_11,1144.85,22123.5,7766.7,233.3,6.16722,7.0535e+10,1.02077,0.858346,1284,11.7558,16,1.00001,1.00001
app_12,1357.21,23799.8,6657.7,1342.3,4.94012,5.24542e+11,1.11386,0.858346,1399,104.908,14,1.00001,1.00001
app_13,938.661,22603.7,7518.4,481.6,6.12438,1.54124e+11,1.04268,0.858346,1199,25.6873,17,1.00001,1.00001
app_14,130.954,20627.4,7814.9,185.1,16.0049,4.45135e+10,1.01789,0.858346,493,2.7821,41,1.00001,1.00001
app_15,629.438,22689.6,7030.3,969.7,9.52744,3.57486e+11,1.08287,0.858346,731,35.7486,27,1.00002,1.00002
app_2,7.4329,22396.4,6371.8,1628.2,425.936,5.9444e+11,1.1484,0.858346,15,1.3954,1219,1,1
app_3,3.31737,19030.9,7704,296,771.744,8.03609e+10,1.0277,0.858346,10,0.104229,1835,1,1
app_4,1.57955,20945.9,6426.4,1573.6,921.309,5.71501e+11,1.1432,0.858346,7,0.620522,2442,1,1
app_5,8.4785,22120.4,6283.5,1716.5,698.793,6.37169e+11,1.15596,0.858346,9,0.911544,1969,1.00001,1.00001
app_6,0.532206,22871.1,6102.9,1897.1,70.7751,7.18676e+11,1.17275,0.858346,87,10.1222,206,1.00001,1.00001
app_7,54.0605,21094.9,7250.6,749.4,54.0317,2.68892e+11,1.0639,0.858346,135,4.97948,143,1.00001,1.00001
app_8,0.921879,14534.5,5515.8,2484.2,5515.93,8.65362e+11,1.25369,0.858346,1,0.156882,10089,1.00001,1.00001
app_9,49.9695,22576.3,6287.3,1712.7,63.6427,6.0941e+11,1.15997,0.858346,100,9.52204,183,1.00001,1.00001
