app_id,start_app,end_app,effective_cpu,effective_io,effective_iter,total_bytes,stretch,utilization,Tcomp,Tio,iterations,priority,group_id
app_1,1.09648,28616.2,4390.65,386.071,546.989,3.62226e+11,1.68319,0.774937,8,0.662204,2267,1,1
app_10,28.9369,23599.6,6537.33,150.461,77.4187,1.47355e+11,1.19677,0.774937,84,1.88916,231,1,1
app_11,684.973,21659.2,7840.4,44.5357,6.92835,4.41537e+10,1.01464,0.774937,1136,6.30767,18,1,1
app_12,505.185,21167.5,7495.4,475.842,7.83388,4.75263e+11,1.00368,0.774937,945,59.4078,20,1,1
app_13,820.916,21581,7257.3,594.6,9.02206,5.94137e+11,1.01892,0.774937,783,66.0153,24,1,1
app_14,492.029,21894.9,7353.3,572.873,8.06979,5.72632e+11,1.00935,0.774937,871,71.579,22,1,1
app_15,1408.27,22899.9,7478.61,487.354,5.81155,4.8698e+11,1.00432,0.774937,1335,90.5073,15,1,1
app_2,0.745904,27997.9,4692.35,50.5028,522.006,2.35818e+10,1.69638,0.774937,9,0.0451759,2093,1,1
app_3,2.8025,28432.8,4339.28,314.977,621,2.90707e+11,1.72787,0.774937,7,0.468127,2563,1,1
app_4,1.89553,27982,4801,171.714,434.999,1.49837e+11,1.61589,0.774937,11,0.344452,1719,1,1
app_5,3.18931,27098.8,4679.7,432.497,359.997,4.14457e+11,1.57043,0.774937,13,1.15127,1364,1,1
app_6,6.91635,24572.7,6233.2,123.591,113.46,1.17148e+11,1.25977,0.774937,55,1.03671,356,1,1
app_7,70.4732,23113.6,6568.13,501.226,73.7529,4.96657e+11,1.13238,0.774937,89,6.80351,208,1,1
app_8,131.73,21929.4,6843.2,556.753,48.7922,5.54147e+11,1.08147,0.774937,141,11.5447,131,1,1
app_9,20.2972,23014.6,6482.61,598.971,72.9915,5.95638e+11,1.13022,0.774937,89,8.17764,206,1,1
