app_id,start_app,end_app,effective_cpu,effective_io,effective_iter,total_bytes,stretch,utilization,Tcomp,Tio,iterations,priority,group_id
app_1,3.85376,18957.1,7443.9,380.77,676.428,3.3196e+11,1.02883,0.888722,11,0.491065,1603,0.1,1
app_10,14.4904,22253.9,6882.2,253.703,113.243,1.60107e+11,1.13599,0.888722,61,1.41688,320,0.01,2
app_11,61.7,21711.6,7389.8,447.558,6.6434,1.57084e+11,1.06004,0.888722,1151,22.4405,18,0.001,3
app_12,148.735,21664.2,6809.5,946.636,41.208,6.15064e+11,1.0775,0.888722,165,15.0016,112,0.01,2
app_13,290.836,20568.9,7783.4,216.6,5.16898,3.3987e+10,1.02336,0.888722,1543,6.79741,13,0.001,3
app_14,252.73,22430.1,7118.2,881.8,6.9416,2.40272e+11,1.08718,0.888722,1064,34.3246,19,0.001,3
app_15,13.6823,20820.8,7544.3,186.91,37.1721,1.22351e+11,1.04348,0.888722,203,3.21977,97,0.01,2
app_2,5.02607,19076.4,7309.7,491.727,815.152,4.28073e+11,1.03389,0.888722,9,0.524599,1938,0.1,1
app_3,5.24954,19935.3,7320.3,604.748,524.196,5.43893e+11,1.01727,0.888722,14,1.03599,1304,0.1,1
app_4,9.2656,19108.9,7044.79,874.972,542.936,7.97477e+11,1.02011,0.888722,13,1.46927,1294,0.1,1
app_5,2.66554,19371.9,7182.3,679.222,717.423,5.90626e+11,1.02921,0.888722,10,0.822598,1740,0.1,1
app_6,59.5536,21777.8,6642.2,1058.37,52.4376,6.83479e+11,1.09205,0.888722,126,12.9397,144,0.01,2
app_7,32.2741,22396,6417.7,920.371,99.1456,6.04915e+11,1.13918,0.888722,64,6.11026,284,0.01,2
app_8,21.2051,21122.3,7245.7,328.982,49.2884,2.23107e+11,1.07112,0.888722,148,4.5532,131,0.01,2
app_9,0.913618,22050,6512.6,980.839,95.6859,6.44596e+11,1.11776,0.888722,68,6.78522,268,0.01,2
