app_id,start_app,end_app,effective_cpu,effective_io,effective_iter,total_bytes,stretch,utilization,Tcomp,Tio,iterations,priority,group_id
app_1,1.05074,22150.8,6630.5,1369.5,1323.38,4.94191e+11,1.12286,0.865487,5,0.373538,3702,1,1
app_10,24.9418,20905.7,7310,690,146.25,2.53933e+11,1.05765,0.865487,50,1.72744,382,1.00001,1.00001
app_11,165.286,21812.1,6639.5,1360.5,8.85574,5.39721e+11,1.11433,0.865487,775,59.9689,24,1.00001,1.00001
app_12,844.412,23422.5,6326,1674,7.4348,5.92524e+11,1.15632,0.865487,886,74.0655,21,1.00001,1.00001
app_13,906.039,22712,6789.1,1210.9,6.09665,4.0396e+11,1.11218,0.865487,1116,67.3267,17,1.00001,1.00001
app_14,903.117,23401.6,7169.7,830.3,7.12582,4.27573e+11,1.05301,0.865487,978,61.0819,20,1.00001,1.00001
app_15,255.468,23331.3,6524.2,1475.8,7.62191,5.32145e+11,1.13373,0.865487,828,66.5182,23,1.00002,1.00002
app_2,3.08214,19208.4,7606,394,689.698,1.28159e+11,1.03437,0.865487,11,0.186008,1663,1,1
app_3,7.74558,21685.7,6799.3,1200.7,453.256,4.42952e+11,1.10463,0.865487,15,0.97782,1237,1,1
app_4,1.12169,20006.8,7203.2,796.8,1440.77,2.63917e+11,1.07136,0.865487,5,0.183275,3618,1,1
app_5,0.667686,21814.5,6535.9,1464.1,1637.61,5.16613e+11,1.13435,0.865487,4,0.315393,4499,1.00001,1.00001
app_6,33.7516,21373.1,7162,838,60.5519,3.01179e+11,1.07193,0.865487,119,4.93736,161,1.00001,1.00001
app_7,26.4659,20706.6,7529.1,470.9,102.034,1.62783e+11,1.04006,0.865487,73,1.59592,266,1.00001,1.00001
app_8,41.262,20954.7,7150.9,849.1,143.803,2.99732e+11,1.07373,0.865487,50,2.08147,378,1.00001,1.00001
app_9,46.1802,22230.5,6483,1517,118.042,5.61825e+11,1.13559,0.865487,55,4.76123,332,1.00001,1.00001
