app_id,start_app,end_app,effective_cpu,effective_io,effective_iter,total_bytes,stretch,utilization,Tcomp,Tio,iterations,priority,group_id
app_1,2.51447,28589.9,4349.76,316.104,620.942,2.89882e+11,1.72427,0.772017,7,0.466799,2622,1,1
app_10,41.4796,22653.4,6415.27,574.085,83.8665,5.68935e+11,1.14544,0.772017,77,6.80561,238,1,1
app_11,1149.63,22296,7438.6,468.662,6.24344,4.68257e+11,1.01178,0.772017,1214,78.0429,16,1,1
app_12,686.809,21613.6,7252.2,645.253,10.0132,6.44859e+11,1.01304,0.772017,731,64.4859,26,1,1
app_13,38.4891,20721.1,7644.7,131.574,9.14032,1.31009e+11,1.02885,0.772017,827,14.5566,24,1,1
app_14,204.116,21005.7,7849.4,72.572,10.2369,7.20506e+10,1.00992,0.772017,786,7.20506,26,1,1
app_15,144.968,20567.6,7218.1,627.717,11.6019,6.26982e+11,1.01975,0.772017,615,52.2485,30,1,1
app_2,0.910108,26526.7,3334.8,485.657,1668.66,3.68662e+11,2.16014,0.772017,2,0.220888,6596,1,1
app_3,8.46867,27200.7,5019.69,200.621,385.597,1.878e+11,1.53625,0.772017,13,0.486527,1461,1,1
app_4,6.85405,27419.3,4872.99,42.6265,487.89,1.43781e+10,1.63687,0.772017,10,0.0294632,1900,1,1
app_5,2.19873,27674.7,4802.8,193.552,480.048,1.70816e+11,1.60849,0.772017,10,0.355128,1874,1,1
app_6,69.1643,21974.8,6543.4,624.01,62.7066,6.2112e+11,1.11661,0.772017,105,9.85904,174,1,1
app_7,8.24761,23897.6,5830,581.199,138.321,5.74807e+11,1.24906,0.772017,42,4.16527,428,1,1
app_8,9.24184,21924.2,6976.23,210.324,53.5681,2.07551e+11,1.11362,0.772017,131,3.84354,148,1,1
app_9,118.864,21426.3,7094.1,491.908,44.1053,4.89159e+11,1.05496,0.772017,161,11.1173,117,1,1
