app_id,start_app,end_app,effective_cpu,effective_io,effective_iter,total_bytes,stretch,utilization,Tcomp,Tio,iterations,priority,group_id
app_1,7.89238,22248.5,6605.8,1394.2,734.601,5.29534e+11,1.12118,0.874268,9,0.720454,2049,1,1
app_10,70.0317,20846.7,7528,472,106.813,1.75039e+11,1.03855,0.874268,71,1.63588,276,1.00001,1.00001
app_11,737.811,23466.2,6799.11,1200.89,8.33835,4.63714e+11,1.1015,0.874268,803,57.6764,24,1.00001,1.00001
app_12,517.003,23880.8,6358.89,1641.11,4.72905,5.54704e+11,1.15714,0.874268,1373,119.905,14,1.00001,1.00001
app_13,711.037,23692.4,6697.7,1302.3,5.66661,5.35242e+11,1.10605,0.874268,1218,89.2069,16,1.00001,1.00001
app_14,586.544,23236,6836,1164,5.44436,6.11635e+11,1.07417,0.874268,1228,122.327,15,1.00001,1.00001
app_15,1074.34,23463,7115.88,884.123,4.83622,2.46684e+11,1.08658,0.874268,1407,56.6043,14,1.00002,1.00002
app_2,5.132,20174.2,7159,841,795.549,3.07285e+11,1.07148,0.874268,9,0.386521,2007,1,1
app_3,12.6465,21014.6,7285.19,714.813,454.653,2.63697e+11,1.05976,0.874268,16,0.580322,1196,1,1
app_4,6.93792,20122.9,7124.5,875.5,595.641,3.18458e+11,1.07484,0.874268,12,0.534325,1496,1,1
app_5,5.87852,21874.6,6450.1,1549.9,644.071,6.15157e+11,1.1323,0.874268,10,0.955213,1769,1.00001,1.00001
app_6,96.6013,22324,6616.3,1383.7,65.3086,5.47838e+11,1.11667,0.874268,101,8.42828,183,1.00001,1.00001
app_7,43.0469,20368.6,7866.8,133.2,50.0556,5.058e+10,1.01044,0.874268,157,1.0116,127,1.00001,1.00001
app_8,34.9062,21718.2,6881,1119,115.391,4.42479e+11,1.09238,0.874268,60,3.81447,311,1.00001,1.00001
app_9,49.2023,20721.3,7587.9,412.1,73.0764,1.44778e+11,1.03457,0.874268,103,1.98326,190,1.00001,1.00001
