app_id,start_app,end_app,effective_cpu,effective_io,effective_iter,total_bytes,stretch,utilization,Tcomp,Tio,iterations,priority,group_id
app_1,9.57742,19813.5,6866.77,1133.23,762.401,4.28267e+11,1.09664,0.870175,9,0.561941,1894,1,1
app_10,71.6273,20390.4,7983.1,16.9,48.6586,5.62243e+09,1.00141,0.870175,165,0.117134,122,1.00001,1.00001
app_11,906.86,23989.4,6155.45,1844.55,4.3596,7.40883e+11,1.16004,0.870175,1410,162.602,13,1.00001,1.00001
app_12,381.634,22299.9,6868.25,1131.75,5.76656,4.74128e+11,1.08957,0.870175,1169,90.6393,16,1.00001,1.00001
app_13,570.462,21876.7,6645,1355,5.73642,5.68881e+11,1.10897,0.870175,1242,94.8135,15,1.00001,1.00001
app_14,445.836,22559.4,6677.7,1322.3,14.0533,5.41289e+11,1.10819,0.870175,478,38.6635,39,1.00001,1.00001
app_15,140.797,22380.4,7092.69,907.306,7.50533,4.16486e+11,1.06536,0.870175,929,54.2516,21,1.00002,1.00002
app_2,3.23154,21188.6,7190.1,809.905,1026.37,2.89726e+11,1.06954,0.870175,7,0.282292,2729,1,1
app_3,4.29178,20135.4,6835.34,1164.66,681.769,4.39324e+11,1.09971,0.870175,10,0.644916,1726,1,1
app_4,0.526439,16632.3,7272.67,727.33,7273.03,5.49273e+10,1.09176,0.870175,1,0.00755192,15124,1,1
app_5,0.522644,21461.4,6062.6,1937.4,2021.49,7.76974e+11,1.16966,0.870175,3,0.38445,5472,1.00001,1.00001
app_6,46.2351,21129.3,7124.6,875.4,132.412,3.38207e+11,1.07198,0.870175,54,2.54291,349,1.00001,1.00001
app_7,55.0025,21450.4,7141.9,858.1,95.8535,3.34474e+11,1.07004,0.870175,74,3.48411,258,1.00001,1.00001
app_8,35.4674,20441.8,7718.7,281.3,103.827,9.97022e+10,1.02323,0.870175,74,0.958675,266,1.00001,1.00001
app_9,87.5389,21921.7,6786.1,1213.9,57.3976,4.57786e+11,1.10438,0.870175,119,8.03134,158,1.00001,1.00001
