app_id,start_app,end_app,effective_cpu,effective_io,effective_iter,total_bytes,stretch,utilization,Tcomp,Tio,iterations,priority,group_id
app_1,4.04643,18462,7773.9,111.917,1109.91,5.95993e+10,1.02125,0.905494,7,0.053693,2554,0.1,1
app_10,77.522,20648.2,7477.4,417.308,53.0521,3.09846e+11,1.02732,0.905494,140,5.84615,137,0.01,2
app_11,17.4606,21495.6,7276.8,234.436,6.52833,1.32701e+11,1.07969,0.905494,1094,22.1168,18,0.001,3
app_12,967.745,23499.2,6998,553.322,6.71052,2.94638e+11,1.097,0.905494,1050,49.1063,19,0.001,3
app_13,142.946,22679.4,6446.6,1225,8.76261,6.9602e+11,1.12004,0.905494,749,77.3356,25,0.001,3
app_14,253.691,23191.3,6686.4,1313.6,6.52233,7.1315e+11,1.08115,0.905494,1008,101.879,19,0.001,3
app_15,741.651,23403.5,6668.9,1192.16,6.67117,6.802e+11,1.08857,0.905494,967,113.367,19,0.001,3
app_2,8.97758,19891.4,7747.76,173.293,596.896,1.2104e+11,1.01667,0.905494,13,0.203041,1482,0.1,1
app_3,3.09912,19052.9,7553.5,397.983,541.783,3.65708e+11,1.0102,0.905494,14,0.674738,1288,0.1,1
app_4,7.4623,19058.7,7092.27,888.941,591.315,8.23021e+11,1.0107,0.905494,12,1.39129,1409,0.1,1
app_5,5.84147,19894.8,7695.8,256.081,512.687,2.19525e+11,1.0107,0.905494,15,0.427924,1276,0.1,1
app_6,56.1452,20533.7,7605.8,207.335,92.7274,1.49624e+11,1.03154,0.905494,82,1.60886,238,0.01,2
app_7,63.3097,20539,7561.9,297.56,78.5182,2.25153e+11,1.02735,0.905494,97,2.85003,200,0.01,2
app_8,31.509,20656.9,7106.2,776.987,85.309,5.88621e+11,1.03966,0.905494,84,6.92496,219,0.01,2
app_9,117.782,20807.8,6968.06,933.406,62.6729,7.05539e+11,1.04254,0.905494,112,11.3315,163,0.01,2
