app_id,Tcomp,Tio,iter,witer,alpha_io,compute_size,io_size,mu,desyn_time
1,8.53206257760189,0.22070717476527363,2285,8.752769752367163,0.02521569526098684,8e9,220707174.76527363,10,2.8523901320908633
2,7.351353209189906,0.09592650421385517,2686,7.447279713403761,0.012880744097902587,7e9,95926504.21385516,10,0.9033271479241822
3,2.356566686808402,0.014874520283844115,8434,2.3714412070922464,0.006272354650563982,2e9,14874520.283844115,10,0.38016158007154444
4,8.875604488423878,0.14948345787380266,2217,9.025087946297681,0.016563102627174347,8e9,149483457.87380266,10,6.420331148773142
5,6.52653394698449,0.05250446880478066,3040,6.57903841578927,0.007980568813638981,6e9,52504468.804780655,10,1.0969674461690144
6,16.031337282878994,0.38820591606145827,1219,16.419543198940453,0.023642918159045317,16e9,388205916.0614583,10,5.047637398298637
7,14.372596287478455,0.3051629229157301,1363,14.677759210394186,0.020790838611088963,14e9,305162922.9157301,10,5.8999715467283345
8,17.749377405931213,0.12164942826500773,1120,17.871026834196222,0.006807075463186674,17e9,121649428.26500773,10,10.298017074740585
9,2.6564728171062875,0.018145160233156838,7478,2.6746179773394445,0.006784206337836178,2e9,18145160.233156838,10,1.20919657282919
10,9.060122704380415,0.08636870690627178,2187,9.146491411286688,0.009442823813259539,9e9,86368706.90627179,10,3.0136653559153483
11,15.788298141911637,0.3170323653369761,1242,16.105330507248613,0.01968493382947265,15e9,317032365.3369761,10,1.6403867996653723
12,9.385748920787838,0.19703619449407345,2088,9.582785115281911,0.02056147478250919,9e9,197036194.49407345,10,5.253277554935756
13,15.821737560932714,0.37082517365875184,1236,16.192562734591466,0.022900956429001456,15e9,370825173.65875185,10,14.576989763340547
14,14.12317083415234,0.3131789757397737,1386,14.436349809892114,0.021693778542632457,14e9,313178975.7397737,10,8.199229127220912
15,8.51230243538812,0.13889664755397904,2312,8.6511990829421,0.016055190294701097,8e9,138896647.55397904,10,1.6642275590561582
16,3.05701818520451,0.007672420396187317,6526,3.0646906056006973,0.0025034893839417363,3e9,7672420.396187317,10,1.2581378570829203
17,17.901424982149827,0.01389767905412418,1117,17.915322661203952,0.000775742604079352,17e9,13897679.05412418,10,11.169621651052436
18,12.86212298708292,0.2828763365967546,1522,13.144999323679674,0.021519691985618844,12e9,282876336.5967546,10,10.71464108170055
19,3.074205490152686,0.05636360473539134,6389,3.1305690948880773,0.01800426792286034,3e9,56363604.73539134,10,0.3606393740659296
20,10.802948610418643,0.2590211667988541,1808,11.061969777217497,0.023415465058702026,10e9,259021166.7988541,10,0.1668210761278992
21,130.32678218404547,0.2697341045984165,154,130.5965162886439,0.002065400458326555,130e9,269734104.5984165,100,110.21546879130469
22,112.34054752349559,0.2170227372254775,178,112.55757026072106,0.001928104317841795,112e9,217022737.2254775,100,110.36581328917391
23,28.3242358313888,0.08032391252173846,705,28.40455974391054,0.0028278527548366086,28e9,80323912.52173845,100,11.194137460772263
24,59.411836454875754,0.3617340040134346,335,59.77357045888919,0.006051738272222277,59e9,361734004.0134346,100,57.81743981794846
25,82.43340454839972,1.3240407263666873,239,83.75744527476641,0.015808036193357737,82e9,1324040726.3666873,100,51.222717609204146
26,188.86957346490993,4.531494792840698,104,193.40106825775064,0.023430557202514815,188e9,4531494792.840698,100,59.38334330542134
27,48.12781784850218,0.8418326506608289,409,48.96965049916301,0.017190905838203145,48e9,841832650.660829,100,10.676955811529432
28,31.566067054673958,0.6474897107942961,621,32.213556765468255,0.0200999136949814,31e9,647489710.794296,100,21.644041436869507
29,16.67248299028927,0.15233334216311398,1189,16.824816332452386,0.009054086484693878,16e9,152333342.16311398,100,13.760909196245901
30,109.55325298924913,1.5532299077581382,181,111.10648289700727,0.013979651477204445,109e9,1553229907.7581382,100,93.44548010092367
31,141.08062691219064,0.06083852554151924,142,141.14146543773217,0.0004310464352402488,141e9,60838525.54151924,100,95.52051247235606
32,116.84443561330376,0.607199400689469,171,117.45163501399323,0.005169782443787411,116e9,607199400.689469,100,49.108855004385134
33,128.96827771519304,2.017661551995995,153,130.98593926718902,0.015403649912990348,128e9,2017661551.995995,100,47.93221654806998
34,81.15942560254985,0.15648823934867484,246,81.31591384189852,0.001924447896544985,81e9,156488239.34867483,100,1.4630371855358262
35,70.79385304018574,0.625149670400285,281,71.41900271058603,0.008753267991344028,70e9,625149670.400285,100,50.01977156306407
36,139.512497466734,0.6293036900006702,143,140.1418011567347,0.004490478107219819,139e9,629303690.0006702,100,40.8378758631
37,65.65425964714407,1.083675050721907,300,66.73793469786598,0.01623776725527826,65e9,1083675050.7219071,100,53.48678030246352
38,75.13365132367599,1.0092301573790035,263,76.142881481055,0.013254425597619503,75e9,1009230157.3790034,100,2.796046538804267
39,82.16489907546908,1.4348269362513395,240,83.59972601172042,0.017163057879522013,82e9,1434826936.2513394,100,48.96504260364586
40,122.06905434867639,0.9733963088065096,163,123.0424506574829,0.007911060805479105,122e9,973396308.8065096,100,79.75430587546049
41,666.4765285556231,15.073838853016582,30,681.5503674086397,0.022116984413535948,666e9,15073838853.016582,1000,367.82211406746023
42,427.24357183356244,4.406418829556301,47,431.64999066311873,0.010208314432688801,427e9,4406418829.556301,1000,52.11979593653754
43,1268.5789604785382,30.99248104808407,16,1299.5714415266223,0.023848231853784683,1268e9,30992481048.08407,1000,225.29040889710174
44,1356.7924594611468,34.98016219099689,15,1391.7726216521437,0.025133532336246624,1356e9,34980162190.996895,1000,641.836023022204
45,423.77799978839005,7.569905250367465,47,431.3479050387575,0.017549419301543363,423e9,7569905250.367465,1000,219.18331935277376
46,1150.9295532854733,27.847717084059152,17,1178.7772703695325,0.02362423995105473,1150e9,27847717084.05915,1000,93.82484940057923
47,1370.6250235010125,7.83688332087413,15,1378.4619068218867,0.00568523749701757,1370e9,7836883320.87413,1000,500.54735933624073
48,716.3087906190982,14.063661863453392,28,730.3724524825516,0.019255465914206793,716e9,14063661863.453392,1000,122.69591374531785
49,1360.3678833239146,5.9595808970662585,15,1366.3274642209808,0.004361751522329346,1360e9,5959580897.066258,1000,270.1924969421638
50,1678.5486645853875,22.922210730960924,12,1701.4708753163484,0.013471997119374189,1678e9,22922210730.960922,1000,1235.6513665156244
51,1397.8972724211992,2.9187576240712163,15,1400.8160300452705,0.002083612381261007,1397e9,2918757624.071216,1000,377.57388520320444
52,755.072478602841,10.675382255549586,27,765.7478608583906,0.013941119265527768,755e9,10675382255.549585,1000,196.48324359753732
53,1244.2413179907091,3.158168439699181,17,1247.3994864304084,0.002531801939999735,1244e9,3158168439.699181,1000,776.4082236837763
54,1048.038176227221,19.08092334618538,19,1067.1190995734062,0.017880781399014608,1048e9,19080923346.18538,1000,699.1187723305135
55,1136.3288703686067,20.117505961101063,18,1156.4463763297076,0.01739596956060285,1136e9,20117505961.101063,1000,1110.322951278535
56,831.4061237733521,8.021628280840051,24,839.4277520541922,0.009556067524822775,831e9,8021628280.840052,1000,150.3497127017525
57,1162.40668732535,30.755617755215468,17,1193.1623050805656,0.025776558330962998,1162e9,30755617755.21547,1000,933.431991932065
58,1255.5714883627252,2.1316052937635774,16,1257.7030936564888,0.0016948398270743015,1255e9,2131605293.7635775,1000,647.047886609633
59,847.403177342828,13.81087748945015,24,861.2140548322782,0.016036521248065122,847e9,13810877489.45015,1000,688.1098906448818
60,1409.462708033077,30.493969020371022,14,1439.956677053448,0.021177004493475572,1409e9,30493969020.37102,1000,1287.1528009585998
