app_id,Tcomp,Tio,iter,witer,alpha_io,compute_size,io_size,mu,desyn_time
1,8.82281720215462,0.08101865851860256,2247,8.903835860673222,0.009099298300909683,8e9,81018658.51860255,10,4.171330838013844
2,11.963946832289519,0.2877935211757566,1633,12.251740353465276,0.023490011449218903,11e9,287793521.1757566,10,11.808656170720665
3,20.89703815180939,0.3441495759154723,942,21.241187727724864,0.01620199304892326,20e9,344149575.91547227,10,12.854216599148733
4,12.43936736175968,0.2888264224352131,1572,12.728193784194893,0.022691862438004397,12e9,288826422.4352131,10,0.48362161958746713
5,11.080514141908019,0.04100385367954164,1799,11.12151799558756,0.0036868936143258355,11e9,41003853.67954164,10,5.852855564081898
6,14.867221956792223,0.27157498043568096,1322,15.138796937227903,0.01793900674946299,14e9,271574980.435681,10,1.479561186745935
7,10.663668012466852,0.003397266484603708,1875,10.667065278951455,0.0003184818312968692,10e9,3397266.484603708,10,1.03023957519311
8,16.727355785120164,0.10310317169384935,1189,16.830458956814013,0.006125986935852797,16e9,103103171.69384934,10,12.269506925312509
9,11.35055141431617,0.13267735494322344,1742,11.483228769259394,0.011554011298494789,11e9,132677354.94322345,10,1.0959748839301762
10,12.554786521207461,0.2964028636645866,1557,12.851189384872049,0.023064235907495165,12e9,296402863.6645866,10,9.741661100179025
11,7.441047973944983,0.07019801549447979,2663,7.5112459894394625,0.009345721814087255,7e9,70198015.49447979,10,5.961817277896981
12,15.568770395718047,0.40997883211324887,1252,15.978749227831296,0.025657754951129735,15e9,409978832.1132489,10,15.975943325537607
13,10.560683800071105,0.21661010861172525,1856,10.77729390868283,0.020098747463610622,10e9,216610108.61172524,10,6.372370871820357
14,5.588277448732024,0.12406304056454417,3502,5.712340489296568,0.021718425362949892,5e9,124063040.56454417,10,0.8187895534440917
15,3.8259348835379514,0.08990211701014394,5108,3.9158370005480956,0.022958595313737635,3e9,89902117.01014395,10,1.306790241336145
16,16.478793837150423,0.015992848934798853,1213,16.494786686085224,0.0009695699155837039,16e9,15992848.934798853,10,5.157875301092665
17,7.714399338186948,0.08737530775346238,2564,7.8017746459404105,0.011199414456161894,7e9,87375307.75346237,10,1.0260592064301253
18,11.398164018463326,0.05311415302236137,1747,11.451278171485688,0.004638272883337908,11e9,53114153.02236137,10,6.236580908046082
19,7.643034081737676,0.13840057308762807,2571,7.781434654825304,0.01778599695646165,7e9,138400573.08762807,10,6.35331975808011
20,16.73657930995924,0.34858013081602646,1171,17.085159440775264,0.020402509676562264,16e9,348580130.81602645,10,15.873589596022306
21,172.5313463802151,2.4339754058594303,115,174.96532178607453,0.01391118754855541,172e9,2433975405.8594303,100,87.79376322206365
22,148.15684389925076,3.2073574047816966,133,151.36420130403246,0.021189669533150372,148e9,3207357404.781697,100,75.7310180174696
23,130.8903133763184,0.5722209811225938,153,131.462534357441,0.00435273048644224,130e9,572220981.1225938,100,107.120596483293
24,126.51300308536082,1.9773272842963674,156,128.4903303696572,0.015388918984080303,126e9,1977327284.2963674,100,28.27789108774331
25,135.42032110444305,0.9560264683625253,147,136.37634757280557,0.007010207307774855,135e9,956026468.3625252,100,71.28179935041048
26,90.515405031697,1.8996237119107968,217,92.41502874360779,0.020555354878274503,90e9,1899623711.9107969,100,56.48883307512959
27,87.47742448344762,0.9049123946168984,227,88.38233687806452,0.010238611317387415,87e9,904912394.6168984,100,50.64445614023894
28,99.89436308376385,0.7984619980413414,199,100.6928250818052,0.007929681160426796,99e9,798461998.0413414,100,84.76912651411011
29,71.58529343468832,0.8188250150289166,277,72.40411844971725,0.011309094462597027,71e9,818825015.0289166,100,1.2709838897665888
30,93.76000896272147,0.20768470362372318,213,93.9676936663452,0.0022101713420907983,93e9,207684703.62372318,100,17.542850168209622
31,127.558421351961,0.6303384208638517,157,128.18875977282485,0.004917267488826108,127e9,630338420.8638517,100,39.718195021051876
32,198.36740831655726,0.8749368775187275,101,199.242345194076,0.004391319910767351,198e9,874936877.5187275,100,158.38196926670543
33,221.7522161831888,3.193574929625926,89,224.94579111281473,0.014197086835131248,221e9,3193574929.625926,100,208.92061907613686
34,74.10793982952184,1.4084165713642651,265,75.51635640088611,0.018650483663268196,74e9,1408416571.3642652,100,32.79200057241649
35,72.77058417736653,1.932272897311236,268,74.70285707467777,0.02586611774941368,72e9,1932272897.311236,100,23.32351252534297
36,122.22653759469831,3.213370672815741,160,125.43990826751406,0.025616812999917728,122e9,3213370672.815741,100,79.73193831513625
37,55.971678827103965,1.0588313929909579,351,57.030510220094925,0.018566051555643885,55e9,1058831392.9909579,100,39.53827283097554
38,120.59429192680825,1.990520642844437,164,122.58481256965268,0.01623790583122541,120e9,1990520642.8444371,100,11.969291429706784
39,124.78878401688199,1.6892150069678193,159,126.4779990238498,0.013355801167041598,124e9,1689215006.9678195,100,41.34542798915507
40,47.57823051250157,0.7374177823069631,414,48.31564829480853,0.015262504143739242,47e9,737417782.3069631,100,0.9468328807576823
41,777.1675128673429,2.2898254361337917,26,779.4573383034767,0.002937717465227408,777e9,2289825436.133792,1000,399.5147497304711
42,723.1001847454668,2.0409779172716522,28,725.1411626627385,0.0028145939333758477,723e9,2040977917.2716522,1000,189.64451910732527
43,265.9201706461555,0.6280606774127157,76,266.5482313235682,0.0023562740382632678,265e9,628060677.4127157,1000,205.68777632490475
44,782.4643696442486,2.6259691991065717,26,785.0903388433551,0.003344798769241405,782e9,2625969199.1065717,1000,314.63113274680217
45,1235.5223985423445,27.042900477109697,16,1262.5652990194542,0.021419011355778603,1235e9,27042900477.109695,1000,446.25412263355463
46,281.116385055129,4.244988458225334,71,285.36137351335435,0.01487583412555546,281e9,4244988458.225334,1000,189.96709018522668
47,403.5609198897006,7.639876622838436,49,411.200796512539,0.018579430506053186,403e9,7639876622.838436,1000,231.130608557525
48,1662.640553468137,35.313969884421226,12,1697.9545233525582,0.020797948000806813,1662e9,35313969884.42123,1000,1101.022637738885
49,1226.7151406453024,1.6883237314478596,17,1228.4034643767502,0.0013744048925362297,1226e9,1688323731.4478595,1000,287.61240405193655
50,1499.1410314903153,20.50510022809636,14,1519.6461317184117,0.013493338876801042,1499e9,20505100228.09636,1000,242.00305065067818
51,764.1418163817597,12.210667973633294,26,776.352484355393,0.015728252591053194,764e9,12210667973.633293,1000,699.0724580864422
52,254.76011354447178,1.5392251379490676,79,256.29933868242085,0.006005575924861489,254e9,1539225137.9490676,1000,240.0358365139383
53,1216.4004074353213,22.58359024579368,17,1238.983997681115,0.01822750760951003,1216e9,22583590245.79368,1000,762.8954730566298
54,1632.818249036537,43.3698846536841,12,1676.188133690221,0.025874115072156548,1632e9,43369884653.684105,1000,216.6468147724417
55,626.6464732907936,7.387219307389906,32,634.0336925981835,0.011651146293374553,626e9,7387219307.389906,1000,470.34581664135146
56,1337.096879151891,7.894571894274445,15,1344.9914510461654,0.0058696074894259475,1337e9,7894571894.274445,1000,734.4730995154771
57,1545.9591141569892,16.746293980231652,13,1562.705408137221,0.010716219380205257,1545e9,16746293980.231651,1000,1337.2981286336412
58,533.3123881973615,3.0073172763139002,38,536.3197054736754,0.005607321986533852,533e9,3007317276.3139,1000,174.7336797616506
59,1354.0756915485968,25.43725481622865,15,1379.5129463648254,0.018439301264448968,1354e9,25437254816.22865,1000,404.8523725861131
60,259.95230681551277,5.246651557187902,76,265.19895837270064,0.0197838316914294,259e9,5246651557.187902,1000,249.7352034070501
