app_id,start_app,end_app,effective_cpu,effective_io,effective_iter,total_bytes,stretch,utilization,Tcomp,Tio,iterations,priority,group_id
app_1,2.28572,24455.8,5096.4,187.646,848.437,1.50015e+11,1.52485,0.856785,6,0.176696,2819,1,1
app_10,0.4481,24536.3,6109.25,40.767,358.64,2.33677e+10,1.3045,0.856785,17,0.0650911,1160,1,1
app_11,13.3979,24988.4,5806.8,115.296,445.783,9.0248e+10,1.35661,0.856785,13,0.20235,1491,1,1
app_12,4.25445,25395.4,5828.84,50.7041,484.536,2.58758e+10,1.36642,0.856785,12,0.0534624,1652,1,1
app_13,0.524525,24627,5279.2,63.7232,753.31,2.29044e+10,1.50883,0.856785,7,0.0303772,2526,1,1
app_14,7.19199,23980.7,6050,175.414,336.07,1.60583e+11,1.28812,0.856785,18,0.476507,1051,1,1
app_15,14.6387,24438.2,6005.1,54.1245,398.612,3.82627e+10,1.32377,0.856785,15,0.0958966,1288,1,1
app_16,2.48976,25888.3,5249.3,95.7813,753.444,6.30389e+10,1.50593,0.856785,7,0.083606,2696,1,1
app_17,1.4047,24536.3,5708.62,140.731,519.431,1.09655e+11,1.37498,0.856785,11,0.211252,1688,1,1
app_18,7.64204,23953.5,5926.2,98.0975,423.93,8.13372e+10,1.33166,0.856785,14,0.191833,1336,1,1
app_19,5.97635,23929.8,5910.7,81.7225,421.894,5.95127e+10,1.33998,0.856785,14,0.141025,1332,1,1
app_2,5.6023,24406.3,5106.3,189.279,851.377,1.51146e+11,1.52165,0.856785,6,0.177401,2814,1,1
app_20,1.02912,26718.6,5086.5,154.355,847.534,1.07406e+11,1.54027,0.856785,6,0.126658,3183,1,1
app_21,19.6301,23319.3,6639.86,129.283,228.52,1.15788e+11,1.18419,0.856785,29,0.505625,678,1,1
app_22,39.87,22678.3,6753.8,85.759,153.801,7.71531e+10,1.17114,0.856785,44,0.500994,449,1,1
app_23,90.1586,21534.5,7284.6,164.595,78.9094,1.60638e+11,1.07451,0.856785,92,2.0334,213,1,1
app_24,40.2436,21078.5,7562.3,54.8515,45.0971,5.30366e+10,1.05051,0.856785,167,1.17859,119,1,1
app_25,53.611,21673.3,7385.93,33.7693,83.5515,2.97774e+10,1.07879,0.856785,87,0.354493,229,1,1
app_26,80.7072,21147.4,7399.3,115.045,62.2878,1.12232e+11,1.06503,0.856785,118,1.78147,166,1,1
app_27,2.88484,22019.8,7057.8,82.2078,123.736,7.54496e+10,1.12151,0.856785,57,0.608464,345,1,1
app_28,137.181,20666.3,7678.3,88.5951,32.9167,8.69301e+10,1.03023,0.856785,234,2.63424,85,1,1
app_29,57.7423,21400.1,7289.98,124.514,95.8572,1.19447e+11,1.07971,0.856785,76,1.24424,257,1,1
app_3,1.70779,24627.9,6084.1,154.827,357.486,1.41784e+11,1.28496,0.856785,17,0.397153,1150,1,1
app_30,49.6902,21009,7538.2,94.218,55.9625,9.10623e+10,1.04859,0.856785,135,1.62611,147,1,1
app_31,9.24075,21972.7,7105.3,94.7683,113.457,9.06352e+10,1.11174,0.856785,63,0.795045,313,1,1
app_32,9.48096,20730.3,7526.3,54.1149,50.704,5.14265e+10,1.05573,0.856785,148,1.00836,134,1,1
app_33,25.7701,22376.4,6760.37,187.036,173.031,1.76661e+11,1.15323,0.856785,39,1.02098,491,1,1
app_34,29.8683,21231.7,7362,89.1987,64.6051,8.58008e+10,1.07414,0.856785,113,1.32001,174,1,1
app_35,15.617,21307.6,7322.87,66.6657,71.1359,6.3235e+10,1.08311,0.856785,104,0.878264,191,1,1
app_36,64.4741,21233.9,7377.4,25.2011,81.9321,2.13758e+10,1.08126,0.856785,90,0.260681,220,1,1
app_37,108.003,21328.8,7518.1,94.7614,63.946,9.13718e+10,1.05132,0.856785,118,1.42769,168,1,1
app_38,18.7544,21291.3,7318.6,61.5872,96.7393,5.76104e+10,1.08457,0.856785,76,0.593921,258,1,1
app_39,10.9037,24391.3,5949.7,151.981,396.527,1.3012e+11,1.31583,0.856785,15,0.327757,1273,1,1
app_4,10.831,24633.8,5751.2,152.225,478.77,1.31549e+11,1.35991,0.856785,12,0.275207,1573,1,1
app_40,99.9124,21224.6,7429.6,112.867,62.2023,1.10941e+11,1.06093,0.856785,120,1.78937,164,1,1
app_41,250.199,20683.6,7861.6,109.047,9.13195,1.08674e+11,1.00373,0.856785,861,12.0749,23,1,1
app_42,48.8204,20364.1,7954,0.715728,7.84497,3.63617e+08,1.00574,0.856785,1032,0.0454521,20,1,1
app_43,1681.93,23384.7,7893.9,102.062,3.948,1.01883e+11,1.00053,0.856785,1889,25.4707,11,1,1
app_44,173.291,20659.1,7749.7,195.079,10.394,1.94596e+11,1.00701,0.856785,754,19.4596,26,1,1
app_45,1054.82,23189.2,7896.1,65.8384,4.17957,6.56249e+10,1.00481,0.856785,1965,16.4062,11,1,1
app_46,22.8201,20325.7,7794,185.926,4.06194,1.85621e+11,1.00255,0.856785,1997,37.1243,10,1,1
app_47,594.724,21816.4,7783.3,158.792,5.48558,1.58388e+11,1.00734,0.856785,1374,26.398,15,1,1
app_48,1192.43,21954.8,7743.3,220.774,4.63487,2.20501e+11,1.00455,0.856785,1682,44.1002,12,1,1
app_49,327.127,20596.8,7707.9,124.103,17.2783,1.23342e+11,1.02155,0.856785,450,7.2554,44,1,1
app_5,15.5361,24027.8,6115,60.9476,360.612,3.9976e+10,1.29976,0.856785,17,0.111045,1130,1,1
app_50,0.156539,20242.6,7808.5,123.35,6.98856,1.2307e+11,1.00863,0.856785,1099,17.5814,18,1,1
app_51,61.3662,20534.2,7647.2,174.635,19.0645,1.73487e+11,1.02293,0.856785,399,9.13087,49,1,1
app_52,413.661,20659.6,7986.1,4.63152,9.27121,4.19766e+09,1.00121,0.856785,833,0.466407,24,1,1
app_53,134.453,21155,7856.6,75.6539,11.074,7.5153e+10,1.0086,0.856785,705,6.83209,29,1,1
app_54,634.954,20961.5,7861.6,38.5793,10.7254,3.79251e+10,1.01272,0.856785,718,3.44774,28,1,1
app_55,490.289,21970.8,7845.7,85.8478,9.34867,8.5476e+10,1.00868,0.856785,816,9.49734,25,1,1
app_56,32.8202,20543.2,7703.9,102.989,22.439,1.0168e+11,1.02491,0.856785,342,4.62183,58,1,1
app_57,401.668,20720.8,7677.5,162.359,12.354,1.61764e+11,1.0205,0.856785,619,13.4803,32,1,1
app_58,130.036,20846.4,7846,102.851,5.056,1.02567e+11,1.00647,0.856785,1532,20.5134,13,1,1
app_59,178.619,20014.5,7906.5,38.4443,6.95079,3.80771e+10,1.00698,0.856785,1175,5.43959,17,1,1
app_6,0.885377,25853.3,5171.9,98.9577,862.099,5.98545e+10,1.52912,0.856785,6,0.0694368,3090,1,1
app_60,836.694,21192.2,7849.1,106.168,5.54537,1.05756e+11,1.00567,0.856785,1420,17.6261,14,1,1
app_7,1.24935,22504.6,3404.91,267.99,3402.86,5.33708e+10,2.31329,0.856785,1,0.0156834,10423,1,1
app_8,2.53749,24995.5,5393.3,181.444,673.303,1.39772e+11,1.44585,0.856785,8,0.207685,2266,1,1
app_9,6.93983,24614.9,5540.3,108.594,615.745,7.20043e+10,1.42544,0.856785,9,0.11689,2027,1,1
