app_id,start_app,end_app,effective_cpu,effective_io,effective_iter,total_bytes,stretch,utilization,Tcomp,Tio,iterations,priority,group_id
app_1,11.9532,18908.8,7712.5,233.897,592.207,1.91485e+11,1.01215,0.962564,13,0.323454,1398,0.1,1
app_10,0.689428,19247.2,7819.6,84.844,976.025,1.93207e+10,1.02055,0.962564,8,0.0197958,2351,0.1,1
app_11,2.85324,19061.6,7721.1,133.2,1547.56,2.77214e+10,1.03242,0.962564,5,0.0179079,3681,0.1,1
app_12,2.20351,19000.8,7638.7,271.318,953.672,2.00365e+11,1.02053,0.962564,8,0.210247,2267,0.1,1
app_13,8.84285,19479.4,7805.5,109.402,783.358,7.66127e+10,1.01496,0.962564,10,0.0978451,1904,0.1,1
app_14,0.295876,17551.9,7714,144.588,1541.04,5.1601e+10,1.03018,0.962564,5,0.0334854,3383,0.1,1
app_15,10.8022,18943.6,7704.4,230.64,770.012,1.82752e+11,1.01431,0.962564,10,0.23734,1822,0.1,1
app_16,1.94669,19689.1,7771.5,170.037,554.349,1.40787e+11,1.01109,0.962564,14,0.254129,1369,0.1,1
app_17,16.7567,19535.3,7855.2,112.344,357.417,9.60815e+10,1.00613,0.962564,22,0.268384,873,0.1,1
app_18,11.0194,19344.4,7889.7,61.4105,527.878,4.51512e+10,1.00821,0.962564,15,0.0855137,1274,0.1,1
app_19,6.28355,19365.5,7684.3,255.768,771.477,2.13626e+11,1.01292,0.962564,10,0.276717,1860,0.1,1
app_2,6.71563,20212.7,7759.4,163.427,778.648,1.29304e+11,1.01411,0.962564,10,0.1662,1965,0.1,1
app_20,8.40997,18753.5,7725.4,213.925,643.208,1.77673e+11,1.01226,0.962564,12,0.276319,1510,0.1,1
app_21,100.129,20371.5,7652.3,328.219,70.6882,1.98336e+11,1.01903,0.962564,108,2.79347,179,0.01,2
app_22,135.047,20139.7,7850.6,132.448,58.8432,8.32532e+10,1.00834,0.962564,134,1.41107,147,0.01,2
app_23,15.4724,20058,7930.9,19.3876,79.8763,7.69615e+09,1.00773,0.962564,99,0.0962019,201,0.01,2
app_24,124.104,20167.7,7920.6,42.4535,63.5466,2.3767e+10,1.007,0.962564,126,0.377254,158,0.01,2
app_25,46.7724,20413.6,7683.1,225.115,122.73,1.37736e+11,1.02291,0.962564,62,1.12899,314,0.01,2
app_26,4.88142,18896.9,7619.6,265.679,1270.85,2.1113e+11,1.02162,0.962564,6,0.166113,3001,0.1,1
app_27,36.3466,20335.4,7682.2,263.897,120.869,1.59373e+11,1.0202,0.962564,64,1.31714,305,0.01,2
app_28,4.59559,20249.2,7717.4,194.333,157.564,1.11822e+11,1.02181,0.962564,49,0.712239,399,0.01,2
app_29,65.7434,20425.7,7738,209.313,107.908,1.29349e+11,1.01686,0.962564,72,1.19767,274,0.01,2
app_3,0.712932,19852.3,7642.8,236.227,1277.03,1.42795e+11,1.02754,0.962564,6,0.11182,3162,0.1,1
app_30,16.484,20087.4,7763.8,98.488,235.823,4.76358e+10,1.02414,0.962564,33,0.201847,592,0.01,2
app_31,49.1189,20321.9,7664.7,310.596,45.7143,1.96263e+11,1.01769,0.962564,169,4.26659,116,0.01,2
app_32,4.83444,20154.9,7890.9,26.4398,104.404,1.33348e+10,1.01212,0.962564,75,0.128219,263,0.01,2
app_33,43.1009,20092,7836.7,126.75,90.0655,7.93599e+10,1.0106,0.962564,87,0.881777,226,0.01,2
app_34,25.2236,20512.8,7720.4,184.04,147.638,1.05566e+11,1.02224,0.962564,52,0.713286,379,0.01,2
app_35,24.6337,20335.9,7724.1,163.015,197.973,9.32464e+10,1.02337,0.962564,39,0.470942,503,0.01,2
app_36,17.2737,19844.7,7878.7,78.8443,414.35,5.02623e+10,1.00896,0.962564,19,0.121407,1030,0.1,1
app_37,48.2494,20279.7,7940.7,38.2502,61.769,2.03646e+10,1.00489,0.962564,129,0.328461,155,0.01,2
app_38,27.2216,19842.8,7854.8,111.637,53.7197,7.18931e+10,1.00925,0.962564,149,1.33135,133,0.01,2
app_39,139.159,20298.9,7868.7,120.334,49.3327,7.10055e+10,1.00759,0.962564,161,1.44909,123,0.01,2
app_4,7.22641,20087.9,7860.5,68.5896,711.591,2.80247e+10,1.01413,0.962564,11,0.0393605,1790,0.1,1
app_40,21.1786,20153.6,7771.3,133.585,188.685,7.69619e+10,1.01933,0.962564,41,0.407206,476,0.01,2
app_41,324.916,21078.4,7486.1,244.117,12.6004,1.07478e+11,1.05352,0.962564,602,8.26754,33,0.001,3
app_42,948.677,22176.3,7530.7,182.145,7.76672,7.62383e+10,1.05167,0.962564,973,9.52979,21,0.001,3
app_43,167.53,21861.2,7839.8,72.4815,5.26841,3.40089e+10,1.01603,0.962564,1516,5.66815,14,0.001,3
app_44,793.866,22474.7,7420.6,390.497,8.53678,1.8654e+11,1.05164,0.962564,870,20.7267,23,0.001,3
app_45,166.72,21550.7,7720.3,201.229,4.81109,8.45491e+10,1.025,0.962564,1616,16.9098,13,0.001,3
app_46,986.73,22234.1,7851.8,48.1578,6.51998,2.31731e+10,1.01588,0.962564,1220,3.31045,17,0.001,3
app_47,352.089,22074.4,7121.9,378.066,17.6627,1.65515e+11,1.09778,0.962564,404,9.1953,49,0.001,3
app_48,371.476,22451.8,7362.5,404.123,6.85969,1.92863e+11,1.05885,0.962564,1080,27.5518,19,0.001,3
app_49,603.964,20824.6,7619.9,181.203,5.51552,7.79454e+10,1.03925,0.962564,1432,12.9909,14,0.001,3
app_5,18.8696,19345.8,7822.7,140.163,409.782,1.16931e+11,1.0076,0.962564,19,0.285197,993,0.1,1
app_50,666.328,22065.1,7755.9,123.954,5.96569,6.293e+10,1.02317,0.962564,1277,10.4883,16,0.001,3
app_51,189.814,22041.7,7500.9,212.754,7.28357,1.03926e+11,1.05196,0.962564,1022,14.8466,20,0.001,3
app_52,744.518,22022.3,7345.1,336.176,8.14779,1.63181e+11,1.06549,0.962564,905,20.3976,22,0.001,3
app_53,1042.08,22126.9,7493.2,339.549,3.00431,1.57609e+11,1.04564,0.962564,2486,52.5363,8,0.001,3
app_54,758.478,21466.4,7634.3,276.062,7.90409,1.35871e+11,1.02958,0.962564,1002,19.4102,20,0.001,3
app_55,1021.52,21317.8,7744.18,119.028,4.63815,5.84862e+10,1.02529,0.962564,1662,12.2563,12,0.001,3
app_56,33.8963,22242.8,6937.33,393.427,21.0234,1.81367e+11,1.1238,0.962564,328,8.63654,60,0.001,3
app_57,1102.98,22453.8,7856.7,33.2592,6.90083,1.44194e+10,1.01637,0.962564,1107,2.05991,19,0.001,3
app_58,754.769,21525,7512,376.438,5.53945,1.65427e+11,1.04202,0.962564,1307,33.0854,15,0.001,3
app_59,141.795,20760,7895.7,4.90181,4.94494,3.19459e+09,1.0128,0.962564,1562,0.638918,13,0.001,3
app_6,1.51026,19504.9,7777.8,173.919,517.628,1.4444e+11,1.00982,0.962564,15,0.278842,1265,0.1,1
app_60,1455.69,22599.2,7604.6,187.444,5.38331,8.29979e+10,1.04064,0.962564,1456,16.5996,14,0.001,3
app_7,0.997004,18915.9,7679.8,240.709,854.11,1.72469e+11,1.01881,0.962564,9,0.201954,2021,0.1,1
app_8,1.52265,19170.5,7808.8,135.482,557.342,1.08516e+11,1.01044,0.962564,14,0.194823,1336,0.1,1
app_9,3.91381,19613.5,7694.1,209.844,1100.23,1.35078e+11,1.02182,0.962564,7,0.122798,2698,0.1,1
