app_id,start_app,end_app,effective_cpu,effective_io,effective_iter,total_bytes,stretch,utilization,Tcomp,Tio,iterations,priority,group_id
app_1,3.21273,19301.7,7874.7,89.7877,492.864,5.13266e+10,1.00933,0.965105,16,0.104111,1187,0.1,1
app_10,2.07585,17673.6,7792.73,115.001,1298.26,2.70439e+10,1.02305,0.965105,6,0.0208243,2869,0.1,1
app_11,3.10595,20044.8,7727.7,203.045,967.124,1.61688e+11,1.01402,0.965105,8,0.167206,2422,0.1,1
app_12,0.849013,20050.1,7712.7,209.439,1102.37,1.29189e+11,1.02016,0.965105,7,0.117126,2761,0.1,1
app_13,3.38482,18744.6,7737.8,207.717,859.381,1.61515e+11,1.01275,0.965105,9,0.187808,2010,0.1,1
app_14,2.79709,19349.2,7784.9,128.048,1294.55,5.73197e+10,1.02012,0.965105,6,0.0442623,3130,0.1,1
app_15,2.38744,18892.6,7804.2,148.947,711.219,1.19584e+11,1.00962,0.965105,11,0.168191,1677,0.1,1
app_16,3.98496,19825.2,7712.1,206.971,1100.89,1.27755e+11,1.02043,0.965105,7,0.116141,2734,0.1,1
app_17,8.23527,20096,7733.1,236.948,483.202,1.96136e+11,1.00892,0.965105,16,0.406078,1212,0.1,1
app_18,6.06169,19358.5,7775.9,164.908,776.156,1.31701e+11,1.01168,0.965105,10,0.169718,1882,0.1,1
app_19,6.18891,18863.4,7807.7,111.804,1118.91,5.27496e+10,1.01775,0.965105,7,0.04714,2632,0.1,1
app_2,5.76947,19801.5,7778.5,174.245,704.833,1.37654e+11,1.01059,0.965105,11,0.195255,1744,0.1,1
app_20,3.53799,19798.7,7597,270.96,1900.49,1.75921e+11,1.02921,0.965105,4,0.0925902,4708,0.1,1
app_21,9.04574,19936.9,7903.2,71.0002,341.966,5.4668e+10,1.00529,0.965105,23,0.159848,855,0.1,1
app_22,42.4495,20244.4,7749.6,195.235,71.3325,1.30182e+11,1.01526,0.965105,108,1.83355,182,0.01,2
app_23,59.6556,20409.8,7680.63,236.153,83.4515,1.62368e+11,1.02002,0.965105,92,1.93295,212,0.01,2
app_24,2.97667,19411.9,7739.6,218.847,644.129,1.82946e+11,1.00978,0.965105,12,0.284078,1567,0.1,1
app_25,25.5435,20254.5,7582.94,302.133,132.704,1.98983e+11,1.02802,0.965105,57,1.49792,337,0.01,2
app_26,9.00154,20425.8,7795.8,122.164,77.0104,8.08695e+10,1.01566,0.965105,100,1.05025,198,0.01,2
app_27,40.5325,20306.1,7783.2,169.567,70.751,1.08912e+11,1.01367,0.965105,109,1.53397,180,0.01,2
app_28,27.1801,20373.9,7658,264.759,96.7989,1.78469e+11,1.02087,0.965105,79,1.83988,247,0.01,2
app_29,28.2435,20287.8,7770,181.833,52.1278,1.23817e+11,1.01345,0.965105,147,2.33617,134,0.01,2
app_3,7.0548,18712,7842,92.8715,869.578,5.37922e+10,1.0132,0.965105,9,0.0618301,2032,0.1,1
app_30,87.6433,20347.8,7819.8,131.928,42.2774,8.74301e+10,1.01173,0.965105,186,2.08167,107,0.01,2
app_31,41.0971,20415,7823.4,14.5161,149.895,1.58108e+09,1.02237,0.965105,52,0.0105405,384,0.01,2
app_32,58.2585,20496.1,7672.7,245.945,124.02,1.64391e+11,1.02079,0.965105,62,1.32573,315,0.01,2
app_33,51.5281,20089.5,7833.3,97.1117,69.8431,6.09041e+10,1.0134,0.965105,113,0.870058,175,0.01,2
app_34,4.17933,20331.8,7722.8,217.505,69.3707,1.45126e+11,1.01679,0.965105,111,2.10328,177,0.01,2
app_35,105.383,20344.4,7741,186.028,60.5804,1.25455e+11,1.01698,0.965105,128,2.09091,154,0.01,2
app_36,0.945111,20255.2,7759.4,125.059,129.052,8.07186e+10,1.02039,0.965105,60,0.625725,327,0.01,2
app_37,26.6393,20552,7633.4,296.229,105.244,1.94267e+11,1.02202,0.965105,72,1.85017,271,0.01,2
app_38,79.3198,20261.2,7864.6,91.4806,55.7885,5.98213e+10,1.00954,0.965105,140,1.08766,142,0.01,2
app_39,118.095,20358.5,7686.6,271.968,51.9395,1.84298e+11,1.0164,0.965105,148,3.54419,132,0.01,2
app_4,13.9057,19825.7,7777.6,193.962,484.472,1.61492e+11,1.00767,0.965105,16,0.333661,1201,0.1,1
app_40,48.897,20441.8,7682.4,228.727,109.523,1.48497e+11,1.02159,0.965105,70,1.34997,280,0.01,2
app_41,545.362,21301.2,7776.4,188.408,11.1726,9.25398e+10,1.01666,0.965105,684,8.41271,29,0.001,3
app_42,199.007,21166,7733,176.265,7.23497,7.86518e+10,1.02411,0.965105,1084,11.236,19,0.001,3
app_43,603.713,21832.6,7630.1,260.194,7.13994,1.18857e+11,1.0324,0.965105,1053,16.9796,19,0.001,3
app_44,95.7391,21154.7,7824.8,132.582,4.15427,4.92523e+10,1.016,0.965105,1874,12.3131,11,0.001,3
app_45,205.143,21658.2,7846.7,22.2072,6.83287,7.04459e+09,1.01862,0.965105,1155,1.00637,18,0.001,3
app_46,1524.92,23918.5,7853.6,98.3614,3.87982,5.1378e+10,1.01202,0.965105,1951,12.8445,11,0.001,3
app_47,283.699,21579,7549.2,244.285,6.95758,1.03196e+11,1.04542,0.965105,1071,14.7423,19,0.001,3
app_48,137.077,21608.1,7268.8,359.338,18.6719,1.69007e+11,1.07559,0.965105,388,8.89509,51,0.001,3
app_49,1136.99,22516.7,7708.2,175.792,5.97419,8.86702e+10,1.02605,0.965105,1308,14.7784,16,0.001,3
app_5,2.25546,19006.6,7813.15,109.653,975.435,7.46267e+10,1.01423,0.965105,8,0.0765267,2318,0.1,1
app_50,705.857,22045.9,7581.9,196.038,8.44705,8.64207e+10,1.04325,0.965105,886,9.6023,23,0.001,3
app_51,111.902,21561.4,7623.3,207.057,11.348,8.12776e+10,1.03834,0.965105,652,7.38887,31,0.001,3
app_52,2.67022,21084.1,7418.79,345.795,7.93552,1.49078e+11,1.0571,0.965105,934,21.2969,21,0.001,3
app_53,409.113,20749.6,7585.2,139.274,8.13656,5.18882e+10,1.04752,0.965105,950,5.76535,21,0.001,3
app_54,366.026,21907.3,7324.9,376.846,11.7961,1.68411e+11,1.06762,0.965105,629,14.0343,32,0.001,3
app_55,741.378,21636.3,7716.8,150.408,9.84644,5.95833e+10,1.02876,0.965105,773,5.95833,26,0.001,3
app_56,834.182,21967.3,7723.9,98.0585,7.76803,4.64914e+10,1.02955,0.965105,985,5.81142,21,0.001,3
app_57,388.324,21893.2,7549.29,273.668,7.04383,1.29572e+11,1.04182,0.965105,1071,18.5102,19,0.001,3
app_58,255.854,22036.2,7595.2,311.67,5.90482,1.29322e+11,1.03566,0.965105,1303,21.5537,16,0.001,3
app_59,286.897,21865.4,7527.8,385.693,7.03831,1.63435e+11,1.04014,0.965105,1080,21.4824,19,0.001,3
app_6,6.33945,20005.4,7815.9,151.059,521.574,1.10157e+11,1.00933,0.965105,15,0.211029,1302,0.1,1
app_60,563.423,21021.3,7837,12.9249,8.19931,5.84365e+09,1.02004,0.965105,966,0.730456,21,0.001,3
app_7,13.3441,18971.9,7882.7,70.1471,605.809,5.34225e+10,1.00805,0.965105,13,0.088156,1436,0.1,1
app_8,2.90212,18558.1,7825.6,92.6025,980.162,3.35436e+10,1.01792,0.965105,8,0.0341933,2270,0.1,1
app_9,9.19687,19523.4,7877.1,64.8246,717.199,2.12966e+10,1.01286,0.965105,11,0.0297023,1748,0.1,1
