app_id,start_app,end_app,effective_cpu,effective_io,effective_iter,total_bytes,stretch,utilization,Tcomp,Tio,iterations,priority,group_id
app_1,3.13616,17327.8,7693.5,306.5,1534.53,5.66545e+10,1.03224,0.944082,5,0.0369325,3331,1,1
app_10,0.0197516,16737.7,7596.4,403.6,3793.49,3.82622e+10,1.04785,0.944082,2,0.0100849,7948,1.00001,1.00001
app_11,1.38735,20656.2,7509.4,490.6,441.606,1.21304e+11,1.0484,0.944082,17,0.275065,1145,1.00001,1.00001
app_12,2.90438,19499.5,7684.3,315.7,479.159,7.28846e+10,1.0313,0.944082,16,0.15216,1173,1.00001,1.00001
app_13,3.73214,20074.4,7275.9,724.1,560.263,1.81942e+11,1.0727,0.944082,13,0.324896,1414,1.00001,1.00001
app_14,8.87437,18869.1,7702,298,700.427,6.81625e+10,1.02958,0.944082,11,0.0972362,1657,1.00001,1.00001
app_15,12.2657,20085.6,7834.2,165.8,459.267,3.7002e+10,1.01636,0.944082,17,0.0806145,1153,1.00002,1.00002
app_16,3.59883,17361.3,7195.4,804.6,2396.69,1.82512e+11,1.08432,0.944082,3,0.0761417,5217,1.00002,1.00002
app_17,2.85465,19324.8,7276.8,723.2,807.1,1.78041e+11,1.07313,0.944082,9,0.22062,1960,1.00002,1.00002
app_18,4.88917,18902.8,7777.3,222.7,709.328,4.68056e+10,1.02248,0.944082,11,0.0660164,1677,1.00002,1.00002
app_19,10.4684,20426.3,7356.9,643.1,736.641,1.58283e+11,1.06451,0.944082,10,0.214767,1886,1.00002,1.00002
app_2,0.62556,18192.8,7684.7,315.3,1535.45,6.07019e+10,1.03287,0.944082,5,0.0395195,3495,1,1
app_20,9.4017,20166.5,7567.4,432.6,840.789,9.8922e+10,1.04353,0.944082,9,0.117624,2123,1.00002,1.00002
app_21,25.2993,21186.9,7292.7,707.3,170.165,1.84802e+11,1.06988,0.944082,43,1.08707,453,1.00002,1.00002
app_22,129.395,20712.7,7515.6,484.4,53.3821,1.25066e+11,1.04703,0.944082,142,2.35974,138,1.00002,1.00002
app_23,10.3708,20771.1,7540.5,459.5,137.942,1.12666e+11,1.04532,0.944082,55,0.816421,358,1.00002,1.00002
app_24,79.1765,20481.4,7807.9,192.1,65.8949,4.33494e+10,1.01895,0.944082,118,0.656809,169,1.00002,1.00002
app_25,44.9196,21137.6,7282.9,717.1,151.58,1.82624e+11,1.07159,0.944082,48,1.20943,404,1.00003,1.00003
app_26,7.45335,20362.5,7760.1,239.9,88.1241,5.78388e+10,1.02329,0.944082,87,0.657259,227,1.00003,1.00003
app_27,15.3954,20765.4,7423.1,576.9,66.4191,1.50365e+11,1.05632,0.944082,113,2.24426,173,1.00003,1.00003
app_28,103.728,20459.1,7817.4,182.6,57.2023,4.99933e+10,1.01686,0.944082,136,0.877076,146,1.00003,1.00003
app_29,0.775415,13744.7,6763.06,981.6,6766.84,1.6731e+11,1.15434,0.944082,1,0.0247245,12030,1.00003,1.00003
app_3,1.93227,18530.1,7619.4,380.6,3805.82,2.01532e+09,1.04967,0.944082,2,0.000529512,8810,1,1
app_30,59.6451,21198.7,7279.4,720.596,53.782,2.01341e+11,1.06941,0.944082,136,3.78249,143,1.00003,1.00003
app_31,2.57218,19956.6,7927.3,72.7,117.17,1.68595e+10,1.00703,0.944082,68,0.144098,292,1.00003,1.00003
app_32,2.70008,21197.5,7202.5,797.5,104.825,2.03454e+11,1.08021,0.944082,69,1.93766,279,1.00003,1.00003
app_33,8.42787,19971.9,7933.9,66.1,111.508,1.50927e+10,1.00642,0.944082,71,0.134756,278,1.00003,1.00003
app_34,27.598,20055.8,7873.3,126.7,188.578,3.03481e+10,1.01219,0.944082,42,0.160572,470,1.00003,1.00003
app_35,38.1506,21095.7,7307.5,692.5,101.66,1.66822e+11,1.07033,0.944082,72,1.63551,270,1.00004,1.00004
app_36,56.4679,20796.3,7531.7,468.3,67.97,1.28121e+11,1.04441,0.944082,111,1.88413,177,1.00004,1.00004
app_37,29.8876,21191.8,7266.1,733.9,133.751,1.96747e+11,1.07198,0.944082,54,1.46826,358,1.00004,1.00004
app_38,9.53068,21136.3,7362,638,38.7593,1.65626e+11,1.06275,0.944082,192,4.24682,102,1.00004,1.00004
app_39,57.9489,20485.2,7751.6,248.4,36.8702,6.70255e+10,1.0232,0.944082,211,1.86182,94,1.00004,1.00004
app_4,3.01412,20147.9,7540.4,459.6,1254.26,1.02648e+11,1.0467,0.944082,6,0.0818561,3173,1,1
app_40,30.9678,20696.8,7580.2,419.8,189.59,1.05495e+11,1.04089,0.944082,40,0.555238,492,1.00004,1.00004
app_41,553.291,21821.4,7479.8,520.2,9.334,1.47671e+11,1.04884,0.944082,837,14.7671,24,1.00004,1.00004
app_42,59.5885,20185.8,7965.8,34.2,14.1902,1.20382e+10,1.00278,0.944082,563,0.859874,36,1.00004,1.00004
app_43,580.763,20774.7,7895.4,104.6,9.10302,1.89284e+10,1.01082,0.944082,869,2.10315,23,1.00004,1.00004
app_44,1024.5,23716.4,7219.9,780.1,4.55107,1.87837e+11,1.07995,0.944082,1595,37.5673,13,1.00004,1.00004
app_45,475.31,21260.9,7693.4,306.6,8.90188,7.531e+10,1.02977,0.944082,868,8.36777,23,1.00004,1.00004
app_46,152.473,21278,7317.88,682.117,12.9662,1.80941e+11,1.06683,0.944082,574,14.2597,34,1.00005,1.00005
app_47,201.519,21488.3,7573,427,12.1395,9.86302e+10,1.0428,0.944082,636,8.21918,32,1.00005,1.00005
app_48,502.288,22099,7351.5,648.5,7.25291,1.64885e+11,1.06434,0.944082,989,23.555,20,1.00005,1.00005
app_49,977.737,21581.9,7855.8,144.2,5.47435,3.0193e+10,1.01446,0.944082,1473,6.0386,14,1.00005,1.00005
app_5,15.1703,20591.3,7611.3,388.7,475.968,9.24407e+10,1.03846,0.944082,16,0.194203,1230,1.00001,1.00001
app_50,108.61,21515.9,7606.4,393.6,7.82206,7.5314e+10,1.04143,0.944082,976,9.41425,21,1.00005,1.00005
app_51,414.97,21784,7407,593,15.8356,1.58253e+11,1.05747,0.944082,475,9.89082,42,1.00005,1.00005
app_52,1683.29,23347.3,7568.7,431.3,4.1573,1.37873e+11,1.03807,0.944082,1829,34.4684,11,1.00005,1.00005
app_53,97.9618,20375.6,7588.2,411.8,19.6383,9.3765e+10,1.0414,0.944082,399,4.68825,50,1.00005,1.00005
app_54,623.916,20942.7,7893.7,106.3,11.281,3.35568e+10,1.00918,0.944082,691,3.05062,29,1.00005,1.00005
app_55,87.0976,21477.8,7112.1,887.9,10.0814,1.82346e+11,1.09672,0.944082,698,18.2346,28,1.00005,1.00005
app_56,1439.6,23360.7,7812.4,187.6,4.85408,5.34454e+10,1.01706,0.944082,1612,10.6891,13,1.00006,1.00006
app_57,463.576,22502.6,7106.5,893.5,7.25428,1.63278e+11,1.10045,0.944082,931,23.3255,21,1.00006,1.00006
app_58,216.649,21364.3,7600.4,399.6,7.03204,9.1823e+10,1.04001,0.944082,1057,13.1176,19,1.00006,1.00006
app_59,784.14,22675.4,7519.9,480.1,4.0584,1.29692e+11,1.04581,0.944082,1834,32.423,11,1.00006,1.00006
app_6,2.56407,20288.3,7789.9,210.1,708.21,4.54283e+10,1.02102,0.944082,11,0.0641643,1804,1.00001,1.00001
app_60,1388.71,22005.8,7608.1,391.9,5.18913,1.23244e+11,1.03475,0.944082,1528,20.5406,13,1.00006,1.00006
app_7,2.31689,17254.8,7814.2,185.8,1563.7,2.36738e+10,1.02068,0.944082,5,0.0151464,3370,1.00001,1.00001
app_8,7.36165,20947.9,7448.1,551.9,531.848,1.38081e+11,1.05455,0.944082,14,0.259551,1398,1.00001,1.00001
app_9,6.5502,20151.5,7787.3,212.7,777.277,4.31105e+10,1.02166,0.944082,10,0.055412,1965,1.00001,1.00001
