app_id,start_app,end_app,effective_cpu,effective_io,effective_iter,total_bytes,stretch,utilization,Tcomp,Tio,iterations,priority,group_id
app_1,0.38355,26773.5,4971.28,147.94,828.055,1.01086e+11,1.57717,0.846334,6,0.121938,3106,1,1
app_10,6.78637,26188.2,5457.13,42.7821,544.996,1.07924e+10,1.46308,0.846334,10,0.0198026,1957,1,1
app_11,16.4894,24908.3,5883.9,170.096,345.002,1.5134e+11,1.32555,0.846334,17,0.438667,1129,1,1
app_12,8.98829,25943.8,5492.6,139.922,498.953,1.10491e+11,1.42778,0.846334,11,0.221424,1754,1,1
app_13,7.2337,24872.9,5599.4,136.662,466.459,1.10317e+11,1.40112,0.846334,12,0.236225,1543,1,1
app_14,10.3911,25737.7,5756.6,28.1543,411.28,2.33299e+09,1.38915,0.846334,14,0.0056626,1422,1,1
app_15,2.28771,25992.6,5442.6,159.158,543.726,1.30359e+11,1.4355,0.846334,10,0.240071,1915,1,1
app_16,1.26392,26580.6,4634.72,134.681,1159.53,8.73248e+10,1.69418,0.846334,4,0.07528,4406,1,1
app_17,2.06727,24489.1,5745.2,128.068,383.498,1.13771e+11,1.36543,0.846334,15,0.29628,1242,1,1
app_18,16.6556,25302.4,5826.8,160.773,343.924,1.40802e+11,1.34057,0.846334,17,0.409308,1148,1,1
app_19,1.6193,27243.5,4992.35,74.4028,832.126,2.76577e+10,1.59362,0.846334,6,0.0332026,3227,1,1
app_2,2.59346,24567.9,5849.9,153.057,324.165,1.32833e+11,1.33718,0.846334,18,0.409978,1046,1,1
app_20,8.6994,25417.4,5347.6,119.998,591.889,9.05812e+10,1.47108,0.846334,9,0.153009,2045,1,1
app_21,147.758,20955.6,7613.2,54.7901,42.3968,5.26356e+10,1.04359,0.846334,179,1.22408,111,1,1
app_22,61.914,21207.9,7491.7,55.9354,43.2952,5.35624e+10,1.06027,0.846334,173,1.21733,115,1,1
app_23,73.9071,21205,7515.8,20.1797,52.3441,1.71648e+10,1.062,0.846334,142,0.330091,140,1,1
app_24,43.2623,21039.5,7457.51,146.168,54.7727,1.42775e+11,1.05259,0.846334,135,2.61686,145,1,1
app_25,115.21,20882.1,7577.4,115.419,37.0507,1.13441e+11,1.0402,0.846334,206,3.06597,96,1,1
app_26,158.382,21355.1,7478.8,142.86,44.2272,1.39769e+11,1.05007,0.846334,168,3.10598,117,1,1
app_27,112.297,20829.9,7595.6,46.8304,46.6736,4.46159e+10,1.04709,0.846334,164,0.949275,121,1,1
app_28,4.75902,24810.3,5761.67,178.662,384.553,1.54724e+11,1.35218,0.846334,15,0.402451,1253,1,1
app_29,49.5827,21785.7,7201.9,62.9698,98.5757,5.89409e+10,1.1018,0.846334,73,0.595363,270,1,1
app_3,1.39722,25986.2,5394.32,80.3533,598.741,5.95683e+10,1.46684,0.846334,9,0.0996126,2125,1,1
app_30,48.9716,21781.5,7170.5,137.562,92.9617,1.32416e+11,1.09545,0.846334,77,1.42383,253,1,1
app_31,88.9486,21625.6,7359.9,8.56237,78.683,4.50442e+09,1.08631,0.846334,94,0.057018,211,1,1
app_32,33.9034,23209.2,6690.1,71.6842,181.396,6.13148e+10,1.18494,0.846334,37,0.336894,532,1,1
app_33,18.9519,21061,7545.1,14.388,51.2423,1.14646e+10,1.05868,0.846334,148,0.224796,135,1,1
app_34,37.0187,21700.8,7309.2,9.58337,78.825,6.56671e+09,1.09353,0.846334,92,0.0831229,217,1,1
app_35,40.5213,21877.1,7156.2,128.145,96.4819,1.24166e+11,1.09885,0.846334,74,1.28006,265,1,1
app_36,40.5678,22056.4,7038.1,161.104,108.449,1.55223e+11,1.11214,0.846334,65,1.43725,300,1,1
app_37,45.6722,22312.2,7093,55.3819,117.456,4.75203e+10,1.12037,0.846334,61,0.402715,325,1,1
app_38,6.66715,25095.4,5975,52.5387,314.975,3.3668e+10,1.33141,0.846334,19,0.106883,1041,1,1
app_39,50.2221,21914.2,7384.1,7.79071,91.2655,2.37721e+09,1.08306,0.846334,81,0.0258392,247,1,1
app_4,0.970201,25632.5,4993.7,139.436,833.017,8.74548e+10,1.57445,0.846334,6,0.104988,2946,1,1
app_40,10.7589,22164.7,6862.1,182.278,122.004,1.75641e+11,1.13673,0.846334,56,1.43968,345,1,1
app_41,1163.5,21496.5,7810.7,165.665,5.58436,1.65359e+11,1.003,0.846334,1440,33.0718,14,1,1
app_42,363.982,21315.3,7734,241.166,4.2975,2.40998e+11,1.00314,0.846334,1842,48.1996,11,1,1
app_43,391.015,21153.8,7756.3,168.54,7.66755,1.68254e+11,1.00952,0.846334,1001,21.0318,20,1,1
app_44,389.277,21022.8,7827.6,1.1362,8.65208,6.22732e+08,1.02194,0.846334,875,0.0691924,23,1,1
app_45,199.875,21426.7,7919.4,57.8064,6.20186,5.74938e+10,1.0029,0.846334,1313,9.5823,16,1,1
app_46,63.8724,20306,7660.9,196.962,15.6973,1.96093e+11,1.0182,0.846334,489,12.2558,40,1,1
app_47,544.302,20708.9,7856,60.6455,14.1548,5.97373e+10,1.01064,0.846334,556,3.98248,36,1,1
app_48,458.842,20738.9,7842.4,141.38,7.62457,1.41074e+11,1.00207,0.846334,1039,20.1534,19,1,1
app_49,1577.14,22746.4,7780.6,208.178,5.0453,2.07973e+11,1.00143,0.846334,1611,41.5946,13,1,1
app_5,6.3187,25575.3,5484.63,100.144,549.603,6.80044e+10,1.44076,0.846334,10,0.12387,1884,1,1
app_50,938.308,22026.1,7849.2,141.361,7.22281,1.41046e+11,1.00122,0.846334,1068,20.1495,19,1,1
app_51,199.402,20384.4,7798.5,141.2,13.2057,1.40356e+11,1.0077,0.846334,585,10.0255,34,1,1
app_52,832.263,21813.8,7848.7,109.235,8.86924,1.08891e+11,1.00533,0.846334,835,13.6114,24,1,1
app_53,794.43,21692.4,7757.1,164.685,9.49705,1.64172e+11,1.00994,0.846334,805,18.2414,25,1,1
app_54,988.399,21674.1,7926.5,15.979,5.68172,1.57222e+10,1.00727,0.846334,1354,2.62036,15,1,1
app_55,475.22,20901.1,7705.4,185.065,12.1304,1.84672e+11,1.01393,0.846334,636,15.3893,31,1,1
app_56,1067.29,21563.9,7837.9,122.194,5.95917,1.21982e+11,1.00504,0.846334,1322,20.3303,15,1,1
app_57,278.052,20911.3,7771.5,12.34,20.8415,1.11456e+10,1.02793,0.846334,375,0.530744,54,1,1
app_58,178.019,21169.7,7785.2,84.668,7.61327,8.41935e+10,1.0166,0.846334,1016,10.5242,20,1,1
app_59,138.689,20699.8,7785.9,25.2916,19.4339,2.46528e+10,1.02426,0.846334,405,1.29751,50,1,1
app_6,5.99496,26693.7,5232,142.247,652.048,1.16153e+11,1.49584,0.846334,8,0.178149,2416,1,1
app_60,269.36,20805.6,7747.9,142.901,7.64483,1.42566e+11,1.01388,0.846334,998,17.8207,20,1,1
app_7,2.96807,26644.4,4853.66,94.4854,973.774,4.13951e+10,1.6343,0.846334,5,0.0425001,3665,1,1
app_8,4.40429,25864.5,5145.1,84.2567,733.08,5.35973e+10,1.53885,0.846334,7,0.0731205,2618,1,1
app_9,0.906197,27506.4,4858.47,81.6545,968.839,2.75524e+10,1.63732,0.846334,5,0.0284338,3833,1,1
