app_id,start_app,end_app,effective_cpu,effective_io,effective_iter,total_bytes,stretch,utilization,Tcomp,Tio,iterations,priority,group_id
app_1,3.21273,19554.1,7775.9,224.1,485.102,5.04937e+10,1.02218,0.95026,16,0.104111,1187,1,1
app_10,2.07585,17615.5,7821.17,178.827,1302.27,2.71265e+10,1.01933,0.95026,6,0.0208243,2869,1.00001,1.00001
app_11,3.10595,20912.9,7384.45,615.554,921.681,1.54025e+11,1.06122,0.95026,8,0.167206,2422,1.00001,1.00001
app_12,0.849013,20631.7,7474.67,525.331,1068.43,1.25095e+11,1.05266,0.95026,7,0.117126,2761,1.00001,1.00001
app_13,3.38482,19462,7399.06,600.94,822.728,1.54427e+11,1.05911,0.95026,9,0.187808,2010,1.00001,1.00001
app_14,2.79709,19405.1,7722.2,277.8,1288.3,5.70098e+10,1.02838,0.95026,6,0.0442623,3130,1.00001,1.00001
app_15,2.38744,19567.8,7541.3,458.7,683.117,1.14875e+11,1.04491,0.95026,11,0.168191,1677,1.00002,1.00002
app_16,3.98496,20421.9,7493.5,506.5,1070.62,1.24271e+11,1.05018,0.95026,7,0.116141,2734,1.00002,1.00002
app_17,8.23527,21122.6,7301,698.998,458.112,1.86162e+11,1.0685,0.95026,16,0.406078,1212,1.00002,1.00002
app_18,6.06169,20029,7496.8,503.2,750.471,1.27288e+11,1.04931,0.95026,10,0.169718,1882,1.00002,1.00002
app_19,6.18891,18999,7755.1,244.9,1106.65,5.21368e+10,1.02469,0.95026,7,0.04714,2632,1.00002,1.00002
app_2,5.76947,20459.1,7477.7,522.3,679.674,1.32773e+11,1.05118,0.95026,11,0.195255,1744,1,1
app_20,3.53799,20513.3,7313.9,686.1,1830.36,1.6944e+11,1.06904,0.95026,4,0.0925902,4708,1.00002,1.00002
app_21,9.04574,20209,7780,220,339.542,5.41884e+10,1.02117,0.95026,23,0.159848,855,1.00002,1.00002
app_22,42.4495,20801.4,7511.09,488.912,69.8758,1.27898e+11,1.04726,0.95026,108,1.83355,182,1.00002,1.00002
app_23,59.6556,20988.5,7458.07,541.928,81.1253,1.58306e+11,1.05037,0.95026,92,1.93295,212,1.00002,1.00002
app_24,2.97667,20408.7,7338.1,661.9,610.776,1.73571e+11,1.06501,0.95026,12,0.284078,1567,1.00002,1.00002
app_25,25.5435,21032.1,7313,687,127.47,1.91734e+11,1.06599,0.95026,57,1.49792,337,1.00003,1.00003
app_26,9.00154,20430.4,7675,325,77.4346,8.19197e+10,1.03134,0.95026,100,1.05025,198,1.00003,1.00003
app_27,40.5325,20564.4,7620.2,379.8,70.0335,1.07378e+11,1.03525,0.95026,109,1.53397,180,1.00003,1.00003
app_28,27.1801,21085.6,7386,614,94.114,1.72949e+11,1.05835,0.95026,79,1.83988,247,1.00003,1.00003
app_29,28.2435,20791.3,7540.25,459.752,51.0672,1.21138e+11,1.0442,0.95026,147,2.33617,134,1.00003,1.00003
app_3,7.0548,18869.3,7754.9,245.1,859.121,5.3112e+10,1.02459,0.95026,9,0.0618301,2032,1,1
app_30,87.6433,20885.3,7694.8,305.2,41.1463,8.53484e+10,1.02826,0.95026,186,2.08167,107,1.00003,1.00003
app_31,41.0971,20085.7,7984.1,15.9,153.404,1.6127e+09,1.00179,0.95026,52,0.0105405,384,1.00003,1.00003
app_32,58.2585,21033.3,7413.8,586.2,118.924,1.57762e+11,1.05659,0.95026,62,1.32573,315,1.00003,1.00003
app_33,51.5281,20368.8,7777.77,222.229,68.1638,5.96709e+10,1.02074,0.95026,113,0.870058,175,1.00003,1.00003
app_34,4.17933,20998.2,7482.7,517.3,67.307,1.4092e+11,1.04937,0.95026,111,2.10328,177,1.00003,1.00003
app_35,105.383,21002.2,7539.3,460.7,59.3003,1.23364e+11,1.04402,0.95026,128,2.09091,154,1.00004,1.00004
app_36,0.945111,20307.1,7714.58,285.422,128.139,8.04685e+10,1.02629,0.95026,60,0.625725,327,1.00004,1.00004
app_37,26.6393,21189.2,7347.3,652.7,102.041,1.88717e+11,1.06157,0.95026,72,1.85017,271,1.00004,1.00004
app_38,79.3198,20473.5,7750.39,249.608,55.9066,6.04284e+10,1.02422,0.95026,140,1.08766,142,1.00004,1.00004
app_39,118.095,21174.4,7315.6,684.4,49.4668,1.73665e+11,1.0682,0.95026,148,3.54419,132,1.00004,1.00004
app_4,13.9057,20745.4,7417.4,582.6,461.405,1.54151e+11,1.05659,0.95026,16,0.333661,1201,1,1
app_40,48.897,20948.5,7478.16,521.844,107.407,1.44848e+11,1.04946,0.95026,70,1.34997,280,1.00004,1.00004
app_41,545.362,21280.8,7630.6,369.4,11.1952,9.25398e+10,1.03585,0.95026,684,8.41271,29,1.00004,1.00004
app_42,199.007,21207.9,7811.7,188.3,7.21307,7.86518e+10,1.0139,0.95026,1084,11.236,19,1.00004,1.00004
app_43,603.713,21937.5,7501.2,498.8,7.11704,1.18857e+11,1.04986,0.95026,1053,16.9796,19,1.00004,1.00004
app_44,95.7391,20771.3,7862.3,137.7,4.32022,4.92523e+10,1.01118,0.95026,1874,12.3131,11,1.00004,1.00004
app_45,205.143,21291.2,7967.9,32.1,6.79194,7.04459e+09,1.00314,0.95026,1155,1.00637,18,1.00004,1.00004
app_46,1524.92,23945.5,7864.3,135.7,3.74322,5.1378e+10,1.01065,0.95026,1951,12.8445,11,1.00005,1.00005
app_47,283.699,21589.5,7664.1,335.9,6.87753,1.03196e+11,1.02996,0.95026,1071,14.7423,19,1.00005,1.00005
app_48,137.077,21491.6,7395.95,604.049,19.1393,1.77114e+11,1.05638,0.95026,388,8.89509,51,1.00005,1.00005
app_49,1136.99,22644.6,7652,348,5.88293,8.86702e+10,1.0335,0.95026,1308,14.7784,16,1.00005,1.00005
app_5,2.25546,19290.4,7678,322,960.226,7.34657e+10,1.03206,0.95026,8,0.0765267,2318,1.00001,1.00001
app_50,705.857,22225.6,7669.6,330.4,8.61273,8.64207e+10,1.03146,0.95026,886,9.6023,23,1.00005,1.00005
app_51,111.902,21190.1,7640.1,359.9,11.9639,8.86665e+10,1.03509,0.95026,652,7.38887,31,1.00005,1.00005
app_52,2.67022,21136.6,7561.9,438.1,7.87432,1.49078e+11,1.03748,0.95026,934,21.2969,21,1.00005,1.00005
app_53,409.113,21048.2,7803.1,196.9,8.30304,5.18882e+10,1.01846,0.95026,950,5.76535,21,1.00005,1.00005
app_54,366.026,22005.1,7333.1,666.9,11.8722,1.68411e+11,1.06645,0.95026,629,14.0343,32,1.00005,1.00005
app_55,741.378,21244.7,7730.9,269.1,9.95593,5.95833e+10,1.02689,0.95026,773,5.95833,26,1.00005,1.00005
app_56,834.182,21868.2,7818.7,181.3,8.15047,4.64914e+10,1.01714,0.95026,985,5.81142,21,1.00006,1.00006
app_57,388.324,22113.7,7402.7,597.3,6.95953,1.29572e+11,1.0621,0.95026,1071,18.5102,19,1.00006,1.00006
app_58,255.854,21969.7,7545.4,454.6,5.9119,1.29322e+11,1.04238,0.95026,1303,21.5537,16,1.00006,1.00006
app_59,286.897,22656.6,7303.2,696.8,6.79067,1.50377e+11,1.07331,0.95026,1080,21.4824,19,1.00006,1.00006
app_6,6.33945,20648.9,7584.9,415.1,501.594,1.05936e+11,1.0402,0.95026,15,0.211029,1302,1.00001,1.00001
app_60,563.423,20779.6,7973.2,26.8,8.49901,6.5741e+09,1.00253,0.95026,966,0.730456,21,1.00006,1.00006
app_7,13.3441,19245.7,7781.6,218.4,596.639,5.26291e+10,1.02116,0.95026,13,0.088156,1436,1.00001,1.00001
app_8,2.90212,18588,7817.7,182.3,975.266,3.33385e+10,1.01897,0.95026,8,0.0341933,2270,1.00001,1.00001
app_9,9.19687,19540.5,7881.6,118.4,715.743,2.12669e+10,1.01229,0.95026,11,0.0297023,1748,1.00001,1.00001
