app_id,start_app,end_app,effective_cpu,effective_io,effective_iter,total_bytes,stretch,utilization,Tcomp,Tio,iterations,priority,group_id
app_1,13.5649,22759.4,6308.8,196.399,419.153,1.73046e+11,1.23422,0.886458,15,0.412015,1222,1,1
app_10,7.78892,23848.7,6290.92,138.22,448.592,1.16565e+11,1.24854,0.886458,14,0.259839,1386,1,1
app_11,8.15887,23175.2,5972.4,175.177,597.461,1.42342e+11,1.30831,0.886458,10,0.238429,1789,1,1
app_12,10.0641,23526,6257,136.404,446.261,1.13457e+11,1.2558,0.886458,14,0.254388,1364,1,1
app_13,11.3056,24021.2,6123.8,184.895,509.93,1.54847e+11,1.27416,0.886458,12,0.303622,1591,1,1
app_14,3.53347,25302.3,5825.5,78.7601,729.527,4.36753e+10,1.36305,0.886458,8,0.0599113,2466,1,1
app_15,1.80946,25366,5710,109.551,817.635,7.71104e+10,1.38238,0.886458,7,0.094267,2767,1,1
app_16,8.41075,22474.8,6697.5,37.6501,319.362,2.25859e+10,1.19046,0.886458,21,0.0708023,912,1,1
app_17,0.659374,23158.1,6205.1,193.184,479.752,1.68792e+11,1.25512,0.886458,13,0.35165,1420,1,1
app_18,1.67662,23843.7,6399.9,38.7674,426.504,1.6237e+10,1.24686,0.886458,15,0.0380257,1318,1,1
app_19,8.02234,22947.9,6244.9,96.4915,480.209,7.2963e+10,1.26625,0.886458,13,0.152006,1418,1,1
app_2,5.69959,22934.1,6073.2,202.534,553.325,1.68884e+11,1.28162,0.886458,11,0.305395,1628,1,1
app_20,1.05684,25076,5776.9,140.29,719.217,1.03563e+11,1.36044,0.886458,8,0.144037,2410,1,1
app_21,54.2324,21303.6,7330.3,109.462,112.898,1.02566e+11,1.0763,0.886458,65,0.907662,303,1,1
app_22,100.734,20900.4,7546.3,162.783,66.8329,1.6017e+11,1.03809,0.886458,113,2.3906,173,1,1
app_23,8.502,24138.8,6153.69,155.541,512.034,1.29624e+11,1.27321,0.886458,12,0.252679,1608,1,1
app_24,138.341,20784.5,7740.4,9.06455,55.4622,5.94345e+09,1.03275,0.886458,138,0.106133,144,1,1
app_25,3.63781,23515,5944.8,107.953,658.967,6.7697e+10,1.33056,0.886458,9,0.102727,2014,1,1
app_26,27.8563,21366.9,7450.4,26.3142,113.918,2.07566e+10,1.07078,0.886458,65,0.182075,307,1,1
app_27,107.325,20610.3,7630.7,115.195,60.4543,1.12515e+11,1.03316,0.886458,127,1.87526,155,1,1
app_28,9.56157,20553,7627.1,121.548,50.3066,1.19742e+11,1.03268,0.886458,151,2.39485,131,1,1
app_29,143.555,20557.9,7695.1,88.1972,40.066,8.60307e+10,1.02813,0.886458,194,2.15077,102,1,1
app_3,2.54147,25220.7,5522.6,120.34,919.026,8.66474e+10,1.42622,0.886458,6,0.0942844,3119,1,1
app_30,31.7663,20474.9,7685.6,78.3274,55.4949,7.61456e+10,1.0307,0.886458,138,1.38447,143,1,1
app_31,38.3899,21428.1,7214.8,157.432,138.975,1.52025e+11,1.08595,0.886458,52,1.0937,373,1,1
app_32,131.001,20534,7768.9,46.0411,45.7479,4.40929e+10,1.02394,0.886458,170,0.95854,117,1,1
app_33,66.3839,21072.2,7515.9,135.796,74.6253,1.32541e+11,1.04596,0.886458,101,1.76721,195,1,1
app_34,28.5776,20885.8,7521.8,114.205,82.4942,1.10408e+11,1.04819,0.886458,91,1.34644,215,1,1
app_35,37.924,21830.3,7120.5,101.665,161.954,9.44236e+10,1.10881,0.886458,44,0.582862,447,1,1
app_36,3.40701,23516.4,6443.4,149.59,377.688,1.29607e+11,1.2171,0.886458,17,0.342877,1146,1,1
app_37,8.86425,20732.1,7440,192.561,86.4976,1.89006e+11,1.04863,0.886458,86,2.17249,226,1,1
app_38,36.1576,20909.2,7379.3,190.875,85.956,1.87107e+11,1.05731,0.886458,86,2.17566,225,1,1
app_39,34.9334,20984.1,7503.9,63.2032,90.9861,5.89043e+10,1.05781,0.886458,82,0.6473,240,1,1
app_4,7.14122,24206.6,5730.3,95.3488,819.589,5.8582e+10,1.38196,0.886458,7,0.0714415,2615,1,1
app_40,0.797696,20722,7452.3,170.296,86.7623,1.65939e+11,1.05011,0.886458,86,1.92953,225,1,1
app_41,211.249,21396.9,7830.5,114.849,6.71741,1.14372e+11,1.00694,0.886458,1134,16.3389,18,1,1
app_42,86.0894,20441.3,7684.7,184.695,39.8541,1.82937e+11,1.01682,0.886458,191,4.57342,102,1,1
app_43,243.633,20627.6,7893.2,103.686,8.41421,1.03217e+11,1.00045,0.886458,896,12.9021,22,1,1
app_44,500.864,20822,7924.3,6.89308,12.9696,6.38597e+09,1.00874,0.886458,617,0.491229,33,1,1
app_45,896.782,21489.7,7791.4,162.932,7.51238,1.6254e+11,1.00579,0.886458,1074,23.22,19,1,1
app_46,66.7584,21024.2,7937.7,43.0048,7.72015,4.2569e+10,1.00247,0.886458,1046,5.32112,20,1,1
app_47,924.607,22113.9,7911.8,9.83623,7.21432,9.48366e+09,1.00994,0.886458,1098,1.35481,19,1,1
app_48,766.271,21669.6,7920.9,41.4769,10.4244,4.10189e+10,1.00478,0.886458,764,3.729,27,1,1
app_49,61.6896,20597.2,7923.1,6.61825,10.3834,6.04294e+09,1.00894,0.886458,751,0.549359,27,1,1
app_5,6.37198,24498.4,6022.3,142.83,602.843,1.20062e+11,1.30243,0.886458,10,0.199108,1926,1,1
app_50,236.031,20401.8,7934.3,63.7293,6.7797,6.33963e+10,1.00029,0.886458,1181,9.05661,17,1,1
app_51,404.466,20812.8,7756.4,200.084,8.68349,1.99771e+11,1.00551,0.886458,914,22.1968,22,1,1
app_52,56.5566,20883.7,7933.9,50.9728,8.6804,5.07083e+10,1.00193,0.886458,892,5.63426,23,1,1
app_53,740.378,21549.4,7919.6,31.6875,10.2093,3.11352e+10,1.0062,0.886458,788,3.11352,26,1,1
app_54,21.4299,20638.5,7913.5,21.0981,11.7201,2.06777e+10,1.0083,0.886458,662,1.87979,31,1,1
app_55,1023.91,21183.7,7973.6,17.5367,5.96628,1.73233e+10,1.00114,0.886458,1331,2.88721,15,1,1
app_56,216.267,21307.1,7940.3,6.59102,5.4125,6.25337e+09,1.00673,0.886458,1421,1.25067,15,1,1
app_57,457.906,20748.1,7741.7,164.245,13.0137,1.63503e+11,1.01199,0.886458,599,12.5772,33,1,1
app_58,552.867,20776.3,7830.9,131.25,5.63262,1.30986e+11,1.00479,0.886458,1458,21.8309,14,1,1
app_59,898.892,21517.3,7864.8,110.988,5.08818,1.10732e+11,1.00307,0.886458,1583,22.1465,13,1,1
app_6,5.38013,23251.6,5761.8,188.97,721.97,1.45496e+11,1.35426,0.886458,8,0.201518,2180,1,1
app_60,218.431,20343.7,7751.7,156.851,31.2696,1.55036e+11,1.0118,0.886458,252,5.00116,78,1,1
app_7,5.84234,23146.1,6430.7,51.8815,400.475,3.57207e+10,1.23716,0.886458,16,0.0893018,1191,1,1
app_8,10.2808,23840.4,6426.8,113.776,400.793,9.14737e+10,1.22732,0.886458,16,0.228684,1228,1,1
app_9,9.13238,24156.8,6175.9,121.209,514.022,1.01603e+11,1.27439,0.886458,12,0.197671,1616,1,1
