app_id,start_app,end_app,effective_cpu,effective_io,effective_iter,total_bytes,stretch,utilization,Tcomp,Tio,iterations,priority,group_id
app_1,6.75839,18359.8,7547.4,452.6,1077,1.03578e+11,1.04562,0.943795,7,0.096173,2480,1,1
app_10,1.15177,13285,6295.98,989,6294.38,1.73551e+11,1.23657,0.943795,1,0.0275697,11520,1.00001,1.00001
app_11,3.33127,20902.5,7315.3,684.7,488.362,1.71047e+11,1.06861,0.943795,15,0.349788,1288,1.00001,1.00001
app_12,7.34818,20393.4,7415.3,584.7,435.433,1.45127e+11,1.05814,0.943795,17,0.332859,1116,1.00001,1.00001
app_13,6.84224,20388.1,7303.4,696.6,610.779,1.73956e+11,1.0699,0.943795,12,0.284706,1564,1.00001,1.00001
app_14,1.25367,16137.5,7676.5,323.5,2560.34,4.30735e+10,1.03633,0.943795,3,0.0168256,5166,1.00001,1.00001
app_15,6.17494,20502,7577.4,422.6,503.834,1.00512e+11,1.04195,0.943795,15,0.199429,1297,1.00002,1.00002
app_16,1.10868,18826.9,7604,396,1522.03,7.72671e+10,1.04149,0.943795,5,0.0507668,3589,1.00002,1.00002
app_17,1.20309,19239.4,7430.3,569.7,826.634,1.3474e+11,1.0575,0.943795,9,0.162926,1996,1.00002,1.00002
app_18,1.48401,18335,7378.2,621.8,1227.93,1.40878e+11,1.06396,0.943795,6,0.114721,2829,1.00002,1.00002
app_19,5.05589,18950.8,7213,787,1202.87,1.8755e+11,1.081,0.943795,6,0.155902,2866,1.00002,1.00002
app_2,10.2573,19959.9,7350.9,649.1,612.022,1.59351e+11,1.06521,0.943795,12,0.260377,1537,1,1
app_20,1.66536,20782.5,7478.4,521.6,1870.42,1.08553e+11,1.05444,0.943795,4,0.0580499,4879,1.00002,1.00002
app_21,42.421,20833.1,7631.8,368.2,44.7693,1.01704e+11,1.03446,0.943795,167,2.31145,118,1.00002,1.00002
app_22,7.14568,20606.2,7635.1,364.9,95.5063,9.18763e+10,1.03533,0.943795,80,0.957045,246,1.00002,1.00002
app_23,31.2599,20697.1,7472.5,527.5,104.673,1.4237e+11,1.05058,0.943795,71,1.36894,274,1.00002,1.00002
app_24,75.1885,20539.1,7686.6,313.4,101.639,7.4792e+10,1.03074,0.943795,76,0.733255,260,1.00002,1.00002
app_25,4.17159,20602,7351.54,648.459,272.307,1.60702e+11,1.06493,0.943795,27,0.589456,706,1.00003,1.00003
app_26,78.1078,19991.5,7970.6,29.4,76.0679,6.82853e+09,1.00283,0.943795,105,0.089849,189,1.00003,1.00003
app_27,19.2967,21243.9,7303.6,696.4,120.857,1.85504e+11,1.06822,0.943795,60,1.53309,325,1.00003,1.00003
app_28,8.94451,19839.5,7500.4,499.6,439.201,1.22257e+11,1.0495,0.943795,17,0.278489,1095,1.00003,1.00003
app_29,21.726,19702.2,7972.6,27.4,274.234,6.67583e+08,1.00335,0.943795,29,0.00243644,676,1.00003,1.00003
app_3,13.9002,20957.4,7366.6,633.4,433.917,1.59423e+11,1.06298,0.943795,17,0.367334,1145,1,1
app_30,30.3101,21228.7,7265.2,734.8,61.2385,1.8255e+11,1.07415,0.943795,120,2.99262,163,1.00003,1.00003
app_31,24.5966,20473.3,7552.6,447.4,113.64,1.17906e+11,1.04296,0.943795,67,1.03426,291,1.00003,1.00003
app_32,185.854,21368,7382.4,617.6,36.2955,1.37544e+11,1.06384,0.943795,204,3.71741,97,1.00003,1.00003
app_33,38.1779,20583.1,7689.3,310.7,78.5812,7.93865e+10,1.02978,0.943795,98,1.01778,202,1.00003,1.00003
app_34,55.2189,20846.5,7586.4,413.6,102.978,9.70272e+10,1.0412,0.943795,73,0.942011,271,1.00003,1.00003
app_35,102.557,21186.1,7358,642,58.134,1.65358e+11,1.06336,0.943795,127,2.85099,154,1.00004,1.00004
app_36,15.4425,19970.7,7979.3,20.7,70.6718,4.44392e+09,1.00204,0.943795,113,0.0625904,177,1.00004,1.00004
app_37,96.2001,20168,7928.94,71.0611,82.9143,1.64708e+10,1.00687,0.943795,96,0.198629,207,1.00004,1.00004
app_38,40.4766,20751.6,7528.5,471.5,104.997,1.20566e+11,1.04588,0.943795,72,1.14825,272,1.00004,1.00004
app_39,89.0154,21234,7266.5,733.5,47.9246,1.86675e+11,1.07337,0.943795,152,3.88906,128,1.00004,1.00004
app_4,0.300805,19937.3,7834,166,603.632,3.24489e+10,1.01698,0.943795,13,0.0537233,1504,1,1
app_40,43.3096,20674.2,7557.5,442.5,55.0767,1.06317e+11,1.04387,0.943795,138,1.93303,143,1.00004,1.00004
app_41,918.859,21260.3,7821.2,178.8,7.9199,4.16285e+10,1.01745,0.943795,1019,5.20356,20,1.00004,1.00004
app_42,251.819,20527.9,7985.5,14.5,18.969,2.90779e+09,1.00145,0.943795,421,0.153042,48,1.00004,1.00004
app_43,419,21818.3,7647.9,352.1,7.90951,9.01341e+10,1.03385,0.943795,928,11.2668,22,1.00004,1.00004
app_44,777.205,20895.6,7909.5,90.5,8.49027,2.06283e+10,1.00881,0.943795,952,2.57853,21,1.00004,1.00004
app_45,657.49,22196.3,7376.99,623.011,8.183,1.59172e+11,1.06155,0.943795,884,17.8678,23,1.00004,1.00004
app_46,301.987,20940.2,7519.3,480.7,17.07,1.21957e+11,1.04695,0.943795,440,7.17391,45,1.00005,1.00005
app_47,1981.57,23874.4,7637.9,362.1,3.60679,9.19942e+10,1.03494,0.943795,2149,22.9986,10,1.00005,1.00005
app_48,395.342,20947.9,7702.1,297.9,7.61669,6.44796e+10,1.03005,0.943795,1002,8.05995,20,1.00005,1.00005
app_49,725.78,21936.8,7536.9,463.1,6.86812,1.15881e+11,1.04537,0.943795,1142,16.5544,18,1.00005,1.00005
app_5,8.11739,19982.3,7686.2,313.8,852.707,6.83806e+10,1.03165,0.943795,9,0.0801648,2139,1.00001,1.00001
app_50,211.894,22317.7,7465.86,534.136,3.86022,1.35862e+11,1.05239,0.943795,1865,34.7178,11,1.00005,1.00005
app_51,673.689,21312.9,7965.8,34.2,8.83389,7.6095e+09,1.00333,0.943795,887,0.8455,23,1.00005,1.00005
app_52,405.73,20622.1,7952.4,47.6,11.0383,8.64608e+09,1.00489,0.943795,724,0.786007,28,1.00005,1.00005
app_53,393.023,21157.7,7358.3,641.7,8.35042,1.92429e+11,1.0595,0.943795,905,21.381,22,1.00005,1.00005
app_54,28.0387,21833.8,7401.26,598.743,8.09527,1.52075e+11,1.05914,0.943795,930,17.1505,22,1.00005,1.00005
app_55,351.163,21138.8,7755.3,244.7,16.8617,5.56217e+10,1.02421,0.943795,470,3.27187,43,1.00005,1.00005
app_56,612.07,22398.1,7182.1,817.9,11.3967,1.70016e+11,1.08812,0.943795,623,15.456,32,1.00006,1.00006
app_57,57.3893,21314.5,7366,634,21.5651,1.30641e+11,1.06714,0.943795,341,6.22099,58,1.00006,1.00006
app_58,184.218,20551,7816.6,183.4,28.5206,4.3937e+10,1.01774,0.943795,273,1.51507,73,1.00006,1.00006
app_59,847.963,21827.2,7731.7,268.3,7.56161,8.68707e+10,1.0232,0.943795,1022,12.4101,20,1.00006,1.00006
app_6,6.76982,20498.9,7311.4,688.6,561.206,1.71373e+11,1.06912,0.943795,13,0.305477,1451,1.00001,1.00001
app_60,826.697,20884.8,7990.3,9.7,7.22466,3.57916e+09,1.00077,0.943795,1139,0.511308,18,1.00006,1.00006
app_7,3.91067,20267,7505.6,494.4,837.157,1.16481e+11,1.04958,0.943795,9,0.139165,2124,1.00001,1.00001
app_8,10.0771,19945.9,7607.2,392.8,584.313,9.07033e+10,1.03924,0.943795,13,0.155314,1461,1.00001,1.00001
app_9,11.8919,20390.6,7382,618,370.208,1.57033e+11,1.06114,0.943795,20,0.424415,947,1.00001,1.00001
