app_id,start_app,end_app,effective_cpu,effective_io,effective_iter,total_bytes,stretch,utilization,Tcomp,Tio,iterations,priority,group_id
app_1,0.834849,24188.2,6088.14,25.8187,378.486,2.93153e+09,1.3134,0.858247,16,0.00775536,1207,1,1
app_10,11.5039,24880.9,5889.39,120.835,420.263,9.77602e+10,1.33619,0.858247,14,0.232762,1387,1,1
app_11,8.23408,24421.1,5475.17,162.166,608.688,1.23919e+11,1.4288,0.858247,9,0.203815,1970,1,1
app_12,10.3502,24387.9,5734.14,135.873,479.04,1.08581e+11,1.36923,0.858247,12,0.226682,1542,1,1
app_13,4.22515,27595.6,4927,73.56,985.852,1.67874e+10,1.61819,0.858247,5,0.0170258,3884,1,1
app_14,0.943974,25194.9,5206.32,198.569,743.593,1.5286e+11,1.49277,0.858247,7,0.205733,2533,1,1
app_15,0.720206,24587.5,3324.38,247.373,3325.25,2.55429e+10,2.38811,0.858247,1,0.00768209,11767,1,1
app_16,3.47893,24793.8,5960.5,86.8315,398.394,6.84668e+10,1.32693,0.858247,15,0.172027,1302,1,1
app_17,2.59896,23956.8,5825.36,125.775,448.173,1.00501e+11,1.35002,0.858247,13,0.224333,1409,1,1
app_18,6.10307,24162.8,5882.67,37.8118,450.298,1.4348e+10,1.35662,0.858247,13,0.0318844,1442,1,1
app_19,5.24824,24869.1,5747.07,128.848,478.324,1.00157e+11,1.36817,0.858247,12,0.209534,1582,1,1
app_2,2.59648,24559.8,5843.04,138.216,449.596,1.16294e+11,1.34243,0.858247,13,0.259006,1458,1,1
app_20,6.30337,25241.8,5540.26,64.4804,615.835,3.43788e+10,1.43507,0.858247,9,0.0559005,2087,1,1
app_21,73.1969,21219.3,7339.95,118.213,70.4674,1.14571e+11,1.07317,0.858247,104,1.63673,189,1,1
app_22,76.987,20905.2,7784.9,17.2107,37.5,1.4904e+10,1.02567,0.858247,202,0.402811,99,1,1
app_23,147.622,21025.4,7533.9,151.454,48.7373,1.49326e+11,1.04123,0.858247,155,3.04746,127,1,1
app_24,0.538449,25102.7,4647,147.843,1163.99,1.02782e+11,1.68429,0.858247,4,0.0883008,4065,1,1
app_25,13.7747,22442.3,6811.14,89.33,175.901,8.01907e+10,1.16088,0.858247,39,0.455815,501,1,1
app_26,89.3521,21250.2,7466.8,76.608,62.8618,7.37924e+10,1.06092,0.858247,119,1.17131,167,1,1
app_27,67.7539,20907.4,7576.9,10.4015,49.1947,7.67293e+09,1.05477,0.858247,155,0.15659,129,1,1
app_28,61.6286,20673.6,7507.1,207.916,47.9232,2.05856e+11,1.03722,0.858247,158,4.28867,123,1,1
app_29,46.0483,21495.4,7334.4,90.1492,108.987,8.57382e+10,1.07815,0.858247,67,0.786589,291,1,1
app_3,10.036,24898.5,5842.05,90.137,447.21,6.70871e+10,1.35384,0.858247,13,0.150083,1485,1,1
app_30,115.227,20684.7,7546.3,191.999,36.5458,1.90282e+11,1.03405,0.858247,205,5.28562,95,1,1
app_31,0.0183301,21793.4,7074.24,191.391,117.702,1.86557e+11,1.10181,0.858247,60,1.5945,324,1,1
app_32,38.7083,22313.7,6978.41,43.2027,157.158,3.43164e+10,1.14078,0.858247,44,0.218576,445,1,1
app_33,77.3336,21073.9,7306.5,196.424,76.5798,1.92431e+11,1.06682,0.858247,96,2.53199,202,1,1
app_34,53.3872,20656.5,7613.9,166.215,37.9435,1.64012e+11,1.02855,0.858247,201,4.31611,98,1,1
app_35,45.4703,21266.4,7314.1,57.8853,82.9353,5.32404e+10,1.08587,0.858247,88,0.641451,225,1,1
app_36,120.445,20663.9,7585.9,77.1794,44.7225,7.46771e+10,1.04431,0.858247,173,1.65949,114,1,1
app_37,13.8011,20520.6,7713.8,78.305,37.0171,7.67242e+10,1.02689,0.858247,207,2.07363,96,1,1
app_38,60.4055,22019.9,7129.58,109.856,113.287,1.03245e+11,1.10607,0.858247,63,0.913671,313,1,1
app_39,67.6177,21070.4,7530.8,174.981,44.2558,1.72688e+11,1.03849,0.858247,169,3.92472,116,1,1
app_4,7.96948,24540.5,5874.45,177.801,417.327,1.59579e+11,1.32581,0.858247,14,0.382683,1352,1,1
app_40,51.8038,21216.6,7455.79,26.6511,69.6851,2.26508e+10,1.06974,0.858247,106,0.328272,188,1,1
app_41,922.233,21419.3,7897.3,9.17498,7.77974,8.83781e+09,1.01187,0.858247,1007,1.10473,20,1,1
app_42,385.377,20136.6,7882.5,51.8864,7.41125,5.15495e+10,1.00831,0.858247,1105,6.44368,18,1,1
app_43,242.976,21711.5,7887.4,73.0109,4.47461,7.2815e+10,1.005,0.858247,1780,18.2037,12,1,1
app_44,458.578,21639.2,7852.8,104.918,6.72451,1.04416e+11,1.00538,0.858247,1148,14.9166,18,1,1
app_45,750.196,21863.7,7878.6,75.4837,6.38798,7.52138e+10,1.00581,0.858247,1228,12.5356,17,1,1
app_46,51.4604,20863.6,7688.6,193.804,12.0782,1.93054e+11,1.01502,0.858247,648,14.8503,31,1,1
app_47,230.639,20649.3,7824.4,112.194,5.85541,1.11954e+11,1.00802,0.858247,1356,18.659,15,1,1
app_48,134.936,21006,7962.4,20.8925,6.55732,2.04513e+10,1.00215,0.858247,1225,2.92162,17,1,1
app_49,1297.44,21949.4,7758.1,163.176,4.64555,1.62967e+11,1.00996,0.858247,1685,32.5934,12,1,1
app_5,3.96662,25749.3,4864.08,185.696,972.941,1.32077e+11,1.60123,0.858247,5,0.135882,3480,1,1
app_50,478.951,20413.6,7871.2,71.5457,12.6802,7.08563e+10,1.0073,0.858247,622,5.90469,32,1,1
app_51,180.314,20898.7,7654.7,43.6335,35.7899,4.18362e+10,1.03943,0.858247,215,1.16212,93,1,1
app_52,1038.79,21725.1,7919.9,45.6399,5.43862,4.54341e+10,1.00435,0.858247,1477,9.08681,14,1,1
app_53,240.698,21062.2,7834.7,83.4941,5.72114,8.3225e+10,1.01037,0.858247,1361,16.645,15,1,1
app_54,98.2703,21449,7827.5,135.735,4.99265,1.3543e+11,1.00466,0.858247,1554,27.086,13,1,1
app_55,193.204,20668.4,7759.6,15.6426,31.0044,1.39635e+10,1.02913,0.858247,249,0.450434,80,1,1
app_56,190.375,20996.9,7773.3,198.137,10.0596,1.97716e+11,1.00364,0.858247,777,19.7716,26,1,1
app_57,1103.93,21675.1,7860.9,114.716,6.52866,1.14394e+11,1.0031,0.858247,1179,19.0656,17,1,1
app_58,484.626,21012.9,7913.5,23.5953,13.6463,2.28547e+10,1.00802,0.858247,585,1.63248,35,1,1
app_59,234.545,20593.7,7764.9,145.384,10.9418,1.45006e+11,1.01139,0.858247,711,13.1824,28,1,1
app_6,5.86838,25216.1,5614.9,119.566,563.111,9.19647e+10,1.40182,0.858247,10,0.163348,1888,1,1
app_60,20.6122,21104.6,7697.8,155.021,18.1959,1.54345e+11,1.01883,0.858247,408,8.5747,49,1,1
app_7,0.193981,25371.7,5645.72,58.77,566.073,3.13386e+10,1.40918,0.858247,10,0.0553685,1917,1,1
app_8,14.5769,24034.1,6031.29,177.915,353.576,1.60296e+11,1.29208,0.858247,17,0.454098,1110,1,1
app_9,1.92555,25152.2,4881.01,172.383,973.145,1.16196e+11,1.60089,0.858247,5,0.119421,3356,1,1
