app_id,Tcomp,Tio,iter,witer,alpha_io,compute_size,io_size,mu,desyn_time
1,7.494456772945827,0.3097007853368515,2563,7.804157558282679,0.03968407647128563,7e9,309700785.33685154,10,7.802683166884563
2,13.844491702716793,0.22854249860624506,1422,14.073034201323038,0.01623974583851713,13e9,228542498.60624507,10,1.7710769911704651
3,11.021460121676755,0.17068626775099552,1787,11.192146389427752,0.015250539245289716,11e9,170686267.75099552,10,4.15221350887709
4,11.577794791733488,0.8935303867436633,1604,12.471325178477151,0.07164678764737097,11e9,893530386.7436633,10,9.956292897445737
5,9.57336368108821,0.6904621701318441,1949,10.263825851220055,0.06727142297038967,9e9,690462170.131844,10,6.401215096167609
6,92.36448328735067,11.011067833704818,194,103.37555112105548,0.10651520320129243,92e9,11011067833.704819,100,70.12850930231943
7,150.52781921531005,2.4824408263851465,131,153.0102600416952,0.016224015472613946,150e9,2482440826.3851466,100,53.53138549006299
8,133.68103328897794,7.663402797228614,142,141.34443608620657,0.05421793039348696,133e9,7663402797.228614,100,10.731649714781508
9,116.1361642460126,1.0840289047717528,171,117.22019315078435,0.00924780002177039,116e9,1084028904.7717528,100,8.59224202719357
10,109.32239298637575,8.407123604517867,170,117.72951659089361,0.07141049966027091,109e9,8407123604.517867,100,90.5118038703061
11,968.837714502146,24.550337136322565,21,993.3880516384686,0.0247137431297164,968e9,24550337136.322563,1000,516.9440861383803
12,781.0873442118364,91.7130087815316,23,872.8003529933679,0.10507902347540468,781e9,91713008781.5316,1000,61.87207062103919
13,1218.4045736193448,89.02036512598347,16,1307.4249387453283,0.06808831810368553,1218e9,89020365125.98347,1000,1164.2062405736963
14,797.4796356685466,16.321158921415503,25,813.8007945899622,0.020055471842638103,797e9,16321158921.415503,1000,658.9738921789756
15,845.3004055896151,109.1461377413479,21,954.446543330963,0.11435542252626765,845e9,109146137741.3479,1000,85.58134655073067
