app_id,Tcomp,Tio,iter,witer,alpha_io,compute_size,io_size,mu,desyn_time
1,6.869616010192052,0.24272790603621147,2813,7.112343916228264,0.03412769529920765,6e9,242727906.03621146,10,3.244583582977422
2,6.699250548585115,0.7145724986765467,2698,7.413823047261662,0.09638380820816571,6e9,714572498.6765467,10,1.6491595639547316
3,9.931374709395095,0.47682956983283104,1922,10.408204279227926,0.04581285657358389,9e9,476829569.832831,10,5.118174421691643
4,7.282453046688271,0.37994166387128014,2611,7.662394710559552,0.04958523780400953,7e9,379941663.87128013,10,3.3122487960365548
5,13.181256485679583,1.2916683348672577,1382,14.47292482054684,0.08924722202892323,13e9,1291668334.8672578,10,0.9644434143807512
6,141.0319491312014,12.515920130984199,131,153.5478692621856,0.08151151944422656,141e9,12515920130.9842,100,111.68094783378434
7,113.04279600476005,2.5645358921616066,173,115.60733189692165,0.022183159580641564,113e9,2564535892.161607,100,19.9677913011627
8,103.95813878751649,0.9619076036895868,191,104.92004639120607,0.009168005893773696,103e9,961907603.6895869,100,71.96591997128897
9,56.02124509677046,6.8791522797652,318,62.90039737653566,0.10936580000576271,56e9,6879152279.7652,100,60.42291011369665
10,70.89464710922928,3.8004532681406364,268,74.69510037736993,0.05087955232592531,70e9,3800453268.1406364,100,10.401043486873094
11,852.0028222910512,80.62717569134807,22,932.6299979823992,0.08645140716658535,852e9,80627175691.34807,1000,37.53161002333463
12,1141.8470436694859,29.350541450494834,18,1171.1975851199807,0.025060281735031144,1141e9,29350541450.494835,1000,1128.7390565513915
13,491.39812660318813,7.009017393692507,41,498.4071439968806,0.014062834929461554,491e9,7009017393.692507,1000,490.16382615673746
14,1117.3141551655206,45.200154535110414,18,1162.514309700631,0.03888137475636777,1117e9,45200154535.11041,1000,21.489847479150193
15,932.4101773004328,46.27132162922093,21,978.6814989296537,0.047279244248334205,932e9,46271321629.220924,1000,720.0268269210326
