app_id,Tcomp,Tio,iter,witer,alpha_io,compute_size,io_size,mu,desyn_time
1,4.583955312343029,0.5938985853031007,3863,5.17785389764613,0.11469975728227655,4e9,593898585.3031007,10,1.0455583720584936
2,7.849650624526352,0.054909660656191225,2531,7.904560285182543,0.006946580034201507,7e9,54909660.65619122,10,2.7303834391666286
3,7.761470994427685,0.2874079533617367,2485,8.048878947789422,0.03570782406171876,7e9,287407953.3617367,10,4.332506153692944
4,7.675330576518731,0.8660058508591524,2342,8.541336427377884,0.10138997078762868,7e9,866005850.8591524,10,5.678094460774568
5,12.180232144040787,0.8960822368123805,1530,13.076314380853168,0.06852712551209826,12e9,896082236.8123806,10,6.420888123571517
6,149.94667055627687,11.446362391249487,124,161.39303294752636,0.07092228321262813,149e9,11446362391.249487,100,113.75838949657428
7,92.70551337054634,2.082754097999816,211,94.78826746854615,0.021972699297314848,92e9,2082754097.9998157,100,16.30194725872092
8,71.36396067204164,3.5321115521679354,268,74.89607222420958,0.047160170717553435,71e9,3532111552.1679354,100,62.38869179505919
9,91.94384330151544,2.595614019424817,212,94.53945732094026,0.02745535137369458,91e9,2595614019.424817,100,24.257593251446668
10,80.70808698476826,1.7056052728212503,243,82.4136922575895,0.020695654157688592,80e9,1705605272.8212502,100,42.565502358494214
11,900.2821648835918,14.834049537907534,22,915.1162144214993,0.01621001715862399,900e9,14834049537.907534,1000,860.6288919621926
12,1525.0410129812774,70.64478627437228,13,1595.6857992556497,0.044272366343879495,1525e9,70644786274.37228,1000,55.38202498706051
13,752.6924958347739,64.47474835566504,25,817.167244190439,0.07890030934798378,752e9,64474748355.66504,1000,441.725986295057
14,769.4739184254767,91.85202407665595,24,861.3259425021326,0.1066402618848654,769e9,91852024076.65594,1000,784.3221129930042
15,905.0827816092229,36.24060083091594,22,941.3233824401389,0.03849962882784394,905e9,36240600830.91594,1000,443.746865782258
