app_id,Tcomp,Tio,iter,witer,alpha_io,compute_size,io_size,mu,desyn_time
1,10.115232216787742,0.5562746888118391,1875,10.671506905599582,0.05212709823763963,10e9,556274688.8118391,10,1.6226679311915435
2,8.168392544243304,0.4047857248653305,2333,8.573178269108634,0.047215363096306716,8e9,404785724.86533046,10,2.4283138124604173
3,2.8799008704101796,0.24415865278902263,6402,3.124059523199202,0.07815428962729598,2e9,244158652.78902262,10,0.4256535794659595
4,8.078459093600406,0.6887217248996731,2282,8.76718081850008,0.07855680624795212,8e9,688721724.8996731,10,6.688088128098514
5,8.834617565377336,0.34311164680228273,2180,9.177729212179619,0.03738524409141912,8e9,343111646.80228275,10,8.241314299860463
6,124.13221246413755,4.897807176482592,156,129.03001964062014,0.03795866411649143,124e9,4897807176.482593,100,36.73803571604697
7,80.95041401523142,3.5468700966504816,237,84.4972841118819,0.04197614318531364,80e9,3546870096.6504817,100,45.854599599929614
8,81.80107354498463,6.165533715771884,228,87.96660726075652,0.07008947949414027,81e9,6165533715.771884,100,7.447470692861526
9,111.69734772018552,8.583404767580411,167,120.28075248776594,0.07136141560515638,111e9,8583404767.580412,100,100.08790901297813
10,112.65106677144504,6.607977370650087,168,119.25904414209514,0.055408605847761055,112e9,6607977370.650086,100,78.74210383729906
11,694.446770657778,54.006917084653104,27,748.453687742431,0.07215799450137624,694e9,54006917084.65311,1000,646.0352697717182
12,541.3451072598241,19.76389995702879,36,561.1090072168529,0.035222924071490795,541e9,19763899957.02879,1000,341.3046500965535
13,1108.1396110160779,56.82159934798403,18,1164.9612103640618,0.048775529041200194,1108e9,56821599347.984024,1000,97.06799791322489
14,759.6406037623311,57.9735268419877,25,817.6141306043188,0.0709057300650345,759e9,57973526841.9877,1000,688.7972886733265
15,1164.512489853428,3.158213865162985,18,1167.6707037185909,0.0027047127714219985,1164e9,3158213865.1629853,1000,1140.5340730806276
