app_id,Tcomp,Tio,iter,witer,alpha_io,compute_size,io_size,mu,desyn_time
1,9.820499478309031,1.3680062963376658,1788,11.188505774646698,0.12226890023488089,9e9,1368006296.3376658,10,4.160212789374345
2,8.838533285802772,0.8846241725049037,2057,9.723157458307675,0.09098116288850817,8e9,884624172.5049037,10,6.084853444948331
3,9.448388636738308,0.5580820023728169,1999,10.006470639111125,0.055772112116284724,9e9,558082002.3728169,10,5.957429705335414
4,4.327280572995627,0.36850663344634343,4260,4.69578720644197,0.07847600780137637,4e9,368506633.4463434,10,2.297392942391261
5,10.407754115249151,0.4412266788260586,1844,10.84898079407521,0.04066987371449851,10e9,441226678.82605857,10,8.590467941333516
6,123.59452482561615,7.9259578976805285,153,131.52048272329668,0.06026405722944154,123e9,7925957897.680529,100,43.53111606160639
7,109.90835608968122,12.038067352458494,165,121.94642344213972,0.09871603457210233,109e9,12038067352.458494,100,77.03988709725719
8,135.8534214748163,3.7921966779563063,144,139.64561815277258,0.02715585872381356,135e9,3792196677.9563065,100,2.0717629442154974
9,111.88380300247961,7.0222473385323525,169,118.90605034101196,0.05905710700501087,111e9,7022247338.532352,100,33.71539171800285
10,77.62223568008433,0.6604864211036044,256,78.28272210118793,0.00843719282333926,77e9,660486421.1036044,100,1.0827730089511547
11,887.90142514877,15.69997389384067,23,903.6013990426108,0.0173748888729867,887e9,15699973893.840672,1000,210.831876467588
12,604.8927312055523,28.71256164317828,32,633.6052928487306,0.0453161644437734,604e9,28712561643.17828,1000,491.92913870490605
13,763.8676795009333,52.869022316980335,25,816.7367018179136,0.06473202710163888,763e9,52869022316.98033,1000,422.9448793119855
14,596.4485651778076,16.289745865269186,33,612.7383110430768,0.02658515971938954,596e9,16289745865.269186,1000,588.1953269050008
15,451.57184733308736,1.9016195581270963,45,453.47346689121446,0.004193452752955187,451e9,1901619558.1270962,1000,146.82503104043235
