app_id,start_app,end_app,effective_cpu,effective_io,effective_iter,total_bytes,stretch,utilization,Tcomp,Tio,iterations,priority,group_id
app_1,2.85702,21942.4,6394.82,1605.18,802.395,6.02285e+11,1.14333,0.86476,8,0.750114,2218,1,1
app_10,48.615,22202.1,6695.6,1304.4,70.5715,4.84171e+11,1.11424,0.86476,95,6.91673,197,1.00001,1.00001
app_11,505.787,21985.3,7351,649,10.1766,2.54718e+11,1.05184,0.86476,702,25.4718,28,1.00001,1.00001
app_12,1451.02,23331.7,6632,1368,4.62241,5.19486e+11,1.11865,0.86476,1534,103.897,13,1.00001,1.00001
app_13,175.137,22183.7,6864.27,1135.73,6.50867,4.26902e+11,1.09722,0.86476,1080,63.3718,18,1.00001,1.00001
app_14,126.46,22155.8,6958.05,1041.95,14.9674,4.10031e+11,1.08576,0.86476,467,28.3627,41,1.00001,1.00001
app_15,94.7897,21691.5,7151.8,848.2,10.0227,3.25918e+11,1.06985,0.86476,718,32.5918,27,1.00002,1.00002
app_2,3.08204,20453.9,7328.9,671.1,920.716,2.21245e+11,1.05958,0.86476,8,0.240222,2350,1,1
app_3,1.72322,20956.8,6744.1,1255.9,562.42,4.5602e+11,1.11109,0.86476,12,0.811423,1481,1,1
app_4,7.16799,20015.9,7142.9,857.1,792.052,2.9686e+11,1.0753,0.86476,9,0.374823,1990,1,1
app_5,1.64851,21564.8,6629.7,1370.3,552.621,5.12614e+11,1.12009,0.86476,12,0.926969,1499,1.00001,1.00001
app_6,7.37361,21127.2,7257.4,742.6,77.9388,2.55408e+11,1.06485,0.86476,94,3.27446,205,1.00001,1.00001
app_7,7.51037,21875.5,6792.3,1207.7,76.1849,4.30747e+11,1.10757,0.86476,89,5.66773,210,1.00001,1.00001
app_8,106.879,21900,6923.12,1076.88,62.6415,4.02391e+11,1.09207,0.86476,110,6.44511,171,1.00001,1.00001
app_9,23.0462,21711.2,6905.26,1094.74,58.6545,3.79489e+11,1.09818,0.86476,117,6.45962,161,1.00001,1.00001
