app_id,start_app,end_app,effective_cpu,effective_io,effective_iter,total_bytes,stretch,utilization,Tcomp,Tio,iterations,priority,group_id
app_1,11.8243,20059.3,7714.4,237.03,591.27,1.99782e+11,1.01084,0.905052,13,0.337469,1484,0.1,1
app_10,139.892,20404.5,7566.3,304.281,55.321,2.34921e+11,1.02548,0.905052,138,4.27129,140,0.01,2
app_11,39.1743,22058.1,7149.2,633.076,7.60555,3.45643e+11,1.0674,0.905052,945,43.2054,21,0.001,3
app_12,25.1116,22831.1,6349.9,1321.01,9.00746,6.71711e+11,1.13934,0.905052,709,73.9797,26,0.001,3
app_13,700.947,23228.1,7075.3,719.556,4.89694,3.64323e+11,1.07532,0.905052,1453,72.8646,14,0.001,3
app_14,312.096,23079,6789.5,937.83,8.06518,4.54132e+11,1.10442,0.905052,832,56.7665,23,0.001,3
app_15,386.496,22884.4,6824.6,836.155,8.21869,4.25995e+11,1.10336,0.905052,814,53.2493,24,0.001,3
app_2,8.92813,18893.6,7801.7,169.571,712.831,1.3438e+11,1.00805,0.905052,11,0.188472,1677,0.1,1
app_3,2.16924,19031.3,7233,753.542,723.104,7.08416e+11,1.00738,0.905052,10,0.979828,1720,0.1,1
app_4,2.39548,19717.9,7812.6,143.742,708.986,1.11557e+11,1.00957,0.905052,11,0.157345,1749,0.1,1
app_5,5.57967,20200.5,7496.1,433.763,1074.24,3.84781e+11,1.01511,0.905052,7,0.358269,2704,0.1,1
app_6,3.31234,20726,7284.5,564.27,81.2098,4.28042e+11,1.03727,0.905052,89,5.28447,212,0.01,2
app_7,32.303,20844.2,6808.9,1061.7,111.703,8.11435e+11,1.04982,0.905052,61,7.24496,292,0.01,2
app_8,10.0964,20610.4,7192.2,707.07,65.7088,5.38007e+11,1.0349,0.905052,109,8.15163,171,0.01,2
app_9,76.5562,20549.8,7508.05,428.487,66.066,3.22802e+11,1.0216,0.905052,113,4.88723,169,0.01,2
