app_id,start_app,end_app,effective_cpu,effective_io,effective_iter,total_bytes,stretch,utilization,Tcomp,Tio,iterations,priority,group_id
app_1,6.51807,18550.8,7540.1,246.609,1255.69,1.65926e+11,1.03815,0.892253,6,0.132106,2918,0.1,1
app_10,53.731,21116.6,7173.4,610.778,95.4203,4.0718e+11,1.05533,0.892253,75,4.24146,251,0.01,2
app_11,588.509,22354.3,6890.3,1094.06,5.57382,4.19686e+11,1.09439,0.892253,1264,69.9476,15,0.001,3
app_12,667.885,22396.9,6985.9,799.275,8.02238,3.40561e+11,1.09193,0.892253,874,42.5702,22,0.001,3
app_13,854.852,22648.9,7127.96,616.727,6.10631,2.64219e+11,1.08222,0.892253,1178,40.5964,17,0.001,3
app_14,166.272,23291.3,6491.8,883.157,7.8228,3.51794e+11,1.16898,0.892253,823,43.9743,24,0.001,3
app_15,134.482,21623.4,7589.2,77.1613,6.26266,2.64197e+10,1.05047,0.892253,1186,3.77425,17,0.001,3
app_2,0.847955,20061.6,7304.7,595.746,810.677,5.16299e+11,1.02289,0.892253,9,0.637406,2036,0.1,1
app_3,6.24674,19364.6,7126.7,762.416,1017.43,6.89443e+11,1.02352,0.892253,7,0.677919,2461,0.1,1
app_4,6.67347,19690.5,7146.4,720.486,1192.96,6.42077e+11,1.02716,0.892253,6,0.538204,2933,0.1,1
app_5,0.299599,19576,7463.32,463.972,622.935,4.13787e+11,1.0156,0.892253,12,0.665141,1521,0.1,1
app_6,59.2602,21392.9,6853.3,935.919,95.3381,6.28666e+11,1.06924,0.892253,72,6.61753,254,0.01,2
app_7,129.253,21050.6,7048.3,775.587,55.8699,5.15389e+11,1.05768,0.892253,126,9.20338,148,0.01,2
app_8,48.0213,21328.6,6798.83,1041.57,75.452,6.94142e+11,1.06767,0.892253,91,9.1488,200,0.01,2
app_9,34.3196,20783.8,7530.2,242.903,69.4889,1.60407e+11,1.04023,0.892253,109,2.32474,180,0.01,2
