app_id,start_app,end_app,effective_cpu,effective_io,effective_iter,total_bytes,stretch,utilization,Tcomp,Tio,iterations,priority,group_id
app_1,2.49615,19206.1,7697.7,139.485,1280.65,9.55339e+10,1.02653,0.900181,6,0.0745776,3073,0.1,1
app_10,59.9814,20334,7721.9,171.547,77.9114,1.06208e+11,1.02196,0.900181,98,1.37933,201,0.01,2
app_11,144.682,21879.5,6962.1,630.816,9.11503,3.25743e+11,1.09772,0.900181,738,36.1937,26,0.001,3
app_12,228.558,22347.9,6875.84,839.556,6.56467,4.2677e+11,1.0955,0.900181,999,64.4687,19,0.001,3
app_13,120.055,22394.9,7224.9,471.572,5.44554,2.34477e+11,1.07248,0.900181,1361,46.8955,15,0.001,3
app_14,702.955,22189.9,6864.1,1093.37,10.0395,5.36295e+11,1.08102,0.900181,692,53.6295,27,0.001,3
app_15,326.404,23170.6,6353.2,1310.28,10.1014,6.789e+11,1.13764,0.900181,620,67.89,30,0.001,3
app_2,5.61182,19848.8,7233.92,655.668,1032.67,6.04549e+11,1.02061,0.900181,7,0.585253,2563,0.1,1
app_3,9.13387,20252.9,7322.3,594.885,815.285,5.38438e+11,1.01772,0.900181,9,0.660661,2067,0.1,1
app_4,4.93831,18086.8,7144.5,702.326,1432.07,5.79173e+11,1.03578,0.900181,5,0.404395,3236,0.1,1
app_5,3.45449,19259,7038.9,844.835,1408.75,7.45532e+11,1.02769,0.900181,5,0.529122,3388,0.1,1
app_6,58.8347,20758.9,7352,492.586,84.3766,3.17303e+11,1.04312,0.900181,87,3.73298,219,0.01,2
app_7,50.678,20934.2,6844.9,1144.35,84.5921,7.42553e+11,1.05437,0.900181,82,8.73592,220,0.01,2
app_8,1.86263,20388.5,7850.3,48.6024,66.9604,2.64432e+10,1.01565,0.900181,117,0.394674,171,0.01,2
app_9,75.0205,20911.2,7535.1,299.183,101.299,1.93449e+11,1.03512,0.900181,74,1.91533,264,0.01,2
