app_id,start_app,end_app,effective_cpu,effective_io,effective_iter,total_bytes,stretch,utilization,Tcomp,Tio,iterations,priority,group_id
app_1,8.01643,21347.1,6958.1,1041.9,869.24,3.56094e+11,1.09376,0.864385,8,0.409303,2334,1,1
app_10,36.8318,21122.9,7367.1,632.9,60.9751,2.15765e+11,1.05501,0.864385,121,3.53714,161,1.00001,1.00001
app_11,11.6352,23232.2,6398.9,1601.1,6.05249,6.06367e+11,1.142,0.864385,1068,101.061,18,1.00001,1.00001
app_12,344.098,20880.4,7645.76,354.242,7.10318,1.24495e+11,1.02957,0.864385,1103,15.6596,18,1.00001,1.00001
app_13,20.3674,22924.9,6394.9,1605.1,6.68782,5.3692e+11,1.1541,0.864385,946,79.4301,20,1.00001,1.00001
app_14,685.719,21672.4,7523.8,476.2,8.42533,1.51943e+11,1.04224,0.864385,898,16.8826,22,1.00001,1.00001
app_15,722.789,23054.7,7078.2,921.8,8.49874,2.94998e+11,1.08501,0.864385,835,32.7776,24,1.00002,1.00002
app_2,3.62184,21471.1,5863.72,2136.28,974.863,8.3847e+11,1.19364,0.864385,6,0.860174,2658,1,1
app_3,3.9003,21894.3,6704.5,1295.5,1339.8,4.61411e+11,1.1164,0.864385,5,0.344336,3703,1,1
app_4,6.8326,20412.9,7080.3,919.7,786.301,3.20011e+11,1.08104,0.864385,9,0.407138,2009,1,1
app_5,6.2503,19768,6346.34,1653.66,1268.27,6.25986e+11,1.14739,0.864385,5,0.493451,3148,1.00001,1.00001
app_6,20.9677,20618.6,7530.4,469.6,65.789,1.59042e+11,1.04039,0.864385,114,2.40973,171,1.00001,1.00001
app_7,73.4826,21997.7,6865.6,1134.4,55.288,4.07564e+11,1.09993,0.864385,123,7.41025,153,1.00001,1.00001
app_8,63.951,20164.9,7960,40,63.8024,1.2885e+10,1.0034,0.864385,125,0.201328,160,1.00001,1.00001
app_9,41.9353,22831.9,6008.64,1991.36,69.3088,7.86912e+11,1.17724,0.864385,87,11.3879,202,1.00001,1.00001
