app_id,start_app,end_app,effective_cpu,effective_io,effective_iter,total_bytes,stretch,utilization,Tcomp,Tio,iterations,priority,group_id
app_1,3.4642,20702.6,6483.26,1516.74,811.927,5.73745e+11,1.13362,0.870761,8,0.706239,2102,1,1
app_10,84.1216,22522.4,6439.6,1560.4,52.4756,6.44467e+11,1.12929,0.870761,122,12.1598,149,1.00001,1.00001
app_11,770.104,23677.3,6887.79,1112.21,6.624,3.78582e+11,1.10096,0.870761,1027,59.7625,19,1.00001,1.00001
app_12,83.9084,22745.5,6121.4,1878.6,10.026,6.14394e+11,1.18768,0.870761,629,61.4394,29,1.00001,1.00001
app_13,348.957,22710.9,7241.15,758.847,8.57051,4.15208e+11,1.04488,0.870761,814,51.4777,24,1.00001,1.00001
app_14,648.362,23828.8,6351,1649,9.80882,4.89293e+11,1.16954,0.870761,663,48.9293,29,1.00001,1.00001
app_15,812.449,24280.4,7123.95,876.054,4.87412,4.40469e+11,1.05758,0.870761,1438,96.7549,14,1.00002,1.00002
app_2,6.9811,20861.4,6567.38,1432.62,821.327,5.41033e+11,1.12543,0.870761,8,0.658323,2145,1,1
app_3,2.49864,20535.1,7243.28,756.72,804.027,2.62565e+11,1.06584,0.870761,9,0.326257,2066,1,1
app_4,4.7824,19853.8,7705.4,294.6,1102.47,8.55518e+10,1.02683,0.870761,7,0.0775629,2737,1,1
app_5,3.16819,20337,7685.7,314.3,550.411,1.05917e+11,1.02674,0.870761,14,0.192576,1398,1.00001,1.00001
app_6,43.8409,21476.3,7163.9,836.1,74.5445,3.20866e+11,1.06884,0.870761,96,4.27822,200,1.00001,1.00001
app_7,30.4091,21008.2,7309,691,169.626,2.54548e+11,1.0577,0.870761,43,1.5062,447,1.00001,1.00001
app_8,98.2327,20698.2,7551.6,448.4,65.9976,1.63893e+11,1.03687,0.870761,116,2.48323,168,1.00001,1.00001
app_9,77.1824,22371.5,6616.87,1383.13,55.6763,5.33738e+11,1.11879,0.870761,119,9.63423,156,1.00001,1.00001
