app_id,start_app,end_app,effective_cpu,effective_io,effective_iter,total_bytes,stretch,utilization,Tcomp,Tio,iterations,priority,group_id
app_1,6.51807,18690.4,7478.3,521.7,1247.28,1.64869e+11,1.04669,0.86965,6,0.132106,2918,1,1
app_10,53.731,21552,6998.4,1001.6,93.0947,3.94456e+11,1.08213,0.86965,75,4.24146,251,1.00001,1.00001
app_11,588.509,21866.1,6976.8,1023.2,5.71714,4.19686e+11,1.08159,0.86965,1264,69.9476,15,1.00001,1.00001
app_12,667.885,22248.9,7056.9,943.1,8.00095,3.40561e+11,1.08145,0.86965,874,42.5702,22,1.00001,1.00001
app_13,854.852,22285.2,7327.2,672.8,6.25629,2.43579e+11,1.05669,0.86965,1178,40.5964,17,1.00001,1.00001
app_14,166.272,22547.2,6935.8,1064.2,8.41163,3.51794e+11,1.09776,0.86965,823,43.9743,24,1.00001,1.00001
app_15,134.482,20226.7,7951.8,48.2,6.81638,2.26455e+10,1.0032,0.86965,1186,3.77425,17,1.00002,1.00002
app_2,0.847955,21725.9,6707.8,1292.2,746.386,4.76142e+11,1.11359,0.86965,9,0.637406,2036,1,1
app_3,6.24674,21425.5,6385.2,1614.8,915.765,6.20974e+11,1.14185,0.86965,7,0.677919,2461,1,1
app_4,6.67347,21655.3,6450.06,1549.94,1075.18,5.78635e+11,1.13819,0.86965,6,0.538204,2933,1,1
app_5,0.299599,20929.1,6952,1048,580.183,3.85782e+11,1.09025,0.86965,12,0.665141,1521,1.00001,1.00001
app_6,59.2602,22436.9,6512.14,1487.86,90.1748,6.01166e+11,1.12465,0.86965,72,6.61753,254,1.00001,1.00001
app_7,129.253,22218,6712.8,1287.2,52.9453,4.87779e+11,1.11102,0.86965,126,9.20338,148,1.00001,1.00001
app_8,48.0213,22762.3,6386.6,1613.4,69.4715,6.40416e+11,1.13846,0.86965,91,9.1488,200,1.00001,1.00001
app_9,34.3196,20847.9,7526.2,473.8,69.434,1.62732e+11,1.04046,0.86965,109,2.32474,180,1.00001,1.00001
