app_id,start_app,end_app,effective_cpu,effective_io,effective_iter,total_bytes,stretch,utilization,Tcomp,Tio,iterations,priority,group_id
app_1,4.12795,18611.1,7401.9,443.328,1478.7,3.49074e+11,1.03213,0.890918,5,0.23618,3443,0.1,1
app_10,23.2371,21572.3,6909.7,631.701,91.0061,4.28009e+11,1.09026,0.890918,76,4.7034,246,0.01,2
app_11,232.194,21301.3,6921.3,987.114,29.8829,6.77331e+11,1.05282,0.890918,227,22.5777,80,0.01,2
app_12,879.855,21994.3,7585,415,6.85003,1.32004e+11,1.03667,0.890918,1113,18.8577,18,0.001,3
app_13,608.808,23924.1,6341.3,1060.36,6.79031,4.18556e+11,1.18346,0.890918,933,59.7937,21,0.001,3
app_14,906.705,22175.6,7691.8,273.727,6.74129,1.00613e+11,1.02664,0.890918,1128,14.3732,18,0.001,3
app_15,47.4051,22903.9,6361.83,1502.22,6.41909,5.43616e+11,1.15851,0.890918,1005,83.38,19,0.001,3
app_2,11.6824,19765.9,7751.4,178.431,593.746,1.41135e+11,1.01362,0.890918,13,0.237601,1472,0.1,1
app_3,3.01938,19620,7146.2,812.147,798.108,7.20449e+11,1.01695,0.890918,9,0.902818,1952,0.1,1
app_4,7.02158,17982.3,7242.97,632.134,1208.55,5.46334e+11,1.02705,0.890918,6,0.452244,2714,0.1,1
app_5,4.67938,18516.9,7341.7,571.957,818.089,5.01402e+11,1.02,0.890918,9,0.612961,1888,0.1,1
app_6,51.7109,21003.1,7091.7,750.454,43.3625,5.13293e+11,1.05194,0.890918,164,11.6657,114,0.01,2
app_7,30.8316,21904.4,6873.7,667.083,114.397,4.57364e+11,1.09125,0.890918,60,3.97708,313,0.01,2
app_8,1.72992,21268.6,7314.8,204.25,85.6709,1.37342e+11,1.07352,0.890918,85,1.61579,230,0.01,2
app_9,11.2528,21599.9,6934.9,800.239,75.0448,5.50503e+11,1.06875,0.890918,92,7.34004,201,0.01,2
