app_id,start_app,end_app,effective_cpu,effective_io,effective_iter,total_bytes,stretch,utilization,Tcomp,Tio,iterations,priority,group_id
app_1,3.58013,19625.3,7854.7,145.3,872.241,3.56902e+10,1.01389,0.878143,9,0.0408823,2139,1,1
app_10,127.869,21277.3,7180,820,45.1273,2.97378e+11,1.06989,0.878143,160,6.60839,120,1.00001,1.00001
app_11,627.488,21491.6,7481.4,518.6,6.26091,2.7369e+11,1.03158,0.878143,1206,45.6151,16,1.00001,1.00001
app_12,500.628,21450.4,7934.7,65.3,8.4885,2.56548e+10,1.00498,0.878143,930,2.85054,22,1.00001,1.00001
app_13,210.992,22381.1,7054.04,945.955,12.0732,3.73442e+11,1.07708,0.878143,570,29.6338,34,1.00001,1.00001
app_14,46.095,22599.7,6961.6,1038.4,9.78024,4.77779e+11,1.07536,0.878143,701,53.0865,27,1.00001,1.00001
app_15,340.693,22406,6719.2,1280.8,9.30174,5.79983e+11,1.09601,0.878143,733,59.3194,26,1.00002,1.00002
app_2,4.19825,21424.1,6328.9,1671.1,1264.69,6.62679e+11,1.14423,0.878143,5,0.523857,3391,1,1
app_3,0.279905,21175.6,6458.7,1541.3,1077.41,6.04607e+11,1.13261,0.878143,6,0.56086,2855,1,1
app_4,0.166401,22545.3,6384.8,1615.2,455.675,6.49157e+11,1.13734,0.878143,14,1.42359,1295,1,1
app_5,7.81642,20195.3,6788.1,1211.9,681.259,4.63689e+11,1.10318,0.878143,10,0.680425,1713,1.00001,1.00001
app_6,88.7729,22440.8,6559.21,1440.79,53.3159,5.71367e+11,1.12193,0.878143,123,10.6642,150,1.00001,1.00001
app_7,9.35549,20264.4,7715.8,284.2,86.8739,1.03106e+11,1.02316,0.878143,89,1.18513,220,1.00001,1.00001
app_8,81.3577,21410.6,7097.5,902.5,82.4352,3.48763e+11,1.07436,0.878143,86,4.20197,220,1.00001,1.00001
app_9,71.8212,21906.9,6858.5,1141.5,43.5045,4.68201e+11,1.0919,0.878143,159,10.8884,118,1.00001,1.00001
