app_id,start_app,end_app,effective_cpu,effective_io,effective_iter,total_bytes,stretch,utilization,Tcomp,Tio,iterations,priority,group_id
app_1,11.8243,28364.7,4704.7,141.782,361.202,1.21826e+11,1.65751,0.756125,13,0.337469,1484,1,1
app_10,139.892,22472.7,6711.1,211.572,48.5208,2.09293e+11,1.156,0.756125,138,4.27129,140,1,1
app_11,39.1743,21220.8,7462.8,389.408,8.06659,3.88848e+11,1.01889,0.756125,945,43.2054,21,1,1
app_12,25.1116,20714.9,7172.7,740.206,9.9404,7.39797e+11,1.01106,0.756125,709,73.9797,26,1,1
app_13,700.947,22302.6,7584.4,364.509,5.24666,3.64323e+11,1.00645,0.756125,1453,72.8646,14,1,1
app_14,312.096,21127.6,7260.8,511.261,8.9051,5.10898e+11,1.02938,0.756125,832,56.7665,23,1,1
app_15,386.496,21519.7,7365.4,479.631,9.16439,4.79244e+11,1.0198,0.756125,814,53.2493,24,1,1
app_2,8.92813,27788.4,4559.1,92.4769,413.301,7.78388e+10,1.72528,0.756125,11,0.188472,1677,1,1
app_3,2.16924,27637.2,4317.7,435.698,430.302,4.21326e+11,1.68811,0.756125,10,0.979828,1720,1,1
app_4,2.39548,28652.8,4542.6,84.7428,412.453,6.48259e+10,1.73633,0.756125,11,0.157345,1749,1,1
app_5,5.57967,29819.1,4096.1,236.035,583.758,2.09229e+11,1.85816,0.756125,7,0.358269,2704,1,1
app_6,3.31234,23354.2,6273.1,372.242,70.3036,3.69913e+11,1.20427,0.756125,89,5.28447,212,1,1
app_7,32.303,24050.5,5810.9,693.117,95.7264,6.88271e+11,1.23093,0.756125,61,7.24496,292,1,1
app_8,10.0964,23235.1,6325,483.906,58.5661,4.80946e+11,1.17544,0.756125,109,8.15163,171,1,1
app_9,76.5562,23170.9,6548.6,285.648,57.9794,2.83459e+11,1.17095,0.756125,113,4.88723,169,1,1
