app_id,start_app,end_app,effective_cpu,effective_io,effective_iter,total_bytes,stretch,utilization,Tcomp,Tio,iterations,priority,group_id
app_1,11.4575,19985.6,6978.5,1021.5,695.722,3.70735e+11,1.08855,0.873362,10,0.532666,1739,1,1
app_10,36.9232,22886.7,6120.8,1879.2,80.3546,7.22039e+11,1.16911,0.873362,76,9.02549,233,1.00001,1.00001
app_11,176.852,21461.4,7637.1,362.9,12.9801,1.31632e+11,1.02977,0.873362,577,10.1255,35,1.00001,1.00001
app_12,629.649,23605.6,6537.2,1462.8,8.69711,6.35143e+11,1.1154,0.873362,748,70.5715,25,1.00001,1.00001
app_13,67.582,21632.9,7408.9,591.1,7.99557,3.00621e+11,1.03768,0.873362,928,37.5776,21,1.00001,1.00001
app_14,582.948,22358.3,7118.7,881.3,9.76341,3.94209e+11,1.06483,0.873362,750,39.4209,26,1.00001,1.00001
app_15,454.878,21774.1,7517.7,482.3,7.44577,1.73325e+11,1.04017,0.873362,995,24.7607,20,1.00002,1.00002
app_2,5.04974,20607.5,7207.2,792.8,800.278,2.87376e+11,1.06744,0.873362,9,0.358771,2057,1,1
app_3,8.00707,20840.1,7274.9,725.1,908.64,2.6181e+11,1.06147,0.873362,8,0.288337,2364,1,1
app_4,6.73375,20783.4,6290,1710,784.672,6.78843e+11,1.14797,0.873362,8,0.864768,2041,1,1
app_5,6.89757,20823.7,6515.4,1484.6,1083.94,5.63688e+11,1.13009,0.873362,6,0.520007,2819,1.00001,1.00001
app_6,62.5628,21338.2,7215.06,784.941,76.7004,2.7501e+11,1.06808,0.873362,93,3.5986,206,1.00001,1.00001
app_7,118.071,21341.8,7252.9,747.1,49.4712,2.92196e+11,1.06029,0.873362,147,5.96317,131,1.00001,1.00001
app_8,31.3509,22963.4,6270.93,1729.07,79.8553,6.83811e+11,1.1503,0.873362,78,8.61428,230,1.00001,1.00001
app_9,54.0142,20922.6,7458.2,541.8,53.1413,1.95282e+11,1.04528,0.873362,141,3.68456,138,1.00001,1.00001
