app_id,start_app,end_app,effective_cpu,effective_io,effective_iter,total_bytes,stretch,utilization,Tcomp,Tio,iterations,priority,group_id
app_1,6.59718,28263,4359.97,494.878,548.783,4.69773e+11,1.6564,0.765561,8,0.85725,2175,1,1
app_10,37.4917,23621.2,6166,418.208,74.6119,4.15108e+11,1.2156,0.765561,84,5.56389,222,1,1
app_11,359.986,21272.8,7177.9,455.319,9.30006,4.54869e+11,1.04811,0.765561,759,50.541,25,1,1
app_12,770.441,22594.8,7145.2,623.016,6.62415,6.22625e+11,1.02989,0.765561,1054,103.771,18,1,1
app_13,28.2773,21219.6,7377.5,408.76,7.40377,4.08553e+11,1.02748,0.765561,1028,58.3647,19,1,1
app_14,849.797,22601.1,7673.3,21.7339,6.98331,2.13004e+10,1.03969,0.765561,1077,3.04291,19,1,1
app_15,394.831,21152.5,7077.3,830.458,6.13917,8.30135e+11,1.01171,0.765561,1147,138.356,16,1,1
app_2,4.37799,28630,4639.62,127.445,579.886,1.09574e+11,1.6845,0.765561,8,0.189246,2360,1,1
app_3,1.73781,27688.3,4592.4,497.519,417.282,4.72379e+11,1.57954,0.765561,11,1.1328,1589,1,1
app_4,0.388091,28171.4,4944,135.544,352.772,1.11087e+11,1.58256,0.765561,14,0.314695,1386,1,1
app_5,1.7434,28265.7,4546.76,228.939,569.917,2.00809e+11,1.68507,0.765561,8,0.352915,2270,1,1
app_6,50.9049,23647.4,6546.9,104.712,53.3107,1.01585e+11,1.20328,0.765561,123,1.91669,160,1,1
app_7,99.2675,23634.5,6164.3,703.998,56.5163,7.00528e+11,1.16536,0.765561,109,12.5094,165,1,1
app_8,113.955,23592,6598.1,131.762,49.5056,1.29102e+11,1.1892,0.765561,133,2.63474,147,1,1
app_9,7.53721,23100.4,6858.1,121.095,45.6887,1.18735e+11,1.14665,0.765561,148,2.63856,133,1,1
