app_id,start_app,end_app,effective_cpu,effective_io,effective_iter,total_bytes,stretch,utilization,Tcomp,Tio,iterations,priority,group_id
app_1,1.5057,24958.9,5064.66,638.787,458.255,6.15262e+11,1.40847,0.820999,11,1.34337,1530,1,1
app_10,42.4143,21483.8,6604.52,816.203,83.7534,8.12588e+11,1.07859,0.820999,78,9.79022,227,1,1
app_11,59.7729,20120.9,7812.3,94.2408,7.54001,9.37853e+10,1.01188,0.820999,1068,11.7232,19,1,1
app_12,529.549,20551.9,7752.91,188.692,11.3439,1.88209e+11,1.00741,0.820999,678,15.6841,29,1,1
app_13,116.645,21241,7943.2,16.9348,7.66855,1.66524e+10,1.00504,0.820999,973,2.37892,21,1,1
app_14,67.1859,20227,7429.86,545.674,11.6048,5.45263e+11,1.00312,0.820999,648,45.9522,29,1,1
app_15,563.897,21132.3,7486.3,421.251,9.51331,4.20796e+11,1.01175,0.820999,772,42.0796,25,1,1
app_2,1.3546,25131.5,5582.16,418.52,348.347,4.02081e+11,1.33684,0.820999,16,1.1554,1161,1,1
app_3,1.00919,26904.8,4437.28,137.914,1111.26,1.04883e+11,1.76128,0.820999,4,0.0944042,4311,1,1
app_4,10.5907,25702.3,5050.18,495.938,506.056,4.64159e+11,1.45076,0.820999,10,0.91731,1754,1,1
app_5,6.60361,25816.4,5007.26,433.241,557.948,3.93925e+11,1.48116,0.820999,9,0.706822,1955,1,1
app_6,59.4749,21081.3,6864.4,637.661,58.5181,6.35513e+11,1.06668,0.820999,116,10.7714,157,1,1
app_7,105.436,21418.4,7108.3,309.094,68.6626,3.04828e+11,1.07917,0.820999,105,4.41779,182,1,1
app_8,68.4466,21766.4,7292.8,145.785,59.1397,1.42528e+11,1.07594,0.820999,122,2.41572,161,1,1
app_9,26.778,21353.3,7083.8,390.872,71.5409,3.87519e+11,1.07076,0.820999,99,5.45802,191,1,1
