app_id,start_app,end_app,effective_cpu,effective_io,effective_iter,total_bytes,stretch,utilization,Tcomp,Tio,iterations,priority,group_id
app_1,1.30033,21352.6,6832.6,1167.4,979.098,4.22422e+11,1.10268,0.869873,7,0.431483,2621,1,1
app_10,9.27127,21405.2,7224.7,775.3,84.9884,2.80817e+11,1.06588,0.869873,84,3.30373,229,1.00001,1.00001
app_11,732.024,23282.2,6454.2,1545.8,7.19547,5.90074e+11,1.13567,0.869873,874,84.2962,21,1.00001,1.00001
app_12,537.997,24074.7,6243.2,1756.8,5.43495,6.69201e+11,1.15734,0.869873,1210,111.533,16,1.00001,1.00001
app_13,385.649,20498.3,7857.8,142.2,6.00932,5.77046e+10,1.01067,0.869873,1325,9.61744,15,1.00001,1.00001
app_14,592.752,21985.2,7083.9,916.1,11.5759,3.60685e+11,1.07461,0.869873,616,30.0571,31,1.00001,1.00001
app_15,575.912,22283.7,7212,788,9.56989,2.86781e+11,1.06684,0.869873,753,28.6781,26,1.00002,1.00002
app_2,4.62558,19380.5,7503.1,496.9,750.35,1.60191e+11,1.04394,0.869873,10,0.213588,1819,1,1
app_3,10.3696,22080.6,6431.84,1568.16,535.105,6.02583e+11,1.13726,0.869873,12,1.12552,1492,1,1
app_4,2.98053,20924.2,6465.2,1534.8,805.734,5.85981e+11,1.13456,0.869873,8,0.727024,2128,1,1
app_5,2.65649,22362.1,6409.67,1590.33,535.063,6.19317e+11,1.13814,0.869873,12,1.15737,1510,1.00001,1.00001
app_6,42.4425,21911.8,6790.3,1209.7,120.225,4.5371e+11,1.10436,0.869873,56,3.78092,332,1.00001,1.00001
app_7,95.9926,22149.1,6677.9,1322.1,69.7883,5.43882e+11,1.10776,0.869873,96,7.76975,192,1.00001,1.00001
app_8,19.4234,20116.2,7954.3,45.7,113.981,1.43917e+10,1.00393,0.869873,70,0.126243,285,1.00001,1.00001
app_9,62.2549,21188,7244.1,755.9,73.6849,2.76293e+11,1.06377,0.869873,99,3.73369,194,1.00001,1.00001
