app_id,start_app,end_app,effective_cpu,effective_io,effective_iter,total_bytes,stretch,utilization,Tcomp,Tio,iterations,priority,group_id
app_1,1.55779,21396.4,6226.64,1773.36,778.125,6.46772e+11,1.16391,0.853304,8,0.831198,2126,1,1
app_10,103.863,21504.3,7035.7,964.3,62.9556,3.39025e+11,1.08479,0.853304,112,5.38135,170,1.00001,1.00001
app_11,772.517,23128.8,6748.5,1251.5,7.60794,5.13181e+11,1.10167,0.853304,856,66.412,22,1.00001,1.00001
app_12,284.738,20877.3,7609.6,390.4,18.4114,1.20888e+11,1.03486,0.853304,414,6.36253,48,1.00001,1.00001
app_13,325.333,22446.4,6700.48,1299.52,9.688,4.26083e+11,1.12256,0.853304,681,45.6169,28,1.00001,1.00001
app_14,553.607,23138.6,6138.6,1861.4,9.18917,5.99827e+11,1.18722,0.853304,690,66.6474,27,1.00001,1.00001
app_15,614.929,22982.3,6254.4,1745.6,8.30288,5.67801e+11,1.17264,0.853304,783,63.089,24,1.00002,1.00002
app_2,0.899818,19978.6,7537.9,462.1,1505,1.34882e+11,1.04265,0.853304,5,0.0896224,3782,1,1
app_3,5.03483,21398.2,7015.81,984.185,876.903,3.23434e+11,1.09003,0.853304,8,0.368853,2377,1,1
app_4,1.55674,15302.5,5407.9,2592.1,5403.37,9.10424e+11,1.26616,0.853304,1,0.168501,10463,1,1
app_5,0.516261,19703.8,7903,97,524.966,2.3026e+10,1.00933,0.853304,15,0.043859,1298,1.00001,1.00001
app_6,1.72307,21809.6,6708.5,1291.5,111.36,4.6716e+11,1.11488,0.853304,60,4.17108,308,1.00001,1.00001
app_7,60.2762,21219.7,7206.44,793.557,64.3665,2.73204e+11,1.06957,0.853304,113,4.23633,170,1.00001,1.00001
app_8,3.29433,22023,6808.67,1191.33,55.8339,4.41e+11,1.1035,0.853304,121,7.94377,155,1.00001,1.00001
app_9,29.1292,21059.3,7094.3,905.7,136.657,3.06468e+11,1.08097,0.853304,52,2.237,363,1.00001,1.00001
