app_id,start_app,end_app,effective_cpu,effective_io,effective_iter,total_bytes,stretch,utilization,Tcomp,Tio,iterations,priority,group_id
app_1,3.1518,20676.5,6908.9,1091.1,1726.94,3.68743e+11,1.09926,0.87228,4,0.213517,4456,1,1
app_10,71.0933,21568.9,7069.7,930.3,96.9267,3.28078e+11,1.08141,0.87228,73,3.38225,261,1.00001,1.00001
app_11,748.493,23572.2,6657.7,1342.3,6.06803,5.78777e+11,1.10551,0.87228,1137,96.4629,17,1.00001,1.00001
app_12,528.521,23090,7160.4,839.6,10.7745,3.40042e+11,1.0666,0.87228,653,34.0042,30,1.00001,1.00001
app_13,210.224,22686.5,6899.5,1100.5,6.87865,5.10818e+11,1.07958,0.87228,1014,72.974,19,1.00001,1.00001
app_14,591.801,21186.8,7547.3,452.7,7.5142,1.86804e+11,1.03438,0.87228,1034,23.3505,19,1.00001,1.00001
app_15,904.788,23252.3,6888.65,1111.35,6.18883,4.00218e+11,1.09756,0.87228,1128,66.3514,17,1.00002,1.00002
app_2,12.6751,21561,6980.8,1019.2,583.207,3.70371e+11,1.08826,0.87228,12,0.635285,1569,1,1
app_3,6.27022,21946.1,6819.3,1180.7,618.133,4.33817e+11,1.10297,0.87228,11,0.701969,1700,1,1
app_4,6.39845,21093.5,6705.9,1294.1,743.491,4.87553e+11,1.11212,0.87228,9,0.655313,1960,1,1
app_5,5.80136,21201.3,6666.8,1333.2,951.797,5.05222e+11,1.11545,0.87228,7,0.530695,2516,1.00001,1.00001
app_6,80.3503,21192,7339.9,660.1,88.8053,2.44414e+11,1.05481,0.87228,83,2.74623,232,1.00001,1.00001
app_7,66.4077,22660,6380.7,1619.3,73.0886,6.48121e+11,1.13817,0.87228,87,8.87838,208,1.00001,1.00001
app_8,39.3037,22236.2,6656.4,1343.6,103.352,5.17335e+11,1.11518,0.87228,64,4.97437,289,1.00001,1.00001
app_9,90.9136,20093.8,7991.7,8.3,82.2679,4.98264e+08,1.00098,0.87228,97,0.00600318,206,1.00001,1.00001
