app_id,Tcomp,Tio,iter,witer,alpha_io,compute_size,io_size,mu,desyn_time
1,11.635298551226775,0.013225221350767775,1717,11.648523772577542,0.0011353559995217614,11e9,13225221.350767775,10,2.9062695365274815
2,24.551538983079123,0.08083858701169216,812,24.632377570090814,0.0032818020421158285,24e9,80838587.01169217,10,16.78175573738332
3,12.099255851190101,0.0189218023816906,1651,12.118177653571792,0.0015614395928676176,12e9,18921802.3816906,10,8.229866741513936
4,9.444418380934147,0.04591139567801796,2108,9.490329776612166,0.004837702878477559,9e9,45911395.67801796,10,5.014686804183932
5,6.077689600521422,0.014193355470703004,3284,6.0918829559921255,0.0023298798701872746,6e9,14193355.470703004,10,1.302299397472334
6,7.047431948046447,0.03772951210118924,2823,7.085161460147637,0.005325144996823128,7e9,37729512.10118924,10,6.6155207113229
7,3.8704869996794655,0.003070422207517708,5164,3.873557421886983,0.0007926621121372116,3e9,3070422.207517708,10,2.2679720548487645
8,2.4194674791643695,0.0023050877450396285,8259,2.421772566909409,0.0009518184228097479,2e9,2305087.7450396284,10,0.8891318030133922
9,6.481579958934233,0.009855274657994089,3081,6.491435233592227,0.0015181965626021323,6e9,9855274.657994088,10,4.802453288339711
10,1.1552157385327027,0.006751875459813575,17213,1.1619676139925161,0.0058107260292859265,1e9,6751875.459813575,10,0.645058823453009
11,28.160967378104615,0.16590051143704587,707,28.32686788954166,0.005856648609509585,28e9,165900511.43704587,10,2.2453268851458374
12,5.6614350873830865,0.018609734964705308,3522,5.680044822347792,0.003276335935147278,5e9,18609734.964705307,10,4.09870372079083
13,19.942814828082362,0.0900930769525135,999,20.032907905034875,0.004497254087104868,19e9,90093076.9525135,10,0.29727244677505527
14,15.836060236111155,0.03294523647744483,1261,15.8690054725886,0.0020760744291350164,15e9,32945236.47744483,10,5.129163387505327
15,29.47392280156423,0.11064357569320558,677,29.584566377257435,0.003739908649743155,29e9,110643575.69320558,10,12.431208472021172
16,18.44382822343951,0.09007749882032977,1080,18.53390572225984,0.004860146596739385,18e9,90077498.82032977,10,14.930869778410647
17,16.454470298230966,0.025470092306055434,1214,16.47994039053702,0.001545520900104752,16e9,25470092.306055434,10,2.0920035591976256
18,22.918870107637144,0.022606471877135565,872,22.94147657951428,0.0009853974219480772,22e9,22606471.877135564,10,10.608757418851338
19,7.174554575291931,0.034067826480350664,2775,7.208622401772281,0.0047259829384286925,7e9,34067826.480350666,10,5.872728377198681
20,14.033624445262006,0.011497204365826852,1424,14.045121649627834,0.0008185905863002264,14e9,11497204.365826853,10,4.838510520547126
21,136.440547804946,0.42436614246252696,147,136.86491394740852,0.0031006203870890766,136e9,424366142.462527,100,35.15757576967296
22,71.67409394458393,0.20928017395815932,279,71.8833741185421,0.00291138495548411,71e9,209280173.95815933,100,43.52308665361751
23,163.25739542097168,0.7050836839689333,122,163.9624791049406,0.004300274598297943,163e9,705083683.9689332,100,17.09266077301187
24,73.62258213260642,0.4130434207676948,271,74.03562555337412,0.005578981979019297,73e9,413043420.7676948,100,72.8052056974134
25,56.66669503892331,0.04561055320937555,353,56.71230559213269,0.0008042443828223198,56e9,45610553.20937555,100,8.390341419455167
26,107.09972256861676,0.3511031978642913,187,107.45082576648105,0.003267570959643726,107e9,351103197.8642913,100,12.52244666271436
27,22.77874785935065,0.06859309572525761,876,22.847340955075907,0.0030022353962384646,22e9,68593095.7252576,100,13.313625000360672
28,56.72148899786991,0.045271664861972205,353,56.76676066273188,0.0007975030516704054,56e9,45271664.861972205,100,19.28456024562722
29,88.88570396188278,0.48166240010912825,224,89.36736636199191,0.005389689992184665,88e9,481662400.10912824,100,5.872684597529182
30,57.05722751996152,0.10317471953900575,350,57.16040223950053,0.0018050033851530031,57e9,103174719.53900576,100,34.414980258350774
31,124.79466650325794,0.612663990428947,160,125.40733049368689,0.0048853921697965584,124e9,612663990.4289471,100,123.52868526844527
32,233.4678122334826,0.8055073321337042,86,234.2733195656163,0.003438322953835527,233e9,805507332.1337042,100,127.40575617569787
33,12.161490663308289,0.034319608125625144,1640,12.195810271433913,0.0028140490350207817,12e9,34319608.12562514,100,5.041233886435334
34,15.924904853692313,0.09143789270086601,1249,16.01634274639318,0.005709036959855114,15e9,91437892.70086601,100,13.45332146433436
35,131.96869038532571,0.5702538515102701,151,132.538944236836,0.0043025380562204734,131e9,570253851.5102701,100,79.35164770215664
36,226.17449128553568,0.049009556144636264,89,226.2235008416803,0.0002166421965989068,226e9,49009556.144636266,100,224.63891492263573
37,92.54918605667716,0.44703399158836865,216,92.99622004826553,0.004807012493156772,92e9,447033991.58836865,100,60.05573537604844
38,284.2592382547216,0.7840767265323688,71,285.04331498125396,0.0027507283466161416,284e9,784076726.5323688,100,62.55651485839002
39,283.1880036845877,0.959719338161646,71,284.14772302274935,0.0033775366135339723,283e9,959719338.161646,100,126.80617136475543
40,144.29291971664645,0.8268231499495513,138,145.119742866596,0.005697523532064302,144e9,826823149.9495513,100,112.14881185146194
41,264.9754780610429,1.531678452667194,76,266.50715651371013,0.005747231979447422,264e9,1531678452.6671941,1000,248.0157278427085
42,2080.244207876295,4.251468437947349,10,2084.4956763142427,0.002039566925590701,2080e9,4251468437.9473486,1000,1981.9117035684005
43,32.188853441997665,0.023808239239470338,621,32.21266168123714,0.0007390956846430945,32e9,23808239.239470337,1000,17.19378239950532
44,380.1259754558495,1.9266323922351658,53,382.0526078480847,0.005042845808819217,380e9,1926632392.2351658,1000,150.36111078805732
45,794.9352418369467,2.469324499202969,26,797.4045663361496,0.0030967022305237388,794e9,2469324499.202969,1000,313.1951910377457
46,1958.308166527155,8.630339215933203,11,1966.9385057430882,0.0043877015934836025,1958e9,8630339215.933203,1000,1405.0006074929126
47,1497.0287801968009,4.459446911033901,14,1501.4882271078347,0.002970017899922987,1497e9,4459446911.0339,1000,656.7367063048252
48,555.8104628884299,3.348569004952034,36,559.159031893382,0.005988580732771789,555e9,3348569004.952034,1000,423.1754632701852
49,524.0454659352516,0.005706863430306897,39,524.0511727986819,1.0889897259135092e-05,524e9,5706863.4303068975,1000,160.08654804006193
50,1349.4177713559093,4.935657824466883,15,1354.3534291803762,0.0036442908609563094,1349e9,4935657824.466883,1000,874.8704312187624
51,1065.2602809178118,3.8068968940614623,19,1069.0671778118733,0.0035609519898022464,1065e9,3806896894.0614624,1000,1061.6316780949203
52,646.6748447040093,1.928292213856759,31,648.603136917866,0.002972992426493526,646e9,1928292213.856759,1000,123.64399728222494
53,589.0128106938905,3.127898940664818,34,592.1407096345554,0.005282357537273914,589e9,3127898940.6648183,1000,508.8667089563213
54,1637.7408174025002,10.231354443635992,13,1647.9721718461362,0.006208450978983672,1637e9,10231354443.635992,1000,363.3637320783673
55,57.78776756863961,0.22363043186139217,345,58.011398000501,0.00385493953894131,57e9,223630431.86139217,1000,29.984531560125017
56,1116.1657242210485,4.495371978128157,18,1120.6610961991767,0.0040113572188546715,1116e9,4495371978.128157,1000,939.6540581217832
57,611.8895595988932,2.1734327410751044,33,614.0629923399683,0.0035394296158329803,611e9,2173432741.075104,1000,214.7503176984715
58,1491.6849280372867,5.334447115073431,14,1497.01937515236,0.003563378806991402,1491e9,5334447115.073431,1000,141.83577475132566
59,1980.9573136644037,3.259843446022973,11,1984.2171571104268,0.001642886432234168,1980e9,3259843446.022973,1000,1958.3067533752378
60,1005.7822038609946,2.8377034290115013,20,1008.6199072900062,0.0028134517358832803,1005e9,2837703429.0115013,1000,510.4361499228978
