app_id,Tcomp,Tio,iter,witer,alpha_io,compute_size,io_size,mu,desyn_time
1,8.0606942942836,0.04916694922396708,2467,8.109861243507567,0.006062612879268211,8e9,49166949.22396708,10,0.39418330880938257
2,11.735140848127923,0.015604430143786681,1703,11.75074527827171,0.0013279523787006783,11e9,15604430.143786682,10,8.33923874230172
3,15.058995805981425,0.09170339252739847,1321,15.150699198508823,0.006052749864931923,15e9,91703392.52739847,10,5.944299272779723
4,17.674161987542472,0.030760177725099896,1130,17.704922165267572,0.0017373800030278204,17e9,30760177.725099895,10,14.783973384493896
5,7.238551103294536,0.03255189266834611,2751,7.271102995962882,0.004476885100708905,7e9,32551892.668346107,10,4.815721930766054
6,23.563023358399615,0.054714925741618445,847,23.617738284141232,0.002316687782858457,23e9,54714925.74161845,10,10.222662904844187
7,28.394294336252273,0.03867732897542335,704,28.432971665227697,0.0013602985094492977,28e9,38677328.97542335,10,6.405578062466647
8,17.200049554707682,0.08019062754821432,1158,17.2802401822559,0.004640596814768671,17e9,80190627.54821432,10,15.491027000232389
9,3.471777278280278,0.014150500695385869,5738,3.4859277789756637,0.004059321246048298,3e9,14150500.695385868,10,3.1434766306217945
10,22.51468311508023,0.08752380545912096,885,22.602206920539352,0.0038723566139722957,22e9,87523805.45912096,10,9.583549782462805
11,11.090752865971421,0.024132587635291792,1800,11.114885453606712,0.002171195352036751,11e9,24132587.635291792,10,8.001425979844006
12,25.02171654675082,0.06999261892877379,798,25.091709165679593,0.002789471951337201,25e9,69992618.92877379,10,14.3658364524112
13,10.18583698161386,0.015744575936157974,1961,10.201581557550018,0.001543346573013052,10e9,15744575.936157973,10,4.486685497674401
14,6.291510102523986,0.025699601257707077,3166,6.317209703781693,0.004068188719827115,6e9,25699601.257707078,10,0.8140037383959615
15,16.521174045937705,0.05601476021171703,1207,16.577188806149422,0.0033790264963947307,16e9,56014760.21171703,10,12.815816542738343
16,15.22674516874029,0.0736557441022641,1308,15.300400912842555,0.004813974778951077,15e9,73655744.10226409,10,1.5680391007149368
17,10.920446408361054,0.05828648707033228,1822,10.978732895431385,0.005309035899269143,10e9,58286487.07033228,10,6.133909206183654
18,14.147568048862848,0.018735505254858693,1412,14.166303554117706,0.0013225401519377199,14e9,18735505.25485869,10,12.444196931598622
19,14.792549189761663,0.0835785441445836,1345,14.876127733906246,0.0056182997107565935,14e9,83578544.1445836,10,4.366697530977704
20,3.5125558512670603,0.01635687757162436,5668,3.5289127288386846,0.0046351040188537555,3e9,16356877.571624361,10,0.6946555416485312
21,180.27476143143946,0.3907750475629727,111,180.66553647900244,0.0021629750486938603,180e9,390775047.5629727,100,114.68073759801607
22,72.91224076592954,0.3204627656381508,274,73.2327035315677,0.004375951592446838,72e9,320462765.6381508,100,10.466272414563536
23,150.09939215425317,0.14623095589770074,134,150.24562311015086,0.0009732793067155986,150e9,146230955.89770076,100,73.68109641475368
24,194.15447789347144,1.1712017458755921,103,195.32567963934702,0.00599614832027269,194e9,1171201745.8755922,100,7.721156831955778
25,69.44432594261309,0.1827098081771391,288,69.62703575079023,0.0026241215959716545,69e9,182709808.1771391,100,56.5922492134044
26,134.82619325841102,0.22481542463840237,149,135.05100868304942,0.0016646704591893914,134e9,224815424.63840237,100,57.88199823789179
27,124.13790702723992,0.17649510631692,161,124.31440213355684,0.0014197478593614837,124e9,176495106.31692,100,14.046223353366711
28,199.54713347452343,0.7389469820470935,100,200.28608045657052,0.003689457501802402,199e9,738946982.0470935,100,37.81131663518662
29,145.5475042240857,0.3340237766503055,138,145.881528000736,0.002289692061962912,145e9,334023776.6503055,100,46.538163026981906
30,82.59476693957477,0.44272243509727616,241,83.03748937467205,0.005331597070567437,82e9,442722435.09727615,100,22.730684213434404
31,88.42329056945024,0.08034999863884061,226,88.50364056808908,0.0009078722425776872,88e9,80349998.63884062,100,0.827339564951958
32,152.21019195632877,0.5236769939632717,131,152.73386895029205,0.003428689376903723,152e9,523676993.96327174,100,145.3907877921656
33,188.42458426062245,0.8472309389947014,106,189.27181519961715,0.0044762657245145665,188e9,847230938.9947014,100,0.9685131217242056
34,27.27997939569043,0.08304404865595401,731,27.363023444346382,0.003034900321773915,27e9,83044048.655954,100,15.292585308160096
35,231.37616087789095,0.8861116727315994,87,232.26227255062255,0.0038151339130571347,231e9,886111672.7315995,100,201.38311042436513
36,125.48646432867527,0.3209327731323828,159,125.80739710180765,0.002550984922394293,125e9,320932773.13238275,100,6.339379677174839
37,94.90092809322303,0.5769596642214355,210,95.47788775744446,0.00604286162768038,94e9,576959664.2214355,100,63.72400154680727
38,258.88752055252934,0.5669937370319715,78,259.4545142895613,0.002185330012794399,258e9,566993737.0319716,100,224.04309357324897
39,32.09102452845163,0.09397407665663289,622,32.18499860510826,0.002919809871973017,32e9,93974076.65663289,100,14.238214056045642
40,23.621421556264824,0.13792205770839167,842,23.759343613973215,0.005804960774559349,23e9,137922057.70839167,100,17.20243270351149
41,2169.019465245677,4.094274038564914,10,2173.113739284242,0.0018840587883418585,2169e9,4094274038.564914,1000,731.052791645485
42,1179.4727105440832,1.2618912550776589,17,1180.7346017991608,0.0010687340348583285,1179e9,1261891255.077659,1000,873.4981686309129
43,623.8350026243673,1.6813391994072189,32,625.5163418237746,0.0026879221004922987,623e9,1681339199.407219,1000,19.647904479520676
44,610.6061786857645,0.18661943806092207,33,610.7927981238254,0.0003055364088020712,610e9,186619438.0609221,1000,220.56010733870994
45,1727.4648271308504,4.815495546452145,12,1732.2803226773026,0.0027798592891764887,1727e9,4815495546.452146,1000,352.5495434643497
46,1086.1062797113327,0.07131079066022372,19,1086.1775905019929,6.565297542850832e-05,1086e9,71310790.66022372,1000,774.075373241336
47,1548.6078269296581,5.464904516186304,13,1554.0727314458445,0.0035165049907940824,1548e9,5464904516.186304,1000,375.8215875109
48,972.8040169142313,2.2582271061656174,21,975.0622440203969,0.002315982512925994,972e9,2258227106.1656175,1000,419.1442597909441
49,921.7522087163693,3.0457875295900654,22,924.7979962459593,0.0032934625096008615,921e9,3045787529.5900655,1000,112.81335681206818
50,1489.6458032049063,5.161466740646548,14,1494.807269945553,0.0034529312536957027,1489e9,5161466740.646548,1000,416.6686318442512
51,1151.9796367201718,5.099956265877423,18,1157.0795929860492,0.004407610588581967,1151e9,5099956265.877423,1000,1041.3932159167525
52,2144.50215168404,5.526048482990486,10,2150.0282001670307,0.002570221396426884,2144e9,5526048482.990486,1000,1011.289326831426
53,1756.4344373713525,5.095718176460441,12,1761.530155547813,0.002892779417037989,1756e9,5095718176.460441,1000,83.83770716047543
54,967.8725287539005,3.582077517015096,21,971.4546062709156,0.003687333915441994,967e9,3582077517.015096,1000,676.8564913774985
55,1440.7238477801316,1.635719133406274,14,1442.359566913538,0.0011340578111923231,1440e9,1635719133.4062738,1000,640.6430322131062
56,1231.6562485888028,6.345751819787069,17,1238.0020004085898,0.005125800941915053,1231e9,6345751819.787069,1000,895.4372046609191
57,1589.2328960791554,8.921043612155998,13,1598.1539396913113,0.00558209280757968,1589e9,8921043612.155998,1000,563.4951268777105
58,341.66485165108116,1.6486200722193238,59,343.3134717233005,0.0048020838330167775,341e9,1648620072.2193239,1000,267.590394382515
59,1868.8971865342446,10.795682136074987,11,1879.6928686703195,0.005743322388466457,1868e9,10795682136.074987,1000,891.9866744059468
60,937.6289987154616,5.121565583764027,22,942.7505642992256,0.005432577584900241,937e9,5121565583.764027,1000,109.21161632890664
