app_id,Tcomp,Tio,iter,witer,alpha_io,compute_size,io_size,mu,desyn_time
1,2.9206586417485196,0.0009653420436706016,6846,2.9216239837921902,0.00033041282828518315,2e9,965342.0436706017,10,0.7051456433345781
2,3.2799472167766464,0.014858689929693157,6071,3.2948059067063395,0.004509731483560038,3e9,14858689.929693157,10,1.9021330542293575
3,13.494731825567523,0.05054937985927265,1477,13.545281205426797,0.003731881168994889,13e9,50549379.85927265,10,5.138103077716853
4,17.785638980052415,0.07360658960018579,1120,17.8592455696526,0.0041214837050710645,17e9,73606589.6001858,10,11.524552610061717
5,10.960828042742165,0.07374855254773698,1813,11.034576595289902,0.006683405739302809,10e9,73748552.54773697,10,9.056533215336527
6,14.39845453661585,0.0862716869870858,1381,14.484726223602935,0.005956045399498518,14e9,86271686.9870858,10,14.24740959754254
7,13.373223486655403,0.05412533960955449,1490,13.427348826264957,0.004030977396199095,13e9,54125339.60955449,10,4.622061386595242
8,17.391201575282363,0.016453180548560445,1149,17.407654755830922,0.00094516928209696,17e9,16453180.548560444,10,13.89073663128432
9,11.197899575447783,0.022910247878666273,1783,11.22080982332645,0.002041764207699088,11e9,22910247.878666274,10,0.20992268484117013
10,23.91799214423938,0.12014692360620226,833,24.038139067845584,0.004998179071478781,23e9,120146923.60620226,10,23.78211365267916
11,18.97126836236403,0.053407096600693864,1052,19.024675458964722,0.0028072540168104475,18e9,53407096.60069387,10,2.6874838745747134
12,17.152002194512985,0.022638235208502368,1165,17.17464042972149,0.0013181198931726036,17e9,22638235.208502367,10,4.156420532566565
13,5.357928168516992,0.006541772594151337,3729,5.364469941111143,0.001219462997456248,5e9,6541772.594151337,10,4.8908861476573176
14,12.122070082840395,0.011893079304278333,1649,12.133963162144672,0.0009801479652898695,12e9,11893079.304278333,10,1.5474021068518062
15,16.43603104460774,0.030896269304233046,1215,16.466927313911974,0.0018762619592138806,16e9,30896269.304233044,10,13.299489900633478
16,12.597208360685272,0.05965820321495675,1581,12.656866563900229,0.004713504951147482,12e9,59658203.214956746,10,3.7776071380392064
17,19.15428857334976,0.007317213088356353,1044,19.161605786438116,0.00038186847020593695,19e9,7317213.088356353,10,9.56314994132918
18,8.429836956428924,0.008265519614499143,2371,8.438102476043422,0.000979547195351768,8e9,8265519.614499143,10,5.234791545505302
19,11.203361491046978,0.0572150307906455,1777,11.260576521837624,0.005081003683931142,11e9,57215030.7906455,10,10.757188028442666
20,2.629591307209115,0.011790941342957531,7572,2.6413822485520724,0.004463928441035362,2e9,11790941.342957532,10,0.5737373741246049
21,97.57826246280094,0.15160292500663713,205,97.72986538780758,0.0015512445904335664,97e9,151602925.00663713,100,29.946114290235236
22,9.019718050719923,0.010042527397011329,2215,9.029760578116935,0.0011121587676808143,9e9,10042527.397011328,100,6.808051754938081
23,227.61462672731687,0.5778283000630892,88,228.19245502737996,0.002532197219201475,227e9,577828300.0630891,100,125.74724372163955
24,58.974860791104824,0.22794589807416962,338,59.20280668917899,0.0038502549257657622,58e9,227945898.07416964,100,40.943607403901716
25,38.34963916033431,0.049532341514930876,521,38.399171501849246,0.0012899325578559807,38e9,49532341.514930874,100,5.421192094853258
26,17.41403120776833,0.05897102221713869,1145,17.473002229985468,0.0033749793790982495,17e9,58971022.217138685,100,0.8476762274400591
27,163.00177488029206,0.3349642395103865,123,163.33673911980244,0.002050758704474323,163e9,334964239.5103865,100,81.51337500498977
28,92.7723168435353,0.5851816333061685,215,93.35749847684146,0.006268180305316668,92e9,585181633.3061684,100,17.435646620934097
29,103.02070536551022,0.0683515711783576,195,103.08905693668858,0.0006630342076010574,103e9,68351571.1783576,100,71.80919705677289
30,227.00300972363314,1.5183310626826272,88,228.52134078631576,0.00664415435975574,227e9,1518331062.6826272,100,164.35213600500884
31,169.84582307707433,0.24705166174198928,118,170.0928747388163,0.0014524515628379258,169e9,247051661.74198928,100,161.0337227213427
32,140.70413781723514,0.4434621116972484,142,141.14759992893238,0.0031418324641760186,140e9,443462111.6972484,100,99.43693476993343
33,242.2890841624858,0.9819548699905372,83,243.27103903247635,0.004036464323480147,242e9,981954869.9905372,100,129.8219556373286
34,190.12902426223172,0.30786999527555653,106,190.43689425750728,0.0016166509986203469,190e9,307869995.2755565,100,72.1700959832709
35,110.47437825986678,0.536529186869115,181,111.0109074467359,0.00483312135004884,110e9,536529186.869115,100,43.96617573735525
36,114.66364985072742,0.7139540441867421,174,115.37760389491416,0.006187977736450577,114e9,713954044.1867422,100,86.6437313947159
37,24.15883552994981,0.05400843061217615,827,24.212843960561983,0.002230569473794379,24e9,54008430.61217615,100,9.15808896486883
38,146.17878310902603,0.24636688650808078,137,146.4251499955341,0.0016825448805454176,146e9,246366886.50808078,100,145.73027243297213
39,25.720379928888,0.12139851430129697,774,25.8417784431893,0.004697761594395684,25e9,121398514.30129698,100,13.246886240309193
40,11.955193985058846,0.01783217667647359,1671,11.97302616173532,0.0014893625417326467,11e9,17832176.67647359,100,9.848585676624245
41,1047.1367907747547,4.5504938108288755,20,1051.6872845855835,0.004326850649926792,1047e9,4550493810.828876,1000,42.569204757454386
42,928.7017026125807,4.101257763069274,22,932.80296037565,0.004396703202375829,928e9,4101257763.069274,1000,788.3095502446392
43,1265.2662784939844,7.028377683118884,16,1272.2946561771032,0.005524174489765785,1265e9,7028377683.118884,1000,176.1978903777348
44,1808.7825441332577,0.14727096398213912,12,1808.92981509724,8.141331009806066e-05,1808e9,147270963.9821391,1000,1775.6742520352254
45,1020.155749144368,3.287213348529053,20,1023.442962492897,0.00321191651024897,1020e9,3287213348.529053,1000,166.55080424635975
46,887.6559479430219,2.031456402311974,23,889.6874043453339,0.0022833372624925462,887e9,2031456402.3119738,1000,518.1107885330639
47,1154.7473214898457,5.55409220009111,18,1160.301413689937,0.0047867667267837265,1154e9,5554092200.091109,1000,109.05733151057426
48,446.534301105496,2.4587238086552965,45,448.9930249141513,0.005476084643242312,446e9,2458723808.6552963,1000,186.26823324894264
49,896.864759164929,3.1409551615447295,23,900.0057143264737,0.0034899280210629415,896e9,3140955161.5447297,1000,529.9669792637765
50,812.654315211373,4.125698935883809,25,816.7800141472569,0.005051175181105728,812e9,4125698935.8838096,1000,262.5756867032467
51,1353.6436059791454,0.9958226619095693,15,1354.639428641055,0.0007351200923691975,1353e9,995822661.9095693,1000,777.2564383196774
52,838.304716982762,5.057896952265513,24,843.3626139350275,0.005997298040834393,838e9,5057896952.265513,1000,368.60553323406737
53,1631.8300091976914,7.608979863910343,13,1639.4389890616017,0.004641209532454542,1631e9,7608979863.910343,1000,826.6263958302726
54,1546.429546397391,7.7006468898327105,13,1554.1301932872238,0.004954956105411388,1546e9,7700646889.83271,1000,771.9979128695933
55,1639.2443954048051,1.9373386302398965,13,1641.181734035045,0.001180453444041638,1639e9,1937338630.2398965,1000,591.8875986989939
56,2242.916590236792,4.8272218507526405,9,2247.743812087545,0.0021475854253467878,2242e9,4827221850.752641,1000,278.52911271822325
57,175.44106329511007,0.8612811068669826,114,176.30234440197705,0.004885250447397477,175e9,861281106.8669826,1000,173.06300709026092
58,2742.35290317547,14.626914999017286,8,2756.9798181744873,0.005305412430876039,2742e9,14626914999.017286,1000,2363.774023715205
59,3064.790485058014,12.902608595684333,7,3077.6930936536983,0.004192298648065308,3064e9,12902608595.684332,1000,1058.501117975833
60,55.970901462882836,0.30706858963421485,356,56.27797005251705,0.005456284037033797,55e9,307068589.6342149,1000,44.909254335803645
