app_id,Tcomp,Tio,iter,witer,alpha_io,compute_size,io_size,mu,desyn_time
1,14.343844726764857,0.03464876101802937,1391,14.378493487782887,0.002409762959344087,14e9,34648761.01802937,10,11.76185264318963
2,28.408054650808936,0.09212449095918962,702,28.500179141768125,0.0032324179613375686,28e9,92124490.95918962,10,6.086565438800894
3,11.944962819823507,0.0008510481242984054,1675,11.945813867947805,7.124237274296394e-05,11e9,851048.1242984054,10,11.005035556503925
4,20.72643570930652,0.11951657780653971,960,20.84595228711306,0.005733323004889764,20e9,119516577.80653971,10,2.282547219612938
5,13.907061818440306,0.04816713397415285,1434,13.955228952414458,0.0034515473833067593,13e9,48167133.97415285,10,0.5757493155726875
6,7.059552262237921,0.04606573727786187,2815,7.105617999515783,0.006483002221763266,7e9,46065737.27786187,10,6.722146961242797
7,11.448060326365269,0.006104512722582455,1747,11.454164839087852,0.0005329513594697477,11e9,6104512.722582455,10,9.014211307446574
8,13.284361116105938,0.08698421732093312,1496,13.371345333426872,0.006505270423573781,13e9,86984217.32093312,10,11.799086813432512
9,13.45667272591438,0.05860740143656409,1480,13.515280127350945,0.004336380813739848,13e9,58607401.43656409,10,5.439715478931845
10,20.763408504628924,0.01945722319827771,963,20.7828657278272,0.0009362146420560989,20e9,19457223.19827771,10,15.616624391328017
11,22.584669393370863,0.15309486510305262,880,22.737764258473916,0.006733065897013036,22e9,153094865.10305262,10,1.4466816112987446
12,9.814413724406226,0.04714479812608482,2029,9.861558522532311,0.004780664031792278,9e9,47144798.12608482,10,0.6306595186932891
13,1.3983763761891466,0.0025096938108998762,14277,1.4008860700000465,0.0017915045803116544,1e9,2509693.810899876,10,1.359321155703283
14,9.863917640272762,0.04369378927227994,2019,9.907611429545042,0.004410123427124186,9e9,43693789.27227994,10,6.4271763836840465
15,16.31133228212337,0.07182075279957964,1221,16.383153034922948,0.004383817489007385,16e9,71820752.79957964,10,4.261857746549563
16,11.760662893643106,0.008952227396502409,1700,11.769615121039608,0.0007606219323603217,11e9,8952227.39650241,10,1.3994261246418305
17,2.987114671043057,0.0009568350966584636,6694,2.9880715061397156,0.00032021827278644923,2e9,956835.0966584636,10,2.7907273716437944
18,1.7705251087949523,0.001719477695227376,11286,1.7722445864901797,0.000970225954326482,1e9,1719477.695227376,10,0.9415032499598861
19,24.260841561053002,0.11084409122163456,821,24.371685652274635,0.00454806831185636,24e9,110844091.22163457,10,2.5610298612968787
20,6.60818325923917,0.008789554051349456,3023,6.61697281329052,0.001328334617560344,6e9,8789554.051349455,10,3.632358666258103
21,59.351043285404025,0.18950122882889553,336,59.54054451423292,0.0031827258278364595,59e9,189501228.82889554,100,2.279869011761953
22,153.49758987397033,0.9616774225280825,130,154.4592672964984,0.0062260907963654685,153e9,961677422.5280825,100,140.25722548347656
23,12.27301852748662,0.042864394528529554,1624,12.315882922015149,0.003480415882478688,12e9,42864394.528529555,100,3.447107409090099
24,9.843648524603733,0.014082912314538048,2029,9.857731436918272,0.001428615945226101,9e9,14082912.314538049,100,0.4913917147428991
25,143.9680401791304,0.1472784523232623,139,144.11531863145368,0.0010219486292078201,143e9,147278452.3232623,100,53.770848826520066
26,90.45845373059633,0.3349159108531561,221,90.79336964144949,0.0036887705806686838,90e9,334915910.8531561,100,39.98717805828942
27,83.47182156817604,0.19406053350594896,240,83.66588210168199,0.0023194703579423282,83e9,194060533.50594896,100,13.151885709653177
28,96.98755153037756,0.3697238589087204,206,97.35727538928627,0.0037975986635859246,96e9,369723858.9087204,100,4.888665120062982
29,47.41710457822731,0.1263675077182228,421,47.54347208594553,0.0026579360356724703,47e9,126367507.71822281,100,21.431442596299092
30,24.19666385953504,0.09023539008738302,824,24.286899249622422,0.0037153936021201168,24e9,90235390.08738302,100,3.1580345097316367
31,129.34832773717113,0.8071910310198258,154,130.15551876819094,0.006201742643409888,129e9,807191031.0198258,100,19.76021848178622
32,210.60737937529984,1.2053715489415118,95,211.81275092424136,0.005690741202698579,210e9,1205371548.9415119,100,84.33512377139225
33,51.7112916858267,0.28044446968977993,385,51.991736155516485,0.005394020096788476,51e9,280444469.68977994,100,34.99118590743564
34,162.59767523307187,0.5904236813377668,123,163.18809891440964,0.003618056005710548,162e9,590423681.3377668,100,108.32713109777733
35,61.58557382828282,0.31715557380857906,324,61.902729402091396,0.005123450563035495,61e9,317155573.8085791,100,3.5655718302288775
36,84.77217452780192,0.04897797645929939,236,84.82115250426122,0.000577426443914905,84e9,48977976.45929939,100,33.51561476514064
37,189.83546528684923,0.5598216839051957,106,190.39528697075443,0.0029403127189339875,189e9,559821683.9051957,100,94.51126297252554
38,222.7057540891815,1.4938586028535126,90,224.19961269203503,0.006663073967507276,222e9,1493858602.8535125,100,52.262046956436926
39,208.9381192161404,0.5271001541110093,96,209.4652193702514,0.0025164089565595394,208e9,527100154.1110093,100,33.935790275867035
40,129.103846036662,0.6019199775873167,155,129.70576601424932,0.0046406570508298805,129e9,601919977.5873168,100,82.95411435237332
41,1427.3677348326164,3.1696847058990176,14,1430.5374195385155,0.0022157300204852684,1427e9,3169684705.899018,1000,409.3337680228938
42,1714.9648463612423,3.2674083735143715,12,1718.2322547347567,0.0019016104281075559,1714e9,3267408373.5143714,1000,1140.5815735187855
43,1603.9861982580148,3.3197984182316786,13,1607.3059966762464,0.0020654426880113066,1603e9,3319798418.2316785,1000,309.1473234861425
44,1542.4329973572972,1.3809224463135257,13,1543.8139198036106,0.0008944876248357663,1542e9,1380922446.3135257,1000,559.9707740330824
45,295.35499728723954,1.7315042237207414,68,297.08650151096026,0.0058282830586864,295e9,1731504223.7207415,1000,195.47653003012556
46,1299.4026310801287,2.1712528548327805,16,1301.5738839349615,0.0016681748778398784,1299e9,2171252854.8327804,1000,1224.416816712534
47,1346.970094733384,1.005843951095014,15,1347.975938684479,0.0007461883570983028,1346e9,1005843951.0950139,1000,1002.0661693298697
48,536.5449210766783,0.3820485848912788,38,536.9269696615696,0.0007115466468970404,536e9,382048584.8912788,1000,33.22392304761553
49,5.333210084865436,0.013481536163203703,3741,5.34669162102864,0.0025214725513961877,5e9,13481536.163203703,1000,4.7998582068474205
50,274.85951777160545,1.0063067614043488,73,275.8658245330098,0.0036478123490209105,274e9,1006306761.4043489,1000,56.974830786821435
51,2262.868843506693,5.81483239530661,9,2268.6836759019993,0.0025630864527619555,2262e9,5814832395.30661,1000,1347.830317673787
52,100.72496843852967,0.41511606768814124,198,101.14008450621782,0.004104367419849457,100e9,415116067.6881412,1000,23.4694790727159
53,773.4833739215334,5.202491335849862,26,778.6858652573833,0.006681116953535883,773e9,5202491335.849862,1000,579.7407281521887
54,1910.5470049395094,3.77849390931167,11,1914.325498848821,0.001973799080450982,1910e9,3778493909.31167,1000,1149.2556919132574
55,1651.5187439187648,2.0596984221979033,13,1653.5784423409627,0.0012456006739432323,1651e9,2059698422.1979034,1000,1511.7596135416445
56,245.45398812080774,1.4146965784886594,82,246.8686846992964,0.005730563113794122,245e9,1414696578.4886594,1000,69.79797317629713
57,1485.9061316398027,2.912626217260739,14,1488.8187578570635,0.00195633363825496,1485e9,2912626217.2607393,1000,647.7293847392954
58,1243.579991600176,3.845693137999905,17,1247.425684738176,0.003082903603036748,1243e9,3845693137.999905,1000,637.4839283056126
59,1841.437385951193,9.312144915361323,11,1850.7495308665543,0.005031553303164264,1841e9,9312144915.361322,1000,1419.7648302238904
60,3112.120636699319,21.39032830298679,7,3133.510965002306,0.006826313531974844,3112e9,21390328302.98679,1000,2875.1883488710146
