app_id,Tcomp,Tio,iter,witer,alpha_io,compute_size,io_size,mu,desyn_time
1,14.200362794659899,0.040699337623742574,1405,14.241062132283641,0.0028578863883670304,14e9,40699337.62374257,10,3.481574135683169
2,2.007009074727458,0.00877212081624265,9922,2.015781195543701,0.004351722714566059,2e9,8772120.81624265,10,0.9690525808186247
3,16.955587841713463,0.09843170082676565,1173,17.054019542540228,0.005771759589065421,16e9,98431700.82676566,10,11.730090039166148
4,9.299255385137204,0.04225493350050428,2141,9.34151031863771,0.004523351370302442,9e9,42254933.50050428,10,8.368172033591861
5,21.812734721129896,0.05589756567319146,915,21.868632286803088,0.0025560613457716592,21e9,55897565.67319146,10,13.33608138754571
6,9.957786353368387,0.04845877512886421,1999,10.006245128497252,0.004842853088903069,9e9,48458775.12886421,10,0.8302023755055917
7,6.981056927562066,0.030423484902195277,2853,7.011480412464262,0.004339095756170359,6e9,30423484.90219528,10,6.7012533770379275
8,1.565641931304408,0.008587268433038845,12705,1.574229199737447,0.005454903539123176,1e9,8587268.433038844,10,0.6523810626348138
9,13.264034679862984,0.002340924514503916,1508,13.266375604377489,0.00017645546789218632,13e9,2340924.514503916,10,5.986946322939664
10,21.233226023850673,0.08147377549336848,939,21.31469979934404,0.003822421908840388,21e9,81473775.49336848,10,17.609721375266886
11,7.4495795056936425,0.03992204404257755,2671,7.48950154973622,0.0053304006651795945,7e9,39922044.04257755,10,2.42024166554857
12,2.9408601406794093,0.0029415246067881267,6794,2.9438016652861974,0.000999226490519072,2e9,2941524.6067881268,10,1.0791102182922525
13,4.156002536095673,0.0004549947174700092,4812,4.156457530813142,0.0001094669472975457,4e9,454994.7174700092,10,0.7606972715968429
14,13.830805887725852,0.05207240871775932,1441,13.88287829644361,0.0037508366497096463,13e9,52072408.71775932,10,9.595695790526761
15,12.921412898770146,0.004931770875365974,1548,12.926344669645513,0.0003815286534132949,12e9,4931770.875365974,10,7.359235696901899
16,17.4664311320402,0.058561013520212826,1142,17.52499214556041,0.0033415714559990846,17e9,58561013.52021283,10,4.911391237658811
17,12.144713668327096,0.021709059485937553,1644,12.166422727813034,0.0017843420347633974,12e9,21709059.485937554,10,3.481775022944083
18,3.7871753585618544,0.005433227446470565,5274,3.792608586008325,0.0014325832268889556,3e9,5433227.446470565,10,0.3725625169069089
19,6.699334200203277,0.02082626825817602,2977,6.7201604684614535,0.0030990730587336836,6e9,20826268.25817602,10,1.9977985391345965
20,15.522077866018284,0.039539789038683486,1286,15.561617655056967,0.002540853394237872,15e9,39539789.03868349,10,5.548951028185353
21,97.10329280854286,0.32147934250088633,206,97.42477215104374,0.0032997700215554697,97e9,321479342.5008863,100,9.849055216814547
22,60.405547926427666,0.3034169799602268,330,60.70896490638789,0.00499789414015031,60e9,303416979.96022683,100,26.61593538686259
23,145.4498364421136,0.7253685867674129,137,146.175205028881,0.004962323032993838,145e9,725368586.7674129,100,136.9971896330567
24,145.57216628468575,0.525483851469838,137,146.09765013615558,0.0035967987916308976,145e9,525483851.469838,100,99.54151761280917
25,141.88804172510723,0.6304600591733306,141,142.51850178428057,0.004423706755826062,141e9,630460059.1733305,100,116.42488764537623
26,269.28647862031846,1.3986381206293754,74,270.6851167409478,0.00516703000692833,269e9,1398638120.6293755,100,60.80186622178698
27,17.395448397317004,0.05931348713459591,1146,17.4547618844516,0.003398126398242725,17e9,59313487.13459591,100,12.714130223147144
28,59.33340696140468,0.029837275246676953,337,59.363244236651354,0.0005026220455157533,59e9,29837275.24667695,100,39.88975701531124
29,172.77990012110627,0.10883459413374064,116,172.88873471524002,0.000629506568562717,172e9,108834594.13374063,100,32.15767923406326
30,181.5081230158071,1.0774151443636901,110,182.58553816017078,0.005900878871461012,181e9,1077415144.3636901,100,78.20879093477349
31,233.42060807579915,0.7953569887438626,86,234.215965064543,0.0033958273874485274,233e9,795356988.7438626,100,80.22372853363774
32,30.2286973458095,0.1104614751412431,660,30.339158820950743,0.003640887863541022,30e9,110461475.1412431,100,14.300532202543547
33,77.93881232006581,0.021105501299897512,257,77.9599178213657,0.00027072246725885253,77e9,21105501.29989751,100,1.1344668345612507
34,192.7391412579156,0.42054674198020475,104,193.15968799989582,0.0021771972523606043,192e9,420546741.98020476,100,106.49352638682143
35,235.7043727901758,1.195546933665822,85,236.8999197238416,0.005046632920177821,235e9,1195546933.665822,100,229.01285628413692
36,4.743065601868983,0.014584239649275438,4204,4.757649841518258,0.003065429389528449,4e9,14584239.649275437,100,3.8675335930821775
37,145.7319629802581,0.7125320866431051,137,146.4444950669012,0.0048655436745341256,145e9,712532086.643105,100,139.77039393363694
38,121.01202340495836,0.040677728342937335,166,121.0527011333013,0.00033603321497257356,121e9,40677728.342937335,100,77.5751742805326
39,58.88350813677792,0.3378226444183317,338,59.22133078119625,0.005704408191475427,58e9,337822644.4183317,100,45.88144307230993
40,64.69956419368677,0.31342238353201096,308,65.01298657721878,0.004820919635183125,64e9,313422383.532011,100,42.640364737826445
41,1102.3353496213388,4.453479563133741,19,1106.7888291844724,0.004023784344132971,1102e9,4453479563.133741,1000,834.4026037423173
42,1372.051205349276,2.468847859852254,15,1374.5200532091283,0.0017961526673169808,1372e9,2468847859.852254,1000,848.1602047924015
43,1385.0529420748148,4.660418356227625,15,1389.7133604310425,0.003353510507218639,1385e9,4660418356.227625,1000,125.11801374854649
44,926.4194769104788,5.486995958069537,22,931.9064728685483,0.0058879255781749615,926e9,5486995958.069537,1000,248.3005252182392
45,1707.6861394164919,0.5970074522112043,12,1708.2831468687032,0.0003494780436753262,1707e9,597007452.2112043,1000,554.8545372422162
46,234.4939032922224,0.44980796258164607,86,234.94371125480404,0.0019145350185339278,234e9,449807962.5816461,1000,234.71508194574903
47,685.9504195559139,2.9346366982396184,30,688.8850562541535,0.004259980197853108,685e9,2934636698.2396183,1000,388.56149174775857
48,2109.157594858046,6.141762228983221,10,2115.2993570870294,0.0029034955305054402,2109e9,6141762228.983221,1000,1498.1678785911915
49,1113.419145881767,5.584395697243493,18,1119.0035415790105,0.004990507616592016,1113e9,5584395697.243493,1000,368.42863796886616
50,1767.2054929354351,5.83917075147601,12,1773.0446636869112,0.003293301556957905,1767e9,5839170751.476009,1000,81.09500904083367
51,567.2076502476086,2.942548405024197,36,570.1501986526329,0.005161005664784413,567e9,2942548405.0241966,1000,66.23545837444068
52,2065.2783936662436,4.55845204267079,10,2069.8368457089146,0.0022023243291475615,2065e9,4558452042.670791,1000,580.1020071582877
53,1885.2245748750586,6.779193336689401,11,1892.003768211748,0.0035830760226745447,1885e9,6779193336.689401,1000,349.13228005772436
54,1041.6475242911351,2.1905116347685505,20,1043.8380359259038,0.0020985167807432174,1041e9,2190511634.7685504,1000,543.3918188315179
55,1939.8184658008158,9.58777576595602,11,1949.4062415667718,0.004918305667396528,1939e9,9587775765.956018,1000,1816.093820924348
56,2464.8047947447562,8.383473387192764,9,2473.188268131949,0.0033897433103727993,2464e9,8383473387.192763,1000,2401.5482296526325
57,2318.4663291101674,6.568007638168345,9,2325.0343367483356,0.0028249078021591705,2318e9,6568007638.168345,1000,1157.606846626743
58,1040.49562433859,5.978156476698273,20,1046.4737808152884,0.005712667231892616,1040e9,5978156476.698273,1000,858.5553620785306
59,511.5526883457886,2.6231369933021758,39,514.1758253390908,0.0051016342348889285,511e9,2623136993.3021755,1000,485.31052692869724
60,433.41696846071324,0.24566794066395736,47,433.6626364013772,0.0005664955198874431,433e9,245667940.66395736,1000,40.8670457434851
