app_id,Tcomp,Tio,iter,witer,alpha_io,compute_size,io_size,mu,desyn_time
1,3.3950242140987945,0.020470731087972465,5856,3.415494945186767,0.00599348891346495,3e9,20470731.087972466,10,2.359899002599343
2,26.433139408015606,0.058765983321674785,755,26.49190539133728,0.0022182618597487128,26e9,58765983.32167479,10,25.271262234085185
3,7.5252262255707105,0.007297803611125759,2656,7.532524029181836,0.0009688390747713855,7e9,7297803.611125759,10,7.297646131407315
4,14.754257084254991,0.07104549315796979,1350,14.82530257741296,0.0047921782902570174,14e9,71045493.15796979,10,13.688190370103705
5,12.128655828508062,0.0712591552380448,1640,12.199914983746107,0.005840955066734732,12e9,71259155.2380448,10,2.8709308444654034
6,13.21485499666422,0.05557061086103331,1508,13.270425607525254,0.004187553022377889,13e9,55570610.861033306,10,11.667438436240229
7,1.0649237238581715,0.007271394757970123,18654,1.0721951186161416,0.006781783121112462,1e9,7271394.757970123,10,0.9370548631306661
8,21.464691483051347,0.13957813315767376,926,21.60426961620902,0.006460673544499397,21e9,139578133.15767375,10,17.62996627909253
9,19.674745624321805,0.05112765587363358,1014,19.725873280195437,0.002591908360526943,19e9,51127655.873633586,10,17.303920951927385
10,16.51322916720698,0.02182038606654337,1210,16.535049553273524,0.0013196444314388814,16e9,21820386.06654337,10,15.497811954678141
11,3.4256124420881475,0.003691220734997321,5833,3.429303662823145,0.0010763761678540171,3e9,3691220.734997321,10,2.188371387060039
12,20.812398410245137,0.08504541938912942,958,20.897443829634266,0.004069656560987049,20e9,85045419.38912942,10,5.051828109760568
13,20.401088749177575,0.12653402009434062,975,20.527622769271915,0.006164085413911209,20e9,126534020.09434062,10,14.27026547962441
14,3.6747536370561313,0.0015250342933484803,5441,3.67627867134948,0.0004148309825459108,3e9,1525034.2933484802,10,0.9582238211363056
15,15.036985914337855,0.004747036302869079,1330,15.041732950640723,0.0003155910504757946,15e9,4747036.30286908,10,12.624679940530326
16,12.96499428025858,0.01586224164312648,1541,12.980856521901707,0.0012219718796185142,12e9,15862241.643126478,10,3.1635270261040995
17,20.69059804554159,0.009610288053195764,967,20.700208333594787,0.00046426045082836355,20e9,9610288.053195763,10,8.619823098115791
18,5.839625504440033,0.0016080880801938424,3424,5.841233592520227,0.0002752993960476122,5e9,1608088.0801938423,10,3.366105861312273
19,12.121748976259216,0.015901135797384804,1648,12.137650112056601,0.001310067076459046,12e9,15901135.797384804,10,7.014630781735347
20,5.133563106180783,0.027292547381829513,3876,5.160855653562613,0.005288376427073498,5e9,27292547.38182951,10,0.5389730282961539
21,59.00277824435463,0.3843347757122892,337,59.38711302006692,0.006471686468113417,59e9,384334775.7122892,100,42.762502957453975
22,220.94712787479648,0.08846835234084219,91,221.03559622713732,0.00040024481961688945,220e9,88468352.34084219,100,129.45247903504668
23,108.0191417860107,0.6783522151562361,184,108.69749400116694,0.006240734631370191,108e9,678352215.1562362,100,35.826474441312335
24,118.88821948577998,0.7572367094871633,168,119.64545619526714,0.0063290051588028255,118e9,757236709.4871633,100,112.59011537446317
25,32.718993594469104,0.14919521418055798,609,32.86818880864966,0.004539197917145208,32e9,149195214.18055797,100,7.7374738431900445
26,183.8337944369684,0.07953999402852287,109,183.9133344309969,0.0004324862809682011,183e9,79539994.02852286,100,62.578324117867304
27,59.48590232993099,0.23774472399968544,335,59.72364705393067,0.003980746918971661,59e9,237744723.99968544,100,36.334830667303436
28,93.62675732445003,0.22180635308803628,214,93.84856367753807,0.002363449629875624,93e9,221806353.0880363,100,52.90934577074304
29,19.470058876270404,0.03837803079040833,1026,19.508436907060812,0.0019672529876813413,19e9,38378030.79040833,100,14.41507579111362
30,334.71191644183057,0.3491604594694347,60,335.0610769013,0.0010420800371637557,334e9,349160459.4694347,100,231.4440967942767
31,106.27942631446878,0.011063746985456103,189,106.29049006145424,0.00010408971657821269,106e9,11063746.985456103,100,34.33981854797885
32,50.30127483387739,0.11013995727935832,397,50.41141479115675,0.002184821785614302,50e9,110139957.27935833,100,15.245559099674518
33,101.97167395163406,0.23095769776849712,196,102.20263164940256,0.002259801866558367,101e9,230957697.7684971,100,88.51564614509988
34,85.15555479332383,0.2505529968989073,235,85.40610779022273,0.002933666026724034,85e9,250552996.8989073,100,68.83218429282267
35,71.45086220099506,0.4411863827012326,279,71.8920485836963,0.00613678969222314,71e9,441186382.7012326,100,11.580709378968159
36,118.11608166500953,0.38298844739060767,169,118.49907011240013,0.003231995382135328,118e9,382988447.39060766,100,13.438036750782526
37,226.37623908458832,1.0916046492143539,88,227.46784373380268,0.004798940506473605,226e9,1091604649.2143538,100,97.97605679698736
38,92.85564681320238,0.35106429465531747,215,93.2067111078577,0.003766513059870443,92e9,351064294.6553175,100,5.5133514945998545
39,121.39099752501299,0.18066666337059323,165,121.57166418838358,0.0014860918831434101,121e9,180666663.37059322,100,72.06520537060224
40,75.07788725728994,0.0961896628635053,267,75.17407692015345,0.0012795589490998828,75e9,96189662.8635053,100,52.98184935898063
41,1541.6991095874735,4.839092365884593,13,1546.538201953358,0.0031289834029140486,1541e9,4839092365.884593,1000,216.40170730184585
42,1181.2195675907017,2.368721001823544,17,1183.5882885925253,0.002001304866441632,1181e9,2368721001.823544,1000,996.4060643359495
43,545.0661254835783,3.289292619659893,37,548.3554181032382,0.005998468349300821,545e9,3289292619.659893,1000,199.30921460777566
44,3005.22933102029,5.031268455678146,7,3010.260599475968,0.0016713730553939413,3005e9,5031268455.678145,1000,1528.621350459034
45,1380.0987424527511,5.256264038566364,15,1385.3550064913175,0.003794163960816716,1380e9,5256264038.566364,1000,627.2186854502174
46,350.1567055241661,1.9229702697707443,57,352.0796757939369,0.005461747445189676,350e9,1922970269.7707443,1000,23.979820478958285
47,1026.0361333760668,6.857957630728854,20,1032.8940910067956,0.006639555488253571,1026e9,6857957630.728854,1000,156.05693780361625
48,2358.541994070491,11.775478256321788,9,2370.317472326813,0.004967890754634836,2358e9,11775478256.321789,1000,410.69304424978816
49,2535.5659739457956,4.088350198759786,8,2539.654324144555,0.0016098057754914679,2535e9,4088350198.7597857,1000,26.058524005146765
50,2373.955963984101,8.395739632866697,9,2382.3517036169674,0.003524139454355123,2373e9,8395739632.866696,1000,939.6120156476097
51,1288.4774288883798,1.871057738151998,16,1290.348486626532,0.0014500406344054107,1288e9,1871057738.151998,1000,728.1672899505031
52,545.7227373771079,1.2848133974582245,37,547.0075507745662,0.002348803769964273,545e9,1284813397.4582245,1000,28.12823451678636
53,2288.531637288125,14.161477013047696,9,2302.6931143011725,0.006149962808806791,2288e9,14161477013.047695,1000,1133.871536539896
54,2356.405146675045,10.025097929458553,9,2366.430244604504,0.004236380071762489,2356e9,10025097929.458553,1000,713.8871554793822
55,372.23313915797485,1.525265538959071,54,373.7584046969339,0.004080886261797509,372e9,1525265538.959071,1000,97.47333028570452
56,1101.1644207182694,3.1871612294211236,19,1104.3515819476906,0.0028860023216520266,1101e9,3187161229.4211235,1000,97.42020926468865
57,378.410609705005,0.8121249470117752,53,379.2227346520168,0.0021415513174783654,378e9,812124947.0117751,1000,349.6724624030619
58,1332.144340979989,5.222603536339148,15,1337.3669445163282,0.0039051387936225334,1332e9,5222603536.339148,1000,82.8678595866913
59,262.24610460140093,1.4396107764755754,76,263.6857153778765,0.005459570589224115,262e9,1439610776.4755754,1000,241.0340536397178
60,1284.265615372784,6.245137805457485,16,1290.5107531782414,0.004839276069631421,1284e9,6245137805.457485,1000,250.19907805877997
