app_id,start_app,end_app,effective_cpu,effective_io,effective_iter,total_bytes,stretch,utilization,Tcomp,Tio,iterations,priority,group_id
app_1,6.70133,19596.8,7754.9,66.9136,646.009,4.00265e+10,1.02631,0.986179,12,0.0619606,1584,1,1
app_10,5.12955,18598.7,7708.6,88.8021,858.608,5.22012e+10,1.03082,0.986179,9,0.0608405,1992,1,1
app_11,10.5999,19812.3,7782.6,57.7985,557.666,3.53171e+10,1.02329,0.986179,14,0.0632923,1378,1,1
app_12,13.5939,19563.5,7883.7,58.317,281.685,4.74928e+10,1.00868,0.986179,28,0.168414,689,1,1
app_13,0.99684,21287,7367.7,210.604,2456.59,1.85988e+08,1.08579,0.986179,3,7.5697e-05,6554,1,1
app_14,17.1961,20264.8,7845.4,37.3804,412.051,8.82253e+09,1.01856,0.986179,19,0.0214139,1044,1,1
app_15,0.686299,19538.7,7817.9,47.5811,489.059,2.00068e+10,1.02068,0.986179,16,0.0409137,1194,1,1
app_16,14.0604,19930.8,7835.8,39.0087,392.189,1.73549e+10,1.0187,0.986179,20,0.0442728,975,1,1
app_17,8.98699,19758.1,7748.9,60.1255,701.652,5.27189e+09,1.0317,0.986179,11,0.00750981,1739,1,1
app_18,17.3024,20316.7,7895.8,37.3986,340.136,2.71614e+10,1.00972,0.986179,23,0.0796521,865,1,1
app_19,1.24104,19277,7479.2,164.715,1869.75,2.1137e+10,1.06662,0.986179,4,0.0113032,4518,1,1
app_2,3.65848,19779.5,7828,75.9778,390.157,5.17789e+10,1.01526,0.986179,20,0.132766,965,1,1
app_20,5.58242,18879.1,7771.1,66.5867,706.098,2.20155e+10,1.02655,0.986179,11,0.0311834,1668,1,1
app_21,169.557,20120,7949,36.9219,46.5871,3.52691e+10,1.00197,0.986179,170,0.766719,117,1,1
app_22,13.8441,19995.2,7955.4,29.9763,96.5303,2.69515e+10,1.00221,0.986179,82,0.277851,242,1,1
app_23,19.5814,19908.5,7895.3,38.1102,202.43,2.38902e+10,1.0102,0.986179,39,0.118268,505,1,1
app_24,45.2127,20138.1,7966.2,26.867,39.3632,2.4751e+10,1.00113,0.986179,201,0.634642,99,1,1
app_25,68.5282,19968.2,7912.8,53.659,90.6247,4.84228e+10,1.00487,0.986179,87,0.532119,227,1,1
app_26,60.1936,20148.4,7954,33.649,81.6331,3.15716e+10,1.00181,0.986179,98,0.385019,203,1,1
app_27,121.435,20304,7949.3,43.962,36.2636,4.31492e+10,1.00094,0.986179,220,1.19859,91,1,1
app_28,48.5736,19934.4,7919.2,61.5197,122.18,5.63203e+10,1.00307,0.986179,65,0.461642,303,1,1
app_29,2.16019,19544.3,7650.7,100.679,1090.32,2.7548e+10,1.0419,0.986179,7,0.0252734,2667,1,1
app_3,0.697326,19462.3,7824.4,70.542,374.4,4.44348e+10,1.01667,0.986179,21,0.11881,908,1,1
app_30,65.8378,20083.9,7944.3,48.4184,49.5218,4.47898e+10,1.00137,0.986179,161,0.914077,123,1,1
app_31,69.5326,20226,7958.5,39.4999,49.6649,3.59579e+10,1.00069,0.986179,160,0.719158,125,1,1
app_32,157.99,20459.5,7975.1,11.1207,40.0818,8.18909e+09,1.00209,0.986179,201,0.204727,100,1,1
app_33,109.104,20554.8,7953.1,3.79274,43.8354,6.01216e+08,1.00582,0.986179,179,0.013664,112,1,1
app_34,62.7742,19874.9,7895.5,59.2129,117.96,5.34682e+10,1.00642,0.986179,67,0.45312,293,1,1
app_35,64.1695,20306,7954.9,26.2707,51.8202,2.44307e+10,1.00259,0.986179,155,0.469822,129,1,1
app_36,125.817,20049.6,7954.3,25.5746,63.5967,2.26927e+10,1.00288,0.986179,127,0.360201,157,1,1
app_37,30.9864,19829.6,7940.1,34.3185,110.278,3.27736e+10,1.0034,0.986179,72,0.297942,274,1,1
app_38,74.7183,20122.5,7928.7,51.1474,63.6823,4.90772e+10,1.00279,0.986179,124,0.779004,160,1,1
app_39,87.134,19873.7,7982.4,6.31363,60.4533,3.46514e+09,1.00177,0.986179,134,0.0577523,149,1,1
app_4,10.6132,19278.4,7773.1,64.7482,598.653,4.47849e+10,1.02329,0.986179,13,0.0748911,1442,1,1
app_40,43.8723,20006.7,7932.5,27.7235,144.395,1.83869e+10,1.00618,0.986179,55,0.126806,360,1,1
app_41,310.226,20134.8,7998.3,1.47099,13.5285,6.94792e+08,1.00013,0.986179,589,0.049628,34,1,1
app_42,437.195,22827.4,7966.6,33.4,2.79181,3.33492e+10,1.00001,0.986179,2685,16.6746,8,1,1
app_43,175.219,20748.9,7993.2,5.59767,17.5659,5.21756e+09,1.0002,0.986179,451,0.289865,45,1,1
app_44,476.664,20197.5,7997.1,2.65661,13.2187,1.85388e+09,1.00013,0.986179,608,0.142606,33,1,1
app_45,199.555,20397.5,7998.6,1.13176,12.6955,2.22568e+08,1.00015,0.986179,625,0.0185473,32,1,1
app_46,884.417,20925,7992.5,5.98206,5.57742,5.44521e+09,1.00026,0.986179,1442,0.907535,14,1,1
app_47,634.583,21622.1,7985.2,14.731,7.51306,1.44472e+10,1.00004,0.986179,1035,2.06388,20,1,1
app_48,420.865,21011.3,7938.8,61.2,5.50659,6.119e+10,1,0.986179,1466,10.1983,14,1,1
app_49,58.2682,20130.5,7967,33,6.79157,3.25209e+10,1.00006,0.986179,1193,5.42015,17,1,1
app_5,3.09999,20298.7,7783.4,61.8812,649.075,2.20765e+10,1.02492,0.986179,12,0.0340161,1641,1,1
app_50,799.957,20656.6,7947.3,47.0585,9.94028,4.67844e+10,1.00074,0.986179,843,4.67844,24,1,1
app_51,15.8335,19778.2,7899.9,65.8541,168.628,5.31948e+10,1.0059,0.986179,47,0.314762,415,1,1
app_52,267.952,20496.6,7928.1,54.7659,21.6418,5.29479e+10,1.00237,0.986179,363,2.40672,55,1,1
app_53,162.193,19889.1,7965.6,34.4,4.07699,3.42139e+10,1.00002,0.986179,2002,8.55347,10,1,1
app_54,291.475,20548.1,7973.4,13.3344,14.8834,1.21578e+10,1.00181,0.986179,538,0.810518,38,1,1
app_55,166.778,21315,7967.5,32.3973,5.28776,3.2131e+10,1.00005,0.986179,1488,5.35517,14,1,1
app_56,717.756,20677,7953.1,28.0312,9.42313,2.77589e+10,1.0024,0.986179,833,3.08432,24,1,1
app_57,306.375,20867.3,7948.4,49.9263,9.68006,4.95553e+10,1.00026,0.986179,820,4.95553,25,1,1
app_58,729.497,21231.8,7982.1,5.56891,9.42214,5.39441e+09,1.00157,0.986179,855,0.599379,24,1,1
app_59,1175.39,22537.3,7989.6,9.53468,5.33364,9.17806e+09,1.00015,0.986179,1524,1.83561,14,1,1
app_6,0.260942,19320.2,7798.1,51.5006,601.132,6.03858e+09,1.0251,0.986179,13,0.0100476,1447,1,1
app_60,375.652,20193.9,7988.8,5.97409,5.28238,5.43644e+09,1.00072,0.986179,1550,0.906073,13,1,1
app_7,18.4805,19450.1,7876.6,36.3813,329.571,2.87814e+10,1.01197,0.986179,24,0.0872162,798,1,1
app_8,11.8251,20294.5,7864.5,33.6604,356.362,1.1141e+10,1.01579,0.986179,22,0.0312073,905,1,1
app_9,8.6552,20314.1,7773.8,50.1786,596.611,5.25672e+09,1.0284,0.986179,13,0.00882001,1516,1,1
