app_id,start_app,end_app,effective_cpu,effective_io,effective_iter,total_bytes,stretch,utilization,Tcomp,Tio,iterations,priority,group_id
app_1,8.68968,20415.1,7793.6,51.1425,558.659,1.72388e+10,1.02422,0.972395,14,0.0308386,1421,1,1
app_10,3.46361,18564.6,7506.19,140.162,1499.07,4.95177e+10,1.0588,0.972395,5,0.0330118,3487,1,1
app_11,5.34251,20034.4,7849.6,39.3637,393.114,1.90901e+10,1.01669,0.972395,20,0.0485754,983,1,1
app_12,6.48859,19632.8,7837,34.4377,391.453,9.74252e+09,1.01953,0.972395,20,0.0248534,963,1,1
app_13,6.4175,19107.5,7659.4,93.0587,958.34,4.128e+10,1.03887,0.972395,8,0.0430897,2291,1,1
app_14,10.1916,20307.3,7782.2,61.0686,519.342,4.43008e+10,1.02217,0.972395,15,0.085358,1321,1,1
app_15,1.15054,19909.1,7883.9,35.0412,314.931,2.25693e+10,1.01183,0.972395,25,0.0716485,786,1,1
app_16,0.424942,19091.1,7109.29,290.7,3553.52,4.8353e+10,1.11769,0.972395,2,0.0136052,8514,1,1
app_17,0.78401,19428.4,7116.7,283.673,3557.86,3.67107e+10,1.11835,0.972395,2,0.0103178,8668,1,1
app_18,7.72732,19564.4,7785,47.5418,597.87,4.96426e+09,1.02696,0.972395,13,0.00830144,1465,1,1
app_19,4.14508,20292.9,7623,101.423,1085.89,3.8624e+10,1.04417,0.972395,7,0.0355973,2763,1,1
app_2,2.43021,18388.2,7130.4,267.805,3571.47,7.24987e+09,1.12082,0.972395,2,0.00202964,8230,1,1
app_20,7.03286,20238.5,7889.7,29.5548,302.77,1.38574e+10,1.0122,0.972395,26,0.0457341,766,1,1
app_21,19.8084,19970.7,7935.9,47.4411,80.7914,4.20441e+10,1.00276,0.972395,98,0.519064,202,1,1
app_22,35.7958,20301.9,7870.1,56.2789,197.194,4.36469e+10,1.0109,0.972395,40,0.220439,498,1,1
app_23,85.2774,20054.9,7970.9,15.5322,77.3562,1.15144e+10,1.0022,0.972395,103,0.149537,193,1,1
app_24,95.8848,19933.7,7929.2,51.8801,59.714,4.74287e+10,1.00293,0.972395,134,0.803876,148,1,1
app_25,7.29866,19926.8,7869.1,59.2016,292.248,4.53358e+10,1.01081,0.972395,27,0.15526,724,1,1
app_26,7.46673,19839.4,7918.2,29.1392,154.939,2.06655e+10,1.0077,0.972395,51,0.133326,386,1,1
app_27,146.023,20214.9,7967.6,22.1026,43.6419,2.11469e+10,1.00141,0.972395,185,0.491789,108,1,1
app_28,18.0381,19964.5,7938.1,27.2462,127.645,2.22459e+10,1.00498,0.972395,62,0.175164,319,1,1
app_29,89.465,20270,7928.8,43.4081,72.9658,3.89723e+10,1.00404,0.972395,108,0.533868,185,1,1
app_3,15.771,20082.3,7778.6,59.3408,486.175,4.66911e+10,1.02233,0.972395,16,0.0960723,1222,1,1
app_30,26.6281,20000.9,7920,39.4178,76.4904,3.78563e+10,1.0053,0.972395,104,0.498109,191,1,1
app_31,6.59363,20058.2,7789.4,57.824,519.035,3.94029e+10,1.02187,0.972395,15,0.0759208,1301,1,1
app_32,77.5347,20202.8,7954.1,13.1823,68.2918,9.10781e+09,1.00462,0.972395,117,0.133938,171,1,1
app_33,1.16554,18486.3,7547.8,109.169,1262.49,2.66927e+10,1.05618,0.972395,6,0.0211343,2921,1,1
app_34,8.98725,20101.3,7943.8,39.0589,55.6787,3.65081e+10,1.00247,0.972395,141,0.663784,141,1,1
app_35,7.27092,20093.5,7650.4,88.4317,957.648,3.14238e+10,1.04142,0.972395,8,0.0328358,2403,1,1
app_36,72.9209,20164,7948.8,48.9947,22.546,4.83976e+10,1.00035,0.972395,357,2.19989,56,1,1
app_37,219.406,20289.5,7978.9,19.5663,28.9648,1.7592e+10,1.00044,0.972395,272,0.60662,74,1,1
app_38,50.6365,20088.6,7929.9,51.1566,99.5913,4.80777e+10,1.00276,0.972395,79,0.480777,250,1,1
app_39,59.4124,20069.6,7961.2,9.75003,82.1332,6.25449e+09,1.00408,0.972395,96,0.0762743,207,1,1
app_4,3.8544,18543.1,7631.1,88.7036,1090.78,1.03255e+10,1.04693,0.972395,7,0.00947291,2529,1,1
app_40,84.8052,20110.2,7937,49.8679,83.1197,4.59518e+10,1.00214,0.972395,95,0.553636,208,1,1
app_41,118.236,20050.2,7954.3,21.81,53.4403,2.02105e+10,1.0032,0.972395,150,0.38133,133,1,1
app_42,727.058,21944.8,7987.5,5.62586,3.26802,5.51494e+09,1.00087,0.972395,2371,1.83831,9,1,1
app_43,370.228,21218.6,7972.7,27.1349,3.30663,2.69214e+10,1.00005,0.972395,2235,8.97378,9,1,1
app_44,1641.9,23896.3,7965.9,33.915,4.21745,3.37094e+10,1.00005,0.972395,1767,8.42735,12,1,1
app_45,926.451,21385.4,7945.4,54.5735,5.54523,5.40964e+10,1.00006,0.972395,1498,9.01606,14,1,1
app_46,1332.98,22090.8,7973,26.8041,4.35442,2.65152e+10,1.00006,0.972395,1899,6.62881,11,1,1
app_47,88.8588,20143.2,7957.8,18.292,87.5966,1.45422e+10,1.00347,0.972395,91,0.165252,220,1,1
app_48,160.793,20227,7995.6,2.04576,23.9804,5.52502e+08,1.00048,0.972395,335,0.0230209,60,1,1
app_49,675.384,21133.9,7983.6,16.2746,5.83507,1.60002e+10,1.00005,0.972395,1343,2.66671,15,1,1
app_5,2.57558,18251.8,7448,143.368,1861.33,6.49694e+09,1.07318,0.972395,4,0.0034911,4261,1,1
app_50,587.195,20700.6,7962.3,36.302,6.73661,3.59412e+10,1.00022,0.972395,1192,5.13445,17,1,1
app_51,286.565,20669.5,7970,23.9088,7.24475,2.36202e+10,1.0008,0.972395,1075,3.37431,19,1,1
app_52,93.3413,19951.4,7990.3,1.88406,15.391,1.4756e+09,1.00103,0.972395,515,0.092225,39,1,1
app_53,702.355,21964.5,7988.7,9.25569,4.13032,9.10576e+09,1.00027,0.972395,1967,2.27644,11,1,1
app_54,340.431,20477.4,7981.2,2.31715,21.3657,1.32755e+09,1.00219,0.972395,371,0.060343,54,1,1
app_55,298.123,20364.4,7945,49.6831,25.092,4.82983e+10,1.00084,0.972395,317,1.93193,63,1,1
app_56,1034.29,20904.6,7971.8,27.2917,7.64456,2.70293e+10,1.00015,0.972395,1050,3.37866,19,1,1
app_57,440.489,21442.5,7982.8,12.545,3.4451,1.24063e+10,1.0006,0.972395,2343,4.13542,9,1,1
app_58,614.734,21298.7,7961.3,30.3744,9.28291,2.97349e+10,1.00112,0.972395,845,3.30388,24,1,1
app_59,933.711,20771.7,7952.9,43.6201,3.92254,4.33185e+10,1.00047,0.972395,1999,10.8296,10,1,1
app_6,1.51552,15733.1,7100.9,290.57,3547.96,4.79299e+10,1.11906,0.972395,2,0.013509,7014,1,1
app_60,258.887,20596.9,7959.5,37.7713,6.1296,3.72831e+10,1.0004,0.972395,1260,6.21386,16,1,1
app_7,5.42319,19480.8,7849.9,35.6866,343.595,1.87828e+10,1.01669,0.972395,23,0.0546012,835,1,1
app_8,3.42398,18280.8,7522.3,119.603,1503.01,1.12606e+10,1.06191,0.972395,5,0.00749205,3444,1,1
app_9,1.32646,12169.4,5161.81,408.819,5159.61,1.06565e+10,1.54665,0.972395,1,0.00206521,10230,1,1
