app_id,start_app,end_app,effective_cpu,effective_io,effective_iter,total_bytes,stretch,utilization,Tcomp,Tio,iterations,priority,group_id
app_1,2.14577,19491.1,7843.5,156.5,1564.21,3.55342e+10,1.01535,0.98703,5,0.0227201,3816,1,1
app_10,1.87125,18156.6,7881.2,118.8,1127.55,5.2791e+10,1.00832,0.98703,7,0.0468421,2555,1.00001,1.00001
app_11,6.87224,19153,7953.5,46.5,441.806,1.98975e+10,1.00334,0.98703,18,0.045017,1060,1.00001,1.00001
app_12,5.96477,19476.8,7900.4,99.6032,878.906,4.63693e+10,1.0067,0.98703,9,0.0528105,2141,1.00001,1.00001
app_13,1.98455,18787,7884.5,115.5,1125.6,4.62768e+10,1.00873,0.98703,7,0.0411349,2644,1.00001,1.00001
app_14,5.99301,18823.8,7898.8,101.2,987.562,3.34834e+10,1.00854,0.98703,8,0.0339244,2325,1.00001,1.00001
app_15,12.2819,20092.1,7930.3,69.7,528.629,4.28846e+10,1.00336,0.98703,15,0.0812209,1325,1.00002,1.00002
app_16,1.76459,18875.8,7842.5,157.5,1568.55,3.87441e+10,1.01507,0.98703,5,0.0246935,3702,1.00002,1.00002
app_17,5.18447,19560.8,7950,50,496.537,1.28246e+10,1.00467,0.98703,16,0.025856,1213,1.00002,1.00002
app_18,0.214394,19306.4,7925.8,74.2,330.837,4.27197e+10,1.00395,0.98703,24,0.129062,797,1.00002,1.00002
app_19,0.672868,14438.5,7619,381,3810.77,3.31574e+10,1.04546,0.98703,2,0.00870272,6878,1.00002,1.00002
app_2,1.09132,15102.9,7619.3,380.7,3807.65,4.03469e+10,1.04443,0.98703,2,0.0105981,7184,1,1
app_20,2.73654,18026.2,7843,157,1569.55,2.20582e+10,1.01716,0.98703,5,0.0140498,3535,1.00002,1.00002
app_21,41.5772,19902,7958.7,41.3,105.525,2.87328e+10,1.00157,0.98703,75,0.271064,264,1.00002,1.00002
app_22,2.63546,20025.4,7933,67,111.575,4.52101e+10,1.00273,0.98703,71,0.407298,280,1.00002,1.00002
app_23,13.5264,19545.6,7971.7,28.3,214.964,1.85727e+10,1.00122,0.98703,37,0.0863846,526,1.00002,1.00002
app_24,107.811,20221.3,7969.6,30.4,33.9445,2.43466e+10,1.00076,0.98703,234,0.716075,86,1.00002,1.00002
app_25,34.8255,20139.8,7960.1,39.9,97.3918,2.77751e+10,1.00152,0.98703,82,0.286342,243,1.00003,1.00003
app_26,46.996,20075.2,7949.8,50.2,99.1627,3.4901e+10,1.00192,0.98703,80,0.352536,249,1.00003,1.00003
app_27,100.391,20050.2,7954.5,45.5,62.3408,3.46594e+10,1.00136,0.98703,127,0.559022,157,1.00003,1.00003
app_28,54.2976,20066.9,7983.4,16.6,44.7611,1.27514e+10,1.00048,0.98703,179,0.283365,112,1.00003,1.00003
app_29,2.82719,19766.9,7972.9,27.1,265.347,8.99142e+09,1.00227,0.98703,30,0.0339299,654,1.00003,1.00003
app_3,1.69491,11972.3,5429.61,542.693,5426.08,2.98665e+10,1.46534,0.98703,1,0.0055034,10881,1,1
app_30,87.991,20017.8,7993,7,30.9683,4.99402e+09,1.00025,0.98703,260,0.161097,77,1.00003,1.00003
app_31,187.228,20355.1,7948.5,51.5,38.1846,4.08027e+10,1.00134,0.98703,204,1.07376,98,1.00003,1.00003
app_32,54.497,20304.6,7951.6,48.4,65.3653,3.76249e+10,1.00135,0.98703,121,0.578844,165,1.00003,1.00003
app_33,62.5268,20177.3,7978.3,21.7,33.6109,1.51229e+10,1.00082,0.98703,238,0.444791,84,1.00003,1.00003
app_34,88.8863,20102.6,7975.6,24.4,52.7276,1.64477e+10,1.001,0.98703,152,0.316302,132,1.00003,1.00003
app_35,94.7225,20087.5,7970.7,29.3,83.8101,1.91798e+10,1.00127,0.98703,95,0.231081,210,1.00004,1.00004
app_36,4.87746,19799,7947.8,52.2,180.929,3.58354e+10,1.00205,0.98703,44,0.197986,447,1.00004,1.00004
app_37,49.8862,20286.5,7951.4,48.6,40.8006,3.84673e+10,1.00127,0.98703,195,0.938228,103,1.00004,1.00004
app_38,116.278,20243.6,7978.3,21.7,29.8253,1.6332e+10,1.00067,0.98703,267,0.544402,75,1.00004,1.00004
app_39,87.0734,20050.5,7938.8,61.2,54.4847,4.82355e+10,1.00162,0.98703,147,0.877009,136,1.00004,1.00004
app_4,8.86973,19487,7943.4,56.6,526.804,2.51783e+10,1.00394,0.98703,15,0.0477766,1286,1,1
app_40,19.5004,20258.8,7976.4,23.6,31.6348,1.76562e+10,1.00074,0.98703,252,0.551757,80,1.00004,1.00004
app_41,1841.53,21881.4,7963.4,36.6,4.08494,3.10128e+10,1.0007,0.98703,1999,7.75321,10,1.00004,1.00004
app_42,1287.78,22819.3,7954.1,45.9,5.60843,3.80506e+10,1.00098,0.98703,1419,7.61012,15,1.00004,1.00004
app_43,920.167,22985.5,7968,32,3.20869,2.60274e+10,1.00075,0.98703,2425,8.6758,9,1.00004,1.00004
app_44,1081.67,21667,7980.7,19.3,5.77904,1.48917e+10,1.00055,0.98703,1398,2.48194,15,1.00004,1.00004
app_45,1794.83,22705.2,7978.2,21.8,3.76878,1.74514e+10,1.00054,0.98703,2025,5.81712,10,1.00004,1.00004
app_46,625.185,21692.8,7971.9,28.1,3.49515,2.24223e+10,1.00071,0.98703,2285,7.47409,9,1.00005,1.00005
app_47,254.583,21437.6,7945.3,54.7,6.53556,4.69521e+10,1.00097,0.98703,1233,6.70745,17,1.00005,1.00005
app_48,608.996,21347.7,7955.6,44.4,11.9595,3.34003e+10,1.00138,0.98703,660,2.78336,31,1.00005,1.00005
app_49,541.59,22403.1,7996.3,3.7,3.61486,3.08047e+09,1.00008,0.98703,2158,0.770119,10,1.00005,1.00005
app_5,6.3099,18764.8,7933.9,66.1,660.988,7.13057e+09,1.00743,0.98703,12,0.0107875,1552,1.00001,1.00001
app_50,227.726,21296.3,7969.3,30.7,6.45414,2.38181e+10,1.00086,0.98703,1218,3.40258,17,1.00005,1.00005
app_51,489.276,21590.4,7959.9,40.1,7.55863,3.35711e+10,1.00082,0.98703,1043,4.79587,20,1.00005,1.00005
app_52,825.762,22366.7,7980.8,19.2,2.82932,1.69259e+10,1.00028,0.98703,2604,8.46294,8,1.00005,1.00005
app_53,112.844,19927.8,7955.8,44.2,11.9202,3.5048e+10,1.00115,0.98703,691,2.92066,29,1.00005,1.00005
app_54,126.538,20202,7986.4,13.6,60.259,1.03794e+10,1.0004,0.98703,133,0.17299,150,1.00005,1.00005
app_55,124.037,20296.3,7963.9,36.1,15.988,2.78014e+10,1.00104,0.98703,499,1.73759,40,1.00005,1.00005
app_56,37.2322,20263.3,7966.5,33.5,24.0999,2.49096e+10,1.00107,0.98703,327,0.996384,61,1.00006,1.00006
app_57,587.398,21297.9,7994,6,3.47811,4.96765e+09,1.00013,0.98703,2339,1.65588,9,1.00006,1.00006
app_58,1912.84,23966.1,7951.9,48.1,3.53803,3.91775e+10,1.00112,0.98703,2199,9.79439,10,1.00006,1.00006
app_59,886.217,21804.5,7976.8,23.2,7.12717,1.66505e+10,1.00082,0.98703,1088,2.37864,19,1.00006,1.00006
app_6,4.29021,19453.9,7966.9,33.1,330.808,2.22133e+09,1.00387,0.98703,24,0.00671098,807,1.00001,1.00001
app_60,124.682,20140,7972.4,27.6,17.3508,2.1176e+10,1.0008,0.98703,469,1.24565,43,1.00006,1.00006
app_7,3.14809,18533,7912,88,720.331,5.19293e+10,1.00453,0.98703,11,0.072124,1669,1.00001,1.00001
app_8,3.6099,18988.8,7920.8,79.2,792.655,1.46531e+10,1.00813,0.98703,10,0.0185013,1882,1.00001,1.00001
app_9,5.8757,19675.9,7920.7,79.3,791.511,1.96881e+10,1.00751,0.98703,10,0.0248588,1950,1.00001,1.00001
