app_id,start_app,end_app,effective_cpu,effective_io,effective_iter,total_bytes,stretch,utilization,Tcomp,Tio,iterations,priority,group_id
app_1,15.3849,19950,7824.8,69.5434,372.469,4.11378e+10,1.01704,0.981002,21,0.110289,929,1,1
app_10,22.3467,19803.7,7849,62.3498,329.874,4.25225e+10,1.01375,0.981002,24,0.128856,812,1,1
app_11,4.88448,19798.6,7884.2,23.6323,261.531,6.15024e+09,1.0139,0.981002,30,0.0234742,652,1,1
app_12,1.97712,20883.7,7130.8,292.579,3565.55,9.59882e+09,1.12039,0.981002,2,0.00269251,9346,1,1
app_13,14.1689,19970,7840.3,36.1438,373.995,1.43311e+10,1.01851,0.981002,21,0.0383183,934,1,1
app_14,3.97066,19207.8,7569.5,112.498,1264.25,2.89204e+10,1.05285,0.981002,6,0.02288,3039,1,1
app_15,4.41815,19906.8,7867,40.4046,373.586,2.54754e+10,1.01362,0.981002,21,0.0682985,927,1,1
app_16,1.42935,16267,6636.16,565.898,6632.78,4.94184e+10,1.19661,0.981002,1,0.00745105,13540,1,1
app_17,16.3296,19973.8,7783.1,84.9602,457.482,5.51498e+10,1.02064,0.981002,17,0.120678,1140,1,1
app_18,11.6025,20534.7,7747.1,49.24,595.507,6.23903e+09,1.03181,0.981002,13,0.0104682,1534,1,1
app_19,17.979,19897.6,7860.3,39.287,414.326,1.52447e+10,1.0158,0.981002,19,0.0368229,1025,1,1
app_2,11.4956,19356.3,7797.2,45.4146,518.956,9.9045e+09,1.02471,0.981002,15,0.0190838,1259,1,1
app_20,5.50611,19673.3,7758.3,66.7934,646.92,3.60393e+10,1.02639,0.981002,12,0.0557021,1596,1,1
app_21,11.1374,19068.2,7735.9,66.0041,701.68,2.53717e+10,1.03076,0.981002,11,0.0361937,1677,1,1
app_22,18.1717,19856.3,7840.9,36.5977,374.124,1.61297e+10,1.0182,0.981002,21,0.0431276,926,1,1
app_23,22.5034,20210.3,7950.5,24.8159,81.7537,2.09697e+10,1.00358,0.981002,97,0.255728,206,1,1
app_24,1.86877,17132.8,7455.4,155.031,1863.1,1.80602e+10,1.07045,0.981002,4,0.00969415,4005,1,1
app_25,13.2083,20013.7,7958.1,24.9157,50.382,2.24028e+10,1.00244,0.981002,157,0.448055,127,1,1
app_26,2.38045,20051.2,7913.7,47.3269,98.9186,3.97893e+10,1.00585,0.981002,80,0.401912,247,1,1
app_27,178.71,20295.7,7940.9,51.6203,31.6716,5.0474e+10,1.00108,0.981002,251,1.57731,79,1,1
app_28,15.6667,20099.6,7955.7,21.8978,110.077,1.61162e+10,1.00354,0.981002,72,0.146511,277,1,1
app_29,90.3092,20193.2,7935.1,46.7451,42.9996,4.35436e+10,1.00268,0.981002,187,1.01264,107,1,1
app_3,11.4093,19638.5,7822.7,79.8271,433.481,4.83288e+10,1.01639,0.981002,18,0.111357,1063,1,1
app_30,52.0533,20059.5,7960.1,31.4316,44.5472,2.90392e+10,1.00136,0.981002,178,0.645315,112,1,1
app_31,88.9555,20219.2,7947.5,29.539,73.1128,2.59984e+10,1.00332,0.981002,109,0.356143,183,1,1
app_32,13.3457,19958.7,7931.1,46.8504,116.517,4.11819e+10,1.00348,0.981002,68,0.355017,290,1,1
app_33,106.959,20112.5,7961.6,5.81825,58.3173,3.23979e+09,1.00441,0.981002,138,0.0558585,145,1,1
app_34,79.771,20178.8,7972.3,19.4342,39.2505,1.74892e+10,1.00128,0.981002,203,0.448442,98,1,1
app_35,1.72759,20042.1,7969.7,5.37276,55.2446,2.63706e+09,1.00347,0.981002,145,0.0479466,138,1,1
app_36,93.0443,20058.8,7925.6,62.3468,62.9751,5.87682e+10,1.00196,0.981002,126,0.932828,157,1,1
app_37,102.867,20235.1,7931.2,53.1946,54.0871,4.93899e+10,1.00243,0.981002,148,0.914628,135,1,1
app_38,61.2735,20234.1,7934.9,36.8077,54.3937,3.40057e+10,1.0039,0.981002,144,0.629736,138,1,1
app_39,169.634,20173.7,7965.9,19.3958,38.2859,1.82586e+10,1.00198,0.981002,208,0.480489,96,1,1
app_4,1.97445,17118.7,7330.6,201.942,2437.09,1.54065e+10,1.08903,0.981002,3,0.00631931,5229,1,1
app_40,26.0876,20118.3,7925.4,34.5226,108.462,3.18424e+10,1.00537,0.981002,73,0.294837,273,1,1
app_41,73.2722,20441.8,7970.3,29.5935,5.22654,2.94774e+10,1.00003,0.981002,1548,5.89548,13,1,1
app_42,1112.78,22591.4,7964.9,34.8052,5.87021,3.44652e+10,1.00008,0.981002,1310,5.7442,16,1,1
app_43,1889.36,21485,7961.3,38.6342,3.20072,3.84714e+10,1.00003,0.981002,2508,12.8238,8,1,1
app_44,153.628,20290.2,7984.7,12.7094,25.5134,1.13667e+10,1.00049,0.981002,315,0.437183,64,1,1
app_45,20.3652,20150.6,7980.3,19.5621,6.90805,1.91027e+10,1.00007,0.981002,1114,2.72896,18,1,1
app_46,520.173,21236.1,7987.9,8.57774,14.1108,8.22223e+09,1.00048,0.981002,570,0.587302,36,1,1
app_47,252.094,20905.7,7974.5,23.7718,10.0226,2.31997e+10,1.00029,0.981002,787,2.31997,26,1,1
app_48,282.693,20480.3,7981.1,18.5343,11.5797,1.76712e+10,1.00015,0.981002,696,1.60647,29,1,1
app_49,178.923,20346.8,7973.6,16.0073,26.2009,1.50671e+10,1.00142,0.981002,306,0.579503,66,1,1
app_5,2.20207,18798.9,7637.8,92.0644,952.324,3.82286e+10,1.04221,0.981002,8,0.040114,2249,1,1
app_50,287.322,20441.9,7994.3,1.61017,15.0336,8.42536e+08,1.00061,0.981002,529,0.056169,38,1,1
app_51,438.823,21163.7,7980,18.2225,13.1421,1.73809e+10,1.00033,0.981002,596,1.33699,34,1,1
app_52,162.114,20394.9,7967.2,27.6689,13.6718,2.69485e+10,1.00073,0.981002,597,1.92489,34,1,1
app_53,84.5517,21100.1,7957.2,42.5511,6.22304,4.22036e+10,1.00007,0.981002,1281,7.03394,16,1,1
app_54,510.196,20739.5,7952.8,37.0414,15.8794,3.66081e+10,1.00133,0.981002,508,2.28801,40,1,1
app_55,77.3255,20852.3,7962.8,37.2,3.50899,3.71217e+10,1.00001,0.981002,2245,9.28042,9,1,1
app_56,1372.15,22414.5,7992.9,6.13938,4.14915,5.94854e+09,1.00014,0.981002,1911,1.48713,11,1,1
app_57,121.975,21450.7,7972,28,4.04023,2.7953e+10,1.00001,0.981002,1921,6.98826,11,1,1
app_58,87.2903,21000.2,7968.5,31.1872,6.03306,3.10635e+10,1.00005,0.981002,1316,5.17725,16,1,1
app_59,44.1358,20168.4,7950.1,37.4179,21.5279,3.59494e+10,1.00175,0.981002,364,1.71188,55,1,1
app_6,9.53069,19218.2,7742.3,79.9899,702.653,5.71149e+10,1.02572,0.981002,11,0.0813603,1686,1,1
app_60,1185.45,21918.1,7956.3,42.599,5.24571,4.24038e+10,1.00016,0.981002,1475,8.48077,14,1,1
app_7,14.5905,19871.3,7806.5,70.0306,373.006,4.4359e+10,1.019,0.981002,21,0.118925,927,1,1
app_8,3.20469,20298.3,7787.6,53.2471,647.894,4.44833e+09,1.02669,0.981002,12,0.00686471,1649,1,1
app_9,0.136446,19319.3,7661.7,76.575,957.195,3.38889e+09,1.04369,0.981002,8,0.00354116,2310,1,1
