app_id,start_app,end_app,effective_cpu,effective_io,effective_iter,total_bytes,stretch,utilization,Tcomp,Tio,iterations,priority,group_id
app_1,3.59705,19249.7,7910.4,81.8533,881.755,3.16761e+09,1.01092,0.993093,9,0.00359547,2116,0.1,1
app_10,3.47611,18498.1,7918.7,72.253,789.224,1.9454e+09,1.01002,0.993093,10,0.00246566,1825,0.1,1
app_11,8.44042,18960.9,7903.6,88.8276,878.133,4.60671e+10,1.00633,0.993093,9,0.0524682,2076,0.1,1
app_12,5.7692,19162.5,7953.2,42.8386,441.064,1.22298e+10,1.00434,0.993093,18,0.027732,1056,0.1,1
app_13,0.0428225,19853,7969.3,27.7369,257.087,2.26364e+10,1.00101,0.993093,31,0.0880793,640,0.1,1
app_14,6.94125,19217.9,7955.2,39.0762,418.358,4.93519e+09,1.00501,0.993093,19,0.0117785,1007,0.1,1
app_15,2.26685,17704.3,7838.2,148.058,1566.88,2.29466e+10,1.01766,0.993093,5,0.014653,3466,0.1,1
app_16,12.1771,19638.8,7959.9,36.5553,362.78,1.90703e+10,1.00264,0.993093,22,0.0525352,887,0.1,1
app_17,5.70531,19724.4,7957.1,39.1406,347.471,3.21521e+10,1.00135,0.993093,23,0.0923911,856,0.1,1
app_18,11.8393,20001.4,7963.3,34.3097,331.783,2.46144e+10,1.00151,0.993093,24,0.0741398,827,0.1,1
app_19,9.35228,18772.9,7916.5,75.8363,789.277,1.81265e+10,1.00824,0.993093,10,0.0229449,1854,0.1,1
app_2,10.1303,19694.4,7923.3,69.3054,721.667,2.21937e+10,1.00686,0.993093,11,0.0307393,1771,0.1,1
app_20,13.0807,19742.4,7945.6,50.0996,465.939,4.2217e+10,1.00153,0.993093,17,0.0905944,1151,0.1,1
app_21,3.81566,19850.1,7944.5,51.321,496.122,3.94024e+10,1.00202,0.993093,16,0.0794403,1233,0.1,1
app_22,30.5351,19899.7,7947.7,49.6303,116.29,4.27237e+10,1.0012,0.993093,68,0.368308,290,0.01,2
app_23,112.988,20300.8,7989.7,8.24617,40.0815,6.24399e+09,1.00051,0.993093,200,0.1561,100,0.01,2
app_24,23.5935,19849.3,7979.2,13.9867,144.186,1.75473e+09,1.00239,0.993093,55,0.0121016,358,0.01,2
app_25,139.183,20187.7,7973.7,24.425,51.7151,2.07203e+10,1.0007,0.993093,154,0.398467,130,0.01,2
app_26,26.6747,20087.2,7930.2,65.404,213.415,4.58142e+10,1.00301,0.993093,37,0.214085,536,0.01,2
app_27,6.21588,19813,7952.7,42.8271,184.656,3.46119e+10,1.00159,0.993093,43,0.188108,457,0.01,2
app_28,63.7072,20265.1,7973.5,24.5656,42.3387,2.09114e+10,1.0007,0.993093,187,0.497892,107,0.01,2
app_29,102.62,20084.8,7982.4,16.4095,76.3693,1.26305e+10,1.00062,0.993093,103,0.166191,193,0.01,2
app_3,30.5437,19561.8,7940,50.4587,255.32,2.64568e+10,1.00421,0.993093,31,0.103752,625,0.01,2
app_30,19.0547,19966.5,7949.2,43.7754,220.255,2.38268e+10,1.00338,0.993093,36,0.107814,549,0.01,2
app_31,158.794,20063.9,7948.5,51.0946,37.327,4.59275e+10,1.0007,0.993093,216,1.24128,92,0.01,2
app_32,4.55198,19903.6,7924.8,71.2928,361.292,4.74791e+10,1.00348,0.993093,22,0.131158,897,0.1,1
app_33,4.93226,20053.4,7974.4,22.982,76.7248,1.64271e+10,1.00115,0.993093,104,0.213339,192,0.01,2
app_34,38.1754,19850.7,7981.8,15.7498,155.886,5.11944e+09,1.00164,0.993093,51,0.0328169,386,0.01,2
app_35,66.9916,20214.8,7984.1,14.6882,46.7946,1.06024e+10,1.00066,0.993093,169,0.225583,118,0.01,2
app_36,99.5379,20148.5,7972.7,24.6324,53.7322,2.05575e+10,1.00084,0.993093,147,0.380694,135,0.01,2
app_37,40.2773,20111.4,7963.5,34.8261,76.0212,2.94056e+10,1.00089,0.993093,104,0.386916,192,0.01,2
app_38,86.5978,20042.1,7974.4,22.5666,71.3157,1.74568e+10,1.00102,0.993093,112,0.242456,177,0.01,2
app_39,99.358,20293.1,7954.1,43.8633,48.27,3.81576e+10,1.00097,0.993093,165,0.794951,121,0.01,2
app_4,0.27869,19076.4,7619.1,380.9,3808.99,1.43023e+10,1.04803,0.993093,2,0.00375486,9079,1,0
app_40,117.518,20250.3,7957.7,41.1589,55.0125,3.71066e+10,1.00065,0.993093,144,0.674665,139,0.01,2
app_41,1360.1,22135.6,7953.5,46.5,5.02184,3.91288e+10,1.00092,0.993093,1564,7.82576,13,0.001,3
app_42,186.498,20783.4,7956.1,42.958,7.39441,3.76358e+10,1.00078,0.993093,1067,5.37654,19,0.001,3
app_43,466.389,20707.9,7966.3,25.8575,16.4327,1.9236e+10,1.00181,0.993093,484,1.13153,42,0.001,3
app_44,244.133,20530.5,7986.2,6.05875,7.68826,5.26539e+09,1.00107,0.993093,1052,0.752199,19,0.001,3
app_45,1489.95,23028.8,7950.7,49.3,3.98608,4.17077e+10,1.00095,0.993093,1902,10.4269,11,0.001,3
app_46,168.166,20027.9,7964.6,34.4794,36.2311,3.04051e+10,1.00062,0.993093,221,0.844585,90,0.01,2
app_47,1711.69,23954.1,7955.6,44.4,3.70131,3.76302e+10,1.00085,0.993093,2196,9.40755,10,0.001,3
app_48,947.182,21285.4,7947.8,52.2,4.37465,4.44529e+10,1.00097,0.993093,1836,8.89059,11,0.001,3
app_49,60.5194,20200.3,7978.1,21.6048,32.8324,1.88294e+10,1.00038,0.993093,241,0.570587,83,0.01,2
app_5,6.82807,17764,7860.6,126.774,1309.33,3.45212e+10,1.01328,0.993093,6,0.0263722,2908,0.1,1
app_50,1863.42,23246.2,7960.6,39.4,2.94674,3.47894e+10,1.00058,0.993093,2762,11.5965,8,0.001,3
app_51,104.96,20126.2,7958,42,4.40558,3.39243e+10,1.00101,0.993093,1842,8.48107,11,0.001,3
app_52,720.897,21758.5,7958.2,38.8157,6.96696,3.3336e+10,1.00106,0.993093,1171,4.76228,18,0.001,3
app_53,80.5145,20210.8,7956.8,42.8032,26.8412,3.85878e+10,1.00058,0.993093,293,1.42918,68,0.01,2
app_54,227.408,20250.7,7938.2,55.2479,7.30472,4.49345e+10,1.00211,0.993093,1123,6.41922,18,0.001,3
app_55,200.563,20989.8,7955.1,44.9,9.38114,3.96514e+10,1.00066,0.993093,846,4.40571,24,0.001,3
app_56,1012.42,21370.3,7951.8,38.96,7.83511,3.53417e+10,1.00161,0.993093,1024,4.41771,20,0.001,3
app_57,448.733,20915.1,7965.6,34.4,13.8266,2.81524e+10,1.00078,0.993093,568,2.01089,36,0.001,3
app_58,506.704,21373,7951.5,48.5,15.2572,3.95867e+10,1.00112,0.993093,510,2.63911,40,0.001,3
app_59,1003.23,20874.8,7987.3,12.7,6.78058,1.13682e+10,1.00017,0.993093,1206,1.8947,17,0.001,3
app_6,24.8063,19453.2,7933.4,63.4529,330.838,3.37587e+10,1.00412,0.993093,24,0.10199,805,0.1,1
app_60,10.1349,19780.8,7982.1,15.9022,152.817,9.9577e+09,1.00099,0.993093,52,0.065083,378,0.01,2
app_7,3.78091,18627.7,7862.5,125.91,1313.69,2.62091e+10,1.01411,0.993093,6,0.019946,3057,0.1,1
app_8,19.7606,20036.6,7929.7,63.7408,209.27,4.51986e+10,1.00315,0.993093,38,0.216261,523,0.01,2
app_9,1.48322,19706.3,7942.2,53.0101,529.586,2.52848e+10,1.00408,0.993093,15,0.0477073,1306,0.1,1
