app_id,start_app,end_app,effective_cpu,effective_io,effective_iter,total_bytes,stretch,utilization,Tcomp,Tio,iterations,priority,group_id
app_1,1.1706,20382.1,7433.6,121.848,1486.31,9.47282e+09,1.07482,0.97783,5,0.00637042,3808,1,1
app_10,12.9018,19711.5,7778.7,58.9187,310.589,3.8631e+10,1.02337,0.97783,25,0.124216,770,1,1
app_11,17.4883,20103.7,7807.2,39.2448,411.856,1.53972e+10,1.02268,0.97783,19,0.0373719,1033,1,1
app_12,11.3282,20063,7786.9,32.1151,372.051,4.24519e+09,1.02681,0.97783,21,0.0114118,933,1,1
app_13,6.88652,19936,7794.6,70.3812,370.107,4.5166e+10,1.02044,0.97783,21,0.12207,923,1,1
app_14,0.306745,19430.3,7675.9,62.0763,698.438,1.27749e+10,1.04049,0.97783,11,0.0182759,1706,1,1
app_15,2.45737,19389.1,7752.4,57.785,483.678,4.78816e+10,1.0256,0.97783,16,0.098929,1177,1,1
app_16,3.81161,19956.8,7432.4,125.396,1483.41,1.8545e+10,1.07369,0.97783,5,0.0124967,3725,1,1
app_17,8.8978,20413.3,7835.8,32.3043,373.946,5.62827e+09,1.02022,0.97783,21,0.0150488,951,1,1
app_18,2.23233,20004.5,7745.7,41.3704,516.772,1.44907e+09,1.03264,0.97783,15,0.00280827,1295,1,1
app_19,2.1344,18978.1,7622.2,68.3182,846.38,3.13488e+09,1.04913,0.97783,9,0.00370116,2019,1,1
app_2,1.72385,17055.5,7233.4,211.662,2411.57,4.07945e+10,1.09978,0.97783,3,0.0169131,5180,1,1
app_20,8.48993,19729.8,7747.1,89.181,484.663,5.37204e+10,1.02553,0.97783,16,0.110992,1198,1,1
app_21,28.2484,20087.3,7954.2,17.0459,58.7999,1.3836e+10,1.00401,0.97783,135,0.234508,148,1,1
app_22,47.5061,19829.1,7932.1,13.4895,126.025,7.7643e+09,1.00757,0.97783,63,0.0616214,313,1,1
app_23,81.8229,20041,7942.2,52.7081,47.8019,5.00679e+10,1.00097,0.97783,165,1.04308,121,1,1
app_24,43.9849,20106.6,7899,36.4611,171.948,3.03399e+10,1.00891,0.97783,46,0.176395,431,1,1
app_25,132.169,20394.9,7955,38.7799,44.2436,3.54906e+10,1.00119,0.97783,179,0.806605,112,1,1
app_26,37.7057,20023.3,7890.1,47.9905,161.561,3.97559e+10,1.00885,0.97783,49,0.246931,402,1,1
app_27,23.644,20220.2,7961.6,12.8608,63.5334,9.06387e+09,1.00368,0.97783,125,0.143871,160,1,1
app_28,19.9889,20184.7,7958,26.4931,52.6273,2.45158e+10,1.00219,0.97783,150,0.462562,133,1,1
app_29,22.3062,19985.2,7950.5,17.5341,94.3843,1.1891e+10,1.00472,0.97783,84,0.1265,236,1,1
app_3,9.25403,19409.3,7725.1,88.2555,481.393,5.21126e+10,1.02865,0.97783,16,0.108342,1171,1,1
app_30,83.4364,20074.9,7967.4,19.8454,48.6793,1.86758e+10,1.00174,0.97783,163,0.389078,122,1,1
app_31,30.7969,20149.9,7930.2,5.81904,73.2041,3.06741e+08,1.00876,0.97783,110,0.00420193,182,1,1
app_32,31.2924,20054.6,7900.2,61.6782,126.213,5.20071e+10,1.00601,0.97783,62,0.409505,317,1,1
app_33,52.7127,20290.5,7929.2,18.1387,94.8465,1.26247e+10,1.00733,0.97783,83,0.132891,241,1,1
app_34,62.6602,20296.7,7973,24.8299,35.3805,2.42522e+10,1.00034,0.97783,226,0.692921,89,1,1
app_35,14.2602,20026.9,7892,45.4727,151.137,3.77097e+10,1.00886,0.97783,52,0.249733,380,1,1
app_36,57.102,19955.9,7953.8,16.0159,80.8456,1.15032e+10,1.00436,0.97783,99,0.142015,202,1,1
app_37,68.5115,20020.8,7929.7,41.3871,69.0837,3.79205e+10,1.00406,0.97783,114,0.549572,174,1,1
app_38,1.99865,18038.1,7240.2,212.113,2409.83,4.31731e+10,1.09839,0.97783,3,0.0179141,5472,1,1
app_39,55.5935,20227.8,7942.8,30.0273,101.05,2.57041e+10,1.00395,0.97783,78,0.254496,255,1,1
app_4,2.05687,18829.4,7408.9,137.525,1480.24,4.50889e+10,1.07325,0.97783,5,0.0304655,3513,1,1
app_40,8.5336,19954.8,7889.3,23.1012,201.754,1.84087e+10,1.01167,0.97783,39,0.0911323,503,1,1
app_41,640.287,21036.5,7989.7,10.0735,4.3709,9.93131e+09,1.00005,0.97783,1849,1.98626,11,1,1
app_42,1847.86,21620.6,7975.9,11.9198,4.57318,1.16527e+10,1.00156,0.97783,1870,2.91318,11,1,1
app_43,207.636,20137.8,7949.7,40.2073,23.5283,3.85502e+10,1.00147,0.97783,339,1.60626,59,1,1
app_44,143.415,20213.4,7935.1,42.1513,54.377,3.90705e+10,1.00324,0.97783,144,0.723528,138,1,1
app_45,970.297,22504.8,7982.9,11.6993,4.11247,1.1529e+10,1.0007,0.97783,1945,2.88225,11,1,1
app_46,2775.13,25811.8,7940.9,59.0648,2.51225,5.89723e+10,1.00002,0.97783,3148,19.6574,7,1,1
app_47,1092.79,21690,7955.3,43.398,5.33727,4.31145e+10,1.0002,0.97783,1436,8.62289,14,1,1
app_48,828.097,20958.8,7947.9,51.3518,9.38527,5.08832e+10,1.00015,0.97783,837,5.65369,24,1,1
app_49,1473.76,22729.4,7956.5,43.4776,5.26158,4.30731e+10,1.00005,0.97783,1484,8.61461,14,1,1
app_5,1.01204,21173.3,7440,127.771,1491.7,2.09045e+10,1.07226,0.97783,5,0.0140111,3966,1,1
app_50,522.716,21628.5,7980.4,19.1322,6.43621,1.86763e+10,1.00012,0.97783,1241,3.11271,17,1,1
app_51,1036.01,21883.7,7956,39.0634,7.59139,3.86005e+10,1.00068,0.97783,1105,4.82506,19,1,1
app_52,974.157,22556.8,7969.6,30.4,4.05148,3.00411e+10,1.00004,0.97783,1931,7.51028,11,1,1
app_53,1341.07,23735.3,7957.2,42.8,2.14188,4.2771e+10,1,0.97783,3807,21.3855,6,1,1
app_54,616.973,21078.3,7936.3,58.1998,10.1955,5.74839e+10,1.00078,0.97783,774,5.22581,26,1,1
app_55,996.544,22116.7,7956.8,27.1656,7.60992,2.65817e+10,1.00208,0.97783,1035,3.32271,20,1,1
app_56,466.251,21668.9,7990.6,6.42388,4.82572,6.03476e+09,1.00042,0.97783,1662,1.20695,13,1,1
app_57,25.2438,21085.2,7964.9,33.871,4.68212,3.3622e+10,1.00018,0.97783,1706,6.72439,12,1,1
app_58,109.1,20682.8,7964.6,33.7213,8.66093,3.345e+10,1.00024,0.97783,916,4.18125,22,1,1
app_59,337.439,20406.8,7993.3,1.73108,16.2665,1.19681e+09,1.00069,0.97783,488,0.0704005,41,1,1
app_6,10.4222,19449.7,7730.3,59.7551,553.61,3.83276e+10,1.02978,0.97783,14,0.0691835,1346,1,1
app_60,356.941,20684.2,7979.2,19.3021,13.1735,1.83361e+10,1.00031,0.97783,609,1.30972,33,1,1
app_7,0.564103,19406.8,7566.6,85.854,1081.21,2.86441e+09,1.05688,0.97783,7,0.00264733,2632,1,1
app_8,1.97167,20422.8,7069.7,293.324,3531.47,9.28652e+09,1.13011,0.97783,2,0.00262925,9066,1,1
app_9,1.96852,20820,7498.8,113.205,1248.58,3.30737e+10,1.06215,0.97783,6,0.0265014,3266,1,1
