app_id,start_app,end_app,effective_cpu,effective_io,effective_iter,total_bytes,stretch,utilization,Tcomp,Tio,iterations,priority,group_id
app_1,21.248,20068.3,7964.5,32.723,255.422,2.44329e+10,1.00139,0.989419,31,0.0958153,642,0.1,1
app_10,15.1715,19199.2,7947.9,46.857,439.29,3.51337e+10,1.00213,0.989419,18,0.0800312,1059,0.1,1
app_11,11.3881,18810.3,7925.4,67.8971,660.083,4.07369e+10,1.00425,0.989419,12,0.0617226,1551,0.1,1
app_12,2.56447,14743.5,7612.2,350.998,3802.3,3.27381e+10,1.04644,0.989419,2,0.00860851,7009,1,0
app_13,27.4846,19395.1,7968.9,28.6496,286.494,1.19106e+10,1.0024,0.989419,28,0.0415005,693,0.1,1
app_14,4.92099,20110.1,7918.1,73.1475,791.451,6.62819e+09,1.0095,0.989419,10,0.00836892,1989,0.1,1
app_15,8.91515,18064.3,7893.1,97.7372,985.556,4.10901e+10,1.00829,0.989419,8,0.0417158,2226,0.1,1
app_16,3.03905,19313.6,7950.5,44.6334,417.452,3.34597e+10,1.00201,0.989419,19,0.0800472,1009,0.1,1
app_17,0.887728,19826.6,7271.8,675.202,7276.09,1.54853e+09,1.09991,0.989419,1,0.000212827,18026,1,0
app_18,0.541629,14190,7609.9,356.211,3804.73,5.3801e+10,1.04388,0.989419,2,0.0141395,6749,1,0
app_19,1.76522,17011.5,7731.5,240.16,2576.87,3.65988e+10,1.02985,0.989419,3,0.0142021,5478,0.1,1
app_2,2.44506,16546.1,7800.8,178.48,1954.79,5.12026e+09,1.02486,0.989419,4,0.00261906,4043,0.1,1
app_20,6.84809,19997.6,7877.9,109.983,1121.01,4.04489e+10,1.01031,0.989419,7,0.0360829,2807,0.1,1
app_21,5.53265,20107,7962.5,35.1168,37.9593,3.03736e+10,1.00089,0.989419,211,0.799305,95,0.01,2
app_22,6.59965,19933.1,7971.7,25.5291,105.601,1.98867e+10,1.00105,0.989419,76,0.18761,262,0.01,2
app_23,73.82,20102,7981.6,15.6512,76.4616,1.02672e+10,1.00102,0.989419,104,0.13334,192,0.01,2
app_24,40.2019,20043.6,7954.5,40.4241,133.044,2.87612e+10,1.0021,0.989419,60,0.214636,332,0.01,2
app_25,74.5093,20261.2,7995.7,3.89887,36.7561,1.64787e+09,1.00033,0.989419,215,0.0445371,93,0.01,2
app_26,60.5437,20202.9,7949.3,49.523,79.4457,4.20528e+10,1.00108,0.989419,99,0.532314,201,0.01,2
app_27,92.1008,20157.4,7957.1,41.1558,51.7672,3.5517e+10,1.00092,0.989419,152,0.683019,131,0.01,2
app_28,224.334,20094.1,7966.1,33.2718,30.6871,2.85711e+10,1.00067,0.989419,258,0.921648,77,0.01,2
app_29,45.2085,19855.9,7957.6,41.5414,53.1579,3.51463e+10,1.00091,0.989419,150,0.650857,132,0.01,2
app_3,5.96618,19942.1,7937.5,57.3432,568.529,2.96536e+10,1.00412,0.989419,14,0.0521153,1413,0.1,1
app_30,81.9181,20098.1,7956.4,41.5198,48.7773,3.58948e+10,1.00096,0.989419,162,0.732546,123,0.01,2
app_31,172.341,20272.7,7974.5,24.504,29.3696,2.11272e+10,1.00055,0.989419,271,0.728525,74,0.01,2
app_32,12.5693,19805.8,7965.5,31.2996,306.669,1.74752e+10,1.00213,0.989419,26,0.0569224,759,0.1,1
app_33,156.915,20432.8,7956.8,41.1597,41.4955,3.61244e+10,1.00089,0.989419,189,0.860104,106,0.01,2
app_34,5.63876,19807.2,7941.7,54.614,159.026,4.41084e+10,1.00178,0.989419,50,0.277411,394,0.01,2
app_35,49.6176,19861.8,7987.5,10.7676,107.828,5.07507e+09,1.00093,0.989419,74,0.0469914,267,0.01,2
app_36,89.4145,20041.7,7944.5,53.8228,86.3394,4.46303e+10,1.00136,0.989419,93,0.512992,214,0.01,2
app_37,51.9837,20052.6,7953,45.5768,47.1956,4.05471e+10,1.00081,0.989419,172,0.862704,116,0.01,2
app_38,39.8849,19911.9,7974.1,24.3037,44.0366,2.06747e+10,1.00065,0.989419,183,0.469879,109,0.01,2
app_39,31.4516,19865.9,7946.1,51.8078,101.104,4.2531e+10,1.00142,0.989419,79,0.421099,250,0.01,2
app_4,12.0229,19682.6,7935.8,58.0001,567.636,3.5339e+10,1.00362,0.989419,14,0.0622166,1393,0.1,1
app_40,78.9531,19994,7979.8,19.3735,52.4773,1.54792e+10,1.00059,0.989419,152,0.297677,131,0.01,2
app_41,415.667,20582.3,7984.8,15.2,16.4148,1.20208e+10,1.0004,0.989419,490,0.751301,41,0.001,3
app_42,36.2331,19942.6,7990.1,8.47964,77.549,5.86252e+09,1.0005,0.989419,104,0.0751605,192,0.01,2
app_43,404.894,20779.3,7976.8,22.0068,8.15314,1.88017e+10,1.00055,0.989419,955,2.08908,21,0.001,3
app_44,611.509,21430.6,7945.1,37.8178,8.64303,3.19728e+10,1.00287,0.989419,939,3.55253,22,0.001,3
app_45,54.6842,19917.9,7967.9,28.637,112.004,2.17765e+10,1.00129,0.989419,71,0.194433,278,0.01,2
app_46,892.672,21399.8,7947.9,51.4711,3.85661,4.26556e+10,1.00118,0.989419,2119,10.6639,10,0.001,3
app_47,1783.87,23886,7952.5,47.5,3.58425,3.82467e+10,1.00116,0.989419,2161,9.56167,10,0.001,3
app_48,883.534,20889.9,7954.4,45.6,7.6117,3.94088e+10,1.00077,0.989419,1052,4.92611,19,0.001,3
app_49,946.886,21278.9,7975.4,24.6,5.56118,2.11273e+10,1.00043,0.989419,1465,4.22547,14,0.001,3
app_5,2.5414,16877.2,7793.8,186.05,1951.47,4.01382e+10,1.0212,0.989419,4,0.0205732,4113,0.1,1
app_50,101.99,20273.8,7963,25.2866,18.3688,2.01845e+10,1.00211,0.989419,429,1.12136,47,0.001,3
app_51,1248.81,21382.3,7946.5,53.5,5.95878,4.43034e+10,1.00115,0.989419,1329,7.3839,15,0.001,3
app_52,45.3198,20649.7,7946.8,44.2952,14.4189,3.8234e+10,1.00187,0.989419,552,2.731,37,0.001,3
app_53,258.543,20254.5,7956.3,43.3177,18.4744,3.63394e+10,1.00092,0.989419,436,2.01886,46,0.001,3
app_54,445.974,20817.5,7940.8,59.2,13.1945,4.95599e+10,1.00121,0.989419,611,3.53999,33,0.001,3
app_55,1262.49,22341.7,7951.6,48.4,5.88424,4.12477e+10,1.00089,0.989419,1299,6.87462,16,0.001,3
app_56,248.147,20606.9,7914.5,51.8274,19.6591,4.42718e+10,1.00518,0.989419,400,2.3301,50,0.001,3
app_57,201.784,20144.4,7995.9,2.00859,18.3391,2.04004e+08,1.00049,0.989419,437,0.0113336,46,0.001,3
app_58,266.405,20666.4,7971,29,10.5469,2.42487e+10,1.00059,0.989419,762,2.42487,27,0.001,3
app_59,871.017,21597.2,7984.2,15.8,6.25436,1.1519e+10,1.00054,0.989419,1307,1.91984,16,0.001,3
app_6,7.87838,19438.7,7939.6,55.6975,568.33,2.1505e+10,1.00489,0.989419,14,0.0378609,1379,0.1,1
app_60,1034.34,23569.7,7991.9,8.1,3.91212,7.16617e+09,1.00012,0.989419,1996,1.79154,11,0.001,3
app_7,0.914764,16861.1,7799.5,181.42,1949.8,1.81013e+10,1.02333,0.989419,4,0.0092827,4112,0.1,1
app_8,1.42105,15240.8,7615.8,351.698,3807.8,1.78057e+10,1.048,0.989419,2,0.00467705,7251,1,0
app_9,3.20341,19215.6,7893.2,96.4705,986.988,3.47173e+10,1.00909,0.989419,8,0.0351746,2370,0.1,1
