app_id,start_app,end_app,effective_cpu,effective_io,effective_iter,total_bytes,stretch,utilization,Tcomp,Tio,iterations,priority,group_id
app_1,7.90484,19266.2,7935.5,64.5,566.879,3.57486e+10,1.00361,0.97867,14,0.0630486,1366,1,1
app_10,8.52798,19238.7,7959.6,40.4,399.45,1.39251e+10,1.00332,0.97867,20,0.0349,957,1.00001,1.00001
app_11,0.224911,18694.2,7618.6,381.4,3813.53,3.17713e+10,1.0457,0.97867,2,0.00833017,8907,1.00001,1.00001
app_12,4.60484,18475.1,7886.6,113.4,1126.95,3.14408e+10,1.01035,0.97867,7,0.0278978,2602,1.00001,1.00001
app_13,4.33018,18785.1,7864.9,135.1,1310.1,5.30325e+10,1.01036,0.97867,6,0.0404828,3075,1.00001,1.00001
app_14,1.02154,14304.2,7272.1,727.9,7279.69,4.77025e+10,1.09293,0.97867,1,0.00655344,13016,1.00001,1.00001
app_15,4.12496,16853.6,7805.2,194.8,1948.71,1.81452e+10,1.02258,0.97867,4,0.0093148,4101,1.00002,1.00002
app_16,7.50801,19951,7908.2,91.8,788.786,4.93044e+10,1.00534,0.97867,10,0.0624897,1972,1.00002,1.00002
app_17,5.66108,19215.6,7915.4,84.6,396.71,4.01046e+10,1.00559,0.97867,20,0.101019,951,1.00002,1.00002
app_18,4.29396,19918.4,7920.3,79.7,794.148,2.12702e+10,1.00736,0.97867,10,0.0267887,1977,1.00002,1.00002
app_19,1.75506,18665.6,7911.8,88.2,719.768,5.00481e+10,1.00479,0.97867,11,0.0695112,1678,1.00002,1.00002
app_2,2.62683,20098.8,7927.8,72.2,566.666,4.2499e+10,1.00373,0.97867,14,0.0749541,1421,1,1
app_20,1.77596,11732.6,5211.4,521.2,5211.23,5.68454e+10,1.51853,0.97867,1,0.0109066,10657,1.00002,1.00002
app_21,26.035,20079.2,7985.7,14.3,142.383,2.63539e+09,1.00146,0.97867,56,0.0184293,357,1.00002,1.00002
app_22,28.6939,19935.9,7992.3,7.7,76.7892,6.09786e+08,1.00089,0.97867,105,0.0079193,190,1.00002,1.00002
app_23,1.66652,19713.4,7934.3,65.7,67.4748,4.77849e+10,1.00224,0.97867,119,0.713208,166,1.00002,1.00002
app_24,42.898,20089.6,7950.4,49.6,44.0902,3.60136e+10,1.0017,0.97867,181,0.81849,110,1.00002,1.00002
app_25,18.8109,20012.6,7972.3,27.7,107.39,1.93088e+10,1.00105,0.97867,74,0.178786,268,1.00003,1.00003
app_26,119.217,20120.6,7955.3,44.7,55.9217,3.43328e+10,1.0013,0.97867,143,0.613086,139,1.00003,1.00003
app_27,168.814,20284.7,7988.2,11.8,44.0728,8.15241e+09,1.00046,0.97867,180,0.185282,111,1.00003,1.00003
app_28,4.96068,19711.8,7922,78,226.98,5.15415e+10,1.00332,0.97867,35,0.227055,559,1.00003,1.00003
app_29,78.1838,20120.3,7979.7,20.3,94.6781,1.00412e+10,1.00128,0.97867,84,0.106821,238,1.00003,1.00003
app_3,2.35475,16315.1,7619,381,3810.4,5.87265e+10,1.04198,0.97867,2,0.0154138,7764,1,1
app_30,73.4412,20095.6,7943.7,56.3,85.9359,4.08079e+10,1.00194,0.97867,92,0.474511,216,1.00003,1.00003
app_31,75.5814,20018.9,7976,24,41.3381,1.59561e+10,1.00101,0.97867,194,0.389172,103,1.00003,1.00003
app_32,242.735,20419,7945.9,54.1,31.9704,4.38088e+10,1.00129,0.97867,248,1.36903,81,1.00003,1.00003
app_33,6.70152,20067.1,7923.5,76.5,720.367,3.26935e+10,1.00551,0.97867,11,0.0453447,1807,1.00003,1.00003
app_34,105.261,20220,7959.3,40.7,55.5125,3.11196e+10,1.0012,0.97867,142,0.555708,140,1.00003,1.00003
app_35,30.7228,19928.3,7962.6,37.4,169.49,2.22532e+10,1.0019,0.97867,47,0.130901,422,1.00004,1.00004
app_36,201.288,20356.3,7928.8,71.2,35.7379,5.26824e+10,1.00232,0.97867,219,1.4634,91,1.00004,1.00004
app_37,70.3636,19834.1,7992.1,7.9,69.538,3.18546e+09,1.00059,0.97867,117,0.0455065,170,1.00004,1.00004
app_38,2.88415,19568.1,7975.8,24.2,241.484,4.88637e+09,1.00242,0.97867,33,0.0201916,591,1.00004,1.00004
app_39,61.0848,19985.2,7984.3,15.7,123.191,8.99379e+09,1.00084,0.97867,65,0.0731203,306,1.00004,1.00004
app_4,2.66123,19306.9,7741.8,258.2,2581.84,2.89837e+10,1.0295,0.97867,3,0.0112253,6234,1,1
app_40,84.0715,20136.7,7957.4,42.6,65.6105,3.35796e+10,1.00113,0.97867,121,0.508782,165,1.00004,1.00004
app_41,621.014,21505.9,7972.8,27.2,8.95027,1.79235e+10,1.00116,0.97867,894,1.9915,23,1.00004,1.00004
app_42,2495.61,25753.8,7977.4,22.6,2.79556,1.85607e+10,1.00051,0.97867,2836,9.28036,8,1.00004,1.00004
app_43,967.733,21352.9,7990.1,9.9,7.47246,6.32142e+09,1.00045,0.97867,1066,0.790177,19,1.00004,1.00004
app_44,155.45,20350.8,7967,33,13.716,2.58978e+10,1.00089,0.97867,592,1.84985,34,1.00004,1.00004
app_45,453.29,21089.6,7991.5,8.5,9.1262,6.58784e+09,1.00024,0.97867,865,0.731982,24,1.00004,1.00004
app_46,161.695,20214.6,7932.3,67.7,18.0494,5.6013e+10,1.00146,0.97867,446,2.94805,45,1.00005,1.00005
app_47,307.878,20558.2,7977.5,22.5,12.5494,1.83175e+10,1.00052,0.97867,631,1.52646,32,1.00005,1.00005
app_48,50.3911,20453.4,7972.3,27.7,3.46286,2.22368e+10,1.00068,0.97867,2285,5.55921,9,1.00005,1.00005
app_49,16.7097,20028.7,7951.3,48.7,83.2954,3.71213e+10,1.00145,0.97867,95,0.441921,210,1.00005,1.00005
app_5,4.10606,19484.6,7959.7,40.3,397.738,1.28155e+10,1.00345,0.97867,20,0.0321997,969,1.00001,1.00001
app_50,301.613,20893.9,7983.1,16.9,5.47648,1.34231e+10,1.00043,0.97867,1451,2.23718,14,1.00005,1.00005
app_51,1615.91,23319.8,7992.8,7.2,4.82752,4.66796e+09,1.00032,0.97867,1632,0.933592,13,1.00005,1.00005
app_52,1292.91,21725.6,7983.8,16.2,5.7109,1.30015e+10,1.0004,0.97867,1367,2.16692,15,1.00005,1.00005
app_53,1321.48,22894.3,7963.2,36.8,3.00185,2.76766e+10,1.00114,0.97867,2687,9.22554,8,1.00005,1.00005
app_54,63.4906,20359.1,7950.4,49.6,36.1497,3.51901e+10,1.0018,0.97867,218,0.977502,92,1.00005,1.00005
app_55,23.1634,19739,7947.4,52.6,220.725,3.70076e+10,1.00195,0.97867,36,0.168216,543,1.00005,1.00005
app_56,307.8,20698.1,7957,43,10.9778,2.99981e+10,1.00163,0.97867,720,2.7271,28,1.00006,1.00006
app_57,532.752,20817.7,7995.1,4.9,8.32302,3.82832e+09,1.00013,0.97867,982,0.425369,21,1.00006,1.00006
app_58,193.527,20470.7,7956.1,43.9,34.8754,3.49417e+10,1.00112,0.97867,226,0.998335,89,1.00006,1.00006
app_59,166.387,20525.2,7993.2,6.8,7.48128,5.87121e+09,1.00012,0.97867,1070,0.838744,19,1.00006,1.00006
app_6,1.39883,15877.4,7619.2,380.8,3807.54,3.4781e+10,1.04521,0.97867,2,0.00913365,7560,1.00001,1.00001
app_60,675.331,21207.2,7966.5,33.5,8.83103,2.50756e+10,1.00105,0.97867,895,2.78618,23,1.00006,1.00006
app_7,6.71726,19207.1,7931.4,68.6,468.411,4.1946e+10,1.00334,0.97867,17,0.0894372,1123,1.00001,1.00001
app_8,0.530642,11679.9,5163.63,516.3,5162.17,2.67241e+10,1.54132,0.97867,1,0.00517608,10615,1.00001,1.00001
app_9,15.9432,19455.4,7939.2,60.8,496.98,3.57158e+10,1.00315,0.97867,16,0.0718627,1204,1.00001,1.00001
