app_id,start_app,end_app,effective_cpu,effective_io,effective_iter,total_bytes,stretch,utilization,Tcomp,Tio,iterations,priority,group_id
app_1,6.01185,20055,7757.4,56.4882,555.85,2.93223e+10,1.02739,0.9793,14,0.052738,1394,1,1
app_10,1.14629,16734.6,7321.7,187.739,2444.19,2.12668e+09,1.09233,0.9793,3,0.000870164,5128,1,1
app_11,2.71556,19590.1,7312.5,208.388,2437.88,3.77905e+10,1.08839,0.9793,3,0.0155006,5990,1,1
app_12,9.47637,20071.4,7814.7,44.6891,487.322,1.30071e+10,1.02201,0.9793,16,0.0267085,1221,1,1
app_13,1.47675,16435.9,7288.5,217.632,2429.54,6.40325e+10,1.08806,0.9793,3,0.0263508,5020,1,1
app_14,8.41177,19651.4,7735.3,52.2018,593.929,1.18983e+10,1.03263,0.9793,13,0.0200309,1466,1,1
app_15,4.68501,20372.3,7649.1,68.8011,849.322,3.57459e+09,1.04539,0.9793,9,0.00421036,2173,1,1
app_16,0.872413,17279.1,7314.06,213.872,2436.13,5.00245e+10,1.08635,0.9793,3,0.0205318,5280,1,1
app_17,0.605981,20021.8,7814.4,68.5194,353.517,4.80764e+10,1.01749,0.9793,22,0.135809,888,1,1
app_18,12.299,19717.5,7842.4,30.5318,392.694,4.4633e+07,1.02009,0.9793,20,0.00011357,967,1,1
app_19,11.1324,19996.8,7806.3,56.7832,311.293,3.46913e+10,1.02028,0.9793,25,0.11119,782,1,1
app_2,0.610741,17863.8,7113.3,307.045,3555.89,5.19343e+10,1.1165,0.9793,2,0.0146088,7970,1,1
app_20,1.80911,20656.9,7419.26,165.093,1855.41,4.00872e+10,1.07248,0.9793,4,0.0215987,4805,1,1
app_21,16.7607,19773.1,7803.8,49.5342,411.74,4.09857e+10,1.01979,0.9793,19,0.0994798,1017,1,1
app_22,161.132,20308.5,7969.5,15.0247,49.2159,1.25297e+10,1.00225,0.9793,164,0.250593,122,1,1
app_23,43.5107,20126.7,7897.1,47.5064,172.115,3.47501e+10,1.00859,0.9793,46,0.202035,431,1,1
app_24,1.12679,20212,7939.8,38.5066,49.3145,3.50704e+10,1.00315,0.9793,158,0.715722,126,1,1
app_25,12.6518,20045.6,7952.2,15.6903,143.795,9.78167e+09,1.00477,0.9793,55,0.0679283,361,1,1
app_26,47.0885,20098.8,7943.1,13.5489,124.379,7.61791e+09,1.0062,0.9793,64,0.0609432,312,1,1
app_27,2.66396,19913.1,7969.2,23.5705,46.1298,2.22546e+10,1.00107,0.9793,174,0.483796,115,1,1
app_28,65.2249,20117.4,7965.8,30.0611,38.4911,2.76796e+10,1.00082,0.9793,206,0.728409,97,1,1
app_29,34.8405,19936.4,7922.3,44.9909,115.681,3.81521e+10,1.00497,0.9793,69,0.331758,286,1,1
app_3,16.6116,20160.4,7830,39.2888,413.652,1.73382e+10,1.01945,0.9793,19,0.0419812,1041,1,1
app_30,19.7509,19965.5,7972.4,22.9481,57.4743,1.92396e+10,1.00105,0.9793,138,0.331717,144,1,1
app_31,58.3078,20041.6,7989.6,3.60285,38.6655,1.19911e+09,1.00115,0.9793,209,0.0307464,96,1,1
app_32,101.934,20231.9,7969.2,9.97924,50.7937,6.33801e+09,1.00307,0.9793,156,0.124275,128,1,1
app_33,15.4886,19898.8,7886.5,24.5637,245.831,1.21433e+10,1.01283,0.9793,32,0.0493631,613,1,1
app_34,135.73,20379.7,7977.2,12.5716,31.6419,1.18197e+10,1.00137,0.9793,251,0.38128,80,1,1
app_35,15.5673,19829.4,7878.4,58.8624,145.182,5.17908e+10,1.0088,0.9793,54,0.354732,362,1,1
app_36,66.9896,20122,7939.9,49.9281,44.8014,4.87362e+10,1.00142,0.9793,176,1.08303,113,1,1
app_37,114.563,20287.2,7954.1,18.7322,59.0075,1.65241e+10,1.00369,0.9793,134,0.280069,149,1,1
app_38,11.1142,20089.3,7948.1,42.9866,72.0127,3.92748e+10,1.00158,0.9793,110,0.545483,180,1,1
app_39,97.2592,20028.2,7965.5,19.9475,24.4058,1.86053e+10,1.00199,0.9793,329,0.744214,61,1,1
app_4,3.85442,19367.7,7538.2,121.888,1254.54,5.3683e+10,1.05376,0.9793,6,0.0427753,3043,1,1
app_40,0.10026,20088.5,7904.1,46.8112,120.197,3.95482e+10,1.00709,0.9793,66,0.329568,300,1,1
app_41,507.75,20549.4,7975.5,23.6201,11.8204,2.28986e+10,1.0002,0.9793,693,1.90822,29,1,1
app_42,698.692,20694.2,7985,6.17613,8.79419,5.68628e+09,1.00117,0.9793,916,0.631808,22,1,1
app_43,53.8433,20255.5,7973.4,22.6071,56.7293,1.98057e+10,1.00085,0.9793,140,0.353674,143,1,1
app_44,589.61,20727.4,7979.1,17.8008,9.46979,1.72578e+10,1.00046,0.9793,848,1.72578,24,1,1
app_45,354.174,21084.1,7965.9,32.0113,11.4802,3.16284e+10,1.00031,0.9793,679,2.87531,30,1,1
app_46,471.112,19638.7,7959.8,40.1826,2.92832,3.99211e+10,1.00003,0.9793,2879,13.307,7,1,1
app_47,668.102,22836.3,7963.7,34.2057,3.32227,3.41222e+10,1.00027,0.9793,2468,11.3741,9,1,1
app_48,1.39586,20316,7963.1,26.9811,15.0972,2.61979e+10,1.00134,0.9793,519,1.74652,39,1,1
app_49,593.325,21455.8,7973.2,23.9102,7.85529,2.33543e+10,1.00043,0.9793,991,2.91928,21,1,1
app_5,12.2613,20355.4,7825.5,38.5063,410.506,1.49741e+10,1.02035,0.9793,19,0.0365222,1047,1,1
app_50,1594.31,22579.5,7984.7,14.7776,2.72929,1.46463e+10,1.00008,0.9793,3040,4.88211,7,1,1
app_51,650.239,21987.1,7983.7,16.22,6.57186,1.60864e+10,1.00003,0.9793,1164,2.29805,18,1,1
app_52,1387.53,24419.2,7966.5,33.3231,3.11341,3.32744e+10,1.00003,0.9793,2398,11.0915,9,1,1
app_53,191.422,20301.6,7927.4,51.5944,16.6364,5.10436e+10,1.0027,0.9793,482,3.19023,42,1,1
app_54,412.99,21253.8,7995.2,4.30118,7.36999,3.8697e+09,1.00012,0.9793,1036,0.552815,20,1,1
app_55,1071.57,20755.8,7958.6,41.3884,3.64686,4.11573e+10,1.00003,0.9793,2230,13.7191,9,1,1
app_56,1532.39,21672.3,7989.6,9.55782,4.46963,9.28776e+09,1.00014,0.9793,1849,2.32194,11,1,1
app_57,972.706,21922.2,7995.5,4.40578,4.13338,4.37479e+09,1.00002,0.9793,1868,1.0937,11,1,1
app_58,980.747,20605.9,7957,42.8312,4.93814,4.25078e+10,1.00006,0.9793,1660,8.50155,12,1,1
app_59,536.366,21288.6,7948.6,50.9864,4.16995,5.0607e+10,1.0001,0.9793,1933,10.1214,11,1,1
app_6,13.8201,19963.9,7840.9,37.5944,338.88,2.41153e+10,1.01716,0.9793,23,0.0711366,848,1,1
app_60,43.5326,20701.2,7945.6,50.4108,24.8252,4.89791e+10,1.00068,0.9793,314,2.0408,64,1,1
app_7,0.731882,15476.8,7116.1,296.491,3557.68,2.90842e+10,1.11964,0.9793,2,0.00817661,6920,1,1
app_8,26.5894,19998.6,7837.3,56.6187,289.805,4.05741e+10,1.0155,0.9793,27,0.139911,725,1,1
app_9,6.64454,20371.5,7748.2,59.7338,596.389,2.91637e+10,1.02863,0.9793,13,0.0489324,1522,1,1
