app_id,start_app,end_app,effective_cpu,effective_io,effective_iter,total_bytes,stretch,utilization,Tcomp,Tio,iterations,priority,group_id
app_1,15.4829,19969.3,7900.7,94.3999,492.638,4.96816e+10,1.00624,0.993571,16,0.100774,1231,0.1,1
app_10,5.9772,19585.6,7944.3,52.1358,267.948,3.33177e+10,1.00281,0.993571,30,0.12432,652,0.1,1
app_11,1.22785,19480.2,7969.9,26.5106,266.417,1.36685e+10,1.00206,0.993571,30,0.0511929,647,0.1,1
app_12,4.17687,17853.2,7862.1,122.349,1311.27,1.70093e+10,1.01534,0.993571,6,0.0129743,2928,0.1,1
app_13,4.08733,19961,7953.4,42.6227,420.518,2.24564e+10,1.00303,0.993571,19,0.0533407,1045,0.1,1
app_14,2.48126,18743.5,7924.5,68.0905,721.823,1.11805e+10,1.00811,0.993571,11,0.0154854,1689,0.1,1
app_15,23.3144,19535.6,7964.1,33.2012,318.415,2.36351e+10,1.00154,0.993571,25,0.0740912,775,0.1,1
app_16,17.8627,20034.4,7960.3,34.8309,347.93,1.94086e+10,1.00254,0.993571,23,0.0557718,867,0.1,1
app_17,9.84868,19147.3,7948,47.4333,440.574,3.99315e+10,1.00151,0.993571,18,0.0907535,1055,0.1,1
app_18,1.21029,18229.3,7732.9,243.21,2576.11,3.01104e+10,1.03053,0.993571,3,0.0116888,5876,0.1,1
app_19,5.72027,19895.6,7937.8,55.7701,529.711,4.34713e+10,1.00235,0.993571,15,0.0820214,1315,0.1,1
app_2,5.98381,20054.3,7896,91.6529,985.528,1.3815e+10,1.0114,0.993571,8,0.0140254,2473,0.1,1
app_20,3.71173,19030.5,7950.2,44.8921,418.834,3.4705e+10,1.00189,0.993571,19,0.0828282,999,0.1,1
app_21,41.2994,19850.7,7953.4,36.674,184.741,2.0995e+10,1.00321,0.993571,43,0.114103,456,0.01,2
app_22,166.047,20233.5,7936,61.8825,42.4747,5.4215e+10,1.00122,0.993571,186,1.29083,107,0.01,2
app_23,291.416,20505.7,7991,8.73648,26.3909,7.05061e+09,1.00024,0.993571,301,0.261134,67,0.01,2
app_24,86.7561,20271.5,7960.2,37.2149,43.7262,3.38424e+10,1.00075,0.993571,182,0.769144,110,0.01,2
app_25,47.5594,20036.5,7971.8,24.4094,121.246,1.59978e+10,1.00153,0.993571,66,0.132213,302,0.01,2
app_26,58.6193,20049.7,7951.5,45.4524,71.415,3.91571e+10,1.00117,0.993571,111,0.551509,179,0.01,2
app_27,49.9544,20009.9,7988.3,8.91258,93.2652,9.41334e+08,1.00135,0.993571,85,0.0101219,234,0.01,2
app_28,3.5936,19946.7,7982.7,11.1887,98.2424,8.40247e+09,1.00111,0.993571,81,0.0857395,246,0.01,2
app_29,20.1324,19938,7945.2,50.3374,80.8548,4.07825e+10,1.00176,0.993571,99,0.503488,201,0.01,2
app_3,6.06505,19247.9,7957.2,37.9826,361.349,2.61999e+10,1.00208,0.993571,22,0.0725758,869,0.1,1
app_30,15.1874,19874.1,7967.1,30.7868,70.0908,2.60727e+10,1.00085,0.993571,113,0.372467,175,0.01,2
app_31,14.4936,19864.4,7959.2,38.3355,90.9406,3.11557e+10,1.00121,0.993571,88,0.34237,225,0.01,2
app_32,8.21549,19225,7933.8,58.4876,611.332,1.74168e+10,1.00614,0.993571,13,0.0285054,1468,0.1,1
app_33,19.4845,19955.6,7950.9,49.1,35.8917,4.42547e+10,1.00061,0.993571,220,1.26442,90,0.01,2
app_34,11.9423,20221.7,7960.5,37.3921,66.6403,3.30823e+10,1.0008,0.993571,119,0.493766,168,0.01,2
app_35,21.2775,20174.5,7992,6.32086,61.6263,2.86671e+09,1.00064,0.993571,128,0.0462373,156,0.01,2
app_36,76.6872,20226.5,7936,59.9605,50.9173,5.28527e+10,1.0014,0.993571,156,1.03633,128,0.01,2
app_37,41.2345,20099.7,7978.5,19.924,62.0885,1.54319e+10,1.00076,0.993571,129,0.248901,155,0.01,2
app_38,79.9121,20166.9,7948.2,49.0346,30.9207,4.49698e+10,1.00085,0.993571,259,1.45064,77,0.01,2
app_39,54.983,20068.2,7944.5,52.2127,53.9573,4.50615e+10,1.00131,0.993571,147,0.834472,135,0.01,2
app_4,8.89827,19147,7910.3,81.6444,880.913,1.18975e+09,1.01119,0.993571,9,0.00135045,2105,0.1,1
app_40,27.9317,19848.7,7924.4,68.515,214.98,5.40482e+10,1.0027,0.993571,37,0.251387,531,0.01,2
app_41,444.188,20612.8,7951.7,48.3,16.5495,4.05826e+10,1.00097,0.993571,474,2.38721,42,0.001,3
app_42,260.798,21973.6,7984.7,15.3,3.80981,1.35796e+10,1.00022,0.993571,2102,3.3949,10,0.001,3
app_43,1920.25,22505.6,7983.1,16.9,3.43259,1.5222e+10,1.00021,0.993571,2247,3.80551,9,0.001,3
app_44,214.295,20203.6,7962.6,37.2525,25.8018,3.36144e+10,1.00047,0.993571,307,1.34458,65,0.01,2
app_45,57.8694,20418.2,7994.9,3.56305,6.31426,2.9462e+09,1.00027,0.993571,1319,0.491033,16,0.001,3
app_46,2651.42,22999.4,7957.7,42.3,2.67749,3.58802e+10,1.0008,0.993571,2910,17.9401,7,0.001,3
app_47,102.125,20472.9,7961.5,26.0702,11.1835,2.32814e+10,1.00191,0.993571,724,1.94012,28,0.001,3
app_48,692.537,21315.2,7975.9,24.1,6.8409,2.06027e+10,1.00044,0.993571,1218,2.94324,17,0.001,3
app_49,920.919,20595.8,7943.3,45.5978,5.36445,3.89909e+10,1.00222,0.993571,1532,7.79818,13,0.001,3
app_5,4.04114,19423.1,7957.2,38.1973,398.066,1.02047e+10,1.00409,0.993571,20,0.0255757,965,0.1,1
app_50,562.397,20734.2,7973.7,26.3,5.56621,2.29196e+10,1.00042,0.993571,1431,3.81993,14,0.001,3
app_51,10.3491,19972.8,7990.3,5.35835,51.6961,2.33819e+09,1.00092,0.993571,155,0.0449651,129,0.01,2
app_52,931.14,21241.5,7968.7,31.3,3.19838,2.53401e+10,1.00075,0.993571,2537,6.33502,8,0.001,3
app_53,758.017,21861.4,7949.3,41.2295,9.33794,3.40392e+10,1.00209,0.993571,825,3.78213,25,0.001,3
app_54,319.405,20261.7,7956.9,39.0935,20.54,3.04948e+10,1.00158,0.993571,397,1.52474,51,0.001,3
app_55,493.378,22682.7,7926.4,73.6,4.41846,6.37137e+10,1.00124,0.993571,1803,12.7427,12,0.001,3
app_56,783.725,20884.9,7971.2,25.2543,6.40527,1.94422e+10,1.00117,0.993571,1282,3.24036,16,0.001,3
app_57,1092.79,21909.5,7985.5,13.3358,6.13549,1.1219e+10,1.00041,0.993571,1293,1.86983,16,0.001,3
app_58,19.5458,20476.5,7928.1,61.694,19.0502,5.45422e+10,1.00217,0.993571,408,2.87064,49,0.001,3
app_59,190.354,20487,7944,56,22.3548,4.75542e+10,1.00106,0.993571,352,2.16156,57,0.001,3
app_6,10.5975,20163,7934.2,60.2537,607.475,2.56054e+10,1.00505,0.993571,13,0.0421142,1532,0.1,1
app_60,1246.25,21351.9,7951.6,48.4,4.00954,4.21318e+10,1.00078,0.993571,1992,10.5329,10,0.001,3
app_7,2.65522,20018.2,7937.4,55.6181,609.815,1.50943e+09,1.0077,0.993571,13,0.00247448,1527,0.1,1
app_8,12.9016,19337.3,7952.8,42.8973,417.925,2.71811e+10,1.00251,0.993571,19,0.0650267,1010,0.1,1
app_9,6.31152,20138.5,7884.7,102.489,1125.29,2.681e+09,1.01428,0.993571,7,0.00238311,2833,0.1,1
