app_id,start_app,end_app,effective_cpu,effective_io,effective_iter,total_bytes,stretch,utilization,Tcomp,Tio,iterations,priority,group_id
app_1,5.60555,19759.3,7863,41.3526,414.787,2.15327e+10,1.01464,0.986241,19,0.0518859,1019,1,1
app_10,5.64795,19308,7719.5,79.7193,857.216,2.22016e+10,1.03336,0.986241,9,0.0259062,2071,1,1
app_11,7.15894,19963.9,7823.7,54.2162,486.473,4.20502e+10,1.01707,0.986241,16,0.086523,1224,1,1
app_12,6.24208,19736.7,7755.9,71.3944,705.752,3.87705e+10,1.02634,0.986241,11,0.0549158,1741,1,1
app_13,0.0809983,20045.8,7866.7,42.2873,375.032,3.37647e+10,1.0126,0.986241,21,0.0900391,938,1,1
app_14,3.41315,20106.6,7786.69,64.5038,599.858,4.6812e+10,1.02125,0.986241,13,0.0781359,1509,1,1
app_15,10.4864,19950.1,7770.1,59.3867,645.326,1.76069e+10,1.02726,0.986241,12,0.0272976,1613,1,1
app_16,0.690353,20678.3,7712.2,81.7782,858.457,2.91066e+10,1.03342,0.986241,9,0.0339238,2214,1,1
app_17,2.04112,19951.1,7766.2,80.5983,431.848,4.73694e+10,1.02386,0.986241,18,0.109651,1082,1,1
app_18,3.2203,20116.3,7785,74.2142,709.188,4.48827e+10,1.02173,0.986241,11,0.0633042,1780,1,1
app_19,4.01857,19752,7754.1,80.3476,775.382,4.80291e+10,1.02536,0.986241,10,0.0619731,1910,1,1
app_2,3.27954,19557.3,7553,133.483,1511.52,1.64297e+10,1.05688,0.986241,5,0.0108662,3699,1,1
app_20,4.0738,19527.8,7801.9,53.7288,601.57,5.66116e+09,1.02465,0.986241,13,0.00941957,1467,1,1
app_21,27.9055,20099.7,7987.6,3.79693,42.0256,8.56753e+08,1.00144,0.986241,192,0.0203989,104,1,1
app_22,7.47343,19899.1,7950.9,28.2535,95.1479,2.27871e+10,1.0033,0.986241,84,0.239864,236,1,1
app_23,7.33495,19927.6,7843.4,41.5772,414.007,2.01403e+10,1.01735,0.986241,19,0.048648,1029,1,1
app_24,101.749,20172.6,7943.9,49.4622,33.0336,4.81304e+10,1.001,0.986241,239,1.4585,83,1,1
app_25,101.656,20193,7978,11.7672,41.0234,8.68972e+09,1.00167,0.986241,197,0.211944,102,1,1
app_26,118.246,20198.8,7969.3,23.6443,34.1043,2.16707e+10,1.00113,0.986241,232,0.637373,86,1,1
app_27,131.856,20114.4,7952.3,40.2883,57.8448,3.64925e+10,1.0014,0.986241,138,0.629181,144,1,1
app_28,121.016,20239,7971.6,23.2541,47.2851,2.10014e+10,1.00093,0.986241,168,0.446837,119,1,1
app_29,30.9967,19973.3,7935.8,29.2664,101.988,2.18281e+10,1.00532,0.986241,78,0.214001,254,1,1
app_3,7.33416,18674.1,7684.4,89.6189,958.852,2.71735e+10,1.0374,0.986241,8,0.0283649,2244,1,1
app_30,19.6031,20142.1,7969.6,15.0458,79.6351,9.13532e+09,1.00267,0.986241,99,0.115637,202,1,1
app_31,66.7579,20008.6,7928.8,41.3745,107.259,3.34421e+10,1.00474,0.986241,74,0.312543,266,1,1
app_32,20.6574,20035.9,7935.1,38.7376,65.2962,3.40096e+10,1.00388,0.986241,122,0.515297,163,1,1
app_33,146.115,20152.5,7937.7,53.016,37.8354,5.05963e+10,1.00147,0.986241,212,1.33148,94,1,1
app_34,161.757,19924.2,7969.6,26.0893,43.5957,2.45128e+10,1.00074,0.986241,185,0.570065,108,1,1
app_35,105.481,19945.5,7943.9,47.6418,42.9797,4.69707e+10,1.00114,0.986241,186,1.09234,107,1,1
app_36,37.9419,20195.9,7948.9,50.5965,38.6385,4.84462e+10,1.00033,0.986241,204,1.24221,98,1,1
app_37,54.4321,20085.5,7914.1,52.7214,127.377,5.03841e+10,1.00446,0.986241,62,0.393626,320,1,1
app_38,2.81701,20020.3,7969.1,23.3097,37.5251,2.20455e+10,1.00111,0.986241,212,0.580144,94,1,1
app_39,22.4275,20114.8,7944.8,35.2185,116.25,2.98304e+10,1.00318,0.986241,68,0.254961,293,1,1
app_4,7.38326,19709,7846.3,40.2443,461.118,4.88608e+09,1.01895,0.986241,17,0.0105989,1134,1,1
app_40,5.24427,19784.3,7691.6,85.6507,964.953,1.66596e+10,1.03785,0.986241,8,0.0172638,2383,1,1
app_41,533.373,21494.1,7945.8,48.5048,9.1581,4.81205e+10,1.00076,0.986241,853,5.34673,24,1,1
app_42,1007.81,23777.6,7964.6,35.4,2.80977,3.51216e+10,1.00003,0.986241,2777,11.7072,8,1,1
app_43,1441.47,23427.9,7977.6,20.3731,2.92849,2.02073e+10,1.00027,0.986241,2592,6.73577,8,1,1
app_44,478.931,20827.8,7980.5,11.9428,12.0489,1.08957e+10,1.00108,0.986241,658,0.907972,31,1,1
app_45,301.867,20761.8,7953.4,45.5501,13.0367,4.50217e+10,1.0002,0.986241,637,3.46321,32,1,1
app_46,530.61,20744,7973.7,26.0208,4.93312,2.58562e+10,1.00006,0.986241,1711,5.17125,12,1,1
app_47,605.143,21291.2,7991.4,8.38071,4.59955,8.15198e+09,1.00006,0.986241,1721,2.038,12,1,1
app_48,76.14,20534.9,7981.8,17.9666,5.54292,1.76982e+10,1.00006,0.986241,1474,3.53964,14,1,1
app_49,455.014,20983.3,7971.9,27.99,5.76681,2.7673e+10,1.00005,0.986241,1370,5.53459,15,1,1
app_5,3.79778,19540.3,7845.1,45.1829,461.689,2.00341e+10,1.01715,0.986241,17,0.043364,1126,1,1
app_50,1652.97,22945.1,7953.5,45.9348,4.09092,4.57008e+10,1.0001,0.986241,1962,11.4252,11,1,1
app_51,190.842,20442,7967.3,29.4832,35.7907,2.87851e+10,1.00049,0.986241,219,0.799585,91,1,1
app_52,480.822,21792.8,7977.9,22.0257,4.55534,2.16511e+10,1.00006,0.986241,1778,4.33022,12,1,1
app_53,543.745,20791.4,7987.2,2.44249,5.66303,2.34196e+09,1.00131,0.986241,1449,0.390326,14,1,1
app_54,1738.22,22571.7,7995,5,2.21082,4.89243e+09,1.00001,0.986241,3405,2.44621,6,1,1
app_55,2.66478,19949.1,7799.6,50.559,486.459,3.05368e+10,1.02169,0.986241,16,0.062833,1220,1,1
app_56,951.058,21562.5,7966.4,33.6,6.93434,3.30476e+10,1.00007,0.986241,1140,4.72109,18,1,1
app_57,350.439,20735.9,7967,31.802,10.8878,3.10399e+10,1.00025,0.986241,716,2.82181,28,1,1
app_58,38.1392,19634.3,7940.2,17.8821,209.406,1.17171e+09,1.00738,0.986241,38,0.00560627,514,1,1
app_59,426.841,20954.6,7988.6,11.3335,5.94424,1.10613e+10,1.00004,0.986241,1370,1.84355,15,1,1
app_6,18.0163,19814.4,7854.5,66.3616,357.014,3.89242e+10,1.0135,0.986241,22,0.109031,884,1,1
app_60,994.116,21825.5,7987.2,11.314,7.55156,1.09064e+10,1.00024,0.986241,1027,1.55805,20,1,1
app_7,2.66914,19956.5,7802.6,50.2544,457.284,3.72613e+10,1.02043,0.986241,17,0.0813566,1146,1,1
app_8,8.56791,19914.1,7777.4,61.7045,707.641,6.52515e+09,1.02776,0.986241,11,0.00922936,1759,1,1
app_9,4.64122,19602.2,7670.6,89.6299,959.256,2.55195e+10,1.03948,0.986241,8,0.0266106,2355,1,1
