app_id,start_app,end_app,effective_cpu,effective_io,effective_iter,total_bytes,stretch,utilization,Tcomp,Tio,iterations,priority,group_id
app_1,10.5177,19400.3,7941.3,58.7,564.383,2.48192e+10,1.00425,0.984949,14,0.0439279,1374,1,1
app_10,14.5963,19716.4,7954.2,45.8,440.243,1.76967e+10,1.00353,0.984949,18,0.0402197,1087,1.00001,1.00001
app_11,0.00329776,18031,7900.5,99.5,988.903,2.92205e+10,1.00886,0.984949,8,0.0295455,2222,1.00001,1.00001
app_12,14.1432,19640.1,7935.1,64.9,272.071,4.40717e+10,1.00261,0.984949,29,0.162028,668,1.00001,1.00001
app_13,10.7479,19219.7,7915.9,84.1,718.16,4.5706e+10,1.00482,0.984949,11,0.0636574,1722,1.00001,1.00001
app_14,7.08056,19492.6,7956.5,43.5,419.554,1.7969e+10,1.0032,0.984949,19,0.0428855,1022,1.00001,1.00001
app_15,7.80808,19740.1,7960.6,39.4,378.483,1.63288e+10,1.00289,0.984949,21,0.0430839,935,1.00002,1.00002
app_16,6.58091,19949.1,7928.8,71.2,663.644,3.22528e+10,1.00489,0.984949,12,0.0485735,1651,1.00002,1.00002
app_17,16.6947,19761.7,7916.8,83.2,360.755,5.20252e+10,1.00391,0.984949,22,0.144114,888,1.00002,1.00002
app_18,4.97465,18665.6,7867.6,132.4,1309.42,3.77017e+10,1.01198,0.984949,6,0.0287799,3058,1.00002,1.00002
app_19,2.48204,17966.1,7741.94,258.061,2580.9,1.42296e+10,1.03144,0.984949,3,0.00551405,5800,1.00002,1.00002
app_2,9.31013,19343.1,7912.1,87.9,879.305,1.24709e+10,1.00952,0.984949,9,0.0141876,2124,1,1
app_20,0.927135,18279,7742,258,2579.66,2.3712e+10,1.03017,0.984949,3,0.0091907,5896,1.00002,1.00002
app_21,68.9596,20096.3,7928,72,36.8082,5.22517e+10,1.00247,0.984949,217,1.41221,92,1.00002,1.00002
app_22,20.9738,19629.8,7954.5,45.5,379.681,2.3373e+10,1.00277,0.984949,21,0.0615078,929,1.00002,1.00002
app_23,4.5073,19992.9,7941,59,275.139,3.23354e+10,1.00334,0.984949,29,0.117583,685,1.00002,1.00002
app_24,66.5818,20039.3,7943.18,56.8247,87.6758,4.06097e+10,1.00203,0.984949,90,0.465576,220,1.00002,1.00002
app_25,30.6282,20030.5,7947.7,52.3,55.6119,4.24095e+10,1.00124,0.984949,143,0.757313,139,1.00003,1.00003
app_26,12.4848,19535.2,7974.9,25.1,251.158,2.84655e+09,1.00279,0.984949,32,0.0113409,612,1.00003,1.00003
app_27,0.207487,20068,7915,85,790.748,3.94958e+10,1.00572,0.984949,10,0.0499315,1986,1.00003,1.00003
app_28,50.4257,20167.4,7953.2,46.8,138.95,3.24094e+10,1.0018,0.984949,57,0.233161,350,1.00003,1.00003
app_29,5.4424,19059,7953.3,46.7,467,2.06871e+09,1.00561,0.984949,17,0.00442978,1114,1.00003,1.00003
app_3,2.65113,18282,7868.9,131.1,1310.92,4.10597e+09,1.01613,0.984949,6,0.00313194,2999,1,1
app_30,1.41473,19601.3,7742,258,2580.56,1.52803e+10,1.03129,0.984949,3,0.00592259,6325,1.00003,1.00003
app_31,73.0497,20306.8,7930.7,69.3,71.1271,5.04625e+10,1.00236,0.984949,111,0.710739,179,1.00003,1.00003
app_32,6.98021,19990,7940.8,59.2,52.1465,4.6046e+10,1.00165,0.984949,153,0.8855,130,1.00003,1.00003
app_33,43.3889,19924.2,7987.2,12.8,101.761,7.78094e+09,1.00063,0.984949,79,0.077039,252,1.00003,1.00003
app_34,11.171,19793,7940.2,59.8,166.59,4.11544e+10,1.00234,0.984949,47,0.246433,416,1.00003,1.00003
app_35,39.439,20093,7988.5,11.5,84.9907,7.94704e+09,1.00044,0.984949,94,0.0934946,213,1.00004,1.00004
app_36,59.6359,19984.1,7985.3,14.7,59.6682,1.02152e+10,1.00056,0.984949,135,0.173138,148,1.00004,1.00004
app_37,36.4748,20046,7955.3,44.7,83.5378,3.13062e+10,1.00168,0.984949,95,0.377183,209,1.00004,1.00004
app_38,50.0062,19890.7,7952,48,91.1975,3.31931e+10,1.00185,0.984949,87,0.36476,227,1.00004,1.00004
app_39,6.93505,20148.6,7983.3,16.7,35.4575,1.02424e+10,1.00081,0.984949,226,0.292639,89,1.00004,1.00004
app_4,7.17252,18577.8,7918.5,81.5,792.443,2.6638e+10,1.00691,0.984949,10,0.0335914,1839,1,1
app_40,28.2514,20144.6,7941.1,58.9,262.907,3.73405e+10,1.0027,0.984949,30,0.141979,663,1.00004,1.00004
app_41,1174.14,22781.7,7991.3,8.7,4.24183,7.59004e+09,1.00014,0.984949,1803,1.89751,12,1.00004,1.00004
app_42,163.736,20496.1,7973,27,14.291,2.13946e+10,1.0007,0.984949,563,1.52819,36,1.00004,1.00004
app_43,478.279,20662.4,7972.3,27.7,15.7472,2.23942e+10,1.00066,0.984949,513,1.39964,39,1.00004,1.00004
app_44,70.3132,20094.3,7977.7,22.3,26.4165,1.78469e+10,1.00056,0.984949,304,0.686419,66,1.00004,1.00004
app_45,1228.72,22156.4,7954.5,45.5,6.28456,3.7263e+10,1.00103,0.984949,1311,6.2105,16,1.00004,1.00004
app_46,929.698,21848.9,7938.2,61.8,6.90198,4.96711e+10,1.00152,0.984949,1155,7.09588,18,1.00005,1.00005
app_47,353.461,20360,7935.4,64.6,11.6924,4.52959e+10,1.00242,0.984949,695,4.11781,29,1.00005,1.00005
app_48,1440.97,23377.7,7992.9,7.1,3.6211,5.97566e+09,1.00014,0.984949,2207,1.99189,10,1.00005,1.00005
app_49,759.356,21174.1,7915,85,10.5165,5.96667e+10,1.00318,0.984949,793,5.42425,26,1.00005,1.00005
app_5,2.75136,19815.1,7920.2,79.8,791.583,2.48345e+10,1.00692,0.984949,10,0.0313567,1962,1.00001,1.00001
app_50,973.371,20866,7937.2,62.8,4.37638,5.22835e+10,1.00132,0.984949,1832,10.4567,11,1.00005,1.00005
app_51,1034.44,22242.2,7960.7,39.2984,4.94345,3.28293e+10,1.00081,0.984949,1603,8.01579,13,1.00005,1.00005
app_52,379.705,20083.6,7956.9,43.1,4.76077,2.17727e+10,1.00267,0.984949,1688,4.35454,12,1.00005,1.00005
app_53,387.384,20730.6,7937.6,62.4,19.5892,4.84258e+10,1.00175,0.984949,403,2.42129,50,1.00005,1.00005
app_54,181.508,20924.7,7992.8,7.2,6.71994,6.25158e+09,1.00012,0.984949,1208,0.893083,17,1.00005,1.00005
app_55,1334.88,21691,7970.9,29.1,4.89646,1.55492e+10,1.0017,0.984949,1710,3.10984,12,1.00005,1.00005
app_56,328.079,20555.1,7975.9,24.1,21.8124,1.87173e+10,1.00067,0.984949,364,0.850787,55,1.00006,1.00006
app_57,1447.33,23261.9,7966.7,33.3,4.36616,2.91155e+10,1.00052,0.984949,1783,7.27887,12,1.00006,1.00006
app_58,107.859,20238.2,7939.9,60.1,4.98336,4.51619e+10,1.00187,0.984949,1709,9.03238,12,1.00006,1.00006
app_59,1039.92,21723.5,7988.9,11.1,6.74412,8.99853e+09,1.00026,0.984949,1153,1.2855,18,1.00006,1.00006
app_6,4.29173,16934.6,7841.2,158.8,1572.35,4.90684e+10,1.01391,0.984949,5,0.031214,3325,1.00001,1.00001
app_60,820.02,20718,7994.7,5.3,4.68195,3.45406e+09,1.00023,0.984949,1673,0.863515,12,1.00006,1.00006
app_7,1.23124,11005.3,4549.7,455.6,4555.52,8.76102e+09,1.75498,0.984949,1,0.00192296,10011,1.00001,1.00001
app_8,9.25434,20083.8,7963.7,36.3,362.989,5.09064e+07,1.00455,0.984949,22,0.000140238,908,1.00001,1.00001
app_9,2.05143,19119.3,7910.5,89.5,416.604,4.36638e+10,1.00576,0.984949,19,0.104709,996,1.00001,1.00001
