app_id,start_app,end_app,effective_cpu,effective_io,effective_iter,total_bytes,stretch,utilization,Tcomp,Tio,iterations,priority,group_id
app_1,6.55136,19073.6,7725.4,71.6428,856.945,1.38068e+10,1.0337,0.981961,9,0.0161106,2054,1,1
app_10,2.37758,18901.7,7737.2,72.0368,861.378,1.23278e+10,1.03232,0.981961,9,0.014318,2036,1,1
app_11,7.22928,20050.6,7858,69.5638,342.499,5.53702e+10,1.01095,0.981961,23,0.161901,857,1,1
app_12,9.37419,19703.1,7800.4,70.8551,600.655,5.49896e+10,1.01841,0.981961,13,0.0914969,1481,1,1
app_13,9.64239,19578.4,7815.3,62.9258,600.241,3.55989e+10,1.01899,0.981961,13,0.0593316,1471,1,1
app_14,4.70696,20218,7685.3,86.3557,1096.91,3.01698e+09,1.04054,0.981961,7,0.00275021,2778,1,1
app_15,5.98254,20472.6,7768.9,68.0663,778.026,1.66841e+10,1.02754,0.981961,10,0.0214448,1988,1,1
app_16,1.70175,19849.9,7726.7,73.6355,856.899,1.7679e+10,1.03301,0.981961,9,0.0206289,2139,1,1
app_17,4.88087,19136.6,7837.91,44.2236,559.991,2.90435e+09,1.0203,0.981961,14,0.00518754,1343,1,1
app_18,3.67641,17084.5,7385.2,212.797,2457.98,4.24345e+10,1.07706,0.981961,3,0.0172638,5269,1,1
app_19,14.6387,19908.5,7881.8,32.1405,316.556,1.65523e+10,1.01287,0.981961,25,0.0523808,788,1,1
app_2,7.3323,18700.1,7658.5,108.34,1094.6,5.01144e+10,1.0378,0.981961,7,0.0457666,2567,1,1
app_20,15.2699,20028.7,7833.4,40.5009,434.551,1.37997e+10,1.01947,0.981961,18,0.0317235,1093,1,1
app_21,25.3871,19917.5,7942.8,23.6692,83.9358,1.73719e+10,1.005,0.981961,96,0.206808,207,1,1
app_22,59.3484,20004.2,7941.6,39.9506,101.777,3.32724e+10,1.00315,0.981961,78,0.3262,254,1,1
app_23,2.52396,20067.7,7937,48.1483,84.6542,4.20195e+10,1.00263,0.981961,93,0.500232,213,1,1
app_24,67.5425,20085.9,7948.7,37.3276,61.769,3.45686e+10,1.0021,0.981961,128,0.557558,155,1,1
app_25,76.3745,19846.7,7926.5,52.3424,103.672,4.71426e+10,1.00331,0.981961,77,0.453295,255,1,1
app_26,90.7516,20134.2,7952.1,36.5284,73.6882,3.32737e+10,1.00183,0.981961,107,0.455804,186,1,1
app_27,103.766,20115.1,7981.7,6.22674,60.4652,3.08252e+09,1.00191,0.981961,132,0.0513753,151,1,1
app_28,71.7654,20028.6,7939.3,56.5009,38.1687,5.3856e+10,1.00086,0.981961,211,1.41726,95,1,1
app_29,18.3228,20071.9,7952,20.6384,95.9879,1.83639e+10,1.00372,0.981961,82,0.191291,243,1,1
app_3,1.73961,20953.4,7199.2,288.243,3593.77,2.69842e+09,1.11082,0.981961,2,0.000750813,9479,1,1
app_30,84.6971,20407.4,7952,42.6134,48.2839,4.00763e+10,1.00099,0.981961,164,0.834923,122,1,1
app_31,95.5939,19996.4,7977.8,15.4821,38.561,1.39652e+10,1.00103,0.981961,210,0.358082,95,1,1
app_32,209.479,20269.3,7978.2,16.1266,20.39,1.51195e+10,1.00084,0.981961,391,0.755977,52,1,1
app_33,30.6414,19988,7919.8,56.8509,91.9119,5.45151e+10,1.00322,0.981961,86,0.592556,230,1,1
app_34,42.2509,19947.9,7939.9,35.6805,116.055,3.16672e+10,1.00357,0.981961,69,0.272993,289,1,1
app_35,51.7403,19939.6,7915.7,60.3041,119.899,5.44175e+10,1.00375,0.981961,66,0.453479,297,1,1
app_36,1.62824,20050.4,7930.1,58.9595,49.8582,5.54888e+10,1.0018,0.981961,159,1.10978,125,1,1
app_37,11.4355,20008.4,7975.8,9.93832,121.002,2.29408e+09,1.00275,0.981961,66,0.0189593,303,1,1
app_38,60.8231,20239.2,7949.2,30.8324,103.292,2.61947e+10,1.00309,0.981961,76,0.254317,262,1,1
app_39,46.3308,19877.8,7964.7,31.823,44.2884,3.00109e+10,1.00066,0.981961,183,0.66691,109,1,1
app_4,1.27025,19466.1,7717.1,88.2938,963.809,3.06528e+10,1.03256,0.981961,8,0.0318305,2353,1,1
app_40,56.4554,19945.1,7921.7,59.764,114.92,5.67767e+10,1.0027,0.981961,69,0.49371,286,1,1
app_41,451.41,21068.7,7941.1,58.2062,6.63822,5.7828e+10,1.00013,0.981961,1207,8.26114,17,1,1
app_42,238.586,20659.2,7996,3.04592,15.0983,2.29287e+09,1.00021,0.981961,522,0.152858,39,1,1
app_43,772.826,22886.9,7994.8,4.5,3.50842,4.41204e+09,1.0001,0.981961,2215,1.47068,10,1,1
app_44,772.833,21447.5,7978.5,13.7128,8.43345,1.34647e+10,1.00101,0.981961,915,1.68308,22,1,1
app_45,89.4112,20380.5,7989.8,7.86187,19.7328,6.82419e+09,1.00042,0.981961,403,0.341209,50,1,1
app_46,248.636,20605.4,7970.3,20.031,25.2322,1.87807e+10,1.00137,0.981961,308,0.751228,65,1,1
app_47,254.674,20255.4,7986,11.4817,29.8661,9.01215e+09,1.00062,0.981961,266,0.300405,75,1,1
app_48,815.362,21040,7996.3,1.79502,5.04518,1.56543e+09,1.00027,0.981961,1564,0.313086,13,1,1
app_49,700.546,21103.6,7959.4,37.1967,5.49556,3.67671e+10,1.00048,0.981961,1427,6.12786,14,1,1
app_5,9.30008,20417.7,7811.1,51.8467,557.351,1.89277e+10,1.02171,0.981961,14,0.0339206,1423,1,1
app_50,330.948,20983,7957.5,42.0352,9.33017,4.1169e+10,1.00017,0.981961,853,4.1169,24,1,1
app_51,581.388,20974.9,7939.3,60.2739,11.4728,5.9809e+10,1.00011,0.981961,703,4.98409,29,1,1
app_52,76.4356,19968.6,7951.7,27.4368,84.5007,2.51623e+10,1.0029,0.981961,95,0.299552,209,1,1
app_53,891.481,21399,7979.7,12.5982,8.48229,1.20549e+10,1.00103,0.981961,949,1.33943,22,1,1
app_54,798.48,21691.4,7970.4,29.3033,7.54227,2.87062e+10,1.00011,0.981961,1043,4.10088,20,1,1
app_55,65.9351,20013.7,7973.7,19.0359,65.0388,1.51709e+10,1.00139,0.981961,123,0.233399,162,1,1
app_56,136.743,20158.4,7986.5,6.35238,20.0814,5.75384e+09,1.00097,0.981961,394,0.287692,51,1,1
app_57,1056.88,21426.8,7977,22.755,5.79657,2.24384e+10,1.00007,0.981961,1377,3.73973,15,1,1
app_58,73.2912,19905,7960.9,34.2177,19.8217,3.34012e+10,1.00071,0.981961,407,1.67006,49,1,1
app_59,167.9,21193.1,7995.9,3.73466,6.73812,3.42534e+09,1.00008,0.981961,1165,0.57089,18,1,1
app_6,2.55926,20088.5,7861.1,68.6778,341.039,5.31689e+10,1.01083,0.981961,23,0.155921,857,1,1
app_60,712.294,21371.7,7975.8,23.3505,6.26668,2.30348e+10,1.00015,0.981961,1287,3.83913,16,1,1
app_7,2.1988,16198.4,7373.4,214.808,2457.91,4.89529e+10,1.07783,0.981961,3,0.0199158,4998,1,1
app_8,2.54142,19853.1,7893.4,28.7215,375.613,7.89778e+08,1.0134,0.981961,21,0.00210607,933,1,1
app_9,0.27679,13567.7,6344.9,551.275,6345.84,7.80583e+10,1.24553,0.981961,1,0.0123004,11423,1,1
