app_id,Tcomp,Tio,iter,witer,alpha_io,compute_size,io_size,mu,desyn_time
1,10.894116810044551,0.02289868366785958,1833,10.91701549371241,0.0020975223201842976,10e9,22898683.66785958,10,4.191383949857507
2,9.060037425815137,0.1640907964114586,2169,9.224128222226597,0.017789301325632376,9e9,164090796.4114586,10,8.60761501547555
3,10.288471317175102,0.14180996645241178,1918,10.430281283627513,0.013595986780817877,10e9,141809966.45241177,10,5.9503672506888945
4,10.131204192224274,0.17657009165567106,1941,10.307774283879946,0.017129798033296513,10e9,176570091.65567106,10,8.054753130557888
5,9.641161323036439,0.005731828506724151,2074,9.646893151543162,0.0005941631587167793,9e9,5731828.506724151,10,3.2838852892948376
6,10.179216264986762,0.12717609904239935,1941,10.306392364029161,0.01233953594530932,10e9,127176099.04239935,10,7.486402721255627
7,10.776716789162172,0.0529264012363652,1847,10.829643190398537,0.004887178673004598,10e9,52926401.23636521,10,8.51533520018775
8,9.445553685977854,0.24457977634291547,2064,9.69013346232077,0.025240083358391542,9e9,244579776.34291548,10,5.113927674629475
9,11.218275804540697,0.1670715726659994,1757,11.385347377206697,0.014674262201298688,11e9,167071572.66599938,10,7.035100380649879
10,11.798493482794864,0.06171037266850931,1687,11.860203855463373,0.005203146035308877,11e9,61710372.66850931,10,9.39545226258347
11,8.701524441103054,0.16161547134236523,2257,8.863139912445419,0.018234561672148316,8e9,161615471.34236524,10,6.896748091240953
12,9.645437661574265,0.06490533461024445,2060,9.71034299618451,0.00668414438457506,9e9,64905334.610244446,10,4.9720365601556065
13,10.814265504738078,0.007202737997934215,1849,10.821468242736012,0.0006655971108882664,10e9,7202737.997934215,10,2.522670633674708
14,10.38344140207895,0.05914667947564007,1916,10.44258808155459,0.005663986649067833,10e9,59146679.475640066,10,5.644581442693064
15,9.82197961731552,0.11634770286024577,2013,9.938327320175766,0.011706970309183587,9e9,116347702.86024578,10,9.55038892905986
16,113.3994920891592,1.2187681123869922,175,114.61826020154619,0.010633280510835666,113e9,1218768112.3869922,100,82.95165396399669
17,103.62753958897419,1.3651667587744796,191,104.99270634774867,0.013002491375475937,103e9,1365166758.7744796,100,27.53976630094168
18,85.65432288948749,0.5256576248609258,233,86.17998051434841,0.006099532881344841,85e9,525657624.8609258,100,46.797149537787426
19,84.92100894573187,0.1661749371181491,236,85.08718388285001,0.0019529960863076932,84e9,166174937.1181491,100,52.59204649410482
20,84.24198908970367,0.6381055742851455,236,84.88009466398881,0.007517729295792926,84e9,638105574.2851455,100,46.27863522781998
21,95.31812027625557,1.2705090966590742,208,96.58862937291464,0.013153816395445717,95e9,1270509096.6590743,100,53.13780696300898
22,102.26078841231772,0.2855222895366218,196,102.54631070185434,0.002784325321724702,102e9,285522289.5366218,100,50.75814328453645
23,102.09785704676845,1.3173218816523518,194,103.4151789284208,0.012738186940276348,102e9,1317321881.6523519,100,57.93356873981826
24,77.13391618394995,0.45887833693722313,258,77.59279452088717,0.005913929763332572,77e9,458878336.93722314,100,50.19195279247058
25,113.82439795454542,2.9409248128332095,172,116.76532276737862,0.02518662855659773,113e9,2940924812.8332095,100,89.6047742055123
26,109.42805819860234,0.9914204693637662,182,110.4194786679661,0.008978673702535675,109e9,991420469.3637662,100,25.11647524669323
27,118.86199207632272,2.1861577589180814,166,121.0481498352408,0.018060232741216372,118e9,2186157758.9180813,100,8.154004356632248
28,108.30280276790944,2.1889293998710833,182,110.49173216778053,0.019810798119692948,108e9,2188929399.8710833,100,38.94039460584781
29,98.39192458197314,2.353029755352923,199,100.74495433732606,0.023356303755662375,98e9,2353029755.352923,100,82.1643387262531
30,112.31105499774398,0.9627590264693152,177,113.2738140242133,0.008499396217589326,112e9,962759026.4693152,100,41.06159426821481
31,906.2416023454342,20.420417024016906,22,926.6620193694512,0.022036531763665046,906e9,20420417024.016907,1000,704.5740660487488
32,902.0802844257165,8.422323008490556,22,910.5026074342071,0.009250190982126488,902e9,8422323008.490557,1000,59.201545915103324
33,931.5457946517706,6.706028312195097,22,938.2518229639658,0.007147365076265508,931e9,6706028312.195097,1000,227.38240540245158
34,912.2161024042018,23.28933716141829,22,935.5054395656201,0.024894924365412713,912e9,23289337161.41829,1000,190.9913320249948
35,908.2353947832988,14.885765836070744,22,923.1211606193696,0.01612547352514714,908e9,14885765836.070744,1000,287.07427752734236
36,999.1195472334742,22.51324766570751,20,1021.6327948991817,0.022036535806320895,999e9,22513247665.70751,1000,734.6508215668689
37,962.4124583373907,20.331858158988656,21,982.7443164963794,0.020688858554252003,962e9,20331858158.988655,1000,924.1872556011471
38,922.0727290927954,9.011645127801025,22,931.0843742205964,0.009678655745183786,922e9,9011645127.801025,1000,625.3913342027366
39,1119.5317680871965,3.360878048476934,18,1122.8926461356734,0.0029930537527724232,1119e9,3360878048.476934,1000,703.3870225774443
40,1069.0629817548702,13.715949566277871,19,1082.778931321148,0.012667359115994632,1069e9,13715949566.27787,1000,1078.5190129354737
41,1092.8672797087431,28.844652217497412,18,1121.7119319262406,0.025714848346102933,1092e9,28844652217.497414,1000,1008.8765737540217
42,1118.2524832143197,10.028463990394505,18,1128.2809472047143,0.00888826848954576,1118e9,10028463990.394505,1000,229.7100759478526
43,1126.7579394547304,11.755456223388899,18,1138.5133956781192,0.010325268255967367,1126e9,11755456223.388899,1000,134.5568457947218
44,949.7343241950299,14.608124055078326,21,964.3424482501082,0.015148274434653547,949e9,14608124055.078325,1000,548.2555363849643
45,968.9343334383504,15.334680312829894,21,984.2690137511803,0.015579765387906895,968e9,15334680312.829895,1000,430.07763255284164
46,2031.9561097148653,36.15689409384727,10,2068.1130038087126,0.01748303599815842,2031e9,36156894093.84727,2000,1933.0070309565756
47,2248.771446795975,33.006087477059886,9,2281.7775342730347,0.014465076889090983,2248e9,33006087477.059887,2000,2243.454967350913
48,2304.88189971427,29.06558993246505,9,2333.947489646735,0.012453403541167243,2304e9,29065589932.46505,2000,1218.4645580488966
49,2064.4918763465867,35.49846798983681,10,2099.9903443364233,0.01690411010011286,2064e9,35498467989.836815,2000,1650.2026359147885
50,2080.253895861759,38.58823356297447,10,2118.8421294247332,0.018211943696556192,2080e9,38588233562.97447,2000,608.1965568081331
51,2143.42147353164,47.84911014243342,10,2191.2705836740734,0.021836239896127055,2143e9,47849110142.43342,2000,382.02039238056744
52,1867.0405721811826,21.900549218915405,11,1888.941121400098,0.011594087804432223,1867e9,21900549218.915405,2000,1574.3353727889569
53,2159.5287026538367,52.65695104886321,10,2212.1856537026997,0.02380313377438614,2159e9,52656951048.86321,2000,536.2151476271439
54,1760.3958557356873,39.6439422206963,12,1800.0397979563836,0.022023925396374433,1760e9,39643942220.696304,2000,53.30305864274588
55,1845.6655257941113,24.416441403710184,11,1870.0819671978215,0.01305634824140698,1845e9,24416441403.710186,2000,191.0652660917285
56,2243.559229983978,52.14384489203637,9,2295.7030748760144,0.022713671233311625,2243e9,52143844892.03637,2000,1661.008482107725
57,2304.8675014086293,38.97071682871218,9,2343.8382182373416,0.016626880014790308,2304e9,38970716828.71218,2000,835.7485723456261
58,1802.4020913237907,27.738979591751427,11,1830.141070915542,0.015156743943173075,1802e9,27738979591.751427,2000,438.93427335836316
59,1898.3177221453516,22.503580107539612,11,1920.8213022528912,0.011715603154309895,1898e9,22503580107.53961,2000,500.95373053557444
60,2325.3587437369533,10.71290475690471,9,2336.071648493858,0.00458586309363057,2325e9,10712904756.904709,2000,10.854528122370489
