app_id,start_app,end_app,effective_cpu,effective_io,effective_iter,total_bytes,stretch,utilization,Tcomp,Tio,iterations,priority,group_id
app_1,8.83002,28208.5,4714.2,148.022,523.386,1.14471e+11,1.65677,0.850612,9,0.218456,2163,1,1
app_10,6.70175,26838.6,4792,83.6812,480.347,5.17565e+10,1.65161,0.850612,10,0.107826,1844,1,1
app_11,4.53331,27515,4658.5,121.405,582.933,9.56079e+10,1.68276,0.850612,8,0.163993,2338,1,1
app_12,6.41467,26866.8,4617.3,168.251,577.764,1.34251e+11,1.68366,0.850612,8,0.232269,2237,1,1
app_13,10.1703,26790.1,4841.9,37.2527,485.294,7.09026e+09,1.64983,0.850612,10,0.0146191,1851,1,1
app_14,7.76863,27820.4,4771.1,103.062,477.378,8.34056e+10,1.64795,0.850612,10,0.174854,1933,1,1
app_15,0.538232,27436.3,4737,114.055,525.096,9.22346e+10,1.65658,0.850612,9,0.175685,2090,1,1
app_16,43.5711,22606.7,6843.4,112.908,62.8506,1.09907e+11,1.15053,0.850612,109,1.74456,180,1,1
app_17,22.6257,22873.6,6647.1,131.121,83.3457,1.26929e+11,1.18098,0.850612,80,1.52927,246,1,1
app_18,31.3883,22717.3,7061.8,18.8089,69.3892,1.52893e+10,1.13041,0.850612,101,0.221584,198,1,1
app_19,88.6718,22603.5,6917.3,120.059,70.2024,1.16926e+11,1.1373,0.850612,98,1.67038,201,1,1
app_2,9.50488,27549.2,4775.3,93.7715,478.408,6.8052e+10,1.65175,0.850612,10,0.142368,1909,1,1
app_20,32.1745,22289.3,6935.6,86.6123,71.9604,8.27864e+10,1.13986,0.850612,97,1.14981,202,1,1
app_21,29.7541,22345.3,6785.9,173.069,76.1014,1.68412e+11,1.15037,0.850612,90,2.21595,215,1,1
app_22,48.0884,22397.5,6948.1,25.635,63.9675,2.26301e+10,1.14766,0.850612,108,0.353596,184,1,1
app_23,70.389,22170.2,6968,134.786,67.3719,1.32181e+11,1.12673,0.850612,104,1.97285,188,1,1
app_24,30.5426,22397,6930,123.818,64.8695,1.20552e+11,1.13466,0.850612,106,1.85465,185,1,1
app_25,18.2241,22983.4,6788.8,53.2475,77.8149,4.89144e+10,1.16998,0.850612,87,0.627108,229,1,1
app_26,44.5543,22810.8,6875.7,46.9126,65.963,4.42467e+10,1.15608,0.850612,103,0.670404,193,1,1
app_27,58.6276,22601.8,6938.8,121.67,71.6597,1.1784e+11,1.13368,0.850612,96,1.63667,204,1,1
app_28,46.35,22597.9,6889.1,60.3066,74.6793,5.68141e+10,1.15176,0.850612,93,0.757521,214,1,1
app_29,69.3036,22607.8,6660.7,66.5154,83.1126,6.23008e+10,1.18994,0.850612,80,0.750612,246,1,1
app_3,0.535716,28355.8,4680.6,65.8637,585.449,4.23961e+10,1.69384,0.850612,8,0.072472,2462,1,1
app_30,58.0561,22466,7019.4,65.2622,61.1412,6.1476e+10,1.1298,0.850612,115,1.0078,173,1,1
app_31,131.434,20268.7,7661.2,216.149,7.66086,2.15824e+11,1.01561,0.850612,992,26.9781,20,1,1
app_32,190.578,20889.3,7743,184.989,7.48245,1.84746e+11,1.00911,0.850612,1002,23.0932,20,1,1
app_33,150.387,20338.4,7855.5,91.8567,7.63498,9.12441e+10,1.0067,0.850612,1061,11.4055,19,1,1
app_34,676.285,20748.3,7818.4,7.97351,8.41457,7.64842e+09,1.02223,0.850612,957,0.849824,21,1,1
app_35,731.244,21832.3,7829.7,118.507,8.05879,1.1836e+11,1.00653,0.850612,966,14.795,21,1,1
app_36,49.9937,20934.2,7728,77.5673,11.0871,7.70702e+10,1.02497,0.850612,684,7.00638,29,1,1
app_37,451.863,21187.6,7814.3,41.7962,7.99691,4.14317e+10,1.01836,0.850612,961,5.17897,21,1,1
app_38,403.805,21339.7,7755.8,70.6151,8.79645,7.0331e+10,1.02222,0.850612,894,8.79137,23,1,1
app_39,111.13,21294,7775.4,7.8813,9.60383,7.31447e+09,1.02792,0.850612,820,0.731447,25,1,1
app_4,1.19243,26892.4,4720.96,114.195,525.187,9.45841e+10,1.66129,0.850612,9,0.17992,2026,1,1
app_40,629.011,21847,7822.6,65.6859,7.31869,6.52718e+10,1.01422,0.850612,1035,9.32454,20,1,1
app_41,783.508,21134.8,7860.9,57.1836,7.74892,5.67958e+10,1.01039,0.850612,995,8.11369,20,1,1
app_42,564.435,21524.4,7690.6,96.5929,8.24089,9.60221e+10,1.0274,0.850612,923,12.0028,22,1,1
app_43,624.787,21817.2,7607.4,185.412,7.65222,1.84913e+11,1.02665,0.850612,1019,23.1141,20,1,1
app_44,244.062,21362.6,7712.7,167.182,8.0574,1.66787e+11,1.01529,0.850612,961,20.8484,21,1,1
app_45,370.255,20913.6,7767.4,199.363,9.00095,1.98914e+11,1.00423,0.850612,873,22.1016,23,1,1
app_46,531.217,22287.7,7835.6,136.49,4.92084,1.36061e+11,1.00355,0.850612,1606,27.2122,13,1,1
app_47,614.289,20685.4,7691,175.3,4.35408,1.75182e+11,1.01701,0.850612,1790,43.7955,11,1,1
app_48,322.684,21912.7,7825.8,27.2337,4.43053,2.715e+10,1.01873,0.850612,1794,6.78749,12,1,1
app_49,1414.37,22159.8,7897.1,58.3256,4.25205,5.81014e+10,1.00563,0.850612,1835,14.5254,11,1,1
app_5,0.0543414,27851.5,4717.5,104.428,523.446,7.76322e+10,1.66836,0.850612,9,0.148153,2131,1,1
app_50,1023.7,21791.3,7931.9,64.8176,3.41058,6.46773e+10,1.00043,0.850612,2370,21.5591,9,1,1
app_51,124.036,20640.8,7903.1,94.3991,3.79184,9.42106e+10,1.00034,0.850612,2049,23.5526,10,1,1
app_52,392.18,22710.1,7781.2,107.664,3.66514,1.07472e+11,1.01411,0.850612,2149,26.8681,10,1,1
app_53,1325.17,21720.7,7926.1,21.286,4.33731,2.11288e+10,1.00664,0.850612,1868,5.28221,11,1,1
app_54,1265,21243.2,7772,215.141,4.06027,2.14896e+11,1.00164,0.850612,1987,53.724,10,1,1
app_55,1952.89,22339,7768.8,166.106,3.49099,1.65896e+11,1.00823,0.850612,2214,41.4741,9,1,1
app_56,169.521,20445.9,7796.5,84.8951,4.29168,8.47353e+10,1.01507,0.850612,1803,21.1838,11,1,1
app_57,937.212,23407.4,7716.5,54.2061,3.84383,5.38814e+10,1.02955,0.850612,1959,13.4704,11,1,1
app_58,988.008,21329.1,7754.7,140.386,3.84027,1.40267e+11,1.0133,0.850612,1991,35.0668,10,1,1
app_59,1034.85,21746.5,7950.8,11.8344,3.86897,1.16658e+10,1.00471,0.850612,2013,2.91646,10,1,1
app_6,6.4884,27724.9,4930.8,57.1672,449.233,4.24526e+10,1.60861,0.850612,11,0.0945492,1790,1,1
app_60,2100.96,22594.9,7770.5,193.6,3.15737,1.93548e+11,1.00451,0.850612,2511,64.516,8,1,1
app_7,4.79865,28010.3,4738.6,107.669,526.159,8.36027e+10,1.65899,0.850612,9,0.158639,2150,1,1
app_8,1.06212,26421,4748.45,47.365,528.285,1.71782e+10,1.67869,0.850612,9,0.0325034,1998,1,1
app_9,2.68346,27810.1,4875.5,130.495,443.355,1.06533e+11,1.60577,0.850612,11,0.240482,1774,1,1
