app_id,start_app,end_app,effective_cpu,effective_io,effective_iter,total_bytes,stretch,utilization,Tcomp,Tio,iterations,priority,group_id
app_1,8.05955,19114.4,7798,177.901,777.584,1.47864e+11,1.00681,0.969136,10,0.190056,1860,0.1,1
app_10,10.3452,19059.2,7814.9,158.628,780.234,1.24087e+11,1.00769,0.969136,10,0.159085,1862,0.1,1
app_11,3.31733,19328.2,7826.1,149.241,781.368,8.68634e+10,1.011,0.969136,10,0.111221,1887,0.1,1
app_12,2.93572,19616.1,7752.2,220.782,969.031,1.82093e+11,1.00828,0.969136,8,0.187919,2377,0.1,1
app_13,4.93402,19555,7809.1,161.355,781.518,1.3144e+11,1.00749,0.969136,10,0.168298,1910,0.1,1
app_14,3.3844,19956.5,7797.5,180.741,780.649,1.46562e+11,1.00704,0.969136,10,0.187659,1949,0.1,1
app_15,6.28196,18254.1,7870.1,95.8466,985.601,3.85845e+10,1.01155,0.969136,8,0.0391324,2245,0.1,1
app_16,18.4769,20220.8,7749.5,216.248,83.0323,1.59473e+11,1.01151,0.969136,92,1.92136,212,0.01,2
app_17,3.00266,20192.2,7757.9,214.585,99.6662,1.57466e+11,1.01069,0.969136,78,1.59056,250,0.01,2
app_18,75.8117,20325.5,7807.1,169.746,84.0169,1.23875e+11,1.0087,0.969136,93,1.4747,212,0.01,2
app_19,58.7561,20156.7,7847.4,120.616,78.5402,8.7247e+10,1.00824,0.969136,100,1.10439,197,0.01,2
app_2,2.85861,18691.4,7878.5,88.2029,987.498,4.5019e+09,1.01484,0.969136,8,0.00455658,2302,0.1,1
app_20,17.2977,20180.5,7932,38.47,75.3618,2.68046e+10,1.00518,0.969136,103,0.352692,193,0.01,2
app_21,28.9567,20175.9,7815.5,151.75,84.5606,1.10078e+11,1.00939,0.969136,92,1.29504,213,0.01,2
app_22,57.1346,20362.2,7803.4,158.163,82.0668,1.15876e+11,1.01019,0.969136,94,1.41313,209,0.01,2
app_23,23.9957,20057.4,7764.5,201.454,86.211,1.47302e+11,1.01115,0.969136,90,1.71282,218,0.01,2
app_24,56.8099,20129.8,7920.5,57.4361,76.4295,3.89384e+10,1.0051,0.969136,103,0.505693,192,0.01,2
app_25,43.105,19995.2,7716.6,253.607,80.2555,1.8576e+11,1.01236,0.969136,96,2.322,202,0.01,2
app_26,20.375,20195.3,7724,257.906,69.0197,1.94324e+11,1.01031,0.969136,112,2.81629,174,0.01,2
app_27,41.3285,20022,7919.5,41.1287,108.41,2.52866e+10,1.00695,0.969136,73,0.231987,270,0.01,2
app_28,82.6892,20210.9,7904.9,62.9755,88.4951,4.29844e+10,1.00656,0.969136,89,0.482971,222,0.01,2
app_29,89.1787,20023.4,7930.1,35.9181,71.2954,2.25804e+10,1.00595,0.969136,112,0.313616,177,0.01,2
app_3,8.13314,20024.4,7770.3,200.693,860.786,1.69207e+11,1.00762,0.969136,9,0.196524,2158,0.1,1
app_30,37.9089,19966.9,7949.4,11.6776,89.5892,4.5852e+09,1.00579,0.969136,89,0.0515191,223,0.01,2
app_31,427.705,21519.1,7661.6,242.372,7.51921,1.52649e+11,1.02377,0.969136,1025,21.807,20,0.001,3
app_32,994.05,22106.1,7513.6,288.94,7.56009,1.71958e+11,1.04091,0.969136,1009,21.4947,20,0.001,3
app_33,505.874,21661.6,7628.4,323.205,7.71298,2.01065e+11,1.02178,0.969136,1015,25.1331,20,0.001,3
app_34,283.474,21075.8,7549.2,203.543,8.24845,1.25987e+11,1.04232,0.969136,908,13.9985,22,0.001,3
app_35,873.377,21924.1,7624.7,270.026,7.51438,1.67043e+11,1.02673,0.969136,1008,20.8804,20,0.001,3
app_36,137.124,20905.4,7586.2,216.168,8.59093,1.27908e+11,1.03706,0.969136,906,15.9885,22,0.001,3
app_37,608.571,21927.6,7848.8,44.8177,6.85395,2.43551e+10,1.01611,0.969136,1135,3.47929,18,0.001,3
app_38,398.107,21061.7,7492.6,263.761,10.6375,1.64028e+11,1.04485,0.969136,727,16.4028,27,0.001,3
app_39,407.779,22276.2,7358.3,312.714,8.35993,1.93922e+11,1.05929,0.969136,883,21.5469,23,0.001,3
app_4,2.54669,19406.2,7874.35,93.0124,875.372,6.06672e+10,1.00819,0.969136,9,0.0692953,2126,0.1,1
app_40,419.526,21903.1,7565,141.56,8.26238,9.30729e+10,1.04465,0.969136,936,10.3414,22,0.001,3
app_41,777.711,22027.8,7738.6,166.042,8.04243,1.12132e+11,1.01901,0.969136,926,14.0164,22,0.001,3
app_42,853.342,21529.9,7543.8,142.61,8.29317,8.92576e+10,1.04807,0.969136,899,10.7437,22,0.001,3
app_43,158.033,21835.7,7763.32,91.4311,8.8466,4.71458e+10,1.02427,0.969136,903,5.23842,23,0.001,3
app_44,787.888,21808.2,7581.2,266.745,8.83976,1.56118e+11,1.03395,0.969136,870,17.3465,23,0.001,3
app_45,67.8707,20748,7623.78,134.232,8.0322,9.42675e+10,1.03653,0.969136,942,11.7819,21,0.001,3
app_46,1444.9,22051.9,7834.2,149.043,4.16729,9.64578e+10,1.00874,0.969136,1799,24.1144,11,0.001,3
app_47,435.887,21375,7775.4,142.363,3.79774,9.37183e+10,1.01663,0.969136,2027,23.4296,10,0.001,3
app_48,289.914,21417.6,7588.9,268.615,3.70974,1.70436e+11,1.03102,0.969136,2019,42.6091,10,0.001,3
app_49,1218.19,21892.8,7722.7,255.562,3.80237,1.58554e+11,1.01507,0.969136,1976,39.6386,10,0.001,3
app_5,5.08807,19591.5,7827.3,148.947,712.002,1.27288e+11,1.00571,0.969136,11,0.178775,1743,0.1,1
app_50,302.548,22254.6,7650.2,294.066,4.05252,1.80312e+11,1.02164,0.969136,1949,45.078,11,0.001,3
app_51,375.485,21636.5,7655.9,259.367,4.20685,1.53263e+11,1.02444,0.969136,1839,30.6525,11,0.001,3
app_52,659.259,21497.2,7697.2,178.788,4.05068,1.04441e+11,1.02543,0.969136,1837,26.1103,11,0.001,3
app_53,122.876,21984.7,7782.6,41.5524,3.53981,2.77135e+10,1.02429,0.969136,2087,6.92836,10,0.001,3
app_54,701.694,21602.2,7666,265.803,3.87523,1.6499e+11,1.02158,0.969136,1960,41.2474,10,0.001,3
app_55,41.3437,21790.8,7687.9,187.301,4.44906,1.22096e+11,1.02433,0.969136,1746,30.5241,12,0.001,3
app_56,124.173,21180.5,7845,2.85041,4.92904,1.99513e+09,1.0195,0.969136,1580,0.399025,13,0.001,3
app_57,798.744,22558.2,7619,195.289,4.05838,1.15401e+11,1.03434,0.969136,1921,28.8502,11,0.001,3
app_58,1506.34,22111.9,7854.1,37.4873,4.00106,2.3308e+10,1.01556,0.969136,2071,5.82699,10,0.001,3
app_59,1.67056,21016.4,7933.6,49.3227,4.29427,3.5506e+10,1.00388,0.969136,1814,8.87649,11,0.001,3
app_6,5.54731,19737,7817.1,153.864,782.937,1.03793e+11,1.00999,0.969136,10,0.132559,1926,0.1,1
app_60,1598.63,23399,7895.2,20.5,3.99998,1.0695e+10,1.0119,0.969136,1921,2.67376,11,0.001,3
app_7,1.0737,18699.3,7900.9,67.8153,788.882,9.16518e+08,1.01243,0.969136,10,0.00116162,1844,0.1,1
app_8,4.95005,19489.1,7744.1,231.252,772.65,1.8426e+11,1.00904,0.969136,10,0.238371,1883,0.1,1
app_9,8.78052,18982,7875.4,96.9187,789.403,7.11047e+10,1.00673,0.969136,10,0.0901201,1871,0.1,1
