app_id,start_app,end_app,effective_cpu,effective_io,effective_iter,total_bytes,stretch,utilization,Tcomp,Tio,iterations,priority,group_id
app_1,4.8954,19725.8,7743.6,232.49,772.479,1.89825e+11,1.00839,0.969307,10,0.245887,1910,0.1,1
app_10,8.82133,20015.1,7909.3,63.0836,718.434,5.13335e+09,1.01081,0.969307,11,0.00714952,1798,0.1,1
app_11,5.18841,19954.5,7854.3,113.815,870.771,8.335e+10,1.00785,0.969307,9,0.0958046,2175,0.1,1
app_12,5.46285,19511,7875.75,89.3197,874.723,4.88029e+10,1.00952,0.969307,9,0.0558086,2132,0.1,1
app_13,2.37218,19257.7,7723.4,253.472,773.631,2.12656e+11,1.00806,0.969307,10,0.27475,1863,0.1,1
app_14,6.64304,19457.8,7896,78.4625,717.28,6.14885e+10,1.00534,0.969307,11,0.0856385,1744,0.1,1
app_15,3.40702,18581.5,7867.6,91.5802,874.939,5.41235e+10,1.00988,0.969307,9,0.0618554,2029,0.1,1
app_16,92.2887,20208.6,7715,258.077,77.3063,1.95529e+11,1.01131,0.969307,101,2.50679,193,0.01,2
app_17,71.6674,20144.6,7800.24,171.954,76.3634,1.27786e+11,1.00908,0.969307,102,1.67379,192,0.01,2
app_18,36.4844,20275.7,7914,55.3866,74.6843,3.81699e+10,1.00601,0.969307,105,0.508932,189,0.01,2
app_19,31.7174,20125.9,7953,18.6186,72.5796,1.06203e+10,1.00457,0.969307,110,0.145484,182,0.01,2
app_2,0.838221,18554.9,7850.6,115.726,871.459,8.49645e+10,1.00812,0.969307,9,0.0974363,2026,0.1,1
app_20,7.77427,20258.3,7787.5,179.753,85.1317,1.29913e+11,1.01043,0.969307,91,1.52839,216,0.01,2
app_21,72.9797,20417.2,7756.9,193.734,86.0345,1.44351e+11,1.0125,0.969307,90,1.6785,219,0.01,2
app_22,76.1013,20244.5,7797.5,170.089,62.8279,1.2872e+11,1.00931,0.969307,123,2.04318,160,0.01,2
app_23,32.6217,20372.5,7780.3,181.694,82.0418,1.34287e+11,1.01079,0.969307,94,1.63764,209,0.01,2
app_24,36.7999,20189.8,7713.7,256.358,88.1737,1.91841e+11,1.01195,0.969307,88,2.15551,222,0.01,2
app_25,32.0243,19992.6,7966.2,6.20842,72.4415,1.38767e+08,1.00423,0.969307,111,0.00192732,180,0.01,2
app_26,33.7624,20202.2,7866.8,88.6274,94.8924,6.27849e+10,1.00888,0.969307,83,0.660893,239,0.01,2
app_27,17.4959,20184.1,7791.3,167.16,89.9781,1.24859e+11,1.01059,0.969307,86,1.38732,229,0.01,2
app_28,0.42974,19982.4,7955.6,15.2365,86.0485,7.34095e+09,1.00465,0.969307,93,0.0853599,214,0.01,2
app_29,3.39788,20210.2,7788,163.406,77.9679,1.22631e+11,1.0113,0.969307,100,1.5722,197,0.01,2
app_3,1.52958,20074.5,7798,172.754,869.835,1.21423e+11,1.01017,0.969307,9,0.139566,2177,0.1,1
app_30,4.07043,20121.6,7792.9,164.657,80.2135,1.2719e+11,1.01009,0.969307,98,1.57025,201,0.01,2
app_31,496.288,21719,7608.32,175.224,8.80781,1.10392e+11,1.03644,0.969307,849,13.799,24,0.001,3
app_32,29.685,21270,7501.6,203.482,7.191,1.24778e+11,1.04899,0.969307,1045,17.8255,19,0.001,3
app_33,584.502,22696.7,7656.6,109.64,8.41062,7.30238e+10,1.03498,0.969307,894,9.12798,23,0.001,3
app_34,183.697,21326.7,7473,279.19,7.82697,1.63108e+11,1.04765,0.969307,942,20.3885,21,0.001,3
app_35,467.228,22122.6,7713.7,23.5028,9.43767,1.53664e+10,1.03505,0.969307,818,1.70738,25,0.001,3
app_36,744.212,21890.9,7661.4,260.242,9.0016,1.55487e+11,1.02343,0.969307,864,17.2763,23,0.001,3
app_37,1156.43,21974.6,7781.8,5.83088,6.82048,5.00652e+09,1.02738,0.969307,1189,0.715218,17,0.001,3
app_38,796.498,22283,7387,308.509,8.86595,1.85495e+11,1.05646,0.969307,836,20.6105,24,0.001,3
app_39,758.07,21683.4,7577.18,281.041,7.98707,1.7424e+11,1.03207,0.969307,945,22.539,21,0.001,3
app_4,7.96147,19582.5,7800,170.397,864.636,1.144e+11,1.01082,0.969307,9,0.132255,2119,0.1,1
app_40,591.799,22034.9,7538.4,256.183,9.58076,1.50071e+11,1.04052,0.969307,801,16.6746,25,0.001,3
app_41,290.999,21846.1,7622.5,178.875,6.9021,9.59898e+10,1.03647,0.969307,1089,15.9983,19,0.001,3
app_42,987.009,21973.8,7629.3,201.064,7.02269,1.20395e+11,1.0323,0.969307,1053,17.1993,19,0.001,3
app_43,573.083,21562.1,7765,89.3825,8.45016,5.92953e+10,1.02246,0.969307,923,6.58837,22,0.001,3
app_44,362.23,21463,7563.5,278.964,7.69082,1.72497e+11,1.03413,0.969307,995,21.5621,20,0.001,3
app_45,126.631,21907.1,7432,238.356,9.26057,1.45807e+11,1.05571,0.969307,813,16.2008,25,0.001,3
app_46,1224.19,21231.4,7882.2,77.3716,4.3315,4.86768e+10,1.00872,0.969307,1808,12.1692,11,0.001,3
app_47,1535.9,22868.8,7637.6,189.808,4.12642,1.21628e+11,1.03103,0.969307,1895,30.4071,11,0.001,3
app_48,1178.09,23361.2,7807.4,182.674,3.57603,1.11381e+11,1.01026,0.969307,2107,37.1271,10,0.001,3
app_49,1313.18,23121.2,7650.5,114.301,3.87257,8.22304e+10,1.03456,0.969307,1913,20.5576,11,0.001,3
app_5,3.90426,18738.5,7818.3,156.768,780.82,1.15536e+11,1.00834,0.969307,10,0.147933,1828,0.1,1
app_50,1574.69,22249.7,7743.6,227.728,4.23875,1.32289e+11,1.01576,0.969307,1840,33.0723,11,0.001,3
app_51,47.6536,20284.5,7771.04,207.422,3.93135,1.23425e+11,1.01337,0.969307,1967,41.1415,10,0.001,3
app_52,1662.58,23417.5,7846.4,49.7434,3.57153,3.46856e+10,1.01509,0.969307,2133,8.6714,10,0.001,3
app_53,1465.59,21657.7,7749.4,83.1005,4.90651,5.49249e+10,1.02507,0.969307,1690,10.985,12,0.001,3
app_54,1313.6,22262.4,7865.1,72.0209,4.24137,5.05815e+10,1.01065,0.969307,1877,12.6454,11,0.001,3
app_55,436.808,21286.6,7823.4,118.121,4.20779,7.40256e+10,1.01299,0.969307,1855,14.8051,11,0.001,3
app_56,1364.22,21873.5,7718.3,106.599,3.97666,7.26121e+10,1.02684,0.969307,2051,18.153,10,0.001,3
app_57,1591.6,22967.6,7789.6,210.4,3.74668,1.24403e+11,1.01087,0.969307,2001,41.4677,10,0.001,3
app_58,1744.21,22838.3,7671.2,290.501,4.19676,1.85464e+11,1.01824,0.969307,1842,46.3661,11,0.001,3
app_59,1321.56,22722.9,7900.8,99.2,4.49042,6.00513e+10,1.00492,0.969307,1753,12.0103,12,0.001,3
app_6,8.96158,20111.2,7716.3,257.467,857.978,2.06253e+11,1.00978,0.969307,9,0.240389,2156,0.1,1
app_60,2026.01,24076.1,7723.1,201.629,3.25147,1.34197e+11,1.01816,0.969307,2343,44.7323,9,0.001,3
app_7,10.3903,19373.1,7750,225.469,774.268,1.62696e+11,1.01103,0.969307,10,0.210202,1876,0.1,1
app_8,1.15891,18818.6,7889.9,76.8792,877.302,1.29747e+09,1.01379,0.969307,9,0.00147944,2062,0.1,1
app_9,0.432159,19170.9,7904.6,68.84,718.149,2.27211e+10,1.00917,0.969307,11,0.031601,1722,0.1,1
