app_id,start_app,end_app,effective_cpu,effective_io,effective_iter,total_bytes,stretch,utilization,Tcomp,Tio,iterations,priority,group_id
app_1,3.56213,19811.3,7797.9,160.672,779.48,1.27779e+11,1.00938,0.964998,10,0.163819,1930,0.1,1
app_10,9.60501,19065.3,7694,260.223,853.701,2.19033e+11,1.01099,0.964998,9,0.256479,2036,0.1,1
app_11,1.8098,18860.9,7753.3,202.092,863.229,1.57996e+11,1.01121,0.964998,9,0.183078,2029,0.1,1
app_12,7.68,18849.9,7702.2,253.754,856.255,1.96121e+11,1.01287,0.964998,9,0.229113,2017,0.1,1
app_13,7.43021,18405,7670.9,281.588,962.297,2.07449e+11,1.01544,0.964998,8,0.21542,2206,0.1,1
app_14,8.1511,19494.9,7700.4,259.496,770.789,2.19739e+11,1.01008,0.964998,10,0.285005,1879,0.1,1
app_15,0.889003,19632.9,7782,169.506,863.108,1.1534e+11,1.013,0.964998,9,0.13365,2120,0.1,1
app_16,22.6703,20189.2,7909.4,56.4207,71.9947,3.44424e+10,1.00707,0.964998,110,0.478367,181,0.01,2
app_17,61.9674,20165,7691.7,279.394,81.5012,1.89549e+11,1.01507,0.964998,96,2.34012,203,0.01,2
app_18,78.3155,20297.5,7852.9,97.2128,91.7208,6.64389e+10,1.01019,0.964998,86,0.722161,231,0.01,2
app_19,32.1649,20158.8,7722.5,239.499,85.5899,1.61236e+11,1.01475,0.964998,91,1.89689,215,0.01,2
app_2,0.0831042,19949.8,7729.7,221.154,774.928,1.58851e+11,1.01413,0.964998,10,0.204969,1931,0.1,1
app_20,37.2311,20131.8,7865.5,65.5582,93.9402,4.0734e+10,1.01186,0.964998,84,0.43334,235,0.01,2
app_21,75.0526,20274.9,7887.6,79.537,82.6282,5.26028e+10,1.00753,0.964998,95,0.633768,209,0.01,2
app_22,81.6792,20146.8,7823.8,125.873,81.7563,8.24489e+10,1.01186,0.964998,95,1.00547,207,0.01,2
app_23,40.0611,20201.5,7745.1,197.277,71.0496,1.38828e+11,1.01472,0.964998,109,1.95533,179,0.01,2
app_24,76.3254,20289.2,7801.4,159.418,71.7925,1.0674e+11,1.01162,0.964998,108,1.4825,183,0.01,2
app_25,28.6426,20274.1,7723.9,224.651,77.981,1.51828e+11,1.01578,0.964998,98,1.94651,199,0.01,2
app_26,95.3496,20412.6,7645.7,313.893,76.7608,2.20322e+11,1.01703,0.964998,100,2.86132,194,0.01,2
app_27,95.0399,20103.7,7867.9,64.0145,84.4972,4.227e+10,1.01136,0.964998,94,0.503214,210,0.01,2
app_28,37.239,20169.1,7791.6,154.141,75.4901,1.09313e+11,1.01254,0.964998,103,1.43833,191,0.01,2
app_29,34.364,20093.8,7693.8,262.869,71.5609,1.78788e+11,1.01618,0.964998,108,2.48317,180,0.01,2
app_3,5.76112,19128.3,7865.9,79.4069,876.13,1.87244e+10,1.01463,0.964998,9,0.0213748,2091,0.1,1
app_30,40.7334,20505.4,7734,211.749,67.2944,1.50547e+11,1.01464,0.964998,114,2.24697,172,0.01,2
app_31,454.606,22414,7565.1,155.072,8.3075,8.42929e+10,1.04583,0.964998,897,10.5366,23,0.001,3
app_32,682.767,21512.2,7436,217.452,6.81491,1.10442e+11,1.0601,0.964998,1103,15.7775,18,0.001,3
app_33,437.22,21092.1,7775.1,106.452,8.08657,6.21698e+10,1.02076,0.964998,958,7.77122,21,0.001,3
app_34,354.424,21888.6,7772.4,8.39557,8.8118,2.27852e+09,1.02898,0.964998,843,0.253169,24,0.001,3
app_35,695.772,21955,7444.8,383.895,8.18763,1.81171e+11,1.04905,0.964998,913,22.6464,22,0.001,3
app_36,177.271,21820,7672.6,106.037,9.00182,4.17597e+10,1.03703,0.964998,827,4.63997,25,0.001,3
app_37,276.506,21425.3,7366,225.274,8.27483,1.29799e+11,1.06726,0.964998,893,16.2249,22,0.001,3
app_38,926.145,23030.6,7474.4,131.883,7.62369,7.60734e+10,1.05954,0.964998,936,10.8676,22,0.001,3
app_39,612.304,21342,7825.6,69.9346,7.27999,3.43836e+10,1.01781,0.964998,1053,4.91195,19,0.001,3
app_4,9.06917,20082.4,7858,100.117,783.993,7.08242e+10,1.00898,0.964998,10,0.090337,1969,0.1,1
app_40,349.601,20939.7,7679.6,53.6241,8.13397,2.05791e+10,1.03894,0.964998,962,2.57239,21,0.001,3
app_41,962.667,22090.4,7776.6,70.3503,7.54875,2.91559e+10,1.02488,0.964998,1022,3.64449,20,0.001,3
app_42,0.334874,21927.2,7506,281.444,7.23826,1.42848e+11,1.04591,0.964998,1021,20.4069,20,0.001,3
app_43,336.244,21887.2,7706.6,158.76,7.77912,8.08096e+10,1.0273,0.964998,960,10.1012,21,0.001,3
app_44,881.331,21962.9,7636.8,98.1067,7.81757,5.50804e+10,1.04006,0.964998,953,7.86863,21,0.001,3
app_45,684.424,21632.7,7422.5,177.552,7.53234,9.99423e+10,1.06348,0.964998,990,14.2775,20,0.001,3
app_46,1326.25,22039.6,7911.1,88.9,3.54479,3.74389e+10,1.00647,0.964998,2288,12.4796,9,0.001,3
app_47,334.144,21775.9,7700,165.62,3.29332,8.90267e+10,1.02709,0.964998,2316,29.6756,9,0.001,3
app_48,1303.37,24414,7665.4,202.825,3.03294,1.18207e+11,1.0278,0.964998,2414,39.4023,9,0.001,3
app_49,1076.12,22231.6,7691.1,265.52,4.14796,1.41423e+11,1.02138,0.964998,1831,35.3557,11,0.001,3
app_5,1.58502,19815.8,7828.7,117.689,867.323,8.10839e+10,1.01141,0.964998,9,0.0935224,2153,0.1,1
app_50,2191.34,23755.4,7854.4,74.0956,3.24335,3.20851e+10,1.01439,0.964998,2331,10.695,9,0.001,3
app_51,1367.58,21966.5,7780.8,20.8661,3.68212,1.42029e+10,1.0263,0.964998,1997,3.55072,10,0.001,3
app_52,660.893,21162.2,7831.2,121.081,3.82802,7.23305e+10,1.01221,0.964998,2019,18.0826,10,0.001,3
app_53,1467.2,23521.3,7676.5,299.027,3.94751,1.61136e+11,1.02072,0.964998,1881,40.284,11,0.001,3
app_54,836.647,22354.4,7607,227.365,3.61332,1.17264e+11,1.0357,0.964998,2088,39.0881,10,0.001,3
app_55,1733.62,22650.4,7665.9,194.271,3.51364,1.02531e+11,1.02981,0.964998,2249,25.6326,9,0.001,3
app_56,986.138,22315.3,7694.6,257.789,4.73463,1.34202e+11,1.02187,0.964998,1590,33.5506,13,0.001,3
app_57,131.117,21409,7663.5,228.781,4.06448,1.1638e+11,1.02829,0.964998,1854,29.095,11,0.001,3
app_58,732.925,21618.3,7582.3,175.233,3.37009,1.12825e+11,1.03962,0.964998,2190,37.6085,9,0.001,3
app_59,735.105,21082.4,7770.9,48.0998,4.19416,2.22199e+10,1.02655,0.964998,1817,5.55497,11,0.001,3
app_6,3.49356,18447.1,7694.3,260.046,854.636,2.15032e+11,1.01146,0.964998,9,0.2515,1968,0.1,1
app_60,129.295,21144.1,7754.5,130.078,4.44715,6.86263e+10,1.02261,0.964998,1701,17.1566,12,0.001,3
app_7,9.57174,18459.8,7789,164,868.126,9.61025e+10,1.01457,0.964998,9,0.11059,1999,0.1,1
app_8,1.61104,19115.2,7859,91.233,876.174,5.13564e+10,1.01133,0.964998,9,0.058626,2089,0.1,1
app_9,9.11498,19957.4,7807.5,146.368,781.113,8.21184e+10,1.01399,0.964998,10,0.105145,1946,0.1,1
