app_id,stretch,start_app,end_app,priority,group_id,utilization
app_1,1.01374,0,18979.9,1,1,0.931504
app_10,1.01572,0,20135.4,1.00001,1,0.931504
app_11,1.02671,0,19906.1,1.00001,1,0.931504
app_12,1.04762,0,20669,1.00001,2,0.931504
app_13,1.04541,0,20785.4,1.00001,2,0.931504
app_14,1.05626,0,20801.4,1.00001,2,0.931504
app_15,1.07126,0,21270.5,1.00002,2,0.931504
app_16,1.03886,0,20595.3,1.00002,2,0.931504
app_17,1.03346,0,20550.2,1.00002,2,0.931504
app_18,1.05333,0,20829.1,1.00002,2,0.931504
app_19,1.05932,0,21082.1,1.00002,2,0.931504
app_2,1.06123,0,19548.7,1,1,0.931504
app_20,1.00211,0,20082.4,1.00002,2,0.931504
app_21,1.07087,0,21329.7,1.00002,2,0.931504
app_22,1.0284,0,20413.6,1.00002,2,0.931504
app_23,1.08342,0,21506.9,1.00002,2,0.931504
app_24,1.08367,0,21457.2,1.00002,2,0.931504
app_25,1.01811,0,20134.5,1.00003,2,0.931504
app_26,1.00719,0,20038,1.00003,2,0.931504
app_27,1.07757,0,21367.3,1.00003,2,0.931504
app_28,1.07076,0,21179.3,1.00003,2,0.931504
app_29,1.03903,0,20645.2,1.00003,2,0.931504
app_3,1.01934,0,20016,1,1,0.931504
app_30,1.06096,0,20845,1.00003,2,0.931504
app_31,1.04831,0,20646.4,1.00003,2,0.931504
app_32,1.07573,0,21926.5,1.00003,3,0.931504
app_33,1.04826,0,20841.4,1.00003,3,0.931504
app_34,1.00526,0,20640.7,1.00003,3,0.931504
app_35,1.00467,0,20729.9,1.00004,3,0.931504
app_36,1.0805,0,21669.7,1.00004,3,0.931504
app_37,1.06805,0,21330.6,1.00004,3,0.931504
app_38,1.00927,0,20311.4,1.00004,3,0.931504
app_39,1.0996,0,22631.7,1.00004,3,0.931504
app_4,1.02204,0,18838.5,1,1,0.931504
app_40,1.00586,0,20518.4,1.00004,3,0.931504
app_41,1.07804,0,21658.7,1.00004,3,0.931504
app_42,1.02249,0,21205.8,1.00004,3,0.931504
app_43,1.06066,0,21755.9,1.00004,3,0.931504
app_44,1.02748,0,20937.1,1.00004,3,0.931504
app_45,1.07047,0,21635.4,1.00004,3,0.931504
app_46,1.02634,0,21336.6,1.00005,3,0.931504
app_47,1.10024,0,21282.9,1.00005,3,0.931504
app_48,1.08367,0,21510.4,1.00005,3,0.931504
app_49,1.07506,0,21144.9,1.00005,3,0.931504
app_5,1.09247,0,20855.4,1.00001,1,0.931504
app_50,1.18656,0,23003,1.00005,3,0.931504
app_51,1.09299,0,21397.6,1.00005,3,0.931504
app_52,1.07041,0,21765.6,1.00005,3,0.931504
app_53,1.19382,0,22998.3,1.00005,3,0.931504
app_54,1.12694,0,22599.9,1.00005,3,0.931504
app_55,1.16433,0,21926.2,1.00005,3,0.931504
app_56,1.13685,0,22842.4,1.00006,3,0.931504
app_57,1.04803,0,21358.4,1.00006,3,0.931504
app_58,1.05684,0,20888.1,1.00006,3,0.931504
app_59,1.05926,0,21237.4,1.00006,3,0.931504
app_6,1.06171,0,19679.2,1.00001,1,0.931504
app_60,1.08486,0,21873.9,1.00006,3,0.931504
app_7,1.07688,0,20762.4,1.00001,1,0.931504
app_8,1.0695,0,19497.9,1.00001,1,0.931504
app_9,1.02176,0,19647.6,1.00001,1,0.931504
