app_id,stretch,start_app,end_app,priority,group_id,utilization
app_1,1.02556,0,19216,0.1,1,0.954683
app_10,1.03289,0,20470.3,0.1,1,0.954683
app_11,1.02005,0,19811.1,0.1,1,0.954683
app_12,1.011,0,20128.6,0.01,2,0.954683
app_13,1.01661,0,20305.6,0.01,2,0.954683
app_14,1.01112,0,20158.5,0.01,2,0.954683
app_15,1.01345,0,20176.4,0.01,2,0.954683
app_16,1.03673,0,21044.9,0.01,2,0.954683
app_17,1.00453,0,20100.4,0.01,2,0.954683
app_18,1.01517,0,20241,0.01,2,0.954683
app_19,1.01437,0,20359,0.01,2,0.954683
app_2,1.01184,0,18757.2,0.1,1,0.954683
app_20,1.0411,0,21045,0.01,2,0.954683
app_21,1.02063,0,20507.7,0.01,2,0.954683
app_22,1.01301,0,20254.4,0.01,2,0.954683
app_23,1.01049,0,20165.5,0.01,2,0.954683
app_24,1.02636,0,20725.8,0.01,2,0.954683
app_25,1.01235,0,20131.4,0.01,2,0.954683
app_26,1.03355,0,20623.7,0.01,2,0.954683
app_27,1.02571,0,20835.1,0.01,2,0.954683
app_28,1.00887,0,20239.6,0.01,2,0.954683
app_29,1.02877,0,20837.5,0.01,2,0.954683
app_3,1.00902,0,19850.8,0.1,1,0.954683
app_30,1.01095,0,20068.5,0.01,2,0.954683
app_31,1.01043,0,20079.8,0.01,2,0.954683
app_32,1.04101,0,21290.8,0.001,3,0.954683
app_33,1.03946,0,20731.8,0.001,3,0.954683
app_34,1.03051,0,21150.3,0.001,3,0.954683
app_35,1.06221,0,21560.3,0.001,3,0.954683
app_36,1.03605,0,21078.2,0.001,3,0.954683
app_37,1.01914,0,20708.6,0.001,3,0.954683
app_38,1.10013,0,21228.3,0.001,3,0.954683
app_39,1.04281,0,21557.8,0.001,3,0.954683
app_4,1.03111,0,19050.9,0.1,1,0.954683
app_40,1.03522,0,20913.4,0.001,3,0.954683
app_41,1.02673,0,20691.8,0.001,3,0.954683
app_42,1.08658,0,21988.1,0.001,3,0.954683
app_43,1.02538,0,21361.8,0.001,3,0.954683
app_44,1.09344,0,21515.9,0.001,3,0.954683
app_45,1.03237,0,20872.2,0.001,3,0.954683
app_46,1.03153,0,21620.8,0.001,3,0.954683
app_47,1.07523,0,21024.3,0.001,3,0.954683
app_48,1.02842,0,20962.6,0.001,3,0.954683
app_49,1.07999,0,21063.6,0.001,3,0.954683
app_5,1.00922,0,19451,0.1,1,0.954683
app_50,1.06257,0,20938,0.001,3,0.954683
app_51,1.09753,0,21186.9,0.001,3,0.954683
app_52,1.0431,0,21252.4,0.001,3,0.954683
app_53,1.05076,0,20769.4,0.001,3,0.954683
app_54,1.0337,0,21137.8,0.001,3,0.954683
app_55,1.08093,0,21172.1,0.001,3,0.954683
app_56,1.04278,0,21538.4,0.001,3,0.954683
app_57,1.02606,0,21147.7,0.001,3,0.954683
app_58,1.03798,0,20743,0.001,3,0.954683
app_59,1.02664,0,20672.9,0.001,3,0.954683
app_6,1.00921,0,18810.2,0.1,1,0.954683
app_60,1.08816,0,21477.3,0.001,3,0.954683
app_7,1.00654,0,19560.6,0.1,1,0.954683
app_8,1.0062,0,18462.7,0.1,1,0.954683
app_9,1.02126,0,19660.5,0.1,1,0.954683
