app_id,stretch,start_app,end_app,priority,group_id,utilization
app_1,1.03181,0,19907.1,0.1,1,0.950144
app_10,1.01813,0,20011.5,0.1,1,0.950144
app_11,1.02566,0,19701.1,0.1,1,0.950144
app_12,1.02085,0,20112.9,0.1,1,0.950144
app_13,1.04331,0,20335,0.1,1,0.950144
app_14,1.04228,0,20492,0.1,1,0.950144
app_15,1.03128,0,19440.1,0.1,1,0.950144
app_16,1.02133,0,20100.1,0.1,1,0.950144
app_17,1.02725,0,19985.3,0.1,1,0.950144
app_18,1.04573,0,19403.7,0.1,1,0.950144
app_19,1.02412,0,19733.9,0.1,1,0.950144
app_2,1.03369,0,20352.3,0.1,1,0.950144
app_20,1.03446,0,20200.3,0.1,1,0.950144
app_21,1.02324,0,18831.1,0.1,1,0.950144
app_22,1.02483,0,19075.5,0.1,1,0.950144
app_23,1.03616,0,18559.3,0.1,1,0.950144
app_24,1.03024,0,19745,0.1,1,0.950144
app_25,1.03707,0,19984.9,0.1,1,0.950144
app_26,1.01641,0,18742.5,0.1,1,0.950144
app_27,1.04353,0,19200,0.1,1,0.950144
app_28,1.03916,0,19991.4,0.1,1,0.950144
app_29,1.04499,0,20374.6,0.1,1,0.950144
app_3,1.04274,0,19646.7,0.1,1,0.950144
app_30,1.03946,0,19780.2,0.1,1,0.950144
app_31,1.03353,0,20318.9,0.1,1,0.950144
app_32,1.02428,0,19148.2,0.1,1,0.950144
app_33,1.04418,0,19623.9,0.1,1,0.950144
app_34,1.02381,0,19680.2,0.1,1,0.950144
app_35,1.04672,0,20132.5,0.1,1,0.950144
app_36,1.04215,0,19711.6,0.1,1,0.950144
app_37,1.01753,0,20087.9,0.1,1,0.950144
app_38,1.0192,0,19509.1,0.1,1,0.950144
app_39,1.0368,0,20177.1,0.1,1,0.950144
app_4,1.02526,0,18871.6,0.1,1,0.950144
app_40,1.07883,0,21532.2,0.01,2,0.950144
app_41,1.04028,0,20791,0.01,2,0.950144
app_42,1.03914,0,20734.5,0.01,2,0.950144
app_43,1.07914,0,21529.8,0.01,2,0.950144
app_44,1.07877,0,21460.3,0.01,2,0.950144
app_45,1.03426,0,20788.7,0.01,2,0.950144
app_46,1.06988,0,21450.1,0.01,2,0.950144
app_47,1.04306,0,20905.8,0.01,2,0.950144
app_48,1.05837,0,21150.1,0.01,2,0.950144
app_49,1.08128,0,21419.8,0.01,2,0.950144
app_5,1.02435,0,19621.6,0.1,1,0.950144
app_50,1.04232,0,20807.4,0.01,2,0.950144
app_51,1.03293,0,20539.1,0.01,2,0.950144
app_52,1.07397,0,21284.4,0.01,2,0.950144
app_53,1.04896,0,20889.1,0.01,2,0.950144
app_54,1.02687,0,20459.3,0.01,2,0.950144
app_55,1.05507,0,21228.4,0.01,2,0.950144
app_56,1.05293,0,20969.6,0.01,2,0.950144
app_57,1.02743,0,20645.6,0.01,2,0.950144
app_58,1.04764,0,20906.1,0.01,2,0.950144
app_59,1.03669,0,20656.9,0.01,2,0.950144
app_6,1.03722,0,20052.6,0.1,1,0.950144
app_60,1.01023,0,21004.5,0.001,3,0.950144
app_7,1.03528,0,19537.4,0.1,1,0.950144
app_8,1.02671,0,20124,0.1,1,0.950144
app_9,1.02155,0,19573.6,0.1,1,0.950144
