app_id,Tcomp,Tio,iter,witer,alpha_io,compute_size,io_size,mu,desyn_time
1,18.134330893396143,1.0452409254179849,1043,19.17957181881413,0.05449761523834748,18e9,1045240925.4179848,10,2.3207776302685956
2,14.411857555086328,0.7161705260591374,1323,15.128028081145466,0.047340639653605826,14e9,716170526.0591375,10,3.29309913755758
3,16.75574236608674,1.9787231165548702,1068,18.73446548264161,0.10561940602939822,16e9,1978723116.5548701,10,1.9019816446349638
4,20.885484135975624,1.6308648637635974,889,22.516348999739222,0.07243025340309327,20e9,1630864863.7635975,10,10.830629747266418
5,3.480685487730051,0.23222041621317288,5387,3.7129059039432235,0.06254411563905982,3e9,232220416.21317288,10,0.9787741103706848
6,116.66505826112521,8.20849044625882,161,124.87354870738403,0.06573442119030157,116e9,8208490446.25882,100,59.30798413333241
7,18.500055581243892,0.17050103831740523,1072,18.670556619561296,0.0091320811581359,18e9,170501038.31740522,100,2.6396425127882868
8,169.5346293737979,0.28239250753870154,118,169.81702188133661,0.0016629222701598754,169e9,282392507.53870153,100,74.42184258632712
9,210.66356851470368,1.3773571896592673,95,212.04092570436296,0.0064957139056242424,210e9,1377357189.6592674,100,123.23389585446579
10,84.978716477487,6.555611376887525,219,91.53432785437452,0.07161915677489977,84e9,6555611376.887525,100,31.67551069351987
11,1325.6448362940241,153.15177532591267,14,1478.7966116199368,0.10356513811466182,1325e9,153151775325.91266,1000,734.3828018254295
12,583.5808492517804,53.16082999115038,32,636.7416792429308,0.08348884912694457,583e9,53160829991.15038,1000,120.80335831467764
13,1757.733655337626,132.94159907693827,11,1890.6752544145643,0.07031434867861684,1757e9,132941599076.93828,1000,1270.8797537022324
14,2156.45532830126,98.92161064356968,9,2255.37693894483,0.043860344998406256,2156e9,98921610643.56967,1000,1640.7723462189845
15,1489.3516677548248,2.528728049194179,14,1491.880395804019,0.0016949938187446802,1489e9,2528728049.194179,1000,48.98902198855685
