app_id,Tcomp,Tio,iter,witer,alpha_io,compute_size,io_size,mu,desyn_time
1,3.0421130813492865,0.20827949543814364,6154,3.25039257678743,0.06407825840040514,3e9,208279495.43814364,10,1.6406398108847227
2,9.291569698779906,0.867330966545873,1969,10.15890066532578,0.08537645904012382,9e9,867330966.545873,10,2.3713292988939734
3,9.946216806988598,0.2350634443982203,1965,10.181280251386818,0.023087808074647755,9e9,235063444.3982203,10,6.6802523107431115
4,10.30617098789741,0.7210723988043707,1814,11.02724338670178,0.0653900864901506,10e9,721072398.8043706,10,4.98063809163389
5,9.426183215461116,0.9005964176680625,1937,10.326779633129178,0.0872098030230909,9e9,900596417.6680626,10,4.666576760515199
6,130.92943479804003,0.27297821174837467,153,131.20241300978842,0.002080588348081746,130e9,272978211.74837464,100,10.276680339708962
7,119.60699917180506,2.293630002106472,165,121.90062917391153,0.018815571483509142,119e9,2293630002.106472,100,60.07903334429178
8,97.27531820442474,3.686931427005603,199,100.96224963143034,0.03651792071259308,97e9,3686931427.005603,100,13.060015229945598
9,81.12621282081193,9.002152791711307,222,90.12836561252324,0.0998814605205763,81e9,9002152791.711308,100,15.636407099195266
10,18.008333859474924,1.823969885750904,1009,19.83230374522583,0.0919696425177021,18e9,1823969885.7509038,100,7.634998844069989
11,1553.3297366837373,72.32394889926766,13,1625.653685583005,0.04448914891324487,1553e9,72323948899.26767,1000,1314.0281090276412
12,1170.7919718542398,8.938076740183432,17,1179.7300485944234,0.0075763745704643245,1170e9,8938076740.183432,1000,1078.6504222771869
13,792.9407050495424,29.918667600024726,25,822.8593726495671,0.03635939334772122,792e9,29918667600.024727,1000,497.1573572304801
14,179.58615415183357,6.201302755871727,108,185.7874569077053,0.0333784791454053,179e9,6201302755.871727,1000,33.6202587402229
15,850.4030807283481,98.48405172594502,22,948.8871324542931,0.10378900541228374,850e9,98484051725.94502,1000,453.10548092240566
