app_id,Tcomp,Tio,iter,witer,alpha_io,compute_size,io_size,mu,desyn_time
1,10.04032892879461,0.5086398618563912,1896,10.548968790651001,0.0482170221516981,10e9,508639861.8563912,10,9.00434452180626
2,2.781075691471112,0.09603547649371263,6952,2.8771111679648245,0.033379133056455734,2e9,96035476.49371263,10,2.8208222455509753
3,14.179909318606605,1.2467709155687539,1297,15.426680234175357,0.08081913260940815,14e9,1246770915.568754,10,7.082225766018027
4,9.895248531271054,0.7585074237407379,1878,10.653755955011793,0.07119624543153882,9e9,758507423.7407379,10,1.7086672433097145
5,2.306682979049151,0.06686811459920636,8427,2.3735510936483575,0.028172182506686284,2e9,66868114.59920636,10,1.492593902064736
6,35.96836507336962,2.078608458635727,526,38.046973532005346,0.05463268863914206,35e9,2078608458.6357272,100,32.03688415152271
7,165.02025980098594,10.061650334558951,115,175.0819101355449,0.057468246301227946,165e9,10061650334.558952,100,71.87541458961053
8,90.51052611318589,5.423236945573707,209,95.9337630587596,0.05653105614393511,90e9,5423236945.573707,100,69.61990692265624
9,87.86126347985525,3.1630448229843484,220,91.0243083028396,0.0347494518987262,87e9,3163044822.9843483,100,71.63141723355933
10,80.91357502283333,4.21554800483503,235,85.12912302766836,0.049519457676838845,80e9,4215548004.83503,100,69.29007600185508
11,2323.229029103175,163.34758334648825,9,2486.576612449663,0.06569175569682753,2323e9,163347583346.48825,1000,2373.520808953159
12,1240.6488240852693,11.584536995520343,16,1252.2333610807896,0.009251100757706894,1240e9,11584536995.520344,1000,926.7683148251112
13,2828.3781647903875,240.9272436979462,7,3069.305408488334,0.07849568929558089,2828e9,240927243697.9462,1000,2247.529406901496
14,1174.1922448569157,83.46369542036881,16,1257.6559402772846,0.0663644902770204,1174e9,83463695420.3688,1000,593.669817897837
15,1808.436996675855,126.78065114273213,11,1935.217647818587,0.06551234755720713,1808e9,126780651142.73213,1000,1325.6582921096065
