app_id,Tcomp,Tio,iter,witer,alpha_io,compute_size,io_size,mu,desyn_time
1,22.751294795014797,1.101087507469306,839,23.852382302484102,0.046162580051998976,22e9,1101087507.469306,10,0.7601506701164139
2,10.5448590999169,0.5600794042689058,1802,11.104938504185807,0.050435164864514465,10e9,560079404.2689058,10,9.221256227030974
3,15.079129473990935,0.7752528048484559,1262,15.854382278839392,0.04889832925772039,15e9,775252804.8484559,10,2.057824462903742
4,2.286530054463626,0.07613464748006253,8466,2.3626647019436886,0.03222405930787767,2e9,76134647.48006253,10,1.2502375571892055
5,12.81594069704904,0.9006350362735385,1459,13.716575733322578,0.06566034072815759,12e9,900635036.2735385,10,3.034394791169017
6,119.14281126428446,1.6565907928102115,166,120.79940205709467,0.013713567820701959,119e9,1656590792.8102114,100,93.91547934533955
7,124.99211536474344,9.56881959521173,149,134.56093495995518,0.07111142322293892,124e9,9568819595.211731,100,66.51867063917892
8,110.18675758275145,8.5018650688163,169,118.68862265156775,0.07163167689438175,110e9,8501865068.8163,100,58.650644686245634
9,6.609011745426917,0.29290918566482044,2898,6.9019209310917375,0.04243879183624441,6e9,292909185.66482043,100,3.8262546408765408
10,89.69539793499325,1.0699191389527172,221,90.76531707394597,0.011787753003507501,89e9,1069919138.9527172,100,66.79146145318698
11,869.4314860435024,19.508161262987418,23,888.9396473064899,0.02194542826624693,869e9,19508161262.98742,1000,106.57774481920303
12,855.2039268023977,79.33048212217604,22,934.5344089245738,0.08488770596843674,855e9,79330482122.17604,1000,165.34614184988456
13,630.4601081741868,43.15018068510873,30,673.6102888592955,0.06405807838561978,630e9,43150180685.10873,1000,24.426754742565905
14,483.2702411606131,30.885115152249167,39,514.1553563128623,0.06006961664998322,483e9,30885115152.24917,1000,354.7481741118272
15,1134.1036484478814,147.33390227963682,16,1281.437550727518,0.11497548374166972,1134e9,147333902279.6368,1000,323.33987858811383
