app_id,Tcomp,Tio,iter,witer,alpha_io,compute_size,io_size,mu,desyn_time
1,27.69148576032192,1.0065725832673964,697,28.698058343589317,0.03507458836469501,27e9,1006572583.2673965,10,15.145115174240557
2,3.2160741531553945,0.14621534921252233,5949,3.3622895023679167,0.043486841067537196,3e9,146215349.21252233,10,2.199412339482678
3,10.086222653864448,0.9533874640385448,1812,11.039610117902994,0.08636061000853928,10e9,953387464.0385448,10,2.833862396460695
4,15.723741311447704,0.8744902866300385,1205,16.598231598077742,0.05268575037423349,15e9,874490286.6300385,10,7.265077580493438
5,23.772136790195677,1.1333635304363012,804,24.90550032063198,0.04550655541327997,23e9,1133363530.4363012,10,12.8596452056912
6,191.65279575732603,17.300024675226883,96,208.95282043255293,0.08279392754505122,191e9,17300024675.226883,100,171.73075489072042
7,55.88554264444425,1.4104261015346897,350,57.29596874597894,0.024616498026026903,55e9,1410426101.5346897,100,31.174705461267504
8,88.69114629320526,4.4559365226668985,215,93.14708281587217,0.04783763901093005,88e9,4455936522.666899,100,84.23816164406608
9,76.68969032532357,0.5922038293166454,259,77.28189415464021,0.007662905209487388,76e9,592203829.3166454,100,6.8726896274860625
10,190.91397829725486,11.559048853448362,99,202.47302715070322,0.057089326988946615,190e9,11559048853.448362,100,22.403962522795002
11,136.88147378006434,9.161362414988353,137,146.0428361950527,0.06273065255150599,136e9,9161362414.988354,1000,106.97947469902945
12,1019.0840609816076,74.76129398001751,19,1093.8453549616252,0.06834722444164909,1019e9,74761293980.01752,1000,316.20521893590694
13,1903.8575306991308,161.0230697625173,10,2064.880600461648,0.07798178244617009,1903e9,161023069762.5173,1000,1144.191208879345
14,870.3598560184914,36.303118806692034,23,906.6629748251835,0.04004036760593621,870e9,36303118806.69203,1000,716.3731943741466
15,492.9649375780221,35.84559710095149,38,528.8105346789736,0.06778533094601145,492e9,35845597100.951485,1000,123.88212667991587
