app_id,Tcomp,Tio,iter,witer,alpha_io,compute_size,io_size,mu,desyn_time
1,8.791098172942373,0.7397384261864698,2099,9.530836599128843,0.07761526687532182,8e9,739738426.1864698,10,9.176706761021345
2,6.177188790444975,0.4517463775598812,3018,6.6289351680048565,0.06814765359906899,6e9,451746377.55988115,10,3.158933515691096
3,13.293154090441302,0.8078149360014171,1419,14.10096902644272,0.057287902305619504,13e9,807814936.001417,10,5.012802559168658
4,5.467404203154384,0.07009028828495138,3612,5.537494491439335,0.012657400994855553,5e9,70090288.28495139,10,2.8275553783636234
5,9.30907417651009,0.17158679692188777,2110,9.480660973431979,0.018098611204717906,9e9,171586796.9218878,10,5.237570591138748
6,100.69684760173064,9.31993317923262,182,110.01678078096326,0.08471374196803706,100e9,9319933179.23262,100,79.07403291110587
7,57.62876827127218,1.9925340906186417,336,59.62130236189082,0.03341983505365767,57e9,1992534090.6186416,100,4.755959342243788
8,128.8535648619651,4.734472063525457,150,133.58803692549057,0.03544083865957349,128e9,4734472063.525457,100,132.87518694362433
9,54.34766623079827,4.905047697370372,338,59.25271392816864,0.08278182334933558,54e9,4905047697.370372,100,48.901637989600175
10,119.99177374753,1.3791361225906613,165,121.37090987012067,0.011362987424799555,119e9,1379136122.5906613,100,77.30737964740665
11,1728.1854803095712,170.70977102341928,11,1898.8952513329905,0.0898995196831337,1728e9,170709771023.41928,1000,110.06232219472352
12,432.9237947066642,6.866445624729136,46,439.7902403313933,0.015613001369823696,432e9,6866445624.7291355,1000,159.5369442905666
13,1478.5941430989606,119.40131638992308,13,1597.9954594888836,0.07471943407656077,1478e9,119401316389.92308,1000,1330.5476709370148
14,1368.5506856549214,144.68188231111512,14,1513.2325679660364,0.09561113431862274,1368e9,144681882311.1151,1000,1211.2671719584082
15,3408.559365882238,151.78030323912685,6,3560.339669121365,0.04263084911687198,3408e9,151780303239.12686,1000,1687.8324686941341
