app_id,Tcomp,Tio,iter,witer,alpha_io,compute_size,io_size,mu,desyn_time
1,9.7218863309091,0.02387203252631,2053,9.74575836343541,0.002449479213015808,9e9,23872032.52631,10,1.5180871012154615
2,2.07108843569614,0.13286219118599438,9075,2.2039506268821345,0.06028365135109705,2e9,132862191.18599437,10,0.7854489243582605
3,10.554649348805013,0.21195275144153786,1858,10.766602100246551,0.019686132121171658,10e9,211952751.44153786,10,7.479468586044843
4,7.457088316249172,0.5066993484919345,2512,7.9637876647411066,0.06362542169918675,7e9,506699348.49193454,10,1.7594328551201386
5,13.044393034280626,0.36848170480965886,1492,13.412874739090284,0.02747223932061046,13e9,368481704.8096589,10,4.94783708230608
6,238.1605455350118,21.461858075074083,78,259.6224036100859,0.0826656628112364,238e9,21461858075.07408,100,31.238906096157724
7,275.65734017949444,25.23664637124704,67,300.8939865507415,0.08387221911791594,275e9,25236646371.24704,100,76.99578641485304
8,72.30677724972048,6.884856518270643,253,79.19163376799112,0.08693919029933525,72e9,6884856518.270643,100,0.20199829708688335
9,114.73698350765017,2.9129715814143835,170,117.64995508906455,0.02475964890262114,114e9,2912971581.4143834,100,25.605888618291733
10,53.860430156145746,5.769804776839911,336,59.63023493298566,0.09675971901375535,53e9,5769804776.839911,100,6.883502162842839
11,840.3828698639427,9.635012711253951,24,850.0178825751966,0.011335070601178315,840e9,9635012711.253952,1000,80.17129838910157
12,1728.948446273205,92.26983815821976,11,1821.2182844314248,0.05066379958239105,1728e9,92269838158.21976,1000,801.2943521553208
13,510.0212381435825,51.64599982337547,36,561.6672379669579,0.09195124146873193,510e9,51645999823.375465,1000,81.96891538819362
14,1984.2575145534834,44.413192405108674,10,2028.670706958592,0.021892755809390808,1984e9,44413192405.10867,1000,1559.791964829414
15,1285.3567581602135,105.18588613648289,15,1390.5426442966964,0.07564376868836226,1285e9,105185886136.4829,1000,858.5790917684377
