app_id,start_app,end_app,effective_cpu,effective_io,effective_iter,total_bytes,stretch,utilization,Tcomp,Tio,iterations,priority,group_id
app_1,8.37501,25620,5003.53,620.346,625.002,5.8568e+11,1.43133,0.826424,8,0.937088,2138,1,1
app_10,67.5008,21579.8,6582.13,752.738,99.9085,7.49571e+11,1.09115,0.826424,66,7.49571,269,1,1
app_11,181.959,20796.1,7487.5,386.962,20.7926,3.86223e+11,1.01604,0.826424,362,18.3916,53,1,1
app_12,53.1941,20896.6,7465.5,284.808,23.3777,2.8359e+11,1.03238,0.826424,319,12.33,61,1,1
app_13,702.739,20859.5,7975.8,19.0275,6.30817,1.86696e+10,1.00069,0.826424,1255,3.1116,16,1,1
app_14,504.813,22022.1,7562.83,372.997,5.98598,3.72709e+11,1.00812,0.826424,1256,65.4513,16,1,1
app_15,266.329,20098.4,7634,291.197,7.11081,2.90554e+11,1.00952,0.826424,1070,41.5077,18,1,1
app_2,2.27696,27765.2,4692.45,351.792,939.989,2.83357e+11,1.60778,0.826424,5,0.301443,3666,1,1
app_3,3.53766,22971.9,6182.25,432.54,229.998,4.18979e+11,1.2119,0.826424,27,1.82165,677,1,1
app_4,7.39341,25809.7,5406.59,309.472,538.999,2.73129e+11,1.40852,0.826424,10,0.506733,1856,1,1
app_5,7.66694,24698.1,5777.2,417.467,384.991,3.94316e+11,1.29628,0.826424,15,1.0242,1227,1,1
app_6,53.2849,22326.2,6541.8,569.104,123.128,5.64792e+11,1.12572,0.826424,53,4.59181,346,1,1
app_7,31.1998,21425.2,6981.21,390.275,88.9993,3.85576e+11,1.08596,0.826424,79,4.33232,240,1,1
app_8,93.4958,21302.3,6984.9,401.906,67.6319,3.98944e+11,1.08345,0.826424,103,5.86682,183,1,1
app_9,21.9485,22836.4,6893.24,99.852,144.594,9.22044e+10,1.14524,0.826424,48,0.635892,411,1,1
