app_id,start_app,end_app,effective_cpu,effective_io,effective_iter,total_bytes,stretch,utilization,Tcomp,Tio,iterations,priority,group_id
app_1,18.0339,26401.9,5270.22,454.566,195.989,4.49172e+11,1.39875,0.770593,27,2.29169,677,1,1
app_10,28.8507,24413.3,5974.82,523.746,69.9964,5.19693e+11,1.23181,0.770593,85,7.42419,216,1,1
app_11,1990.18,23679.1,7413.4,51.8585,3.21878,5.16516e+10,1.07166,0.770593,2290,17.2172,9,1,1
app_12,598.251,22277.2,7164.11,231.576,6.7973,2.31173e+11,1.08177,0.770593,1038,38.2152,19,1,1
app_13,1703.66,24224.4,7024.3,663.586,3.25048,6.63477e+11,1.04061,0.770593,2210,221.159,9,1,1
app_14,941.059,22418.3,7492.5,464.919,4.79595,4.64744e+11,1.00537,0.770593,1497,116.186,13,1,1
app_15,2363.53,23374.3,7376.02,596.92,3.38348,5.96816e+11,1.00341,0.770593,2260,156.683,9,1,1
app_2,9.01144,27503.9,5266.48,53.6872,276.999,3.86229e+10,1.50798,0.770593,19,0.139433,1029,1,1
app_3,12.6463,27899.9,5204.45,30.8124,344.999,9.73309e+09,1.53428,0.770593,15,0.0282119,1314,1,1
app_4,17.7521,27303,4986.85,472.499,292.997,4.6258e+11,1.46804,0.770593,17,1.57877,1071,1,1
app_5,3.70503,28602.2,3970.14,579.734,992.008,5.02711e+11,1.78857,0.770593,4,0.506765,4020,1,1
app_6,14.6887,25816.3,5584.98,285.129,134.996,2.79556e+11,1.36413,0.770593,41,2.07079,460,1,1
app_7,123.103,23538.4,6736.1,155.531,46.4499,1.52478e+11,1.16134,0.770593,146,3.31473,134,1,1
app_8,148.004,23393.7,6661,174.287,33.7801,1.72936e+11,1.17063,0.770593,199,5.08635,98,1,1
app_9,157.827,22679.8,6345.83,568.924,31.9979,5.67287e+11,1.15722,0.770593,198,17.7277,93,1,1
