app_id,start_app,end_app,effective_cpu,effective_io,effective_iter,total_bytes,stretch,utilization,Tcomp,Tio,iterations,priority,group_id
app_1,3.74924,19771.2,7163.4,751.637,1024.45,6.64672e+11,1.02196,0.894808,7,0.648461,2532,0.1,1
app_10,59.7477,20837.9,7104.6,714.432,94.9242,4.76043e+11,1.05532,0.894808,75,5.01098,248,0.01,2
app_11,518.93,21586.9,7426.5,346.575,10.4553,1.44945e+11,1.0566,0.894808,736,13.1768,27,0.001,3
app_12,279.222,23281.2,7022.7,814.865,5.40067,3.67046e+11,1.08258,0.894808,1230,73.4092,16,0.001,3
app_13,106.891,23507.2,6272.07,903.623,20.1879,3.92581e+11,1.20036,0.894808,313,18.7855,61,0.001,3
app_14,529.496,22473.5,6507.1,1270.19,10.5427,5.79705e+11,1.12886,0.894808,615,52.7005,30,0.001,3
app_15,534.046,23399.7,7223.3,776.7,3.27984,3.55337e+11,1.0556,0.894808,2331,118.446,9,0.001,3
app_2,11.1847,20099.3,7856.8,75.5758,460.63,4.57069e+10,1.01234,0.894808,17,0.0991473,1158,0.1,1
app_3,5.52815,21074.3,6835.72,795.009,214.029,5.34004e+11,1.08552,0.894808,32,2.49359,566,0.01,2
app_4,1.33611,17775.4,6973.2,862.294,1739.76,7.12035e+11,1.04096,0.894808,4,0.409215,3863,0.1,1
app_5,2.60081,19616.8,7350.7,527.535,1048.92,4.60131e+11,1.02422,0.894808,7,0.438638,2576,0.1,1
app_6,3.437,19627.4,7526.7,439.22,377.807,4.08682e+11,1.00814,0.894808,20,1.08117,923,0.1,1
app_7,68.0432,20685.1,7378.3,450.264,91.164,2.9828e+11,1.04213,0.894808,81,3.2778,237,0.01,2
app_8,84.9863,20322.9,7524.1,423.954,29.9983,2.86105e+11,1.0243,0.894808,251,9.53683,77,0.01,2
app_9,107.449,20897.8,7211.8,695.186,67.6772,4.782e+11,1.04031,0.894808,107,7.03236,176,0.01,2
