app_id,start_app,end_app,effective_cpu,effective_io,effective_iter,total_bytes,stretch,utilization,Tcomp,Tio,iterations,priority,group_id
app_1,6.06198,19520.7,7478,210.103,1068.3,1.43755e+11,1.04963,0.878809,7,0.134602,2611,0.1,1
app_10,10.9134,21892.8,6668,973.14,106.2,6.13303e+11,1.0987,0.878809,63,5.78587,289,0.01,2
app_11,298.096,22630.6,7148.45,50.397,9.65968,7.73095e+09,1.11792,0.878809,740,0.80589,27,0.001,3
app_12,205.554,22803.3,6869.51,574.143,14.5112,1.96323e+11,1.13221,0.878809,474,14.023,41,0.001,3
app_13,217.481,23321.4,6792.4,647.98,19.7679,2.39251e+11,1.13771,0.878809,341,11.9626,57,0.001,3
app_14,822.127,23222.9,6836.2,722.657,7.36098,2.60947e+11,1.12721,0.878809,936,32.6184,21,0.001,3
app_15,9.30137,22199.4,7058.14,941.862,2.77463,3.65536e+11,1.07763,0.878809,2345,169.342,8,0.001,3
app_2,9.14101,19447.7,7096.7,847.031,510.18,7.8685e+11,1.01477,0.878809,14,1.54284,1236,0.1,1
app_3,4.55933,20129.1,7193.02,564.721,1435.32,4.49169e+11,1.04682,0.878809,5,0.312792,3624,0.1,1
app_4,0.179138,19101.8,6988.92,882.292,776.532,7.90333e+11,1.02838,0.878809,9,1.01806,1854,0.1,1
app_5,0.720269,19451.9,6803.6,704.585,2267.42,6.12477e+11,1.07874,0.878809,3,0.270052,5524,0.1,1
app_6,105.16,21386.5,6828.96,941.799,68.0552,5.95019e+11,1.07759,0.878809,101,8.69399,182,0.01,2
app_7,34.9033,21119,7487.8,169.226,68.9628,1.02558e+11,1.05397,0.878809,110,1.48634,180,0.01,2
app_8,20.761,21260.1,6849.6,1089.3,45.921,6.87374e+11,1.06143,0.878809,148,14.9429,123,0.01,2
app_9,76.9816,21199.4,7357.8,368.268,51.801,2.23333e+11,1.05525,0.878809,141,4.29486,138,0.01,2
