app_id,start_app,end_app,effective_cpu,effective_io,effective_iter,total_bytes,stretch,utilization,Tcomp,Tio,iterations,priority,group_id
app_1,16.2078,20806.6,7091.2,908.8,353.163,3.4324e+11,1.07607,0.875411,20,0.972352,920,1,1
app_10,51.8252,20630,7476.6,523.4,50.7906,2.15973e+11,1.03996,0.875411,148,4.23477,131,1.00001,1.00001
app_11,615.917,23900.6,6285.5,1714.5,4.00513,6.9031e+11,1.14682,0.875411,1602,172.577,12,1.00001,1.00001
app_12,42.143,21252.7,7358.3,641.7,23.0504,2.74669e+11,1.04808,0.875411,318,11.9421,61,1.00001,1.00001
app_13,674.014,22890.6,6963.3,1036.7,10.2475,3.92578e+11,1.08757,0.875411,669,35.6889,29,1.00001,1.00001
app_14,630.383,23645,7161.7,838.3,3.31651,2.82167e+11,1.07471,0.875411,2065,94.0556,10,1.00001,1.00001
app_15,122.202,21454,7389.1,610.9,5.52433,2.94642e+11,1.04116,0.875411,1302,58.9285,15,1.00002,1.00002
app_2,9.62487,20984.5,6925,1075,692.717,4.13206e+11,1.09018,0.875411,10,0.596257,1819,1,1
app_3,4.76175,20875.3,6354.9,1645.1,1060.88,6.40917e+11,1.14354,0.875411,6,0.604069,2774,1,1
app_4,2.68772,22208.1,6681.7,1318.3,2231.52,4.48125e+11,1.12205,0.875411,3,0.200863,6207,1,1
app_5,6.59376,18693.1,7238.5,761.5,1205.43,2.57693e+11,1.06721,0.875411,6,0.213676,2812,1.00001,1.00001
app_6,64.2312,19994.9,7988,12,100.831,2.38751e+09,1.0012,0.875411,79,0.0236387,251,1.00001,1.00001
app_7,10.1532,22502.7,6472.4,1527.6,92.3265,6.34522e+11,1.12566,0.875411,70,6.89697,259,1.00001,1.00001
app_8,110.587,22699.2,6366.3,1633.7,51.9613,7.05886e+11,1.13119,0.875411,122,13.5747,148,1.00001,1.00001
app_9,62.0184,21141.2,7296.8,703.2,50.6275,2.89049e+11,1.0546,0.875411,146,5.66762,132,1.00001,1.00001
