app_id,start_app,end_app,effective_cpu,effective_io,effective_iter,total_bytes,stretch,utilization,Tcomp,Tio,iterations,priority,group_id
app_1,9.23005,26137.5,5302.4,52.1978,265.597,3.8067e+10,1.498,0.788022,20,0.143109,952,1,1
app_10,36.1068,22078.4,6618.3,656.813,51.6634,6.53244e+11,1.10018,0.788022,128,12.8087,142,1,1
app_11,674.023,21441.7,7481.7,461.762,11.6154,4.60829e+11,1.00724,0.788022,643,38.4024,30,1,1
app_12,445.806,21373.7,7505.7,91.4468,12.8839,9.08409e+10,1.05311,0.788022,591,7.57007,34,1,1
app_13,210.745,20875.1,7231.4,570.225,7.05494,5.69836e+11,1.02548,0.788022,1040,81.4051,18,1,1
app_14,428.898,20705.2,7405.6,572.528,3.74877,5.72377e+11,1.00276,0.788022,1918,143.094,10,1,1
app_15,211.702,20773.1,7769.6,37.6152,12.7848,3.70235e+10,1.02477,0.788022,615,2.84796,33,1,1
app_2,5.32054,27865.9,4776,193.129,399.03,1.6753e+11,1.61828,0.788022,12,0.419874,1574,1,1
app_3,16.471,26137.3,5244.3,405.693,237.604,3.94219e+11,1.41881,0.788022,22,1.65638,833,1,1
app_4,8.36097,26534.6,4506,533.496,375.566,5.22902e+11,1.5908,0.788022,12,1.39441,1394,1,1
app_5,3.62014,26540.4,5045.2,152.687,316.139,1.31847e+11,1.54528,0.788022,16,0.417238,1159,1,1
app_6,2.24945,25276.1,5475.3,487.692,180.016,4.80931e+11,1.34313,0.788022,30,2.67184,601,1,1
app_7,32.0329,24450.7,5971.1,257.123,127.998,2.51688e+11,1.2856,0.788022,47,1.96631,403,1,1
app_8,217.143,21623.5,7049.3,496.42,28.2012,4.9541e+11,1.06035,0.788022,248,17.6932,76,1,1
app_9,289.166,21603.1,7180.8,590.546,23.0099,5.89151e+11,1.02961,0.788022,304,25.6152,61,1,1
