app_id,start_app,end_app,effective_cpu,effective_io,effective_iter,total_bytes,stretch,utilization,Tcomp,Tio,iterations,priority,group_id
app_1,1.02241,26117.9,2815.8,270.8,2815.6,9.2165e+10,2.75106,0.674424,1,0.032729,10964,1,1
app_10,6.09165,27315.6,4799.6,412.023,102.392,4.06743e+11,1.53659,0.674424,47,3.94896,387,1,1
app_11,809.95,21979.7,7073.9,583.21,7.47766,5.82888e+11,1.04482,0.674424,954,83.2697,20,1,1
app_12,142.279,21807.1,6496.4,964.527,10.6988,9.63883e+11,1.07235,0.674424,614,87.6257,29,1,1
app_13,1148.56,21329.4,7289.2,473.576,5.58458,4.73278e+11,1.0306,0.674424,1354,94.6555,14,1,1
app_14,390.102,22922.7,6985.3,412.926,9.56004,4.12249e+11,1.08144,0.674424,750,41.2249,26,1,1
app_15,2111.75,22853.1,7094.5,879.361,3.14252,8.79295e+11,1.00329,0.674424,2210,293.098,8,1,1
app_2,1.66443,31064.1,3059.7,168.325,1529.8,1.18662e+11,2.51702,0.674424,2,0.0776077,8225,1,1
app_3,13.4338,29712.9,4117.6,59.0185,316.619,3.90996e+10,1.9246,0.674424,13,0.123733,1435,1,1
app_4,5.31638,29630.4,4234.1,79.1229,264.052,6.57917e+10,1.86051,0.674424,16,0.249211,1181,1,1
app_5,0.263705,29026.4,2823.3,265.162,2826.87,6.49013e+10,2.76989,0.674424,1,0.0229577,13522,1,1
app_6,71.1032,24235.4,5676.7,693.447,40.9601,6.91389e+11,1.25626,0.674424,139,16.8631,128,1,1
app_7,138.601,24539,6577.4,51.9798,33.4509,5.00653e+10,1.2071,0.674424,194,1.51713,103,1,1
app_8,150.04,23635.3,6503.1,304.42,28.9269,3.03052e+11,1.17541,0.674424,227,10.4501,85,1,1
app_9,65.9333,26586.3,5384.3,207.198,73.6234,2.03569e+11,1.43167,0.674424,73,2.75093,262,1,1
