app_id,start_app,end_app,effective_cpu,effective_io,effective_iter,total_bytes,stretch,utilization,Tcomp,Tio,iterations,priority,group_id
app_1,11.1155,20001.5,7475.9,524.1,500.129,1.81694e+11,1.04471,0.872478,15,0.363389,1247,1,1
app_10,2.347,21073.7,7141,859,253.969,3.24195e+11,1.07164,0.872478,28,1.27636,671,1.00001,1.00001
app_11,633.66,21932.8,7647.4,352.6,4.48355,1.05088e+11,1.03193,0.872478,1723,26.2721,12,1.00001,1.00001
app_12,1092.88,24790.1,6382.2,1617.8,4.94078,6.65693e+11,1.13509,0.872478,1283,133.139,15,1.00001,1.00001
app_13,1674.75,22190.1,7536.4,463.6,4.24271,1.53415e+11,1.04034,0.872478,1803,38.3537,11,1.00001,1.00001
app_14,277.218,22098.6,7396.7,603.3,5.17867,2.7097e+11,1.04334,0.872478,1456,54.1941,14,1.00001,1.00001
app_15,889.528,23744.4,7087.4,912.6,5.87986,3.26057e+11,1.07912,0.872478,1194,54.3429,17,1.00002,1.00002
app_2,8.66575,21523.7,6665.45,1334.55,740.067,5.0713e+11,1.11536,0.872478,9,0.684582,2004,1,1
app_3,3.58869,20223.2,6979.8,1020.2,1162.54,3.54843e+11,1.09071,0.872478,6,0.305372,2944,1,1
app_4,6.32235,21047.5,6749.3,1250.7,748.98,4.75572e+11,1.10729,0.872478,9,0.634942,1977,1,1
app_5,4.21449,21151.1,6689.05,1310.95,1338.6,4.88447e+11,1.11459,0.872478,5,0.365042,3543,1.00001,1.00001
app_6,61.0214,20812.1,7548.4,451.6,40.5447,1.72659e+11,1.03613,0.872478,188,4.2112,105,1.00001,1.00001
app_7,40.5982,22191.9,6619.6,1380.4,78.6437,5.42525e+11,1.11699,0.872478,84,6.95544,219,1.00001,1.00001
app_8,31.4616,22333.5,6353,1647,182.225,6.89411e+11,1.13597,0.872478,35,3.78797,508,1.00001,1.00001
app_9,0.585518,22191.7,6425.7,1574.3,184.138,6.52447e+11,1.13024,0.872478,35,3.54591,511,1.00001,1.00001
