app_id,Tcomp,Tio,iter,witer,alpha_io,compute_size,io_size,mu,desyn_time
1,9.913656550586788,0.056915903673987266,2006,9.970572454260775,0.005708388754515806,9e9,56915903.67398726,10,1.7229109665795175
2,10.206105419203633,0.2462550133953101,1914,10.452360432598942,0.02355975140574823,10e9,246255013.3953101,10,1.6394533138791025
3,10.641493782396271,0.20060345602677665,1845,10.842097238423047,0.01850227420169807,10e9,200603456.02677664,10,6.5916049272115185
4,8.988861981568302,0.00856643775905096,2223,8.997428419327353,0.0009520984618948919,8e9,8566437.75905096,10,1.6991246762053902
5,10.245966059186754,0.016285282697262343,1949,10.262251341884017,0.0015869113077357716,10e9,16285282.697262343,10,0.13788962412701683
6,8.550062438642733,0.19617383131451668,2287,8.74623626995725,0.022429514280143677,8e9,196173831.3145167,10,8.542440395936545
7,9.312655310908685,0.23367639020563105,2096,9.546331701114315,0.02447813437892114,9e9,233676390.20563105,10,5.306606720672779
8,10.08754474008059,0.0020558805694746566,1983,10.089600620650065,0.00020376233379019494,10e9,2055880.5694746566,10,3.0962186365419235
9,9.821457487152752,0.19812912324621,1997,10.019586610398962,0.019774181405905412,9e9,198129123.24620998,10,4.3838680970615185
10,9.388689193133333,0.007310930686726019,2129,9.396000123820059,0.000778089675434537,9e9,7310930.686726019,10,9.193953420391948
11,10.044518286228504,0.2607327245904397,1941,10.305251010818944,0.025300958153926585,10e9,260732724.59043974,10,6.488932958299303
12,10.303906020021989,0.26489852565252053,1893,10.56880454567451,0.02506419004228207,10e9,264898525.65252054,10,5.248345045695418
13,10.330254325133446,0.12373102103259151,1914,10.453985346166037,0.011835775250820437,10e9,123731021.0325915,10,1.461992201246506
14,9.40004151589372,0.0677961761448921,2113,9.467837692038612,0.0071606821272296485,9e9,67796176.1448921,10,7.5423597589284785
15,9.419916458013704,0.13993769901101843,2093,9.559854157024722,0.014638057936081604,9e9,139937699.01101843,10,7.789239947056385
16,102.1405594046405,1.0276751296590216,194,103.16823453429951,0.009961158435035145,102e9,1027675129.6590216,100,70.99356734093001
17,106.06943041106973,2.5425019434745457,185,108.61193235454428,0.02340904805169106,106e9,2542501943.474546,100,80.96479193009083
18,103.8912213190974,2.314248156512545,189,106.20546947560995,0.021790291667078514,103e9,2314248156.5125446,100,74.10487013072563
19,104.26057979872408,1.283125090842561,190,105.54370488956664,0.012157286805358321,104e9,1283125090.842561,100,43.89523444606967
20,118.32953958730108,0.7918247666460124,168,119.1213643539471,0.006647210355090054,118e9,791824766.6460124,100,39.30313356005644
21,87.57349647257774,0.6231160381072539,227,88.196612510685,0.007065079036133769,87e9,623116038.1072539,100,29.199366455661185
22,98.25144451514414,0.41535818152160986,203,98.66680269666575,0.004209705495358532,98e9,415358181.52160984,100,51.70260979754477
23,91.91529922193416,2.132570196966585,213,94.04786941890075,0.022675369576612692,91e9,2132570196.9665852,100,23.85743043735772
24,94.18689626793275,0.25207902033016133,212,94.43897528826291,0.0026692265514394065,94e9,252079020.33016133,100,31.210396771341816
25,103.37739502440888,0.5528709756028148,193,103.9302660000117,0.0053196339899943355,103e9,552870975.6028148,100,83.31747198038413
26,93.4360082439871,0.5717502021251675,213,94.00775844611228,0.006081946975184072,93e9,571750202.1251675,100,33.997199451752664
27,91.46665187436571,2.0912830144600965,214,93.55793488882581,0.02235281290619713,91e9,2091283014.4600964,100,38.97664018428461
28,95.62559366868861,0.4821179659986055,209,96.10771163468722,0.005016433726267179,95e9,482117965.9986055,100,59.33090584032624
29,79.97074868224593,1.6532311566396276,246,81.62397983888556,0.020254233619861187,79e9,1653231156.6396277,100,11.78701481172285
30,85.5106424327735,0.8502354266656909,232,86.36087785943919,0.009845145715743332,85e9,850235426.6656909,100,34.579737474471806
31,117.55155863317573,0.2947411300540225,170,117.84629976322975,0.0025010639336678375,117e9,294741130.05402255,150,23.023631748552443
32,124.14765082297087,3.029347498926063,158,127.17699832189693,0.023819932369047586,124e9,3029347498.926063,150,95.4689867443876
33,161.16537954892874,4.245889847831989,121,165.41126939676073,0.025668685472981057,161e9,4245889847.831989,150,113.87534198125734
34,153.46900667487222,0.2869190170807524,131,153.75592569195297,0.0018660680282045789,153e9,286919017.08075243,150,90.63460590421832
35,144.53215753214096,2.96330336301496,136,147.49546089515593,0.02009081055803719,144e9,2963303363.0149603,150,0.2076865820864437
36,144.1511870471291,1.6682504812179484,138,145.81943752834704,0.011440521987294344,144e9,1668250481.2179484,150,117.44913547658498
37,161.69161276310908,1.9523663259566726,123,163.64397908906574,0.011930572312068184,161e9,1952366325.9566727,150,131.5180274264916
38,158.2953662027542,2.614594747410024,125,160.90996095016422,0.01624880605259606,158e9,2614594747.410024,150,102.94598463518106
39,128.0015007283571,3.023785021014506,153,131.0252857493716,0.023077873890681503,128e9,3023785021.014506,150,74.90746477106293
40,154.0233673647407,1.6932562961941295,129,155.71662366093483,0.010873959737793381,154e9,1693256296.1941295,150,20.41402145695736
41,152.71180985829534,0.22164145305556437,131,152.9334513113509,0.0014492673195763673,152e9,221641453.05556437,150,119.28194394726304
42,125.38427388173845,2.902826176064835,156,128.2871000578033,0.022627576543213516,125e9,2902826176.064835,150,9.684932678877402
43,128.31227778477194,1.6240349118673107,154,129.93631269663925,0.012498699387129181,128e9,1624034911.8673108,150,3.142840828121174
44,151.5057620371015,1.354281826136217,131,152.86004386323773,0.008859619504936677,151e9,1354281826.136217,150,49.764370208786715
45,165.59697947358035,4.321362836022319,118,169.91834230960268,0.025431997377590373,165e9,4321362836.022319,150,119.50318736473744
46,1046.689150496937,1.3917676274147304,20,1048.0809181243517,0.00132792001394839,1046e9,1391767627.4147303,1000,89.80007467895486
47,909.7636171058764,12.523608846834547,22,922.287225952711,0.013578859702732864,909e9,12523608846.834547,1000,752.6205496534503
48,1004.1178917244492,15.64444341312768,20,1019.7623351375769,0.015341264208407028,1004e9,15644443413.12768,1000,701.8032502355221
49,1070.0508332158565,22.930819008357844,19,1092.9816522242145,0.02098005850481908,1070e9,22930819008.357845,1000,381.50306780215357
50,973.7333974195623,5.163438628626305,21,978.8968360481886,0.005274752597496517,973e9,5163438628.626305,1000,292.7364253851979
51,1053.6088007400813,11.883113473218117,19,1065.4919142132994,0.011152701690835405,1053e9,11883113473.218117,1000,190.99550829107864
52,1019.599869693323,26.248220396862774,20,1045.8480900901857,0.02509754585352767,1019e9,26248220396.862774,1000,868.0212077185333
53,890.6663502357268,19.64263273012531,22,910.3089829658521,0.021577984066605826,890e9,19642632730.12531,1000,628.0223367809443
54,823.5817136276519,7.097465243705324,25,830.6791788713572,0.00854417135307116,823e9,7097465243.705324,1000,108.72628511641527
55,972.3276247777142,25.485036046903232,21,997.8126608246174,0.02554090266387456,972e9,25485036046.903233,1000,547.62324067903
56,909.9366835352627,13.998345427857222,22,923.9350289631199,0.015150789816429814,909e9,13998345427.857222,1000,235.0477636058913
57,993.7617309208036,3.8103226348668406,21,997.5720535556704,0.0038195964103902216,993e9,3810322634.866841,1000,0.9469915519272201
58,838.2886217320919,13.201794897988524,24,851.4904166300804,0.015504337618075487,838e9,13201794897.988523,1000,475.4570420718556
59,992.2751905912796,5.247487849378318,21,997.522678440658,0.005260519848612633,992e9,5247487849.378319,1000,225.96827224023008
60,1000.3119231063359,12.1862134824741,20,1012.49813658881,0.012035788553182391,1000e9,12186213482.4741,1000,154.44030735345922
