app_id,start_app,end_app,effective_cpu,effective_io,effective_iter,total_bytes,stretch,utilization,Tcomp,Tio,iterations,priority,group_id
app_1,3.06159,20729.6,7274.7,725.3,809.175,1.95774e+11,1.07088,0.952616,9,0.241995,2089,1,1
app_10,2.28968,21058,7432.8,567.2,928.792,1.4708e+11,1.05543,0.952616,8,0.158491,2447,1.00001,1.00001
app_11,8.71317,20334.4,7671.5,328.5,642.69,8.22268e+10,1.03176,0.952616,12,0.12788,1628,1.00001,1.00001
app_12,8.59398,18215.3,7887.3,112.7,985.538,1.48684e+10,1.01238,0.952616,8,0.0150949,2243,1.00001,1.00001
app_13,7.55471,19588.3,7887.3,112.7,983.991,1.43043e+10,1.01245,0.952616,8,0.0145369,2412,1.00001,1.00001
app_14,2.82431,19302.9,7736.9,263.1,773.865,6.28409e+10,1.02568,0.952616,10,0.0811898,1866,1.00001,1.00001
app_15,8.78501,20559.6,7304.4,695.6,729.634,1.87479e+11,1.06782,0.952616,10,0.257173,1874,1.00002,1.00002
app_16,14.9696,20096.3,7917.89,82.106,74.4363,2.20423e+10,1.00756,0.952616,108,0.297573,185,1.00002,1.00002
app_17,45.0678,20098.1,7940.1,59.9,83.8184,1.62038e+10,1.00549,0.952616,95,0.192902,210,1.00002,1.00002
app_18,46.7234,20799.4,7573.1,426.9,77.226,1.27039e+11,1.03894,0.952616,98,1.64985,200,1.00002,1.00002
app_19,16.9519,20493.7,7806.7,193.3,70.4254,5.27301e+10,1.01789,0.952616,110,0.753287,181,1.00002,1.00002
app_2,6.27299,19292.5,7582.1,417.9,757.576,1.05721e+11,1.04061,0.952616,10,0.139658,1827,1,1
app_20,87.4151,20262.6,7878.2,121.8,78.8866,3.01261e+10,1.01159,0.952616,101,0.381343,197,1.00002,1.00002
app_21,42.152,20963.5,7548.3,451.7,82.8848,1.34027e+11,1.04135,0.952616,91,1.61478,216,1.00002,1.00002
app_22,87.081,20190.2,7861.7,138.3,75.6909,3.69914e+10,1.01283,0.952616,105,0.486729,189,1.00002,1.00002
app_23,30.9973,21037.6,7334.26,665.739,71.8568,1.84441e+11,1.06401,0.952616,103,2.5977,188,1.00002,1.00002
app_24,61.1554,19936.7,7983.1,16.9,69.4569,3.915e+09,1.00163,0.952616,115,0.0567392,173,1.00002,1.00002
app_25,72.1775,20341.5,7815.6,184.4,72.4626,5.34245e+10,1.01664,0.952616,108,0.731842,183,1.00003,1.00003
app_26,29.586,20688.8,7566.2,433.8,76.2917,1.2156e+11,1.04062,0.952616,100,1.57871,197,1.00003,1.00003
app_27,58.7827,20601.6,7769.5,230.5,73.5697,6.25587e+10,1.02144,0.952616,105,0.856968,188,1.00003,1.00003
app_28,37.0296,20150.1,7968.5,31.5,91.5015,7.26369e+09,1.00304,0.952616,86,0.0789532,232,1.00003,1.00003
app_29,47.5344,21336.2,7306.6,693.4,57.9406,1.88866e+11,1.06731,0.952616,126,3.25631,155,1.00003,1.00003
app_3,5.60969,20423.1,7634.2,365.8,693.854,9.18156e+10,1.03546,0.952616,11,0.132299,1769,1,1
app_30,96.8929,20897.3,7669,331,72.0914,9.39545e+10,1.03054,0.952616,106,1.30492,187,1.00003,1.00003
app_31,89.6769,20938.2,7619.8,380.2,56.0345,1.04218e+11,1.03573,0.952616,135,1.86104,146,1.00003,1.00003
app_32,48.9315,21157.6,7367.7,632.3,69.0061,1.80477e+11,1.05986,0.952616,106,2.61562,183,1.00003,1.00003
app_33,158.172,20972.7,7548.8,451.2,48.1701,1.23295e+11,1.04274,0.952616,156,2.56864,126,1.00003,1.00003
app_34,18.8299,19965.5,7985.6,14.4,63.5537,2.72279e+09,1.00146,0.952616,125,0.0432189,159,1.00003,1.00003
app_35,161.522,20543.7,7758.6,241.4,46.9192,6.74093e+10,1.02223,0.952616,168,1.43424,118,1.00004,1.00004
app_36,35.3307,20498.6,7881.2,118.8,55.1392,3.14105e+10,1.01104,0.952616,142,0.5711,141,1.00004,1.00004
app_37,145.946,20604.3,7747,253,47.8834,6.65346e+10,1.02386,0.952616,161,1.38614,123,1.00004,1.00004
app_38,107.066,20234.1,7877.2,122.8,63.2681,2.7284e+10,1.01208,0.952616,125,0.43308,159,1.00004,1.00004
app_39,77.687,21371.2,7375.1,624.9,50.8611,1.83826e+11,1.05835,0.952616,143,3.60442,136,1.00004,1.00004
app_4,0.868719,19365.5,7461.5,538.5,831.851,1.37324e+11,1.05279,0.952616,9,0.165053,2008,1,1
app_40,15.3715,20732.5,7761.6,238.4,53.6017,7.23899e+10,1.02119,0.952616,143,1.34055,139,1.00004,1.00004
app_41,153.511,20078.8,7947.4,52.6,45.0784,1.34653e+10,1.00492,0.952616,178,0.299228,112,1.00004,1.00004
app_42,146.911,20786.2,7633.2,366.8,51.1194,1.06739e+11,1.0336,0.952616,149,2.09292,132,1.00004,1.00004
app_43,109.263,21118.8,7421.9,578.1,50.8828,1.65182e+11,1.05442,0.952616,147,3.23886,133,1.00004,1.00004
app_44,152.882,21310.9,7313.6,686.4,47.6037,1.87633e+11,1.06649,0.952616,155,3.90903,126,1.00004,1.00004
app_45,23.657,21264.6,7352.5,647.5,44.3269,1.81336e+11,1.06188,0.952616,165,4.12127,119,1.00004,1.00004
app_46,266.934,22483.8,7336.9,663.1,6.87057,1.94722e+11,1.06219,0.952616,1075,27.8175,19,1.00005,1.00005
app_47,811.215,22027.3,7468.7,531.303,7.99763,1.37655e+11,1.05175,0.952616,949,17.8791,21,1.00005,1.00005
app_48,365.067,21884.7,7332.8,667.2,7.19804,1.84008e+11,1.06428,0.952616,1045,26.2868,19,1.00005,1.00005
app_49,989.596,22191.2,7874,126,7.51888,3.76933e+10,1.01116,0.952616,1027,4.71167,20,1.00005,1.00005
app_5,7.26964,19480.8,7720.5,279.5,856.545,6.49447e+10,1.02756,0.952616,9,0.0757814,2088,1.00001,1.00001
app_50,633.46,21178.2,7766.49,233.51,7.99256,5.64698e+10,1.02263,0.952616,997,7.80308,20,1.00005,1.00005
app_51,570.708,21905.5,7601.5,398.5,8.17481,1.22548e+11,1.03573,0.952616,958,15.3185,21,1.00005,1.00005
app_52,704.696,22356.1,7385.2,614.8,9.98758,1.72046e+11,1.05859,0.952616,751,17.2046,27,1.00005,1.00005
app_53,268.007,21174.7,7562.15,437.847,6.9505,1.33125e+11,1.0396,0.952616,1097,19.7264,18,1.00005,1.00005
app_54,179.53,21087.6,7828.5,171.5,6.77298,4.46714e+10,1.01611,0.952616,1125,7.44524,18,1.00005,1.00005
app_55,580.053,20998.6,7793.8,206.2,7.88569,5.7725e+10,1.01891,0.952616,998,7.21562,20,1.00005,1.00005
app_56,505.106,21547.3,7581.5,418.5,7.67174,1.22284e+11,1.03845,0.952616,1010,17.4691,20,1.00006,1.00006
app_57,232.066,22028.9,7576,424,7.24805,1.44581e+11,1.03619,0.952616,1025,20.6544,20,1.00006,1.00006
app_58,418.601,22154.6,7336.05,663.95,8.29512,1.48112e+11,1.06892,0.952616,868,16.7415,23,1.00006,1.00006
app_59,603.818,22720.8,7205.01,794.987,8.74889,1.99713e+11,1.08039,0.952616,823,22.6573,24,1.00006,1.00006
app_6,4.16484,19367.6,7304.5,695.5,809.91,1.82744e+11,1.06848,0.952616,9,0.22561,1965,1.00001,1.00001
app_60,565.643,21407.7,7716.9,283.1,6.85403,9.50527e+10,1.02407,0.952616,1116,13.579,18,1.00006,1.00006
app_7,1.01014,19269.8,7690.8,309.2,854.511,7.67414e+10,1.02993,0.952616,9,0.089756,2056,1.00001,1.00001
app_8,4.96443,20474.3,7234.5,765.5,804.646,2.04694e+11,1.07539,0.952616,9,0.254278,2060,1.00001,1.00001
app_9,1.05315,19402.9,7537.3,462.7,836.516,1.14906e+11,1.04545,0.952616,9,0.137283,2030,1.00001,1.00001
