app_id,start_app,end_app,effective_cpu,effective_io,effective_iter,total_bytes,stretch,utilization,Tcomp,Tio,iterations,priority,group_id
app_1,3.04802,18694.3,7571.1,428.9,945.398,1.02633e+11,1.04252,0.95321,8,0.108607,2204,1,1
app_10,8.22574,20278,7382.1,617.9,921.451,1.64597e+11,1.06007,0.95321,8,0.178522,2337,1.00001,1.00001
app_11,7.22488,19921.1,7578.9,421.1,947.815,9.94522e+10,1.04189,0.95321,8,0.105018,2353,1.00001,1.00001
app_12,7.32961,19771.3,7826.9,173.1,871.904,3.51176e+10,1.01755,0.95321,9,0.0402725,2151,1.00001,1.00001
app_13,8.51647,21004.2,7313.1,686.9,812.224,1.84116e+11,1.06706,0.95321,9,0.226465,2136,1.00001,1.00001
app_14,1.69718,19963.1,7369.8,630.2,820.817,1.64329e+11,1.06183,0.95321,9,0.200157,2043,1.00001,1.00001
app_15,2.67374,18421.2,7704.43,295.573,965.273,6.96797e+10,1.02906,0.95321,8,0.0721887,2220,1.00002,1.00002
app_16,33.2541,20113.2,7938,62,87.2601,1.4213e+10,1.00601,0.95321,90,0.161512,221,1.00002,1.00002
app_17,51.0466,21171.3,7414.2,585.8,77.6982,1.67256e+11,1.05521,0.95321,96,2.14431,204,1.00002,1.00002
app_18,5.89129,20381.8,7695.4,304.6,96.5777,8.58274e+10,1.02812,0.95321,80,0.894036,245,1.00002,1.00002
app_19,17.1177,20400.2,7763.3,236.7,75.8073,7.12606e+10,1.02112,0.95321,101,0.937639,195,1.00002,1.00002
app_2,7.30221,19577.5,7811.7,188.3,866.037,4.12165e+10,1.01873,0.95321,9,0.0475941,2121,1,1
app_20,3.91771,20120.7,7911.3,88.7,100.569,2.28649e+10,1.0083,0.95321,79,0.228649,252,1.00002,1.00002
app_21,69.2893,20306.2,7796.4,203.6,85.2913,5.24938e+10,1.01925,0.95321,92,0.617574,215,1.00002,1.00002
app_22,57.0421,20935,7448.4,551.6,78.9193,1.42299e+11,1.05392,0.95321,94,1.80125,208,1.00002,1.00002
app_23,32.2874,20290.1,7847.3,152.7,69.6473,3.92005e+10,1.01439,0.95321,113,0.560008,176,1.00002,1.00002
app_24,68.7077,20668.5,7675.2,324.8,80.6485,8.70206e+10,1.03063,0.95321,95,1.07433,208,1.00002,1.00002
app_25,66.1045,21122.6,7509.11,490.895,76.9792,1.48352e+11,1.04473,0.95321,96,1.92725,203,1.00003,1.00003
app_26,48.2446,20801.7,7480.4,519.6,77.7507,1.5412e+11,1.04787,0.95321,97,1.9759,201,1.00003,1.00003
app_27,62.7234,21028.3,7497.9,502.1,70.8334,1.37851e+11,1.0477,0.95321,106,1.94156,185,1.00003,1.00003
app_28,3.57817,20148.7,7918.2,81.8,81.7177,2.29812e+10,1.00741,0.95321,97,0.283718,205,1.00003,1.00003
app_29,12.3784,20673.9,7713.5,286.5,81.3055,8.00272e+10,1.02649,0.95321,95,0.98799,209,1.00003,1.00003
app_3,8.93233,20121,7421.1,578.9,742.584,1.52716e+11,1.05627,0.95321,10,0.20554,1864,1,1
app_30,72.1143,20155.5,7871.1,128.9,88.3375,3.31698e+10,1.01211,0.95321,89,0.372695,223,1.00003,1.00003
app_31,135.679,21258.4,7294,706,45.1978,1.7773e+11,1.0707,0.95321,160,3.94955,122,1.00003,1.00003
app_32,89.3308,20661,7735,265,56.7326,6.68001e+10,1.0254,0.95321,136,1.17193,146,1.00003,1.00003
app_33,93.1639,21269.3,7429.5,570.5,48.6187,1.67665e+11,1.05302,0.95321,153,3.49302,128,1.00003,1.00003
app_34,103.624,20802,7607.86,392.139,48.2283,9.59489e+10,1.03845,0.95321,159,1.98374,125,1.00003,1.00003
app_35,103.778,21293.4,7453,546.999,44.3969,1.45097e+11,1.0529,0.95321,167,3.22622,118,1.00004,1.00004
app_36,12.1434,21344.7,7319.7,680.3,45.0161,1.77388e+11,1.06708,0.95321,163,3.94195,120,1.00004,1.00004
app_37,49.4886,20840.5,7567.3,432.7,53.6633,1.14875e+11,1.04137,0.95321,140,2.12732,141,1.00004,1.00004
app_38,112.609,21065.5,7498.7,501.305,57.3611,1.34861e+11,1.048,0.95321,131,2.344,150,1.00004,1.00004
app_39,97.8936,20439,7902.13,97.8697,46.7884,3.06086e+10,1.00848,0.95321,171,0.657297,117,1.00004,1.00004
app_4,5.18793,19864.5,7360.2,639.8,918.354,1.70493e+11,1.06232,0.95321,8,0.18552,2282,1,1
app_40,143.715,20182.5,7993.2,6.8,52.2347,1.11826e+09,1.00071,0.95321,153,0.0215051,131,1.00004,1.00004
app_41,96.2898,20456.1,7838.7,161.3,51.6425,4.72526e+10,1.01446,0.95321,152,0.908704,131,1.00004,1.00004
app_42,6.3953,21218.9,7398.3,601.7,58.7846,1.8267e+11,1.05527,0.95321,125,3.0961,156,1.00004,1.00004
app_43,82.8475,20590.8,7659.2,340.8,60.2263,9.55158e+10,1.03163,0.95321,127,1.59193,155,1.00004,1.00004
app_44,45.6683,20238.3,7960.5,39.5,55.596,9.38054e+09,1.00378,0.95321,142,0.16751,141,1.00004,1.00004
app_45,42.8527,21157.2,7423.5,576.5,45.4768,1.81153e+11,1.05199,0.95321,161,3.9381,121,1.00004,1.00004
app_46,585.285,21480.3,7672.7,327.3,8.13314,1.11681e+11,1.0277,0.95321,947,13.9601,21,1.00005,1.00005
app_47,544.699,22498.5,7620.6,379.4,8.6424,1.15109e+11,1.03417,0.95321,854,14.3886,24,1.00005,1.00005
app_48,747.964,22531.7,7500.3,499.7,8.26806,1.25136e+11,1.04912,0.95321,881,15.642,23,1.00005,1.00005
app_49,372.08,20996.4,7880.3,119.7,7.81496,2.9404e+10,1.01142,0.95321,1003,3.6755,20,1.00005,1.00005
app_5,5.54623,19508.6,7920.9,79.1,791.204,3.63231e+09,1.00952,0.95321,10,0.00459204,1929,1.00001,1.00001
app_50,250.917,21755.9,7551.63,448.37,7.16326,1.80007e+11,1.03471,0.95321,1041,24.0225,19,1.00005,1.00005
app_51,758.49,22340.1,7705.6,294.4,7.67173,6.37913e+10,1.02968,0.95321,978,9.11305,21,1.00005,1.00005
app_52,167.325,21214.1,7560.6,439.4,7.64932,1.66913e+11,1.03526,0.95321,986,20.8641,20,1.00005,1.00005
app_53,508.623,21488.2,7629.3,370.7,7.73388,1.35921e+11,1.03023,0.95321,1008,19.4172,20,1.00005,1.00005
app_54,200.611,21241.2,7729.6,270.4,7.13367,6.9086e+10,1.02581,0.95321,1052,9.86942,19,1.00005,1.00005
app_55,556.712,21158.7,7692.1,307.9,7.87609,9.05313e+10,1.02793,0.95321,987,12.933,20,1.00005,1.00005
app_56,268.917,21518.5,7427.8,572.2,7.12593,1.39075e+11,1.05724,0.95321,1066,19.8679,19,1.00006,1.00006
app_57,266.967,22389,7315.4,684.6,6.38829,1.89156e+11,1.06602,0.95321,1132,27.0223,18,1.00006,1.00006
app_58,521.27,21638.3,7577.6,422.4,9.64289,1.12359e+11,1.04032,0.95321,781,12.4844,26,1.00006,1.00006
app_59,422.905,21322.3,7778.2,221.8,8.71996,7.55575e+10,1.01862,0.95321,873,9.44469,23,1.00006,1.00006
app_6,5.74272,20708.9,7473.9,526.1,748.427,1.37925e+11,1.051,0.95321,10,0.184146,1939,1.00001,1.00001
app_60,711.318,22451.2,7516.5,483.5,9.61427,1.28399e+11,1.04645,0.95321,770,14.2666,26,1.00006,1.00006
app_7,2.70346,19062.8,7599.7,400.3,844.574,9.87836e+10,1.03917,0.95321,9,0.116904,2010,1.00001,1.00001
app_8,1.5159,19346,7598.8,401.2,690.162,1.03144e+11,1.0387,0.95321,11,0.149484,1666,1.00001,1.00001
app_9,0.946405,18965.3,7889.8,110.2,791.502,1.9102e+10,1.01152,0.95321,10,0.0241491,1875,1.00001,1.00001
