app_id,start_app,end_app,effective_cpu,effective_io,effective_iter,total_bytes,stretch,utilization,Tcomp,Tio,iterations,priority,group_id
app_1,1.72291,24678.5,5423.85,64.2306,604.632,3.43772e+10,1.46568,0.877414,9,0.0569159,2006,1,1
app_10,9.19395,25826.5,5422.4,40.2854,603.525,4.4158e+09,1.47416,0.877414,9,0.00731093,2129,1,1
app_11,6.48893,26183.6,5399.35,165.341,539.683,1.40535e+11,1.44407,0.877414,10,0.260733,1941,1,1
app_12,5.24834,25727.8,5410.3,168.413,540.233,1.43045e+11,1.44057,0.877414,10,0.264899,1893,1,1
app_13,1.46199,25722.8,5461.46,97.285,545.682,6.74334e+10,1.44694,0.877414,10,0.123731,1914,1,1
app_14,7.54236,25770.2,5382,68.3946,597.375,4.04743e+10,1.47534,0.877414,9,0.0677962,2113,1,1
app_15,7.78924,25657.9,5392.9,115.554,599.46,8.38227e+10,1.46073,0.877414,9,0.139938,2093,1,1
app_16,70.9936,21265,7365.5,77.9332,72.4551,7.39926e+10,1.07534,0.877414,102,1.02768,194,1,1
app_17,80.9648,21374.9,7316.2,179.382,68.8692,1.75433e+11,1.06786,0.877414,106,2.5425,185,1,1
app_18,74.1049,21198.1,7303.6,165.82,70.8281,1.61997e+11,1.07158,0.877414,103,2.31425,189,1,1
app_19,43.8952,21527.7,7285.3,91.9513,69.6735,8.85356e+10,1.08492,0.877414,104,1.28313,190,1,1
app_2,1.63945,25951.6,5416.2,160.415,540.131,1.32978e+11,1.44166,0.877414,10,0.246255,1914,1,1
app_20,39.3031,20994.7,7462.4,53.2894,63.7978,5.06768e+10,1.06481,0.877414,118,0.791825,168,1,1
app_21,29.1994,21460.7,7243.9,56.4618,82.4661,5.17186e+10,1.09655,0.877414,87,0.623116,227,1,1
app_22,51.7026,21550.5,7342.1,35.038,75.0464,3.11519e+10,1.085,0.877414,98,0.415358,203,1,1
app_23,23.8574,21169.4,7331.7,174.717,80.3149,1.70606e+11,1.06634,0.877414,91,2.13257,213,1,1
app_24,31.2104,21529.8,7466.4,23.8002,78.467,1.96622e+10,1.06865,0.877414,94,0.252079,212,1,1
app_25,83.3175,21332.5,7401,42.7342,71.8455,3.92538e+10,1.07523,0.877414,103,0.552871,193,1,1
app_26,33.9972,21291.7,7375.2,48.2755,78.516,4.45965e+10,1.0782,0.877414,93,0.57175,213,1,1
app_27,38.9766,21311.8,7293.99,170.268,79.7009,1.66931e+11,1.07225,0.877414,91,2.09128,214,1,1
app_28,59.3309,21435.9,7349.6,41.2382,77.5432,3.76052e+10,1.08295,0.877414,95,0.482118,209,1,1
app_29,11.787,21166.6,7298.1,158.659,92.9028,1.5375e+11,1.07356,0.877414,79,1.65323,246,1,1
app_3,6.5916,25241,5403.96,140.66,539.746,1.08125e+11,1.45136,0.877414,10,0.200603,1845,1,1
app_30,34.5797,21534.8,7261.8,76.7426,84.7489,7.227e+10,1.0908,0.877414,85,0.850235,232,1,1
app_31,23.0236,21099.9,7436.6,21.5506,63.9184,1.88634e+10,1.07304,0.877414,117,0.294741,170,1,1
app_32,95.469,20989.5,7393.9,187.991,60.5981,1.8479e+11,1.05559,0.877414,124,3.02935,158,1,1
app_33,113.875,21047.9,7484.1,197.81,46.7079,1.95311e+11,1.04175,0.877414,161,4.24589,121,1,1
app_34,90.6346,20894.8,7602.6,16.8103,50.2394,1.4346e+10,1.05029,0.877414,153,0.286919,131,1,1
app_35,0.207687,20748.4,7612.5,159.379,52.9686,1.57055e+11,1.02966,0.877414,144,2.9633,136,1,1
app_36,117.449,21053.6,7536,90.5549,52.7701,8.84173e+10,1.04926,0.877414,144,1.66825,138,1,1
app_37,131.518,21102.7,7516.3,92.0712,46.6758,8.98089e+10,1.05179,0.877414,161,1.95237,123,1,1
app_38,102.946,20945.4,7560.3,125.611,47.8101,1.22886e+11,1.04123,0.877414,158,2.61459,125,1,1
app_39,74.9075,21263.5,7377.2,175.466,57.4114,1.72356e+11,1.05967,0.877414,128,3.02379,153,1,1
app_4,1.69912,24674.9,5307.42,46.0002,663.908,5.67955e+09,1.50571,0.877414,8,0.00856644,2223,1,1
app_40,20.414,21095.3,7606.6,85.0931,49.1412,8.29696e+10,1.04037,0.877414,154,1.69326,129,1,1
app_41,119.282,20989.8,7637.6,13.6855,50.1313,1.10821e+10,1.04593,0.877414,152,0.221641,131,1,1
app_42,9.68493,21123,7355.4,171.954,58.4861,1.68364e+11,1.0633,0.877414,125,2.90283,156,1,1
app_43,3.14284,20986.4,7421.4,97.455,57.7956,9.4194e+10,1.06445,0.877414,128,1.62403,154,1,1
app_44,49.7644,20614.1,7562.7,71.4779,50.777,6.90684e+10,1.04825,0.877414,151,1.35428,131,1,1
app_45,119.503,20844.3,7522.6,201.286,45.7064,1.98783e+11,1.03608,0.877414,165,4.32136,118,1,1
app_46,89.8001,21279.2,7931.7,11.3984,7.47645,1.11341e+10,1.0072,0.877414,1046,1.39177,20,1,1
app_47,752.621,21040.1,7804.9,113.018,8.6142,1.12712e+11,1.01041,0.877414,909,12.5236,22,1,1
app_48,701.803,21526.1,7799.5,125.603,7.83442,1.25156e+11,1.00951,0.877414,1004,15.6444,20,1,1
app_49,381.503,21368.7,7729.9,160.783,7.03316,1.60516e+11,1.01389,0.877414,1070,22.9308,19,1,1
app_5,0.13789,25908.5,5509.7,40.3878,551.543,8.97319e+09,1.44962,0.877414,10,0.0162853,1949,1,1
app_50,292.736,21025,7886.3,41.6701,7.98194,4.13075e+10,1.00913,0.877414,973,5.16344,21,1,1
app_51,190.996,20229.3,7825.7,95.4464,7.4641,9.50649e+10,1.01,0.877414,1053,11.8831,19,1,1
app_52,868.021,21767.9,7694.9,210.33,7.6073,2.09986e+11,1.01203,0.877414,1019,26.2482,20,1,1
app_53,628.022,20922.3,7815.3,177.307,8.73014,1.76784e+11,1.00099,0.877414,890,19.6426,22,1,1
app_54,108.726,21209.9,7830.2,64.3054,9.36607,6.38772e+10,1.01342,0.877414,823,7.09747,25,1,1
app_55,547.623,21905.3,7776.8,204.132,7.95802,2.0388e+11,1.00242,0.877414,972,25.485,21,1,1
app_56,235.048,20079.8,7824.4,126.278,8.96814,1.25985e+11,1.00624,0.877414,909,13.9983,22,1,1
app_57,0.946992,21061.7,7956.7,27.0207,7.94298,2.66723e+10,1.00208,0.877414,993,3.81032,21,1,1
app_58,475.457,20978.1,7849,119.393,9.45404,1.18816e+11,1.00404,0.877414,838,13.2018,24,1,1
app_59,225.968,21380.9,7878.7,42.3517,7.87339,4.19799e+10,1.01001,0.877414,992,5.24749,21,1,1
app_6,8.54244,25387,5248.8,151.795,657.1,1.28886e+11,1.48763,0.877414,8,0.196174,2287,1,1
app_60,154.44,20835.9,7860.8,97.776,7.82337,9.74897e+10,1.00524,0.877414,1000,12.1862,20,1,1
app_7,5.30661,25880.8,5322.4,172.764,593.535,1.3857e+11,1.46494,0.877414,9,0.233676,2096,1,1
app_8,3.09622,26305.3,5511.9,33.8433,552.686,1.1369e+09,1.45111,0.877414,10,0.00205588,1983,1,1
app_9,4.38387,24796.3,5358.78,139.606,595.559,1.17887e+11,1.46074,0.877414,9,0.198129,1997,1,1
