app_id,start_app,end_app,effective_cpu,effective_io,effective_iter,total_bytes,stretch,utilization,Tcomp,Tio,iterations,priority,group_id
app_1,1.84103,28693.5,3926.86,267.043,436.009,2.5105e+11,1.91483,0.774434,9,0.575803,1922,1,1
app_10,84.9926,24346.8,5861.2,136.054,50.8206,1.32699e+11,1.33469,0.774434,116,2.60194,168,1,1
app_11,647.151,20852.5,7198.5,500.521,6.88821,5.0007e+11,1.03915,0.774434,1042,71.4385,18,1,1
app_12,859.418,22054.7,7657.2,312.915,7.44931,3.12751e+11,1.00377,0.774434,1041,39.0939,19,1,1
app_13,651.414,21932.3,7407.8,221.735,8.46048,2.21358e+11,1.04861,0.774434,862,27.6698,23,1,1
app_14,718.736,22260.7,7708.7,48.3267,7.33953,4.80562e+10,1.03136,0.774434,1019,6.86518,20,1,1
app_15,776.747,22474.2,7157.5,392.195,6.8299,3.91836e+11,1.0597,0.774434,1030,55.9766,19,1,1
app_16,3661.02,24692.4,7510.5,425.661,1.58326,4.25576e+11,1.00805,0.774434,5130,212.788,4,1,1
app_17,3083.1,26820.4,7516.8,269.143,1.30368,2.69101e+11,1.0275,0.774434,5410,269.101,4,1,1
app_18,2560.22,27058.6,7503.9,472.004,1.66636,4.71982e+11,1.00302,0.774434,4598,235.991,5,1,1
app_19,1289.43,21889.8,7879.1,120.024,1.61,1.19874e+11,1.00013,0.774434,5134,59.9368,4,1,1
app_2,7.74902,29704.3,3984.7,167.487,442.345,1.36512e+11,1.94118,0.774434,9,0.30885,2061,1,1
app_20,3899.26,28025.2,7487.9,494.416,1.64161,4.94289e+11,1.00223,0.774434,4711,247.145,5,1,1
app_3,9.26532,29859.3,4038.1,287.88,365.595,2.64288e+11,1.85943,0.774434,11,0.7221,1695,1,1
app_4,9.56753,29254.3,4057.5,85.4054,449.274,6.17766e+10,1.94209,0.774434,9,0.137587,2050,1,1
app_5,5.62058,29302.9,4026.2,129.64,445.632,1.05864e+11,1.93608,0.774434,9,0.237898,2029,1,1
app_6,114.086,24338.3,5914.3,243.393,50.9705,2.40383e+11,1.29982,0.774434,115,4.7134,167,1,1
app_7,42.0513,24302.6,5855.3,264.956,51.8235,2.6215e+11,1.30773,0.774434,112,5.04135,170,1,1
app_8,89.1356,24219,5634.41,405,56.1563,4.01355e+11,1.32543,0.774434,101,7.11605,184,1,1
app_9,11.3705,24700.6,5582.9,343.396,59.1236,3.41406e+11,1.35037,0.774434,95,5.78654,199,1,1
