app_id,start_app,end_app,effective_cpu,effective_io,effective_iter,total_bytes,stretch,utilization,Tcomp,Tio,iterations,priority,group_id
app_1,8.3104,19197.8,7868.4,74.8161,787.09,2.25141e+10,1.01382,0.926826,10,0.0286076,1887,0.1,1
app_10,43.4662,20527.1,7262.3,637.129,80.8448,4.91853e+11,1.03171,0.926826,91,6.07226,206,0.01,2
app_11,405.019,21457.3,7456.1,477.58,8.76203,2.54911e+11,1.03748,0.926826,884,28.3235,22,0.001,3
app_12,467.547,22060.4,7041,872.629,7.52181,4.61376e+11,1.06633,0.926826,938,65.9109,20,0.001,3
app_13,49.1302,21094.2,7577.7,287.064,8.66057,1.60041e+11,1.03389,0.926826,872,17.7824,23,0.001,3
app_14,1215.99,23265.2,7448.4,471.357,6.26747,2.48949e+11,1.03932,0.926826,1197,41.4915,17,0.001,3
app_15,644.728,22504,7287.4,682.073,7.20858,3.56363e+11,1.0466,0.926826,1044,50.909,19,0.001,3
app_16,120.719,25838,7538.4,314.025,1.8573,1.70295e+11,1.03779,0.926826,3716,85.1476,6,0.0002,3.69897
app_17,1821.24,27405.7,7642.4,357.6,1.23744,1.85134e+11,1.02203,0.926826,5818,185.134,4,0.0002,3.69897
app_18,1938.98,28365.1,7461.9,59.3866,1.46288,2.83596e+10,1.06805,0.926826,4786,14.1798,5,0.0002,3.69897
app_19,448.294,23690.3,7275.1,724.9,1.42302,1.86397e+11,1.07217,0.926826,5315,93.1987,4,0.0002,3.69897
app_2,6.85632,19991.3,7420.4,540.173,739.043,4.73194e+11,1.01348,0.926826,10,0.640317,1852,0.1,1
app_20,5335.61,28992.3,6964.2,1035.8,1.29625,3.77917e+11,1.0896,0.926826,5066,377.917,4,0.0002,3.69897
app_3,9.25429,20051.8,7605.2,347.804,692.03,3.06947e+11,1.0111,0.926826,11,0.443564,1734,0.1,1
app_4,2.45085,19245.5,7464.1,494.117,828.75,4.18623e+11,1.01488,0.926826,9,0.505583,1993,0.1,1
app_5,3.35826,18888.9,7566.8,372.256,947,2.85315e+11,1.01883,0.926826,8,0.301283,2235,0.1,1
app_6,14.7307,20445.4,7532.01,352.834,86.369,2.72867e+11,1.025,0.926826,87,3.13648,220,0.01,2
app_7,62.6178,20581,7380.6,491.384,85.0648,3.77969e+11,1.03112,0.926826,87,4.44669,218,0.01,2
app_8,79.5107,20534.8,7200.5,736.311,75.3929,5.75524e+11,1.0288,0.926826,96,7.67365,192,0.01,2
app_9,43.7001,20662.3,7299.3,577.724,84.755,4.4953e+11,1.03241,0.926826,86,5.28858,219,0.01,2
