app_id,start_app,end_app,effective_cpu,effective_io,effective_iter,total_bytes,stretch,utilization,Tcomp,Tio,iterations,priority,group_id
app_1,9.1229,20002.8,7682.6,274.838,640.428,2.37652e+11,1.01007,0.919843,12,0.370752,1601,0.1,1
app_10,66.7994,20576.7,7530.1,298.411,79.3084,2.25797e+11,1.03147,0.919843,96,2.85818,202,0.01,2
app_11,265.972,21773.3,6659.1,1269.88,8.04828,6.93738e+11,1.08801,0.919843,863,84.8825,22,0.001,3
app_12,1026.8,21984.5,7646.8,211.398,7.0798,1.12123e+11,1.03107,0.919843,1048,16.0176,19,0.001,3
app_13,367.551,21580.3,7085.5,834.843,9.39758,4.29981e+11,1.06447,0.919843,769,42.9981,25,0.001,3
app_14,579.204,22820.4,7457.5,322.065,8.15566,1.76778e+11,1.04791,0.919843,880,22.0972,23,0.001,3
app_15,74.9426,22006.1,7515.9,211.821,8.24598,9.78208e+10,1.05073,0.919843,895,12.2276,23,0.001,3
app_16,4770.83,26037.1,7094.9,692.008,1.41945,2.30158e+11,1.09214,0.919843,4858,230.158,4,0.0002,3.69897
app_17,4048.37,28167.7,7912.3,87.7,1.74873,1.63356e+10,1.009,0.919843,4751,8.16782,5,0.0002,3.69897
app_18,1748.63,28086.5,7102.7,373.289,1.45492,1.92116e+11,1.09667,0.919843,4850,96.0579,5,0.0002,3.69897
app_19,142.941,23551.7,7139.73,860.267,1.59465,3.18872e+11,1.07259,0.919843,4137,292.18,5,0.0002,3.69897
app_2,0.175009,19287.3,7858.5,68.9448,787.113,6.35155e+08,1.01792,0.919843,10,0.000807059,1897,0.1,1
app_20,2450.16,26281.2,6807.3,1192.7,1.7078,4.88093e+11,1.09658,0.919843,4231,244.046,5,0.0002,3.69897
app_3,6.89661,19150,7659.6,286.83,960.208,2.27084e+11,1.01437,0.919843,8,0.236546,2296,0.1,1
app_4,5.09305,18510.2,7689.2,252.182,854.724,1.83324e+11,1.01619,0.919843,9,0.214666,1972,0.1,1
app_5,5.50772,18814.8,7022,958.216,1002.11,8.9618e+11,1.01033,0.919843,7,0.894391,2358,0.1,1
app_6,29.5856,20589.4,7017.9,887.635,73.3246,6.82754e+11,1.03887,0.919843,97,9.35279,188,0.01,2
app_7,65.1953,20644.1,7651.1,109.38,78.1984,7.8131e+10,1.03503,0.919843,98,1.00168,202,0.01,2
app_8,1.30871,20641.2,7128.16,819.231,63.7756,6.36405e+11,1.03032,0.919843,111,10.0076,165,0.01,2
app_9,70.9466,20754.4,7514,256.168,81.1176,1.95602e+11,1.03767,0.919843,93,2.41484,210,0.01,2
