app_id,start_app,end_app,effective_cpu,effective_io,effective_iter,total_bytes,stretch,utilization,Tcomp,Tio,iterations,priority,group_id
app_1,8.10945,31837.9,4086.25,198.627,509.002,1.63986e+11,1.88225,0.749561,8,0.322172,2329,1,1
app_10,62.604,27072.2,5381.2,383.609,60.8138,3.79895e+11,1.38862,0.749561,88,6.22779,212,1,1
app_11,790.675,22936.6,6837.6,58.043,6.98068,5.76512e+10,1.16022,0.749561,955,8.23588,21,1,1
app_12,1039,23725,6406.4,295.517,5.72927,2.95299e+11,1.19373,0.749561,1078,59.0599,18,1,1
app_13,89.8109,22316.1,6776.7,253.496,7.1599,2.53148e+11,1.138,0.749561,947,36.164,21,1,1
app_14,919.318,22245.7,7324.2,42.1623,7.12536,4.19007e+10,1.08606,0.749561,1061,5.98581,19,1,1
app_15,168.735,22349.6,6823.05,209.148,6.80918,2.08951e+11,1.13766,0.749561,1019,33.2997,19,1,1
app_16,569.76,22008.5,7555.4,441.718,1.45381,4.41698e+11,1.00036,0.749561,5112,441.698,4,1,1
app_17,2425.34,25308.3,6793.6,805.581,1.74726,8.05474e+11,1.05276,0.749561,3997,402.737,5,1,1
app_18,4922.68,30018.4,7574.9,425.1,1.55361,4.25025e+11,1.00001,0.749561,4570,425.025,5,1,1
app_19,2092.47,26376.9,7896.3,99.4407,1.34134,9.93176e+10,1.00055,0.749561,5716,49.6588,4,1,1
app_2,2.00041,30769.7,4346.27,74.1827,394.694,4.64394e+10,1.8212,0.749561,11,0.117867,1702,1,1
app_20,3961.51,25932,7658.3,337.814,1.84814,3.3766e+11,1.00051,0.749561,4425,168.83,5,1,1
app_3,5.3243,31398.1,4362.82,76.4953,396.997,4.95366e+10,1.81309,0.749561,11,0.124777,1755,1,1
app_4,2.41902,32087.6,4235.05,45.2495,470.996,1.86058e+10,1.88074,0.749561,9,0.0395027,2177,1,1
app_5,7.95564,31542.1,4469.8,31.631,372.972,5.17355e+09,1.78772,0.749561,12,0.0138701,1654,1,1
app_6,71.6646,27250.9,5460.35,190.937,58.2039,1.87717e+11,1.41641,0.749561,94,3.23224,205,1,1
app_7,73.751,26754.1,5262.8,485.218,59.4457,4.83774e+11,1.39213,0.749561,88,8.19956,207,1,1
app_8,79.584,27213.6,5225.9,422.435,64.7797,4.19046e+11,1.4172,0.749561,81,6.44687,227,1,1
app_9,52.7551,27307.9,5452.9,249.622,58.1755,2.47036e+11,1.40352,0.749561,93,4.25925,205,1,1
