app_id,Tcomp,Tio,iter,witer,alpha_io,compute_size,io_size,mu,desyn_time
1,8.416810186468979,0.12642646590414577,2342,8.543236652373125,0.014798427229453754,8e9,126426465.90414578,10,7.416461134859806
2,7.219308485962846,0.04448845830219848,2754,7.263796944265044,0.006124683639088132,7e9,44488458.302198485,10,2.3049316882878235
3,9.415463552286225,0.043202942921273677,2115,9.458666495207499,0.004567551138753403,9e9,43202942.92127368,10,5.196056008163952
4,13.065449130998632,0.1628147095892289,1512,13.22826384058786,0.012308093605577303,13e9,162814709.5892289,10,3.7907215003001093
5,7.704015226459641,0.13678029450389625,2551,7.840795520963537,0.017444696030931264,7e9,136780294.50389627,10,5.762301023178188
6,8.915665888943698,0.09568888577888847,2220,9.011354774722587,0.01061870142404134,8e9,95688885.77888846,10,6.153585071571988
7,5.463575134501634,0.11682266838216886,3584,5.5803978028838035,0.02093446963974467,5e9,116822668.38216886,10,2.176944594249882
8,11.67019087573363,0.24058345419747112,1680,11.910774329931101,0.02019880887113263,11e9,240583454.1974711,10,5.718801371813984
9,11.145450722081728,0.23839412882640126,1757,11.38384485090813,0.020941442188346735,11e9,238394128.82640126,10,0.3594775395284247
10,12.126246545230487,0.02635095445432206,1646,12.15259749968481,0.0021683392752047865,12e9,26350954.45432206,10,6.933871970162443
11,9.545019407125684,0.11027839996104563,2072,9.655297807086729,0.011421543091100127,9e9,110278399.96104564,10,4.105950482149368
12,7.568880923158133,0.08984283572842303,2612,7.658723758886556,0.011730784208553906,7e9,89842835.72842303,10,2.302597847758606
13,7.26845925961159,0.12180795563895702,2707,7.390267215250547,0.0164822126306332,7e9,121807955.63895702,10,0.022892039588244394
14,12.565120951227378,0.2964507946570592,1556,12.861571745884437,0.0230493442414548,12e9,296450794.6570592,10,9.5362981684858
15,11.335179700727283,0.2854678041188151,1722,11.620647504846097,0.02456556779643888,11e9,285467804.1188151,10,9.31912165435279
16,10.049590014985982,0.1269882250697814,1966,10.176578240055765,0.012478479708429536,10e9,126988225.06978141,10,6.736977972790375
17,14.275084072947596,0.11636273427806221,1390,14.391446807225659,0.008085548022846376,14e9,116362734.27806221,10,11.734485942241601
18,15.955543952888652,0.3648868557394515,1226,16.320430808628103,0.022357673030698872,15e9,364886855.7394515,10,15.18096931086954
19,8.452959733812019,0.06663362341065543,2348,8.519593357222675,0.007821221109592665,8e9,66633623.41065543,10,5.507582426835202
20,8.65062690385252,0.1902883527103955,2263,8.840915256562916,0.021523603290862663,8e9,190288352.7103955,10,2.0864190846856436
21,101.66359850355727,2.0513764226379534,193,103.71497492619523,0.019778980075902602,101e9,2051376422.6379533,100,59.17436340101832
22,89.56861032997325,1.4606976012758646,220,91.02930793124912,0.01604645398797355,89e9,1460697601.2758646,100,83.46434093378895
23,88.34361443623935,0.5220062405764361,226,88.86562067681578,0.0058741078563425,88e9,522006240.5764361,100,0.698104079715287
24,152.55350663901504,0.5518983399419237,131,153.10540497895695,0.003604695340558209,152e9,551898339.9419237,100,112.08644673489255
25,32.36029471277899,0.08239008662587465,617,32.44268479940486,0.0025395582127465,32e9,82390086.62587464,100,23.63816816128742
26,107.56816421074207,1.209797544007964,184,108.77796175475004,0.011121715506451245,107e9,1209797544.0079641,100,51.46230945703366
27,126.83329027006991,2.722047049159752,155,129.55533731922966,0.021010690145883505,126e9,2722047049.1597524,100,42.40299479978733
28,45.11810610200067,0.5504526291333124,438,45.66855873113398,0.01205320781796532,45e9,550452629.1333123,100,0.4761866408378169
29,70.21510827662331,0.16828342241348693,285,70.38339169903679,0.0023909535808259424,70e9,168283422.41348693,100,51.09442791323264
30,141.64748662506238,2.6660283094020283,139,144.31351493446442,0.018473864423666237,141e9,2666028309.402028,100,33.659571366540035
31,29.219880429725084,0.14432146641962423,682,29.364201896144706,0.004914877881920998,29e9,144321466.41962424,100,23.164705379066184
32,104.22878258789574,0.10421926881473118,192,104.33300185671047,0.0009989099034825482,104e9,104219268.81473118,100,61.973566638265005
33,136.25922253998658,1.2357445534947402,146,137.4949670934813,0.008987562087669515,136e9,1235744553.4947402,100,96.78992581198978
34,69.20008439998425,1.291548139443609,284,70.49163253942785,0.018322006356161658,69e9,1291548139.443609,100,58.392464222903854
35,93.2117723847535,0.6899025016256277,213,93.90167488637913,0.007347073441026569,93e9,689902501.6256278,100,28.251713418099612
36,89.49076534206067,0.26959732670743347,223,89.7603626687681,0.0030035231442000314,89e9,269597326.70743346,100,15.429997182897441
37,105.32660339915083,1.9197388162356255,187,107.24634221538645,0.01790027311495761,105e9,1919738816.2356255,100,33.5039385335352
38,98.90583450200269,0.9672319733715056,201,99.8730664753742,0.009684612754030106,98e9,967231973.3715056,100,1.9262028661755428
39,90.36947780008748,0.8796223719996453,220,91.24910017208713,0.009639792286617196,90e9,879622371.9996454,100,17.274529280690416
40,70.68575139186066,1.3984768442744324,278,72.08422823613509,0.01940059397866162,70e9,1398476844.2744324,100,41.88185109910844
41,1228.7700804227302,30.06641102693389,16,1258.836491449664,0.023884286188994807,1228e9,30066411026.933887,1000,533.8745737393715
42,1352.5038495976767,5.853281501318732,15,1358.3571310989953,0.0043090888009569795,1352e9,5853281501.318732,1000,626.6701170266472
43,1285.1102919847747,30.22798470607803,16,1315.3382766908528,0.022981148835815857,1285e9,30227984706.07803,1000,568.4315545885198
44,973.5471496049271,21.96641964534866,21,995.5135692502757,0.022065414599915137,973e9,21966419645.348663,1000,392.01490942684217
45,1449.9546592973816,36.625172789499985,14,1486.5798320868817,0.02463720548265817,1449e9,36625172789.499985,1000,1256.5432324411174
46,874.8095572663699,14.807660094616372,23,889.6172173609863,0.016644979217626543,874e9,14807660094.616371,1000,865.3556004885536
47,862.5114214637509,17.310872604765777,23,879.8222940685167,0.019675419367604342,862e9,17310872604.765778,1000,67.5296988205235
48,948.9746052359908,10.196556905541222,21,959.171162141532,0.010630591606586116,948e9,10196556905.541222,1000,922.8567334803286
49,734.7749468381375,2.863430662122148,28,737.6383775002596,0.0038818894860458103,734e9,2863430662.122148,1000,16.993856701569246
50,856.467047680822,18.246140757523403,23,874.7131884383455,0.02085956974090998,856e9,18246140757.523403,1000,624.3722958795015
51,568.8131623022773,7.209863060383906,35,576.0230253626612,0.012516623021874191,568e9,7209863060.383906,1000,334.95825720563414
52,781.412686390787,10.678222946761728,26,792.0909093375487,0.013481057314105866,781e9,10678222946.761728,1000,349.73577532984024
53,1285.4438233471815,15.873526388529475,16,1301.3173497357109,0.012198044075684755,1285e9,15873526388.529476,1000,830.7800767456577
54,577.4100649620096,12.892684236200834,34,590.3027491982104,0.021840799917860046,577e9,12892684236.200834,1000,247.1416596787735
55,745.9471676792516,15.12888493125929,27,761.0760526105109,0.01987828270166538,745e9,15128884931.259289,1000,361.8477844062961
56,730.799520217015,12.602301261582227,27,743.4018214785972,0.01695220659604619,730e9,12602301261.582226,1000,502.5089493817485
57,931.0565858778166,3.3438341443490143,22,934.4004200221656,0.003578588015050007,931e9,3343834144.3490143,1000,71.60557776529188
58,1217.7883327658092,13.127902134567641,17,1230.9162349003768,0.010665146630087413,1217e9,13127902134.56764,1000,1087.2373859281774
59,978.604348388173,4.976810818420549,21,983.5811592065935,0.005059888319165342,978e9,4976810818.420548,1000,197.89902151197205
60,1140.475035142731,13.32071968855855,18,1153.7957548312895,0.011545128011418566,1140e9,13320719688.55855,1000,412.5173823910532
