app_id,Tcomp,Tio,iter,witer,alpha_io,compute_size,io_size,mu,desyn_time
1,8.595257558216659,0.025604722414030622,2320,8.62086228063069,0.0029700883253359917,8e9,25604722.414030623,10,7.912920586352479
2,10.657177554182587,0.14446615527904566,1852,10.801643709461633,0.013374460328894337,10e9,144466155.27904567,10,9.516920516422191
3,7.2649916357615,0.10037156185247571,2716,7.365363197613975,0.01362751016609626,7e9,100371561.85247572,10,0.9504576118109088
4,10.991231789190254,0.11573043867200887,1801,11.106962227862262,0.010419630165095404,10e9,115730438.67200887,10,5.305967896720091
5,7.437879493877758,0.07280463135739748,2663,7.510684125235155,0.009693475340386254,7e9,72804631.35739748,10,0.011664605537821513
6,8.578530742853758,0.2145043417380089,2275,8.793035084591766,0.024394801075443187,8e9,214504341.7380089,10,3.0749978156792306
7,17.660684719078162,0.48486724392742603,1103,18.145551963005587,0.026720997240312867,17e9,484867243.92742604,10,5.141091500507679
8,11.788656240257069,0.25431097530517255,1661,12.042967215562241,0.02111696982588686,11e9,254310975.30517256,10,0.7378900265930585
9,11.54399579738719,0.2480888194845676,1697,11.792084616871758,0.021038588811482035,11e9,248088819.48456758,10,1.9357058804291531
10,9.816816284900273,0.25544374823469723,1986,10.07226003313497,0.025361115320132466,9e9,255443748.23469722,10,0.4024013750597709
11,10.410005371311186,0.280770971768885,1871,10.69077634308007,0.02626291700046859,10e9,280770971.768885,10,0.5563327451811703
12,5.578184305162546,0.05871725465322519,3549,5.6369015598157715,0.010416583300266862,5e9,58717254.65322519,10,2.8991915253751874
13,6.754258066807203,0.09475532628733813,2921,6.849013393094541,0.013834886990128296,6e9,94755326.28733812,10,2.5447295226886655
14,13.309399196714004,0.07831277392493843,1494,13.387711970638943,0.0058496010443523806,13e9,78312773.92493844,10,4.498105622682722
15,12.655741013523603,0.02502035827417063,1578,12.680761371797773,0.0019730959002048827,12e9,25020358.27417063,10,7.329890011675606
16,10.257293024989897,0.17641849283862387,1917,10.43371151782852,0.016908507824580945,10e9,176418492.83862388,10,5.7140096021951035
17,10.645619442201847,0.09508786117050864,1863,10.740707303372355,0.008853035324838715,10e9,95087861.17050864,10,8.518090457015198
18,12.40539631743735,0.01233888532793227,1611,12.417735202765282,0.0009936502209504795,12e9,12338885.32793227,10,3.878403767197232
19,12.86842648167745,0.2805413773792324,1522,13.148967859056683,0.021335619676490614,12e9,280541377.3792324,10,2.1793332992699725
20,10.076281025027784,0.01685522794120346,1982,10.093136252968987,0.0016699693255647213,10e9,16855227.94120346,10,2.4397019592900073
21,128.75379626032566,1.866568018013152,154,130.6203642783388,0.014290023062833328,128e9,1866568018.0131521,100,29.483193237672808
22,138.41361071163186,3.0267904638857406,142,141.4404011755176,0.021399758758671127,138e9,3026790463.8857408,100,23.755412493171946
23,84.73744426199208,0.3940812651929879,235,85.13152552718508,0.004629087318153906,84e9,394081265.1929879,100,21.934826067191466
24,64.92330439093763,0.876528179252854,304,65.79983257019049,0.013321130845095043,64e9,876528179.252854,100,9.23081004184502
25,86.1410974485105,1.512600356010461,229,87.65369780452096,0.017256549283109022,86e9,1512600356.010461,100,51.243111185252815
26,59.11957800805161,1.5263609407593757,330,60.645938948810986,0.025168394903535438,59e9,1526360940.7593756,100,55.15256040467597
27,99.85118184767516,2.2859112614709773,196,102.13709310914614,0.022380813785528416,99e9,2285911261.4709773,100,20.284582137072192
28,120.8813567970878,2.470556945944416,163,123.35191374303221,0.02002852546812611,120e9,2470556945.944416,100,74.84728347408253
29,75.83757105264934,0.14806633651409576,264,75.98563738916343,0.0019486095215042838,75e9,148066336.51409575,100,51.34394334817392
30,135.74354236127897,3.451531747809037,144,139.195074109088,0.024796364166623102,135e9,3451531747.809037,100,35.95232911170091
31,133.16961178561192,2.758284966176412,148,135.92789675178832,0.02029226547375473,133e9,2758284966.176412,100,7.162254306686637
32,87.13877107229473,0.9539298942918037,228,88.09270096658653,0.01082870525962904,87e9,953929894.2918037,100,14.65220195038127
33,158.2297473753937,0.37662735738097886,127,158.6063747327747,0.0023746041608701616,158e9,376627357.3809789,100,38.58170506272764
34,116.4687010132283,1.4995668979343506,170,117.96826791116264,0.012711612406343177,116e9,1499566897.9343505,100,93.21186334814698
35,84.96156908373993,0.9605782911429674,233,85.9221473748829,0.011179635524609427,84e9,960578291.1429675,100,38.98279508644628
36,117.56603398315943,0.6769432600599391,170,118.24297724321937,0.005725018735510217,117e9,676943260.0599391,100,70.63967874689946
37,160.6982635705924,0.14786657675191706,125,160.8461301473443,0.0009193045341934107,160e9,147866576.75191706,100,126.92592088049986
38,106.69316662278528,2.3526042727679473,184,109.04577089555323,0.021574465964584087,106e9,2352604272.767947,100,11.140752371000037
39,101.97170474072608,0.5557923515347917,196,102.52749709226087,0.005420910168465868,101e9,555792351.5347917,100,88.19709046100428
40,106.5947590871467,0.894983314814041,187,107.48974240196074,0.0083262206682683,106e9,894983314.814041,100,51.81745348589446
41,1142.0188901113647,29.011325019038445,18,1171.0302151304031,0.024774189977504392,1142e9,29011325019.038445,1000,983.0213769479757
42,1132.5331150297627,24.723399025342417,18,1157.256514055105,0.021363801996421652,1132e9,24723399025.342415,1000,735.5173300184563
43,816.3253434455758,14.625839111826116,25,830.9511825574019,0.017601321736870824,816e9,14625839111.826115,1000,343.805889417029
44,891.3165376122912,24.806127945264944,22,916.1226655575562,0.02707729966507032,891e9,24806127945.264942,1000,258.24771401894435
45,1018.0222127518216,20.663097635468116,20,1038.6853103872897,0.019893510988196764,1018e9,20663097635.468117,1000,748.805891128588
46,977.2125694214292,13.091569336932357,21,990.3041387583615,0.013219746161362612,977e9,13091569336.932358,1000,950.8494534687154
47,887.1592324775519,7.4623852401883175,23,894.6216177177402,0.008341387120988123,887e9,7462385240.188317,1000,519.0981032869921
48,708.4395448989973,1.9360139648591443,29,710.3755588638564,0.0027253386475676617,708e9,1936013964.8591444,1000,563.8265068545469
49,695.5826847883782,9.145630279176645,29,704.7283150675548,0.01297752635113001,695e9,9145630279.176645,1000,85.95602125153827
50,584.7979030182051,4.243931921814307,34,589.0418349400195,0.007204805618341955,584e9,4243931921.8143067,1000,191.9661307908501
51,327.59115824997804,8.362829217168208,60,335.95398746714625,0.024892781538977952,327e9,8362829217.168208,1000,252.2747604824672
52,1421.1423863485459,4.687636187859697,15,1425.8300225364055,0.0032876542882165384,1421e9,4687636187.859697,1000,645.667764337296
53,1223.6566665261496,27.932641802806543,16,1251.5893083289561,0.02231773762920719,1223e9,27932641802.80654,1000,1117.6743866658458
54,921.4159037832162,3.6989656437507366,22,925.114869426967,0.003998385244896067,921e9,3698965643.7507367,1000,239.32467263907833
55,1216.0919583404577,10.677957617763399,17,1226.7699159582212,0.008704124122103958,1216e9,10677957617.7634,1000,768.1339567247413
56,893.3278667923054,0.9756844760253298,23,894.3035512683307,0.0010909992190476958,893e9,975684476.0253298,1000,839.522726343906
57,1146.3919934766034,20.006488647055374,18,1166.3984821236588,0.017152361696004276,1146e9,20006488647.055374,1000,639.6093265761708
58,1001.2097799146622,7.247637943634174,20,1008.4574178582964,0.007186855701876127,1001e9,7247637943.634173,1000,320.3724414645613
59,1175.2945153359087,15.141532204683845,17,1190.4360475405927,0.01271931594810643,1175e9,15141532204.683846,1000,204.36746340784984
60,909.9411653885758,1.8996864944639675,22,911.8408518830397,0.0020833531317893147,909e9,1899686494.4639676,1000,100.84368132440046
