app_id,Tcomp,Tio,iter,witer,alpha_io,compute_size,io_size,mu,desyn_time
1,13.493449084507917,0.25166770838720554,1456,13.745116792895123,0.018309608581666838,13e9,251667708.38720554,10,5.889747082655487
2,10.940179346956269,0.21133869870117453,1794,11.151518045657443,0.01895156317156952,10e9,211338698.70117453,10,8.833868415150954
3,9.864040257980399,0.21007240322046522,1986,10.074112661200864,0.0208526954467694,9e9,210072403.2204652,10,1.1404617719457069
4,11.34477577850965,0.2380262283998439,1727,11.582802006909494,0.020549969537410204,11e9,238026228.3998439,10,6.263414654376601
5,10.504156789988665,0.03194413596267716,1899,10.536100925951342,0.0030318745223857856,10e9,31944135.96267716,10,1.5055607631381767
6,14.459458598212768,0.01701013581510756,1382,14.476468734027875,0.0011750196907567754,14e9,17010135.81510756,10,6.739017111022197
7,9.173931432652697,0.13155756243587316,2150,9.30548899508857,0.014137630220755634,9e9,131557562.43587317,10,8.639639067118265
8,11.772449515139286,0.2643318304921887,1662,12.036781345631475,0.021960341631371665,11e9,264331830.49218872,10,1.9702132056963484
9,6.277915473411159,0.13982534963994592,3117,6.417740823051105,0.021787316361814458,6e9,139825349.63994592,10,4.636486482031732
10,11.725958563710277,0.2275313248673157,1674,11.953489888577593,0.019034719315297034,11e9,227531324.8673157,10,0.08668845618698538
11,16.018716249961948,0.28259899965599383,1227,16.301315249617943,0.017335963100438608,16e9,282598999.6559938,10,0.4299237695360276
12,14.063780751754344,0.11329033285452811,1411,14.177071084608873,0.007991095775595008,14e9,113290332.85452811,10,9.747960137326725
13,11.631592479891776,0.17399232523686822,1695,11.805584805128644,0.014738136916460212,11e9,173992325.23686823,10,1.0458402558518711
14,11.491621349476144,0.034557205060045657,1736,11.52617855453619,0.0029981493776569585,11e9,34557205.06004566,10,5.63337155614199
15,12.031095840382,0.047708800071991936,1656,12.078804640453992,0.0039497948259057825,12e9,47708800.071991935,10,9.415555872132137
16,5.847926615616171,0.13041819502769017,3346,5.978344810643861,0.0218151008612774,5e9,130418195.02769017,10,2.077436363886848
17,6.4976086568591445,0.11282253199568273,3026,6.610431188854827,0.01706734837296261,6e9,112822531.99568273,10,2.9404264744946094
18,14.78854530988181,0.13747932834594082,1340,14.926024638227751,0.009210712944546263,14e9,137479328.34594083,10,0.2138546706785994
19,12.898525528254064,0.12753678161893328,1536,13.026062309872998,0.00979089294869009,12e9,127536781.61893328,10,6.0041531203282315
20,2.3200331159388203,0.03239905154830209,8502,2.3524321674871222,0.013772576313182662,2e9,32399051.548302088,10,0.3802689602593258
21,103.49901496456405,2.0389633184130984,190,105.53797828297715,0.0193197117434452,103e9,2038963318.4130983,100,68.21649552917994
22,151.86753826680365,2.4989012053703945,130,154.36643947217405,0.016188111962126613,151e9,2498901205.3703947,100,84.25869770646702
23,123.91268958605191,2.4453825107134786,159,126.35807209676538,0.019352800103192437,123e9,2445382510.7134786,100,108.07323805369367
24,117.35370192839363,1.765558703123638,168,119.11926063151726,0.014821773521455993,117e9,1765558703.123638,100,83.54940290074505
25,123.63827402597549,1.061620914296971,161,124.69989494027246,0.008513406645654802,123e9,1061620914.2969711,100,109.5007534277798
26,104.90011237258896,1.5261390264760055,188,106.42625139906497,0.014339873916572182,104e9,1526139026.4760056,100,91.8391504147888
27,94.72520738333093,1.039401584756783,209,95.76460896808771,0.010853713036129557,94e9,1039401584.756783,100,84.60370068254223
28,67.34596359250182,1.0050536843260947,293,68.35101727682792,0.014704297380908532,67e9,1005053684.3260946,100,63.53475860947725
29,119.22730402250909,0.6963437839364425,167,119.92364780644553,0.005806559395694234,119e9,696343783.9364425,100,12.950472761013401
30,118.69970522010463,2.2081491398935538,166,120.90785435999818,0.01826307440142706,118e9,2208149139.8935537,100,87.12880133572526
31,50.1576699686988,0.5755229143803103,395,50.733192883079106,0.011344109875100386,50e9,575522914.3803103,100,35.22123376873267
32,116.56344881622687,2.2543115262002873,169,118.81776034242715,0.0189728498475604,116e9,2254311526.2002873,100,92.89218876159283
33,119.76069896479946,2.4977027627377906,164,122.25840172753725,0.020429702396274764,119e9,2497702762.7377906,100,64.33008218934094
34,89.60495979183023,1.1913352110211588,221,90.79629500285138,0.013120967226512337,89e9,1191335211.0211587,100,49.32205825699041
35,109.15293475908479,2.0579256162440798,180,111.21086037532886,0.018504718058099046,109e9,2057925616.2440798,100,52.41124445540619
36,113.3577824340386,0.34050266305568005,176,113.69828509709427,0.002994791546459148,113e9,340502663.05568004,100,88.54513934528327
37,97.00847527584428,0.12768028967290726,206,97.13615556551719,0.0013144466026019366,97e9,127680289.67290726,100,67.98127776565777
38,94.67624307858975,1.1274136633167373,209,95.80365674190648,0.011767960656804279,94e9,1127413663.3167374,100,37.56535160376988
39,137.62761283351261,0.5946574348598344,145,138.22227026837245,0.004302182518817315,137e9,594657434.8598343,100,91.47745969778953
40,80.24234333945358,1.4011450594951722,245,81.64348839894876,0.017161749050316342,80e9,1401145059.4951723,100,67.15666815186884
41,1054.8478944642752,18.087942512755138,19,1072.9358369770302,0.016858363649887454,1054e9,18087942512.75514,1000,669.8743807846381
42,980.7861566211396,11.889097677205845,21,992.6752542983455,0.011976824873719087,980e9,11889097677.205845,1000,926.689053672578
43,1102.8533466599406,6.094307886488441,19,1108.947654546429,0.005495577596925506,1102e9,6094307886.4884405,1000,23.268137826121762
44,1222.9061117696015,17.50031366837959,17,1240.406425437981,0.014108531937183671,1222e9,17500313668.37959,1000,355.4084488456946
45,569.0786031754494,5.5205999154888055,35,574.5992030909382,0.009607740292349648,569e9,5520599915.488806,1000,465.316765642139
46,750.6651979361656,15.22747005708142,27,765.892667993247,0.019881989596505296,750e9,15227470057.08142,1000,70.28811123608041
47,858.714887234322,9.059113128980933,24,867.7740003633029,0.01043948438785702,858e9,9059113128.980932,1000,19.563566785427973
48,1323.2261854472656,8.863142236748661,16,1332.0893276840143,0.006653564481413736,1323e9,8863142236.748661,1000,302.7567353396752
49,1143.0168744136506,19.53104017129888,18,1162.5479145849495,0.016800202319636703,1143e9,19531040171.29888,1000,329.35407542550644
50,1084.1702108345617,11.896746508905448,19,1096.066957343467,0.01085403262017819,1084e9,11896746508.905447,1000,435.0033134182866
51,742.3115470177141,16.13012968711443,27,758.4416767048285,0.02126746219589931,742e9,16130129687.11443,1000,743.0484184730063
52,864.0861058486975,0.07854776791341257,24,864.1646536166108,9.089444654405006e-05,864e9,78547767.91341257,1000,644.2052205267497
53,962.4388977446109,12.038428476582874,21,974.4773262211938,0.012353728663205762,962e9,12038428476.582874,1000,116.01040131447745
54,1131.8606863410848,12.206717034713192,18,1144.067403375798,0.010669578556905694,1131e9,12206717034.713192,1000,226.19949061032978
55,1155.5758493396054,23.471299123754733,17,1179.0471484633601,0.019907006394396215,1155e9,23471299123.754734,1000,93.62284921803118
56,1308.1645135301387,25.823882100111774,15,1333.9883956302506,0.019358400856186706,1308e9,25823882100.111774,1000,481.89073045290377
57,1148.9623160245203,17.353192868479717,18,1166.315508893,0.014878643674172158,1148e9,17353192868.479717,1000,911.3232628611834
58,1463.0851375601587,29.121360221727254,14,1492.206497781886,0.019515636920905494,1463e9,29121360221.727253,1000,639.4912680321135
59,1014.9223420662979,1.4218817239734378,20,1016.3442237902714,0.0013990158950978123,1014e9,1421881723.9734378,1000,636.8513282094636
60,926.2719826491492,16.35074403448617,22,942.6227266836354,0.01734601083936504,926e9,16350744034.48617,1000,614.7978170634143
