app_id,Tcomp,Tio,iter,witer,alpha_io,compute_size,io_size,mu,desyn_time
1,7.248306643890284,0.08477021200508338,2728,7.333076855895367,0.011559978665290144,7e9,84770212.00508338,10,0.6202587639186202
2,9.00332098314358,0.0448599933776643,2211,9.048180976521243,0.004957901869344753,9e9,44859993.377664305,10,1.3866763917602742
3,4.997708837845121,0.07856466448830289,3940,5.076273502333423,0.01547683836424276,4e9,78564664.48830289,10,2.4184963331669724
4,9.729574865746962,0.15621215774691358,2024,9.885787023493876,0.015801691597813163,9e9,156212157.74691358,10,0.5602451011776176
5,7.66211387813189,0.10453447217589856,2576,7.766648350307788,0.01345940584161454,7e9,104534472.17589857,10,2.843848947101271
6,14.34808284550065,0.2226280124590737,1373,14.570710857959725,0.01527914558385845,14e9,222628012.45907372,10,10.97518010462127
7,13.191304536411044,0.027849217893242365,1513,13.219153754304287,0.0021067322773346505,13e9,27849217.893242363,10,2.859051561675907
8,5.865428997048619,0.10769506559627183,3349,5.973124062644891,0.018029939520222287,5e9,107695065.59627183,10,1.0076006974923937
9,15.385245970797824,0.052364105473286786,1296,15.43761007627111,0.003391982645926183,15e9,52364105.473286785,10,11.79765917864306
10,6.437384091059901,0.05014315612437919,3083,6.48752724718428,0.007729163086928436,6e9,50143156.12437919,10,2.834311563420269
11,9.371611463066259,0.18507742337431748,2093,9.556688886440575,0.01936627063761728,9e9,185077423.3743175,10,3.117634744272751
12,8.24849156148065,0.12863439624874784,2388,8.377125957729397,0.015355432984752913,8e9,128634396.24874784,10,8.050721853116658
13,9.301362026503512,0.11636604043717572,2124,9.417728066940688,0.012356062907110119,9e9,116366040.43717572,10,2.3090020371746927
14,5.94349066161978,0.002078577388407002,3364,5.945569239008187,0.0003496010734800123,5e9,2078577.3884070022,10,1.415700977080073
15,9.30920957333366,0.18991466997146178,2106,9.499124243305122,0.01999286093192344,9e9,189914669.97146177,10,3.306029408514065
16,8.402833480304555,0.010098867621599686,2378,8.412932347926155,0.0012003980543227742,8e9,10098867.621599685,10,4.674463637658416
17,4.187837706202479,0.011469894419213655,4763,4.199307600621692,0.0027313775293611687,4e9,11469894.419213654,10,2.914435832451292
18,9.583929847497961,0.11112641861330656,2063,9.695056266111267,0.011462173664916737,9e9,111126418.61330657,10,1.9733808236165928
19,5.123357537195373,0.07877016681132541,3845,5.202127704006698,0.015141913327244223,5e9,78770166.81132542,10,0.4635381597597821
20,11.222960142131077,0.20258608996893254,1751,11.42554623210001,0.01773097634490052,11e9,202586089.96893254,10,0.34513257656379576
21,86.00473858304224,0.2635417289477237,232,86.26828031198997,0.0030549088030342414,86e9,263541728.94772372,100,51.06269381322239
22,71.94656160773418,1.6032348459462096,272,73.54979645368039,0.021797950820378983,71e9,1603234845.9462097,100,3.7508136895811464
23,108.05821683443634,0.7465586133919151,184,108.80477544782825,0.00686145079863603,108e9,746558613.3919151,100,27.54916684180362
24,130.2806461209577,2.1469956555681415,152,132.42764177652583,0.016212594491346734,130e9,2146995655.5681415,100,89.66687980375447
25,109.38068652117231,2.5341191780999117,179,111.91480569927222,0.02264328801060851,109e9,2534119178.0999117,100,111.71041077972012
26,77.92292091344038,0.5484788199369641,255,78.47139973337734,0.00698953786730622,77e9,548478819.9369642,100,26.032821421724822
27,93.36658592478842,2.05167439596436,210,95.41826032075278,0.021501905285922884,93e9,2051674395.9643602,100,34.72859769367347
28,55.53096530516443,1.4017898559226647,352,56.932755161087094,0.02462185172588964,55e9,1401789855.9226646,100,12.04090859407147
29,131.14073431830707,2.2883932355265584,150,133.42912755383364,0.017150627284160856,131e9,2288393235.5265584,100,94.0313730357876
30,106.47818991999436,2.547886723393399,184,109.02607664338777,0.023369516741643878,106e9,2547886723.3933992,100,89.57926879897546
31,48.31523265455638,0.8806169011453682,407,49.19584955570175,0.0179002275415184,48e9,880616901.1453682,100,14.38310890365266
32,70.83721809834027,1.5306162146426212,277,72.3678343129829,0.021150504629209643,70e9,1530616214.6426213,100,46.323932923782635
33,146.21091408546212,0.0010957651286501195,137,146.21200985059076,7.494357883253543e-06,146e9,1095765.1286501195,100,101.79125615473578
34,114.26700823464206,1.12058060009713,174,115.38758883473919,0.009711448271113903,114e9,1120580600.0971298,100,115.12039912647948
35,139.78504913721417,0.3490373953307926,143,140.13408653254496,0.0024907387200881464,139e9,349037395.3307926,100,83.48153395909138
36,50.18156705313923,0.22768421711687853,397,50.409251270256114,0.004516714916002396,50e9,227684217.11687854,100,16.242100031837804
37,79.27530903606653,0.8740170364898422,250,80.14932607255638,0.010904858210518516,79e9,874017036.4898422,100,56.07727654837019
38,85.15266644648187,0.6072805396056019,234,85.75994698608747,0.007081167385797462,85e9,607280539.6056019,100,43.28182684875679
39,74.1003637620387,0.36785067122623505,269,74.46821443326493,0.0049397004349538455,74e9,367850671.22623503,100,31.19268488286799
40,80.93284044850427,1.7588835268619467,242,82.69172397536622,0.021270369540075332,80e9,1758883526.8619468,100,9.742558745793547
41,1035.1013515067223,9.806418251694112,20,1044.9077697584164,0.009384960601796812,1035e9,9806418251.69411,1000,280.94139030618237
42,1029.0843375141135,19.600727750165085,20,1048.6850652642786,0.018690766560335744,1029e9,19600727750.165085,1000,604.2628276373893
43,387.8305567378831,8.770016879860721,51,396.60057361774386,0.022112970739960502,387e9,8770016879.860722,1000,182.2281749460279
44,712.3166066130177,8.922061456903315,28,721.238668069921,0.01237047020895219,712e9,8922061456.903315,1000,34.08681346733585
45,761.0745368452252,1.8500115019028875,27,762.9245483471282,0.002424894448488946,761e9,1850011501.9028876,1000,418.2990543967025
46,599.9496538021093,14.16059133821938,33,614.1102451403287,0.0230587120965285,599e9,14160591338.21938,1000,411.861588003689
47,939.0097126213169,15.677571524141092,21,954.687284145458,0.01642168255982807,939e9,15677571524.141092,1000,730.2266752193624
48,812.7118834836375,16.202713440178073,25,828.9145969238156,0.01954690326398878,812e9,16202713440.178072,1000,318.2441203555423
49,574.0898820146326,6.172123757284722,35,580.2620057719173,0.010636787685373269,574e9,6172123757.284722,1000,485.0224792569749
50,1206.8938862707155,30.352030315405557,17,1237.245916586121,0.024531930078342548,1206e9,30352030315.405556,1000,149.35080098137627
51,1301.2050230085422,10.781992414595798,16,1311.987015423138,0.008218063355694433,1301e9,10781992414.595798,1000,868.1145969484949
52,861.7360896366148,20.121067124009766,23,881.8571567606245,0.022816696524776886,861e9,20121067124.009766,1000,332.14422682983104
53,1407.410052480817,34.06584624790248,14,1441.4758987287196,0.023632615902871607,1407e9,34065846247.902477,1000,1371.9921249515255
54,1098.7262142023592,12.693079068839378,18,1111.4192932711985,0.011420603498325386,1098e9,12693079068.839378,1000,897.2269147658936
55,585.8125517170247,13.178057658385383,34,598.99060937541,0.022000441162385895,585e9,13178057658.385382,1000,56.3671968095478
56,823.9338758444599,14.455772864333067,24,838.389648708793,0.017242308378444864,823e9,14455772864.333067,1000,695.2424777775395
57,770.92564034683,11.27319052501534,26,782.1988308718454,0.014412180228459491,770e9,11273190525.015339,1000,731.4898233846026
58,888.2890374480003,8.451097596334801,23,896.740135044335,0.0094242437313425,888e9,8451097596.334801,1000,644.5469507875157
59,1809.5959218881767,11.733669288259339,11,1821.329591176436,0.006442364602817609,1809e9,11733669288.259338,1000,1702.7315539268131
60,441.5954964975093,7.890136690603975,45,449.4856331881133,0.01755370162699258,441e9,7890136690.603975,1000,14.946403342950957
