app_id,start_app,end_app,effective_cpu,effective_io,effective_iter,total_bytes,stretch,utilization,Tcomp,Tio,iterations,priority,group_id
app_1,9.03731,19724.2,7868,76.9993,714.177,4.73596e+10,1.01069,0.965338,11,0.0663299,1762,0.1,1
app_10,0.776154,19782.5,7782.7,173.584,649.593,1.29488e+11,1.0111,0.965338,12,0.199519,1607,0.1,1
app_11,2.73245,20211.6,7618.27,311.792,1088.07,2.20769e+11,1.02053,0.965338,7,0.202892,2750,0.1,1
app_12,7.40758,19184,7805.7,149.499,709.655,1.19084e+11,1.00949,0.965338,11,0.167724,1699,0.1,1
app_13,1.31612,20263.7,7667,273.969,953.681,1.98451e+11,1.01711,0.965338,8,0.208019,2420,0.1,1
app_14,8.43135,19143.7,7717.6,230.633,768.362,1.83655e+11,1.0125,0.965338,10,0.239134,1845,0.1,1
app_15,1.04084,20192.8,7722.9,208.444,1101.73,1.26458e+11,1.01919,0.965338,7,0.114753,2781,0.1,1
app_16,11.0092,19430.4,7846.7,111.889,602.581,6.36829e+10,1.01133,0.965338,13,0.105786,1467,0.1,1
app_17,9.1884,19796.8,7853.2,83.5972,784.438,4.90197e+10,1.01237,0.965338,10,0.0625251,1940,0.1,1
app_18,7.00134,19425.5,7783.5,177.485,597.596,1.35634e+11,1.01021,0.965338,13,0.226813,1454,0.1,1
app_19,3.87378,20220.2,7761.5,177.664,863.192,1.33729e+11,1.01327,0.965338,9,0.154959,2178,0.1,1
app_2,7.75245,19093.8,7893.1,63.2949,656.912,2.51972e+10,1.01032,0.965338,12,0.0383519,1568,0.1,1
app_20,0.472698,18279.1,7671.84,220.302,1535.55,1.39707e+11,1.02412,0.965338,5,0.0910142,3511,0.1,1
app_21,52.8577,20495.3,7593.2,318.53,100.174,2.10452e+11,1.02516,0.965338,76,2.10452,255,0.01,2
app_22,58.1167,20331.7,7818.3,56.0607,106.775,3.21766e+10,1.01905,0.965338,74,0.300716,268,0.01,2
app_23,9.06751,20422.3,7622.42,328.946,62.586,2.21793e+11,1.01986,0.965338,121,3.52757,160,0.01,2
app_24,24.9519,20353.9,7691.11,107.701,156.897,6.76719e+10,1.03109,0.965338,49,0.431031,401,0.01,2
app_25,68.6128,20537.9,7697.8,250.032,60.5145,1.69676e+11,1.01684,0.965338,126,2.78157,155,0.01,2
app_26,103.343,20460,7654.5,257.469,74.1269,1.75678e+11,1.02169,0.965338,103,2.37403,189,0.01,2
app_27,32.9308,20428.3,7636.33,180.383,149.381,1.17198e+11,1.03179,0.965338,51,0.786562,381,0.01,2
app_28,65.3135,20298.4,7816.3,81.9703,87.1006,5.32168e+10,1.01658,0.965338,90,0.611688,220,0.01,2
app_29,0.93065,20450.2,7611.76,319.612,70.9311,2.13829e+11,1.02229,0.965338,109,3.01874,179,0.01,2
app_3,3.7232,19083.6,7918.2,46.1024,526.728,9.17529e+09,1.00916,0.965338,15,0.0174104,1257,0.1,1
app_30,43.355,20507.3,7731.9,195.469,60.881,1.2837e+11,1.01778,0.965338,126,2.10442,156,0.01,2
app_31,9.98706,20387.7,7787.9,133.301,62.0889,8.94608e+10,1.01557,0.965338,124,1.44292,159,0.01,2
app_32,4.06049,19968.1,7864.8,104.653,357.613,7.96479e+10,1.00699,0.965338,22,0.22248,893,0.1,1
app_33,18.5006,20182.2,7754.8,196.335,67.962,1.3196e+11,1.01436,0.965338,114,1.94059,172,0.01,2
app_34,11.1368,20374.1,7747.7,168.049,57.3811,1.14247e+11,1.01756,0.965338,136,1.96978,145,0.01,2
app_35,38.4771,20413.1,7751.6,147.861,95.0617,9.8608e+10,1.01908,0.965338,82,1.03798,241,0.01,2
app_36,30.6763,20412,7672.3,277.416,60.5507,1.85553e+11,1.01809,0.965338,126,3.04185,155,0.01,2
app_37,104.458,20451.1,7897.4,11.4813,63.9403,4.75643e+09,1.01238,0.965338,123,0.0743192,163,0.01,2
app_38,39.6802,20569.8,7651.3,280.393,62.3473,1.85417e+11,1.02084,0.965338,123,2.94313,159,0.01,2
app_39,34.5997,20328.3,7599.1,292.177,98.7305,1.9498e+11,1.02642,0.965338,77,1.98959,251,0.01,2
app_4,8.94967,18758.9,7868.6,80.8189,715.723,5.67222e+10,1.00942,0.965338,11,0.079221,1678,0.1,1
app_40,34.1999,20363.8,7819,77.5288,78.7425,4.79579e+10,1.01691,0.965338,100,0.614845,198,0.01,2
app_41,258.389,21085.4,7681.1,206.971,9.15328,8.0643e+10,1.0307,0.965338,842,8.96033,24,0.001,3
app_42,190.376,20749.3,7756.8,23.8222,11.9886,9.35052e+09,1.03011,0.965338,653,0.77921,31,0.001,3
app_43,308.648,21810.6,7735.6,208.578,6.35012,7.93023e+10,1.02369,0.965338,1208,13.2171,17,0.001,3
app_44,96.8661,20633,7813.8,55.5883,8.75376,1.94602e+10,1.02129,0.965338,870,2.16224,23,0.001,3
app_45,769.783,21561.7,7683.2,213.804,9.56957,8.17551e+10,1.03027,0.965338,798,9.0839,25,0.001,3
app_46,1047.62,22315.3,7519.7,428.458,5.59376,1.76051e+11,1.03953,0.965338,1345,29.3418,15,0.001,3
app_47,576.868,21951.4,7506,184.606,10.7423,5.99132e+10,1.05737,0.965338,704,5.44665,29,0.001,3
app_48,260.494,21436.7,7477.8,151.063,22.9943,6.30867e+10,1.06088,0.965338,329,2.7429,61,0.001,3
app_49,307.644,22270.4,7694.9,302.826,4.7801,1.22894e+11,1.02331,0.965338,1635,24.5788,13,0.001,3
app_5,10.3549,18973.1,7890.3,67.6795,608.214,4.54929e+10,1.00809,0.965338,13,0.0748239,1443,0.1,1
app_50,476.207,22095.4,7594.7,211.693,13.5444,8.9154e+10,1.04114,0.965338,563,6.70519,36,0.001,3
app_51,971.579,21643.9,7762.4,140.434,7.71104,5.79291e+10,1.02297,0.965338,999,7.24114,20,0.001,3
app_52,48.1274,21547.2,7703.8,114.214,8.66108,4.45519e+10,1.03248,0.965338,891,4.95022,23,0.001,3
app_53,154.655,21250.1,7606.9,285.423,8.96122,1.11496e+11,1.03648,0.965338,844,12.3884,24,0.001,3
app_54,69.8103,21128.4,7601.9,360.99,11.5214,1.5893e+11,1.03082,0.965338,672,14.4482,30,0.001,3
app_55,170.209,20867.1,7644.7,233.213,8.85841,1.10226e+11,1.0316,0.965338,882,12.2473,23,0.001,3
app_56,11.9263,20360.8,7712.4,4.15725,7.94,2.79086e+09,1.03692,0.965338,1011,0.348857,20,0.001,3
app_57,314.165,21132.3,7904.6,76.8458,8.54156,3.02588e+10,1.00821,0.965338,929,3.78234,22,0.001,3
app_58,1045.79,23166.3,7661.08,261.998,4.20199,1.01843e+11,1.03054,0.965338,1766,24.7149,12,0.001,3
app_59,306.654,21208.9,7702.2,297.8,10.8873,1.16511e+11,1.02319,0.965338,708,10.5919,28,0.001,3
app_6,9.03779,19079,7750.7,202.774,704.272,1.43313e+11,1.01343,0.965338,11,0.203569,1681,0.1,1
app_60,830.33,22496.1,7457.8,357.672,6.87852,1.5393e+11,1.05101,0.965338,1150,21.99,18,0.001,3
app_7,1.29129,18715.6,7783.3,162.555,777.994,1.26728e+11,1.01137,0.965338,10,0.162889,1821,0.1,1
app_8,11.2748,19361.9,7729.8,218.536,701.338,1.84728e+11,1.0108,0.965338,11,0.263145,1697,0.1,1
app_9,2.22568,20389.7,7788.5,123.667,1297.71,4.7999e+10,1.02086,0.965338,6,0.0369792,3309,0.1,1
