app_id,start_app,end_app,effective_cpu,effective_io,effective_iter,total_bytes,stretch,utilization,Tcomp,Tio,iterations,priority,group_id
app_1,6.72986,20020.1,7882.2,75.5557,717.343,3.76412e+10,1.01012,0.964549,11,0.052425,1799,0.1,1
app_10,2.43652,16328.3,7618.8,381.2,3811.78,1.92912e+11,1.0241,0.964549,2,0.0506065,7778,1,0
app_11,11.0074,19765.3,7878.9,95.5286,492.608,5.99968e+10,1.0077,0.964549,16,0.121697,1217,0.1,1
app_12,6.84874,18393.3,7713.3,236.058,1106.6,1.75993e+11,1.01403,0.964549,7,0.158982,2534,0.1,1
app_13,11.2394,19345.1,7847.8,123.236,561.096,9.72282e+10,1.00692,0.964549,14,0.173312,1354,0.1,1
app_14,2.65109,18292,7677.9,278.376,961.072,1.9459e+11,1.0162,0.964549,8,0.202487,2197,0.1,1
app_15,0.412685,20256.1,7705.1,238.876,1098.83,1.82517e+11,1.01425,0.964549,7,0.166076,2789,0.1,1
app_16,4.80486,18352.9,7866.7,83.6424,874.415,3.19008e+10,1.01284,0.964549,9,0.0364998,2004,0.1,1
app_17,2.22826,19913.7,7818.5,143.054,709.767,9.95128e+10,1.01035,0.964549,11,0.140159,1768,0.1,1
app_18,1.3733,19634.3,7763.9,208.558,555.165,1.65638e+11,1.00889,0.964549,14,0.298447,1361,0.1,1
app_19,7.95415,19153.2,7901,61.7696,658.583,2.10752e+10,1.00984,0.964549,12,0.0320292,1575,0.1,1
app_2,2.02858,18821.6,7640.81,227.579,2549.6,4.36097e+10,1.04107,0.964549,3,0.0171018,5993,0.1,1
app_20,5.36256,19180.7,7837.7,106.897,977.295,6.12085e+10,1.0128,0.964549,8,0.0626494,2348,0.1,1
app_21,105.355,20414,7913.2,16.3888,62.7926,9.32805e+09,1.00978,0.964549,126,0.148064,159,0.01,2
app_22,22.8917,20231.6,7775.7,149.249,54.3112,1.01372e+11,1.01561,0.964549,141,1.87726,140,0.01,2
app_23,61.5588,20285.4,7669.9,267.282,46.5458,1.84103e+11,1.01859,0.964549,165,3.91709,118,0.01,2
app_24,75.1742,20507.2,7680.9,252.279,70.0064,1.72094e+11,1.01872,0.964549,110,2.45849,178,0.01,2
app_25,22.276,20296.4,7710.4,201.051,97.0325,1.35347e+11,1.01966,0.964549,79,1.39533,247,0.01,2
app_26,19.8749,20216.6,7822.9,64.9475,94.7685,4.21763e+10,1.01715,0.964549,82,0.443961,241,0.01,2
app_27,71.909,20361,7735.2,186.032,63.6737,1.25974e+11,1.01766,0.964549,122,1.96834,161,0.01,2
app_28,80.24,20470.1,7759,163.346,77.2221,1.09952e+11,1.01665,0.964549,100,1.42795,197,0.01,2
app_29,53.4112,20389.4,7787.3,145.682,75.7566,9.95856e+10,1.01434,0.964549,103,1.32781,192,0.01,2
app_3,1.05037,19058.4,7736.8,177.999,1543.6,1.18068e+11,1.01848,0.964549,5,0.0765184,3686,0.1,1
app_30,89.7437,20243.9,7638.8,291.246,74.8923,1.97647e+11,1.02087,0.964549,102,2.63529,190,0.01,2
app_31,31.4609,20168.9,7789.8,117.124,106.863,7.56863e+10,1.0171,0.964549,73,0.707348,269,0.01,2
app_32,2.04691,20258,7717.9,164.981,112.06,1.1024e+11,1.02195,0.964549,69,0.98429,285,0.01,2
app_33,6.99942,20356.3,7643.3,219.604,76.1321,1.46897e+11,1.02693,0.964549,101,1.93285,194,0.01,2
app_34,77.6847,20309.3,7785.3,130.061,66.7387,8.90671e+10,1.01595,0.964549,116,1.32936,170,0.01,2
app_35,94.6465,20266.7,7682.3,252.912,81.4781,1.72013e+11,1.01855,0.964549,95,2.09772,205,0.01,2
app_36,59.5961,20335.5,7691.9,246.241,59.7386,1.70038e+11,1.01756,0.964549,129,2.83397,151,0.01,2
app_37,34.576,20201.9,7748.1,174.337,89.9629,1.19402e+11,1.01684,0.964549,86,1.32669,227,0.01,2
app_38,44.7855,20478.5,7632.8,271.5,73.4284,1.87889e+11,1.02293,0.964549,103,2.57382,189,0.01,2
app_39,4.36108,20158,7880.2,28.9163,86.9632,1.60362e+10,1.01314,0.964549,92,0.184325,217,0.01,2
app_4,0.322108,15864.8,7588.2,287.835,2528.83,1.91709e+11,1.02829,0.964549,3,0.0758041,5014,0.1,1
app_40,30.0736,20471,7702.7,157.995,121.562,1.04573e+11,1.02469,0.964549,63,0.857154,314,0.01,2
app_41,631.828,21697.5,7493.8,463.449,7.10418,1.95541e+11,1.0404,0.964549,1035,24.4427,19,0.001,3
app_42,171.093,21074.9,7433.7,262.806,16.7585,1.08288e+11,1.06073,0.964549,449,6.36989,44,0.001,3
app_43,126.378,21176.9,7647.3,71.8715,19.8371,2.60378e+10,1.04257,0.964549,389,1.30189,52,0.001,3
app_44,1066.45,22110.8,7607,293.294,6.4198,1.35043e+11,1.03332,0.964549,1186,19.2919,17,0.001,3
app_45,818.827,21231.4,7611.6,310.366,8.27179,1.08661e+11,1.03623,0.964549,941,13.5827,21,0.001,3
app_46,471.272,21597.1,7467.4,344.381,14.7047,1.62837e+11,1.04846,0.964549,502,11.6312,39,0.001,3
app_47,806.538,21872.4,7707.9,186.595,9.0962,7.41513e+10,1.02801,0.964549,838,8.23904,24,0.001,3
app_48,18.5367,20569.9,7772.8,156.319,7.48436,6.72903e+10,1.0204,0.964549,1061,9.6129,19,0.001,3
app_49,308.295,21352.5,7718.9,165.95,7.22124,5.64367e+10,1.02889,0.964549,1045,8.06239,19,0.001,3
app_5,11.87,19429.2,7920.6,52.388,495.697,2.64566e+10,1.00666,0.964549,16,0.0533398,1201,0.1,1
app_50,203.88,20599.2,7841.9,39.0242,6.07165,1.78836e+10,1.01784,0.964549,1268,2.98061,16,0.001,3
app_51,546.377,21322.1,7662.5,159.216,9.96014,6.56601e+10,1.03518,0.964549,768,6.56601,26,0.001,3
app_52,135.507,20686.9,7714.11,241.1,5.72385,1.04384e+11,1.02322,0.964549,1318,19.6195,15,0.001,3
app_53,420.94,21266.9,7543.7,146.491,12.0244,7.12806e+10,1.05056,0.964549,619,5.94005,32,0.001,3
app_54,536.326,21260.9,7678.5,198.76,8.07923,9.3158e+10,1.02938,0.964549,969,11.6447,21,0.001,3
app_55,717.023,21857.5,7520.1,267.746,7.85542,1.21113e+11,1.04695,0.964549,951,15.1391,21,0.001,3
app_56,1542.72,22276.2,7682.5,208.41,5.01286,9.85893e+10,1.02813,0.964549,1523,19.7179,13,0.001,3
app_57,82.2509,21275.7,7328.3,285.52,16.8356,1.27815e+11,1.07294,0.964549,441,7.51853,45,0.001,3
app_58,262.838,21977.4,7612.4,315.016,5.56729,1.3537e+11,1.03256,0.964549,1360,22.5617,15,0.001,3
app_59,1536.56,22903.2,7815.6,162.26,4.82582,8.59571e+10,1.01246,0.964549,1568,17.1914,13,0.001,3
app_6,11.359,19225.1,7880.1,75.6705,715.62,3.8331e+10,1.0103,0.964549,11,0.053535,1721,0.1,1
app_60,375.945,21006,7719.5,198.521,6.96013,9.01512e+10,1.02437,0.964549,1104,12.8787,18,0.001,3
app_7,6.3327,20155.6,7818.58,146.293,648.41,1.16348e+11,1.0082,0.964549,12,0.179417,1641,0.1,1
app_8,6.88386,20080.4,7791.2,168.019,780.47,1.26193e+11,1.01043,0.964549,10,0.161579,1958,0.1,1
app_9,4.37168,19586.8,7748.2,200.653,970.446,1.43938e+11,1.01367,0.964549,8,0.148389,2377,0.1,1
