app_id,start_app,end_app,effective_cpu,effective_io,effective_iter,total_bytes,stretch,utilization,Tcomp,Tio,iterations,priority,group_id
app_1,0.111678,23658.7,5985.05,180.853,461.999,1.55091e+11,1.3029,0.871797,13,0.335696,1423,1,1
app_10,7.5989,24474.1,5385.22,161.581,771.772,1.2568e+11,1.45167,0.871797,7,0.162798,2536,1,1
app_11,5.69253,23918.1,5749.63,71.9222,573.18,4.77454e+10,1.37993,0.871797,10,0.0831802,1820,1,1
app_12,5.80568,24251.4,5502.8,193.712,687.545,1.54335e+11,1.41414,0.871797,8,0.224325,2219,1,1
app_13,10.9536,23570.5,6027.1,122.54,465.862,9.4498e+10,1.30685,0.871797,13,0.202785,1429,1,1
app_14,2.54867,25208.5,5601.6,73.126,699.493,3.72996e+10,1.41872,0.871797,8,0.0532852,2373,1,1
app_15,4.29356,24277.7,5416,158.213,773.776,1.19647e+11,1.44518,0.871797,7,0.154782,2515,1,1
app_16,0.763829,25208.4,5761.41,154.273,577.339,1.18891e+11,1.36047,0.871797,10,0.205693,1936,1,1
app_17,0.135167,24183.7,5552.9,123.725,694.781,8.39921e+10,1.41922,0.871797,8,0.121026,2229,1,1
app_18,1.29693,25420.6,5539.2,155.478,690.668,1.27631e+11,1.41172,0.871797,8,0.184704,2366,1,1
app_19,3.29137,25641.7,5435.8,130.269,777.402,8.43949e+10,1.44922,0.871797,7,0.108616,2713,1,1
app_2,1.51551,24802,5621.17,177.469,625.828,1.4408e+11,1.38762,0.871797,9,0.230159,2067,1,1
app_20,0.489314,23629.3,6108.76,93.6427,434.826,7.40785e+10,1.2939,0.871797,14,0.170295,1338,1,1
app_21,2.52957,20886.3,7342.3,161.296,83.8267,1.57469e+11,1.0667,0.871797,88,1.87463,221,1,1
app_22,82.8484,20889.3,7379.3,193.573,76.708,1.89468e+11,1.05698,0.871797,96,2.46062,202,1,1
app_23,109.658,20926.5,7472.2,74.6851,65.9768,7.18527e+10,1.06044,0.871797,113,1.08868,174,1,1
app_24,65.6241,21307.8,7464.4,53.2989,65.9862,5.01408e+10,1.0646,0.871797,112,0.759709,178,1,1
app_25,64.4277,21310.1,7292.6,181.04,99.3447,1.77154e+11,1.07099,0.871797,73,1.78944,266,1,1
app_26,68.6279,21191,7475.2,25.6101,88.9045,2.07415e+10,1.06724,0.871797,85,0.23305,235,1,1
app_27,51.8134,21014.3,7424,29.8049,88.081,2.60792e+10,1.07381,0.871797,85,0.296354,233,1,1
app_28,39.0329,21739.4,7178.03,138.664,128.32,1.3133e+11,1.09449,0.871797,56,1.01806,348,1,1
app_29,119.926,20849.3,7635.1,51.4554,55.0029,4.87634e+10,1.04114,0.871797,138,0.886608,144,1,1
app_3,4.51282,26114.5,5638.68,45.8489,705.353,2.86384e+09,1.41805,0.871797,8,0.00405643,2493,1,1
app_30,3.27517,20853.7,7567.3,20.4496,69.9625,1.66133e+10,1.05486,0.871797,109,0.237333,182,1,1
app_31,43.4344,21018.1,7492.4,27.0653,85.6526,2.30218e+10,1.06448,0.871797,88,0.267695,225,1,1
app_32,28.133,21805.9,7215.6,57.5834,120.006,5.12976e+10,1.10088,0.871797,60,0.42748,330,1,1
app_33,116.791,20776,7497.22,170.004,62.1398,1.66698e+11,1.04385,0.871797,121,2.65355,161,1,1
app_34,69.1242,21034.5,7451.9,64.8118,78.4636,6.19889e+10,1.0647,0.871797,95,0.79473,208,1,1
app_35,82.9751,21099.9,7409.6,160.553,66.1815,1.57746e+11,1.05717,0.871797,112,2.39009,175,1,1
app_36,126.43,20734.9,7551.5,149.075,46.2995,1.4633e+11,1.03925,0.871797,162,3.11341,121,1,1
app_37,6.8535,21189.1,7299.8,187.188,84.3187,1.83744e+11,1.06901,0.871797,86,2.18743,227,1,1
app_38,47.1975,21460.5,7408.7,31.5139,99.39,2.70277e+10,1.07589,0.871797,74,0.273007,267,1,1
app_39,45.0045,21407.6,7182.4,176.711,115.783,1.72044e+11,1.08778,0.871797,62,1.49603,312,1,1
app_4,2.76157,24016.5,5337.9,115.917,891.938,8.56217e+10,1.47506,0.871797,6,0.0959884,2845,1,1
app_40,29.8789,20954.4,7453.1,146.037,64.217,1.42298e+11,1.05327,0.871797,116,2.2234,169,1,1
app_41,431.987,20384.5,7888.7,56.5636,6.83031,5.61754e+10,1.00694,0.871797,1177,8.02505,17,1,1
app_42,65.8978,20350.7,7972.4,5.94569,8.05851,5.56838e+09,1.00276,0.871797,1013,0.696047,20,1,1
app_43,52.2312,21184.1,7825.2,148.712,7.45675,1.4818e+11,1.00334,0.871797,1024,18.5225,20,1,1
app_44,185.064,20358.4,7883.5,92.5798,11.8777,9.20322e+10,1.00307,0.871797,664,7.66935,30,1,1
app_45,116.206,20968.5,7825.1,135.471,11.197,1.34879e+11,1.00503,0.871797,673,12.2617,30,1,1
app_46,587.67,21148.5,7793.6,181.883,6.6681,1.81384e+11,1.00314,0.871797,1182,25.912,17,1,1
app_47,386.703,20545.9,7775.5,132.247,16.5914,1.31251e+11,1.01179,0.871797,480,8.20319,41,1,1
app_48,896.609,21455,7848.3,127.918,6.9929,1.27492e+11,1.00304,0.871797,1135,18.2132,18,1,1
app_49,606.167,20707,7779.2,45.8524,13.0791,4.51688e+10,1.02245,0.871797,604,3.47452,33,1,1
app_5,4.0055,24488.9,5731.14,129.618,575.627,1.08906e+11,1.36985,0.871797,10,0.189073,1863,1,1
app_50,128.929,20639.2,7787.3,85.5825,20.6917,8.43113e+10,1.01631,0.871797,382,4.01483,52,1,1
app_51,1153.2,21366.3,7823.3,134.806,5.97282,1.34524e+11,1.0053,0.871797,1316,22.4206,15,1,1
app_52,131.424,21698.5,7908.1,53.9216,5.17943,5.36023e+10,1.00481,0.871797,1527,8.93372,14,1,1
app_53,1172.06,20675.4,7865.7,62.9513,6.59146,6.25793e+10,1.00905,0.871797,1247,8.93991,16,1,1
app_54,665.826,21259.1,7917.7,48.0487,8.83119,4.76779e+10,1.00435,0.871797,880,5.95974,23,1,1
app_55,89.5238,20027.4,7804.9,118.841,9.97838,1.18398e+11,1.00968,0.871797,788,11.8398,25,1,1
app_56,539.199,21229.3,7920,56.1144,6.98186,5.56049e+10,1.00306,0.871797,1122,7.94355,18,1,1
app_57,82.1151,20481.5,7896.2,19.9112,8.48301,1.94911e+10,1.01065,0.871797,928,2.43639,22,1,1
app_58,488.617,21065.8,7825.2,167.181,6.20268,1.66858e+11,1.00099,0.871797,1256,27.8097,16,1,1
app_59,813.11,21078.3,7940,38.8066,7.03768,3.8323e+10,1.00272,0.871797,1140,5.47471,18,1,1
app_6,3.98675,24623.7,5944.9,137.888,494.043,1.0996e+11,1.32125,0.871797,12,0.22259,1610,1,1
app_60,234.26,21669.8,7904.1,45.921,5.55916,4.56076e+10,1.00633,0.871797,1389,9.12152,15,1,1
app_7,6.70057,25428.3,5454.1,65.2733,779.185,2.29366e+10,1.46064,0.871797,7,0.0294436,2698,1,1
app_8,4.73717,25560.3,5669.4,121.231,631.096,8.78984e+10,1.38954,0.871797,9,0.1393,2164,1,1
app_9,6.70634,25252.6,5623.1,173.013,625.645,1.36151e+11,1.38907,0.871797,9,0.217841,2116,1,1
