app_id,start_app,end_app,effective_cpu,effective_io,effective_iter,total_bytes,stretch,utilization,Tcomp,Tio,iterations,priority,group_id
app_1,1.0628,25091.5,5163.3,95.8406,738.643,6.81223e+10,1.52922,0.849711,7,0.0921817,2521,1,1
app_10,5.57315,25053.1,5124.47,128.21,732.026,8.39586e+10,1.53597,0.849711,7,0.114541,2502,1,1
app_11,6.20053,25332.9,5283.58,75.4291,659.917,4.4362e+10,1.50152,0.849711,8,0.0672151,2280,1,1
app_12,3.92587,26758.2,4588.22,86.5401,1145.98,1.5921e+10,1.73757,0.849711,4,0.0138927,4416,1,1
app_13,12.002,24610.2,5503.93,135.445,500.303,1.0391e+11,1.42658,0.849711,11,0.207406,1651,1,1
app_14,6.17841,24896.1,5695.79,52.6322,437.025,3.25042e+10,1.39658,0.849711,13,0.0742105,1463,1,1
app_15,0.846153,25958.2,5305.87,137.624,588.761,1.16389e+11,1.4754,0.849711,9,0.197605,2112,1,1
app_16,6.02001,25151.5,5650.06,156.911,433.067,1.30695e+11,1.3839,0.849711,13,0.301141,1467,1,1
app_17,9.39115,24823.9,5455.69,71.023,545.391,4.69857e+10,1.45384,0.849711,10,0.0860544,1832,1,1
app_18,1.11832,28334.5,4264.11,157.492,1422.15,9.3202e+10,1.83599,0.849711,3,0.0654968,6101,1,1
app_19,2.21112,24519.9,5649.11,62.3193,470.482,4.65648e+10,1.40458,0.849711,12,0.0988638,1536,1,1
app_2,1.54346,26171.1,5285.51,46.2574,662.91,5.23572e+09,1.51207,0.849711,8,0.00789701,2390,1,1
app_20,4.48565,24869.8,5282.37,51.9983,660.003,1.28755e+10,1.51079,0.849711,8,0.0194951,2224,1,1
app_21,59.9535,21802.4,7168.52,31.6672,94.4641,2.80715e+10,1.11164,0.849711,75,0.29549,264,1,1
app_22,87.0099,21082.9,7221.34,194.82,61.6194,1.91886e+11,1.07915,0.849711,117,3.09494,166,1,1
app_23,18.3214,21193.1,7480.8,45.1596,72.8065,4.24682e+10,1.06337,0.849711,103,0.581756,192,1,1
app_24,88.3852,21617.2,7158,66.3298,82.3208,6.19858e+10,1.10804,0.849711,87,0.755924,226,1,1
app_25,42.8323,21511.6,7190.08,223.574,83.7358,2.1845e+11,1.07984,0.849711,86,2.6006,226,1,1
app_26,82.2297,21382.3,7273.6,73.8871,75.5672,6.96644e+10,1.08943,0.849711,96,0.916637,205,1,1
app_27,91.7486,21377.2,7184.4,171.26,64.4999,1.68682e+11,1.08798,0.849711,110,2.5951,177,1,1
app_28,88.8958,21608.6,7122.5,212.565,75.7997,2.08609e+11,1.09124,0.849711,95,2.74486,205,1,1
app_29,44.1441,21323.6,7422.3,76.5871,62.2562,7.38921e+10,1.06721,0.849711,119,1.19181,167,1,1
app_3,12.6093,24859,5932.07,118.878,370.675,1.02752e+11,1.32564,0.849711,16,0.276958,1214,1,1
app_30,5.22897,21470.4,7442.46,27.7546,74.081,2.37124e+10,1.0715,0.849711,101,0.316165,198,1,1
app_31,83.4645,21564.4,7362.5,53.3327,65.269,5.00353e+10,1.07925,0.849711,113,0.758111,176,1,1
app_32,33.7067,21598.1,7074,161.798,91.6841,1.56779e+11,1.10638,0.849711,78,1.70412,249,1,1
app_33,17.4808,22289.9,6848.89,211.21,149.046,2.03338e+11,1.13439,0.849711,46,1.35558,419,1,1
app_34,55.5929,21349.7,7407,76.9757,67.4994,7.36137e+10,1.06943,0.849711,111,1.08255,179,1,1
app_35,3.87778,21190.9,7207.8,170.167,77.5624,1.66112e+11,1.08491,0.849711,94,2.12964,208,1,1
app_36,1.29891,21911.7,7146.9,140.917,108.703,1.35849e+11,1.09849,0.849711,65,1.25786,302,1,1
app_37,17.0976,21233.6,7402,97.3136,67.5527,9.45031e+10,1.06716,0.849711,109,1.38975,181,1,1
app_38,70.5031,21490.1,7155.7,69.5007,83.5999,6.57391e+10,1.10781,0.849711,86,0.782609,228,1,1
app_39,37.742,21728.9,7134.8,149.069,87.5415,1.44649e+11,1.09898,0.849711,81,1.64374,241,1,1
app_4,4.77738,25867.4,5347.53,112.466,593.835,7.96485e+10,1.47406,0.849711,9,0.134088,2110,1,1
app_40,42.3636,21183.3,7238.1,159.26,64.0192,1.55689e+11,1.08199,0.849711,114,2.43264,172,1,1
app_41,808.213,22337.7,7756.2,144.973,4.98583,1.44757e+11,1.01254,0.849711,1479,28.9513,14,1,1
app_42,568.378,21561.3,7784.8,85.115,7.62249,8.47634e+10,1.01657,0.849711,1019,12.1091,20,1,1
app_43,428.045,21402.3,7683,79.4387,17.1105,7.8342e+10,1.03075,0.849711,438,4.60835,46,1,1
app_44,1199.75,22094.9,7733.5,139.802,6.61065,1.39472e+11,1.01613,0.849711,1184,19.9246,17,1,1
app_45,468.04,21396.2,7809.4,110.107,7.97944,1.09611e+11,1.01023,0.849711,979,13.7014,21,1,1
app_46,1002.7,21736.3,7890.6,20.1954,5.40371,2.0024e+10,1.0113,0.849711,1448,4.00481,14,1,1
app_47,168.131,20483.6,7825.9,75.1506,7.99223,7.47343e+10,1.01258,0.849711,998,9.34179,20,1,1
app_48,864.449,21665.7,7933.9,7.60415,6.1959,7.20497e+09,1.00742,0.849711,1263,1.20083,16,1,1
app_49,528.621,20439.7,7760.8,218.924,10.0805,2.18468e+11,1.0026,0.849711,780,21.8468,25,1,1
app_5,7.28452,25765.7,5578.03,186.227,465.453,1.6215e+11,1.39368,0.849711,12,0.347962,1616,1,1
app_50,130.091,21207,7941.1,21.7527,6.13495,2.14518e+10,1.0047,0.849711,1299,3.57531,16,1,1
app_51,109.096,20651.5,7745.5,180.387,7.07554,1.79994e+11,1.0094,0.849711,1097,25.7134,18,1,1
app_52,680.75,20965.3,7953.2,15.2738,7.92334,1.48207e+10,1.00401,0.849711,1008,1.85259,20,1,1
app_53,235.722,21035.1,7844.8,66.1844,10.5493,6.56689e+10,1.01132,0.849711,753,6.56689,27,1,1
app_54,702.49,22033.3,7945.8,23.2362,6.77697,2.29553e+10,1.00392,0.849711,1171,3.27933,18,1,1
app_55,745.474,22117.2,7789.2,134.231,9.30884,1.33753e+11,1.00972,0.849711,816,14.8615,25,1,1
app_56,318.235,21021.8,7784.5,194.239,7.90758,1.93737e+11,1.00273,0.849711,966,24.2171,21,1,1
app_57,152.919,20616.6,7775.88,162.686,5.52231,1.62311e+11,1.00779,0.849711,1452,29.604,14,1,1
app_58,401.317,21310.4,7916.3,17.6555,9.01221,1.71548e+10,1.00839,0.849711,901,1.90609,23,1,1
app_59,206.142,20888.2,7797.5,97.0237,6.62224,9.66526e+10,1.01341,0.849711,1191,13.8075,17,1,1
app_6,4.86677,25085.9,5458.95,106.562,544.68,7.88947e+10,1.4446,0.849711,10,0.144761,1848,1,1
app_60,1173.57,22061.3,7800.8,141.51,6.53707,1.41351e+11,1.00728,0.849711,1205,20.193,17,1,1
app_7,5.65489,26654.5,5327.91,115.399,589.445,8.38199e+10,1.47827,0.849711,9,0.142068,2187,1,1
app_8,2.49534,27039.8,5182.57,66.2076,738.295,2.61791e+10,1.53588,0.849711,7,0.0354251,2806,1,1
app_9,1.02157,24494.6,5667.84,78.5398,472.363,4.97244e+10,1.3992,0.849711,12,0.105126,1537,1,1
