app_id,start_app,end_app,effective_cpu,effective_io,effective_iter,total_bytes,stretch,utilization,Tcomp,Tio,iterations,priority,group_id
app_1,8.81408,20307.3,7395.6,604.4,821.764,1.62077e+11,1.05853,0.952757,9,0.197174,2089,1,1
app_10,3.20979,19809.7,7196.3,803.7,653.306,2.19028e+11,1.07885,0.952757,11,0.335418,1626,1.00001,1.00001
app_11,1.85753,20435.2,7195.6,804.4,601.618,2.30655e+11,1.07726,0.952757,12,0.383786,1538,1.00001,1.00001
app_12,5.78021,19360.4,7847.5,152.5,1120.51,2.57618e+10,1.0161,0.952757,7,0.0229811,2714,1.00001,1.00001
app_13,9.13132,19004.9,7830.28,169.719,782.537,3.69629e+10,1.01687,0.952757,10,0.0472231,1859,1.00001,1.00001
app_14,0.601633,18795.8,7740.9,259.1,969.103,5.74002e+10,1.02586,0.952757,8,0.0592366,2275,1.00001,1.00001
app_15,10.7454,20242.6,7820.1,179.9,489.979,4.468e+10,1.01719,0.952757,16,0.0911837,1238,1.00002,1.00002
app_16,8.9146,19460.1,7918.2,81.8,790.974,8.05388e+09,1.0093,0.952757,10,0.0101819,1923,1.00002,1.00002
app_17,3.93849,20875.3,7297.9,702.1,728.195,1.91344e+11,1.0682,0.952757,10,0.262475,1909,1.00002,1.00002
app_18,7.21713,20988.6,7243.7,756.3,1037.69,2.06752e+11,1.07376,0.952757,7,0.199183,2733,1.00002,1.00002
app_19,2.508,19901.8,7351.67,648.332,738.314,1.75418e+11,1.06283,0.952757,10,0.237652,1834,1.00002,1.00002
app_2,5.1014,20126.5,7545,455,754.941,1.16802e+11,1.04414,0.952757,10,0.154705,1903,1,1
app_20,3.59047,20435.4,7180.2,819.8,895.289,2.24448e+11,1.0804,0.952757,8,0.250501,2299,1.00002,1.00002
app_21,51.0596,20773.5,7621.5,378.5,64.6865,1.02687e+11,1.03571,0.952757,116,1.5798,169,1.00002,1.00002
app_22,6.37397,20588.4,7761.1,238.9,69.4204,6.82542e+10,1.0218,0.952757,110,0.97506,180,1.00002,1.00002
app_23,92.8069,20929.5,7432.6,567.4,67.5552,1.60487e+11,1.05359,0.952757,110,2.36011,177,1.00002,1.00002
app_24,57.4996,20571.3,7560.5,439.5,70.1069,1.28636e+11,1.04043,0.952757,109,1.83766,180,1.00002,1.00002
app_25,43.1403,20248.1,7971.6,28.4,71.341,6.48967e+09,1.00275,0.952757,110,0.0914038,182,1.00003,1.00003
app_26,53.3953,20186.2,7805.6,194.4,80.0981,4.31633e+10,1.01927,0.952757,98,0.539541,202,1.00003,1.00003
app_27,26.9442,20130.1,7787.6,212.4,199.438,5.41435e+10,1.02018,0.952757,39,0.272078,503,1.00003,1.00003
app_28,131.934,20954.3,7521.22,478.782,48.5494,1.48282e+11,1.04309,0.952757,156,3.05918,126,1.00003,1.00003
app_29,31.6467,20265.6,7777.7,222.3,210.158,5.88953e+10,1.02085,0.952757,37,0.280454,533,1.00003,1.00003
app_3,7.98937,19949.7,7806.9,193.1,600.16,4.60876e+10,1.01872,0.952757,13,0.0768127,1499,1,1
app_30,13.4484,20842,7528.9,471.1,75.4074,1.36568e+11,1.04364,0.952757,100,1.8209,197,1.00003,1.00003
app_31,67.5832,20113.1,7961.8,38.2,104.404,8.97251e+09,1.00367,0.952757,76,0.0862741,262,1.00003,1.00003
app_32,25.4462,20677.8,7621.8,378.2,115.116,1.04571e+11,1.03541,0.952757,66,0.909313,298,1.00003,1.00003
app_33,13.2071,21056.7,7348,652,57.2043,1.86612e+11,1.06177,0.952757,129,3.27389,151,1.00003,1.00003
app_34,46.1447,20619.1,7520.42,479.577,81.4637,1.26754e+11,1.04614,0.952757,93,1.55502,210,1.00003,1.00003
app_35,20.9524,19945.4,7934.8,65.2,67.5049,1.76002e+10,1.00599,0.952757,118,0.258827,168,1.00004,1.00004
app_36,74.0863,21183.6,7320.5,679.5,70.9283,2.03735e+11,1.06323,0.952757,104,2.86951,187,1.00004,1.00004
app_37,61.3194,20783.8,7491.6,508.4,89.808,1.56696e+11,1.04598,0.952757,84,1.74107,232,1.00004,1.00004
app_38,11.9615,20028.8,7930.9,69.1,63.1004,1.73677e+10,1.00651,0.952757,126,0.275678,158,1.00004,1.00004
app_39,11.0319,20432.3,7739.9,260.1,117.718,6.9616e+10,1.02439,0.952757,66,0.589966,300,1.00004,1.00004
app_4,6.90393,19798.6,7853.9,146.1,714.199,3.04283e+10,1.01467,0.952757,11,0.0426167,1769,1,1
app_40,56.6454,20625.7,7701.6,298.4,67.7874,8.00321e+10,1.02806,0.952757,113,1.17694,176,1.00004,1.00004
app_41,221.762,20198.6,7949.1,50.9,7.6801,1.94575e+10,1.00395,0.952757,1058,2.43219,19,1.00004,1.00004
app_42,309.721,21077.2,7643.2,356.8,12.1178,1.28934e+11,1.02932,0.952757,642,10.7445,31,1.00004,1.00004
app_43,191.857,20734,7672.4,327.6,25.5811,9.92345e+10,1.02938,0.952757,305,3.81671,65,1.00004,1.00004
app_44,927.932,21101.8,7906.2,93.8,8.4581,3.16028e+10,1.00784,0.952757,949,3.95034,21,1.00004,1.00004
app_45,86.5701,20544.5,7746.2,253.8,13.2524,8.9578e+10,1.02096,0.952757,582,6.39843,34,1.00004,1.00004
app_46,190.937,21741.9,7290.46,709.539,9.0703,1.89837e+11,1.06948,0.952757,802,20.7555,25,1.00005,1.00005
app_47,848.179,21218.4,7584,416,4.65356,8.94806e+10,1.04255,0.952757,1662,22.3702,12,1.00005,1.00005
app_48,22.2425,20858.9,7942.8,57.2,9.80912,1.60369e+10,1.00517,0.952757,788,1.60369,26,1.00005,1.00005
app_49,880.927,22117.7,7369.1,630.9,8.41587,1.67345e+11,1.06151,0.952757,911,20.9181,22,1.00005,1.00005
app_5,4.57587,20469.9,7655.7,344.3,957.919,8.36691e+10,1.03368,0.952757,8,0.0873373,2453,1.00001,1.00001
app_50,598.24,21714.7,7549.7,450.3,8.05237,9.9251e+10,1.0459,0.952757,977,12.4064,21,1.00005,1.00005
app_51,71.1758,21033.5,7938.8,61.2,9.86167,1.39035e+10,1.00595,0.952757,794,1.39035,26,1.00005,1.00005
app_52,145.324,21265.6,7665.4,334.6,8.47064,1.0857e+11,1.02908,0.952757,880,13.5713,23,1.00005,1.00005
app_53,31.9258,20709.9,7344.71,655.289,11.6865,1.65561e+11,1.06521,0.952757,656,14.9543,30,1.00005,1.00005
app_54,581.639,21937.2,7746.3,253.7,7.68266,7.0617e+10,1.02342,0.952757,979,10.0881,21,1.00005,1.00005
app_55,0.165668,21119,7847.4,152.6,6.90338,4.05415e+10,1.01421,0.952757,1157,5.79165,18,1.00005,1.00005
app_56,708.83,21991.7,7327.3,672.7,5.30928,1.64298e+11,1.06786,0.952757,1422,32.8596,14,1.00006,1.00006
app_57,404.681,21152,7422.5,577.5,17.8778,1.96371e+11,1.05002,0.952757,424,10.9095,46,1.00006,1.00006
app_58,651.986,21139.4,7894.4,105.6,9.91591,2.67514e+10,1.00995,0.952757,803,2.67514,25,1.00006,1.00006
app_59,911.053,21894.7,7588.9,411.1,6.52305,1.2722e+11,1.03679,0.952757,1180,21.2034,17,1.00006,1.00006
app_6,0.257541,19444.7,7587.1,412.9,1084.85,1.05044e+11,1.04002,0.952757,7,0.0968148,2635,1.00001,1.00001
app_60,131.696,20801.9,7682.5,317.5,7.50485,8.95784e+10,1.02933,0.952757,991,11.1973,20,1.00006,1.00006
app_7,11.4931,20081.9,7224.9,775.1,655.95,2.1396e+11,1.07543,0.952757,11,0.326158,1651,1.00001,1.00001
app_8,5.50313,19903,7458.5,541.5,827.349,1.42735e+11,1.05246,0.952757,9,0.172593,2065,1.00001,1.00001
app_9,7.45748,19210.4,7722.5,277.5,862.992,6.5043e+10,1.02728,0.952757,9,0.0753685,2067,1.00001,1.00001
