app_id,start_app,end_app,effective_cpu,effective_io,effective_iter,total_bytes,stretch,utilization,Tcomp,Tio,iterations,priority,group_id
app_1,8.0421,26952.1,5285.7,72.3017,659.233,4.15462e+10,1.50171,0.855555,8,0.0630443,2456,1,1
app_10,7.70391,25635.5,5312.54,61.3016,662.308,2.53965e+10,1.49871,0.855555,8,0.0383633,2294,1,1
app_11,5.89908,26306.1,5557.51,92.3599,507.176,6.28626e+10,1.42339,0.855555,11,0.123989,1791,1,1
app_12,6.77233,25158.4,5480.13,123.851,547.023,1.04252e+11,1.43257,0.855555,10,0.190484,1831,1,1
app_13,10.3823,25003.4,5491.6,119.228,548.113,9.32727e+10,1.43244,0.855555,10,0.170206,1817,1,1
app_14,3.54061,26006.3,4959.85,63.7519,829.441,1.67574e+10,1.60752,0.855555,6,0.020214,2991,1,1
app_15,0.157197,26199.3,5462.1,46.0679,545.125,1.55154e+10,1.46049,0.855555,10,0.0284687,1945,1,1
app_16,2.73621,25081.4,5343.86,170.488,594.006,1.37388e+11,1.45952,0.855555,9,0.231293,1992,1,1
app_17,0.672174,27141.5,5288.45,54.0041,661.526,1.57908e+10,1.50823,0.855555,8,0.0238892,2482,1,1
app_18,9.97742,25684.6,5482.2,110.798,547.752,8.35519e+10,1.43736,0.855555,10,0.152467,1884,1,1
app_19,3.68979,26708.8,5284.47,70.106,661.277,3.81698e+10,1.50301,0.855555,8,0.0577456,2426,1,1
app_2,7.89542,24772.8,5483.5,66.9289,549.187,4.30024e+10,1.44757,0.855555,10,0.0783286,1807,1,1
app_20,7.11417,25766.7,5508.65,104.587,498.454,8.12856e+10,1.43114,0.855555,11,0.163224,1735,1,1
app_21,89.5185,21515.9,7350,208.176,73.6528,2.04827e+11,1.05893,0.855555,100,2.76793,194,1,1
app_22,95.4317,21632.7,7403.16,141.518,64.4842,1.3812e+11,1.06083,0.855555,114,2.15639,172,1,1
app_23,26.2131,21105,7425.8,181.949,53.1852,1.79961e+11,1.05183,0.855555,138,3.3955,141,1,1
app_24,35.1436,22082.1,7199.1,49.5857,107.036,4.36534e+10,1.10455,0.855555,67,0.407975,295,1,1
app_25,117.757,21518.3,7368.4,151.883,63.3361,1.48576e+11,1.06426,0.855555,116,2.35835,169,1,1
app_26,119.175,21423.2,7373.6,159.581,62.5552,1.55752e+11,1.06251,0.855555,117,2.51212,167,1,1
app_27,67.0827,21641.9,7432.6,121.113,63.7126,1.18242e+11,1.05948,0.855555,115,1.87685,171,1,1
app_28,88.9725,21311.5,7542.7,84.8278,60.0416,8.20408e+10,1.04922,0.855555,126,1.36735,157,1,1
app_29,35.6951,23311.4,6736.6,23.5327,187.258,1.47217e+10,1.18495,0.855555,36,0.0787257,550,1,1
app_3,5.13791,25945.8,5594.2,150.568,465.952,1.299e+11,1.3976,0.855555,12,0.278755,1622,1,1
app_30,29.7132,21237,7345.9,141.303,74.4987,1.37524e+11,1.06903,0.855555,99,1.83366,197,1,1
app_31,82.1063,21270.9,7323.1,169.498,70.1856,1.66272e+11,1.06818,0.855555,104,2.37531,187,1,1
app_32,10.3091,22834.4,6865,111.196,162.389,1.02802e+11,1.14814,0.855555,42,0.63458,467,1,1
app_33,8.69142,22238.8,6953.6,115.015,132.214,1.07229e+11,1.13301,0.855555,52,0.812339,373,1,1
app_34,38.6396,22666.3,6938.2,126.509,153.446,1.19452e+11,1.13352,0.855555,45,0.775662,434,1,1
app_35,11.2581,21903.4,7142.3,212.648,105.262,2.08014e+11,1.08839,0.855555,68,1.98108,283,1,1
app_36,39.9199,21548.1,7365,84.2623,76.913,8.00456e+10,1.07454,0.855555,96,1.03955,205,1,1
app_37,54.6017,21151.7,7352,209.271,73.0018,2.05403e+11,1.05856,0.855555,102,2.81374,190,1,1
app_38,49.6132,21279.8,7510.2,95.9272,61.3407,9.27148e+10,1.05223,0.855555,122,1.51991,162,1,1
app_39,12.8662,21345,7489.9,30.248,58.1317,2.77888e+10,1.06416,0.855555,131,0.479117,152,1,1
app_4,6.44392,24718,5686.19,188.666,406.155,1.63171e+11,1.36767,0.855555,14,0.4019,1320,1,1
app_40,9.0763,22597.3,6937.8,112.918,141.487,1.05721e+11,1.1358,0.855555,49,0.744516,401,1,1
app_41,395.693,20627.7,7828.2,133.209,9.54813,1.32875e+11,1.00489,0.855555,826,13.2875,24,1,1
app_42,675.555,20994,7776.9,180.958,8.49976,1.80486e+11,1.00536,0.855555,937,22.5608,21,1,1
app_43,913.693,21039.1,7919.4,25.9451,8.70744,2.54683e+10,1.00694,0.855555,914,2.82981,22,1,1
app_44,128.176,21034.3,7802,123.255,9.96722,1.22649e+11,1.00951,0.855555,777,12.2649,26,1,1
app_45,604.047,21018.7,7843,124.45,9.54414,1.24113e+11,1.00413,0.855555,822,13.7903,24,1,1
app_46,419.261,20560.7,7844.9,100.194,8.37648,9.97037e+10,1.00697,0.855555,959,11.0782,21,1,1
app_47,1168.24,22282.1,7900,50.5279,5.97747,5.0172e+10,1.00627,0.855555,1273,8.36201,16,1,1
app_48,848.425,22034.2,7932.1,17.3532,8.18859,1.69708e+10,1.00641,0.855555,943,2.12135,22,1,1
app_49,313.65,20790.8,7835.6,2.19808,21.2349,1.25244e+09,1.02082,0.855555,375,0.0596402,54,1,1
app_5,11.3978,24640.3,5638.06,100.161,469.363,7.81437e+10,1.39953,0.855555,12,0.166618,1524,1,1
app_50,527.537,20604.3,7768.9,216.79,7.83885,2.16422e+11,1.00184,0.855555,1052,27.0528,19,1,1
app_51,1108,21505.5,7837.6,127.522,5.32298,1.27363e+11,1.0044,0.855555,1404,25.4725,14,1,1
app_52,302.778,20240.8,7728.7,201.053,7.80393,2.00658e+11,1.00891,0.855555,1027,28.6654,19,1,1
app_53,205.194,20914.6,7929.3,18.0861,9.28062,1.78935e+10,1.00664,0.855555,890,1.98817,23,1,1
app_54,87.5124,20474.3,7741.9,165.672,8.62001,1.6529e+11,1.01174,0.855555,897,20.6612,22,1,1
app_55,218.885,20955.5,7786.5,190.702,6.78921,1.90328e+11,1.0029,0.855555,1114,31.7214,18,1,1
app_56,193.332,20759.3,7942,29.0282,8.58893,2.87366e+10,1.00367,0.855555,921,3.59208,22,1,1
app_57,727.409,21072.4,7932.9,7.1396,8.19211,6.62432e+09,1.00762,0.855555,968,0.82804,21,1,1
app_58,319.069,21320.2,7884.6,3.95638,7.60199,3.71839e+09,1.01416,0.855555,1043,0.531199,20,1,1
app_59,769.61,21519.9,7947.2,7.06827,7.17079,6.62314e+09,1.00581,0.855555,1086,0.827893,19,1,1
app_6,3.89522,25787.9,5809.6,30.722,414.779,6.32913e+09,1.37553,0.855555,14,0.0152509,1425,1,1
app_60,50.6665,20374.3,7682.7,222.991,18.6335,2.21915e+11,1.01207,0.855555,415,11.6798,47,1,1
app_7,0.773786,26318.8,5549.87,115.205,502.184,9.60726e+10,1.41695,0.855555,11,0.19138,1786,1,1
app_8,2.65871,26225.3,5571.3,52.0554,507.293,2.59965e+10,1.42926,0.855555,11,0.0511742,1787,1,1
app_9,4.22502,27385,4957.08,78.0187,825.954,3.36306e+10,1.60298,0.855555,6,0.0407643,3210,1,1
