app_id,start_app,end_app,effective_cpu,effective_io,effective_iter,total_bytes,stretch,utilization,Tcomp,Tio,iterations,priority,group_id
app_1,4.65117,19714.7,7738.9,261.1,455.68,6.04903e+10,1.02572,0.947066,17,0.132946,1121,1,1
app_10,8.1898,20931.7,7231.5,768.5,904.337,1.92098e+11,1.07764,0.947066,8,0.212263,2382,1.00001,1.00001
app_11,2.65755,20482,7553.26,446.738,630.124,1.09e+11,1.04408,0.947066,12,0.172783,1618,1.00001,1.00001
app_12,1.41971,19729.9,7650.7,349.3,1529.16,7.25803e+10,1.03583,0.947066,5,0.0474691,3782,1.00001,1.00001
app_13,4.26655,20755.8,7383.9,616.1,740.771,1.50659e+11,1.06177,0.947066,10,0.203593,1928,1.00001,1.00001
app_14,10.135,18981.5,7644.6,355.4,765.784,7.68061e+10,1.03608,0.947066,10,0.1004,1818,1.00001,1.00001
app_15,2.37264,20262.2,7696.2,303.8,856.932,6.75847e+10,1.03043,0.947066,9,0.078862,2175,1.00002,1.00002
app_16,5.79875,19866.8,7626.3,373.7,1085.92,8.24355e+10,1.03778,0.947066,7,0.0759075,2712,1.00002,1.00002
app_17,1.38641,19033.7,7599.2,400.8,845.4,8.72119e+10,1.0408,0.947066,9,0.103209,2017,1.00002,1.00002
app_18,1.46128,18504.5,7749.4,250.6,965.244,4.85353e+10,1.02591,0.947066,8,0.0502957,2237,1.00002,1.00002
app_19,4.71497,20514.4,7625,375,634.447,8.61703e+10,1.03746,0.947066,12,0.135701,1633,1.00002,1.00002
app_2,12.2595,21127.5,7255.3,744.7,607.015,1.87173e+11,1.07491,0.947066,12,0.308358,1613,1,1
app_20,6.34725,20810.7,7392.7,607.3,925.632,1.4698e+11,1.06105,0.947066,8,0.158897,2417,1.00002,1.00002
app_21,108.356,20600.5,7669.1,330.9,54.0902,8.27722e+10,1.03201,0.947066,143,1.53282,138,1.00002,1.00002
app_22,81.3702,20900.5,7564.35,435.65,85.0199,1.11928e+11,1.04217,0.947066,89,1.3196,222,1.00002,1.00002
app_23,1.39256,20485,7706.06,293.945,60.2193,6.92019e+10,1.0289,0.947066,128,1.13456,155,1.00002,1.00002
app_24,48.8684,20316.7,7792.3,207.7,94.7969,4.97923e+10,1.02014,0.947066,82,0.524129,241,1.00002,1.00002
app_25,78.4946,20551.4,7629.7,370.3,66.0126,9.62854e+10,1.03547,0.947066,115,1.45887,171,1.00003,1.00003
app_26,64.8552,21142.6,7309.8,690.2,71.0921,1.96358e+11,1.06579,0.947066,102,2.7656,190,1.00003,1.00003
app_27,87.9795,21075.4,7473.7,526.303,74.3577,1.29447e+11,1.0522,0.947066,101,1.72811,195,1.00003,1.00003
app_28,88.913,21165.7,7382,618,61.5324,1.55686e+11,1.06133,0.947066,120,2.51106,163,1.00003,1.00003
app_29,84.1393,20828.9,7532.8,467.2,54.5929,1.16606e+11,1.04583,0.947066,139,2.12012,142,1.00003,1.00003
app_3,8.74975,20645.5,7427.4,572.6,572.226,1.38939e+11,1.05731,0.947066,13,0.2429,1482,1,1
app_30,58.652,19910.8,7962.4,37.6,103.036,7.49414e+09,1.00378,0.947066,78,0.0727586,254,1.00003,1.00003
app_31,26.4705,21088.6,7449.1,550.9,55.2782,1.38197e+11,1.05439,0.947066,134,2.51267,146,1.00003,1.00003
app_32,95.7199,21130,7486,514,74.9816,1.31426e+11,1.05022,0.947066,100,1.75234,197,1.00003,1.00003
app_33,39.3851,21210.1,7412.3,587.7,60.8478,1.57864e+11,1.05678,0.947066,121,2.58794,162,1.00003,1.00003
app_34,49.6906,21088.5,7435.2,564.8,69.3196,1.39654e+11,1.05613,0.947066,107,2.02398,184,1.00003,1.00003
app_35,57.7153,20798.6,7431.4,568.6,91.464,1.46789e+11,1.05566,0.947066,82,1.61307,238,1.00004,1.00004
app_36,7.15736,20822.9,7582.3,417.7,66.9508,1.08158e+11,1.04025,0.947066,113,1.6143,175,1.00004,1.00004
app_37,8.10195,20071.1,7872.7,127.3,86.1255,2.84762e+10,1.01251,0.947066,92,0.327312,216,1.00004,1.00004
app_38,2.46293,19891.7,7955.7,44.3,194.14,8.76737e+09,1.00446,0.947066,41,0.0451926,482,1.00004,1.00004
app_39,29.6762,21074.7,7358,642,74.5974,1.57433e+11,1.06448,0.947066,99,2.09911,198,1.00004,1.00004
app_4,0.376085,19221.7,7657.6,342.4,697.167,7.58497e+10,1.03447,0.947066,11,0.108823,1676,1,1
app_40,18.0155,20314.2,7778.1,221.9,88.6064,5.57822e+10,1.02121,0.947066,88,0.633888,225,1.00004,1.00004
app_41,913.966,22032.9,7842.4,157.6,6.98972,3.70137e+10,1.0153,0.947066,1154,5.28767,18,1.00004,1.00004
app_42,659.062,22157.4,7346.1,653.9,6.68392,1.62148e+11,1.06549,0.947066,1121,23.1641,18,1.00004,1.00004
app_43,246.738,22044.4,7335.6,664.4,17.0029,1.85971e+11,1.06361,0.947066,431,10.9395,46,1.00004,1.00004
app_44,467.869,21312.8,7703.5,296.5,8.43485,6.92041e+10,1.02924,0.947066,933,7.68935,22,1.00004,1.00004
app_45,146.992,22488.9,7240,760,11.2908,1.88169e+11,1.07698,0.947066,623,17.1063,32,1.00004,1.00004
app_46,211.714,20950.3,7308.1,691.9,8.30281,1.7022e+11,1.06976,0.947066,934,18.9134,21,1.00005,1.00005
app_47,991.885,22890.8,7542.1,457.9,6.87327,1.22786e+11,1.04372,0.947066,1074,17.5409,19,1.00005,1.00005
app_48,473.484,21930.3,7277,723,9.19655,1.93294e+11,1.07091,0.947066,781,21.4771,25,1.00005,1.00005
app_49,163.925,21237.7,7690.38,309.623,8.27954,6.50821e+10,1.03153,0.947066,933,7.47685,22,1.00005,1.00005
app_5,5.35034,19972.9,7531.9,468.1,629.423,1.1534e+11,1.04613,0.947066,12,0.183371,1570,1.00001,1.00001
app_50,620.357,21990.3,7481.7,518.3,11.0822,1.37414e+11,1.04999,0.947066,689,12.4922,29,1.00005,1.00005
app_51,688.552,21079.7,7739.9,260.1,6.18094,5.07396e+10,1.02687,0.947066,1265,8.45661,16,1.00005,1.00005
app_52,1014.16,22657.3,7069.1,930.9,5.47649,1.90287e+11,1.10202,0.947066,1246,31.7145,16,1.00005,1.00005
app_53,80.361,21716,7678.7,321.3,8.69422,5.27368e+10,1.03474,0.947066,856,5.85965,24,1.00005,1.00005
app_54,489.267,21566.5,7630.1,369.9,4.89918,9.78487e+10,1.0352,0.947066,1546,19.5697,13,1.00005,1.00005
app_55,299.348,20879.1,7862.8,137.2,14.5308,3.5724e+10,1.01285,0.947066,529,2.3816,38,1.00005,1.00005
app_56,685.783,21853.8,7583.6,416.4,5.45568,1.0781e+11,1.04012,0.947066,1383,17.9684,15,1.00006,1.00006
app_57,1003.37,21736.8,7879.8,120.2,7.67332,3.40113e+10,1.01089,0.947066,1007,4.25141,20,1.00006,1.00006
app_58,450.801,21728.8,7957.4,42.6,6.33052,1.53989e+10,1.00341,0.947066,1228,2.56648,17,1.00006,1.00006
app_59,1394.61,22003.7,7863.4,136.6,5.45772,4.10381e+10,1.01209,0.947066,1443,8.20762,14,1.00006,1.00006
app_6,1.60247,19940.3,7335.8,664.2,737.248,1.63499e+11,1.06677,0.947066,10,0.221843,1842,1.00001,1.00001
app_60,188.776,21387.2,7376.5,623.5,9.33839,1.7072e+11,1.05999,0.947066,790,17.072,25,1.00006,1.00006
app_7,14.0402,19390.9,7745.4,254.6,515.944,5.5757e+10,1.02549,0.947066,15,0.108056,1252,1.00001,1.00001
app_8,7.475,18933.3,7636.15,363.847,763.748,8.1344e+10,1.03661,0.947066,10,0.106482,1811,1.00001,1.00001
app_9,7.02107,18944.7,7919.3,80.7,794.386,5.72474e+09,1.00946,0.947066,10,0.00720093,1876,1.00001,1.00001
