app_id,start_app,end_app,effective_cpu,effective_io,effective_iter,total_bytes,stretch,utilization,Tcomp,Tio,iterations,priority,group_id
app_1,1.76563,17775.9,7730.9,166.692,1544.44,1.08057e+11,1.02054,0.962679,5,0.0699396,3430,0.1,1
app_10,2.14738,20238.9,7718.7,229.736,856.393,1.70999e+11,1.01398,0.962679,9,0.199765,2168,0.1,1
app_11,3.69669,19567.1,7852.4,78.5693,982.733,2.38319e+09,1.01849,0.962679,8,0.00242441,2401,0.1,1
app_12,3.25401,18422.7,7729.5,202.407,964.32,1.61183e+11,1.01385,0.962679,8,0.167202,2224,0.1,1
app_13,3.87385,18771.6,7882.7,63.9184,786.655,2.81117e+09,1.01452,0.962679,10,0.00357201,1846,0.1,1
app_14,4.12243,19964.5,7722.3,231.115,772.499,1.8472e+11,1.01176,0.962679,10,0.238965,1929,0.1,1
app_15,2.07395,18147.4,7817.5,100.296,1117.39,2.4009e+10,1.02021,0.962679,7,0.0214942,2534,0.1,1
app_16,0.514479,19914.6,7720.7,202.393,1106.23,1.15525e+11,1.0209,0.962679,7,0.104453,2751,0.1,1
app_17,6.68974,19061.9,7699.2,233.954,1101.18,1.98064e+11,1.01301,0.962679,7,0.179895,2616,0.1,1
app_18,5.15588,19908.5,7720.9,227.3,771.54,1.71682e+11,1.01361,0.962679,10,0.222386,1918,0.1,1
app_19,0.962744,19154.1,7863.6,99.0102,525.292,5.88612e+10,1.00979,0.962679,15,0.111903,1256,0.1,1
app_2,5.88297,19789.2,7880.6,60.681,718.867,8.22881e+09,1.01409,0.962679,11,0.0114448,1775,0.1,1
app_20,4.583,18148.8,7755.7,141.602,1550.2,4.43038e+10,1.02564,0.962679,5,0.0285821,3515,0.1,1
app_21,13.7275,20443,7695.9,248.477,64.9246,1.74808e+11,1.01643,0.962679,117,2.68935,167,0.01,2
app_22,31.6355,20350.3,7590.5,295.059,119.04,2.00821e+11,1.02678,0.962679,64,1.68757,302,0.01,2
app_23,103.966,20292.1,7702.7,203.954,71.4068,1.38302e+11,1.02028,0.962679,108,1.94792,181,0.01,2
app_24,35.5238,20310.5,7637.1,261.412,76.0299,1.79445e+11,1.02347,0.962679,100,2.36111,195,0.01,2
app_25,4.91662,20671.2,7573.8,272.248,180.522,1.76407e+11,1.03223,0.962679,42,0.980039,465,0.01,2
app_26,19.9522,20371.3,7649.8,288.137,59.5987,2.01353e+11,1.01896,0.962679,128,3.41277,152,0.01,2
app_27,62.5423,20495.2,7751.6,188.668,66.8959,1.21891e+11,1.01607,0.962679,115,1.81927,172,0.01,2
app_28,66.5928,20328.7,7786,100.551,106.621,6.66518e+10,1.01876,0.962679,73,0.62879,270,0.01,2
app_29,58.8002,20382.5,7699.13,253.887,62.5826,1.7211e+11,1.01636,0.962679,122,2.74583,160,0.01,2
app_3,4.16334,19891,7870.4,83.2965,716.965,6.30738e+10,1.00839,0.962679,11,0.087969,1780,0.1,1
app_30,69.5627,20169.3,7844.3,85.7158,78.2643,5.72832e+10,1.01246,0.962679,101,0.7344,196,0.01,2
app_31,38.9016,20519.6,7601.49,317.77,89.34,2.089e+11,1.02428,0.962679,85,2.32721,229,0.01,2
app_32,86.4374,20292.7,7842.8,60.4871,67.1404,3.80022e+10,1.01513,0.962679,117,0.567197,170,0.01,2
app_33,125.971,20492.5,7937.3,6.48846,61.8344,1.06879e+09,1.00776,0.962679,129,0.0175211,156,0.01,2
app_34,3.91442,20160.2,7864,49.6703,84.6172,3.1658e+10,1.01322,0.962679,93,0.376881,213,0.01,2
app_35,32.9747,20214.8,7694.3,250.352,59.2747,1.68932e+11,1.01739,0.962679,130,2.86325,150,0.01,2
app_36,15.019,20359.9,7612.4,299.787,98.1171,2.02926e+11,1.02363,0.962679,78,2.07067,249,0.01,2
app_37,13.5199,20326.7,7775.9,54.1956,140.071,2.92494e+10,1.02496,0.962679,55,0.208924,358,0.01,2
app_38,3.10018,20295.1,7800.9,144.222,90.9822,9.5235e+10,1.01315,0.962679,86,1.04654,230,0.01,2
app_39,15.6475,20454.3,7793.1,71.9562,129.179,4.36552e+10,1.02083,0.962679,60,0.338413,331,0.01,2
app_4,9.04488,18660.3,7836.9,112.555,782.433,7.64333e+10,1.01095,0.962679,10,0.097616,1824,0.1,1
app_40,30.7082,20218.9,7575.8,188.606,229.251,1.18072e+11,1.03979,0.962679,33,0.515597,580,0.01,2
app_41,44.3269,20850.5,7919,71.1362,9.59014,2.39564e+10,1.00718,0.962679,818,2.66182,25,0.001,3
app_42,909.208,22302.5,7652,277.658,6.0512,1.25226e+11,1.02864,0.962679,1285,20.871,16,0.001,3
app_43,619.498,21475.7,7885.6,61.3436,4.70036,2.68413e+10,1.01107,0.962679,1664,6.71033,12,0.001,3
app_44,295.163,21195.3,7508.1,253.652,9.98579,1.08951e+11,1.05028,0.962679,764,10.8951,26,0.001,3
app_45,369.495,21232.1,7612.3,84.5868,17.2356,2.61811e+10,1.04733,0.962679,441,1.45451,46,0.001,3
app_46,9.15492,21239,7803,130.781,7.76404,4.31687e+10,1.01961,0.962679,976,6.16696,21,0.001,3
app_47,334.028,21368.6,7554.3,103.566,8.24213,2.73653e+10,1.05518,0.962679,945,3.04058,22,0.001,3
app_48,388.562,21789,7401.3,403.823,7.98631,1.82012e+11,1.05495,0.962679,924,22.7515,22,0.001,3
app_49,639.564,22158.5,7400.17,467.052,11.8946,1.9664e+11,1.05307,0.962679,627,16.7952,32,0.001,3
app_5,6.33858,18502.7,7749.2,179.766,970.501,1.04401e+11,1.01864,0.962679,8,0.107519,2240,0.1,1
app_50,421.03,21830,7363.74,310.148,8.05542,1.39431e+11,1.06622,0.962679,902,16.9321,22,0.001,3
app_51,156.558,21161.5,7619,103.81,6.66654,5.33961e+10,1.0427,0.962679,1136,8.89935,18,0.001,3
app_52,1474.3,21677.3,7935.9,28.8417,5.23461,1.57558e+10,1.00608,0.962679,1556,3.15115,13,0.001,3
app_53,467.176,21468.9,7586,386.91,6.22453,1.73487e+11,1.031,0.962679,1249,28.9145,16,0.001,3
app_54,163.317,20904.6,7656,258.801,7.95539,1.01745e+11,1.03123,0.962679,946,12.7181,21,0.001,3
app_55,178.621,20627.2,7740.9,47.5617,11.8844,1.28545e+10,1.03176,0.962679,665,1.07121,30,0.001,3
app_56,833.365,22418.5,7594.7,62.1687,8.35412,2.19085e+10,1.05034,0.962679,902,2.43427,23,0.001,3
app_57,357.239,21503.3,7510.8,170.32,11.1549,6.92338e+10,1.0554,0.962679,697,6.29398,29,0.001,3
app_58,431.278,21538.1,7397.71,350.413,7.11055,1.64542e+11,1.05789,0.962679,1047,20.5678,19,0.001,3
app_59,376.386,21544.3,7624.4,147.545,11.4578,6.70896e+10,1.04011,0.962679,658,6.09905,31,0.001,3
app_6,6.77355,18795.9,7722.8,228.788,770.209,1.78688e+11,1.01247,0.962679,10,0.232062,1810,0.1,1
app_60,248.895,22141.7,7363.1,455.769,6.95899,1.91981e+11,1.05889,0.962679,1077,27.4258,19,0.001,3
app_7,3.18433,18895.2,7734.7,226.32,645.295,1.87801e+11,1.00978,0.962679,12,0.290713,1524,0.1,1
app_8,8.2952,19320.7,7789.8,162.205,780.168,1.27751e+11,1.01041,0.962679,10,0.163573,1878,0.1,1
app_9,1.45145,19030.2,7730.5,232.805,592.763,1.86314e+11,1.01051,0.962679,13,0.314719,1413,0.1,1
