app_id,start_app,end_app,effective_cpu,effective_io,effective_iter,total_bytes,stretch,utilization,Tcomp,Tio,iterations,priority,group_id
app_1,2.66779,18457.1,7365.6,634.4,1230.19,1.5785e+11,1.06334,0.950526,6,0.128333,2831,1,1
app_10,0.288707,16342.4,7182.3,817.7,2394.01,2.0149e+11,1.08345,0.950526,3,0.0841647,4900,1.00001,1.00001
app_11,2.53327,20332.1,7670.9,329.1,479.111,8.22774e+10,1.03184,0.950526,16,0.171769,1217,1.00001,1.00001
app_12,1.09634,20424.6,7584.3,415.7,585.035,1.03237e+11,1.04065,0.950526,13,0.176474,1492,1.00001,1.00001
app_13,9.40099,19447.1,7876.1,123.9,873.421,2.09715e+10,1.01303,0.950526,9,0.0239948,2125,1.00001,1.00001
app_14,4.3313,20764.4,7367.1,632.9,921.285,1.64912e+11,1.06213,0.950526,8,0.179058,2396,1.00001,1.00001
app_15,13.7481,19279.1,7929.7,70.3,567.904,9.60667e+09,1.00764,0.950526,14,0.0169132,1363,1.00002,1.00002
app_16,6.94209,19777.1,7216.3,783.7,903.82,2.03338e+11,1.07822,0.950526,8,0.224931,2236,1.00002,1.00002
app_17,5.69048,18941.5,7464.3,535.7,930.01,1.31918e+11,1.05316,0.950526,8,0.141847,2209,1.00002,1.00002
app_18,6.003,20069.9,7929.2,70.8,565.655,1.0199e+10,1.00763,0.950526,14,0.0180513,1421,1.00002,1.00002
app_19,4.09861,20492.5,7447.5,552.5,928.887,1.38793e+11,1.05453,0.950526,8,0.1494,2388,1.00002,1.00002
app_2,1.57007,20960.4,7247.1,752.9,1448.01,1.87555e+11,1.07604,0.950526,5,0.129527,3809,1,1
app_20,0.836371,20017.5,7578.5,421.5,690.799,1.05591e+11,1.04111,0.950526,11,0.152808,1730,1.00002,1.00002
app_21,25.7791,20403.6,7752.8,247.2,121.566,6.42223e+10,1.02341,0.950526,64,0.526412,309,1.00002,1.00002
app_22,67.2435,20899,7596.8,403.2,68.1703,1.10152e+11,1.03802,0.950526,111,1.61988,178,1.00002,1.00002
app_23,44.2036,20603.6,7743.5,256.5,108.612,7.10746e+10,1.02373,0.950526,71,0.652061,279,1.00002,1.00002
app_24,69.5865,19942.7,7979.8,20.2,73.4833,4.77816e+09,1.00193,0.950526,109,0.0654543,182,1.00002,1.00002
app_25,46.6064,20027.2,7921.7,78.3,87.5807,1.92363e+10,1.00744,0.950526,90,0.218595,220,1.00003,1.00003
app_26,34.7288,21416.3,7294.9,705.1,81.147,1.91554e+11,1.0686,0.950526,89,2.36486,218,1.00003,1.00003
app_27,48.54,20212.9,7867.7,132.3,81.0356,4.04891e+10,1.01161,0.950526,97,0.499865,204,1.00003,1.00003
app_28,76.8984,20082.1,7931.3,68.7,53.8708,1.56456e+10,1.00668,0.950526,148,0.289734,135,1.00003,1.00003
app_29,16.9665,21178.6,7270.5,729.5,81.653,2.09873e+11,1.06947,0.950526,89,2.55943,217,1.00003,1.00003
app_3,5.73601,18532.7,7887.17,112.828,1128.27,4.80841e+07,1.0143,0.950526,7,4.2617e-05,2608,1,1
app_30,33.5866,20888.8,7491.5,508.5,87.3138,1.44945e+11,1.04761,0.950526,86,1.66604,227,1.00003,1.00003
app_31,46.6999,21397,7375.4,624.6,75.5445,1.87848e+11,1.05775,0.950526,97,2.47169,201,1.00003,1.00003
app_32,48.1462,21323.4,7333.6,666.4,76.3518,1.7989e+11,1.06475,0.950526,96,2.36697,203,1.00003,1.00003
app_33,68.3122,21276.1,7316.5,683.5,108.605,1.89854e+11,1.06576,0.950526,68,1.75791,287,1.00003,1.00003
app_34,17.5901,20388.5,7566,434,165.534,1.12803e+11,1.04183,0.950526,46,0.683654,420,1.00003,1.00003
app_35,94.0996,20639.8,7684,316,62.1572,7.86625e+10,1.03057,0.950526,124,1.26875,160,1.00004,1.00004
app_36,59.2722,21077.4,7446,554,91.7459,1.53985e+11,1.05263,0.950526,80,1.69214,243,1.00004,1.00004
app_37,18.0628,20859.5,7470.6,529.4,113.311,1.42115e+11,1.05087,0.950526,66,1.24662,295,1.00004,1.00004
app_38,18.7424,20038.4,7992.2,7.8,71.9725,7.82635e+08,1.00088,0.950526,111,0.0108699,180,1.00004,1.00004
app_39,12.609,20357.5,7627.1,372.9,138.807,9.7577e+10,1.03564,0.950526,55,0.701993,354,1.00004,1.00004
app_4,12.6247,19927.5,7408.8,591.2,570.342,1.58466e+11,1.05718,0.950526,13,0.278011,1418,1,1
app_40,10.8064,20486.9,7621.3,378.7,111.635,9.96857e+10,1.03614,0.950526,69,0.898069,286,1.00004,1.00004
app_41,598.609,21373.3,7802.8,197.2,6.92173,4.26429e+10,1.0197,0.950526,1156,6.09184,18,1.00004,1.00004
app_42,1398.6,21860.3,7943.2,56.8,5.04921,1.48089e+10,1.00528,0.950526,1555,2.96178,13,1.00004,1.00004
app_43,86.3284,21874.4,7322.5,677.5,9.74278,1.41542e+11,1.07181,0.950526,755,14.1542,27,1.00004,1.00004
app_44,1307.69,22857.3,7751.1,248.9,5.17217,6.94331e+10,1.02295,0.950526,1479,13.8866,14,1.00004,1.00004
app_45,503.134,21804.9,7313.9,686.1,6.89928,2.14325e+11,1.06267,0.950526,1111,30.6179,18,1.00004,1.00004
app_46,902.342,22800.8,7461.2,538.8,6.49638,1.7514e+11,1.04762,0.950526,1129,29.19,18,1.00005,1.00005
app_47,800.834,21389.6,7867.1,132.9,9.32818,2.97843e+10,1.01306,0.950526,839,3.30937,24,1.00005,1.00005
app_48,59.796,20592.6,7969.8,30.2,14.2797,8.55064e+09,1.00271,0.950526,567,0.61076,36,1.00005,1.00005
app_49,420.857,21300.8,7708.6,291.4,9.42968,5.46544e+10,1.0305,0.950526,805,5.46544,25,1.00005,1.00005
app_5,10.3557,20495.1,7734.5,265.5,406.902,6.44776e+10,1.02578,0.950526,19,0.158812,1042,1.00001,1.00001
app_50,130.891,20768.9,7833.6,166.4,6.87205,6.44179e+10,1.01291,0.950526,1118,9.20255,18,1.00005,1.00005
app_51,883.649,21452.2,7891.1,108.9,8.26146,2.11117e+10,1.0111,0.950526,982,2.63897,21,1.00005,1.00005
app_52,496.154,22485.5,7424.6,575.4,5.83405,1.67367e+11,1.05375,0.950526,1297,27.8945,16,1.00005,1.00005
app_53,424.194,21319.7,7843.1,156.9,6.51412,4.61012e+10,1.01404,0.950526,1233,6.58588,17,1.00005,1.00005
app_54,40.0948,22266.1,7218.9,781.1,8.88751,1.91122e+11,1.07962,0.950526,803,21.2358,25,1.00005,1.00005
app_55,809.415,20954.1,7907.1,92.9,9.47522,2.70423e+10,1.0083,0.950526,831,3.0047,24,1.00005,1.00005
app_56,988.455,22764.9,7443.3,556.7,7.06866,1.57316e+11,1.05255,0.950526,1053,22.4737,19,1.00006,1.00006
app_57,369.037,20784.9,7765,235,18.0735,5.69509e+10,1.02276,0.950526,435,3.16394,46,1.00006,1.00006
app_58,598.314,21663.5,7550.5,449.5,12.1142,1.23432e+11,1.04249,0.950526,600,10.286,33,1.00006,1.00006
app_59,140.913,22234.6,7385.4,614.6,5.99574,1.83264e+11,1.05699,0.950526,1173,30.5439,17,1.00006,1.00006
app_6,6.74296,18913.6,7908.9,91.1,721.802,1.30689e+10,1.00985,0.950526,11,0.018101,1706,1.00001,1.00001
app_60,221.829,22564.9,7383.3,616.7,7.38053,1.65507e+11,1.05977,0.950526,957,23.6439,21,1.00006,1.00006
app_7,2.40856,20402.2,7255.3,744.7,603.137,1.94534e+11,1.07385,0.950526,12,0.32261,1546,1.00001,1.00001
app_8,5.3505,18616.5,7579.6,420.4,1517.77,9.31786e+10,1.04265,0.950526,5,0.0613825,3528,1.00001,1.00001
app_9,5.52179,19224.8,7549.9,450.1,756.845,1.11961e+11,1.04413,0.950526,10,0.147901,1814,1.00001,1.00001
