app_id,start_app,end_app,effective_cpu,effective_io,effective_iter,total_bytes,stretch,utilization,Tcomp,Tio,iterations,priority,group_id
app_1,12.6352,18837.9,7826.7,138.762,653.922,1.13358e+11,1.00755,0.965142,12,0.173331,1534,0.1,1
app_10,6.42005,19929.1,7842,101.61,871.611,7.7199e+10,1.0102,0.965142,9,0.0886326,2174,0.1,1
app_11,7.93443,19104.3,7697.3,257.763,855.801,2.08983e+11,1.01185,0.965142,9,0.244139,2042,0.1,1
app_12,2.22787,18963,7671.8,282.896,957.541,2.14412e+11,1.01443,0.965142,8,0.223812,2276,0.1,1
app_13,1.26625,19691,7855,93.2354,873.447,5.66557e+10,1.01117,0.965142,9,0.0648962,2148,0.1,1
app_14,1.68457,19342.6,7888.5,69.02,658.286,3.92404e+10,1.00911,0.965142,12,0.0596359,1591,0.1,1
app_15,8.07966,18638.1,7755.4,188.213,969.395,1.23072e+11,1.01543,0.965142,8,0.126878,2259,0.1,1
app_16,6.62693,19774,7873.4,80.3405,716.866,5.43087e+10,1.00912,0.965142,11,0.0757444,1768,0.1,1
app_17,9.63042,18688.5,7766.3,185.678,776.969,1.47206e+11,1.01093,0.965142,10,0.189454,1812,0.1,1
app_18,10.4009,18559.4,7730.2,224.473,773.94,1.65422e+11,1.01322,0.965142,10,0.213723,1793,0.1,1
app_19,1.1885,17093,7563.6,280.161,2522.31,1.9023e+11,1.03175,0.965142,3,0.0754284,5399,0.1,1
app_2,3.72626,19541.9,7787.9,167.506,781.933,1.39299e+11,1.00918,0.965142,10,0.178132,1907,0.1,1
app_20,3.53777,18468.7,7708.8,178.682,1925.46,5.60001e+10,1.03029,0.965142,4,0.0290909,4449,0.1,1
app_21,91.8212,20326.9,7828.17,102.423,81.3984,6.54304e+10,1.01348,0.965142,96,0.804769,206,0.01,2
app_22,140.836,20678.1,7692.6,275.896,48.8252,1.83377e+11,1.01575,0.965142,156,3.7424,126,0.01,2
app_23,146.48,20272.7,7871.1,79.6043,53.4979,4.88539e+10,1.01011,0.965142,147,0.921771,135,0.01,2
app_24,72.1572,20167.2,7858.8,47.9383,108.794,2.95559e+10,1.01415,0.965142,72,0.271155,274,0.01,2
app_25,111.694,20551.2,7926.3,15.4657,49.471,8.91838e+09,1.00816,0.965142,158,0.182008,127,0.01,2
app_26,76.5354,20182.8,7918.1,7.49853,87.0946,1.36832e+08,1.01033,0.965142,91,0.00157278,218,0.01,2
app_27,58.9308,20342.9,7613.3,279.626,122.433,1.85093e+11,1.02585,0.965142,62,1.50482,311,0.01,2
app_28,95.907,20436.6,7755.3,197.849,79.5686,1.30751e+11,1.01445,0.965142,97,1.65507,202,0.01,2
app_29,105.1,20316.6,7757.5,213.537,59.0774,1.41471e+11,1.01279,0.965142,132,2.39781,149,0.01,2
app_3,6.79417,18632.5,7669.6,279.325,958.811,2.06926e+11,1.01568,0.965142,8,0.215773,2232,0.1,1
app_30,20.466,20229.6,7728.4,183.897,105.17,1.22579e+11,1.01898,0.965142,73,1.15641,267,0.01,2
app_31,65.7559,20104.2,7890.4,42.9511,81.434,2.65046e+10,1.0105,0.965142,97,0.327218,204,0.01,2
app_32,7.55706,20289.1,7730.5,223.527,45.4109,1.50778e+11,1.01506,0.965142,171,3.35063,115,0.01,2
app_33,34.3802,20127.6,7662.7,263.831,78.2069,1.76176e+11,1.02055,0.965142,99,2.25866,196,0.01,2
app_34,47.9886,20134.9,7806.5,138.158,65.6368,9.18488e+10,1.01287,0.965142,120,1.39165,165,0.01,2
app_35,96.4926,20320.8,7676.6,280.63,70.8132,1.85734e+11,1.01751,0.965142,108,2.61598,180,0.01,2
app_36,13.7056,20107.6,7899.7,69.6591,67.8182,4.50584e+10,1.00695,0.965142,117,0.662623,170,0.01,2
app_37,73.6802,20333.2,7694.7,264.859,50.9426,1.81819e+11,1.01568,0.965142,151,3.56507,130,0.01,2
app_38,81.9408,20186.7,7927.3,17.7859,75.1814,7.95938e+09,1.00816,0.965142,106,0.106125,188,0.01,2
app_39,24.5745,20139.5,7712.3,159.769,142.978,1.02604e+11,1.02368,0.965142,54,0.717511,360,0.01,2
app_4,3.37118,19698.7,7822.2,105.453,1113.98,3.99155e+10,1.01754,0.965142,7,0.0358308,2749,0.1,1
app_40,1.08527,20063.5,7865.6,60.4902,95.423,3.64686e+10,1.01239,0.965142,83,0.38388,238,0.01,2
app_41,888.386,21778.5,7494.7,368.823,5.23926,1.75125e+11,1.04305,0.965142,1403,35.0251,14,0.001,3
app_42,654.037,21733.2,7271.9,376.726,10.0067,1.77199e+11,1.07396,0.965142,734,17.7199,27,0.001,3
app_43,331.844,21328.7,7509.4,227.931,10.7481,1.08576e+11,1.05015,0.965142,723,9.87052,28,0.001,3
app_44,230.002,21736.4,7438.1,109.737,16.8358,4.95133e+10,1.06843,0.965142,436,3.09458,46,0.001,3
app_45,1057.91,22806,7637.3,219.134,5.83985,9.75089e+10,1.03429,0.965142,1288,16.2515,16,0.001,3
app_46,637.872,21285.3,7482.9,398.65,5.769,1.86319e+11,1.04313,0.965142,1308,31.0531,15,0.001,3
app_47,702.28,22545.9,7711.5,267.284,5.39009,1.26135e+11,1.02072,0.965142,1364,25.2271,15,0.001,3
app_48,138.576,21476.1,7577.2,305.694,11.437,1.39834e+11,1.03667,0.965142,653,12.7122,31,0.001,3
app_49,1322.53,21979.8,7808.4,52.1678,5.81203,1.6076e+10,1.02243,0.965142,1354,2.67934,15,0.001,3
app_5,7.16202,20054.9,7848.6,93.2186,870.538,5.52944e+10,1.01216,0.965142,9,0.0634838,2188,0.1,1
app_50,642.697,21944.6,7469.9,371.032,6.34414,1.758e+11,1.04634,0.965142,1190,29.3,17,0.001,3
app_51,529.7,21522.7,7764.3,176.19,9.43017,8.93105e+10,1.01864,0.965142,840,9.92339,24,0.001,3
app_52,112.049,21566.8,7576.9,200.455,9.93603,9.66267e+10,1.04255,0.965142,756,9.66267,27,0.001,3
app_53,226.458,20768,7701.2,84.0485,9.71645,4.83263e+10,1.03232,0.965142,796,5.36958,25,0.001,3
app_54,31.0175,20451.4,7848.1,115.165,31.1424,7.67269e+10,1.00949,0.965142,253,2.47506,79,0.01,2
app_55,522.953,21995,7467.2,274.629,9.20614,1.36281e+11,1.05215,0.965142,841,15.1424,24,0.001,3
app_56,321.221,21414.8,7558.3,416.713,11.7478,1.7573e+11,1.03439,0.965142,639,14.6442,31,0.001,3
app_57,689.398,22520.7,7843.3,127.463,5.61149,4.99264e+10,1.01353,0.965142,1403,8.32106,15,0.001,3
app_58,594.641,21743.5,7580.2,144.161,8.51742,6.34514e+10,1.04662,0.965142,888,7.05016,23,0.001,3
app_59,583.721,21619.8,7728,62.5604,9.42865,2.75714e+10,1.03152,0.965142,816,3.06349,25,0.001,3
app_6,1.97237,19800.5,7846.3,93.266,871.461,5.54553e+10,1.01243,0.965142,9,0.0635955,2159,0.1,1
app_60,971.538,21977.1,7446.5,421.012,5.90887,1.95282e+11,1.04688,0.965142,1221,32.547,16,0.001,3
app_7,6.5875,18583.9,7788.9,133.613,1297.06,6.69391e+10,1.01835,0.965142,6,0.0516107,3015,0.1,1
app_8,1.97874,19856.8,7770.5,186.239,774.489,1.48797e+11,1.01019,0.965142,10,0.191997,1924,0.1,1
app_9,2.0724,19317.3,7823.8,114.35,979.705,8.77244e+10,1.01118,0.965142,8,0.0895147,2362,0.1,1
