app_id,start_app,end_app,effective_cpu,effective_io,effective_iter,total_bytes,stretch,utilization,Tcomp,Tio,iterations,priority,group_id
app_1,1.93195,25679.3,5353.85,157.797,538.007,1.28873e+11,1.45913,0.850714,10,0.239542,1870,1,1
app_10,7.15864,25848.5,5587.47,34.3082,465.995,8.05803e+09,1.42971,0.850714,12,0.0172919,1635,1,1
app_11,4.98373,27266.4,5050.7,130.099,721.842,8.80856e+10,1.55679,0.850714,7,0.122002,2772,1,1
app_12,2.84354,25565.2,5462.5,151.432,499.001,1.26855e+11,1.43129,0.850714,11,0.254218,1715,1,1
app_13,6.34479,26888.2,5317.39,59.825,589.397,2.96581e+10,1.49615,0.850714,9,0.0502679,2206,1,1
app_14,4.8703,25245.6,4675.83,171.816,934.679,1.15875e+11,1.66955,0.850714,5,0.124063,3279,1,1
app_15,1.28518,25192,5354.04,54.93,594.338,2.34703e+10,1.48768,0.850714,9,0.0394459,2023,1,1
app_16,8.91998,25167.6,5318.44,72.6825,591.385,4.85528e+10,1.49059,0.850714,9,0.0820149,2020,1,1
app_17,6.5331,25803.8,5454.65,140.729,498.049,1.11578e+11,1.43724,0.850714,11,0.223604,1732,1,1
app_18,2.32564,25405.7,5327.77,65.7503,592.116,3.82381e+10,1.49087,0.850714,9,0.0644824,2044,1,1
app_19,0.52807,25886.3,4961.8,77.375,827.352,3.31605e+10,1.60161,0.850714,6,0.0400974,2967,1,1
app_2,7.47918,26733.3,5258.48,46.126,657.414,7.79081e+09,1.5191,0.850714,8,0.0118401,2434,1,1
app_20,11.7414,25532.9,5683.34,126.913,406.004,1.07799e+11,1.38142,0.850714,14,0.265514,1392,1,1
app_21,31.2813,21611,7209.7,84.2528,74.1753,8.11511e+10,1.09727,0.850714,97,1.09664,202,1,1
app_22,144.307,21059.4,7401.5,154.481,50.6649,1.51492e+11,1.05918,0.850714,146,3.02983,134,1,1
app_23,89.9632,21625.7,7378,56.1285,73.2126,5.15913e+10,1.07678,0.850714,101,0.70673,196,1,1
app_24,48.5347,21966.5,7191.8,63.7774,103.839,5.92889e+10,1.10328,0.850714,69,0.570085,285,1,1
app_25,46.2483,21804.8,7056.5,87.4309,100.864,8.19042e+10,1.1207,0.850714,70,0.810933,281,1,1
app_26,123.087,21164.1,7359.16,169.255,56.7488,1.66258e+11,1.06306,0.850714,130,2.94173,150,1,1
app_27,18.1137,21670.3,7172.5,137.23,79.743,1.34164e+11,1.09489,0.850714,90,1.69828,218,1,1
app_28,19.7842,21359.3,7403.81,125.343,57.848,1.2258e+11,1.06293,0.850714,126,2.15052,156,1,1
app_29,68.2582,21215.3,7422.72,148.745,52.6867,1.46148e+11,1.05696,0.850714,140,2.7575,140,1,1
app_3,5.28452,25490.3,5525.47,46.4426,502.07,2.00528e+10,1.44261,0.850714,11,0.0398664,1730,1,1
app_30,63.3637,21023.9,7463.9,38.274,61.8802,3.57166e+10,1.06672,0.850714,122,0.585518,162,1,1
app_31,94.8012,21672.9,7267.7,54.1584,70.5929,4.99066e+10,1.09325,0.850714,103,0.70291,192,1,1
app_32,94.4858,21510.2,7332.3,147.107,70.4434,1.42765e+11,1.07022,0.850714,104,2.01078,189,1,1
app_33,37.1512,21068.8,7425.05,95.8962,68.2222,9.22041e+10,1.06422,0.850714,109,1.33629,180,1,1
app_34,13.2117,21488,7170.2,138.896,75.665,1.34986e+11,1.09511,0.850714,94,1.77613,208,1,1
app_35,96.5522,21381.1,7316.8,114.56,64.0808,1.114e+11,1.07698,0.850714,115,1.73685,171,1,1
app_36,8.60048,23621.4,6496,103.484,209.108,9.34016e+10,1.21407,0.850714,31,0.446897,632,1,1
app_37,76.5623,21197.4,7494.48,6.38564,66.4579,3.63137e+09,1.06694,0.850714,113,0.0550208,176,1,1
app_38,29.0854,21567.8,7321.13,194.786,73.8919,1.90307e+11,1.06504,0.850714,98,2.60694,199,1,1
app_39,85.069,21573.6,7310.6,202.209,67.4036,1.99079e+11,1.06529,0.850714,109,2.97133,179,1,1
app_4,4.72894,24978.6,5579.63,165.536,430.005,1.41367e+11,1.39836,0.850714,13,0.32876,1436,1,1
app_40,109.588,21361.8,7337.77,151.106,62.5321,1.48615e+11,1.06861,0.850714,116,2.39702,168,1,1
app_41,658.523,22327.6,7725.6,191.944,6.78536,1.91696e+11,1.01045,0.850714,1070,27.3852,19,1,1
app_42,863.052,21056.2,7750.3,203.434,8.59714,2.03169e+11,1.00585,0.850714,932,25.3961,21,1,1
app_43,772.94,21346.7,7726.1,197.656,5.69693,1.9734e+11,1.00966,0.850714,1318,32.8899,15,1,1
app_44,356.987,20766.7,7897.8,77.2425,7.69889,7.69058e+10,1.00317,0.850714,1014,9.61322,20,1,1
app_45,269.023,21455.4,7785.8,185.24,6.09843,1.84967e+11,1.00367,0.850714,1283,30.8279,16,1,1
app_46,973.345,22805.8,7976.3,4.76785,6.04592,4.58283e+09,1.0024,0.850714,1327,0.763806,16,1,1
app_47,915.115,21879.7,7834.1,96.672,6.14005,9.63765e+10,1.00877,0.850714,1300,13.7681,16,1,1
app_48,1042.67,21750.7,7831.83,75.403,6.525,7.50596e+10,1.01178,0.850714,1197,10.7228,17,1,1
app_49,1022.19,22084.1,7925.2,50.8462,7.48612,5.04306e+10,1.00306,0.850714,1031,6.30382,20,1,1
app_5,1.78359,26485.4,5299.21,108.617,588.108,7.3888e+10,1.4889,0.850714,9,0.125447,2150,1,1
app_50,384.477,20329.6,7931,49.1316,13.0438,4.83804e+10,1.00258,0.850714,602,3.72157,33,1,1
app_51,113.024,21096.1,7854.8,136.784,5.79752,1.36552e+11,1.00108,0.850714,1332,22.7587,15,1,1
app_52,80.729,20597.4,7777.8,181.852,9.31778,1.81371e+11,1.00513,0.850714,827,20.1523,24,1,1
app_53,280.595,20452.3,7920.8,9.14996,9.12114,8.76193e+09,1.00888,0.850714,872,0.973548,23,1,1
app_54,66.2347,20756.5,7844.1,125.331,6.56406,1.25043e+11,1.00387,0.850714,1194,20.8406,17,1,1
app_55,897.196,21562.8,7834,86.1237,8.99225,8.56541e+10,1.01015,0.850714,887,9.51712,23,1,1
app_56,985.589,22006.9,7947.7,3.04727,6.86259,2.79334e+09,1.00623,0.850714,1157,0.399048,18,1,1
app_57,33.1168,21018.3,7824.1,38.4492,11.4909,3.77973e+10,1.01757,0.850714,678,3.14977,30,1,1
app_58,168.834,20872.4,7789.2,141.101,10.4841,1.40706e+11,1.00884,0.850714,740,12.7915,27,1,1
app_59,351.527,20534.3,7758.4,128.483,15.5133,1.27755e+11,1.01444,0.850714,507,7.98466,39,1,1
app_6,11.3731,26120.5,5562.77,103.416,460.995,8.36812e+10,1.41682,0.850714,12,0.181521,1640,1,1
app_60,79.3646,20576.6,7848.1,114.003,7.83652,1.13611e+11,1.00481,0.850714,1014,14.2014,20,1,1
app_7,0.80608,26181.7,5327.33,79.1977,590.384,5.58464e+10,1.48611,0.850714,9,0.0944948,2120,1,1
app_8,3.79812,25684.5,4678.51,153.095,936.669,9.51779e+10,1.67585,0.850714,5,0.101686,3359,1,1
app_9,0.675236,26232.8,5249.04,69.5507,655.999,3.84344e+10,1.51301,0.850714,8,0.058589,2369,1,1
