app_id,Tcomp,Tio,iter,witer,alpha_io,compute_size,io_size,mu,desyn_time
1,10.088416840986412,0.127204223285677,1958,10.215621064272089,0.012451932436154911,10e9,127204223.28567699,10,5.852071588514114
2,11.312661703933301,0.14585021587777053,1746,11.458511919811071,0.012728547729274021,11e9,145850215.87777054,10,9.67404517822151
3,10.044939408464728,0.06013466466804717,1980,10.105074073132775,0.005950937542153437,10e9,60134664.66804717,10,4.049004741648646
4,9.59848246648294,0.07346527104656693,2068,9.671947737529507,0.007595705957084924,9e9,73465271.04656693,10,8.884564948951073
5,10.800586635232996,0.22190316814888053,1815,11.022489803381877,0.020131855153161227,10e9,221903168.14888054,10,7.19544814904213
6,10.034201814077344,0.191773817796824,1956,10.225975631874167,0.0187535962044608,10e9,191773817.796824,10,3.898747693760035
7,8.737606576614377,0.1527501239220952,2250,8.890356700536472,0.017181551772031574,8e9,152750123.92209518,10,1.3457383979590725
8,11.637017308619935,0.1274203193031185,1701,11.764437627923053,0.010830974104591676,11e9,127420319.30311851,10,5.31107601142521
9,9.384349117870526,0.05087713610697067,2120,9.435226253977497,0.005392253957399591,9e9,50877136.106970675,10,6.347526749586727
10,8.503740409762154,0.09814878220940121,2326,8.601889191971555,0.011410142588328958,8e9,98148782.2094012,10,3.886584808450125
11,10.959897035816494,0.12378421329836672,1805,11.08368124911486,0.011168149869724203,10e9,123784213.29836673,10,8.633666211721744
12,10.752060557825638,0.22835277138655946,1822,10.980413329212197,0.020796373008933253,10e9,228352771.38655946,10,9.513639458726958
13,10.18943207740609,0.1834304828989251,1929,10.372862560305016,0.01768368970788053,10e9,183430482.8989251,10,1.9991911031614045
14,11.169845010358337,0.24334944109078566,1753,11.413194451449122,0.02132176421999783,11e9,243349441.09078565,10,4.9979164240467
15,9.475895088331063,0.2145811982411145,2064,9.690476286572178,0.02214351409522086,9e9,214581198.2411145,10,2.1146100647651633
16,94.78548693941568,1.6632545472220142,208,96.44874148663769,0.017244958530147816,94e9,1663254547.2220142,100,11.89630363489725
17,90.05339829649431,0.7290469916016634,221,90.78244528809597,0.008030704496756502,90e9,729046991.6016635,100,36.46006582081521
18,86.79278872743787,0.8731569305237658,229,87.66594565796163,0.009960046902710478,86e9,873156930.5237658,100,51.6419117350645
19,104.415098397571,0.11747046522273773,192,104.53256886279374,0.001123769046343115,104e9,117470465.22273773,100,93.26135436155197
20,88.0772843800446,1.4185194471057294,224,89.49580382715033,0.01585012242412413,88e9,1418519447.1057293,100,60.37678657892841
21,97.29345672192814,1.5026062567036287,203,98.79606297863177,0.01520917141231247,97e9,1502606256.7036288,100,60.76392777305092
22,105.16513075153772,0.5043236661135926,190,105.66945441765131,0.004772653260045118,105e9,504323666.11359257,100,98.4907838430316
23,101.36124835628665,2.4509272843624648,193,103.81217564064912,0.023609246884936392,101e9,2450927284.362465,100,73.37914106820693
24,103.82016032443356,0.3143190891254931,193,104.13447941355905,0.0030183959327938653,103e9,314319089.1254931,100,38.7150773625992
25,105.56370245057042,2.4743757583699426,186,108.03807820894036,0.02290281166964689,105e9,2474375758.3699427,100,15.101985812554597
26,102.73009287387518,1.3037378761941993,193,104.03383075006938,0.012531864555927927,102e9,1303737876.1941993,100,71.89646843625644
27,98.25625675437624,1.7605349422327388,200,100.01679169660898,0.017602393681784425,98e9,1760534942.2327387,100,57.540465327155
28,124.87031312604802,1.1184404747530272,159,125.98875360080105,0.008877304067129974,124e9,1118440474.7530272,100,20.678514542855627
29,92.1546484709212,1.4002699549981987,214,93.5549184259194,0.014967357981365668,92e9,1400269954.9981987,100,51.51047139109418
30,116.44573552159238,0.5663664719561929,171,117.01210199354857,0.004840238422410524,116e9,566366471.956193,100,37.72387393463956
31,228.9823087899173,0.2161227807794536,88,229.19843157069675,0.000942950522385185,228e9,216122780.7794536,250,117.06895448958589
32,268.3841279635484,6.171483337786577,73,274.555611301335,0.022478081247493224,268e9,6171483337.786577,250,224.56724357805535
33,263.1181092963341,3.0953362955236337,76,266.21344559185775,0.011627272576867567,263e9,3095336295.5236335,250,236.33843339138838
34,249.60581440800405,3.4209666714044396,80,253.0267810794085,0.013520176231190416,249e9,3420966671.4044394,250,110.84258685144516
35,221.849089822487,5.229332994811245,89,227.07842281729825,0.02302875337045404,221e9,5229332994.811245,250,84.84793468899075
36,226.59222283680583,5.073417469617795,87,231.66564030642363,0.021899740776867894,226e9,5073417469.617795,250,14.977591371370908
37,263.8989547578976,5.753043068866365,75,269.651997826764,0.021335065622478222,263e9,5753043068.866365,250,55.208818228921025
38,237.68319233422727,5.463570994583469,83,243.14676332881075,0.02247026001820557,237e9,5463570994.583468,250,4.692064324556218
39,246.29292876619496,5.020003740049505,80,251.31293250624447,0.019975111069641317,246e9,5020003740.049505,250,10.498744173177256
40,250.08740793465935,0.30942128131909613,80,250.39682921597844,0.0012357236403029946,250e9,309421281.31909615,250,68.57671653873776
41,255.40924005733078,1.7391415454086085,78,257.1483816027394,0.006763182931850431,255e9,1739141545.4086084,250,187.35714158978388
42,289.3910821866981,5.708364534073515,68,295.0994467207716,0.019343867287812545,289e9,5708364534.073515,250,21.00719279566182
43,222.50295223064634,3.3295298087528824,89,225.83248203939922,0.014743361002302606,222e9,3329529808.7528825,250,59.304495121456114
44,223.91263288072602,0.5095880356336344,90,224.42222091635966,0.002270666574606058,223e9,509588035.6336344,250,211.36325179447445
45,253.8205494097814,5.935445785877439,77,259.75599519565884,0.02285008198331137,253e9,5935445785.8774395,250,77.57900863010276
46,943.1002150359307,14.39712283096516,21,957.4973378668958,0.015036201419670726,943e9,14397122830.965158,1000,835.9558159699725
47,1113.1478812261157,9.888821220265937,18,1123.0367024463817,0.00880543013307089,1113e9,9888821220.265938,1000,301.9431786263273
48,1160.9929680506407,7.067615407471658,18,1168.0605834581124,0.006050726741028761,1160e9,7067615407.471658,1000,717.7539758515268
49,859.1580018134977,6.3346181791757905,24,865.4926199926734,0.007319089767893589,859e9,6334618179.175791,1000,862.9100545702269
50,922.8551506560063,13.758327454135431,22,936.6134781101417,0.014689439961825437,922e9,13758327454.135431,1000,393.1223322501036
51,910.9621307031593,7.877953849187853,22,918.8400845523472,0.008573802973589185,910e9,7877953849.187853,1000,284.09597331045717
52,974.0740278858633,16.70131323247652,21,990.7753411183398,0.016856811569033275,974e9,16701313232.476519,1000,77.21108259629955
53,1135.8645438296055,18.974891964402804,18,1154.8394357940083,0.016430762040401437,1135e9,18974891964.402805,1000,43.89448005387873
54,967.0509742681564,0.7737201532344459,21,967.8246944213909,0.0007994424586334931,967e9,773720153.2344459,1000,544.5230962093138
55,817.8842463030254,8.743106913400565,25,826.627353216426,0.010576842006716734,817e9,8743106913.400564,1000,467.2890825950114
56,1027.386185568094,13.107767563515756,20,1040.49395313161,0.012597639346259402,1027e9,13107767563.515757,1000,80.64872677321767
57,817.6820940143791,18.78397864673574,24,836.4660726611148,0.02245635449023868,817e9,18783978646.73574,1000,809.615897457094
58,1008.2149530486205,6.135183158511548,20,1014.350136207132,0.006048387967346547,1008e9,6135183158.511548,1000,257.03106290787383
59,967.1541109509709,14.596679818162782,21,981.7507907691337,0.014868009229437233,967e9,14596679818.162783,1000,880.9337932583295
60,887.167149940492,16.56057323011867,23,903.7277231706106,0.018324737424252144,887e9,16560573230.118671,1000,568.8016124190368
