app_id,start_app,end_app,effective_cpu,effective_io,effective_iter,total_bytes,stretch,utilization,Tcomp,Tio,iterations,priority,group_id
app_1,6.45004,19743.1,7690.4,309.6,769.267,7.53926e+10,1.03016,0.952106,10,0.0980397,1897,1,1
app_10,0.672255,20487.7,7269.9,730.1,807.354,1.9198e+11,1.07212,0.952106,9,0.237599,2073,1.00001,1.00001
app_11,6.06248,19247.9,7728.6,271.4,862.159,6.18015e+10,1.0269,0.952106,9,0.0716955,2067,1.00001,1.00001
app_12,0.745884,21112.5,7386.6,613.4,672.403,1.60944e+11,1.05995,0.952106,11,0.239499,1780,1.00001,1.00001
app_13,5.90534,18651,7908.8,91.2,876.178,8.83645e+09,1.0104,0.952106,9,0.0100873,2044,1.00001,1.00001
app_14,6.62687,20709.1,7408.7,591.3,673.234,1.50094e+11,1.05837,0.952106,11,0.222691,1746,1.00001,1.00001
app_15,8.4754,20516.1,7559.6,440.399,838.212,1.08115e+11,1.04334,0.952106,9,0.128862,2156,1.00002,1.00002
app_16,0.227664,20882.7,7364.12,635.878,89.8615,1.75034e+11,1.06113,0.952106,82,1.94926,236,1.00002,1.00002
app_17,28.2155,20605,7721.6,278.4,82.4717,8.44235e+10,1.02485,0.952106,94,1.02955,210,1.00002,1.00002
app_18,30.3345,21218.9,7307.1,692.9,80.5993,1.8699e+11,1.06751,0.952106,90,2.30851,215,1.00002,1.00002
app_19,35.3392,20831,7541.7,458.3,82.7743,1.3153e+11,1.04259,0.952106,90,1.5847,217,1.00002,1.00002
app_2,9.41182,20059,7409.3,590.7,822.536,1.54024e+11,1.05774,0.952106,9,0.187378,2069,1,1
app_20,31.8773,20917.5,7457.8,542.2,77.2693,1.50725e+11,1.05145,0.952106,96,1.95747,203,1.00002,1.00002
app_21,17.8161,20299.6,7810.6,189.4,96.1648,4.80181e+10,1.01799,0.952106,81,0.500189,245,1.00002,1.00002
app_22,9.27658,20217.2,7894.9,105.1,91.8628,2.65926e+10,1.00991,0.952106,86,0.28905,232,1.00002,1.00002
app_23,80.2146,20448.4,7934.5,65.5,66.7602,1.69272e+10,1.00611,0.952106,118,0.256473,170,1.00002,1.00002
app_24,98.6587,21042.6,7552.9,447.1,76.3381,1.23383e+11,1.04217,0.952106,99,1.62347,199,1.00002,1.00002
app_25,44.6424,20859.6,7452.2,547.8,93.4806,1.5845e+11,1.05116,0.952106,79,1.70376,246,1.00003,1.00003
app_26,22.2083,20827.7,7580.1,419.9,77.8454,1.19674e+11,1.03899,0.952106,97,1.53428,203,1.00003,1.00003
app_27,81.1552,21273.7,7326.1,673.9,81.6566,1.9276e+11,1.06399,0.952106,89,2.35073,219,1.00003,1.00003
app_28,14.2383,21180.3,7309.66,690.34,78.3331,1.97853e+11,1.0656,0.952106,94,2.51899,207,1.00003,1.00003
app_29,64.4687,20821.1,7563.5,436.5,73.7803,1.16471e+11,1.04167,0.952106,102,1.59549,192,1.00003,1.00003
app_3,4.88768,19962.4,7272.7,727.3,906.787,1.92465e+11,1.07164,0.952106,8,0.2122,2269,1,1
app_30,86.723,21357.7,7384.4,615.6,61.8467,1.93238e+11,1.05574,0.952106,119,3.11674,164,1.00003,1.00003
app_31,10.9444,20230.7,7924.8,75.2,38.9005,2.09102e+10,1.00683,0.952106,205,0.536159,98,1.00003,1.00003
app_32,20.2335,21082.7,7569.8,430.2,28.9399,1.20493e+11,1.04027,0.952106,261,4.15495,76,1.00003,1.00003
app_33,199.378,21498.5,7423.4,576.6,27.6404,1.53139e+11,1.05589,0.952106,266,5.46924,74,1.00003,1.00003
app_34,2.29235,20519.8,7652.4,347.6,43.4689,9.23962e+10,1.03295,0.952106,176,2.09991,112,1.00003,1.00003
app_35,67.0738,21614.2,7401.5,598.5,28.7045,1.54099e+11,1.05882,0.952106,253,5.50355,78,1.00004,1.00004
app_36,203.533,21553.4,7324.3,675.7,28.4076,1.76497e+11,1.06655,0.952106,256,6.30346,77,1.00004,1.00004
app_37,114.044,20220.8,7959.9,40.1,34.9019,9.85125e+09,1.0038,0.952106,229,0.281464,87,1.00004,1.00004
app_38,15.0253,20351.5,7897,103,28.2522,2.73614e+10,1.00955,0.952106,281,0.977192,71,1.00004,1.00004
app_39,151.675,20390.9,7892.9,107.1,33.7438,2.79757e+10,1.00999,0.952106,235,0.822815,85,1.00004,1.00004
app_4,9.39156,19188,7467.5,532.5,829.166,1.33644e+11,1.05247,0.952106,9,0.161211,1993,1,1
app_40,36.5391,21153.7,7560.6,439.4,32.0505,1.42147e+11,1.03859,0.952106,235,4.44208,84,1.00004,1.00004
app_41,239.218,21008.8,7759.4,240.6,31.754,6.99391e+10,1.0218,0.952106,244,2.1856,82,1.00004,1.00004
app_42,50.1879,20778.2,7744.5,255.5,34.8903,7.83696e+10,1.02264,0.952106,218,2.23913,91,1.00004,1.00004
app_43,192.147,21263.9,7352.9,647.1,29.3448,1.50646e+11,1.06616,0.952106,251,5.02154,78,1.00004,1.00004
app_44,132.884,21234.3,7596,404,38.3201,1.45788e+11,1.03335,0.952106,197,3.73816,100,1.00004,1.00004
app_45,223.944,20981.8,7585.1,414.9,29.2006,1.16641e+11,1.03873,0.952106,259,4.02212,76,1.00004,1.00004
app_46,145.788,20789.8,7893,107,7.6962,1.89827e+10,1.01112,0.952106,1024,2.37283,20,1.00005,1.00005
app_47,352.989,21267.1,7891.2,108.8,7.61365,3.12714e+10,1.00979,0.952106,1009,3.90892,20,1.00005,1.00005
app_48,835.372,22369.8,7496,504,8.57991,1.46242e+11,1.04681,0.952106,885,16.2492,23,1.00005,1.00005
app_49,571.907,22425.2,7483.4,516.6,7.12012,1.2125e+11,1.05199,0.952106,1013,17.3214,20,1.00005,1.00005
app_5,5.38573,20009.9,7283.4,716.6,810.625,1.90139e+11,1.07044,0.952106,9,0.234449,2032,1.00001,1.00001
app_50,362.141,20819.2,7994.5,5.5,8.17843,1.67485e+09,1.00048,0.952106,967,0.186094,21,1.00005,1.00005
app_51,281.739,21839.3,7343.5,656.5,6.63351,1.59812e+11,1.0662,0.952106,1106,22.8303,18,1.00005,1.00005
app_52,185.923,20335.8,7952,48,8.03104,1.3583e+10,1.00432,0.952106,1001,1.69787,20,1.00005,1.00005
app_53,834.722,21613.2,7844.7,155.3,8.06654,4.67005e+10,1.01376,0.952106,987,5.83757,21,1.00005,1.00005
app_54,666.717,21472.6,7516.5,483.5,8.75415,1.38481e+11,1.04507,0.952106,861,15.3868,23,1.00005,1.00005
app_55,629.045,20939.3,7768,232,7.50348,5.36055e+10,1.02281,0.952106,1060,6.70068,19,1.00005,1.00005
app_56,498.572,20674.2,7980.5,19.5,7.47297,4.90641e+09,1.00183,0.952106,1069,0.700916,19,1.00006,1.00006
app_57,783.646,21405.1,7795.4,204.6,7.85962,7.28689e+10,1.01674,0.952106,993,9.10861,20,1.00006,1.00006
app_58,391.809,21253.2,7710.4,289.6,8.33479,9.03393e+10,1.02554,0.952106,925,10.0377,22,1.00006,1.00006
app_59,650.598,21303.1,7880.8,119.2,7.58677,3.11726e+10,1.01113,0.952106,1032,4.45322,20,1.00006,1.00006
app_6,5.27235,20996.4,7320.28,679.725,813.963,1.74796e+11,1.06737,0.952106,9,0.214917,2144,1.00001,1.00001
app_60,104.047,20637.6,7991.1,8.9,8.08761,2.07553e+09,1.00085,0.952106,970,0.259442,21,1.00006,1.00006
app_7,0.300065,19072.3,7480.2,519.8,830.612,1.30973e+11,1.05109,0.952106,9,0.157609,1982,1.00001,1.00001
app_8,1.31069,19414.7,7708.9,291.1,774.883,7.07668e+10,1.02832,0.952106,10,0.0913119,1874,1.00001,1.00001
app_9,3.92395,20405.7,7729.2,270.8,859.516,6.31039e+10,1.02665,0.952106,9,0.0734621,2191,1.00001,1.00001
