app_id,start_app,end_app,effective_cpu,effective_io,effective_iter,total_bytes,stretch,utilization,Tcomp,Tio,iterations,priority,group_id
app_1,10.1281,19021.6,7674.1,302.571,766.12,2.37757e+11,1.01114,0.969222,10,0.310388,1824,0.1,1
app_10,6.00841,19836.9,7701.7,259.618,854.093,2.15454e+11,1.01046,0.969222,9,0.252288,2121,0.1,1
app_11,4.28375,19662.4,7892.1,73.8594,717.463,4.28114e+10,1.0082,0.969222,11,0.0597091,1766,0.1,1
app_12,7.81303,19489.3,7878.2,83.0604,783.491,5.23797e+10,1.00875,0.969222,10,0.0668109,1916,0.1,1
app_13,9.67668,18373,7782,177.116,867.374,1.38299e+11,1.01006,0.969222,9,0.159515,1987,0.1,1
app_14,7.42833,20094.8,7870.2,92.3811,786.85,7.01276e+10,1.00752,0.969222,10,0.0891074,1976,0.1,1
app_15,7.20397,19438.6,7865.2,94.9127,984.478,3.59274e+10,1.01251,0.969222,8,0.0365116,2390,0.1,1
app_16,69.0361,20194.5,7967.8,18.9074,69.4008,9.80389e+09,1.00281,0.969222,115,0.140056,174,0.01,2
app_17,75.01,20171.9,7922,45.0824,79.4981,2.79078e+10,1.0063,0.969222,100,0.353263,199,0.01,2
app_18,20.5109,20015.4,7944.9,39.5578,78.6593,2.16354e+10,1.0042,0.969222,101,0.273865,197,0.01,2
app_19,96.5989,20090.7,7786.8,194.091,79.7696,1.28276e+11,1.01073,0.969222,99,1.60345,199,0.01,2
app_2,2.4269,18678,7762.3,197.359,865.304,1.62934e+11,1.00943,0.969222,9,0.188363,2019,0.1,1
app_20,58.7205,20107,7692.03,267.838,72.1325,1.76889e+11,1.01666,0.969222,107,2.44218,182,0.01,2
app_21,88.8133,20376.1,7733.4,231.384,80.3773,1.50848e+11,1.01468,0.969222,96,1.8856,204,0.01,2
app_22,47.7743,20377.6,7919.7,20.7711,87.6444,8.74544e+09,1.00903,0.969222,89,0.100522,225,0.01,2
app_23,16.6082,20138.9,7867.4,91.4497,98.7351,5.77079e+10,1.00945,0.969222,79,0.588856,250,0.01,2
app_24,82.9649,20259.2,7682.9,293.525,73.6791,1.8283e+11,1.01707,0.969222,104,2.47067,187,0.01,2
app_25,91.4124,20091.6,7904.9,66.3901,70.7926,4.42287e+10,1.0064,0.969222,112,0.622939,177,0.01,2
app_26,33.5992,20022.3,7896.9,58.222,80.9754,3.15099e+10,1.00903,0.969222,98,0.389011,202,0.01,2
app_27,110.505,20194.3,7858.5,122.073,70.0132,7.95046e+10,1.00781,0.969222,113,1.13578,175,0.01,2
app_28,91.7926,20290.7,7809.6,153.666,80.9458,9.35027e+10,1.01226,0.969222,96,1.15435,205,0.01,2
app_29,23.4739,20162.8,7899.4,66.8818,78.3667,4.39304e+10,1.00713,0.969222,101,0.56321,197,0.01,2
app_3,9.29987,19403.8,7888.4,71.0646,789.559,1.14567e+10,1.01268,0.969222,10,0.0145022,1910,0.1,1
app_30,20.9858,20087.6,7784.3,196.385,88.0199,1.27665e+11,1.01113,0.969222,90,1.45074,218,0.01,2
app_31,77.3309,20345.6,7838.6,113.05,31.4747,5.41249e+10,1.01359,0.969222,248,1.74597,80,0.004,2.39794
app_32,85.4887,20381.2,7744.61,142.644,37.581,8.86469e+10,1.02129,0.969222,208,2.33281,95,0.004,2.39794
app_33,289.74,20703.4,7902,46.1563,25.9551,2.19898e+10,1.00959,0.969222,303,0.845761,66,0.004,2.39794
app_34,43.3389,20690.6,7560.3,364.52,32.3524,2.14715e+11,1.02894,0.969222,231,6.70983,84,0.004,2.39794
app_35,86.5682,20662.3,7714.46,241.58,29.1267,1.34193e+11,1.01928,0.969222,264,4.58518,75,0.004,2.39794
app_36,201.868,20455.1,7927.5,13.1719,38.1549,4.51964e+09,1.00857,0.969222,207,0.118938,97,0.004,2.39794
app_37,146.746,20818.8,7661.7,260.214,29.4771,1.53543e+11,1.02364,0.969222,257,5.11811,77,0.004,2.39794
app_38,224.006,20552,7781.14,171.29,34.2608,9.83153e+10,1.0153,0.969222,227,2.80901,87,0.004,2.39794
app_39,31.8492,20263.4,7676.51,280.736,35.7538,1.60164e+11,1.02084,0.969222,218,4.45885,90,0.004,2.39794
app_4,4.51388,19040.3,7797.7,168.332,780.675,1.37149e+11,1.00821,0.969222,10,0.175607,1858,0.1,1
app_40,58.7142,20648.9,7735.2,177.916,31.7517,9.41454e+10,1.0218,0.969222,243,2.94204,82,0.004,2.39794
app_41,140.256,20621.9,7631.2,284.362,36.8143,1.62275e+11,1.0265,0.969222,208,4.38582,94,0.004,2.39794
app_42,69.6174,20591.5,7865.1,72.9045,32.2061,3.94664e+10,1.01207,0.969222,242,1.23333,83,0.004,2.39794
app_43,185.82,20876.9,7764,206.606,30.0259,1.16101e+11,1.01522,0.969222,258,3.87004,77,0.004,2.39794
app_44,153.218,20907.2,7642.8,252.712,41.3888,1.41338e+11,1.02773,0.969222,182,3.36518,108,0.004,2.39794
app_45,254.277,20897.3,7642.2,302.003,29.4012,1.62793e+11,1.02498,0.969222,260,5.61357,76,0.004,2.39794
app_46,842.043,22368.8,7431.4,404.687,7.78564,1.81881e+11,1.0508,0.969222,950,25.983,21,0.001,3
app_47,966.834,22145.2,7771,146.185,7.53717,6.65561e+10,1.02073,0.969222,1028,8.31951,20,0.001,3
app_48,517.579,20988.3,7776.4,217.578,7.56449,9.3479e+10,1.01653,0.969222,1045,13.3541,19,0.001,3
app_49,1043.18,22507,7563.4,425.797,7.08465,2.08335e+11,1.02937,0.969222,1077,29.7622,19,0.001,3
app_5,0.761272,19906.9,7818.2,148.56,781.838,8.45276e+10,1.01231,0.969222,10,0.108092,1945,0.1,1
app_50,174.824,21647.8,7557.4,287.354,8.1358,1.15942e+11,1.04257,0.969222,906,14.4928,22,0.001,3
app_51,1058.55,22671.2,7798,177.956,6.4975,7.84838e+10,1.01568,0.969222,1218,11.212,17,0.001,3
app_52,389.686,21950.5,7488.3,443.316,7.74349,2.03487e+11,1.04007,0.969222,959,25.4358,21,0.001,3
app_53,407.5,21624.6,7529.53,404.146,6.99103,2.03888e+11,1.03447,0.969222,1042,29.1269,19,0.001,3
app_54,587.663,21211.3,7690.1,54.6722,7.59739,2.76214e+10,1.03658,0.969222,1002,3.94591,20,0.001,3
app_55,845.697,22798.4,7607.9,309.289,6.56185,1.09026e+11,1.03668,0.969222,1149,18.171,18,0.001,3
app_56,246.952,21536.1,7555.15,193.919,8.30448,6.82753e+10,1.0494,0.969222,920,7.75621,22,0.001,3
app_57,419.068,21693.3,7486.3,444.723,7.40284,1.90502e+11,1.0421,0.969222,996,27.2145,20,0.001,3
app_58,258.544,21773.1,7717.1,207.359,7.97153,7.70287e+10,1.02641,0.969222,961,9.62859,21,0.001,3
app_59,736.55,22203.3,7556.9,314.863,6.92174,1.73749e+11,1.03484,0.969222,1071,24.8213,19,0.001,3
app_6,2.76913,20113.2,7896.92,72.1802,792.124,1.07547e+10,1.01168,0.969222,10,0.0135649,1990,0.1,1
app_60,856.895,21473.3,7785.9,142.326,7.32258,5.29252e+10,1.02056,0.969222,1047,6.61565,19,0.001,3
app_7,0.843319,19995.6,7724,245.297,702.731,2.02897e+11,1.00922,0.969222,11,0.288615,1755,0.1,1
app_8,4.04492,19599.9,7788.7,167.726,865.563,1.0798e+11,1.01308,0.969222,9,0.124688,2121,0.1,1
app_9,2.84419,19033.3,7814.1,156.453,778.673,1.12509e+11,1.00926,0.969222,10,0.144613,1857,0.1,1
