app_id,start_app,end_app,effective_cpu,effective_io,effective_iter,total_bytes,stretch,utilization,Tcomp,Tio,iterations,priority,group_id
app_1,4.6883,27028.5,5017.5,157.304,556.939,1.24684e+11,1.55576,0.867938,9,0.223849,2122,1,1
app_10,5.81435,25771.6,5093.5,119.409,508.246,9.97e+10,1.54048,0.867938,10,0.19626,1819,1,1
app_11,10.7049,26378.8,5332.7,57.8582,443.953,4.21551e+10,1.48841,0.867938,12,0.0951583,1620,1,1
app_12,8.83641,27099.5,5129.4,57.8691,514.504,3.45476e+10,1.5492,0.867938,10,0.0672131,1971,1,1
app_13,1.35916,26646.7,5181.35,89.2427,472.251,6.33889e+10,1.52534,0.867938,11,0.134218,1756,1,1
app_14,8.07241,25962.5,4988.7,165.062,552.13,1.37646e+11,1.56057,0.867938,9,0.249358,2001,1,1
app_15,9.05657,25687.2,5167.6,63.9028,517.967,4.19713e+10,1.53563,0.867938,10,0.0810257,1832,1,1
app_16,83.8818,21889.7,7253.6,15.5182,82.2831,1.06667e+10,1.10128,0.867938,88,0.130081,226,1,1
app_17,67.713,21701.2,7216.1,29.9143,77.836,2.56503e+10,1.10471,0.867938,92,0.33312,216,1,1
app_18,8.50158,21602.6,7322.9,5.49416,68.0357,1.62258e+09,1.09222,0.867938,109,0.0238615,182,1,1
app_19,26.7758,21636.5,7282.58,17.1955,84.0041,1.30941e+10,1.09654,0.867938,87,0.154048,228,1,1
app_2,0.251416,26006.4,5080.7,144.593,508.147,1.16341e+11,1.53934,0.867938,10,0.229017,1837,1,1
app_20,38.1688,21555.1,7203.3,142.286,81.8243,1.37826e+11,1.08975,0.867938,89,1.70155,219,1,1
app_21,80.8243,21662.3,7178.7,96.462,88.6488,9.17862e+10,1.10034,0.867938,81,1.03131,242,1,1
app_22,63.2733,21422.1,7181.5,191.795,69.3605,1.8774e+11,1.08559,0.867938,105,2.72086,185,1,1
app_23,34.9522,21756.7,7259.5,166.326,70.4196,1.62289e+11,1.07791,0.867938,102,2.31841,191,1,1
app_24,101.23,21719.8,7248,135.026,70.814,1.31419e+11,1.0841,0.867938,103,1.85097,191,1,1
app_25,16.7049,21705.7,7161.2,185.541,80.6271,1.82112e+11,1.08943,0.867938,89,2.2764,218,1,1
app_26,63.8255,21751.8,7266.7,94.9279,84.4307,9.21956e+10,1.08712,0.867938,87,1.09757,227,1,1
app_27,64.3879,21343,7267.5,209.148,72.6959,2.05063e+11,1.07058,0.867938,101,2.80908,192,1,1
app_28,52.7318,21750.7,7248.9,68.327,69.136,6.47014e+10,1.09385,0.867938,105,0.924306,188,1,1
app_29,48.5986,21379.7,7298.3,78.9192,77.5911,7.53012e+10,1.08495,0.867938,95,0.9654,208,1,1
app_3,5.77536,26677.9,5062.7,56.0748,563.221,2.57228e+10,1.5722,0.867938,9,0.0456888,2107,1,1
app_30,87.7308,21754.3,7153.5,157.533,76.3348,1.53107e+11,1.0949,0.867938,94,2.01457,207,1,1
app_31,112.586,21081.1,7826.5,6.24208,31.3517,4.72246e+09,1.02155,0.867938,249,0.152337,81,1,1
app_32,34.0184,20659.2,7554.4,201.279,32.5502,1.99546e+11,1.03173,0.867938,233,6.23582,84,1,1
app_33,88.5269,20665.5,7761.6,5.93946,29.0047,4.49704e+09,1.03012,0.867938,271,0.15507,74,1,1
app_34,242.338,20850,7481.4,185.235,27.6729,1.84236e+11,1.04362,0.867938,274,6.57987,72,1,1
app_35,212.486,20691.7,7640.5,148.89,35.1633,1.47223e+11,1.02726,0.867938,218,4.08954,90,1,1
app_36,37.318,20804.4,7578.4,160.189,29.8908,1.58868e+11,1.03396,0.867938,255,5.4782,77,1,1
app_37,165.738,20964.2,7517.4,147.644,36.2804,1.45579e+11,1.04398,0.867938,209,4.04387,94,1,1
app_38,115.281,21183.5,7605.9,172.241,34.7252,1.70782e+11,1.02872,0.867938,212,4.87948,93,1,1
app_39,190.282,21188.8,7541.4,82.9052,32.6852,8.11042e+10,1.04952,0.867938,230,2.53451,86,1,1
app_4,5.76214,25792.9,4972.9,44.2623,624.179,5.02656e+09,1.60709,0.867938,8,0.00805538,2239,1,1
app_40,93.9939,20889.6,7728.3,71.2143,36.2554,6.89946e+10,1.026,0.867938,211,1.91652,94,1,1
app_41,109.413,21059.4,7654.9,125.648,33.1215,1.2415e+11,1.0284,0.867938,235,3.76213,84,1,1
app_42,103.775,21336.7,7689.7,12.9136,33.5754,1.13871e+10,1.03881,0.867938,226,0.334913,89,1,1
app_43,195.118,20996.8,7806.3,23.5225,27.8698,2.20323e+10,1.02193,0.867938,277,0.786868,72,1,1
app_44,118.267,20901.7,7611.6,146.802,23.5565,1.4541e+11,1.03133,0.867938,317,6.32216,62,1,1
app_45,23.8742,20672.9,7627.6,117.968,31.9545,1.16265e+11,1.03308,0.867938,241,3.63329,82,1,1
app_46,666.903,21335.8,7812.3,149.388,8.13536,1.48894e+11,1.00487,0.867938,944,18.6118,21,1,1
app_47,423.615,20720,7860.2,38.2029,8.28981,3.77703e+10,1.01292,0.867938,960,4.1967,21,1,1
app_48,600.882,21747.4,7770.1,183.89,7.40623,1.83595e+11,1.00582,0.867938,1017,26.2279,20,1,1
app_49,957.666,22167.8,7796,168.321,7.59098,1.68007e+11,1.00452,0.867938,1021,21.0009,20,1,1
app_5,0.818279,26422.6,4750.3,130.691,680.255,9.41191e+10,1.65138,0.867938,7,0.13841,2554,1,1
app_50,438.501,20566.6,7861.2,57.2717,8.58223,5.68897e+10,1.01034,0.867938,947,6.32108,21,1,1
app_51,582.438,21496.5,7725.8,222.903,8.58835,2.22316e+11,1.00653,0.867938,907,24.7017,22,1,1
app_52,141.53,21070.4,7856,73.1386,7.23466,7.28351e+10,1.00898,0.867938,1063,10.405,19,1,1
app_53,797.075,21305.1,7715.6,208.983,8.9792,2.08589e+11,1.00957,0.867938,849,23.1766,23,1,1
app_54,316.924,21896.9,7920.3,0.963953,6.28455,6.10334e+08,1.00998,0.867938,1238,0.101722,17,1,1
app_55,947.274,21989,7807.12,142.683,7.98517,1.42217e+11,1.00637,0.867938,980,17.7771,21,1,1
app_56,445.11,21054.4,7946.9,29.3827,7.3423,2.9031e+10,1.00302,0.867938,1069,4.14729,19,1,1
app_57,266.334,20709.1,7849.6,75.0453,7.36122,7.48743e+10,1.00953,0.867938,1050,10.6963,19,1,1
app_58,939.876,21372.1,7695.8,215.7,8.33477,2.15315e+11,1.01124,0.867938,945,26.9144,21,1,1
app_59,751.245,20955,7750.2,139.385,8.99646,1.38859e+11,1.01406,0.867938,880,15.4288,23,1,1
app_6,10.2472,26191.7,5140.8,53.3184,515.061,2.76667e+10,1.54785,0.867938,10,0.0537218,1882,1,1
app_60,305.683,20471.9,7899.9,36.1651,8.51254,3.5651e+10,1.00812,0.867938,951,3.96123,21,1,1
app_7,2.98786,26277.8,5067.8,59.09,564.322,3.09697e+10,1.56901,0.867938,9,0.0549109,2071,1,1
app_8,2.65305,26443.8,5074.5,45.9404,564.036,1.18012e+10,1.57285,0.867938,9,0.0209241,2080,1,1
app_9,1.06742,25857.1,5114.6,93.473,512.793,6.41794e+10,1.54477,0.867938,10,0.125106,1841,1,1
