app_id,start_app,end_app,effective_cpu,effective_io,effective_iter,total_bytes,stretch,utilization,Tcomp,Tio,iterations,priority,group_id
app_1,1.99095,25834.6,5608.33,51.798,563.798,2.13512e+10,1.42104,0.892172,10,0.0378567,1955,1,1
app_10,8.64703,24912,5483.49,169.64,608.325,1.34645e+11,1.42396,0.892172,9,0.221092,2009,1,1
app_11,1.70532,25767.9,5493.22,112.407,608.868,7.98736e+10,1.43547,0.892172,9,0.131155,2111,1,1
app_12,1.26155,25057.1,5473.25,135.173,607.616,1.08038e+11,1.43336,0.892172,9,0.177694,2025,1,1
app_13,4.07879,24883.5,5573,70.6348,556.765,4.87505e+10,1.42304,0.892172,10,0.0875233,1841,1,1
app_14,5.63341,25470.9,5526.81,175.117,551.761,1.51103e+11,1.40897,0.892172,10,0.274234,1878,1,1
app_15,4.11374,26283.3,5479.55,136.862,608.247,1.12208e+11,1.43068,0.892172,9,0.18425,2161,1,1
app_16,9.6886,21184.9,7440.9,108.145,77.5019,1.03965e+11,1.06032,0.892172,95,1.33288,207,1,1
app_17,73.2617,21367.6,7514.22,6.98694,69.8414,3.28645e+09,1.06418,0.892172,107,0.0476297,186,1,1
app_18,20.2938,21186.4,7530.9,28.1933,76.2359,2.40601e+10,1.05891,0.892172,99,0.316581,201,1,1
app_19,118.902,20998.6,7639.4,63.9711,64.7245,6.03233e+10,1.039,0.892172,118,0.928051,168,1,1
app_2,3.40694,26008.6,5520.42,148.988,552.769,1.14713e+11,1.41966,0.892172,10,0.207438,1929,1,1
app_20,58.3845,21389.3,7381,33.1922,84.6651,2.8381e+10,1.07971,0.892172,87,0.333895,227,1,1
app_21,26.085,20822.3,7606.5,84.1122,75.0253,8.14691e+10,1.04059,0.892172,103,1.08626,191,1,1
app_22,19.214,21146.7,7482.6,32.2241,76.196,2.91115e+10,1.065,0.892172,98,0.383046,203,1,1
app_23,90.6396,21218.6,7495.37,89.8127,76.4241,8.49337e+10,1.05537,0.892172,98,1.11334,201,1,1
app_24,14.6218,21140.9,7426.94,180.507,69.1605,1.77518e+11,1.05201,0.892172,107,2.57272,183,1,1
app_25,40.9826,21192,7538.9,112.475,75.0338,1.08432e+11,1.04612,0.892172,101,1.44575,196,1,1
app_26,71.8756,21146.3,7281.8,191.082,83.2637,1.86993e+11,1.07112,0.892172,88,2.25292,221,1,1
app_27,5.74457,21150.4,7358.3,161.586,84.5357,1.57674e+11,1.0644,0.892172,87,1.87707,224,1,1
app_28,100.347,21066.3,7507.2,85.3665,69.115,8.2624e+10,1.05404,0.892172,109,1.19745,182,1,1
app_29,66.717,21151.2,7521.7,29.5035,78.5424,2.45476e+10,1.06013,0.892172,96,0.310729,207,1,1
app_3,5.68634,26220.6,5492.65,83.1653,612.907,5.9501e+10,1.44088,0.892172,9,0.0970653,2176,1,1
app_30,87.8466,21226.1,7452.8,124.674,73.19,1.20495e+11,1.05634,0.892172,101,1.62831,194,1,1
app_31,239.655,20752.8,7729,78.0643,30.8647,7.69863e+10,1.02485,0.892172,248,2.48343,80,1,1
app_32,168.319,20741.8,7619.9,162.934,35.1984,1.61653e+11,1.02807,0.892172,215,4.49037,91,1,1
app_33,1.80949,20847.3,7654.1,70.3879,31.5391,6.85933e+10,1.03591,0.892172,244,2.21269,82,1,1
app_34,171.402,20970.3,7636.5,173.882,27.1344,1.72787e+11,1.02442,0.892172,278,6.3995,71,1,1
app_35,140.203,20845,7847.1,16.6891,32.5515,1.51054e+10,1.01753,0.892172,239,0.457739,84,1,1
app_36,9.40642,20559.4,7637.4,203.389,30.0347,2.01663e+11,1.02053,0.892172,257,6.7221,76,1,1
app_37,101.771,20789.9,7643.6,145.097,37.1604,1.43714e+11,1.02731,0.892172,205,3.88416,96,1,1
app_38,206.552,20798.1,7639.7,196.368,34.3362,1.94406e+11,1.02118,0.892172,222,5.71783,88,1,1
app_39,94.2013,20698.6,7811.4,10.4749,32.0731,9.1453e+09,1.02295,0.892172,242,0.285791,83,1,1
app_4,0.0120353,24877.9,5367.75,90.6464,669.208,6.47253e+10,1.47263,0.892172,8,0.0966049,2243,1,1
app_40,134.907,20871,7753.8,12.6442,32.778,1.1027e+10,1.03029,0.892172,234,0.334151,86,1,1
app_41,76.8295,20546.8,7638.1,199.939,33.6552,1.98057e+11,1.02091,0.892172,224,5.82521,87,1,1
app_42,233.451,20758.8,7702.1,170.647,30.5432,1.6903e+11,1.01637,0.892172,253,5.45259,78,1,1
app_43,23.7838,20491,7726.3,108.218,29.1187,1.06891e+11,1.0213,0.892172,267,3.6859,74,1,1
app_44,158.095,20883.5,7764.3,80.7162,32.1149,7.89007e+10,1.01999,0.892172,237,2.46565,84,1,1
app_45,182.454,20721.5,7748.67,94.936,32.725,9.3366e+10,1.02014,0.892172,241,2.87046,83,1,1
app_46,132.062,20958.7,7929,50.7147,9.22025,5.0322e+10,1.00259,0.892172,858,5.59133,24,1,1
app_47,672.007,21354.6,7879.5,88.0384,8.69794,8.74832e+10,1.00414,0.892172,922,9.72036,22,1,1
app_48,723.676,21021.9,7770.8,209.658,8.66414,2.09193e+11,1.00251,0.892172,908,23.2437,22,1,1
app_49,407.257,20838.4,7851.7,127.326,8.33244,1.26998e+11,1.00267,0.892172,961,15.8748,21,1,1
app_5,8.07929,24459.7,5462.61,136.751,607.278,1.11511e+11,1.4352,0.892172,9,0.183407,1965,1,1
app_50,517.788,21048.8,7825,143.092,7.54222,1.42693e+11,1.00405,0.892172,1001,17.8366,20,1,1
app_51,142.624,20501.2,7964.5,3.89884,8.37938,3.59899e+09,1.004,0.892172,947,0.449874,22,1,1
app_52,619.425,21736.1,7956.8,1.67597,8.78544,1.35396e+09,1.00526,0.892172,908,0.15044,23,1,1
app_53,285.872,21443.2,7796.9,164.545,8.29497,1.64093e+11,1.0049,0.892172,930,18.2326,22,1,1
app_54,742.942,21304.7,7812.1,107.883,8.02242,1.07497e+11,1.01015,0.892172,942,13.4371,21,1,1
app_55,575.648,21181.5,7814.1,139.775,7.60021,1.3941e+11,1.00585,0.892172,1020,19.9157,20,1,1
app_56,462.076,21415.8,7876.9,69.7679,8.76144,6.94642e+10,1.00675,0.892172,880,8.68302,23,1,1
app_57,688.267,21201.7,7879.2,84.5838,9.45599,8.4337e+10,1.00458,0.892172,828,9.37078,24,1,1
app_58,216.878,20948.4,7846.9,138.274,8.48227,1.37916e+11,1.0019,0.892172,930,17.2395,22,1,1
app_59,401.036,20906.3,7915.1,40.1225,7.85103,3.98847e+10,1.00566,0.892172,1013,4.98558,20,1,1
app_6,9.84361,25868.4,5615.23,142.85,512.223,1.13584e+11,1.39645,0.892172,11,0.221411,1767,1,1
app_60,158.292,20653.8,7910.5,15.8474,8.3442,1.53344e+10,1.00936,0.892172,956,1.9168,21,1,1
app_7,5.23127,24898.9,5307.69,188.396,663.251,1.5086e+11,1.46559,0.892172,8,0.227199,2214,1,1
app_8,9.24956,25976,5587.61,92.4406,558.152,5.82727e+10,1.41696,0.892172,10,0.104244,1954,1,1
app_9,3.47555,25974.2,5491.62,118.474,608.82,8.52612e+10,1.43449,0.892172,9,0.140002,2139,1,1
