app_id,Tcomp,Tio,iter,witer,alpha_io,compute_size,io_size,mu,desyn_time
1,10.99005437326296,0.574263021713854,1730,11.564317394976815,0.04965818578823306,10e9,574263021.7138541,10,8.336129752428228
2,9.174684908676404,0.25830209953476607,2121,9.432987008211171,0.027382853311461237,9e9,258302099.53476608,10,0.8105031626411902
3,9.729198463861684,0.24189004159194133,2006,9.971088505453626,0.024259140961354526,9e9,241890041.59194133,10,1.2812457907035988
4,10.841688789473054,0.813255440245633,1717,11.654944229718687,0.0697777204434776,10e9,813255440.245633,10,7.244734006606912
5,8.36050013796414,0.32377069479218124,2304,8.68427083275632,0.03728242716371144,8e9,323770694.79218125,10,5.05431542929357
6,10.928971262633196,0.10641652313700732,1813,11.035387785770203,0.009643206491957464,10e9,106416523.13700733,10,8.745824931837868
7,10.282872506307584,0.4975295528078545,1856,10.780402059115438,0.04615129844690395,10e9,497529552.8078545,10,5.336554367851495
8,9.18689911696484,0.2650923151116642,2116,9.451991432076504,0.028046186564668327,9e9,265092315.1116642,10,9.024882323894097
9,8.192964200210639,0.5130358188242273,2298,8.706000019034866,0.058928993533485165,8e9,513035818.82422733,10,4.855750401214085
10,10.215955877543086,0.1963122034709001,1921,10.412268081013986,0.0188539328745157,10e9,196312203.4709001,10,6.804343644304276
11,80.85135238951824,4.790620915875478,234,85.64197330539372,0.055937768958130324,80e9,4790620915.875478,100,16.12279043676244
12,115.68086035215671,4.284523495880763,167,119.96538384803748,0.03571466500126448,115e9,4284523495.880763,100,109.00014868939516
13,111.44145245362601,7.875735325543099,168,119.31718777916912,0.06600671262986368,111e9,7875735325.543098,100,0.058774995313755074
14,91.09658239003225,3.867356679899969,211,94.96393906993222,0.04072447623567948,91e9,3867356679.8999686,100,25.006198607727836
15,90.85440009906219,3.7189224500436775,212,94.57332254910587,0.03932316587600779,90e9,3718922450.0436773,100,2.548122121823899
16,990.0519719501917,14.509810299372827,20,1004.5617822495645,0.014443920280224374,990e9,14509810299.372828,1000,950.0020642779353
17,981.6556756972533,3.75847675107458,21,985.4141524483279,0.00381410875999334,981e9,3758476751.0745797,1000,473.8787558025714
18,975.6674570446846,68.97349850069298,20,1044.6409555453777,0.06602603328402327,975e9,68973498500.69298,1000,9.856764706385253
19,984.0057721278343,62.78109420899032,20,1046.7868663368247,0.05997504958071306,984e9,62781094208.99032,1000,780.905075368805
20,968.1939481529839,48.87008314278616,20,1017.0640312957701,0.048050153814331836,968e9,48870083142.786156,1000,666.6788651011121
