app_id,Tcomp,Tio,iter,witer,alpha_io,compute_size,io_size,mu,desyn_time
1,9.307120554867323,0.6374585328687623,2012,9.944579087736086,0.06410110747219988,9e9,637458532.8687623,10,7.2193789945017945
2,9.433761306593759,0.5741358773364641,1999,10.007897183930224,0.0573682829454283,9e9,574135877.336464,10,8.344134424868798
3,8.929877896987474,0.060378717963115516,2225,8.990256614950589,0.006716017189398921,8e9,60378717.96311551,10,5.389033151938764
4,9.28429950388747,0.46355909978698967,2052,9.747858603674459,0.04755496757126236,9e9,463559099.7869897,10,0.14201215235288875
5,10.102552922781484,0.12888171384767003,1955,10.231434636629155,0.012596641470617004,10e9,128881713.84767003,10,1.6723945892493757
6,9.228174290100277,0.38830581996864844,2080,9.616480110068926,0.0403792048154993,9e9,388305819.96864843,10,2.685210607551471
7,7.812601717625039,0.28373132384786565,2471,8.096333041472905,0.0350444234932619,7e9,283731323.84786564,10,3.1581677210897467
8,9.231852578179241,0.2802435096210953,2103,9.512096087800337,0.029461803900458845,9e9,280243509.6210953,10,7.38174214323803
9,8.461833007456,0.23924052222685746,2299,8.701073529682859,0.027495517812912613,8e9,239240522.22685745,10,1.8857121048718546
10,9.100637498614391,0.4863565975541527,2087,9.586994096168544,0.05073087483682981,9e9,486356597.5541527,10,9.177402311436234
11,75.64958282069273,4.393001123151514,250,80.04258394384425,0.05488329969749011,75e9,4393001123.151514,100,0.9730478623820783
12,106.64560835939767,1.8498965315901954,185,108.49550489098786,0.01705044401101134,106e9,1849896531.5901954,100,69.68338959549105
13,87.65509517132269,3.284904241433163,220,90.93999941275585,0.03612166552282164,87e9,3284904241.4331627,100,46.641682671050305
14,72.66744004511385,5.093584965472172,258,77.76102501058602,0.06550305843806399,72e9,5093584965.472173,100,47.73196457046043
15,85.05603205757988,3.3126866585151618,227,88.36871871609505,0.03748709618793879,85e9,3312686658.515162,100,73.07442329816557
16,967.3985803371804,9.84686817883751,21,977.245448516018,0.010076146370177862,967e9,9846868178.837511,1000,342.3239757901622
17,932.1638600256052,37.23066660261529,21,969.3945266282205,0.038406103583142975,932e9,37230666602.61529,1000,682.371249504574
18,1090.9923716300723,60.16695030038737,18,1151.1593219304596,0.05226639714778073,1090e9,60166950300.38737,1000,248.65565914025245
19,939.8721248732144,42.979092690711,21,982.8512175639254,0.04372899165474718,939e9,42979092690.711,1000,110.69638931644283
20,921.7336162970582,72.61526632868227,21,994.3488826257405,0.0730279558789565,921e9,72615266328.68227,1000,643.9750424562559
