app_id,start_app,end_app,effective_cpu,effective_io,effective_iter,total_bytes,stretch,utilization,Tcomp,Tio,iterations,priority,group_id
app_1,2.87488,24504.6,5453.26,255.791,683.569,2.10266e+11,1.41255,0.805439,8,0.307857,2185,1,1
app_10,6.82164,25435.5,5608.62,176.099,559.915,1.50584e+11,1.38908,0.805439,10,0.269382,1875,1,1
app_11,35.048,21984.5,6983.1,415.602,72.1873,4.11345e+11,1.08189,0.805439,96,5.71312,197,1,1
app_12,87.2643,21347.3,7216.6,258.092,76.1911,2.54269e+11,1.07083,0.805439,95,3.34565,203,1,1
app_13,16.1835,21660.7,7061.3,306.056,79.8927,3.02993e+11,1.08632,0.805439,89,3.78742,214,1,1
app_14,36.581,21356.9,7197.9,179.784,73.9852,1.77325e+11,1.08471,0.805439,99,2.39628,196,1,1
app_15,34.7108,21529.2,6945.8,421.974,80.7613,4.1724e+11,1.08651,0.805439,86,5.2155,217,1,1
app_16,804.762,21653.6,7562.7,416.977,7.98963,4.1644e+11,1.00261,0.805439,923,52.055,21,1,1
app_17,29.7948,20869.3,7639.59,311.498,7.98297,3.10869e+11,1.00623,0.805439,935,39.3192,21,1,1
app_18,504.405,21124.3,7702.2,185.556,11.139,1.84959e+11,1.01431,0.805439,685,16.8144,29,1,1
app_19,873.44,21975.4,7722.79,109.944,7.89084,1.09678e+11,1.02139,0.805439,970,15.6683,21,1,1
app_2,0.568216,25922.7,5515.85,301.393,614.776,2.67913e+11,1.38318,0.805439,9,0.43634,2099,1,1
app_20,565.675,21011.4,7506.4,441.084,7.46175,4.40733e+11,1.00665,0.805439,1015,62.9618,19,1,1
app_3,9.14284,25576.3,5414.27,360.655,599.711,3.31505e+11,1.39233,0.805439,9,0.553431,2038,1,1
app_4,10.9172,25413.5,5470.83,387.212,545.945,3.62334e+11,1.37147,0.805439,10,0.664548,1826,1,1
app_5,3.6276,24777.9,5380.49,414.904,599.647,3.82539e+11,1.38816,0.805439,9,0.63863,1947,1,1
app_6,4.82794,24379.4,5571.23,277.292,556.069,2.49401e+11,1.37442,0.805439,10,0.448562,1762,1,1
app_7,2.21857,25999.5,5677.04,110.666,568.999,8.05347e+10,1.38947,0.805439,10,0.141537,1955,1,1
app_8,4.83594,24803.2,5750.79,54.3105,522.675,2.85336e+10,1.38424,0.805439,11,0.0546621,1687,1,1
app_9,2.92488,24830.3,5489.46,375.793,547.087,3.4369e+11,1.37147,0.805439,10,0.628319,1777,1,1
