app_id,start_app,end_app,effective_cpu,effective_io,effective_iter,total_bytes,stretch,utilization,Tcomp,Tio,iterations,priority,group_id
app_1,3.26244,18863.1,7918.9,81.1,793.605,1.00652e+10,1.00896,0.894518,10,0.0126925,1870,1,1
app_10,8.59996,19465.3,7433.2,566.8,826.427,1.73543e+11,1.0517,0.894518,9,0.210101,2009,1.00001,1.00001
app_11,83.0076,22374.7,6727.1,1272.9,76.1425,4.85319e+11,1.1092,0.894518,88,6.38578,212,1.00001,1.00001
app_12,106.898,22160.9,6828.7,1171.3,62.4357,4.37496e+11,1.10099,0.894518,110,7.05638,171,1.00001,1.00001
app_13,81.6242,20293.7,7858.7,141.3,77.6723,4.68096e+10,1.01195,0.894518,101,0.600124,197,1.00001,1.00001
app_14,44.3324,20929.3,7486.72,513.284,103.214,1.74212e+11,1.04426,0.894518,72,1.68264,270,1.00001,1.00001
app_15,81.0065,22188.2,6857.04,1142.96,75.5335,4.312e+11,1.09766,0.894518,91,5.73702,207,1.00002,1.00002
app_16,133.575,22534.4,7136.27,863.731,8.41898,3.57338e+11,1.06758,0.894518,850,44.2502,23,1.00002,1.00002
app_17,21.2206,20974.7,7699.4,300.6,7.96997,1.22603e+11,1.02276,0.894518,944,15.3254,21,1.00002,1.00002
app_18,393.542,22413.6,6987.4,1012.6,8.07088,3.83924e+11,1.08529,0.894518,878,47.9905,22,1.00002,1.00002
app_19,373.402,21945.3,7416.8,583.2,7.08455,2.03767e+11,1.04979,0.894518,1047,29.1095,19,1.00002,1.00002
app_2,0.963687,20375.6,6938.9,1061.1,770.674,3.63147e+11,1.09558,0.894518,9,0.471502,1964,1,1
app_20,17.6961,22230.9,6943.1,1056.9,8.44997,3.74326e+11,1.09328,0.894518,820,41.5918,24,1.00002,1.00002
app_3,8.70658,20896,7431.9,568.1,825.203,1.80482e+11,1.05092,0.894518,9,0.218766,2153,1,1
app_4,1.46623,21424.9,6948.4,1051.6,771.381,3.54058e+11,1.09552,0.894518,9,0.459219,2072,1,1
app_5,3.344,20769.9,6676,1324,742.384,4.79428e+11,1.11803,0.894518,9,0.64526,1921,1.00001,1.00001
app_6,6.61598,20816.9,6351.29,1648.71,794.836,6.12529e+11,1.1488,0.894518,8,0.771432,2062,1.00001,1.00001
app_7,9.10864,19885.4,7082,918,708.639,3.12206e+11,1.08193,0.894518,10,0.440348,1759,1.00001,1.00001
app_8,7.98325,20355.3,7658.6,341.4,853.014,9.71512e+10,1.03149,0.894518,9,0.113894,2165,1.00001,1.00001
app_9,4.02959,21337.8,6742.4,1257.6,613.929,4.5109e+11,1.11212,0.894518,11,0.734674,1631,1.00001,1.00001
