app_id,start_app,end_app,effective_cpu,effective_io,effective_iter,total_bytes,stretch,utilization,Tcomp,Tio,iterations,priority,group_id
app_1,7.52693,18402.5,7301.4,586.146,913.31,5.29715e+11,1.02157,0.92028,8,0.580191,2098,0.1,1
app_10,8.03249,19288.5,7415.4,444.943,824.38,3.93919e+11,1.02442,0.92028,9,0.477477,1990,0.1,1
app_11,95.6191,21334,7085,850.975,75.9073,4.86656e+11,1.05657,0.92028,93,6.41438,202,0.01,2
app_12,66.5904,20772.2,7548.9,344.807,75.7904,1.84786e+11,1.03444,0.92028,99,2.46382,197,0.01,2
app_13,49.4523,20914,7576.9,196.343,81.6272,1.01753e+11,1.04185,0.92028,92,1.24089,214,0.01,2
app_14,50.9895,20997.3,7097.8,763.197,82.1622,4.34951e+11,1.06203,0.92028,86,5.30428,217,0.01,2
app_15,66.7615,21157.2,7182.8,651.841,81.313,3.76039e+11,1.05836,0.92028,88,4.64246,216,0.01,2
app_16,210.604,22206.1,7537.5,388.807,7.46431,1.43905e+11,1.04148,0.92028,973,17.9882,21,0.001,3
app_17,258.244,21293.8,7889.2,110.8,7.49577,5.79333e+10,1.00665,0.92028,1066,8.27618,19,0.001,3
app_18,871.043,22659.8,6696.87,1187.65,7.56736,4.74462e+11,1.11555,0.92028,901,59.3077,21,0.001,3
app_19,207.262,23006.5,6848.2,1151.8,7.29977,4.50545e+11,1.09608,0.92028,907,64.3636,21,0.001,3
app_2,2.77948,20335.4,7662.3,97.7791,957.872,4.98945e+10,1.03732,0.92028,8,0.0520819,2441,0.1,1
app_20,653.673,22165.1,7225.13,608.112,7.37742,2.45076e+11,1.07092,0.92028,965,34.9012,20,0.001,3
app_3,2.49011,20359.5,7297.6,576.218,912.788,5.07305e+11,1.025,0.92028,8,0.555647,2323,0.1,1
app_4,2.96966,20432.2,7491.8,368.63,831.329,3.2721e+11,1.02315,0.92028,9,0.393754,2129,0.1,1
app_5,5.634,19842.5,7313,562.945,731.573,5.12305e+11,1.02232,0.92028,10,0.69987,1816,0.1,1
app_6,3.90779,19340.5,7605.3,175.207,949.06,1.09661e+11,1.03695,0.92028,8,0.115554,2297,0.1,1
app_7,0.763712,20335.1,7452,356.057,930.085,2.81722e+11,1.03443,0.92028,8,0.302927,2370,0.1,1
app_8,2.31061,20278.7,7364.8,491.753,923.415,4.28571e+11,1.02651,0.92028,8,0.464324,2340,0.1,1
app_9,7.69342,19245.8,7652.9,166.838,849.598,1.14184e+11,1.02999,0.92028,9,0.134334,2047,0.1,1
