app_id,start_app,end_app,effective_cpu,effective_io,effective_iter,total_bytes,stretch,utilization,Tcomp,Tio,iterations,priority,group_id
app_1,1.85555,25785,5213.4,412.94,577.535,3.90466e+11,1.42759,0.788245,9,0.675546,1993,1,1
app_10,5.95728,25400.1,5256.02,269.135,658.296,2.3989e+11,1.45563,0.788245,8,0.364574,2222,1,1
app_11,95.6173,21860.8,7151.1,239.225,69.5121,2.35129e+11,1.0831,0.788245,103,3.40767,188,1,1
app_12,81.588,21861,7137.4,17.6048,84.0545,1.33963e+10,1.11876,0.788245,85,0.15948,233,1,1
app_13,42.3739,21645.9,6759,544.099,64.1754,5.40729e+11,1.09593,0.788245,105,8.44888,177,1,1
app_14,59.0122,21705.5,7192.5,82.7469,82.0807,7.923e+10,1.10015,0.788245,88,0.96622,223,1,1
app_15,57.901,21457.9,6769.8,531.792,75.3036,5.28071e+11,1.09621,0.788245,89,7.04094,207,1,1
app_16,36.5214,20549.9,7663.1,284.187,7.93078,2.83899e+11,1.00667,0.788245,930,35.4874,21,1,1
app_17,219.757,21224.9,7577.2,399.38,9.11238,3.98705e+11,1.00302,0.788245,822,44.3005,24,1,1
app_18,939.212,21605.6,7612.4,293.807,7.04169,2.93438e+11,1.01191,0.788245,1105,41.9197,18,1,1
app_19,296.895,21157.7,7734,215.115,8.68262,2.14812e+11,1.00644,0.788245,873,26.8515,23,1,1
app_2,2.16256,26162.7,5114.17,444.815,639.106,4.1155e+11,1.44777,0.788245,8,0.644053,2252,1,1
app_20,16.0937,20100.7,7505.8,410.599,9.50995,4.10139e+11,1.01062,0.788245,799,45.5709,24,1,1
app_3,3.17513,26465.6,5218,309.139,652.397,2.66334e+11,1.4587,0.788245,8,0.407862,2324,1,1
app_4,2.57591,24819.3,5338.9,147.803,667.74,1.2213e+11,1.46492,0.788245,8,0.182834,2186,1,1
app_5,1.84885,25443.4,5502.4,45.1464,549.133,1.19847e+10,1.45075,0.788245,10,0.02183,1870,1,1
app_6,4.19919,26196.2,5460.5,124.532,548.18,1.06536e+11,1.43703,0.788245,10,0.194409,1922,1,1
app_7,8.08348,25770.8,5444.8,178.46,543.341,1.60674e+11,1.42718,0.788245,10,0.2959,1866,1,1
app_8,4.1244,26468.4,5276.2,214.901,660.776,1.92474e+11,1.46288,0.788245,8,0.291628,2362,1,1
app_9,3.29856,25129,5192.5,455.729,577.629,4.22307e+11,1.4248,0.788245,9,0.730635,1915,1,1
