app_id,Tcomp,Tio,iter,witer,alpha_io,compute_size,io_size,mu,desyn_time
1,6.207365354966403,0.8696775654843266,2827,7.0770429204507295,0.12288714018833982,6e9,869677565.4843266,10,1.6001586749970549
2,12.880420244569253,0.3485164486114478,1512,13.228936693180701,0.02634500842317148,12e9,348516448.6114478,10,10.779188277749615
3,3.7326843888898047,0.11511041215315553,5198,3.8477948010429603,0.02991594357421409,3e9,115110412.15315552,10,0.19880157244809765
4,11.789210677618629,0.4553487029693675,1634,12.244559380587996,0.03718783900801347,11e9,455348702.9693675,10,6.6599317955238355
5,15.123350509610422,1.0750494265007329,1235,16.198399936111155,0.06636763079939278,15e9,1075049426.500733,10,6.724965768089307
6,40.22238288287458,5.7398233876325815,436,45.96220627050716,0.12488137218329504,40e9,5739823387.632582,100,41.022106089835056
7,59.27242300231142,0.6988199942315476,334,59.97124299654297,0.011652584794212635,59e9,698819994.2315476,100,31.399944701176295
8,113.69570551438072,3.5227508260744274,171,117.21845634045515,0.030052868260291483,113e9,3522750826.074427,100,29.456911070232117
9,103.59506803853256,1.0668378235684013,192,104.66190586210097,0.010193181700455857,103e9,1066837823.5684013,100,6.578534707833243
10,199.04603549168164,0.587386554925677,101,199.6334220466073,0.0029423257333561267,199e9,587386554.9256771,100,17.431701919672083
11,1574.622412417226,111.09047310683415,12,1685.7128855240603,0.06590118285315115,1574e9,111090473106.83415,1000,250.3865718459477
12,1743.9207263326095,117.54025531523511,11,1861.4609816478446,0.06314408761401137,1743e9,117540255315.2351,1000,1475.124582133512
13,264.26483297184006,34.7072469173288,67,298.97207988916887,0.1160885890421441,264e9,34707246917.328804,1000,151.96533046380696
14,167.11271562876723,8.984757311025383,114,176.09747293979262,0.051021500541903034,167e9,8984757311.025383,1000,5.237077391065529
15,2049.8531528269386,88.57083861064987,10,2138.4239914375885,0.041418745284047605,2049e9,88570838610.64987,1000,994.0338966167767
