app_id,Tcomp,Tio,iter,witer,alpha_io,compute_size,io_size,mu,desyn_time
1,22.00768939442233,1.802806741947673,840,23.810496136370002,0.07571479114179086,22e9,1802806741.947673,10,19.94652520335676
2,15.857457628803086,1.3387135421580965,1164,17.196171170961183,0.07784951247861234,15e9,1338713542.1580966,10,9.723621248910142
3,19.25201008370757,0.884654285497011,994,20.13666436920458,0.04393251381047653,19e9,884654285.497011,10,4.1770932878675655
4,15.83531215360902,0.26316299347688166,1243,16.098475147085903,0.016347075798947244,15e9,263162993.47688165,10,7.047146863854924
5,13.634433844545418,0.5588132126519004,1410,14.193247057197318,0.03937176675639767,13e9,558813212.6519004,10,5.3226052577019365
6,271.7834444446398,3.423422350678373,73,275.2068667953182,0.012439451059280807,271e9,3423422350.678373,100,211.00453747712962
7,137.9942748707713,1.6381573594391388,144,139.63243223021044,0.011731925980765893,137e9,1638157359.4391387,100,74.6180079322564
8,102.82800091191042,16.4877262926352,168,119.31572720454562,0.1381856916848013,102e9,16487726292.635202,100,62.76677981848512
9,170.4440681691959,15.300716292510705,108,185.74478446170662,0.08237494439939508,170e9,15300716292.510704,100,14.903966561403614
10,84.27113516199013,10.265005309726169,212,94.5361404717163,0.1085828685041071,84e9,10265005309.72617,100,63.54633449940357
11,1208.6086454113315,30.595905155341722,17,1239.2045505666733,0.024689955456789262,1208e9,30595905155.34172,1000,572.7454432547594
12,838.0418675462961,19.423878737310336,24,857.4657462836064,0.02265265851317855,838e9,19423878737.310337,1000,531.590710226654
13,2547.4116288638215,14.171284503099109,8,2561.582913366921,0.005532237285449606,2547e9,14171284503.09911,1000,1123.852600680454
14,823.0449327851445,105.89594522771296,22,928.9408780128574,0.11399643156434253,823e9,105895945227.71295,1000,330.2741563742806
15,1027.038818864064,28.06380482466694,19,1055.102623688731,0.026598175565665284,1027e9,28063804824.66694,1000,638.9367979135487
