app_id,Tcomp,Tio,iter,witer,alpha_io,compute_size,io_size,mu,desyn_time
1,9.267896270836136,0.33087146788455846,2084,9.598767738720694,0.03447020251879294,9e9,330871467.88455844,10,5.604556082522021
2,19.74976962922717,0.9899781993408462,965,20.739747828568017,0.04773337687246121,19e9,989978199.3408462,10,18.206049117787813
3,4.624586415813867,0.1630303560529705,4178,4.787616771866837,0.0340525075045637,4e9,163030356.0529705,10,3.8098140615683587
4,2.1895777915690133,0.3670016142739736,7823,2.556579405842987,0.14355181514612933,2e9,367001614.2739736,10,1.1084958735088728
5,5.285494290575368,0.5240886417751365,3443,5.809582932350505,0.09021106125480421,5e9,524088641.7751365,10,4.355828049515511
6,66.63261327229279,0.008229619529550399,301,66.64084289182233,0.00012349212843705307,66e9,8229619.529550399,100,24.49419496583
7,30.919343751480763,3.549826000662852,581,34.469169752143614,0.10298553827053206,30e9,3549826000.662852,100,19.441151503564864
8,224.23758572411657,20.60622335417817,82,244.84380907829473,0.08416068771250342,224e9,20606223354.17817,100,29.20994801725165
9,107.00836438252568,12.787270591969651,167,119.79563497449534,0.10674237500132688,107e9,12787270591.969652,100,88.1659986806453
10,206.03624645517334,4.7695428707027165,95,210.80578932587605,0.022625293574502714,206e9,4769542870.702717,100,168.71740436596872
11,1497.6061041721514,2.466758691865722,14,1500.0728628640172,0.0016444259161892028,1497e9,2466758691.865722,1000,1069.564177463197
12,1518.4474349932593,63.48189161126304,13,1581.9293266045224,0.04012941067823905,1518e9,63481891611.26304,1000,1233.5443952474484
13,1391.565147327279,21.29872407241697,15,1412.8638713996959,0.015074859300717168,1391e9,21298724072.41697,1000,492.7029616450893
14,1935.4060572726048,49.38998313734722,11,1984.796040409952,0.02488416045365846,1935e9,49389983137.34722,1000,405.2625655249379
15,737.2500067038898,40.12072018852083,26,777.3707268924106,0.05161079366714255,737e9,40120720188.52083,1000,447.43528517150776
