app_id,start_app,end_app,effective_cpu,effective_io,effective_iter,total_bytes,stretch,utilization,Tcomp,Tio,iterations,priority,group_id
app_1,0.717997,19812.7,7730.3,269.7,485.2,9.5018e+10,1.02232,0.880021,16,0.195913,1202,1,1
app_10,208.816,20752.5,7839.5,160.5,32.7266,5.71459e+10,1.01309,0.880021,237,1.73169,84,1.00001,1.00001
app_11,732.939,24441.2,6248.6,1751.4,3.91306,7.38719e+11,1.14493,0.880021,1583,184.68,12,1.00001,1.00001
app_12,200.413,22168.2,6963,1037,19.2366,3.90344e+11,1.08794,0.880021,363,20.5444,53,1.00001,1.00001
app_13,2.53063,19254.2,7750.9,249.1,969.405,7.51641e+10,1.02223,0.880021,8,0.0775687,2332,1.00001,1.00001
app_14,1077.19,23449.3,6481.6,1518.4,2.10732,6.46523e+11,1.12232,0.880021,3073,323.261,6,1.00001,1.00001
app_15,364.672,22799.1,7739.1,260.9,3.45274,1.13259e+11,1.0188,0.880021,2128,37.7531,10,1.00002,1.00002
app_2,29.4236,22069.6,6543.8,1456.2,224.227,5.98986e+11,1.12001,0.880021,29,2.67405,623,1,1
app_3,6.75041,20562.1,7429.2,570.8,741.905,1.98559e+11,1.0488,0.880021,10,0.267961,1911,1,1
app_4,9.24703,21934.4,6511.1,1488.9,433.898,6.02941e+11,1.12454,0.880021,15,1.38927,1196,1,1
app_5,9.9884,21732.5,6481.6,1518.4,382.748,6.11315e+11,1.12789,0.880021,17,1.59612,1042,1.00001,1.00001
app_6,63.4272,22800.6,6205.99,1794.01,64.691,7.30211e+11,1.15337,0.880021,97,11.3936,185,1.00001,1.00001
app_7,177.221,20325.5,7926.9,73.1,44.1616,2.78837e+10,1.00568,0.880021,179,0.619637,111,1.00001,1.00001
app_8,83.5511,21771.2,6887,1113,35.1702,4.15301e+11,1.09555,0.880021,197,11.8657,96,1.00001,1.00001
app_9,27.689,21558.3,6863.9,1136.1,214.238,4.54923e+11,1.09307,0.880021,32,2.12581,578,1.00001,1.00001
