app_id,start_app,end_app,effective_cpu,effective_io,effective_iter,total_bytes,stretch,utilization,Tcomp,Tio,iterations,priority,group_id
app_1,16.8049,25651,5010.3,634.384,277.821,6.14899e+11,1.42217,0.799937,18,2.21187,952,1,1
app_10,119.19,22382.9,7055.6,136.297,51.3779,1.33772e+11,1.11275,0.799937,138,2.57254,143,1,1
app_11,2335.22,23396.3,7724.5,273.192,1.84832,2.73115e+11,1.0003,0.799937,3947,136.557,5,1,1
app_12,932.781,22102.1,7407,442.121,5.72389,4.41986e+11,1.01924,0.799937,1315,73.6643,15,1,1
app_13,451.087,21038.6,7535.1,156.039,9.6837,1.55566e+11,1.04022,0.799937,799,15.5566,25,1,1
app_14,1919.06,23162,7609.6,385.981,4.18053,3.85769e+11,1.00058,0.799937,1888,96.4423,11,1,1
app_15,33.6654,23638.6,6333.7,272.452,113.092,2.67521e+11,1.2119,0.799937,56,2.36744,339,1,1
app_2,10.565,26170.3,5208.3,252.879,290.832,2.32279e+11,1.47043,0.799937,18,0.800961,1027,1,1
app_3,5.9899,26297.8,5352.4,120.858,297.236,1.06322e+11,1.46554,0.799937,18,0.356787,1055,1,1
app_4,5.68128,26554.9,5050.2,503.076,280.189,4.86533e+11,1.4449,0.799937,18,1.73143,1011,1,1
app_5,8.51124,25915.3,5086,337.913,338.285,3.22093e+11,1.47926,0.799937,15,0.952938,1181,1,1
app_6,94.9344,22390.3,7006.5,65.143,47.5993,6.25099e+10,1.1317,0.799937,145,1.33,137,1,1
app_7,42.7066,21259.1,6632.4,763.771,40.306,7.61622e+11,1.08196,0.799937,163,19.0405,110,1,1
app_8,141.096,22004.9,6315,809.789,46.7761,8.07897e+11,1.12314,0.799937,137,17.1893,130,1,1
app_9,86.3799,22299.4,6665.8,385.55,51.8325,3.83107e+11,1.13493,0.799937,128,7.36744,148,1,1
