app_id,start_app,end_app,effective_cpu,effective_io,effective_iter,total_bytes,stretch,utilization,Tcomp,Tio,iterations,priority,group_id
app_1,19.1239,20215.8,7261.81,700.564,403.474,6.46893e+11,1.01154,0.898259,18,1.60474,1019,0.1,1
app_10,22.3281,19794,7880.8,57.88,280.825,4.57332e+10,1.00927,0.898259,28,0.163333,696,0.1,1
app_11,1414.92,24982.7,6483.7,732.253,4.03729,3.43306e+11,1.17182,0.898259,1685,85.8266,12,0.001,3
app_12,140.443,22269.6,6789.5,1210.5,3.81366,5.7721e+11,1.08597,0.898259,1746,144.302,11,0.001,3
app_13,709.395,23544.5,7073.6,911.533,3.50872,4.33454e+11,1.06566,0.898259,1966,144.485,10,0.001,3
app_14,319.994,22485.9,6814.8,1185.2,3.52991,5.8013e+11,1.08182,0.898259,1934,145.032,10,0.001,3
app_15,1011.47,23146,7762.2,170.712,4.58736,6.91999e+10,1.02153,0.898259,1706,13.84,12,0.001,3
app_2,0.0992116,19617.5,7194.5,756.346,422.562,7.0125e+11,1.0132,0.898259,17,1.6578,1037,0.1,1
app_3,1.27969,17869.7,7282,357.733,1820.97,2.30374e+11,1.06491,0.898259,4,0.126509,4060,0.1,1
app_4,1.33874,19446.6,7378.9,416.565,1054.05,3.29171e+11,1.03787,0.898259,7,0.312307,2561,0.1,1
app_5,11.2608,21229.8,6816.1,876.726,235.798,5.99076e+11,1.07887,0.898259,29,2.53846,626,0.01,2
app_6,50.6418,20645.8,7031,897.68,61.1362,6.49749e+11,1.04157,0.898259,115,10.6516,158,0.01,2
app_7,7.04368,21103.3,7019.7,825.83,140.699,5.7527e+11,1.05333,0.898259,50,4.07993,370,0.01,2
app_8,26.4613,20540.7,7708.4,195.943,48.0302,1.27529e+11,1.02094,0.898259,161,2.65685,123,0.01,2
app_9,16.4767,20795.9,7294.1,387.857,142.911,2.68273e+11,1.05787,0.898259,51,1.87604,373,0.01,2
