app_id,start_app,end_app,effective_cpu,effective_io,effective_iter,total_bytes,stretch,utilization,Tcomp,Tio,iterations,priority,group_id
app_1,0.630127,26078.2,5339.2,477.703,253.674,4.59107e+11,1.37971,0.792314,21,1.80751,876,1,1
app_10,82.1475,22966.1,6281.2,562.695,61.3133,5.60493e+11,1.1693,0.792314,102,9.18841,180,1,1
app_11,515.219,21073.9,7800.5,57.1475,6.58709,5.67564e+10,1.01817,0.792314,1205,8.10806,17,1,1
app_12,448.692,21765.1,7703.9,265.069,4.47695,2.64844e+11,1.00392,0.792314,1668,66.2111,12,1,1
app_13,481.988,20784.5,7317.8,657.665,5.14657,6.57454e+11,1.0031,0.792314,1432,131.491,13,1,1
app_14,1109.84,22390.8,7972,16.8522,5.20479,1.6571e+10,1.00143,0.792314,1489,3.31421,14,1,1
app_15,449.94,22156.1,7231.5,455.162,5.16315,4.54972e+11,1.04079,0.792314,1397,90.9944,14,1,1
app_2,3.99352,26749.8,4455.2,577.455,635.525,5.53477e+11,1.59723,0.792314,7,0.870247,2323,1,1
app_3,6.47842,26658.8,4550.6,296.244,756.559,2.51079e+11,1.66608,0.792314,6,0.332115,2772,1,1
app_4,4.03798,27326.8,4684.8,192.081,671.776,1.49565e+11,1.65482,0.792314,7,0.222567,2544,1,1
app_5,28.4288,25497.4,5774.8,158.842,206.438,1.44748e+11,1.35145,0.792314,28,0.702662,689,1,1
app_6,25.6766,20872.4,6745.1,729.434,21.5999,7.28522e+11,1.07043,0.792314,310,34.6631,58,1,1
app_7,31.5068,23657.4,6421.4,193.149,95.7071,1.89244e+11,1.21017,0.792314,67,1.97129,287,1,1
app_8,144.26,22179.6,7078.06,143.056,44.1972,1.40655e+11,1.10823,0.792314,161,3.14668,122,1,1
app_9,7.29436,24273.5,5721.6,649.492,136.065,6.39909e+11,1.25756,0.792314,42,4.70521,421,1,1
