app_id,start_app,end_app,effective_cpu,effective_io,effective_iter,total_bytes,stretch,utilization,Tcomp,Tio,iterations,priority,group_id
app_1,5.85913,17844.8,7136.09,629.437,1424.77,5.58053e+11,1.03975,0.890809,5,0.391884,3182,0.1,1
app_10,2.52698,20253.1,6890.1,667.953,2295.2,4.88465e+11,1.08422,0.890809,3,0.212839,5822,0.1,1
app_11,158.946,22566.4,7564.2,130.491,4.29754,4.75799e+10,1.051,0.890809,1765,9.51597,12,0.001,3
app_12,510.665,23405.2,6653.8,1331.75,8.08276,5.49367e+11,1.11062,0.890809,828,68.6709,23,0.001,3
app_13,519.821,21605.2,6976.62,723.94,5.76704,2.79375e+11,1.10254,0.890809,1198,51.5152,16,0.001,3
app_14,29.0721,22103.7,7156,826.815,3.94075,3.34748e+11,1.06798,0.890809,1862,83.6869,11,0.001,3
app_15,1152.6,23951.9,6994.68,483.71,5.41413,2.02878e+11,1.11149,0.890809,1257,40.5755,16,0.001,3
app_2,5.45736,19327.5,7342.9,540.188,736.995,4.76231e+11,1.02313,0.890809,10,0.646175,1779,0.1,1
app_3,5.88663,19695.4,7584.4,332.116,445.513,3.00371e+11,1.01461,0.890809,17,0.673478,1097,0.1,1
app_4,3.83225,19901.6,7407.2,516.618,493.741,4.77505e+11,1.01462,0.890809,15,0.966609,1228,0.1,1
app_5,14.1002,19693.3,7265.7,670.634,486.364,6.25386e+11,1.0138,0.890809,15,1.2868,1195,0.1,1
app_6,32.796,21197,6959.9,1022.75,32.5557,6.22769e+11,1.05504,0.890809,214,19.4615,86,0.01,2
app_7,24.0333,22024.7,6550.25,925.996,156.19,5.57731e+11,1.1255,0.890809,42,3.56034,435,0.01,2
app_8,7.13535,21228.6,7229.7,443.852,70.7166,2.6021e+11,1.0681,0.890809,102,3.71729,190,0.01,2
app_9,45.9826,21116.2,7185.5,656.978,64.0434,3.94861e+11,1.05536,0.890809,112,6.16971,170,0.01,2
