app_id,start_app,end_app,effective_cpu,effective_io,effective_iter,total_bytes,stretch,utilization,Tcomp,Tio,iterations,priority,group_id
app_1,12.5271,28069.1,4908.12,46.3603,378.357,3.1327e+10,1.61961,0.741341,13,0.082657,1512,1,1
app_10,24.5859,24339.8,6053.47,141.919,152.27,1.36724e+11,1.29237,0.741341,40,0.899503,478,1,1
app_11,1072.61,21523.2,7904.4,75.9219,5.17424,7.56473e+10,1.0025,0.741341,1551,15.1295,13,1,1
app_12,45.35,21667.1,6540.4,804.129,39.1252,8.02377e+11,1.08951,0.741341,168,20.5738,106,1,1
app_13,237.304,21339.2,7025.88,656.847,25.6081,6.55556e+11,1.04147,0.741341,275,25.2595,67,1,1
app_14,266.439,21094.3,7085.3,600.113,26.1841,5.9867e+11,1.04113,0.741341,273,22.173,68,1,1
app_15,705.682,21464.8,7361.6,613.951,7.71868,6.13746e+11,1.00309,0.741341,934,87.6781,20,1,1
app_2,3.35058,27492.1,4587.5,385.822,417.105,3.7436e+11,1.6123,0.741341,11,0.897745,1630,1,1
app_3,0.592044,27662.4,2947.28,599.876,2950.02,4.84382e+11,2.33123,0.741341,1,0.164197,12812,1,1
app_4,2.81855,27836.4,3975.36,85.9187,994.319,1.75967e+10,2.00353,0.741341,4,0.0177029,4184,1,1
app_5,0.425618,27223.7,4884.2,106.84,376.181,8.38944e+10,1.61028,0.741341,13,0.223123,1434,1,1
app_6,2.79023,22486.9,6727.95,321.564,57.3277,3.18303e+11,1.13535,0.741341,117,5.53692,163,1,1
app_7,87.5072,22110.1,6806.9,526.572,51.327,5.24263e+11,1.09123,0.741341,133,10.2797,140,1,1
app_8,30.1007,21853.9,6745.7,624.541,44.1045,6.2206e+11,1.08581,0.741341,154,14.1377,119,1,1
app_9,9.40658,26636.8,5406.9,76.8023,269.123,6.12505e+10,1.46302,0.741341,20,0.227697,978,1,1
