app_id,start_app,end_app,effective_cpu,effective_io,effective_iter,total_bytes,stretch,utilization,Tcomp,Tio,iterations,priority,group_id
app_1,0.603732,29959.8,4225.08,117.191,1053.99,7.99879e+10,1.85827,0.774986,4,0.0758899,4801,1,1
app_10,65.6538,21653.9,6691.45,813.749,47.0883,8.10615e+11,1.06637,0.774986,141,17.1103,127,1,1
app_11,458.618,22353,7500.8,491.666,3.22777,4.91533e+11,1.00096,0.774986,2267,163.844,9,1,1
app_12,644.788,21599.4,7518.7,434.405,8.46884,4.3408e+11,1.00594,0.774986,888,48.2312,22,1,1
app_13,199.315,21129.9,7789.5,13.0588,11.6227,1.26179e+10,1.02536,0.774986,688,1.14708,30,1,1
app_14,588.167,20902.7,7708.42,98.0463,13.2054,9.74572e+10,1.02487,0.774986,582,6.96123,34,1,1
app_15,1721.26,22473.3,7780.4,203.684,4.24864,2.03397e+11,1.00203,0.774986,1831,50.8494,11,1,1
app_2,3.82337,28113.3,4256.23,495.732,708.997,4.59679e+11,1.69639,0.774986,6,0.648348,2855,1,1
app_3,14.6359,26134.4,5293.48,197.856,330.041,1.81393e+11,1.46122,0.774986,16,0.549675,1162,1,1
app_4,8.63403,27363.2,4869.25,117.417,540.004,9.89814e+10,1.61023,0.774986,9,0.183299,2046,1,1
app_5,1.01322,27269.8,4412.62,275.635,734.007,2.24406e+11,1.72524,0.774986,6,0.30573,2829,1,1
app_6,30.906,24166.5,5784.61,711.045,166.601,7.0069e+11,1.23356,0.774986,35,4.22103,508,1,1
app_7,153.601,21818.9,6683.23,601.295,41.8396,5.99386e+11,1.09851,0.774986,160,14.4446,115,1,1
app_8,33.6922,21925.9,6736.9,594.064,44.5871,5.9196e+11,1.09157,0.774986,149,13.4536,123,1,1
app_9,16.7145,24655.1,5747.65,359.176,222.002,3.51372e+11,1.31169,0.774986,26,1.58276,702,1,1
