app_id,start_app,end_app,effective_cpu,effective_io,effective_iter,total_bytes,stretch,utilization,Tcomp,Tio,iterations,priority,group_id
app_1,6.85911,18598.2,7614.69,351.293,950.676,2.67938e+11,1.01489,0.867671,8,0.281881,2214,0.1,1
app_10,42.6022,21361.8,6512.2,1017.77,107.917,8.27422e+11,1.08997,0.867671,60,7.66132,293,0.01,2
app_11,1206.04,23173,7030.8,173.08,5.55903,5.88156e+10,1.12841,0.867671,1283,9.80261,16,0.001,3
app_12,5.53442,21504.6,6900.8,598.117,78.3041,4.79745e+11,1.08393,0.867671,87,6.07272,215,0.01,2
app_13,29.6625,20993.6,6534.8,1249.7,70.1875,1.01563e+12,1.05954,0.867671,93,14.509,185,0.01,2
app_14,797.085,23457.2,6766.6,1233.4,3.50818,5.13624e+11,1.09887,0.867671,1901,171.208,10,0.001,3
app_15,589.85,24197.3,5679.2,1465.47,3.90707,5.74557e+11,1.27923,0.867671,1433,163.371,13,0.001,3
app_2,0.101377,11539,5017.63,510.459,5020.22,4.21304e+11,1.47088,0.867671,1,0.0839084,10456,1,0
app_3,14.0181,19169.2,7499.2,497.418,578.772,4.11538e+11,1.01128,0.867671,13,0.710774,1384,0.1,1
app_4,1.30141,14993.9,7613.7,375.157,3801.25,1.03669e+11,1.03662,0.867671,2,0.0272741,7133,1,0
app_5,0.0816943,18101.1,7838,117.747,1124.51,5.54514e+10,1.0135,0.867671,7,0.049334,2540,0.1,1
app_6,57.3094,20793.1,7091,634.477,59.8857,5.13808e+11,1.05197,0.867671,119,8.56347,156,0.01,2
app_7,26.022,21512.4,7416.29,42.2855,80.3091,2.64441e+10,1.07487,0.867671,92,0.327559,217,0.01,2
app_8,100.128,20711.4,7343.5,354.766,61.1577,2.82923e+11,1.04898,0.867671,122,4.63809,158,0.01,2
app_9,16.9452,20766.9,7262.1,469.806,63.834,3.80076e+11,1.04682,0.867671,114,5.93868,166,0.01,2
