app_id,start_app,end_app,effective_cpu,effective_io,effective_iter,total_bytes,stretch,utilization,Tcomp,Tio,iterations,priority,group_id
app_1,7.92361,26270.8,4797,615.105,438.462,5.93193e+11,1.48418,0.787415,11,1.35211,1585,1,1
app_10,254.438,21268.6,7567.8,102.267,28.5605,1.01278e+11,1.04315,0.787415,266,3.49234,75,1,1
app_11,685.918,21573.7,7826.5,15.8903,11.0643,1.53681e+10,1.02017,0.787415,712,1.3971,29,1,1
app_12,317.487,20959.7,7118.5,685.136,14.6514,6.84393e+11,1.02526,0.787415,485,45.6262,38,1,1
app_13,183.815,21112.6,7129.4,860.315,8.80435,8.59791e+11,1.00135,0.787415,797,95.5324,23,1,1
app_14,138.758,22020.4,7946.4,16.8161,5.90029,1.66507e+10,1.00464,0.787415,1313,2.77512,16,1,1
app_15,11.6669,20597.9,6958.3,884.336,25.9069,8.83116e+11,1.02022,0.787415,267,33.966,67,1,1
app_2,7.77684,25545.5,4988.3,253.995,624.123,2.27742e+11,1.53373,0.787415,8,0.364971,2164,1,1
app_3,4.94492,25918.9,5379.7,184.586,358.762,1.70872e+11,1.44129,0.787415,15,0.475967,1262,1,1
app_4,0.933952,28764.2,3961.48,389.84,1978.64,2.79485e+11,1.88636,0.787415,2,0.141225,8537,1,1
app_5,10.1218,25973.5,4867,530.333,486.444,5.04607e+11,1.48931,0.787415,10,1.03829,1720,1,1
app_6,45.4391,23172.9,6628.8,89.6323,97.079,8.6028e+10,1.19139,0.787415,68,0.886887,290,1,1
app_7,8.16532,26897.4,4949.65,383.342,494.927,3.48428e+11,1.50998,0.787415,10,0.705047,1846,1,1
app_8,45.52,20890.6,7610.2,17.6949,42.7267,1.56211e+10,1.04907,0.787415,181,0.363281,110,1,1
app_9,45.1465,21822.5,6760.8,525.949,73.3998,5.22444e+11,1.09841,0.787415,92,7.15676,200,1,1
