app_id,start_app,end_app,effective_cpu,effective_io,effective_iter,total_bytes,stretch,utilization,Tcomp,Tio,iterations,priority,group_id
app_1,13.0272,20119.6,7281,655.888,367.784,6.12677e+11,1.01347,0.884734,20,1.66942,921,0.1,1
app_10,2.41936,18227,6886.2,819.379,1379.23,7.0304e+11,1.05412,0.884734,5,0.509819,3142,0.1,1
app_11,307.665,22185.8,6786.5,824.218,7.63519,3.48705e+11,1.1212,0.884734,866,43.5882,22,0.001,3
app_12,647.352,23341.3,6630.72,661.704,9.88808,3.248e+11,1.15016,0.884734,651,35.0868,30,0.001,3
app_13,790.128,23119.5,6074.14,1785.39,6.13982,6.76212e+11,1.18512,0.884734,1078,101.162,17,0.001,3
app_14,24.467,21112.5,7457.4,157.987,97.4957,8.58745e+10,1.06055,0.884734,76,0.885305,259,0.01,2
app_15,8.17841,21243,6989.36,788.239,74.8973,4.82374e+11,1.0707,0.884734,94,6.45675,199,0.01,2
app_2,15.012,20241.6,7530,399.556,289.188,3.71674e+11,1.01244,0.884734,26,1.28607,732,0.1,1
app_3,2.7784,18943.1,7120.4,773.739,713.284,7.10801e+11,1.02155,0.884734,10,0.99552,1689,0.1,1
app_4,3.15839,20899.1,6758.6,653.667,2255.81,4.766e+11,1.10571,0.884734,3,0.211322,5923,0.1,1
app_5,4.5617,18901.7,7611.6,115.97,1087.34,6.73479e+10,1.04181,0.884734,7,0.0619576,2569,0.1,1
app_6,59.3883,20564.4,7707.7,45.1181,51.6484,1.99279e+10,1.03525,0.884734,149,0.390744,134,0.01,2
app_7,222.79,21312,6865.7,1087.6,26.2797,6.70683e+11,1.06152,0.884734,261,25.7955,70,0.01,2
app_8,150.62,21168.4,7301.9,452.611,47.1034,2.68071e+11,1.05681,0.884734,156,5.70363,124,0.01,2
app_9,33.7605,21069.2,7166.8,685.125,76.6305,4.12344e+11,1.05553,0.884734,93,5.35512,202,0.01,2
