app_id,start_app,end_app,effective_cpu,effective_io,effective_iter,total_bytes,stretch,utilization,Tcomp,Tio,iterations,priority,group_id
app_1,5.43193,18863.7,7694.4,151.057,768.1,1.02198e+11,1.02609,0.88833,10,0.13307,1811,0.1,1
app_10,203.834,21000.6,7396.8,510.335,33.2767,3.45022e+11,1.03335,0.88833,220,10.4552,87,0.01,2
app_11,362.535,22028,6982.7,847.285,4.82655,4.02047e+11,1.08331,0.88833,1496,80.4094,13,0.001,3
app_12,336.246,22443.1,6784.2,469.597,11.5956,2.1887e+11,1.14236,0.88833,576,19.8973,34,0.001,3
app_13,543.607,22793.5,7185.6,612.858,4.66869,2.50578e+11,1.07582,0.88833,1555,62.6445,13,0.001,3
app_14,352.76,22920.7,7507,68.7844,6.79105,1.12591e+10,1.06408,0.88833,1101,1.60845,19,0.001,3
app_15,317.1,23914,6068.6,1767.4,6.71424,8.339e+11,1.159,0.88833,918,119.129,20,0.001,3
app_2,2.86665,20023.6,7544.2,295.19,754.896,2.28837e+11,1.0292,0.88833,10,0.303095,1890,0.1,1
app_3,7.50191,19773.9,7250.1,584.532,905.631,5.34516e+11,1.02767,0.88833,8,0.589973,2238,0.1,1
app_4,0.54082,19904.7,7618.1,187.433,956.646,1.25253e+11,1.03314,0.88833,8,0.130881,2377,0.1,1
app_5,9.53612,19394.5,7042.3,902.498,587.419,8.3552e+11,1.01551,0.88833,12,1.42337,1422,0.1,1
app_6,169.158,21395.1,6647.27,1254.81,34.3852,8.51846e+11,1.06679,0.88833,190,24.6405,93,0.01,2
app_7,46.2866,21967.6,6480.8,1126.65,78.2789,7.73628e+11,1.10277,0.88833,83,9.79276,214,0.01,2
app_8,40.9305,22063.6,6951.9,191.357,107.259,1.17981e+11,1.13156,0.88833,65,1.09241,300,0.01,2
app_9,10.0695,19775.8,7445.6,496.408,323.684,4.55046e+11,1.01258,0.88833,23,1.40446,801,0.1,1
