app_id,start_app,end_app,effective_cpu,effective_io,effective_iter,total_bytes,stretch,utilization,Tcomp,Tio,iterations,priority,group_id
app_1,0.577268,28668.5,4379.76,151.156,477.967,1.39748e+11,1.77011,0.740535,9,0.292359,1964,1,1
app_10,97.7454,25132.7,6243,67.6302,60.2291,6.55885e+10,1.26811,0.740535,104,1.07522,189,1,1
app_11,41.6375,22747.8,6745.89,1036.21,8.1965,1.03592e+12,1.02804,0.740535,786,118.578,23,1,1
app_12,128.201,22144.9,7599.5,240.13,8.52131,2.3983e+11,1.0205,0.740535,871,29.9787,23,1,1
app_13,92.9363,20017.2,7483.2,305.751,7.10763,3.05364e+11,1.02715,0.740535,1032,43.6234,19,1,1
app_14,280.059,23742.4,7208,792,5.93821,7.91424e+11,1.00007,0.740535,947,131.904,19,1,1
app_15,969.887,21955.3,7245.4,587.322,6.58638,5.8687e+11,1.02142,0.740535,936,83.8386,20,1,1
app_2,9.00727,29637.8,4349.76,198.952,488.974,1.78998e+11,1.76649,0.740535,9,0.366048,2061,1,1
app_3,3.1275,29583.9,4326.73,256.076,495.083,2.41957e+11,1.75105,0.740535,9,0.488418,2066,1,1
app_4,7.6322,29324.4,4456.81,86.7501,449.997,6.01113e+10,1.77112,0.740535,10,0.133581,1901,1,1
app_5,9.88028,28915,4352.55,279.281,404.937,2.515e+11,1.7376,0.740535,11,0.620988,1614,1,1
app_6,73.995,26533.8,5739.6,434.38,60.0543,4.32108e+11,1.29624,0.740535,89,7.08373,209,1,1
app_7,32.0713,25253.1,6003.15,474.047,55.2574,4.71956e+11,1.2355,0.740535,97,8.58102,189,1,1
app_8,74.9489,25783.9,6335.8,42.8326,53.8612,4.04544e+10,1.25466,0.740535,107,0.749156,185,1,1
app_9,62.3463,24968.5,6395,260.036,64.6586,2.57086e+11,1.20263,0.740535,95,3.95517,201,1,1
