app_id,start_app,end_app,effective_cpu,effective_io,effective_iter,total_bytes,stretch,utilization,Tcomp,Tio,iterations,priority,group_id
app_1,3.33881,25425.5,4862.46,361.288,609.235,3.2791e+11,1.54132,0.803027,8,0.537557,2135,1,1
app_10,77.7081,22256.2,7077.1,32.9363,79.6775,2.91104e+10,1.12578,0.803027,91,0.36388,219,1,1
app_11,507.586,24731,7832.4,41.2427,6.58251,4.08197e+10,1.0161,0.803027,995,5.83138,20,1,1
app_12,515.768,22763.1,7363.7,492.541,8.9124,4.92127e+11,1.01835,0.803027,805,54.6808,24,1,1
app_13,488.408,21690.1,7690.9,248.317,7.65021,2.47856e+11,1.00771,0.803027,1088,35.4079,18,1,1
app_14,810.736,22518.5,7720.92,259.231,7.52757,2.5875e+11,1.00255,0.803027,955,34.8268,21,1,1
app_15,480.906,19826.2,7147,770.308,10.5669,7.69776e+11,1.01051,0.803027,778,69.9797,24,1,1
app_2,2.19698,26826.7,4720.06,469.194,597.582,4.29409e+11,1.55356,0.803027,8,0.718076,2217,1,1
app_3,3.77116,26945.5,4818.07,480.464,608.524,4.43475e+11,1.52047,0.803027,8,0.728203,2252,1,1
app_4,7.91098,26210.1,4836.47,656.774,470.291,6.30385e+11,1.46337,0.803027,10,1.3384,1737,1,1
app_5,1.43422,26249.5,5003.2,130.135,630.411,1.01854e+11,1.56708,0.803027,8,0.161417,2285,1,1
app_6,35.2481,21796.2,7041.1,158.969,69.3713,1.54797e+11,1.11174,0.803027,102,2.21139,191,1,1
app_7,79.2911,21330.2,6319.96,834.189,84.6698,8.31533e+11,1.11865,0.803027,75,9.89756,235,1,1
app_8,96.3365,21947.3,6740.3,476.161,65.3201,4.73523e+11,1.10898,0.803027,102,7.17458,183,1,1
app_9,40.7333,23280.2,7189.66,148.19,63.55,1.45809e+11,1.09059,0.803027,104,2.27827,188,1,1
