app_id,Tcomp,Tio,iter,witer,alpha_io,compute_size,io_size,mu,desyn_time
1,10.777025521783207,0.0498466009963827,1848,10.826872122779589,0.004603970604908702,10e9,49846600.996382706,10,6.494403841218465
2,9.773899168092429,0.017787691384402123,2043,9.791686859476831,0.0018166115440248585,9e9,17787691.384402122,10,7.518794194529191
3,9.939742219064382,0.02363644370805398,2008,9.963378662772435,0.002372332168441026,9e9,23636443.70805398,10,3.5303247597003447
4,10.591926311545368,0.00292824574418636,1888,10.594854557289555,0.0002763837604709397,10e9,2928245.74418636,10,0.9167896405337855
5,9.687840761134868,0.05709268778691565,2053,9.744933448921785,0.0058587047398699875,9e9,57092687.786915645,10,1.921517968193831
6,9.771022986058236,0.05406440041217067,2036,9.825087386470408,0.005502689012885505,9e9,54064400.41217067,10,0.15410235010229828
7,9.75322069325735,0.008680152996674002,2049,9.761900846254024,0.000889186761203877,9e9,8680152.996674001,10,6.553571533204637
8,10.019979773396114,0.05267004361448521,1986,10.0726498170106,0.005229015658375864,10e9,52670043.61448521,10,3.380671137743054
9,11.016237098998543,0.046899236008485105,1808,11.063136335007028,0.00423923511274846,11e9,46899236.00848511,10,8.274557958054272
10,10.491327095312796,0.04500471733780351,1899,10.5363318126506,0.004271383830544131,10e9,45004717.337803505,10,9.639978036761212
11,10.05252481758311,0.04593779047747721,1981,10.098462608060588,0.004548988520372367,10e9,45937790.47747721,10,0.0971964307075209
12,9.581647854750651,0.0398400798825382,2079,9.621487934633189,0.004140739992941339,9e9,39840079.8825382,10,7.456248222422829
13,10.152576447392489,0.061009162506417955,1959,10.213585609898907,0.005973334423053984,10e9,61009162.50641795,10,4.091624573151693
14,9.848098053009176,0.04185917102965493,2023,9.889957224038831,0.00423249262675381,9e9,41859171.029654935,10,7.203992127886725
15,10.156598277584287,0.012553396507949049,1967,10.169151674092236,0.0012344585773001215,10e9,12553396.507949049,10,8.085514567944134
16,9.455688337131534,0.0489083955237165,2105,9.50459673265525,0.005145762297907953,9e9,48908395.5237165,10,2.000051509705656
17,9.610316914042944,0.02588125677775399,2076,9.636198170820698,0.002685836916069746,9e9,25881256.77775399,10,0.0805782546949733
18,10.034603784951981,0.022316378328790864,1989,10.056920163280772,0.0022190072076211857,10e9,22316378.328790862,10,1.136113800021687
19,10.157740713062234,0.04940093032655103,1960,10.207141643388784,0.004839839795752051,10e9,49400930.326551035,10,5.358605799705115
20,10.469894553037635,0.03900110962546897,1904,10.508895662663104,0.0037112472021237604,10e9,39001109.62546897,10,3.2495522720452548
21,103.06518477093574,0.6042881007724356,193,103.66947287170818,0.005828987878816043,103e9,604288100.7724355,100,74.17950056773934
22,93.80359643517298,0.14854314713953914,213,93.95213958231251,0.0015810512437494713,93e9,148543147.13953915,100,23.52066807694746
23,97.61766897512213,0.10225115548340362,205,97.71992013060553,0.001046369617850096,97e9,102251155.48340362,100,37.0068735352011
24,98.40460248300323,0.2507345009745049,203,98.65533698397773,0.0025415198877200714,98e9,250734500.9745049,100,60.63627316540416
25,101.36552843047993,0.21458592612210264,197,101.58011435660202,0.002112479666726778,101e9,214585926.12210265,100,66.64569052603846
26,102.58949266897768,0.3182543299183477,195,102.90774699889603,0.003092617797975519,102e9,318254329.91834766,100,57.9258285289199
27,93.26594297625424,0.45330651983667397,214,93.71924949609091,0.004836856059710355,93e9,453306519.836674,100,59.170470336897175
28,90.61545669065659,0.22344600053631924,221,90.8389026911929,0.0024598051486368626,90e9,223446000.53631926,100,61.5317789219984
29,102.9142020880805,0.09448160467345741,195,103.00868369275396,0.0009172198040630202,102e9,94481604.67345741,100,40.24149734362284
30,105.2640968309504,0.05579046302656254,190,105.31988729397696,0.0005297239150174546,105e9,55790463.02656254,100,63.61850571831655
31,105.12736476939679,0.06013152759523323,191,105.18749629699202,0.0005716604131868929,105e9,60131527.595233224,100,1.1188910958052793
32,95.94416134626543,0.1879493245464502,209,96.13211067081188,0.0019551149271032943,95e9,187949324.5464502,100,53.50115764296197
33,104.58106171690528,0.056892168268805755,192,104.63795388517408,0.0005437049001477721,104e9,56892168.26880576,100,22.233625627816433
34,102.83545095433813,0.63062965813693,194,103.46608061247505,0.006095037662622102,102e9,630629658.13693,100,53.638195340312535
35,98.60775856195112,0.1344826846457544,203,98.74224124659688,0.0013619569795858702,98e9,134482684.64575443,100,6.758915374877383
36,99.99356112774272,0.6066072418713904,199,100.60016836961411,0.006029882968412742,99e9,606607241.8713903,100,46.885828483956466
37,99.99639307368209,0.32894523579807267,200,100.32533830948016,0.0032787852135953304,99e9,328945235.7980727,100,28.067158886494603
38,99.58219866213373,0.6125429908592309,200,100.19474165299296,0.006113524330255443,99e9,612542990.8592309,100,89.16577229985243
39,98.17140428331506,0.15595492702044386,204,98.3273592103355,0.0015860786689779313,98e9,155954927.02044386,100,64.84379549294529
40,102.78329371287145,0.4394674792765786,194,103.22276119214803,0.004257466804811729,102e9,439467479.2765786,100,68.73968258624589
41,1011.8857911821508,3.2859660788773337,20,1015.1717572610281,0.00323685726614676,1011e9,3285966078.8773336,1000,496.45576482509506
42,912.5281907566283,0.5313540040005381,22,913.0595447606288,0.0005819489068917624,912e9,531354004.0005381,1000,254.9282209467401
43,1023.5964627867447,3.8269173178966565,20,1027.4233801046414,0.003724771493429409,1023e9,3826917317.8966565,1000,532.6344956971805
44,1080.402251299223,1.2243196997762118,19,1081.6265709989993,0.0011319245778563113,1080e9,1224319699.7762117,1000,534.0629675457218
45,1037.471785722276,4.7881532521933945,20,1042.2599389744694,0.00459401064278139,1037e9,4788153252.193395,1000,16.729328794620084
46,977.8006633179266,0.23201994370304024,21,978.0326832616296,0.0002372312783344619,977e9,232019943.70304024,1000,120.28017813104249
47,1087.276952481689,2.4958874766443087,19,1089.7728399583334,0.0022902823277736826,1087e9,2495887476.6443086,1000,765.5438207504071
48,977.4731768354492,1.5753600671034713,21,979.0485369025527,0.001609072489998799,977e9,1575360067.1034713,1000,317.31391559979846
49,985.3841481297561,2.3733580784616386,21,987.7575062082177,0.0024027740245401268,985e9,2373358078.4616385,1000,126.04098822023155
50,938.843472714017,4.516035428681607,22,943.3595081426986,0.004787183878151449,938e9,4516035428.681607,1000,26.541781356766418
51,919.3190385671838,5.063177111080259,22,924.3822156782641,0.005477363178569117,919e9,5063177111.080259,1000,65.38498896331325
52,931.5747370292959,4.692014458338501,22,936.2667514876343,0.005011407754129215,931e9,4692014458.338501,1000,393.84478699829936
53,978.5590954813542,4.378445006656375,21,982.9375404880107,0.004454448859977977,978e9,4378445006.656375,1000,108.43438154298462
54,973.7467588438662,4.851047953200653,21,978.5978067970669,0.004957141656671034,973e9,4851047953.200653,1000,469.8967150436889
55,994.2907205094916,5.7252309601710785,20,1000.0159514696627,0.005725139635779863,994e9,5725230960.171079,1000,403.9516428189565
56,975.754223346991,5.639456015769245,21,981.3936793627603,0.0057463749098435836,975e9,5639456015.769244,1000,485.76354973393364
57,1053.8375301094907,3.888741141757611,19,1057.7262712512484,0.0036765099321560617,1053e9,3888741141.757611,1000,148.3624951320248
58,963.2400837224042,3.0252500488199807,21,966.2653337712242,0.003130868864986362,963e9,3025250048.8199806,1000,959.1081110039457
59,907.1595219782932,5.204167216737623,22,912.3636891950308,0.005704049030413745,907e9,5204167216.737623,1000,338.6079299161559
60,928.9854192394016,0.9202110379028261,22,929.9056302773045,0.0009895746492344741,928e9,920211037.9028261,1000,639.0903697298445
