app_id,Tcomp,Tio,iter,witer,alpha_io,compute_size,io_size,mu,desyn_time
1,9.882396176325761,0.03700639730514646,2017,9.919402573630908,0.0037307082790975585,9e9,37006397.30514646,10,0.06120011830979129
2,9.690450877254007,0.04971257200773054,2054,9.740163449261738,0.005103874515729871,9e9,49712572.00773054,10,2.4948479468185165
3,10.700467536589645,0.050706430969506354,1861,10.751173967559152,0.004716362243091698,10e9,50706430.96950635,10,8.36080220946617
4,9.446082769548891,0.044733924641210794,2108,9.490816694190102,0.004713390436525354,9e9,44733924.641210794,10,4.1199489917969965
5,8.931545733240709,0.04985824466732697,2227,8.981403977908036,0.005551275144728546,8e9,49858244.667326964,10,1.8566585652892669
6,9.924822887759307,0.043056885607926726,2007,9.967879773367233,0.004319563095350392,9e9,43056885.60792673,10,8.89183437281436
7,10.466312334089697,0.03128415267343806,1906,10.497596486763134,0.0029801252803806637,10e9,31284152.673438057,10,5.457408235097058
8,9.304816832679556,0.022129930750820294,2145,9.326946763430376,0.0023726875806334164,9e9,22129930.750820294,10,6.85188139319227
9,10.205147977440172,0.053811336809544974,1950,10.258959314249717,0.005245301707630413,10e9,53811336.80954497,10,2.4144873821452695
10,9.861374881207814,0.006948991717575253,2027,9.868323872925389,0.000704171428406441,9e9,6948991.717575253,10,0.23606803711054117
11,9.91387340848413,0.05166740499687366,2007,9.965540813481004,0.005184606231001529,9e9,51667404.99687366,10,6.868204296519738
12,9.648716996377463,0.03274571125883279,2066,9.681462707636296,0.0033823103231089727,9e9,32745711.258832794,10,6.754376008584026
13,10.250147501233107,0.019905148538784903,1948,10.270052649771891,0.0019381739527135743,10e9,19905148.538784903,10,0.30925672301071555
14,9.384656839914514,0.05227528180093846,2120,9.436932121715452,0.0055394360292840405,9e9,52275281.800938465,10,3.2836754458053004
15,9.88021331015939,0.05467937009240704,2014,9.934892680251796,0.0055037705843664145,9e9,54679370.09240704,10,2.0434039313673433
16,8.898681160563198,0.04406932506052218,2237,8.942750485623721,0.004927938572295805,8e9,44069325.06052218,10,6.974108818491775
17,9.915122992046811,0.017456084130590046,2014,9.9325790761774,0.0017574573528900716,9e9,17456084.130590048,10,4.484225206203058
18,10.482445255248107,0.017836491742894353,1905,10.500281746991002,0.0016986679188875711,10e9,17836491.74289435,10,5.078548965789602
19,10.75268461062503,0.001748935102278018,1860,10.754433545727307,0.00016262456733231317,10e9,1748935.102278018,10,10.421743460284581
20,9.885179542662383,0.05482889070388531,2013,9.940008433366268,0.005515980300362486,9e9,54828890.70388531,10,8.61770119716884
21,98.45509400411336,0.5647461426959375,202,99.0198401468093,0.0057033635063299505,98e9,564746142.6959375,100,41.9918013871356
22,100.64491377495844,0.29996043706359804,199,100.94487421202204,0.002971527176640676,100e9,299960437.06359804,100,65.20883225249648
23,101.21367246131122,0.47783321041384424,197,101.69150567172507,0.004698850776743922,101e9,477833210.4138442,100,33.668911624510166
24,101.95314977399816,0.563366882332133,196,102.5165166563303,0.0054953767520284314,101e9,563366882.3321329,100,5.2425925664476285
25,104.43053688583703,0.308002961244412,191,104.73853984708144,0.0029406841234763934,104e9,308002961.244412,100,91.02554008744856
26,94.70692408864869,0.5308057287280296,211,95.23772981737672,0.005573481536633402,94e9,530805728.72802955,100,19.050762029842826
27,93.14063121390355,0.4544788559042148,214,93.59511006980776,0.004855797012955511,93e9,454478855.9042148,100,30.885048517925604
28,96.96858116608448,0.38303206745820323,206,97.35161323354268,0.003934522035493386,96e9,383032067.45820326,100,7.494372965705002
29,101.42029582111691,0.4611725311378165,197,101.88146835225473,0.0045265595264421836,101e9,461172531.1378165,100,56.661869371955184
30,94.98673306944478,0.23028393750617135,211,95.21701700695095,0.002418516613362928,94e9,230283937.50617135,100,83.27545432395081
31,100.11296411701237,0.4251478928841223,199,100.5381120098965,0.004228723658966987,100e9,425147892.8841223,100,31.829518826882033
32,105.87990623700273,0.4575392027419877,189,106.33744543974471,0.0043027101210668895,105e9,457539202.7419877,100,36.650059578317766
33,100.89407358238437,0.30040404170914276,198,101.19447762409351,0.0029685813767926323,100e9,300404041.70914274,100,13.764572388043268
34,98.86270160004587,0.3483988253616581,202,99.21110042540752,0.0035116919766816205,98e9,348398825.3616581,100,84.22034174765687
35,93.64189484737531,0.04678305265861383,214,93.68867790003392,0.0004993458516783797,93e9,46783052.65861383,100,76.58726542576453
36,91.13397544094423,0.3728896059611332,219,91.50686504690536,0.004074990502297224,91e9,372889605.9611332,100,84.98306629031576
37,104.48109449372797,0.3148323159064731,191,104.79592680963444,0.0030042419156078204,104e9,314832315.9064731,100,33.9640273896871
38,101.47161987080663,0.5253043016075066,197,101.99692417241414,0.005150197477715502,101e9,525304301.60750663,100,52.62153420187997
39,104.27948196239223,0.39736470308391036,192,104.67684666547613,0.0037961088410868866,104e9,397364703.08391035,100,63.1497136153781
40,96.40002974607856,0.5006432509833407,207,96.9006729970619,0.0051665611341886195,96e9,500643250.98334074,100,40.77004296478239
41,974.889550694787,1.9712951869900013,21,976.860845881777,0.002017989763128017,974e9,1971295186.9900012,1000,892.8343218506801
42,942.5331600406205,5.410617280962657,22,947.9437773215832,0.0057077407019331524,942e9,5410617280.962657,1000,664.6666600370734
43,1036.4375930089877,2.7688066677977097,20,1039.2063996767854,0.002664347206347907,1036e9,2768806667.7977095,1000,408.12348621753955
44,983.29460155615,0.8907323510302525,21,984.1853339071803,0.000905045340895375,983e9,890732351.0302525,1000,549.1682264378287
45,987.7710854908619,1.0527110600469696,21,988.8237965509088,0.0010646093507446972,987e9,1052711060.0469695,1000,778.5885172293832
46,1057.5093038672073,2.970269825424318,19,1060.4795736926317,0.0028008741508162398,1057e9,2970269825.424318,1000,689.8617928308911
47,1127.0969532208546,1.1613428092853906,18,1128.25829603014,0.001029323527574901,1127e9,1161342809.2853906,1000,927.8639649595592
48,944.842811247715,0.9157089171795149,22,945.7585201648944,0.0009682269814707666,944e9,915708917.1795149,1000,879.4052981356882
49,1065.9047970001775,0.4932510688948356,19,1066.3980480690723,0.0004625393583455687,1065e9,493251068.8948356,1000,718.6392448379373
50,1001.1697753898327,4.239461331179199,20,1005.4092367210119,0.004216652459853614,1001e9,4239461331.179199,1000,876.1368279998367
51,963.4927294223377,3.7345536863987117,21,967.2272831087364,0.003861092166874774,963e9,3734553686.3987117,1000,864.0951713514485
52,1066.5302604322565,2.233544893912152,19,1068.7638053261685,0.002089839572393184,1066e9,2233544893.912152,1000,127.36275655122247
53,953.9937306202277,4.697672163294908,21,958.6914027835226,0.004900087921572471,953e9,4697672163.294909,1000,652.8187677828184
54,973.432088132033,0.9090883164125677,21,974.3411764484455,0.0009330287361212324,973e9,909088316.4125677,1000,670.7386453294185
55,993.756926557418,1.2505078165708219,21,995.0074343739888,0.0012567823851060789,993e9,1250507816.570822,1000,150.94694177813113
56,980.713526406191,0.8037520313319348,21,981.5172784375229,0.000818887297237831,980e9,803752031.3319348,1000,903.4574756683872
57,931.6776195964999,2.012044598099477,22,933.6896641945993,0.002154939350040965,931e9,2012044598.099477,1000,384.76233033343954
58,965.4681742865712,3.9772113538474376,21,969.4453856404186,0.0041025636026108675,965e9,3977211353.847438,1000,314.85220981872766
59,1045.2486076005412,1.339735559916816,20,1046.588343160458,0.001280097918796917,1045e9,1339735559.916816,1000,611.1335265607671
60,1015.7278500018397,1.9285349173325221,20,1017.6563849191722,0.001895074748128954,1015e9,1928534917.3325222,1000,362.5212453916307
