app_id,Tcomp,Tio,iter,witer,alpha_io,compute_size,io_size,mu,desyn_time
1,10.029338602635148,0.07203198853256174,1980,10.10137059116771,0.007130912372974814,10e9,72031988.53256173,10,5.874666594060427
2,9.971584504672869,0.036849952613795985,1999,10.008434457286665,0.003681889787165193,9e9,36849952.61379599,10,0.06790459785048049
3,10.791195585323157,0.03790411448731234,1847,10.82909969981047,0.003500209208340351,10e9,37904114.48731234,10,3.187669938913298
4,10.364772204953972,0.035359161412359424,1924,10.400131366366331,0.0033998764214373044,10e9,35359161.412359424,10,2.1745283696335176
5,9.75122866557155,0.07453202234952828,2036,9.825760687921077,0.007585369185833252,9e9,74532022.34952828,10,5.768836827390644
6,9.702540187584773,0.04609169716799357,2052,9.748631884752767,0.004728016988730772,9e9,46091697.16799357,10,2.2101036247596904
7,10.808425070535796,0.03661697199887122,1845,10.845042042534667,0.003376378980852086,10e9,36616971.99887122,10,9.338307150484326
8,9.759280059431397,0.0003872368926774027,2050,9.759667296324075,3.967726367304072e-05,9e9,387236.8926774027,10,0.9112380174045595
9,9.428057872611419,0.019960666304667366,2117,9.448018538916086,0.0021126828045954843,9e9,19960666.304667365,10,7.272719748558604
10,9.65326309420198,0.004622508850217075,2071,9.657885603052197,0.0004786253472246778,9e9,4622508.850217075,10,0.379459175231993
11,10.94093060998968,0.06324271756855043,1818,11.004173327558231,0.0057471575270601144,10e9,63242717.56855043,10,9.554807449266248
12,10.46005685392758,0.05282033209680959,1903,10.512877186024388,0.0050243459675366415,10e9,52820332.096809596,10,2.408424721310358
13,9.959149245536189,0.012596840547781167,2006,9.97174608608397,0.0012632532396067162,9e9,12596840.547781168,10,8.676398824875074
14,9.615102699091837,0.0013090578606868573,2080,9.616411756952523,0.00013612747600376282,9e9,1309057.8606868573,10,1.1607681330296595
15,8.990829236544165,0.028728402469693142,2218,9.019557639013858,0.003185123219949191,8e9,28728402.469693143,10,7.745526601540888
16,10.607249097757931,0.0418385129600546,1879,10.649087610717986,0.0039288354542172605,10e9,41838512.9600546,10,6.3716194050356245
17,10.0893093542892,0.012072369315058971,1980,10.10138172360426,0.0011951205929431451,10e9,12072369.31505897,10,9.911160261823676
18,10.169987892195243,0.05100525251181058,1957,10.220993144707053,0.004990244273691121,10e9,51005252.51181058,10,4.256741100812225
19,10.396247554703097,0.06842655656475091,1912,10.464674111267847,0.006538813902582265,10e9,68426556.56475091,10,3.905778642630601
20,9.74554556791121,0.009331232853940349,2051,9.75487680076515,0.0009565710612776195,9e9,9331232.85394035,10,2.815126407763238
21,104.70342889266381,0.12426817797256769,191,104.82769707063638,0.0011854517598419783,104e9,124268177.97256769,100,87.41597589920956
22,102.41377550835836,0.10737820144413023,196,102.52115370980249,0.0010473760541953726,102e9,107378201.44413023,100,9.74262197018414
23,97.42850307916285,0.12316231521372561,206,97.55166539437657,0.0012625342142116355,97e9,123162315.21372561,100,61.14986796432037
24,105.72768583560823,0.3900056722150743,189,106.1176915078233,0.0036752182098337676,105e9,390005672.2150743,100,82.9159213335657
25,96.0515618864562,0.618625654115221,207,96.67018754057142,0.006399342650034588,96e9,618625654.115221,100,62.497529919353134
26,100.98757652138988,0.09510997382069122,198,101.08268649521058,0.0009409126045061896,100e9,95109973.82069123,100,72.7415142061541
27,95.21570220782966,0.3882739509492226,210,95.60397615877889,0.004061274086596336,95e9,388273950.9492226,100,93.12053436414571
28,99.15424346768356,0.20978349713764255,202,99.36402696482119,0.0021112620285801643,99e9,209783497.13764256,100,93.18650640051598
29,98.6783058530822,0.6283267271546659,202,99.30663258023687,0.00632713758214484,98e9,628326727.1546658,100,2.1897226558745784
30,106.16471434776146,0.42158636490358836,188,106.58630071266505,0.0039553522552593255,106e9,421586364.90358835,100,72.11277395528437
31,89.22800650393272,0.17462424312300895,224,89.40263074705572,0.001953233832873087,89e9,174624243.12300894,100,22.772382409691225
32,104.04000907459621,0.48853180162849097,192,104.52854087622471,0.0046736690049751645,104e9,488531801.628491,100,104.20668836964043
33,105.39842303268763,0.1080201027749638,190,105.50644313546259,0.0010238247026892362,105e9,108020102.7749638,100,90.07397479170542
34,105.03062398664888,0.7267579516237799,190,105.75738193827266,0.006871935918837006,105e9,726757951.6237799,100,94.88007761517328
35,97.71455387411639,0.7106948598630147,204,98.4252487339794,0.007220655969931638,97e9,710694859.8630147,100,41.849879326703785
36,96.53359800751639,0.2775477369504884,207,96.81114574446688,0.0028668985871014886,96e9,277547736.9504884,100,55.981402190863776
37,104.64369516780722,0.2710502305424412,191,104.91474539834967,0.0025835284593532922,104e9,271050230.5424412,100,71.26536523421662
38,97.06923012863864,0.426561296134839,206,97.49579142477347,0.004375176506608168,97e9,426561296.134839,100,76.83602112313976
39,93.0379591021251,0.2659775049504226,215,93.30393660707553,0.002850656838526711,93e9,265977504.9504226,100,65.88764298257995
40,95.58660085157788,0.5734475726927899,208,96.16004842427067,0.00596347009064164,95e9,573447572.6927899,100,10.997053407188691
41,1057.4564618607667,3.0730013695861707,19,1060.5294632303528,0.002897610557867828,1057e9,3073001369.5861707,1000,737.5856628459833
42,1002.428475917306,5.895773065327346,20,1008.3242489826333,0.005847100346218978,1002e9,5895773065.327347,1000,867.8474016481259
43,908.8607510502845,4.239239940641296,22,913.0999909909258,0.00464268971905337,908e9,4239239940.641296,1000,386.42589296186895
44,934.3842675383979,1.5750560051808509,22,935.9593235435788,0.0016828252740916422,934e9,1575056005.180851,1000,749.5280558015957
45,984.5617679454552,3.1278345013055104,21,987.6896024467608,0.0031668193059409162,984e9,3127834501.3055105,1000,853.2441969818218
46,965.4034585268488,3.3178315411929225,21,968.7212900680418,0.0034249598674143747,965e9,3317831541.1929226,1000,457.12743354551554
47,970.8335382874717,2.2042563873672707,21,973.037794674839,0.0022653348096348808,970e9,2204256387.3672705,1000,460.69887962625126
48,951.2933439606464,7.411443928208691,21,958.7047878888551,0.007730684170806411,951e9,7411443928.208691,1000,751.554698556624
49,1019.9787647439185,0.112782147524629,20,1020.0915468914432,0.00011056080982958203,1019e9,112782147.52462901,1000,849.4098642126745
50,993.312125359795,4.544298538391535,21,997.8564238981866,0.004554060513674861,993e9,4544298538.391536,1000,172.90686999643756
51,940.4355472156301,2.862475676214294,22,943.2980228918444,0.0030345400994681152,940e9,2862475676.2142944,1000,368.3424898726964
52,925.3916343156852,0.06011065189748124,22,925.4517449675827,6.49527673639935e-05,925e9,60110651.89748124,1000,113.1933542002643
53,1002.5712417904165,1.545124049860172,20,1004.1163658402767,0.0015387898279769225,1002e9,1545124049.860172,1000,18.581116581537515
54,984.8963231657381,1.376740438383357,21,986.2730636041214,0.0013959018949096685,984e9,1376740438.383357,1000,960.0789427774744
55,1118.2100819980385,1.059641112996414,18,1119.2697231110349,0.000946725432768,1118e9,1059641112.9964141,1000,644.15821506828
56,1046.9759746239606,1.9983348868983666,20,1048.974309510859,0.001905037014519639,1046e9,1998334886.8983667,1000,527.0644438810776
57,1009.2179353738379,0.1155364566151339,20,1009.333471830453,0.00011446807208880676,1009e9,115536456.6151339,1000,586.5943000597268
58,971.7444110528378,6.399897205742097,21,978.1443082585799,0.006542896739987199,971e9,6399897205.742097,1000,279.3958968689606
59,1012.5250883488867,5.073961431916641,20,1017.5990497808033,0.004986208893384483,1012e9,5073961431.916641,1000,744.5673623025791
60,1029.7307480361828,2.8910223421945584,20,1032.6217703783773,0.002799691450563955,1029e9,2891022342.1945586,1000,499.3375426168733
