app_id,Tcomp,Tio,iter,witer,alpha_io,compute_size,io_size,mu,desyn_time
1,10.200118291693887,0.011097638264641945,1959,10.211215929958529,0.001086808695532797,10e9,11097638.264641946,10,8.666017056280623
2,9.968269306873694,0.025747441792298806,2002,9.994016748665993,0.002576285635676525,9e9,25747441.792298805,10,4.666012173339117
3,10.101707961008843,0.02315712708242726,1976,10.124865088091271,0.0022871541379513648,10e9,23157127.08242726,10,4.971202345028914
4,9.218857451927827,0.004482194834603248,2169,9.22333964676243,0.000485962244291479,9e9,4482194.834603248,10,6.86547570849802
5,9.598237982359388,0.0600968729032085,2071,9.658334855262597,0.006222280942191929,9e9,60096872.903208494,10,2.512207996637994
6,10.069768992141618,0.0336767723964776,1980,10.103445764538096,0.0033331967312260043,10e9,33676772.3964776,10,2.7572631774922938
7,10.121041673534421,0.01547092473662321,1974,10.136512598271045,0.0015262571408693401,10e9,15470924.73662321,10,5.860540158552058
8,10.596412880111382,0.040069037294292766,1881,10.636481917405675,0.0037671325543009934,10e9,40069037.29429276,10,10.560953594762022
9,9.870917238029898,0.008392931452457324,2025,9.879310169482356,0.00084954630520494,9e9,8392931.452457324,10,5.62390121819987
10,10.282459767653597,0.01733934882383308,1942,10.29979911647743,0.0016834647576857984,10e9,17339348.82383308,10,9.954936491917485
11,10.206451104116892,0.029170384548121594,1954,10.235621488665014,0.0028498889471855757,10e9,29170384.548121594,10,9.701413847049114
12,10.219670618770524,0.03563386463447219,1951,10.255304483404995,0.003474676416690939,10e9,35633864.63447219,10,2.298954588375164
13,9.677843981264456,0.03827965687664392,2059,9.716123638141099,0.003939807509897809,9e9,38279656.87664392,10,2.6963157830659124
14,9.595002851142247,0.03490869317182523,2077,9.629911544314073,0.0036250273962731127,9e9,34908693.17182523,10,6.818712589588802
15,10.120272819413188,0.027316154610834947,1971,10.147588974024023,0.002691886189001084,10e9,27316154.61083495,10,5.535748673385523
16,9.860728988572129,0.045178313451440015,2019,9.90590730202357,0.00456074462176837,9e9,45178313.451440014,10,6.193520905387707
17,10.878969569189868,0.07271626752730691,1827,10.951685836717175,0.006639732787395588,10e9,72716267.52730691,10,4.125939170572038
18,10.014176969803724,0.06707849620641831,1984,10.081255466010143,0.006653783988768014,10e9,67078496.20641831,10,9.197844620674692
19,10.095432854845916,0.028640386645832846,1976,10.124073241491748,0.00282893910016921,10e9,28640386.645832844,10,0.47802185838845807
20,9.235847249467223,0.008816771213733038,2164,9.244664020680956,0.0009537146178605634,9e9,8816771.213733038,10,0.9982088977127235
21,103.83950739503308,0.5168808744025952,192,104.35638826943568,0.004953035295434629,103e9,516880874.4025952,100,94.50522695392293
22,104.35524109114012,0.47021080378960134,191,104.82545189492971,0.004485654917671239,104e9,470210803.7896013,100,93.79561938136702
23,112.14877613031862,0.7391593099953564,178,112.88793544031398,0.006547726354568369,112e9,739159309.9953564,100,31.412055230174367
24,98.00688999114182,0.47638897903990174,204,98.48327897018171,0.0048372574920473605,98e9,476388979.03990173,100,65.33340068625974
25,99.86079672413544,0.6551046044567109,199,100.51590132859215,0.0065174225749131676,99e9,655104604.4567109,100,72.66783361341649
26,106.94319607379873,0.5922901225785816,186,107.5354861963773,0.005507857392274802,106e9,592290122.5785816,100,2.515638174098983
27,98.63465233907965,0.015090131831196544,203,98.64974247091085,0.00015296676355385535,98e9,15090131.831196543,100,36.25625074587009
28,104.04021371044398,0.08747314745971782,193,104.1276868579037,0.0008400565699599833,104e9,87473147.45971783,100,25.151398155729854
29,93.97761873878189,0.5408512897447916,212,94.51847002852668,0.00572217567192483,93e9,540851289.7447916,100,34.687177971612144
30,96.60912264839872,0.4549299037172215,207,97.06405255211594,0.00468690407783004,96e9,454929903.7172215,100,76.4609137564784
31,90.89061876817834,0.13601896229695795,220,91.0266377304753,0.0014942764633326605,90e9,136018962.29695794,100,12.580547438804821
32,101.08056395912547,0.03076802861567946,198,101.11133198774115,0.0003042985193727822,101e9,30768028.61567946,100,69.47372955801764
33,89.5022627627318,0.2595259914913243,223,89.76178875422313,0.002891274729405547,89e9,259525991.49132434,100,26.300753798489165
34,90.7699583010953,0.001748972322899163,221,90.7717072734182,1.9267813456796535e-05,90e9,1748972.322899163,100,0.018481275654274727
35,103.5220720579735,0.3006550924169416,193,103.82272715039045,0.002895850462311911,103e9,300655092.4169416,100,91.72933258430072
36,98.70636668399743,0.43528310108655477,202,99.14164978508398,0.004390517023169851,98e9,435283101.08655477,100,61.12057785253793
37,104.39263166321975,0.15826161095077287,192,104.55089327417052,0.0015137279653436655,104e9,158261610.95077288,100,5.506728913708371
38,103.64877708510096,0.5030887000775506,193,104.15186578517852,0.004830337856022771,103e9,503088700.0775506,100,50.14436540839436
39,95.61108863992942,0.13828554070377164,209,95.7493741806332,0.0014442448515944665,95e9,138285540.70377165,100,94.12687784406889
40,93.75435847214611,0.481211301751322,213,94.23556977389742,0.005106472034985393,93e9,481211301.751322,100,29.68853967996895
41,926.7737974568373,1.0200112760413853,22,927.7938087328787,0.0010993943551255761,926e9,1020011276.0413853,1000,77.95872863886461
42,1027.3214588404344,4.363314203981497,20,1031.6847730444158,0.004229309492574675,1027e9,4363314203.981498,1000,439.97584584769373
43,988.7157318870585,4.16772259610784,21,992.8834544831664,0.004197594971785785,988e9,4167722596.10784,1000,954.273255674975
44,890.4821630061308,1.227133101538907,23,891.7092961076697,0.001376158246746299,890e9,1227133101.538907,1000,612.4796667931724
45,997.8445495830211,1.36026847167367,21,999.2048180546948,0.0013613509934048487,997e9,1360268471.6736698,1000,388.7550791003446
46,1026.6321777977325,3.9038342393723386,20,1030.536012037105,0.003788158971422514,1026e9,3903834239.372339,1000,134.36733493304544
47,932.7987857164753,2.336228224149034,22,935.1350139406244,0.0024982790605864013,932e9,2336228224.149034,1000,368.0832077774543
48,990.236616530493,0.3706719335736483,21,990.6072884640668,0.000374186559992279,990e9,370671933.57364833,1000,588.4960835436086
49,1097.1785991752095,2.0533237697920206,19,1099.2319229450015,0.001867962280690383,1097e9,2053323769.7920206,1000,857.5022672640162
50,981.2177229458326,4.525802121329906,21,985.7435250671625,0.0045912572654449296,981e9,4525802121.3299055,1000,278.30016449481667
51,938.0126266477276,5.764654785495246,22,943.7772814332229,0.006108066912504002,938e9,5764654785.495246,1000,185.95826785068843
52,1014.8987379295075,6.511497773717331,20,1021.4102357032249,0.006375007363455945,1014e9,6511497773.717331,1000,1005.6126374314482
53,1047.3335132701923,3.5031156583767027,20,1050.8366289285689,0.003333644414306792,1047e9,3503115658.376703,1000,710.7981890989089
54,1032.4119826356048,2.994797116283741,20,1035.4067797518885,0.002892387006584384,1032e9,2994797116.283741,1000,278.91475303555006
55,1050.6707687833093,4.5763914690080325,19,1055.2471602523174,0.004336795815601895,1050e9,4576391469.008033,1000,32.63295511721116
56,954.0591033971309,0.8056189347383975,21,954.8647223318693,0.0008436995481108574,954e9,805618934.7383975,1000,17.70790471132527
57,1021.7967673724905,5.040980551471363,20,1026.8377479239618,0.004909227929790376,1021e9,5040980551.471363,1000,869.9539989629337
58,1060.319833498902,5.052812107947294,19,1065.3726456068493,0.004742765011644494,1060e9,5052812107.947294,1000,680.8912635325051
59,946.6025792523097,4.042748036523,22,950.6453272888327,0.004252635468216739,946e9,4042748036.5230002,1000,860.0667843331044
60,1036.673591118147,5.884723307103898,20,1042.558314425251,0.005644502782895238,1036e9,5884723307.103898,1000,591.077606815582
