app_id,Tcomp,Tio,iter,witer,alpha_io,compute_size,io_size,mu,desyn_time
1,10.50800887106778,0.027055568859621213,1899,10.535064439927401,0.002568144600718518,10e9,27055568.859621212,10,6.411509873045409
2,10.70913243187659,0.0018682626500845468,1868,10.711000694526675,0.00017442465959686005,10e9,1868262.6500845468,10,2.5534778940405363
3,9.5174940705207,0.03461594271138558,2094,9.552110013232085,0.0036239053636771094,9e9,34615942.71138558,10,6.708066070244116
4,10.038868574703395,0.03279237884682611,1986,10.071660953550222,0.0032559057535854526,10e9,32792378.846826114,10,5.273527774382232
5,9.997038052890476,0.008123251730543842,1999,10.00516130462102,0.0008119061235716418,9e9,8123251.730543843,10,8.766200689954903
6,9.73437629789205,0.06090251638253809,2042,9.795278814274589,0.006217537809519551,9e9,60902516.38253809,10,6.054178375927156
7,9.716730944801505,0.01961447812578103,2055,9.736345422927286,0.0020145626797086077,9e9,19614478.12578103,10,5.9404135379179825
8,9.074343383659354,0.059282841269129846,2190,9.133626224928484,0.0064906138930153155,9e9,59282841.26912984,10,2.3070128167222466
9,9.57575076859688,0.06028459959348583,2076,9.636035368190365,0.006256162134117115,9e9,60284599.59348583,10,7.332175444742284
10,10.03395464925906,0.03160297982706363,1987,10.065557629086124,0.003139714757157765,10e9,31602979.827063628,10,4.275605054659045
11,9.344150146982573,0.05815726261380579,2128,9.402307409596379,0.006185424500633549,9e9,58157262.61380579,10,1.3200508822921633
12,9.952439696620752,0.04456551028519482,2001,9.997005206905946,0.004457886073162081,9e9,44565510.28519482,10,0.034211638822842325
13,9.227341743573612,0.05961732458777598,2154,9.286959068161389,0.00641946671135473,9e9,59617324.58777598,10,8.761760790689115
14,9.343291880648232,0.016576603177894358,2137,9.359868483826126,0.0017710294975339413,9e9,16576603.177894358,10,6.2018844717846715
15,9.400717764676916,0.013617628549167088,2125,9.414335393226082,0.0014464779488274244,9e9,13617628.549167087,10,0.183183493946755
16,9.618157475621514,0.005763288789181082,2079,9.623920764410695,0.0005988503989448616,9e9,5763288.789181082,10,2.3038571725631733
17,9.328272830903106,0.04490024788947707,2134,9.373173078792583,0.0047902932669691995,9e9,44900247.889477074,10,4.297916227022615
18,9.735071304399709,0.058511666591380476,2043,9.793582970991089,0.005974490313166686,9e9,58511666.59138048,10,6.574873693801826
19,10.786884939665594,0.03630445711533914,1848,10.823189396780933,0.0033543215206172892,10e9,36304457.11533914,10,3.9655400753266616
20,10.338193700849263,0.0063151707259445355,1934,10.344508871575208,0.000610485311999437,10e9,6315170.725944536,10,3.8720010918963172
21,111.40758451077379,0.08557851833099338,180,111.49316302910478,0.0007675674095698002,111e9,85578518.33099338,100,44.41733146739456
22,115.78912052413283,0.08963159663515903,173,115.87875212076798,0.0007734946657152956,115e9,89631596.63515903,100,63.66132927282257
23,105.77709020586809,0.3601152939569325,189,106.13720549982503,0.003392922324090454,105e9,360115293.9569325,100,21.142336251914735
24,93.24077953772066,0.03471690359045254,215,93.2754964413111,0.0003721974678772833,93e9,34716903.590452544,100,59.371117677392874
25,96.23804221624562,0.34561534989656667,208,96.58365756614218,0.003578404034449443,96e9,345615349.8965667,100,14.6803720993315
26,101.85836028388432,0.37867689697165136,196,102.23703718085598,0.0037039111012360116,101e9,378676896.9716514,100,50.73157767611119
27,92.86813330049715,0.49520552876063195,215,93.36333882925778,0.0053040683309993905,92e9,495205528.760632,100,59.471516322958195
28,101.54003145612063,0.3072813953909671,197,101.8473128515116,0.003017079064608885,101e9,307281395.39096713,100,81.68634556466732
29,103.86728949502339,0.14651676976515424,193,104.01380626478854,0.0014086280949296831,103e9,146516769.76515424,100,21.837596452876983
30,92.0597674534197,0.17185091259640498,217,92.23161836601611,0.0018632537912803837,92e9,171850912.59640497,100,23.540581001859483
31,93.91779777151646,0.6045198533033357,212,94.52231762481979,0.006395525083322757,93e9,604519853.3033357,100,8.627032192252083
32,100.19750632722925,0.39469576820317503,199,100.59220209543243,0.00392372132214309,100e9,394695768.203175,100,40.43082324033158
33,95.01539709932794,0.4600188892812431,210,95.47541598860919,0.00481819203946832,95e9,460018889.28124315,100,10.127701171302915
34,99.84921291409326,0.5601187500400816,200,100.40933166413333,0.005578353533052731,99e9,560118750.0400816,100,46.28170976670181
35,95.66261584058734,0.6101161945373824,208,96.27273203512472,0.0063373728120106115,95e9,610116194.5373824,100,23.660070457211148
36,96.25820057522188,0.3847155077485216,207,96.6429160829704,0.003980793661257423,96e9,384715507.74852157,100,37.15355061978554
37,101.89305976369309,0.3844816831049794,196,102.27754144679807,0.003759199504272168,101e9,384481683.1049794,100,61.18955218894385
38,94.21491878500652,0.014106128630711886,213,94.22902491363723,0.00014970046271454504,94e9,14106128.630711887,100,85.77330448473717
39,100.6906758949291,0.1375182821959967,199,100.8281941771251,0.0013638871876889718,100e9,137518282.1959967,100,88.35009737504518
40,102.28914301077361,0.06932582728512542,196,102.35846883805874,0.0006772847236979068,102e9,69325827.28512542,100,79.60246985781129
41,900.0280810316522,1.2701575300535923,23,901.2982385617057,0.001409253314508318,900e9,1270157530.0535924,1000,884.481710308393
42,889.8116601979746,4.385214152785489,23,894.19687435076,0.004904081280724017,889e9,4385214152.785489,1000,445.3430380692269
43,941.2032228304993,6.065156600154636,22,947.2683794306539,0.006402785875529844,941e9,6065156600.154636,1000,104.39447360818615
44,985.3451299941955,0.9195815036713679,21,986.2647114978669,0.0009323881235442102,985e9,919581503.6713679,1000,233.2632861135984
45,922.016115490633,5.380091547588891,22,927.3962070382219,0.005801286986897451,922e9,5380091547.588891,1000,479.5501417097351
46,988.7952223034537,5.155387008542015,21,993.9506093119957,0.005186763768987004,988e9,5155387008.542015,1000,538.2308910735777
47,987.2597089584891,2.4244110571236526,21,989.6841200156127,0.0024496816793275478,987e9,2424411057.1236525,1000,522.1120938933554
48,1042.4106845617523,3.1198049262784617,20,1045.5304894880308,0.00298394447378206,1042e9,3119804926.278462,1000,888.2658612494777
49,999.8584083693835,6.136511634892942,20,1005.9949200042764,0.006099942964788387,999e9,6136511634.892942,1000,715.4308788944263
50,1057.3216711079879,1.2993443436244965,19,1058.6210154516123,0.0012273933019081344,1057e9,1299344343.6244965,1000,188.19954585568183
51,1000.9449743227588,1.4695697640751937,20,1002.414544086834,0.0014660299700798162,1000e9,1469569764.0751936,1000,762.7708034216583
52,911.1530405370914,4.75474221403916,22,915.9077827511306,0.0051912892362998,911e9,4754742214.03916,1000,899.8127003182894
53,988.7597141554479,0.34647123514075484,21,989.1061853905886,0.0003502871989461239,988e9,346471235.1407548,1000,651.9757068434681
54,972.8661399515083,6.12568760923041,21,978.9918275607388,0.006257138657115459,972e9,6125687609.230411,1000,303.5702984046703
55,1048.9903458868619,2.560932706313111,20,1051.551278593175,0.002435385471395434,1048e9,2560932706.313111,1000,605.8191273823717
56,954.7161348545139,4.227124129915592,21,958.9432589844296,0.004408106621858247,954e9,4227124129.9155917,1000,232.59557643050744
57,999.0642333882986,4.732997222268305,20,1003.7972306105669,0.004715092927073953,999e9,4732997222.268305,1000,671.8361892582959
58,996.6568029975847,2.8789105861551763,21,999.5357135837398,0.0028802478461055856,996e9,2878910586.155176,1000,948.065248871706
59,1051.2763484745528,0.280141095544113,20,1051.556489570097,0.00026640613064795194,1051e9,280141095.544113,1000,331.7528784075873
60,1037.262167371822,3.439868069527847,20,1040.7020354413498,0.0033053342382183756,1037e9,3439868069.5278473,1000,449.2740743057089
