app_id,Tcomp,Tio,iter,witer,alpha_io,compute_size,io_size,mu,desyn_time
1,10.420767289725628,0.03076144446829143,1914,10.45152873419392,0.0029432483276489716,10e9,30761444.468291428,10,3.772996964133967
2,9.77691329761101,0.022188515226425443,2042,9.799101812837435,0.0022643417376638645,9e9,22188515.226425443,10,4.9389785617232285
3,9.964831146255477,0.032957493541123956,2001,9.997788639796601,0.0032964783242101477,9e9,32957493.541123956,10,6.382593813942124
4,10.402403168495235,0.029862355698362354,1918,10.432265524193598,0.002862499581620904,10e9,29862355.698362354,10,7.7509707670515935
5,9.562474684516703,0.02785818871277173,2086,9.590332873229475,0.0029048197889496915,9e9,27858188.71277173,10,7.560841421972797
6,10.092381663134063,0.03166887606615287,1976,10.124050539200216,0.0031280835613701576,10e9,31668876.066152874,10,8.141354991737755
7,10.340071392536903,0.04711191254339848,1926,10.3871833050803,0.004535581125285077,10e9,47111912.54339848,10,7.463003041390248
8,10.404193751137958,0.06471680435467281,1911,10.46891055549263,0.006181808891348147,10e9,64716804.354672804,10,1.67813386039291
9,9.153054640241132,0.01319061744118621,2182,9.166245257682318,0.0014390426036365357,9e9,13190617.44118621,10,4.577056812255875
10,9.800565773628197,0.051508122894415344,2031,9.852073896522612,0.005228150279363582,9e9,51508122.89441534,10,4.214550859327931
11,9.431546358735915,0.050094063405610234,2110,9.481640422141526,0.005283269684919772,9e9,50094063.40561023,10,7.466428755862753
12,9.801483467110922,0.045682569450132236,2032,9.847166036561054,0.004639159051499659,9e9,45682569.450132236,10,7.114679181456756
13,9.076875987833231,0.047598037170746677,2192,9.124474025003979,0.005216523937742913,9e9,47598037.17074668,10,3.3851135974218325
14,8.700163911935784,0.0026172426255604967,2299,8.702781154561345,0.0003007363484245188,8e9,2617242.625560497,10,0.2459224251878785
15,10.691388319383808,0.008931959757290978,1870,10.7003202791411,0.0008347376082473612,10e9,8931959.757290978,10,3.7981221413205764
16,10.241516181172669,0.06545046442440378,1941,10.306966645597072,0.0063501189704890425,10e9,65450464.42440378,10,10.095759027385599
17,10.612620454623821,0.03531624432547421,1879,10.647936698949295,0.0033167218517517203,10e9,35316244.32547421,10,9.980687000499474
18,10.159191843430072,0.056561519282355886,1958,10.215753362712428,0.005536695853367587,10e9,56561519.28235589,10,3.09542878884971
19,10.496992110766197,0.015116896074129742,1903,10.512109006840326,0.0014380459776713729,10e9,15116896.074129742,10,3.967585455137796
20,8.974072458869824,0.0192345931270943,2224,8.993307051996918,0.0021387675318862106,8e9,19234593.127094302,10,8.31193451965778
21,94.39835714657018,0.37365291252288985,212,94.77201005909306,0.0039426504965960575,94e9,373652912.52288985,100,37.81752464303814
22,95.10824773586748,0.06260547290120567,211,95.17085320876869,0.0006578219149078453,95e9,62605472.901205674,100,93.73169336579299
23,100.34472855849118,0.26657511898348074,199,100.61130367747467,0.002649554366555364,100e9,266575118.98348075,100,93.32594998389223
24,93.40400595993088,0.16214171547349326,214,93.56614767540438,0.001732910026775798,93e9,162141715.47349328,100,81.30616955450454
25,98.0744630076984,0.5234267467787854,203,98.59788975447718,0.005308701312798811,98e9,523426746.7787854,100,5.143946800438717
26,91.95222736520519,0.1351486226314977,218,92.0873759878367,0.0014676129185106624,91e9,135148622.6314977,100,72.05725750987047
27,98.37816164130722,0.3070479715233696,203,98.68520961283059,0.0031113879448400003,98e9,307047971.5233696,100,36.72981705367846
28,92.08686296265128,0.22217258492605774,217,92.30903554757734,0.002406834646339111,92e9,222172584.92605773,100,59.009106766462054
29,92.97218603711637,0.44089892918031703,215,93.4130849662967,0.004719884043433452,92e9,440898929.18031704,100,9.422731097732987
30,107.36710621754267,0.6930042578869485,186,108.06011047542962,0.006413136677706079,107e9,693004257.8869486,100,96.8912283161082
31,105.45570272066419,0.21597885381999288,190,105.67168157448418,0.002043866914976243,105e9,215978853.81999287,100,102.82253347179493
32,99.79767380936735,0.13678373156552265,201,99.93445754093288,0.0013687344178507838,99e9,136783731.56552264,100,12.010767602891724
33,101.32004089139978,0.5562597950660888,197,101.87630068646587,0.005460149134959581,101e9,556259795.0660888,100,66.94657549422196
34,103.21768669596155,0.5790758069397617,193,103.7967625029013,0.005578939005188871,103e9,579075806.9397616,100,84.286823292442
35,103.30184976184238,0.13868966977072678,194,103.4405394316131,0.001340767077712483,103e9,138689669.77072677,100,79.01090672478104
36,88.04207375899013,0.08450994655393938,227,88.12658370554406,0.000958960883316561,88e9,84509946.55393939,100,10.55899934640875
37,93.7425739345392,0.058912047844761756,214,93.80148598238395,0.0006280502619737337,93e9,58912047.84476176,100,57.68104148500557
38,96.20825134101105,0.4494158267905821,207,96.65766716780163,0.004649562108822449,96e9,449415826.7905821,100,71.12016508420008
39,102.93175928266764,0.47235590195310806,194,103.40411518462075,0.004568057094340491,102e9,472355901.9531081,100,52.658725805043176
40,91.86679433967625,0.41715498144448476,217,92.28394932112073,0.004520341668440189,91e9,417154981.4444848,100,48.279876760747854
41,1027.5596266521304,3.5012536835538275,20,1031.0608803356843,0.0033957778345871472,1027e9,3501253683.5538273,1000,633.4962136321501
42,1005.5264009660941,0.8753824463070506,20,1006.4017834124012,0.0008698140849262966,1005e9,875382446.3070506,1000,405.9875238862869
43,1022.6739989150725,0.8985147079490667,20,1023.5725136230216,0.0008778222314398595,1022e9,898514707.9490668,1000,225.97178681822913
44,975.8268769676129,4.177254134170794,21,980.0041311017836,0.004262486250414533,975e9,4177254134.170794,1000,188.70183633405338
45,960.3011258492768,1.2399426879218602,21,961.5410685371986,0.0012895368991448245,960e9,1239942687.9218602,1000,330.9293454399326
46,972.4020627355795,1.8796331483404407,21,974.28169588392,0.0019292501914809535,972e9,1879633148.3404408,1000,898.1016782275658
47,980.6007819315772,2.314387609673285,21,982.9151695412505,0.002354615821783953,980e9,2314387609.673285,1000,236.6163041614147
48,1053.579121045062,7.103661851517338,19,1060.6827828965793,0.006697253850126813,1053e9,7103661851.517338,1000,454.6195845762584
49,1089.0589721508572,5.475876894188773,19,1094.534849045046,0.005002926036540853,1089e9,5475876894.188773,1000,103.31509954585128
50,962.5232075638344,4.649352168943271,21,967.1725597327777,0.00480715889026861,962e9,4649352168.943272,1000,343.13773355076796
51,947.0519941821733,5.14060179526684,22,952.1925959774402,0.005398699608654208,947e9,5140601795.26684,1000,124.22567127385281
52,1017.5095637420217,3.6052986244010055,20,1021.1148623664227,0.0035307473794336562,1017e9,3605298624.4010053,1000,891.5089618918496
53,994.9539332734325,3.490875016345115,21,998.4448082897777,0.0034963124524875705,994e9,3490875016.345115,1000,471.42065599683656
54,1020.2289386981495,0.5957071092916932,20,1020.8246458074411,0.0005835547875321006,1020e9,595707109.2916932,1000,546.4897623012196
55,958.673031172049,0.525315649105442,21,959.1983468211545,0.0005476611285313117,958e9,525315649.10544205,1000,952.9553707296004
56,1042.6739957407349,5.805887432876672,20,1048.4798831736116,0.005537433312790904,1042e9,5805887432.876672,1000,87.53485554881183
57,945.1825415853322,6.2858293420182365,22,951.4683709273504,0.0066064511801813665,945e9,6285829342.018236,1000,375.00317327470304
58,932.6603803962113,0.4883340253883785,22,933.1487144215996,0.000523318542737388,932e9,488334025.3883785,1000,781.3386253983232
59,981.5616439726821,4.0247500696114775,21,985.5863940422936,0.004083609609406567,981e9,4024750069.6114774,1000,411.2680989655041
60,977.8459660053396,4.754623408849734,21,982.6005894141894,0.004838815954389325,977e9,4754623408.849734,1000,487.5764543797405
