app_id,start_app,end_app,effective_cpu,effective_io,effective_iter,total_bytes,stretch,utilization,Tcomp,Tio,iterations,priority,group_id
app_1,10.4403,19328.7,7906.2,93.8,789.354,4.59239e+10,1.00602,0.993331,10,0.0581316,1909,1,1
app_10,2.58839,20016.4,7894.8,105.2,877.644,5.59579e+10,1.00619,0.993331,9,0.063806,2194,1.00001,1.00001
app_11,3.31913,19647.8,7920.5,79.5,793.155,1.64997e+10,1.00794,0.993331,10,0.0207805,1946,1.00001,1.00001
app_12,2.16691,19798.7,7917,83,791.831,3.24376e+10,1.00636,0.993331,10,0.0409566,1961,1.00001,1.00001
app_13,3.65361,19448.1,7906.3,93.7,877.017,4.31896e+10,1.00635,0.993331,9,0.049247,2131,1.00001,1.00001
app_14,1.75167,19871.3,7908.7,91.3,791.258,4.32817e+10,1.00604,0.993331,10,0.0546486,1966,1.00001,1.00001
app_15,6.02863,19357,7911.2,88.8,879.128,2.84038e+10,1.00761,0.993331,9,0.0323138,2121,1.00002,1.00002
app_16,4.3693,19847.4,7921,79,790.534,1.11216e+10,1.00856,0.993331,10,0.0140779,1966,1.00002,1.00002
app_17,0.138334,18164.3,7896.1,103.9,985.321,4.67198e+10,1.0072,0.993331,8,0.0473831,2238,1.00002,1.00002
app_18,0.178413,20087.8,7920.6,79.4,793.633,1.51667e+09,1.00983,0.993331,10,0.00191017,1994,1.00002,1.00002
app_19,5.72824,18793.3,7921,79,789.5,4.86893e+09,1.00935,0.993331,10,0.00616321,1857,1.00002,1.00002
app_2,8.34638,20062.6,7920.5,79.5,794.977,9.86469e+09,1.00878,0.993331,10,0.0124084,1988,1,1
app_20,9.49416,19228.4,7921,79,789.927,1.48387e+10,1.00809,0.993331,10,0.0187832,1903,1.00002,1.00002
app_21,2.48917,20095.7,7953.8,46.2,82.3046,3.39865e+10,1.00153,0.993331,96,0.41447,208,1.00002,1.00002
app_22,58.7474,20140.4,7972.1,27.9,81.3999,1.90809e+10,1.0011,0.993331,98,0.235567,204,1.00002,1.00002
app_23,39.7583,19891.9,7946.1,53.9,85.952,3.93716e+10,1.00182,0.993331,92,0.45781,215,1.00002,1.00002
app_24,12.0449,19917.4,7955,45,75.7936,3.24552e+10,1.00157,0.993331,105,0.432736,189,1.00002,1.00002
app_25,99.517,20000.8,7969.4,30.6,76.6761,2.19288e+10,1.00109,0.993331,104,0.288537,191,1.00003,1.00003
app_26,59.6937,20252.9,7983.2,16.8,78.5296,7.95199e+09,1.00111,0.993331,102,0.101949,196,1.00003,1.00003
app_27,77.8633,20109.3,7949,51,83.198,3.83486e+10,1.00158,0.993331,95,0.462031,208,1.00003,1.00003
app_28,30.2347,20004.9,7941.3,58.7,80.755,4.28802e+10,1.00198,0.993331,99,0.529385,201,1.00003,1.00003
app_29,17.0494,19946.3,7989.8,10.2,76.5668,5.80141e+09,1.00055,0.993331,104,0.075343,191,1.00003,1.00003
app_3,1.02246,18590.4,7912,88,880.29,1.25264e+10,1.00952,0.993331,9,0.0142345,2044,1,1
app_30,74.5283,20010.7,7991.4,8.6,85.3245,1.08986e+09,1.00094,0.993331,93,0.0126728,214,1.00003,1.00003
app_31,51.8256,20144,7979.6,20.4,80.0249,1.48403e+10,1.0007,0.993331,99,0.185504,201,1.00003,1.00003
app_32,84.0313,19970.1,7949.8,50.2,78.6476,3.65945e+10,1.0017,0.993331,101,0.463221,196,1.00003,1.00003
app_33,93.6124,20236.6,7958.2,41.8,81.7488,2.93106e+10,1.00156,0.993331,96,0.357447,207,1.00003,1.00003
app_34,20.3722,19777.8,7961.2,38.8,77.8992,2.70425e+10,1.00147,0.993331,103,0.346698,192,1.00003,1.00003
app_35,68.3286,20028.8,7959.3,40.7,85.1018,3.03859e+10,1.00129,0.993331,93,0.357482,214,1.00004,1.00004
app_36,71.894,20125.8,7971.5,28.5,76.4763,1.79358e+10,1.00132,0.993331,104,0.232932,192,1.00004,1.00004
app_37,43.5387,19808.2,7967.6,32.4,83.1815,2.36402e+10,1.0011,0.993331,96,0.284821,206,1.00004,1.00004
app_38,3.26829,20025.9,7960.6,39.4,82.009,2.86255e+10,1.00135,0.993331,97,0.349091,206,1.00004,1.00004
app_39,1.215,19860.2,7933.3,66.7,78.1278,5.54287e+10,1.00141,0.993331,102,0.710624,194,1.00004,1.00004
app_4,4.75913,19844.9,7910.1,89.9,877.552,3.09403e+10,1.00742,0.993331,9,0.0352797,2176,1,1
app_40,60.3055,20115.5,7989.3,10.7,80.6812,6.47192e+09,1.00053,0.993331,99,0.0799003,202,1.00004,1.00004
app_41,961.511,21520.8,7976.8,23.2,7.67965,1.99165e+10,1.00041,0.993331,1029,2.48956,20,1.00004,1.00004
app_42,953.896,21568.6,7999,1,7.88423,6.42934e+08,1.00004,0.993331,1041,0.0803667,20,1.00004,1.00004
app_43,111.275,21154.6,7949.1,50.9,7.88926,4.18449e+10,1.00113,0.993331,984,5.23061,21,1.00004,1.00004
app_44,341.354,21278.4,7963.3,36.7,7.70137,2.2721e+10,1.00175,0.993331,1040,2.84012,20,1.00004,1.00004
app_45,334.827,20630.3,7963.2,36.8,9.05122,2.99167e+10,1.00086,0.993331,927,3.32408,22,1.00004,1.00004
app_46,543.912,21942.5,7992.2,7.8,8.4346,5.59295e+09,1.00028,0.993331,947,0.621439,22,1.00005,1.00005
app_47,375.446,21173,7948.7,51.3,7.36702,4.47111e+10,1.00082,0.993331,1083,6.3873,19,1.00005,1.00005
app_48,949.739,21547.7,7982.1,17.9,8.19714,1.30254e+10,1.00061,0.993331,986,1.62818,21,1.00005,1.00005
app_49,181.913,20378.5,7980.7,19.3,7.8533,1.61006e+10,1.0004,0.993331,1012,2.01258,20,1.00005,1.00005
app_5,9.54702,18204.3,7906.8,93.2,881.539,4.11752e+10,1.00655,0.993331,9,0.0467369,2001,1.00001,1.00001
app_50,814.287,20881.2,7932.5,67.5,7.92842,4.07106e+10,1.00336,0.993331,1005,5.08882,20,1.00005,1.00005
app_51,573.002,21631.7,7942.6,57.4,7.77139,4.20026e+10,1.00193,0.993331,991,5.25033,21,1.00005,1.00005
app_52,83.966,20694.6,7993.6,6.4,8.33272,4.73521e+09,1.00021,0.993331,983,0.526135,21,1.00005,1.00005
app_53,767.654,21957.7,7923.2,76.8,8.11264,5.15985e+10,1.00316,0.993331,991,6.44981,21,1.00005,1.00005
app_54,542.302,20870,7994.2,5.8,7.72243,4.67138e+09,1.00014,0.993331,1037,0.583922,20,1.00005,1.00005
app_55,674.577,21533.5,7940.9,59.1,7.96578,4.49519e+10,1.00177,0.993331,988,5.61899,21,1.00005,1.00005
app_56,964.782,21532.9,7966.9,33.1,8.26341,2.92406e+10,1.00048,0.993331,976,3.65507,21,1.00006,1.00006
app_57,490.546,21420.4,7961.5,38.5,6.83746,3.39319e+10,1.00057,0.993331,1133,4.84742,18,1.00006,1.00006
app_58,819.234,21095.7,7942.9,57.1,8.5606,4.73923e+10,1.00121,0.993331,923,5.26581,22,1.00006,1.00006
app_59,616.5,20945,7974.3,25.7,8.56621,2.12518e+10,1.00056,0.993331,925,2.36132,22,1.00006,1.00006
app_6,7.64565,18500,7907,93,877.952,4.26459e+10,1.00633,0.993331,9,0.0485716,2032,1.00001,1.00001
app_60,326.904,21080.7,7945.3,54.7,8.52977,4.34957e+10,1.0014,0.993331,931,4.83286,22,1.00006,1.00006
app_7,9.49593,20054.6,7920.4,79.6,795.295,1.62187e+10,1.00799,0.993331,10,0.0204009,1990,1.00001,1.00001
app_8,0.923199,19875.6,7920.7,79.3,792.907,3.19709e+09,1.0096,0.993331,10,0.00403164,1966,1.00001,1.00001
app_9,5.25283,18872.1,7902.7,97.3,789.78,5.49373e+10,1.00532,0.993331,10,0.069629,1861,1.00001,1.00001
