app_id,start_app,end_app,effective_cpu,effective_io,effective_iter,total_bytes,stretch,utilization,Tcomp,Tio,iterations,priority,group_id
app_1,6.62541,18458.7,7912.14,87.8607,878.39,1.97379e+07,1.0111,0.993541,9,2.2465e-05,2027,1,1
app_10,6.83993,18605.5,7899.6,100.4,878.375,5.17557e+10,1.00612,0.993541,9,0.0588802,2042,1.00001,1.00001
app_11,0.41614,18725.4,7908.5,91.5,790.378,4.13031e+10,1.00631,0.993541,10,0.0522824,1850,1.00001,1.00001
app_12,2.39002,19289.8,7920.7,79.3,792.292,9.4536e+09,1.00881,0.993541,10,0.0119213,1911,1.00001,1.00001
app_13,2.43082,18682.8,7909.8,90.2,879.672,3.24635e+10,1.00727,0.993541,9,0.0368904,2052,1.00001,1.00001
app_14,9.44697,19524.8,7906.4,93.6,791.907,4.68409e+10,1.00588,0.993541,10,0.0591425,1929,1.00001,1.00001
app_15,1.74067,19938.5,7920,80,792.285,2.41895e+10,1.00703,0.993541,10,0.0305423,1974,1.00002,1.00002
app_16,2.0618,19600.5,7904.6,95.4,790.786,5.0552e+10,1.00564,0.993541,10,0.063909,1935,1.00002,1.00002
app_17,9.13805,20006.6,7913.7,86.3,716.728,4.47712e+10,1.00522,0.993541,11,0.0624424,1797,1.00002,1.00002
app_18,1.86593,18248,7912.2,87.8,878.417,1.16463e+10,1.00961,0.993541,9,0.0132645,2003,1.00002,1.00002
app_19,6.76887,18623.9,7912.2,87.8,878.109,1.69823e+10,1.00893,0.993541,9,0.019342,2042,1.00002,1.00002
app_2,1.53369,19220.4,7904.5,95.5,789.288,4.87116e+10,1.00588,0.993541,10,0.0617385,1899,1,1
app_20,7.77524,19171.5,7912,88,878.915,1.7723e+10,1.00886,0.993541,9,0.0201627,2106,1.00002,1.00002
app_21,33.0751,19963.1,7928.9,71.1,79.0792,5.38027e+10,1.00217,0.993541,100,0.681047,198,1.00002,1.00002
app_22,47.8519,20068.5,7974.2,25.8,77.8781,1.6578e+10,1.00115,0.993541,103,0.212538,194,1.00002,1.00002
app_23,44.8894,19935.9,7978.6,21.4,80.6592,1.58351e+10,1.0007,0.993541,99,0.195495,200,1.00002,1.00002
app_24,28.9384,20098,7946.5,53.5,81.8061,4.05098e+10,1.00163,0.993541,97,0.494022,205,1.00002,1.00002
app_25,8.60663,20034.7,7958.9,41.1,79.6103,2.6939e+10,1.00177,0.993541,100,0.336738,199,1.00003,1.00003
app_26,8.24134,19897.6,7990.4,9.6,82.981,5.04885e+09,1.00057,0.993541,97,0.0608295,205,1.00003,1.00003
app_27,58.5318,20250.4,7980.1,19.9,73.9114,1.36678e+10,1.00078,0.993541,107,0.1847,187,1.00003,1.00003
app_28,51.4838,19932,7992.4,7.6,76.4873,9.98793e+08,1.00083,0.993541,105,0.013142,189,1.00003,1.00003
app_29,55.2543,20068.4,7992.2,7.8,77.5419,4.13516e+08,1.00092,0.993541,103,0.00530149,195,1.00003,1.00003
app_3,4.43178,19854,7920.6,79.4,793.291,1.14734e+10,1.00856,0.993541,10,0.0144502,1960,1,1
app_30,102.003,20111.7,7941.2,58.8,78.9867,4.59979e+10,1.0016,0.993541,102,0.582252,195,1.00003,1.00003
app_31,86.5519,19985.3,7953.2,46.8,78.5307,3.37968e+10,1.00163,0.993541,102,0.427808,195,1.00003,1.00003
app_32,48.4276,20035.7,7940.7,59.3,77.3379,4.58831e+10,1.00168,0.993541,103,0.595884,192,1.00003,1.00003
app_33,16.709,20110.2,7960.8,39.2,79.933,2.68394e+10,1.00155,0.993541,100,0.335493,200,1.00003,1.00003
app_34,61.699,19992.8,7980.2,19.8,85.5343,1.26262e+10,1.0009,0.993541,93,0.148544,214,1.00003,1.00003
app_35,22.9547,19816.9,7961.8,38.2,83.7671,2.55283e+10,1.00159,0.993541,96,0.30757,206,1.00004,1.00004
app_36,4.24455,19931.4,7956.6,43.4,83.1959,3.18844e+10,1.00144,0.993541,96,0.384149,207,1.00004,1.00004
app_37,76.7773,19757.4,7980,20,86.105,1.17557e+10,1.00103,0.993541,93,0.136694,213,1.00004,1.00004
app_38,89.9427,20037.2,7930.4,69.6,75.9582,5.56419e+10,1.00175,0.993541,104,0.732131,190,1.00004,1.00004
app_39,8.10272,20057.3,7960.5,39.5,84.3012,2.9489e+10,1.00125,0.993541,94,0.34693,211,1.00004,1.00004
app_4,1.69922,19550.4,7903.9,96.1,791.081,5.35545e+10,1.00535,0.993541,10,0.0677048,1931,1,1
app_40,21.9449,20060.3,7987.5,12.5,84.5523,8.33901e+09,1.00052,0.993541,95,0.0992739,211,1.00004,1.00004
app_41,13.3744,20123.9,7968.9,31.1,7.63804,2.61265e+10,1.00062,0.993541,1085,3.26581,19,1.00004,1.00004
app_42,545.072,20557.4,7939.5,60.5,8.50549,4.89342e+10,1.00145,0.993541,949,5.43714,21,1.00004,1.00004
app_43,386.814,20407.5,7977.7,22.3,7.80432,1.82482e+10,1.00051,0.993541,999,2.28102,20,1.00004,1.00004
app_44,979.513,21810.1,7948.8,51.2,7.75652,4.4439e+10,1.00085,0.993541,1025,5.55487,20,1.00004,1.00004
app_45,911.498,20965.8,7953.3,46.7,7.86712,4.00448e+10,1.00083,0.993541,995,5.00559,20,1.00004,1.00004
app_46,770.082,21313.3,7994.9,5.1,8.17906,4.17529e+09,1.00012,0.993541,970,0.521912,21,1.00005,1.00005
app_47,783.708,21353.8,7980,20,8.42919,1.72755e+10,1.00034,0.993541,929,2.15944,22,1.00005,1.00005
app_48,3.68165,20148.9,7971.2,28.8,8.6268,2.26224e+10,1.00077,0.993541,959,2.8278,21,1.00005,1.00005
app_49,214.143,20702,7973,27,8.2309,2.03181e+10,1.00084,0.993541,964,2.53977,21,1.00005,1.00005
app_5,6.54987,19124.6,7918.64,81.355,789.632,2.98194e+10,1.00648,0.993541,10,0.0377676,1892,1.00001,1.00001
app_50,670.494,20898.4,7970.2,29.8,8.03431,2.51531e+10,1.00058,0.993541,1005,3.14414,20,1.00005,1.00005
app_51,17.6843,20367.2,7973,27,8.28193,2.0971e+10,1.00075,0.993541,968,2.62138,21,1.00005,1.00005
app_52,875.666,21452.4,7970.3,29.7,7.56724,2.0917e+10,1.0011,0.993541,1027,2.98814,20,1.00005,1.00005
app_53,347.98,20296.1,7935.6,64.4,8.67645,4.87621e+10,1.00196,0.993541,908,6.09526,22,1.00005,1.00005
app_54,129.582,20535.5,7975,25,7.48643,1.71871e+10,1.00098,0.993541,1064,2.45531,19,1.00005,1.00005
app_55,46.1446,20198.6,7972.3,27.7,7.94882,2.12967e+10,1.0008,0.993541,1033,2.66209,20,1.00005,1.00005
app_56,683.627,21095.2,7982.9,17.1,7.76917,1.38505e+10,1.00041,0.993541,1009,1.97864,20,1.00006,1.00006
app_57,1048.4,21220.7,7977.2,22.8,7.71201,1.80723e+10,1.00059,0.993541,1057,2.25904,19,1.00006,1.00006
app_58,967.692,21572.1,7985.1,14.9,8.09609,1.21567e+10,1.00034,0.993541,986,1.51959,21,1.00006,1.00006
app_59,375.924,21192.1,7959.8,40.2,8.06716,3.30034e+10,1.0009,0.993541,969,4.12542,21,1.00006,1.00006
app_6,1.42148,19361.9,7912.1,87.9,879.099,1.40654e+10,1.00932,0.993541,9,0.0160016,2125,1.00001,1.00001
app_60,624.938,21118.3,7999.1,0.9,8.53334,3.45897e+08,1.00007,0.993541,930,0.038433,22,1.00006,1.00006
app_7,0.0861719,19705.8,7899.8,100.2,877.679,4.53574e+10,1.0069,0.993541,9,0.0517188,2164,1.00001,1.00001
app_8,9.67634,18966.3,7908,92,793.549,4.36543e+10,1.00608,0.993541,10,0.0549802,1878,1.00001,1.00001
app_9,2.55737,18902.4,7897.5,102.5,875.977,5.21897e+10,1.00633,0.993541,9,0.0595773,2070,1.00001,1.00001
