app_id,start_app,end_app,effective_cpu,effective_io,effective_iter,total_bytes,stretch,utilization,Tcomp,Tio,iterations,priority,group_id
app_1,8.80496,18886.9,7686.7,77.429,854.928,2.10852e+10,1.03791,0.983276,9,0.024661,2022,1,1
app_10,7.54263,20037.4,7679.9,85.7251,850.993,4.27376e+10,1.03592,0.983276,9,0.0502205,2139,1,1
app_11,0.0848774,20474.6,7725.9,64.8685,772.231,4.69404e+09,1.03485,0.983276,10,0.00608036,1980,1,1
app_12,2.1494,19946.4,7690.9,62.1457,770.492,8.47647e+08,1.04008,0.983276,10,0.00109941,1926,1,1
app_13,3.88014,19362.6,7661.1,89.0344,854.585,5.35697e+10,1.03699,0.983276,9,0.0626546,2067,1,1
app_14,7.52715,18622.3,7621.3,78.7935,951.734,7.81275e+08,1.04958,0.983276,8,0.000820667,2226,1,1
app_15,1.66879,19120.3,7694.3,75.3518,856.26,1.55514e+10,1.03763,0.983276,9,0.0181675,2046,1,1
app_16,0.647337,20675.6,7689.1,84.534,851.018,3.91429e+10,1.03516,0.983276,9,0.0459964,2206,1,1
app_17,9.66411,20313.9,7721.8,65.8942,772.49,6.24103e+09,1.03519,0.983276,10,0.00808423,1960,1,1
app_18,7.33136,18718,7693.3,76.789,857.309,1.64291e+10,1.03765,0.983276,9,0.0191482,2004,1,1
app_19,2.11714,19735.1,7688.7,76.1034,767.687,3.43447e+10,1.03586,0.983276,10,0.0447196,1902,1,1
app_2,9.86105,19684.5,7695.2,69.6938,766.708,1.83755e+10,1.03713,0.983276,10,0.0239889,1894,1,1
app_20,9.34747,19236.6,7706,70.2513,856.567,4.78808e+09,1.03751,0.983276,9,0.00559355,2056,1,1
app_21,80.8837,20353.1,7934.4,31.1491,77.2039,2.73112e+10,1.00481,0.983276,102,0.354691,196,1,1
app_22,84.7294,20034.1,7941.8,38.6111,77.959,3.56487e+10,1.00283,0.983276,103,0.46297,194,1,1
app_23,2.59372,20032.2,7943.1,22.4296,77.8798,1.70174e+10,1.00501,0.983276,103,0.218171,194,1,1
app_24,64.2676,20257.6,7933.6,39.2361,78.9956,3.44675e+10,1.00401,0.983276,100,0.436297,199,1,1
app_25,60.2193,20145.4,7930.1,34.2119,83.7356,3.04523e+10,1.00496,0.983276,94,0.362527,212,1,1
app_26,0.0416735,19978.5,7935.8,40.5694,83.4079,3.49581e+10,1.00367,0.983276,95,0.421181,208,1,1
app_27,42.6418,19955.9,7971.5,16.136,81.7753,1.21861e+10,1.00204,0.983276,97,0.150446,204,1,1
app_28,14.5261,19915.2,7936,15.9888,84.5679,1.07101e+10,1.00671,0.983276,95,0.127501,209,1,1
app_29,49.2709,20070.7,7904.8,53.5237,77.8556,4.86054e+10,1.00586,0.983276,102,0.623146,195,1,1
app_3,7.30965,19793.5,7704.1,78.9462,772.145,4.25417e+10,1.03271,0.983276,10,0.0551059,1913,1,1
app_30,63.2729,20013.8,7929.4,45.6047,90.9984,4.15421e+10,1.00365,0.983276,86,0.456507,230,1,1
app_31,91.1588,20111.5,7907.6,44.1107,86.164,4.18089e+10,1.00636,0.983276,92,0.48615,216,1,1
app_32,62.1635,20050.1,7971.9,8.93682,77.8904,6.54877e+09,1.0027,0.983276,102,0.0839586,196,1,1
app_33,95.9061,20140.2,7959,16.314,78.4823,1.30742e+10,1.0035,0.983276,101,0.167618,198,1,1
app_34,63.257,20121.7,7926.9,36.0035,72.4901,3.18205e+10,1.00519,0.983276,109,0.441952,183,1,1
app_35,56.866,20162.5,7934.1,37.874,75.0271,3.41846e+10,1.00398,0.983276,105,0.455794,189,1,1
app_36,44.6935,20262.3,7934.9,54.6623,79.6586,4.93676e+10,1.00197,0.983276,98,0.624906,203,1,1
app_37,82.804,19879.5,7956.6,16.9278,79.8403,1.39514e+10,1.00369,0.983276,100,0.174393,198,1,1
app_38,58.6344,20173.1,7952.8,22.0722,74.6622,1.76561e+10,1.00371,0.983276,106,0.235415,188,1,1
app_39,86.1346,20137.6,7967.8,8.19657,73.1001,6.44714e+09,1.00323,0.983276,109,0.088317,183,1,1
app_4,0.532566,20506.8,7717.6,66.6863,701.936,2.5811e+10,1.03314,0.983276,11,0.0367678,1807,1,1
app_40,77.0527,20235.8,7966.9,24.0714,76.9697,2.1597e+10,1.00144,0.983276,102,0.280481,195,1,1
app_41,830.415,21656.4,7976.7,22.8845,7.49989,2.2423e+10,1.00011,0.983276,1082,2.80288,19,1,1
app_42,10.6995,20919.2,7957.7,41.5702,8.88531,4.11484e+10,1.00014,0.983276,886,4.57205,23,1,1
app_43,681.821,21041.2,7974.3,20.9413,8.29823,2.0733e+10,1.00062,0.983276,982,2.59162,21,1,1
app_44,527.821,20629.1,7949.3,50.44,7.91448,4.99366e+10,1.0001,0.983276,1008,6.24208,20,1,1
app_45,579,20547.9,7983.5,9.67827,7.91636,9.56851e+09,1.00087,0.983276,998,1.19606,20,1,1
app_46,611.142,21418.5,7958,36.8802,7.54965,3.66845e+10,1.00066,0.983276,1064,4.58556,19,1,1
app_47,769.887,21401.9,7968.7,25.8505,7.69146,2.52367e+10,1.00076,0.983276,1025,3.60525,20,1,1
app_48,629.351,20988.6,7948.6,51.2346,8.07595,5.08699e+10,1.00007,0.983276,1019,6.35873,20,1,1
app_49,710.053,21089.1,7993.8,5.62594,7.97477,5.19033e+09,1.00013,0.983276,1022,0.648791,20,1,1
app_5,7.84704,20647.2,7663.1,83.2723,850.898,3.70306e+10,1.03894,0.983276,9,0.0435142,2200,1,1
app_50,283.656,20991.9,7964.4,27.2035,7.75833,2.66851e+10,1.00112,0.983276,1048,3.33564,20,1,1
app_51,240.028,20864.1,7966.3,31.9366,7.73632,3.12611e+10,1.0003,0.983276,1006,3.90764,20,1,1
app_52,402.055,20401.9,7947.3,51.826,8.12148,5.13161e+10,1.00017,0.983276,993,6.41452,20,1,1
app_53,575.177,20529.6,7992.3,7.27893,8.11209,6.73249e+09,1.00012,0.983276,1003,0.841561,20,1,1
app_54,190.485,20313.5,7962.4,37.6,7.67125,3.72979e+10,1.00004,0.983276,1059,4.66223,19,1,1
app_55,756.344,21279.1,7958.9,40.1653,8.12736,3.98372e+10,1.00016,0.983276,955,4.97965,21,1,1
app_56,676.65,21757.5,7983,8.70244,7.95245,8.0153e+09,1.00112,0.983276,998,1.00191,21,1,1
app_57,658.815,20371.8,7951.3,44.9387,7.90337,4.46524e+10,1.00051,0.983276,1011,5.58155,20,1,1
app_58,91.4888,20801.3,7978.8,15.1402,7.77727,1.49154e+10,1.00079,0.983276,1044,1.86442,20,1,1
app_59,85.8854,20172.6,7954.5,39.413,8.62628,3.8739e+10,1.00085,0.983276,976,4.30433,21,1,1
app_6,6.5884,19693.3,7692.1,82.1925,766.501,5.20314e+10,1.03304,0.983276,10,0.0679261,1891,1,1
app_60,758.525,20477.9,7993.6,4.8834,7.66488,4.60151e+09,1.00022,0.983276,1056,0.657358,19,1,1
app_7,7.85545,20403.3,7701.8,74.3766,771.748,3.02262e+10,1.03466,0.983276,10,0.0392039,1971,1,1
app_8,0.89906,19235.2,7683.1,85.6917,852.901,4.32604e+10,1.03542,0.983276,9,0.0507156,2055,1,1
app_9,8.7583,20602,7654.2,79.4013,850.926,2.5107e+10,1.04176,0.983276,9,0.0295362,2198,1,1
