app_id,start_app,end_app,effective_cpu,effective_io,effective_iter,total_bytes,stretch,utilization,Tcomp,Tio,iterations,priority,group_id
app_1,0.56556,18675.8,7755.7,84.0792,776.209,5.65381e+10,1.02403,0.986335,10,0.0728584,1810,1,1
app_10,2.51976,19041.3,7727.6,84.6113,859.433,3.78997e+10,1.0302,0.986335,9,0.0440694,2049,1,1
app_11,3.95099,19850.6,7737.5,84.8593,859.647,3.89149e+10,1.02875,0.986335,9,0.0453025,2135,1,1
app_12,10.6689,19133.6,7757.99,66.8832,775.654,9.96167e+09,1.02987,0.986335,10,0.0128488,1855,1,1
app_13,5.96037,19267,7718.9,77.2993,855.943,2.06818e+10,1.03365,0.986335,9,0.024161,2070,1,1
app_14,0.0360403,19782.2,7728.2,86.4784,856.024,4.69003e+10,1.02893,0.986335,9,0.0547901,2124,1,1
app_15,0.562969,18801,7739.7,88.926,856.648,5.29119e+10,1.02661,0.986335,9,0.0617408,2019,1,1
app_16,7.56501,19651.7,7767,78.3583,776.698,4.07316e+10,1.02463,0.986335,10,0.0524216,1909,1,1
app_17,0.192518,19710.8,7696.1,84.1909,853.881,3.82925e+10,1.03434,0.986335,9,0.044839,2117,1,1
app_18,6.51692,19421.7,7760.4,64.5348,775.509,6.43749e+09,1.03002,0.986335,10,0.00830644,1886,1,1
app_19,2.42633,19356.8,7733.6,85.2262,858.194,3.82996e+10,1.02935,0.986335,9,0.0446382,2077,1,1
app_2,1.26364,18913.1,7790.4,65.8194,780.336,3.57957e+09,1.02643,0.986335,10,0.0045892,1841,1,1
app_20,5.30626,19456.9,7763.4,69.6857,775.539,1.64341e+10,1.0283,0.986335,10,0.0212053,1887,1,1
app_21,87.759,20163.8,7971.1,21.2639,71.7405,1.61326e+10,1.0016,0.986335,112,0.224064,179,1,1
app_22,25.1699,20127.3,7925.4,49.5004,81.7625,4.68627e+10,1.00348,0.986335,96,0.571496,207,1,1
app_23,58.3034,20074.8,7967.7,6.34903,77.831,4.34452e+07,1.00405,0.986335,102,0.00055699,195,1,1
app_24,4.82368,19999.9,7940.6,45.8159,76.0588,4.26575e+10,1.0021,0.986335,105,0.561282,189,1,1
app_25,1.09844,20141.2,7981.3,8.78846,79.2962,6.30469e+09,1.00155,0.986335,100,0.0798062,200,1,1
app_26,30.0806,20020.1,7965.3,8.28024,80.7442,4.32447e+09,1.00381,0.986335,99,0.0533885,201,1,1
app_27,80.7864,20066.6,7962.3,17.3428,80.7791,1.54121e+10,1.00279,0.986335,97,0.192651,205,1,1
app_28,83.9341,20125.6,7963.3,23.9666,81.7034,1.96059e+10,1.00214,0.986335,98,0.242049,204,1,1
app_29,17.7565,20018.1,7937.9,41.9025,83.8585,3.76729e+10,1.00306,0.986335,95,0.448487,209,1,1
app_3,3.63843,18539.5,7732.4,93.5607,967.598,3.67431e+10,1.02971,0.986335,8,0.0379578,2242,1,1
app_30,53.2844,20043.1,7953.8,9.29162,83.6145,7.14735e+09,1.00491,0.986335,94,0.0850874,211,1,1
app_31,27.3174,20076.9,7943.7,40.6073,82.483,3.51052e+10,1.00266,0.986335,97,0.428112,205,1,1
app_32,88.857,20108.6,7939.5,53.7671,76.0862,5.17528e+10,1.00109,0.986335,104,0.680958,191,1,1
app_33,1.85826,19986.9,7965.4,17.2124,79.952,1.57635e+10,1.00236,0.986335,99,0.197044,201,1,1
app_34,15.2698,20139,7950.9,30.4616,75.3737,2.63501e+10,1.00285,0.986335,104,0.346712,192,1,1
app_35,21.346,20116.9,7933.8,47.7202,77.7579,4.60383e+10,1.00253,0.986335,102,0.590235,195,1,1
app_36,43.583,20084.8,7977.3,7.66459,74.3245,3.61342e+09,1.00239,0.986335,107,0.04883,186,1,1
app_37,3.11423,19983.4,7919.8,56.8242,81.1138,5.3165e+10,1.00339,0.986335,98,0.656358,202,1,1
app_38,30.1581,20066.4,7944.5,47.6432,80.0444,4.32246e+10,1.00154,0.986335,98,0.540307,202,1,1
app_39,66.3981,20161.4,7937.06,42.9832,85.1857,4.0425e+10,1.00282,0.986335,93,0.475042,214,1,1
app_4,1.15619,18765.4,7733.2,80.5329,857.921,3.04222e+10,1.03045,0.986335,9,0.0354571,2018,1,1
app_40,36.6806,20150.6,7962.7,16.204,77.6881,1.43344e+10,1.00288,0.986335,102,0.186162,196,1,1
app_41,553.932,21219.2,7997.8,2.11168,7.55812,1.56162e+09,1.00008,0.986335,1038,0.223088,20,1,1
app_42,628.624,21729.2,7978.6,20.6685,8.55195,2.01933e+10,1.00015,0.986335,949,2.2437,22,1,1
app_43,927.607,21653.3,7954.7,44.873,7.96563,4.47722e+10,1.00007,0.986335,980,5.59652,21,1,1
app_44,836.088,21328.5,7943.6,55.8137,8.40567,5.53455e+10,1.00013,0.986335,919,6.1495,22,1,1
app_45,23.1261,20278.9,7961.6,38.4,8.18544,3.7964e+10,1.00005,0.986335,949,4.7455,21,1,1
app_46,272.955,20530.6,7975.6,24.3037,8.80117,2.42048e+10,1.00002,0.986335,911,2.68942,22,1,1
app_47,56.8438,21090.9,7988.4,9.53276,7.946,9.17206e+09,1.0003,0.986335,989,1.14651,21,1,1
app_48,784.639,20963.6,7984,15.4372,7.68371,1.52384e+10,1.0001,0.986335,1014,2.17692,20,1,1
app_49,673.626,21053.2,7964.9,32.1432,7.68955,3.16039e+10,1.00044,0.986335,1025,4.51484,20,1,1
app_5,0.0278084,20163.8,7784.7,69.8201,778.964,1.71334e+10,1.0254,0.986335,10,0.0219941,1960,1,1
app_50,368.384,20749.9,7984.4,13.5725,8.69165,1.30773e+10,1.00032,0.986335,926,1.63467,22,1,1
app_51,611.323,21194.1,7961.9,37.8349,9.004,3.75343e+10,1.00007,0.986335,882,4.17048,23,1,1
app_52,296.578,20861.7,7971.8,26.7278,7.3889,2.64413e+10,1.00022,0.986335,1078,3.77733,19,1,1
app_53,585.676,20842.6,7972.2,25.4582,7.96539,2.48877e+10,1.00036,0.986335,1016,3.11096,20,1,1
app_54,164.921,20334,7990.6,9.12206,8.95941,8.85329e+09,1.00007,0.986335,872,0.983699,23,1,1
app_55,448.799,20705.2,7953.1,46.8073,8.20263,4.62157e+10,1.00009,0.986335,963,5.13508,21,1,1
app_56,647.792,21491.5,7994.9,2.83141,7.57781,2.637e+09,1.00031,0.986335,1032,0.376714,20,1,1
app_57,592.523,20785,7979.4,16.0822,7.6109,1.58627e+10,1.00059,0.986335,1028,1.98283,20,1,1
app_58,759.824,21429.3,7973.3,25.8956,8.53168,2.53566e+10,1.00017,0.986335,912,2.8174,22,1,1
app_59,851.227,20470.9,7979.7,18.5007,8.08447,1.8374e+10,1.00024,0.986335,1001,2.29676,20,1,1
app_6,7.07362,18733,7727.7,78.416,857.829,2.13919e+10,1.03238,0.986335,9,0.0249323,2013,1,1
app_60,474.96,20505.5,7992.8,7.06951,8.30464,6.51075e+09,1.00009,0.986335,979,0.723417,21,1,1
app_7,8.07988,19743.5,7762,78.2859,776.831,3.84727e+10,1.02558,0.986335,10,0.0495782,1918,1,1
app_8,0.728717,19554.7,7725.6,84.7265,858.66,3.889e+10,1.03033,0.986335,9,0.0453263,2102,1,1
app_9,6.85586,19263.4,7752.1,85.81,860.192,3.80279e+10,1.02694,0.986335,9,0.0441671,2077,1,1
