app_id,start_app,end_app,effective_cpu,effective_io,effective_iter,total_bytes,stretch,utilization,Tcomp,Tio,iterations,priority,group_id
app_1,1.6933,19911.9,7899.4,100.6,876.416,4.64539e+10,1.00681,0.993445,9,0.0529691,2184,1,1
app_10,8.89326,19548.3,7898.4,101.6,877.07,5.02485e+10,1.00646,0.993445,9,0.0572958,2142,1.00001,1.00001
app_11,7.53512,18777.5,7907.8,92.2,875.99,4.03349e+10,1.00653,0.993445,9,0.0460444,2061,1.00001,1.00001
app_12,3.44316,19615.3,7912.2,87.8,878.262,3.73136e+09,1.01062,0.993445,9,0.00424984,2154,1.00001,1.00001
app_13,6.43796,19355.5,7920.7,79.3,792.579,2.91734e+09,1.00964,0.993445,10,0.00367886,1921,1.00001,1.00001
app_14,5.75321,19550.6,7910.2,89.8,877.878,3.07303e+10,1.00744,0.993445,9,0.0350003,2147,1.00001,1.00001
app_15,5.56502,20070.1,7927.8,72.2,720.3,1.60428e+10,1.00707,0.993445,11,0.0222508,1807,1.00002,1.00002
app_16,0.486607,18471.8,7897.1,102.9,876.104,5.10257e+10,1.00653,0.993445,9,0.0582485,2026,1.00002,1.00002
app_17,3.70665,18215.4,7909.3,90.7,879.123,3.66122e+10,1.00681,0.993445,9,0.0416521,2000,1.00002,1.00002
app_18,5.96758,18271.8,7901,99,876.617,4.58568e+10,1.00669,0.993445,9,0.0523479,2003,1.00002,1.00002
app_19,0.635413,19661.1,7898.8,101.2,877.623,5.03813e+10,1.00639,0.993445,9,0.0573819,2156,1.00002,1.00002
app_2,8.26969,18820.4,7909.6,90.4,792.959,4.00324e+10,1.00634,0.993445,10,0.0504822,1861,1,1
app_20,7.05657,19867.8,7912,88,878.629,2.05152e+10,1.00851,0.993445,9,0.0233658,2179,1.00002,1.00002
app_21,33.1169,20111.8,7966.8,33.2,80.0792,2.37868e+10,1.00118,0.993445,100,0.297334,200,1.00002,1.00002
app_22,13.1355,20067.8,7978.7,21.3,84.2177,1.39233e+10,1.00092,0.993445,96,0.165754,208,1.00002,1.00002
app_23,95.7129,19975.7,7948.9,51.1,79.6464,3.8328e+10,1.0016,0.993445,100,0.4791,198,1.00002,1.00002
app_24,83.2108,20128.9,7942.7,57.3,76.4096,4.47209e+10,1.00157,0.993445,103,0.588432,192,1.00002,1.00002
app_25,69.7333,20171.3,7972.5,27.5,83.9174,1.7945e+10,1.0012,0.993445,95,0.213631,210,1.00003,1.00003
app_26,33.6052,19912.9,7942.7,57.3,79.5628,4.36838e+10,1.0017,0.993445,101,0.546047,196,1.00003,1.00003
app_27,70.7614,19998.1,7971,29,79.9891,2.20303e+10,1.00087,0.993445,100,0.275379,199,1.00003,1.00003
app_28,28.3177,20065.5,7975,25,77.8347,1.65728e+10,1.00105,0.993445,102,0.212472,195,1.00003,1.00003
app_29,57.4438,19923.4,7956.1,43.9,77.1548,3.15212e+10,1.00155,0.993445,103,0.409366,192,1.00003,1.00003
app_3,9.76786,18168.2,7912.1,87.9,879.092,2.38598e+10,1.00807,0.993445,9,0.0271442,1999,1,1
app_30,70.9785,20041.9,7963.5,36.5,74.2585,2.55575e+10,1.00137,0.993445,107,0.345372,186,1.00003,1.00003
app_31,16.7382,20023.8,7969.5,30.5,84.3587,2.23544e+10,1.00102,0.993445,94,0.266124,212,1.00003,1.00003
app_32,76.2396,20016.9,7940,60,79.4527,4.72964e+10,1.00159,0.993445,100,0.598688,198,1.00003,1.00003
app_33,51.853,19986.2,7989.6,10.4,87.833,5.23194e+09,1.00065,0.993445,90,0.0594538,221,1.00003,1.00003
app_34,35.1211,19998.2,7956.1,43.9,73.4932,3.11278e+10,1.0016,0.993445,108,0.420647,184,1.00003,1.00003
app_35,68.638,20023.8,7991.5,8.5,84.6871,3.77557e+08,1.00102,0.993445,95,0.00444184,210,1.00004,1.00004
app_36,75.9662,20008.2,7980.8,19.2,82.6067,1.27644e+10,1.00081,0.993445,96,0.153788,208,1.00004,1.00004
app_37,63.2765,20061.7,7961.7,38.3,75.997,2.80229e+10,1.00129,0.993445,105,0.368723,190,1.00004,1.00004
app_38,18.1154,19852.8,7979,21,76.1613,1.36783e+10,1.00092,0.993445,105,0.17764,189,1.00004,1.00004
app_39,70.0256,20167.8,7965.5,34.5,82.1367,2.41008e+10,1.0013,0.993445,97,0.293912,206,1.00004,1.00004
app_4,6.03076,18811.7,7911.5,88.5,879.377,2.70608e+10,1.00774,0.993445,9,0.0307509,2065,1,1
app_40,17.1571,19963,7988.3,11.7,87.3554,7.45033e+09,1.00053,0.993445,91,0.085636,218,1.00004,1.00004
app_41,164.162,20725.3,7962.8,37.2,7.60568,3.2205e+10,1.00062,0.993445,1025,4.02563,20,1.00004,1.00004
app_42,689.379,21332.4,7997,3,7.58405,2.15331e+09,1.00011,0.993445,1035,0.307616,20,1.00004,1.00004
app_43,908.733,21411,7986.3,13.7,7.07991,9.6084e+09,1.00051,0.993445,1126,1.37263,18,1.00004,1.00004
app_44,853.828,21083.5,7998.8,1.2,7.48914,6.2393e+08,1.00007,0.993445,1077,0.0779912,19,1.00004,1.00004
app_45,432.777,21467.5,7965.3,34.7,7.58268,3.04833e+10,1.00053,0.993445,1046,4.35476,20,1.00004,1.00004
app_46,563.215,21125.1,7949.7,50.3,8.27078,3.9898e+10,1.0013,0.993445,982,4.98725,21,1.00005,1.00005
app_47,344.749,21640.1,7978,22,7.25717,1.63118e+10,1.00071,0.993445,1048,2.33025,20,1.00005,1.00005
app_48,171.808,20045.9,7961.4,38.6,8.20196,3.20284e+10,1.00082,0.993445,1004,3.55871,20,1.00005,1.00005
app_49,603.697,21379.8,7967.3,32.7,8.43856,2.30229e+10,1.00121,0.993445,941,2.5581,22,1.00005,1.00005
app_5,4.079,19627.2,7912,88,879.759,8.42528e+09,1.01005,0.993445,9,0.00957418,2156,1.00001,1.00001
app_50,262.405,21126.7,7949.3,50.7,8.70745,4.09661e+10,1.00122,0.993445,900,4.55179,23,1.00005,1.00005
app_51,236.624,20016.7,7973.6,26.4,8.39436,2.28341e+10,1.00045,0.993445,998,2.85427,20,1.00005,1.00005
app_52,652.485,21090.4,7971,29,7.96684,2.31609e+10,1.00073,0.993445,981,2.89511,21,1.00005,1.00005
app_53,757.566,21085.3,7951.3,48.7,8.2558,3.8849e+10,1.00123,0.993445,949,4.85613,21,1.00005,1.00005
app_54,670.041,20351.3,7983.7,16.3,7.87555,1.39271e+10,1.0003,0.993445,1059,1.74089,19,1.00005,1.00005
app_55,883.194,20989.2,7987.5,12.5,8.39854,9.30548e+09,1.0004,0.993445,957,1.16319,21,1.00005,1.00005
app_56,990.796,21143.6,7963.7,36.3,7.6917,2.9291e+10,1.00088,0.993445,1004,3.66137,20,1.00006,1.00006
app_57,894.1,21694,7963.3,36.7,8.48207,3.11125e+10,1.0007,0.993445,931,3.88906,22,1.00006,1.00006
app_58,480.446,21198.8,7949.1,50.9,8.09442,4.3362e+10,1.00094,0.993445,1036,5.42025,20,1.00006,1.00006
app_59,651.457,21192.7,7945.2,54.8,8.17942,4.70066e+10,1.00098,0.993445,957,5.87583,21,1.00006,1.00006
app_6,7.40112,18756.6,7920.6,79.4,793.207,6.40529e+09,1.00921,0.993445,10,0.00806712,1858,1.00001,1.00001
app_60,812.914,20969.7,7946.7,53.3,7.61403,4.00823e+10,1.00165,0.993445,1054,5.72604,19,1.00006,1.00006
app_7,6.37731,18295,7897.1,102.9,878.514,5.46579e+10,1.00607,0.993445,9,0.062182,2008,1.00001,1.00001
app_8,5.1681,18962.7,7908,92,880.9,3.8686e+10,1.00671,0.993445,9,0.0439115,2085,1.00001,1.00001
app_9,1.20136,17992.1,7896.9,103.1,988.126,4.09849e+10,1.00783,0.993445,8,0.0414827,2221,1.00001,1.00001
