app_id,start_app,end_app,effective_cpu,effective_io,effective_iter,total_bytes,stretch,utilization,Tcomp,Tio,iterations,priority,group_id
app_1,6.74866,20393.2,7736.86,64.0197,773.113,5.90622e+09,1.03322,0.984734,10,0.00763078,1974,1,1
app_10,2.37972,19983.7,7760.3,63.8545,776.966,2.08793e+09,1.03061,0.984734,10,0.00268716,1935,1,1
app_11,8.4796,19719.5,7721.6,82.259,857.342,2.91745e+10,1.03215,0.984734,9,0.0340426,2105,1,1
app_12,0.503486,19224.4,7716.5,79.2606,858.466,2.47329e+10,1.03343,0.984734,9,0.0288263,2062,1,1
app_13,4.84037,19999.3,7730.49,74.3165,772.119,2.77483e+10,1.03116,0.984734,10,0.0358969,1933,1,1
app_14,8.65764,20392.5,7723.8,72.6921,772.046,2.42986e+10,1.03251,0.984734,10,0.0314341,1967,1,1
app_15,9.02096,19844.9,7707.1,78.7305,853.103,2.23202e+10,1.03501,0.984734,9,0.0261667,2122,1,1
app_16,9.07565,20409.5,7717.83,70.5814,856.815,3.52557e+08,1.03651,0.984734,9,0.000411385,2191,1,1
app_17,6.23568,19908.6,7724.1,72.4572,771.136,2.75342e+10,1.03204,0.984734,10,0.0357123,1923,1,1
app_18,3.59298,19516.1,7714.1,76.9886,773.127,3.67505e+10,1.03215,0.984734,10,0.0474813,1892,1,1
app_19,3.31013,19589.9,7735.5,72.4858,776.348,2.59547e+10,1.03073,0.984734,10,0.0334037,1895,1,1
app_2,7.03283,20579.4,7709.72,65.2861,771.039,7.73736e+09,1.03661,0.984734,10,0.0100225,1986,1,1
app_20,4.66863,19882.5,7710.66,76.3708,771.299,3.73834e+10,1.03252,0.984734,10,0.0484241,1920,1,1
app_21,54.6466,20104.7,7933.9,37.9105,75.3903,3.40391e+10,1.00402,0.984734,104,0.447884,191,1,1
app_22,34.0925,20078.3,7913.7,48.5457,81.7244,4.30044e+10,1.00544,0.984734,96,0.524444,206,1,1
app_23,24.91,19872,7905.8,52.6758,76.0991,4.80513e+10,1.0058,0.984734,104,0.632254,190,1,1
app_24,30.4682,20033.9,7924.8,46.7198,80.0371,4.05182e+10,1.00435,0.984734,99,0.506477,200,1,1
app_25,44.2648,20064.1,7945.7,32.8525,82.322,2.89186e+10,1.00318,0.984734,96,0.352666,207,1,1
app_26,81.3737,20107.2,7940.9,24.2108,80.4568,2.05586e+10,1.00484,0.984734,99,0.256982,202,1,1
app_27,26.3968,20191.4,7961.4,7.79577,81.4576,2.47948e+09,1.00454,0.984734,97,0.0306109,206,1,1
app_28,64.2469,20097.3,7959.5,6.44738,81.5918,5.0656e+08,1.00502,0.984734,98,0.00617756,204,1,1
app_29,11.7908,19897.5,7943.1,32.5175,79.8025,3.11745e+10,1.00323,0.984734,100,0.394614,198,1,1
app_3,3.60645,19705.3,7686.6,85.2946,852.513,4.10431e+10,1.03524,0.984734,9,0.0481726,2103,1,1
app_30,67.47,19986.9,7959.6,23.7412,82.6297,1.76429e+10,1.00285,0.984734,96,0.212565,207,1,1
app_31,108.355,20132.1,7942.6,36.2313,73.0769,3.22792e+10,1.00315,0.984734,109,0.44218,182,1,1
app_32,85.6434,20086.9,7932.2,49.0069,80.8748,4.54945e+10,1.0028,0.984734,98,0.56166,203,1,1
app_33,18.1627,19939.9,7932.4,45.4935,74.3739,4.35905e+10,1.00301,0.984734,107,0.589061,185,1,1
app_34,29.2878,20230.5,7967.7,16.0096,78.408,1.3021e+10,1.00242,0.984734,101,0.166935,198,1,1
app_35,5.9117,19969.2,7931.6,52.7618,87.0019,4.95484e+10,1.00236,0.984734,91,0.569522,217,1,1
app_36,18.4464,20027.3,7977.1,7.73988,76.0033,4.0604e+09,1.00236,0.984734,105,0.0534263,190,1,1
app_37,94.6796,20012.3,7929.8,53.8646,75.7218,5.09537e+10,1.00241,0.984734,105,0.670443,189,1,1
app_38,12.3277,19949.4,7966.4,16.1399,86.9706,9.55653e+09,1.00301,0.984734,92,0.109845,216,1,1
app_39,54.3498,20102.2,7964.7,16.3511,83.2748,1.17213e+10,1.00296,0.984734,95,0.139539,209,1,1
app_4,1.15377,18730.9,7702.7,86.6039,855.489,4.74366e+10,1.03224,0.984734,9,0.0554814,2000,1,1
app_40,83.9104,20171.9,7972.4,6.94611,74.9345,1.30757e+09,1.0033,0.984734,106,0.0174342,189,1,1
app_41,561.835,21055.4,7994.1,5.56846,7.81327,5.08864e+09,1.0001,0.984734,1033,0.63608,20,1,1
app_42,295.109,20503.8,7978.69,21.0121,8.22974,2.0603e+10,1.00009,0.984734,988,2.45098,21,1,1
app_43,608.795,20889.3,7973.2,25.2541,8.70779,2.49304e+10,1.00023,0.984734,935,2.77004,22,1,1
app_44,803.323,20861.7,7974.7,25.2529,7.45512,2.51387e+10,1.00002,0.984734,1069,3.59124,19,1,1
app_45,231.265,20657,7963.8,35.9729,8.27795,3.54271e+10,1.0001,0.984734,965,3.93635,21,1,1
app_46,491.363,21476.2,7956.9,38.2542,8.2714,3.78465e+10,1.00066,0.984734,941,4.73082,22,1,1
app_47,879.179,20756.9,7985.7,13.5548,7.88839,1.30086e+10,1.00016,0.984734,1003,1.62608,20,1,1
app_48,782.668,20690.9,7957.4,42.4175,8.26207,4.23461e+10,1.00003,0.984734,1006,5.29326,20,1,1
app_49,727.853,21711.9,7987,12.7769,8.23027,1.21942e+10,1.0001,0.984734,993,1.52428,21,1,1
app_5,0.757976,20545.8,7702.5,74.4184,769.081,3.22662e+10,1.03429,0.984734,10,0.0419041,1984,1,1
app_50,447.373,21263.6,7952.8,47.2,8.17418,4.68789e+10,1.00004,0.984734,989,5.85986,21,1,1
app_51,289.628,20342,7966.2,32.63,7.94402,3.20302e+10,1.00022,0.984734,997,4.00378,20,1,1
app_52,896.63,21640.3,7978.8,15.1842,8.34376,1.47158e+10,1.00081,0.984734,944,1.83947,22,1,1
app_53,649.408,20809.3,7952.1,44.2416,7.53959,4.39806e+10,1.00049,0.984734,1069,6.28295,19,1,1
app_54,699.688,21172.2,7993.5,6.44875,7.82953,6.0971e+09,1.00005,0.984734,1042,0.762137,20,1,1
app_55,50.6004,20249.9,7964,35.9474,8.20546,3.55726e+10,1.00005,0.984734,954,4.44657,21,1,1
app_56,247.745,20684.3,7949,44.9559,8.54199,4.43716e+10,1.00083,0.984734,934,4.93018,22,1,1
app_57,373.579,20911.5,7980.8,19.2,8.187,1.9104e+10,1.00001,0.984734,974,2.388,21,1,1
app_58,753.196,21516.3,7974.7,25.1569,8.57588,2.45518e+10,1.00009,0.984734,930,2.72798,22,1,1
app_59,102.153,20154.2,7954.3,44.169,7.38622,4.38553e+10,1.00023,0.984734,1065,6.26504,19,1,1
app_6,0.221213,18841.3,7697.7,80.9828,854.411,2.88553e+10,1.03539,0.984734,9,0.0337884,2013,1,1
app_60,939.138,20791.4,7980.4,16.8576,7.78476,1.67414e+10,1.00036,0.984734,1056,2.09267,19,1,1
app_7,3.61867,19884.5,7734.5,78.0618,772.173,3.91269e+10,1.02912,0.984734,10,0.0506169,1919,1,1
app_8,6.36535,19083.4,7715.1,86.5297,856.263,4.14892e+10,1.03138,0.984734,9,0.0484686,2046,1,1
app_9,7.99214,20216.5,7701.1,73.8242,772.396,3.19278e+10,1.03452,0.984734,10,0.0413038,1955,1,1
