app_id,start_app,end_app,effective_cpu,effective_io,effective_iter,total_bytes,stretch,utilization,Tcomp,Tio,iterations,priority,group_id
app_1,7.25899,19229.5,7917.4,82.6,792.659,3.3245e+10,1.00621,0.993409,10,0.0419231,1904,1,1
app_10,6.17625,19896.8,7927.8,72.2,721.742,3.43556e+09,1.00867,0.993409,11,0.00475839,1791,1.00001,1.00001
app_11,4.0722,18140.8,7908.4,91.6,880.628,4.15994e+10,1.00629,0.993409,9,0.0472184,1996,1.00001,1.00001
app_12,7.83349,19393.4,7912.5,87.5,875.486,1.0651e+10,1.0097,0.993409,9,0.0121725,2126,1.00001,1.00001
app_13,5.98236,19484.6,7896.9,103.1,875.362,5.09737e+10,1.00656,0.993409,9,0.0582556,2135,1.00001,1.00001
app_14,1.74178,19324.7,7925.1,74.9,720.36,3.18223e+10,1.00541,0.993409,11,0.0441363,1740,1.00001,1.00001
app_15,0.769751,19299.5,7902.4,97.6,789.415,5.89749e+10,1.00485,0.993409,10,0.0747464,1907,1.00002,1.00002
app_16,3.62831,19935.7,7920.1,79.9,791.528,2.07461e+10,1.00745,0.993409,10,0.0261946,1971,1.00002,1.00002
app_17,5.79082,18977.6,7920.7,79.3,793.156,2.27817e+09,1.00972,0.993409,10,0.00287285,1879,1.00002,1.00002
app_18,6.90921,19637.8,7909.3,90.7,879.34,3.08821e+10,1.00753,0.993409,9,0.0350933,2158,1.00002,1.00002
app_19,5.15778,19097.1,7903.4,96.6,789.71,5.84249e+10,1.00479,0.993409,10,0.0739556,1887,1.00002,1.00002
app_2,8.32024,18565.7,7911.7,88.3,879.389,2.47841e+10,1.008,0.993409,9,0.0281638,2038,1,1
app_20,9.97134,18975.4,7920.8,79.2,791.606,2.91646e+09,1.00963,0.993409,10,0.0036824,1879,1.00002,1.00002
app_21,5.26549,20066.2,7992.3,7.7,77.3809,1.66514e+09,1.00075,0.993409,103,0.0216252,195,1.00002,1.00002
app_22,59.0387,20119.2,7990.7,9.3,80.2537,5.31844e+09,1.0005,0.993409,99,0.0664805,201,1.00002,1.00002
app_23,15.4426,20140.4,7956.9,43.1,74.4625,3.21507e+10,1.00137,0.993409,106,0.428676,188,1.00002,1.00002
app_24,15.7819,20087.9,7969.7,30.3,83.519,2.02843e+10,1.00125,0.993409,95,0.24439,210,1.00002,1.00002
app_25,42.7483,20053.4,7991.4,8.6,81.1165,3.69688e+09,1.00061,0.993409,99,0.0456404,202,1.00003,1.00003
app_26,51.1663,19853.2,7920.8,79.2,83.5112,5.84474e+10,1.0026,0.993409,96,0.704185,206,1.00003,1.00003
app_27,89.8291,20178.6,7977.7,22.3,84.0994,1.63236e+10,1.00075,0.993409,95,0.194328,210,1.00003,1.00003
app_28,64.3076,20012,7959.1,40.9,91.3937,2.75499e+10,1.00167,0.993409,87,0.302746,227,1.00003,1.00003
app_29,29.9627,19871.5,7922.8,77.2,81.4407,5.54518e+10,1.00273,0.993409,98,0.676242,202,1.00003,1.00003
app_3,7.99823,19624.8,7916.8,83.2,791.726,3.71544e+10,1.00579,0.993409,10,0.0469121,1940,1,1
app_30,72.3022,20009.6,7934.5,65.5,90.2288,5.27309e+10,1.0016,0.993409,89,0.585899,223,1.00003,1.00003
app_31,58.8358,20048.5,7938.5,61.5,86.5533,4.65396e+10,1.00187,0.993409,91,0.541158,217,1.00003,1.00003
app_32,90.4169,20205.8,7930.4,69.6,84.2722,5.49447e+10,1.00184,0.993409,94,0.654104,212,1.00003,1.00003
app_33,45.6272,19937.6,7972.8,27.2,79.5927,1.89493e+10,1.00103,0.993409,100,0.236866,198,1.00003,1.00003
app_34,19.9528,20051,7943.6,56.4,88.8371,4.18778e+10,1.00182,0.993409,90,0.470537,221,1.00003,1.00003
app_35,64.5586,19990.2,7989.8,10.2,79.7265,6.1326e+09,1.00051,0.993409,101,0.0766575,198,1.00004,1.00004
app_36,11.3767,20022.9,7980.1,19.9,76.9056,1.43217e+10,1.0007,0.993409,104,0.185996,191,1.00004,1.00004
app_37,5.73574,19873.8,7961.4,38.6,74.8074,2.70993e+10,1.00144,0.993409,106,0.361324,187,1.00004,1.00004
app_38,51.5089,20000.4,7992.2,7.8,77.755,2.00096e+09,1.00073,0.993409,103,0.0256534,193,1.00004,1.00004
app_39,22.3481,20050.8,7991,9,75.7504,4.47754e+09,1.00057,0.993409,105,0.058915,191,1.00004,1.00004
app_4,4.60685,18521.5,7911.8,88.2,881.699,3.0856e+09,1.01075,0.993409,9,0.00349842,2038,1,1
app_40,51.4163,20004.3,7941.8,58.2,85.5397,4.56442e+10,1.00157,0.993409,93,0.530746,214,1.00004,1.00004
app_41,976.295,21862.9,7985.2,14.8,7.67006,1.08135e+10,1.0005,0.993409,1034,1.35169,20,1.00004,1.00004
app_42,357.285,21360.7,7934.4,65.6,8.0324,5.05417e+10,1.00189,0.993409,991,6.31772,21,1.00004,1.00004
app_43,554.058,20984.8,7933.6,66.4,8.40067,4.53176e+10,1.00264,0.993409,960,5.6647,21,1.00004,1.00004
app_44,552.944,20384.6,7985.7,14.3,8.06618,1.03403e+10,1.0005,0.993409,1006,1.29254,20,1.00004,1.00004
app_45,89.5836,20199.6,7971,29,8.28043,2.2927e+10,1.00076,0.993409,961,2.86587,21,1.00004,1.00004
app_46,560.236,20725.7,7996.3,3.7,8.05803,3.09573e+09,1.00008,0.993409,1014,0.386967,20,1.00005,1.00005
app_47,658.761,21078.7,7938.5,61.5,7.54703,4.16592e+10,1.00249,0.993409,1057,5.95132,19,1.00005,1.00005
app_48,902.862,21487.2,7948.6,51.4,8.24339,4.34398e+10,1.001,0.993409,986,5.42997,21,1.00005,1.00005
app_49,384.995,20530.4,7937.6,62.4,7.98374,4.95414e+10,1.00161,0.993409,1011,6.19268,20,1.00005,1.00005
app_5,4.14684,18743.2,7921,79,790.259,1.11199e+10,1.00856,0.993409,10,0.0140758,1852,1.00001,1.00001
app_50,199.905,20128.8,7995,5,8.00345,3.86614e+09,1.00014,0.993409,1000,0.483267,20,1.00005,1.00005
app_51,813.033,21385.8,7976.5,23.5,8.15113,1.6516e+10,1.00087,0.993409,966,2.0645,21,1.00005,1.00005
app_52,1074.97,21755.4,7968.9,31.1,7.11035,2.60743e+10,1.00063,0.993409,1072,3.72491,19,1.00005,1.00005
app_53,337.174,20710.6,7959.2,40.8,8.48733,3.09103e+10,1.00124,0.993409,912,3.86379,22,1.00005,1.00005
app_54,747.256,21226.8,7982.4,17.6,7.69753,1.51848e+10,1.0003,0.993409,1055,1.8981,19,1.00005,1.00005
app_55,733.995,20819.9,7978.6,21.4,8.41011,1.98144e+10,1.0002,0.993409,975,2.4768,21,1.00005,1.00005
app_56,422.728,21188.4,7971.6,28.4,8.06755,2.04856e+10,1.00099,0.993409,977,2.5607,21,1.00006,1.00006
app_57,474.377,21764.1,7958.5,41.5,7.80305,3.77844e+10,1.00046,0.993409,980,4.72305,21,1.00006,1.00006
app_58,296.961,21509.8,7989.4,10.6,7.05281,8.94851e+09,1.00021,0.993409,1089,1.27836,19,1.00006,1.00006
app_59,986.473,20881.7,7951.2,48.8,8.29448,4.35024e+10,1.00066,0.993409,1017,5.4378,20,1.00006,1.00006
app_6,8.74186,18880,7912.3,87.7,877.328,1.65573e+10,1.00897,0.993409,9,0.0188795,2069,1.00001,1.00001
app_60,967.346,21200.3,7971.6,28.4,7.48132,2.39053e+10,1.00056,0.993409,1079,2.98817,19,1.00006,1.00006
app_7,9.38262,19186.7,7895.9,104.1,877.229,5.09625e+10,1.00669,0.993409,9,0.05811,2102,1.00001,1.00001
app_8,5.77563,18204.5,7900.5,99.5,988.375,2.58481e+10,1.00929,0.993409,8,0.026162,2248,1.00001,1.00001
app_9,7.41167,19670.7,7910.4,89.6,790.033,4.23319e+10,1.00594,0.993409,10,0.0535847,1942,1.00001,1.00001
