app_id,start_app,end_app,effective_cpu,effective_io,effective_iter,total_bytes,stretch,utilization,Tcomp,Tio,iterations,priority,group_id
app_1,2.7415,20013.2,7920.6,79.4,793.857,5.39786e+09,1.00934,0.993374,10,0.00679831,1982,1,1
app_10,8.4803,19213,7911.9,88.1,881.305,2.06806e+09,1.01087,0.993374,9,0.0023474,2114,1.00001,1.00001
app_11,9.34863,19386.4,7907,93,878.474,4.24887e+10,1.00635,0.993374,9,0.0483376,2126,1.00001,1.00001
app_12,7.92031,20177.4,7908.6,91.4,877.173,3.8471e+10,1.00666,0.993374,9,0.0438666,2211,1.00001,1.00001
app_13,0.181104,19724,7920.84,79.1554,791.948,9.15814e+09,1.00883,0.993374,10,0.0115698,1951,1.00001,1.00001
app_14,7.14056,18956.3,7911.7,88.3,880.251,2.36528e+10,1.00815,0.993374,9,0.0268782,2082,1.00001,1.00001
app_15,7.77799,19633.5,7918.6,81.4,796.902,2.91393e+10,1.00658,0.993374,10,0.0366072,1946,1.00002,1.00002
app_16,5.00297,19669,7912,88,879.721,9.72422e+09,1.00988,0.993374,9,0.0110503,2163,1.00002,1.00002
app_17,5.59952,18339.1,7897.1,102.9,880.605,5.08919e+10,1.00654,0.993374,9,0.057766,2017,1.00002,1.00002
app_18,7.68372,19996.1,7917.1,82.9,793.956,3.6256e+10,1.00586,0.993374,10,0.0456624,1980,1.00002,1.00002
app_19,6.81656,18668.6,7909.9,90.1,878.097,2.95999e+10,1.00762,0.993374,9,0.0337129,2050,1.00002,1.00002
app_2,7.9188,18746.6,7918,82,794.327,3.10172e+10,1.00641,0.993374,10,0.0390645,1856,1,1
app_20,0.503073,19571.3,7918.4,81.6,791.267,3.08261e+10,1.00639,0.993374,10,0.038971,1934,1.00002,1.00002
app_21,17.0469,20181.3,7964.6,35.4,76.5799,2.38129e+10,1.00145,0.993374,103,0.309259,193,1.00002,1.00002
app_22,46.7909,20091.6,7984.3,15.7,72.0412,7.36211e+09,1.00104,0.993374,111,0.102252,180,1.00002,1.00002
app_23,98.8176,20009.5,7982.8,17.2,79.9215,9.51576e+09,1.00096,0.993374,100,0.118947,199,1.00002,1.00002
app_24,53.2667,20105.7,7942.5,57.5,79.8499,4.38665e+10,1.00171,0.993374,99,0.548331,200,1.00002,1.00002
app_25,73.4759,20134.4,7937.5,62.5,81.0364,4.90695e+10,1.00168,0.993374,98,0.605796,203,1.00003,1.00003
app_26,27.0784,20142.8,7958,42,86.2476,2.88847e+10,1.00164,0.993374,92,0.335868,216,1.00003,1.00003
app_27,62.2407,20162.2,7948.1,51.9,78.4386,3.9755e+10,1.00152,0.993374,101,0.503227,197,1.00003,1.00003
app_28,66.5958,19910.4,7958.6,41.4,88.9542,2.73905e+10,1.00175,0.993374,89,0.307759,222,1.00003,1.00003
app_29,39.5444,20094.9,7940.2,59.8,75.4886,4.50626e+10,1.00185,0.993374,104,0.592929,191,1.00003,1.00003
app_3,7.78967,19037,7920.9,79.1,790.807,1.27606e+10,1.00836,0.993374,10,0.0161322,1881,1,1
app_30,31.5943,19963.9,7991.4,8.6,84.9023,2.87717e+09,1.00072,0.993374,94,0.0338491,211,1.00003,1.00003
app_31,25.8784,19758.4,7972.6,27.4,79.6903,1.73461e+10,1.00126,0.993374,101,0.216826,197,1.00003,1.00003
app_32,95.9036,19924.3,7981.5,18.5,81.2147,1.01064e+10,1.00105,0.993374,98,0.123249,202,1.00003,1.00003
app_33,95.5899,20085.2,7966.7,33.3,80.1845,2.22188e+10,1.00139,0.993374,99,0.277735,201,1.00003,1.00003
app_34,15.5139,19901.7,7951.9,48.1,83.5588,3.52397e+10,1.00161,0.993374,95,0.41952,208,1.00003,1.00003
app_35,69.9901,20050.6,7940.8,59.2,80.1166,4.59582e+10,1.00166,0.993374,98,0.574478,202,1.00004,1.00004
app_36,3.65561,19812.4,7949.4,50.6,80.6442,3.65978e+10,1.00175,0.993374,99,0.451825,200,1.00004,1.00004
app_37,58.5977,19855.6,7991.9,8.1,81.2767,6.85755e+08,1.00093,0.993374,99,0.00846611,201,1.00004,1.00004
app_38,81.1537,19992.6,7963.4,36.6,81.6006,2.73975e+10,1.00115,0.993374,98,0.338241,202,1.00004,1.00004
app_39,76.7726,20291.3,7968.8,31.2,85.3119,2.17606e+10,1.00118,0.993374,93,0.256007,215,1.00004,1.00004
app_4,7.21849,18309.5,7908.1,91.9,878.852,4.25726e+10,1.0062,0.993374,9,0.048433,2018,1,1
app_40,99.8355,20127.7,7971,29,78.4888,2.06258e+10,1.00105,0.993374,101,0.264433,197,1.00004,1.00004
app_41,205.435,20924.8,7983.1,16.9,8.4693,1.43146e+10,1.00032,0.993374,937,1.59051,22,1.00004,1.00004
app_42,819.526,21471.6,7982.2,17.8,8.34406,1.61996e+10,1.0002,0.993374,979,2.02495,21,1.00004,1.00004
app_43,809.178,21776.6,7951.9,48.1,7.33516,3.76283e+10,1.00131,0.993374,1091,5.37547,19,1.00004,1.00004
app_44,542.938,21092.1,7955.4,44.6,7.9339,3.82493e+10,1.00079,0.993374,1038,4.78117,20,1.00004,1.00004
app_45,360.121,20621.5,7949.7,50.3,8.29422,3.85974e+10,1.00146,0.993374,979,4.2886,21,1.00004,1.00004
app_46,804.015,20928.5,7983.2,16.8,8.01135,1.09126e+10,1.00074,0.993374,999,1.36407,20,1.00005,1.00005
app_47,558.279,21275.3,7963.6,36.4,8.62414,2.6387e+10,1.00125,0.993374,938,2.93189,22,1.00005,1.00005
app_48,499.524,20604.8,7990,10,7.73949,8.87017e+09,1.00014,0.993374,1002,1.10877,20,1.00005,1.00005
app_49,502.971,20651.1,7955.2,44.8,7.42761,3.84367e+10,1.0008,0.993374,1053,5.49096,19,1.00005,1.00005
app_5,8.76344,19951.9,7919.3,80.7,791.877,2.68746e+10,1.00677,0.993374,10,0.0339326,1972,1.00001,1.00001
app_50,596.68,20848.5,7981.2,18.8,9.08194,1.50622e+10,1.00047,0.993374,894,1.67358,23,1.00005,1.00005
app_51,568.696,20795.5,7941.3,58.7,8.35857,4.87453e+10,1.00125,0.993374,974,6.09316,21,1.00005,1.00005
app_52,207.459,20033.2,7931.9,68.1,8.16795,5.92521e+10,1.00111,0.993374,996,6.58357,20,1.00005,1.00005
app_53,157.096,20524.5,7930.3,69.7,8.28841,5.36565e+10,1.00201,0.993374,960,5.96183,21,1.00005,1.00005
app_54,839.226,21774.2,7974.5,25.5,7.80097,2.2256e+10,1.00041,0.993374,1049,2.782,20,1.00005,1.00005
app_55,838.126,21616.3,7934.6,65.4,8.78239,5.34163e+10,1.0015,0.993374,896,5.93514,23,1.00005,1.00005
app_56,287.238,20733.7,7978.7,21.3,7.94058,1.76885e+10,1.00045,0.993374,1021,2.21106,20,1.00006,1.00006
app_57,532.564,21974.6,7978.9,21.1,7.58316,1.44292e+10,1.00083,0.993374,997,1.80365,21,1.00006,1.00006
app_58,286.223,20313.2,7948.2,51.8,7.79803,4.32711e+10,1.00107,0.993374,1049,5.40889,19,1.00006,1.00006
app_59,605.842,20882.2,7976.8,23.2,8.4225,1.98942e+10,1.00041,0.993374,957,2.48677,21,1.00006,1.00006
app_6,1.88127,18823,7920.4,79.6,793.157,2.25461e+10,1.00718,0.993374,10,0.0284313,1865,1.00001,1.00001
app_60,545.906,21449.7,7993.2,6.8,7.88172,5.75963e+09,1.00013,0.993374,980,0.719953,21,1.00006,1.00006
app_7,7.70233,19566.8,7910.2,89.8,880.573,3.12754e+10,1.00737,0.993374,9,0.0355402,2148,1.00001,1.00001
app_8,3.47914,18865.6,7898.5,101.5,875.707,4.50139e+10,1.00711,0.993374,9,0.0514445,2065,1.00001,1.00001
app_9,5.1566,19221.8,7920.4,79.6,793.432,2.12183e+10,1.00735,0.993374,10,0.0267571,1902,1.00001,1.00001
