app_id,start_app,end_app,effective_cpu,effective_io,effective_iter,total_bytes,stretch,utilization,Tcomp,Tio,iterations,priority,group_id
app_1,4.62846,18870.2,7710.6,73.7019,857.885,1.49819e+10,1.03552,0.984941,9,0.0174614,2023,1,1
app_10,4.70804,19407.9,7740.7,68.0199,772.413,1.14706e+10,1.03197,0.984941,10,0.0148391,1878,1,1
app_11,9.89278,18906.5,7708.3,85.5963,856.486,4.03024e+10,1.03244,0.984941,9,0.0470273,2022,1,1
app_12,2.33031,18769.8,7698.4,73.9924,854.626,1.43613e+10,1.03724,0.984941,9,0.0168166,2009,1,1
app_13,4.07835,20183.3,7707.6,76.2194,769.859,3.52786e+10,1.03321,0.984941,10,0.0458164,1951,1,1
app_14,10.365,19669.2,7720.3,69.4015,769.826,1.76585e+10,1.03386,0.984941,10,0.0229332,1899,1,1
app_15,8.75358,18990.7,7685.7,91.6074,959.769,3.33496e+10,1.0364,0.984941,8,0.0347753,2277,1,1
app_16,5.74951,19582,7737.6,71.1013,773.898,2.33531e+10,1.0308,0.984941,10,0.030172,1892,1,1
app_17,4.94632,19450.5,7730.9,70.5217,861.32,2.35939e+09,1.03449,0.984941,9,0.00273712,2094,1,1
app_18,2.88834,19889.4,7746,64.9437,775.175,2.51393e+09,1.03246,0.984941,10,0.00324378,1928,1,1
app_19,1.42038,20054,7743.4,73.0672,702.691,3.99096e+10,1.02784,0.984941,11,0.0567705,1762,1,1
app_2,0.394677,19253.2,7737.2,73.4397,859.695,1.03527e+10,1.03258,0.984941,9,0.0120521,2063,1,1
app_20,5.46338,18583.1,7713.5,88.3792,857.563,4.92864e+10,1.03056,0.984941,9,0.0575104,1992,1,1
app_21,15.1653,19842,7929.9,49.7587,86.1531,4.40909e+10,1.00326,0.984941,92,0.512685,214,1,1
app_22,25.9313,19998,7937.1,44.1948,75.7463,3.97814e+10,1.0029,0.984941,106,0.530418,188,1,1
app_23,54.5152,20216.2,7976.3,8.24571,78.6153,4.16613e+09,1.00245,0.984941,101,0.0527358,198,1,1
app_24,54.7006,19976.8,7915.2,55.8895,80.8144,4.91185e+10,1.00448,0.984941,99,0.606401,200,1,1
app_25,95.9965,20155.2,7926.5,52.8395,76.3788,4.79194e+10,1.00321,0.984941,105,0.630518,190,1,1
app_26,89.2727,20092.2,7949.2,39.1492,78.6789,3.37894e+10,1.00213,0.984941,101,0.427713,196,1,1
app_27,3.86093,20094.3,7962.7,24.2015,75.6263,2.27635e+10,1.00182,0.984941,104,0.299519,191,1,1
app_28,84.8637,19904.8,7968.9,22.1773,74.7661,1.85781e+10,1.00157,0.984941,107,0.247708,186,1,1
app_29,36.9485,20079.4,7955.3,30.1975,74.848,2.69869e+10,1.00222,0.984941,107,0.359825,186,1,1
app_3,5.0405,20529.5,7715.3,71.4627,773.496,2.60907e+10,1.03341,0.984941,10,0.0337525,1985,1,1
app_30,23.2091,20009.9,7964.6,17.386,85.9513,1.38348e+10,1.0027,0.984941,93,0.16087,215,1,1
app_31,64.1982,20253.3,7977.5,8.30707,77.6473,5.0544e+09,1.00219,0.984941,102,0.0648,196,1,1
app_32,83.0732,20190.7,7943.2,38.6333,75.3545,3.69544e+10,1.00249,0.984941,105,0.492726,190,1,1
app_33,31.9368,20024.5,7931.5,47.0649,77.5543,4.46607e+10,1.00299,0.984941,102,0.580009,195,1,1
app_34,34.478,20010.6,7969.7,15.2812,82.3945,8.48083e+09,1.00273,0.984941,96,0.103425,206,1,1
app_35,54.3536,20075.7,7934.4,54.4223,79.1384,4.84035e+10,1.00215,0.984941,100,0.612702,198,1,1
app_36,28.9773,20056.3,7963.4,22.6904,77.1317,1.81684e+10,1.00231,0.984941,103,0.235954,194,1,1
app_37,55.8088,20063.4,7975.9,14.5297,75.7955,9.78456e+09,1.00179,0.984941,104,0.128744,192,1,1
app_38,52.3494,20088.2,7950.2,24.6945,78.0737,2.27827e+10,1.00339,0.984941,102,0.292086,196,1,1
app_39,99.0145,20045.7,7933.3,48.836,80.1548,4.66877e+10,1.00251,0.984941,101,0.583596,197,1,1
app_4,4.75683,19675,7726.2,83.4463,857.491,3.55027e+10,1.0307,0.984941,9,0.0413784,2104,1,1
app_40,65.877,20133.4,7919,56.2936,82.3945,4.94368e+10,1.00396,0.984941,96,0.602888,206,1,1
app_41,49.5945,20460.6,7963.2,34.3912,7.81507,3.38172e+10,1.00037,0.984941,1014,4.22715,20,1,1
app_42,62.3117,20268,7985.6,14.3327,7.81055,1.36422e+10,1.00009,0.984941,999,1.70527,20,1,1
app_43,97.4059,20121.7,7957.1,39.1772,7.90599,3.86424e+10,1.00053,0.984941,1002,4.8303,20,1,1
app_44,911.578,21363.1,7962.1,35.4238,7.70468,3.51359e+10,1.00035,0.984941,1013,4.39199,20,1,1
app_45,899.987,21198.4,7983.9,16.1,7.81047,1.58544e+10,1.00003,0.984941,1012,2.26491,20,1,1
app_46,605.775,21125,7996.5,3.02688,8.30273,2.41105e+09,1.00014,0.984941,981,0.301381,21,1,1
app_47,415.559,21120,7969.2,27.9175,8.02298,2.72975e+10,1.00044,0.984941,981,3.41218,21,1,1
app_48,242.864,20977.7,7952.6,42.1104,7.28949,4.19042e+10,1.00069,0.984941,1071,5.98632,19,1,1
app_49,270.807,20543.1,7981.5,17.9375,8.15345,1.72817e+10,1.00015,0.984941,957,1.92018,21,1,1
app_5,4.03196,19589.9,7699.3,77.6921,851.056,2.41992e+10,1.0358,0.984941,9,0.0284361,2091,1,1
app_50,294.526,20967,7989.1,7.25413,8.32848,6.93371e+09,1.0005,0.984941,988,0.770413,21,1,1
app_51,370.343,20334.2,7965.6,34.2443,8.99825,3.38892e+10,1.00006,0.984941,911,3.76547,22,1,1
app_52,959.7,21116.5,7952.7,47.2118,7.87552,4.66267e+10,1.00008,0.984941,1005,5.82834,20,1,1
app_53,569.575,20236.2,7960.8,35.1124,8.22153,3.45409e+10,1.00058,0.984941,1008,4.31761,20,1,1
app_54,290.558,21286.2,7951.7,43.4094,7.00236,4.27865e+10,1.00069,0.984941,1084,6.11236,19,1,1
app_55,231.22,20615.2,7970.8,28.785,8.26242,2.84108e+10,1.0001,0.984941,974,3.15676,21,1,1
app_56,768.324,21289.4,7972.7,25.4838,7.96216,2.49942e+10,1.00029,0.984941,966,3.12428,21,1,1
app_57,85.5883,20956.8,7980.4,18.3116,7.81446,1.77609e+10,1.00023,0.984941,1031,2.22011,20,1,1
app_58,149.781,21212.5,7955.4,41.6067,8.19966,4.15402e+10,1.00038,0.984941,944,5.19252,22,1,1
app_59,649.669,21800.6,7983.2,15.4874,7.56895,1.52472e+10,1.00019,0.984941,1047,2.17817,20,1,1
app_6,2.14182,19447,7717.5,72.1984,857.771,6.77609e+09,1.0357,0.984941,9,0.00790675,2087,1,1
app_60,468.085,20980.3,7978.9,20.7817,8.34161,2.00263e+10,1.00013,0.984941,972,2.50329,21,1,1
app_7,3.79909,19105.3,7716.3,81.1264,858.123,3.0765e+10,1.03265,0.984941,9,0.0358567,2049,1,1
app_8,6.46415,18917.3,7712.3,77.4066,857.58,1.88067e+10,1.03478,0.984941,9,0.0219193,2028,1,1
app_9,2.9848,19359.7,7707.6,86.8943,855.613,4.54852e+10,1.03185,0.984941,9,0.053199,2072,1,1
