app_id,start_app,end_app,effective_cpu,effective_io,effective_iter,total_bytes,stretch,utilization,Tcomp,Tio,iterations,priority,group_id
app_1,3.95511,19015.7,7753.25,81.7533,775.881,5.23097e+10,1.02491,0.986455,10,0.0674094,1846,1,1
app_10,8.91048,18671.8,7750.4,85.9456,860.481,4.17633e+10,1.02667,0.986455,9,0.048562,2009,1,1
app_11,5.25344,18841.5,7740.08,82.5724,861.943,3.41542e+10,1.02904,0.986455,9,0.0396534,2027,1,1
app_12,2.3394,20037.2,7749,83.0375,863.037,3.13418e+10,1.02823,0.986455,9,0.0363173,2159,1,1
app_13,0.665863,18979.7,7694.4,83.7953,963.753,9.64992e+09,1.03841,0.986455,8,0.0100103,2286,1,1
app_14,6.98339,19352.7,7760.9,77.5034,775.13,3.77836e+10,1.02581,0.986455,10,0.048753,1880,1,1
app_15,7.85511,19100.3,7715.4,89.1035,854.866,5.01847e+10,1.03019,0.986455,9,0.0586956,2048,1,1
app_16,0.122978,20377.9,7751.9,82.0257,776.069,5.05574e+10,1.02532,0.986455,10,0.0651513,1976,1,1
app_17,7.94814,19977.8,7751.6,65.9586,774.476,7.13221e+09,1.0311,0.986455,10,0.00920285,1941,1,1
app_18,5.76302,18701.1,7737.6,71.7556,860.456,7.35052e+09,1.03293,0.986455,9,0.00854712,2019,1,1
app_19,7.91069,20225.6,7739.6,83.858,860.951,3.6449e+10,1.0288,0.986455,9,0.0423333,2180,1,1
app_2,9.07626,20235.2,7737,81.5058,774.47,5.0294e+10,1.02731,0.986455,10,0.0648954,1962,1,1
app_20,4.22662,20229.5,7751.9,75.7047,775.136,3.30466e+10,1.02762,0.986455,10,0.0425859,1963,1,1
app_21,40.3315,20015.6,7946.9,44.6324,86.6785,4.29088e+10,1.00128,0.986455,92,0.493204,215,1,1
app_22,34.1163,19917.3,7979.1,8.39666,81.0288,5.37302e+09,1.00194,0.986455,99,0.0663336,201,1,1
app_23,36.2864,19860.3,7925.5,42.2051,83.472,3.75479e+10,1.00464,0.986455,95,0.446998,208,1,1
app_24,28.0855,19998,7980.4,8.7061,79.5887,7.04732e+09,1.00157,0.986455,101,0.0892066,198,1,1
app_25,81.7601,20108.6,7936.1,49.5619,83.252,4.45938e+10,1.00242,0.986455,95,0.537274,209,1,1
app_26,42.358,20070.9,7967.2,15.1173,82.9372,8.50501e+09,1.00305,0.986455,95,0.10247,209,1,1
app_27,54.3901,19997.8,7934.3,52.4175,85.8944,4.9919e+10,1.00198,0.986455,92,0.580453,215,1,1
app_28,39.3246,20166,7963,17.1069,87.7142,1.17203e+10,1.00317,0.986455,90,0.133185,221,1,1
app_29,7.77219,19992.2,7960.4,22.0777,75.6316,1.78759e+10,1.00272,0.986455,105,0.238345,190,1,1
app_3,2.14003,18624.5,7749.2,80.9756,862.736,3.18434e+10,1.02814,0.986455,9,0.0369413,2004,1,1
app_30,80.9046,19923.9,7985.9,8.56788,78.4068,5.80583e+09,1.00104,0.986455,103,0.0734915,193,1,1
app_31,2.60664,19877.7,7975.6,15.4716,75.1367,1.29438e+10,1.00143,0.986455,107,0.172584,187,1,1
app_32,31.1869,20027.6,7932.3,56.7723,81.3412,5.12317e+10,1.00206,0.986455,98,0.624777,202,1,1
app_33,47.3534,19945.5,7938.2,40.3714,81.0573,3.62309e+10,1.00321,0.986455,98,0.447295,202,1,1
app_34,101.694,19920.8,7986.1,8.6537,78.8489,7.52362e+09,1.0008,0.986455,102,0.0952357,195,1,1
app_35,9.81054,19949.1,7960.3,15.8538,78.6257,1.21407e+10,1.00346,0.986455,101,0.15565,197,1,1
app_36,23.9608,19989.4,7954.1,37.9377,76.085,3.37166e+10,1.00153,0.986455,105,0.44364,189,1,1
app_37,43.6763,19978.8,7960.4,25.9027,82.9247,2.42419e+10,1.00192,0.986455,96,0.292071,206,1,1
app_38,28.7885,19989.8,7950.5,33.4635,81.6948,2.94149e+10,1.00252,0.986455,97,0.358718,204,1,1
app_39,21.1367,20066.7,7946.4,39.6277,77.5731,3.77564e+10,1.00198,0.986455,102,0.490343,195,1,1
app_4,9.39195,19082.2,7762.3,74.0418,864.094,7.18624e+09,1.02967,0.986455,9,0.00831741,2059,1,1
app_40,7.60365,20035.4,7967.5,15.3209,77.2039,1.05796e+10,1.00275,0.986455,105,0.135636,190,1,1
app_41,730.341,20700.6,7993.6,0.775797,8.16275,5.08764e+08,1.00074,0.986455,1001,0.0635956,20,1,1
app_42,30.3358,21014,7981.8,10.4542,7.46713,1.00608e+10,1.00102,0.986455,1032,1.2576,20,1,1
app_43,567.242,20877.1,7999,0.69166,7.86708,1.85705e+08,1.0001,0.986455,1016,0.0232132,20,1,1
app_44,74.8132,21607.2,7957.5,42.4768,8.11081,4.23759e+10,1.00002,0.986455,943,5.29699,22,1,1
app_45,445.967,20716.7,7983.1,16.8228,7.42447,1.63426e+10,1.00007,0.986455,1063,2.33466,19,1,1
app_46,641.05,20864.7,7972.2,26.3627,7.92482,2.5971e+10,1.00023,0.986455,1001,3.24638,20,1,1
app_47,460.754,20637.3,7975.1,23.0539,7.48186,2.28065e+10,1.00026,0.986455,1059,3.25806,19,1,1
app_48,444.09,20225.4,7968.4,31.5198,8.3712,3.1349e+10,1.00003,0.986455,961,3.48323,21,1,1
app_49,300.575,20250.5,7967.8,31.5018,8.62639,3.14876e+10,1.00009,0.986455,919,3.49863,22,1,1
app_5,5.86134,19220.1,7744.5,80.0149,859.505,2.53745e+10,1.02962,0.986455,9,0.0295053,2071,1,1
app_50,21.0952,20951.2,7996,4,7.97155,3.55966e+09,1.00006,0.986455,995,0.444957,21,1,1
app_51,732.046,21002.5,7969.1,25.2438,8.71968,2.4737e+10,1.00077,0.986455,925,2.74855,22,1,1
app_52,40.759,20383.5,7959.8,40.0774,8.40747,3.98526e+10,1.00004,0.986455,960,4.98158,21,1,1
app_53,702.855,21263.8,7972.9,25.6255,7.33056,2.50644e+10,1.00025,0.986455,1073,3.13305,19,1,1
app_54,306.759,20475.2,7956.8,39.4551,8.43647,3.8704e+10,1.00056,0.986455,957,4.30045,21,1,1
app_55,898.781,20967.7,7979.8,17.4876,8.50805,1.71391e+10,1.00038,0.986455,955,2.14239,21,1,1
app_56,406.384,20784.3,7961.7,35.9521,8.35974,3.552e+10,1.00035,0.986455,957,3.94666,21,1,1
app_57,68.8247,20086.8,7987.1,12.8596,7.35751,1.27033e+10,1.00002,0.986455,1053,1.58792,19,1,1
app_58,8.92897,20806.4,7970.4,29.5311,7.73319,2.9113e+10,1.00006,0.986455,1033,3.63912,20,1,1
app_59,805.379,21641.3,7961.2,38.3624,7.41935,3.79332e+10,1.00011,0.986455,1082,4.74166,19,1,1
app_6,3.32203,20154.5,7747.8,78.3443,859.506,2.07128e+10,1.0298,0.986455,9,0.0241127,2166,1,1
app_60,382.13,20916.6,7945.9,52.3001,8.5352,5.20801e+10,1.00025,0.986455,925,5.78668,22,1,1
app_7,7.0136,20349.3,7743.2,79.9222,772.456,4.50836e+10,1.02718,0.986455,10,0.0583229,1969,1,1
app_8,6.11363,20218.6,7750.5,74.2852,774.089,2.93528e+10,1.0283,0.986455,10,0.0379235,1961,1,1
app_9,1.5047,18963.6,7758.6,78.8828,775.164,4.1942e+10,1.02557,0.986455,10,0.054049,1837,1,1
