app_id,start_app,end_app,effective_cpu,effective_io,effective_iter,total_bytes,stretch,utilization,Tcomp,Tio,iterations,priority,group_id
app_1,10.4403,19825.5,7682.7,79.5252,766.262,4.45288e+10,1.0353,0.983206,10,0.0581316,1909,1,1
app_10,2.58839,20555.2,7674.84,88.9432,848.826,5.41075e+10,1.03507,0.983206,9,0.063806,2194,1,1
app_11,3.31913,20173.2,7705.8,70.9193,770.623,1.6001e+10,1.03603,0.983206,10,0.0207805,1946,1,1
app_12,2.16691,20303.9,7709.6,74.8481,770.395,3.15366e+10,1.03344,0.983206,10,0.0409566,1961,1,1
app_13,3.65361,19910.5,7677,85.3902,855.15,4.21062e+10,1.03639,0.983206,9,0.049247,2131,1,1
app_14,1.75167,20377.4,7717,79.065,772.497,4.21887e+10,1.03104,0.983206,10,0.0546486,1966,1,1
app_15,6.02863,19847.9,7675.4,80.9242,854.615,2.7596e+10,1.03856,0.983206,9,0.0323138,2121,1,1
app_16,4.3693,20323.8,7683.3,65.4637,769.078,1.08259e+10,1.03975,0.983206,10,0.0140779,1966,1,1
app_17,0.138334,18717.9,7634.1,95.946,952.642,4.51561e+10,1.04177,0.983206,8,0.0473831,2238,1,1
app_18,0.178413,20665.7,7703.4,62.5545,770.454,1.47083e+09,1.0383,0.983206,10,0.00191017,1994,1,1
app_19,5.72824,19235.9,7694.4,64.2752,770.885,4.75183e+09,1.03908,0.983206,10,0.00616321,1857,1,1
app_2,8.34638,20593.1,7705.5,66.0979,773.433,9.5917e+09,1.03693,0.983206,10,0.0124084,1988,1,1
app_20,9.49416,19717.1,7715.4,68.0382,770.82,1.44818e+10,1.03494,0.983206,10,0.0187832,1903,1,1
app_21,2.48917,20273.1,7911.6,39.9626,81.813,3.39865e+10,1.00685,0.983206,96,0.41447,208,1,1
app_22,58.7474,20139.2,7953.6,24.4033,81.2943,1.93165e+10,1.0034,0.983206,98,0.235567,204,1,1
app_23,39.7583,20014.1,7920.5,42.4923,85.3748,3.89138e+10,1.0051,0.983206,92,0.45781,215,1,1
app_24,12.0449,19976.2,7938.5,37.9045,75.4906,3.28879e+10,1.00359,0.983206,105,0.432736,189,1,1
app_25,99.517,20004.7,7934.5,23.7198,76.7015,2.19288e+10,1.00548,0.983206,104,0.288537,191,1,1
app_26,59.6937,20006.3,7965.2,14.9434,79.0849,8.05394e+09,1.00335,0.983206,102,0.101949,196,1,1
app_27,77.8633,20114.6,7944.9,42.0299,83.0255,3.83486e+10,1.0021,0.983206,95,0.462031,208,1,1
app_28,30.2347,20143.2,7933.5,48.0794,80.1843,4.28802e+10,1.00296,0.983206,99,0.529385,201,1,1
app_29,17.0494,19922.5,7966.9,8.20152,77.1547,5.80141e+09,1.00342,0.983206,104,0.075343,191,1,1
app_3,1.02246,19098,7683.3,74.6371,853.411,1.21563e+10,1.03957,0.983206,9,0.0142345,2044,1,1
app_30,74.5283,20131.7,7969.4,7.7857,85.7429,1.08986e+09,1.0037,0.983206,93,0.0126728,214,1,1
app_31,51.8256,20014.9,7961.3,16.924,80.648,1.50258e+10,1.00297,0.983206,99,0.185504,201,1,1
app_32,84.0313,20093.6,7922.8,39.607,78.1448,3.61313e+10,1.00516,0.983206,101,0.463221,196,1,1
app_33,93.6124,20107.4,7944.8,33.2268,83.1014,2.96681e+10,1.0032,0.983206,96,0.357447,207,1,1
app_34,20.3722,19968.8,7935.7,30.6297,76.7707,2.66958e+10,1.00472,0.983206,103,0.346698,192,1,1
app_35,68.3286,20200.5,7907.5,34.3602,85.1225,3.03859e+10,1.00783,0.983206,93,0.357482,214,1,1
app_36,71.894,20122.1,7942.01,22.4858,76.9062,1.77734e+10,1.00505,0.983206,104,0.232932,192,1,1
app_37,43.5387,19870.1,7951.1,25.4254,82.7926,2.33553e+10,1.0032,0.983206,96,0.284821,206,1,1
app_38,3.26829,20005.4,7939.5,32.8624,82.1021,2.86255e+10,1.004,0.983206,97,0.349091,206,1,1
app_39,1.215,20090.8,7916.4,60.3312,76.9002,5.4718e+10,1.00362,0.983206,102,0.710624,194,1,1
app_4,4.75913,20350.6,7658.8,80.8351,849.088,2.99525e+10,1.04048,0.983206,9,0.0352797,2176,1,1
app_40,60.3055,20118.4,7953,8.8107,79.9553,6.39202e+09,1.0051,0.983206,99,0.0799003,202,1,1
app_41,961.511,22004.8,7979.9,20.0559,7.4458,1.99165e+10,1.00002,0.983206,1029,2.48956,20,1,1
app_42,953.896,21721.2,7991,0.746839,7.61642,5.62567e+08,1.00106,0.983206,1041,0.0803667,20,1,1
app_43,111.275,21155.6,7954,42.1975,7.96146,4.18449e+10,1.00052,0.983206,984,5.23061,21,1,1
app_44,341.354,21335.8,7962.4,23.1297,7.76187,2.2721e+10,1.00186,0.983206,1040,2.84012,20,1,1
app_45,334.827,20990.9,7972.3,27.1281,8.60879,2.65926e+10,1.00014,0.983206,927,3.32408,22,1,1
app_46,543.912,21708.3,7994.4,5.6,8.12674,4.97152e+09,1.00008,0.983206,947,0.621439,22,1,1
app_47,375.446,20986.3,7948.6,44.8482,7.39024,4.47111e+10,1.00084,0.983206,1083,6.3873,19,1,1
app_48,949.739,22046.2,7987.6,11.8561,7.88008,1.13973e+10,1.00013,0.983206,986,1.62818,21,1,1
app_49,181.913,20081.6,7983.2,16.6339,7.97474,1.61006e+10,1.00009,0.983206,1012,2.01258,20,1,1
app_5,9.54702,18774.8,7667.3,85.2247,851.554,3.97731e+10,1.03801,0.983206,9,0.0467369,2001,1,1
app_50,814.287,21429.3,7964.3,35.7,7.83257,3.56217e+10,1.00001,0.983206,1005,5.08882,20,1,1
app_51,573.002,21702.4,7957.4,42.4354,7.99026,4.20026e+10,1.00007,0.983206,991,5.25033,21,1,1
app_52,83.966,20822.7,7994.9,4.67866,7.82736,4.20908e+09,1.00011,0.983206,983,0.526135,21,1,1
app_53,767.654,21388.5,7939.6,51.9112,8.11536,5.15985e+10,1.0011,0.983206,991,6.44981,21,1,1
app_54,542.302,21347.4,7992.6,4.88181,7.68364,4.67138e+09,1.00034,0.983206,1037,0.583922,20,1,1
app_55,674.577,21596.8,7949.3,45.3991,7.82755,4.49519e+10,1.00072,0.983206,988,5.61899,21,1,1
app_56,964.782,21521.9,7965.2,29.5995,8.23028,2.92406e+10,1.0007,0.983206,976,3.65507,21,1,1
app_57,490.546,20757.3,7957.1,39.13,7.16641,3.87793e+10,1.00052,0.983206,1133,4.84742,18,1,1
app_58,819.234,21165.5,7952.3,47.7,8.83098,4.73923e+10,1.00004,0.983206,923,5.26581,22,1,1
app_59,616.5,21259.1,7976.7,21.6428,8.41101,2.12518e+10,1.00026,0.983206,925,2.36132,22,1,1
app_6,7.64565,19083.1,7661.14,84.3016,848.735,4.11888e+10,1.03865,0.983206,9,0.0485716,2032,1,1
app_60,326.904,21081,7955.6,44.0832,8.41526,4.34957e+10,1.00011,0.983206,931,4.83286,22,1,1
app_7,9.49593,20662.7,7699.1,67.4462,768.67,1.56679e+10,1.03697,0.983206,10,0.0204009,1990,1,1
app_8,0.923199,20387.3,7711.9,64.0512,770.601,3.10436e+09,1.03694,0.983206,10,0.00403164,1966,1,1
app_9,5.25283,19331.8,7688,83.6927,769.503,5.35447e+10,1.03339,0.983206,10,0.069629,1861,1,1
