app_id,start_app,end_app,effective_cpu,effective_io,effective_iter,total_bytes,stretch,utilization,Tcomp,Tio,iterations,priority,group_id
app_1,9.65078,18555.8,7897.6,102.4,879.152,5.12435e+10,1.00644,0.993346,9,0.0582975,2036,1,1
app_10,8.9623,18618.2,7894.4,105.6,876.856,6.20353e+10,1.00548,0.993346,9,0.0707359,2041,1.00001,1.00001
app_11,9.73575,18476.8,7908.6,91.4,881.057,3.51903e+10,1.00708,0.993346,9,0.0399435,2029,1.00001,1.00001
app_12,8.19958,19856.4,7920.1,79.9,793.375,1.95244e+10,1.0076,0.993346,10,0.0246209,1965,1.00001,1.00001
app_13,8.06374,18380,7912,88,879.417,1.27142e+10,1.0095,0.993346,9,0.0144479,2019,1.00001,1.00001
app_14,5.20236,19100.9,7920,80,791.328,2.31754e+10,1.00715,0.993346,10,0.0292989,1892,1.00001,1.00001
app_15,8.01263,19629.5,7908.6,91.4,791.556,4.03298e+10,1.00642,0.993346,10,0.0509215,1939,1.00002,1.00002
app_16,2.98589,18433.3,7912,88,880.014,8.85515e+09,1.00999,0.993346,9,0.0100627,2025,1.00002,1.00002
app_17,3.19617,18727.6,7909.3,90.7,877.474,3.01186e+10,1.00763,0.993346,9,0.0343037,2052,1.00002,1.00002
app_18,7.33548,19591.3,7907.4,92.6,789.236,4.63263e+10,1.00582,0.993346,10,0.0586409,1938,1.00002,1.00002
app_19,3.44704,19510,7911.9,88.1,881.014,9.31885e+09,1.00995,0.993346,9,0.0105776,2146,1.00002,1.00002
app_2,5.75937,18592.9,7906.4,93.6,789.28,4.82764e+10,1.0057,0.993346,10,0.0611868,1833,1,1
app_20,6.75829,19756,7921.1,78.9,789.268,8.63471e+08,1.00985,0.993346,10,0.00109439,1952,1.00002,1.00002
app_21,89.2212,20175,7936.3,63.7,74.922,4.82627e+10,1.00193,0.993346,105,0.643502,189,1.00002,1.00002
app_22,57.9877,19982.9,7992.3,7.7,77.274,1.55205e+09,1.00077,0.993346,103,0.0201565,193,1.00002,1.00002
app_23,72.7448,20130.7,7928.1,71.9,74.9186,5.22762e+10,1.00246,0.993346,105,0.697015,189,1.00002,1.00002
app_24,63.4035,19988.1,7991.3,8.7,84.9568,3.2701e+09,1.00068,0.993346,94,0.0384717,211,1.00002,1.00002
app_25,31.3625,20007.6,7976.6,23.4,81.9313,1.63883e+10,1.00088,0.993346,97,0.199857,206,1.00003,1.00003
app_26,76.6087,20078.7,7971.6,28.4,80.9334,1.67813e+10,1.00145,0.993346,99,0.207177,202,1.00003,1.00003
app_27,102.58,20047.4,7969.7,30.3,77.8817,2.23272e+10,1.001,0.993346,102,0.286246,194,1.00003,1.00003
app_28,61.9092,20085.9,7980.4,19.6,74.6461,1.37932e+10,1.00073,0.993346,106,0.186395,188,1.00003,1.00003
app_29,48.705,20007,7991.5,8.5,79.7173,3.45696e+09,1.00063,0.993346,101,0.043759,198,1.00003,1.00003
app_3,7.55589,20097.1,7909.2,90.8,792.445,4.07035e+10,1.0063,0.993346,10,0.0513285,1988,1,1
app_30,27.3337,20011.6,7983.6,16.4,78.3409,8.67363e+09,1.00097,0.993346,102,0.1112,195,1.00003,1.00003
app_31,7.04091,19830.1,7941.9,58.1,87.0576,3.96824e+10,1.00231,0.993346,92,0.45612,215,1.00003,1.00003
app_32,85.6503,19968.9,7991.6,8.4,77.8691,4.48194e+09,1.00049,0.993346,103,0.058207,194,1.00003,1.00003
app_33,78.4849,20162.3,7989.9,10.1,81.6238,6.21038e+09,1.00049,0.993346,97,0.0766713,206,1.00003,1.00003
app_34,78.1831,20120.9,7952.8,47.2,77.597,3.45277e+10,1.00159,0.993346,102,0.442662,195,1.00003,1.00003
app_35,73.0228,20085.4,7954.5,45.5,76.5949,3.49128e+10,1.00133,0.993346,104,0.459378,191,1.00004,1.00004
app_36,64.6509,20017.3,7952.8,47.2,90.2665,3.52215e+10,1.0015,0.993346,88,0.39135,226,1.00004,1.00004
app_37,85.0714,19985.1,7989.9,10.1,82.203,5.62417e+09,1.00056,0.993346,97,0.0685875,205,1.00004,1.00004
app_38,62.724,20153.3,7972,28,81.3026,1.82741e+10,1.00122,0.993346,98,0.225606,204,1.00004,1.00004
app_39,15.8234,19700.6,7991.7,8.3,83.8399,1.11722e+09,1.0009,0.993346,97,0.0134604,205,1.00004,1.00004
app_4,0.787229,19848.3,7920.8,79.2,792.426,1.27136e+10,1.00838,0.993346,10,0.0160526,1965,1,1
app_40,77.7459,19973.2,7948.8,51.2,82.9718,3.376e+10,1.00218,0.993346,96,0.406746,206,1.00004,1.00004
app_41,863.594,21950,7916.9,83.1,7.83811,5.70932e+10,1.00326,0.993346,976,7.13665,21,1.00004,1.00004
app_42,959.094,21448.5,7959.3,40.7,7.5243,3.55667e+10,1.00064,0.993346,1062,4.44584,19,1.00004,1.00004
app_43,452.214,21306.2,7946.8,53.2,7.43927,4.58438e+10,1.00092,0.993346,1033,6.54912,20,1.00004,1.00004
app_44,660.069,21202.1,7945.9,54.1,7.70434,3.77258e+10,1.00205,0.993346,1040,5.3894,20,1.00004,1.00004
app_45,310.199,21148.5,7954,46,8.03719,3.66866e+10,1.00117,0.993346,977,4.58582,21,1.00004,1.00004
app_46,664.822,20276.7,7961.7,38.3,8.18138,3.1607e+10,1.00084,0.993346,1009,3.95087,20,1.00005,1.00005
app_47,327.393,21225.5,7945.1,54.9,7.30704,4.50896e+10,1.00123,0.993346,1084,6.44137,19,1.00005,1.00005
app_48,614.496,21113.8,7956.2,43.8,8.48009,3.47824e+10,1.00113,0.993346,909,3.86471,22,1.00005,1.00005
app_49,500.038,20777.7,7986.6,13.4,7.99724,9.10119e+09,1.00054,0.993346,1012,1.13765,20,1.00005,1.00005
app_5,5.02482,19781.7,7920.8,79.2,791.444,9.25497e+09,1.00882,0.993346,10,0.0116856,1957,1.00001,1.00001
app_50,88.727,20365.7,7939.7,60.3,7.36572,5.00017e+10,1.00129,0.993346,1050,7.14309,19,1.00005,1.00005
app_51,167.588,20711.9,7996.6,3.4,8.28578,1.84798e+09,1.00019,0.993346,970,0.205332,21,1.00005,1.00005
app_52,952.126,21228.6,7939.7,60.3,8.30715,4.95736e+10,1.00134,0.993346,974,5.50818,21,1.00005,1.00005
app_53,705.958,21073,7991.2,8.8,7.60796,7.64695e+09,1.00014,0.993346,1061,0.955869,19,1.00005,1.00005
app_54,351.309,21003.6,7932.9,67.1,8.31091,4.98143e+10,1.00217,0.993346,981,6.22678,21,1.00005,1.00005
app_55,1047.62,20879.1,7923.5,76.5,7.55131,6.11469e+10,1.00192,0.993346,1055,7.64336,19,1.00005,1.00005
app_56,154.601,20648.1,7966.3,33.7,8.21599,2.2919e+10,1.00135,0.993346,979,2.54656,21,1.00006,1.00006
app_57,797.844,21209.8,7973.9,26.1,7.95843,1.52298e+10,1.00136,0.993346,1022,1.90372,20,1.00006,1.00006
app_58,184.013,20213.1,7998.8,1.2,7.88854,3.79664e+08,1.0001,0.993346,1015,0.047458,20,1.00006,1.00006
app_59,732.886,21487.5,7994.6,5.4,7.44036,4.66715e+09,1.00009,0.993346,1087,0.583394,19,1.00006,1.00006
app_6,8.45626,18839.9,7908.3,91.7,878.772,3.51489e+10,1.00712,0.993346,9,0.0399873,2070,1.00001,1.00001
app_60,600.648,20510.6,7943.4,56.6,8.80949,4.61236e+10,1.00131,0.993346,907,5.76545,22,1.00006,1.00006
app_7,5.54066,18144.5,7898.3,101.7,877.781,4.69604e+10,1.00689,0.993346,9,0.0535467,1993,1.00001,1.00001
app_8,6.7512,19500.4,7918.5,81.5,789.712,2.94088e+10,1.00655,0.993346,10,0.0372264,1931,1.00001,1.00001
app_9,4.34089,18360.2,7920.4,79.6,795.226,1.88559e+10,1.00765,0.993346,10,0.0237181,1820,1.00001,1.00001
