app_id,Tcomp,Tio,iter,witer,alpha_io,compute_size,io_size,mu,desyn_time
1,10.22942270284528,0.03137419430359932,1950,10.260796897148879,0.0030576761842266973,10e9,31374194.30359932,10,9.306395851774063
2,14.738109024532974,0.015552111700124771,1356,14.753661136233099,0.0010541188086481653,14e9,15552111.70012477,10,6.868752083478011
3,12.345937699139105,0.07618602039458387,1611,12.422123719533689,0.00613309141936672,12e9,76186020.39458387,10,9.560464909275117
4,3.0943972624985663,0.005100447555139039,6453,3.099497710053705,0.00164557229340578,3e9,5100447.555139039,10,0.0010280085363980477
5,7.3159318870248615,0.04438229423273356,2718,7.360314181257595,0.0060299456164180105,7e9,44382294.232733555,10,5.691945272999482
6,7.667194549040165,0.018354806498400558,2603,7.685549355538566,0.0023882230988697285,7e9,18354806.498400558,10,1.091850983313394
7,14.49805385197435,0.08106864179144806,1372,14.579122493765798,0.00556059816536379,14e9,81068641.79144806,10,13.79317423131244
8,12.567695811054229,0.012377562980920355,1590,12.580073374035148,0.0009839022883973978,12e9,12377562.980920356,10,1.7884292214357365
9,4.882020318458751,0.015061595362056597,4085,4.8970819138208075,0.003075626592961199,4e9,15061595.362056596,10,2.542527620280182
10,9.531092730051933,0.026949197419400443,2093,9.558041927471333,0.002819531199370884,9e9,26949197.419400442,10,0.904167423090075
11,3.560683572144828,0.022655376648440473,5582,3.5833389487932683,0.006322420784690194,3e9,22655376.648440473,10,3.466428050538494
12,7.657809257082065,0.03598254329946464,2600,7.69379180038153,0.004676828309505372,7e9,35982543.29946464,10,7.386156294831426
13,11.308602857319167,0.048698949728219865,1761,11.357301807047387,0.004287897826048911,11e9,48698949.72821987,10,6.2096229815067945
14,11.685580922025153,0.02575682263585329,1708,11.711337744661007,0.0021993066204239026,11e9,25756822.63585329,10,3.619571431621485
15,3.621347025403307,0.011420066742155057,5506,3.6327670921454622,0.003143627557859902,3e9,11420066.742155058,10,0.5324865888123013
16,11.538363616162785,0.0019573588059515934,1734,11.540320974968736,0.00016961043026421507,11e9,1957358.8059515934,10,4.405223103917075
17,7.497356925676845,0.006743301630722356,2666,7.504100227307568,0.0008986156136592297,7e9,6743301.630722356,10,1.474279416354641
18,5.824151892449605,0.0304108881524109,3417,5.854562780602016,0.005194390989054146,5e9,30410888.152410902,10,0.5790506419450722
19,18.46692215423494,0.09956769788749255,1078,18.566489852122434,0.005362763703883986,18e9,99567697.88749255,10,2.4302770748184552
20,11.57008971045792,0.04485744431332114,1722,11.61494715477124,0.0038620446322818096,11e9,44857444.31332114,10,3.6486580768103645
21,85.35518200880433,0.05389478735095944,235,85.40907679615529,0.0006310194346157074,85e9,53894787.35095944,100,68.5677864999227
22,4.3863170443604345,0.01000564359540997,4550,4.396322687955845,0.0022759120077380595,4e9,10005643.595409969,100,3.4824599420230298
23,151.66448826110675,0.2796584788844515,132,151.9441467399912,0.0018405347286131841,151e9,279658478.8844515,100,35.42441862534926
24,40.82899266395072,0.24269215897109056,487,41.07168482292181,0.005908989612124356,40e9,242692158.97109056,100,23.44570890790406
25,40.63262823049716,0.17762108155935058,491,40.81024931205651,0.004352364529830898,40e9,177621081.55935058,100,23.333217724469563
26,143.5406739189995,0.717446039066849,139,144.25811995806635,0.0049733494327764685,143e9,717446039.066849,100,66.87019812963781
27,55.80562777318461,0.35154655234112897,357,56.15717432552574,0.006260047029847381,55e9,351546552.34112895,100,28.48718273202286
28,56.8694825030589,0.3222607117037165,350,57.19174321476262,0.0056347418978572586,56e9,322260711.7037165,100,56.46259045332438
29,172.709670129024,0.710744866010371,116,173.42041499503438,0.004098392141609868,172e9,710744866.010371,100,65.1179648889339
30,330.6896629651719,1.7431452784051982,61,332.43280824357714,0.005243601820214979,330e9,1743145278.405198,100,144.13091958797878
31,98.37069774193499,0.4605432307573051,203,98.8312409726923,0.004659895254017463,98e9,460543230.7573051,100,9.0953247499762
32,100.01518038316821,0.48911456722040114,199,100.50429495038861,0.004866603635813177,100e9,489114567.22040117,100,60.48333663662076
33,38.84971134857084,0.14089860869212464,513,38.99060995726297,0.0036136548991298556,38e9,140898608.69212463,100,28.995255590905163
34,82.26215900762347,0.4138408059929161,242,82.67599981361639,0.005005573648046265,82e9,413840805.9929161,100,49.30495513457236
35,72.98653228572262,0.2682745287214474,274,73.25480681444407,0.003662210582317039,72e9,268274528.7214474,100,51.887484409915146
36,135.90600321739825,0.2382937974499492,147,136.1442970148482,0.0017503031906210536,135e9,238293797.4499492,100,60.21735882792099
37,101.10782894509751,0.5701189560056402,197,101.67794790110315,0.005607105255115546,101e9,570118956.0056403,100,64.15820451136373
38,6.4968662135190565,0.019736567092507148,3070,6.516602780611564,0.003028658912774016,6e9,19736567.092507146,100,0.34052517281688516
39,86.28494466972089,0.5405953498009848,231,86.82554001952187,0.006226225021801618,86e9,540595349.8009847,100,21.69967212477707
40,38.14008655553483,0.20894948956653742,522,38.349036045101364,0.005448624297121759,38e9,208949489.5665374,100,14.464210562200993
41,2101.2870785464256,5.010129451330462,10,2106.2972079977562,0.0023786431621836907,2101e9,5010129451.3304615,1000,231.44853932307535
42,1111.987765657355,2.020256171469652,18,1114.0080218288247,0.001813502355353846,1111e9,2020256171.4696522,1000,411.14538660842396
43,1534.4815050208892,1.5113543464108814,14,1535.9928593673,0.0009839592268895262,1534e9,1511354346.4108813,1000,68.17291071254267
44,1052.3806881643827,1.4383495026527746,19,1053.8190376670354,0.0013648923119068148,1052e9,1438349502.6527746,1000,147.48635583730922
45,505.8940915454783,1.4204983563524056,40,507.31458990183074,0.002800034504482284,505e9,1420498356.3524055,1000,270.81296008785984
46,1390.9369600972298,3.1125615394369217,15,1394.0495216366667,0.002232748185145286,1390e9,3112561539.4369216,1000,859.8185380792395
47,1661.7409110027145,4.326583122045523,13,1666.06749412476,0.002596883461986286,1661e9,4326583122.045524,1000,836.0099412527438
48,785.0185983668028,0.2553195486090679,26,785.273917915412,0.000325134380225997,785e9,255319548.60906792,1000,436.23773952332436
49,577.1615439185709,0.7589027330721035,35,577.920446651643,0.0013131612447163552,577e9,758902733.0721035,1000,57.1070012280529
50,906.2379430468687,3.542103220458126,22,909.7800462673268,0.0038933621758256566,906e9,3542103220.458126,1000,693.8235353378641
51,478.02362833080133,0.38859543732475743,42,478.41222376812607,0.0008122606781742674,478e9,388595437.32475746,1000,363.9557183365768
52,2339.9511649402434,11.311445603605417,9,2351.262610543849,0.004810796358042316,2339e9,11311445603.605417,1000,1268.9390669534823
53,1722.6071598323529,0.6923196238045067,12,1723.2994794561573,0.0004017407491024082,1722e9,692319623.8045068,1000,939.687987820964
54,1540.9596133536172,6.558085875893561,13,1547.5176992295108,0.004237809932098837,1540e9,6558085875.893561,1000,1225.9035857377735
55,125.8797566484859,0.4927737113604466,159,126.37253035984634,0.003899373621445035,125e9,492773711.36044663,1000,109.39843816522094
56,764.4913396486887,0.2522463682740149,27,764.7435860169627,0.00032984437252726417,764e9,252246368.27401492,1000,728.1671975772535
57,1089.6817113461582,5.073913804402468,19,1094.7556251505607,0.004634745588728679,1089e9,5073913804.402469,1000,573.2323592411695
58,1057.2671748685534,1.74799046069447,19,1059.0151653292478,0.001650581141726162,1057e9,1747990460.6944702,1000,167.9484235073923
59,872.5758970080883,3.4669843462506558,23,876.042881354339,0.003957550960166231,872e9,3466984346.2506557,1000,126.54462376921198
60,2064.282466242666,3.3275622106143032,10,2067.6100284532804,0.0016093761225870803,2064e9,3327562210.614303,1000,623.46599093985
