app_id,Tcomp,Tio,iter,witer,alpha_io,compute_size,io_size,mu,desyn_time
1,24.08666157543659,0.020421882406585476,830,24.107083457843174,0.000847132024174466,24e9,20421882.406585477,10,10.276243703084981
2,15.245852532411147,0.04094149613842529,1309,15.286794028549572,0.002678226452319765,15e9,40941496.13842529,10,2.4195900630219827
3,20.490108869512774,0.08537995475866177,973,20.575488824271435,0.00414959544766417,20e9,85379954.75866176,10,5.898615955418603
4,17.164169125740127,0.03889450082009546,1163,17.203063626560223,0.0022609054796522005,17e9,38894500.820095465,10,3.3529608976888383
5,12.620457814248365,0.0901259356303374,1574,12.710583749878703,0.007090621280961818,12e9,90125935.6303374,10,10.31329127373534
6,7.816812712522945,0.05144759914721776,2542,7.868260311670163,0.0065386244365747475,7e9,51447599.147217765,10,4.008305207886096
7,10.055131547461523,0.05216118684001721,1979,10.10729273430154,0.005160747611771015,10e9,52161186.84001721,10,5.12402720063788
8,20.17318850323539,0.14850453201435626,985,20.321693035249748,0.007307685031791506,20e9,148504532.01435626,10,4.8641246353207785
9,9.001137035502063,0.05238421966399368,2210,9.053521255166057,0.005786060272858206,9e9,52384219.66399368,10,8.781178443223856
10,14.257819417759743,0.0666261028318132,1397,14.324445520591556,0.004651216882080175,14e9,66626102.831813194,10,7.6282146963526465
11,18.198882263481877,0.004615260355032081,1099,18.20349752383691,0.0002535370111698888,18e9,4615260.355032082,10,5.158774327194986
12,10.959728644326082,0.017074457751777333,1823,10.97680310207786,0.0015555036920125874,10e9,17074457.751777332,10,6.212880099352302
13,19.662021368303556,0.06082400271686865,1015,19.722845371020423,0.003083936499661445,19e9,60824002.71686865,10,19.610526666262032
14,3.3998379263330167,0.017717835088804135,5853,3.417555761421821,0.005184358742235388,3e9,17717835.088804137,10,1.5659553877571806
15,12.973384687562993,0.05810825219109281,1535,13.031492939754086,0.004459063321427034,12e9,58108252.191092804,10,9.748757950158067
16,6.808543353420598,0.04172560604652137,2920,6.850268959467119,0.0060910901883430854,6e9,41725606.046521366,10,6.4604004029175135
17,11.534853276502295,0.04903347235721206,1727,11.583886748859507,0.00423290329232886,11e9,49033472.35721206,10,0.6805668808182058
18,6.96013480881696,0.04899591960012866,2854,7.009130728417089,0.0069902990111861815,6e9,48995919.60012866,10,5.4465294777367435
19,12.031650936973572,0.01991148154189211,1660,12.051562418515463,0.0016521908820138565,12e9,19911481.541892108,10,5.186371159387298
20,12.892735559145654,0.006629489666360708,1551,12.899365048812015,0.0005139392242388907,12e9,6629489.666360708,10,10.104341077117367
21,86.98897253713086,0.10239632433020547,230,87.09136886146106,0.001175734469084881,86e9,102396324.33020547,100,84.33559812734238
22,53.53547854283835,0.11106295725989972,373,53.646541500098245,0.002070272456607409,53e9,111062957.25989972,100,6.880813372083395
23,124.09914031023065,0.6182340950349948,161,124.71737440526564,0.004957080743426014,124e9,618234095.0349948,100,74.67284638758738
24,203.049167320542,0.8866109677547606,99,203.93577828829677,0.004347500841668842,203e9,886610967.7547605,100,172.16970874188735
25,183.80064884722253,0.7747674286210875,109,184.57541627584362,0.004197565657732099,183e9,774767428.6210876,100,116.09305497368939
26,65.20580462444796,0.02453460847267403,307,65.23033923292064,0.00037612265643855233,65e9,24534608.47267403,100,44.68451746565274
27,189.94359840998604,0.043794604953499544,106,189.98739301493953,0.00023051321594825917,189e9,43794604.95349954,100,7.600523502771503
28,12.301195714434964,0.007023481930194271,1625,12.308219196365158,0.0005706334781776095,12e9,7023481.930194271,100,9.951427131116137
29,170.5054208875233,0.5238542907502353,117,171.0292751782735,0.0030629510076809496,170e9,523854290.75023526,100,108.53209313543515
30,155.0935137170971,0.6709657476142846,129,155.76447946471137,0.004307565819370858,155e9,670965747.6142846,100,68.50737552724631
31,148.29403816860452,0.3395150047469007,135,148.63355317335143,0.002284241999859373,148e9,339515004.74690074,100,46.9080666634012
32,113.24505965988222,0.8238929814657171,176,114.06895264134793,0.007222762744707369,113e9,823892981.4657171,100,64.3155079565885
33,165.39507385661574,0.5365689396335614,121,165.9316427962493,0.003233674605948577,165e9,536568939.63356143,100,7.604869709818843
34,157.45543134917003,0.5358788465894886,127,157.99131019575952,0.003391824815716172,157e9,535878846.58948857,100,129.7921184873952
35,67.19461447191927,0.14025915002011977,298,67.33487362193938,0.002083009033441177,67e9,140259150.02011976,100,24.044859939833284
36,99.86558636777059,0.008565357107892416,201,99.87415172487849,8.576150044795625e-05,99e9,8565357.107892416,100,97.0865781141394
37,21.630709795940614,0.10018511736780485,921,21.73089491330842,0.004610261922828109,21e9,100185117.36780484,100,3.5981355045650023
38,60.93645792699128,0.4118455732259601,327,61.34830350021724,0.006713234918134317,60e9,411845573.2259601,100,12.765762594303089
39,168.48216312227592,0.18553260568867314,119,168.6676957279646,0.0010999889746991568,168e9,185532605.68867314,100,4.615406174404206
40,107.04958598595577,0.12063372656385417,187,107.17021971251962,0.0011256273140752154,107e9,120633726.56385417,100,48.54950535627775
41,1301.2226660707638,3.762636618051804,16,1304.9853026888156,0.00288327892298802,1301e9,3762636618.051804,1000,1242.3748308279933
42,1138.746596433707,4.585824604321677,18,1143.3324210380288,0.004010928510326172,1138e9,4585824604.321677,1000,157.25414001744718
43,1964.7911214125922,14.570252179105575,11,1979.3613735916979,0.007361087456539971,1964e9,14570252179.105576,1000,1136.6676189107366
44,1367.8863191195644,4.2471061881788446,15,1372.1334253077432,0.0030952574362265828,1367e9,4247106188.1788445,1000,1138.5663414771816
45,561.5193449649736,0.557990056192338,36,562.0773350211659,0.0009927282625109336,561e9,557990056.192338,1000,436.17144457329607
46,766.4637090297286,3.853355975438128,26,770.3170650051668,0.005002298599489396,766e9,3853355975.438128,1000,284.08040460374576
47,66.69671553644201,0.08774355359553924,300,66.78445909003756,0.0013138319122603813,66e9,87743553.59553924,1000,4.026097635957086
48,658.4843935079388,3.4728183032463225,31,661.9572118111851,0.005246288190960747,658e9,3472818303.2463226,1000,499.4485387663611
49,954.3987493733017,4.0445878302648826,21,958.4433372035666,0.004219955080563976,954e9,4044587830.2648826,1000,197.47087279612882
50,1175.4801099234805,6.165680444171538,17,1181.6457903676521,0.005217875351845645,1175e9,6165680444.171537,1000,954.4892350439093
51,657.8577642353504,1.4425251983448861,31,659.3002894336953,0.002187963848133512,657e9,1442525198.344886,1000,651.3362579595675
52,699.1235483951211,1.8333321769619066,29,700.956880572083,0.0026154706912437185,699e9,1833332176.9619067,1000,266.2997931263408
53,1180.2853980425393,2.369520920196242,17,1182.6549189627356,0.0020035607024528035,1180e9,2369520920.196242,1000,264.50469763290727
54,695.6382940268119,5.1234570383456575,29,700.7617510651576,0.007311268102972237,695e9,5123457038.345657,1000,47.18488533323929
55,1292.0209114531772,3.6722350019525662,16,1295.6931464551296,0.0028341857113309485,1292e9,3672235001.952566,1000,72.7435170698011
56,244.9944819132863,0.018367221745538523,82,245.01284913503184,7.496432048515118e-05,244e9,18367221.74553852,1000,83.32803822140161
57,1345.3709674015051,1.786506601999045,15,1347.1574740035041,0.0013261304906618497,1345e9,1786506601.999045,1000,273.0462984210184
58,1010.6827287758821,1.1108598681230137,20,1011.7935886440051,0.0010979115509239155,1010e9,1110859868.1230137,1000,589.2929290608574
59,440.6994762092459,1.0894413556383855,46,441.7889175648843,0.00246597710427714,440e9,1089441355.6383855,1000,241.65838078355483
60,126.75149086181672,0.14022458243878871,158,126.89171544425551,0.0011050727933486755,126e9,140224582.4387887,1000,107.81860525941104
