app_id,Tcomp,Tio,iter,witer,alpha_io,compute_size,io_size,mu,desyn_time
1,11.537629077249719,0.06038643989267751,1725,11.598015517142397,0.005206618304952566,11e9,60386439.89267751,10,4.950715886295983
2,5.786539202651102,0.004852321847925738,3454,5.791391524499028,0.0008378507699573079,5e9,4852321.847925738,10,1.1135093353617507
3,11.903027067473417,0.04151923650488453,1675,11.944546303978301,0.003475999460193474,11e9,41519236.50488453,10,0.7948816664053957
4,5.746172779624714,0.030364648039042604,3463,5.776537427663756,0.005256548307577258,5e9,30364648.039042603,10,4.964164992658302
5,21.890581463182425,0.12082626005050127,909,22.011407723232928,0.0054892563696855145,21e9,120826260.05050127,10,15.95820993695414
6,26.2440137114872,0.10088950687718294,760,26.344903218364383,0.0038295645287038044,26e9,100889506.87718295,10,9.744828653174979
7,21.60933293009632,0.09110768614697154,922,21.70044061624329,0.004198425633753044,21e9,91107686.14697154,10,10.137061368239232
8,14.56525322331341,0.02644532791695534,1371,14.591698551230365,0.0018123543207877934,14e9,26445327.91695534,10,3.420986171922728
9,14.275172770707636,0.07726121537338121,1394,14.352433986081017,0.005383143754453711,14e9,77261215.37338121,10,4.839136949100929
10,11.559863256745308,0.06177780117329435,1721,11.621641057918602,0.0053157553967992325,11e9,61777801.17329435,10,2.7186629031461367
11,17.192901450493363,0.07477476777091362,1159,17.267676218264278,0.00433033181916066,17e9,74774767.77091362,10,7.928879775771076
12,18.457961665754567,0.04232047358855234,1082,18.50028213934312,0.002287558279911454,18e9,42320473.58855234,10,3.535404360979117
13,1.1512467998095477,0.0028609600894473446,17330,1.154107759898995,0.0024789367066535705,1e9,2860960.0894473447,10,0.8838436020801247
14,17.30634522682345,0.01611853609642524,1155,17.322463762919874,0.000930499051233593,17e9,16118536.096425239,10,10.640552286528699
15,12.628307097675034,0.07511587877552042,1575,12.703422976450554,0.00591304240713462,12e9,75115878.77552043,10,7.3207847916923985
16,12.767109398020876,0.008482435158593352,1566,12.775591833179469,0.0006639563371587712,12e9,8482435.158593353,10,10.210317815841229
17,7.8090755624783945,0.020777732266578152,2555,7.829853294744972,0.002653655373150246,7e9,20777732.266578153,10,0.5634463811549792
18,18.033431583522525,0.010242447506551906,1109,18.043674031029077,0.0005676475583042748,18e9,10242447.506551906,10,14.672528382972741
19,16.439680112680097,0.03666786314350683,1214,16.476347975823604,0.0022254848706346237,16e9,36667863.14350683,10,15.519939181824117
20,15.002915124625648,0.005516042376419804,1333,15.008431167002069,0.0003675295782111804,15e9,5516042.376419804,10,13.736760150993918
21,157.86695635399425,0.019147566176006593,127,157.88610392017026,0.00012127454982161007,157e9,19147566.176006593,100,116.12174773629809
22,148.43236228810233,0.7131199246670711,135,149.1454822127694,0.004781371276467775,148e9,713119924.6670711,100,20.764624592075336
23,21.548364823699067,0.0455813525792127,927,21.59394617627828,0.0021108394087452826,21e9,45581352.579212695,100,1.752816579611701
24,68.94538600766191,0.30163327219520825,289,69.24701927985711,0.004355902612590124,68e9,301633272.19520825,100,48.40385211526861
25,169.77383282169217,0.34076416820244826,118,170.1145969898946,0.002003144787291186,169e9,340764168.20244825,100,65.0264083863111
26,249.45256881727553,0.9318980540619801,80,250.3844668713375,0.003721868475734339,249e9,931898054.0619801,100,0.4478007004215393
27,44.548855404215864,0.24880250175592813,447,44.79765790597179,0.00555391762395599,44e9,248802501.75592813,100,43.31860744350699
28,33.341693708580706,0.1902683324038029,597,33.53196204098451,0.00567423797543511,33e9,190268332.4038029,100,16.465775949772958
29,115.99879509528323,0.24573430927634013,173,116.24452940455957,0.0021139430004583205,115e9,245734309.27634013,100,74.75688232900322
30,128.388185167527,0.13049157486774907,156,128.51867674239477,0.0010153510616150274,128e9,130491574.86774907,100,58.28973961823388
31,75.59578297007118,0.2390454579636408,264,75.83482842803483,0.0031521856502977176,75e9,239045457.9636408,100,9.852943172272928
32,95.70737708961217,0.22012743851167627,209,95.92750452812385,0.002294727039908973,95e9,220127438.51167625,100,51.8256831986935
33,200.19023694642215,0.9836131013733627,100,201.1738500477955,0.004889368579165099,200e9,983613101.3733627,100,64.53339994701929
34,169.19470265911093,0.7875042980532407,118,169.98220695716418,0.0046328631222660455,169e9,787504298.0532408,100,127.2747760720207
35,122.4723501401964,0.5664681959498747,163,123.03881833614628,0.004603979488833062,122e9,566468195.9498748,100,82.70507586939054
36,46.04543067539999,0.18773045681966638,433,46.23316113221966,0.004060515271339255,46e9,187730456.8196664,100,28.67983021532059
37,80.23072733987227,0.08025444535134159,250,80.31098178522362,0.0009992960310953086,80e9,80254445.35134159,100,39.36584537118246
38,109.59936214948549,0.4341965928032421,182,110.03355874228873,0.003946037897585231,109e9,434196592.8032421,100,41.08604095684006
39,168.79853089907928,0.7406673817825017,118,169.5391982808618,0.004368708766426383,168e9,740667381.7825017,100,146.72559326887233
40,132.5678894280509,0.5606524059735206,151,133.12854183402442,0.004211361427457861,132e9,560652405.9735206,100,71.54445058259304
41,1485.5838187380227,7.780865490859128,14,1493.364684228882,0.005210291613985018,1485e9,7780865490.859128,1000,62.75646622301119
42,659.1369848143215,3.6651293826544573,31,662.8021141969759,0.005529749082190208,659e9,3665129382.654457,1000,209.31344140660252
43,873.4007478838586,3.0693584203030384,23,876.4701063041616,0.003501954485642067,873e9,3069358420.3030386,1000,853.2068643190547
44,423.1240459619089,1.6973660632727197,48,424.82141202518164,0.003995481431082167,423e9,1697366063.2727196,1000,269.0137962575331
45,1385.0027408205003,2.4728954082310985,15,1387.4756362287314,0.0017822982571085888,1385e9,2472895408.2310987,1000,1315.193068530405
46,894.1978336087583,2.3766808009174825,23,896.5745144096758,0.0026508458167387693,894e9,2376680800.9174824,1000,346.1401731545867
47,1392.722610762737,4.220740819472645,15,1396.9433515822097,0.0030214115802850113,1392e9,4220740819.4726443,1000,1326.1369008011138
48,1075.9962975825838,6.44141398357703,19,1082.4377115661607,0.005950840325266438,1075e9,6441413983.57703,1000,759.8873970595467
49,2500.928152322303,6.099684600908916,8,2507.027836923212,0.0024330342531795925,2500e9,6099684600.908916,1000,2288.6711949583387
50,1700.328463008135,4.865009489525393,12,1705.1934724976604,0.0028530542533683483,1700e9,4865009489.5253935,1000,509.48674219674075
51,642.0894853599732,3.669776895486113,31,645.7592622554594,0.0056828869673020135,642e9,3669776895.486113,1000,249.82526170344553
52,1589.351816952653,7.580283018033864,13,1596.932099970687,0.0047467785375301845,1589e9,7580283018.033864,1000,887.5833813465272
53,1572.2451304011158,4.802777918966144,13,1577.047908320082,0.00304542296630811,1572e9,4802777918.966144,1000,996.8152010134843
54,627.2738673176933,2.534803021722197,32,629.8086703394155,0.004024719158528168,627e9,2534803021.722197,1000,301.4692484766678
55,1171.937881180563,0.18145708847771208,18,1172.1193382690406,0.00015481110374450765,1171e9,181457088.4777121,1000,64.32154897124859
56,229.31529389386526,0.6750987431704403,87,229.9903926370357,0.0029353345391077354,229e9,675098743.1704403,1000,175.254451658399
57,933.3005554235405,1.4250508818565175,22,934.7256063053969,0.0015245660033741707,933e9,1425050881.8565176,1000,707.0494516327124
58,1456.3425549089538,7.021883377212549,14,1463.3644382861664,0.004798451563737804,1456e9,7021883377.212549,1000,649.339889316156
59,692.8619401517518,1.2077776594709748,29,694.0697178112227,0.001740138819598341,692e9,1207777659.470975,1000,423.0023932924234
60,798.359596385312,2.06740398277252,25,800.4270003680845,0.002582876367016359,798e9,2067403982.7725198,1000,282.6563921795027
