app_id,Tcomp,Tio,iter,witer,alpha_io,compute_size,io_size,mu,desyn_time
1,6.133327411088497,0.010448891273917888,3256,6.143776302362415,0.0017007278194520305,6e9,10448891.27391789,10,3.304926223651336
2,8.015609388013782,0.021477956942612033,2489,8.037087344956394,0.0026723557951737757,8e9,21477956.942612033,10,0.6711641986787378
3,2.797651395809461,0.017713270336250742,7104,2.8153646661457117,0.0062916433346094916,2e9,17713270.33625074,10,2.7565649490570685
4,7.3560492427930475,0.03345777795062802,2707,7.389507020743675,0.0045277415471297365,7e9,33457777.950628024,10,4.5637957053660765
5,5.72365275771558,0.03182499454384021,3475,5.75547775225942,0.005529513954136425,5e9,31824994.54384021,10,2.5267151586735683
6,11.31009832868391,0.02085843210704677,1766,11.330956760790958,0.001840835910628852,11e9,20858432.10704677,10,6.708195855127804
7,6.504502430453048,0.027573854543332017,3062,6.53207628499638,0.004221300141069509,6e9,27573854.543332018,10,5.469150846290704
8,10.276348035187944,0.03008762040484014,1941,10.306435655592784,0.0029193041523053707,10e9,30087620.404840138,10,4.423725220929642
9,5.682892735531766,0.027759576635262267,3503,5.710652312167028,0.004861016766178908,5e9,27759576.635262266,10,3.3053529461092377
10,14.753292591685105,0.03966162420790378,1352,14.792954215893008,0.002681115862935125,14e9,39661624.20790378,10,7.2649638239864895
11,13.309343484609613,0.02994908329499887,1500,13.339292567904613,0.002245177781545831,13e9,29949083.29499887,10,2.8616573134292698
12,11.025759552218192,0.07563150141282553,1802,11.101391053631017,0.006812794995460335,11e9,75631501.41282552,10,1.9714222502524628
13,3.1893883610663565,0.0020812970992843062,6267,3.1914696581656408,0.0006521437839645865,3e9,2081297.0992843062,10,1.4450179415270024
14,10.798667266022509,0.04922644218717688,1844,10.847893708209686,0.004537880210784358,10e9,49226442.18717688,10,9.70034635122293
15,16.688266011287798,0.06475760591656525,1194,16.753023617204363,0.0038654279607212533,16e9,64757605.91656525,10,11.41682999161418
16,9.561361035520068,0.011064983507309844,2090,9.572426019027379,0.001155922593218863,9e9,11064983.507309845,10,8.253821193475526
17,13.74374127041417,0.05241448755177009,1450,13.79615575796594,0.0037992096110908155,13e9,52414487.55177009,10,3.013734215253514
18,19.075524122012283,0.03936602047483596,1047,19.11489014248712,0.002059442674344027,19e9,39366020.474835955,10,7.57411273311782
19,2.981107396709463,0.015075201483442163,6676,2.996182598192905,0.005031469541454017,2e9,15075201.483442163,10,1.977248383431452
20,17.99599231799394,0.058524184604635994,1108,18.054516502598577,0.003241525996900146,17e9,58524184.60463599,10,6.4883779924203875
21,24.86509626912283,0.009911889768247036,805,24.875008158891077,0.00039846779968609686,24e9,9911889.768247036,100,23.624729627092485
22,14.33911484335995,0.04416357230023622,1391,14.383278415660186,0.0030704802496315394,14e9,44163572.300236225,100,9.997039635542663
23,122.84638190704293,0.39249126806568185,163,123.23887317510861,0.003184800850199237,122e9,392491268.0656819,100,78.48870647884299
24,124.92717241243821,0.05430723112102452,161,124.98147964355924,0.00043452222902069933,124e9,54307231.12102452,100,79.75191839742298
25,185.0000657666858,0.7986730301101348,108,185.79873879679593,0.00429859231167132,185e9,798673030.1101348,100,185.69233766704824
26,45.524268315772005,0.2764544154816694,437,45.80072273125367,0.006036027359302375,45e9,276454415.48166937,100,9.646024893400982
27,159.3095339280048,0.6253155069640406,126,159.93484943496884,0.003909813959704263,159e9,625315506.9640406,100,84.38138075711801
28,88.01065790947183,0.41540389569692476,227,88.42606180516876,0.004697754114756281,88e9,415403895.69692475,100,48.50100330195777
29,84.06789940335815,0.056964139244920164,238,84.12486354260308,0.0006771379690389869,84e9,56964139.244920164,100,20.9205387824571
30,173.77742394748682,1.1663022937133691,115,174.94372624120018,0.006666728317569691,173e9,1166302293.7133691,100,40.564426459466006
31,80.07789606172247,0.3267241817871345,249,80.4046202435096,0.00406350009237819,80e9,326724181.7871345,100,61.39857296996161
32,106.7527658531801,0.09783800942477956,188,106.85060386260487,0.0009156523771319602,106e9,97838009.42477956,100,72.70119174266978
33,109.83939226460468,0.18740840887799487,182,110.02680067348268,0.001703297812268041,109e9,187408408.87799487,100,51.103176208563745
34,23.845510592962867,0.1479183146777092,834,23.993428907640578,0.006164951047518073,23e9,147918314.6777092,100,11.795384805247512
35,48.5494775948217,0.010878570083892222,412,48.56035616490559,0.00022402162881486707,48e9,10878570.083892222,100,43.095289505948024
36,127.8103454282132,0.0761157601087439,157,127.88646118832195,0.0005951823156374466,127e9,76115760.10874389,100,88.34774962165632
37,33.02274899783233,0.08140335526935485,605,33.10415235310168,0.0024590073898003856,33e9,81403355.26935485,100,19.935928904539068
38,173.83551031030393,0.6377730276131691,115,174.4732833379171,0.003655419416724911,173e9,637773027.6131691,100,104.59106153574675
39,28.710112222950105,0.15717260300797356,693,28.86728482595808,0.005444661801605968,28e9,157172603.00797355,100,16.72485813470317
40,53.75408901781548,0.043397607899714655,372,53.797486625715194,0.00080668467286668,53e9,43397607.899714656,100,44.761706060178085
41,870.5053302451776,5.096168928374053,23,875.6014991735516,0.005820192100155312,870e9,5096168928.374053,1000,734.5880500761826
42,419.6564106350841,0.9456403030638577,48,420.60205093814795,0.0022483016926679697,419e9,945640303.0638577,1000,99.63987203542708
43,34.00540022164548,0.20724807036092627,585,34.212648292006406,0.0060576447807271505,34e9,207248070.36092627,1000,2.811709989396575
44,1740.1003239001045,6.464749379618558,12,1746.565073279723,0.0037014076821535002,1740e9,6464749379.618558,1000,55.14911730965688
45,1799.0903291242228,9.101148763678282,12,1808.191477887901,0.005033288163878023,1799e9,9101148763.678282,1000,1791.3605364454954
46,1488.3454975954749,2.2355251955944877,14,1490.5810227910692,0.0014997676485968756,1488e9,2235525195.5944877,1000,1393.020337559117
47,244.98977424075227,0.7549374326697229,82,245.744711673422,0.003072039383996932,244e9,754937432.6697229,1000,214.91645851865113
48,590.2110665853301,2.7599502310593715,34,592.9710168163895,0.004654443729606394,590e9,2759950231.0593715,1000,487.49846858912326
49,1641.2504444636113,0.6325431771043684,13,1641.8829876407158,0.0003852547239150664,1641e9,632543177.1043683,1000,1134.4260596204692
50,1512.5569799829623,6.436583528264799,14,1518.993563511227,0.004237400133142319,1512e9,6436583528.264799,1000,1213.1227180879648
51,561.8653255618093,3.2487772076994452,36,565.1141027695087,0.005748887157085361,561e9,3248777207.6994452,1000,481.3472216691737
52,793.1010223568592,5.2247132700174435,26,798.3257356268766,0.006544588301308856,793e9,5224713270.017444,1000,422.27117535909645
53,1687.01832303454,4.670158748845725,12,1691.6884817833857,0.002760649374359056,1687e9,4670158748.845725,1000,967.9596231142837
54,2260.049057535428,4.447735965385392,9,2264.4967935008135,0.0019641166983104382,2260e9,4447735965.385392,1000,530.3812113420753
55,1913.8677912835585,4.599227130241845,11,1918.4670184138004,0.0023973449040810262,1913e9,4599227130.241845,1000,1707.5958835385495
56,920.6661077885084,4.032692532779123,22,924.6988003212875,0.004361087665927499,920e9,4032692532.779123,1000,912.1071894021793
57,647.7134036069682,1.1633984159691877,31,648.8768020229373,0.001792941914924649,647e9,1163398415.9691877,1000,213.07396512783984
58,865.5695795753213,4.811775133625721,23,870.381354708947,0.005528352724461526,865e9,4811775133.625721,1000,129.30000161706323
59,663.1453206864818,0.3456833676206596,31,663.4910040541024,0.0005210068644615291,663e9,345683367.6206596,1000,548.3666693776395
60,1828.686178872668,2.9636647771559645,11,1831.649843649824,0.0016180302078100469,1828e9,2963664777.1559644,1000,854.8984977261412
