app_id,Tcomp,Tio,iter,witer,alpha_io,compute_size,io_size,mu,desyn_time
1,10.59608300510915,0.022458178604129856,1884,10.61854118371328,0.0021149966097580536,10e9,22458178.604129855,10,10.603457562109254
2,9.722147684044542,0.03697264175863486,2050,9.759120325803176,0.0037885219696368495,9e9,36972641.75863486,10,7.275205668434101
3,9.657839076890708,0.011702034630010662,2069,9.669541111520719,0.001210195447234651,9e9,11702034.630010663,10,4.756900490940966
4,14.071277448212191,0.08950940841255707,1413,14.160786856624748,0.006320934657009012,14e9,89509408.41255707,10,11.134745901032037
5,8.175669449202147,0.013644248982132396,2443,8.189313698184279,0.0016661040820987938,8e9,13644248.982132396,10,4.497487678861547
6,13.901678812928933,0.07917420954497609,1431,13.980853022473909,0.005663045696689989,13e9,79174209.54497609,10,6.042859829599633
7,6.55890670266604,0.00975709141083903,3045,6.56866379407688,0.0014853997276641304,6e9,9757091.41083903,10,5.818841356411379
8,9.02638268221973,0.03987115792045695,2206,9.066253840140186,0.004397754422441854,9e9,39871157.92045695,10,3.9470834953949
9,4.666892243232112,0.028996752542146582,4260,4.695888995774258,0.006174922909855879,4e9,28996752.542146582,10,0.21015155458600904
10,7.860079070303832,0.049180206871597805,2529,7.90925927717543,0.006218054706276001,7e9,49180206.871597804,10,7.800816759498988
11,12.695222285646148,0.001489824173883112,1576,12.69671210982003,0.00011733936794005402,12e9,1489824.173883112,10,0.011950634427570838
12,13.212281420719167,0.02589859629404712,1511,13.238180017013214,0.001956356255978028,13e9,25898596.29404712,10,10.394181120945017
13,19.854384990170814,0.10071168153829883,1003,19.955096671709114,0.005046915241512236,19e9,100711681.53829883,10,17.658963458613947
14,7.3160104528745675,0.0007217506343504623,2734,7.316732203508918,9.864385005157481e-05,7e9,721750.6343504624,10,6.867651554722788
15,2.002942049133256,0.012006558541795066,9926,2.014948607675051,0.0059587418240154705,2e9,12006558.541795066,10,1.5425081171422383
16,10.891870743845848,0.045391708682663776,1829,10.937262452528511,0.004150189215965095,10e9,45391708.682663776,10,2.100714468585033
17,1.9602233066984935,0.00013054096820547023,10203,1.960353847666699,6.659051291216937e-05,1e9,130540.96820547023,10,0.055306723494587935
18,12.578107746157587,0.006503493421933298,1590,12.58461123957952,0.000516781432348052,12e9,6503493.421933298,10,3.57598019290186
19,16.008909994841375,0.06397087132535272,1245,16.072880866166727,0.003980050114103119,16e9,63970871.32535271,10,8.753410431174824
20,5.726493242849015,0.0028121404204641495,3491,5.729305383269479,0.0004908344436789956,5e9,2812140.4204641497,10,3.4491972559437483
21,19.881878220866312,0.05213507916859486,1004,19.934013300034906,0.002615382983039525,19e9,52135079.16859486,100,12.997025057487622
22,182.3177600651399,0.6275837490183712,110,182.9453438141583,0.0034304439562883367,182e9,627583749.0183712,100,45.72631174978638
23,35.99072852391983,0.05625453602158553,555,36.04698305994141,0.0015605892989169609,35e9,56254536.02158553,100,32.35991207540486
24,128.712916481617,0.2260945937921648,156,128.93901107540916,0.0017535002937158779,128e9,226094593.7921648,100,12.141613761914556
25,57.35648527107755,0.018923129882888787,349,57.37540840096044,0.00032981255228105744,57e9,18923129.882888786,100,20.970294653939952
26,41.075320164120804,0.012474380751556567,487,41.08779454487236,0.0003036030745805346,41e9,12474380.751556568,100,31.546786890271715
27,159.7217710969362,0.14248985879538542,126,159.8642609557316,0.0008913177838719228,159e9,142489858.79538542,100,157.27613872447066
28,103.99443965979256,0.2264609156164214,192,104.22090057540899,0.002172893482651934,103e9,226460915.6164214,100,100.80313894586675
29,83.20083776815622,0.395381131895379,240,83.5962189000516,0.004729653291712874,83e9,395381131.895379,100,15.412807293445953
30,102.03938498910458,0.2775637191140127,196,102.31694870821859,0.0027127833913963995,102e9,277563719.11401266,100,43.817100949563425
31,132.8400272144872,0.649445830626327,150,133.48947304511353,0.004865146410510161,132e9,649445830.626327,100,66.04492444642898
32,24.99641867462001,0.027419456087919937,800,25.02383813070793,0.001095733434043926,24e9,27419456.087919936,100,12.473219254762313
33,107.04954817361549,0.6294061397540833,186,107.67895431336957,0.005845210364156883,107e9,629406139.7540833,100,63.24986528763179
34,117.71692956961252,0.5767061466727332,170,118.29363571628525,0.004875208570441623,117e9,576706146.6727332,100,56.323097286873725
35,72.24315382395831,0.35691217208366643,276,72.60006599604198,0.004916141152035931,72e9,356912172.08366644,100,28.096927333750035
36,154.05157042814034,0.490155607094322,130,154.54172603523466,0.0031716716233813076,154e9,490155607.09432197,100,113.972887599315
37,134.5993429585761,0.17593957114665565,149,134.77528252972274,0.0013054290656586433,134e9,175939571.14665565,100,57.875017900985746
38,217.8500731945092,0.5364800053067642,92,218.38655319981598,0.002456561530214289,217e9,536480005.3067642,100,36.90641109655286
39,197.68489794880767,0.6330871451722674,101,198.31798509397993,0.0031922830643537287,197e9,633087145.1722674,100,28.20870363879894
40,202.29700708483492,0.8464766411053587,99,203.14348372594029,0.004166890444033812,202e9,846476641.1053587,100,104.75388608970488
41,1426.6270402235516,8.556121383389113,14,1435.1831616069408,0.005961692982663639,1426e9,8556121383.389113,1000,117.15223829453396
42,613.2404434021727,2.938231905793456,33,616.1786753079662,0.004768473859185288,613e9,2938231905.7934556,1000,275.3872291910362
43,2235.0270988044176,11.045460530531106,9,2246.072559334949,0.0049176775187537184,2235e9,11045460530.531105,1000,673.9272569650752
44,890.6670114130453,5.499562580588662,23,896.166573993634,0.006136763789437798,890e9,5499562580.588661,1000,715.0343110671217
45,1677.7849545280649,2.9894970275971375,12,1680.774451555662,0.0017786425923062854,1677e9,2989497027.5971375,1000,1469.008999108014
46,1759.6475892644232,10.516984112606329,12,1770.1645733770295,0.005941246520679466,1759e9,10516984112.606329,1000,709.1947221160834
47,1322.4439342452888,2.4795224958645936,16,1324.9234567411534,0.0018714458433420362,1322e9,2479522495.8645935,1000,299.20113423791776
48,63.8664333200715,0.1031245592919884,313,63.96955787936349,0.0016120880417286152,63e9,103124559.2919884,1000,61.93387100051175
49,1048.4439290780801,1.5069503071513652,20,1049.9508793852315,0.0014352579122879697,1048e9,1506950307.1513653,1000,157.98665992771825
50,2031.9567053871,10.28677907729044,10,2042.2434844643906,0.005036999337024842,2031e9,10286779077.29044,1000,72.20855030104511
51,405.15262104603187,1.2690224141414495,50,406.4216434601733,0.003122428233243945,405e9,1269022414.1414495,1000,26.996497591721152
52,1419.360011757493,5.113051288078841,15,1424.473063045572,0.0035894334689256695,1419e9,5113051288.078841,1000,1326.9233141605143
53,727.201367115564,0.31374537055598045,28,727.5151124861201,0.0004312561556059308,727e9,313745370.55598044,1000,533.6922772550786
54,548.2348642142823,3.435943777033058,37,551.6708079913153,0.006228250121741349,548e9,3435943777.0330577,1000,24.695740548707782
55,579.0756981576334,1.5390621774326076,35,580.614760335066,0.0026507458689896774,579e9,1539062177.4326077,1000,414.2376276212598
56,691.2552783098871,4.3002285905288415,29,695.5555069004159,0.006182437703199026,691e9,4300228590.528842,1000,335.18886493313283
57,1556.7296389301753,7.595785559056641,13,1564.3254244892319,0.004855630062738859,1556e9,7595785559.056642,1000,462.0838713801507
58,567.5841569141782,3.3153458922829535,36,570.8995028064611,0.005807232053952022,567e9,3315345892.2829537,1000,231.9889994023949
59,1113.440597600738,5.6195429972357935,18,1119.060140597974,0.005021663084374509,1113e9,5619542997.235793,1000,690.7677266692343
60,1951.2949284583024,9.486272381729018,11,1960.7812008400315,0.004838006595363593,1951e9,9486272381.729017,1000,1359.0502033182834
