app_id,Tcomp,Tio,iter,witer,alpha_io,compute_size,io_size,mu,desyn_time
1,9.224797283153395,0.016768613184846865,2165,9.241565896338242,0.0018144774784856583,9e9,16768613.184846865,10,3.389638184418842
2,4.068039842907405,0.016444950418574373,4897,4.084484793325979,0.004026199447588913,4e9,16444950.418574372,10,3.2329154281907875
3,11.420578969144094,0.005156656492384815,1751,11.425735625636479,0.00045131943021809237,11e9,5156656.492384816,10,5.614906900528956
4,7.6873212195933505,0.008443861826923423,2599,7.695765081420274,0.0010972088853529668,7e9,8443861.826923423,10,1.5840352868203935
5,18.547977486036395,0.012296925543123137,1078,18.560274411579517,0.0006625400718995427,18e9,12296925.543123137,10,15.781449584309732
6,11.590153925004126,0.024990372478092868,1722,11.61514429748222,0.002151533535705618,11e9,24990372.478092868,10,7.644353183449079
7,11.537312713300906,0.05677361093308978,1726,11.594086324233997,0.004896773177755404,11e9,56773610.93308978,10,9.498857252170831
8,13.536226319748707,0.06419790729288784,1471,13.600424227041595,0.004720287119077047,13e9,64197907.29288784,10,13.492096398048325
9,1.329917071154696,0.005397653773288718,14978,1.3353147249279846,0.0040422333945129086,1e9,5397653.773288718,10,0.7564934307020954
10,12.974587432673454,0.05933883178646741,1535,13.033926264459922,0.004552644428277053,12e9,59338831.7864674,10,10.505724418098568
11,16.99476682335992,0.04466214255210163,1174,17.039428965912023,0.0026211055922971253,16e9,44662142.55210163,10,14.514991897666665
12,2.0149141912591695,0.0077648536648346695,9888,2.022679044924004,0.0038388955896492267,2e9,7764853.66483467,10,1.8334497002986843
13,6.726384875398763,0.036603727736512166,2958,6.762988603135275,0.005412359813757919,6e9,36603727.73651217,10,3.084041604436047
14,11.849669025518626,0.062832873026543,1679,11.91250189854517,0.005274532047228177,11e9,62832873.026543,10,4.065354479703732
15,9.097123210340506,0.031031260484547882,2192,9.128154470825054,0.00339951088511138,9e9,31031260.484547883,10,3.473751158272574
16,13.756843317979433,0.009128564637087586,1453,13.76597188261652,0.000663125329248639,13e9,9128564.637087585,10,11.40909475381053
17,8.98573306847333,0.016093484191276916,2222,9.001826552664607,0.0017878020751814117,8e9,16093484.191276915,10,7.6062484496473495
18,9.281547087737547,0.04712379937650677,2144,9.328670887114054,0.005051501971368735,9e9,47123799.37650677,10,0.6333837044543728
19,31.53465671998374,0.015900735222100316,634,31.55055745520584,0.0005039763637988176,31e9,15900735.222100316,10,10.029195150094509
20,18.345141563417883,0.05836347058158428,1087,18.403505033999465,0.0031713236404565855,18e9,58363470.58158428,10,1.8411408168076588
21,223.06491150419492,0.9007999324711908,90,223.9657114366661,0.004022043940087331,223e9,900799932.4711908,100,29.900130047668522
22,92.73960049222853,0.5473008998068914,215,93.28690139203542,0.00586685688601528,92e9,547300899.8068914,100,88.0322310878705
23,146.46989381672705,0.6744467443973984,136,147.14434056112444,0.004583572442035106,146e9,674446744.3973984,100,85.0044117363212
24,78.96879053910261,0.41982857229708237,252,79.38861911139969,0.005288271505364901,78e9,419828572.29708236,100,22.118285442702582
25,94.80670861535718,0.024049353211199834,211,94.83075796856838,0.00025360287871126143,94e9,24049353.211199835,100,61.58340236416049
26,19.28275514767995,0.0419809708800467,1035,19.324736118559997,0.0021723955567872952,19e9,41980970.8800467,100,15.762264052039335
27,162.21779253490095,0.9468698266480406,123,163.164662361549,0.0058031550027046646,162e9,946869826.6480407,100,75.89831278456236
28,136.95527901918655,0.1219713052559458,146,137.0772503244425,0.0008897997659513664,136e9,121971305.2559458,100,135.1742887106834
29,226.2456186498546,0.7242508499270747,89,226.96986949978168,0.003190955925221481,226e9,724250849.9270747,100,8.20483031655918
30,55.392949441837786,0.22819235258594267,360,55.62114179442373,0.0041026189902635185,55e9,228192352.58594266,100,54.65175103242126
31,154.54758414081945,0.38598539251768027,130,154.93356953333713,0.0024912960676002987,154e9,385985392.5176803,100,30.944812214528973
32,128.5006227557361,0.5133335792743806,156,129.01395633501048,0.0039788996001440926,128e9,513333579.2743806,100,113.99731079737381
33,200.82827660983318,1.0102958012740995,100,201.8385724111073,0.0050054644620470086,200e9,1010295801.2740995,100,59.26024745536959
34,143.9228705929503,0.6909349577885403,139,144.61380555073882,0.0047777938984263895,143e9,690934957.7885404,100,10.322996554226798
35,97.60581875075975,0.02370180126720604,205,97.62952055202696,0.00024277289423515406,97e9,23701801.26720604,100,12.249090800642108
36,171.97612480314123,0.9163835143135396,116,172.89250831745477,0.005300307822655517,171e9,916383514.3135396,100,52.986555997719826
37,161.0734948703085,0.6868239859721644,124,161.76031885628066,0.004245936153120393,161e9,686823985.9721644,100,35.491544649408816
38,36.89241393010938,0.15998317509042706,540,37.0523971051998,0.004317755060116626,36e9,159983175.09042707,100,36.209278296185126
39,90.34732132256485,0.4565997478471362,221,90.80392107041199,0.0050284144392077025,90e9,456599747.8471362,100,30.083197058081055
40,66.6911526292004,0.37489080113062706,299,67.06604343033104,0.005589875024013723,66e9,374890801.13062704,100,50.03271652976238
41,757.9178465653594,1.9022424982511177,27,759.8200890636105,0.0025035433066733065,757e9,1902242498.2511177,1000,86.18419476569525
42,1185.7526581876532,5.012762830516474,17,1190.7654210181697,0.004209698016113272,1185e9,5012762830.516474,1000,1040.096152793478
43,454.76995387258137,0.9051887318677029,44,455.6751426044491,0.001986478188592912,454e9,905188731.8677028,1000,153.7665245899029
44,546.4043792554796,2.9084140569543258,37,549.312793312434,0.005294641035786144,546e9,2908414056.9543257,1000,456.16095849983617
45,1055.373552897274,5.1384592793422055,19,1060.5120121766163,0.004845262684762926,1055e9,5138459279.342205,1000,787.3973475842374
46,1568.0147211187514,5.485693877121493,13,1573.500414995873,0.0034862996061782933,1568e9,5485693877.121493,1000,559.7840036111438
47,1339.8131453764786,6.348568589556503,15,1346.161713966035,0.004716051959948018,1339e9,6348568589.556503,1000,1071.0807307006062
48,1272.0129988353006,5.6639465067761074,16,1277.6769453420766,0.004433003606603922,1272e9,5663946506.776108,1000,384.4545730277422
49,866.4432893798713,3.0634041496704305,24,869.5066935295417,0.0035231518888432234,866e9,3063404149.6704307,1000,849.4150047650195
50,1293.2413969308673,6.9993651557623355,16,1300.2407620866295,0.005383130078563094,1293e9,6999365155.762336,1000,10.764708054221057
51,2193.416293574784,7.978199710125237,10,2201.3944932849095,0.0036241572032917227,2193e9,7978199710.1252365,1000,0.24563647581584352
52,567.1401733699932,2.2387475794762794,36,569.3789209494695,0.003931911591920279,567e9,2238747579.4762793,1000,390.26490636408045
53,1133.465072487216,2.671399825518224,18,1136.1364723127342,0.00235130188196519,1133e9,2671399825.5182242,1000,388.4534251768342
54,1921.539437533689,1.4720177880528795,11,1923.0114553217418,0.0007654753090415647,1921e9,1472017788.0528796,1000,1290.098194733002
55,1437.0558806103445,8.435837337072313,14,1445.4917179474169,0.0058359637985689146,1437e9,8435837337.072312,1000,1366.563441228352
56,1039.6475563516872,0.026679476208556662,20,1039.6742358278957,2.5661380545139427e-05,1039e9,26679476.208556663,1000,196.26327519987547
57,1382.5606029730432,0.7301192484792117,15,1383.2907222215224,0.0005278133054392664,1382e9,730119248.4792117,1000,1200.898618293588
58,827.7430799415746,2.82158212406235,25,830.564662065637,0.0033971853763257857,827e9,2821582124.06235,1000,95.86109873412897
59,2047.9311280996128,1.4550298977822422,10,2049.386157997395,0.0007099832757746633,2047e9,1455029897.7822423,1000,1538.5084523732837
60,1523.5233019169743,1.7665112143809478,14,1525.2898131313552,0.0011581479133820315,1523e9,1766511214.3809478,1000,1061.526094390612
