app_id,start_app,end_app,effective_cpu,effective_io,effective_iter,total_bytes,stretch,utilization,Tcomp,Tio,iterations,priority,group_id
app_1,7.65254,19883,7857.1,33.9781,356.51,1.21692e+10,1.01661,0.981639,22,0.0340874,888,1,1
app_10,5.01503,19116.2,7725.5,75.4016,771.624,3.25076e+10,1.03119,0.981639,10,0.0421083,1844,1,1
app_11,6.55706,19139.5,7609,110.738,1269.56,2.07927e+10,1.04852,0.981639,6,0.0163851,3034,1,1
app_12,2.34759,20663,7348.6,210.223,2452.44,2.98648e+10,1.08424,0.981639,3,0.0121748,6332,1,1
app_13,6.02001,19819.5,7749.4,59.5838,596.467,2.60944e+10,1.02887,0.981639,13,0.0437826,1482,1,1
app_14,4.54281,18239.7,7498.7,141.755,1497.93,5.10379e+10,1.05964,0.981639,5,0.0340707,3430,1,1
app_15,6.02037,19450.1,7790.4,51.5668,596.255,1.09465e+10,1.02546,0.981639,13,0.0183667,1455,1,1
app_16,2.18253,20199.5,7617.16,102.037,1086.52,3.69619e+10,1.04519,0.981639,7,0.0340177,2755,1,1
app_17,4.88403,17168.9,7439.6,165.649,1861.36,3.48622e+10,1.07031,0.981639,4,0.018723,3999,1,1
app_18,4.38828,19878.6,7783.7,65.8379,708.015,2.2649e+10,1.02481,0.981639,11,0.0319901,1757,1,1
app_19,1.31775,21718.4,7142.7,302.869,3578.55,2.2239e+10,1.11655,0.981639,2,0.00621549,9746,1,1
app_2,5.46901,19881.5,7886,31.9857,328.409,1.35665e+10,1.01271,0.981639,24,0.0413613,818,1,1
app_20,8.83727,20399.4,7745.1,69.7519,644.851,4.45796e+10,1.027,0.981639,12,0.0691157,1646,1,1
app_21,3.59751,19680.9,7880.9,27.8523,304.775,7.94126e+09,1.01409,0.981639,26,0.0260369,746,1,1
app_22,3.29639,19989.4,7934,18.6274,151.594,1.41178e+10,1.00653,0.981639,52,0.0934953,381,1,1
app_23,119.929,20129.8,7960.7,23.727,59.3581,2.05759e+10,1.00235,0.981639,133,0.348745,149,1,1
app_24,210.153,20145,7966.8,31.3014,34.5113,2.9033e+10,1.00052,0.981639,232,0.829514,86,1,1
app_25,36.7233,20036.2,7937.8,38.5831,131.026,3.09544e+10,1.00392,0.981639,61,0.236294,327,1,1
app_26,101.973,20092.1,7975.7,13.8538,72.7718,8.74236e+09,1.00195,0.981639,110,0.119758,181,1,1
app_27,49.6141,20067.4,7945.3,30.6374,65.2022,2.60136e+10,1.0036,0.981639,122,0.400209,163,1,1
app_28,41.9646,20044.6,7926.1,35.0721,161.693,3.21514e+10,1.00525,0.981639,49,0.199698,404,1,1
app_29,3.13457,19967.8,7926.3,50.483,73.1781,4.56375e+10,1.00352,0.981639,108,0.625171,183,1,1
app_3,4.7945,20625,7537,134.344,1507.38,3.42774e+10,1.05662,0.981639,5,0.0227455,3883,1,1
app_30,25.3273,20041.9,7931.4,51.8712,84.8628,4.76191e+10,1.00263,0.981639,94,0.560225,211,1,1
app_31,72.0651,20002.3,7947.8,29.5704,73.6749,2.58781e+10,1.0033,0.981639,108,0.354494,184,1,1
app_32,56.4107,19952.6,7946.7,34.4986,85.1706,3.09165e+10,1.00281,0.981639,93,0.363724,213,1,1
app_33,19.191,20274.6,7937.3,39.6338,79.596,3.49443e+10,1.00348,0.981639,98,0.436804,204,1,1
app_34,55.9308,20140.8,7968.6,18.9176,63.0012,1.53526e+10,1.00201,0.981639,126,0.243692,158,1,1
app_35,147.684,20192.6,7955.7,37.9762,37.613,3.6327e+10,1.001,0.981639,213,0.955974,94,1,1
app_36,1.0128,20068.1,7952.3,37.029,53.5424,3.40205e+10,1.00171,0.981639,147,0.641897,135,1,1
app_37,194.735,20258.7,7946.8,29.0194,37.7221,2.66434e+10,1.00333,0.981639,212,0.720091,94,1,1
app_38,31.0694,20085.8,7941.4,31.9275,79.3231,2.91052e+10,1.0037,0.981639,100,0.368421,199,1,1
app_39,0.322454,20070.3,7926.3,41.0086,132.684,3.54412e+10,1.00481,0.981639,60,0.266475,332,1,1
app_4,6.46687,19916.8,7823.2,48.2477,489.152,2.07195e+10,1.0199,0.981639,16,0.0423711,1219,1,1
app_40,91.0067,20025.2,7962,30.36,73.8533,2.82017e+10,1.00123,0.981639,109,0.381104,182,1,1
app_41,294.529,21958.7,7988.7,7.86071,5.89846,7.6694e+09,1.00045,0.981639,1321,1.27823,16,1,1
app_42,254.887,20603.7,7951.6,47.9842,14.7425,4.69097e+10,1.00019,0.981639,545,3.12731,37,1,1
app_43,515.067,20817.9,7988.6,11.3683,5.43911,1.11445e+10,1.00003,0.981639,1437,1.85742,14,1,1
app_44,158.268,22003,7979,19.963,4.39699,1.98033e+10,1.00015,0.981639,1809,4.95083,12,1,1
app_45,442.486,20888.1,7960.4,39.5487,9.37022,3.87914e+10,1.0001,0.981639,857,4.31016,24,1,1
app_46,32.6392,20486.9,7982.3,10.5249,13.3425,9.91673e+09,1.00097,0.981639,591,0.762825,34,1,1
app_47,1169.3,22448.2,7948.6,51.0003,5.82892,5.06185e+10,1.0001,0.981639,1418,8.43641,15,1,1
app_48,215.012,20552.5,7982.9,16.8628,3.63013,1.66375e+10,1.00006,0.981639,2254,4.15939,9,1,1
app_49,1371.18,21575.3,7989,10.6027,5.4739,1.04848e+10,1.00006,0.981639,1445,2.09697,14,1,1
app_5,10.5258,19061.3,7819,57.073,598.969,2.077e+10,1.02044,0.981639,13,0.0346744,1430,1,1
app_50,285.932,20418.5,7979.1,18.4493,20.5014,1.78451e+10,1.00038,0.981639,386,0.892255,52,1,1
app_51,140.99,20099.6,7956.8,30.4975,19.2158,2.97041e+10,1.00169,0.981639,418,1.56338,48,1,1
app_52,957.148,21741.2,7992,5.24523,6.54264,4.8199e+09,1.0004,0.981639,1225,0.803316,17,1,1
app_53,477.186,20158.1,7972.8,26.7275,6.50939,2.64014e+10,1.0001,0.981639,1252,3.77163,16,1,1
app_54,479.188,21223,7984.2,15.6373,6.27677,1.5518e+10,1.00004,0.981639,1297,2.58634,16,1,1
app_55,407.814,20298,7975.5,23.6928,8.94616,2.3234e+10,1.00016,0.981639,907,2.58156,22,1,1
app_56,821.889,21355.4,7959.3,36.0859,7.32386,3.5916e+10,1.0006,0.981639,1081,4.4895,19,1,1
app_57,707.277,21554.5,7957.5,41.5555,6.5701,4.12431e+10,1.00016,0.981639,1191,6.87386,17,1,1
app_58,784.121,21166,7968.4,31.3169,8.24905,3.11454e+10,1.00006,0.981639,982,3.89317,21,1,1
app_59,703.466,21130.3,7951.7,47.2411,6.29934,4.68214e+10,1.00018,0.981639,1261,7.80357,16,1,1
app_6,3.42905,18740.3,7695.7,84.663,855.921,3.92455e+10,1.03427,0.981639,9,0.0459012,2004,1,1
app_60,441.297,20864.7,7957.2,39.2371,7.78186,3.86115e+10,1.00052,0.981639,1015,4.82643,20,1,1
app_7,2.89481,17907.7,7519.8,132.737,1501.66,2.88895e+10,1.05979,0.981639,5,0.019234,3376,1,1
app_8,5.48713,19021.7,7516.4,131.31,1502.21,2.65874e+10,1.06059,0.981639,5,0.0177014,3582,1,1
app_9,7.70873,20458.6,7787.2,44.7451,556.057,3.23318e+09,1.0269,0.981639,14,0.00581507,1425,1,1
