app_id,start_app,end_app,effective_cpu,effective_io,effective_iter,total_bytes,stretch,utilization,Tcomp,Tio,iterations,priority,group_id
app_1,7.81307,20356.8,7682.2,66.8601,767.416,1.13314e+10,1.03983,0.981485,10,0.0147737,1961,1,1
app_10,1.35579,20466.8,7314.1,205.636,2434.63,8.36037e+09,1.09253,0.981485,3,0.00343342,6265,1,1
app_11,6.35335,19801.3,7547.9,107.762,1256.7,1.51611e+10,1.05777,0.981485,6,0.0120614,3123,1,1
app_12,2.56231,19738.1,7735.9,57.4512,645.031,1.34514e+10,1.03234,0.981485,12,0.0208549,1595,1,1
app_13,13.8317,19756.9,7777.2,60.2663,518.504,5.01815e+10,1.02205,0.981485,15,0.0968754,1281,1,1
app_14,3.24837,19299.9,7775.5,65.615,599.259,4.65721e+10,1.02275,0.981485,13,0.0777497,1446,1,1
app_15,6.42549,18914.9,7734.9,70.9895,644.299,5.11539e+10,1.02748,0.981485,12,0.0793083,1530,1,1
app_16,1.87064,19483.2,7684.8,85.7449,854.944,3.9666e+10,1.03567,0.981485,9,0.046393,2082,1,1
app_17,11.0103,19804.7,7758.7,61.5253,596.891,3.50894e+10,1.02646,0.981485,13,0.0587762,1476,1,1
app_18,11.2904,19830.2,7776.9,46.4831,555.321,3.64965e+09,1.0282,0.981485,14,0.00656412,1379,1,1
app_19,4.53835,20997.1,7541.9,117.991,1257.68,3.97833e+10,1.05517,0.981485,6,0.0316494,3312,1,1
app_2,2.87667,19797.1,7811.1,75.421,391.122,4.90349e+10,1.01779,0.981485,20,0.125409,965,1,1
app_20,18.1264,19699.8,7834.9,65.8465,358.47,3.79593e+10,1.01615,0.981485,22,0.105736,878,1,1
app_21,13.3166,19538.4,7853.2,36.6414,315.87,2.89511e+10,1.01495,0.981485,25,0.0916173,769,1,1
app_22,0.273078,20392.9,7828,37.242,433.776,6.59429e+09,1.02111,0.981485,18,0.0151942,1105,1,1
app_23,15.7181,19964.8,7884.4,63.3915,160.261,5.29301e+10,1.0079,0.981485,49,0.328758,401,1,1
app_24,98.7257,20202.1,7958.1,20.4366,50.9396,1.7823e+10,1.00302,0.981485,155,0.34947,129,1,1
app_25,26.4418,19889.2,7847.83,45.8722,217.616,3.69661e+10,1.01461,0.981485,36,0.170322,543,1,1
app_26,21.563,20196.9,7857.1,60.9498,301.048,4.57842e+10,1.01229,0.981485,26,0.151603,759,1,1
app_27,164.203,20225.1,7959,27.5893,46.3339,2.54411e+10,1.00195,0.981485,170,0.553067,117,1,1
app_28,1.84202,19881.2,7956.5,7.95407,91.0734,2.44963e+09,1.00516,0.981485,88,0.026919,226,1,1
app_29,20.6067,19863.6,7948.9,24.5002,119.525,1.92534e+10,1.004,0.981485,67,0.160445,296,1,1
app_3,10.298,19981.6,7717.8,72.9803,771.94,2.64268e+10,1.03303,0.981485,10,0.0342316,1929,1,1
app_30,92.9202,19938.4,7918,57.5924,84.2292,5.1723e+10,1.0038,0.981485,94,0.615749,211,1,1
app_31,46.5537,20062.5,7957,18.9291,32.9301,1.72003e+10,1.00324,0.981485,247,0.53751,81,1,1
app_32,19.8158,20053.8,7950.3,25.1874,60.3971,2.33995e+10,1.0033,0.981485,133,0.383598,150,1,1
app_33,32.0703,20087.4,7895.9,43.5874,213.786,3.34575e+10,1.00891,0.981485,37,0.156343,536,1,1
app_34,105.66,19911.8,7975,17.0954,55.1095,1.57293e+10,1.00116,0.981485,147,0.285988,136,1,1
app_35,177.811,20347.1,7965.6,4.48897,39.861,3.03432e+09,1.00394,0.981485,200,0.075858,100,1,1
app_36,42.4453,20182.8,7940.5,25.2457,85.7932,1.96099e+10,1.00501,0.981485,93,0.228022,214,1,1
app_37,98.6112,20016.7,7964,6.71072,62.6906,4.12919e+09,1.004,0.981485,127,0.0655427,157,1,1
app_38,101.768,20026.5,7960.1,27.1717,56.1643,2.24838e+10,1.00218,0.981485,141,0.401496,141,1,1
app_39,129.317,20108.1,7957.9,10.8134,58.4661,7.34058e+09,1.00436,0.981485,135,0.126562,148,1,1
app_4,8.14068,20105.1,7804,47.7595,518.655,1.25566e+10,1.02347,0.981485,15,0.0242405,1303,1,1
app_40,13.2196,20024.5,7911.2,57.5522,64.9658,5.28655e+10,1.00451,0.981485,123,0.813316,161,1,1
app_41,819.074,21099.6,7980.5,19.1877,6.363,1.9013e+10,1.00006,0.981485,1257,3.16883,16,1,1
app_42,135.459,20363.5,7948.1,39.3329,35.4727,3.68574e+10,1.00188,0.981485,220,1.02382,91,1,1
app_43,663.398,22196.6,7960,39.0036,5.52011,3.84706e+10,1.00019,0.981485,1376,6.41177,15,1,1
app_44,891.887,23680.8,7974.5,25.4918,3.09938,2.53602e+10,1.00002,0.981485,2485,8.45339,9,1,1
app_45,21.9177,20036.7,7921.8,34.6943,86.1814,2.98855e+10,1.00608,0.981485,93,0.343511,215,1,1
app_46,725.276,21481.9,7977.8,9.8906,8.78738,9.38945e+09,1.0016,0.981485,901,1.04327,23,1,1
app_47,829.637,21459.3,7956.6,42.347,9.01771,4.20704e+10,1.00017,0.981485,898,4.67449,23,1,1
app_48,77.739,20160.9,7951.3,44.392,11.648,4.3622e+10,1.00064,0.981485,693,3.63517,29,1,1
app_49,970.751,22719.2,7950.7,49.1334,3.75569,4.88859e+10,1.00005,0.981485,2170,12.2215,10,1,1
app_5,12.4665,20068.5,7868.7,41.5713,355.792,3.52178e+10,1.01216,0.981485,22,0.0992051,894,1,1
app_50,1807.65,23615.3,7989.2,9.69024,3.89511,9.43604e+09,1.00017,0.981485,1986,2.35901,11,1,1
app_51,553.611,21316.6,7949.3,50.3672,11.6655,4.96035e+10,1.00014,0.981485,655,4.13363,31,1,1
app_52,67.041,20346.8,7976.1,22.4797,6.36506,2.21786e+10,1.00022,0.981485,1279,3.16837,16,1,1
app_53,634.372,21814,7979,20.7114,6.09253,2.0373e+10,1.00008,0.981485,1308,2.91043,16,1,1
app_54,1213.71,23030,7964,36,4.85046,3.59955e+10,1,0.981485,1655,7.1991,13,1,1
app_55,102.948,20537.7,7976.7,23.1938,7.43267,2.29589e+10,1.00004,0.981485,1069,3.27985,19,1,1
app_56,128.777,20558.6,7946.1,52.5467,5.5245,5.2319e+10,1.0002,0.981485,1468,8.71983,14,1,1
app_57,725.853,21611.5,7991.5,8.3902,4.55883,8.14536e+09,1.00004,0.981485,1741,2.03634,12,1,1
app_58,888.748,21480.2,7989.6,10.2149,6.30351,1.01109e+10,1.00004,0.981485,1263,1.68515,16,1,1
app_59,1494.2,22954.9,7973.2,26.7453,3.69657,2.66698e+10,1.00002,0.981485,2158,8.88993,10,1,1
app_6,2.13244,19763.2,7757.3,62.5857,597.441,3.62873e+10,1.02648,0.981485,13,0.0607828,1476,1,1
app_60,493.101,21127.1,7971.9,25.355,6.68645,2.51381e+10,1.00037,0.981485,1213,3.59116,17,1,1
app_7,3.12499,20377.5,7495.4,127.998,1501.11,1.42958e+10,1.06529,0.981485,5,0.00952417,3837,1,1
app_8,2.79671,18454.6,7555.3,106.393,1259.71,1.35602e+10,1.05696,0.981485,6,0.0107621,2914,1,1
app_9,0.81235,21257.4,7121.8,303.626,3557.48,1.22474e+10,1.12138,0.981485,2,0.00344223,9513,1,1
