app_id,start_app,end_app,effective_cpu,effective_io,effective_iter,total_bytes,stretch,utilization,Tcomp,Tio,iterations,priority,group_id
app_1,12.0316,19098.6,7950.3,49.7,496.124,1.02332e+10,1.00496,0.991493,16,0.0206314,1183,1,1
app_10,3.989,17558.3,7804.3,195.7,1945.84,5.60808e+10,1.01776,0.991493,4,0.0288185,4274,1.00001,1.00001
app_11,4.33034,18248,7886.4,113.6,986.1,5.05743e+10,1.00794,0.991493,8,0.0512924,2249,1.00001,1.00001
app_12,2.91028,18785.7,7934.2,65.8,658.139,1.19507e+10,1.00678,0.991493,12,0.0181621,1546,1.00001,1.00001
app_13,10.515,18973.9,7917.3,82.7,719.822,3.89308e+10,1.0055,0.991493,11,0.0540706,1706,1.00001,1.00001
app_14,3.44627,19830.5,7911.8,88.2,882.157,3.23118e+09,1.01074,0.991493,9,0.00366347,2183,1.00001,1.00001
app_15,6.49208,19925.8,7946,54,529.666,1.87507e+10,1.00443,0.991493,15,0.0353786,1320,1.00002,1.00002
app_16,4.86359,19879.5,7865.87,134.133,1310.24,4.6898e+10,1.01102,0.991493,6,0.0357911,3256,1.00002,1.00002
app_17,7.36201,17904.6,7881.4,118.6,1125.36,5.21275e+10,1.00838,0.991493,7,0.0462944,2516,1.00002,1.00002
app_18,0.421395,19102.5,7927.7,72.3,567.667,4.52895e+10,1.00339,0.991493,14,0.0797349,1352,1.00002,1.00002
app_19,2.86252,18889.4,7805.4,194.6,1945.12,1.94745e+10,1.02238,0.991493,4,0.0100075,4600,1.00002,1.00002
app_2,6.60121,19809.3,7894.1,105.9,492.434,5.12414e+10,1.00688,0.991493,16,0.103938,1221,1,1
app_20,2.89487,19533.5,7908.4,91.6,881.73,3.47541e+10,1.00716,0.991493,9,0.0394038,2147,1.00002,1.00002
app_21,6.55763,19773.5,7946,54,416.651,3.33407e+10,1.00259,0.991493,19,0.0799537,1030,1.00002,1.00002
app_22,199.354,20211.9,7965.5,34.5,35.559,2.81476e+10,1.00079,0.991493,226,0.781879,89,1.00002,1.00002
app_23,32.799,20003.6,7989.5,10.5,105.257,1.74466e+09,1.0011,0.991493,76,0.0166158,262,1.00002,1.00002
app_24,52.2673,19815.3,7967.7,32.3,145.633,1.87823e+10,1.00169,0.991493,54,0.129533,363,1.00002,1.00002
app_25,35.2769,20037.3,7986.5,13.5,133.035,4.0641e+09,1.00118,0.991493,60,0.0305571,332,1.00003,1.00003
app_26,1.5599,20305.5,7868.9,131.1,1311.4,1.1257e+10,1.01521,0.991493,6,0.00858654,3327,1.00003,1.00003
app_27,13.0043,19879.9,7956.7,43.3,99.66,2.94549e+10,1.00173,0.991493,80,0.294549,248,1.00003,1.00003
app_28,50.8749,19962.1,7977.4,22.6,66.5905,1.50875e+10,1.00094,0.991493,120,0.225187,166,1.00003,1.00003
app_29,51.3903,19983.2,7957.9,42.1,52.4592,3.15983e+10,1.00131,0.991493,152,0.60766,131,1.00003,1.00003
app_3,1.75864,17170.8,7741.8,258.2,2582.74,3.719e+10,1.02841,0.991493,3,0.0144036,5543,1,1
app_30,63.7481,20166,7931.2,68.8,88.948,5.06094e+10,1.00228,0.991493,89,0.568645,224,1.00003,1.00003
app_31,138.596,20145.3,7939.5,60.5,46.8259,4.6566e+10,1.00174,0.991493,170,0.990767,117,1.00003,1.00003
app_32,61.0405,20016,7987.9,12.1,101.66,5.86798e+09,1.00078,0.991493,78,0.0580988,255,1.00003,1.00003
app_33,26.9147,19822.9,7950.1,49.9,91.702,3.61503e+10,1.00172,0.991493,87,0.392938,227,1.00003,1.00003
app_34,106.895,20341.5,7989.9,10.1,45.815,4.74691e+09,1.00067,0.991493,172,0.103194,117,1.00003,1.00003
app_35,126.754,20222.3,7984.8,15.2,46.0782,1.13487e+10,1.00048,0.991493,173,0.246711,116,1.00004,1.00004
app_36,1.67247,19858.7,7933.5,66.5,185.595,4.54448e+10,1.00264,0.991493,43,0.245647,460,1.00004,1.00004
app_37,4.45731,20013.2,7987.8,12.2,117.371,5.04053e+09,1.0009,0.991493,68,0.0430815,293,1.00004,1.00004
app_38,73.1584,19982.3,7952.7,47.3,78.8568,3.12122e+10,1.00202,0.991493,101,0.400156,197,1.00004,1.00004
app_39,174.907,20399.6,7938.1,61.9,35.4433,4.73042e+10,1.00183,0.991493,225,1.31401,89,1.00004,1.00004
app_4,1.55637,18188.8,7619.4,380.6,3805.98,4.00139e+10,1.04447,0.991493,2,0.0105134,8655,1,1
app_40,188.223,20465.3,7970.4,29.6,39.7331,2.14958e+10,1.00101,0.991493,199,0.537394,101,1.00004,1.00004
app_41,412.733,20972.6,7939.7,60.3,4.41113,5.00927e+10,1.00128,0.991493,1834,10.0185,11,1.00004,1.00004
app_42,1315.06,22450.5,7956,44,3.80943,3.90148e+10,1.00062,0.991493,2120,13.0049,10,1.00004,1.00004
app_43,349.316,20904.2,7976,24,7.88972,1.92647e+10,1.00059,0.991493,1048,2.40809,20,1.00004,1.00004
app_44,1128.2,21846.3,7976,24,6.05838,1.97772e+10,1.00053,0.991493,1320,3.2962,16,1.00004,1.00004
app_45,161.765,20645.9,7991.7,8.3,9.94206,7.47487e+09,1.0001,0.991493,782,0.747487,26,1.00004,1.00004
app_46,100.33,20668.2,7960.9,39.1,4.74952,3.19314e+10,1.0009,0.991493,1691,6.38627,12,1.00005,1.00005
app_47,104.373,20251.1,7987.9,12.1,14.791,1.01705e+10,1.00024,0.991493,529,0.678035,38,1.00005,1.00005
app_48,671.311,20701,7989.3,10.7,9.61684,8.2533e+09,1.00031,0.991493,834,0.917033,24,1.00005,1.00005
app_49,728.234,21324,7985.2,14.8,10.1298,1.17645e+10,1.00038,0.991493,782,1.17645,26,1.00005,1.00005
app_5,0.800812,19469.4,7804.7,195.3,1952.45,2.55303e+10,1.02168,0.991493,4,0.0130723,4752,1.00001,1.00001
app_50,355.144,20489.3,7953.1,46.9,9.94988,4.08167e+10,1.00076,0.991493,805,4.08167,25,1.00005,1.00005
app_51,330.145,20712.5,7977.8,22.2,11.7715,1.96745e+10,1.00032,0.991493,672,1.63954,30,1.00005,1.00005
app_52,123.507,20417.7,7949,51,20.1559,4.1341e+10,1.00121,0.991493,396,1.96862,51,1.00005,1.00005
app_53,371.859,21232.1,7976.3,23.7,9.05993,2.05845e+10,1.00039,0.991493,861,2.28717,24,1.00005,1.00005
app_54,652.697,21588.9,7951.6,48.4,6.19476,3.97489e+10,1.00108,0.991493,1325,6.62481,16,1.00005,1.00005
app_55,1559.36,21755.2,7943.3,56.7,4.04062,4.89245e+10,1.00097,0.991493,2080,12.2311,10,1.00005,1.00005
app_56,1350.01,22031.6,7963.5,36.5,5.74986,2.61083e+10,1.0013,0.991493,1398,4.35138,15,1.00006,1.00006
app_57,162.754,20128.7,7968,32,13.6242,2.32268e+10,1.0011,0.991493,588,1.65905,34,1.00006,1.00006
app_58,500.696,21317.7,7981,19,5.00275,1.61268e+10,1.00036,0.991493,1594,3.22535,13,1.00006,1.00006
app_59,627.602,20876.9,7938.4,61.6,7.69425,4.21396e+10,1.00244,0.991493,999,5.26744,20,1.00006,1.00006
app_6,11.8807,19063.5,7942,58,497.126,3.06909e+10,1.00343,0.991493,16,0.0616284,1182,1.00001,1.00001
app_60,1143.97,21725,7964.7,35.3,5.90827,2.612e+10,1.00115,0.991493,1355,4.35333,15,1.00006,1.00006
app_7,2.75823,19656.8,7804.7,195.3,1953.57,2.86391e+10,1.02128,0.991493,4,0.0146642,4794,1.00001,1.00001
app_8,8.38695,19253.1,7920.7,79.3,790.262,2.13755e+10,1.00729,0.991493,10,0.0270576,1904,1.00001,1.00001
app_9,4.76377,19426.9,7938.7,61.3,612.151,6.93131e+08,1.00763,0.991493,13,0.00113072,1483,1.00001,1.00001
