app_id,start_app,end_app,effective_cpu,effective_io,effective_iter,total_bytes,stretch,utilization,Tcomp,Tio,iterations,priority,group_id
app_1,4.1333,18344.6,7912,80.7491,791.754,4.91926e+10,1.00487,0.991092,10,0.0621904,1815,0.1,1
app_10,7.73077,19631.8,7943.4,51.2467,494.601,3.58269e+10,1.0026,0.991092,16,0.0725241,1217,0.1,1
app_11,18.0748,19981.7,7958.6,37.6666,397.758,5.25958e+09,1.00454,0.991092,20,0.013215,992,0.1,1
app_12,2.34231,14501.4,7612.1,361.799,3805.21,5.19114e+10,1.04384,0.991092,2,0.0136429,6895,1,0
app_13,9.90921,19648.9,7932.8,60.8206,610.347,2.86241e+10,1.00485,0.991092,13,0.046848,1501,0.1,1
app_14,10.607,19183.7,7939.2,55.1319,497.442,4.29677e+10,1.00223,0.991092,16,0.0864542,1192,0.1,1
app_15,1.53917,19082.6,7859.2,128.528,1311.48,4.46546e+10,1.01216,0.991092,6,0.0340355,3126,0.1,1
app_16,10.7249,19486.8,7955.8,40.2638,379.415,3.18117e+10,1.00155,0.991092,21,0.0839359,923,0.1,1
app_17,4.46326,19612.7,7882.4,107.327,1128.06,2.57558e+10,1.01161,0.991092,7,0.0228332,2760,0.1,1
app_18,5.64376,18816.9,7862.8,127.476,1311.1,4.11719e+10,1.01215,0.991092,6,0.031405,3083,0.1,1
app_19,0.701662,14279.5,7614.9,360.377,3814.36,2.0937e+10,1.04769,0.991092,2,0.00548952,6800,1,0
app_2,11.7612,19467.8,7935.01,59.7027,608.402,2.02058e+10,1.00563,0.991092,13,0.0331836,1481,0.1,1
app_20,0.386837,19145.4,7949.8,46.7059,470.452,2.0735e+10,1.0037,0.991092,17,0.044117,1123,0.1,1
app_21,55.0634,20152.1,7956.3,42.4351,103.033,3.29783e+10,1.00134,0.991092,77,0.320178,258,0.01,2
app_22,53.2738,19991.5,7956.3,41.7262,98.118,3.35564e+10,1.00127,0.991092,81,0.342412,244,0.01,2
app_23,11.844,19609.1,7949.2,46.1793,419.931,3.75608e+10,1.00166,0.991092,19,0.0894306,1027,0.1,1
app_24,94.9909,20055.3,7952.1,47.5056,67.3705,3.98751e+10,1.001,0.991092,118,0.59515,169,0.01,2
app_25,5.00605,19997,7988.9,9.39338,88.1649,5.76538e+09,1.00067,0.991092,91,0.0655157,219,0.01,2
app_26,140.476,20235.9,7950.9,47.5248,47.4454,4.16077e+10,1.00094,0.991092,167,0.885271,120,0.01,2
app_27,6.41683,20113.5,7995.8,3.10702,29.8948,1.29063e+09,1.00036,0.991092,269,0.043021,75,0.01,2
app_28,154.409,20381.5,7989.9,9.00283,44.1963,5.80554e+09,1.00054,0.991092,184,0.129012,109,0.01,2
app_29,110.427,20112.7,7991.7,6.34864,47.717,4.5489e+09,1.00047,0.991092,170,0.0947688,118,0.01,2
app_3,12.7677,19100.8,7942.2,52.8155,566.593,3.62465e+09,1.00682,0.991092,14,0.00640398,1354,0.1,1
app_30,21.4175,20020.5,7946.6,50.6259,76.6122,4.15699e+10,1.00148,0.991092,103,0.539868,192,0.01,2
app_31,199.304,20236.7,7973.5,25.7113,27.8251,2.20127e+10,1.00056,0.991092,285,0.815285,70,0.01,2
app_32,84.1319,20012.5,7947.7,50.6172,51.0488,4.42295e+10,1.00101,0.991092,155,0.867245,128,0.01,2
app_33,161.038,20325.8,7955.5,43.0257,40.5875,3.73938e+10,1.00089,0.991092,196,0.912043,102,0.01,2
app_34,1.34165,20033.8,7885.1,103.419,1126.15,4.87113e+09,1.01395,0.991092,7,0.00432605,2818,0.1,1
app_35,44.5496,20246.2,7943.7,55.7512,49.268,4.77133e+10,1.00107,0.991092,159,0.973742,125,0.01,2
app_36,23.493,20175.2,7962.7,36.2762,76.6021,3.00365e+10,1.00091,0.991092,103,0.390084,193,0.01,2
app_37,43.1285,19943.5,7969.2,26.8875,132.765,1.63722e+10,1.00181,0.991092,60,0.124032,331,0.01,2
app_38,61.0785,20062,7991,6.9959,64.7799,3.47575e+09,1.00069,0.991092,123,0.0534731,162,0.01,2
app_39,34.8974,19875.6,7984.1,14.4183,70.434,9.33849e+09,1.00082,0.991092,114,0.133407,174,0.01,2
app_4,7.31424,18846.8,7896.7,94.092,987.443,1.73413e+10,1.01086,0.991092,8,0.0175698,2324,0.1,1
app_40,118.819,20129.1,7959.7,38.7528,51.9559,3.27166e+10,1.00095,0.991092,153,0.629165,130,0.01,2
app_41,15.6888,21022,7943.4,56.6,4.99461,4.97434e+10,1.00086,0.991092,1627,9.94867,13,0.001,3
app_42,39.4974,20176.4,7978.7,20.6591,13.7196,1.87343e+10,1.00032,0.991092,577,1.33817,35,0.001,3
app_43,250.049,21367.2,7951.2,42.7356,8.68219,3.43465e+10,1.00181,0.991092,898,3.81628,23,0.001,3
app_44,415.031,21168.9,7959.8,37.4375,7.59036,2.87779e+10,1.00143,0.991092,1014,3.59723,20,0.001,3
app_45,1495.59,22661.3,7953.8,37.7181,4.84748,3.12497e+10,1.00187,0.991092,1659,6.24995,13,0.001,3
app_46,612.365,21498.7,7941.8,58.2,5.59886,4.99441e+10,1.00103,0.991092,1368,8.32401,15,0.001,3
app_47,332.567,20326.8,7994.9,5.1,18.5292,3.37003e+09,1.00022,0.991092,434,0.17737,46,0.001,3
app_48,114.167,20163.9,7988.3,11.433,47.1609,8.90239e+09,1.00035,0.991092,168,0.185467,119,0.01,2
app_49,1795.31,23326.3,7974.8,25.2,3.66584,2.06713e+10,1.00057,0.991092,2128,5.16782,10,0.001,3
app_5,7.48734,19720.4,7891.6,99.7708,988.698,4.98103e+10,1.00738,0.991092,8,0.0504153,2429,0.1,1
app_50,837.393,20934.6,7947.3,52.7,7.85511,4.43605e+10,1.00104,0.991092,996,5.54507,20,0.001,3
app_51,1027.23,22376.8,7997.5,2.5,5.22789,1.91701e+09,1.00007,0.991092,1486,0.383402,14,0.001,3
app_52,392.089,20738.1,7977.4,22.4305,10.2463,1.90798e+10,1.00044,0.991092,771,1.90798,26,0.001,3
app_53,595.235,20319.6,7966.8,33.2,8.61831,2.78002e+10,1.00068,0.991092,953,3.08892,21,0.001,3
app_54,464.66,20709.9,7953.9,41.9063,10.5494,3.69451e+10,1.00115,0.991092,737,3.69451,27,0.001,3
app_55,791.905,22779.2,7982.6,17.4,4.90096,1.58311e+10,1.0002,0.991092,1651,3.95777,13,0.001,3
app_56,478.238,20585,7945.3,49.1329,7.95086,4.13292e+10,1.00167,0.991092,999,5.16615,20,0.001,3
app_57,259.445,20507.5,7936.8,56.7915,24.3181,4.86581e+10,1.00182,0.991092,317,2.02742,63,0.001,3
app_58,60.8732,21854.6,7972.9,27.1,2.62531,2.00491e+10,1.00088,0.991092,3168,6.68303,7,0.0001,4
app_59,7.10666,20191.4,7959.6,37.3641,19.2421,3.07147e+10,1.00121,0.991092,423,1.61656,48,0.001,3
app_6,0.735727,19403.7,7941.8,52.4443,531.162,2.2012e+10,1.00454,0.991092,15,0.0414539,1290,0.1,1
app_60,944.344,21345,7990.3,9.7,7.54726,7.18948e+09,1.00031,0.991092,1074,0.898685,19,0.001,3
app_7,0.211609,20299,7270.6,693.346,7271.84,2.39255e+10,1.09671,0.991092,1,0.00329009,18453,1,0
app_8,1.66275,18428.4,7904.8,87.0553,875.71,4.23727e+10,1.00665,0.991092,9,0.0483706,2022,0.1,1
app_9,11.6487,19230.6,7951.5,43.9019,397.518,3.46814e+10,1.00173,0.991092,20,0.0871391,954,0.1,1
