app_id,start_app,end_app,effective_cpu,effective_io,effective_iter,total_bytes,stretch,utilization,Tcomp,Tio,iterations,priority,group_id
app_1,7.34937,19794.3,7924.8,64.1172,610.45,4.32354e+10,1.00401,0.99146,13,0.0708776,1510,0.1,1
app_10,1.76331,16877.2,7788.5,173.78,1943.23,2.61012e+10,1.02372,0.99146,4,0.0134334,4100,0.1,1
app_11,1.90148,16798.4,7777.6,184.287,1942.34,6.2455e+10,1.0204,0.99146,4,0.0321601,4077,0.1,1
app_12,2.09219,19015.7,7865,111.632,1122,5.16515e+10,1.01053,0.99146,7,0.0460352,2671,0.1,1
app_13,1.49257,16764.2,7778.53,185.493,1943.45,6.33492e+10,1.02016,0.99146,4,0.0325954,4071,0.1,1
app_14,4.3836,17091.6,7833.4,133.88,1568.88,3.89611e+09,1.02076,0.99146,5,0.00248477,3351,0.1,1
app_15,2.60083,17901.4,7788.1,174.511,1943.34,2.20228e+10,1.02431,0.99146,4,0.0113344,4350,0.1,1
app_16,2.14409,19551.2,7911.9,73.6888,793.442,2.00225e+10,1.00858,0.99146,10,0.025249,1935,0.1,1
app_17,3.80995,20239.7,7851.5,123.431,1305.99,3.7457e+10,1.01408,0.99146,6,0.0286807,3305,0.1,1
app_18,5.39988,17433.9,7822.94,146.072,1564.55,4.19327e+10,1.01718,0.99146,5,0.026794,3405,0.1,1
app_19,8.8592,19236,7947.9,43.2759,443.357,1.77865e+10,1.00431,0.99146,18,0.0401502,1062,0.1,1
app_2,0.897593,18559.3,7859.2,114.88,1310.03,1.24721e+10,1.0163,0.99146,6,0.00952068,3039,0.1,1
app_20,9.84917,19990.3,7903,88.5275,464.48,5.14839e+10,1.00572,0.99146,17,0.110957,1160,0.1,1
app_21,49.422,19939.8,7945.9,53.4833,78.9189,4.49969e+10,1.00114,0.99146,101,0.569582,196,0.01,2
app_22,24.602,20143.7,7969,30.5112,36.1897,2.54721e+10,1.00069,0.99146,223,0.707559,90,0.01,2
app_23,129.931,20167.5,7988.5,10.851,52.6326,5.69136e+09,1.00073,0.99146,153,0.107384,131,0.01,2
app_24,59.1475,20004.9,7968.1,31.3019,49.6211,2.61288e+10,1.00072,0.99146,162,0.522576,123,0.01,2
app_25,89.655,19824.2,7955.9,43.624,69.5979,3.67889e+10,1.00091,0.99146,115,0.525556,172,0.01,2
app_26,113.802,20033.7,7979.8,18.7397,35.1943,1.58892e+10,1.00054,0.99146,230,0.453978,87,0.01,2
app_27,11.664,20079.3,7970.7,25.2459,240.345,1.34194e+10,1.00199,0.99146,33,0.0556824,603,0.01,2
app_28,0.0663151,19821.2,7878,96.8442,1125.41,7.01995e+09,1.01458,0.99146,7,0.00623996,2791,0.1,1
app_29,28.9677,19840.9,7965.9,30.8777,153.133,1.81577e+10,1.002,0.99146,52,0.118678,379,0.01,2
app_3,11.5564,19343.7,7937.6,52.15,497.865,3.03679e+10,1.00402,0.99146,16,0.0609796,1200,0.1,1
app_30,135.036,20136.8,7987.4,10.6868,47.4683,8.14706e+09,1.00056,0.99146,169,0.173342,118,0.01,2
app_31,2.39099,20064,7938.2,59.7834,81.5241,4.92676e+10,1.00157,0.99146,97,0.600825,205,0.01,2
app_32,2.25756,19771.8,7924.4,62.3614,661.252,2.06585e+10,1.00692,0.99146,12,0.0312534,1634,0.1,1
app_33,9.13725,19685.6,7964.8,31.8726,158.397,1.90406e+10,1.00202,0.99146,51,0.119752,387,0.01,2
app_34,101.825,20057.3,7967.5,31.0128,74.4324,2.5336e+10,1.0009,0.99146,107,0.342378,186,0.01,2
app_35,6.57253,20073.4,7973.9,25.497,61.4329,1.91972e+10,1.00086,0.99146,129,0.309632,155,0.01,2
app_36,16.8514,19984.1,7941.5,56.7557,93.6817,4.64804e+10,1.0015,0.99146,85,0.494472,233,0.01,2
app_37,20.8107,19636.2,7921.2,71.5466,359.879,5.14459e+10,1.00343,0.99146,22,0.142905,885,0.1,1
app_38,46.2321,19974.7,7979.8,15.6881,158.628,4.96666e+09,1.00191,0.99146,50,0.0314345,396,0.01,2
app_39,97.3092,20097.5,7965,34.2199,69.5104,2.7568e+10,1.00093,0.99146,114,0.399537,174,0.01,2
app_4,7.48966,18650.1,7867,108.901,1120.11,4.3607e+10,1.0113,0.99146,7,0.0389349,2615,0.1,1
app_40,138.863,20093,7993.5,5.17092,44.6385,3.40444e+09,1.00039,0.99146,178,0.0756543,112,0.01,2
app_41,102.77,19951.4,7994,5.96419,44.6129,3.34609e+09,1.00033,0.99146,181,0.0760475,110,0.01,2
app_42,420.003,21797,7981.6,12.0561,4.15327,9.96044e+09,1.00106,0.99146,1909,1.99209,11,0.001,3
app_43,207.668,21064.7,7987.3,12.7,8.00016,1.03199e+10,1.0003,0.99146,986,1.28998,21,0.001,3
app_44,35.8269,20134.6,7983.9,13.7169,114.716,9.13267e+09,1.00087,0.99146,69,0.0794145,289,0.01,2
app_45,470.199,21509.5,7993.5,6.5,6.87175,4.75892e+09,1.00022,0.99146,1164,0.679845,18,0.001,3
app_46,399.204,21389.5,7974.4,25.6,9.23347,2.08253e+10,1.0006,0.99146,863,2.31392,24,0.001,3
app_47,2714.16,24115.4,7950.2,28.9458,2.61659,2.36971e+10,1.00327,0.99146,3022,11.8486,7,0.001,3
app_48,1242.56,21570.6,7995.1,4.9,5.81169,4.23572e+09,1.00008,0.99146,1345,0.705953,15,0.001,3
app_49,356.697,20626.7,7953.5,45.1189,16.3623,3.78538e+10,1.00108,0.99146,479,2.2267,42,0.001,3
app_5,10.6265,18859.2,7919.2,66.8163,658.821,3.70124e+10,1.0055,0.99146,12,0.0561646,1555,0.1,1
app_50,631.96,21087.3,7953.8,40.0691,9.42497,3.47387e+10,1.00143,0.99146,856,3.47387,24,0.001,3
app_51,331.704,20311,7955.9,44.1,5.82889,3.85286e+10,1.0007,0.99146,1343,6.42143,15,0.001,3
app_52,570.669,21574.1,7979.3,20.7,8.03487,1.69701e+10,1.00047,0.99146,986,2.12127,21,0.001,3
app_53,379.183,20624.4,7947.8,52.2,17.4981,4.38546e+10,1.00104,0.99146,451,2.43637,45,0.001,3
app_54,926.345,22053.1,7962.1,37.9,4.879,3.34786e+10,1.00055,0.99146,1632,6.69571,13,0.001,3
app_55,283.615,21047.4,7966,34,11.6016,2.98915e+10,1.00051,0.99146,683,2.71741,30,0.001,3
app_56,390.653,20731.4,7951,48.5598,8.52347,4.09014e+10,1.00101,0.99146,908,5.11267,22,0.001,3
app_57,19.32,20007.1,7948.4,48.3734,116.909,3.55654e+10,1.00201,0.99146,68,0.306598,292,0.01,2
app_58,179.159,20058.7,7989,10.5391,18.5489,8.77821e+09,1.00028,0.99146,436,0.487678,46,0.001,3
app_59,171.557,22673.5,7957,43,2.73098,3.55372e+10,1.00093,0.99146,2773,17.7686,8,0.001,3
app_6,0.610158,19075.2,7898.98,91.1302,491.979,4.96418e+10,1.00646,0.99146,16,0.100898,1173,0.1,1
app_60,66.1579,20586,7942.8,57.2,4.64178,4.65335e+10,1.00134,0.99146,1665,9.30669,12,0.001,3
app_7,7.10825,19246.2,7869.1,108.684,1119.96,4.00922e+10,1.01148,0.99146,7,0.0357966,2697,0.1,1
app_8,12.6091,19328.2,7931.2,55.0966,609.535,1.03659e+10,1.00736,0.99146,13,0.0170212,1473,0.1,1
app_9,2.67801,18912.4,7879.6,97.4507,1123.3,8.98882e+09,1.01412,0.99146,7,0.00799717,2656,0.1,1
