app_id,start_app,end_app,effective_cpu,effective_io,effective_iter,total_bytes,stretch,utilization,Tcomp,Tio,iterations,priority,group_id
app_1,0.847786,19560.9,7939.5,53.2457,497.658,4.14743e+10,1.00238,0.992621,16,0.0834493,1216,0.1,1
app_10,9.24961,19219.9,7920.1,70.7651,659.623,5.43428e+10,1.0032,0.992621,12,0.0824626,1582,0.1,1
app_11,11.4428,18657,7928.5,63.2852,610.116,3.92805e+10,1.00404,0.992621,13,0.0642889,1423,0.1,1
app_12,2.17461,20170.8,7919.3,71.0942,791.577,1.81389e+09,1.00996,0.992621,10,0.00229315,2000,0.1,1
app_13,4.10989,18134.2,7798.5,175.648,1953.07,7.07066e+09,1.02491,0.992621,4,0.00362041,4423,0.1,1
app_14,5.38703,19239.2,7943.1,50.3618,496.87,2.98086e+10,1.0034,0.992621,16,0.060098,1193,0.1,1
app_15,4.27643,17978.7,7793,181.125,1944.37,3.19095e+10,1.02238,0.992621,4,0.0164059,4374,0.1,1
app_16,17.7254,19688.9,7945.2,48.6599,440.637,3.79773e+10,1.00211,0.992621,18,0.0861164,1084,0.1,1
app_17,14.5532,19817.4,7948.3,44.9769,467.662,1.58901e+10,1.0045,0.992621,17,0.0339532,1158,0.1,1
app_18,3.85911,19732.6,7941.8,52.603,443.09,4.33338e+10,1.00186,0.992621,18,0.097819,1088,0.1,1
app_19,9.88961,19042.7,7921.5,69.672,660.204,4.79365e+10,1.00384,0.992621,12,0.072631,1570,0.1,1
app_2,3.96633,19279.2,7857.5,124.609,1309.22,3.76225e+10,1.01328,0.992621,6,0.0287414,3156,0.1,1
app_20,2.76152,18665.3,7732.4,234.025,2578.33,2.78884e+10,1.03089,0.992621,3,0.0108179,6016,0.1,1
app_21,11.6024,20105.5,7941.8,53.198,93.1234,4.42263e+10,1.00175,0.992621,85,0.470492,234,0.01,2
app_22,47.9152,20121.1,7986.7,13.3,30.9477,1.11554e+10,1.00027,0.992621,254,0.359852,79,0.01,2
app_23,24.4413,19988.5,7949.6,47.9461,114.824,3.77178e+10,1.00159,0.992621,70,0.327981,284,0.01,2
app_24,49.33,19893.4,7973.7,25.0918,69.22,2.0322e+10,1.00075,0.992621,115,0.294521,173,0.01,2
app_25,12.8235,19493.7,7941.7,51.7409,496.967,3.37626e+10,1.00308,0.992621,16,0.0679328,1211,0.1,1
app_26,103.515,20150.2,7989.6,7.33038,72.7969,4.26832e+09,1.00077,0.992621,110,0.0584701,182,0.01,2
app_27,58.1202,20023.3,7949.7,48.8227,54.6944,4.22825e+10,1.001,0.992621,147,0.768773,136,0.01,2
app_28,102.625,20202.6,7942.3,55.3706,55.8011,4.7202e+10,1.00131,0.992621,140,0.842893,142,0.01,2
app_29,22.5556,20041.4,7940.1,58.0505,108.229,4.88409e+10,1.00138,0.992621,74,0.45223,269,0.01,2
app_3,2.40241,18093.1,7865,118.191,1308.58,7.07621e+09,1.01625,0.992621,6,0.00540581,2962,0.1,1
app_30,18.7966,19996.6,7938.4,55.6988,133.688,4.50959e+10,1.00207,0.992621,59,0.336537,336,0.01,2
app_31,6.40696,20106.3,7948.6,46.2964,69.2035,4.05413e+10,1.00136,0.992621,114,0.579162,175,0.01,2
app_32,109.349,20365.2,7980.2,18.7223,41.7167,1.52884e+10,1.00056,0.992621,189,0.36401,106,0.01,2
app_33,23.289,20149.8,7989.3,6.77984,54.7713,4.50787e+09,1.00077,0.992621,145,0.0819612,138,0.01,2
app_34,9.97927,20050.5,7950.4,46.3569,86.0255,4.01202e+10,1.00119,0.992621,92,0.466514,216,0.01,2
app_35,71.5092,20164.9,7957.9,39.6307,83.6858,3.35458e+10,1.00107,0.992621,95,0.399355,210,0.01,2
app_36,126.223,20127.7,7992.4,4.85368,46.127,2.86368e+09,1.00059,0.992621,173,0.0622538,116,0.01,2
app_37,159.268,20481.9,7981.4,17.4303,28.4873,1.47099e+10,1.00049,0.992621,274,0.525354,73,0.01,2
app_38,45.783,19824.6,7981.9,14.3353,146.954,3.01606e+09,1.00189,0.992621,54,0.0205174,364,0.01,2
app_39,7.03851,19981.3,7945.2,53.3471,86.2969,4.39535e+10,1.00136,0.992621,92,0.511088,215,0.01,2
app_4,11.6035,20020.3,7938.8,53.9635,566.738,1.79165e+10,1.00544,0.992621,14,0.0316546,1417,0.1,1
app_40,79.2915,19966.5,7991.9,6.39333,64.7242,1.72512e+09,1.0008,0.992621,123,0.0265403,162,0.01,2
app_41,1278.53,21017.6,7952,48,5.25978,3.89421e+10,1.00113,0.992621,1540,7.78843,13,0.001,3
app_42,566.305,20270.7,7988.8,11.2,7.3412,8.34923e+09,1.00036,0.992621,1122,1.04365,18,0.001,3
app_43,228.025,21093.4,7989,11,4.85393,9.4115e+09,1.0002,0.992621,1574,1.8823,13,0.001,3
app_44,1281.14,21734.5,7946.5,53.2639,3.904,4.63244e+10,1.0009,0.992621,2101,11.5811,10,0.001,3
app_45,199.753,21100.9,7940.9,59.1,7.92254,4.82866e+10,1.00135,0.992621,962,6.03582,21,0.001,3
app_46,190.788,20288,7939.96,53.3376,17.9811,4.45571e+10,1.00194,0.992621,447,2.49775,45,0.001,3
app_47,91.7376,20219.7,7990.6,8.5067,75.2245,5.4191e+09,1.0005,0.992621,105,0.0722546,191,0.01,2
app_48,15.8615,19859.7,7944.4,50.6847,164.848,3.64934e+10,1.00239,0.992621,48,0.221172,411,0.01,2
app_49,399.412,20636.2,7969.4,30.6,18.8229,2.42826e+10,1.00079,0.992621,431,1.27803,47,0.001,3
app_5,15.1853,19077.4,7948.9,44.5011,496.971,8.8296e+08,1.00632,0.992621,16,0.00177658,1187,0.1,1
app_50,16.1707,20037.2,7943.3,56.7,16.1498,4.57493e+10,1.00137,0.992621,499,2.85933,40,0.001,3
app_51,837.253,22050.3,7977.9,22.1,5.44044,1.79927e+10,1.00051,0.992621,1498,3.59855,14,0.001,3
app_52,71.5554,20092.5,7986.7,13.2996,29.7081,1.1492e+10,1.00023,0.992621,272,0.383066,74,0.01,2
app_53,39.9332,20144.6,7952,46.3278,28.5902,4.14277e+10,1.00082,0.992621,279,1.47956,72,0.01,2
app_54,1067.22,23011.1,7954.3,45.7,3.37314,4.01165e+10,1.0007,0.992621,2464,13.3722,9,0.001,3
app_55,627.114,21445,7982,18,5.2809,1.60538e+10,1.00024,0.992621,1475,2.67564,14,0.001,3
app_56,246.414,20258.7,7974.8,25.2,22.4141,1.91825e+10,1.00075,0.992621,363,0.834022,55,0.001,3
app_57,224.613,20234.2,7956.8,38.583,16.3269,2.99865e+10,1.00165,0.992621,489,1.76391,41,0.001,3
app_58,38.2279,20131.7,7996.8,3.2,3.85136,1.53857e+09,1.00021,0.992621,2036,0.512857,10,0.001,3
app_59,83.7057,20575.4,7959.5,40.5,14.9345,3.50809e+10,1.00068,0.992621,529,2.33873,38,0.001,3
app_6,2.14268,18273.4,7902.5,85.3128,879.637,3.12463e+10,1.00835,0.992621,9,0.0355071,2007,0.1,1
app_60,100.389,21537,7958.2,41.8,4.02087,3.67053e+10,1.00064,0.992621,1918,9.17633,11,0.001,3
app_7,0.304193,19627.2,7907.7,79.8601,878.113,9.44519e+09,1.01047,0.992621,9,0.0107576,2154,0.1,1
app_8,3.82264,18844.8,7931.3,61.5023,611.802,3.33593e+10,1.00444,0.992621,13,0.0545087,1439,0.1,1
app_9,0.660359,16964.4,7798.3,177.567,1950.82,1.79938e+10,1.0235,0.992621,4,0.00922757,4137,0.1,1
