app_id,start_app,end_app,effective_cpu,effective_io,effective_iter,total_bytes,stretch,utilization,Tcomp,Tio,iterations,priority,group_id
app_1,1.11826,19823,7907,84.6123,878.433,2.47589e+10,1.0086,0.993642,9,0.0281992,2177,0.1,1
app_10,10.161,19331.2,7922.6,74.754,378.619,4.92005e+10,1.00354,0.993642,21,0.13016,914,0.1,1
app_11,3.61172,19015.8,7799.6,179.29,1949.62,1.05372e+10,1.02431,0.993642,4,0.0054037,4631,0.1,1
app_12,3.33901,18616,7896.8,93.509,989.03,1.68792e+10,1.01091,0.993642,8,0.017067,2299,0.1,1
app_13,11.8759,19663.3,7924.8,68.0289,657.651,4.57962e+10,1.00369,0.993642,12,0.069705,1620,0.1,1
app_14,12.6387,19898.7,7957.2,37.769,378.411,1.46653e+10,1.00353,0.993642,21,0.0386947,942,0.1,1
app_15,1.37672,18857.2,7902.3,88.6807,876.996,4.80658e+10,1.00624,0.993642,9,0.0548071,2066,0.1,1
app_16,5.57595,18910.1,7933.4,60.901,526.233,4.88781e+10,1.00222,0.993642,15,0.0929241,1246,0.1,1
app_17,8.64905,18867.4,7909.8,80.9809,787.485,5.23932e+10,1.00475,0.993642,10,0.0665734,1862,0.1,1
app_18,4.93931,19102.8,7918.2,72.5174,718.899,3.80898e+10,1.00549,0.993642,11,0.0529761,1719,0.1,1
app_19,3.01186,19238.5,7917.7,73.9964,721.439,4.61927e+10,1.00453,0.993642,11,0.0639788,1736,0.1,1
app_2,2.86386,19884.1,7895.2,94.8176,988.316,2.32378e+10,1.0103,0.993642,8,0.02352,2453,0.1,1
app_20,9.26256,19310.3,7935.1,58.2603,607.971,1.76562e+10,1.00594,0.993642,13,0.0290398,1469,0.1,1
app_21,25.5623,19896.7,7968.1,28.857,256.262,2.37039e+10,1.00103,0.993642,31,0.0925935,639,0.1,1
app_22,124.688,20215.7,7957.7,40.3824,42.9578,3.52761e+10,1.00088,0.993642,185,0.820374,108,0.01,2
app_23,10.1101,19972.9,7944.9,51.1887,126.067,3.94513e+10,1.00196,0.993642,63,0.313105,315,0.01,2
app_24,228.66,20160.5,7961.2,37.313,30.4353,3.3047e+10,1.00072,0.993642,266,1.06603,75,0.01,2
app_25,33.3396,19839.7,7986,11.2307,111.016,4.10235e+09,1.00124,0.993642,72,0.0369581,276,0.01,2
app_26,6.00842,19918,7940.4,56.8318,104.81,4.83098e+10,1.00141,0.993642,76,0.460093,261,0.01,2
app_27,130.74,20191.3,7958.3,40.9202,58.7185,3.4937e+10,1.00085,0.993642,137,0.592153,146,0.01,2
app_28,25.7109,20253.7,7983.8,15.3466,50.2603,1.09546e+10,1.00066,0.993642,157,0.219093,128,0.01,2
app_29,45.2132,19788.3,7968.2,30.327,86.6059,2.4716e+10,1.00089,0.993642,92,0.284092,215,0.01,2
app_3,6.11322,19846.2,7936.2,56.765,567.686,2.84444e+10,1.00444,0.993642,14,0.0500782,1404,0.1,1
app_30,68.036,20112,7975.1,24.2229,59.4726,1.82859e+10,1.00083,0.993642,134,0.304766,149,0.01,2
app_31,51.2068,19914.4,7984.9,11.2205,113.625,3.4042e+09,1.00146,0.993642,70,0.0301257,283,0.01,2
app_32,21.0338,20092.1,7958.3,37.4844,60.4869,3.15105e+10,1.00128,0.993642,132,0.525175,151,0.01,2
app_33,2.38518,19720.7,7953.9,40.3171,442.765,3.01725e+09,1.00541,0.993642,18,0.00681095,1089,0.1,1
app_34,29.3273,19798.5,7961.4,37.7653,86.882,3.17836e+10,1.00085,0.993642,92,0.365329,215,0.01,2
app_35,2.56517,19686.8,7978,16.9755,141.938,1.14854e+10,1.00132,0.993642,56,0.0808834,351,0.01,2
app_36,41.4326,19716.7,7962,35.8116,162.356,2.74077e+10,1.00133,0.993642,49,0.169183,399,0.01,2
app_37,53.3712,19949.8,7951.1,47.6952,76.1366,3.93528e+10,1.00119,0.993642,104,0.511075,190,0.01,2
app_38,43.8004,19872,7946.1,49.9044,121.908,3.83004e+10,1.00195,0.993642,65,0.313937,303,0.01,2
app_39,114.826,19982.4,7942.9,55.8092,50.8349,4.90268e+10,1.00101,0.993642,156,0.96131,127,0.01,2
app_4,4.58092,18660.8,7878.6,108.221,1123.77,2.83089e+10,1.01177,0.993642,7,0.0251859,2621,0.1,1
app_40,68.7057,20031.7,7960.4,37.8553,57.5343,3.20893e+10,1.00094,0.993642,138,0.553264,144,0.01,2
app_41,743.103,21145.3,7991.3,8.7,6.87122,7.57378e+09,1.00014,0.993642,1157,1.08197,18,0.001,3
app_42,446.612,20063.7,7965.8,31.8794,5.27615,2.64596e+10,1.00097,0.993642,1557,5.29193,13,0.001,3
app_43,834.548,20861.1,7938.9,61.1,4.30373,5.3711e+10,1.00092,0.993642,1848,10.7422,11,0.001,3
app_44,291.375,20641.1,7960.4,30.8171,6.47361,2.73543e+10,1.00153,0.993642,1261,4.55904,16,0.001,3
app_45,741.666,22075.5,7944.5,55.5,4.10857,4.79248e+10,1.00095,0.993642,1942,11.9812,11,0.001,3
app_46,664.972,21396.6,7993.3,6.7,9.43897,5.40764e+09,1.00016,0.993642,853,0.600849,24,0.001,3
app_47,1947.62,22212.7,7992.3,7.7,3.90802,6.78938e+09,1.00011,0.993642,2038,2.26313,10,0.001,3
app_48,687.632,20565.6,7942.9,57.1,9.65065,4.7692e+10,1.00118,0.993642,844,4.7692,24,0.001,3
app_49,1440.24,22591,7983.3,16.7,4.23901,1.49754e+10,1.00022,0.993642,1971,3.74384,11,0.001,3
app_5,0.199732,19523,7917.9,73.7257,721.168,4.49606e+10,1.00466,0.993642,11,0.0623587,1757,0.1,1
app_50,638.618,21295.7,7928.2,60.3716,8.32488,5.29318e+10,1.00236,0.993642,934,5.88131,22,0.001,3
app_51,552.211,21101.7,7981.3,18.7,12.4242,1.47514e+10,1.00049,0.993642,637,1.13472,32,0.001,3
app_52,182.812,20385.7,7951.5,48.5,8.33465,4.16182e+10,1.00086,0.993642,963,5.20227,21,0.001,3
app_53,1058.38,21898.2,7976.7,11.3726,6.43727,1.00681e+10,1.00166,0.993642,1242,1.67801,17,0.001,3
app_54,1337.48,22634.8,7987.6,12.4,4.7383,9.98817e+09,1.0003,0.993642,1627,1.99763,13,0.001,3
app_55,101.234,20014.1,7959.2,39.5415,58.8923,3.30265e+10,1.00097,0.993642,135,0.559771,147,0.01,2
app_56,230.639,20296.3,7989.3,10.7,23.2238,8.47217e+09,1.00028,0.993642,349,0.368355,58,0.001,3
app_57,1146.31,22083.4,7952.2,46.6386,5.29452,3.97731e+10,1.001,0.993642,1528,7.95461,14,0.001,3
app_58,578.224,21273.8,7980.3,19.7,5.75288,1.72394e+10,1.00031,0.993642,1373,2.87324,15,0.001,3
app_59,615.753,20608.1,7967.6,25.4078,8.81991,2.13325e+10,1.00139,0.993642,920,2.37028,22,0.001,3
app_6,13.3577,19620.2,7949.7,44.7123,467.44,1.14954e+10,1.00487,0.993642,17,0.0245628,1146,0.1,1
app_60,122.603,21555.5,7966.2,33.8,4.51299,2.90224e+10,1.0006,0.993642,1775,7.25561,12,0.001,3
app_7,10.4905,19701.9,7935.4,57.6677,612.411,1.28854e+10,1.00651,0.993642,13,0.0210545,1503,0.1,1
app_8,5.22827,19385.8,7968.6,28.3691,294.664,9.52945e+09,1.00274,0.993642,27,0.0323032,715,0.1,1
app_9,8.91105,19550.2,7946.6,48.202,526.975,2.07507e+08,1.00669,0.993642,15,0.000393752,1292,0.1,1
