app_id,start_app,end_app,effective_cpu,effective_io,effective_iter,total_bytes,stretch,utilization,Tcomp,Tio,iterations,priority,group_id
app_1,1.53772,19720.8,7710.2,73.7021,701.517,4.50294e+10,1.03156,0.981344,11,0.0642359,1733,1,1
app_10,6.63202,18798.7,7650.2,87.2226,851.801,4.37939e+10,1.03977,0.981344,9,0.0514616,2003,1,1
app_11,2.61143,18887.1,7654.9,87.7639,851.026,4.811e+10,1.03856,0.981344,9,0.0565335,2015,1,1
app_12,7.87873,20118.5,7662.9,85.2839,852.063,4.24215e+10,1.03824,0.981344,9,0.0497905,2144,1,1
app_13,2.22678,20557.1,7656.6,85.2625,957.241,1.98603e+10,1.04215,0.981344,8,0.0207527,2462,1,1
app_14,12.3783,19716.1,7765,59.771,517.044,4.61689e+10,1.02417,0.981344,15,0.0893015,1281,1,1
app_15,5.56597,18578.5,7610.6,87.1564,1086.97,4.71983e+09,1.05051,0.981344,7,0.00434606,2533,1,1
app_16,0.614058,17561,6621.79,578.768,6621.69,5.47747e+10,1.19822,0.981344,1,0.00827277,14623,1,1
app_17,11.4568,19356.9,7754,56.2163,595.392,2.15898e+10,1.02886,0.981344,13,0.0362854,1443,1,1
app_18,1.59347,20062.5,7792.6,56.9743,519.319,3.70506e+10,1.02176,0.981344,15,0.0713885,1308,1,1
app_19,1.72513,19568.3,7847.5,32.7588,412.861,2.41803e+09,1.01912,0.981344,19,0.00585481,1010,1,1
app_2,0.0756868,19738.4,7774.1,53.6193,597.633,1.2801e+10,1.02737,0.981344,13,0.0214063,1474,1,1
app_20,7.04426,19587.4,7612.19,98.9229,1086.9,2.99406e+10,1.04683,0.981344,7,0.0275662,2666,1,1
app_21,19.7793,19910.5,7920,31.7988,167.803,2.1443e+10,1.00737,0.981344,47,0.127637,419,1,1
app_22,55.4296,20268.4,7956.3,37.9702,42.0559,3.59798e+10,1.00097,0.981344,190,0.856661,105,1,1
app_23,67.8796,20027.8,7947,10.8234,91.3676,9.00995e+09,1.00553,0.981344,87,0.0990104,228,1,1
app_24,75.1394,19993.5,7934.3,48.0274,37.3082,4.59249e+10,1.00248,0.981344,213,1.24121,93,1,1
app_25,34.3793,19861.5,7882.9,51.5898,170.36,4.27279e+10,1.00938,0.981344,46,0.249871,425,1,1
app_26,1.08854,19762.5,7833.8,39.4843,413.132,1.51709e+10,1.01924,0.981344,19,0.0367334,1019,1,1
app_27,23.6799,19924.1,7945.4,15.0806,142.071,9.65862e+09,1.00565,0.981344,56,0.0680184,354,1,1
app_28,10.6434,20022.2,7866.4,32.869,372.842,5.45257e+09,1.01628,0.981344,21,0.0146182,933,1,1
app_29,171.274,20300.7,7986.7,4.07221,43.2368,1.339e+09,1.0015,0.981344,184,0.0311395,109,1,1
app_3,6.31229,20403.1,7786.7,46.0366,518.012,1.17985e+10,1.02584,0.981344,15,0.022777,1330,1,1
app_30,10.8655,20014.3,7925.4,51.1898,87.9953,4.40528e+10,1.00383,0.981344,90,0.5006,221,1,1
app_31,22.3335,19644.5,7872.1,61.2087,291.113,5.04678e+10,1.00977,0.981344,27,0.173429,713,1,1
app_32,39.4797,20006.7,7941.2,49.2048,49.1784,4.54047e+10,1.00168,0.981344,160,0.908095,124,1,1
app_33,87.1539,20277.8,7952.4,38.9305,57.3487,3.50115e+10,1.00158,0.981344,140,0.614237,143,1,1
app_34,48.9098,20239.6,7959.7,22.1482,45.7771,1.97553e+10,1.00257,0.981344,174,0.439007,115,1,1
app_35,161.474,20038,7944.6,44.5546,50.102,4.14864e+10,1.00174,0.981344,160,0.829727,124,1,1
app_36,38.9914,20228.4,7959.7,25.2217,63.8427,2.19184e+10,1.0023,0.981344,124,0.347911,161,1,1
app_37,101.139,20121.1,7954.3,34.9489,35.9955,3.2584e+10,1.00164,0.981344,222,0.905112,90,1,1
app_38,215.565,20394.3,7933.8,40.7315,31.1645,3.97093e+10,1.00332,0.981344,257,1.28095,78,1,1
app_39,37.0689,20041.2,7932.3,26.3483,93.8428,1.97181e+10,1.00603,0.981344,85,0.209767,234,1,1
app_4,8.29865,19526,7896.3,34.1832,377.984,1.03468e+10,1.01181,0.981344,21,0.0273726,916,1,1
app_40,101.527,20223.4,7967.1,30.2469,38.1476,2.75293e+10,1.00067,0.981344,210,0.724456,95,1,1
app_41,1807.43,23667.9,7996,3.92188,4.05997,3.61989e+09,1.00005,0.981344,1988,0.904972,11,1,1
app_42,249.897,20555.6,7982.6,10.7691,18.2107,9.7132e+09,1.00096,0.981344,441,0.539622,46,1,1
app_43,576.146,20987.7,7950.5,49.4121,12.8527,4.89122e+10,1.00007,0.981344,607,3.76248,33,1,1
app_44,821.502,23805.9,7969.9,30.002,3.42628,2.97271e+10,1.00005,0.981344,2200,9.90903,10,1,1
app_45,461.331,20897,7951.1,48.8274,7.98187,4.8634e+10,1.00003,0.981344,1003,6.07925,20,1,1
app_46,802.785,21337.1,7951.4,47.9377,7.40404,4.74415e+10,1.00014,0.981344,1072,5.93018,19,1,1
app_47,1738.55,22961.7,7996.4,2.57119,4.64978,2.33223e+09,1.00016,0.981344,1765,0.466445,12,1,1
app_48,913.789,21088.2,7984.2,10.6252,6.3438,1.03406e+10,1.00068,0.981344,1252,1.47722,16,1,1
app_49,467.446,21517.7,7959.3,40.6129,5.02022,4.04147e+10,1.00004,0.981344,1488,8.08295,14,1,1
app_5,10.6316,20445,7758.5,57.5452,554.525,3.37641e+10,1.02666,0.981344,14,0.0609461,1422,1,1
app_50,1453.94,22324.9,7950.9,49.0606,4.64269,4.88758e+10,1.00003,0.981344,1742,9.77516,12,1,1
app_51,197.181,20745.6,7977,22.8444,4.19634,2.27617e+10,1.00003,0.981344,1877,5.69044,11,1,1
app_52,69.4861,20157.9,7966.8,32.4447,9.33489,3.20653e+10,1.00014,0.981344,876,3.56281,23,1,1
app_53,589.497,20436.7,7976.5,23.3646,5.96029,2.31571e+10,1.00004,0.981344,1349,3.85951,15,1,1
app_54,107.353,20627.3,7982.9,9.82087,19.3502,9.39353e+09,1.00096,0.981344,414,0.494396,49,1,1
app_55,641.332,21428.9,7979.1,19.777,5.68618,1.94632e+10,1.00018,0.981344,1382,3.24387,15,1,1
app_56,1187.49,21748.6,7962.2,37.1315,6.52722,3.68077e+10,1.00012,0.981344,1214,5.25824,17,1,1
app_57,1059.52,21870.5,7990.3,9.46068,3.84203,9.2568e+09,1.00006,0.981344,2126,2.3142,10,1,1
app_58,1076.51,21259.5,7986.5,9.69086,7.55488,9.57195e+09,1.00049,0.981344,1086,1.19649,19,1,1
app_59,869.626,20888.7,7962,38,4.87948,3.77739e+10,1.00003,0.981344,1661,7.55479,12,1,1
app_6,0.401628,20348.6,7730.3,61.7147,704.186,1.19668e+10,1.03329,0.981344,11,0.0169742,1792,1,1
app_60,394.001,21093.3,7982.3,12.8287,8.08858,1.27156e+10,1.00062,0.981344,983,1.58945,21,1,1
app_7,5.81419,20349.4,7700,77.4449,770.378,3.9468e+10,1.03366,0.981344,10,0.0511906,1968,1,1
app_8,9.31646,19633.3,7862.2,43.7077,374.197,3.32208e+10,1.01325,0.981344,21,0.0885887,918,1,1
app_9,1.50435,22123.2,7125.1,295.265,3567.23,1.6178e+09,1.12254,0.981344,2,0.000453546,9908,1,1
