app_id,start_app,end_app,effective_cpu,effective_io,effective_iter,total_bytes,stretch,utilization,Tcomp,Tio,iterations,priority,group_id
app_1,6.14213,18155.5,7887.5,112.5,1125,1.48247e+10,1.01236,0.990972,7,0.0131775,2552,1,1
app_10,1.2632,19781.3,7842.9,157.1,1571.08,6.07988e+09,1.01924,0.990972,5,0.00387007,3880,1.00001,1.00001
app_11,7.12817,19797.2,7921.3,78.7,609.309,5.07469e+10,1.00351,0.990972,13,0.0833282,1506,1.00001,1.00001
app_12,16.3657,18957.3,7892.2,107.8,494.163,5.65321e+10,1.00645,0.990972,16,0.114437,1169,1.00001,1.00001
app_13,19.8445,19783.1,7921.3,78.7,359.142,4.42676e+10,1.00432,0.990972,22,0.123308,887,1.00001,1.00001
app_14,14.0104,19978.2,7949,51,497.963,1.70864e+10,1.00426,0.990972,16,0.0343101,1239,1.00001,1.00001
app_15,8.96995,19479.2,7943.3,56.7,566.18,5.17202e+09,1.00648,0.990972,14,0.00912172,1379,1.00002,1.00002
app_16,2.0029,18868.7,7931.9,68.1,528.604,4.18956e+10,1.00329,0.990972,15,0.0791978,1247,1.00002,1.00002
app_17,10.1908,18380.1,7918.2,81.8,792.031,3.23911e+10,1.00621,0.990972,10,0.0408979,1819,1.00002,1.00002
app_18,7.56916,19728.1,7920.4,79.6,789.554,2.17348e+10,1.00729,0.990972,10,0.0275125,1949,1.00002,1.00002
app_19,3.62004,19040.4,7942.9,57.1,497.232,3.01708e+10,1.00338,0.990972,16,0.0607058,1181,1.00002,1.00002
app_2,3.47124,19660.4,7943.8,56.2,467.552,3.42818e+10,1.00275,0.990972,17,0.0732516,1149,1,1
app_20,2.6944,18776.3,7920.9,79.1,791.102,1.4356e+10,1.00816,0.990972,10,0.0181491,1859,1.00002,1.00002
app_21,25.4718,19754.4,7948.1,51.9,151.53,3.42414e+10,1.00221,0.990972,52,0.225272,377,1.00002,1.00002
app_22,36.7231,20066,7989.4,10.6,91.6602,5.15228e+09,1.00068,0.990972,87,0.056003,229,1.00002,1.00002
app_23,13.8175,19881.5,7930.5,69.5,119.26,4.93999e+10,1.00252,0.990972,66,0.411665,298,1.00002,1.00002
app_24,19.7867,19479.1,7924.5,75.5,328.937,4.39737e+10,1.00396,0.990972,24,0.133659,804,1.00002,1.00002
app_25,44.3154,19706.6,7940,60,176.231,4.02304e+10,1.00248,0.990972,45,0.227291,433,1.00003,1.00003
app_26,35.6906,19942.8,7948.7,51.3,78.2352,3.79736e+10,1.00167,0.990972,102,0.486841,195,1.00003,1.00003
app_27,17.5783,19650.9,7961.9,38.1,295.576,2.10159e+10,1.00214,0.990972,27,0.0709995,724,1.00003,1.00003
app_28,29.1652,19774.5,7958.3,41.7,180.658,2.87703e+10,1.00162,0.990972,44,0.158952,447,1.00003,1.00003
app_29,152.033,20266.6,7944.9,55.1,50.5036,4.21287e+10,1.00162,0.990972,157,0.826054,127,1.00003,1.00003
app_3,12.4095,19917.2,7938.8,61.2,611.669,1.4908e+10,1.00582,0.990972,13,0.0243994,1521,1,1
app_30,21.5071,19733.9,7961.6,38.4,161.988,2.38395e+10,1.00182,0.990972,49,0.147158,401,1.00003,1.00003
app_31,29.1776,19595.5,7980.8,19.2,189.721,5.65966e+09,1.0017,0.990972,42,0.0297877,466,1.00003,1.00003
app_32,6.78217,20314.2,7935.5,64.5,59.6389,4.75612e+10,1.00212,0.990972,132,0.792687,151,1.00003,1.00003
app_33,37.278,19958.4,7974.3,25.7,98.0332,1.84938e+10,1.0009,0.990972,81,0.188712,245,1.00003,1.00003
app_34,0.657612,19793.8,7971.1,28.9,132.731,1.36379e+10,1.00191,0.990972,60,0.10254,330,1.00003,1.00003
app_35,30.1853,20092.1,7966.6,33.4,84.0224,2.14378e+10,1.0015,0.990972,94,0.255212,212,1.00004,1.00004
app_36,69.8423,20295.7,7951.1,48.9,46.7616,3.75726e+10,1.00142,0.990972,171,0.816795,117,1.00004,1.00004
app_37,63.4465,20257.4,7991,9,37.058,6.12022e+09,1.00036,0.990972,215,0.165411,93,1.00004,1.00004
app_38,59.3945,20054.8,7950.4,49.6,66.7982,3.69178e+10,1.00159,0.990972,120,0.551012,166,1.00004,1.00004
app_39,1.84617,19925.9,7936.9,63.1,134.43,4.91781e+10,1.00174,0.990972,59,0.364283,337,1.00004,1.00004
app_4,3.73983,19600,7887.1,112.9,1126.86,2.37003e+10,1.01128,0.990972,7,0.0210296,2756,1,1
app_40,2.32961,19624.3,7950.4,49.6,495.86,7.95806e+09,1.00523,0.990972,16,0.0160445,1219,1.00004,1.00004
app_41,822.493,21113.4,7980,20,6.80365,1.67653e+10,1.0004,0.990972,1175,2.39505,17,1.00004,1.00004
app_42,113.387,20509.9,7932.7,67.3,19.0176,5.31323e+10,1.00177,0.990972,422,2.79644,48,1.00004,1.00004
app_43,111.317,20314.1,7956.2,43.8,4.35633,3.77556e+10,1.00076,0.990972,1843,9.43891,11,1.00004,1.00004
app_44,2392.84,24463.7,7998.9,1.1,3.37352,6.40302e+08,1.00006,0.990972,2432,0.213434,9,1.00004,1.00004
app_45,291.706,20857.4,7957,43,7.39569,3.647e+10,1.00082,0.990972,1060,5.21,19,1.00004,1.00004
app_46,823.236,21706.9,7990,10,6.64543,8.2719e+09,1.00022,0.990972,1211,1.37865,17,1.00005,1.00005
app_47,522.207,20499.1,7947.3,52.7,11.1144,3.93223e+10,1.00168,0.990972,711,3.57476,28,1.00005,1.00005
app_48,317.941,21694.7,7958.6,41.4,3.36608,3.44469e+10,1.00087,0.990972,2361,11.4823,9,1.00005,1.00005
app_49,98.8366,19950.7,7974.7,25.3,7.15404,1.88881e+10,1.0008,0.990972,1109,2.6983,18,1.00005,1.00005
app_5,6.69455,19709.9,7949.4,50.6,496.335,1.89176e+10,1.00398,0.990972,16,0.0381403,1224,1.00001,1.00001
app_50,918.713,21659.9,7996.7,3.3,7.18866,2.76589e+09,1.00007,0.990972,1072,0.345736,19,1.00005,1.00005
app_51,844.495,21647.7,7940.5,59.5,7.16852,5.06649e+10,1.00111,0.990972,1101,7.23784,19,1.00005,1.00005
app_52,253.563,20466.5,7969.2,30.8,21.3718,2.29499e+10,1.00098,0.990972,367,1.09285,55,1.00005,1.00005
app_53,484.901,20608.6,7948,52,6.69776,4.15164e+10,1.00131,0.990972,1190,5.93091,17,1.00005,1.00005
app_54,692.189,20937.1,7960.7,39.3,9.95496,3.15457e+10,1.00097,0.990972,813,3.15457,25,1.00005,1.00005
app_55,59.8849,20285.7,7994.6,5.4,18.2995,4.00209e+09,1.00017,0.990972,441,0.222338,46,1.00005,1.00005
app_56,643.114,21372.5,7960.3,39.7,8.5241,2.69507e+10,1.0016,0.990972,934,2.99452,22,1.00006,1.00006
app_57,1223.98,21637.3,7985.3,14.7,6.30506,1.35816e+10,1.00014,0.990972,1290,1.94022,16,1.00006,1.00006
app_58,257.7,20704.4,7996,4,11.4208,2.83025e+09,1.00015,0.990972,698,0.257296,29,1.00006,1.00006
app_59,436.718,21284.9,7969.3,30.7,3.76765,2.3904e+10,1.00085,0.990972,2101,5.976,10,1.00006,1.00006
app_6,1.70233,19520.1,7909.4,90.6,418.715,4.52045e+10,1.00571,0.990972,19,0.107887,1020,1.00001,1.00001
app_60,805.449,21318.4,7991.6,8.4,8.25555,6.48143e+09,1.00024,0.990972,979,0.810179,21,1.00006,1.00006
app_7,2.48689,17779.5,7843,157,1570.29,2.30392e+10,1.01703,0.990972,5,0.0146746,3490,1.00001,1.00001
app_8,8.81974,18844.5,7932.8,67.2,565.793,3.7139e+10,1.00377,0.990972,14,0.0656166,1333,1.00001,1.00001
app_9,0.438142,13422,6747,675,6749.29,5.84981e+10,1.17552,0.990972,1,0.00866638,12204,1.00001,1.00001
