app_id,start_app,end_app,effective_cpu,effective_io,effective_iter,total_bytes,stretch,utilization,Tcomp,Tio,iterations,priority,group_id
app_1,8.01339,19612.5,7753.2,73.3318,778.034,2.68124e+10,1.02828,0.982306,10,0.0344632,1902,1,1
app_10,7.93134,20245.5,7820.6,45.5727,490.187,1.65173e+10,1.02078,0.982306,16,0.0337088,1240,1,1
app_11,1.10717,18415.3,7676.3,108.117,1097.27,5.08816e+10,1.03531,0.982306,7,0.0463825,2523,1,1
app_12,6.51385,20278.7,7684.3,96.9964,1098.36,2.36658e+10,1.03789,0.982306,7,0.0215536,2782,1,1
app_13,2.73634,18862.9,7491.7,148.676,1877.59,5.32162e+09,1.06709,0.982306,4,0.00283366,4423,1,1
app_14,4.50074,17852.5,7488.3,161.933,1868.84,3.38129e+10,1.06353,0.982306,4,0.0180915,4178,1,1
app_15,8.70409,19451.8,7794.4,64.856,601.206,4.05566e+10,1.02107,0.982306,13,0.0674819,1459,1,1
app_16,2.56343,18450.9,7666.7,98.0469,1093.48,2.66329e+10,1.03986,0.982306,7,0.0243668,2525,1,1
app_17,7.97561,19201.6,7770.8,67.021,705.602,2.47216e+10,1.02623,0.982306,11,0.0350661,1695,1,1
app_18,6.31801,18513.4,7666.9,98.7631,1095.5,2.73564e+10,1.03974,0.982306,7,0.024983,2533,1,1
app_19,8.93445,19010.2,7783.7,68.3208,648.756,4.2525e+10,1.0222,0.982306,12,0.0655239,1543,1,1
app_2,6.84708,19510.2,7799.5,58.2361,556.412,3.35705e+10,1.02131,0.982306,14,0.0602702,1361,1,1
app_20,15.3732,19877.6,7832.3,42.8794,490.638,8.5459e+09,1.0203,0.982306,16,0.0174406,1218,1,1
app_21,9.46869,19851.9,7943.2,42.1864,85.2203,3.75384e+10,1.00241,0.982306,93,0.441628,212,1,1
app_22,18.1255,19813.6,7961.5,27.5768,69.7891,2.35213e+10,1.00188,0.982306,115,0.336018,172,1,1
app_23,170.501,20410.1,7940.1,52.56,33.0596,5.05109e+10,1.00118,0.982306,241,1.53063,83,1,1
app_24,8.07987,19883.9,7813.4,79.6963,435.325,4.78999e+10,1.01764,0.982306,18,0.110115,1079,1,1
app_25,56.6608,20100,7939.5,42.4327,71.8076,3.7293e+10,1.00291,0.982306,111,0.517959,179,1,1
app_26,8.27458,20336,7956.1,41.5693,40.9084,4.06196e+10,1.00041,0.982306,192,0.990721,104,1,1
app_27,57.2128,20061.3,7955.9,13.5299,119.218,9.37918e+09,1.00436,0.982306,67,0.0788166,298,1,1
app_28,27.5847,20201.2,7936.9,35.1192,122.473,2.64638e+10,1.0046,0.982306,65,0.216916,306,1,1
app_29,63.3545,19959.1,7954,34.6034,58.4371,3.14521e+10,1.00182,0.982306,137,0.542278,145,1,1
app_3,4.20333,18344.8,7502.4,155.777,1872.61,2.28692e+10,1.06308,0.982306,4,0.0122099,4287,1,1
app_30,24.7507,19920.9,7937.3,39.9635,66.4428,3.63254e+10,1.00331,0.982306,120,0.54217,166,1,1
app_31,50.9986,19865,7938.4,52.0265,72.6493,4.9526e+10,1.00151,0.982306,111,0.678439,178,1,1
app_32,64.1878,20139.4,7946.1,48.5244,30.0046,4.79265e+10,1.00075,0.982306,269,1.59755,74,1,1
app_33,28.0851,19896.9,7963.6,24.2268,77.7205,2.09418e+10,1.00194,0.982306,103,0.271971,193,1,1
app_34,0.257033,20043,7897.1,42.5152,224.75,2.96981e+10,1.00923,0.982306,35,0.131992,563,1,1
app_35,117.241,20181,7964.7,23.017,37.4846,2.14231e+10,1.00174,0.982306,216,0.563765,93,1,1
app_36,4.54459,20149.2,7914.1,46.1088,148.815,4.20869e+10,1.00551,0.982306,53,0.282463,375,1,1
app_37,44.8671,20086.3,7965.6,14.059,121.561,1.09705e+10,1.00294,0.982306,66,0.0899218,303,1,1
app_38,3.97118,20081.3,7957,39.1062,47.845,3.80579e+10,1.00062,0.982306,167,0.792872,120,1,1
app_39,26.4017,20019,7926.5,18.8829,214.962,4.59548e+09,1.00869,0.982306,37,0.0214742,536,1,1
app_4,0.0121908,18504.2,7561.8,141.952,1516.4,4.60129e+10,1.05155,0.982306,5,0.0303515,3505,1,1
app_40,127.391,20245.4,7934.8,36.365,46.4744,3.32601e+10,1.00401,0.982306,171,0.707661,117,1,1
app_41,353.412,20783.3,7985.8,12.8956,16.4436,1.22717e+10,1.00024,0.982306,482,0.766984,42,1,1
app_42,483.591,21225.4,7988,11.8942,7.74708,1.16555e+10,1.00004,0.982306,1043,1.66507,20,1,1
app_43,732.322,21734.4,7972.6,24.3164,6.92495,2.38331e+10,1.00045,0.982306,1158,3.40472,18,1,1
app_44,2144.72,23854.6,7973.2,26.8,2.63244,2.67229e+10,1.00001,0.982306,3042,13.3614,7,1,1
app_45,241.685,20143,7954.6,42.8969,17.7193,4.19461e+10,1.00043,0.982306,456,2.33034,44,1,1
app_46,832.069,21688.7,7972.1,27.5164,5.8857,2.72033e+10,1.00009,0.982306,1380,4.53388,15,1,1
app_47,101.26,20291.8,7991.2,8.51888,14.5039,7.99076e+09,1.0001,0.982306,549,0.570768,37,1,1
app_48,293.501,21305.3,7978.9,21.0519,9.46736,2.05736e+10,1.00007,0.982306,826,2.05736,25,1,1
app_49,411.62,20613.3,7975.7,22.4414,5.90749,2.21078e+10,1.00027,0.982306,1403,4.42156,15,1,1
app_5,1.4876,17978.3,7359.2,209.049,2457.24,2.3638e+10,1.08359,0.982306,3,0.00961676,5529,1,1
app_50,95.1128,20442.3,7967.3,32.3079,17.1192,3.06975e+10,1.00025,0.982306,463,1.70542,44,1,1
app_51,176.557,21626.9,7982.8,17.2,4.52421,1.71907e+10,1,0.982306,1737,4.29766,12,1,1
app_52,740.574,21375,7995,4.54577,8.60593,4.08242e+09,1.00011,0.982306,938,0.453602,22,1,1
app_53,642.623,21287.1,7976.1,23.6279,5.08316,2.34008e+10,1.00006,0.982306,1581,4.68015,13,1,1
app_54,512.172,21169.2,7956.4,43.0746,12.9366,4.24096e+10,1.00015,0.982306,620,3.26228,33,1,1
app_55,123.15,20715.8,7980,19.7609,11.3682,1.92642e+10,1.00009,0.982306,696,1.75129,29,1,1
app_56,476.395,21074,7978.3,21.548,7.52483,2.0986e+10,1.00009,0.982306,1085,2.62326,19,1,1
app_57,96.2095,20389.9,7978.8,9.28231,29.704,8.67449e+09,1.00157,0.982306,269,0.29912,75,1,1
app_58,574.664,20956.4,7967.4,24.9273,9.01933,2.44127e+10,1.00102,0.982306,889,2.71253,23,1,1
app_59,395.783,20476.2,7972.8,25.8158,16.5361,2.51996e+10,1.00025,0.982306,479,1.48233,42,1,1
app_6,0.756909,17165.3,7171.71,289.962,3585.34,1.11885e+09,1.11532,0.982306,2,0.000312017,7704,1,1
app_60,1324.81,22273.1,7954.8,45.007,5.37853,4.46847e+10,1.00006,0.982306,1502,8.93693,14,1,1
app_7,5.48641,19722,7770,68.4365,779.694,1.98814e+10,1.02697,0.982306,10,0.0254889,1916,1,1
app_8,1.75112,19105,7839.6,56.4514,560.856,2.79597e+10,1.01683,0.982306,14,0.0498391,1338,1,1
app_9,3.7196,20253.3,7825.8,48.5737,489.814,2.25104e+10,1.01933,0.982306,16,0.0459396,1240,1,1
