app_id,start_app,end_app,effective_cpu,effective_io,effective_iter,total_bytes,stretch,utilization,Tcomp,Tio,iterations,priority,group_id
app_1,0.527321,19312.7,7780.5,66.6507,599.865,4.59478e+10,1.02218,0.980148,13,0.0765797,1445,1,1
app_10,1.05792,17250.7,7323.23,194.917,2439.9,1.0123e+10,1.09091,0.980148,3,0.00414878,5280,1,1
app_11,4.52852,19602.7,7835.1,41.1106,460.091,1.06965e+10,1.01965,0.980148,17,0.0232532,1128,1,1
app_12,0.0773439,16681.1,7328.99,203.728,2440.1,2.41717e+10,1.08797,0.980148,3,0.00990238,5110,1,1
app_13,0.355689,20494.1,7687.53,87.7691,959.718,2.80136e+10,1.03687,0.980148,8,0.0291809,2459,1,1
app_14,9.60387,20152.4,7754.92,64.9394,647.047,3.17816e+10,1.02739,0.980148,12,0.0490456,1629,1,1
app_15,8.57487,20020.2,7793.4,46.2706,599.251,1.24296e+09,1.02635,0.980148,13,0.0020716,1503,1,1
app_16,0.337604,20790.5,7331.8,206.525,2444.75,3.11335e+10,1.08652,0.980148,3,0.0127335,6358,1,1
app_17,0.138623,20392.3,7574.62,115.115,1261.01,3.46813e+10,1.05134,0.980148,6,0.027503,3224,1,1
app_18,2.60037,19437.3,7761.7,66.2813,649.429,3.4894e+10,1.02609,0.980148,12,0.0536831,1574,1,1
app_19,6.27551,19879.2,7859.8,30.4475,373.743,3.39227e+09,1.0174,0.980148,21,0.00907024,932,1,1
app_2,12.9248,20124.5,7841,39.3254,434.807,1.15493e+10,1.01878,0.980148,18,0.0265501,1093,1,1
app_20,10.6136,20286.7,7784.1,54.6216,647.558,8.48375e+09,1.02662,0.980148,12,0.0130922,1641,1,1
app_21,10.5868,20041.2,7757.9,56.5267,648.404,1.55794e+10,1.02914,0.980148,12,0.0240052,1622,1,1
app_22,57.6726,20187.7,7966,11.9666,130.209,3.05802e+09,1.00388,0.980148,61,0.0233437,327,1,1
app_23,38.7399,19869.5,7925.7,33.1529,164.607,2.56258e+10,1.00612,0.980148,48,0.155308,409,1,1
app_24,6.21541,19955.6,7921.2,54.0969,92.7785,4.71555e+10,1.00397,0.980148,86,0.507049,231,1,1
app_25,87.8974,20063.2,7925.9,45.0185,90.3148,4.00754e+10,1.00427,0.980148,88,0.445282,225,1,1
app_26,146.372,20269,7973.8,12.9042,31.0062,1.1851e+10,1.0018,0.980148,256,0.382291,78,1,1
app_27,16.0776,20064.1,7965.8,20.9725,68.663,1.8506e+10,1.00197,0.980148,115,0.268203,173,1,1
app_28,60.6629,20351.2,7934.7,39.5708,49.5315,3.73506e+10,1.00351,0.980148,160,0.762256,125,1,1
app_29,95.2017,20079.4,7948.1,43.3991,70.9432,4.07072e+10,1.0014,0.980148,112,0.57334,177,1,1
app_3,2.50053,19800.7,7656.28,95.5607,960.006,4.59902e+10,1.03866,0.980148,8,0.0478657,2378,1,1
app_30,28.9583,20285,7867.1,42.9474,230.952,2.78782e+10,1.0133,0.980148,34,0.120685,585,1,1
app_31,171.581,20364.4,7935.8,47.7208,43.2585,4.60778e+10,1.00227,0.980148,181,1.07158,110,1,1
app_32,50.1703,19916.4,7934.7,45.3012,88.738,4.15815e+10,1.00297,0.980148,90,0.467208,219,1,1
app_33,102.073,19900.2,7933.4,30.3076,74.9164,2.67623e+10,1.005,0.980148,107,0.35683,185,1,1
app_34,100.783,20232,7939.2,43.1907,69.6207,4.15319e+10,1.00241,0.980148,113,0.593312,176,1,1
app_35,38.7684,19981.7,7919.4,35.7155,113.173,3.13998e+10,1.00619,0.980148,70,0.275437,282,1,1
app_36,26.5735,20108,7936.3,34.0491,85.4087,2.93624e+10,1.00431,0.980148,94,0.341423,212,1,1
app_37,84.5183,20023.9,7962.4,21.979,56.0375,1.88902e+10,1.00234,0.980148,143,0.337325,139,1,1
app_38,54.7187,20148.5,7937,37.7158,96.9841,3.09388e+10,1.00402,0.980148,82,0.318957,243,1,1
app_39,23.5662,20190.6,7971.4,15.8585,79.4876,1.20485e+10,1.00207,0.980148,99,0.152513,202,1,1
app_4,11.3251,19855.2,7819.9,51.2497,488.547,2.9669e+10,1.01916,0.980148,16,0.0607971,1214,1,1
app_40,178.825,20370.2,7950.1,38.2921,43.2503,3.53954e+10,1.00182,0.980148,183,0.823149,109,1,1
app_41,1219.82,22122.5,7972.9,26.9878,5.41629,2.66131e+10,1.00006,0.980148,1504,5.32263,14,1,1
app_42,220.8,20621.8,7973,18.2305,17.4299,1.70453e+10,1.00125,0.980148,462,1.00266,44,1,1
app_43,511.489,20528,7968.6,30.0481,9.96446,2.93794e+10,1.00025,0.980148,811,2.93794,25,1,1
app_44,256.104,20897.2,7960.8,33.9797,3.89463,3.38368e+10,1.00067,0.980148,2002,8.45919,10,1,1
app_45,279.696,20993.9,7981.2,18.4163,8.26245,1.79843e+10,1.0001,0.980148,993,2.24804,21,1,1
app_46,1373.57,23043.6,7998.9,0.71139,4.34757,5.55013e+08,1.00007,0.980148,1792,0.138753,12,1,1
app_47,743.589,21113.1,7979.7,20.0398,5.72883,1.97339e+10,1.00007,0.980148,1345,3.94679,15,1,1
app_48,99.1835,20246.3,7961.9,34.8525,21.464,3.33264e+10,1.0006,0.980148,371,1.51484,54,1,1
app_49,509.739,20726.6,7959.8,36.2639,14.0874,3.54307e+10,1.0006,0.980148,565,2.53077,36,1,1
app_5,3.72539,20401.3,7511.1,137.384,1502.1,4.34257e+10,1.05897,0.980148,5,0.0289119,3845,1,1
app_50,615.582,21132.7,7958.4,41.2912,7.77839,4.06821e+10,1.00011,0.980148,1013,5.81172,20,1,1
app_51,1847.09,22227.3,7986.4,13.6,3.98767,1.34117e+10,1.00002,0.980148,2082,3.35293,10,1,1
app_52,1731.52,23555.8,7996,3.27442,4.05353,3.1657e+09,1.0001,0.980148,1956,0.791424,11,1,1
app_53,310.034,20762,7951.6,41.5671,7.98512,4.12996e+10,1.00089,0.980148,1036,5.16245,20,1,1
app_54,1116.7,21553.2,7980.75,19.1703,4.60591,1.88282e+10,1.00005,0.980148,1716,4.30362,12,1,1
app_55,482.235,20688.9,7955.9,43.2875,5.93067,4.28819e+10,1.00015,0.980148,1337,7.14699,15,1,1
app_56,28.8387,19854.9,7917.6,52.2676,169.148,4.57863e+10,1.0046,0.980148,47,0.270925,418,1,1
app_57,1274.57,22223.2,7993.5,5.9388,5.47566,5.74522e+09,1.00009,0.980148,1521,1.14904,14,1,1
app_58,451.726,20715.8,7988.9,10.8904,9.43303,1.04343e+10,1.00008,0.980148,839,1.15936,24,1,1
app_59,632.032,21475.6,7967,29.8521,5.46089,2.95055e+10,1.00044,0.980148,1468,4.91759,14,1,1
app_6,9.89815,20393.3,7688.8,78.7107,767.88,4.30061e+10,1.03469,0.980148,10,0.0559975,1966,1,1
app_60,763.73,22211.1,7951.5,48.4435,4.96378,4.8245e+10,1.00003,0.980148,1647,9.64901,13,1,1
app_7,0.623596,16622.7,7143.05,299.162,3572.58,3.49377e+10,1.11452,0.980148,2,0.00977824,7441,1,1
app_8,1.14894,16190.1,7154.42,288.449,3579.8,4.1969e+09,1.11753,0.980148,2,0.00117232,7263,1,1
app_9,16.7055,20113.4,7830.4,60.7263,339.693,3.41782e+10,1.01722,0.980148,23,0.100821,855,1,1
