app_id,start_app,end_app,effective_cpu,effective_io,effective_iter,total_bytes,stretch,utilization,Tcomp,Tio,iterations,priority,group_id
app_1,6.00019,19581.1,7760.9,65.5624,707.678,1.58614e+10,1.02871,0.984892,11,0.0224031,1731,1,1
app_10,2.05334,16947.8,7355.4,220.197,2449.67,3.13053e+10,1.08303,0.984892,3,0.0127777,5211,1,1
app_11,9.1575,18874.2,7714.9,85.7519,857.453,4.21196e+10,1.03132,0.984892,9,0.0490904,2025,1,1
app_12,18.9291,19366.7,7850.3,68.5722,372.822,3.87437e+10,1.01406,0.984892,21,0.10415,905,1,1
app_13,5.49434,20464.6,7692,84.0725,856.439,3.71701e+10,1.03504,0.984892,9,0.043423,2196,1,1
app_14,11.3916,19809,7800.5,48.9846,557.068,7.23013e+09,1.02463,0.984892,14,0.0129572,1379,1,1
app_15,12.2936,19930.5,7773,62.127,645.039,2.61188e+10,1.02576,0.984892,12,0.0404942,1611,1,1
app_16,7.89938,19449.4,7745.3,69.9242,704.452,3.40359e+10,1.02837,0.984892,11,0.0483464,1715,1,1
app_17,2.37863,19585.4,7765.3,62.7129,706.33,1.23727e+10,1.02859,0.984892,11,0.0175251,1731,1,1
app_18,15.3976,19812.5,7820.1,54.0369,489.006,3.84029e+10,1.01801,0.984892,16,0.0785336,1211,1,1
app_19,1.61486,20196.2,7446.9,164.584,1860.66,2.22439e+10,1.07107,0.984892,4,0.0119527,4726,1,1
app_2,10.7446,20268.8,7736.6,70.7343,701.642,3.62531e+10,1.02922,0.984892,11,0.0517162,1784,1,1
app_20,13.0217,20308.4,7861.6,38.8187,413.936,1.31365e+10,1.01591,0.984892,19,0.0317307,1050,1,1
app_21,61.8383,20074.4,7963.5,28.7309,34.7061,2.78837e+10,1.00108,0.984892,232,0.796676,86,1,1
app_22,35.1854,20147.4,7943.3,33.7586,47.1031,3.25361e+10,1.00303,0.984892,169,0.692258,118,1,1
app_23,50.4334,19905.1,7959.5,9.01114,91.8143,3.68592e+09,1.00462,0.984892,87,0.0400644,228,1,1
app_24,7.72198,20204.9,7885.2,24.8609,271.978,7.04752e+09,1.01365,0.984892,29,0.02591,688,1,1
app_25,65.7494,20101.4,7951.2,45.4596,57.405,4.24935e+10,1.00079,0.984892,139,0.745499,143,1,1
app_26,8.98376,20059.7,7971.8,18.9671,48.3269,1.56749e+10,1.00157,0.984892,167,0.326561,120,1,1
app_27,126.378,20198.1,7956.5,34.3235,47.862,3.3387e+10,1.00127,0.984892,169,0.695562,118,1,1
app_28,50.7479,20045.7,7925.1,52.3747,108.77,4.37842e+10,1.0039,0.984892,73,0.40169,272,1,1
app_29,25.909,20124.7,7968.3,14.8231,37.0602,1.34932e+10,1.00228,0.984892,215,0.36468,93,1,1
app_3,2.85527,19748,7822.2,53.664,489.234,3.80454e+10,1.01778,0.984892,16,0.0778024,1208,1,1
app_30,78.3381,20163.7,7961.1,35.6929,36.528,3.29686e+10,1.00074,0.984892,217,0.915795,92,1,1
app_31,70.7018,20118,7964.3,9.39467,86.2525,6.80772e+09,1.00362,0.984892,92,0.0791596,216,1,1
app_32,14.6451,20424.4,7815.8,45.2427,488.258,1.35471e+10,1.0218,0.984892,16,0.0277605,1246,1,1
app_33,48.1403,19948.5,7944.4,39.557,79.3851,3.48659e+10,1.0026,0.984892,100,0.435824,198,1,1
app_34,53.1406,20059.4,7929.7,49.0544,69.3618,4.51618e+10,1.00315,0.984892,114,0.645169,174,1,1
app_35,40.3151,20124.2,7931.9,33.8894,88.1385,2.67988e+10,1.00519,0.984892,90,0.304532,221,1,1
app_36,64.6665,20128.6,7928.7,47.9293,121.49,3.99228e+10,1.00394,0.984892,65,0.32994,305,1,1
app_37,29.2673,19980,7905.1,51.4513,244.927,4.48008e+10,1.0063,0.984892,32,0.18286,615,1,1
app_38,30.3285,20082.5,7959.6,21.3718,75.1183,1.60155e+10,1.00306,0.984892,106,0.21354,189,1,1
app_39,9.85718,20016.3,7938,39.1429,95.5325,3.71138e+10,1.00312,0.984892,83,0.390672,240,1,1
app_4,2.65685,19755.2,7726.2,76.1345,771.951,3.37894e+10,1.03093,0.984892,10,0.0437687,1911,1,1
app_40,78.8438,20108.9,7973.2,14.4696,67.6576,1.2599e+10,1.00178,0.984892,118,0.185279,168,1,1
app_41,279.917,20703.8,7940.7,46.6829,16.2927,4.61267e+10,1.00165,0.984892,490,2.88292,41,1,1
app_42,1175.43,21018.9,7960.9,36.6685,5.7006,3.64299e+10,1.00033,0.984892,1436,6.07164,14,1,1
app_43,489.999,22192.1,7960.4,39.6,4.41046,3.93274e+10,1.00003,0.984892,1785,9.83185,12,1,1
app_44,1014.76,22196.7,7993.6,5.64846,7.80339,5.29213e+09,1.00014,0.984892,1050,0.661516,20,1,1
app_45,518.544,21893.3,7964.4,33.9608,4.62399,3.37293e+10,1.00023,0.984892,1801,6.74586,12,1,1
app_46,1465.83,21822.9,7957.2,42.4406,4.61406,4.21337e+10,1.00008,0.984892,1730,8.42674,12,1,1
app_47,185.414,20587.7,7956.4,39.8762,20.6882,3.84372e+10,1.00065,0.984892,381,1.92186,53,1,1
app_48,40.6969,20542.4,7958.4,41.37,13.1262,4.03738e+10,1.00015,0.984892,593,3.10567,34,1,1
app_49,80.6809,20610.8,7962.1,37.5841,5.89751,3.72835e+10,1.00008,0.984892,1380,6.21392,15,1,1
app_5,4.24537,19528,7776.4,64.3949,598.567,4.35575e+10,1.02302,0.984892,13,0.0728386,1463,1,1
app_50,154.611,20389.7,7968.1,27.4669,10.621,2.67309e+10,1.00065,0.984892,749,2.43008,27,1,1
app_51,111.076,20499.3,7986.3,13.2081,10.0335,1.29205e+10,1.0001,0.984892,820,1.29205,25,1,1
app_52,9.3782,21078.6,7997,3,5.6588,2.63676e+09,1.00005,0.984892,1401,0.527353,15,1,1
app_53,596.846,20737.3,7990.1,8.58755,5.93082,8.36124e+09,1.00019,0.984892,1360,1.39354,15,1,1
app_54,1388.49,22516.6,7976,23.9431,4.89571,2.36941e+10,1.00004,0.984892,1600,4.73882,13,1,1
app_55,984.256,21219.7,7987.9,11.8399,6.97076,1.13332e+10,1.0001,0.984892,1129,1.61904,18,1,1
app_56,274.377,21126.1,7983.7,15.5322,5.59356,1.52355e+10,1.00013,0.984892,1393,3.04711,15,1,1
app_57,869.306,21295.5,7973.4,26.6,7.8231,2.65778e+10,1,0.984892,1008,3.79683,20,1,1
app_58,92.3942,19979.6,7964.7,33.4798,7.47398,3.31363e+10,1.00027,0.984892,1066,4.14203,19,1,1
app_59,1448.78,22439.9,7974,22.0373,4.45164,2.16105e+10,1.00055,0.984892,1709,4.32211,12,1,1
app_6,2.01061,21024.4,7535.8,139.103,1509.93,3.4731e+10,1.05673,0.984892,5,0.0230159,3976,1,1
app_60,78.9262,20153.7,7926.2,36.1626,91.6641,3.10446e+10,1.00537,0.984892,86,0.337441,230,1,1
app_7,6.5774,19686.8,7800.7,55.2752,600.551,1.38889e+10,1.02373,0.984892,13,0.0231482,1480,1,1
app_8,8.50931,19918.6,7833.8,50.2184,522.22,1.97381e+10,1.01865,0.984892,15,0.0377402,1296,1,1
app_9,6.72372,19176,7772.6,61.7899,707.838,9.93616e+09,1.02794,0.984892,11,0.0140341,1696,1,1
