app_id,start_app,end_app,effective_cpu,effective_io,effective_iter,total_bytes,stretch,utilization,Tcomp,Tio,iterations,priority,group_id
app_1,2.07016,14265.4,7618.3,359.81,3808.99,2.99683e+09,1.04969,0.990532,2,0.000786775,6789,1,0
app_10,7.8572,19561.8,7934.7,61.2131,315.828,3.61235e+10,1.00366,0.990532,25,0.114678,773,0.1,1
app_11,3.10281,20012.8,7895.5,90.4899,879.196,5.25089e+10,1.00654,0.990532,9,0.0597371,2196,0.1,1
app_12,20.9263,19730.4,7929.4,65.9355,331.598,4.67522e+10,1.00299,0.990532,24,0.14082,813,0.1,1
app_13,4.18742,18018.2,7828.2,149.713,1566.84,4.31547e+10,1.01634,0.990532,5,0.0275397,3530,0.1,1
app_14,3.1218,17795.4,7860.16,122.911,1307.27,2.87999e+10,1.01408,0.990532,6,0.0220351,2909,0.1,1
app_15,2.24208,19221.3,7827.5,145.702,1565.09,3.32194e+10,1.01772,0.990532,5,0.0212264,3763,0.1,1
app_16,2.7703,19326.7,7881.2,101.613,1127.99,5.2437e+09,1.0144,0.990532,7,0.00464867,2721,0.1,1
app_17,0.319864,14028.5,7270.1,699.261,7257.86,4.4282e+10,1.09374,0.990532,1,0.00610197,12731,1,0
app_18,16.5182,19831.3,7943.9,49.9384,465.545,4.03637e+10,1.00197,0.990532,17,0.0868037,1155,0.1,1
app_19,4.77717,18874,7825.83,149.835,1564.5,4.30947e+10,1.01666,0.990532,5,0.0275413,3689,0.1,1
app_2,2.71559,20572.1,7742.1,239.257,2577.44,1.83109e+09,1.03307,0.990532,3,0.000710551,6635,1,0
app_20,4.13946,19774.8,7830,148.447,1563.76,3.5785e+10,1.01706,0.990532,5,0.0228804,3867,0.1,1
app_21,16.5269,19925.4,7951.9,47.6607,82.9097,3.94866e+10,1.00108,0.990532,95,0.475742,208,0.01,2
app_22,13.7337,19899.8,7982.4,14.317,145.057,3.02255e+09,1.00183,0.990532,55,0.0208452,361,0.01,2
app_23,5.8696,19915.3,7909.1,85.2296,442.771,4.94781e+10,1.0052,0.990532,18,0.111689,1098,0.1,1
app_24,19.9567,20156,7951.5,45.3043,64.5545,3.83197e+10,1.00127,0.990532,123,0.589534,162,0.01,2
app_25,93.1294,20148.5,7986.4,12.912,60.8029,7.88493e+09,1.00071,0.990532,131,0.129261,152,0.01,2
app_26,95.5185,20059.7,7971.7,27.3552,60.4582,2.23902e+10,1.00074,0.990532,132,0.37317,151,0.01,2
app_27,10.2436,19941.6,7973.4,26.6,48.5004,2.10794e+10,1.00069,0.990532,166,0.430192,120,0.01,2
app_28,110.532,20133.3,7974.4,25.5815,32.2926,2.18057e+10,1.00047,0.990532,252,0.681428,80,0.01,2
app_29,31.0333,19828.2,7973.1,24.2502,117.91,1.55859e+10,1.00142,0.990532,68,0.132084,291,0.01,2
app_3,1.10847,18403.6,7834.9,142.952,1565.36,1.72457e+10,1.01883,0.990532,5,0.0110196,3604,0.1,1
app_30,42.8262,20023.1,7951.8,46.0914,60.6189,3.91406e+10,1.00113,0.990532,131,0.641648,151,0.01,2
app_31,43.5753,20058,7957.4,41.6051,52.7377,3.48987e+10,1.00096,0.990532,152,0.658466,131,0.01,2
app_32,179.241,20254.9,7981.4,18.2303,42.6676,1.40204e+10,1.00057,0.990532,189,0.326056,106,0.01,2
app_33,14.1478,20132.8,7941.8,49.797,495.73,2.66549e+10,1.00396,0.990532,16,0.0538482,1245,0.1,1
app_34,19.2522,20091.1,7973.4,25.4513,103.161,1.96859e+10,1.00087,0.990532,78,0.191126,256,0.01,2
app_35,39.8026,19531.1,7979.2,17.8436,178.662,3.57646e+09,1.00216,0.990532,45,0.0199802,435,0.01,2
app_36,24.5919,19910.9,7982.7,16.5138,69.8475,1.23009e+10,1.00063,0.990532,114,0.175727,174,0.01,2
app_37,77.1586,20218.5,7980.9,17.0322,55.3345,1.19903e+10,1.00089,0.990532,145,0.218005,138,0.01,2
app_38,10.2464,19842.3,7936.3,60.1979,188.363,4.74398e+10,1.00204,0.990532,42,0.251004,467,0.01,2
app_39,43.6889,20056.7,7941.1,56.659,118.443,4.53015e+10,1.0017,0.990532,67,0.380685,296,0.01,2
app_4,6.48752,18619.1,7912.6,75.6122,720.48,5.06392e+10,1.00462,0.990532,11,0.0702347,1675,0.1,1
app_40,31.0035,20115.4,7959.3,40.3393,63.1038,3.2699e+10,1.001,0.990532,126,0.519031,158,0.01,2
app_41,906.386,22585,7964.9,35.1,4.00055,3.07178e+10,1.00055,0.990532,1981,7.67944,11,0.001,3
app_42,255.365,20576.5,7966.5,33.5,5.22424,2.8972e+10,1.00057,0.990532,1587,5.7944,13,0.001,3
app_43,47.3375,20263.9,7998.6,1.4,6.78107,7.49613e+08,1.00008,0.990532,1202,0.107088,17,0.001,3
app_44,247.524,21125,7982.7,15.5205,10.0735,1.24137e+10,1.00061,0.990532,790,1.24137,26,0.001,3
app_45,428.077,20782.2,7970.4,29.6,12.9198,2.48421e+10,1.0006,0.990532,611,1.91093,33,0.001,3
app_46,857.834,22755.2,7975.1,24.9,5.63698,2.06962e+10,1.00053,0.990532,1419,3.44936,15,0.001,3
app_47,736.116,23322.5,7963.7,36.3,3.59813,3.10853e+10,1.00065,0.990532,2180,10.3618,10,0.001,3
app_48,211.401,20674.2,7999.3,0.7,6.91184,1.19379e+08,1.00007,0.990532,1112,0.0170541,18,0.001,3
app_49,1508.36,23891.9,7955.6,44.4,4.09029,3.87139e+10,1.00071,0.990532,1941,9.67846,11,0.001,3
app_5,8.2461,18889.8,7933.7,58.882,610.967,1.78697e+10,1.00609,0.990532,13,0.0292466,1441,0.1,1
app_50,336.591,20593.2,7986.1,12.1381,18.168,1.00658e+10,1.00048,0.990532,443,0.52978,46,0.001,3
app_51,169.815,20335.3,7930.2,61.4466,12.8599,5.04569e+10,1.00242,0.990532,624,3.8813,32,0.001,3
app_52,671.975,21123.7,7981.5,15.5794,7.19253,1.39296e+10,1.00057,0.990532,1064,1.98994,19,0.001,3
app_53,229.631,20563.2,7952.7,47.3,13.7519,3.72699e+10,1.00126,0.990532,585,2.66214,35,0.001,3
app_54,367.446,20810.2,7932.4,60.5251,18.9955,5.10804e+10,1.00207,0.990532,408,2.68844,49,0.001,3
app_55,1521.76,21384.1,7987.7,12.3,5.24625,1.03172e+10,1.00025,0.990532,1550,2.06343,13,0.001,3
app_56,777.131,22330.5,7989.2,10.8,2.82365,9.33624e+09,1.00018,0.990532,2639,4.66812,8,0.001,3
app_57,596.617,21152.4,7928.8,67.9739,5.42104,5.89772e+10,1.00153,0.990532,1440,9.82953,14,0.001,3
app_58,213.439,20754.7,7953.1,44.6335,8.26313,3.68273e+10,1.00126,0.990532,970,4.09192,21,0.001,3
app_59,134.206,20269.4,7983.4,16.6,13.6649,1.2865e+10,1.00047,0.990532,582,0.918929,35,0.001,3
app_6,3.97436,18626.1,7897.2,90.0683,877.33,5.57564e+10,1.00592,0.990532,9,0.0635039,2043,0.1,1
app_60,1156.34,22634.2,7990.9,7.20417,5.96094,6.05337e+09,1.00038,0.990532,1324,1.0089,16,0.001,3
app_7,1.22567,19229.4,7940.5,52.733,496.9,3.9267e+10,1.00254,0.990532,16,0.0790081,1193,0.1,1
app_8,2.41234,19704,7945.4,48.299,495.797,1.93018e+10,1.00443,0.990532,16,0.0389149,1223,0.1,1
app_9,1.24575,19318.1,7952.3,42.8567,396.71,3.44714e+10,1.00166,0.990532,20,0.0868298,958,0.1,1
