app_id,start_app,end_app,effective_cpu,effective_io,effective_iter,total_bytes,stretch,utilization,Tcomp,Tio,iterations,priority,group_id
app_1,5.04996,18956.6,7561.8,127.775,1510.5,2.31246e+10,1.05472,0.979419,5,0.0153143,3583,1,1
app_10,9.99063,19279.7,7752,82.188,773.992,4.74178e+10,1.02572,0.979419,10,0.0612633,1864,1,1
app_11,3.48352,19379.3,7761.5,107.045,595.577,6.23241e+10,1.02252,0.979419,13,0.104746,1447,1,1
app_12,9.14674,20042.7,7724.7,62.8793,772.704,5.99024e+09,1.03484,0.979419,10,0.00775938,1941,1,1
app_13,5.59456,20308.9,7840.9,47.9824,490.437,2.07128e+10,1.0176,0.979419,16,0.042185,1244,1,1
app_14,3.49304,19320.2,7471.4,159.52,1872.18,3.29573e+10,1.06605,0.979419,4,0.0176054,4517,1,1
app_15,0.297194,20333.1,7562.9,126.578,1512.76,1.94558e+10,1.05508,0.979419,5,0.0128591,3846,1,1
app_16,9.75251,19374.4,7792,94.255,483.699,6.549e+10,1.01814,0.979419,16,0.13531,1175,1,1
app_17,0.0678534,20110.4,7651,85.4449,1094.94,9.28894e+08,1.04549,0.979419,7,0.000848305,2760,1,1
app_18,5.80104,19210.4,7758,76.3508,645.529,5.95596e+10,1.02334,0.979419,12,0.0921975,1552,1,1
app_19,0.341299,14409.3,6698.1,579.698,6698.39,8.77044e+10,1.17893,0.979419,1,0.0130941,12085,1,1
app_2,1.17278,19826.9,7749.2,67.3673,647.415,3.62481e+10,1.02756,0.979419,12,0.0560249,1604,1,1
app_20,5.28032,19722.1,7559.45,126.746,1257.77,6.16785e+10,1.04971,0.979419,6,0.0490473,3113,1,1
app_21,51.0137,20059.1,7910.5,67.2017,84.2273,6.20905e+10,1.00344,0.979419,94,0.730477,210,1,1
app_22,71.0053,20117.7,7945.2,38.6774,64.621,3.50362e+10,1.00248,0.979419,123,0.539018,161,1,1
app_23,26.0924,20093.9,7933,52.8023,53.6202,4.96121e+10,1.00218,0.979419,147,0.936077,135,1,1
app_24,2.63473,20060.9,7936,55.7523,61.0246,5.28055e+10,1.0014,0.979419,129,0.865664,154,1,1
app_25,65.0181,20223,7986.1,3.8702,48.2754,5.38131e+08,1.00167,0.979419,167,0.0112111,120,1,1
app_26,2.89987,19999.2,7972.1,18.812,49.2157,1.54812e+10,1.00155,0.979419,161,0.315943,124,1,1
app_27,7.54347,19826.1,7835,47.1135,488.388,1.9194e+10,1.01856,0.979419,16,0.0392515,1210,1,1
app_28,150.651,20221.1,7992.9,4.53397,35.584,3.45746e+09,1.00046,0.979419,224,0.0960406,89,1,1
app_29,47.1028,20236.4,7966.3,22.2906,73.5687,1.83879e+10,1.00192,0.979419,107,0.248485,187,1,1
app_3,1.28152,20020,7497,148.446,1875.36,8.79532e+09,1.06584,0.979419,4,0.00469083,4694,1,1
app_30,2.49801,19479.2,7765.2,64.7379,707.111,2.25766e+10,1.02725,0.979419,11,0.0319329,1724,1,1
app_31,26.5183,19849.2,7942.8,13.7924,168.899,1.6836e+09,1.00699,0.979419,47,0.00996211,419,1,1
app_32,78.1658,20009.3,7951.2,17.0314,96.1861,1.11128e+10,1.00473,0.979419,82,0.115758,241,1,1
app_33,15.0278,19726.1,7855.4,60.5158,313.596,4.0355e+10,1.0132,0.979419,25,0.128519,774,1,1
app_34,78.2728,20183.5,7960.2,25.1978,49.8329,2.26596e+10,1.00215,0.979419,160,0.453191,125,1,1
app_35,50.4355,19916.6,7884,65.7767,135.573,5.74187e+10,1.00738,0.979419,58,0.425323,337,1,1
app_36,19.4793,20059.4,7938.3,17.3976,83.3758,1.39036e+10,1.00601,0.979419,95,0.167513,210,1,1
app_37,73.1438,20058.2,7969,16.6054,82.7481,1.24334e+10,1.00233,0.979419,96,0.1498,207,1,1
app_38,52.5688,20079.6,7950.6,39.9332,57.6318,3.56192e+10,1.00173,0.979419,137,0.614124,145,1,1
app_39,135.484,20286.4,7924.2,61.9735,44.6102,5.86575e+10,1.00215,0.979419,177,1.3035,113,1,1
app_4,1.85203,20209.1,7776.8,58.963,597.189,2.80097e+10,1.02501,0.979419,13,0.0469174,1514,1,1
app_40,26.3934,20090.7,7925.9,20.4431,176.289,1.39326e+10,1.00758,0.979419,45,0.0791628,443,1,1
app_41,902.54,21185.5,7996.6,2.0421,6.39725,1.62161e+09,1.00022,0.979419,1257,0.231659,16,1,1
app_42,167.393,21241.3,7957,34.9282,6.07248,3.45465e+10,1.00106,0.979419,1310,5.75774,16,1,1
app_43,356.371,20451.8,7991.9,5.07348,10.6046,4.64236e+09,1.00043,0.979419,770,0.464236,26,1,1
app_44,830.606,21415.7,7954.3,45.6074,8.50106,4.53741e+10,1.00004,0.979419,930,5.67176,22,1,1
app_45,124.539,20249.6,7941.2,51.7791,20.6323,5.00061e+10,1.0011,0.979419,386,2.50031,52,1,1
app_46,941.164,21463.1,7995.3,3.96041,6.27787,3.56928e+09,1.00014,0.979419,1305,0.509898,16,1,1
app_47,287.394,21264.5,7988.2,2.73788,6.76501,2.42082e+09,1.00117,0.979419,1155,0.345831,18,1,1
app_48,2.79507,19898.9,7735.4,71.2079,862.013,1.01711e+10,1.03285,0.979419,9,0.0117994,2143,1,1
app_49,222.524,20780.9,7954.2,41.3623,21.8467,3.98957e+10,1.00074,0.979419,361,1.81344,56,1,1
app_5,1.48147,18312.8,7485.1,148.241,1873.65,7.50975e+09,1.06772,0.979419,4,0.00400734,4288,1,1
app_50,289.834,20484.2,7973.5,26.3768,8.71618,2.58094e+10,1.00009,0.979419,931,3.22617,22,1,1
app_51,271.23,21324.3,7983.2,16.7562,6.41612,1.61157e+10,1.00009,0.979419,1215,2.30225,17,1,1
app_52,16.7102,19927.8,7958.4,36.6404,6.70325,3.6128e+10,1.00068,0.979419,1182,6.02133,17,1,1
app_53,923.574,20926.8,7998.6,1.28717,5.43591,1.12957e+09,1.00003,0.979419,1436,0.188261,14,1,1
app_54,350.316,20531.5,7996.4,1.04621,9.86526,5.0359e+08,1.00039,0.979419,819,0.050359,25,1,1
app_55,29.3564,20242.8,7995.4,1.80595,6.32037,1.53071e+09,1.00038,0.979419,1284,0.255118,16,1,1
app_56,968.551,21016.5,7996.6,1.69372,7.65035,1.52895e+09,1.00023,0.979419,1074,0.191118,19,1,1
app_57,574.159,21094.8,7948.1,48.9458,7.77115,4.85812e+10,1.00042,0.979419,1025,6.07265,20,1,1
app_58,1453.49,21504.9,7997.6,2.03473,4.662,1.73723e+09,1.00008,0.979419,1685,0.347446,12,1,1
app_59,174.35,20468.1,7938.4,60.7888,7.4081,6.04057e+10,1.00015,0.979419,1059,8.62939,19,1,1
app_6,5.23578,18932.9,7768.2,71.3114,648.116,4.60322e+10,1.02377,0.979419,12,0.0710374,1537,1,1
app_60,186.657,20428.3,7988.7,10.4607,17.1166,9.97937e+09,1.00017,0.979419,460,0.587022,44,1,1
app_7,6.63888,19403,7734.9,70.4551,772.653,2.37605e+10,1.03111,0.979419,10,0.0307778,1883,1,1
app_8,7.79459,20269.2,7769.3,66.8114,646.26,3.86776e+10,1.02459,0.979419,12,0.0598725,1644,1,1
app_9,1.09085,20374.4,7374.2,193.833,2458.73,7.58702e+09,1.08375,0.979419,3,0.00308666,6272,1,1
