app_id,start_app,end_app,effective_cpu,effective_io,effective_iter,total_bytes,stretch,utilization,Tcomp,Tio,iterations,priority,group_id
app_1,5.85868,19693,7819.8,40.2572,488.757,9.2043e+08,1.02292,0.983849,16,0.00188227,1208,1,1
app_10,1.99369,19874,7822.5,66.4488,341.428,4.39423e+10,1.01698,0.983849,23,0.128863,846,1,1
app_11,12.0519,20066.1,7794.2,55.4032,557.353,2.44031e+10,1.0232,0.983849,14,0.0438116,1398,1,1
app_12,3.26033,19760.6,7835.4,70.6021,356.265,4.93865e+10,1.01461,0.983849,22,0.138726,881,1,1
app_13,0.841183,19030.8,7659.8,82.3354,959.279,7.90355e+09,1.04334,0.983849,8,0.00824145,2288,1,1
app_14,2.52355,20334.3,7602.6,105.49,1087.17,4.34365e+10,1.04629,0.983849,7,0.03996,2781,1,1
app_15,5.7876,20144,7760.4,54.7149,646.342,4.02356e+09,1.03034,0.983849,12,0.00622842,1633,1,1
app_16,7.79553,19230,7798,49.7335,518.792,1.89887e+10,1.02341,0.983849,15,0.0365871,1251,1,1
app_17,8.36717,18966.6,7694.6,79.304,857.17,2.50762e+10,1.03631,0.983849,9,0.0292264,2033,1,1
app_18,0.221263,19299.2,7752.5,68.5553,644.734,4.29782e+10,1.02624,0.983849,12,0.0666329,1561,1,1
app_19,13.3956,19805.2,7831.8,48.4267,435.477,3.55672e+10,1.01686,0.983849,18,0.0817637,1079,1,1
app_2,1.01809,19549.4,7618.4,103.745,1090.05,3.84059e+10,1.04482,0.983849,7,0.0352348,2674,1,1
app_20,6.01649,19873.1,7659.2,89.0636,958.132,2.89002e+10,1.04057,0.983849,8,0.0301672,2386,1,1
app_21,4.667,20089.7,7954.9,32.1491,79.7807,2.82657e+10,1.00211,0.983849,99,0.353321,201,1,1
app_22,37.222,20047.6,7947.6,42.3619,69.4895,4.10816e+10,1.00142,0.983849,115,0.595386,172,1,1
app_23,74.204,19945.4,7960.8,14.8804,69.6478,1.31335e+10,1.00327,0.983849,115,0.187622,173,1,1
app_24,22.0278,19935.8,7911.8,55.24,77.4567,5.23701e+10,1.0045,0.983849,101,0.671412,195,1,1
app_25,29.1691,20136.7,7963.3,27.0381,40.521,2.40024e+10,1.00159,0.983849,195,0.600061,102,1,1
app_26,92.2745,20282.2,7927,49.287,60.6994,4.78632e+10,1.00315,0.983849,129,0.784643,154,1,1
app_27,11.9385,19970.1,7959.7,14.3606,72.4581,1.02775e+10,1.00377,0.983849,110,0.142743,181,1,1
app_28,72.0981,20257.1,7946.3,29.1411,49.1196,2.6522e+10,1.00341,0.983849,161,0.541265,124,1,1
app_29,36.4044,19985.1,7913.4,58.395,119.699,5.09917e+10,1.00447,0.983849,66,0.428502,299,1,1
app_3,4.58162,17864,7535,130.403,1508.49,9.33729e+09,1.0604,0.983849,5,0.00619183,3381,1,1
app_30,59.9245,20030.4,7928.8,55.632,95.1013,4.78353e+10,1.00293,0.983849,83,0.50353,238,1,1
app_31,59.9502,19921.7,7928.8,35.6759,119.319,2.99326e+10,1.00519,0.983849,67,0.251534,294,1,1
app_32,80.5707,20139.7,7944.8,15.7061,79.1315,1.18181e+10,1.00545,0.983849,100,0.149597,199,1,1
app_33,65.0068,20123.3,7921.3,39.1951,100.666,3.22298e+10,1.00584,0.983849,79,0.319107,252,1,1
app_34,11.4931,20144.9,7930.4,32.5936,83.3232,2.79558e+10,1.00523,0.983849,95,0.336817,210,1,1
app_35,17.784,20242.9,7966.6,5.61181,65.6757,6.17481e+08,1.00411,0.983849,120,0.00935578,167,1,1
app_36,2.41854,19675.8,7741.4,59.0526,702.677,2.55142e+09,1.03306,0.983849,11,0.00362933,1734,1,1
app_37,7.11074,18885.3,7668.1,79.8566,957.371,1.12935e+09,1.04313,0.983849,8,0.00118009,2272,1,1
app_38,86.687,20218.5,7940.5,41.8028,61.2336,3.70695e+10,1.00281,0.983849,131,0.607696,152,1,1
app_39,15.886,20033.7,7931.7,55.2328,92.4171,5.13113e+10,1.00213,0.983849,85,0.557731,232,1,1
app_4,7.53597,19503.8,7828.8,82.0628,432.594,5.20411e+10,1.01512,0.983849,18,0.120465,1057,1,1
app_40,39.7473,20088,7984.5,4.95532,48.4479,2.37678e+09,1.00164,0.983849,164,0.0485058,122,1,1
app_41,211.657,20358.5,7973,24.3497,11.6717,2.39492e+10,1.00038,0.983849,693,2.1772,29,1,1
app_42,11.4972,20185.5,7962.8,28.7559,19.187,2.79261e+10,1.00116,0.983849,419,1.46979,48,1,1
app_43,368.988,20581,7980.6,19.2943,7.17282,1.91405e+10,1.00003,0.983849,1128,2.39257,18,1,1
app_44,625.553,20990.5,7950,49.5435,5.11097,4.93263e+10,1.00008,0.983849,1532,9.86526,13,1,1
app_45,1839.75,23665.7,7981.7,16.0353,3.98687,1.58716e+10,1.0003,0.983849,1977,3.96791,11,1,1
app_46,537.3,21257.8,7954.2,41.3795,8.83274,4.05901e+10,1.00065,0.983849,884,4.51001,23,1,1
app_47,1025.2,22989.8,7993.9,6.04495,3.6038,5.88871e+09,1.00003,0.983849,2174,1.9629,10,1,1
app_48,1599.97,22410.9,7969.1,30.7234,3.35842,3.04956e+10,1.00005,0.983849,2313,7.62389,9,1,1
app_49,120.181,20144.5,7982.6,15.1115,36.4148,1.36584e+10,1.00047,0.983849,219,0.369145,91,1,1
app_5,1.90584,17472.9,7349.6,215.703,2449.17,3.16669e+10,1.08382,0.983849,3,0.0129305,5375,1,1
app_50,552.897,20601,7945.9,45.5797,7.28528,4.51007e+10,1.00113,0.983849,1118,5.63759,18,1,1
app_51,141.672,20492.3,7986.9,12.1469,10.4526,1.19379e+10,1.00015,0.983849,759,1.19379,27,1,1
app_52,432.892,21748.5,7979,20.3639,5.65442,1.99599e+10,1.00013,0.983849,1386,3.32665,15,1,1
app_53,227.989,20407.3,7941.6,55.4186,28.3905,5.39792e+10,1.00055,0.983849,272,1.86135,73,1,1
app_54,50.5849,20196.5,7992.6,6.03117,14.4532,5.37847e+09,1.00025,0.983849,568,0.358565,36,1,1
app_55,383.234,21133.5,7970.5,29.4447,6.58288,2.93942e+10,1.00001,0.983849,1213,4.19918,17,1,1
app_56,1352.76,22215.6,7943.5,55.1173,4.46365,5.48968e+10,1.0002,0.983849,1739,10.9794,12,1,1
app_57,413.623,21188.7,7973.9,25.0694,6.43588,2.47233e+10,1.00017,0.983849,1217,4.12054,17,1,1
app_58,27.8826,20302.2,7971.9,26.8092,17.1181,2.5518e+10,1.00032,0.983849,474,1.50106,43,1,1
app_59,1405.91,22182.7,7995.5,3.5474,4.68583,3.30209e+09,1.00015,0.983849,1697,0.660417,12,1,1
app_6,5.37907,19042.1,7688.8,77.7995,854.221,1.75615e+10,1.0381,0.983849,9,0.0205638,2041,1,1
app_60,294.004,20622.2,7966.5,32.8718,5.78909,3.25805e+10,1.00011,0.983849,1372,5.43008,15,1,1
app_7,7.69953,19724.9,7802.8,48.2815,436.073,3.34997e+10,1.02089,0.983849,18,0.0768342,1074,1,1
app_8,8.91152,20025.7,7758,58.9595,553.955,3.81731e+10,1.02614,0.983849,14,0.0689044,1391,1,1
app_9,11.8395,19931.9,7848,35.6031,412.574,5.3897e+09,1.01867,0.983849,19,0.0130501,1030,1,1
