app_id,Tcomp,Tio,iter,witer,alpha_io,compute_size,io_size,mu,desyn_time
1,9.327214755875547,0.010201957119970302,2142,9.337416712995518,0.0010925888212498373,9e9,10201957.119970303,10,4.074041966771362
2,9.279671111675318,0.04328348516218305,2146,9.322954596837501,0.004642678961116631,9e9,43283485.16218305,10,2.492035045641555
3,10.644618365935374,0.03655155239692057,1873,10.681169918332294,0.003422055137816546,10e9,36551552.39692057,10,1.6343342822160936
4,9.462340561268363,0.056137666655346606,2102,9.51847822792371,0.00589775648072182,9e9,56137666.65534661,10,2.9228603364631667
5,10.039772669672287,0.001101951316284894,1992,10.040874620988571,0.00010974654677805365,10e9,1101951.316284894,10,8.80417918952765
6,11.250303265854809,0.012009043788692383,1776,11.262312309643502,0.0010663035670223319,11e9,12009043.788692383,10,5.421642877074051
7,11.226607543533099,0.05089817327913356,1774,11.277505716812232,0.0045132473932827,11e9,50898173.27913356,10,8.013569297545082
8,7.127713434018189,0.03902259473843846,2791,7.1667360287566275,0.005444960520641441,7e9,39022594.73843846,10,4.293120805175027
9,9.78848792521616,0.023362422701864772,2039,9.811850347918025,0.00238104148284549,9e9,23362422.70186477,10,8.946922702037499
10,9.816029988209772,0.040424306256682495,2030,9.856454294466454,0.004101303069946486,9e9,40424306.25668249,10,9.481095408023625
11,9.612141450170263,0.056127524197426615,2069,9.66826897436769,0.0058053333379771204,9e9,56127524.19742662,10,4.174519028790379
12,9.417398753543223,0.0490668944765091,2113,9.466465648019732,0.0051832327186201,9e9,49066894.4765091,10,3.5591589942309914
13,11.346660335994159,0.04676422589005233,1756,11.393424561884212,0.004104492519878378,11e9,46764225.89005233,10,8.000754317481434
14,9.106740733179086,0.027040866086057172,2190,9.133781599265143,0.002960533464937758,9e9,27040866.08605717,10,3.6222819859347
15,10.993535520135183,0.03942111850417872,1813,11.03295663863936,0.003573033031428675,10e9,39421118.50417872,10,0.7939729562147789
16,10.790474314360125,0.01552795865548594,1851,10.806002273015611,0.0014369753275234672,10e9,15527958.65548594,10,6.801773405222848
17,9.938135333471926,0.030270943114825772,2007,9.968406276586752,0.0030366883406352037,9e9,30270943.11482577,10,6.521206208597891
18,9.415647385324492,0.031205707936972856,2118,9.446853093261465,0.003303291331928534,9e9,31205707.936972857,10,7.440921306309564
19,9.039234056874532,0.038062103440090846,2204,9.077296160314622,0.004193110235457119,9e9,38062103.44009084,10,5.855145611146019
20,10.729237021536248,0.023001668707067612,1861,10.752238690243315,0.0021392446140485652,10e9,23001668.707067613,10,10.152923140118629
21,95.87229915597847,0.13286180039054651,209,96.00516095636901,0.001383902688845317,95e9,132861800.39054652,100,28.159235535351556
22,103.38906903383011,0.14515858605578078,194,103.5342276198859,0.0014020347608011715,103e9,145158586.05578077,100,16.094077011826165
23,87.31746796882919,0.12221341016579713,229,87.43968137899499,0.0013976881918871629,87e9,122213410.16579713,100,73.23325656776494
24,112.37219698206313,0.3595762006640415,178,112.73177318272717,0.0031896615347405534,112e9,359576200.6640415,100,4.059805434573683
25,111.42864781765621,0.2897859533752569,180,111.71843377103147,0.002593895596219845,111e9,289785953.3752569,100,108.22223107467956
26,89.97303907179173,0.13311067009546743,222,90.1061497418872,0.001477265097629501,89e9,133110670.09546743,100,17.901342135844246
27,95.8337742445351,0.4778122887301312,208,96.31158653326524,0.004961109103577052,95e9,477812288.7301312,100,96.12441813355223
28,98.2408711116208,0.4897581054279903,203,98.7306292170488,0.00496054881156798,98e9,489758105.4279903,100,38.50518078103201
29,95.75547734352153,0.43131934642720077,208,96.18679668994874,0.004484184537484161,95e9,431319346.4272008,100,53.76270041923559
30,100.28346872320637,0.30227020913526376,199,100.58573893234163,0.0030051000504016175,100e9,302270209.13526374,100,67.74591588082183
31,94.81156407806814,0.2562911793932579,211,95.0678552574614,0.002695876315913237,94e9,256291179.39325792,100,50.66341809463332
32,87.40772783961806,0.5042640958107698,228,87.91199193542883,0.005736010352047884,87e9,504264095.8107698,100,17.129746414931
33,118.61443594232712,0.4243768070148779,169,119.038812749342,0.0035650288944705866,118e9,424376807.0148779,100,17.711113412330434
34,92.7758539980915,0.14811725381225388,216,92.92397125190377,0.0015939617282469442,92e9,148117253.8122539,100,82.72577644616054
35,94.7582815213262,0.38170120194482965,211,95.13998272327103,0.004011995703794325,94e9,381701201.94482964,100,74.2979355420759
36,105.32837768919642,0.1898719142024368,190,105.51824960339886,0.0017994225161627475,105e9,189871914.2024368,100,96.23910440646932
37,93.98491405193096,0.46501474618362054,212,94.44992879811458,0.0049233996478449775,93e9,465014746.1836205,100,59.886885152186565
38,107.21838085145328,0.4287074120783553,186,107.64708826353163,0.003982526782599391,107e9,428707412.07835525,100,4.662767611729951
39,80.83513124701942,0.3716317651163574,247,81.20676301213578,0.004576364718057038,80e9,371631765.11635745,100,17.653652403947472
40,111.78327699199933,0.6529382041665913,178,112.43621519616592,0.005807187684389936,111e9,652938204.1665913,100,50.54662569495859
41,1108.9953358800306,1.8138418826861324,19,1110.8091777627167,0.0016329014190712716,1108e9,1813841882.6861324,1000,529.8218779202358
42,1102.7720925769029,4.81852032973039,19,1107.5906129066332,0.004350452480890227,1102e9,4818520329.73039,1000,293.77829741256784
43,1038.8060146552677,3.7393697717540664,20,1042.5453844270219,0.0035867692933187812,1038e9,3739369771.7540665,1000,143.35322659814574
44,985.8984325935468,4.3485483754741665,21,990.2469809690209,0.004391377564432289,985e9,4348548375.474167,1000,941.0979467771659
45,1050.209657920067,0.7251672307402065,20,1050.9348251508072,0.0006900211253691649,1050e9,725167230.7402065,1000,242.85018129400143
46,1015.0921057073767,4.300858622576085,20,1019.3929643299529,0.0042190389506985065,1015e9,4300858622.576085,1000,483.8042399790099
47,976.6893415819912,5.334988496544412,21,982.0243300785356,0.005432643910276394,976e9,5334988496.544412,1000,685.5738220554257
48,964.1045315872034,5.409269166684378,21,969.5138007538877,0.005579362730554393,964e9,5409269166.684379,1000,931.419475949184
49,928.7110093513861,0.03565648399009806,22,928.7466658353762,3.839204521722429e-05,928e9,35656483.99009806,1000,348.9887832460554
50,1051.3851515715905,4.375778112521877,19,1055.7609296841124,0.004144667594235682,1051e9,4375778112.521876,1000,806.9854540250979
51,1042.8928818991694,3.3069360224649116,20,1046.1998179216343,0.003160902884722752,1042e9,3306936022.4649115,1000,867.7297580690841
52,938.3646177181774,2.4638941688455365,22,940.828511887023,0.0026188557614008692,938e9,2463894168.845536,1000,673.1154407174917
53,1058.1672326179798,0.889938400013309,19,1059.0571710179931,0.0008403119532799889,1058e9,889938400.013309,1000,287.0098246519998
54,1032.797198075904,5.786949978841746,20,1038.5841480547456,0.0055719606251266466,1032e9,5786949978.841746,1000,1022.8987915412771
55,1245.2433694874583,0.0037126848865263306,17,1245.2470821723448,2.9814845099251453e-06,1245e9,3712684.8865263304,1000,1077.429053470055
56,961.9396521074291,4.89357607445409,21,966.8332281818832,0.005061447964150336,961e9,4893576074.45409,1000,573.0426697717812
57,1158.2182598107195,3.265469288955253,18,1161.4837290996747,0.0028114636538959393,1158e9,3265469288.955253,1000,544.6146650972523
58,1063.8864288510035,3.7224646779638113,19,1067.6088935289674,0.00348673067499396,1063e9,3722464677.9638114,1000,386.57898462148904
59,986.2069569214231,3.8238480088044238,21,990.0308049302275,0.003862352554851977,986e9,3823848008.804424,1000,281.77516894056305
60,843.9739880952194,2.168310469345549,24,846.142298564565,0.0025625837084660243,843e9,2168310469.345549,1000,492.60260428502846
