app_id,Tcomp,Tio,iter,witer,alpha_io,compute_size,io_size,mu,desyn_time
1,12.38399646459581,0.026685277889146937,1612,12.410681742484957,0.0021501863026425344,12e9,26685277.889146935,10,3.939901170267419
2,8.064252961359504,0.0478481852201686,2466,8.112101146579672,0.005898371378214751,8e9,47848185.2201686,10,7.684102648517597
3,11.896666302785828,0.04566053154706226,1675,11.94232683433289,0.0038234200236249775,11e9,45660531.54706226,10,4.241273130452287
4,8.782036865107349,0.016004808044859126,2274,8.798041673152207,0.0018191330115767503,8e9,16004808.044859126,10,3.5111689979527934
5,11.223856701210824,0.06751387340816312,1772,11.291370574618988,0.005979245208719163,11e9,67513873.40816312,10,3.8933397301494406
6,9.903626321360493,0.039478328846954146,2012,9.943104650207447,0.003970422743778574,9e9,39478328.846954145,10,5.597080132191813
7,10.03158023268543,0.04316620320597104,1986,10.0747464358914,0.004284594503757528,10e9,43166203.20597104,10,5.198296043334983
8,11.404441126540075,0.012663127444444443,1752,11.417104253984519,0.0011091365343383868,11e9,12663127.444444442,10,11.220463677713445
9,11.208609284838175,0.03341640363249035,1780,11.242025688470665,0.0029724539472241883,11e9,33416403.632490348,10,7.381144664636786
10,10.539275566554881,0.055252029604602695,1888,10.594527596159484,0.005215148018929278,10e9,55252029.604602695,10,1.6430322572556346
11,9.055128611619269,0.018412628478774378,2205,9.073541240098043,0.0020292659714164062,9e9,18412628.47877438,10,6.592291758301881
12,7.7522980625327484,0.03510060280132314,2569,7.787398665334072,0.0045073591721424165,7e9,35100602.80132314,10,4.150143516916617
13,9.697440762959998,0.0592978117565387,2050,9.756738574716536,0.0060776263812379015,9e9,59297811.7565387,10,9.459976587309525
14,10.955962525119643,0.024726946316603646,1822,10.980689471436246,0.0022518573520292277,10e9,24726946.316603646,10,4.177508214867978
15,9.129680243117285,0.04181291773920724,2181,9.171493160856492,0.0045590087683500475,9e9,41812917.739207245,10,8.284429794503174
16,10.43054224902402,0.039489709958336734,1911,10.470031958982357,0.003771689533808736,10e9,39489709.95833673,10,9.28395997451586
17,9.029696635434162,0.008884450486477635,2213,9.03858108592064,0.0009829474783732267,9e9,8884450.486477634,10,6.196774536884069
18,10.027301747527346,0.010324733648020576,1993,10.037626481175367,0.0010286030933093248,10e9,10324733.648020575,10,2.2080422263921604
19,8.559728461085335,0.05230806969466491,2323,8.61203653078,0.006073832769718561,8e9,52308069.69466491,10,5.828646272223281
20,11.617343734076547,0.02264050678837844,1719,11.639984240864926,0.0019450633540287424,11e9,22640506.78837844,10,7.492826416966627
21,89.98057351365465,0.2936733773713745,222,90.27424689102602,0.0032531246450151,89e9,293673377.3713745,100,74.66820491878707
22,102.32896749027742,0.24968379200576335,195,102.57865128228319,0.0024340716989801887,102e9,249683792.00576335,100,57.45026279050751
23,77.65165170645136,0.03810203148561012,258,77.68975373793697,0.0004904383094601622,77e9,38102031.48561012,100,57.460419751873545
24,106.41227233637254,0.13078973016812856,188,106.54306206654067,0.0012275762272201715,106e9,130789730.16812856,100,94.14663873075442
25,89.81144463656045,0.5642504753724071,222,90.37569511193286,0.006243387391638504,89e9,564250475.3724071,100,76.26751023330328
26,102.26196227728167,0.5550073686083645,195,102.81696964589003,0.0053980132902171196,102e9,555007368.6083646,100,92.21912869831642
27,106.77384681371214,0.1228181786773986,188,106.89666499238953,0.0011489430347162149,106e9,122818178.67739859,100,55.77853358083662
28,99.20736570613285,0.3939229125868203,201,99.60128861871966,0.003954998153636177,99e9,393922912.58682024,100,10.966608092533448
29,93.67288502011732,0.3424240062076265,213,94.01530902632494,0.0036422153982575895,93e9,342424006.20762646,100,80.03483223588802
30,87.86739614568098,0.299023730687008,227,88.166419876368,0.0033915829984512945,87e9,299023730.687008,100,43.697062189466976
31,100.32409378219425,0.1668085681099267,200,100.49090235030418,0.0016599370112972398,100e9,166808568.1099267,100,41.490782538610105
32,95.50284730537764,0.3352978159725853,209,95.83814512135022,0.0034985841550671847,95e9,335297815.97258526,100,7.416946296919696
33,90.21106026809035,0.19836312661012065,222,90.40942339470047,0.0021940536634563706,90e9,198363126.61012065,100,36.57444542934962
34,79.36158184859669,0.074963366220725,252,79.43654521481741,0.000943688651338049,79e9,74963366.220725,100,26.813948541158194
35,85.70123084529341,0.061295464487785625,234,85.7625263097812,0.0007147115077555137,85e9,61295464.48778562,100,7.448810177266396
36,96.18539365572872,0.16944715697450943,208,96.35484081270323,0.0017585744062810994,96e9,169447156.97450945,100,23.06533767854953
37,98.29635242228542,0.013258233934676383,204,98.3096106562201,0.00013486203277764203,98e9,13258233.934676383,100,80.11440970013848
38,107.03670135942566,0.10723938507302809,187,107.14394074449869,0.0010008908047236848,107e9,107239385.07302809,100,43.34440627071829
39,104.77587118003962,0.208566802340012,191,104.98443798237963,0.0019866449385100046,104e9,208566802.34001198,100,67.23632577186724
40,101.12131442599431,0.3844489224205712,198,101.50576334841489,0.0037874590539353327,101e9,384448922.4205712,100,98.35947634335216
41,1223.6757632120139,3.998160570158568,17,1227.6739237821723,0.003256695847901683,1223e9,3998160570.158568,1000,1159.7548528019156
42,1047.7327212248433,4.907792899604283,19,1052.6405141244477,0.004662363678531247,1047e9,4907792899.604283,1000,951.9995797994028
43,1121.2979273802498,4.433463482178571,18,1125.7313908624283,0.0039382960430570145,1121e9,4433463482.178571,1000,1079.22346734183
44,1091.5550753618497,0.6477803105603975,19,1092.2028556724101,0.0005930952361057455,1091e9,647780310.5603975,1000,716.2627429861191
45,942.7889876966502,4.0868053732315275,22,946.8757930698818,0.004316094468928842,942e9,4086805373.2315273,1000,114.32446093380932
46,997.4465212995075,4.721750983030044,20,1002.1682722825375,0.004711535092081681,997e9,4721750983.030045,1000,457.3009834085038
47,1107.5467281190686,2.4109498581509383,19,1109.9576779772194,0.0021721097173224113,1107e9,2410949858.1509385,1000,838.9137614698448
48,1058.0849940141836,4.580827921404476,19,1062.6658219355882,0.004310694695215421,1058e9,4580827921.404475,1000,811.4429872653355
49,873.4308287181634,4.489683614247345,23,877.9205123324108,0.005113997851946073,873e9,4489683614.247345,1000,347.26545517128284
50,891.1592976317675,4.870173762504154,23,896.0294713942716,0.005435283010195963,891e9,4870173762.504154,1000,641.8176891272284
51,1053.3284934484643,5.495923691116274,19,1058.8244171395806,0.005190590245324658,1053e9,5495923691.116274,1000,763.5037263871129
52,1039.4731161193822,4.589384302004936,20,1044.062500421387,0.004395698820858564,1039e9,4589384302.004935,1000,87.36650767499889
53,1007.2339872414292,2.904178579265441,20,1010.1381658206947,0.0028750310378639326,1007e9,2904178579.265441,1000,60.530797396375405
54,1157.7802555048397,6.04070456050025,18,1163.82096006534,0.005190407088184001,1157e9,6040704560.50025,1000,901.8832442950525
55,1139.807519902645,4.836186637373076,18,1144.643706540018,0.0042250585136153,1139e9,4836186637.3730755,1000,1073.2545083781733
56,1016.5614164169489,4.776651881773506,20,1021.3380682987224,0.004676856792119908,1016e9,4776651881.773506,1000,875.9581118603322
57,1018.1670389160944,3.3861692686923326,20,1021.5532081847867,0.0033147262830384213,1018e9,3386169268.6923327,1000,400.88369454235317
58,960.1972102096225,1.1284933396909567,21,961.3257035493135,0.0011738928185571686,960e9,1128493339.6909566,1000,121.75049396832797
59,1067.5036800034063,5.858455541383712,19,1073.3621355447901,0.005458041929539675,1067e9,5858455541.383712,1000,262.80554468107516
60,877.2469073568419,5.008038955581812,23,882.2549463124237,0.005676407909656953,877e9,5008038955.581812,1000,271.78136988388394
