app_id,start_app,end_app,effective_cpu,effective_io,effective_iter,total_bytes,stretch,utilization,Tcomp,Tio,iterations,priority,group_id
app_1,6.41507,19867.3,7927.8,72.2,721.259,1.26619e+10,1.0075,0.993118,11,0.0175616,1803,1,1
app_10,3.28251,20040.2,7914,86,860.394,1.97744e+10,1.00835,0.993118,9,0.0229934,2178,1.00001,1.00001
app_11,8.34784,18632.2,7908.8,91.2,792.128,4.83217e+10,1.00539,0.993118,10,0.0610123,1839,1.00001,1.00001
app_12,4.03088,19199.2,7927.2,72.8,727.439,6.74192e+09,1.00833,0.993118,11,0.00926088,1752,1.00001,1.00001
app_13,6.0211,18673.9,7917.5,82.5,792.889,2.79664e+10,1.00686,0.993118,10,0.0352666,1855,1.00001,1.00001
app_14,4.39217,19325,7917.5,82.5,805.32,3.0543e+10,1.00654,0.993118,10,0.0379416,1932,1.00001,1.00001
app_15,1.3113,19107.5,7911,89,875.571,2.76682e+10,1.00773,0.993118,9,0.0315847,2108,1.00002,1.00002
app_16,8.42018,20071.8,7921.5,78.5,785.232,7.66128e+09,1.00893,0.993118,10,0.00975959,1979,1.00002,1.00002
app_17,3.41595,18727.8,7912.14,87.8581,878.571,2.69639e+09,1.01076,0.993118,9,0.00306903,2053,1.00002,1.00002
app_18,5.87922,19291.1,7928.4,71.6,714.206,2.10865e+10,1.00635,0.993118,11,0.0295329,1736,1.00002,1.00002
app_19,6.98406,19698.3,7912.5,87.5,874.993,1.3563e+09,1.01089,0.993118,9,0.00155006,2178,1.00002,1.00002
app_2,9.45365,19647.2,7921,79,789.801,4.8498e+09,1.00936,0.993118,10,0.00613899,1944,1,1
app_20,6.17365,19329.2,7912.7,87.3,873.74,1.57213e+10,1.00903,0.993118,9,0.0180083,2102,1.00002,1.00002
app_21,77.7353,20089.6,7946,54,82.7735,3.97267e+10,1.00179,0.993118,96,0.478635,207,1.00002,1.00002
app_22,58.3129,19978.3,7976.8,23.2,91.5102,1.70333e+10,1.00077,0.993118,89,0.187179,224,1.00002,1.00002
app_23,40.1774,19413.4,7951.4,48.6,82.7192,3.4788e+10,1.00173,0.993118,99,0.424245,201,1.00002,1.00002
app_24,43.2729,19993.6,7991.9,8.1,80.0843,2.81909e+09,1.00066,0.993118,98,0.0352387,204,1.00002,1.00002
app_25,10.2267,19934.8,7955.8,44.2,80.8182,3.22804e+10,1.00149,0.993118,99,0.398524,200,1.00003,1.00003
app_26,19.1605,20674.9,7989.8,10.2,77.9542,6.12856e+09,1.00051,0.993118,97,0.0785713,206,1.00003,1.00003
app_27,84.2663,20276,7971.4,28.6,83.9981,1.89564e+10,1.00121,0.993118,90,0.225672,220,1.00003,1.00003
app_28,78.2209,19661.4,7969.7,30.3,90.3534,1.85506e+10,1.00147,0.993118,87,0.206118,229,1.00003,1.00003
app_29,11.0941,20405.2,7977.9,22.1,100.387,1.05851e+10,1.00144,0.993118,80,0.104803,249,1.00003,1.00003
app_3,1.89485,19899.6,7905.8,94.2,883.57,4.20523e+10,1.00656,0.993118,9,0.0475704,2197,1,1
app_30,50.4289,19803.1,7940.8,59.2,102.48,4.22965e+10,1.00212,0.993118,76,0.414672,260,1.00003,1.00003
app_31,24.0115,19870.4,7931.3,68.7,81.8265,5.39311e+10,1.00185,0.993118,96,0.657696,206,1.00003,1.00003
app_32,85.7213,19835.1,7969.9,30.1,88.8748,2.14738e+10,1.00108,0.993118,89,0.244021,224,1.00003,1.00003
app_33,38.3292,19651.6,7949.2,50.8,83.4889,3.81132e+10,1.00159,0.993118,95,0.459195,208,1.00003,1.00003
app_34,93.3975,20588.9,7966.4,33.6,73.6052,2.29681e+10,1.00133,0.993118,106,0.314631,188,1.00003,1.00003
app_35,37.261,19934,7939,61,78.7538,4.37503e+10,1.00216,0.993118,100,0.553801,199,1.00004,1.00004
app_36,58.1523,20222.2,7967.4,32.6,72.4371,2.33421e+10,1.00116,0.993118,108,0.319754,184,1.00004,1.00004
app_37,53.8443,20231.1,7935.8,64.2,75.5261,4.97188e+10,1.00181,0.993118,102,0.662918,194,1.00004,1.00004
app_38,2.45671,20395.7,7963.6,36.4,78.0571,2.44791e+10,1.00149,0.993118,96,0.313834,208,1.00004,1.00004
app_39,81.5079,19698.8,7981.4,18.6,78.2295,1.19795e+10,1.00083,0.993118,101,0.153583,197,1.00004,1.00004
app_4,8.53316,19115.3,7911.9,88.1,881.084,1.44943e+09,1.01095,0.993118,9,0.00164521,2099,1,1
app_40,21.2485,20429.9,7991.5,8.5,85.1713,1.97083e+09,1.00082,0.993118,91,0.0231862,220,1.00004,1.00004
app_41,141.151,21662.7,7965.2,34.8,7.45635,2.77594e+10,1.00088,0.993118,1008,3.46992,20,1.00004,1.00004
app_42,61.4694,20668.7,7967.9,32.1,6.45557,2.7537e+10,1.00057,0.993118,1193,4.5895,17,1.00004,1.00004
app_43,515.407,20631.8,7920,80,6.96266,5.5582e+10,1.00306,0.993118,1209,7.94029,17,1.00004,1.00004
app_44,124.897,19253.3,7966.39,33.6147,8.7328,2.34751e+10,1.00127,0.993118,1011,2.9213,20,1.00004,1.00004
app_45,454.545,21848.6,7993,7,8.59938,5.81298e+09,1.00015,0.993118,905,0.726623,23,1.00004,1.00004
app_46,204.873,20760.4,7996.9,3.1,8.75433,2.11394e+09,1.00012,0.993118,953,0.234883,21,1.00005,1.00005
app_47,269.748,20090.4,7927.8,72.2,8.33083,6.38271e+10,1.00105,0.993118,1011,7.0919,20,1.00005,1.00005
app_48,475.123,20576.6,7929.4,70.6,9.39166,5.23518e+10,1.00229,0.993118,840,5.81686,24,1.00005,1.00005
app_49,292.938,19760.3,7982.2,17.8,7.4418,1.20902e+10,1.00071,0.993118,1060,1.51128,19,1.00005,1.00005
app_5,2.61539,18271.9,7895.5,104.5,983.933,4.69624e+10,1.00724,0.993118,8,0.047726,2257,1.00001,1.00001
app_50,70.2279,20433.8,7932.8,67.2,7.99422,5.40874e+10,1.00164,0.993118,983,6.76092,21,1.00005,1.00005
app_51,274.64,19234.3,7987.3,12.7,9.31075,9.97456e+09,1.00034,0.993118,908,1.10828,22,1.00005,1.00005
app_52,917.239,23025,7955.1,44.9,8.4165,3.7311e+10,1.00095,0.993118,977,4.66388,21,1.00005,1.00005
app_53,293.124,18962.4,7925.3,74.7,9.44689,4.89488e+10,1.00323,0.993118,940,5.43876,22,1.00005,1.00005
app_54,264.033,21140.3,7940.4,59.6,8.79214,4.99889e+10,1.0012,0.993118,866,6.24861,23,1.00005,1.00005
app_55,351.281,23974.2,7988,12,7.58458,1.07611e+10,1.00015,0.993118,818,1.5373,25,1.00005,1.00005
app_56,214.761,22579.1,7906.1,93.9,7.37602,6.29599e+10,1.00388,0.993118,1120,7.86999,18,1.00006,1.00006
app_57,399.409,21030.2,7981.4,18.6,7.44546,1.61428e+10,1.00031,0.993118,1076,2.30612,19,1.00006,1.00006
app_58,678.018,22089.6,7959.8,40.2,8.71805,3.06967e+10,1.00119,0.993118,798,3.41074,25,1.00006,1.00006
app_59,82.6877,21556.5,7935.5,64.5,6.41739,5.42239e+10,1.00129,0.993118,1124,7.74627,18,1.00006,1.00006
app_6,1.41915,20034.5,7933.8,66.2,654.955,2.03786e+10,1.00576,0.993118,12,0.0311124,1645,1.00001,1.00001
app_60,185.796,21578.5,7981.7,18.3,8.99303,1.40463e+10,1.00053,0.993118,889,1.5607,23,1.00006,1.00006
app_7,8.148,18881.3,7905.93,94.0749,878.206,4.32154e+10,1.0064,0.993118,9,0.0491783,2066,1.00001,1.00001
app_8,9.39901,18908.7,7921.1,78.9,788.268,1.65404e+10,1.00786,0.993118,10,0.0209903,1865,1.00001,1.00001
app_9,1.72466,18024.2,7881.6,118.4,1140.48,4.32731e+10,1.00948,0.993118,7,0.0379256,2559,1.00001,1.00001
