app_id,start_app,end_app,effective_cpu,effective_io,effective_iter,total_bytes,stretch,utilization,Tcomp,Tio,iterations,priority,group_id
app_1,4.07404,19623.4,7912.1,87.9,879.249,8.96752e+09,1.00996,0.993462,9,0.010202,2142,1,1
app_10,9.4811,18465.8,7907.9,92.1,886.987,3.58564e+10,1.00708,0.993462,9,0.0404243,2030,1.00001,1.00001
app_11,4.17452,18913.2,7899,101,876.78,4.91677e+10,1.00652,0.993462,9,0.0561275,2069,1.00001,1.00001
app_12,3.55916,19180,7904.9,95.1,887.796,4.35714e+10,1.00648,0.993462,9,0.0490669,2113,1.00001,1.00001
app_13,8.00075,19476.7,7923.7,76.3,720.512,3.36702e+10,1.00536,0.993462,11,0.0467642,1756,1.00001,1.00001
app_14,3.62228,19934.5,7912.5,87.5,870.457,2.35526e+10,1.00806,0.993462,9,0.0270409,2190,1.00001,1.00001
app_15,0.793973,18475.5,7918.6,81.4,788.059,3.11033e+10,1.00633,0.993462,10,0.0394211,1813,1.00002,1.00002
app_16,6.80177,18452.2,7919.3,80.7,806.181,1.25311e+10,1.00859,0.993462,10,0.015528,1851,1.00002,1.00002
app_17,6.52121,18261.2,7911.9,88.1,873.443,2.64568e+10,1.00777,0.993462,9,0.0302709,2007,1.00002,1.00002
app_18,7.44092,19238,7911.8,88.2,875.833,2.73362e+10,1.00767,0.993462,9,0.0312057,2118,1.00002,1.00002
app_19,5.85515,20176.3,7909.8,90.2,872.832,3.31902e+10,1.00718,0.993462,9,0.0380621,2204,1.00002,1.00002
app_2,2.49204,19515.3,7909.8,90.2,871.614,3.77432e+10,1.0066,0.993462,9,0.0432835,2146,1,1
app_20,10.1529,18798.7,7920.5,79.5,795.011,1.82863e+10,1.00771,0.993462,10,0.0230017,1861,1.00002,1.00002
app_21,28.1592,19776.3,7981.1,18.9,85.4373,1.14261e+10,1.00094,0.993462,95,0.132862,209,1.00002,1.00002
app_22,16.0941,20432.6,7982.8,17.2,75.0025,1.08869e+10,1.00079,0.993462,103,0.145159,194,1.00002,1.00002
app_23,73.2333,19704.6,7980.8,19.2,91.0619,1.11214e+10,1.00101,0.993462,87,0.122213,229,1.00002,1.00002
app_24,4.05981,19965.7,7963.4,36.6,72.4397,2.58895e+10,1.00134,0.993462,112,0.359576,178,1.00002,1.00002
app_25,108.222,20609,7969.7,30.3,71.9647,2.08646e+10,1.00118,0.993462,111,0.289786,180,1.00003,1.00003
app_26,17.9013,19274.7,7979.3,20.7,94.0555,1.25124e+10,1.00102,0.993462,89,0.133111,222,1.00003,1.00003
app_27,96.1244,20157.9,7945.2,54.8,82.411,3.96584e+10,1.0019,0.993462,95,0.477812,208,1.00003,1.00003
app_28,38.5052,20206.7,7948.7,51.3,78.5086,3.86909e+10,1.00158,0.993462,98,0.489758,203,1.00003,1.00003
app_29,53.7627,19372.6,7947.9,52.1,86.6795,3.75248e+10,1.00183,0.993462,95,0.431319,208,1.00003,1.00003
app_3,1.63433,18831.8,7919.1,80.9,789.156,2.88392e+10,1.00655,0.993462,10,0.0365516,1873,1,1
app_30,67.7459,19186.7,7961.1,38.9,82.6838,2.50884e+10,1.00173,0.993462,100,0.30227,199,1.00003,1.00003
app_31,50.6634,20710.2,7969.8,30.2,79.4617,2.0247e+10,1.00125,0.993462,94,0.256291,211,1.00003,1.00003
app_32,17.1297,19632.7,7935.2,64.8,92.7848,4.68966e+10,1.00224,0.993462,87,0.504264,228,1.00003,1.00003
app_33,17.7111,20485.2,7961,39,64.7149,2.75845e+10,1.00143,0.993462,118,0.424377,169,1.00003,1.00003
app_34,82.7258,20408.1,7981.1,18.9,81.1454,1.19975e+10,1.00086,0.993462,92,0.148117,216,1.00003,1.00003
app_35,74.2979,20225,7959,41,82.5229,3.12995e+10,1.00121,0.993462,94,0.381701,211,1.00004,1.00004
app_36,96.2391,19875.4,7981.6,18.4,74.6813,1.40505e+10,1.00054,0.993462,105,0.189872,190,1.00004,1.00004
app_37,59.8869,20362.5,7947,53,85.423,3.95263e+10,1.00169,0.993462,93,0.465015,212,1.00004,1.00004
app_38,4.66277,20245.8,7957.3,42.7,74.1231,3.17243e+10,1.00137,0.993462,107,0.428707,186,1.00004,1.00004
app_39,17.6537,19752.5,7950.4,49.6,96.6152,3.56766e+10,1.00174,0.993462,80,0.371632,247,1.00004,1.00004
app_4,2.92286,18987.2,7897,103,892.603,5.00748e+10,1.00666,0.993462,9,0.0561377,2102,1,1
app_40,50.5466,20227.3,7943.8,56.2,70.0204,4.57057e+10,1.00131,0.993462,111,0.652938,178,1.00004,1.00004
app_41,529.822,23039.1,7986.7,13.3,6.83017,1.08831e+10,1.0003,0.993462,1108,1.81384,19,1.00004,1.00004
app_42,293.778,20400.5,7960.3,39.7,7.34037,3.37296e+10,1.00075,0.993462,1102,4.81852,19,1.00004,1.00004
app_43,143.353,22061.7,7963.2,36.8,7.39718,2.9915e+10,1.00086,0.993462,1038,3.73937,20,1.00004,1.00004
app_44,941.098,22370.4,7966.6,33.4,7.16341,3.04398e+10,1.00037,0.993462,985,4.34855,21,1.00004,1.00004
app_45,242.85,22647.2,7993.4,6.6,6.99506,5.07617e+09,1.00019,0.993462,1050,0.725167,20,1.00004,1.00004
app_46,483.804,22668.5,7964.4,35.6,7.34106,3.0106e+10,1.00069,0.993462,1015,4.30086,20,1.00005,1.00005
app_47,685.574,22147.8,7947.1,52.9,8.2449,4.26799e+10,1.00128,0.993462,976,5.33499,21,1.00005,1.00005
app_48,931.419,23726,7955.7,44.3,7.55365,3.78649e+10,1.00081,0.993462,964,5.40927,21,1.00005,1.00005
app_49,348.989,21359.7,7999.2,0.8,8.25283,2.85252e+08,1.00006,0.993462,928,0.0356565,22,1.00005,1.00005
app_5,8.80418,20090.1,7920.8,79.2,791.374,8.72745e+08,1.00989,0.993462,10,0.00110195,1992,1.00001,1.00001
app_50,806.985,21978.9,7959.6,40.4,7.07773,3.06304e+10,1.00122,0.993462,1051,4.37578,19,1.00005,1.00005
app_51,867.73,20347.9,7967.9,32.1,7.66268,2.64555e+10,1.00071,0.993462,1042,3.30694,20,1.00005,1.00005
app_52,673.115,21924.9,7972.2,27.8,8.35901,1.97112e+10,1.00101,0.993462,938,2.46389,22,1.00005,1.00005
app_53,287.01,20221.5,7988.4,11.6,8.46046,8.00945e+09,1.00045,0.993462,1058,0.889938,19,1.00005,1.00005
app_54,1022.9,20180.8,7936.1,63.9,9.1469,5.20825e+10,1.00148,0.993462,1032,5.78695,20,1.00005,1.00005
app_55,1077.43,22187.5,7999.4,0.6,5.50222,2.22761e+07,1.00007,0.993462,1245,0.00371268,17,1.00005,1.00005
app_56,573.043,21438.5,7944.1,55.9,8.8605,4.40422e+10,1.00148,0.993462,961,4.89358,21,1.00006,1.00006
app_57,544.615,23352.7,7978,22,6.01598,1.95928e+10,1.0003,0.993462,1158,3.26547,18,1.00006,1.00006
app_58,386.579,20395.1,7968,32,6.80474,2.60573e+10,1.00074,0.993462,1063,3.72246,19,1.00006,1.00006
app_59,281.775,18904.5,7948,52,10.1984,4.20623e+10,1.00124,0.993462,986,3.82385,21,1.00006,1.00006
app_6,5.42164,19920.4,7929.7,70.3,703.205,8.44236e+09,1.00779,0.993462,11,0.012009,1776,1.00001,1.00001
app_60,492.603,21245.5,7976.7,23.3,9.20804,1.95148e+10,1.00047,0.993462,843,2.16831,24,1.00006,1.00006
app_7,8.01357,19701.2,7917.8,82.2,723.599,3.68503e+10,1.0057,0.993462,11,0.0508982,1774,1.00001,1.00001
app_8,4.29312,19734.7,7882.9,117.1,1139.18,4.44467e+10,1.00916,0.993462,7,0.0390226,2791,1.00001,1.00001
app_9,8.94692,18380.4,7911.3,88.7,886.224,2.07225e+10,1.00857,0.993462,9,0.0233624,2039,1.00001,1.00001
