app_id,start_app,end_app,effective_cpu,effective_io,effective_iter,total_bytes,stretch,utilization,Tcomp,Tio,iterations,priority,group_id
app_1,0.339555,19444.1,7700,82.9149,853.801,3.57989e+10,1.03415,0.9853,9,0.0419191,2071,1,1
app_10,8.01129,19329.5,7704,81.7975,842.671,3.15217e+10,1.03419,0.9853,9,0.0373923,2036,1,1
app_11,3.12463,19195.6,7735.3,82.9357,853.942,3.40112e+10,1.02969,0.9853,9,0.0398257,2057,1,1
app_12,6.69807,20132.4,7749.9,71.8914,782.622,1.80611e+10,1.02987,0.9853,10,0.0230665,1943,1,1
app_13,7.86557,19864.3,7694.9,86.408,856.092,4.61172e+10,1.03346,0.9853,9,0.0538123,2131,1,1
app_14,2.38712,19512,7715.6,85.4331,860.879,3.87536e+10,1.03168,0.9853,9,0.04501,2078,1,1
app_15,3.86808,20153.9,7748.6,73.7417,710.663,4.43753e+10,1.02657,0.9853,11,0.0624125,1785,1,1
app_16,6.27332,19167.8,7709.5,71.7315,788.178,1.71059e+10,1.03538,0.9853,10,0.0216805,1861,1,1
app_17,8.74503,18991.2,7722.2,79.9743,860.924,2.46659e+10,1.03268,0.9853,9,0.028648,2044,1,1
app_18,1.91248,19306.2,7674.6,89.1612,962.315,2.67654e+10,1.03878,0.9853,8,0.0278226,2333,1,1
app_19,6.57517,19481.9,7773.8,72.127,788.614,1.97436e+10,1.02649,0.9853,10,0.0250553,1908,1,1
app_2,5.70437,20138,7705.6,79.7788,865.004,2.24173e+10,1.03519,0.9853,9,0.0259159,2170,1,1
app_20,5.14611,19805.4,7700.6,83.0418,945.556,1.19666e+10,1.03727,0.9853,8,0.0126631,2373,1,1
app_21,1.19033,20216.5,7936.5,52.8893,89.9648,4.56287e+10,1.00224,0.9853,83,0.506985,240,1,1
app_22,7.07463,20141.6,7961.1,21.1623,70.5568,1.69004e+10,1.00276,0.9853,112,0.238034,178,1,1
app_23,68.0134,20055.3,7947.3,17.3431,83.6047,1.35042e+10,1.00492,0.9853,93,0.160764,213,1,1
app_24,53.815,20009.1,7933.6,53.872,91.4755,4.80165e+10,1.0023,0.9853,87,0.527654,228,1,1
app_25,42.5327,19910.9,7979.3,7.66124,75.488,4.36852e+09,1.00205,0.9853,105,0.0574805,189,1,1
app_26,83.6593,20124.7,7928.6,40.7085,68.0956,3.69073e+10,1.00433,0.9853,112,0.542755,178,1,1
app_27,37.1938,20873.2,7945.2,38.706,77.6699,3.51649e+10,1.00246,0.9853,97,0.456687,204,1,1
app_28,78.7164,19690.3,7938.7,50.1007,99.6587,4.50296e+10,1.00204,0.9853,82,0.450296,242,1,1
app_29,104.698,20034.7,7978.7,15.7103,74.1626,1.41642e+10,1.00089,0.9853,112,0.191408,178,1,1
app_3,3.39828,20336.5,7724.1,76.9292,873.862,7.97511e+09,1.03465,0.9853,9,0.00912484,2195,1,1
app_30,46.7242,19804.4,7968.3,8.36452,77.7494,4.98434e+09,1.00335,0.9853,102,0.0639018,195,1,1
app_31,36.7537,20276.9,7927.1,49.6479,81.7842,4.68359e+10,1.00327,0.9853,95,0.57117,209,1,1
app_32,80.5231,20426.5,7938.9,43.2686,83.5659,4.10895e+10,1.00251,0.9853,92,0.48916,216,1,1
app_33,3.60473,20427.7,7938.3,42.4098,86.6459,3.52861e+10,1.00331,0.9853,89,0.405588,223,1,1
app_34,49.771,20337.9,7952.7,37.2383,72.8993,3.42149e+10,1.00164,0.9853,110,0.468697,180,1,1
app_35,12.2093,20389.8,7944.19,42.2489,68.4494,4.01228e+10,1.00197,0.9853,109,0.585553,182,1,1
app_36,18.2573,20282.9,7971.2,18.3678,93.0563,1.29921e+10,1.00198,0.9853,83,0.1397,240,1,1
app_37,61.7676,20923.6,7950.8,30.6492,75.1238,2.68814e+10,1.0028,0.9853,96,0.353702,207,1,1
app_38,61.3911,19931.5,7973.7,15.3884,76.0132,1.24528e+10,1.00173,0.9853,111,0.163852,180,1,1
app_39,27.67,20319.6,7919.3,51.2378,87.9244,4.43015e+10,1.00457,0.9853,90,0.503426,221,1,1
app_4,3.47906,19580.4,7723.3,74.7021,848.3,1.13117e+10,1.03431,0.9853,9,0.0133236,2104,1,1
app_40,66.8294,19984.9,7963.7,15.6608,78.9229,1.19598e+10,1.00305,0.9853,101,0.15139,197,1,1
app_41,64.1401,19970.3,7980.6,18.8882,6.90571,1.84873e+10,1.00011,0.9853,1041,2.64105,20,1,1
app_42,790.945,21308.2,7981.1,16.1509,8.33786,1.56639e+10,1.0004,0.9853,958,1.74043,21,1,1
app_43,791.25,22705.2,7998.1,0.6975,6.81192,5.58862e+08,1.00017,0.9853,1046,0.0798374,20,1,1
app_44,860.931,20147,7997.4,0.75925,7.42006,3.89971e+08,1.00028,0.9853,1080,0.0487464,19,1,1
app_45,592.276,19719.7,7975.6,24.2257,8.80063,2.34082e+10,1.00012,0.9853,948,2.60091,22,1,1
app_46,652.947,21474.2,7983.4,16.3285,8.68468,1.59058e+10,1.00009,0.9853,874,1.76731,23,1,1
app_47,760.248,21207.5,7983.9,15.0079,5.8946,1.45804e+10,1.00019,0.9853,1109,2.43007,18,1,1
app_48,317.936,19943.1,7954.7,42.6502,6.90897,4.21656e+10,1.00039,0.9853,1063,6.02366,19,1,1
app_49,244.101,18212,7947,46.7259,8.7202,4.6111e+10,1.00086,0.9853,1139,5.12344,18,1,1
app_5,1.59954,18854.2,7763.4,68.0881,771.995,9.36458e+09,1.02923,0.9853,10,0.0121303,1830,1,1
app_50,840.271,19419.8,7972.3,23.9553,9.82401,2.33948e+10,1.00054,0.9853,921,2.33948,22,1,1
app_51,714.294,20463.5,7942.9,51.902,7.51783,5.14383e+10,1.00071,0.9853,1106,6.42979,18,1,1
app_52,644.082,22426.7,7968.5,31.404,6.78823,3.10017e+10,1.00006,0.9853,1015,4.42881,20,1,1
app_53,207.627,19237.9,7972.8,26.9108,8.53885,2.62974e+10,1.00011,0.9853,1032,2.92194,20,1,1
app_54,27.1502,23361.1,7977.3,22.3732,7.02475,2.18578e+10,1.00011,0.9853,947,3.12254,22,1,1
app_55,409.49,20819.7,7954,42.4389,8.21314,4.20549e+10,1.00049,0.9853,934,5.25687,22,1,1
app_56,48.9744,19670.8,7976.5,23.4206,8.7345,2.32829e+10,1.00003,0.9853,923,2.58699,22,1,1
app_57,119.001,20062.7,7950.7,46.3771,7.42126,4.57915e+10,1.00044,0.9853,1105,5.72393,18,1,1
app_58,726.744,20655.9,7988.5,8.89459,8.07553,8.73272e+09,1.00035,0.9853,970,1.09159,21,1,1
app_59,693.878,20006.3,7969.1,30.8161,7.08228,3.06589e+10,1.00003,0.9853,1095,4.37985,19,1,1
app_6,1.8704,20006.5,7731.3,80.7074,776.972,4.47747e+10,1.0288,0.9853,10,0.0576251,1935,1,1
app_60,279.672,22304.6,7965.6,30.1695,7.49995,3.0028e+10,1.00055,0.9853,1044,4.28971,20,1,1
app_7,4.92161,19364.9,7745,75.7527,779.199,3.27917e+10,1.02857,0.9853,10,0.0420946,1890,1,1
app_8,6.64383,19985.4,7730,67.2313,767.48,9.5772e+09,1.03365,0.9853,10,0.0124866,1921,1,1
app_9,10.7422,19269.7,7755.2,71.8601,715.466,3.85957e+10,1.02646,0.9853,11,0.0539801,1717,1,1
