app_id,start_app,end_app,effective_cpu,effective_io,effective_iter,total_bytes,stretch,utilization,Tcomp,Tio,iterations,priority,group_id
app_1,0.0927436,19583.3,7912.3,87.7,725.131,4.77075e+10,1.00502,0.993275,11,0.0658034,1774,1,1
app_10,3.08812,18668.2,7907.2,92.8,878.568,4.15231e+10,1.00645,0.993275,9,0.0472929,2050,1.00001,1.00001
app_11,9.64485,19313.3,7908.4,91.6,795.301,4.16607e+10,1.00628,0.993275,10,0.0524034,1899,1.00001,1.00001
app_12,3.39972,19927.3,7911.4,88.6,885.084,1.99391e+10,1.00866,0.993275,9,0.0225301,2188,1.00001,1.00001
app_13,7.33695,18419.7,7911.3,88.7,887.402,1.96694e+10,1.0087,0.993275,9,0.0221752,2022,1.00001,1.00001
app_14,6.86288,19240.4,7912.6,87.4,873.15,1.65473e+10,1.00894,0.993275,9,0.0189329,2098,1.00001,1.00001
app_15,2.12296,19897.1,7907.5,92.5,880.109,3.86241e+10,1.00678,0.993275,9,0.043891,2180,1.00002,1.00002
app_16,5.60385,18521.3,7898.5,101.5,1004.96,3.15445e+10,1.00882,0.993275,8,0.0313875,2311,1.00002,1.00002
app_17,5.59029,18125.5,7894.8,105.2,995.176,4.44518e+10,1.00765,0.993275,8,0.0446752,2252,1.00002,1.00002
app_18,3.98969,18281.9,7897.3,102.7,982.862,4.48909e+10,1.00728,0.993275,8,0.0456673,2243,1.00002,1.00002
app_19,4.89523,19084.9,7908.9,91.1,884.931,3.08007e+10,1.00759,0.993275,9,0.0348031,2097,1.00002,1.00002
app_2,7.03849,19437.2,7920.9,79.1,791.459,4.67707e+09,1.00939,0.993275,10,0.00591286,1900,1,1
app_20,4.20121,18970.7,7910.9,89.1,883.035,2.41003e+10,1.00819,0.993275,9,0.0272936,2082,1.00002,1.00002
app_21,85.8476,19765.3,7953.4,46.6,82.6769,3.42709e+10,1.00154,0.993275,98,0.412903,203,1.00002,1.00002
app_22,102.161,20277.8,7959,41,76.0738,2.99423e+10,1.00138,0.993275,108,0.393978,185,1.00002,1.00002
app_23,91.6068,19920.1,7981.9,18.1,80.8562,8.65598e+09,1.00118,0.993275,99,0.106864,201,1.00002,1.00002
app_24,52.0693,19897.6,7970.9,29.1,78.5391,1.86619e+10,1.00131,0.993275,102,0.239255,196,1.00002,1.00002
app_25,25.3325,20255.9,7984.5,15.5,69.8694,8.91297e+09,1.00082,0.993275,111,0.127328,179,1.00003,1.00003
app_26,62.5655,20749,7933.5,66.5,75.2465,4.88319e+10,1.00221,0.993275,100,0.651091,198,1.00003,1.00003
app_27,88.5672,20040.2,7975.3,24.7,75.6392,1.77438e+10,1.00087,0.993275,104,0.233471,191,1.00003,1.00003
app_28,55.5298,19659.7,7969.9,30.1,74.748,2.17588e+10,1.00104,0.993275,103,0.290118,193,1.00003,1.00003
app_29,41.8252,20484.8,7954.9,45.1,85.857,3.32265e+10,1.00149,0.993275,93,0.386355,215,1.00003,1.00003
app_3,1.61893,19444.1,7907.5,92.5,879.48,4.0802e+10,1.0065,0.993275,9,0.0463659,2116,1,1
app_30,64.6205,19903.6,7937.9,62.1,71.8593,4.81763e+10,1.00174,0.993275,110,0.669115,181,1.00003,1.00003
app_31,9.80673,19600.6,7952.3,47.7,73.1019,3.44936e+10,1.00165,0.993275,109,0.472515,182,1.00003,1.00003
app_32,62.8062,20511.4,7948.6,51.4,86.5367,3.51895e+10,1.00203,0.993275,89,0.40918,223,1.00003,1.00003
app_33,9.65752,20000.5,7990.7,9.3,92.8484,6.24503e+08,1.00109,0.993275,87,0.00671509,230,1.00003,1.00003
app_34,73.5616,20870.1,7953.7,46.3,69.3393,3.60659e+10,1.00128,0.993275,111,0.522693,180,1.00003,1.00003
app_35,76.1681,19893,7989.5,10.5,98.2267,5.05073e+09,1.00068,0.993275,79,0.0515381,251,1.00004,1.00004
app_36,38.4424,19518.5,7981.2,18.8,84.549,8.82331e+09,1.00125,0.993275,99,0.103804,201,1.00004,1.00004
app_37,82.4564,20272,7974.1,25.9,74.9371,1.70756e+10,1.0011,0.993275,106,0.227675,188,1.00004,1.00004
app_38,67.9351,20127.8,7989.7,10.3,79.236,6.88275e+09,1.00043,0.993275,100,0.0871234,200,1.00004,1.00004
app_39,76.6928,19865.5,7925.8,74.2,87.1041,5.74664e+10,1.0021,0.993275,95,0.660533,209,1.00004,1.00004
app_4,3.55329,18969,7911.6,88.4,884.357,4.60459e+09,1.01059,0.993275,9,0.00520881,2100,1,1
app_40,16.6856,19790.2,7922.8,77.2,95.8503,5.79082e+10,1.00242,0.993275,88,0.60321,225,1.00004,1.00004
app_41,21.7633,20970.4,7942,58,9.14635,4.84343e+10,1.0012,0.993275,832,5.38159,24,1.00004,1.00004
app_42,673.344,19859.1,7962.1,37.9,8.34959,2.85253e+10,1.00117,0.993275,1036,3.56566,20,1.00004,1.00004
app_43,239.422,21061.8,7979.3,20.7,6.54809,1.60848e+10,1.00058,0.993275,1195,2.29782,17,1.00004,1.00004
app_44,353.337,23187.6,7962.7,37.3,7.07479,2.91687e+10,1.00102,0.993275,981,4.16695,21,1.00004,1.00004
app_45,178.501,20155.5,7966.7,33.3,8.38388,2.79808e+10,1.00067,0.993275,965,3.4976,21,1.00004,1.00004
app_46,677.773,22555.4,7940.1,59.9,6.7558,4.96915e+10,1.00128,0.993275,1092,7.09878,19,1.00005,1.00005
app_47,854.761,20943.8,7927.1,72.9,10.0408,5.82325e+10,1.00184,0.993275,889,5.82325,23,1.00005,1.00005
app_48,636.52,21705.5,7954.47,45.533,6.8732,3.96092e+10,1.00074,0.993275,976,6.56841,21,1.00005,1.00005
app_49,636.703,22446.8,7992.5,7.5,7.24402,6.6628e+09,1.0001,0.993275,1024,0.951828,20,1.00005,1.00005
app_5,1.3144,18086.3,7869.3,130.7,1306.53,1.5233e+10,1.01464,0.993275,6,0.0116549,2956,1.00001,1.00001
app_50,508.548,20645.4,7963.2,36.8,7.29248,2.92756e+10,1.00094,0.993275,1098,3.65945,19,1.00005,1.00005
app_51,391.747,19938.5,7991.1,8.9,9.14164,6.50934e+09,1.0003,0.993275,893,0.723261,23,1.00005,1.00005
app_52,917.906,23888.5,7998.9,1.1,7.35932,5.84216e+08,1.00006,0.993275,1097,0.0834594,19,1.00005,1.00005
app_53,144.093,20133.4,7992.2,7.8,8.51841,6.00158e+09,1.00022,0.993275,914,0.666842,22,1.00005,1.00005
app_54,160.13,20546.3,7949.3,50.7,10.311,3.99832e+10,1.00134,0.993275,875,3.99832,23,1.00005,1.00005
app_55,58.1025,19962.2,7968.4,31.6,6.00934,2.39002e+10,1.00096,0.993275,1155,3.98337,18,1.00005,1.00005
app_56,291.276,19561.8,7950.8,49.2,8.34696,3.34656e+10,1.00197,0.993275,1137,4.1832,18,1.00006,1.00006
app_57,300.304,20903.3,7990.3,9.7,6.81733,6.27104e+09,1.00043,0.993275,1092,1.04517,19,1.00006,1.00006
app_58,205.851,20674.6,7984,16,8.21935,1.34353e+10,1.00032,0.993275,1143,1.49282,18,1.00006,1.00006
app_59,327.253,18828.3,7986,14,9.47487,1.23588e+10,1.00021,0.993275,1058,1.3732,19,1.00006,1.00006
app_6,5.52405,19415.2,7917.5,82.5,799.34,3.06149e+10,1.00653,0.993275,10,0.0382686,1925,1.00001,1.00001
app_60,126.065,18388.3,7966.2,33.8,10.4523,2.38641e+10,1.00124,0.993275,829,2.38641,25,1.00006,1.00006
app_7,4.20518,19374.4,7916.1,83.9,797.001,3.58558e+10,1.00604,0.993275,10,0.0449885,1916,1.00001,1.00001
app_8,7.29115,19376,7924.5,75.5,727.448,2.95853e+10,1.00577,0.993275,11,0.040695,1754,1.00001,1.00001
app_9,0.905606,19756.1,7906.4,93.6,901.035,3.45684e+10,1.00743,0.993275,9,0.0383667,2185,1.00001,1.00001
