app_id,Tcomp,Tio,iter,witer,alpha_io,compute_size,io_size,mu,desyn_time
1,10.489916321808039,0.006443711798996886,1906,10.496360033607036,0.0006138996545817348,10e9,6443711.798996886,10,10.442149946790181
2,10.055498577114044,0.11992326490316042,1966,10.175421842017204,0.011785581646154779,10e9,119923264.90316042,10,7.39518118211917
3,8.253776262119148,0.11147049082213174,2391,8.36524675294128,0.013325427702767755,8e9,111470490.82213174,10,8.139269160125496
4,10.790003119183927,0.22765840720546765,1816,11.017661526389395,0.02066304239426692,10e9,227658407.20546764,10,4.868947762367926
5,10.615652306391864,0.17856320552710095,1853,10.794215511918965,0.01654249031158694,10e9,178563205.52710095,10,7.186951352926577
6,10.80019855313021,0.1622677983565356,1825,10.962466351486746,0.014802125101577036,10e9,162267798.35653558,10,6.784807815651785
7,10.442528905274653,0.24542727833213454,1872,10.687956183606788,0.022962975719209203,10e9,245427278.33213454,10,1.7851758275618157
8,10.6574307276696,0.18915605651115802,1844,10.846586784180758,0.017439223995057443,10e9,189156056.51115802,10,0.500702261269302
9,10.666678227302967,0.23629039527042728,1835,10.902968622573393,0.021672115499004014,10e9,236290395.2704273,10,2.4107998064056684
10,11.469198309732748,0.1201467357131976,1726,11.589345045445945,0.010366999622675786,11e9,120146735.7131976,10,2.3438144442169624
11,10.115198317049009,0.21908541818904073,1936,10.33428373523805,0.02119986481907777,10e9,219085418.18904072,10,2.9694153581688494
12,9.376231163026054,0.15164242197609645,2100,9.52787358500215,0.0159156626736523,9e9,151642421.97609645,10,4.588346662306257
13,8.412287785385132,0.15786105623046656,2334,8.570148841615598,0.018419873347346374,8e9,157861056.23046657,10,7.841792736788356
14,9.831374893625037,0.0012065244840214714,2035,9.83258141810906,0.0001227067880464602,9e9,1206524.4840214713,10,0.4712157415691136
15,9.645095180319377,0.16948480674456246,2038,9.81457998706394,0.017268676496391196,9e9,169484806.74456245,10,5.324553609595642
16,118.97376648421738,0.29228770262237813,168,119.26605418683975,0.00245071998579316,118e9,292287702.6223781,100,22.498338455017237
17,105.61799571949912,1.423468583020706,187,107.04146430251983,0.013298291389192033,105e9,1423468583.020706,100,39.97736031459452
18,99.30266501142576,0.43280566210493876,201,99.7354706735307,0.004339535966312968,99e9,432805662.10493875,100,44.22818681253863
19,115.11781970566622,0.7898767054941166,173,115.90769641116034,0.006814704544659229,115e9,789876705.4941165,100,45.059515421771074
20,92.56226702411973,0.5300919875448988,215,93.09235901166463,0.00569425883254798,92e9,530091987.5448988,100,40.112196437931566
21,92.3666749774134,0.4046470546881194,216,92.77132203210151,0.004361768764576838,92e9,404647054.6881194,100,35.96214671358017
22,113.6936980359048,2.5404253131571823,173,116.23412334906199,0.021856105934812676,113e9,2540425313.157182,100,19.19773748143785
23,92.44279814227906,2.085987198098866,212,94.52878534037792,0.022067216780451294,92e9,2085987198.098866,100,39.0594277796212
24,108.49414575725766,2.2199852250548324,181,110.71413098231248,0.020051507475676196,108e9,2219985225.0548325,100,27.21029859118808
25,106.65931974767969,1.226726120686572,186,107.88604586836627,0.011370572633492592,106e9,1226726120.686572,100,79.2120041766234
26,85.7523902735779,0.10803388613932677,233,85.86042415971723,0.0012582500866564852,85e9,108033886.13932677,100,38.12344335445044
27,113.99306242668996,0.510611998427142,175,114.5036744251171,0.004459350330814677,113e9,510611998.427142,100,66.94026291219306
28,111.95464619100292,1.3278500577033638,177,113.28249624870628,0.011721581900774262,111e9,1327850057.703364,100,49.9072505889338
29,92.08344441792408,0.27491439071177526,217,92.35835880863586,0.0029766054124174164,92e9,274914390.71177524,100,53.50357954622903
30,113.19110492266395,0.8458104816875129,176,114.03691540435146,0.007416988425971036,113e9,845810481.687513,100,103.30876095204354
31,978.1998445524339,23.867841651630123,20,1002.067686204064,0.02381859227697879,978e9,23867841651.630123,1000,363.13280688964716
32,1013.2544255378159,23.18836880030764,20,1036.4427943381236,0.02237303296137615,1013e9,23188368800.30764,1000,935.5691890314375
33,1113.0142257521677,18.189596152863402,18,1131.2038219050312,0.016079857405565313,1113e9,18189596152.863403,1000,273.4363403343052
34,986.3375683533882,17.516997699327675,20,1003.8545660527159,0.017449736537242383,986e9,17516997699.327675,1000,692.2918405044338
35,984.4393770402412,15.136301076116572,21,999.5756781163577,0.015142726466334248,984e9,15136301076.116571,1000,879.1954555491369
36,816.7908805840394,11.384744256634928,25,828.1756248406743,0.013746775339862414,816e9,11384744256.634928,1000,573.8738964942692
37,1096.5776108980485,22.55676759656559,18,1119.134378494614,0.020155548815243677,1096e9,22556767596.56559,1000,30.39648545379777
38,920.5855325388764,13.449468754470592,22,934.0350012933469,0.014399319871147523,920e9,13449468754.470592,1000,579.327204096122
39,1073.4143881282112,5.942007622524515,19,1079.3563957507356,0.005505139586810537,1073e9,5942007622.524515,1000,292.4822688651421
40,963.498485476733,4.047728975024223,21,967.5462144517572,0.004183499366299311,963e9,4047728975.0242233,1000,120.49785447193489
41,1041.6926359348706,24.57818027596809,19,1066.2708162108388,0.02305059831170333,1041e9,24578180275.96809,1000,409.4714942364768
42,1043.8039935811562,4.374626040991371,20,1048.1786196221476,0.004173550155572108,1043e9,4374626040.991371,1000,541.9671413081809
43,1163.4526180890705,20.65103193137338,17,1184.1036500204439,0.01744022318571253,1163e9,20651031931.373383,1000,485.074647844953
44,877.1977720320466,21.299384032516418,23,898.497156064563,0.023705566443647057,877e9,21299384032.51642,1000,585.5048877781472
45,985.9211640792867,10.806691609251196,21,996.7278556885378,0.010842168750050587,985e9,10806691609.251196,1000,53.1686731686657
46,2577.4427737420815,35.81128521341299,8,2613.2540589554947,0.013703713609738575,2577e9,35811285213.41299,3000,11.653005828432418
47,2513.2430822926635,36.55291974548847,8,2549.796002038152,0.014335625170119602,2513e9,36552919745.488464,3000,1857.483441379776
48,3048.2598324717865,65.02942508828046,7,3113.2892575600667,0.02088769134778213,3048e9,65029425088.280464,3000,1299.203651527694
49,2998.9921892326647,38.540174440854756,7,3037.5323636735193,0.012687988085909705,2998e9,38540174440.85476,3000,2820.4156022403727
50,3006.757730397596,59.9836526896583,7,3066.7413830872542,0.01955941020017587,3006e9,59983652689.6583,3000,2330.87999809834
51,3374.856982129441,1.30015236976783,6,3376.157134499209,0.00038509829903420176,3374e9,1300152369.7678301,3000,542.7688369081965
52,2948.3381152182715,7.405165946211361,7,2955.743281164483,0.0025053481448814884,2948e9,7405165946.211361,3000,2445.4797047160414
53,3355.450726806515,60.21273592565247,6,3415.6634627321673,0.01762841585028072,3355e9,60212735925.652466,3000,339.0684035823694
54,3062.9762926564185,24.84942784050812,7,3087.825720496927,0.00804754869277696,3062e9,24849427840.50812,3000,1223.6023776942843
55,2792.8139435123917,67.80122648699552,7,2860.615169999387,0.023701624461080532,2792e9,67801226486.995514,3000,1946.5244613310376
56,3086.6361599258703,45.678493039791995,7,3132.3146529656624,0.014582983544307655,3086e9,45678493039.79199,3000,2828.265991990579
57,2582.025183013526,26.240902934285177,8,2608.2660859478115,0.010060669452269307,2582e9,26240902934.28518,3000,604.1105627010938
58,2941.2353037831717,47.886893700177474,7,2989.1221974833493,0.016020386767892993,2941e9,47886893700.177475,3000,1313.9579346977987
59,3433.2579544202813,77.3194290768641,6,3510.5773834971455,0.02202470438063396,3433e9,77319429076.86409,3000,1551.7610694281875
60,3235.727475115947,27.951228889401104,7,3263.678704005348,0.00856433228402599,3235e9,27951228889.401104,3000,478.5730139135404
