app_id,Tcomp,Tio,iter,witer,alpha_io,compute_size,io_size,mu,desyn_time
1,9.204688985391792,0.19728469475844984,2128,9.401973680150242,0.020983327700115118,9e9,197284694.75844985,10,7.885209044912657
2,10.554932563864792,0.001643861893131774,1895,10.556576425757925,0.0001557192243804317,10e9,1643861.893131774,10,8.123573223264895
3,9.79577724806596,0.047986048138551396,2032,9.84376329620451,0.004874766559762111,9e9,47986048.1385514,10,3.3857942544129993
4,8.001272077464144,0.14083045569604896,2457,8.142102533160193,0.01729657114025417,8e9,140830455.69604897,10,5.607087193707655
5,10.661993422834664,0.323943411647383,1821,10.985936834482047,0.029487099418832215,10e9,323943411.647383,10,9.697276824736281
6,11.5994837333834,0.25402286996748463,1688,11.853506603350883,0.021430187578051763,11e9,254022869.96748462,10,11.615320018787745
7,9.18007904866847,0.09899129235252672,2156,9.279070341020995,0.010668233854732747,9e9,98991292.35252672,10,1.3333265533628278
8,8.291620598255951,0.037037944383766945,2402,8.328658542639719,0.004447048008289219,8e9,37037944.38376694,10,3.862402785438477
9,10.539524382403984,0.07898593415549716,1884,10.618510316559481,0.007438513671010823,10e9,78985934.15549716,10,0.25758354133487854
10,9.987269312155519,0.13846128716232892,1976,10.125730599317848,0.013674202153043338,9e9,138461287.16232893,10,5.131395294239702
11,10.949020758108647,0.01170439212958441,1825,10.96072515023823,0.0010678483375098605,10e9,11704392.12958441,10,8.387129865613785
12,9.389910215666813,0.21308904070578405,2083,9.602999256372597,0.022189842466599916,9e9,213089040.70578405,10,2.5068495322046638
13,10.287713274603343,0.054045427613251006,1934,10.341758702216595,0.005225941657453989,10e9,54045427.61325101,10,6.399568169361827
14,8.84855421733559,0.034131006089391035,2252,8.88268522342498,0.0038424198573852896,8e9,34131006.08939104,10,5.427958777919538
15,11.076140271615792,0.017254617067247104,1803,11.093394888683038,0.0015553955520730138,11e9,17254617.067247104,10,9.693694502580993
16,104.44818716808587,1.5950370792592405,189,106.04322424734511,0.015041386100622773,104e9,1595037079.2592406,100,35.19470668970143
17,91.55038349834093,0.030808029568959606,219,91.5811915279099,0.00033640127470465026,91e9,30808029.568959605,100,24.928182860975177
18,95.29661655092303,0.444702892198329,209,95.74131944312137,0.004644837722990866,95e9,444702892.198329,100,77.30787998311123
19,78.74418335141978,2.3856233660219948,247,81.12980671744177,0.029405017250079546,78e9,2385623366.0219946,100,71.4528650074077
20,106.193120100579,0.18789860852589604,189,106.3810187091049,0.001766279462313649,106e9,187898608.52589604,100,12.860689772375697
21,117.06023145649125,2.6650436185592725,168,119.72527507505052,0.022259657510819444,117e9,2665043618.5592723,100,5.8656676352729065
22,91.603273815828,0.14474122569864964,218,91.74801504152666,0.0015775951734011617,91e9,144741225.69864964,100,42.53868560829197
23,93.52381456009451,2.7514801676236837,208,96.27529472771819,0.02857929622968495,93e9,2751480167.623684,100,38.17150936934506
24,105.91649547144205,2.5999602851054964,185,108.51645575654754,0.02395913381965226,105e9,2599960285.1054964,100,69.65774895416939
25,98.3701324085062,0.6981478159323721,202,99.06828022443857,0.007047137735213759,98e9,698147815.9323721,100,78.53715172341134
26,94.11349889305097,0.12860361226480446,213,94.24210250531578,0.0013646089045769166,94e9,128603612.26480447,100,8.073724070390444
27,105.50026559755904,1.7475235996981096,187,107.24778919725715,0.016294262220025345,105e9,1747523599.6981096,100,88.0257483681653
28,100.09729389543764,2.304453215065296,196,102.40174711050294,0.022504041972824282,100e9,2304453215.0652957,100,69.57771863355272
29,86.47532445674153,1.3439746291104941,228,87.81929908585202,0.015303864220057443,86e9,1343974629.1104941,100,37.252057010752836
30,105.66067826429827,2.4677303034922624,185,108.12840856779053,0.022822219767944997,105e9,2467730303.4922624,100,22.319108660663087
31,928.4381868856068,12.58887802740311,22,941.0270649130099,0.013377806544349335,928e9,12588878027.40311,1000,646.8949332768199
32,860.8255240298488,0.9301570822634913,24,861.7556811121123,0.0010793744708048872,860e9,930157082.2634913,1000,829.1684933577031
33,1092.2094597235298,14.117730346214728,19,1106.3271900697446,0.012760899734665949,1092e9,14117730346.214727,1000,820.0910099372408
34,950.0679037917771,18.27806953456308,21,968.3459733263402,0.01887555691668398,950e9,18278069534.56308,1000,145.10158041849405
35,1080.0274027688913,14.01876818837532,19,1094.0461709572667,0.012813689733139145,1080e9,14018768188.37532,1000,645.4820152075667
36,993.9879964875472,26.87568113666865,20,1020.8636776242158,0.026326415294953515,993e9,26875681136.66865,1000,162.98240431361245
37,807.6979381385074,4.715459563880742,25,812.4133977023881,0.005804261201522134,807e9,4715459563.880742,1000,175.3767457358186
38,929.5918757164477,14.387610292400833,22,943.9794860088485,0.015241443808521458,929e9,14387610292.400833,1000,724.0577403810312
39,1043.8659433817309,17.221818012794447,19,1061.0877613945254,0.016230342709976055,1043e9,17221818012.79445,1000,289.55965203733007
40,1125.5595967767242,15.038380739406632,18,1140.5979775161309,0.013184646155655622,1125e9,15038380739.406631,1000,890.548652525172
41,823.7702516282101,3.0489580757671977,25,826.8192097039773,0.0036875752764123654,823e9,3048958075.7671976,1000,565.6634374323851
42,1049.0500024822218,3.271315437586499,20,1052.3213179198083,0.0031086659387012327,1049e9,3271315437.586499,1000,792.6069936950685
43,1070.8611390396295,8.41828416408947,19,1079.279423203719,0.007799911666156615,1070e9,8418284164.089471,1000,1004.5003535719444
44,1137.8331213341667,30.953089476659347,18,1168.786210810826,0.026483106311791745,1137e9,30953089476.659348,1000,535.2803471911279
45,1011.6877634260493,12.47681881416133,20,1024.1645822402106,0.012182435353183283,1011e9,12476818814.16133,1000,847.0757359093384
46,2511.9902667986585,54.29899816980535,8,2566.2892649684636,0.021158564979802702,2511e9,54298998169.80535,3000,1650.255964593127
47,2847.840594569373,30.98947040272388,7,2878.830064972097,0.01076460565692482,2847e9,30989470402.72388,3000,1620.526843468228
48,3052.692575695019,22.74278109406674,7,3075.4353567890857,0.007394979394986011,3052e9,22742781094.06674,3000,2141.901057169675
49,2870.2820988557746,29.031778079670904,7,2899.3138769354455,0.010013327053212083,2870e9,29031778079.670902,3000,1535.347631738189
50,3371.2992741255484,52.85834216925885,6,3424.157616294807,0.015436889329427392,3371e9,52858342169.25885,3000,3334.608904055245
51,2768.591135128641,63.06586070554044,8,2831.656995834181,0.022271716100615426,2768e9,63065860705.540436,3000,2508.3420667529213
52,3047.621081570884,91.18888128173022,7,3138.8099628526143,0.029052055511782533,3047e9,91188881281.73022,3000,1556.2439098586754
53,2877.248189689529,49.80582693593749,7,2927.054016625467,0.017015684252167467,2877e9,49805826935.93749,3000,2204.448163206669
54,3268.404385821158,34.21514862474879,7,3302.619534445907,0.010360003102957845,3268e9,34215148624.74879,3000,746.4284673569165
55,2802.5815405460908,41.79825838942179,8,2844.3797989355126,0.014695034188143394,2802e9,41798258389.42179,3000,1214.4739936607623
56,2864.182646871789,62.920101997969354,7,2927.102748869758,0.02149569297567866,2864e9,62920101997.96935,3000,686.1098112480508
57,2903.601072936361,85.69596290314146,7,2989.2970358395028,0.028667597055665274,2903e9,85695962903.14146,3000,1941.8444925424592
58,3300.734531715306,12.212180182094906,7,3312.9467118974007,0.003686198796448709,3300e9,12212180182.094906,3000,3227.4148155250346
59,3482.1417602272636,1.5338925374336667,6,3483.675652764697,0.0004403086539403709,3482e9,1533892537.4336667,3000,2064.167708507204
60,3179.3888062944116,69.35534436591256,7,3248.744150660324,0.021348355287324094,3179e9,69355344365.91255,3000,476.8240281140295
