app_id,start_app,end_app,effective_cpu,effective_io,effective_iter,total_bytes,stretch,utilization,Tcomp,Tio,iterations,priority,group_id
app_1,6.4865,20646.8,7407.5,592.5,824.574,1.62204e+11,1.05684,0.954075,9,0.196849,2132,1,1
app_10,5.59795,20967.3,7402.07,597.925,926.171,1.57183e+11,1.0583,0.954075,8,0.169641,2433,1.00001,1.00001
app_11,1.60744,19934.9,7743.1,256.9,967.777,5.8182e+10,1.02547,0.954075,8,0.0601054,2410,1.00001,1.00001
app_12,7.04407,20175.5,7581.4,418.6,843.563,1.06725e+11,1.04057,0.954075,9,0.126451,2128,1.00001,1.00001
app_13,6.38861,19278.3,7726.27,273.728,774.272,6.79864e+10,1.0264,0.954075,10,0.087827,1866,1.00001,1.00001
app_14,4.13253,20525.8,7699.6,300.4,1098.49,6.89455e+10,1.02979,0.954075,7,0.0627347,2827,1.00001,1.00001
app_15,1.04762,19628.2,7366.1,633.9,668.125,1.73681e+11,1.06104,0.954075,11,0.260001,1648,1.00002,1.00002
app_16,30.241,21278.8,7342.1,657.9,80.401,1.85756e+11,1.06272,0.954075,90,2.32195,216,1.00002,1.00002
app_17,61.804,21152.5,7370.7,629.3,67.6635,1.79498e+11,1.05957,0.954075,108,2.63967,180,1.00002,1.00002
app_18,31.1016,20904.2,7469.5,530.5,74.9553,1.43787e+11,1.05079,0.954075,99,1.91715,197,1.00002,1.00002
app_19,34.5532,21151,7329.6,670.4,67.6715,1.96187e+11,1.06301,0.954075,109,2.8851,178,1.00002,1.00002
app_2,6.30519,20828.8,7419.5,580.5,618.255,1.56459e+11,1.05597,0.954075,12,0.25317,1615,1,1
app_20,65.0661,20458.7,7719.8,280.2,79.8796,7.61476e+10,1.02617,0.954075,97,0.951845,204,1.00002,1.00002
app_21,104.45,21021,7505.6,494.4,70.9889,1.45346e+11,1.04562,0.954075,105,2.04713,187,1.00002,1.00002
app_22,27.281,20740.9,7586.9,413.1,70.1694,1.1668e+11,1.03848,0.954075,107,1.66686,183,1.00002,1.00002
app_23,35.7577,20021.1,7938.8,61.2,74.3529,1.36355e+10,1.00598,0.954075,107,0.184264,186,1.00002,1.00002
app_24,88.6861,21245.7,7306.5,693.5,79.4993,1.84554e+11,1.06794,0.954075,91,2.30692,213,1.00002,1.00002
app_25,25.5443,20581,7603.2,396.8,80.0806,1.17981e+11,1.03611,0.954075,95,1.47476,206,1.00003,1.00003
app_26,27.0216,20447.6,7707.2,292.8,68.6536,8.23934e+10,1.02701,0.954075,113,1.21167,174,1.00003,1.00003
app_27,67.9405,20067.4,7959.3,40.7,75.0762,9.89112e+09,1.00387,0.954075,106,0.131882,188,1.00003,1.00003
app_28,94.1275,20590.3,7791.4,208.6,68.7156,5.69929e+10,1.01932,0.954075,113,0.825984,176,1.00003,1.00003
app_29,78.0521,20580.5,7629.6,370.4,73.2771,1.04944e+11,1.03432,0.954075,105,1.43758,187,1.00003,1.00003
app_3,6.33904,20704.1,7236.11,763.889,802.608,2.09457e+11,1.07446,0.954075,9,0.261012,2084,1,1
app_30,32.0161,20991.4,7392.6,607.4,82.7873,1.60639e+11,1.05915,0.954075,89,1.95902,218,1.00003,1.00003
app_31,1051.84,21225.1,7639.1,360.9,7.52622,1.25091e+11,1.03037,0.954075,1042,15.6363,19,1.00003,1.00003
app_32,1020.26,21433.5,7899.4,100.6,7.34832,3.08051e+10,1.0088,0.954075,1060,4.40073,19,1.00003,1.00003
app_33,433.195,22588.8,7442.5,557.5,9.07055,1.8503e+11,1.04883,0.954075,811,20.5588,25,1.00003,1.00003
app_34,186.539,21908.2,7183.6,816.4,7.4056,1.66615e+11,1.0884,0.954075,1004,23.8022,20,1.00003,1.00003
app_35,596.864,21816.1,7639.8,360.2,6.78745,1.15293e+11,1.03158,0.954075,1132,16.4704,18,1.00004,1.00004
app_36,894.331,22800.1,7681.8,318.2,7.01922,9.92436e+10,1.02814,0.954075,1085,14.1777,19,1.00004,1.00004
app_37,790.525,22892.2,7254.3,745.7,7.6935,1.80581e+11,1.07601,0.954075,919,25.7973,22,1.00004,1.00004
app_38,695.153,21650.8,7919,81,8.61822,2.59121e+10,1.00693,0.954075,903,2.87913,23,1.00004,1.00004
app_39,403.264,21677,7355.9,644.1,7.6511,1.45622e+11,1.06645,0.954075,1024,20.8031,20,1.00004,1.00004
app_4,1.52385,18739,7718.4,281.6,859.777,6.75856e+10,1.02749,0.954075,9,0.0785879,2013,1,1
app_40,0.522302,21082.2,7953.7,46.3,6.64034,1.62897e+10,1.00377,0.954075,1125,2.71495,18,1.00004,1.00004
app_41,60.2794,21463.4,7731.3,268.7,8.24051,9.59014e+10,1.02208,0.954075,937,11.9877,22,1.00004,1.00004
app_42,161.666,20758.5,7694,306,8.01365,8.89531e+10,1.02789,0.954075,998,11.1191,20,1.00004,1.00004
app_43,865.806,21626.2,7868,132,8.09108,3.34228e+10,1.01248,0.954075,987,3.71364,21,1.00004,1.00004
app_44,688.595,21465.8,7859,141,8.77715,3.37256e+10,1.01359,0.954075,885,4.21571,23,1.00004,1.00004
app_45,93.0382,20933.8,7808.3,191.7,7.31506,6.93805e+10,1.01553,0.954075,1061,9.9115,19,1.00004,1.00004
app_46,689.036,23982.5,7948.3,51.7,2.52657,2.41276e+10,1.00346,0.954075,3306,8.04254,7,1.00005,1.00005
app_47,2064.22,22347,7981.9,18.1,2.38689,2.83124e+09,1.00191,0.954075,3374,1.41562,6,1.00005,1.00005
app_48,1163.12,24274.9,7642.2,357.8,2.84556,6.60061e+10,1.03785,0.954075,2768,22.002,8,1.00005,1.00005
app_49,554.125,23320.4,7406.7,593.3,2.77427,1.66144e+11,1.05641,0.954075,2780,55.3812,8,1.00005,1.00005
app_5,1.61647,19838.3,7435.9,564.1,930.153,1.45915e+11,1.05516,0.954075,8,0.156898,2313,1.00001,1.00001
app_50,1408.99,22364.4,7817.2,182.8,2.5995,6.98718e+10,1.01432,0.954075,2871,23.2906,7,1.00005,1.00005
app_51,2434.26,23923.7,7800.8,199.2,3.13342,7.95499e+10,1.01518,0.954075,2656,26.5166,8,1.00005,1.00005
app_52,593.669,22199.9,7419.7,580.3,2.70846,1.65958e+11,1.05462,0.954075,2959,55.3195,7,1.00005,1.00005
app_53,2353.89,24465.6,7849,151,2.59693,8.1632e+10,1.00875,0.954075,3033,40.816,7,1.00005,1.00005
app_54,2626.71,25545.3,7745.5,254.5,2.72004,8.95974e+10,1.02105,0.954075,2712,44.7987,8,1.00005,1.00005
app_55,753.977,24142.9,7777.5,222.5,2.74991,7.02549e+10,1.0194,0.954075,2779,23.4183,8,1.00005,1.00005
app_56,2303.74,24916.9,7883.1,116.9,2.58052,3.59773e+10,1.01022,0.954075,3261,17.9886,7,1.00006,1.00006
app_57,1725.74,22779,7951.8,48.2,2.58466,2.22177e+10,1.00326,0.954075,2857,7.40591,7,1.00006,1.00006
app_58,886.224,22866.8,7929.4,70.6,2.79948,3.28623e+10,1.00474,0.954075,2730,16.4312,8,1.00006,1.00006
app_59,1810.09,23561.6,7896.6,103.4,2.85914,2.3558e+10,1.01008,0.954075,2742,7.85266,8,1.00006,1.00006
app_6,11.7138,20139.6,7416.1,583.9,670.232,1.58674e+11,1.05614,0.954075,11,0.236827,1697,1.00001,1.00001
app_60,671.442,22967.7,7865,135,2.45046,6.01351e+10,1.00945,0.954075,3016,20.045,7,1.00006,1.00006
app_7,9.33329,20069.3,7418.3,581.7,824.706,1.58338e+11,1.05588,0.954075,9,0.191925,2076,1.00001,1.00001
app_8,1.29985,20071,7256.2,743.8,808.897,2.05123e+11,1.0722,0.954075,9,0.253551,2032,1.00001,1.00001
app_9,2.10473,19258.4,7632.3,367.7,954.835,9.45571e+10,1.03535,0.954075,8,0.0990127,2300,1.00001,1.00001
