app_id,start_app,end_app,effective_cpu,effective_io,effective_iter,total_bytes,stretch,utilization,Tcomp,Tio,iterations,priority,group_id
app_1,3.53501,19635.8,7905.6,64.2435,716.992,9.714e+09,1.0107,0.96801,11,0.0135481,1764,0.1,1
app_10,5.52563,19074.9,7861.1,95.6364,986.592,4.00145e+10,1.01252,0.96801,8,0.0405826,2348,0.1,1
app_11,1.20882,19583.7,7828.3,128.566,978.665,9.31212e+10,1.00992,0.96801,8,0.0952159,2397,0.1,1
app_12,9.93382,18303.7,7714.4,257.759,856.013,2.11316e+11,1.00937,0.96801,9,0.246864,1958,0.1,1
app_13,7.75369,18545.3,7893.9,74.1198,790.822,2.02732e+10,1.01084,0.96801,10,0.0256298,1831,0.1,1
app_14,2.94565,18806.1,7726,249.574,858.403,1.75765e+11,1.01243,0.96801,9,0.204855,2017,0.1,1
app_15,7.63295,18535.7,7719.1,253.973,857.982,1.93767e+11,1.01101,0.96801,9,0.225835,1988,0.1,1
app_16,16.0814,20165.5,7743.5,239.89,83.2466,1.75413e+11,1.01024,0.96801,92,2.08824,211,0.01,2
app_17,26.6036,20124.9,7892.9,85.9159,81.4183,5.88397e+10,1.00607,0.96801,98,0.726416,203,0.01,2
app_18,43.5673,20336.7,7895.4,73.7908,88.7716,5.41376e+10,1.00635,0.96801,88,0.608288,226,0.01,2
app_19,60.5297,20036.6,7939.4,44.5693,83.2696,2.89141e+10,1.00398,0.96801,94,0.348363,211,0.01,2
app_2,0.671082,18572.9,7802.2,166.829,867.545,9.99426e+10,1.01238,0.96801,9,0.115274,2016,0.1,1
app_20,34.2503,20224.3,7832.2,139.439,93.6775,9.84012e+10,1.00875,0.96801,84,1.05808,235,0.01,2
app_21,69.2422,19992.2,7939.2,40.1616,87.718,2.62947e+10,1.00433,0.96801,90,0.302238,220,0.01,2
app_22,2.87931,20050.5,7859.4,120.285,77.7683,8.57593e+10,1.0069,0.96801,101,1.09948,195,0.01,2
app_23,89.1626,20307.2,7743.4,244.169,69.0325,1.80474e+11,1.00961,0.96801,112,2.61557,174,0.01,2
app_24,24.8895,20312.3,7769.7,221.683,69.3165,1.66711e+11,1.00801,0.96801,111,2.38158,176,0.01,2
app_25,1.79637,20089.1,7918.1,61.746,74.7623,4.15742e+10,1.00507,0.96801,106,0.561814,187,0.01,2
app_26,82.5858,20383.9,7842.4,124.52,81.2926,8.91724e+10,1.00863,0.96801,96,1.10089,206,0.01,2
app_27,36.3886,20030.5,7871.2,107.943,70.958,7.79799e+10,1.00639,0.96801,112,1.09831,177,0.01,2
app_28,50.4459,20300.8,7742.7,234.309,75.6333,1.73809e+11,1.01055,0.96801,101,2.28695,193,0.01,2
app_29,35.2726,20023.6,7829.7,140.902,80.2246,1.03781e+11,1.00838,0.96801,97,1.29727,202,0.01,2
app_3,7.52707,18996.9,7762.9,198.344,861.192,1.65679e+11,1.00901,0.96801,9,0.192427,2043,0.1,1
app_30,55.0413,20111.1,7948.8,19.5708,93.9266,9.21715e+09,1.00528,0.96801,85,0.0980548,234,0.01,2
app_31,317.732,21722,7408.5,223.261,7.2264,1.44295e+11,1.05921,0.96801,1005,20.6136,20,0.001,3
app_32,721.557,21890.3,7486.6,159.971,9.52554,1.01883e+11,1.05423,0.96801,783,10.1883,26,0.001,3
app_33,178.949,21666.5,7596.5,272.217,8.32222,1.61339e+11,1.03122,0.96801,873,20.1673,23,0.001,3
app_34,650.323,20957.4,7657.5,182.155,7.39765,1.13233e+11,1.0295,0.96801,1038,16.1762,19,0.001,3
app_35,629.449,21861.5,7537.6,3.01472,8.08024,1.99031e+09,1.06107,0.96801,918,0.248789,22,0.001,3
app_36,759.675,21484.1,7513.3,280.111,9.57527,1.85284e+11,1.03915,0.96801,786,20.5872,25,0.001,3
app_37,276.741,21794.3,7500.9,208.805,8.53611,1.26256e+11,1.04888,0.96801,893,15.782,23,0.001,3
app_38,86.6034,21181.1,7792.7,94.7724,7.47571,5.59605e+10,1.01928,0.96801,1033,6.99506,20,0.001,3
app_39,400.482,21277.4,7708.7,189.532,7.95437,1.27913e+11,1.02085,0.96801,1009,15.9891,20,0.001,3
app_4,6.62324,19859.4,7847.5,113.595,872.663,8.33309e+10,1.00872,0.96801,9,0.0954535,2165,0.1,1
app_40,477.208,21983.3,7586.2,234.752,6.92653,1.40958e+11,1.03531,0.96801,1075,20.1369,19,0.001,3
app_41,564.725,21839,7862.6,79.6343,7.97562,4.48622e+10,1.0117,0.96801,986,5.60778,21,0.001,3
app_42,265.674,20919.6,7627.1,139.995,8.91368,8.61987e+10,1.03717,0.96801,868,9.57763,23,0.001,3
app_43,889.813,22299.6,7560.4,170.775,7.98529,9.10169e+10,1.04556,0.96801,935,11.3771,22,0.001,3
app_44,605.468,22381.7,7778.3,149.919,6.6614,9.27671e+10,1.01638,0.96801,1152,13.2524,18,0.001,3
app_45,743.696,22149.2,7575,327.048,7.41321,2.05108e+11,1.02826,0.96801,1008,25.6385,20,0.001,3
app_46,638.635,20838.3,7725.7,165.765,2.75237,1.00114e+11,1.02226,0.96801,2820,38.5055,7,0.001,3
app_47,1866.61,23220.1,7620.15,137.243,3.26731,8.98672e+10,1.03761,0.96801,2326,28.4326,9,0.001,3
app_48,1363.76,22658.6,7571.9,321.867,2.90338,2.02372e+11,1.02904,0.96801,2539,67.4574,8,0.001,3
app_49,2311.26,22710.7,7698.4,260.481,3.05838,1.5603e+11,1.01853,0.96801,2467,52.0101,8,0.001,3
app_5,8.56308,18711.3,7832.1,140.584,708.14,1.00326e+11,1.00852,0.96801,11,0.141703,1658,0.1,1
app_50,2792.75,23557.5,7776,224,2.75293,1.40881e+11,1.0105,0.96801,2897,70.4404,7,0.001,3
app_51,429.242,21075.2,7565.4,359.139,2.73328,2.28826e+11,1.0264,0.96801,2930,76.2754,7,0.001,3
app_52,1132.41,22234.5,7719,238.985,2.65853,1.41683e+11,1.01772,0.96801,2972,47.2277,7,0.001,3
app_53,2053.66,22512.1,7937.2,62.8,2.67294,3.89856e+10,1.00299,0.96801,2884,19.4928,7,0.001,3
app_54,572.587,23283.5,7841.2,28.7021,2.83132,2.24972e+10,1.01733,0.96801,2843,11.2486,8,0.001,3
app_55,2874.89,23662.4,7920.3,79.7,2.4289,8.95862e+09,1.00892,0.96801,3527,2.98621,6,0.0001,4
app_56,3479.64,25193.3,7488.4,173.273,2.16012,5.70098e+10,1.06025,0.96801,3585,28.5049,6,0.0001,4
app_57,2865.04,24891.6,7704.1,273.035,2.53536,1.69385e+11,1.01607,0.96801,2993,56.4616,7,0.001,3
app_58,3409.79,24618.8,7231.8,768.2,2.3488,2.59605e+11,1.06789,0.96801,3327,86.535,6,0.0001,4
app_59,2365.61,24389.9,7830.1,118.689,2.46161,7.57415e+10,1.01191,0.96801,3065,37.8708,7,0.001,3
app_6,6.93515,20090.7,7876.3,85.3322,986.121,5.36961e+08,1.01564,0.96801,8,0.000544585,2474,0.1,1
app_60,1247.65,23306.3,7907.9,64.2241,2.41119,4.54714e+10,1.00586,0.96801,3058,22.7357,7,0.001,3
app_7,1.68082,18697,7741,222.734,1101.61,1.71378e+11,1.01107,0.96801,7,0.155515,2577,0.1,1
app_8,1.33825,19082.9,7770.2,199.011,861.271,1.69131e+11,1.00764,0.96801,9,0.196435,2058,0.1,1
app_9,6.34326,19390.5,7866.7,108.098,656.272,6.51231e+10,1.0086,0.96801,12,0.099273,1591,0.1,1
