app_id,start_app,end_app,effective_cpu,effective_io,effective_iter,total_bytes,stretch,utilization,Tcomp,Tio,iterations,priority,group_id
app_1,1.02017,19970,7893.2,75.5124,719.485,4.74757e+10,1.00747,0.966677,11,0.0659385,1792,0.1,1
app_10,6.27167,18558,7743.6,225.939,772.407,1.6611e+11,1.01142,0.966677,10,0.215169,1794,0.1,1
app_11,5.9091,18880.1,7883.4,78.5866,786.739,3.68096e+10,1.01007,0.966677,10,0.046772,1857,0.1,1
app_12,9.48243,19581.7,7717.25,251.329,771.66,2.10929e+11,1.00906,0.966677,10,0.273405,1890,0.1,1
app_13,6.13413,19537.3,7733.7,235.229,776.068,1.95672e+11,1.00891,0.966677,10,0.252155,1893,0.1,1
app_14,4.10658,19366.8,7755.9,201.808,967.493,1.68573e+11,1.00953,0.966677,8,0.174326,2347,0.1,1
app_15,0.393084,19253,7810.6,150.973,781.455,9.31825e+10,1.01217,0.966677,10,0.119312,1881,0.1,1
app_16,15.2011,20034.8,7850.3,130.609,78.177,9.36574e+10,1.00705,0.966677,101,1.20074,195,0.01,2
app_17,71.9593,20305.4,7815.3,150.145,68.8185,1.05687e+11,1.00998,0.966677,114,1.5317,174,0.01,2
app_18,100.299,20156.2,7828.1,124.005,70.2798,8.97642e+10,1.01037,0.966677,112,1.28235,176,0.01,2
app_19,39.5026,20135.3,7931.1,38.5535,87.2261,2.41388e+10,1.00563,0.966677,91,0.274304,219,0.01,2
app_2,2.54345,19451.6,7867.7,87.7088,984.299,1.22732e+10,1.01523,0.966677,8,0.0124728,2390,0.1,1
app_20,6.91984,19981.6,7928.3,16.0683,99.0212,8.74807e+09,1.00793,0.966677,80,0.0883643,248,0.01,2
app_21,48.2295,20192.3,7933,30.2255,71.6828,1.83264e+10,1.00612,0.966677,110,0.254533,182,0.01,2
app_22,29.3914,20113.5,7716.3,256.088,89.0217,1.84846e+11,1.01251,0.966677,87,2.07692,223,0.01,2
app_23,100.122,20276.3,7932.4,34.2304,77.6161,2.11772e+10,1.00584,0.966677,103,0.271502,194,0.01,2
app_24,126.557,20153.8,7795.8,172.008,60.536,1.28171e+11,1.00959,0.966677,128,2.10116,153,0.01,2
app_25,54.6385,20008.9,7737.9,230.732,88.6104,1.62008e+11,1.01267,0.966677,88,1.82031,221,0.01,2
app_26,75.8508,20182.6,7921.7,47.039,84.3158,2.96313e+10,1.00612,0.966677,93,0.352754,213,0.01,2
app_27,73.6897,20275.9,7755.3,223.893,71.7657,1.62536e+11,1.01038,0.966677,108,2.25745,181,0.01,2
app_28,69.7681,20273.6,7762.5,205.049,82.2266,1.48765e+11,1.01122,0.966677,94,1.8142,208,0.01,2
app_29,35.8193,20074.5,7779.4,192.334,73.256,1.38768e+11,1.01033,0.966677,106,1.90093,185,0.01,2
app_3,2.28884,19563.3,7889.2,78.2209,719.336,5.32094e+10,1.00725,0.966677,11,0.0740047,1762,0.1,1
app_30,35.4476,20291.8,7733.8,245.997,77.5849,1.79094e+11,1.01101,0.966677,100,2.32589,196,0.01,2
app_31,158.512,21958.4,7560.4,252.012,9.45229,1.3943e+11,1.03898,0.966677,776,15.4922,26,0.001,3
app_32,288.43,21805.9,7674.5,286.098,7.09019,1.56781e+11,1.02154,0.966677,1088,19.5976,19,0.001,3
app_33,315.83,21291.7,7560.1,139.668,7.47724,8.4511e+10,1.04649,0.966677,1024,12.073,20,0.001,3
app_34,362.747,21099.4,7643.1,7.54381,7.74616,2.35079e+09,1.04637,0.966677,1008,0.335827,20,0.001,3
app_35,380.282,20862,7684.7,86.5383,8.82791,4.55765e+10,1.03489,0.966677,887,5.06406,23,0.001,3
app_36,764.999,21468.8,7651.8,76.1083,9.24257,5.13459e+10,1.03854,0.966677,837,5.7051,24,0.001,3
app_37,766.276,21081.7,7708.5,248.207,7.86742,1.39001e+11,1.01943,0.966677,990,17.3751,20,0.001,3
app_38,513.936,21444.6,7904,50.9031,8.19981,3.02994e+10,1.00828,0.966677,957,3.78743,21,0.001,3
app_39,199.888,21922.9,7551.5,328.273,7.60912,1.99459e+11,1.03213,0.966677,974,24.9323,21,0.001,3
app_4,4.08783,19091,7731.6,226.463,969.615,1.89509e+11,1.00996,0.966677,8,0.19537,2311,0.1,1
app_40,511.673,21361.1,7456.5,312.943,6.74386,1.88448e+11,1.04644,0.966677,1116,26.9211,18,0.001,3
app_41,158.856,20643.6,7652,265.905,6.933,1.48167e+11,1.02562,0.966677,1091,21.1667,18,0.001,3
app_42,501.841,21585.8,7543,162.339,8.21976,1.03079e+11,1.04629,0.966677,910,12.8849,22,0.001,3
app_43,1029.84,22027.5,7864,64.5635,6.81877,3.96389e+10,1.01219,0.966677,1120,6.60648,18,0.001,3
app_44,85.0284,21703.2,7758.5,155.624,6.71663,9.01979e+10,1.01928,0.966677,1140,12.8854,18,0.001,3
app_45,92.7502,21501.5,7670.63,196.631,7.74143,1.10189e+11,1.02817,0.966677,984,14.7579,21,0.001,3
app_46,378.792,23720.6,7188.82,562.653,2.29492,2.11544e+11,1.08103,0.966677,3178,71.2007,7,0.0001,4
app_47,994.675,22204.8,7653.5,310.952,2.56915,1.74606e+11,1.02196,0.966677,2845,58.2021,7,0.001,3
app_48,2539,24204.4,7884.2,90.965,2.6601,4.57695e+10,1.00883,0.966677,2958,22.8847,7,0.001,3
app_49,1952.65,24927.1,7572.6,325.115,2.7209,1.79524e+11,1.03198,0.966677,2774,59.8415,8,0.001,3
app_5,7.77575,20110.8,7788.4,169.328,864.633,1.1518e+11,1.0122,0.966677,9,0.133156,2173,0.1,1
app_50,1356.63,23606.4,7748,252,2.48686,1.43779e+11,1.01371,0.966677,3037,71.8895,7,0.001,3
app_51,2704.32,25636.2,7887.9,44.2642,2.49376,2.39489e+10,1.01114,0.966677,3142,7.98295,7,0.001,3
app_52,1744.51,24019.4,7872,108.939,2.8993,6.3018e+10,1.00819,0.966677,2720,21.006,8,0.001,3
app_53,1503.34,22222,7857.9,107.478,3.05781,5.04875e+10,1.01158,0.966677,2539,16.8292,8,0.001,3
app_54,3327.7,25657.5,7013.5,694.39,2.02853,1.00521e+11,1.12454,0.966677,3397,50.2604,6,0.0001,4
app_55,345.47,23027.8,7588.9,368.645,2.84839,2.1619e+11,1.02497,0.966677,2735,72.0633,8,0.001,3
app_56,891.31,22542.9,7943,38.8697,2.93266,1.723e+10,1.005,0.966677,2719,5.74334,8,0.001,3
app_57,2358.43,25122.2,7400.65,599.348,2.09775,2.13999e+11,1.05061,0.966677,3359,87.9047,6,0.0001,4
app_58,274.942,22289.8,7957.6,14.1193,2.63781,6.10253e+09,1.00456,0.966677,3127,2.03418,7,0.001,3
app_59,1070.72,23704.2,7904.1,21.0484,2.90799,1.19619e+10,1.0106,0.966677,2850,3.98732,8,0.001,3
app_6,1.69341,19614.1,7728.3,226.526,1101.45,1.84597e+11,1.01101,0.966677,7,0.167663,2702,0.1,1
app_60,102.667,24963.7,7238.4,512.132,2.26319,1.44371e+11,1.0836,0.966677,3213,72.1854,7,0.0001,4
app_7,7.16945,18756.1,7811.8,152.438,784.879,9.64683e+10,1.0116,0.966677,10,0.12289,1833,0.1,1
app_8,6.81104,19705.4,7896.1,69.9709,790.583,5.32706e+09,1.01248,0.966677,10,0.0067346,1946,0.1,1
app_9,6.97701,19412.4,7738.7,232.112,770.053,1.90777e+11,1.00889,0.966677,10,0.247763,1870,0.1,1
