app_id,start_app,end_app,effective_cpu,effective_io,effective_iter,total_bytes,stretch,utilization,Tcomp,Tio,iterations,priority,group_id
app_1,5.83766,19753.5,7736.64,263.357,968.656,6.39582e+10,1.02556,0.956386,8,0.0660531,2391,1,1
app_10,3.07356,19550,7626.9,373.1,764.458,9.73962e+10,1.03569,0.956386,10,0.127482,1863,1.00001,1.00001
app_11,4.04528,19667.4,7766.5,233.5,861.052,5.60561e+10,1.02268,0.956386,9,0.0651058,2121,1.00001,1.00001
app_12,9.55322,20656.8,7392.6,607.4,673.984,1.71595e+11,1.05761,0.956386,11,0.254592,1738,1.00001,1.00001
app_13,9.23871,19859.4,7635.8,364.2,694.075,9.83226e+10,1.03438,0.956386,11,0.141675,1720,1.00001,1.00001
app_14,2.96064,19052.5,7857.8,142.2,785.102,2.80903e+10,1.01447,0.956386,10,0.0357839,1868,1.00001,1.00001
app_15,4.28238,19343.8,7667.02,332.976,765.974,8.32554e+10,1.03222,0.956386,10,0.108776,1850,1.00002,1.00002
app_16,83.635,20232.9,7773.2,226.8,66.9099,6.3392e+10,1.02085,0.956386,116,0.946149,170,1.00002,1.00002
app_17,36.8596,20847.5,7482.5,517.5,71.1756,1.52079e+11,1.04786,0.956386,106,2.14196,184,1.00002,1.00002
app_18,64.4322,21072.6,7419.02,580.978,76.8879,1.75899e+11,1.05334,0.956386,96,2.29625,203,1.00002,1.00002
app_19,26.7518,20076.7,7971.1,28.9,88.6221,7.76642e+09,1.00265,0.956386,90,0.0872632,222,1.00002,1.00002
app_2,9.28616,19260.2,7356.9,643.1,820.761,1.8129e+11,1.06126,0.956386,9,0.220816,1970,1,1
app_20,43.9093,20873.2,7557.6,442.4,72.7252,1.22721e+11,1.04162,0.956386,104,1.70446,190,1.00002,1.00002
app_21,91.6255,21090,7348.1,651.9,81.3673,1.96186e+11,1.06041,0.956386,91,2.39251,213,1.00002,1.00002
app_22,5.82456,20069.9,7882.4,117.6,81.9617,3.14006e+10,1.01089,0.956386,95,0.382935,208,1.00002,1.00002
app_23,11.4381,20649.9,7501.9,498.1,78.9932,1.29953e+11,1.04824,0.956386,95,1.64498,205,1.00002,1.00002
app_24,73.2631,20912.6,7467.7,532.3,77.8231,1.54328e+11,1.04959,0.956386,97,1.97857,202,1.00002,1.00002
app_25,19.8113,20464.9,7687.2,312.8,98.8777,8.9693e+10,1.02869,0.956386,78,0.90599,251,1.00003,1.00003
app_26,92.6267,21102.7,7449.2,550.8,82.0343,1.64123e+11,1.05079,0.956386,90,2.0015,216,1.00003,1.00003
app_27,31.8791,20436.7,7694.9,305.1,70.4708,8.56845e+10,1.0282,0.956386,109,1.22406,181,1.00003,1.00003
app_28,18.3828,20280.1,7762.4,237.6,72.5093,6.79818e+10,1.02166,0.956386,108,0.944192,183,1.00003,1.00003
app_29,44.6037,20588.5,7648.3,351.7,99.1593,1.02937e+11,1.03209,0.956386,77,1.03977,254,1.00003,1.00003
app_3,3.64541,20570.6,7334,666,735.142,1.8832e+11,1.0635,0.956386,10,0.256217,1888,1,1
app_30,92.1815,21201.9,7407,593,68.8566,1.62791e+11,1.05683,0.956386,107,2.35928,183,1.00003,1.00003
app_31,104.25,21102.6,7823.8,176.2,7.26322,4.26773e+10,1.01697,0.956386,1098,6.09676,19,1.00003,1.00003
app_32,393.809,21164.8,7458,542,8.75575,1.94169e+11,1.04546,0.956386,851,21.5743,23,1.00003,1.00003
app_33,778.535,22567.4,7541.9,458.1,6.97071,1.38117e+11,1.04166,0.956386,1051,19.731,19,1.00003,1.00003
app_34,101.216,20364.4,7824.7,175.3,8.85878,4.70055e+10,1.0163,0.956386,873,5.22283,23,1.00003,1.00003
app_35,581.13,21239.2,7668,332,7.86841,9.47742e+10,1.03056,0.956386,1005,11.8468,20,1.00004,1.00004
app_36,60.5089,21197.5,7674.8,325.197,9.16345,8.61894e+10,1.0308,0.956386,815,8.94252,25,1.00004,1.00004
app_37,256.006,20572.4,7698.4,301.6,7.36674,9.07818e+10,1.02707,0.956386,1044,12.9688,19,1.00004,1.00004
app_38,166.076,21926.4,7640.2,359.8,9.44805,1.30672e+11,1.02949,0.956386,785,13.0672,26,1.00004,1.00004
app_39,221.518,21659.8,7772.2,227.8,7.73873,8.88427e+10,1.01768,0.956386,986,11.1053,21,1.00004,1.00004
app_4,9.6752,19121.1,7754.1,245.9,775.249,6.10731e+10,1.02365,0.956386,10,0.0787025,1853,1,1
app_40,858.433,22708.3,7640.7,359.3,6.23508,9.53561e+10,1.03412,0.956386,1223,15.8927,17,1.00004,1.00004
app_41,913.293,21000,7976.6,23.4,7.89014,8.62287e+09,1.00185,0.956386,1000,1.07786,20,1.00004,1.00004
app_42,592.296,22137,7422.9,577.1,8.68445,1.80058e+11,1.05222,0.956386,888,20.0065,23,1.00004,1.00004
app_43,984.5,22356.3,7805.7,194.3,7.85661,5.09857e+10,1.01824,0.956386,990,6.37321,21,1.00004,1.00004
app_44,759.573,20671.6,7863,137,7.71669,6.45447e+10,1.00914,0.956386,1064,9.22067,19,1.00004,1.00004
app_45,219.675,21231.8,7655.7,344.3,7.9577,1.01733e+11,1.03127,0.956386,968,12.7166,21,1.00004,1.00004
app_46,2093.84,24876.1,7623.1,376.9,2.9773,1.11588e+11,1.0343,0.956386,2729,37.196,8,1.00005,1.00005
app_47,1026.66,25124.4,7293.1,706.9,2.32777,1.50759e+11,1.07471,0.956386,3185,75.3794,7,1.00005,1.00005
app_48,377.554,23285,7567,433,2.35995,2.18398e+11,1.02756,0.956386,3034,72.7992,7,1.00005,1.00005
app_49,2140.08,23067.5,7972.4,27.6,2.72006,3.89422e+09,1.00297,0.956386,3008,1.29807,7,1.00005,1.00005
app_5,7.10639,18818.4,7907.6,92.4,719.451,1.46044e+10,1.00982,0.956386,11,0.0202838,1691,1.00001,1.00001
app_50,2012.72,25498.1,7804.4,195.6,2.45678,7.04481e+10,1.01589,0.956386,3237,35.224,7,1.00005,1.00005
app_51,932.716,23370.8,7775.9,224.1,2.81413,9.22177e+10,1.01676,0.956386,2641,30.7392,8,1.00005,1.00005
app_52,1921.8,25228.6,7507,493,2.7507,1.73418e+11,1.04161,0.956386,2781,57.8061,8,1.00005,1.00005
app_53,182.947,21473.3,7537.6,462.4,2.97615,8.57508e+10,1.04941,0.956386,2615,28.5836,8,1.00005,1.00005
app_54,2180.16,23450.8,7528.5,471.5,2.95624,1.80785e+11,1.03771,0.956386,2525,60.2618,8,1.00005,1.00005
app_55,675.051,21560.5,7539.1,460.9,2.77549,1.98283e+11,1.03394,0.956386,2838,66.0943,7,1.00005,1.00005
app_56,382.816,22980.6,7708.9,291.1,2.81457,1.28913e+11,1.02069,0.956386,2754,64.4564,8,1.00006,1.00006
app_57,2141.5,25648.6,7489.9,510.1,2.64585,1.367e+11,1.04896,0.956386,2639,68.3501,8,1.00006,1.00006
app_58,1526.22,22915.3,7868.8,131.2,2.49285,4.45567e+10,1.01095,0.956386,3058,14.8522,7,1.00006,1.00006
app_59,2147.79,24500.9,7999.1,0.9,2.477,1.71956e+08,1.00009,0.956386,3236,0.0859779,7,1.00006,1.00006
app_6,9.08226,19902.7,7480.7,519.3,747.128,1.44252e+11,1.04919,0.956386,10,0.193109,1863,1.00001,1.00001
app_60,1734.32,23033,7430.3,569.7,2.45739,1.15452e+11,1.0602,0.956386,2917,57.7258,7,1.00006,1.00006
app_7,0.289917,19038.3,7894.6,105.4,716.717,1.82761e+10,1.01101,0.956386,11,0.0255252,1707,1.00001,1.00001
app_8,5.86977,18980.1,7766.9,233.1,861.975,5.61069e+10,1.02262,0.956386,9,0.0650892,2044,1.00001,1.00001
app_9,2.59942,20333.1,7722.9,277.1,769.453,7.26527e+10,1.02623,0.956386,10,0.0944768,1961,1.00001,1.00001
