app_id,Tcomp,Tio,iter,witer,alpha_io,compute_size,io_size,mu,desyn_time
1,8.435654715026867,0.5960116826595037,2215,9.03166639768637,0.06599133054916456,8e9,596011682.6595037,10,6.067988611132023
2,9.102723102596656,0.3410944567737081,2118,9.443817559370364,0.03611828104782336,9e9,341094456.7737081,10,6.402858391830873
3,9.358920714107605,0.9316574266331058,1944,10.29057814074071,0.09053499365061385,9e9,931657426.6331058,10,3.9465204075949574
4,10.755763126782108,0.48969530341359274,1779,11.2454584301957,0.043546050741576636,10e9,489695303.41359276,10,7.922100853058073
5,11.113320631161875,0.32946284268237075,1748,11.442783473844246,0.02879219408769311,11e9,329462842.6823707,10,10.618034550436718
6,105.8188971761644,2.505242205595319,185,108.32413938175972,0.023127275415189375,105e9,2505242205.595319,100,100.04583948529596
7,122.80688941522861,6.774819554278377,155,129.581708969507,0.05228222106464593,122e9,6774819554.278377,100,0.8119599104808077
8,87.82051935598194,1.1910325961861512,225,89.01155195216809,0.013380651949829762,87e9,1191032596.1861513,100,14.48163865429619
9,117.12600387427334,3.8538797216092084,166,120.97988359588254,0.031855541657508854,117e9,3853879721.6092086,100,27.249376845292304
10,100.00492049633695,7.710399663629995,186,107.71532015996695,0.07158127230350667,100e9,7710399663.629995,100,48.50019224362015
11,792.5347079896205,56.8342646897415,24,849.3689726793621,0.06691351640789982,792e9,56834264689.7415,1000,572.6335040923199
12,913.8037228177101,94.2227179171267,20,1008.0264407348368,0.09347246670279769,913e9,94222717917.1267,1000,172.4474965835364
13,972.2370640689818,73.32685010500684,20,1045.5639141739887,0.07013138949323452,972e9,73326850105.00684,1000,759.814385885901
14,906.1259797113656,34.886238269740595,22,941.0122179811062,0.03707309809918009,906e9,34886238269.74059,1000,878.0647278713377
15,1002.6883330976863,81.53314838800695,19,1084.2214814856932,0.07519971682933568,1002e9,81533148388.00694,1000,399.596258090334
