app_id,start_app,end_app,effective_cpu,effective_io,effective_iter,total_bytes,stretch,utilization,Tcomp,Tio,iterations,priority,group_id
app_1,4.32365,20108.5,7458.8,440.755,832.38,3.88606e+11,1.01945,0.898599,9,0.467075,2081,0.1,1
app_10,17.5108,20721.5,7479.7,354.289,85.1754,2.36819e+11,1.03674,0.898599,88,2.7861,221,0.01,2
app_11,4.20465,22604.8,7058.1,623.787,7.04402,3.15991e+11,1.08488,0.898599,973,45.1416,20,0.001,3
app_12,16.1745,23418.2,7429.8,317.72,5.86487,1.86516e+11,1.05038,0.898599,1134,31.086,18,0.001,3
app_13,674.986,21270.6,6644.6,751.478,7.24255,4.22707e+11,1.13197,0.898599,1005,52.8384,19,0.001,3
app_14,662.278,21959.8,6394.2,1493.71,6.66347,7.91031e+11,1.1134,0.898599,1005,113.004,18,0.001,3
app_15,558.952,22135.3,6147.4,1441.44,8.99616,7.50285e+11,1.15981,0.898599,753,83.365,24,0.001,3
app_2,8.56754,19829.8,7824.7,67.7398,707.647,2.53773e+10,1.0191,0.898599,11,0.0358436,1756,0.1,1
app_3,7.29704,20315.2,7036.8,893.949,885.144,7.98101e+11,1.02107,0.898599,8,0.901809,2237,0.1,1
app_4,2.05331,20315.7,7619.3,297.575,689.743,2.5898e+11,1.01545,0.898599,11,0.375877,1746,0.1,1
app_5,6.62998,20155.6,7184.2,745.055,802.415,6.80509e+11,1.0172,0.898599,9,0.848515,2011,0.1,1
app_6,71.9343,21059.7,7225.3,737.578,70.3112,5.05626e+11,1.0348,0.898599,103,7.22323,182,0.01,2
app_7,34.4907,21004.5,6855.52,1090.84,73.4229,7.51835e+11,1.05161,0.898599,92,10.2353,195,0.01,2
app_8,82.4351,20784,7764.8,30.8033,82.5956,1.46033e+10,1.02836,0.898599,94,0.175943,213,0.01,2
app_9,37.7539,20688.2,7708.69,121.982,98.2116,8.10204e+10,1.027,0.898599,78,0.818388,254,0.01,2
