app_id,start_app,end_app,effective_cpu,effective_io,effective_iter,total_bytes,stretch,utilization,Tcomp,Tio,iterations,priority,group_id
app_1,5.22274,19371.4,6902.4,890.493,858.996,8.25464e+11,1.03521,0.891044,8,0.960959,2088,0.1,1
app_10,38.7251,21636.4,6707.3,1265.75,77.8815,6.72871e+11,1.08399,0.891044,86,8.62655,212,0.01,2
app_11,816.574,24319.2,6665.5,1193.25,6.65556,4.78987e+11,1.11974,0.891044,1041,68.4267,19,0.001,3
app_12,742.289,22639.4,7168.6,286.352,7.32753,1.14077e+11,1.0985,0.891044,997,16.2968,20,0.001,3
app_13,950.842,22293.7,7475.8,206.447,5.9165,9.26067e+10,1.05703,0.891044,1110,15.4345,18,0.001,3
app_14,43.1989,21745.6,7083.9,730.358,7.77562,2.7894e+11,1.08654,0.891044,988,34.8675,20,0.001,3
app_15,1064.13,24780.3,6458.7,1406.89,5.42209,5.54007e+11,1.14079,0.891044,1061,92.3344,18,0.001,3
app_2,10.0325,19378.9,7005.57,807.37,785.191,7.3812e+11,1.0331,0.891044,9,0.940242,1898,0.1,1
app_3,1.78404,19197.2,7260.2,513.37,808.491,4.67373e+11,1.03525,0.891044,9,0.578432,1940,0.1,1
app_4,6.66832,19077.5,7022.2,793.857,778.295,7.1686e+11,1.03372,0.891044,9,0.921055,1864,0.1,1
app_5,9.37225,19236.4,6967.2,818.58,866.833,7.62424e+11,1.03498,0.891044,8,0.879381,2097,0.1,1
app_6,58.7592,20757.1,7307.8,509.678,83.186,2.7696e+11,1.05475,0.891044,90,3.33687,213,0.01,2
app_7,80.1319,20203.7,7855.9,32.9795,78.4599,1.06413e+10,1.01697,0.891044,98,0.134701,203,0.01,2
app_8,12.13,20668.8,7452.7,402.95,102.386,2.06746e+11,1.04446,0.891044,75,2.02692,259,0.01,2
app_9,29.1347,20550.2,7591.5,253.253,85.7972,1.30274e+11,1.03603,0.891044,88,1.51482,222,0.01,2
