app_id,start_app,end_app,effective_cpu,effective_io,effective_iter,total_bytes,stretch,utilization,Tcomp,Tio,iterations,priority,group_id
app_1,9.29614,20095.1,7527.2,423.672,686.231,3.72655e+11,1.01268,0.903679,11,0.543228,1724,0.1,1
app_10,13.9341,20865.5,6921.4,951.144,73.508,6.9158e+11,1.05084,0.903679,93,9.34568,195,0.01,2
app_11,798.523,24220.8,6475.5,1524.5,7.33244,7.47022e+11,1.10765,0.903679,843,93.3777,22,0.001,3
app_12,982.368,24342.4,6476.68,1231.66,6.79375,6.19925e+11,1.1273,0.903679,933,99.1693,20,0.001,3
app_13,73.5815,22442.1,7128.6,619.642,7.54423,3.07287e+11,1.07586,0.903679,964,43.8982,20,0.001,3
app_14,637.849,22562.9,7211.4,270.805,6.84304,1.1625e+11,1.09176,0.903679,1084,16.6071,19,0.001,3
app_15,570.736,22813.5,7334.2,409.66,7.35922,2.25068e+11,1.0583,0.903679,955,32.1526,21,0.001,3
app_2,2.7191,19700.9,7507.8,413.693,933.255,3.65893e+11,1.01604,0.903679,8,0.391748,2303,0.1,1
app_3,6.64942,19739.6,7501.4,430.431,829.785,3.76092e+11,1.01555,0.903679,9,0.45367,2058,0.1,1
app_4,4.82965,20178.7,7747.3,178.515,863.431,1.49211e+11,1.01311,0.903679,9,0.172898,2163,0.1,1
app_5,0.642746,18351.2,7195.6,756.794,909.483,6.65795e+11,1.01763,0.903679,8,0.731643,2070,0.1,1
app_6,7.7445,21101.3,7777.5,62.265,72.3374,3.68949e+10,1.02375,0.903679,104,0.512429,190,0.01,2
app_7,26.9482,20716.9,7017.9,887.013,81.3582,6.38106e+11,1.04493,0.903679,87,7.78178,210,0.01,2
app_8,10.3703,20894.2,6997.8,869.844,86.8671,6.25152e+11,1.04946,0.903679,79,7.18565,231,0.01,2
app_9,90.0711,20286.2,7621.2,232.234,79.521,1.67482e+11,1.02713,0.903679,100,2.09353,195,0.01,2
