app_id,Tcomp,Tio,iter,witer,alpha_io,compute_size,io_size,mu,desyn_time
1,9.90295250714513,0.46200029158787137,1930,10.364952798733002,0.04457331360393128,9e9,462000291.5878714,10,1.2894298263164439
2,9.949086415709207,0.7415120510632837,1871,10.69059846677249,0.0693611357089111,9e9,741512051.0632837,10,7.184840245642988
3,10.447832042640988,0.3341698548978384,1855,10.782001897538827,0.030993303291304217,10e9,334169854.8978384,10,10.162230524922682
4,9.531369940507654,0.6486685442348572,1965,10.18003848474251,0.06371965540278253,9e9,648668544.2348572,10,0.9833864560851594
5,9.819285226765032,0.19493811065239472,1998,10.014223337417427,0.019466123740622246,9e9,194938110.6523947,10,9.632996365354863
6,124.00701289686413,9.122560433891525,151,133.12957333075565,0.06852392151236639,124e9,9122560433.891525,100,19.922327155972845
7,95.24791055896921,1.42205669372828,207,96.66996725269749,0.014710429041638044,95e9,1422056693.7282798,100,17.271969468061734
8,96.986124884053,0.2793457390336174,206,97.26547062308661,0.0028719928793241537,96e9,279345739.03361744,100,9.02310962369804
9,94.54020926134666,2.0138846340349277,208,96.55409389538158,0.02085757892583006,94e9,2013884634.0349276,100,79.46138997188035
10,84.32323517986578,4.147333642133234,227,88.47056882199901,0.04687811661387173,84e9,4147333642.1332345,100,58.51799900895942
11,924.5851193477625,19.068771963995836,22,943.6538913117583,0.020207379145640608,924e9,19068771963.995834,1000,715.4940226874156
12,1028.6455099336424,49.140427359940034,19,1077.7859372935825,0.04559386577573657,1028e9,49140427359.94003,1000,463.4147687572153
13,969.0314016946376,21.990232833551428,21,991.021634528189,0.022189457896164555,969e9,21990232833.551426,1000,874.8090130237741
14,900.2368608927734,71.30152874869987,21,971.5383896414733,0.07339033589296688,900e9,71301528748.69986,1000,191.20519963455075
15,955.2588225635304,8.201264300322178,21,963.4600868638526,0.008512303116798554,955e9,8201264300.322178,1000,131.5468810054884
16,4592.745576997713,119.3126821936101,5,4712.0582591913235,0.025320714564782645,4592e9,119312682193.6101,4000,763.0253253892345
17,3518.2762331317117,286.598601205905,6,3804.874834337617,0.0753240549779605,3518e9,286598601205.905,4000,2491.6463992725553
18,4056.9691284439355,291.1649156954404,5,4348.134044139376,0.0669631875971916,4056e9,291164915695.4404,4000,2975.4499940343167
19,3148.9935225772015,134.41077426735842,7,3283.40429684456,0.040936406886148864,3148e9,134410774267.35841,4000,3013.7815914886787
20,3808.617274466247,157.0677916066774,6,3965.6850660729247,0.03960672342602737,3808e9,157067791606.6774,4000,1004.8049236431826
