app_id,start_app,end_app,effective_cpu,effective_io,effective_iter,total_bytes,stretch,utilization,Tcomp,Tio,iterations,priority,group_id
app_1,2.13144,28554.9,4175.24,365.378,465.789,3.3538e+11,1.77359,0.777988,9,0.719773,1956,1,1
app_10,21.0165,25216.6,5975.01,35.3189,69.8961,3.17918e+10,1.33182,0.777988,85,0.454168,233,1,1
app_11,975.727,21767.4,6991.1,332.168,7.53875,3.31835e+11,1.09246,0.777988,958,41.4794,20,1,1
app_12,784.208,21586.3,7015.3,406.802,6.63296,4.06614e+11,1.07789,0.777988,1061,58.0878,18,1,1
app_13,24.1261,20816.3,7190.09,330.509,8.49234,3.30195e+11,1.06379,0.777988,837,36.6884,23,1,1
app_14,222.595,21708,7264.7,292.852,8.44009,2.92401e+11,1.05861,0.777988,859,36.5501,23,1,1
app_15,703.859,21598.1,7699.3,69.5329,8.64097,6.9103e+10,1.02981,0.777988,913,7.67811,22,1,1
app_16,1852.15,25682.8,7755,245,2.01618,2.44899e+11,1.00001,0.777988,3682,122.45,6,1,1
app_17,393.767,22882.8,7421.1,275.011,1.98933,2.74884e+11,1.0395,0.777988,3563,137.442,6,1,1
app_18,79.1666,23703.4,7354.9,202.564,1.8993,2.02505e+11,1.05856,0.777988,3836,101.253,6,1,1
app_19,2845.08,23410.7,7594.9,383.634,1.99191,3.83498e+11,1.00271,0.777988,3954,191.749,5,1,1
app_2,0.63069,28160.1,4304.9,342.906,431.184,3.18278e+11,1.73041,0.777988,10,0.738464,1760,1,1
app_20,3693.96,24750.6,7175.8,645.636,1.80855,6.45576e+11,1.02284,0.777988,3818,322.788,5,1,1
app_3,0.970958,27685.5,4177.2,368.517,463.648,3.43632e+11,1.76959,0.777988,9,0.742186,1863,1,1
app_4,6.06544,29726.7,4378.7,137.32,487.776,1.03486e+11,1.78484,0.777988,9,0.212062,2168,1,1
app_5,7.6941,28262.6,4364.2,137.891,485.933,1.05538e+11,1.78981,0.777988,9,0.217156,2005,1,1
app_6,77.3659,24969.5,5903.7,205.435,57.472,2.02965e+11,1.31004,0.777988,103,3.56078,187,1,1
app_7,71.3775,24958.6,5995,162.374,58.6305,1.5965e+11,1.29983,0.777988,102,2.75259,190,1,1
app_8,29.4307,25073.5,6053.4,54.4203,61.6739,5.07463e+10,1.31058,0.777988,98,0.818488,201,1,1
app_9,57.8375,24767.1,5688.47,460.246,63.817,4.56835e+11,1.30181,0.777988,89,7.14237,208,1,1
