app_id,start_app,end_app,effective_cpu,effective_io,effective_iter,total_bytes,stretch,utilization,Tcomp,Tio,iterations,priority,group_id
app_1,2.13144,19344.6,7293,645.895,808.673,5.82297e+11,1.01583,0.922084,9,0.719773,1956,0.1,1
app_10,21.0165,20169.3,7834.2,71.228,92.7248,4.17835e+10,1.01575,0.922084,85,0.454168,233,0.01,2
app_11,975.727,21622.4,7351.6,595.178,7.80975,3.31835e+11,1.0412,0.922084,958,41.4794,20,0.001,3
app_12,784.208,21686.4,7260.8,719.721,6.68601,4.06614e+11,1.04338,0.922084,1061,58.0878,18,0.001,3
app_13,24.1261,20707.3,7371.4,574.812,8.82405,3.30195e+11,1.03875,0.922084,837,36.6884,23,0.001,3
app_14,222.595,21820.1,7396.2,516.02,8.18516,2.92401e+11,1.0405,0.922084,859,36.5501,23,0.001,3
app_15,703.859,21694.9,7876.1,123.9,8.708,6.9103e+10,1.0069,0.922084,913,7.67811,22,0.001,3
app_16,1852.15,25984,7503.25,496.752,1.9472,1.70998e+11,1.04245,0.922084,3682,122.45,6,0.0001,4
app_17,393.767,23330.1,7392.9,550.777,2.12864,2.74884e+11,1.04333,0.922084,3563,137.442,6,0.0001,4
app_18,79.1666,25483.4,7008.8,370.86,1.83669,2.02505e+11,1.10937,0.922084,3836,101.253,6,0.0001,4
app_19,2845.08,23990.8,7089.2,910.8,1.81274,3.83498e+11,1.07056,0.922084,3954,191.749,5,0.0001,4
app_2,0.63069,19166.9,7336.52,599.929,734.971,5.42671e+11,1.01533,0.922084,10,0.738464,1760,0.1,1
app_20,3693.96,25274.7,6029.1,1682.72,1.73765,6.45576e+11,1.19856,0.922084,3818,322.788,5,0.0001,4
app_3,0.970958,18401.4,7277.9,664.989,811.194,6.01913e+11,1.01525,0.922084,9,0.742186,1863,0.1,1
app_4,6.06544,20404.9,7643,246.444,848.155,1.79829e+11,1.02265,0.922084,9,0.212062,2168,0.1,1
app_5,7.6941,18917.6,7622.7,247.069,849.121,1.84366e+11,1.02471,0.922084,9,0.217156,2005,0.1,1
app_6,77.3659,20461.2,7557.6,371.152,72.93,2.59937e+11,1.02334,0.922084,103,3.56078,187,0.01,2
app_7,71.3775,20439.9,7640.6,306.008,74.3806,2.03692e+11,1.01985,0.922084,102,2.75259,190,0.01,2
app_8,29.4307,20145.5,7877.1,103.896,80.3038,6.5479e+10,1.00723,0.922084,98,0.818488,201,0.01,2
app_9,57.8375,20704.4,7171.5,803.21,80.564,5.76076e+11,1.03258,0.922084,89,7.14237,208,0.01,2
