app_id,start_app,end_app,effective_cpu,effective_io,effective_iter,total_bytes,stretch,utilization,Tcomp,Tio,iterations,priority,group_id
app_1,8.0984,20031.8,7684.1,315.9,700.128,1.04556e+11,1.02713,0.906726,11,0.149365,1746,1,1
app_10,34.4832,22348.7,6598.2,1401.8,68.3743,5.94222e+11,1.11228,0.906726,96,8.73856,190,1.00001,1.00001
app_11,929.728,20778.3,7966,34,8.18396,1.19906e+10,1.00276,0.906726,1004,1.33229,20,1.00001,1.00001
app_12,127.488,21853.1,7081,919,7.03331,3.59307e+11,1.07522,0.906726,1005,51.3296,19,1.00001,1.00001
app_13,405.432,22297.4,7165.7,834.3,7.42725,3.0117e+11,1.0714,0.906726,928,43.0243,21,1.00001,1.00001
app_14,749.255,22015.5,7548.7,451.3,7.95754,1.65034e+11,1.03711,0.906726,954,20.6292,21,1.00001,1.00001
app_15,425.777,22178.2,7165.6,834.4,8.7457,3.29067e+11,1.06743,0.906726,810,36.563,24,1.00002,1.00002
app_16,3525.81,27107.7,7518.8,481.2,1.72518,2.58578e+11,1.02862,0.906726,4502,129.289,5,1.00002,1.00002
app_17,725.205,24449.9,7096.85,903.146,1.70698,2.61978e+11,1.08713,0.906726,4175,228.502,5,1.00002,1.00002
app_18,2431.47,22821.8,7902.1,97.9,1.89718,5.82444e+10,1.00498,0.906726,4003,29.1222,5,1.00002,1.00002
app_19,1004.65,27587.4,7019.9,980.1,1.69159,2.51996e+11,1.10013,0.906726,3682,251.996,6,1.00002,1.00002
app_2,1.75922,19379.1,7357.9,642.1,920.266,2.26302e+11,1.05482,0.906726,8,0.24598,2226,1,1
app_20,1988.8,26240.1,7650.01,349.993,1.91735,7.59407e+10,1.03547,0.906726,3862,54.9709,6,1.00002,1.00002
app_3,0.17776,19952,6837.1,1162.9,852.454,4.28842e+11,1.10103,0.906726,8,0.502745,2124,1,1
app_4,0.941152,20878.9,6419.2,1580.8,715.923,6.37346e+11,1.1337,0.906726,9,0.890149,1857,1,1
app_5,5.09504,20010.7,7014.7,985.299,776.073,3.67079e+11,1.08375,0.906726,9,0.47299,1936,1.00001,1.00001
app_6,4.54089,22337.7,6646.4,1353.6,68.0221,5.73331e+11,1.10807,0.906726,98,8.43134,188,1.00001,1.00001
app_7,30.976,20322.5,7910.3,89.7,78.4878,3.0759e+10,1.00742,0.906726,100,0.389354,200,1.00001,1.00001
app_8,22.8861,20168.2,7892.6,107.4,83.5519,3.42726e+10,1.00923,0.906726,95,0.412923,210,1.00001,1.00001
app_9,38.2719,22190.8,6601.01,1398.99,67.8776,6.05101e+11,1.11017,0.906726,97,8.95081,188,1.00001,1.00001
