app_id,start_app,end_app,effective_cpu,effective_io,effective_iter,total_bytes,stretch,utilization,Tcomp,Tio,iterations,priority,group_id
app_1,5.72194,19939.6,7659,247.255,853.983,1.74415e+11,1.02127,0.906523,9,0.204233,2125,0.1,1
app_10,21.4493,20369.5,7784.2,58.8235,79.6776,3.80245e+10,1.02273,0.906523,98,0.475306,202,0.01,2
app_11,383.689,21543.4,6799.4,1200.6,6.24419,6.21585e+11,1.07802,0.906523,1073,103.597,17,0.001,3
app_12,229.77,21408.6,7467.1,428.557,7.20008,2.23315e+11,1.04026,0.906523,1022,31.9021,19,0.001,3
app_13,696.939,20938.4,7873.8,87.8445,7.20084,3.83182e+10,1.01111,0.906523,1130,5.47403,18,0.001,3
app_14,411.2,21719,7726,190.379,8.84756,9.00806e+10,1.02353,0.906523,889,10.009,23,0.001,3
app_15,314.133,21232,7705.2,181.433,7.94501,8.62481e+10,1.02677,0.906523,966,10.781,21,0.001,3
app_16,177.663,22555.6,7436.1,36.5851,2.12428,7.76567e+09,1.07471,0.906523,3513,3.88283,6,0.0001,4
app_17,2750.57,26239.3,6660.7,1339.3,1.62991,6.17337e+11,1.0992,0.906523,4181,308.669,5,0.0001,4
app_18,520.214,22562.5,7366.3,140.231,1.79257,1.37341e+10,1.08401,0.906523,4018,6.86704,5,0.0001,4
app_19,3647.87,25903.7,5880.1,1202.55,1.64104,5.17605e+11,1.25045,0.906523,3918,258.802,5,0.0001,4
app_2,6.02676,18580,7352.7,600.008,815.447,5.53836e+11,1.01182,0.906523,9,0.67872,1894,0.1,1
app_20,2975.18,26677,5618,1372.59,1.44489,5.26873e+11,1.3019,0.906523,3964,263.436,5,0.0001,4
app_3,1.12502,18635.1,7285,670.168,810.477,6.045e+11,1.01401,0.906523,9,0.74607,1884,0.1,1
app_4,3.55707,18617.9,7487.3,448.841,834.162,4.10294e+11,1.01297,0.906523,9,0.491959,1936,0.1,1
app_5,3.93635,19467.8,7639,300.441,763.051,2.34906e+11,1.01601,0.906523,10,0.307872,1858,0.1,1
app_6,43.4023,20609.6,7096.3,833.585,75.7285,6.07628e+11,1.03843,0.906523,94,7.9951,195,0.01,2
app_7,38.1933,20837.9,7047.8,907.726,73.8052,6.60679e+11,1.03782,0.906523,95,8.9281,193,0.01,2
app_8,3.21056,20314.9,7517.7,389.024,65.5893,2.82222e+11,1.02565,0.906523,116,4.34187,166,0.01,2
app_9,72.1432,20471.2,7642,246.983,66.3875,1.73617e+11,1.02359,0.906523,115,2.63056,170,0.01,2
