app_id,Tcomp,Tio,iter,witer,alpha_io,compute_size,io_size,mu,desyn_time
1,8.743364082096814,0.027573204752724675,2281,8.77093728684954,0.003143701049381095,8e9,27573204.752724674,10,2.830906304732088
2,9.631790676703861,0.11929949729413548,2052,9.751090173997998,0.012234477906096736,9e9,119299497.29413548,10,3.388757804646158
3,10.179363683859002,0.05904846280612429,1954,10.238412146665127,0.00576734575247175,10e9,59048462.806124285,10,7.519409891998643
4,10.014455215152148,0.15628157861562422,1967,10.170736793767773,0.015365806999487728,10e9,156281578.61562422,10,6.778524117856904
5,9.973819387201175,0.20194670345418667,1966,10.175766090655362,0.01984584763987833,9e9,201946703.45418668,10,3.060921663801343
6,9.380341959502047,0.16423772977243212,2096,9.54457968927448,0.01720743449363106,9e9,164237729.77243212,10,0.25046044537359585
7,10.16993650726469,0.13276797888237557,1942,10.302704486147066,0.01288671135437247,10e9,132767978.88237557,10,9.925027128600945
8,10.387159521628542,0.012631763434727002,1924,10.39979128506327,0.0012146170137923257,10e9,12631763.434727002,10,5.6342001807144895
9,9.811727270130573,0.09418538735424896,2019,9.905912657484823,0.009507996952010603,9e9,94185387.35424896,10,0.8931332324166441
10,9.772972439400768,0.18922754234628295,2008,9.96219998174705,0.01899455368221774,9e9,189227542.34628296,10,0.2649027025389386
11,10.219529945286085,0.15736046807271525,1928,10.376890413358801,0.015164510928065268,10e9,157360468.07271525,10,9.223652480205107
12,9.904156352302826,0.22737887976963284,1975,10.131535232072459,0.02244268756524092,9e9,227378879.76963285,10,1.4683547362848803
13,9.809411076392013,0.19381168823700107,2000,10.003222764629015,0.019374924741485437,9e9,193811688.23700106,10,2.068639864638299
14,9.671429623350175,0.07205892386629971,2053,9.743488547216474,0.007395597943909479,9e9,72058923.8662997,10,3.833843211929637
15,9.773167553281136,0.1605510665448683,2014,9.933718619826005,0.01616223215991198,9e9,160551066.54486832,10,6.657015038060582
16,10.307769278843786,0.24969992704295485,1895,10.55746920588674,0.023651494707057696,10e9,249699927.04295486,10,8.606436976468688
17,9.92923535600905,0.002097821617478553,2014,9.931333177626529,0.00021123262908997556,9e9,2097821.6174785527,10,8.191919272338502
18,9.207723289708236,0.2112484251924778,2124,9.418971714900714,0.02242797107653323,9e9,211248425.1924778,10,8.607785516004048
19,9.598208532738317,0.05344580612386123,2073,9.651654338862178,0.005537476192932319,9e9,53445806.12386123,10,7.549865814494546
20,9.490206848787883,0.006779413644088357,2106,9.496986262431971,0.000713848947102962,9e9,6779413.644088357,10,9.241379224268224
21,103.75925478014847,2.268265562510119,189,106.02752034265859,0.021393177499384717,103e9,2268265562.510119,100,88.31812029247097
22,104.08097827202938,1.127672307743513,191,105.2086505797729,0.010718437139239536,104e9,1127672307.7435129,100,18.921972616643068
23,94.30196902448708,1.9015488265039027,208,96.20351785099098,0.01976589701687624,94e9,1901548826.5039027,100,11.490904177688993
24,97.32331003906317,0.5746247998882772,205,97.89793483895146,0.00586963147724794,97e9,574624799.8882772,100,75.50116818689511
25,101.33710378265498,0.47632288897375574,197,101.81342667162873,0.004678389722703318,101e9,476322888.9737557,100,82.80393843142227
26,93.73127202129189,1.2086817880608187,211,94.9399538093527,0.012731013019955243,93e9,1208681788.0608187,100,73.26065031086037
27,96.7458955306742,1.9124939674919055,203,98.65838949816612,0.019385011018525244,96e9,1912493967.4919055,100,87.9663699008311
28,107.7998525508801,0.22033040095195622,186,108.02018295183206,0.0020397151248133425,107e9,220330400.9519562,100,60.72067113157841
29,98.20314334131099,2.444661244671265,199,100.64780458598226,0.024289265471089526,98e9,2444661244.671265,100,69.62664766919573
30,95.69139273364293,0.9416696409247926,207,96.63306237456771,0.009744797668469887,95e9,941669640.9247925,100,90.2080400038867
31,93.73473064436793,0.23570473911805193,213,93.97043538348598,0.002508286123780946,93e9,235704739.11805192,100,90.99065103039356
32,87.82868990171004,0.5922787926338297,227,88.42096869434387,0.006698397465891104,87e9,592278792.6338297,100,40.59488376660331
33,95.03329176447279,0.43650249249287165,210,95.46979425696567,0.0045721528562006255,95e9,436502492.49287164,100,91.31839696763379
34,92.3874061962799,2.0427512890611745,212,94.43015748534107,0.021632403709358237,92e9,2042751289.0611746,100,76.88425426368005
35,97.11557921446015,2.1523972921929655,202,99.26797650665311,0.021682695345852123,97e9,2152397292.1929655,100,12.475481291950818
36,91.78243554991792,0.2969373124067587,218,92.07937286232467,0.0032247972936428845,91e9,296937312.40675867,100,14.740846698744319
37,100.30019488972857,0.1290345130403881,200,100.42922940276897,0.0012848302611473633,100e9,129034513.04038809,100,62.80482835958583
38,104.20114099464026,2.52986663594639,188,106.73100763058665,0.023703202022627476,104e9,2529866635.94639,100,22.406146780541835
39,107.64136240291698,1.6699969725469863,183,109.31135937546397,0.015277433032470675,107e9,1669996972.5469863,100,97.26353265551586
40,97.33544004143789,2.384433695989671,201,99.71987373742756,0.02391131884370536,97e9,2384433695.9896708,100,99.23385058303687
41,964.0233627823411,19.51099619642752,21,983.5343589787686,0.0198376355826413,964e9,19510996196.42752,1000,658.5534894232653
42,943.0617711111155,4.9886953065185615,22,948.0504664176341,0.005262056697645194,943e9,4988695306.518561,1000,563.6471326995782
43,1011.366052909484,8.001365661138887,20,1019.3674185706228,0.007849344127908817,1011e9,8001365661.138887,1000,233.63106245890052
44,1010.1673898864926,24.00318398989137,20,1034.170573876384,0.02321008216267475,1010e9,24003183989.89137,1000,840.531110916723
45,978.694898005223,20.85940683907469,21,999.5543048442977,0.02086870792110089,978e9,20859406839.07469,1000,398.383269742994
46,1020.0675923134994,7.881001477170084,20,1027.9485937906695,0.007666727232057447,1020e9,7881001477.170084,1000,362.5775978145135
47,1043.4177120981622,8.17701794919608,20,1051.5947300473583,0.007775826290825772,1043e9,8177017949.196079,1000,311.2546603139707
48,960.342297907937,24.31134186496861,21,984.6536397729056,0.024690247294038976,960e9,24311341864.968613,1000,776.7293584743217
49,1020.9631917888554,24.42800547959489,20,1045.3911972684502,0.023367334203142257,1020e9,24428005479.59489,1000,676.9854416402932
50,1002.640108687514,12.72664896629119,20,1015.3667576538053,0.012534041389830894,1002e9,12726648966.29119,1000,194.30604370540848
51,1141.8915614351115,9.337536936408457,18,1151.22909837152,0.008110928528141742,1141e9,9337536936.408457,1000,579.7605472165968
52,958.2578081026819,19.473121108817676,21,977.7309292114995,0.01991664631548678,958e9,19473121108.817677,1000,692.808500392428
53,929.6976044203902,22.288703243285983,22,951.9863076636763,0.023412840146814672,929e9,22288703243.285984,1000,332.9499117404272
54,974.2452983739009,25.20006823361147,21,999.4453666075124,0.025214052789248334,974e9,25200068233.611473,1000,232.55721810994748
55,1045.6411125340292,6.9252163403288325,20,1052.566328874358,0.00657936336205514,1045e9,6925216340.328833,1000,281.1049461552397
56,991.7834858714997,15.181564548864936,20,1006.9650504203646,0.015076555579091136,991e9,15181564548.864935,1000,790.6906278825484
57,957.3711568995964,17.654620522056074,21,975.0257774216525,0.01810682438441962,957e9,17654620522.056076,1000,850.1195271332639
58,1002.1773559621581,15.16318431918927,20,1017.3405402813474,0.014904728278100333,1002e9,15163184319.18927,1000,802.457363308269
59,928.3700285520029,2.489348078296601,22,930.8593766302995,0.002674247196507826,928e9,2489348078.296601,1000,773.7657003235083
60,945.5980603350808,8.183915437354253,21,953.7819757724351,0.008580488670617184,945e9,8183915437.354253,1000,942.9324599913992
