app_id,Tcomp,Tio,iter,witer,alpha_io,compute_size,io_size,mu,desyn_time
1,9.439959816363341,0.13045379745484398,2090,9.570413613818186,0.013630946656943753,9e9,130453797.45484398,10,1.3986172324683321
2,9.729231222808348,0.14835716754178316,2025,9.877588390350132,0.015019573774375945,9e9,148357167.54178315,10,9.119286115300174
3,10.406120100612906,0.2985844508917471,1869,10.704704551504653,0.027892825014939632,10e9,298584450.8917471,10,6.806838518259536
4,9.694771339220067,0.044709239040295716,2054,9.739480578260363,0.004590515755028237,9e9,44709239.04029571,10,1.3895767284993192
5,9.411851860366413,0.09754230162752921,2104,9.509394161993942,0.01025746750696013,9e9,97542301.6275292,10,3.7293712625128372
6,10.536007711819051,0.01949701920944615,1895,10.555504731028497,0.0018470949240478826,10e9,19497019.209446147,10,6.625766318138696
7,9.26384225050643,0.09081233093007031,2138,9.3546545814365,0.00970771610426744,9e9,90812330.93007031,10,8.355773942439377
8,9.976944292672327,0.15225938702674469,1975,10.12920367969907,0.015031723306334795,9e9,152259387.0267447,10,6.633677995581073
9,10.718918648880555,0.20686628742463867,1831,10.925784936305194,0.01893376893565281,10e9,206866287.42463866,10,0.44080978361315154
10,10.01996638445934,0.16900746963415353,1963,10.188973854093494,0.016587290541162158,10e9,169007469.63415352,10,7.288428729332907
11,10.133898356497893,0.1688047683957438,1942,10.302703124893636,0.016384512525443318,10e9,168804768.3957438,10,5.898039759030002
12,9.958479521453597,0.19116297713561572,1971,10.149642498589213,0.01883445423444098,9e9,191162977.13561574,10,8.413952109366244
13,9.602810900492381,0.15025279905455302,2051,9.753063699546933,0.01540570262670722,9e9,150252799.05455303,10,7.032638029424557
14,9.94693124755491,0.039292158731464175,2003,9.986223406286374,0.003934636461941116,9e9,39292158.73146418,10,3.526421888724949
15,8.639094035226725,0.1899798927392365,2266,8.829073927965961,0.021517533355053013,8e9,189979892.73923647,10,2.8950909910204614
16,10.590925803281712,0.2045518157323104,1853,10.795477619014022,0.01894791716968912,10e9,204551815.7323104,10,5.917172559336024
17,11.031090617852499,0.13104735898797037,1792,11.16213797684047,0.01174034573482887,11e9,131047358.98797038,10,9.559992234348687
18,9.480352306702498,0.1975166484714567,2067,9.677868955173954,0.020409105494847698,9e9,197516648.4714567,10,1.4309019109881578
19,10.006265173479141,0.1430396791673832,1971,10.149304852646525,0.01409354445886846,10e9,143039679.1673832,10,1.7341239211407349
20,10.696998317307663,0.02120756474106915,1866,10.718205882048732,0.001978648756559939,10e9,21207564.74106915,10,7.463259912114395
21,98.95126387386425,2.1995063363921337,198,101.15077021025638,0.021744830334164973,98e9,2199506336.3921337,100,32.31987228637432
22,103.34749053268894,0.5931284032698604,193,103.9406189359588,0.005706415926148237,103e9,593128403.2698604,100,55.571117415578925
23,85.8567288149333,1.8345029796776062,229,87.69123179461091,0.02092002748888682,85e9,1834502979.6776063,100,73.6507732190521
24,95.4119590205468,0.49312206538206527,209,95.90508108592887,0.005141772050015146,95e9,493122065.3820653,100,81.7241995172144
25,95.55052398631952,2.325865561029033,205,97.87638954734855,0.02376329543606505,95e9,2325865561.0290327,100,91.47138991805375
26,105.25428953363654,1.853644235133957,187,107.1079337687705,0.0173063205489118,105e9,1853644235.1339571,100,9.920075050571278
27,98.89168946464045,1.3710262721438051,200,100.26271573678426,0.013674338083391899,98e9,1371026272.143805,100,29.508900011048798
28,98.6620201200735,0.6120297255592286,202,99.27404984563273,0.006165052463467653,98e9,612029725.5592287,100,10.89771970939525
29,104.7128055321057,1.0015632682757034,190,105.71436880038141,0.009474239686063281,104e9,1001563268.2757034,100,49.495533474737904
30,100.4197080178766,1.6170905523064856,197,102.03679857018308,0.015848111416335905,100e9,1617090552.3064857,100,90.28686926755341
31,94.3784007567684,0.04659425823018655,212,94.42499501499859,0.0004934525887217199,94e9,46594258.23018655,100,72.35955702412082
32,103.47075409816632,1.6194955511406264,191,105.09024964930695,0.0154105214950482,103e9,1619495551.1406264,100,59.51658726051461
33,95.80553036017264,0.16526307685471078,209,95.97079343702735,0.0017220142809713308,95e9,165263076.8547108,100,63.30711053766287
34,97.15518920104223,0.6497139452816404,205,97.80490314632388,0.006642958833153966,97e9,649713945.2816404,100,32.233717959056825
35,94.1828978867574,2.461055877831032,207,96.64395376458843,0.025465182062251204,94e9,2461055877.831032,100,3.766287825853742
36,99.91082267608124,2.7254900644929183,195,102.63631274057416,0.026554832219878435,99e9,2725490064.4929185,100,67.5526120799417
37,89.95127761545415,2.4243718629528397,217,92.37564947840698,0.02624470709155384,89e9,2424371862.95284,100,40.56962204174952
38,99.1013413822785,1.7041559159238255,199,100.80549729820233,0.016905386725910392,99e9,1704155915.9238255,100,6.62954573298881
39,105.09291061666498,0.176620171552182,190,105.26953078821717,0.0016777900521615235,105e9,176620171.552182,100,63.82403974046375
40,88.20069786715904,0.17280723433334508,227,88.37350510149238,0.0019554190380350416,88e9,172807234.3333451,100,35.817360852526754
41,1049.028960404731,9.720499154632053,19,1058.749459559363,0.009181113687347328,1049e9,9720499154.632053,1000,715.9125324193965
42,940.8530097612842,27.01180574760845,21,967.8648155088927,0.027908655542360983,940e9,27011805747.608448,1000,496.0194942593737
43,1025.227717928061,13.592237506124938,20,1038.819955434186,0.013084305355343231,1025e9,13592237506.124939,1000,609.4682409786309
44,1090.2262257249192,15.840601903562582,19,1106.0668276284819,0.014321559518719516,1090e9,15840601903.562582,1000,846.7439039669342
45,1009.8875416876759,25.275622388861,20,1035.163164076537,0.02441704193696772,1009e9,25275622388.861,1000,833.835640399191
46,1034.3835620877012,3.2568917056719022,20,1037.6404537933731,0.0031387478136241324,1034e9,3256891705.671902,1000,815.9647651058959
47,928.5403891519128,19.907981477356323,22,948.4483706292691,0.020990052905197076,928e9,19907981477.356323,1000,111.80345413433055
48,977.1514166492714,25.95514698350326,20,1003.1065636327746,0.02587476537837223,977e9,25955146983.503258,1000,951.3393243736333
49,1036.9582823832477,1.7300430855814093,20,1038.6883254688291,0.001665603668743004,1036e9,1730043085.5814092,1000,409.7696751017885
50,1004.9415228682411,10.409562455120813,20,1015.351085323362,0.010252180359669037,1004e9,10409562455.120813,1000,925.0377518123739
51,972.6030257779248,12.806087525392654,21,985.4091133033174,0.012995706405092714,972e9,12806087525.392654,1000,65.54244591566703
52,993.5504596023204,11.53201020241935,20,1005.0824698047397,0.011473695491534847,993e9,11532010202.41935,1000,639.1312582865842
53,1081.9738472918793,12.432294740344359,19,1094.4061420322237,0.011359854685444832,1081e9,12432294740.344358,1000,927.7757508594691
54,991.4287023269617,20.077435995061382,20,1011.506138322023,0.01984905007928833,991e9,20077435995.061382,1000,487.9568811938326
55,923.7876424279934,2.9646682880318678,22,926.7523107160252,0.003198986669632701,923e9,2964668288.031868,1000,191.47419491009163
56,1036.17951638562,1.6304984157427433,20,1037.8100148013627,0.0015710952799533559,1036e9,1630498415.7427433,1000,346.94057369760486
57,1152.978782216172,5.504119622079437,18,1158.4829018382516,0.004751144460868295,1152e9,5504119622.079437,1000,1123.0387340232905
58,942.8232499486552,19.849510853813257,21,962.6727608024685,0.020619167449245187,942e9,19849510853.813255,1000,121.71105541855594
59,991.5978539158064,10.604972536894595,20,1002.202826452701,0.010581662969791173,991e9,10604972536.894594,1000,393.9640988412945
60,1047.550558457412,14.016527541345615,19,1061.5670859987576,0.013203619183575571,1047e9,14016527541.345615,1000,997.4659113843412
