app_id,Tcomp,Tio,iter,witer,alpha_io,compute_size,io_size,mu,desyn_time
1,9.973043789400846,0.1377870877917964,1979,10.110830877192642,0.01362767209395299,9e9,137787087.79179642,10,7.570370352012778
2,9.829035341861996,0.026261676315810764,2030,9.855297018177806,0.0026647270262247676,9e9,26261676.315810762,10,4.610051406474266
3,8.959830399259541,0.15930060825101763,2194,9.119131007510559,0.017468836462577072,8e9,159300608.25101763,10,7.571148792655785
4,10.641782624719113,0.19903220319283754,1845,10.84081482791195,0.018359524293357306,10e9,199032203.19283754,10,0.40273504699643964
5,9.154999462042978,0.20482363343172688,2137,9.359823095474706,0.021883280414856897,9e9,204823633.43172687,10,7.845598837259364
6,10.439615883967932,0.03403214274751395,1910,10.473648026715445,0.003249311286832167,10e9,34032142.74751395,10,10.228775577639835
7,9.393191078544632,0.007319436883701386,2128,9.400510515428333,0.0007786212112298112,9e9,7319436.883701386,10,7.067320597743317
8,9.873975792625096,0.14771706006739918,1996,10.021692852692496,0.01473973132470454,9e9,147717060.06739917,10,9.573413374910546
9,9.835102536747057,0.06258062253930223,2021,9.897683159286359,0.006322754682300258,9e9,62580622.53930223,10,2.952925360532001
10,9.73407808571976,0.10799757172721505,2033,9.842075657446976,0.010973048316845545,9e9,107997571.72721505,10,7.22114679031915
11,10.001502160429146,0.2897720154635552,1944,10.2912741758927,0.028157059127075425,10e9,289772015.4635552,10,10.250000619616667
12,9.662892109550999,0.08209808293288884,2053,9.744990192483888,0.008424645003358692,9e9,82098082.93288884,10,7.9497282315058735
13,10.164227429761565,0.10971066598346169,1947,10.273938095745027,0.010678540688200037,10e9,109710665.9834617,10,1.0081810970144713
14,9.798433270408433,0.0031790416912341845,2041,9.801612312099667,0.00032433864858231483,9e9,3179041.6912341844,10,9.561404242801053
15,9.11279546797533,0.20562507970619762,2147,9.318420547681528,0.022066516385908147,9e9,205625079.70619762,10,5.4125685357235405
16,10.973777029566852,0.09451939287734082,1807,11.068296422444194,0.008539651385345556,10e9,94519392.87734082,10,4.359027033840109
17,9.671042020982203,0.05544133484273877,2057,9.726483355824941,0.0057000390392419045,9e9,55441334.84273877,10,3.8035193857683787
18,10.209979972428698,0.1083990949653953,1939,10.318379067394094,0.010505438330709776,10e9,108399094.9653953,10,8.409763265281763
19,9.140614095612854,0.0822507755932214,2169,9.222864871206076,0.008918137340384285,9e9,82250775.5932214,10,4.748044135336485
20,10.41620987795212,0.03525669072648142,1914,10.451466568678601,0.003373372578365238,10e9,35256690.726481415,10,7.686085261209659
21,97.38502606021213,2.436429611018125,201,99.82145567123025,0.024407874986743287,97e9,2436429611.018125,100,56.202907542577115
22,102.73119493122537,2.607769620196442,190,105.33896455142181,0.024755983042945563,102e9,2607769620.196442,100,94.87468440891847
23,108.3372812574202,1.838386396761015,182,110.17566765418121,0.01668595649024186,108e9,1838386396.761015,100,50.86425157182767
24,96.16820881064307,1.1030080383025684,206,97.27121684894563,0.011339511049969192,96e9,1103008038.3025684,100,54.69017008158678
25,100.83496915340898,0.9502122721076965,197,101.78518142551667,0.00933546768596206,100e9,950212272.1076965,100,6.769301548758402
26,92.15789265507736,1.9125971483730149,213,94.07048980345037,0.020331531730824085,92e9,1912597148.373015,100,83.5310267604035
27,101.27897854182326,2.564221721874854,193,103.84320026369812,0.02469320779177935,101e9,2564221721.874854,100,93.85212425664507
28,100.64175687392114,1.6027543616693631,196,102.24451123559051,0.015675700752056185,100e9,1602754361.669363,100,49.62907297316021
29,95.29561844468385,1.509490125999846,207,96.8051085706837,0.015593083343299691,95e9,1509490125.9998462,100,4.505538868225546
30,108.44844480137473,0.19880803969465904,185,108.64725284106939,0.0018298487490105066,108e9,198808039.69465905,100,91.59869274038088
31,96.95094305404301,2.652959418850474,201,99.60390247289348,0.026635095141703497,96e9,2652959418.850474,100,78.67436600112615
32,91.54465165155898,0.028584131036318083,219,91.57323578259529,0.00031214503661506385,91e9,28584131.036318082,100,46.26599546421535
33,94.68355272973156,0.29709308010955376,211,94.9806458098411,0.0031279328285928696,94e9,297093080.10955375,100,89.21009259454505
34,89.79071984276474,2.5884771115814895,217,92.37919695434623,0.028020130039241566,89e9,2588477111.5814896,100,13.410144180745773
35,92.67125811478813,2.4078666677558602,211,95.07912478254399,0.02532487202909057,92e9,2407866667.7558603,100,81.63598229167292
36,95.56768526890566,2.609760498393842,204,98.1774457672995,0.026582077767428422,95e9,2609760498.3938417,100,45.69620585227567
37,96.30971304444229,0.4825681448554395,207,96.79228118929773,0.0049856056591090735,96e9,482568144.8554395,100,16.684745141636476
38,102.45518834510713,2.2574783339928577,191,104.7126666791,0.021558789452961535,102e9,2257478333.9928575,100,78.40906744494225
39,97.16852583684403,0.6414929022328195,205,97.81001873907684,0.006558560263075911,97e9,641492902.2328196,100,44.66040998136816
40,99.52285044584008,1.6339811573599108,198,101.15683160319999,0.01615294915294897,99e9,1633981157.3599107,100,97.18338658656556
41,956.2787079408904,6.106799484918184,21,962.3855074258086,0.006345481553699482,956e9,6106799484.918184,1000,14.158348406494143
42,1011.8890958622328,2.157711868769619,20,1014.0468077310024,0.0021278227516909635,1011e9,2157711868.769619,1000,484.1600939597544
43,980.0681336256524,1.0477641040953245,21,981.1158977297478,0.0010679310227464434,980e9,1047764104.0953245,1000,580.0499889834965
44,1025.8826386497603,14.421680676850718,20,1040.304319326611,0.013862944149060029,1025e9,14421680676.850718,1000,160.94830133996822
45,1024.543354421926,14.771801255633106,20,1039.3151556775592,0.014213014382536302,1024e9,14771801255.633106,1000,320.9350799154144
46,1004.2449518339464,2.8963398311996524,20,1007.141291665146,0.0028758028840333025,1004e9,2896339831.1996527,1000,148.82067190860758
47,898.3599377981888,2.343622156828524,23,900.7035599550172,0.002601990556077705,898e9,2343622156.8285236,1000,381.74690446802674
48,954.1921320608567,5.747107153509095,21,959.9392392143658,0.0059869488804443986,954e9,5747107153.509095,1000,901.3782599250978
49,952.5099571820648,3.2056983624391164,21,955.7156555445039,0.0033542386209135817,952e9,3205698362.4391165,1000,85.37113736643724
50,965.6834576528505,24.439570111298295,21,990.1230277641488,0.024683367042262042,965e9,24439570111.298294,1000,182.16910156559072
51,966.4808217913998,6.7619348353504325,21,973.2427566267502,0.006947839877881272,966e9,6761934835.350432,1000,750.4769691162071
52,996.9626209005902,3.6219927914698853,20,1000.5846136920601,0.0036198765620681327,996e9,3621992791.4698853,1000,877.0831222608116
53,969.8904656378945,21.758806636529748,21,991.6492722744242,0.02194203862684661,969e9,21758806636.529747,1000,661.8096424850447
54,1010.8889968335654,22.018302579598664,20,1032.907299413164,0.021316823486587946,1010e9,22018302579.598663,1000,660.6378383728619
55,966.2830103467168,23.326349101957703,21,989.6093594486745,0.023571269692672616,966e9,23326349101.957703,1000,975.0856776003811
56,961.2544659008096,14.471852944485041,21,975.7263188452946,0.014831877202627361,961e9,14471852944.48504,1000,149.47381352968958
57,1042.3325653511192,13.959856399323769,19,1056.292421750443,0.01321590130902396,1042e9,13959856399.323769,1000,55.741857451981474
58,887.4825122625333,25.350039469725683,22,912.8325517322589,0.027770744395146253,887e9,25350039469.72568,1000,475.15238460688505
59,1008.2293750159571,20.530129097361524,20,1028.7595041133186,0.01995619871823815,1008e9,20530129097.361523,1000,598.6991860835441
60,1046.288760491237,31.299987219169875,19,1077.588747710407,0.02904631965179121,1046e9,31299987219.169876,1000,582.6868482195139
