app_id,Tcomp,Tio,iter,witer,alpha_io,compute_size,io_size,mu,desyn_time
1,8.925480519600955,0.23620869979555464,2184,9.161689219396509,0.025782221393787247,8e9,236208699.79555464,10,5.273222949363159
2,9.780014737879451,0.22943601946409223,1999,10.009450757343544,0.022921938978096672,9e9,229436019.46409222,10,8.086578617438134
3,9.32097509408219,0.11862679634512394,2119,9.439601890427314,0.01256692789824359,9e9,118626796.34512393,10,2.8044002588468997
4,9.69867182342467,0.05802261106731322,2050,9.756694434491983,0.005946953802528753,9e9,58022611.06731322,10,4.714323212967828
5,9.515399356148388,0.1466906954395275,2070,9.662090051587915,0.015182087380299218,9e9,146690695.4395275,10,3.3321454714434826
6,9.920023979760128,0.1791656186466678,1981,10.099189598406795,0.01774059362891179,9e9,179165618.6466678,10,6.843559489350358
7,10.035255186850737,0.19964262946510214,1955,10.23489781631584,0.019506069630401607,10e9,199642629.46510214,10,7.388341570270863
8,9.782704072273072,0.1360352555310239,2017,9.918739327804095,0.013714974356639403,9e9,136035255.53102392,10,9.112231049642451
9,10.626000757828194,0.15238246270766873,1856,10.778383220535863,0.01413778482261951,10e9,152382462.70766872,10,10.111652274713025
10,9.89450484805074,0.11004293487765103,2000,10.004547782928391,0.010999291248868502,9e9,110042934.87765104,10,2.0250229619647446
11,10.472950826251603,0.18572763423146452,1877,10.658678460483067,0.017425015204281438,10e9,185727634.2314645,10,5.173928636693597
12,10.309361838569327,0.1987594626408833,1904,10.50812130121021,0.018914842810007566,10e9,198759462.6408833,10,4.525749835253132
13,10.62966529269411,0.12256352857738465,1861,10.752228821271494,0.01139889511418443,10e9,122563528.57738465,10,3.1986875029393205
14,9.617213535754912,0.026682915975086614,2074,9.643896451729999,0.0027668190039825675,9e9,26682915.975086614,10,5.429288122724654
15,9.624545645826629,0.17437674055768254,2042,9.798922386384312,0.017795501758436267,9e9,174376740.55768254,10,6.212123649306669
16,9.982069645129425,0.30493497211187837,1945,10.287004617241303,0.029642736973287533,9e9,304934972.1118784,10,6.766647625786458
17,9.481690043932463,0.21177065783550442,2064,9.693460701767968,0.021846754668008304,9e9,211770657.8355044,10,8.220734697613981
18,10.468501014955192,0.19206534687325968,1877,10.660566361828453,0.018016429930118413,10e9,192065346.8732597,10,3.8016122097264566
19,10.261281065673105,0.029410697561184876,1944,10.290691763234289,0.0028579903312487623,10e9,29410697.561184876,10,8.645340834856855
20,9.712383632123323,0.04649727627604425,2050,9.758880908399368,0.004764611507455176,9e9,46497276.27604425,10,1.250808740078248
21,109.44974413983526,0.9158963116625751,182,110.36564045149784,0.008298745043436613,109e9,915896311.6625751,100,83.77157782207372
22,104.54803179373977,2.319298708857555,188,106.86733050259733,0.021702597959075868,104e9,2319298708.8575554,100,3.5062919314898267
23,100.26401203266195,2.9029355831411854,194,103.16694761580314,0.028138232740507224,100e9,2902935583.1411853,100,81.29575485828751
24,105.48798928959853,0.13845696579843103,190,105.62644625539696,0.0013108172309769118,105e9,138456965.79843104,100,82.87477654771857
25,109.74431424098846,1.7369286449819952,180,111.48124288597046,0.015580456406990613,109e9,1736928644.981995,100,55.855108136333534
26,91.6132441334469,0.724080137224256,217,92.33732427067116,0.00784168420455566,91e9,724080137.224256,100,39.810790641570975
27,104.0648793752603,0.9984452154029752,191,105.06332459066329,0.009503270711192634,104e9,998445215.4029752,100,20.897138594262028
28,102.68739326515889,0.029261304485462204,195,102.71665456964435,0.00028487400225464256,102e9,29261304.485462204,100,89.11840693597027
29,87.10503241362653,2.140022311873072,225,89.2450547254996,0.02397916969691333,87e9,2140022311.873072,100,85.6850884386752
30,94.28013829497644,1.9235463512644586,208,96.2036846462409,0.019994518487911367,94e9,1923546351.2644587,100,83.90162140392142
31,97.42310385813644,0.5873481849725085,205,98.01045204310896,0.005992709682781272,97e9,587348184.9725085,100,4.978100588115907
32,103.58207846303787,0.7283178354092482,192,104.31039629844712,0.006982217125562688,103e9,728317835.4092482,100,15.259817240126143
33,102.00436250557726,0.8553213747067561,195,102.85968388028402,0.008315419048946763,102e9,855321374.7067561,100,15.55129275325672
34,102.61468085568603,1.7317434276738775,192,104.34642428335991,0.016596097466370374,102e9,1731743427.6738775,100,91.36911789796544
35,100.1351805048808,2.7314995583801,195,102.86668006326089,0.026553783564321157,100e9,2731499558.3801,100,37.29203449305801
36,95.66949941321786,1.5452958559113816,206,97.21479526912924,0.015895685956375135,95e9,1545295855.9113817,100,24.219067755971242
37,103.46309325552967,1.358103168834582,191,104.82119642436426,0.012956379197737428,103e9,1358103168.8345819,100,66.05490934854345
38,93.02544824713108,0.613835118810694,214,93.63928336594178,0.006555316281221738,93e9,613835118.810694,100,87.96766525913235
39,91.54204690696582,2.773104569935642,213,94.31515147690146,0.02940253529269682,91e9,2773104569.935642,100,23.03105536007385
40,95.82200409097808,0.30383033115879476,209,96.12583442213688,0.003160756241912273,95e9,303830331.15879476,100,37.942326026619526
41,999.6035549202736,12.139543749979895,20,1011.7430986702535,0.011998642507109806,999e9,12139543749.979895,1000,183.5733466677177
42,1009.9529741849541,25.90180691788881,20,1035.854781102843,0.02500524918204456,1009e9,25901806917.88881,1000,199.0761083326702
43,944.6910307471109,25.576744681819488,21,970.2677754289303,0.026360501017889282,944e9,25576744681.81949,1000,816.1767510123728
44,966.7608728487601,3.7672901100591636,21,970.5281629588193,0.0038816906647757055,966e9,3767290110.0591636,1000,589.660797172471
45,1016.100626385541,4.020462803046271,20,1020.1210891885872,0.003941162324410115,1016e9,4020462803.0462704,1000,744.0534594176975
46,914.6485002606687,4.069494805707822,22,918.7179950663765,0.004429536405688674,914e9,4069494805.707822,1000,623.994831874655
47,1050.3465704301816,5.816442077320886,19,1056.1630125075026,0.005507144265080546,1050e9,5816442077.320886,1000,697.1969257442169
48,997.2664040651322,0.2826847310051377,21,997.5490887961373,0.0002833792684290729,997e9,282684731.0051377,1000,75.74108272764659
49,1169.249428384594,0.3461254695365476,18,1169.5955538541305,0.00029593603395290923,1169e9,346125469.5365476,1000,96.85754887637175
50,1031.4545059554632,3.3376435460196094,20,1034.7921495014828,0.0032254241082400356,1031e9,3337643546.0196095,1000,700.6058755506419
51,940.0749085357204,15.601926575820462,21,955.6768351115409,0.01632552553604535,940e9,15601926575.820461,1000,798.3300259470086
52,948.1655126327319,10.803053033561584,21,958.9685656662934,0.011265283785455053,948e9,10803053033.561584,1000,357.4182213645612
53,978.3271426672621,17.693290574739734,21,996.0204332420019,0.017763983533097674,978e9,17693290574.739735,1000,611.7280214413635
54,982.0107184543683,19.63098570581659,20,1001.6417041601849,0.01959881025748221,982e9,19630985705.816593,1000,315.50073172334277
55,1050.6181644318453,9.004803992525524,19,1059.6229684243708,0.00849812080415302,1050e9,9004803992.525524,1000,194.4204218484459
56,1017.6758966856919,7.245607018512603,20,1024.9215037042045,0.007069426285160378,1017e9,7245607018.512603,1000,648.6982111107011
57,972.8733016875185,4.523175208458073,21,977.3964768959765,0.0046277793253591505,972e9,4523175208.458074,1000,254.07009646051677
58,983.8721951885482,5.462561431223695,21,989.3347566197718,0.005521449028928744,983e9,5462561431.223695,1000,609.1929705384974
59,1030.1211382337842,27.60620477022394,19,1057.7273430040082,0.02609954725366245,1030e9,27606204770.223938,1000,122.15920882329735
60,919.9255193344037,23.90505928442207,22,943.8305786188258,0.025327701629887896,919e9,23905059284.42207,1000,508.5172745088437
