app_id,Tcomp,Tio,iter,witer,alpha_io,compute_size,io_size,mu,desyn_time
1,9.507800348617241,0.22750409823750925,2055,9.73530444685475,0.02336897623278854,9e9,227504098.23750925,10,5.623467506441581
2,9.269445294110417,0.2334009883077495,2105,9.502846282418167,0.02456116634650608,9e9,233400988.3077495,10,7.331674249969875
3,9.647948606223034,0.034479249017803075,2066,9.682427855240837,0.003561012747349353,9e9,34479249.01780307,10,7.863637850022562
4,9.703636086990738,0.16646301761387117,2027,9.87009910460461,0.01686538461768967,9e9,166463017.61387116,10,4.279135918983772
5,9.753817014901795,0.08629772200399628,2033,9.840114736905791,0.008769991439259626,9e9,86297722.00399628,10,9.3436828724423
6,10.92706751619571,0.042914124340977404,1824,10.969981640536687,0.0039119595407889765,10e9,42914124.3409774,10,10.25591730974009
7,9.26026541678264,0.22633060864045787,2109,9.486596025423099,0.023857936823062264,9e9,226330608.64045787,10,9.210469811724467
8,9.46272225219848,0.23551168836258835,2063,9.69823394056107,0.024283976835989107,9e9,235511688.36258835,10,2.9334803803885765
9,10.743689245759212,0.02974492031981372,1857,10.773434166079026,0.002760950673784953,10e9,29744920.31981372,10,7.578849368998731
10,10.209550110142876,0.11168710494307166,1938,10.321237215085947,0.01082109660068903,10e9,111687104.94307166,10,8.873160801322848
11,9.929659114175962,0.25934001213441976,1963,10.188999126310382,0.025452942817979354,9e9,259340012.13441977,10,7.42741590739199
12,9.764324044119427,0.27677091766347156,1992,10.041094961782898,0.0275638183601371,9e9,276770917.6634716,10,1.2408790155297564
13,10.278902221128204,0.02847482574007576,1941,10.30737704686828,0.0027625675873307986,10e9,28474825.74007576,10,3.602098118671878
14,9.845395316268588,0.02885225501565858,2026,9.874247571284247,0.002921969983775285,9e9,28852255.01565858,10,4.91507768688114
15,10.065993061814762,0.01303271061049302,1985,10.079025772425254,0.0012930526128972324,10e9,13032710.61049302,10,3.0539671693991703
16,9.684525352535339,0.19050660461952856,2026,9.875031957154867,0.019291745631415266,9e9,190506604.61952856,10,4.279509248436083
17,10.758393785695631,0.04987812804648867,1851,10.80827191374212,0.004614810623247865,10e9,49878128.046488665,10,10.583379227122034
18,9.104721243089536,0.2537712547282723,2138,9.358492497817808,0.027116680895715423,9e9,253771254.7282723,10,4.003077042490507
19,8.942378522977313,0.10840004029446257,2210,9.050778563271775,0.011976874645276586,8e9,108400040.29446256,10,7.7794115593612725
20,9.664247028043686,0.15022068035132422,2038,9.81446770839501,0.015306044587912782,9e9,150220680.3513242,10,5.645918071957495
21,105.58824826450717,1.1247699267657656,188,106.71301819127294,0.010540137893482897,105e9,1124769926.7657657,100,82.94684397790938
22,99.84214634298789,0.326090635458602,200,100.16823697844649,0.0032554295183289286,99e9,326090635.458602,100,68.25997824366229
23,94.6110452082678,0.890104981055743,210,95.50115018932354,0.009320358752655645,94e9,890104981.055743,100,38.197218041558564
24,99.06816909869033,1.198506064579563,200,100.2666751632699,0.011953184471590066,99e9,1198506064.5795631,100,3.0926855652199663
25,104.01786905457625,2.2642492222639876,189,106.28211827684024,0.021304140893825093,104e9,2264249222.2639875,100,73.9565063173536
26,97.67065103456797,0.8802284968487364,203,98.5508795314167,0.008931716297550966,97e9,880228496.8487364,100,1.5212881979643744
27,99.42021052517423,1.8721366275488007,198,101.29234715272302,0.018482508108199885,99e9,1872136627.5488007,100,32.058030035875085
28,101.6653813688969,3.2382977150050016,191,104.9036790839019,0.03086924827884266,101e9,3238297715.0050015,100,67.74236001546362
29,94.58377651235205,2.213161424864094,207,96.79693793721614,0.022863961113104445,94e9,2213161424.8640943,100,93.36062310453354
30,102.47181664741457,0.39512549181664985,195,102.86694213923123,0.0038411318894056787,102e9,395125491.81664985,100,54.796926751747606
31,108.7100690437689,0.27554433072110124,184,108.98561337449,0.0025282633385224147,108e9,275544330.7211012,100,61.3129633467747
32,99.40778603664403,0.16860955216236687,201,99.57639558880639,0.001693268280754286,99e9,168609552.16236687,100,69.34364174899665
33,98.6333050666759,1.533269352132015,200,100.16657441880791,0.01530719564913182,98e9,1533269352.132015,100,84.33315625022763
34,103.5476928281131,0.27318468586444866,193,103.82087751397755,0.002631307810200982,103e9,273184685.86444867,100,29.191843752709566
35,105.86284323218197,0.9767996810909245,188,106.8396429132729,0.00914267077702461,105e9,976799681.0909245,100,68.72835747646722
36,93.8459904166158,0.9100510280644843,212,94.75604144468029,0.009604147811469973,93e9,910051028.0644844,100,81.57598861591795
37,96.85279732290809,1.2558822977970332,204,98.10867962070512,0.01280092956762195,96e9,1255882297.7970333,100,63.83898837439108
38,95.40658064283662,3.0466385864347347,204,98.45321922927135,0.030945037757880968,95e9,3046638586.434735,100,33.437062036004995
39,110.27679064127756,0.17863533913878799,182,110.45542598041635,0.0016172617827797783,110e9,178635339.13878798,100,59.44843947937387
40,97.96557877247132,0.5211018673776623,204,98.48668063984898,0.005291089759469645,97e9,521101867.3776623,100,12.749949181293317
41,1027.4590967559327,6.845224159940317,20,1034.304320915873,0.0066181915916960436,1027e9,6845224159.940317,1000,782.3429289667974
42,972.6079110324275,9.599867440605601,21,982.2077784730332,0.009773764422360628,972e9,9599867440.605602,1000,625.5050783358286
43,1037.5462334386139,3.81608384123217,20,1041.362317279846,0.003664511167640678,1037e9,3816083841.23217,1000,823.1995286257854
44,1011.134993607932,32.76431953992401,20,1043.899313147856,0.03138647485179764,1011e9,32764319539.92401,1000,522.9746184161527
45,1158.3765047111747,1.404659296698799,18,1159.7811640078735,0.001211141670765454,1158e9,1404659296.698799,1000,137.7622478028689
46,934.8643500665445,17.430708561537145,22,952.2950586280816,0.01830389478934039,934e9,17430708561.537144,1000,789.9808049582539
47,933.5761555020517,26.663166137550785,21,960.2393216396025,0.027767209211994777,933e9,26663166137.550785,1000,951.3422737848615
48,993.6013939282194,11.412841784001056,20,1005.0142357122205,0.011355900621560003,993e9,11412841784.001057,1000,108.04312020257707
49,974.9824730891349,3.5469749356411144,21,978.529448024776,0.003624801422993359,974e9,3546974935.641114,1000,904.3652707065536
50,994.6563781536632,30.324827373489722,20,1024.981205527153,0.029585739923780857,994e9,30324827373.489723,1000,184.7207642819557
51,926.782870015497,11.404275755834847,22,938.1871457713319,0.012155651254909068,926e9,11404275755.834846,1000,65.04385110629966
52,993.2443171777487,5.3130891567166865,21,998.5574063344654,0.00532076485839721,993e9,5313089156.716686,1000,654.3860220403867
53,1059.166937634083,9.013317489986704,19,1068.1802551240698,0.008438011699570126,1059e9,9013317489.986704,1000,292.57660259895556
54,902.4784384245025,27.702663492110293,22,930.1811019166129,0.029782010659031567,902e9,27702663492.110294,1000,274.36055679960145
55,1085.8520215831634,9.52549430519187,19,1095.3775158883552,0.008696083466225486,1085e9,9525494305.19187,1000,193.20235653624917
56,885.5353870814671,12.698762082389532,23,898.2341491638566,0.014137474169970589,885e9,12698762082.389532,1000,697.2614775692418
57,920.7447332336012,27.660549028376895,22,948.4052822619781,0.029165325779718948,920e9,27660549028.376896,1000,377.4993397659868
58,980.5300769865387,24.127496279731808,20,1004.6575732662704,0.024015641669121377,980e9,24127496279.731808,1000,781.5815543341516
59,1090.1960267425702,3.8475995567515873,19,1094.0436262993219,0.0035168611783483977,1090e9,3847599556.7515874,1000,773.43376181909
60,946.6491397228557,7.148326902648043,21,953.7974666255037,0.0074945962353397,946e9,7148326902.648044,1000,763.621259865226
