app_id,Tcomp,Tio,iter,witer,alpha_io,compute_size,io_size,mu,desyn_time
1,9.682355057272595,0.2308531844911128,2018,9.913208241763707,0.023287434184883077,9e9,230853184.4911128,10,7.274775878237469
2,9.53010441835661,0.017065972758787056,2095,9.547170391115397,0.0017875424926603028,9e9,17065972.758787055,10,8.54970422097492
3,9.945366129118813,0.2773499792047622,1957,10.222716108323576,0.02713075236227457,9e9,277349979.20476216,10,9.200699992703441
4,10.494762954145703,0.11966771445149577,1885,10.614430668597198,0.0112740587025108,10e9,119667714.45149577,10,6.627752463717663
5,10.343215184001268,0.006399724235896009,1933,10.349614908237164,0.0006183538510986073,10e9,6399724.235896009,10,4.35525420501125
6,9.320487524724136,0.09172300750273066,2125,9.412210532226867,0.009745107930669034,9e9,91723007.50273065,10,6.840489013739483
7,10.53639335575721,0.025299321289229355,1894,10.56169267704644,0.0023953851018797367,10e9,25299321.289229356,10,4.050569125991283
8,9.80803603070003,0.03920026416388058,2032,9.847236294863912,0.003980839190822152,9e9,39200264.16388058,10,3.3536176821413246
9,10.505427607728976,0.023977635556074947,1900,10.529405243285051,0.0022772070218653874,10e9,23977635.556074947,10,9.723524844576737
10,9.470522932109358,0.21721479630948665,2065,9.687737728418844,0.022421622302210977,9e9,217214796.30948666,10,1.2115364115309333
11,10.158903788149615,0.22282839432357196,1927,10.381732182473188,0.021463508247665918,10e9,222828394.32357195,10,5.424725063999676
12,9.84167088275341,0.05590442799190223,2021,9.897575310745312,0.005648295288161085,9e9,55904427.991902225,10,8.113543576034019
13,9.935591748605708,0.21817949304605982,1970,10.153771241651768,0.021487532844059565,9e9,218179493.04605982,10,1.6897226768694613
14,9.873673422006068,0.1431167449304273,1997,10.016790166936495,0.014287685231026227,9e9,143116744.9304273,10,0.3862384068727205
15,9.786339766941856,0.15597970599417108,2012,9.942319472936028,0.01568846247787181,9e9,155979705.99417108,10,0.7916070109552648
16,9.144803939573853,0.17704676319435014,2146,9.321850702768202,0.018992662384281118,9e9,177046763.19435015,10,8.924977794888296
17,10.272401230301176,0.2932894765261845,1893,10.565690706827361,0.02775866572893962,10e9,293289476.5261845,10,4.862408964336004
18,9.920409459192026,0.28414646956938944,1960,10.204555928761415,0.02784505975105944,9e9,284146469.56938946,10,0.8197561351085685
19,8.887677281514295,0.16609514772644696,2210,9.053772429240741,0.018345407842372274,8e9,166095147.72644696,10,8.709674267515664
20,10.156956136543895,0.008421219278394397,1968,10.16537735582229,0.0008284217086708626,10e9,8421219.278394397,10,9.425557577559736
21,100.89444584335901,0.0015739976215495778,199,100.89601984098056,1.5600195369751077e-05,100e9,1573997.621549578,100,8.891119073798874
22,91.2151361858848,0.6656169982020029,218,91.8807531840868,0.007244357225374637,91e9,665616998.2020029,100,91.28186322770524
23,98.45515938411938,0.8673097962860813,202,99.32246918040546,0.008732261727311003,98e9,867309796.2860813,100,11.608518823667215
24,95.28831220226628,2.0954585581511957,206,97.38377076041748,0.021517533586848065,95e9,2095458558.1511958,100,27.26125657392643
25,99.85896292357974,2.83833072220021,195,102.69729364577995,0.02763783369004917,99e9,2838330722.20021,100,26.195182581332276
26,94.34324226322127,1.2502869349437131,210,95.59352919816499,0.01307920050060997,94e9,1250286934.9437132,100,12.407079310735455
27,96.79377029402697,1.6071290603504786,204,98.40089935437744,0.0163324631268117,96e9,1607129060.3504786,100,28.97193958870653
28,103.51670237165105,2.321797670001407,189,105.83850004165245,0.021937174743478696,103e9,2321797670.001407,100,79.64858521442902
29,92.57464728743358,0.24864710851812707,216,92.8232943959517,0.0026787145418205637,92e9,248647108.51812708,100,26.637415548059906
30,97.67904079047473,0.2931396802466936,205,97.97218047072143,0.002992070594308118,97e9,293139680.2466936,100,66.05724697988818
31,100.52051194083103,1.326423891435829,197,101.84693583226685,0.01302369954085153,100e9,1326423891.4358292,100,79.227136118464
32,104.24272770876158,0.8526850006490082,191,105.09541270941058,0.008113436910959065,104e9,852685000.6490082,100,71.12577292099385
33,103.28372143932317,0.9951954544207713,192,104.27891689374394,0.009543592166716075,103e9,995195454.4207712,100,92.35852607805639
34,92.53717566514979,0.43343455833908195,216,92.97061022348888,0.004662059948807085,92e9,433434558.33908194,100,53.7721482185826
35,97.14413655710045,1.939835423087212,202,99.08397198018767,0.01957769136944865,97e9,1939835423.0872118,100,54.90948381798277
36,102.99189684116857,0.03225977433933411,195,103.0241566155079,0.00031312825456780436,102e9,32259774.339334108,100,40.26716309159168
37,96.46043133887292,0.387048298965281,207,96.8474796378382,0.003996472602205557,96e9,387048298.96528095,100,27.365983275596182
38,106.74189164744026,1.0250206629377552,186,107.766912310378,0.009511459880984688,106e9,1025020662.9377552,100,2.350163717962444
39,100.86588844890328,0.49112005261767194,198,101.35700850152095,0.004845447393115418,100e9,491120052.61767197,100,80.11894678069336
40,103.39206087520627,1.1644208814809889,192,104.55648175668726,0.011136764186372543,103e9,1164420881.480989,100,19.547374489231434
41,1038.3239836275395,3.487878812248199,20,1041.8118624397878,0.0033478970032842985,1038e9,3487878812.248199,1000,640.3252066583309
42,963.6893508679123,20.9879177343064,21,984.6772686022186,0.021314514311983085,963e9,20987917734.3064,1000,635.6392064712488
43,1003.447079289175,11.26128290425017,20,1014.7083621934252,0.011098048783107916,1003e9,11261282904.25017,1000,773.4886379069399
44,1033.9525650449689,14.209649559216771,20,1048.1622146041857,0.013556727538191898,1033e9,14209649559.216772,1000,358.41467913353074
45,962.1683319566828,27.436117535126073,21,989.6044494918089,0.027724327178617003,962e9,27436117535.126072,1000,296.33781126535723
46,981.5921626843193,8.771713366141196,21,990.3638760504605,0.008857061104775457,981e9,8771713366.141195,1000,973.2119164430525
47,958.9076847042477,28.758673465905325,21,987.666358170153,0.029117802006728716,958e9,28758673465.905323,1000,907.6761989998754
48,974.5283333901646,6.332994808542509,21,980.861328198707,0.00645656488483716,974e9,6332994808.542509,1000,243.32097371302092
49,1063.0490240846132,2.6390907990636765,19,1065.688114883677,0.00247641947226909,1063e9,2639090799.0636764,1000,915.0267227603615
50,998.9030466762578,27.50359608452808,20,1026.4066427607859,0.026796003590302233,998e9,27503596084.52808,1000,980.0354500064298
51,837.4610920419319,21.961535979563543,24,859.4226280214955,0.025553825630728274,837e9,21961535979.56354,1000,590.3875955210901
52,994.3574759036152,21.01699873204676,20,1015.374474635662,0.020698766077991183,994e9,21016998732.046757,1000,267.0974700794826
53,971.9615178113372,17.079942827718344,21,989.0414606390556,0.017269187903085858,971e9,17079942827.718344,1000,385.35996928056113
54,978.1521645798516,14.514951856066094,21,992.6671164359177,0.014622174559565071,978e9,14514951856.066093,1000,779.4582155485681
55,959.1027503088161,18.58480332161574,21,977.6875536304318,0.019008939259383108,959e9,18584803321.61574,1000,503.29585189224235
56,906.0830252367078,17.688964077661016,22,923.7719893143689,0.01914862572396237,906e9,17688964077.661015,1000,919.5692817061918
57,962.8906181304515,3.776994830031045,21,966.6676129604825,0.003907232206180729,962e9,3776994830.031045,1000,412.95114458037483
58,972.3747438383556,3.0798755079920688,21,975.4546193463476,0.0031573744661293358,972e9,3079875507.992069,1000,248.55609836065477
59,966.6822179161614,17.26190285216267,21,983.9441207683241,0.017543580461341152,966e9,17261902852.16267,1000,643.0890837564617
60,1032.8084399644827,25.602929762580022,19,1058.4113697270627,0.024189961006543574,1032e9,25602929762.58002,1000,535.0885511319628
