app_id,start_app,end_app,effective_cpu,effective_io,effective_iter,total_bytes,stretch,utilization,Tcomp,Tio,iterations,priority,group_id
app_1,7.7412,26293.8,5467,119.261,550.698,9.58682e+10,1.43811,0.861849,10,0.17399,1944,1,1
app_10,4.83721,26000,5542.57,67.1472,553.176,4.28867e+10,1.43229,0.861849,10,0.0774444,1931,1,1
app_11,3.59338,25525.1,5524.1,42.0776,550.196,1.08647e+10,1.44536,0.861849,10,0.019754,1887,1,1
app_12,1.60315,26112.2,5385.31,172.279,597.69,1.3876e+11,1.44821,0.861849,9,0.23204,2103,1,1
app_13,8.0829,26477.6,5458.69,128.088,547.145,1.08576e+11,1.43697,0.861849,10,0.198132,1957,1,1
app_14,1.24528,25858.6,5479.3,111,548.906,8.36943e+10,1.43807,0.861849,10,0.152449,1903,1,1
app_15,4.46273,24704.9,5462.5,82.1242,606.696,6.01155e+10,1.44859,0.861849,9,0.0992004,1983,1,1
app_16,0.747092,24966.6,5463,67.4356,608.595,3.87911e+10,1.45407,0.861849,9,0.0638011,2015,1,1
app_17,1.96281,25877,5591.8,49.7658,507.752,2.34131e+10,1.4247,0.861849,11,0.0461797,1762,1,1
app_18,1.71741,25699,5479.77,111.762,547.218,8.48614e+10,1.43765,0.861849,10,0.154857,1885,1,1
app_19,5.47488,25267.4,5405.6,133.324,599.706,1.08393e+11,1.45085,0.861849,9,0.180957,2027,1,1
app_2,0.652181,25614.9,5485.4,73.3177,608.62,4.67559e+10,1.44609,0.861849,9,0.0769011,2087,1,1
app_20,3.17083,26055.4,5462.7,124.239,546.909,1.02192e+11,1.43758,0.861849,10,0.186822,1920,1,1
app_21,48.4759,21604.9,7368.5,150.68,74.6225,1.47805e+11,1.06435,0.861849,99,1.99736,198,1,1
app_22,75.3676,21654.4,7401.7,79.2496,72.232,7.58918e+10,1.06986,0.861849,102,1.05405,194,1,1
app_23,62.3631,21497.9,7330.6,154.982,86.4562,1.50888e+11,1.06931,0.861849,85,1.75451,229,1,1
app_24,29.1416,21494.6,7387.3,136.681,72.0048,1.33213e+11,1.06376,0.861849,103,1.85018,191,1,1
app_25,93.7604,21460.1,7390.3,173.425,78.0563,1.70053e+11,1.05815,0.861849,95,2.18016,205,1,1
app_26,65.7425,21545.1,7368.8,81.1935,79.023,7.77362e+10,1.07433,0.861849,92,0.984002,213,1,1
app_27,22.237,21546.4,7408.56,8.19234,79.105,4.23459e+09,1.07922,0.861849,93,0.0529323,213,1,1
app_28,36.0068,21351.5,7318.7,177.841,77.054,1.74196e+11,1.06768,0.861849,95,2.26228,205,1,1
app_29,68.0205,21520.3,7485.7,85.0104,81.4682,8.16867e+10,1.05717,0.861849,91,0.99618,218,1,1
app_3,8.66068,26366.9,5439.3,97.4821,607.771,6.1252e+10,1.4544,0.861849,9,0.100743,2162,1,1
app_30,42.5136,21746.9,7365,96.5282,75.8024,9.24124e+10,1.07276,0.861849,97,1.21595,204,1,1
app_31,46.8246,21405.9,7385.3,64.8258,70.8956,6.17176e+10,1.07426,0.861849,105,0.869262,188,1,1
app_32,60.4971,21484.8,7322.8,141.447,75.4591,1.38085e+11,1.07226,0.861849,98,1.84113,201,1,1
app_33,1.25798,21439.3,7465,13.6473,70.1299,1.03626e+10,1.07018,0.861849,107,0.148036,186,1,1
app_34,78.5686,21834.8,7325.2,50.5517,70.3583,4.66647e+10,1.08521,0.861849,104,0.666638,192,1,1
app_35,48.5327,21519.2,7435.1,110.24,73.5966,1.06301e+11,1.06081,0.861849,101,1.4365,196,1,1
app_36,51.1216,21617.8,7284.9,137.877,74.7033,1.34277e+11,1.07829,0.861849,97,1.81456,202,1,1
app_37,50.264,21362.7,7374.3,66.3358,76.2101,6.22772e+10,1.07576,0.861849,98,0.819437,201,1,1
app_38,11.79,21277,7373.2,163.046,74.7073,1.5847e+11,1.06218,0.861849,98,2.11294,198,1,1
app_39,91.6268,21646.7,7317,90.8539,76.7837,8.61016e+10,1.08063,0.861849,95,1.1182,207,1,1
app_4,6.52913,26325.3,5500.04,59.2532,547.503,3.09578e+10,1.44639,0.861849,10,0.0564924,1952,1,1
app_40,73.9519,21429.6,7396.8,25.9176,72.2295,2.20163e+10,1.07834,0.861849,103,0.305782,193,1,1
app_41,1087.71,21512.2,7895.8,100.69,7.62032,1.00292e+11,1.00049,0.861849,1082,12.5365,19,1,1
app_42,742.824,21641.6,7789.3,72.0314,7.54066,7.16288e+10,1.01769,0.861849,1005,10.2327,20,1,1
app_43,483.445,21043.6,7831.4,147.192,8.26626,1.46705e+11,1.00274,0.861849,958,18.3381,21,1,1
app_44,178.84,20011.2,7939,0.508193,7.36893,1.58356e+08,1.00766,0.861849,1135,0.0226223,18,1,1
app_45,218.719,20192.6,7768.38,187.799,7.80541,1.87292e+11,1.00557,0.861849,987,23.4115,20,1,1
app_46,327.08,20852.6,7878.8,40.0598,7.96511,3.95258e+10,1.01031,0.861849,1002,4.94073,20,1,1
app_47,232.784,21226.4,7848.4,133.734,8.43132,1.3334e+11,1.00229,0.861849,920,16.6675,22,1,1
app_48,977.253,21539.1,7799.3,147.085,8.49083,1.46663e+11,1.0068,0.861849,971,18.3329,21,1,1
app_49,53.6986,21601.7,7738.3,194.452,7.7467,1.94006e+11,1.00853,0.861849,975,24.2508,21,1,1
app_5,6.24347,25383.6,5396.1,158.705,597.498,1.22926e+11,1.44953,0.861849,9,0.205906,2029,1,1
app_50,176.847,20428.8,7946.4,14.1827,7.37569,1.38975e+10,1.00499,0.861849,1064,1.98536,19,1,1
app_51,458.817,21614.8,7906.6,59.4418,7.96289,5.91542e+10,1.0043,0.861849,990,7.39428,21,1,1
app_52,956.536,21951.8,7854.9,61.2513,7.98194,6.08752e+10,1.01064,0.861849,981,7.6094,21,1,1
app_53,78.0201,20686,7835.2,160.24,7.54698,1.59849e+11,1.00062,0.861849,1039,22.8356,19,1,1
app_54,948.851,21742.8,7932.1,60.6456,8.06817,6.02743e+10,1.00095,0.861849,978,7.53428,21,1,1
app_55,548.343,21940.6,7824.1,157.598,7.56262,1.57274e+11,1.00233,0.861849,1029,22.4677,20,1,1
app_56,202.235,21176.4,7802.6,104.739,7.93853,1.04335e+11,1.01177,0.861849,963,13.0418,21,1,1
app_57,138.82,20999.6,7822,116.81,8.46912,1.16438e+11,1.00775,0.861849,915,14.5547,22,1,1
app_58,539.259,20706.4,7832.5,136.04,7.9427,1.3589e+11,1.00397,0.861849,983,16.9862,20,1,1
app_59,441.111,20396.6,7761.5,203.498,8.46672,2.02862e+11,1.00447,0.861849,941,22.5402,21,1,1
app_6,1.58543,25249,5430.7,101.418,604.634,6.48762e+10,1.45572,0.861849,9,0.107411,2032,1,1
app_60,646.982,20785.8,7945.9,25.3854,7.92493,2.48892e+10,1.00366,0.861849,1004,3.11115,20,1,1
app_7,3.93141,26440.8,5467.8,155.837,546.648,1.25198e+11,1.43036,0.861849,10,0.229301,1945,1,1
app_8,0.00315243,25580.1,5411.93,126.63,601.745,9.79265e+10,1.45194,0.861849,9,0.162669,2068,1,1
app_9,7.87139,26565.9,5376.6,161.278,596.511,1.2572e+11,1.45393,0.861849,9,0.21094,2155,1,1
