app_id,start_app,end_app,effective_cpu,effective_io,effective_iter,total_bytes,stretch,utilization,Tcomp,Tio,iterations,priority,group_id
app_1,6.46233,19448.9,7840.3,159.7,779.773,2.86956e+10,1.01665,0.946393,10,0.0368364,1903,1,1
app_10,2.60708,20211.7,7744.9,255.1,706.468,5.71261e+10,1.02537,0.946393,11,0.0809152,1785,1.00001,1.00001
app_11,9.54696,19285.9,7796.2,203.8,865.184,4.15091e+10,1.02071,0.946393,9,0.0479874,2089,1.00001,1.00001
app_12,1.32932,19460.3,7769,231,863.109,4.56267e+10,1.02372,0.946393,9,0.0528699,2107,1.00001,1.00001
app_13,7.54289,19542.5,7309.65,690.354,813.328,1.67341e+11,1.06995,0.946393,9,0.205767,1998,1.00001,1.00001
app_14,9.96722,19688.9,7831.6,168.4,714.165,3.49076e+10,1.01697,0.946393,11,0.0488902,1758,1.00001,1.00001
app_15,8.9205,19673.5,7189.5,810.5,801.348,2.06949e+11,1.0816,0.946393,9,0.258041,1981,1.00002,1.00002
app_16,3.67926,19535.1,7264.01,735.994,806.803,1.84066e+11,1.0741,0.946393,9,0.228354,1980,1.00002,1.00002
app_17,6.28704,20720.5,7499,501,751.349,1.18407e+11,1.05023,0.946393,10,0.157666,1955,1.00002,1.00002
app_18,6.73217,20263.5,7643.78,356.216,764.245,7.66389e+10,1.03621,0.946393,10,0.100216,1942,1.00002,1.00002
app_19,4.94448,19585.5,7902.7,97.3,792.347,1.28551e+10,1.01067,0.946393,10,0.0162312,1934,1.00002,1.00002
app_2,9.15086,20051.4,7894.5,105.5,716.856,1.63022e+10,1.01128,0.946393,11,0.0227367,1799,1,1
app_20,5.08583,19203.9,7353.37,646.629,813.81,1.5903e+11,1.06491,0.946393,9,0.195556,1967,1.00002,1.00002
app_21,84.1298,20958.9,7429.2,570.8,80.3485,1.46862e+11,1.05596,0.946393,93,1.81311,211,1.00002,1.00002
app_22,69.11,20827.3,7557.6,442.4,85.4301,1.13556e+11,1.04287,0.946393,89,1.33596,222,1.00002,1.00002
app_23,3.77854,20006.4,7904.1,95.9,79.2901,2.18912e+10,1.00934,0.946393,100,0.277104,198,1.00002,1.00002
app_24,22.7057,20660.7,7646.4,353.6,70.7594,8.45766e+10,1.0348,0.946393,108,1.20824,183,1.00002,1.00002
app_25,91.9068,21254.4,7273.7,726.3,76.6759,1.74667e+11,1.07406,0.946393,95,2.2684,204,1.00003,1.00003
app_26,90.5904,21138.8,7283.97,716.026,70.0171,1.71657e+11,1.07301,0.946393,104,2.44852,187,1.00003,1.00003
app_27,25.2304,20181.2,7938.1,61.9,70.5412,1.39387e+10,1.00603,0.946393,111,0.199124,180,1.00003,1.00003
app_28,49.6574,21281.2,7248,752,75.7659,1.89875e+11,1.07558,0.946393,96,2.49835,202,1.00003,1.00003
app_29,57.5918,19979.2,7952.6,47.4,75.6754,1.18861e+10,1.00446,0.946393,105,0.158482,189,1.00003,1.00003
app_3,8.85786,19925.7,7679.7,320.3,853.27,7.12676e+10,1.03213,0.946393,9,0.0835493,2131,1,1
app_30,46.9055,21138.7,7235.1,764.9,78.9088,1.85303e+11,1.07811,0.946393,92,2.34561,211,1.00003,1.00003
app_31,83.3691,20812.9,7495.9,504.1,85.3767,1.31437e+11,1.04886,0.946393,88,1.54632,222,1.00003,1.00003
app_32,7.74055,20479.5,7698.4,301.6,80.819,7.21736e+10,1.02953,0.946393,95,0.891032,208,1.00003,1.00003
app_33,9.53431,20701.3,7609.44,390.557,82.2262,9.90127e+10,1.03782,0.946393,92,1.20081,215,1.00003,1.00003
app_34,36.8487,20865.9,7456.32,543.681,72.4172,1.42894e+11,1.05274,0.946393,102,1.95907,192,1.00003,1.00003
app_35,24.8912,20652.1,7593.5,406.5,76.4429,1.03143e+11,1.03941,0.946393,99,1.33952,199,1.00004,1.00004
app_36,14.6398,21265.4,7231,769,68.8735,1.93185e+11,1.07756,0.946393,105,2.79978,185,1.00004,1.00004
app_37,85.6353,20352.1,7802.66,197.34,86.2921,4.91167e+10,1.01888,0.946393,91,0.566532,218,1.00004,1.00004
app_38,87.7279,20100.3,7965.9,34.1,87.4606,6.87108e+09,1.00342,0.946393,91,0.0789779,219,1.00004,1.00004
app_39,14.4229,20565.1,7620.8,379.2,86.7258,9.62542e+10,1.03666,0.946393,88,1.10637,224,1.00004,1.00004
app_4,4.74568,18937.6,7748.3,251.7,860.476,5.2517e+10,1.02553,0.946393,9,0.0610662,2042,1,1
app_40,90.881,21197.5,7377.25,622.75,71.1403,1.68532e+11,1.06019,0.946393,103,2.3623,190,1.00004,1.00004
app_41,677.278,20910,7797.7,202.3,8.40503,4.59243e+10,1.01994,0.946393,950,5.74054,21,1.00004,1.00004
app_42,416.249,22517.9,7020.72,979.277,6.5695,1.66037e+11,1.11316,0.946393,1083,25.7381,19,1.00004,1.00004
app_43,1016.52,22170,7671.7,328.3,7.31489,7.97487e+10,1.03207,0.946393,1007,9.96859,20,1.00004,1.00004
app_44,478.378,21069.3,7853.6,146.4,7.79426,4.52369e+10,1.01281,0.946393,1006,5.65462,20,1.00004,1.00004
app_45,164.812,22224.4,7295.8,704.2,7.65842,1.74967e+11,1.07084,0.946393,978,21.8708,21,1.00004,1.00004
app_46,103.08,21816.3,7413.2,586.8,7.25787,1.72269e+11,1.05465,0.946393,993,24.6099,20,1.00005,1.00005
app_47,758.408,22112.7,7585.7,414.3,7.76201,1.10577e+11,1.03946,0.946393,969,15.7968,21,1.00005,1.00005
app_48,112.111,21654.8,7271.1,728.9,7.86045,2.13349e+11,1.06888,0.946393,940,26.6686,21,1.00005,1.00005
app_49,889.372,21826.1,7627.3,372.7,7.31843,9.5837e+10,1.03585,0.946393,1061,13.691,19,1.00005,1.00005
app_5,6.08076,19423.2,7558.57,441.428,839.797,1.02666e+11,1.04422,0.946393,9,0.122298,2045,1.00001,1.00001
app_50,833.044,22285.2,7656.3,343.7,7.83716,1.35586e+11,1.02671,0.946393,950,19.3695,21,1.00005,1.00005
app_51,320.739,21797.2,7313.6,686.4,7.41292,1.32351e+11,1.07441,0.946393,995,18.9072,20,1.00005,1.00005
app_52,515.204,22495.3,7503.3,496.7,7.2189,1.09104e+11,1.05092,0.946393,1031,13.638,20,1.00005,1.00005
app_53,869.576,21280,7735,265,7.69419,5.60173e+10,1.02682,0.946393,1002,7.00216,20,1.00005,1.00005
app_54,539.097,20992.6,7784.2,215.8,7.70303,3.71582e+10,1.02284,0.946393,998,4.64478,20,1.00005,1.00005
app_55,411.448,21260.3,7497.1,502.9,8.44142,1.32016e+11,1.04861,0.946393,868,16.502,23,1.00005,1.00005
app_56,638.907,21620.7,7456.9,543.1,7.21694,1.12787e+11,1.05685,0.946393,1047,14.0983,19,1.00006,1.00006
app_57,123.888,21061.1,7688.1,311.9,7.95671,7.74369e+10,1.03019,0.946393,949,9.67962,21,1.00006,1.00006
app_58,532.937,22461.6,7548.5,451.5,7.53518,1.29226e+11,1.04198,0.946393,979,18.4609,21,1.00006,1.00006
app_59,67.7454,21583.5,7207.4,792.6,7.74757,1.92752e+11,1.08106,0.946393,939,24.0939,21,1.00006,1.00006
app_6,5.50706,19125.2,7764.8,235.2,861.041,4.76166e+10,1.02401,0.946393,9,0.0553038,2065,1.00001,1.00001
app_60,541.453,22667.5,6899.93,1100.07,7.0114,1.95009e+11,1.12756,0.946393,999,27.5498,20,1.00006,1.00006
app_7,3.12924,19338.6,7912.1,87.9,879.079,4.42019e+09,1.01055,0.946393,9,0.00502865,2126,1.00001,1.00001
app_8,3.55224,19913.1,7514.68,485.316,753.195,1.13652e+11,1.04872,0.946393,10,0.150911,1881,1.00001,1.00001
app_9,1.92364,19606.8,7905.1,94.9,788.633,1.16012e+10,1.01052,0.946393,10,0.0147223,1939,1.00001,1.00001
