app_id,start_app,end_app,effective_cpu,effective_io,effective_iter,total_bytes,stretch,utilization,Tcomp,Tio,iterations,priority,group_id
app_1,0.800023,25914.9,5423.27,177.798,544.941,1.55565e+11,1.43399,0.857268,10,0.285441,1893,1,1
app_10,5.46031,26438.6,5544.76,46.1782,502.005,1.859e+10,1.43798,0.857268,11,0.0370318,1811,1,1
app_11,4.69479,25464.4,5457.05,119.868,547.998,9.71801e+10,1.44034,0.857268,10,0.177336,1871,1,1
app_12,5.14022,26505.1,5473.3,88.7136,547.836,5.55327e+10,1.44696,0.857268,10,0.101337,1976,1,1
app_13,8.18386,24905.4,5258.76,186.909,656.999,1.49069e+11,1.47934,0.857268,8,0.226894,2198,1,1
app_14,0.619711,25580.4,5489.9,68.5758,547.76,4.52152e+10,1.44532,0.857268,10,0.0825096,1889,1,1
app_15,8.46868,25932.7,5357.72,177.671,594.972,1.46705e+11,1.45338,0.857268,9,0.246563,2090,1,1
app_16,8.77117,25423.8,5463.92,54.652,546.997,2.75517e+10,1.4568,0.857268,10,0.0503687,1875,1,1
app_17,4.24568,26230.4,5452.34,117.015,544.77,9.22345e+10,1.44285,0.857268,10,0.169238,1943,1,1
app_18,8.58007,25570.5,5393.56,131.345,599.978,1.07114e+11,1.45437,0.857268,9,0.178523,2062,1,1
app_19,5.08776,26065.8,5440.2,103.46,542.968,7.48488e+10,1.45058,0.857268,10,0.137843,1931,1,1
app_2,3.08428,25724.9,5439.42,73.9973,603.822,4.88832e+10,1.45764,0.857268,9,0.0809324,2097,1,1
app_20,1.79793,26441.3,5443.84,72.5772,602.998,4.70456e+10,1.45696,0.857268,9,0.0780193,2179,1,1
app_21,22.869,21547.6,7227.27,116.222,69.6103,1.1288e+11,1.0899,0.857268,105,1.63594,188,1,1
app_22,39.7893,21519.7,7453.67,37.6819,75.6052,3.33685e+10,1.06851,0.857268,99,0.43906,201,1,1
app_23,94.2787,21663.1,7408.8,63.1627,68.629,5.99165e+10,1.07113,0.857268,108,0.868355,184,1,1
app_24,23.1426,21443.3,7357.7,79.8425,81.6622,7.47907e+10,1.07636,0.857268,90,0.912082,220,1,1
app_25,68.0065,21605.9,7306.66,62.4102,74.811,5.93836e+10,1.08606,0.857268,98,0.791781,201,1,1
app_26,79.2654,21916.9,7295,9.14586,74.4513,5.92338e+09,1.09575,0.857268,97,0.0800457,205,1,1
app_27,75.3996,21729.3,7277.4,67.9734,74.212,6.45708e+10,1.08963,0.857268,98,0.872579,202,1,1
app_28,84.6205,21638.5,7304.9,109.806,74.5487,1.05741e+11,1.07953,0.857268,98,1.40988,200,1,1
app_29,71.5445,21634.3,7342.7,8.75229,70.2979,5.77568e+09,1.08866,0.857268,104,0.0813475,192,1,1
app_3,3.89065,26427.5,5389.35,132.121,597.007,1.08725e+11,1.45506,0.857268,9,0.182119,2159,1,1
app_30,14.2309,21425.6,7175,143,73.5376,1.38833e+11,1.09382,0.857268,98,1.90182,199,1,1
app_31,96.9527,21643.8,7197.22,62.5514,74.7022,5.96691e+10,1.1024,0.857268,97,0.795588,204,1,1
app_32,89.6962,21421.7,7214.1,199.352,75.3838,1.9505e+11,1.07975,0.857268,96,2.60067,202,1,1
app_33,25.6484,21427.6,7266.9,111.932,76.2585,1.08088e+11,1.08475,0.857268,96,1.42221,204,1,1
app_34,34.095,21483.4,7251.5,186.711,80.6116,1.82949e+11,1.07607,0.857268,90,2.25863,216,1,1
app_35,77.9831,21470,7370.5,82.167,70.5372,7.81857e+10,1.07401,0.857268,105,1.10121,188,1,1
app_36,59.2068,21329.5,7383.5,96.266,73.2658,9.26388e+10,1.07007,0.857268,101,1.25188,195,1,1
app_37,84.9193,21753.1,7401.25,46.1079,79.9541,4.15042e+10,1.07487,0.857268,92,0.518803,216,1,1
app_38,14.8794,21560.1,7245.9,138.296,69.7173,1.34304e+11,1.08398,0.857268,103,1.91862,191,1,1
app_39,7.20915,21438.7,7291.7,195.745,69.9878,1.91592e+11,1.06905,0.857268,105,2.73702,186,1,1
app_4,3.78816,26498.2,5382.05,124.635,598.996,9.57102e+10,1.46045,0.857268,9,0.159783,2168,1,1
app_40,38.7714,21103.8,7294.98,202.417,64.1855,1.99226e+11,1.06749,0.857268,114,3.06501,170,1,1
app_41,803.438,21017.8,7820.3,39.7572,7.69077,3.92083e+10,1.01788,0.857268,1002,5.60118,20,1,1
app_42,76.2606,21361.3,7824.1,167.672,8.74435,1.67377e+11,1.00107,0.857268,882,18.5974,23,1,1
app_43,554.497,21390.4,7759.9,188.992,8.02387,1.88635e+11,1.00647,0.857268,957,23.5794,21,1,1
app_44,286.947,21416.4,7747.2,166.106,7.64627,1.65835e+11,1.01099,0.857268,1027,23.6907,20,1,1
app_45,541.511,21149.6,7651.8,209.942,8.35286,2.09653e+11,1.01762,0.857268,908,23.2948,22,1,1
app_46,610.188,21435,7803,45.6783,7.87551,4.53371e+10,1.01932,0.857268,1012,6.47673,20,1,1
app_47,837.918,21322.7,7823.58,109.187,8.03329,1.08532e+11,1.00856,0.857268,1006,12.7075,20,1,1
app_48,95.0411,19922.2,7855.2,121.75,8.11798,1.21393e+11,1.00293,0.857268,985,15.1741,20,1,1
app_49,418.365,20893.9,7958.4,19.799,8.26794,1.93245e+10,1.00279,0.857268,954,2.41556,21,1,1
app_5,7.52904,25428.6,5445.81,105.189,546.001,7.5776e+10,1.44886,0.857268,10,0.138784,1862,1,1
app_50,753.242,21078.1,7981.3,15.8772,8.41338,1.55842e+10,1.00039,0.857268,991,1.94803,21,1,1
app_51,195.051,20699.7,7959.1,21.4074,7.89528,2.08892e+10,1.00251,0.857268,1028,2.61115,20,1,1
app_52,810.267,21805.2,7917.3,78.5185,7.68282,7.83274e+10,1.00055,0.857268,1027,9.79092,20,1,1
app_53,1.17116,20552.2,7733.6,209.813,8.02825,2.09419e+11,1.00717,0.857268,933,26.1774,21,1,1
app_54,353.122,21453,7959.5,30.3194,8.83424,2.98764e+10,1.00133,0.857268,900,3.73455,23,1,1
app_55,805.003,21710.2,7861.3,33.7085,8.12663,3.35222e+10,1.01332,0.857268,960,4.19028,21,1,1
app_56,147.058,20974.3,7854.9,130.275,7.63865,1.30016e+11,1.00189,0.857268,1018,16.252,20,1,1
app_57,612.092,21661.6,7766.2,131.862,8.16348,1.31477e+11,1.01296,0.857268,981,16.4346,21,1,1
app_58,136.959,21067.2,7774.7,150.469,8.5075,1.49933e+11,1.00951,0.857268,921,18.7416,22,1,1
app_59,104.655,20631.4,7774.24,188.893,8.34597,1.88364e+11,1.0047,0.857268,942,23.5257,21,1,1
app_6,5.54067,26085.9,5457.78,107.891,544.003,8.13437e+10,1.44427,0.857268,10,0.149529,1928,1,1
app_60,936.807,21960.9,7909.3,41.6577,7.551,4.11787e+10,1.00623,0.857268,1045,5.14733,20,1,1
app_7,5.70569,26297.6,5482.65,70.1891,550.999,4.66765e+10,1.44683,0.857268,10,0.0847123,1962,1,1
app_8,3.6099,25947.1,5412.36,118.447,598.992,8.70386e+10,1.4547,0.857268,9,0.145306,2107,1,1
app_9,2.08535,26369,5478.8,41.58,547.001,9.80356e+09,1.45756,0.857268,10,0.0179224,1976,1,1
