app_id,start_app,end_app,effective_cpu,effective_io,effective_iter,total_bytes,stretch,utilization,Tcomp,Tio,iterations,priority,group_id
app_1,6.47673,18299.6,7668.3,279.509,957.194,2.06073e+11,1.01595,0.965281,8,0.215332,2190,0.1,1
app_10,9.54914,19091.3,7780.5,160.588,865.562,9.11094e+10,1.01631,0.965281,9,0.105329,2064,0.1,1
app_11,3.20312,19765.4,7784.1,159.453,865.204,9.16031e+10,1.01578,0.965281,9,0.1059,2139,0.1,1
app_12,9.13092,18306.5,7681.9,265.569,854.421,2.26785e+11,1.01155,0.965281,9,0.265556,1953,0.1,1
app_13,1.35791,18730.6,7706.2,246.949,855.027,1.78288e+11,1.01465,0.965281,9,0.208524,2003,0.1,1
app_14,9.74744,19540.1,7795.7,149.731,781.456,9.52695e+10,1.01382,0.965281,10,0.121984,1905,0.1,1
app_15,6.10626,19001.3,7854.4,90.7503,784.831,6.52247e+10,1.01015,0.965281,10,0.0831948,1866,0.1,1
app_16,8.16533,18477.7,7816.4,126.561,869.937,8.61292e+10,1.01233,0.965281,9,0.0989991,2008,0.1,1
app_17,6.50323,19498.9,7868.7,71.4954,873.401,4.4061e+09,1.01612,0.965281,9,0.00504708,2132,0.1,1
app_18,10.175,19277.7,7876.2,68.5167,785.636,1.35249e+10,1.01398,0.965281,10,0.0172072,1893,0.1,1
app_19,3.66139,18292.1,7740.5,212.505,862.431,1.65179e+11,1.01193,0.965281,9,0.191623,1968,0.1,1
app_2,3.10036,19905.6,7878.8,74.3548,783.747,2.8018e+10,1.01179,0.965281,10,0.0357373,1954,0.1,1
app_20,9.96097,19281.3,7792.6,157.609,778.5,1.16773e+11,1.01146,0.965281,10,0.149901,1877,0.1,1
app_21,30.6576,20258.5,7926.7,6.49934,75.7362,4.89435e+08,1.00918,0.965281,104,0.00643994,192,0.01,2
app_22,35.4866,20398.4,7663.9,287.792,76.2806,1.9639e+11,1.01777,0.965281,100,2.55052,195,0.01,2
app_23,5.92039,20384.2,7685.8,264.835,74.8346,1.81661e+11,1.01685,0.965281,103,2.45488,189,0.01,2
app_24,81.2897,20355.7,7706.4,225.249,80.0116,1.53384e+11,1.01784,0.965281,97,1.9173,202,0.01,2
app_25,85.8988,20333.3,7720,183.462,82.7325,1.25336e+11,1.01971,0.965281,93,1.51007,211,0.01,2
app_26,7.75753,20237.6,7776.2,117.415,83.4224,7.69962e+10,1.01869,0.965281,93,0.916622,212,0.01,2
app_27,65.1154,20229.3,7909.4,20.6717,71.862,1.0123e+10,1.01016,0.965281,110,0.140597,182,0.01,2
app_28,2.15012,20340.3,7673.1,228.612,78.5254,1.56122e+11,1.02181,0.965281,98,1.97622,200,0.01,2
app_29,75.2807,20376.9,7703.7,227.937,74.5584,1.52402e+11,1.01832,0.965281,103,2.03202,190,0.01,2
app_3,1.13262,18178.6,7658.3,289.456,956.844,2.3233e+11,1.01386,0.965281,8,0.242769,2177,0.1,1
app_30,1.6905,20224,7734.9,179.364,82.941,1.19576e+11,1.01853,0.965281,93,1.44068,211,0.01,2
app_31,62.2778,20595.5,7722.8,201.123,70.5465,1.3669e+11,1.01788,0.965281,108,1.92521,182,0.01,2
app_32,28.4821,20290.7,7832.6,101.964,77.7613,6.79915e+10,1.01258,0.965281,100,0.871687,197,0.01,2
app_33,56.8822,20226.9,7638.8,299.401,78.1548,2.02371e+11,1.02026,0.965281,99,2.5945,196,0.01,2
app_34,63.548,20551,7642.8,279.885,82.7874,1.89062e+11,1.02147,0.965281,91,2.27785,215,0.01,2
app_35,94.1911,20429.3,7808.8,101.756,74.3888,7.00785e+10,1.01537,0.965281,105,0.947006,189,0.01,2
app_36,52.8345,20336,7723.5,193.424,83.8786,1.25534e+11,1.01923,0.965281,93,1.51245,212,0.01,2
app_37,82.6974,20518.8,7719.7,194.323,84.4075,1.33171e+11,1.01874,0.965281,91,1.56671,216,0.01,2
app_38,72.3601,20374.5,7738.1,157.161,75.436,1.06681e+11,1.01979,0.965281,103,1.42241,192,0.01,2
app_39,46.5983,20149.6,7902.1,10.2118,81.0933,3.39127e+09,1.01195,0.965281,98,0.0413569,203,0.01,2
app_4,0.162598,18381.9,7780.7,160.091,866.346,9.06046e+10,1.01635,0.965281,9,0.104504,1987,0.1,1
app_40,76.6211,20331.1,7703.7,230.208,79.2046,1.54913e+11,1.01799,0.965281,97,1.96093,201,0.01,2
app_41,940.687,22607,7604.5,163.182,7.94765,6.60215e+10,1.04295,0.965281,934,8.25268,22,0.001,3
app_42,517.697,21492.8,7646,243.575,7.50727,1.27896e+11,1.02909,0.965281,983,18.2708,20,0.001,3
app_43,755.656,21338.4,7721.7,171.351,8.52549,6.94281e+10,1.02681,0.965281,919,7.71424,22,0.001,3
app_44,805.674,21550.4,7733.7,183.763,8.30135,8.46792e+10,1.02323,0.965281,921,10.5849,22,0.001,3
app_45,564.125,22118.9,7413.8,440.203,7.38589,1.92111e+11,1.05181,0.965281,995,27.4444,20,0.001,3
app_46,684.776,21532.6,7427.8,430.703,8.62075,1.84558e+11,1.05092,0.965281,871,20.5064,23,0.001,3
app_47,476.77,20821.8,7647.3,141.891,7.52512,6.48474e+10,1.03732,0.965281,999,8.10592,20,0.001,3
app_48,708.718,21400.5,7841.6,77.1843,7.73391,2.94974e+10,1.01638,0.965281,1015,4.21391,20,0.001,3
app_49,708.764,22040.6,7458.9,449.835,7.3201,1.78385e+11,1.04749,0.965281,1015,22.2981,20,0.001,3
app_5,5.85956,20065.9,7834.3,114.871,785.979,7.57913e+10,1.01137,0.965281,10,0.0964266,1971,0.1,1
app_50,24.0707,20957,7487.3,73.8485,7.49809,3.13589e+10,1.06402,0.965281,1016,3.91986,20,0.001,3
app_51,864.305,21258,7773.8,157.067,7.21625,6.67793e+10,1.02033,0.965281,1052,9.5399,19,0.001,3
app_52,436.051,21288.8,7601.3,180.254,8.29994,9.51021e+10,1.03945,0.965281,922,10.5669,22,0.001,3
app_53,871.012,22347.9,7645.9,189.098,8.00451,7.35405e+10,1.03634,0.965281,982,9.19256,21,0.001,3
app_54,406.294,21361,7639.31,311.115,7.69907,1.36863e+11,1.02878,0.965281,994,19.5519,20,0.001,3
app_55,864.667,21555.2,7828.2,76.1767,8.17809,3.79877e+10,1.01701,0.965281,972,4.74846,21,0.001,3
app_56,649.7,22414.6,7293.7,361.72,7.67571,1.51292e+11,1.07455,0.965281,978,18.9114,21,0.001,3
app_57,452.197,20760.2,7759.5,62.7045,9.38744,2.74581e+10,1.02736,0.965281,831,2.74581,24,0.001,3
app_58,339.165,21151.1,7581.12,369.686,7.584,1.65111e+11,1.03276,0.965281,978,22.7438,20,0.001,3
app_59,586.11,20744.7,7823.4,73.5681,8.11425,2.39081e+10,1.01946,0.965281,997,2.98852,20,0.001,3
app_6,9.02332,20122.9,7695.6,259.697,767.441,2.09337e+11,1.01203,0.965281,10,0.272929,1935,0.1,1
app_60,487.32,21539.7,7757.4,146.244,7.95296,5.68929e+10,1.02377,0.965281,968,7.11161,21,0.001,3
app_7,8.84925,18411.3,7853.7,84.047,872.526,3.48455e+10,1.01413,0.965281,9,0.0399146,2005,0.1,1
app_8,4.53984,19091,7863.1,80.0656,785.296,3.85708e+10,1.01244,0.965281,10,0.0491348,1875,0.1,1
app_9,7.25302,20044.4,7785.5,161.535,777.343,1.244e+11,1.01139,0.965281,10,0.160103,1950,0.1,1
