app_id,start_app,end_app,effective_cpu,effective_io,effective_iter,total_bytes,stretch,utilization,Tcomp,Tio,iterations,priority,group_id
app_1,8.26813,24804,5385.97,147.517,671.301,1.19506e+11,1.4531,0.863311,8,0.177837,2235,1,1
app_10,6.03187,24612.3,5405.9,122.939,676.802,8.3188e+10,1.45744,0.863311,8,0.122877,2230,1,1
app_11,9.23634,26002.7,5488.66,124.545,548.003,1.03525e+11,1.43057,0.863311,10,0.188915,1947,1,1
app_12,0.870346,26284.1,5446.86,136.745,604.806,1.1166e+11,1.43923,0.863311,9,0.184562,2175,1,1
app_13,7.39859,26237.4,5500.17,113.726,548.466,8.76327e+10,1.43169,0.863311,10,0.159622,1966,1,1
app_14,2.92833,24473.6,5457.29,179.236,547.411,1.57052e+11,1.42492,0.863311,10,0.286591,1785,1,1
app_15,7.51965,25162.9,5432.04,111.61,602.994,7.82852e+10,1.45182,0.863311,9,0.129826,2050,1,1
app_16,8.63159,24669.9,5454.2,129.208,604.996,1.04611e+11,1.43916,0.863311,9,0.17291,1995,1,1
app_17,2.65405,24627.6,5528.18,95.1336,552.436,6.30098e+10,1.43082,0.863311,10,0.113942,1821,1,1
app_18,8.79383,25764.8,5439.88,137.164,605.448,1.10323e+11,1.44139,0.863311,9,0.182051,2117,1,1
app_19,8.72648,25575.4,5501.1,128.047,550.545,1.06605e+11,1.42661,0.863311,10,0.193475,1904,1,1
app_2,5.31389,25011.3,5493.47,55.7358,611.352,2.36899e+10,1.45002,0.863311,9,0.038709,2056,1,1
app_20,5.57255,25567.2,5506.46,144.607,550.323,1.11542e+11,1.42399,0.863311,10,0.202436,1896,1,1
app_21,53.3787,21209.9,7301.1,192.542,73.7983,1.88679e+11,1.06812,0.863311,100,2.54972,195,1,1
app_22,42.1416,21121.2,7332.1,132.472,77.7293,1.28786e+11,1.07226,0.863311,95,1.65111,206,1,1
app_23,37.1988,21034.8,7429.3,14.1383,74.7357,1.0671e+10,1.07527,0.863311,100,0.14228,199,1,1
app_24,35.3578,21321.1,7459.32,7.56057,73.8935,4.04731e+09,1.0719,0.863311,101,0.0546934,198,1,1
app_25,36.2175,21023.1,7473.5,136.946,80.2617,1.33443e+11,1.05167,0.863311,94,1.66804,208,1,1
app_26,50.2452,21225.5,7462,14.1615,72.6069,1.01475e+10,1.07064,0.863311,103,0.140937,194,1,1
app_27,68.811,21317.6,7273.4,136.034,71.7494,1.32242e+11,1.08026,0.863311,101,1.8367,195,1,1
app_28,76.6411,21319.8,7403.3,64.4606,78.9155,6.02417e+10,1.07188,0.863311,94,0.762553,210,1,1
app_29,17.2795,21098.2,7481.8,77.91,82.5239,7.4426e+10,1.05873,0.863311,90,0.896699,218,1,1
app_3,5.19052,24969.9,5446.63,133.18,603.998,1.07217e+11,1.44044,0.863311,9,0.177512,2033,1,1
app_30,93.5828,21227.4,7412.9,135.331,78.5977,1.31643e+11,1.06037,0.863311,94,1.66636,208,1,1
app_31,2.51418,21243.7,7381.84,88.7285,81.9668,8.41228e+10,1.07153,0.863311,89,1.02589,221,1,1
app_32,51.6647,21123.5,7474.46,140.927,78.8163,1.36967e+11,1.05105,0.863311,95,1.73376,206,1,1
app_33,87.9815,21225.2,7450.4,69.2671,75.4067,6.58572e+10,1.06436,0.863311,99,0.878096,200,1,1
app_34,13.2575,21233.9,7303,74.2074,72.9453,7.09158e+10,1.08491,0.863311,101,0.97145,196,1,1
app_35,59.3617,21106.2,7336.5,139.264,76.9975,1.35268e+11,1.0707,0.863311,96,1.75672,204,1,1
app_36,19.6601,21132.3,7466.8,112.854,78.9882,1.09759e+11,1.05589,0.863311,94,1.38936,209,1,1
app_37,84.7049,21543.6,7409.1,36.5323,73.1724,3.21977e+10,1.07508,0.863311,101,0.441065,197,1,1
app_38,68.1999,21251.9,7383.7,81.5689,78.648,7.83067e+10,1.0721,0.863311,94,0.991224,209,1,1
app_39,84.6073,21260.4,7415.7,23.2212,78.7644,1.86639e+10,1.07608,0.863311,94,0.236252,211,1,1
app_4,9.08367,25849.1,5400.84,174.716,599.924,1.42009e+11,1.4433,0.863311,9,0.236682,2107,1,1
app_40,20.69,21125.1,7495.8,5.70934,72.2726,1.77657e+09,1.06701,0.863311,105,0.0246746,190,1,1
app_41,8.30253,20975.4,7803.7,194.435,7.75962,1.93876e+11,1.0003,0.863311,1013,24.2346,20,1,1
app_42,345.939,21158.6,7767.2,203.93,7.63452,2.03485e+11,1.00368,0.863311,1000,25.4357,20,1,1
app_43,542.42,20912.9,7849,94.1671,8.2608,9.36419e+10,1.00722,0.863311,951,11.7052,21,1,1
app_44,851.503,21858.1,7806.8,92.3768,8.04421,9.1978e+10,1.01281,0.863311,962,11.4972,21,1,1
app_45,907.32,21538.7,7862.5,110.485,7.75992,1.10149e+11,1.00343,0.863311,1013,15.7355,20,1,1
app_46,483.707,21096.7,7736.5,191.683,8.51796,1.91283e+11,1.00911,0.863311,907,21.2537,22,1,1
app_47,544.513,21774.8,7816.42,157.319,7.22677,1.57037e+11,1.00333,0.863311,1049,22.1791,19,1,1
app_48,885.138,21336.4,7870.3,106.529,8.36147,1.06165e+11,1.00295,0.863311,973,13.2707,21,1,1
app_49,38.5925,19954.2,7849.6,106.849,8.3574,1.06501e+11,1.00552,0.863311,946,13.3126,21,1,1
app_5,1.97923,26080.2,5474.44,169.739,546.005,1.43574e+11,1.42399,0.863311,10,0.262956,1938,1,1
app_50,681.31,21311.6,7850.02,102.988,7.81515,1.02638e+11,1.00595,0.863311,1012,14.6512,20,1,1
app_51,736.665,21375.6,7900,62.2109,8.03844,6.18776e+10,1.00479,0.863311,984,7.7347,21,1,1
app_52,746.304,20853.7,7878.3,73.7776,8.42821,7.33713e+10,1.00608,0.863311,965,9.17142,21,1,1
app_53,626.92,21119.4,7833.6,97.4669,8.5702,9.71642e+10,1.00873,0.863311,906,10.796,22,1,1
app_54,639.009,20757.9,7835.6,127.527,7.59762,1.27251e+11,1.00467,0.863311,1038,18.1788,19,1,1
app_55,204.388,20809,7885,93.2737,7.84117,9.28364e+10,1.00278,0.863311,1009,11.6046,20,1,1
app_56,561.232,20637.5,7851,121.618,7.9872,1.21319e+11,1.00347,0.863311,1005,15.1648,20,1,1
app_57,809.64,21798.1,7939.6,11.2148,7.73025,1.09818e+10,1.00622,0.863311,997,1.37273,21,1,1
app_58,334.911,21002.1,7814.7,116.504,8.21697,1.16057e+11,1.00873,0.863311,960,14.5071,21,1,1
app_59,469.296,21349.9,7953.9,9.88578,8.76543,9.33009e+09,1.00462,0.863311,905,1.03668,23,1,1
app_6,3.48747,25162.1,5483.35,56.6909,610.992,2.19898e+10,1.45313,0.863311,9,0.0359898,2070,1,1
app_60,411.751,20463.7,7825.1,110.732,8.42209,1.10449e+11,1.00812,0.863311,940,12.2721,21,1,1
app_7,1.41276,24731.9,5476.75,71.4414,608.326,4.38589e+10,1.44911,0.863311,9,0.072018,2024,1,1
app_8,6.71687,25448.5,5486.52,122.147,547.623,1.00092e+11,1.43199,0.863311,10,0.182649,1885,1,1
app_9,0.173592,24762.5,5505.62,40.4382,610.569,3.45954e+09,1.45215,0.863311,9,0.00566209,2030,1,1
