app_id,start_app,end_app,effective_cpu,effective_io,effective_iter,total_bytes,stretch,utilization,Tcomp,Tio,iterations,priority,group_id
app_1,9.91466,20154.9,7777.4,222.6,779.356,5.17226e+10,1.02183,0.954205,10,0.0663961,1959,1,1
app_10,4.98047,19124.1,7468.8,531.2,828.903,1.43862e+11,1.05088,0.954205,9,0.173537,1984,1.00001,1.00001
app_11,7.23778,19115.1,7795.64,204.362,781.631,4.50538e+10,1.02032,0.954205,10,0.0576416,1863,1.00001,1.00001
app_12,8.56578,20483.1,7344.3,655.7,734.7,1.81462e+11,1.06302,0.954205,10,0.246887,1880,1.00001,1.00001
app_13,4.94971,19475.1,7502.4,497.6,832.144,1.30734e+11,1.04806,0.954205,9,0.157133,2025,1.00001,1.00001
app_14,8.08613,19679.3,7679.3,320.7,850.992,8.34833e+10,1.03056,0.954205,9,0.0981002,2094,1.00001,1.00001
app_15,5.29536,20977.8,7444.9,555.1,744.987,1.49446e+11,1.05342,0.954205,10,0.200598,1956,1.00002,1.00002
app_16,0.293307,20253.6,7545.1,454.9,755.067,1.18518e+11,1.04389,0.954205,10,0.156978,1914,1.00002,1.00002
app_17,5.66147,18509.7,7781.7,218.3,865.706,4.68976e+10,1.02189,0.954205,9,0.0542169,2003,1.00002,1.00002
app_18,9.10496,19719.8,7430.5,569.5,825.245,1.57292e+11,1.05433,0.954205,9,0.190657,2034,1.00002,1.00002
app_19,7.091,19161.7,7682.5,317.5,851.572,8.33557e+10,1.03015,0.954205,9,0.0978353,2041,1.00002,1.00002
app_2,8.4217,19793,7312.2,687.8,811.186,1.86956e+11,1.06679,0.954205,9,0.230525,2010,1,1
app_20,5.78644,19572.2,7631.1,368.9,845.178,8.79969e+10,1.03639,0.954205,9,0.104138,2073,1.00002,1.00002
app_21,84.0219,21004.2,7411.4,588.6,82.7808,1.70894e+11,1.05509,0.954205,90,2.05896,216,1.00002,1.00002
app_22,12.6508,20383.9,7690.2,309.8,80.1087,9.51758e+10,1.02757,0.954205,96,1.1897,204,1.00002,1.00002
app_23,2.6711,20698.2,7582.4,417.6,81.2466,1.16399e+11,1.03912,0.954205,94,1.4195,209,1.00002,1.00002
app_24,46.0346,21106.2,7360.16,639.845,81.8512,1.75473e+11,1.06162,0.954205,90,2.15607,216,1.00002,1.00002
app_25,99.3861,20858.3,7647,353,74.1586,1.10927e+11,1.0312,0.954205,103,1.49902,191,1.00003,1.00003
app_26,96.7059,20283.9,7739.5,260.5,77.2262,7.47056e+10,1.02378,0.954205,101,0.970203,195,1.00003,1.00003
app_27,61.1028,20217.4,7879.9,120.1,76.4526,3.35213e+10,1.01094,0.954205,103,0.435341,193,1.00003,1.00003
app_28,52.8202,20022.1,7950.9,49.1,76.5873,1.20192e+10,1.00466,0.954205,105,0.158147,191,1.00003,1.00003
app_29,89.8459,20006.8,7954.1,45.9,82.2384,1.21943e+10,1.00423,0.954205,97,0.148711,205,1.00003,1.00003
app_3,2.04263,20637.5,7374.2,625.8,738.197,1.72221e+11,1.06011,0.954205,10,0.233046,1904,1,1
app_30,38.7284,20681.5,7712.3,287.7,74.5742,8.1968e+10,1.0264,0.954205,102,1.10768,194,1.00003,1.00003
app_31,67.3628,20878.6,7592.4,407.6,78.8736,1.29572e+11,1.036,0.954205,96,1.64015,204,1.00003,1.00003
app_32,6.91968,20693.3,7569.2,430.8,81.7412,1.05569e+11,1.04238,0.954205,93,1.30332,212,1.00003,1.00003
app_33,85.626,20107,7924.7,75.3,80.6111,2.18253e+10,1.00673,0.954205,98,0.269448,202,1.00003,1.00003
app_34,71.2017,20477.2,7755.4,244.6,79.1245,6.97604e+10,1.02234,0.954205,98,0.883043,202,1.00003,1.00003
app_35,1.20452,21198.2,7413.7,586.3,80.8261,1.77301e+11,1.05388,0.954205,92,2.18891,213,1.00004,1.00004
app_36,25.3287,20846.2,7444.1,555.9,76.2369,1.74148e+11,1.05011,0.954205,99,2.26167,197,1.00004,1.00004
app_37,13.4683,20024.1,7947.9,52.1,77.55,1.24544e+10,1.00498,0.954205,102,0.159672,195,1.00004,1.00004
app_38,14.0151,20581.6,7609,391,75.5041,1.15153e+11,1.03571,0.954205,101,1.53537,194,1.00004,1.00004
app_39,93.2184,20386.3,7780,220,77.6006,6.02043e+10,1.02038,0.954205,101,0.77185,196,1.00004,1.00004
app_4,6.69064,19246.2,7677.3,322.7,854.503,8.2659e+10,1.03093,0.954205,9,0.0966771,2049,1,1
app_40,75.0105,20635.2,7678.6,321.4,80.4805,8.70697e+10,1.03018,0.954205,95,1.07493,207,1.00004,1.00004
app_41,32.3137,21668,7500.6,499.4,7.77889,1.6959e+11,1.043,0.954205,932,21.1987,21,1.00004,1.00004
app_42,432.707,21697.1,7390.56,609.441,7.15178,1.70743e+11,1.05802,0.954205,1067,22.1823,19,1.00004,1.00004
app_43,644.503,20883.3,7873.1,126.9,8.29743,3.70548e+10,1.01136,0.954205,952,4.1172,21,1.00004,1.00004
app_44,153.092,21980.5,7540.3,459.7,8.23253,1.45053e+11,1.04094,0.954205,923,18.1317,22,1.00004,1.00004
app_45,182.79,21088.4,7894.5,105.5,8.0284,3.46923e+10,1.00893,0.954205,986,3.8547,21,1.00004,1.00004
app_46,730.39,21101.1,7776.5,223.5,8.64226,6.3823e+10,1.02037,0.954205,916,7.09145,22,1.00005,1.00005
app_47,244.316,21184.7,7690,310,7.51675,8.34416e+10,1.02915,0.954205,1011,11.9202,20,1.00005,1.00005
app_48,687.154,21838,7563.8,436.2,7.85463,1.65136e+11,1.03507,0.954205,946,20.642,21,1.00005,1.00005
app_49,468.99,21447.2,7720.9,279.1,7.9524,1.13126e+11,1.02119,0.954205,1018,14.1407,20,1.00005,1.00005
app_5,2.7095,19096.4,7871.5,128.5,875.123,2.21697e+10,1.01347,0.954205,9,0.0253368,2090,1.00001,1.00001
app_50,759.236,22565.3,7411.2,588.8,6.97799,1.60577e+11,1.05656,0.954205,1022,22.9396,20,1.00005,1.00005
app_51,80.0942,20906,7481.7,518.3,7.6463,1.8994e+11,1.0428,0.954205,989,23.7425,20,1.00005,1.00005
app_52,640.672,21814.8,7905.7,94.3,8.01667,2.45639e+10,1.00879,0.954205,993,3.07049,21,1.00005,1.00005
app_53,759.889,21676.2,7676.7,323.3,7.61903,1.22117e+11,1.0258,0.954205,995,15.2646,20,1.00005,1.00005
app_54,521.67,22492.8,7477,523,6.8857,1.48159e+11,1.04916,0.954205,1079,21.1655,19,1.00005,1.00005
app_55,838.485,22434.8,7575,425,7.06283,1.57175e+11,1.03464,0.954205,1061,22.4535,19,1.00005,1.00005
app_56,844.974,20916.3,7886.6,113.4,7.63494,3.26781e+10,1.01019,0.954205,1048,4.08477,19,1.00006,1.00006
app_57,66.984,21867.9,7539.8,460.2,7.80642,1.35945e+11,1.04224,0.954205,975,16.9931,21,1.00006,1.00006
app_58,894.833,21680.6,7677.6,322.4,7.72675,1.05968e+11,1.02781,0.954205,988,13.246,20,1.00006,1.00006
app_59,579.167,22055.3,7713.4,286.6,7.9026,7.63327e+10,1.02699,0.954205,981,9.54158,21,1.00006,1.00006
app_6,7.83679,18590.8,7644.2,355.8,957.866,9.0287e+10,1.03433,0.954205,8,0.0942453,2225,1.00001,1.00001
app_60,657.919,21664.3,7637.2,362.8,8.1147,1.08235e+11,1.03287,0.954205,942,13.5294,21,1.00006,1.00006
app_7,0.937073,19911.9,7766.7,233.3,865.9,5.31607e+10,1.02304,0.954205,9,0.0613865,2151,1.00001,1.00001
app_8,7.20321,19353.3,7366,634,819.49,1.69655e+11,1.06162,0.954205,9,0.206896,1979,1.00001,1.00001
app_9,8.57812,20895.5,7347.8,652.2,734.177,1.79048e+11,1.06286,0.954205,10,0.243603,1921,1.00001,1.00001
