app_id,start_app,end_app,effective_cpu,effective_io,effective_iter,total_bytes,stretch,utilization,Tcomp,Tio,iterations,priority,group_id
app_1,3.27991,20736.1,7530.8,469.2,752.278,1.23545e+11,1.04516,0.9534,10,0.164288,1949,1,1
app_10,7.1543,18562.1,7861.7,138.3,876.109,2.52867e+10,1.01433,0.9534,9,0.0288332,2025,1.00001,1.00001
app_11,3.2068,21067.7,7365.7,634.299,735.912,1.68708e+11,1.0618,0.9534,10,0.229358,1940,1.00001,1.00001
app_12,1.15427,19012.8,7523.9,476.104,838.907,1.25e+11,1.0459,0.9534,9,0.14902,1988,1.00001,1.00001
app_13,7.79263,19781.5,7686.2,313.8,853.044,7.79873e+10,1.03037,0.9534,9,0.0914271,2107,1.00001,1.00001
app_14,1.56537,20652.6,7659,341,766.722,8.01501e+10,1.03371,0.9534,10,0.104498,1978,1.00001,1.00001
app_15,0.892162,20402.6,7381.9,618.1,739.637,1.65751e+11,1.05993,0.9534,10,0.224291,1882,1.00002,1.00002
app_16,1.28189,19631.9,7903.9,96.1,790.114,1.37149e+10,1.01041,0.9534,10,0.0173606,1940,1.00002,1.00002
app_17,3.94784,20249.6,7332.4,667.598,815.446,1.82828e+11,1.0645,0.9534,9,0.224192,2061,1.00002,1.00002
app_18,2.54198,20626.9,7526.8,473.2,752.448,1.24681e+11,1.04555,0.9534,10,0.165579,1937,1.00002,1.00002
app_19,6.9159,20079.1,7787.1,212.9,866.937,4.64897e+10,1.02124,0.9534,9,0.0536213,2174,1.00002,1.00002
app_2,0.858324,20434,7741.5,258.5,704.08,6.37138e+10,1.02496,0.9534,11,0.0905026,1797,1,1
app_20,1.29379,19065.2,7912.1,87.9,878.837,6.1655e+09,1.01032,0.9534,9,0.00701422,2094,1.00002,1.00002
app_21,3.40331,20759.7,7483.1,516.9,79.2645,1.4565e+11,1.04866,0.9534,94,1.82062,207,1.00002,1.00002
app_22,87.0988,20109.6,7954.6,45.4,81.6261,1.0987e+10,1.00432,0.9534,97,0.133988,205,1.00002,1.00002
app_23,21.8518,20297,7755.9,244.1,76.5363,6.70943e+10,1.02263,0.9534,102,0.88282,193,1.00002,1.00002
app_24,16.4561,20792.2,7581.7,418.3,80.115,1.11978e+11,1.03981,0.9534,95,1.39973,207,1.00002,1.00002
app_25,92.5097,20406.8,7850,150,78.6823,3.92103e+10,1.01404,0.9534,99,0.496333,201,1.00003,1.00003
app_26,29.6134,20692.5,7702.74,297.262,70.67,8.9725e+10,1.02663,0.9534,109,1.26609,182,1.00003,1.00003
app_27,32.8078,20932.2,7431.7,568.3,79.1598,1.64608e+11,1.05314,0.9534,94,2.08084,207,1.00003,1.00003
app_28,78.7246,20285.9,7851.1,148.9,84.852,4.1682e+10,1.01358,0.9534,93,0.490377,214,1.00003,1.00003
app_29,24.5736,20368.8,7793.5,206.5,83.2561,5.69523e+10,1.01905,0.9534,94,0.686172,211,1.00003,1.00003
app_3,5.42527,19085.8,7401.4,598.6,923.918,1.58946e+11,1.05815,0.9534,8,0.172019,2201,1,1
app_30,53.5189,20957.1,7524.89,475.114,72.375,1.30703e+11,1.04499,0.9534,103,1.8084,191,1.00003,1.00003
app_31,93.4251,21076.3,7416,584,77.598,1.66003e+11,1.05513,0.9534,96,2.15589,203,1.00003,1.00003
app_32,88.6599,20733,7588.6,411.4,75.6622,1.11509e+11,1.03895,0.9534,101,1.46722,195,1.00003,1.00003
app_33,91.6701,21266.7,7362.2,637.8,74.3145,1.67423e+11,1.06247,0.9534,99,2.26248,198,1.00003,1.00003
app_34,63.8688,20828.8,7434.29,565.712,79.7462,1.72575e+11,1.05168,0.9534,94,2.17785,206,1.00003,1.00003
app_35,58.6124,20330.7,7765.4,234.598,82.9307,6.43825e+10,1.02174,0.9534,95,0.779887,209,1.00004,1.00004
app_36,1.63304,20294.3,7844.4,155.6,90.3581,4.33129e+10,1.01424,0.9534,87,0.481254,228,1.00004,1.00004
app_37,43.8469,20881.8,7554.6,445.4,76.5754,1.42229e+11,1.03939,0.9534,98,1.84713,199,1.00004,1.00004
app_38,3.0959,20218.7,7880.4,119.6,73.22,3.45024e+10,1.01075,0.9534,107,0.472635,185,1.00004,1.00004
app_39,38.8303,21050.2,7357.1,642.9,79.3503,1.78101e+11,1.06168,0.9534,93,2.25444,208,1.00004,1.00004
app_4,0.747883,19032.3,7861.8,138.2,872.517,2.65669e+10,1.01415,0.9534,9,0.0304666,2076,1,1
app_40,1.73175,20365.1,7845.9,154.1,76.655,4.02789e+10,1.01443,0.9534,101,0.529985,197,1.00004,1.00004
app_41,68.721,21839.4,7410.2,589.8,8.04184,1.63809e+11,1.05624,0.9534,912,20.4762,22,1.00004,1.00004
app_42,504.104,21933.2,7910,90,7.46409,3.37301e+10,1.00708,0.9534,1034,4.81858,20,1.00004,1.00004
app_43,850.127,22197.8,7323.14,676.862,7.9049,1.47565e+11,1.07085,0.9534,955,19.0652,21,1.00004,1.00004
app_44,201.576,21601.9,7414.4,585.6,7.52009,1.18903e+11,1.06195,0.9534,1009,16.9862,20,1.00004,1.00004
app_45,600.874,21614.7,7628.6,371.4,7.90143,7.46375e+10,1.03852,0.9534,976,9.32969,21,1.00004,1.00004
app_46,24.074,21775.6,7436.66,563.342,7.33431,1.72161e+11,1.05141,0.9534,1024,24.1931,20,1.00005,1.00005
app_47,321.65,21281.5,7539.7,460.3,7.99935,1.77319e+11,1.03667,0.9534,931,22.1649,21,1.00005,1.00005
app_48,253.11,21985.1,7368.5,631.5,8.04692,1.64122e+11,1.06205,0.9534,931,20.5152,22,1.00005,1.00005
app_49,559.852,21895.6,7653.08,346.918,7.52864,1.73051e+11,1.02222,0.9534,1021,23.5242,20,1.00005,1.00005
app_5,9.87388,20738.1,7455.9,544.1,745.339,1.43104e+11,1.05277,0.9534,10,0.191829,1936,1.00001,1.00001
app_50,199.017,20695.9,7873.33,126.669,8.80735,4.40007e+10,1.01044,0.9534,925,5.2071,22,1.00005,1.00005
app_51,854.648,21470,7980.6,19.4,8.02274,6.83228e+09,1.00157,0.9534,973,0.854035,21,1.00005,1.00005
app_52,140.511,21504.3,7767.7,232.3,7.34083,4.87358e+10,1.02348,0.9534,1029,6.96226,20,1.00005,1.00005
app_53,205.312,21028.2,7655.8,344.2,7.58046,1.20569e+11,1.02876,0.9534,1006,15.0712,20,1.00005,1.00005
app_54,287.271,22241.4,7522.1,477.9,7.24832,1.65956e+11,1.04058,0.9534,1027,23.7081,20,1.00005,1.00005
app_55,439.755,22037,7360.6,639.4,7.77045,1.72394e+11,1.06199,0.9534,932,21.5493,21,1.00005,1.00005
app_56,340.784,21106.1,7820.3,179.7,8.18361,4.39974e+10,1.01726,0.9534,951,5.49967,21,1.00006,1.00006
app_57,268.944,21291.2,7832.4,167.6,8.02084,8.03945e+10,1.01102,0.9534,980,10.0493,21,1.00006,1.00006
app_58,279.126,21459.1,7507.89,492.107,8.69254,1.75024e+11,1.04127,0.9534,852,21.2191,23,1.00006,1.00006
app_59,200.996,22180.2,7247.67,752.327,7.70565,1.71431e+11,1.0783,0.9534,972,23.9334,21,1.00006,1.00006
app_6,6.24761,20146.5,7843.8,156.2,785.228,3.26945e+10,1.01568,0.9534,10,0.041649,1974,1.00001,1.00001
app_60,392.245,21748.3,7573.3,426.7,7.66679,1.49122e+11,1.03594,0.9534,1014,18.6402,20,1.00006,1.00006
app_7,8.1008,19804,7272.9,727.1,807.168,1.98265e+11,1.07078,0.9534,9,0.245682,1996,1.00001,1.00001
app_8,9.47737,18819.2,7851.2,148.8,785.851,3.09767e+10,1.01495,0.9534,10,0.0394106,1848,1.00001,1.00001
app_9,4.21473,19320.6,7927.9,72.1,720.804,1.06176e+09,1.00896,0.9534,11,0.00147263,1739,1.00001,1.00001
