app_id,start_app,end_app,effective_cpu,effective_io,effective_iter,total_bytes,stretch,utilization,Tcomp,Tio,iterations,priority,group_id
app_1,5.4527,20299.6,7485,515,746.68,1.22643e+11,1.05157,0.946251,10,0.164181,1906,1,1
app_10,3.76769,21042.3,7356.2,643.8,818.805,1.51659e+11,1.06555,0.946251,9,0.185176,2165,1.00001,1.00001
app_11,1.3342,19761.4,7361.5,638.5,818.107,1.58495e+11,1.06383,0.946251,9,0.193523,2026,1.00001,1.00001
app_12,2.97116,20009.8,7283.7,716.3,910.619,1.74572e+11,1.07263,0.946251,8,0.191837,2288,1.00001,1.00001
app_13,4.21608,19537.6,7675.4,324.6,852.075,7.2373e+10,1.03255,0.946251,9,0.0849448,2088,1.00001,1.00001
app_14,7.24249,20685.5,7426.1,573.9,821.618,1.37734e+11,1.05766,0.946251,9,0.167763,2133,1.00001,1.00001
app_15,4.72109,19689.8,7447.3,552.7,825.958,1.24652e+11,1.05653,0.946251,9,0.150911,2044,1.00002,1.00002
app_16,6.43755,20013.8,7346,654,734.258,1.58953e+11,1.06596,0.946251,10,0.216557,1844,1.00002,1.00002
app_17,10.355,20603.7,7571.6,428.4,686.964,9.96286e+10,1.04286,0.946251,11,0.14502,1777,1.00002,1.00002
app_18,6.99553,19367,7464.8,535.2,830.741,1.27181e+11,1.05374,0.946251,9,0.15323,2015,1.00002,1.00002
app_19,3.48767,19055.2,7549.1,450.9,838.304,1.02698e+11,1.04551,0.946251,9,0.122551,2002,1.00002,1.00002
app_2,10.0571,18952.8,7826.2,173.8,782.188,3.38095e+10,1.01781,0.946251,10,0.0432346,1855,1,1
app_20,8.20115,20583.1,7420.8,579.2,824.953,1.39449e+11,1.05817,0.946251,9,0.169029,2132,1.00002,1.00002
app_21,77.0594,20231.8,7868.5,131.5,86.1218,2.95287e+10,1.01291,0.946251,91,0.343357,218,1.00002,1.00002
app_22,87.7577,21236,7369.9,630.1,68.985,1.6643e+11,1.06152,0.946251,108,2.41203,182,1.00002,1.00002
app_23,62.3466,20685.3,7605.31,394.693,80.0694,9.85612e+10,1.03844,0.946251,95,1.22441,207,1.00002,1.00002
app_24,99.2872,21085.7,7398.1,601.9,66.8435,1.4985e+11,1.05989,0.946251,110,2.23657,178,1.00002,1.00002
app_25,73.5721,20477.2,7715.4,284.6,81.8102,8.07942e+10,1.02614,0.946251,95,0.985296,208,1.00003,1.00003
app_26,41.6515,20331.7,7834.1,165.9,75.4789,3.99595e+10,1.01599,0.946251,104,0.532793,191,1.00003,1.00003
app_27,51.9421,20643,7606.1,393.9,75.3866,1.06531e+11,1.03726,0.946251,102,1.42042,193,1.00003,1.00003
app_28,55.9959,20463,7772,228,72.6131,5.77206e+10,1.02175,0.946251,107,0.801675,185,1.00003,1.00003
app_29,31.8181,21155.9,7385.72,614.277,74.1445,1.63413e+11,1.05972,0.946251,99,2.17894,198,1.00003,1.00003
app_3,7.43099,20201.4,7662.3,337.7,765.716,7.60425e+10,1.03381,0.946251,10,0.0992722,1937,1,1
app_30,81.0021,20207.8,7974.4,25.6,79.2192,5.44064e+09,1.00253,0.946251,99,0.0688688,202,1.00003,1.00003
app_31,78.5018,21012.4,7504.8,495.2,75.0879,1.31505e+11,1.04763,0.946251,100,1.7534,197,1.00003,1.00003
app_32,1.03585,20862.6,7569.7,430.3,77.0617,1.07432e+11,1.04206,0.946251,97,1.37734,203,1.00003,1.00003
app_33,49.8758,20780,7528.3,471.7,69.5386,1.15929e+11,1.04654,0.946251,108,1.65614,181,1.00003,1.00003
app_34,72.6245,20906.2,7613.4,386.6,79.0289,1.06538e+11,1.03628,0.946251,95,1.34858,208,1.00003,1.00003
app_35,23.4363,20148.7,7938.1,61.9,82.7048,1.37534e+10,1.00605,0.946251,96,0.167725,208,1.00004,1.00004
app_36,54.0953,20592,7709.4,290.6,79.1314,7.49138e+10,1.02771,0.946251,97,0.948275,204,1.00004,1.00004
app_37,87.1547,21144.6,7412.7,587.3,75.263,1.50425e+11,1.05776,0.946251,98,2.00567,199,1.00004,1.00004
app_38,89.27,21297.4,7312.3,687.7,80.9277,1.71554e+11,1.06897,0.946251,90,2.11795,216,1.00004,1.00004
app_39,66.7118,20201.2,7884.7,115.3,78.2239,2.97152e+10,1.01081,0.946251,101,0.380964,197,1.00004,1.00004
app_4,9.37395,20159.8,7304.3,695.7,811.663,1.6525e+11,1.07102,0.946251,9,0.203509,2057,1,1
app_40,67.1701,20856.6,7596.8,403.2,77.2068,1.02815e+11,1.03901,0.946251,98,1.33527,202,1.00004,1.00004
app_41,654.481,21501.9,7678.9,321.1,7.6682,7.27615e+10,1.03204,0.946251,1005,10.3945,20,1.00004,1.00004
app_42,38.0653,20733.3,7963,37,8.49087,1.17782e+10,1.00316,0.946251,942,1.47227,22,1.00004,1.00004
app_43,48.3605,20211.1,7945.6,54.4,7.84169,1.71384e+10,1.00468,0.946251,1000,2.1423,20,1.00004,1.00004
app_44,954.662,21792.7,7776.3,223.7,7.92297,4.47166e+10,1.02288,0.946251,952,5.58958,21,1.00004,1.00004
app_45,298.031,21142.1,7506.8,493.2,7.16345,1.16819e+11,1.04937,0.946251,1052,16.6884,19,1.00004,1.00004
app_46,144.859,20709.3,7799.3,200.7,7.71794,5.57335e+10,1.01846,0.946251,1018,6.96669,20,1.00005,1.00005
app_47,523.213,21104.4,7577.1,422.9,7.27372,1.18694e+11,1.03953,0.946251,1038,16.9563,19,1.00005,1.00005
app_48,936.897,22731,7200.1,799.9,7.273,1.37327e+11,1.0903,0.946251,1006,19.6182,20,1.00005,1.00005
app_49,174.234,20958.6,7607.8,392.2,7.2491,9.99522e+10,1.03792,0.946251,1057,14.2789,19,1.00005,1.00005
app_5,8.17625,20216.3,7306.8,693.2,731.011,1.72835e+11,1.06957,0.946251,10,0.236436,1853,1.00001,1.00001
app_50,312.824,20772.7,7869.6,130.4,7.52449,3.33181e+10,1.01228,0.946251,1078,4.75973,19,1.00005,1.00005
app_51,472.734,21208.3,7896,104,7.40811,2.28356e+10,1.01025,0.946251,1079,3.26223,19,1.00005,1.00005
app_52,662.205,22075.5,7578.1,421.9,7.09355,8.87016e+10,1.04346,0.946251,1078,12.6717,19,1.00005,1.00005
app_53,790.34,21794.6,7898.9,101.1,7.48914,1.84019e+10,1.01045,0.946251,1039,2.62884,20,1.00005,1.00005
app_54,30.2623,20240.7,7923.4,76.6,8.41156,1.53414e+10,1.00772,0.946251,953,1.91767,21,1.00005,1.00005
app_55,798.532,22873.4,7477.9,522.1,7.53471,1.41353e+11,1.04997,0.946251,973,20.1932,21,1.00005,1.00005
app_56,965.854,23986.9,7284.7,715.3,7.41536,1.46408e+11,1.07656,0.946251,974,20.9154,21,1.00006,1.00006
app_57,928.837,21694.4,7502.7,497.3,7.29226,8.31236e+10,1.0546,0.946251,1043,11.8748,19,1.00006,1.00006
app_58,549.887,21851.2,7515.5,484.5,8.06781,1.40403e+11,1.04495,0.946251,971,17.5503,21,1.00006,1.00006
app_59,161.44,21208.6,7194.6,805.4,7.37028,1.43083e+11,1.09026,0.946251,995,20.4404,20,1.00006,1.00006
app_6,5.71086,20724.9,7393.6,606.4,818.662,1.45473e+11,1.06114,0.946251,9,0.17784,2134,1.00001,1.00001
app_60,750.557,22556.9,7303.8,696.2,6.75994,1.50089e+11,1.07327,0.946251,1059,21.4413,19,1.00006,1.00006
app_7,5.74311,20657.3,7396.9,603.1,820.243,1.46019e+11,1.0606,0.946251,9,0.178072,2128,1.00001,1.00001
app_8,0.974414,20017.2,7301.8,698.2,808.885,1.70524e+11,1.07062,0.946251,9,0.210784,2033,1.00001,1.00001
app_9,5.99398,20465.4,7521.2,478.8,834.507,1.06962e+11,1.04875,0.946251,9,0.128252,2148,1.00001,1.00001
