app_id,start_app,end_app,effective_cpu,effective_io,effective_iter,total_bytes,stretch,utilization,Tcomp,Tio,iterations,priority,group_id
app_1,0.614089,25556.4,5178.67,62.6132,645.005,2.80246e+10,1.53648,0.845159,8,0.0434489,2276,1,1
app_10,1.81837,26649.8,5225.47,49.0989,579.996,1.60052e+10,1.52629,0.845159,9,0.0275953,2161,1,1
app_11,5.37581,26025.3,5280.96,34.5851,528.998,2.5765e+09,1.51414,0.845159,10,0.00487051,1905,1,1
app_12,5.49866,26693.3,5164.92,167.178,573.993,1.35846e+11,1.50922,0.845159,9,0.236665,2128,1,1
app_13,3.30347,25555.2,5215.58,101.193,576.005,6.70955e+10,1.51439,0.845159,9,0.116485,2021,1,1
app_14,2.60883,26451.3,5209.27,121.923,579.997,9.53631e+10,1.50812,0.845159,9,0.164419,2123,1,1
app_15,9.52632,25495.9,5164.6,172.514,573,1.44071e+11,1.50697,0.845159,9,0.251433,1991,1,1
app_16,0.576088,26771.8,5242.18,91.6782,522.995,5.95456e+10,1.50894,0.845159,10,0.113854,1955,1,1
app_17,9.37232,26205.6,5246.56,39.8918,582.006,6.51899e+09,1.52292,0.845159,9,0.011201,2118,1,1
app_18,3.46375,25585.8,5217.43,157.049,519.998,1.29672e+11,1.49614,0.845159,10,0.249368,1824,1,1
app_19,0.933704,26488.8,5279.37,47.9233,527.006,1.89818e+10,1.5099,0.845159,10,0.0360186,1944,1,1
app_2,2.62255,26492.3,5297.29,53.2376,528.991,2.59841e+10,1.50284,0.845159,10,0.0491194,1944,1,1
app_20,5.72308,26164.1,5204.19,120.078,576.001,9.2734e+10,1.51031,0.845159,9,0.160997,2079,1,1
app_21,40.0349,21390.5,7249.8,42.8464,76.7296,3.8541e+10,1.09764,0.845159,95,0.500532,209,1,1
app_22,12.4045,21238.7,7343.4,13.5518,67.6002,1.03611e+10,1.08788,0.845159,108,0.152369,184,1,1
app_23,3.59709,21581,7128.83,193.556,84.8376,1.89631e+11,1.09313,0.845159,84,2.25752,232,1,1
app_24,35.4506,21374.8,7193.3,127.384,75.1647,1.22992e+11,1.09345,0.845159,98,1.6399,200,1,1
app_25,74.7513,21774.3,7288,49.7381,81.7694,4.61639e+10,1.09079,0.845159,89,0.569924,224,1,1
app_26,39.4427,21624.6,7300.1,17.7406,79.0002,1.42276e+10,1.09374,0.845159,93,0.180096,215,1,1
app_27,24.8581,21524.8,7251.9,134.143,74.6499,1.30409e+11,1.08367,0.845159,96,1.76228,203,1,1
app_28,0.110921,21520,7163.47,145.458,75.2623,1.41952e+11,1.09508,0.845159,95,1.86779,206,1,1
app_29,11.1262,21440,7284.25,89.4163,75.8783,8.49195e+10,1.0856,0.845159,97,1.11736,204,1,1
app_3,2.43171,26214.6,5228.7,120.845,521.993,9.99391e+10,1.50132,0.845159,10,0.191454,1898,1,1
app_30,81.9442,21444.4,7359,34.7137,74.9481,3.02275e+10,1.08266,0.845159,98,0.403033,202,1,1
app_31,43.2803,21346.8,7332.2,29.8791,71.6619,2.7212e+10,1.08704,0.845159,103,0.383268,192,1,1
app_32,23.1126,21458.1,7223.2,117.391,70.0772,1.13269e+11,1.09044,0.845159,104,1.61813,189,1,1
app_33,99.9036,21726.8,7237.5,137.003,72.5875,1.33162e+11,1.08538,0.845159,99,1.84948,198,1,1
app_34,43.2676,21339.9,7259.9,81.8812,75.8113,7.76851e+10,1.09028,0.845159,96,1.02217,205,1,1
app_35,85.7261,21806.6,7206.4,67.7066,75.8578,6.39417e+10,1.10036,0.845159,95,0.841338,209,1,1
app_36,108.978,21541.2,7340.6,66.7215,67.0336,6.33821e+10,1.0805,0.845159,110,0.946002,180,1,1
app_37,89.9865,21522,7159.6,149.088,77.0498,1.45479e+11,1.09513,0.845159,92,1.88933,211,1,1
app_38,61.3406,21654,7246,136.117,75.0161,1.32863e+11,1.08418,0.845159,97,1.77151,203,1,1
app_39,84.4411,21662.2,7137.1,113.4,67.9276,1.09433e+11,1.10398,0.845159,105,1.60931,188,1,1
app_4,8.2316,25624.4,5211.8,96.759,578.003,6.36786e+10,1.51645,0.845159,9,0.110171,2028,1,1
app_40,53.8629,21483.6,7256.3,171.987,74.1222,1.68739e+11,1.07744,0.845159,98,2.28026,199,1,1
app_41,276.152,21417.4,7877.8,75.8078,7.96812,7.53392e+10,1.00589,0.845159,937,9.41741,22,1,1
app_42,524.455,21085,7819.9,135.828,8.24643,1.35318e+11,1.00563,0.845159,928,16.9148,22,1,1
app_43,62.2302,20971.3,7795.2,103.49,8.39635,1.03135e+11,1.01287,0.845159,932,12.8918,22,1,1
app_44,562.633,21308.6,7727.76,177,7.54817,1.76723e+11,1.01208,0.845159,1009,23.0221,20,1,1
app_45,800.547,21480.6,7763,152.371,8.19598,1.51988e+11,1.01074,0.845159,975,18.9985,21,1,1
app_46,821.723,21338.9,7872.2,120.063,8.19999,1.19598e+11,1.00103,0.845159,949,14.9497,21,1,1
app_47,177.406,20576.6,7674.52,207.59,8.3755,2.07228e+11,1.015,0.845159,929,24.2311,21,1,1
app_48,100.458,19982.7,7796.1,144.932,8.38646,1.44462e+11,1.00749,0.845159,950,18.0577,21,1,1
app_49,756.788,20677.7,7687,204.85,8.6646,2.04383e+11,1.01376,0.845159,886,22.7092,22,1,1
app_5,5.56053,25866.7,5200.8,99.2171,576.992,6.68072e+10,1.51872,0.845159,9,0.115784,2059,1,1
app_50,8.61551,20539.1,7772.3,192.724,7.84824,1.92252e+11,1.00445,0.845159,977,24.0315,20,1,1
app_51,600.792,21040.6,7865.9,117.655,8.55529,1.17075e+11,1.00213,0.845159,929,13.0083,22,1,1
app_52,866.549,21058.8,7846.5,119.532,7.94794,1.19092e+11,1.00432,0.845159,994,17.0132,20,1,1
app_53,515.079,21284.1,7930.4,32.6083,8.4275,3.21139e+10,1.00471,0.845159,935,3.56821,22,1,1
app_54,877.488,20469.1,7785.3,150.276,8.19745,1.4988e+11,1.00817,0.845159,981,18.735,20,1,1
app_55,526.375,20807.7,7858.5,62.4825,7.92394,6.21882e+10,1.01001,0.845159,997,7.77353,20,1,1
app_56,878.972,21173.3,7955.3,28.1534,7.8028,2.78518e+10,1.00211,0.845159,1015,3.48147,20,1,1
app_57,457.995,21100.6,7784.2,119.974,7.81091,1.19621e+11,1.01217,0.845159,997,14.9526,20,1,1
app_58,96.4285,21388.3,7893.4,67.2968,8.0245,6.70524e+10,1.00497,0.845159,979,8.38155,21,1,1
app_59,774.318,20980.8,7894.2,47.3638,7.79056,4.70128e+10,1.0074,0.845159,996,5.8766,20,1,1
app_6,5.0563,25351.9,5157.96,165.304,570.998,1.33646e+11,1.51183,0.845159,9,0.234056,1986,1,1
app_60,325.953,21211.8,7803.6,122.201,8.15249,1.2154e+11,1.00945,0.845159,955,13.5044,21,1,1
app_7,8.0737,26039.4,5154.37,173.56,570.001,1.45042e+11,1.5096,0.845159,9,0.25446,2053,1,1
app_8,5.65685,26209.5,5224.22,46.9738,579,1.40013e+10,1.52724,0.845159,9,0.0241819,2108,1,1
app_9,5.60785,25105.6,5208.12,79.6512,579.998,5.7981e+10,1.51915,0.845159,9,0.0999673,1986,1,1
