app_id,start_app,end_app,effective_cpu,effective_io,effective_iter,total_bytes,stretch,utilization,Tcomp,Tio,iterations,priority,group_id
app_1,5.09921,25820.3,5129.5,118.788,513.73,1.00068e+11,1.52976,0.842143,10,0.194685,1825,1,1
app_10,4.45282,27201.7,5176.1,99.1089,517.744,7.10002e+10,1.52465,0.842143,10,0.137066,1965,1,1
app_11,7.20216,26861.7,5184.2,55.0752,518.683,2.85631e+10,1.53469,0.842143,10,0.0550348,1947,1,1
app_12,2.78484,26144.5,5124.5,38.0554,568.758,4.21689e+09,1.55984,0.842143,9,0.0074241,2066,1,1
app_13,3.49119,26159.3,5115.7,75.3704,567.812,5.48272e+10,1.54723,0.842143,9,0.096697,2058,1,1
app_14,6.75042,25673.7,5136.6,44.4346,572.038,1.09686e+10,1.55413,0.842143,9,0.0191759,2017,1,1
app_15,9.47229,26066.1,5071.4,105.803,562.742,7.55654e+10,1.55431,0.842143,9,0.134458,2034,1,1
app_16,6.23541,25647.9,5101.6,66.1854,566.844,4.05998e+10,1.55575,0.842143,9,0.0716045,2004,1,1
app_17,0.663672,27293.7,5071.3,162.146,562.537,1.29811e+11,1.53813,0.842143,9,0.23098,2155,1,1
app_18,9.26498,26392.8,5040.7,168.998,561.375,1.40805e+11,1.54395,0.842143,9,0.250989,2052,1,1
app_19,8.63025,27216.1,5197.9,49.5235,517.454,2.28976e+10,1.53233,0.842143,10,0.0442038,1972,1,1
app_2,5.54308,26205.5,5226.84,35.3398,522.389,3.81398e+09,1.52944,0.842143,10,0.00729859,1890,1,1
app_20,2.70914,26898.7,5188.8,101.214,517.798,7.37138e+10,1.52019,0.842143,10,0.142305,1938,1,1
app_21,38.7181,21700.6,7240,71.0909,71.9961,6.69654e+10,1.09485,0.842143,100,0.930075,197,1,1
app_22,37.2737,21763.2,7237.9,148.354,74.3815,1.44864e+11,1.0836,0.842143,98,1.95763,199,1,1
app_23,31.0257,21646.6,7338.9,33.85,79.7742,3.03135e+10,1.0856,0.842143,92,0.383715,216,1,1
app_24,94.1824,21861.7,7224.5,110.665,75.103,1.06363e+11,1.09128,0.842143,96,1.41817,205,1,1
app_25,55.2254,21798.7,7147.9,98.1578,75.3597,9.44423e+10,1.10462,0.842143,95,1.25923,207,1,1
app_26,15.8421,21593.7,7339,21.4508,71.1799,1.7851e+10,1.08742,0.842143,104,0.251423,192,1,1
app_27,78.5757,21660.2,7316.5,48.7788,72.6359,4.46608e+10,1.08679,0.842143,101,0.611791,197,1,1
app_28,57.9523,21544.1,7335.9,6.74972,78.5111,2.32068e+09,1.09018,0.842143,93,0.0297524,213,1,1
app_29,33.601,21737.8,7158.2,125.158,73.3207,1.21903e+11,1.09889,0.842143,97,1.6699,202,1,1
app_3,6.88457,26092,5044.2,167.359,560.524,1.38289e+11,1.54366,0.842143,9,0.246504,2018,1,1
app_30,67.9168,21358.1,7212.6,160.132,77.5946,1.55917e+11,1.0857,0.842143,94,2.0249,207,1,1
app_31,20.4619,21459,7345.8,99.2778,72.1276,9.48288e+10,1.07518,0.842143,103,1.31707,191,1,1
app_32,56.9923,21597,7162.6,124.008,72.4261,1.20463e+11,1.09844,0.842143,99,1.67309,198,1,1
app_33,74.9839,21503.2,7419.7,5.9569,72.9052,2.48212e+09,1.07785,0.842143,102,0.0340016,196,1,1
app_34,50.4857,21355.6,7160.8,182.891,73.2234,1.79269e+11,1.08991,0.842143,98,2.45574,198,1,1
app_35,23.8165,21759.7,7230.4,111.533,70.6544,1.08096e+11,1.09014,0.842143,102,1.52247,193,1,1
app_36,6.20659,21347.6,7310.2,130.803,81.8756,1.26236e+11,1.07578,0.842143,89,1.53946,219,1,1
app_37,31.5656,21991.3,7258.2,124.098,76.1867,1.20735e+11,1.08417,0.842143,94,1.58862,209,1,1
app_38,21.3519,21702.3,7203.3,93.3443,76.2568,8.99625e+10,1.0969,0.842143,94,1.18372,210,1,1
app_39,59.6952,21470.3,7283.2,127.895,74.8005,1.24829e+11,1.07991,0.842143,98,1.68688,200,1,1
app_4,7.5759,26507,5105.3,62.3151,569.558,3.51252e+10,1.55629,0.842143,9,0.0617314,2100,1,1
app_40,102.463,21467,7392,48.4086,70.6026,4.44287e+10,1.07579,0.842143,105,0.625756,189,1,1
app_41,114.107,20678.3,7808.8,166.436,8.74167,1.65845e+11,1.00318,0.842143,904,18.4272,22,1,1
app_42,360.666,20732.8,7818.1,137.899,7.88199,1.37392e+11,1.00559,0.842143,991,17.1739,20,1,1
app_43,586.148,20917.9,7910.6,75.1068,7.51096,7.45886e+10,1.00185,0.842143,1054,9.32358,19,1,1
app_44,289.851,20510.8,7714.4,214.285,7.97037,2.13872e+11,1.00905,0.842143,981,26.7341,20,1,1
app_45,209.014,20637.1,7878.9,96.6042,8.14568,9.61618e+10,1.00313,0.842143,948,12.0202,21,1,1
app_46,255.472,21133.7,7808,146.328,7.65439,1.45866e+11,1.0058,0.842143,998,18.2332,20,1,1
app_47,740.765,22656.5,7806.8,80.0888,7.35598,7.95559e+10,1.01441,0.842143,1034,9.94449,20,1,1
app_48,618.118,20754,7837.2,103.946,8.05715,1.03394e+11,1.00748,0.842143,989,12.9242,20,1,1
app_49,984.128,21793.6,7766,164.799,7.96882,1.64276e+11,1.00879,0.842143,978,20.5345,21,1,1
app_5,0.733551,25630.1,5068.8,130.824,563.88,1.09849e+11,1.5448,0.842143,9,0.195113,1989,1,1
app_50,243.894,21217.7,7855.9,126.086,7.52252,1.25763e+11,1.0023,0.842143,1011,17.9661,20,1,1
app_51,71.0903,20835.7,7790.1,172.177,7.90659,1.71679e+11,1.0048,0.842143,959,24.5256,21,1,1
app_52,910.299,21006.7,7776.8,143.188,8.39376,1.42787e+11,1.01015,0.842143,943,17.8484,21,1,1
app_53,535.473,21755,7895.8,83.3503,7.73894,8.28968e+10,1.00267,0.842143,1038,11.8424,20,1,1
app_54,487.179,21588.7,7798.3,185.903,7.51283,1.85541e+11,1.00202,0.842143,1011,26.5059,20,1,1
app_55,335.008,20295.4,7811.4,135.769,7.86653,1.35297e+11,1.00671,0.842143,1008,16.9122,20,1,1
app_56,326.817,21695.5,7805.3,99.4869,7.79122,9.90698e+10,1.0121,0.842143,979,12.3837,21,1,1
app_57,89.9862,20225.5,7934.2,7.08698,8.28039,6.46788e+09,1.00747,0.842143,959,0.808485,21,1,1
app_58,863.543,21457.3,7917.4,25.1211,8.66865,2.46882e+10,1.00729,0.842143,926,2.74314,22,1,1
app_59,1009.8,22152.6,7770.2,189.283,7.30278,1.89052e+11,1.00512,0.842143,1008,23.6315,20,1,1
app_6,3.27971,25967.3,5067.3,117.072,562.505,8.89593e+10,1.55151,0.842143,9,0.158291,2025,1,1
app_60,607.9,21539.4,7757.4,178.957,7.82567,1.78461e+11,1.00808,0.842143,1014,22.3076,20,1,1
app_7,4.03345,25807.7,5095.2,72.5491,567.724,4.87413e+10,1.55523,0.842143,9,0.0859634,2026,1,1
app_8,1.51377,26554.6,5108.5,140.898,510.052,1.1166e+11,1.53252,0.842143,10,0.218941,1894,1,1
app_9,4.25029,27101.7,5195.1,32.6349,518.883,6.69458e+08,1.53971,0.842143,10,0.0012899,1969,1,1
