app_id,start_app,end_app,effective_cpu,effective_io,effective_iter,total_bytes,stretch,utilization,Tcomp,Tio,iterations,priority,group_id
app_1,0.912863,25700.4,5002.7,110.005,556.16,8.00179e+10,1.57396,0.836821,9,0.143917,1985,1,1
app_10,1.22428,25628.2,4987.1,128.514,552.718,1.06983e+11,1.57045,0.836821,9,0.193459,1977,1,1
app_11,3.92491,25943.4,5067.9,38.1551,561.821,5.82374e+09,1.57675,0.836821,9,0.0103625,2038,1,1
app_12,2.10382,26293.6,4988.2,121.936,555.253,9.72826e+10,1.57311,0.836821,9,0.174969,2047,1,1
app_13,5.34488,26980.5,4994.7,113.539,554.339,8.55952e+10,1.57471,0.836821,9,0.154504,2123,1,1
app_14,9.71247,25928,5006.4,127.496,557.513,1.06585e+11,1.56464,0.836821,9,0.191356,2008,1,1
app_15,2.92998,25937.4,5066.2,69.6515,562.127,4.67119e+10,1.56467,0.836821,9,0.0831172,2033,1,1
app_16,9.35085,27129.2,5115,63.9816,509.821,4.57518e+10,1.55016,0.836821,10,0.0897095,1961,1,1
app_17,0.23015,26591.7,5000.7,101.11,555.561,6.91071e+10,1.57797,0.836821,9,0.124517,2087,1,1
app_18,1.06284,25988.3,5001.6,115.783,555.963,8.85322e+10,1.57167,0.836821,9,0.159231,2021,1,1
app_19,1.21299,26314.3,5119.8,87.7755,511.772,5.599e+10,1.54566,0.836821,10,0.109355,1878,1,1
app_2,1.67097,25547.1,4982.7,119.876,553.246,9.59165e+10,1.57523,0.836821,9,0.173448,1967,1,1
app_20,3.01653,25566.2,5022.8,103.032,558.888,7.2263e+10,1.57015,0.836821,9,0.129272,1980,1,1
app_21,23.0944,21663.3,7189,110.34,72.072,1.06265e+11,1.0966,0.836821,100,1.45568,196,1,1
app_22,64.1139,21881,7278.1,101.796,73.6944,9.76986e+10,1.08463,0.836821,100,1.32025,198,1,1
app_23,47.8745,21697.9,7258.2,72.8396,74.7378,6.82385e+10,1.09194,0.836821,97,0.909847,204,1,1
app_24,62.7384,21723.7,7276.5,136.863,71.2843,1.34095e+11,1.07954,0.836821,101,1.88866,193,1,1
app_25,9.86242,21580.7,7253.1,96.0105,73.9839,9.22079e+10,1.08913,0.836821,99,1.24605,200,1,1
app_26,16.9407,21527.5,7205.7,53.4584,77.0359,4.9496e+10,1.10266,0.836821,94,0.642805,210,1,1
app_27,34.2878,21781.6,7126.9,180.819,65.1682,1.77816e+11,1.09518,0.836821,109,2.69419,179,1,1
app_28,14.3548,21680.8,7170.6,61.1999,67.9133,5.79256e+10,1.10673,0.836821,106,0.851847,186,1,1
app_29,35.0888,21806.3,7335.9,27.1578,68.862,2.34538e+10,1.08705,0.836821,106,0.33991,189,1,1
app_3,3.76518,26960.5,5113.2,49.5755,512.879,2.24201e+10,1.55775,0.836821,10,0.0437038,1949,1,1
app_30,20.4912,21574.9,7358.1,40.8746,66.0084,3.76595e+10,1.0817,0.836821,111,0.570599,178,1,1
app_31,4.95889,21760.1,7263,38.2623,79.6972,3.40847e+10,1.09633,0.836821,91,0.426058,218,1,1
app_32,33.9968,21726.2,7330.6,57.0265,71.3721,5.30781e+10,1.08347,0.836821,103,0.737196,192,1,1
app_33,86.696,21889.8,7124.6,156.723,71.8816,1.52361e+11,1.09936,0.836821,98,2.11613,199,1,1
app_34,40.4877,21571,7212.4,186.143,71.9626,1.82194e+11,1.08187,0.836821,100,2.53048,195,1,1
app_35,0.861252,21887.4,7205.5,172.987,78.1663,1.69652e+11,1.08472,0.836821,91,2.17503,215,1,1
app_36,44.0036,21733.9,7218.9,46.2507,75.1938,4.31117e+10,1.10162,0.836821,96,0.574822,206,1,1
app_37,94.8983,21879.5,7248.6,156.057,72.8596,1.52935e+11,1.08086,0.836821,100,2.09499,196,1,1
app_38,1.18814,21653.9,7279.7,17.2755,73.502,1.40174e+10,1.09683,0.836821,99,0.189425,200,1,1
app_39,19.9004,21656.4,7139.7,188.58,75.6274,1.84404e+11,1.09228,0.836821,95,2.42637,204,1,1
app_4,6.21128,25938,4999.5,106.914,556.018,7.72977e+10,1.5758,0.836821,9,0.139025,2016,1,1
app_40,18.1113,22003.7,7284.4,33.9852,68.9451,3.01174e+10,1.09372,0.836821,105,0.436484,190,1,1
app_41,801.815,21489.5,7833.3,58.1205,7.77305,5.76775e+10,1.01382,0.836821,1035,7.20968,20,1,1
app_42,329.811,21319.9,7802.9,110.473,8.23278,1.10009e+11,1.01101,0.836821,974,13.7512,21,1,1
app_43,885.759,21523.5,7840.7,87.1596,8.99334,8.6566e+10,1.00918,0.836821,881,9.61844,23,1,1
app_44,523.595,21443.3,7782.3,168.695,7.28949,1.68134e+11,1.00623,0.836821,1065,21.0167,19,1,1
app_45,537.163,21545.1,7881.3,18.6706,7.44609,1.82268e+10,1.01272,0.836821,1026,2.60382,20,1,1
app_46,133.905,19967.7,7778.8,171.679,7.82957,1.71241e+11,1.00628,0.836821,989,21.4051,20,1,1
app_47,185.397,20950.7,7757.5,189.199,8.19577,1.88916e+11,1.00674,0.836821,976,20.9907,21,1,1
app_48,826.324,21295.3,7797.3,184.962,8.37608,1.84523e+11,1.00228,0.836821,939,23.0654,21,1,1
app_49,62.6074,20372.1,7929,17.7639,7.92445,1.75348e+10,1.00673,0.836821,1009,2.19185,20,1,1
app_5,1.82135,26629.7,5027.9,110.555,560.057,8.15712e+10,1.56572,0.836821,9,0.145663,2094,1,1
app_50,905.193,21347.4,7791.7,148.03,8.02804,1.47709e+11,1.00763,0.836821,1008,18.4636,20,1,1
app_51,223.472,21107.6,7825.3,120.988,8.26646,1.20634e+11,1.0068,0.836821,977,15.0793,21,1,1
app_52,213.815,20835.6,7772,170.475,7.83207,1.70212e+11,1.00728,0.836821,1019,21.2765,20,1,1
app_53,646.909,20592.7,7745.3,180.091,8.01545,1.79796e+11,1.00945,0.836821,980,22.4745,20,1,1
app_54,605.84,20989,7781.5,136.849,8.00695,1.36517e+11,1.01035,0.836821,960,17.0646,21,1,1
app_55,875.382,21653.7,7858.5,78.3984,8.57334,7.78451e+10,1.00802,0.836821,918,8.64945,22,1,1
app_56,197.54,20909.1,7826.7,95.4357,7.97835,9.50266e+10,1.00988,0.836821,974,11.8783,21,1,1
app_57,138.344,20024.3,7758.8,167.973,7.78527,1.67701e+11,1.00927,0.836821,1039,20.9626,19,1,1
app_58,664.217,21419.9,7910.6,86.8673,7.12051,8.67449e+10,1.00033,0.836821,1092,12.3921,19,1,1
app_59,446.001,21036.4,7752.1,182.551,7.71775,1.82237e+11,1.00828,0.836821,1006,22.7796,20,1,1
app_6,0.253672,26884.6,5021.6,81.6257,500.125,5.03597e+10,1.5773,0.836821,10,0.100719,1920,1,1
app_60,798.82,21641.2,7765.8,180.686,7.89028,1.80157e+11,1.0068,0.836821,964,22.5196,21,1,1
app_7,5.58912,26167.1,5027.8,53.6508,557.522,2.52602e+10,1.5832,0.836821,9,0.0453505,2052,1,1
app_8,0.153537,26852.2,5075.7,87.9571,507.628,5.69529e+10,1.55865,0.836821,10,0.112112,1926,1,1
app_9,10.1336,26106.9,5101.8,43.6988,507.437,1.40078e+10,1.56378,0.836821,10,0.0276289,1860,1,1
