app_id,start_app,end_app,effective_cpu,effective_io,effective_iter,total_bytes,stretch,utilization,Tcomp,Tio,iterations,priority,group_id
app_1,6.2871,25184.5,5315.3,164.556,590.641,1.29568e+11,1.46927,0.857579,9,0.219606,2013,1,1
app_10,3.49228,26625.5,5411.3,53.5602,538.568,2.66452e+10,1.47114,0.857579,10,0.0494345,1988,1,1
app_11,1.3875,25921.9,5310.81,159.052,591.879,1.24903e+11,1.47175,0.857579,9,0.211336,2091,1,1
app_12,6.67867,25642.6,5455.6,63.6806,547.154,4.01105e+10,1.45568,0.857579,10,0.0733282,1899,1,1
app_13,5.90055,25110.8,5290.3,158.888,589.38,1.24624e+11,1.4774,0.857579,9,0.211586,2002,1,1
app_14,1.15348,25315.7,5451.3,59.4195,545.971,3.30226e+10,1.4587,0.857579,10,0.060481,1868,1,1
app_15,3.46474,25787.9,5524.3,53.5896,501.346,2.92882e+10,1.44051,0.857579,11,0.0584594,1758,1,1
app_16,6.71297,25695.2,5338.1,135.502,594.27,1.11743e+11,1.46793,0.857579,9,0.188119,2078,1,1
app_17,5.20492,25853.2,5436.4,68.4942,544,4.63016e+10,1.45913,0.857579,10,0.0851132,1919,1,1
app_18,9.02992,26147.9,5343.5,129.306,594.738,1.0355e+11,1.46868,0.857579,9,0.174034,2120,1,1
app_19,1.72452,25462.1,5343.6,72.4557,594.564,4.62567e+10,1.48427,0.857579,9,0.0778733,2066,1,1
app_2,4.40844,26135.4,5355.3,52.728,595.598,1.99886e+10,1.48829,0.857579,9,0.0335943,2139,1,1
app_20,5.8216,26265.7,5405.5,144.165,540.666,1.12632e+11,1.44977,0.857579,10,0.208192,1936,1,1
app_21,77.5794,21483,7332.3,109.796,80.6373,1.05282e+11,1.07562,0.857579,91,1.31602,216,1,1
app_22,47.3707,21631.4,7377.8,46.0548,76.912,4.20539e+10,1.07819,0.857579,96,0.546155,208,1,1
app_23,50.5326,21253.2,7389.6,144.909,80.8706,1.40289e+11,1.06243,0.857579,92,1.73197,213,1,1
app_24,74.1841,21512.8,7281,50.9404,71.1738,4.76571e+10,1.09161,0.857579,102,0.671227,194,1,1
app_25,5.03503,21502.2,7418.5,41.4226,80.8044,3.7606e+10,1.07295,0.857579,92,0.470075,217,1,1
app_26,6.69014,21189.3,7394.4,95.8327,78.7163,9.24808e+10,1.06854,0.857579,94,1.17064,209,1,1
app_27,26.3618,21094.1,7329.3,197.433,77.7697,1.93776e+11,1.06339,0.857579,94,2.48431,206,1,1
app_28,69.6281,21316.1,7258.7,138.609,75.5015,1.35291e+11,1.08196,0.857579,96,1.78014,203,1,1
app_29,70.9276,21418.1,7329.2,82.4972,69.7971,7.88285e+10,1.07991,0.857579,105,1.12612,188,1,1
app_3,1.04596,24919.1,5296.3,180.072,592.992,1.50831e+11,1.46866,0.857579,9,0.254352,1980,1,1
app_30,59.7331,21344.5,7335.9,175.718,80.11,1.71677e+11,1.06559,0.857579,91,2.14596,214,1,1
app_31,79.5684,21529.8,7345.7,69.0616,78.8579,6.46362e+10,1.07957,0.857579,93,0.81818,213,1,1
app_32,31.5863,21358.1,7404,107.615,75.3383,1.04416e+11,1.06547,0.857579,98,1.39221,201,1,1
app_33,86.656,21314.2,7436.5,159.215,74.8482,1.56086e+11,1.05366,0.857579,99,2.08114,198,1,1
app_34,60.2572,21486.2,7385,33.4827,76.8625,3.06306e+10,1.0788,0.857579,96,0.3978,206,1,1
app_35,51.3815,21559.8,7405.2,58.8922,77.008,5.45171e+10,1.07243,0.857579,96,0.708015,207,1,1
app_36,98.4137,21528.1,7383,100.055,75.1464,9.68675e+10,1.06954,0.857579,98,1.29157,201,1,1
app_37,60.3187,21306.6,7395.5,28.5762,77.9221,2.42973e+10,1.0782,0.857579,96,0.311504,207,1,1
app_38,46.6212,21367.5,7509.7,114.685,67.6161,1.11499e+11,1.0497,0.857579,111,1.63969,178,1,1
app_39,65.8777,21390.6,7313.6,135.719,74.2967,1.32924e+11,1.07433,0.857579,99,1.79626,198,1,1
app_4,6.45968,26409,5423.8,98.4281,543.178,6.80554e+10,1.4567,0.857579,10,0.125332,1958,1,1
app_40,99.6161,21126.9,7417.5,106.018,73.8622,1.02781e+11,1.06379,0.857579,101,1.38893,194,1,1
app_41,101.701,20987.3,7853,133.625,7.37917,1.33321e+11,1.00171,0.857579,1066,19.0459,19,1,1
app_42,20.851,21322.1,7936.1,17.4685,7.18161,1.70874e+10,1.00589,0.857579,1088,2.44106,19,1,1
app_43,121.436,21306.2,7795.6,175.792,7.10156,1.75508e+11,1.00362,0.857579,1068,25.0725,19,1,1
app_44,137.077,20167.9,7806.3,175.341,8.51554,1.75055e+11,1.00234,0.857579,941,21.8818,21,1,1
app_45,403.946,20431.8,7810.2,114.192,7.86472,1.13826e+11,1.00959,0.857579,996,14.2282,20,1,1
app_46,96.8606,20563.4,7844.3,130.875,7.86921,1.30478e+11,1.00316,0.857579,992,16.3097,20,1,1
app_47,144.711,21217.5,7804,152.645,7.62759,1.52192e+11,1.00551,0.857579,1011,19.0239,20,1,1
app_48,117.67,20355.1,7805.5,157.524,7.52165,1.56946e+11,1.00472,0.857579,1055,19.6183,19,1,1
app_49,524.994,21051.9,7785.6,202.47,7.89921,2.02104e+11,1.00154,0.857579,997,25.263,20,1,1
app_5,4.39001,25543,5365.6,55.8269,596.854,2.38346e+10,1.48439,0.857579,9,0.0399239,2083,1,1
app_50,665.92,20878,7925.4,40.3087,7.91882,3.99201e+10,1.00435,0.857579,1022,4.99001,20,1,1
app_51,556.145,21273.6,7842.7,113.701,8.48019,1.133e+11,1.00553,0.857579,929,12.5889,22,1,1
app_52,357.638,20823.4,7769.8,150.211,7.81685,1.49765e+11,1.01016,0.857579,988,18.7207,20,1,1
app_53,174.746,21319.1,7859.2,21.2776,7.18656,2.08891e+10,1.01522,0.857579,1089,2.98416,19,1,1
app_54,332.252,21388,7836.9,107.366,8.02129,1.07056e+11,1.00705,0.857579,964,13.382,21,1,1
app_55,366.664,20917.2,7905.8,52.6232,7.7891,5.22892e+10,1.00527,0.857579,1011,6.53615,20,1,1
app_56,166.823,20295.1,7876.1,86.0732,8.16697,8.56546e+10,1.0048,0.857579,1006,10.7068,20,1,1
app_57,890.653,21401.4,7879,33.8817,8.9288,3.34682e+10,1.01106,0.857579,895,3.71869,23,1,1
app_58,362.524,20461,7802.4,174.393,7.9411,1.74058e+11,1.00295,0.857579,985,21.7573,20,1,1
app_59,186.038,21077.7,7821.2,106.325,7.66434,1.06082e+11,1.00917,0.857579,1023,13.2602,20,1,1
app_6,5.85612,25153.9,5343.3,100.241,594.653,6.58735e+10,1.47897,0.857579,9,0.110712,2025,1,1
app_60,131.862,21429.8,7904.7,76.8883,8.72193,7.65629e+10,1.00235,0.857579,896,9.57037,23,1,1
app_7,1.67731,26618.9,5266.5,158.279,585.082,1.24525e+11,1.48395,0.857579,9,0.212501,2157,1,1
app_8,6.21791,24713,5286.4,180.667,587.349,1.52237e+11,1.47096,0.857579,9,0.259347,1951,1,1
app_9,4.80066,25867.5,5368.37,41.8789,596.917,6.87148e+09,1.4883,0.857579,9,0.0115293,2114,1,1
