app_id,start_app,end_app,effective_cpu,effective_io,effective_iter,total_bytes,stretch,utilization,Tcomp,Tio,iterations,priority,group_id
app_1,3.51259,26752.2,5169.97,51.8495,517.724,2.76342e+10,1.53917,0.836944,10,0.053451,1942,1,1
app_10,3.23281,26103.8,5079.9,63.8541,565.465,3.64118e+10,1.56363,0.836944,9,0.0644456,2064,1,1
app_11,8.06873,26305.2,5092.51,144.43,510.573,1.14686e+11,1.53634,0.836944,10,0.224875,1869,1,1
app_12,6.31113,27303,5132.33,47.2763,512.766,2.01429e+10,1.55265,0.836944,10,0.0393415,1990,1,1
app_13,7.43498,26460.1,5149.6,65.4219,517.634,4.60783e+10,1.53974,0.836944,10,0.0891262,1906,1,1
app_14,9.52824,26296.5,5118.3,106.332,511.575,8.24754e+10,1.53823,0.836944,10,0.1614,1877,1,1
app_15,4.44662,26089.3,5168.3,36.8598,516.481,6.89307e+09,1.54584,0.836944,10,0.0133587,1877,1,1
app_16,9.28838,25925.7,5011.9,164.647,555.199,1.36542e+11,1.55387,0.836944,9,0.246022,2002,1,1
app_17,1.74503,25874,5034.5,111.31,560.378,8.28443e+10,1.56331,0.836944,9,0.147936,2013,1,1
app_18,9.71321,26204.6,5047.8,119.551,562.403,9.5372e+10,1.55546,0.836944,9,0.169701,2054,1,1
app_19,0.471067,26692.8,5140.5,54.8292,514.242,3.09804e+10,1.54695,0.836944,10,0.0602732,1931,1,1
app_2,6.05042,26535.1,5007.38,150.701,555.85,1.17334e+11,1.56106,0.836944,9,0.211412,2076,1,1
app_20,5.0324,25620.3,5025.1,120.73,559.244,9.64343e+10,1.56203,0.836944,9,0.172512,1988,1,1
app_21,11.7121,21625.1,7029,185.679,70.3994,1.81783e+11,1.10945,0.836944,99,2.56033,196,1,1
app_22,61.0326,21707,7227.9,84.1816,76.8494,8.03152e+10,1.09466,0.836944,94,1.04305,209,1,1
app_23,72.2372,21847.2,7275.5,9.77837,79.0313,6.90027e+09,1.09854,0.836944,92,0.0873452,216,1,1
app_24,62.1528,21657.8,7051.4,170.061,75.4685,1.66115e+11,1.10841,0.836944,94,2.21487,208,1,1
app_25,27.3208,21720.1,7194.1,150.972,76.8459,1.46509e+11,1.08983,0.836944,93,1.90271,210,1,1
app_26,55.4794,21757.7,7048.8,163.884,66.5866,1.60424e+11,1.10969,0.836944,107,2.39439,183,1,1
app_27,50.5491,21712.3,7035.98,148.069,70.8002,1.44352e+11,1.11415,0.836944,99,2.04799,197,1,1
app_28,23.4619,21524.8,7269,54.3069,67.999,5.09529e+10,1.0929,0.836944,106,0.749307,187,1,1
app_29,83.0248,21607.7,7172.9,136.718,75.1184,1.33464e+11,1.09494,0.836944,95,1.77951,206,1,1
app_3,6.41171,26901.2,5118.1,115.198,510.489,9.70973e+10,1.53398,0.836944,10,0.190387,1936,1,1
app_30,19.2534,21421.7,7122.1,193.267,75.0639,1.88536e+11,1.0943,0.836944,95,2.51381,204,1,1
app_31,96.6015,21595.6,7272,88.7155,74.4055,8.47526e+10,1.08744,0.836944,99,1.13003,199,1,1
app_32,43.4494,21497.2,7292.4,14.2847,68.9741,1.10134e+10,1.09538,0.836944,107,0.159615,185,1,1
app_33,16.0929,21504,7203.1,87.7409,71.987,8.4209e+10,1.0978,0.836944,101,1.16957,194,1,1
app_34,18.1403,21654.4,7330.7,33.0753,69.9309,2.9159e+10,1.08698,0.836944,105,0.416558,190,1,1
app_35,12.7857,21735.6,7287.1,27.7947,69.392,2.42898e+10,1.09418,0.836944,105,0.346998,189,1,1
app_36,10.0939,21789.4,7182.2,58.0147,72.2588,5.46854e+10,1.10545,0.836944,99,0.759519,201,1,1
app_37,32.4628,21545.1,7210.7,176.305,76.0158,1.72668e+11,1.08352,0.836944,95,2.27194,205,1,1
app_38,64.707,21944.7,7063.3,188.344,70.431,1.84448e+11,1.10379,0.836944,100,2.63498,195,1,1
app_39,51.1054,21888.3,7216.1,36.2034,72.7636,3.26071e+10,1.10365,0.836944,99,0.446673,200,1,1
app_4,6.80219,25892.9,5112.8,54.5918,566.479,2.47918e+10,1.55715,0.836944,9,0.0438017,2041,1,1
app_40,75.588,21792,7258.9,33.1147,78.3633,3.01084e+10,1.09754,0.836944,93,0.386006,213,1,1
app_41,80.5606,21123.8,7738.4,192.858,7.40246,1.92525e+11,1.00871,0.836944,1003,24.0656,20,1,1
app_42,281.756,21369.3,7902.2,26.3687,7.76674,2.59989e+10,1.00906,0.836944,977,3.24986,21,1,1
app_43,682.243,22587.4,7846.8,62.4906,7.20595,6.20273e+10,1.01153,0.836944,1043,7.75341,20,1,1
app_44,1000.66,21787.2,7752,214.453,7.51162,2.13998e+11,1.00427,0.836944,1017,26.7498,20,1,1
app_45,177.103,20664.2,7856.7,121.803,7.4904,1.21419e+11,1.00274,0.836944,1062,17.3456,19,1,1
app_46,801.984,21231.2,7806.1,130.83,9.06368,1.30498e+11,1.00799,0.836944,878,14.4998,23,1,1
app_47,759.775,21029,7762.9,187.352,8.22332,1.86985e+11,1.0063,0.836944,931,23.3731,21,1,1
app_48,165.621,20473,7786.1,162.808,7.86633,1.62416e+11,1.00648,0.836944,1017,20.302,20,1,1
app_49,911.341,21135.9,7901.68,89.0931,7.98814,8.88604e+10,1.00118,0.836944,994,11.9916,20,1,1
app_5,4.07189,26126.3,5083,37.048,562.524,1.60431e+09,1.57338,0.836944,9,0.00285464,2063,1,1
app_50,34.8833,20949.5,7779.1,80.6292,7.66996,8.01199e+10,1.01791,0.836944,1009,10.015,20,1,1
app_51,1012.73,22467.4,7797,179.295,7.09504,1.78888e+11,1.00302,0.836944,1074,25.5554,19,1,1
app_52,196.989,21060.3,7709.8,121.612,8.23186,1.21153e+11,1.02159,0.836944,924,15.1441,22,1,1
app_53,792.627,21508.3,7905,11.4621,8.05759,1.1193e+10,1.01059,0.836944,987,1.39912,21,1,1
app_54,736.063,21492.4,7835.4,129.44,7.86359,1.28861e+11,1.00449,0.836944,1004,16.1076,20,1,1
app_55,893.373,21002.7,7769.9,179.372,7.42815,1.79055e+11,1.00642,0.836944,1035,22.3819,19,1,1
app_56,592.014,21754.5,7772.5,145.862,8.53366,1.45275e+11,1.01038,0.836944,892,16.1417,23,1,1
app_57,679.317,21873.8,7846.4,60.1451,7.67695,5.9834e+10,1.01186,0.836944,1022,7.47925,20,1,1
app_58,537.69,20895.3,7736.3,130.902,7.75084,1.30477e+11,1.01693,0.836944,1005,16.3097,20,1,1
app_59,762.716,21255.3,7720.7,145.48,7.77234,1.44892e+11,1.01709,0.836944,1002,18.1115,20,1,1
app_6,8.76372,26613.4,5070.3,42.6045,563.652,1.0188e+10,1.57465,0.836944,9,0.0180959,2118,1,1
app_60,559.88,21038.5,7908.2,23.3435,7.60546,2.30513e+10,1.00867,0.836944,1012,2.88141,20,1,1
app_7,9.61725,26087.5,5074.28,95.3262,505.773,6.76737e+10,1.55583,0.836944,10,0.134007,1848,1,1
app_8,9.58494,26902.4,5233.8,79.2361,477.296,4.96586e+10,1.51416,0.836944,11,0.104106,1793,1,1
app_9,9.67641,25698.1,4986.5,163.509,553.498,1.34435e+11,1.56221,0.836944,9,0.2431,1978,1,1
