app_id,Tcomp,Tio,iter,witer,alpha_io,compute_size,io_size,mu,desyn_time
1,16.65311540079655,0.20284259033054047,1187,16.85595799112709,0.012033880864992425,16e9,202842590.33054048,10,2.654254506910474
2,1.4117704348287623,0.00971716553844329,14070,1.4214876003672057,0.006835912980129481,1e9,9717165.53844329,10,1.0767171839685972
3,24.76916031584276,0.607673422954171,789,25.376833738796932,0.023945990631019504,24e9,607673422.9541711,10,17.725378432712656
4,1.0214546758375105,0.013816999359909087,19319,1.0352716751974196,0.013346254602468743,1e9,13816999.359909087,10,0.589639083630129
5,6.635039745465458,0.109558930147842,2966,6.7445986756133,0.016243950962416542,6e9,109558930.147842,10,1.7106439483449867
6,6.820670866921862,0.026412193897366557,2921,6.847083060819228,0.0038574373441595776,6e9,26412193.897366557,10,3.737488918367433
7,12.343623008573626,0.09368196262598924,1609,12.437304971199616,0.007532336212943512,12e9,93681962.62598924,10,7.133476729962711
8,8.459468746110318,0.07276300339309512,2345,8.532231749503413,0.008528015357450883,8e9,72763003.39309512,10,1.3758827413187957
9,15.041784761870952,0.039544237742695255,1327,15.081328999613648,0.0026220658500128403,15e9,39544237.74269526,10,10.230305725075205
10,2.5583120685991902,0.05343933517557628,7658,2.6117514037747664,0.020461110922862093,2e9,53439335.17557628,10,1.4033727770282896
11,8.63123237913402,0.06752241759949426,2300,8.698754796733516,0.007762308419688956,8e9,67522417.59949426,10,4.895107667786033
12,14.9214026000235,0.36052349235775993,1309,15.28192609238126,0.023591495612421354,14e9,360523492.35775995,10,12.03977774632866
13,18.362949284084017,0.2880390740938384,1073,18.650988358177855,0.015443635938335813,18e9,288039074.0938384,10,7.982882651257173
14,7.062819373391569,0.03478273104233435,2818,7.0976021044339035,0.004900631302028811,7e9,34782731.04233435,10,0.03112549217581633
15,12.463522408648297,0.30486415769299535,1567,12.768386566341292,0.023876482444277407,12e9,304864157.69299537,10,1.389236265352272
16,7.096630223590436,0.029900681648732542,2807,7.126530905239169,0.004195685396768663,7e9,29900681.648732543,10,6.906853452318748
17,12.094990424408591,0.13640054642063162,1636,12.231390970829223,0.011151679048272986,12e9,136400546.42063162,10,9.8230458851762
18,13.647755278299591,0.12359774948833926,1453,13.771353027787931,0.008974989548154264,13e9,123597749.48833926,10,11.929535392737023
19,11.293538349558915,0.1670386514935787,1746,11.460577001052494,0.014575064717792003,11e9,167038651.4935787,10,11.11687146164462
20,15.668371151261677,0.275964296243078,1255,15.944335447504756,0.01730798358775534,15e9,275964296.243078,10,14.206115620577174
21,132.27125622985014,1.7662186249053036,150,134.03747485475543,0.013177050871923682,132e9,1766218624.9053035,100,22.107796348050044
22,36.94734552973596,0.029215937125261472,541,36.97656146686122,0.0007901204429580371,36e9,29215937.12526147,100,11.378641024169672
23,89.05264896095566,1.0069422039364975,223,90.05959116489217,0.011180843604906709,89e9,1006942203.9364974,100,13.450224534822096
24,55.64310046194031,0.48184842253709115,357,56.1249488844774,0.008585280380903065,55e9,481848422.53709114,100,14.550851696052561
25,132.78798390246675,1.3619667340902173,150,134.14995063655698,0.010152569774551002,132e9,1361966734.0902174,100,12.982854520087365
26,153.55333711107178,2.4871051795559858,129,156.04044229062777,0.015938849845886192,153e9,2487105179.555986,100,48.43768647609432
27,118.89430210372122,1.6526097852052892,166,120.5469118889265,0.013709266868055694,118e9,1652609785.2052891,100,110.03897142585862
28,23.886692263862976,0.5303257579709199,820,24.417018021833897,0.021719513721810673,23e9,530325757.97091985,100,0.12609392417121001
29,85.82703770496349,1.355607208418014,230,87.1826449133815,0.015549048893444897,85e9,1355607208.418014,100,24.60970553924875
30,144.29834612058164,1.675807091458651,138,145.97415321204028,0.011480163128772489,144e9,1675807091.4586508,100,25.93792631065146
31,81.577256052049,1.7706463766456333,240,83.34790242869462,0.02124404244198524,81e9,1770646376.6456332,100,73.6156620592153
32,58.53490533554915,1.4605406497884812,334,59.99544598533763,0.02434419189325511,58e9,1460540649.7884812,100,52.18292057535562
33,209.34045656238314,4.770755795829335,94,214.11121235821247,0.022281671955823416,209e9,4770755795.829335,100,177.51133811663206
34,6.749815751514001,0.027658666055492283,2951,6.777474417569493,0.004080969451362548,6e9,27658666.055492282,100,3.624423831927137
35,135.68752888109682,1.0045786753518553,147,136.6921075564487,0.007349207597351604,135e9,1004578675.3518553,100,111.32690037896627
36,96.80195657177083,1.875598580283702,203,98.67755515205454,0.019007347490455642,96e9,1875598580.2837021,100,66.60996780403025
37,210.95752339253227,2.5280576938310957,94,213.48558108636337,0.01184181939111099,210e9,2528057693.8310957,100,63.375361698991945
38,70.47157915203624,1.0027576256217232,280,71.47433677765797,0.014029617773734607,70e9,1002757625.6217232,100,60.971719534675266
39,17.93665537811992,0.07625421623484661,1111,18.012909594354767,0.004233309218336644,17e9,76254216.2348466,100,9.27745862632895
40,92.75064784675233,0.8302103895195528,214,93.58085823627188,0.008871583411037406,92e9,830210389.5195528,100,89.50140769733203
41,73.71840544517585,1.6347620332447204,266,75.35316747842057,0.021694669088899003,73e9,1634762033.2447205,1000,65.3226431878895
42,1413.7204494469872,34.17331637546321,14,1447.8937658224504,0.023602088207107973,1413e9,34173316375.463207,1000,707.3452051074092
43,890.1481589018257,14.324965235341416,23,904.4731241371671,0.01583791143491067,890e9,14324965235.341415,1000,632.1512992293021
44,683.0607993249585,9.525489311085764,29,692.5862886360442,0.013753505472718697,683e9,9525489311.085764,1000,90.19259873249638
45,1183.5818086561271,29.640122303301343,17,1213.2219309594284,0.02443091535599066,1183e9,29640122303.301342,1000,264.92065297203635
46,1370.2202688423226,9.102002298486182,15,1379.3222711408089,0.006598894608551563,1370e9,9102002298.486181,1000,259.34139870219786
47,1059.6538511207561,26.428456057060924,19,1086.082307177817,0.024333750658120212,1059e9,26428456057.060925,1000,989.578432393583
48,2672.3140599218077,45.79842037618146,8,2718.1124802979894,0.016849347003903434,2672e9,45798420376.18146,1000,1318.2028010931263
49,502.7342311606221,11.544366596684391,39,514.2785977573064,0.022447690117822675,502e9,11544366596.684391,1000,429.2644351527081
50,1631.7122383421236,19.047560480326556,13,1650.7597988224502,0.011538662677582714,1631e9,19047560480.326557,1000,683.3748368874451
51,1481.3062542426908,3.175005010770506,14,1484.4812592534613,0.002138797637881398,1481e9,3175005010.770506,1000,517.8033415858433
52,1143.8976176537212,19.657257011705525,18,1163.5548746654267,0.016894138333920738,1143e9,19657257011.705524,1000,1133.0319129800648
53,251.36505964441545,3.706901612585915,79,255.07196125700136,0.014532767907214129,251e9,3706901612.585915,1000,39.66047217060639
54,1265.9559648908198,23.66727501150116,16,1289.623239902321,0.01835208476337149,1265e9,23667275011.50116,1000,601.7074952783928
55,1528.990301934972,38.204639829340735,13,1567.1949417643127,0.024377720225622228,1528e9,38204639829.34074,1000,1175.2447660156731
56,1254.9293738840581,10.770411744002606,16,1265.6997856280607,0.008509452135727553,1254e9,10770411744.002605,1000,296.58238149583207
57,842.9272294450459,13.185972687864531,24,856.1132021329104,0.015402136837760653,842e9,13185972687.86453,1000,213.49900113205408
58,1016.9377126597755,3.665841050093927,20,1020.6035537098694,0.0035918364547807844,1016e9,3665841050.093927,1000,92.85571294020491
59,946.4982510406339,1.0814547119375397,22,947.5797057525715,0.001141280997653537,946e9,1081454711.9375398,1000,279.1986953403889
60,1153.8606289457502,8.390254467695522,18,1162.2508834134458,0.007218970178842935,1153e9,8390254467.695522,1000,381.2365011013375
