app_id,Tcomp,Tio,iter,witer,alpha_io,compute_size,io_size,mu,desyn_time
1,14.52413282628615,0.014599207346150255,1376,14.5387320336323,0.001004159600189209,14e9,14599207.346150255,10,4.029002431467
2,10.021198921657616,0.11721994149781119,1973,10.138418863155428,0.011561954884681917,10e9,117219941.49781118,10,3.5951427139546626
3,13.268256844539986,0.05876994187459151,1501,13.327026786414578,0.004409831451265704,13e9,58769941.87459151,10,12.193329253356621
4,9.304690434518198,0.03388353323245538,2142,9.338573967750653,0.0036283412595399488,9e9,33883533.23245538,10,4.3402582694429706
5,15.126760122093533,0.02432333527950477,1321,15.151083457373037,0.001605385868801891,15e9,24323335.279504772,10,5.378508985655766
6,7.83833624169311,0.10042667056851667,2520,7.938762912261627,0.012650166238546444,7e9,100426670.56851667,10,6.233648659649435
7,10.954724660126717,0.011784470284242508,1824,10.966509130410959,0.0010745871948953456,10e9,11784470.284242509,10,8.123775728286256
8,9.879574921889883,0.10994612606216236,2003,9.989521047952046,0.011006145893721547,9e9,109946126.06216237,10,3.899907542363855
9,11.091603540334045,0.13135052242066586,1783,11.222954062754711,0.011703738755963993,11e9,131350522.42066586,10,7.962848134500863
10,10.232210525364223,0.0708727442443841,1942,10.303083269608608,0.006878789813670641,10e9,70872744.2443841,10,5.224767950875374
11,16.131605273198396,0.31685499104510356,1216,16.4484602642435,0.01926350466577708,16e9,316854991.04510355,10,4.133474156895947
12,5.415080626351654,0.08589198026646351,3636,5.5009726066181175,0.015613962549664122,5e9,85891980.26646352,10,4.693181892783203
13,8.668112168220794,0.222848932803459,2250,8.890961101024253,0.025064661769556774,8e9,222848932.803459,10,0.2756386308765318
14,7.294899176649166,0.12803471205694697,2695,7.422933888706114,0.017248531911586863,7e9,128034712.05694696,10,3.518700842304628
15,3.7367693231296464,0.10624585758718813,5205,3.8430151807168347,0.027646483969228083,3e9,106245857.58718812,10,2.699112368620485
16,11.592863708315146,0.0508824492648518,1718,11.643746157579999,0.004369938040235245,11e9,50882449.2648518,10,5.915787769692574
17,9.12142011268153,0.1635108762210162,2155,9.284930988902547,0.017610349114758766,9e9,163510876.2210162,10,7.631670139431879
18,13.358862526531805,0.29221814228834936,1466,13.651080668820155,0.02140622778354773,13e9,292218142.28834933,10,12.622096667079754
19,13.495305809065218,0.3095225375698191,1449,13.804828346635038,0.022421324611780924,13e9,309522537.56981915,10,8.614754545308905
20,3.007376630909361,0.08468963266470288,6469,3.092066263574064,0.027389333036741473,3e9,84689632.66470288,10,0.8360910736948466
21,102.1894294215997,2.6416647703685148,191,104.83109419196822,0.025199248283444033,102e9,2641664770.3685145,100,45.363694244247746
22,158.71380772016693,2.8330340531747225,124,161.54684177334164,0.017536920078880972,158e9,2833034053.1747227,100,19.00117026432525
23,39.6892986286128,0.3511158351205013,500,40.0404144637333,0.008769035980846935,39e9,351115835.12050134,100,3.8948193386244285
24,118.37235267624219,0.4708581063669868,169,118.84321078260918,0.003962010982926838,118e9,470858106.36698675,100,58.73862021594748
25,130.13979794258782,1.33921998536674,153,131.47901792795457,0.0101858076404296,130e9,1339219985.36674,100,96.04759699518767
26,123.40611797525537,2.911081998646963,159,126.31719997390233,0.02304580848252182,123e9,2911081998.646963,100,1.9046066314212708
27,38.29467424012892,0.602667631275182,515,38.8973418714041,0.015493799891715508,38e9,602667631.275182,100,1.786685423120362
28,145.0427656482358,0.11182654382905637,138,145.15459219206485,0.0007703961834089984,145e9,111826543.82905637,100,88.81723705812169
29,102.48867001682265,1.7776506328176465,192,104.26632064964029,0.017049135538128143,102e9,1777650632.8176465,100,36.64044524504916
30,116.41988581567732,1.0213626772725601,171,117.44124849294988,0.008696796827171619,116e9,1021362677.2725601,100,59.128599837362245
31,41.627844722259304,0.7675261130656846,472,42.39537083532499,0.018104007535326493,41e9,767526113.0656847,100,6.758235883587008
32,50.63303372852308,0.062246034545239755,395,50.69527976306832,0.0012278467509431953,50e9,62246034.545239754,100,3.289910889680273
33,42.91554656666048,1.2509807086527749,453,44.16652727531326,0.028324180908649493,42e9,1250980708.6527748,100,33.16058429918569
34,211.19132908931925,0.3435150404268939,95,211.53484412974615,0.001623917051775153,211e9,343515040.4268939,100,186.00845137342228
35,89.26780192486513,1.2971552963706712,221,90.5649572212358,0.014322927279719538,89e9,1297155296.3706713,100,74.27156660226626
36,52.0955021298889,0.7776922549098556,379,52.87319438479876,0.01470863003377464,52e9,777692254.9098556,100,41.70017186480663
37,1.0556153805158848,0.022370309946897357,18554,1.077985690462782,0.02075195445061402,1e9,22370309.946897358,100,0.5125770404685646
38,141.58742888877242,0.680948042832591,141,142.26837693160502,0.004786362630396453,141e9,680948042.832591,100,57.34575158788209
39,22.563226214169436,0.3563853308952474,873,22.919611545064683,0.015549361741778229,22e9,356385330.8952474,100,11.242647600339202
40,52.753434297488695,0.4561570364846678,376,53.209591333973364,0.00857283480381515,52e9,456157036.48466784,100,50.77078948568208
41,1036.1043588298655,5.5426560826830675,20,1041.6470149125487,0.005321050224627582,1036e9,5542656082.683067,1000,212.02695060632158
42,1060.613670619431,16.42390671646683,19,1077.037577335898,0.015249149205259969,1060e9,16423906716.466831,1000,775.8103167271128
43,890.8500185044371,21.093683080236726,22,911.9437015846738,0.023130466325478737,890e9,21093683080.236725,1000,278.2059985824958
44,504.5702399985468,8.012075270407042,40,512.5823152689538,0.01563080705623462,504e9,8012075270.407042,1000,256.731328744506
45,1546.6079274282597,39.50008160960071,13,1586.1080090378605,0.024903777917092557,1546e9,39500081609.600716,1000,472.9178210205071
46,1009.5213966355468,22.10438813891325,20,1031.62578477446,0.021426750344114207,1009e9,22104388138.91325,1000,267.49128628647276
47,1688.1817276042561,2.274567252196068,12,1690.4562948564521,0.0013455344921468179,1688e9,2274567252.196068,1000,113.02457512778611
48,865.620650155203,13.838573407076995,23,879.4592235622799,0.015735321247781535,865e9,13838573407.076994,1000,369.71471807839185
49,445.1784395220827,1.20116717105724,45,446.37960669314,0.002690909604844409,445e9,1201167171.05724,1000,270.0393852698119
50,1926.454256881935,15.603546839808711,11,1942.0578037217438,0.008034542952277837,1926e9,15603546839.808712,1000,499.0835033916858
51,1070.85767256608,17.20624747047928,19,1088.0639200365592,0.01581363663809489,1070e9,17206247470.47928,1000,725.8712276035393
52,696.403256328627,15.402328364212568,29,711.8055846928396,0.021638392133238215,696e9,15402328364.212568,1000,213.10051250858086
53,1841.9082635172992,17.235620983635282,11,1859.1438845009345,0.009270729999610539,1841e9,17235620983.63528,1000,456.7861767316195
54,1569.3175798999664,34.760996342563416,13,1604.0785762425298,0.02167038252202659,1569e9,34760996342.563416,1000,1039.4071432564454
55,727.3222024683914,2.900101516953787,28,730.2223039853452,0.003971532369150955,727e9,2900101516.9537873,1000,389.9086315467268
56,996.4682408435673,21.60928223044213,20,1018.0775230740094,0.0212255763836083,996e9,21609282230.44213,1000,687.0480984672138
57,143.36930862120605,0.9325009557223052,139,144.30180957692835,0.00646215704748444,143e9,932500955.7223052,1000,141.46012584493016
58,1427.9827203966033,9.2044841151239,14,1437.1872045117273,0.00640451298635869,1427e9,9204484115.123901,1000,801.5179241041701
59,1085.8521292671003,19.84711458649016,19,1105.6992438535904,0.017949831020340454,1085e9,19847114586.49016,1000,155.63259668202517
60,156.35074695156547,3.172362381990215,126,159.52310933355568,0.01988653803980806,156e9,3172362381.9902153,1000,107.97500964538798
