app_id,Tcomp,Tio,iter,witer,alpha_io,compute_size,io_size,mu,desyn_time
1,11.51481234628086,0.19674390451913176,1708,11.71155625079999,0.0167991256077255,11e9,196743904.51913175,10,10.548567730316808
2,11.740524590397209,0.2919566869092638,1663,12.032481277306474,0.02426404664014733,11e9,291956686.9092638,10,5.013505510736333
3,8.191166374080668,0.025843734286194877,2434,8.217010108366862,0.0031451506016622562,8e9,25843734.286194876,10,4.908476430347334
4,9.535019349495583,0.16606909199268235,2062,9.701088441488265,0.017118604061216593,9e9,166069091.99268237,10,0.30707189472644214
5,6.80207250255949,0.07560569219399203,2908,6.877678194753482,0.010992909242492114,6e9,75605692.19399203,10,2.901925018403647
6,11.75212990348935,0.022535312915189742,1699,11.77466521640454,0.001913881414122365,11e9,22535312.915189743,10,4.350095135377729
7,12.877385253248558,0.090809245029551,1543,12.968194498278109,0.007002458595266169,12e9,90809245.029551,10,3.333030349311481
8,1.8025896763003937,0.035781189817789084,10880,1.8383708661181828,0.019463531802667737,1e9,35781189.817789085,10,0.8439680155029091
9,9.523484275582721,0.14167440400542508,2070,9.665158679588146,0.014658259497035196,9e9,141674404.0054251,10,3.7924230664450937
10,11.518946967622078,0.17007446627949385,1712,11.689021433901573,0.014549931937521158,11e9,170074466.27949384,10,8.117171271621924
11,6.329993065719373,0.0515411069096447,3135,6.381534172629018,0.00807660125533907,6e9,51541106.9096447,10,2.882861186190026
12,5.627516874312216,0.11106781224541783,3486,5.738584686557634,0.019354565334827066,5e9,111067812.24541783,10,1.8729351417154019
13,8.060274274861229,0.09412269316047948,2453,8.154396968021707,0.011542569429669802,8e9,94122693.16047949,10,0.1363068161441857
14,20.782607596783766,0.2626616466082472,951,21.045269243392013,0.012480792883689057,20e9,262661646.6082472,10,11.212899968098412
15,10.103472385432541,0.24885337611301894,1932,10.35232576154556,0.024038402755581965,10e9,248853376.11301893,10,6.387762701227157
16,7.8849774776914066,0.029849069395442518,2527,7.914826547086849,0.003771285348815236,7e9,29849069.39544252,10,5.127939065618904
17,3.674455142733617,0.059826411928682315,5356,3.7342815546622994,0.01602086266205296,3e9,59826411.92868231,10,0.04186716882933001
18,1.9477850549458444,0.005829720308350516,10238,1.953614775254195,0.00298406849814697,1e9,5829720.3083505165,10,0.782620633196106
19,11.916588649964785,0.2080056818697265,1650,12.124594331834512,0.017155681763602083,11e9,208005681.8697265,10,5.7832398190821
20,12.535527653935036,0.050139147560482426,1590,12.585666801495519,0.0039838292520603304,12e9,50139147.56048243,10,11.914256482390394
21,213.50708233667913,0.24020544391791235,94,213.74728778059705,0.001123782418069667,213e9,240205443.91791233,100,30.499810644783118
22,57.13372762594953,0.678882591789813,346,57.81261021773935,0.011742811632841708,57e9,678882591.789813,100,53.24730763443161
23,141.12852479797422,1.7827353288750547,140,142.91126012684927,0.012474421730608795,141e9,1782735328.8750546,100,84.64641692496572
24,71.55369659918387,0.508054423908086,278,72.06175102309196,0.0070502647617497055,71e9,508054423.908086,100,53.78629313132823
25,14.543846644482816,0.026074987677642505,1373,14.569921632160458,0.001789645019097886,14e9,26074987.677642506,100,7.94986167346289
26,79.37409409054005,0.8404919155275876,250,80.21458600606765,0.010478043425468911,79e9,840491915.5275877,100,54.58656699628727
27,123.73043868207559,1.5176291107856998,160,125.24806779286129,0.012116986214075547,123e9,1517629110.7856998,100,89.91054523216107
28,97.16566042127238,0.01344346603043866,206,97.17910388730282,0.00013833700345733637,97e9,13443466.03043866,100,2.8735411213635964
29,45.697096000200204,1.0473002676258827,428,46.74439626782609,0.02240483033785022,45e9,1047300267.6258827,100,40.13897602331496
30,81.2702616172636,1.2791287089169323,243,82.54939032618053,0.0154953138219757,81e9,1279128708.9169323,100,30.41983426265624
31,63.032235153369896,1.3276186050836565,311,64.35985375845355,0.02062805503048981,63e9,1327618605.0836565,100,57.17358045604584
32,23.48121094072645,0.07318532728481135,850,23.55439626801126,0.0031070771864445037,23e9,73185327.28481135,100,18.51902530395061
33,71.06770748268224,1.7729361245762345,275,72.84064360725847,0.02433992942368186,71e9,1772936124.5762346,100,24.505816709810823
34,152.24225155353994,1.581655066232907,131,153.82390661977286,0.010282244814796542,152e9,1581655066.232907,100,27.149925958188142
35,100.53103425893974,1.7133909072244327,196,102.24442516616418,0.01675779294998126,100e9,1713390907.2244327,100,12.757561617566225
36,111.94035413474327,2.557803888123542,175,114.49815802286682,0.022339257960924702,111e9,2557803888.1235423,100,101.63563399016284
37,92.02020736230037,1.0534347676793672,215,93.07364212997973,0.0113182931662674,92e9,1053434767.6793672,100,62.00499070239988
38,198.62381012970386,0.6279975578096101,101,199.25180768751346,0.00315177847116197,198e9,627997557.8096101,100,190.66005226938182
39,242.25822607416146,5.000299285753988,81,247.25852535991544,0.02022296007175256,242e9,5000299285.753987,100,84.20934772411958
40,89.25985696085598,1.9486497547756938,220,91.20850671563167,0.021364780818648427,89e9,1948649754.775694,100,20.477325641970182
41,1753.447140928833,37.50142478898225,12,1790.9485657178152,0.02093942031995297,1753e9,37501424788.98225,1000,1380.4696414552618
42,805.8606095472858,20.234854723731186,25,826.0954642710169,0.0244945718732245,805e9,20234854723.731186,1000,29.680949752660048
43,489.61164396900125,4.763640408398988,41,494.37528437740025,0.009635676699328037,489e9,4763640408.398988,1000,308.62876208686436
44,1177.6843731267206,16.47372404869032,17,1194.158097175411,0.013795262191544203,1177e9,16473724048.69032,1000,858.0251866780914
45,986.6210986225228,15.23855240207119,20,1001.859651024594,0.015210266614177787,986e9,15238552402.071192,1000,628.7622495318814
46,1227.8337311836817,10.949766104341919,17,1238.7834972880237,0.008839128167523563,1227e9,10949766104.341919,1000,1098.7626707156462
47,2031.4896237304404,31.984996006923968,10,2063.4746197373643,0.015500552175919162,2031e9,31984996006.92397,1000,225.64849502074654
48,280.4375438901464,3.3637227728979213,71,283.8012666630443,0.011852388160380027,280e9,3363722772.897921,1000,203.7797311966832
49,793.8461331813786,13.060129174751737,25,806.9062623561304,0.016185435389504527,793e9,13060129174.751736,1000,259.93663825912284
50,793.3951223887038,13.425812800404161,25,806.820935189108,0.01664038724683976,793e9,13425812800.404161,1000,733.8396212350353
51,1265.7376734431705,14.191720182743282,16,1279.9293936259137,0.011087893014582264,1265e9,14191720182.743282,1000,1252.080899781569
52,756.5363007263205,16.157704099629584,26,772.6940048259501,0.020910870278162852,756e9,16157704099.629583,1000,607.4374468764613
53,711.8113508664,0.8684117614940057,29,712.679762627894,0.0012185160952120691,711e9,868411761.4940057,1000,624.4332194807853
54,1049.2766192412264,21.04015839797385,19,1070.3167776392002,0.019657879646044762,1049e9,21040158397.97385,1000,950.2868799598949
55,216.55970906004407,2.3399736650853495,92,218.89968272512942,0.010689707887898749,216e9,2339973665.0853496,1000,70.39593944099595
56,1427.8855622800884,34.848819098477996,14,1462.7343813785665,0.023824434252809747,1427e9,34848819098.478,1000,654.055155333496
57,534.7038798879443,5.835365362853775,38,540.539245250798,0.01079545179026973,534e9,5835365362.853775,1000,157.04661182924562
58,959.2355692368305,19.32864737707974,21,978.5642166139103,0.019752047999427105,959e9,19328647377.07974,1000,204.43861341763406
59,1117.099799530435,15.761926607081058,18,1132.861726137516,0.013913371988319559,1117e9,15761926607.081059,1000,133.72915486895764
60,971.1657352004406,17.211173818353643,21,988.3769090187942,0.017413573365893324,971e9,17211173818.35364,1000,309.3785294192133
