app_id,Tcomp,Tio,iter,witer,alpha_io,compute_size,io_size,mu,desyn_time
1,10.604563036159554,0.25675599975727575,1842,10.86131903591683,0.023639486042921706,10e9,256755999.75727576,10,4.02620829629233
2,8.659888815989392,0.07992500399322458,2289,8.739813819982617,0.009144932104901927,8e9,79925003.99322458,10,2.9391391030223737
3,7.593747822933558,0.16041141951482163,2580,7.75415924244838,0.020687145375695385,7e9,160411419.51482162,10,5.015129419940564
4,4.755758970415442,0.00871094771195764,4198,4.7644699181274,0.0018283141381195544,4e9,8710947.711957641,10,4.484028638049402
5,11.174663827057788,0.2473443983546053,1752,11.422008225412394,0.021655070936150975,11e9,247344398.35460532,10,0.9322396535446478
6,9.16232401827021,0.23466061919108144,2129,9.396984637461292,0.024971906227834146,9e9,234660619.19108143,10,8.025510162395609
7,15.498495498715291,0.39168430002637455,1259,15.890179798741666,0.024649456770614503,15e9,391684300.0263746,10,10.591134584852297
8,9.74888501977973,0.15116283907676759,2021,9.900047858856498,0.01526889983077593,9e9,151162839.0767676,10,5.280742685073821
9,17.645074794305245,0.23522364154585626,1119,17.880298435851103,0.013155465071780812,17e9,235223641.54585627,10,7.22230456875187
10,5.741842349674859,0.12490426881243495,3410,5.866746618487294,0.021290210219551083,5e9,124904268.81243496,10,3.155077187058039
11,4.610634696819662,0.11335758620893087,4234,4.7239922830285925,0.02399614127571274,4e9,113357586.20893086,10,3.6311538748327603
12,8.901930456192439,0.1655751061039877,2206,9.067505562296427,0.018260270695886326,8e9,165575106.1039877,10,1.737872135512306
13,7.978197080097072,0.1078893452425028,2474,8.086086425339575,0.013342591158116639,7e9,107889345.2425028,10,2.4725597180145313
14,14.954419137200764,0.05703370267732179,1333,15.011452839878086,0.0037993459584278974,14e9,57033702.677321784,10,14.926120940659146
15,22.754462273581822,0.4054840623397759,864,23.1599463359216,0.017507987991788262,22e9,405484062.3397759,10,8.066660110869279
16,17.168797578476713,0.3162361270138785,1144,17.485033705490594,0.018086103369338948,17e9,316236127.01387846,10,3.8118198434426396
17,7.984772201367262,0.16055450026038587,2456,8.145326701627647,0.019711241321763426,7e9,160554500.26038587,10,1.8704584699190743
18,3.0305747339734443,0.07638631476650301,6438,3.1069610487399473,0.024585539879066743,3e9,76386314.766503,10,0.1765382982199767
19,4.075746928563936,0.0065610239015609344,4900,4.082307952465497,0.0016071849497778395,4e9,6561023.901560934,10,3.121414508824023
20,1.2101042171674086,0.02123108550549477,16243,1.2313353026729033,0.01724232665091929,1e9,21231085.50549477,10,0.8025781159129944
21,97.92409756993153,2.2634679837510188,200,100.18756555368255,0.02259230445656658,97e9,2263467983.751019,100,53.177034968093594
22,77.99044929832347,0.5586779974613775,255,78.54912729578484,0.007112466003060961,77e9,558677997.4613775,100,76.54686216265895
23,214.16449354876139,0.4866565357376605,94,214.65115008449905,0.002267197429625159,214e9,486656535.73766047,100,188.50440860524833
24,79.47456818436162,1.685228980484942,247,81.15979716484655,0.020764332087499105,79e9,1685228980.484942,100,44.41439370735616
25,122.97530997071512,0.9109781921408914,162,123.886288162856,0.00735334156547943,122e9,910978192.1408914,100,34.507194235019284
26,69.21526755054715,0.6870201812344338,287,69.90228773178158,0.0098282932294085,69e9,687020181.2344338,100,51.458604365162095
27,152.05167580008037,1.3142240910075438,131,153.3658998910879,0.008569206661590575,152e9,1314224091.0075438,100,122.07542298175696
28,51.87619428630451,0.44491049953266665,383,52.32110478583718,0.008503461487554438,51e9,444910499.5326666,100,6.314288085856937
29,76.87901377212687,1.525759507164538,256,78.4047732792914,0.019460033405485633,76e9,1525759507.164538,100,25.139251232643108
30,74.77497475710581,0.22775833571277845,267,75.00273309281859,0.0030366671495946594,74e9,227758335.71277845,100,4.879815859558007
31,131.78720953183577,2.0379103266702745,150,133.82511985850604,0.015228159921134141,131e9,2037910326.6702745,100,58.9041755011353
32,161.1582254339465,0.19620104269278021,124,161.3544264766393,0.0012159631872335772,161e9,196201042.69278023,100,92.92601968923563
33,84.74612114607932,1.9761014706757671,231,86.72222261675509,0.02278656394000188,84e9,1976101470.6757672,100,16.33905573994402
34,130.49656817822566,1.2901685623469648,152,131.78673674057262,0.009789820996074228,130e9,1290168562.3469648,100,102.52958871743985
35,121.78908372181294,3.072193375610494,161,124.86127709742344,0.024604853057953305,121e9,3072193375.610494,100,47.16519033692158
36,175.37513508040863,2.757532225535934,113,178.13266730594455,0.015480216331122724,175e9,2757532225.535934,100,140.09750506592624
37,33.53941738429553,0.14971329801251151,594,33.68913068230805,0.004443964417613599,33e9,149713298.01251152,100,17.453826613150007
38,99.95687658041815,0.45359429779288485,200,100.41047087821104,0.0045174003649784125,99e9,453594297.7928848,100,50.7648999617434
39,144.930729923791,2.0628932110435247,137,146.99362313483454,0.014033895940855004,144e9,2062893211.0435247,100,74.3543704119935
40,18.95225467997786,0.07334596542594063,1052,19.0256006454038,0.003855119572461936,18e9,73345965.42594063,100,7.527208624131676
41,845.7253209649539,11.101079702538138,24,856.8264006674921,0.012956043013952513,845e9,11101079702.538137,1000,52.848708769485626
42,1147.5886510412188,21.461682524192184,18,1169.050333565411,0.018358219409371015,1147e9,21461682524.192184,1000,497.68715040148106
43,345.6462720959224,0.2891017860687451,58,345.93537388199115,0.0008357103895578089,345e9,289101786.0687451,1000,242.31882554094798
44,2410.0410160077736,10.800963106234118,9,2420.8419791140077,0.004461655572490985,2410e9,10800963106.234118,1000,609.4481850842225
45,1496.0930573083508,11.56190639666572,14,1507.6549637050166,0.007668801333862678,1496e9,11561906396.66572,1000,181.79066088211124
46,74.81284564339785,0.7118846659865331,265,75.52473030938438,0.009425848501150852,74e9,711884665.986533,1000,32.73055619029225
47,2312.991705795981,17.39176982134,9,2330.383475617321,0.007463050610901238,2312e9,17391769821.34,1000,1646.5040475826793
48,298.6836806455916,5.876778682307105,66,304.5604593278987,0.019295934525696237,298e9,5876778682.307105,1000,265.9914908654629
49,1950.8035704417719,24.68780720536923,11,1975.491377647141,0.012497046296791747,1950e9,24687807205.36923,1000,622.3574058299605
50,1864.7789924216793,48.05914821159728,11,1912.8381406332765,0.025124524229575698,1864e9,48059148211.59728,1000,773.9982305394228
51,1114.9643485091342,0.9886593632745794,18,1115.9530078724088,0.0008859327913452935,1114e9,988659363.2745794,1000,915.4190470343815
52,891.3654898279876,9.769519491610803,23,901.1350093195985,0.010841349398895592,891e9,9769519491.610802,1000,479.79762848381085
53,2245.426843270555,14.447814604464487,9,2259.8746578750192,0.006393192894180201,2245e9,14447814604.464487,1000,811.207980897555
54,1211.6410459089627,1.1656993236293085,17,1212.806745232592,0.0009611583446509863,1211e9,1165699323.6293085,1000,347.65550541655796
55,614.0960427963686,12.43425980100375,32,626.5303025973724,0.01984622252021286,614e9,12434259801.00375,1000,171.07048192788798
56,1365.313476221228,24.117664664236877,15,1389.4311408854649,0.017357941645720586,1365e9,24117664664.236877,1000,938.3547658123442
57,1417.4726478591583,34.46878628891346,14,1451.9414341480717,0.02373979106749444,1417e9,34468786288.91346,1000,1438.6857287608186
58,658.770052282857,8.17818476771349,30,666.9482370505705,0.012262098186029675,658e9,8178184767.71349,1000,248.7814291209367
59,1017.9067965850712,15.200885037245019,20,1033.1076816223162,0.01471374698654323,1017e9,15200885037.24502,1000,724.9095215125736
60,1769.9788911765504,27.0248720338892,12,1797.0037632104395,0.015038851107138405,1769e9,27024872033.8892,1000,222.99265233199282
