app_id,Tcomp,Tio,iter,witer,alpha_io,compute_size,io_size,mu,desyn_time
1,15.70361741114241,0.3725962625968925,1245,16.076213673739304,0.023176866777127575,15e9,372596262.5968925,10,12.509418493071564
2,11.916010132060865,0.19066083945791304,1652,12.106670971518778,0.01574841175633228,11e9,190660839.45791304,10,11.718684014608773
3,7.996754352947934,0.14942355452344402,2456,8.146177907471378,0.018342780653783437,7e9,149423554.52344403,10,4.9852705217404445
4,5.871783700133937,0.10292917008505371,3348,5.974712870218991,0.017227467214048907,5e9,102929170.08505371,10,2.038222100034303
5,14.626321427580823,0.4168018040804205,1330,15.043123231661244,0.027707132199992764,14e9,416801804.0804205,10,1.4465388480776613
6,15.922786349472009,0.2951970757400092,1234,16.21798342521202,0.01820183607297959,15e9,295197075.7400092,10,3.2180489389200178
7,17.210821348362433,0.216473503008735,1148,17.42729485137117,0.012421520657963906,17e9,216473503.008735,10,8.281420186702773
8,18.532735611365684,0.039261332568853745,1077,18.571996943934536,0.002114007055212023,18e9,39261332.56885374,10,2.955692728878072
9,15.317461857777376,0.2880654355493222,1282,15.605527293326698,0.018459192703633023,15e9,288065435.5493222,10,1.154844567447872
10,16.306869010886313,0.18548682867570493,1213,16.492355839562016,0.01124683644229634,16e9,185486828.67570493,10,7.145896468285056
11,3.9315895127761937,0.023725266652036413,5057,3.95531477942823,0.005998325790764515,3e9,23725266.652036414,10,2.515377727796167
12,7.62428357436584,0.18878529951793005,2560,7.81306887388377,0.024162758906294837,7e9,188785299.51793006,10,0.7101467207623492
13,12.632023148157245,0.30807992104771365,1546,12.940103069204959,0.02380815047608752,12e9,308079921.04771364,10,2.0620998272405493
14,1.3342478095700985,0.03444094299630062,14613,1.368688752566399,0.025163458771558646,1e9,34440942.99630062,10,0.14136861030116699
15,4.639801034825803,0.1137772402007611,4208,4.753578275026564,0.02393507240608661,4e9,113777240.20076111,10,2.2055028109401658
16,9.961258476523337,0.17178163096928037,1974,10.133040107492617,0.016952625189182943,9e9,171781630.96928036,10,7.865744145521755
17,6.681915999246181,0.10179353116988188,2949,6.783709530416063,0.015005585176291976,6e9,101793531.16988188,10,4.037763330937995
18,7.704474397844047,0.10783647009519991,2561,7.812310867939247,0.013803402337424562,7e9,107836470.09519991,10,5.929437656989661
19,15.895119218913104,0.22132468820634593,1241,16.11644390711945,0.013732848851884479,15e9,221324688.20634595,10,13.74568189292549
20,9.329568888640178,0.15257851502783723,2110,9.482147403668016,0.016091135112370716,9e9,152578515.02783722,10,7.4377071840033295
21,39.480282768327626,1.1278551044150056,493,40.60813787274263,0.027774115325097312,39e9,1127855104.4150057,100,10.969951179532925
22,158.11137328750885,0.08332024402391261,127,158.19469353153278,0.0005266943041127007,158e9,83320244.02391261,100,34.58674549338048
23,126.2461455693037,2.3272040099280638,156,128.57334957923177,0.018100205194498353,126e9,2327204009.928064,100,26.50199951618321
24,52.20037221438399,0.11667881655598542,383,52.31705103093997,0.0022302254094364437,52e9,116678816.55598542,100,5.098368259821675
25,146.51430585248474,0.9519902178013038,136,147.46629607028603,0.006455646091141816,146e9,951990217.8013037,100,136.42165444239828
26,132.1065258201662,1.0314027237776406,151,133.13792854394384,0.0077468737500840205,132e9,1031402723.7776406,100,92.71737555102534
27,204.5680475848457,5.148186630977666,96,209.71623421582336,0.02454834576935784,204e9,5148186630.977666,100,37.63298237100488
28,174.96217877062543,0.06108144057814499,115,175.02326021120356,0.0003489904170704909,174e9,61081440.57814499,100,52.94520046285543
29,76.96662874793047,0.013588917569517607,260,76.98021766549999,0.00017652480054765698,76e9,13588917.569517607,100,45.653494955649975
30,19.19438149422016,0.5332619472095448,1014,19.727643441429706,0.0270312036403522,19e9,533261947.2095448,100,7.2072282991392305
31,95.09742708921976,0.45300069359365147,210,95.55042778281341,0.004740959345816057,95e9,453000693.5936515,100,43.46584523482531
32,123.30963956078743,0.23302937142407434,162,123.54266893221151,0.0018862258152439523,123e9,233029371.42407435,100,40.3245131491595
33,121.30804006230332,2.571538277773309,162,123.87957834007663,0.020758371252393774,121e9,2571538277.773309,100,62.030527230431886
34,175.3221968720351,3.573080658040661,112,178.89527753007576,0.019973029514096352,175e9,3573080658.0406613,100,10.910495500630617
35,50.70303527635694,0.5903660925130013,390,51.293401368869944,0.011509591424196242,50e9,590366092.5130013,100,7.026944058597399
36,59.98389555542594,1.135992987962234,328,61.11988854338817,0.018586306602241396,59e9,1135992987.962234,100,56.0825144282946
37,105.11638445105231,1.8004383251743814,188,106.9168227762267,0.016839616801395587,105e9,1800438325.1743815,100,66.98500358213607
38,26.544428382599026,0.376287868930855,743,26.920716251529882,0.013977632148233457,26e9,376287868.930855,100,3.072881040344565
39,63.1863078816376,0.38804341561958894,315,63.574351297257195,0.006103773105056133,63e9,388043415.6195889,100,18.48125563486234
40,161.46600907237286,0.26051944706290936,124,161.72652851943576,0.0016108640273670438,161e9,260519447.06290936,100,79.6666471832029
41,1122.004023044505,25.7027868999316,18,1147.7068099444366,0.022394906675839918,1122e9,25702786899.9316,1000,422.48957746606203
42,1114.9084290515543,12.867142650689692,18,1127.775571702244,0.011409311367924259,1114e9,12867142650.689692,1000,108.23054388781961
43,894.6781006406043,18.630819112584334,22,913.3089197531885,0.02039925233361249,894e9,18630819112.584335,1000,75.09956843290581
44,273.75798201963585,0.5301575974233194,73,274.2881396170592,0.0019328491496697093,273e9,530157597.42331934,1000,102.78218091326394
45,1214.6601668195594,15.542634113732369,17,1230.2028009332919,0.012634204784724086,1214e9,15542634113.732368,1000,1013.5567039284634
46,363.9912593598154,6.212547443274014,55,370.2038068030894,0.016781425066702393,363e9,6212547443.2740135,1000,361.31034635894156
47,765.2363822473005,0.12067097493518572,27,765.3570532222357,0.00015766624796511368,765e9,120670974.93518572,1000,5.710606735045123
48,1047.0472891600202,4.267123375138432,20,1051.3144125351587,0.004058846073315606,1047e9,4267123375.138432,1000,240.44023092767037
49,1213.4687820696372,13.374588584103448,17,1226.8433706537407,0.010901626812375087,1213e9,13374588584.103447,1000,18.093084978879375
50,686.8070468613117,15.82077219093748,29,702.6278190522493,0.022516575293414345,686e9,15820772190.93748,1000,313.454165148004
51,357.88399194533486,2.9133096612868057,56,360.79730160662166,0.008074643708015299,357e9,2913309661.2868056,1000,292.1586499815397
52,1577.7142395698152,19.4241144864985,13,1597.1383540563136,0.012161823324301449,1577e9,19424114486.4985,1000,706.6809900138921
53,1243.0711276482696,14.619761225687222,16,1257.6908888739567,0.011624288094172864,1243e9,14619761225.687222,1000,988.1782986373693
54,407.1150627159249,0.3647178792480858,50,407.479780595173,0.0008950576117307506,407e9,364717879.2480858,1000,346.83487757076387
55,502.1089335565638,8.023272163116227,40,510.13220571968003,0.0157278291257797,502e9,8023272163.116227,1000,430.5699874672413
56,437.78150626155116,8.578568884882452,45,446.3600751464336,0.01921894309670988,437e9,8578568884.882452,1000,191.56671850710669
57,1640.3577711705445,28.513946238022708,12,1668.8717174085673,0.017085762758505676,1640e9,28513946238.02271,1000,1474.321856329219
58,947.9623693132545,8.189697219889714,21,956.1520665331442,0.008565266453467238,947e9,8189697219.889714,1000,355.7594712358591
59,1013.9248711273314,8.09442632454997,20,1022.0192974518814,0.007920032767219908,1013e9,8094426324.54997,1000,673.8579421518476
60,425.41718731250216,0.5601943203407954,47,425.97738163284293,0.0013150799654983473,425e9,560194320.3407954,1000,405.1190405216544
