app_id,Tcomp,Tio,iter,witer,alpha_io,compute_size,io_size,mu,desyn_time
1,10.968376855807776,0.0017592224792843775,1824,10.97013607828706,0.0001603646907139435,10e9,1759222.4792843775,10,10.659334092343505
2,10.326073259985742,0.19056342771246468,1902,10.516636687698208,0.018120187410807436,10e9,190563427.7124647,10,4.856685986727163
3,10.87142871096667,0.2083390070991969,1806,11.079767718065867,0.01880355368456817,10e9,208339007.09919688,10,10.005115483598665
4,6.128402650482172,0.03883613637348919,3243,6.167238786855661,0.006297167616772241,6e9,38836136.37348919,10,5.728491642457579
5,10.840379989193636,0.10425855766112153,1828,10.944638546854758,0.00952599368309729,10e9,104258557.66112153,10,1.7227137996780009
6,8.151489214988393,0.2072888778364981,2393,8.358778092824892,0.024798944957569003,8e9,207288877.8364981,10,0.05413652702535951
7,17.464101422772604,0.20513503442331169,1132,17.669236457195915,0.011609728293594095,17e9,205135034.42331168,10,9.401908529421629
8,10.001620166092252,0.07033874309264893,1986,10.0719589091849,0.006983620934801974,10e9,70338743.09264892,10,4.097779950982504
9,12.021366253013506,0.031590804462345586,1660,12.052957057475851,0.0026210003330884996,12e9,31590804.462345585,10,7.820386187316679
10,3.582376147258324,0.08174364832807725,5459,3.6641197955864016,0.022309218281165694,3e9,81743648.32807724,10,1.8204175402803084
11,12.713439958689593,0.08472693633136226,1563,12.798166895020955,0.0066202399942389195,12e9,84726936.33136226,10,8.892026387523751
12,16.038906471338272,0.4013125788947166,1217,16.44021905023299,0.02441041555885043,16e9,401312578.8947166,10,7.957454761057263
13,1.3241100533106274,0.026534822635604617,14808,1.350644875946232,0.019646039538716575,1e9,26534822.635604616,10,0.15972944350291302
14,5.818500145115793,0.07224087260351567,3396,5.890741017719309,0.012263460978205562,5e9,72240872.60351567,10,4.2851758125681085
15,16.224643720433235,0.215104220409265,1217,16.4397479408425,0.013084398932593451,16e9,215104220.40926498,10,8.325144027126662
16,18.438348174919845,0.12314992339781208,1078,18.561498098317657,0.006634697412111036,18e9,123149923.39781208,10,12.949577388415129
17,16.70161006537687,0.17466916143887498,1186,16.876279226815743,0.010349980531332556,16e9,174669161.438875,10,15.361701885948072
18,5.660178832165316,0.015019203713887493,3525,5.675198035879204,0.002646463369019811,5e9,15019203.713887492,10,4.527573226381561
19,14.082969857768099,0.07775290986140541,1413,14.160722767629505,0.005490744444142606,14e9,77752909.86140542,10,9.340943853461498
20,17.42355910156283,0.3662030164252603,1125,17.78976211798809,0.020585042902567803,17e9,366203016.4252603,10,13.545452112083034
21,148.06304417855154,3.4145189057234204,133,151.47756308427495,0.0225414169346238,148e9,3414518905.7234206,100,75.79580701277743
22,236.17143035322005,4.530583603151488,84,240.70201395637153,0.018822375137969055,236e9,4530583603.151488,100,57.972887338538506
23,134.25356544517243,1.3819002338182684,148,135.6354656789907,0.010188339951505164,134e9,1381900233.8182685,100,53.54468227327606
24,190.53378175853385,4.111441523474915,103,194.64522328200877,0.021122745547770858,190e9,4111441523.474915,100,63.33703081925684
25,96.61281055795469,2.283076925257307,203,98.895887483212,0.023085660924422862,96e9,2283076925.257307,100,34.803142819466515
26,221.1837466069918,3.662637040219684,89,224.8463836472115,0.016289508333682767,221e9,3662637040.219684,100,8.224647187602578
27,91.75979846650442,0.9491038422001552,216,92.70890230870458,0.010237461760034693,91e9,949103842.2001553,100,76.85340721461681
28,167.83288655263135,0.8612031073093488,119,168.6940896599407,0.00510511725126465,167e9,861203107.3093488,100,62.76528155304007
29,28.87381057958518,0.5933072218529725,679,29.46711780143815,0.020134552210057544,28e9,593307221.8529725,100,12.73707865036973
30,176.1719093374078,3.429386605154874,112,179.60129594256267,0.019094442426805247,176e9,3429386605.154874,100,152.92376454077896
31,78.18974258755838,0.7519082892579346,254,78.94165087681633,0.009524861475613704,78e9,751908289.2579346,100,16.860442714072
32,105.23550206552893,1.8867927312951152,187,107.12229479682405,0.017613445780579513,105e9,1886792731.2951152,100,62.553440508905744
33,116.97826647380705,1.3641174116285508,170,118.34238388543561,0.011526871158427227,116e9,1364117411.6285508,100,59.393892549280494
34,105.10391792590919,2.4137700177545285,187,107.51768794366372,0.02244998068614791,105e9,2413770017.7545285,100,19.755347424598362
35,83.89509189247185,1.790135756913693,234,85.68522764938555,0.020891999776656137,83e9,1790135756.9136932,100,75.58748706466145
36,28.229170365486794,0.6774576327818378,692,28.906627998268632,0.023436065694774716,28e9,677457632.7818378,100,10.906265647968716
37,109.35859066929888,0.7366657227713211,182,110.0952563920702,0.006691166785132995,109e9,736665722.7713212,100,91.04975028910353
38,72.12189516173754,1.4856732309761178,272,73.60756839271366,0.02018370207598358,72e9,1485673230.9761178,100,7.268520932777214
39,33.92743153933822,0.47701110428293114,582,34.40444264362115,0.01386481127521979,33e9,477011104.28293115,100,8.401044516631378
40,206.44524705583055,0.6191409292661453,97,207.0643879850967,0.0029900889056340653,206e9,619140929.2661452,100,36.244773817141166
41,556.4906048750823,4.432406775440306,36,560.9230116505227,0.007901987765482996,556e9,4432406775.440306,1000,393.5159913261416
42,1138.7105730776746,29.20696643970028,18,1167.9175395173747,0.025007729956491316,1138e9,29206966439.70028,1000,903.0303996644176
43,1496.1676032825048,6.473165055876017,14,1502.640768338381,0.004307859331564682,1496e9,6473165055.876018,1000,1384.1445272239137
44,343.84896538696455,2.0659881690215878,58,345.91495355598613,0.005972532114565579,343e9,2065988169.0215878,1000,92.99157597063544
45,1002.0950410274659,1.6929253430083269,20,1003.7879663704742,0.0016865367983336717,1002e9,1692925343.0083268,1000,61.35852055276609
46,880.8837143512039,2.140384965598705,23,883.0240993168027,0.002423925878415691,880e9,2140384965.598705,1000,53.09765904846085
47,1295.0039651134844,17.742874644535167,16,1312.7468397580196,0.013515838779551537,1295e9,17742874644.535168,1000,307.7661244886593
48,1066.6879054685921,18.969976975667617,19,1085.6578824442597,0.017473254956670552,1066e9,18969976975.667618,1000,236.9539370568194
49,523.2157919698398,0.8222789044201927,39,524.0380708742599,0.001569120547002193,523e9,822278904.4201927,1000,435.84571673961494
50,1614.4387593110903,40.13152073471184,13,1654.570280045802,0.024254950798222312,1614e9,40131520734.711845,1000,1385.954026143703
51,508.1540306580741,10.733373567280832,39,518.8874042253549,0.020685361563757068,508e9,10733373567.280832,1000,353.9012985217813
52,1204.2203908103536,21.233649751928276,17,1225.4540405622818,0.017327169399339957,1204e9,21233649751.928276,1000,218.2971281372543
53,1469.2347953129129,20.71263260518985,14,1489.9474279181027,0.013901586201690031,1469e9,20712632605.18985,1000,614.090097021614
54,1738.849896580415,32.79186931297667,12,1771.6417658933915,0.018509311500928976,1738e9,32791869312.976673,1000,679.2474807215875
55,1492.0672834352279,4.032852284997202,14,1496.1001357202251,0.002695576444858606,1492e9,4032852284.997202,1000,1339.9216583678972
56,970.6030991115824,21.82263431677646,21,992.4257334283589,0.0219891862753192,970e9,21822634316.77646,1000,398.2151950657622
57,1612.657264165105,6.120915448479025,13,1618.7781796135841,0.0037811946847097593,1612e9,6120915448.479025,1000,246.73780709748428
58,1884.1064096586538,26.454979413650566,11,1910.5613890723043,0.01384670472509449,1884e9,26454979413.650566,1000,755.7527125302661
59,315.2576998426825,1.510268625451478,64,316.767968468134,0.004767744140150986,315e9,1510268625.451478,1000,211.69256141807202
60,285.95920102099205,5.72474978992623,69,291.6839508109183,0.019626550497587204,285e9,5724749789.92623,1000,158.28922572235524
