app_id,start_app,end_app,effective_cpu,effective_io,effective_iter,total_bytes,stretch,utilization,Tcomp,Tio,iterations,priority,group_id
app_1,2.60083,21294.2,7240.7,759.3,1030.8,1.86859e+11,1.07707,0.945972,7,0.181416,2771,1,1
app_10,5.57572,19522.2,7959.8,40.2,397.713,3.25464e+09,1.00464,0.945972,20,0.0081775,971,1.00001,1.00001
app_11,15.6277,20569.2,7296.06,703.935,455.895,1.76917e+11,1.07052,0.945972,16,0.388419,1182,1.00001,1.00001
app_12,3.76603,19681.1,7893.7,106.3,716.454,1.71977e+10,1.01126,0.945972,11,0.0239857,1764,1.00001,1.00001
app_13,4.53247,20012.3,7711,289,1286.9,5.69486e+10,1.02987,0.945972,6,0.0442491,3218,1.00001,1.00001
app_14,7.37067,19187.3,7924.3,75.7,660.625,9.21029e+09,1.00838,0.945972,12,0.0139339,1585,1.00001,1.00001
app_15,3.39758,18647.5,7140.9,859.1,1188.09,2.14816e+11,1.08759,0.945972,6,0.180822,2789,1.00002,1.00002
app_16,3.14353,20019.9,7880.2,119.8,1125.61,1.15469e+10,1.01372,0.945972,7,0.0102548,2820,1.00002,1.00002
app_17,1.04316,20015.4,7127.9,872.1,1785.94,2.04196e+11,1.09109,0.945972,4,0.114331,4491,1.00002,1.00002
app_18,15.0812,20692.2,7276.6,723.4,364.544,1.89731e+11,1.07148,0.945972,20,0.521238,945,1.00002,1.00002
app_19,10.3847,19932.3,7564.51,435.487,631.433,1.03781e+11,1.04326,0.945972,12,0.164349,1578,1.00002,1.00002
app_2,4.003,19657.9,7418.6,581.4,619.396,1.40415e+11,1.05834,0.945972,12,0.226842,1526,1,1
app_20,1.26035,19251.7,7776.8,223.2,1941.69,2.54455e+10,1.02535,0.945972,4,0.0131027,4681,1.00002,1.00002
app_21,59.7045,20408.3,7713.8,286.2,57.1481,6.82043e+10,1.02801,0.945972,135,1.19657,147,1.00002,1.00002
app_22,4.48113,19496.2,7947.1,52.9,528.821,2.94166e+09,1.00628,0.945972,15,0.00556079,1291,1.00002,1.00002
app_23,24.3642,20582.1,7796.6,203.4,48.9025,5.0019e+10,1.01955,0.945972,157,1.0208,127,1.00002,1.00002
app_24,34.4559,21079.2,7389.2,610.8,61.8672,1.60777e+11,1.05961,0.945972,119,2.6357,164,1.00002,1.00002
app_25,31.0702,20314.9,7852.9,147.1,223.406,3.28789e+10,1.01448,0.945972,35,0.147439,569,1.00003,1.00003
app_26,3.06132,20704.7,7415.8,584.2,63.957,1.49634e+11,1.05744,0.945972,118,2.33803,165,1.00003,1.00003
app_27,6.49676,21325,7115,885,72.8066,2.07233e+11,1.09256,0.945972,98,2.8388,197,1.00003,1.00003
app_28,10.4191,21004.1,7358.4,641.6,118.851,1.62863e+11,1.06365,0.945972,62,1.3686,315,1.00003,1.00003
app_29,285.045,20823.7,7829,171,26.9647,3.91718e+10,1.01675,0.945972,287,1.45081,70,1.00003,1.00003
app_3,0.244115,20296.1,7235.7,764.3,516.892,1.91973e+11,1.07705,0.945972,14,0.371322,1321,1,1
app_30,130.357,20600.5,7834,166,46.6994,4.29814e+10,1.01562,0.945972,168,0.934378,119,1.00003,1.00003
app_31,75.8726,20140.7,7936.6,63.4,104.481,1.46503e+10,1.00613,0.945972,76,0.140869,262,1.00003,1.00003
app_32,15.744,20434,7762.9,237.1,126.356,5.54313e+10,1.02324,0.945972,62,0.439931,321,1.00003,1.00003
app_33,71.4773,20927.6,7585.3,414.7,65.0014,1.08055e+11,1.03986,0.945972,117,1.66238,169,1.00003,1.00003
app_34,10.9881,20447.9,7647,353,41.6755,9.78515e+10,1.03294,0.945972,188,2.3298,105,1.00003,1.00003
app_35,89.1725,20527.6,7747.7,252.3,80.2875,6.20627e+10,1.02436,0.945972,95,0.766206,208,1.00004,1.00004
app_36,30.0361,20811.7,7583.7,416.3,52.3931,1.09126e+11,1.03993,0.945972,144,2.05898,137,1.00004,1.00004
app_37,42.558,20329.9,7667,333,62.9925,8.12945e+10,1.03249,0.945972,123,1.29039,160,1.00004,1.00004
app_38,58.7695,20292.5,7821.3,178.7,113.704,4.41435e+10,1.01711,0.945972,69,0.387224,287,1.00004,1.00004
app_39,13.0867,20122.9,7960.8,39.2,72.8882,8.36431e+09,1.00387,0.945972,109,0.11458,183,1.00004,1.00004
app_4,2.03848,16455,7280,720,2430.99,1.57839e+11,1.07558,0.945972,3,0.0649278,5014,1,1
app_40,81.3254,20505.3,7678.6,321.4,70.7557,7.86763e+10,1.03129,0.945972,110,1.10812,179,1.00004,1.00004
app_41,330.459,21184.6,7504.7,495.3,14.9244,1.13779e+11,1.05008,0.945972,510,7.58525,39,1.00004,1.00004
app_42,199.378,21466.8,7443.6,556.4,9.93658,1.81734e+11,1.04913,0.945972,737,18.1734,27,1.00004,1.00004
app_43,208.523,21219.4,7660.8,339.2,17.1054,7.55016e+10,1.03409,0.945972,446,4.44127,45,1.00004,1.00004
app_44,647.094,22231.5,7200.1,799.9,7.3528,2.05695e+11,1.08024,0.945972,976,25.7119,20,1.00004,1.00004
app_45,780.265,21797.2,7979.5,20.5,5.78969,4.10089e+09,1.00205,0.945972,1375,0.683482,15,1.00004,1.00004
app_46,864.198,22401.8,7535.5,464.5,7.41099,1.05851e+11,1.04694,0.945972,1020,13.2314,20,1.00005,1.00005
app_47,172.259,20508.1,7905.7,94.3,16.01,1.67594e+10,1.00979,0.945972,508,1.04746,40,1.00005,1.00005
app_48,420.469,22178.2,7134,866,16.4879,1.97791e+11,1.09114,0.945972,426,11.6348,46,1.00005,1.00005
app_49,464.261,20628.1,7944.8,55.2,14.5633,1.88271e+10,1.00457,0.945972,542,1.34479,37,1.00005,1.00005
app_5,1.67228,21354.6,7241.5,758.5,425.556,1.9829e+11,1.0753,0.945972,17,0.466565,1145,1.00001,1.00001
app_50,35.5651,21112.9,7831.9,168.1,9.88888,4.16289e+10,1.01606,0.945972,774,4.16289,26,1.00005,1.00005
app_51,199.824,21072.3,7392.7,607.3,10.1663,1.56122e+11,1.05977,0.945972,733,15.6122,27,1.00005,1.00005
app_52,176.413,21821.4,7095.2,904.8,10.8275,1.92937e+11,1.09767,0.945972,650,17.5397,30,1.00005,1.00005
app_53,603.717,21098.7,7900.7,99.3,6.48052,3.85629e+10,1.00765,0.945972,1181,6.42716,17,1.00005,1.00005
app_54,481.679,20936.8,7807.5,192.5,5.69599,5.70851e+10,1.01722,0.945972,1446,9.51418,14,1.00005,1.00005
app_55,269.014,21884.8,7076,924,12.1653,2.2117e+11,1.09632,0.945972,593,17.0131,33,1.00005,1.00005
app_56,412.399,21932.8,7009.7,990.3,6.56549,2.03484e+11,1.10908,0.945972,1090,29.0692,18,1.00006,1.00006
app_57,686.042,21710.8,7784.2,215.8,10.4654,3.38346e+10,1.02328,0.945972,733,3.38346,28,1.00006,1.00006
app_58,6.60097,20178.9,7463.4,536.6,574.857,1.3182e+11,1.05329,0.945972,13,0.229252,1454,1.00006,1.00006
app_59,1728.8,23740.5,7226.5,773.5,4.20781,1.94497e+11,1.07802,0.945972,1682,48.6244,12,1.00006,1.00006
app_6,8.83141,19922.3,7553.8,446.2,755.952,1.04106e+11,1.04467,0.945972,10,0.137707,1888,1.00001,1.00001
app_60,10.1372,20344.6,7780.2,219.8,36.0954,4.85634e+10,1.02187,0.945972,217,1.34898,92,1.00006,1.00006
app_7,1.99887,19828.3,7400.4,599.6,739.006,1.46343e+11,1.06006,0.945972,10,0.198028,1843,1.00001,1.00001
app_8,1.75717,20268.5,7225.4,774.6,722.974,1.95376e+11,1.07805,0.945972,10,0.27023,1841,1.00001,1.00001
app_9,5.13566,19392.9,7599.4,400.6,849.205,8.71774e+10,1.04078,0.945972,9,0.102682,2057,1.00001,1.00001
