app_id,start_app,end_app,effective_cpu,effective_io,effective_iter,total_bytes,stretch,utilization,Tcomp,Tio,iterations,priority,group_id
app_1,0.458568,18639.3,7272.4,710.673,7274.94,1.54475e+09,1.09982,0.961432,1,0.000212337,16948,1,0
app_10,3.61811,19297.4,7858,70.1909,871.772,3.71683e+09,1.01759,0.961432,9,0.00426242,2103,0.1,1
app_11,5.20215,19438.6,7722.3,159.165,1546.15,8.14052e+10,1.02515,0.961432,5,0.0526554,3751,0.1,1
app_12,3.54344,18983.8,7653,250.671,1273.83,1.64929e+11,1.02329,0.961432,6,0.129457,3024,0.1,1
app_13,0.872412,17429.2,7661.9,188.168,1915.15,7.9581e+10,1.03339,0.961432,4,0.041535,4174,0.1,1
app_14,12.6077,19843.6,7758.4,217.75,388.254,1.90385e+11,1.00644,0.961432,20,0.490684,961,0.1,1
app_15,10.2634,20095,7814.48,126.243,653.115,8.11433e+10,1.01322,0.961432,12,0.124239,1641,0.1,1
app_16,6.2608,19807.6,7816.2,134.598,651.644,9.65039e+10,1.01103,0.961432,12,0.148239,1615,0.1,1
app_17,2.40914,19741.3,7686.2,222.995,1095.21,1.59416e+11,1.01968,0.961432,7,0.145585,2707,0.1,1
app_18,5.80826,19604.9,7679.7,237.369,1098.36,1.82971e+11,1.01747,0.961432,7,0.16664,2687,0.1,1
app_19,2.594,19213.7,7660.8,234.115,1277.43,1.27829e+11,1.02714,0.961432,6,0.100101,3070,0.1,1
app_2,6.23367,19746.2,7738.4,224.332,551.336,1.82426e+11,1.01,0.961432,14,0.331082,1363,0.1,1
app_20,4.3,20085.6,7769.6,167.453,775.243,1.28503e+11,1.0129,0.961432,10,0.16581,1951,0.1,1
app_21,98.6543,20435.9,7895.2,8.27511,71.3317,3.05366e+09,1.01288,0.961432,110,0.0424119,182,0.01,2
app_22,101.027,20352.3,7752.3,197.644,43.5384,1.28805e+11,1.01509,0.961432,179,2.92739,110,0.01,2
app_23,8.28656,20552.8,7721.7,91.6033,142.979,5.51865e+10,1.02869,0.961432,54,0.38592,367,0.01,2
app_24,31.4668,20248,7689,141.336,163.414,8.68946e+10,1.02882,0.961432,47,0.529845,414,0.01,2
app_25,136.461,20312.2,7863.3,63.4533,52.415,4.27895e+10,1.01188,0.961432,149,0.807349,133,0.01,2
app_26,73.8161,20383.3,7687.3,180.304,97.2135,1.16451e+11,1.02515,0.961432,79,1.20053,248,0.01,2
app_27,73.2806,20422,7649.4,224.737,102.056,1.48578e+11,1.02591,0.961432,75,1.4425,260,0.01,2
app_28,2.16835,20241.3,7520.1,254.835,168.449,1.70924e+11,1.04017,0.961432,45,1.01741,426,0.01,2
app_29,30.1995,20620.9,7633.5,279.581,61.7064,1.81456e+11,1.02368,0.961432,122,2.92671,160,0.01,2
app_3,0.2123,17893.1,7781.6,129.483,1110.89,8.79399e+10,1.01658,0.961432,7,0.0791538,2488,0.1,1
app_30,56.4531,20368.8,7716.3,201.324,71.6497,1.32604e+11,1.01925,0.961432,108,1.84173,182,0.01,2
app_31,1.5223,20556.6,7531.2,136.992,241.058,8.16204e+10,1.05086,0.961432,31,0.338674,626,0.01,2
app_32,187.04,20617.7,7690.8,268.32,34.6938,1.81283e+11,1.01625,0.961432,223,5.33185,88,0.01,2
app_33,166.99,20434.2,7803,143.504,37.4712,9.66107e+10,1.01271,0.961432,209,2.6111,95,0.01,2
app_34,72.4959,20420.3,7661.8,241.697,86.0804,1.54301e+11,1.02353,0.961432,90,1.79419,218,0.01,2
app_35,69.5784,20337.8,7738.9,159.338,74.2062,1.06197e+11,1.01975,0.961432,104,1.4351,189,0.01,2
app_36,13.1785,20242.4,7730.1,156.676,91.4591,9.83834e+10,1.02191,0.961432,85,1.08114,231,0.01,2
app_37,23.1785,20260.9,7852.5,33.8029,78.5693,1.95697e+10,1.01625,0.961432,99,0.250894,200,0.01,2
app_38,121.921,20563.9,7763.9,184.297,45.5478,1.20715e+11,1.01463,0.961432,169,2.68256,117,0.01,2
app_39,33.3805,20211.6,7731.5,217.42,56.8184,1.39195e+11,1.01643,0.961432,135,2.44201,145,0.01,2
app_4,10.4457,18743,7733.2,216.899,701.683,1.70682e+11,1.01216,0.961432,11,0.243483,1646,0.1,1
app_40,42.7316,20424.8,7581.1,268.412,120.447,1.75301e+11,1.03141,0.961432,63,1.44877,307,0.01,2
app_41,660.8,21252.8,7496.1,370.335,10.8439,1.68455e+11,1.04377,0.961432,704,16.8455,28,0.001,3
app_42,162.321,21823.5,7620.7,109.522,18.0499,4.62108e+10,1.04345,0.961432,413,2.56727,49,0.001,3
app_43,65.1301,21311.5,7497.5,143.946,16.6816,5.06946e+10,1.05986,0.961432,448,3.16841,45,0.001,3
app_44,728.199,21563.3,7783.5,158.519,5.06722,3.96529e+10,1.02261,0.961432,1570,7.93058,13,0.001,3
app_45,824.696,22362.5,7548.7,385.855,5.9335,1.52301e+11,1.03883,0.961432,1298,25.3835,16,0.001,3
app_46,594.777,21021.8,7832.7,24.048,7.85563,8.24852e+09,1.02028,0.961432,999,1.17836,20,0.001,3
app_47,532.083,22313.6,7822.7,91.9239,4.84326,4.23507e+10,1.01716,0.961432,1608,8.47013,13,0.001,3
app_48,1411.91,22835.1,7807.1,124.752,3.71171,6.32194e+10,1.01648,0.961432,2122,21.0731,10,0.001,3
app_49,324.368,21715.9,7584.2,357.444,11.9649,1.28803e+11,1.03721,0.961432,632,10.7336,32,0.001,3
app_5,0.692734,20000.2,7605.8,376.558,3804.02,1.48375e+11,1.0317,0.961432,2,0.0390049,9516,1,0
app_50,1015.02,21368.6,7767.7,97.2616,7.51507,2.82403e+10,1.02618,0.961432,1069,3.53004,19,0.001,3
app_51,587.017,20844.3,7708.9,177.442,5.29785,7.88344e+10,1.02726,0.961432,1443,13.1391,14,0.001,3
app_52,146.416,20693.6,7617.5,359.887,6.64818,1.39608e+11,1.03131,0.961432,1165,19.944,17,0.001,3
app_53,749.933,21982.5,7758.7,66.1656,10.0098,1.84706e+10,1.02865,0.961432,764,1.84706,27,0.001,3
app_54,262.451,20492.4,7785.8,174.288,29.4707,1.19352e+11,1.012,0.961432,268,3.97839,74,0.01,2
app_55,294.8,21663.9,7269.1,323.971,18.5224,1.53812e+11,1.07774,0.961432,384,8.09538,51,0.001,3
app_56,748.78,22144.8,7677.7,206.086,7.57816,9.63901e+10,1.02906,0.961432,1023,12.0488,20,0.001,3
app_57,391.719,22045.1,7553,345.596,5.96613,1.35577e+11,1.0405,0.961432,1291,22.5962,16,0.001,3
app_58,139.798,21969.5,7423.6,387.906,9.38499,1.54647e+11,1.05565,0.961432,778,15.4647,26,0.001,3
app_59,1297.41,23658.8,7785.8,52.2905,5.54043,2.08301e+10,1.02477,0.961432,1324,3.47169,16,0.001,3
app_6,6.49901,20263.4,7777.7,146.239,974.699,9.03442e+10,1.01677,0.961432,8,0.0926608,2469,0.1,1
app_60,1372.14,23064.8,7722.5,277.5,3.60957,1.00994e+11,1.02256,0.961432,2078,33.6648,10,0.001,3
app_7,2.48945,17899.1,7739.9,132.625,1548.13,1.5684e+10,1.03151,0.961432,5,0.0101318,3466,0.1,1
app_8,1.51914,20148.2,7762.2,207.798,407.874,1.75275e+11,1.00788,0.961432,19,0.429595,1030,0.1,1
app_9,12.3966,19635.8,7719.1,240.984,644.518,1.9136e+11,1.01132,0.961432,12,0.297142,1579,0.1,1
