app_id,start_app,end_app,effective_cpu,effective_io,effective_iter,total_bytes,stretch,utilization,Tcomp,Tio,iterations,priority,group_id
app_1,7.54138,19016.9,7688.7,222.684,1098.78,1.63745e+11,1.01879,0.963873,7,0.148995,2609,0.1,1
app_10,5.94722,20325.4,7712.2,208.797,1100.78,1.29257e+11,1.02022,0.963873,7,0.117507,2797,0.1,1
app_11,5.08783,18094.8,7749.3,146.993,1292.44,1.01894e+11,1.01895,0.963873,6,0.0788655,2926,0.1,1
app_12,3.38984,19635.1,7841,116.43,560.237,9.10945e+10,1.00856,0.963873,14,0.162669,1371,0.1,1
app_13,7.93046,19330.1,7825.6,125.634,650.836,8.26474e+10,1.0116,0.963873,12,0.12715,1575,0.1,1
app_14,2.03553,20160.9,7819.9,139.563,520.15,1.03323e+11,1.00969,0.963873,15,0.198698,1315,0.1,1
app_15,10.3953,19792.2,7870.4,74.6278,716.098,4.10384e+10,1.01119,0.963873,11,0.0573162,1768,0.1,1
app_16,5.01411,19846,7685.9,237.928,961.922,1.86904e+11,1.01616,0.963873,8,0.194287,2385,0.1,1
app_17,5.39013,19135.8,7773.4,160.823,862.452,9.62279e+10,1.01657,0.963873,9,0.111561,2062,0.1,1
app_18,7.58098,19346.6,7819.3,144.649,460.789,1.22013e+11,1.00739,0.963873,17,0.26467,1114,0.1,1
app_19,10.8238,18878.3,7702.1,250.571,642.519,1.95751e+11,1.01293,0.963873,12,0.304433,1511,0.1,1
app_2,3.06505,19894.9,7783.1,177.897,518.282,1.46297e+11,1.0089,0.963873,15,0.282426,1289,0.1,1
app_20,2.73899,18836.7,7786.9,159.087,649.779,1.23736e+11,1.0113,0.963873,12,0.190363,1531,0.1,1
app_21,68.4614,20120.1,7889,38.7338,102.435,1.9357e+10,1.01159,0.963873,77,0.187932,257,0.01,2
app_22,12.5557,19875.8,7804.7,175.48,268.603,1.55646e+11,1.00498,0.963873,29,0.580768,667,0.1,1
app_23,4.33722,20377.5,7696.5,162.31,122.415,1.01025e+11,1.02597,0.963873,63,0.828075,312,0.01,2
app_24,59.1398,20305.3,7837,88.5822,97.9633,5.23019e+10,1.01403,0.963873,80,0.533693,247,0.01,2
app_25,81.46,20433.1,7802.9,168.916,40.8691,1.06368e+11,1.01147,0.963873,192,2.59434,103,0.01,2
app_26,205.308,20447.9,7796.7,182.813,32.6514,1.20399e+11,1.01047,0.963873,240,3.76246,82,0.01,2
app_27,23.0478,20214.7,7821.61,30.1768,170.197,1.20513e+10,1.02123,0.963873,46,0.0708899,430,0.01,2
app_28,87.3046,20380.5,7645.4,279.135,60.2678,1.77382e+11,1.02265,0.963873,126,2.95637,155,0.01,2
app_29,11.522,20553.1,7587.21,286.068,135.929,1.82973e+11,1.02958,0.963873,56,1.35535,349,0.01,2
app_3,0.218194,19145.7,7854.2,84.5745,787.53,5.05972e+10,1.01204,0.963873,10,0.0642912,1881,0.1,1
app_30,94.9309,20434.5,7815.9,97.083,49.7909,6.10257e+10,1.01562,0.963873,156,1.22051,128,0.01,2
app_31,72.8545,20210.7,7723.9,201.398,62.6657,1.28744e+11,1.01877,0.963873,125,2.04356,157,0.01,2
app_32,31.7129,20452.3,7823.8,100.785,64.8845,6.28059e+10,1.01438,0.963873,120,0.966244,165,0.01,2
app_33,21.5975,20231.2,7836.68,79.4455,76.6301,4.81476e+10,1.01461,0.963873,102,0.633521,194,0.01,2
app_34,11.4039,20397.1,7781.7,88.8134,138.88,5.26939e+10,1.02114,0.963873,56,0.379093,354,0.01,2
app_35,152.304,20644.8,7748,190.699,49.4757,1.23249e+11,1.01636,0.963873,155,2.51529,127,0.01,2
app_36,25.9681,20307.1,7628.9,229.028,110.122,1.43639e+11,1.02926,0.963873,69,1.30581,282,0.01,2
app_37,34.2828,20277.2,7871.9,86.6452,47.3618,5.35254e+10,1.00941,0.963873,165,1.11511,120,0.01,2
app_38,13.4414,20166.1,7867.6,90.5124,78.6345,5.4446e+10,1.00984,0.963873,101,0.68919,196,0.01,2
app_39,26.2435,20342,7720.9,223.433,74.7052,1.43875e+11,1.01719,0.963873,103,1.94426,190,0.01,2
app_4,2.41651,14053.2,7618.7,381.3,3812.22,7.34541e+10,1.04002,0.963873,2,0.0192641,6694,1,0
app_40,32.5226,20330.6,7802.78,101.076,67.1274,6.47222e+10,1.01684,0.963873,117,0.959991,170,0.01,2
app_41,335.008,21258.2,7620.3,173.926,11.7374,7.71567e+10,1.0393,0.963873,646,6.42973,31,0.001,3
app_42,294.263,21248.1,7532.4,345.353,4.99403,1.45768e+11,1.04192,0.963873,1517,29.1535,13,0.001,3
app_43,1052.93,22643.2,7615.4,338.783,4.00132,1.57731e+11,1.02919,0.963873,1833,39.4328,11,0.001,3
app_44,114.902,21200.7,7548,86.6325,10.2067,3.40475e+10,1.05512,0.963873,738,3.40475,27,0.001,3
app_45,807.174,21807.5,7523.4,341.313,5.17665,1.60521e+11,1.04114,0.963873,1426,32.1042,14,0.001,3
app_46,373.262,21056.5,7797.1,83.0321,7.62939,4.07423e+10,1.02069,0.963873,1012,5.09278,20,0.001,3
app_47,555.598,21665.3,7607.5,91.0854,6.20181,2.94533e+10,1.04754,0.963873,1202,4.90889,17,0.001,3
app_48,55.3004,20743.6,7608.4,251.076,5.0196,1.11054e+11,1.03634,0.963873,1533,22.2109,13,0.001,3
app_49,823.672,22034.8,7681.3,294.682,4.53366,1.24593e+11,1.02487,0.963873,1691,24.9186,12,0.001,3
app_5,7.53723,19682.8,7843.2,99.446,714.703,6.59793e+10,1.01148,0.963873,11,0.0922787,1755,0.1,1
app_50,776.137,21822.2,7528.1,195.175,8.81595,8.46168e+10,1.05087,0.963873,873,9.40186,23,0.001,3
app_51,1040.45,21928.5,7559.7,337.94,4.32745,1.63416e+11,1.03585,0.963873,1833,40.854,11,0.001,3
app_52,995.818,22692.3,7647.7,195.835,8.0581,8.9396e+10,1.03398,0.963873,988,11.1745,21,0.001,3
app_53,1982.42,23464,7490.4,350.776,3.71446,1.65715e+11,1.04492,0.963873,2073,41.4287,10,0.001,3
app_54,270.755,20697.3,7694.8,290.496,27.2465,1.90562e+11,1.01454,0.963873,281,6.8058,70,0.01,2
app_55,110.045,21947.2,7361.3,344.193,8.8208,1.67957e+11,1.06252,0.963873,809,18.6619,25,0.001,3
app_56,596.663,22402.6,7790.2,57.2111,5.21482,3.81334e+10,1.02193,0.963873,1524,7.62668,14,0.001,3
app_57,659.57,22765.9,7424.7,401.293,6.63231,1.72637e+11,1.053,0.963873,1078,24.6625,19,0.001,3
app_58,651.688,22734.4,7847.1,6.62035,5.04957,2.81134e+09,1.01912,0.963873,1529,0.562268,14,0.001,3
app_59,1032.65,22246.7,7624.4,268.522,6.76614,1.06418e+11,1.03482,0.963873,1112,17.7364,18,0.001,3
app_6,11.2909,19536.7,7871.8,104.639,359.43,7.62533e+10,1.00654,0.963873,22,0.212405,873,0.1,1
app_60,335.316,21451.1,7436.2,349.555,12.8761,1.38065e+11,1.05621,0.963873,587,10.6204,34,0.001,3
app_7,7.02809,19143.1,7685.7,225.041,1098.34,1.69133e+11,1.01848,0.963873,7,0.153897,2633,0.1,1
app_8,9.58168,18794.3,7753.4,207.504,597.313,1.70109e+11,1.00965,0.963873,13,0.28494,1402,0.1,1
app_9,0.771173,18126.5,7532.8,264.618,2512.15,1.48644e+11,1.04147,0.963873,3,0.0591736,5694,0.1,1
