app_id,start_app,end_app,effective_cpu,effective_io,effective_iter,total_bytes,stretch,utilization,Tcomp,Tio,iterations,priority,group_id
app_1,15.3372,24074.1,6017.1,24.0133,335.094,5.28771e+09,1.32838,0.857157,18,0.0157842,1061,1,1
app_10,4.18195,26213.2,5506.4,37.158,551.952,3.97554e+09,1.45181,0.857157,10,0.00720206,1974,1,1
app_11,4.76277,24635,5318.1,178.661,590.071,1.49822e+11,1.46308,0.857157,9,0.253935,1956,1,1
app_12,3.01775,24986.3,5834,151.881,366.353,1.34805e+11,1.3403,0.857157,16,0.368321,1220,1,1
app_13,5.65867,26281.7,5358.99,102.003,595.049,6.60529e+10,1.47464,0.857157,9,0.111013,2153,1,1
app_14,4.30566,25537.8,5352.16,167.106,594.062,1.33674e+11,1.4583,0.857157,9,0.22504,2071,1,1
app_15,10.943,25642.4,5487.57,184.87,499.345,1.53386e+11,1.4182,0.857157,11,0.307388,1733,1,1
app_16,3.80178,24829.1,5917.41,79.4663,369.339,6.07778e+10,1.3382,0.857157,16,0.16471,1217,1,1
app_17,5.95347,25179.3,5568.4,51.4455,506.255,2.63903e+10,1.4299,0.857157,11,0.0521548,1728,1,1
app_18,6.50638,26280.8,5375.7,128.658,596.978,1.01566e+11,1.46058,0.857157,9,0.170413,2157,1,1
app_19,4.31594,25556.6,5321.72,158.424,591.956,1.21258e+11,1.46978,0.857157,9,0.205175,2061,1,1
app_2,11.9287,24917.7,5867,122.798,364.282,1.08798e+11,1.33873,0.857157,16,0.298897,1212,1,1
app_20,3.86702,26233.9,4942.29,157.234,825.29,1.11812e+11,1.58287,0.857157,6,0.135529,3035,1,1
app_21,25.9347,20843.9,7676.4,14.8576,41.0858,1.26372e+10,1.04044,0.857157,187,0.308224,107,1,1
app_22,20.0605,22421.5,6816.5,99.2965,138.831,9.27863e+10,1.15786,0.857157,49,0.667527,397,1,1
app_23,94.0307,21403.2,7251.75,93.2589,68.2312,8.89294e+10,1.08982,0.857157,106,1.30779,186,1,1
app_24,91.9679,20818.1,7396.2,135.398,47.3868,1.3276e+11,1.06256,0.857157,155,2.82468,126,1,1
app_25,113.71,20915.1,7636.5,6.14102,49.2115,4.63259e+09,1.04697,0.857157,156,0.0945426,128,1,1
app_26,17.6419,20890.1,7451.8,137.257,52.5276,1.34285e+11,1.05456,0.857157,143,2.53368,137,1,1
app_27,28.3655,22551,6694.8,85.7318,167.681,7.81397e+10,1.18117,0.857157,40,0.465117,487,1,1
app_28,79.5993,20995.4,7333.2,166.014,55.9974,1.6248e+11,1.06728,0.857157,131,2.90142,149,1,1
app_29,114.653,21079.1,7613.8,137.915,36.8784,1.36369e+11,1.03224,0.857157,205,3.68564,96,1,1
app_3,1.09123,25649.9,4638.49,128.87,1159.4,7.87085e+10,1.69592,0.857157,4,0.0679107,4195,1,1
app_30,23.2301,21929,7186.6,44.0713,101.979,3.95396e+10,1.10709,0.857157,71,0.387643,277,1,1
app_31,110.191,21072,7301.2,202.887,53.0275,2.01007e+11,1.06635,0.857157,139,3.79258,140,1,1
app_32,20.8103,22209,7246.5,43.0912,102.995,3.85259e+10,1.09814,0.857157,70,0.374038,285,1,1
app_33,21.4959,21862.8,7006.8,104.525,118.163,9.80174e+10,1.126,0.857157,59,0.830656,329,1,1
app_34,100.552,21317.2,7378.5,120.068,61.0075,1.16017e+11,1.06745,0.857157,121,1.90191,163,1,1
app_35,32.6294,21186.6,7423,98.4165,60.6339,9.58301e+10,1.064,0.857157,122,1.59717,161,1,1
app_36,21.7703,22494.4,6788,116.694,150.687,1.07788e+11,1.16013,0.857157,45,0.713828,431,1,1
app_37,56.6702,22084.2,7102.46,37.6703,99.7208,3.24959e+10,1.12124,0.857157,71,0.328241,279,1,1
app_38,122.048,20903,7450.7,112.938,44.679,1.1072e+11,1.058,0.857157,167,2.46044,118,1,1
app_39,158.406,21153.2,7446.8,111.381,44.1737,1.09571e+11,1.05871,0.857157,168,2.49024,117,1,1
app_4,7.08141,24782.2,5861.4,46.5093,418.865,2.62569e+10,1.35877,0.857157,14,0.0626656,1378,1,1
app_40,60.2881,21480.5,7305.6,89.3753,63.5275,8.59427e+10,1.08232,0.857157,116,1.34285,171,1,1
app_41,877.634,21854.9,7883.8,97.7753,6.45701,9.73969e+10,1.00236,0.857157,1207,16.2328,17,1,1
app_42,623.607,21822,7851.9,101.241,6.43915,1.00931e+11,1.00593,0.857157,1223,16.8218,17,1,1
app_43,43.5209,21477.5,7328.7,61.2084,60.537,5.83277e+10,1.08298,0.857157,121,0.972128,164,1,1
app_44,568.164,21143.3,7792.49,49.1422,10.0545,4.85813e+10,1.02027,0.857157,768,4.45179,26,1,1
app_45,194.397,20720.1,7937.5,20.5787,6.68376,2.03506e+10,1.0053,0.857157,1152,3.39177,18,1,1
app_46,268.725,20296,7756,182.83,8.38462,1.82453e+11,1.00775,0.857157,934,22.8067,21,1,1
app_47,341.482,20852.2,7832.7,75.6828,14.3565,7.49882e+10,1.01167,0.857157,546,5.3563,37,1,1
app_48,67.2739,20642.6,7939.1,10.3601,5.44751,1.00645e+10,1.0064,0.857157,1445,2.0129,14,1,1
app_49,399.939,20966.7,7810.9,52.5196,6.6099,5.22043e+10,1.01741,0.857157,1183,7.45776,17,1,1
app_5,3.87325,24672.3,5467.08,47.6721,547.175,1.83215e+10,1.45842,0.857157,10,0.0334946,1817,1,1
app_50,1805.37,22874,7820.7,173.714,4.19657,1.73579e+11,1.00072,0.857157,1889,43.3948,11,1,1
app_51,736.814,21441.2,7819.6,171.369,4.67308,1.71127e+11,1.00116,0.857157,1674,34.2254,12,1,1
app_52,150.728,20155.5,7617.2,196.403,15.2707,1.95391e+11,1.02399,0.857157,503,13.0261,39,1,1
app_53,203.975,19974.2,7818.1,129.732,4.22788,1.29475e+11,1.0066,0.857157,1793,32.3687,11,1,1
app_54,979.133,21476.4,7753,203.196,6.23519,2.02857e+11,1.00555,0.857157,1244,28.9796,16,1,1
app_55,347.585,20494.6,7868.3,36.0889,8.78044,3.55087e+10,1.01217,0.857157,872,3.94541,23,1,1
app_56,685.32,21280.3,7730.6,159.727,7.01724,1.59299e+11,1.01395,0.857157,1106,22.7571,18,1,1
app_57,644.033,21923,7825,96.6917,4.50806,9.64007e+10,1.00992,0.857157,1708,19.2801,12,1,1
app_58,538.336,20528.3,7887.1,101.652,4.18061,1.01528e+11,1.00142,0.857157,2022,25.3821,10,1,1
app_59,891.402,21833.9,7908.2,47.3663,4.86697,4.73209e+10,1.00559,0.857157,1578,11.8302,13,1,1
app_6,3.20717,25114.8,5486.89,165.332,498.832,1.47977e+11,1.41973,0.857157,11,0.297142,1690,1,1
app_60,278.489,20952.7,7892.1,95.9422,8.04028,9.53496e+10,1.00157,0.857157,962,11.9187,21,1,1
app_7,1.9989,24602.9,5899.4,87.4938,395.874,7.07372e+10,1.34,0.857157,15,0.178629,1275,1,1
app_8,6.88698,24557.6,5779.1,115.917,414.029,9.18817e+10,1.36263,0.857157,14,0.221936,1342,1,1
app_9,5.10227,27116,4855.94,99.1496,972.868,5.21315e+10,1.62997,0.857157,5,0.0536332,3773,1,1
