app_id,start_app,end_app,effective_cpu,effective_io,effective_iter,total_bytes,stretch,utilization,Tcomp,Tio,iterations,priority,group_id
app_1,1.94457,18804.2,7874.5,62.0005,656.405,2.02678e+10,1.01333,0.962469,12,0.0308961,1544,0.1,1
app_10,3.17071,17452.3,7625.4,227.615,1523.82,1.47853e+11,1.02917,0.962469,5,0.0970163,3329,0.1,1
app_11,6.16349,20340.9,7664.6,239.395,1093.6,1.80594e+11,1.01973,0.962469,7,0.165077,2789,0.1,1
app_12,4.64953,19796.2,7776.4,171.502,596.386,1.21899e+11,1.01288,0.962469,13,0.204528,1480,0.1,1
app_13,5.21005,20097.3,7662.3,245.653,1096.5,1.97448e+11,1.01784,0.962469,7,0.180153,2752,0.1,1
app_14,12.8156,19314.2,7875.2,66.0816,605.372,3.69463e+10,1.0111,0.962469,13,0.0609675,1458,0.1,1
app_15,1.10782,19442.1,7794.7,163.021,435.334,1.30038e+11,1.0095,0.962469,18,0.298253,1057,0.1,1
app_16,1.15024,18825.1,7643.4,235.074,1276.48,1.31895e+11,1.0289,0.962469,6,0.103366,3004,0.1,1
app_17,0.871306,18470.3,7706,148.49,1538.99,5.94168e+10,1.03021,0.962469,5,0.0386074,3562,0.1,1
app_18,2.8287,19074,7490.69,271.004,2499.06,1.42483e+11,1.04806,0.962469,3,0.0570143,5965,0.1,1
app_19,16.3294,19948.6,7778.8,195.08,322.03,1.63857e+11,1.00722,0.962469,24,0.508872,805,0.1,1
app_2,4.10431,18744.7,7783.6,149.515,780.368,9.36143e+10,1.01559,0.962469,10,0.119865,1824,0.1,1
app_20,0.235133,15269.8,7619.3,380.7,3806.55,2.43561e+11,1.01744,0.962469,2,0.0639771,7271,1,0
app_21,88.12,20567.4,7673.3,284.442,70.2693,1.68168e+11,1.02022,0.962469,109,2.36856,180,0.01,2
app_22,27.6897,20432.7,7615.3,271.572,115.192,1.63666e+11,1.02841,0.962469,66,1.42318,296,0.01,2
app_23,4.15938,20618.7,7591.3,245.189,175.678,1.44484e+11,1.03415,0.962469,43,0.825625,456,0.01,2
app_24,105.604,20310.2,7868,76.2802,49.6207,4.5494e+10,1.01093,0.962469,160,0.909881,125,0.01,2
app_25,4.58721,19392.5,7880.4,52.6448,658.424,4.31695e+09,1.01462,0.962469,12,0.00655076,1591,0.1,1
app_26,170.307,20416.9,7803.1,148.571,43.4841,9.09942e+10,1.01342,0.962469,176,2.06805,112,0.01,2
app_27,50.324,20392.9,7756.23,179.342,48.1002,1.11343e+11,1.01683,0.962469,162,2.2871,122,0.01,2
app_28,15.2176,20363.7,7627,312.125,84.4208,1.93045e+11,1.02301,0.962469,91,2.29816,213,0.01,2
app_29,87.8519,20361.3,7719.4,182.507,76.5861,1.05985e+11,1.02231,0.962469,101,1.39455,194,0.01,2
app_3,2.15794,18297.1,7720.4,188.043,965.501,1.21983e+11,1.0201,0.962469,8,0.126407,2212,0.1,1
app_30,130.822,20575.8,7667,276.514,58.5799,1.72949e+11,1.02041,0.962469,130,2.93134,150,0.01,2
app_31,83.4071,20315.4,7679.2,254.279,69.2088,1.58995e+11,1.02064,0.962469,111,2.30428,176,0.01,2
app_32,96.5259,20183.7,7939.2,20.2433,49.0084,9.33573e+09,1.00647,0.962469,162,0.190525,123,0.01,2
app_33,39.4355,20534.1,7761.5,83.2265,140.329,4.79476e+10,1.0244,0.962469,55,0.342483,362,0.01,2
app_34,28.2151,20476.4,7683.5,288.656,38.3252,1.78151e+11,1.0176,0.962469,201,4.68817,98,0.01,2
app_35,14.0633,20138.8,7858.1,12.6969,108.62,2.60878e+09,1.01772,0.962469,72,0.0241554,275,0.01,2
app_36,43.8945,20435.2,7675,265.106,69.3548,1.62342e+11,1.02075,0.962469,110,2.31917,178,0.01,2
app_37,5.18352,19678.1,7806.7,151.066,434.125,1.19565e+11,1.0093,0.962469,18,0.275496,1066,0.1,1
app_38,9.60403,20239.9,7719.1,175.999,126.524,1.02345e+11,1.02283,0.962469,61,0.805868,320,0.01,2
app_39,59.6849,20324.2,7778,137.498,75.2884,8.64852e+10,1.01723,0.962469,103,1.13796,191,0.01,2
app_4,1.95797,17193,7470.2,288.034,2488.49,1.76744e+11,1.04617,0.962469,3,0.0710384,5360,0.1,1
app_40,82.6989,20359.8,7713.8,189.482,82.9211,1.14656e+11,1.02191,0.962469,93,1.38139,211,0.01,2
app_41,598.98,21490.7,7524.6,280.409,11.3549,1.10204e+11,1.04783,0.962469,685,10.0185,29,0.001,3
app_42,293.388,21834.7,7301.7,164.066,22.7209,5.65378e+10,1.08722,0.962469,324,2.45817,62,0.001,3
app_43,350.111,21608.5,7476,286.754,16.0905,9.91799e+10,1.05608,0.962469,467,6.19875,43,0.001,3
app_44,1006.85,21446.8,7510.1,430.941,6.45338,1.7061e+11,1.04157,0.962469,1153,28.4349,17,0.001,3
app_45,839.537,21559.4,7663,177.137,6.80653,6.82428e+10,1.03476,0.962469,1126,9.74897,18,0.001,3
app_46,413.35,21291.5,7719.1,151.142,6.88431,5.8897e+10,1.02854,0.962469,1119,8.41386,18,0.001,3
app_47,1101.81,22351.7,7474,412.017,5.69331,1.62888e+11,1.04755,0.962469,1341,27.148,15,0.001,3
app_48,1705.99,23915.9,7712.6,211.196,4.03417,9.69505e+10,1.02439,0.962469,1967,24.2376,11,0.001,3
app_49,483.718,22037.5,7491.5,390.484,6.09206,1.4571e+11,1.0475,0.962469,1250,20.8158,16,0.001,3
app_5,11.4556,19919.8,7790.7,174.205,409.729,1.45401e+11,1.00805,0.962469,19,0.354636,1021,0.1,1
app_50,308.494,21133.3,7696.3,1.70313,7.0853,1.00504e+09,1.03932,0.962469,1077,0.143577,19,0.001,3
app_51,1683.37,23732.2,7913.9,77.9883,3.58529,3.20421e+10,1.0068,0.962469,2178,8.01052,10,0.001,3
app_52,177.097,21629.7,7714.2,205.853,11.8014,7.72721e+10,1.02676,0.962469,634,6.43934,32,0.001,3
app_53,1431.19,22662.5,7618.2,323.923,5.40273,1.41956e+11,1.03091,0.962469,1448,23.6593,14,0.001,3
app_54,368.955,20762.1,7599.7,282.346,6.04633,1.26279e+11,1.03547,0.962469,1326,21.0464,15,0.001,3
app_55,1543.99,23361.5,7802,136.617,4.30168,5.02443e+10,1.01882,0.962469,1766,12.5611,12,0.001,3
app_56,1382.29,22324.6,7778.7,180.376,2.95257,7.1103e+10,1.01913,0.962469,2544,23.701,8,0.001,3
app_57,601.668,20768,7784.5,16.2327,12.1155,1.03295e+10,1.02632,0.962469,644,0.860793,31,0.001,3
app_58,102.52,20735.3,7746.9,50.3481,7.46798,2.06055e+10,1.02993,0.962469,1011,2.57568,20,0.001,3
app_59,608.826,21922,7870.1,129.9,6.58567,5.11837e+10,1.00994,0.962469,1216,8.53062,17,0.001,3
app_6,1.30967,18509,7766.7,164.888,776.405,1.18036e+11,1.01462,0.962469,10,0.151912,1797,0.1,1
app_60,946.573,21549.6,7506.6,351.223,7.02575,1.28522e+11,1.04779,0.962469,1096,18.3603,18,0.001,3
app_7,3.23044,19400.3,7731.5,203.548,703.626,1.45484e+11,1.01562,0.962469,11,0.206654,1705,0.1,1
app_8,0.694707,20075.6,7732,209.997,595.818,1.69996e+11,1.0124,0.962469,13,0.285229,1495,0.1,1
app_9,7.72291,18411,7759.7,136.202,1106.85,9.76492e+10,1.01816,0.962469,7,0.0882107,2546,0.1,1
