app_id,start_app,end_app,effective_cpu,effective_io,effective_iter,total_bytes,stretch,utilization,Tcomp,Tio,iterations,priority,group_id
app_1,2.99804,26034.8,4943.1,195.81,986.321,1.44616e+11,1.57241,0.858317,5,0.146669,3572,1,1
app_10,10.8552,24228.7,5728.1,62.917,572.118,3.66396e+10,1.38775,0.858317,10,0.0640552,1819,1,1
app_11,0.587305,24759.8,5797.94,87.6746,527.324,5.6484e+10,1.36649,0.858317,11,0.106977,1721,1,1
app_12,4.84228,26075,5418.37,136.784,676.198,1.0534e+11,1.4483,0.858317,8,0.155598,2399,1,1
app_13,7.16568,24310.2,5600.5,56.9041,624.145,2.42439e+10,1.42229,0.858317,9,0.0388524,2004,1,1
app_14,0.184625,24718.9,5351.1,57.2099,763.43,1.27396e+10,1.49147,0.858317,7,0.0166967,2536,1,1
app_15,9.06914,25348.9,5786.76,108.245,524.244,8.30151e+10,1.36291,0.858317,11,0.158124,1764,1,1
app_16,1.66567,25221.9,5440.9,84.1196,680.022,5.57929e+10,1.45542,0.858317,8,0.0820484,2309,1,1
app_17,7.08296,24657.7,5339,68.6638,763.455,2.70831e+10,1.49085,0.858317,7,0.0354955,2522,1,1
app_18,14.9412,24338.5,6111.8,166.803,359.849,1.45717e+11,1.27846,0.858317,17,0.405687,1136,1,1
app_19,12.3459,25042.5,5913.1,165.028,422.884,1.43082e+11,1.32096,0.858317,14,0.338254,1394,1,1
app_2,17.0705,24159.3,6130.79,141.005,341.996,1.24604e+11,1.2789,0.858317,18,0.364447,1068,1,1
app_20,6.68098,24322.5,5845.2,92.5852,487.973,6.53644e+10,1.35351,0.858317,12,0.133943,1552,1,1
app_21,6.86768,21334.4,7447.64,9.63585,79.6456,6.39408e+09,1.07324,0.858317,93,0.0809377,214,1,1
app_22,115.096,20880.6,7522.1,209.548,51.9862,2.07425e+11,1.03499,0.858317,144,3.98895,135,1,1
app_23,8.5813,21718.5,7259.88,118.872,109.165,1.13299e+11,1.08501,0.858317,66,1.03944,298,1,1
app_24,10.6873,23566.6,6472.69,99.6231,260.047,8.47865e+10,1.21998,0.858317,25,0.324853,784,1,1
app_25,54.577,20856.2,7612.7,180.067,49.3585,1.77457e+11,1.02694,0.858317,155,3.62157,127,1,1
app_26,55.8907,21367.4,7466.47,45.0168,70.9998,4.18291e+10,1.06549,0.858317,104,0.589143,191,1,1
app_27,62.0532,20900.8,7549.2,78.5545,51.7227,7.57728e+10,1.04918,0.858317,148,1.45717,134,1,1
app_28,25.2298,22289.2,6994.9,77.4248,148.324,7.09584e+10,1.1322,0.858317,47,0.476231,417,1,1
app_29,13.4957,24585.8,6022.89,184.325,354.876,1.69112e+11,1.29199,0.858317,17,0.477719,1143,1,1
app_3,1.42117,24483.6,6006.3,160.893,400.125,1.4058e+11,1.30147,0.858317,15,0.351451,1275,1,1
app_30,49.9515,22004.1,7090.41,92.2425,134,8.59848e+10,1.11477,0.858317,53,0.641678,368,1,1
app_31,43.5708,21785.3,7257.81,101.145,108.344,9.65025e+10,1.0878,0.858317,67,0.893542,295,1,1
app_32,15.0091,23758.2,6503.46,68.2696,238.998,5.47838e+10,1.21984,0.858317,27,0.229221,734,1,1
app_33,75.081,21451.1,7385.2,50.3549,84.3024,4.58695e+10,1.07656,0.858317,88,0.546065,225,1,1
app_34,29.5711,22789.8,6531.19,174.31,223.997,1.60459e+11,1.19552,0.858317,29,0.716335,653,1,1
app_35,22.72,20976.2,7493.59,152.324,54.9987,1.49446e+11,1.0467,0.858317,138,2.71719,142,1,1
app_36,79.8691,20840.3,7681.4,41.4519,43.226,3.90747e+10,1.03621,0.858317,178,0.908714,112,1,1
app_37,5.98618,20700.9,7544.2,195.729,52.6256,1.92789e+11,1.03399,0.858317,144,3.63752,135,1,1
app_38,26.1312,22917.7,6662.2,60.8558,214.999,4.85893e+10,1.19211,0.858317,31,0.225997,626,1,1
app_39,48.2949,21161,7488.99,109.617,65.0011,1.0632e+11,1.05328,0.858317,116,1.6357,170,1,1
app_4,5.2825,24188,5881.85,56.6452,490.144,3.36351e+10,1.35238,0.858317,12,0.0685033,1547,1,1
app_40,65.4722,21092.3,7405.4,175.399,62.0067,1.73252e+11,1.0556,0.858317,120,2.79439,162,1,1
app_41,344.142,21767.2,7832.1,78.1042,5.55919,7.77752e+10,1.01139,0.858317,1393,12.9625,15,1,1
app_42,618.777,22376.1,7965.1,2.13751,5.2777,1.98801e+09,1.00413,0.858317,1510,0.397602,14,1,1
app_43,330.055,20756.2,7872.4,44.5405,15.8073,4.34734e+10,1.01063,0.858317,502,2.71709,40,1,1
app_44,17.5338,20610.7,7664.8,176.274,17.111,1.75209e+11,1.02041,0.858317,453,10.3064,44,1,1
app_45,657.332,22601.7,7892.9,57.4564,4.30718,5.71664e+10,1.00628,0.858317,1795,11.4333,12,1,1
app_46,1316.62,21893.4,7895,82.6977,5.95231,8.23207e+10,1.00284,0.858317,1376,13.7201,15,1,1
app_47,937.58,21297.7,7773.9,192.413,6.61928,1.92111e+11,1.00427,0.858317,1155,27.4445,17,1,1
app_48,500.326,21084.3,7799.6,169.91,7.74641,1.69582e+11,1.00387,0.858317,987,21.1978,20,1,1
app_49,258.578,20542.2,7767.4,137.927,9.50993,1.37651e+11,1.01201,0.858317,844,13.7651,24,1,1
app_5,1.89419,26780.9,4430.83,174.475,1478.16,1.12751e+11,1.76073,0.858317,3,0.0762865,5749,1,1
app_50,1213.21,21033.9,7786.4,186.526,5.20421,1.8629e+11,1.00343,0.858317,1523,37.2579,13,1,1
app_51,192.75,20641.9,7786.9,34.9231,18.657,3.41804e+10,1.02288,0.858317,424,1.89891,47,1,1
app_52,213.052,20690.1,7845.6,18.3102,26.4101,1.68334e+10,1.0175,0.858317,296,0.647437,68,1,1
app_53,51.7472,20895,7682.03,117.93,36.2144,1.16027e+11,1.0259,0.858317,211,3.22296,94,1,1
app_54,9.20935,20775.7,7908.9,21.1646,7.44481,2.09388e+10,1.00885,0.858317,1088,2.99125,19,1,1
app_55,1253.49,21997.3,7881.4,92.7236,4.89137,9.25346e+10,1.00327,0.858317,1536,23.1337,13,1,1
app_56,1381.84,22721.7,7941.5,52.1364,4.866,5.19568e+10,1.00082,0.858317,1596,10.3914,13,1,1
app_57,458.368,20568.9,7813.2,139.633,16.5078,1.39036e+11,1.00601,0.858317,470,8.17856,42,1,1
app_58,797.568,21484.4,7895.6,42.7686,7.43464,4.23821e+10,1.00781,0.858317,1093,5.29777,19,1,1
app_59,1099.2,21563.8,7826.3,158.273,5.14476,1.57983e+11,1.00197,0.858317,1556,31.5966,13,1,1
app_6,1.69105,24810.1,5877.05,36.6507,533.011,5.72821e+09,1.3599,0.858317,11,0.010727,1736,1,1
app_60,4.41227,20674,7743.5,171.106,7.90577,1.70683e+11,1.01084,0.858317,961,21.3353,21,1,1
app_7,6.09315,24013.8,5854.05,154.037,486.173,1.32885e+11,1.33624,0.858317,12,0.272864,1518,1,1
app_8,8.51157,25711.3,5403.6,150.804,676.347,1.22229e+11,1.44775,0.858317,8,0.180813,2349,1,1
app_9,2.71194,25245.8,5165.2,73.4351,861.038,2.47051e+10,1.54145,0.858317,6,0.0286935,2972,1,1
