app_id,start_app,end_app,effective_cpu,effective_io,effective_iter,total_bytes,stretch,utilization,Tcomp,Tio,iterations,priority,group_id
app_1,5.51306,20408.2,7528.9,471.1,835.411,1.14037e+11,1.04672,0.947701,9,0.136571,2138,1,1
app_10,14.8316,20033.7,7873.1,126.9,358.444,2.8563e+10,1.01245,0.947701,22,0.0797848,899,1.00001,1.00001
app_11,2.71781,20237.6,7307.36,692.636,487.702,1.80463e+11,1.0684,0.947701,15,0.370456,1238,1.00001,1.00001
app_12,5.34967,19388.4,7550.7,449.3,583.751,1.09621e+11,1.04434,0.947701,13,0.187706,1416,1.00001,1.00001
app_13,2.19896,17293.2,7435.6,564.4,2482.67,1.20327e+11,1.05877,0.947701,3,0.0484797,5376,1.00001,1.00001
app_14,3.26387,19700.2,7364.7,635.3,668.358,1.60302e+11,1.06312,0.947701,11,0.239615,1658,1.00001,1.00001
app_15,3.29255,20460.4,7519.9,480.1,1879.51,9.84109e+10,1.0501,0.947701,4,0.0523741,4821,1.00002,1.00002
app_16,0.516204,15776.1,6959.9,1040.1,3482.38,2.36523e+11,1.11166,0.947701,2,0.0679273,6905,1.00002,1.00002
app_17,4.21023,19632.5,7304.2,695.8,1828.31,1.6516e+11,1.07104,0.947701,4,0.09035,4508,1.00002,1.00002
app_18,5.015,19681.1,7511.35,488.654,834.451,1.16491e+11,1.04879,0.947701,9,0.139542,2061,1.00002,1.00002
app_19,4.52579,19880,7592.1,407.9,446.918,9.7581e+10,1.04036,0.947701,17,0.218302,1114,1.00002,1.00002
app_2,7.12574,19349.7,7675.1,324.9,547.466,7.681e+10,1.032,0.947701,14,0.140164,1327,1,1
app_20,5.97034,18939,7717.1,282.901,704.316,6.54309e+10,1.02794,0.947701,11,0.0928756,1666,1.00002,1.00002
app_21,26.3011,20902,7442.6,557.4,109.574,1.48596e+11,1.05385,0.947701,68,1.36327,287,1.00002,1.00002
app_22,38.0606,20779.8,7564.08,435.919,109.35,1.10208e+11,1.04244,0.947701,69,1.01026,286,1.00002,1.00002
app_23,37.3262,21196.2,7260.8,739.201,81.8358,2.00578e+11,1.07219,0.947701,89,2.46945,218,1.00002,1.00002
app_24,21.0529,20463.4,7711.5,288.5,96.1389,7.11731e+10,1.02792,0.947701,80,0.741387,247,1.00002,1.00002
app_25,44.3418,20359.6,7859.7,140.3,76.0409,3.60603e+10,1.0132,0.947701,102,0.474477,195,1.00003,1.00003
app_26,12.2806,20248.8,7799.7,200.3,61.8922,4.90007e+10,1.01928,0.947701,125,0.790333,158,1.00003,1.00003
app_27,24.5249,21355.3,7360.82,639.18,60.8472,1.8416e+11,1.06031,0.947701,120,3.03528,163,1.00003,1.00003
app_28,91.9586,21122.3,7410,590,51.4306,1.66635e+11,1.05588,0.947701,144,3.26735,136,1.00003,1.00003
app_29,26.3841,20496.3,7730.2,269.8,286.669,6.51639e+10,1.02625,0.947701,27,0.227052,734,1.00003,1.00003
app_3,9.12658,19486.3,7755.4,244.6,648.877,5.59888e+10,1.02415,0.947701,12,0.0862694,1576,1,1
app_30,63.2406,21061.8,7392.8,607.2,104.158,1.60496e+11,1.05914,0.947701,71,1.54323,273,1.00003,1.00003
app_31,3.09711,20367.4,7737.6,262.4,199.182,6.61019e+10,1.02515,0.947701,39,0.33217,506,1.00003,1.00003
app_32,5.671,20328.3,7761.2,238.8,97.401,6.19092e+10,1.02261,0.947701,80,0.631727,246,1.00003,1.00003
app_33,28.0391,20753.3,7624.6,375.4,43.3401,9.47503e+10,1.03636,0.947701,176,2.20349,113,1.00003,1.00003
app_34,21.6193,20256,7756.74,243.259,226.898,6.00704e+10,1.02344,0.947701,34,0.264974,577,1.00003,1.00003
app_35,0.065354,19729.4,7980.6,19.4,182.904,1.94209e+09,1.00219,0.947701,44,0.0106125,448,1.00004,1.00004
app_36,79.3925,21165.4,7246.7,753.3,81.7005,1.84434e+11,1.07655,0.947701,89,2.27697,217,1.00004,1.00004
app_37,69.6258,20121.8,7946.9,53.1,93.2353,1.24539e+10,1.00511,0.947701,85,0.132489,235,1.00004,1.00004
app_38,102.343,20376.4,7880.9,119.1,67.1975,2.8959e+10,1.0114,0.947701,117,0.432224,170,1.00004,1.00004
app_39,106.986,20472,7632.6,367.4,53.5315,9.78737e+10,1.03487,0.947701,144,1.84667,137,1.00004,1.00004
app_4,7.43613,20679.5,7310.5,689.5,562.43,1.75978e+11,1.06859,0.947701,13,0.312572,1461,1,1
app_40,29.8878,20319.5,7642.8,357.2,112.584,9.53647e+10,1.03384,0.947701,68,0.843936,287,1.00004,1.00004
app_41,229.088,21019.8,7791.1,208.9,9.40707,5.76146e+10,1.01928,0.947701,842,5.76146,24,1.00004,1.00004
app_42,1189.7,21837,7773.6,226.4,6.07967,7.31403e+10,1.01953,0.947701,1278,12.1901,16,1.00004,1.00004
app_43,80.2502,21929.1,7459.2,540.8,5.58671,1.66397e+11,1.0491,0.947701,1348,33.2793,15,1.00004,1.00004
app_44,185.014,22303.8,7232.27,767.735,5.48896,1.86856e+11,1.07829,0.947701,1345,32.5647,15,1.00004,1.00004
app_45,134.302,21331.4,7462,538,20.3056,1.43877e+11,1.05182,0.947701,369,7.19387,54,1.00004,1.00004
app_46,910.671,21410.1,7770.2,229.8,8.49157,5.142e+10,1.02281,0.947701,905,5.71334,22,1.00005,1.00005
app_47,565.389,22812.7,7190.81,809.186,4.26265,1.90311e+11,1.08385,0.947701,1698,42.5721,12,1.00005,1.00005
app_48,858.973,22234.3,7767.7,232.3,8.62358,6.20944e+10,1.02174,0.947701,892,6.89938,23,1.00005,1.00005
app_49,137.805,20846.9,7804.7,195.3,8.26467,4.35409e+10,1.01934,0.947701,929,5.44262,22,1.00005,1.00005
app_5,3.51365,21220,7279,721,1041.66,1.79853e+11,1.07255,0.947701,7,0.172603,2776,1.00001,1.00001
app_50,805.641,22382.7,7312.77,687.235,5.4951,1.32864e+11,1.07446,0.947701,1280,23.4991,16,1.00005,1.00005
app_51,483.298,22303.3,7377.4,622.6,7.3908,1.60529e+11,1.0613,0.947701,1008,22.9327,20,1.00005,1.00005
app_52,762.081,21576.7,7551.5,448.5,6.53972,1.20963e+11,1.04269,0.947701,1157,20.1604,17,1.00005,1.00005
app_53,139.802,20506.8,7724.7,275.3,8.15087,8.709e+10,1.02409,0.947701,951,10.8862,21,1.00005,1.00005
app_54,1077.35,23186.4,7648.5,351.5,4.94432,1.13665e+11,1.03064,0.947701,1514,22.733,14,1.00005,1.00005
app_55,365.54,20957.4,7747.3,252.7,7.01948,7.88073e+10,1.02222,0.947701,1112,11.2582,18,1.00005,1.00005
app_56,495.372,20653.8,7820.5,179.5,4.49152,5.23844e+10,1.01615,0.947701,1817,10.4769,11,1.00006,1.00006
app_57,1333.32,24484.6,7620.7,379.3,2.23528,7.80512e+10,1.03913,0.947701,3165,39.0256,7,1.00006,1.00006
app_58,885.975,23103.3,7474,526,6.84523,1.21684e+11,1.05323,0.947701,1090,17.3834,19,1.00006,1.00006
app_59,817.183,22148.4,7872,128,5.97537,3.24799e+10,1.01208,0.947701,1282,5.41331,16,1.00006,1.00006
app_6,1.1576,20013.6,7423.28,576.721,1237.11,1.31573e+11,1.05892,0.947701,6,0.106357,3105,1.00001,1.00001
app_60,534.663,21107.5,7882.4,117.6,7.75389,3.31181e+10,1.01067,0.947701,1014,4.13976,20,1.00006,1.00006
app_7,6.00143,17278.3,7659.1,340.9,1532.7,6.98453e+10,1.03507,0.947701,5,0.0455909,3321,1.00001,1.00001
app_8,6.08977,19690.2,7404.21,595.788,1060.85,1.45334e+11,1.05967,0.947701,7,0.137051,2615,1.00001,1.00001
app_9,2.51541,18600.4,7698.8,301.2,1536.25,5.7367e+10,1.03144,0.947701,5,0.0373483,3579,1.00001,1.00001
