app_id,start_app,end_app,effective_cpu,effective_io,effective_iter,total_bytes,stretch,utilization,Tcomp,Tio,iterations,priority,group_id
app_1,11.533,24089.1,6277.6,27.4969,314.249,1.01662e+10,1.27231,0.849023,20,0.0322737,982,1,1
app_10,6.85164,26028.3,5457.2,118.177,605.31,8.70385e+10,1.44294,0.849023,9,0.143865,2144,1,1
app_11,3.8096,24717.3,5775.22,34.8318,526.383,4.10676e+09,1.38424,0.849023,11,0.00780753,1704,1,1
app_12,10.8746,24777.2,6051.5,83.6052,377.559,6.6613e+10,1.30759,0.849023,16,0.176692,1225,1,1
app_13,0.113695,24898.1,4935.7,65.5575,986.627,9.05242e+09,1.61788,0.849023,5,0.00918096,3373,1,1
app_14,2.48371,25423.4,5329.77,130.389,665.241,9.43012e+10,1.47491,0.849023,8,0.141806,2294,1,1
app_15,1.0223,23800.6,3325.22,317.965,3326.68,1.42242e+11,2.30716,0.849023,1,0.0427666,11148,1,1
app_16,7.89225,24572.2,6091.3,71.3471,357.242,5.29166e+10,1.30204,0.849023,17,0.148226,1153,1,1
app_17,3.61082,26495.2,5362.73,144.322,669.223,1.12597e+11,1.4611,0.849023,8,0.168306,2434,1,1
app_18,1.91993,22785.9,3342.89,282.021,3343.5,8.61038e+10,2.33304,0.849023,1,0.0257564,10341,1,1
app_19,6.35904,24723,5770,108.864,481.091,8.78375e+10,1.36569,0.849023,12,0.182614,1568,1,1
app_2,2.91325,26483.1,4887.6,175.001,977.521,1.18509e+11,1.59805,0.849023,5,0.121299,3626,1,1
app_20,0.430334,23587.8,6175.4,160.915,324.284,1.43754e+11,1.26599,0.849023,19,0.443686,982,1,1
app_21,88.0451,20947.2,7606.1,29.9607,42.5996,2.76709e+10,1.04797,0.849023,180,0.64351,111,1,1
app_22,32.5033,22481.5,6867.8,72.1088,140.567,6.60913e+10,1.15375,0.849023,49,0.472081,399,1,1
app_23,9.75962,21803.2,7138.7,117.294,105.857,1.12126e+11,1.10332,0.849023,67,1.05779,292,1,1
app_24,11.573,21176.8,7426.2,119.734,62.7777,1.16644e+11,1.06061,0.849023,119,1.85149,166,1,1
app_25,41.6661,21289.7,7385.6,137.112,82.6978,1.32298e+11,1.06413,0.849023,89,1.61339,220,1,1
app_26,1.84705,20972.4,7519.9,55.3847,52.2132,5.22236e+10,1.05651,0.849023,143,1.0043,139,1,1
app_27,56.3348,20960.7,7461.5,103.998,70.5669,1.00496e+11,1.05792,0.849023,106,1.41544,185,1,1
app_28,5.58354,21667.3,7283.7,43.2441,89.4705,3.8483e+10,1.09257,0.849023,81,0.427589,245,1,1
app_29,40.2641,22172.2,7085.8,96.1713,107.884,9.0215e+10,1.11482,0.849023,66,0.835324,300,1,1
app_3,0.762143,27931.2,4659.6,186.636,1165.24,1.16997e+11,1.67483,0.849023,4,0.100427,4722,1,1
app_30,36.1339,21503.4,7254.5,137.701,79.7001,1.33911e+11,1.08278,0.849023,91,1.67388,214,1,1
app_31,97.3521,21262.6,7342.1,87.4996,62.7062,8.36919e+10,1.07733,0.849023,117,1.32844,169,1,1
app_32,0.781696,20829.7,7445.3,129.236,45.5189,1.26442e+11,1.05656,0.849023,163,2.80983,121,1,1
app_33,73.595,20702.6,7588.6,147.912,39.8074,1.45828e+11,1.03434,0.849023,190,3.64569,104,1,1
app_34,107.438,21260.9,7423.3,102.5,58.0098,9.91629e+10,1.06348,0.849023,129,1.7097,153,1,1
app_35,80.0792,21611.1,7358.9,95.0097,78.9623,9.05329e+10,1.07391,0.849023,93,1.14599,213,1,1
app_36,133.88,21062.4,7552.6,86.1823,54.8803,8.26891e+10,1.04777,0.849023,137,1.50344,144,1,1
app_37,59.0769,21232.8,7494.3,37.1153,64.0081,3.31995e+10,1.06277,0.849023,116,0.518741,171,1,1
app_38,73.2846,21124.7,7453.8,49.4391,59.0706,4.7011e+10,1.06655,0.849023,127,0.796797,157,1,1
app_39,85.7693,21010.4,7435.7,167.143,55.5826,1.64167e+11,1.05265,0.849023,133,2.93156,147,1,1
app_4,10.8329,23653.4,6411.3,64.4645,278.348,5.31491e+10,1.23754,0.849023,23,0.190498,848,1,1
app_40,90.9149,21581.5,7413.5,97.0285,81.1086,9.31565e+10,1.06572,0.849023,91,1.15008,217,1,1
app_41,541.936,21184.6,7834.2,66.6898,13.1904,6.61295e+10,1.01262,0.849023,593,5.08689,34,1,1
app_42,373.704,21100.6,7740,152.935,12.1371,1.52367e+11,1.01364,0.849023,632,11.7205,32,1,1
app_43,470.129,20803.6,7915.5,48.9591,5.17436,4.87039e+10,1.00449,0.849023,1578,9.74078,13,1,1
app_44,716.106,21569,7936.9,10.5548,9.33862,1.01871e+10,1.00666,0.849023,824,1.1319,25,1,1
app_45,247.161,20765.6,7947.7,34.7075,8.74414,3.43665e+10,1.00225,0.849023,929,4.29581,22,1,1
app_46,647.051,21797.4,7740.78,207.142,5.42554,2.06868e+11,1.00659,0.849023,1483,41.3101,14,1,1
app_47,181.353,20559.6,7575.9,197.039,22.6989,1.95803e+11,1.02938,0.849023,336,8.90016,58,1,1
app_48,724.48,21267.9,7927.6,45.3117,9.16994,4.49227e+10,1.00345,0.849023,883,4.99141,23,1,1
app_49,1021.8,21287.7,7867.6,106.849,7.53754,1.0641e+11,1.00326,0.849023,1045,13.3013,19,1,1
app_5,2.40923,26584.9,4686.72,153.149,1169.95,1.04412e+11,1.66975,0.849023,4,0.0893173,4442,1,1
app_50,568.7,22168.7,7931.2,49.6812,4.75955,4.94645e+10,1.00242,0.849023,1622,9.8929,13,1,1
app_51,1615.89,22022.4,7805.6,160.906,3.55938,1.60665e+11,1.00423,0.849023,2198,40.1661,9,1,1
app_52,771.741,22093.8,7957.1,25.96,5.97665,2.56943e+10,1.00216,0.849023,1304,4.28238,16,1,1
app_53,90.088,21121.8,7556,29.462,49.8497,2.65578e+10,1.05505,0.849023,151,0.531157,132,1,1
app_54,128.682,21914,7732.2,200.455,6.29181,2.00228e+11,1.00852,0.849023,1212,33.3713,17,1,1
app_55,295.361,20695.9,7720.7,192.14,18.7038,1.91282e+11,1.01112,0.849023,410,10.0675,48,1,1
app_56,416.637,21752.5,7771.2,134.448,6.55226,1.34261e+11,1.01196,0.849023,1218,22.3768,17,1,1
app_57,628.02,21299.5,7847.6,38.6942,9.42663,3.83398e+10,1.01446,0.849023,806,4.25998,25,1,1
app_58,629.837,21561.2,7678.7,185.009,11.745,1.84294e+11,1.01742,0.849023,668,15.3578,30,1,1
app_59,339.06,20918.9,7692,154.776,14.3825,1.54123e+11,1.01961,0.849023,523,10.2748,38,1,1
app_6,3.85014,27051.2,5310.2,56.1897,758.23,1.13719e+10,1.50332,0.849023,7,0.0149828,2843,1,1
app_60,977.817,21820.2,7819.5,118.843,6.90415,1.18526e+11,1.00781,0.849023,1126,16.9323,18,1,1
app_7,3.72326,25398.8,4708.57,126.154,1178.36,6.75746e+10,1.67499,0.849023,4,0.0573639,4169,1,1
app_8,0.634111,24479.5,4403.89,190.329,1468.41,1.34054e+11,1.76291,0.849023,3,0.0913174,4976,1,1
app_9,4.40729,24702,5032.6,186.291,837.062,1.50685e+11,1.54342,0.849023,6,0.180029,2810,1,1
