app_id,start_app,end_app,effective_cpu,effective_io,effective_iter,total_bytes,stretch,utilization,Tcomp,Tio,iterations,priority,group_id
app_1,15.4959,25026.1,5957.3,22.1542,350.157,5.13968e+08,1.34277,0.843665,17,0.00146848,1157,1,1
app_10,7.94787,25112.5,5349.46,43.4576,598.412,9.22933e+09,1.4929,0.843665,9,0.0154079,2018,1,1
app_11,1.03194,27756.5,4566.5,112.225,1143.06,5.21132e+10,1.73212,0.843665,4,0.0455933,4635,1,1
app_12,5.2918,24688.1,5672.73,85.0057,435.432,6.24479e+10,1.3949,0.843665,13,0.143229,1425,1,1
app_13,3.28028,24890.6,5276.3,189.694,584.059,1.66464e+11,1.46984,0.843665,9,0.285042,1956,1,1
app_14,21.242,24289.2,6150.2,73.1801,268.807,5.70924e+10,1.28881,0.843665,23,0.213031,850,1,1
app_15,1.35165,29283.1,4276,122.73,1423.32,4.22849e+10,1.85259,0.843665,3,0.0297153,6388,1,1
app_16,8.73948,24620.4,5866.84,47.1641,389.675,3.26634e+10,1.35605,0.843665,15,0.0837523,1267,1,1
app_17,0.96206,25068.7,5964.59,32.6339,352.121,1.39838e+10,1.33811,0.843665,17,0.0396143,1156,1,1
app_18,2.18402,24604.7,5565.8,184.918,429.178,1.67305e+11,1.3954,0.843665,13,0.389987,1401,1,1
app_19,6.6992,26235.6,5241.2,80.8434,653.926,5.59626e+10,1.51024,0.843665,8,0.0855698,2368,1,1
app_2,6.74875,27112,5077.05,159.866,727.83,1.30478e+11,1.53624,0.843665,7,0.179228,2746,1,1
app_20,6.37247,25002,6006.9,38.1729,314.704,2.53546e+10,1.3262,0.843665,19,0.0807472,1042,1,1
app_21,95.702,21209.6,7469.51,81.2692,52.5889,7.89429e+10,1.05982,0.843665,144,1.48949,138,1,1
app_22,12.1822,23004.3,6521.62,173.509,171.925,1.65484e+11,1.19633,0.843665,38,0.962118,507,1,1
app_23,40.2864,22573.9,6804.4,121.343,133.857,1.14968e+11,1.15618,0.843665,50,0.857967,387,1,1
app_24,0.552034,21402.6,7341.26,129.639,64.22,1.26232e+11,1.07131,0.843665,115,1.94203,170,1,1
app_25,8.36742,24216.5,5815.12,149.282,363.286,1.31764e+11,1.34524,0.843665,16,0.361989,1153,1,1
app_26,111.242,20902,7608,32.0606,41.2694,3.02017e+10,1.04737,0.843665,184,0.736627,108,1,1
app_27,14.4582,21718.6,7178.4,80.3347,72.1019,7.66864e+10,1.10267,0.843665,99,1.06509,199,1,1
app_28,118.147,21281.4,7264.2,99.5837,61.4941,9.65936e+10,1.08684,0.843665,118,1.5835,167,1,1
app_29,90.0229,20729.6,7609.9,68.2825,38.4557,6.62683e+10,1.04219,0.843665,201,1.7439,99,1,1
app_3,14.7269,24966.7,5686.29,115.532,406.214,9.26405e+10,1.38434,0.843665,14,0.227618,1351,1,1
app_30,34.4673,21088.2,7431.07,205.474,45.6899,2.03052e+11,1.04793,0.843665,162,4.44148,120,1,1
app_31,34.8966,21220.2,7429.3,104.049,70.3106,1.00031e+11,1.06251,0.843665,105,1.42901,187,1,1
app_32,78.6522,21406.4,7431.6,38.3838,55.2816,3.52981e+10,1.0714,0.843665,135,0.641784,148,1,1
app_33,62.8579,21968.6,7078.64,172.381,99.0119,1.6884e+11,1.10383,0.843665,72,1.69584,272,1,1
app_34,137.797,21054.8,7507.46,81.104,52.2337,7.88846e+10,1.05453,0.843665,143,1.48839,139,1,1
app_35,4.15178,22793.2,6670.9,114.032,161.944,1.0625e+11,1.18044,0.843665,41,0.655865,470,1,1
app_36,54.8645,21320.5,7438.6,162.753,53.6285,1.60274e+11,1.05279,0.843665,138,2.96804,142,1,1
app_37,41.4811,21530.9,7255,182.989,74.0915,1.78795e+11,1.07617,0.843665,97,2.41614,200,1,1
app_38,14.9334,23545.1,6221.33,120.047,213.29,1.07231e+11,1.26411,0.843665,29,0.501081,658,1,1
app_39,53.143,21609,7196.1,122.777,86.3517,1.1925e+11,1.09359,0.843665,83,1.38663,235,1,1
app_4,3.33699,27393.8,4926.92,85.2221,821.636,4.32569e+10,1.6096,0.843665,6,0.0526881,3212,1,1
app_40,8.60365,23906.8,6158.57,197.11,245.8,1.84759e+11,1.26117,0.843665,25,0.751052,760,1,1
app_41,26.7519,23752.7,6392.35,68.0383,206.547,5.98994e+10,1.23988,0.843665,31,0.289369,633,1,1
app_42,1565.34,21592.1,7957.1,21.5146,4.85953,2.12822e+10,1.00271,0.843665,1665,4.25645,12,1,1
app_43,1314.47,22532.9,7968.6,6.12924,3.03676,5.93747e+09,1.00319,0.843665,2591,1.97916,8,1,1
app_44,412.443,21034.5,7952.7,11.6931,5.57585,1.13272e+10,1.00452,0.843665,1430,1.88787,14,1,1
app_45,156.601,21141.5,7829.7,103.552,6.74395,1.03219e+11,1.00846,0.843665,1132,17.2031,18,1,1
app_46,470.284,20830.1,7767.8,205.686,6.76954,2.05261e+11,1.00338,0.843665,1198,29.323,17,1,1
app_47,1078.86,21398.8,7725.1,181.456,6.17032,1.81136e+11,1.01186,0.843665,1242,25.8765,16,1,1
app_48,1185.19,22325.6,7772,126.143,5.2846,1.25939e+11,1.01292,0.843665,1448,25.1877,14,1,1
app_49,711.279,20798.8,7868.9,106.036,4.71609,1.05967e+11,1.00315,0.843665,1684,26.4918,12,1,1
app_5,4.52311,25542.9,4816.3,80.7746,960.028,2.49134e+10,1.65248,0.843665,5,0.0259515,3391,1,1
app_50,765.762,21494.8,7857.3,114.077,5.3561,1.13861e+11,1.00362,0.843665,1450,22.7722,14,1,1
app_51,1411.28,22599.9,7907.7,38.9479,5.67754,3.87563e+10,1.00674,0.843665,1414,7.75126,15,1,1
app_52,177.827,20374.6,7605.3,215.737,18.8752,2.1477e+11,1.02301,0.843665,410,11.3037,48,1,1
app_53,197.072,21951.5,7780.8,145.932,4.77896,1.45559e+11,1.00929,0.843665,1628,29.1118,13,1,1
app_54,273.058,20687.2,7757.4,231.186,9.4818,2.30903e+11,1.00146,0.843665,819,23.0903,24,1,1
app_55,714.419,22522.8,7818.3,178.473,4.40027,1.78282e+11,1.00043,0.843665,1765,35.6563,12,1,1
app_56,375.38,21469,7814,84.9165,5.47237,8.47049e+10,1.01282,0.843665,1355,16.941,15,1,1
app_57,40.5665,20343.8,7782.5,54.2636,15.4896,5.34944e+10,1.02093,0.843665,513,3.56629,39,1,1
app_58,389.966,21420,7697.5,132.444,12.1142,1.31949e+11,1.02178,0.843665,633,10.9958,32,1,1
app_59,64.9507,21074.4,7588.6,17.6553,42.1023,1.57938e+10,1.05202,0.843665,180,0.376043,111,1,1
app_6,9.64446,24678.5,5782.44,39.9552,412.999,1.93376e+10,1.37889,0.843665,14,0.0468222,1348,1,1
app_60,1145.59,21841.3,7787.7,146.705,6.60661,1.46281e+11,1.00832,0.843665,1224,20.8972,17,1,1
app_7,14.9571,25207.7,5872.02,105.64,346.222,8.83214e+10,1.34221,0.843665,17,0.254529,1158,1,1
app_8,10.7966,24600.1,5900.42,55.8349,346.323,3.51705e+10,1.3478,0.843665,17,0.101356,1122,1,1
app_9,5.6858,26363.8,4941.7,84.6987,819.953,4.23443e+10,1.60512,0.843665,6,0.0516394,3036,1,1
