app_id,start_app,end_app,effective_cpu,effective_io,effective_iter,total_bytes,stretch,utilization,Tcomp,Tio,iterations,priority,group_id
app_1,14.161,20779.7,7400.7,599.3,527.928,1.63892e+11,1.05756,0.952513,14,0.310401,1377,1,1
app_10,11.6219,20228.6,7669.7,330.3,478.2,8.40484e+10,1.03176,0.952513,16,0.175833,1210,1.00001,1.00001
app_11,8.95129,20086.3,7351.9,648.1,488.071,1.78228e+11,1.0624,0.952513,15,0.365222,1228,1.00001,1.00001
app_12,3.61028,19151.1,7682.4,317.6,698.759,7.67275e+10,1.03104,0.952513,11,0.109768,1673,1.00001,1.00001
app_13,7.57117,21245.8,7289,711,384.314,1.95319e+11,1.0689,0.952513,19,0.508644,1023,1.00001,1.00001
app_14,4.36071,19773.4,7224.1,775.9,1444.7,2.03328e+11,1.07709,0.952513,5,0.140711,3580,1.00001,1.00001
app_15,7.64266,20949,7275.2,724.8,563.416,1.97998e+11,1.07049,0.952513,13,0.351061,1473,1.00002,1.00002
app_16,7.94214,19481.3,7937.9,62.1,609.71,5.29066e+09,1.00715,0.952513,13,0.00867321,1486,1.00002,1.00002
app_17,4.76334,20709,7603,397,690.76,1.02269e+11,1.03825,0.952513,11,0.148001,1785,1.00002,1.00002
app_18,4.0414,19507.5,7839.2,160.8,652.148,3.34682e+10,1.01617,0.952513,12,0.0513316,1592,1.00002,1.00002
app_19,8.22049,20820.9,7540,460,685.015,1.18221e+11,1.04463,0.952513,11,0.172585,1788,1.00002,1.00002
app_2,3.37116,20911.4,7267.7,732.3,382.161,2.05585e+11,1.07048,0.952513,19,0.536776,1001,1,1
app_20,4.00852,19297.2,7535.9,464.1,1510.34,1.10461e+11,1.04625,0.952513,5,0.0731531,3635,1.00002,1.00002
app_21,35.006,21068.3,7453.2,546.8,36.4747,1.48654e+11,1.05237,0.952513,204,4.12929,96,1.00002,1.00002
app_22,103.575,21252.7,7383.2,616.8,42.7803,1.90363e+11,1.05631,0.952513,173,4.42704,113,1.00002,1.00002
app_23,167.221,20040.6,7976.9,23.1,43.3683,5.07349e+09,1.00226,0.952513,186,0.117988,107,1.00002,1.00002
app_24,15.4468,20238.4,7453.5,546.5,437.987,1.48872e+11,1.0523,0.952513,17,0.33989,1111,1.00002,1.00002
app_25,38.0632,20682.7,7726.3,273.7,87.9146,7.33144e+10,1.02569,0.952513,87,0.833118,228,1.00003,1.00003
app_26,91.6873,20332.6,7728.5,271.5,69.7666,7.55596e+10,1.02511,0.952513,111,1.07942,177,1.00003,1.00003
app_27,65.7571,20760.8,7599.4,400.6,63.636,1.19018e+11,1.03648,0.952513,120,1.88918,164,1.00003,1.00003
app_28,165.435,20687.5,7824.6,175.4,37.2337,4.87052e+10,1.01609,0.952513,207,1.31636,96,1.00003,1.00003
app_29,78.7826,20988.2,7380.7,619.3,72.1781,1.66966e+11,1.05993,0.952513,103,2.28721,189,1.00003,1.00003
app_3,3.50534,20948.1,7252.7,747.3,1208.35,1.94858e+11,1.07418,0.952513,6,0.161306,3170,1,1
app_30,6.78219,20360.4,7736,264,775.152,6.15133e+10,1.02597,0.952513,10,0.079372,1971,1.00003,1.00003
app_31,101.305,21480.3,7288.4,711.6,50.0063,2.04145e+11,1.06773,0.952513,144,4.08291,135,1.00003,1.00003
app_32,136.985,20440.9,7836.6,163.4,49.3044,4.25775e+10,1.01533,0.952513,159,0.868928,125,1.00003,1.00003
app_33,85.3682,20461.1,7779.2,220.8,67.4899,5.88733e+10,1.02066,0.952513,116,0.878706,171,1.00003,1.00003
app_34,181.004,20660.9,7772.4,227.6,30.8021,5.89711e+10,1.02153,0.952513,251,1.90229,79,1.00003,1.00003
app_35,20.1066,20005.1,7913.5,86.5,125.164,2.2484e+10,1.00807,0.952513,63,0.179872,314,1.00004,1.00004
app_36,11.8385,19956,7968.2,31.8,94.8147,7.26384e+09,1.00308,0.952513,84,0.0764615,237,1.00004,1.00004
app_37,9.16879,20858.8,7444.8,555.2,115.184,1.60351e+11,1.05192,0.952513,64,1.39436,302,1.00004,1.00004
app_38,96.7873,21207.4,7318.5,681.5,72.8659,2.00796e+11,1.06393,0.952513,101,2.75064,192,1.00004,1.00004
app_39,53.3118,20711.2,7476.9,523.1,118.2,1.37711e+11,1.05061,0.952513,63,1.16704,308,1.00004,1.00004
app_4,0.498424,20087,7487.3,512.7,747.777,1.32613e+11,1.04988,0.952513,10,0.17729,1882,1,1
app_40,33.5056,20791.7,7535.3,464.7,68.5889,1.289e+11,1.04381,0.952513,110,1.86812,178,1.00004,1.00004
app_41,580.605,21055.9,7743.3,256.7,9.36993,5.73763e+10,1.02555,0.952513,845,6.37515,24,1.00004,1.00004
app_42,333.912,21212.9,7783.8,216.2,5.57091,3.79187e+10,1.02279,0.952513,1337,7.58375,15,1.00004,1.00004
app_43,571.708,22967,7573.1,426.9,3.79972,1.1805e+11,1.04016,0.952513,1943,29.5126,11,1.00004,1.00004
app_44,125.514,21018.2,7586,414,28.0205,1.32604e+11,1.03646,0.952513,270,4.73585,73,1.00004,1.00004
app_45,188.414,21053.6,7752,248,7.74181,9.17098e+10,1.01993,0.952513,1002,11.4637,20,1.00004,1.00004
app_46,1734.56,23454,7577.4,422.6,3.22009,1.36115e+11,1.03714,0.952513,2266,45.3715,9,1.00005,1.00005
app_47,805.397,22214.7,7886.8,113.2,7.55712,2.9965e+10,1.01051,0.952513,987,4.28072,21,1.00005,1.00005
app_48,319.771,20712.2,7911.1,88.9,16.2037,2.83672e+10,1.00762,0.952513,482,1.66866,42,1.00005,1.00005
app_49,269.544,21817.4,7587.2,412.8,6.29797,1.11076e+11,1.03919,0.952513,1206,18.5126,17,1.00005,1.00005
app_5,18.5889,20750.4,7545.13,454.875,397.495,1.19841e+11,1.04371,0.952513,19,0.301725,1030,1.00001,1.00001
app_50,1293.51,22925.7,7773.6,226.4,5.57631,7.4579e+10,1.01934,0.952513,1370,14.9158,15,1.00005,1.00005
app_51,1057.47,22731.6,7671.1,328.9,2.47062,8.85898e+10,1.03097,0.952513,2901,29.5299,7,1.00005,1.00005
app_52,26.4754,20550.9,7975.4,24.6,10.8733,6.27713e+09,1.0023,0.952513,728,0.627713,28,1.00005,1.00005
app_53,273.733,21102.9,7593.7,406.3,10.3812,1.04328e+11,1.03923,0.952513,741,10.4328,27,1.00005,1.00005
app_54,223.53,20117.9,7991.5,8.5,16.0706,1.47687e+09,1.00088,0.952513,501,0.0923044,40,1.00005,1.00005
app_55,1681.99,24614,7477,523,4.21165,1.45797e+11,1.04948,0.952513,1750,36.4493,12,1.00005,1.00005
app_56,786.202,21303.7,7859.4,140.6,7.39878,3.98693e+10,1.01275,0.952513,1068,4.98366,19,1.00006,1.00006
app_57,484.964,21545.1,7825.9,174.1,7.82897,6.06169e+10,1.01439,0.952513,966,7.57711,21,1.00006,1.00006
app_58,704.467,22066.3,7617.4,382.6,9.79237,1.02394e+11,1.0363,0.952513,776,10.2394,26,1.00006,1.00006
app_59,9.84162,20587.4,7782,218,12.1132,6.22811e+10,1.01985,0.952513,644,5.19009,31,1.00006,1.00006
app_6,10.3146,20730.6,7538.2,461.8,472.682,1.24418e+11,1.04403,0.952513,16,0.263039,1222,1.00001,1.00001
app_60,283.651,22775.8,7413.2,586.8,6.44288,1.44665e+11,1.0585,0.952513,1152,24.1109,18,1.00006,1.00006
app_7,0.972333,20240.4,7683.4,316.6,701.694,7.53809e+10,1.03109,0.952513,11,0.10738,1771,1.00001,1.00001
app_8,3.88156,19220.8,7576.3,423.7,633.518,1.09304e+11,1.04091,0.952513,12,0.172676,1519,1.00001,1.00001
app_9,0.309601,20870.6,7529.3,470.7,2508.88,9.55374e+10,1.0492,0.952513,3,0.0380779,6545,1.00001,1.00001
