app_id,start_app,end_app,effective_cpu,effective_io,effective_iter,total_bytes,stretch,utilization,Tcomp,Tio,iterations,priority,group_id
app_1,4.7898,19322.5,7834.3,90.6421,978.691,2.89077e+10,1.0174,0.959628,8,0.0295277,2362,0.1,1
app_10,7.12362,20233.7,7750.9,197.044,773.351,1.42195e+11,1.01354,0.959628,10,0.183952,1962,0.1,1
app_11,1.3093,18547.3,7821.2,93.5925,1118.11,1.07538e+10,1.02146,0.959628,7,0.00961022,2591,0.1,1
app_12,6.17467,20017.4,7818.9,134.744,648.727,9.49043e+10,1.01089,0.959628,12,0.146232,1625,0.1,1
app_13,9.36945,19597,7843.5,130.315,326.57,1.03656e+11,1.00665,0.959628,24,0.316991,801,0.1,1
app_14,12.8404,19723.6,7766.8,204.636,487.966,1.64489e+11,1.00866,0.959628,16,0.337067,1201,0.1,1
app_15,1.11922,14241.3,7272.6,727.4,7274.18,3.33252e+11,1.05182,0.959628,1,0.0458141,12948,1,0
app_16,6.78627,19974.4,7788.5,171.704,557.802,1.3021e+11,1.01027,0.959628,14,0.233352,1389,0.1,1
app_17,5.04014,19097,7898.7,56.0945,608.168,1.68975e+10,1.01066,0.959628,13,0.0277463,1450,0.1,1
app_18,2.65169,17237.3,7729.7,154.464,1544.75,6.5056e+10,1.02633,0.959628,5,0.0421347,3333,0.1,1
app_19,2.3024,18632.8,7809.4,109.261,1115.91,4.18937e+10,1.01894,0.959628,7,0.0375392,2592,0.1,1
app_2,7.60969,20107.4,7915.4,48.2169,495.291,1.93876e+10,1.00822,0.959628,16,0.0391668,1245,0.1,1
app_20,3.49699,19056,7823.1,95.8616,1117.94,1.49182e+10,1.02067,0.959628,7,0.0133437,2664,0.1,1
app_21,61.7284,20467,7575.1,314.307,90.6036,2.06017e+11,1.02813,0.959628,83,2.26392,232,0.01,2
app_22,59.9676,20457.2,7661.9,197.05,98.2053,1.24664e+11,1.02741,0.959628,77,1.27208,254,0.01,2
app_23,70.8758,20109.7,7848.1,73.0833,72.326,4.41308e+10,1.01366,0.959628,110,0.612927,180,0.01,2
app_24,44.1941,20166.8,7843.2,85.7089,63.2022,5.60345e+10,1.01276,0.959628,124,0.889436,160,0.01,2
app_25,5.37247,20477.7,7843.6,70.9884,62.7329,4.29177e+10,1.01439,0.959628,124,0.681233,161,0.01,2
app_26,4.74394,20490,7821.09,96.3665,75.9296,6.28701e+10,1.01472,0.959628,102,0.838268,195,0.01,2
app_27,40.5047,20260.3,7830.2,112.283,55.7122,7.34395e+10,1.01219,0.959628,140,1.33526,142,0.01,2
app_28,31.7194,20332.4,7577.4,316.688,104.508,2.03718e+11,1.02813,0.959628,72,1.95883,267,0.01,2
app_29,30.3196,20322,7774.6,147.215,57.4385,9.57518e+10,1.01647,0.959628,135,1.65089,146,0.01,2
app_3,0.0456931,18406.6,7826.5,109.398,869.882,7.70093e+10,1.01221,0.959628,9,0.0885164,2001,0.1,1
app_30,7.5756,20685.5,7638.1,143.985,180.704,8.38859e+10,1.036,0.959628,42,0.463458,469,0.01,2
app_31,24.2353,20360,7783.9,68.4934,108.005,4.0789e+10,1.0224,0.959628,72,0.377676,275,0.01,2
app_32,63.3759,20382.3,7869,81.3935,42.5094,5.1128e+10,1.01008,0.959628,183,1.18902,109,0.01,2
app_33,2.60782,17661.8,7532,292.11,2508.53,1.86284e+11,1.0365,0.959628,3,0.074276,5540,0.1,1
app_34,74.4032,20293.8,7813.5,98.9818,83.3482,6.09322e+10,1.01595,0.959628,94,0.734123,210,0.01,2
app_35,90.826,20574.3,7666.3,237.279,85.0444,1.55767e+11,1.02275,0.959628,90,1.83255,217,0.01,2
app_36,112.757,20513.1,7665,307.644,33.4475,2.03551e+11,1.01671,0.959628,227,6.16822,86,0.01,2
app_37,108.646,20583.5,7546.9,373.403,61.7198,2.47155e+11,1.02642,0.959628,121,3.98637,160,0.01,2
app_38,120.637,20530.3,7803,131.41,57.0035,8.43957e+10,1.01428,0.959628,138,1.48063,144,0.01,2
app_39,28.4959,20137.6,7876.8,58.3716,59.4544,3.57112e+10,1.01106,0.959628,134,0.595186,148,0.01,2
app_4,6.35861,18963.4,7598.7,326.634,1264.88,2.45845e+11,1.01982,0.959628,6,0.194344,3004,0.1,1
app_40,14.6451,20324.8,7594.3,223.565,146.125,1.45498e+11,1.03362,0.959628,52,0.996564,373,0.01,2
app_41,989.042,22863.8,7487.7,461.028,5.01506,2.04967e+11,1.03995,0.959628,1426,40.9934,14,0.001,3
app_42,735.075,21517.8,7497.7,152.437,7.21911,6.6158e+10,1.05766,0.959628,1060,8.26975,19,0.001,3
app_43,1336.15,22345,7549.5,355.187,4.17332,1.45938e+11,1.03958,0.959628,1797,36.4845,11,0.001,3
app_44,254.043,20565.4,7583.2,297.17,4.54558,1.09453e+11,1.03995,0.959628,1652,21.8907,12,0.001,3
app_45,128.2,21485.6,7333,350.933,7.62001,1.34702e+11,1.07128,0.959628,957,16.8378,21,0.001,3
app_46,148.863,20287.7,7880.3,82.6535,29.5916,5.34137e+10,1.00836,0.959628,266,1.78046,75,0.01,2
app_47,324.997,22064.3,7247.3,164.644,10.3286,6.09238e+10,1.09466,0.959628,707,5.53853,29,0.001,3
app_48,1619.28,22425.2,7750.7,201.69,4.17751,9.54762e+10,1.0196,0.959628,1888,23.869,11,0.001,3
app_49,1111.16,22058.7,7612.6,348.706,2.98096,1.41396e+11,1.03173,0.959628,2604,47.132,8,0.001,3
app_5,2.94005,19900.2,7611.8,321.007,1084.72,2.35478e+11,1.01946,0.959628,7,0.217031,2706,0.1,1
app_50,1087.67,22522.2,7555,346.625,5.96574,1.50034e+11,1.03828,0.959628,1291,25.0057,16,0.001,3
app_51,539.233,21374.6,7797.2,69.8494,5.46785,2.77335e+10,1.02237,0.959628,1438,4.62225,14,0.001,3
app_52,58.653,20447,7695.94,257.506,49.0348,1.72433e+11,1.01673,0.959628,158,3.45516,124,0.01,2
app_53,43.0472,21106.7,7519.9,73.398,7.36067,3.32062e+10,1.05917,0.959628,999,4.15077,20,0.001,3
app_54,48.2712,22198.9,6867,418.484,17.7477,1.82858e+11,1.13477,0.959628,385,10.1588,51,0.001,3
app_55,869.93,22366.5,7169,395.623,7.2656,1.72028e+11,1.08977,0.959628,1007,21.5034,20,0.001,3
app_56,952.615,22951.6,7491.9,354.791,6.11286,1.35593e+11,1.04884,0.959628,1230,19.3704,17,0.001,3
app_57,71.7794,20394.7,7860.9,37.0339,91.9914,2.05067e+10,1.01505,0.959628,86,0.222899,232,0.01,2
app_58,2.17699,19008.8,7739.9,227.033,483.769,1.88544e+11,1.00903,0.959628,16,0.389554,1152,0.1,1
app_59,1124.75,22822.7,7648.6,257.488,4.42597,1.18274e+11,1.03002,0.959628,1781,23.6549,12,0.001,3
app_6,1.19154,19476.4,7895.8,55.2046,605.96,1.53001e+10,1.01124,0.959628,13,0.0252477,1480,0.1,1
app_60,278.511,21612.9,7540.9,206.647,8.30876,8.10708e+10,1.0496,0.959628,873,10.1338,23,0.001,3
app_7,3.82974,16132.7,7589.81,224.109,2532,5.02884e+10,1.04711,0.959628,3,0.0198621,5098,0.1,1
app_8,4.21528,18963.2,7804.8,146.045,706.31,1.01633e+11,1.01183,0.959628,11,0.143957,1678,0.1,1
app_9,8.36118,19495,7828.7,141.524,413.723,1.12425e+11,1.00741,0.959628,19,0.271558,1005,0.1,1
