app_id,start_app,end_app,effective_cpu,effective_io,effective_iter,total_bytes,stretch,utilization,Tcomp,Tio,iterations,priority,group_id
app_1,2.61179,18229.4,7750.2,195.503,966.242,1.33009e+11,1.01482,0.957355,8,0.13769,2204,0.1,1
app_10,5.56156,19623.3,7799.6,135.367,1114.43,9.02461e+10,1.01396,0.957355,7,0.0809382,2739,0.1,1
app_11,3.97078,19493,7890.4,72.1089,608.733,4.55536e+10,1.00807,0.957355,13,0.0749237,1482,0.1,1
app_12,10.7025,19713.6,7916.6,51.2904,468.175,2.77848e+10,1.007,0.957355,17,0.0593691,1151,0.1,1
app_13,3.25672,20007.3,7803,168.103,518.753,1.30179e+11,1.00842,0.957355,15,0.250827,1300,0.1,1
app_14,0.89992,10946.5,4488.58,446.619,4483.6,1.79096e+11,1.71392,0.957355,1,0.0399412,9931,1,0
app_15,4.54487,17362,7673.9,221.625,1918.86,1.4178e+11,1.02358,0.957355,4,0.0738824,4158,0.1,1
app_16,1.40248,19442.3,7712.6,226.54,1103.38,1.58913e+11,1.01632,0.957355,7,0.144074,2678,0.1,1
app_17,11.097,18950,7820.8,137.988,711.592,8.45045e+10,1.01198,0.957355,11,0.118853,1683,0.1,1
app_18,3.09309,19801.7,7910,57.5046,464.505,4.12972e+10,1.00613,0.957355,17,0.0890025,1151,0.1,1
app_19,8.31256,19606.7,7717.5,222.567,964.014,1.71894e+11,1.01402,0.957355,8,0.178313,2366,0.1,1
app_2,10.5391,19530.1,7893.2,70.8177,563.377,4.88166e+10,1.0073,0.957355,14,0.0865543,1374,0.1,1
app_20,6.83684,19028,7762.3,200.928,645.836,1.55177e+11,1.01042,0.957355,12,0.240585,1539,0.1,1
app_21,51.9916,20114.8,7808.8,131.232,142.602,8.21246e+10,1.01382,0.957355,55,0.578342,357,0.01,2
app_22,11.1037,19269.1,7817.8,153.641,433.214,1.23525e+11,1.00739,0.957355,18,0.285278,1045,0.1,1
app_23,36.2,20347.8,7772.6,199.255,72.0397,1.28657e+11,1.0125,0.957355,107,1.7869,184,0.01,2
app_24,3.73943,20084.1,7796.4,163.186,95.0714,1.05346e+11,1.01243,0.957355,81,1.10891,242,0.01,2
app_25,124.139,20334.8,7795.3,162.958,59.7104,1.07979e+11,1.01224,0.957355,129,1.79965,153,0.01,2
app_26,142.527,20238.4,7922.4,59.4608,48.0067,3.75772e+10,1.00503,0.957355,163,0.782859,122,0.01,2
app_27,25.2881,20182.6,7930,38.8416,44.4924,2.39927e+10,1.00578,0.957355,178,0.545288,112,0.01,2
app_28,3.89081,19887,7819.6,122.285,160.418,7.32653e+10,1.01357,0.957355,49,0.457908,397,0.01,2
app_29,3.96205,19508.4,7880.1,80.9406,656.564,5.41836e+10,1.00828,0.957355,12,0.0824712,1601,0.1,1
app_3,3.72654,19513.9,7753.1,191.242,966.731,1.26886e+11,1.01523,0.957355,8,0.131216,2361,0.1,1
app_30,127.53,20234.7,7895,96.0078,50.3061,6.09371e+10,1.00554,0.957355,157,1.21874,127,0.01,2
app_31,9.09433,20232.9,7754.3,162.487,179.865,1.03809e+11,1.01806,0.957355,43,0.576718,456,0.01,2
app_32,29.9837,19566.9,7789.7,197.101,268.864,1.69564e+11,1.00512,0.957355,29,0.630351,657,0.1,1
app_33,27.9992,20015.6,7821,147.722,88.6796,9.63588e+10,1.01044,0.957355,88,1.08268,223,0.01,2
app_34,138.089,20195.3,7832,144.79,48.025,9.46093e+10,1.00926,0.957355,165,1.97103,120,0.01,2
app_35,24.2344,20345,7699.8,240.294,162.749,1.53198e+11,1.01872,0.957355,47,0.939868,416,0.01,2
app_36,106.041,20423,7803.6,175.186,68.795,1.13594e+11,1.01046,0.957355,113,1.6705,175,0.01,2
app_37,25.2621,20125.8,7854.7,97.8026,117.014,5.75347e+10,1.01109,0.957355,67,0.491749,295,0.01,2
app_38,63.592,20288.9,7816.7,147.198,82.4303,9.80454e+10,1.01077,0.957355,95,1.19568,208,0.01,2
app_39,101.47,20327.8,7840.9,122.66,63.6088,7.71875e+10,1.01034,0.957355,125,1.20605,159,0.01,2
app_4,4.95703,17219.4,7752.6,159.603,1550.67,7.7677e+10,1.02168,0.957355,5,0.0500819,3333,0.1,1
app_40,81.1879,20467.9,7794.4,188.131,61.7594,1.22094e+11,1.01055,0.957355,125,2.00154,158,0.01,2
app_41,958.071,23177.6,7618.2,340.568,4.6692,1.70711e+11,1.0271,0.957355,1625,34.1423,13,0.001,3
app_42,732.95,21982.6,7690.44,203.771,7.57024,9.67408e+10,1.02733,0.957355,1039,12.6996,20,0.001,3
app_43,270.349,21628.8,7463.8,181.716,16.9236,9.48666e+10,1.05839,0.957355,443,5.58039,45,0.001,3
app_44,297.058,21782.1,7338.3,368.6,18.4766,1.81885e+11,1.0638,0.957355,396,10.1047,50,0.001,3
app_45,428.352,20924.3,7571.5,281.501,6.61178,1.39995e+11,1.03741,0.957355,1163,19.9993,17,0.001,3
app_46,148.163,21138.1,7418.7,338.981,8.27652,1.69443e+11,1.05428,0.957355,912,21.1804,22,0.001,3
app_47,818.084,21765.3,7536.32,254.674,7.21728,1.24521e+11,1.04427,0.957355,1045,16.9975,19,0.001,3
app_48,169.704,21796.7,7474.1,297.744,11.4566,1.59712e+11,1.04797,0.957355,642,14.5193,31,0.001,3
app_49,565.53,21496.8,7751.3,121.36,7.13804,6.34641e+10,1.0237,0.957355,1075,7.93301,19,0.001,3
app_5,0.744024,18300.2,7870.5,74.7358,873.553,3.53848e+09,1.016,0.957355,9,0.00405324,2001,0.1,1
app_50,290.259,21452.9,7278.4,198.275,19.3114,9.66923e+10,1.08473,0.957355,381,5.08907,52,0.001,3
app_51,86.7101,21205.3,7382.2,378.507,10.2407,1.8382e+11,1.05736,0.957355,706,16.7109,28,0.001,3
app_52,100.782,21188.5,7364.9,307.551,11.9711,1.6083e+11,1.06302,0.957355,620,13.4025,32,0.001,3
app_53,59.7578,21611.1,7350.1,251.452,21.0769,1.19405e+11,1.07102,0.957355,344,5.68593,58,0.001,3
app_54,346.625,21855.1,7385.5,207.248,20.1054,1.02537e+11,1.06837,0.957355,364,5.12687,55,0.001,3
app_55,599.542,21651,7847.8,78.7832,5.41431,4.0043e+10,1.01422,0.957355,1518,6.67383,14,0.001,3
app_56,110.011,20581.5,7597,315.489,5.92135,1.67135e+11,1.03038,0.957355,1312,27.8558,15,0.001,3
app_57,541.768,21712.8,7717.5,135.951,6.5078,6.38735e+10,1.0281,0.957355,1132,9.12478,18,0.001,3
app_58,71.7462,20311.4,7828.6,156.057,35.1193,9.99681e+10,1.00901,0.957355,220,2.85623,90,0.01,2
app_59,355.438,21740.8,7262.7,392.79,14.3886,1.95132e+11,1.0727,0.957355,504,13.0088,39,0.001,3
app_6,8.74121,19269.6,7862.2,84.4895,872.589,3.19068e+10,1.01341,0.957355,9,0.0365903,2102,0.1,1
app_60,348.966,21969.9,7498.6,399.367,7.64288,1.962e+11,1.03966,0.957355,973,24.525,21,0.001,3
app_7,1.42858,20002.8,7878,69.911,788.301,1.41578e+10,1.01366,0.957355,10,0.0179667,1971,0.1,1
app_8,2.34825,15750.5,7606.8,381.071,3803.13,2.00456e+11,1.02469,0.957355,2,0.05271,7480,1,0
app_9,9.77817,19128.4,7847.6,113.046,560.225,7.65922e+10,1.00957,0.957355,14,0.136772,1342,0.1,1
