app_id,start_app,end_app,effective_cpu,effective_io,effective_iter,total_bytes,stretch,utilization,Tcomp,Tio,iterations,priority,group_id
app_1,2.6589,18624.2,7472,528,1871.84,1.14791e+11,1.05446,0.948789,4,0.0613526,4369,1,1
app_10,4.25844,19631.8,7645.8,354.2,636.678,8.50775e+10,1.03481,0.948789,12,0.13356,1568,1.00001,1.00001
app_11,3.86819,19740.7,7443.99,556.009,617.214,1.39624e+11,1.05491,0.948789,12,0.226215,1533,1.00001,1.00001
app_12,11.3388,20545.5,7532.2,467.8,683.427,1.14731e+11,1.04617,0.948789,11,0.167981,1760,1.00001,1.00001
app_13,1.43735,18837.7,7782.5,217.5,974.886,4.50064e+10,1.02204,0.948789,8,0.0461604,2296,1.00001,1.00001
app_14,9.92104,19999.7,7653.81,346.185,348.965,8.276e+10,1.03405,0.948789,22,0.237605,873,1.00001,1.00001
app_15,17.8053,19965.4,7719.9,280.1,388.411,6.90875e+10,1.02709,0.948789,20,0.177603,966,1.00002,1.00002
app_16,0.945073,19678.8,7347.3,652.7,665.108,1.66754e+11,1.06467,0.948789,11,0.250758,1648,1.00002,1.00002
app_17,4.66765,19119.2,7631.5,368.5,693.967,8.86777e+10,1.03625,0.948789,11,0.127778,1663,1.00002,1.00002
app_18,1.49397,19711.4,7297.7,702.3,1821.9,1.69706e+11,1.07132,0.948789,4,0.0931427,4517,1.00002,1.00002
app_19,0.106145,16923.8,7426.4,573.6,3711.96,9.89028e+10,1.06308,0.948789,2,0.0266441,7876,1.00002,1.00002
app_2,6.74767,21252,7252.1,747.9,659.312,1.9719e+11,1.07393,0.948789,11,0.298773,1764,1,1
app_20,2.07737,19355.5,7846.6,153.4,1307.15,1.96299e+10,1.01701,0.948789,6,0.015019,3167,1.00002,1.00002
app_21,71.8062,20691,7476.4,523.6,76.0208,1.42259e+11,1.05005,0.948789,99,1.87182,197,1.00002,1.00002
app_22,17.4738,20932.5,7406.9,593.1,74.8841,1.58097e+11,1.0575,0.948789,99,2.10796,197,1.00002,1.00002
app_23,54.5915,21008.4,7338.7,661.3,99.7916,1.79141e+11,1.06414,0.948789,73,1.79141,264,1.00002,1.00002
app_24,2.24521,20641.8,7505.6,494.4,188.869,1.20952e+11,1.04897,0.948789,40,0.639955,488,1.00002,1.00002
app_25,165.767,20217.6,7912.7,87.3,46.6233,2.22181e+10,1.0082,0.948789,173,0.472726,116,1.00003,1.00003
app_26,84.3285,20952.4,7449.7,550.3,63.4779,1.29104e+11,1.05558,0.948789,117,2.04928,168,1.00003,1.00003
app_27,51.385,19987.7,7987.9,12.1,62.7839,2.81445e+09,1.00116,0.948789,126,0.0453943,158,1.00003,1.00003
app_28,42.1828,20749.2,7554.3,445.7,76.326,1.25481e+11,1.0417,0.948789,99,1.65107,199,1.00003,1.00003
app_29,4.46264,20680.7,7603.7,396.3,361.259,9.92556e+10,1.03856,0.948789,21,0.274946,937,1.00003,1.00003
app_3,7.09509,20100.8,7251.9,748.1,906.052,1.85475e+11,1.07565,0.948789,8,0.204719,2290,1,1
app_30,11.4424,20226.7,7951.8,48.2,46.9617,1.27534e+10,1.00445,0.948789,169,0.27135,118,1.00003,1.00003
app_31,85.625,20384.8,7730.8,269.2,87.4592,7.27479e+10,1.02517,0.948789,89,0.836183,221,1.00003,1.00003
app_32,8.08092,20748.2,7429.1,570.9,309.573,1.51294e+11,1.05535,0.948789,24,0.488044,807,1.00003,1.00003
app_33,24.8746,20933.9,7377.7,622.3,102.186,1.65372e+11,1.06058,0.948789,72,1.62129,269,1.00003,1.00003
app_34,24.4464,20865.6,7363.7,636.3,101.885,1.59544e+11,1.06337,0.948789,72,1.56415,269,1.00003,1.00003
app_35,45.9097,20461.6,7662.1,337.9,45.3345,9.17142e+10,1.03175,0.948789,171,2.03809,116,1.00004,1.00004
app_36,39.9396,20442.8,7784.8,215.2,81.9246,5.80421e+10,1.02004,0.948789,95,0.70783,208,1.00004,1.00004
app_37,47.4329,20529.5,7756.4,243.6,52.5271,6.41753e+10,1.02294,0.948789,148,1.21086,134,1.00004,1.00004
app_38,162.155,20239.3,7900.7,99.3,48.53,2.7449e+10,1.00906,0.948789,165,0.571853,121,1.00004,1.00004
app_39,48.212,20333.1,7888.6,111.4,62.682,2.7151e+10,1.01064,0.948789,127,0.430968,157,1.00004,1.00004
app_4,4.13385,18686.9,7088.2,911.8,1770.29,2.23321e+11,1.09416,0.948789,4,0.12617,4160,1,1
app_40,43.0686,20083.9,7969.4,30.6,81.9321,6.66235e+09,1.003,0.948789,97,0.0812481,206,1.00004,1.00004
app_41,152.077,21268.1,7540.1,459.9,13.4135,1.20464e+11,1.04431,0.948789,573,8.60458,35,1.00004,1.00004
app_42,473.77,21220.7,7912.4,87.6,9.50227,2.35849e+10,1.00807,0.948789,819,2.35849,25,1.00004,1.00004
app_43,665.9,21340.7,7984.4,15.6,5.12204,5.31404e+09,1.00129,0.948789,1563,1.06281,13,1.00004,1.00004
app_44,540.191,21758.9,7641.1,358.9,8.19454,7.42501e+10,1.03689,0.948789,931,9.28127,22,1.00004,1.00004
app_45,949.615,21854.7,7432.6,567.4,5.61583,1.59629e+11,1.05371,0.948789,1318,26.6048,15,1.00004,1.00004
app_46,69.1006,21114.8,7348.7,651.3,32.4785,1.80718e+11,1.0625,0.948789,227,5.47631,86,1.00005,1.00005
app_47,919.469,21447.8,7458.1,541.9,6.26552,1.55241e+11,1.05079,0.948789,1236,22.1773,16,1.00005,1.00005
app_48,201.953,20490,7766.2,233.8,30.6705,7.75278e+10,1.01992,0.948789,254,2.5009,78,1.00005,1.00005
app_49,305.71,21399.1,7515.6,484.4,16.6763,1.07486e+11,1.04944,0.948789,445,6.71787,45,1.00005,1.00005
app_5,2.17664,21117.5,7267.4,732.6,482.912,1.83736e+11,1.07366,0.948789,15,0.380405,1288,1.00001,1.00001
app_50,123.984,21935,7315.8,684.2,7.63898,1.90393e+11,1.06579,0.948789,958,23.7991,21,1.00005,1.00005
app_51,576.057,21676.5,7443.5,556.5,8.31152,1.30543e+11,1.05624,0.948789,911,16.3179,22,1.00005,1.00005
app_52,822.437,22881.5,7758.4,241.6,4.52388,6.80447e+10,1.02218,0.948789,1645,17.0112,13,1.00005,1.00005
app_53,501.795,21267.2,7808.8,191.2,13.9495,4.60289e+10,1.01848,0.948789,564,3.28778,36,1.00005,1.00005
app_54,1187.39,22445.4,7750.7,249.3,3.88994,8.57608e+10,1.02087,0.948789,2031,21.4402,10,1.00005,1.00005
app_55,262.349,20848.7,7641.7,358.3,12.9077,9.08802e+10,1.03458,0.948789,599,6.99078,33,1.00005,1.00005
app_56,277.237,20918.3,7822.3,177.7,26.9722,5.36948e+10,1.01574,0.948789,291,1.9887,69,1.00006,1.00006
app_57,533.164,22461.5,7812.1,187.9,3.35368,5.96848e+10,1.01629,0.948789,2407,19.8949,9,1.00006,1.00006
app_58,65.9243,20827.9,7791.7,208.3,9.21609,5.77125e+10,1.01918,0.948789,843,6.4125,24,1.00006,1.00006
app_59,370.594,21953.3,7367.5,632.5,9.86544,1.83592e+11,1.05945,0.948789,744,18.3592,27,1.00006,1.00006
app_6,8.05424,20207.8,7263.8,736.2,726.585,1.9036e+11,1.07323,0.948789,10,0.262203,1846,1.00001,1.00001
app_60,193.835,20961.6,7730.9,269.1,6.80076,7.98791e+10,1.02423,0.948789,1135,13.3132,18,1.00006,1.00006
app_7,3.20512,18424.5,7699.2,300.8,1537.69,5.55903e+10,1.03162,0.948789,5,0.0361445,3547,1.00001,1.00001
app_8,8.16436,20670.5,7616.8,383.2,634.22,9.21158e+10,1.03776,0.948789,12,0.145064,1643,1.00001,1.00001
app_9,0.195885,20598.2,7285.8,714.2,430.336,1.84306e+11,1.07094,0.948789,17,0.428618,1114,1.00001,1.00001
