app_id,start_app,end_app,effective_cpu,effective_io,effective_iter,total_bytes,stretch,utilization,Tcomp,Tio,iterations,priority,group_id
app_1,3.83737,24566.8,6040.2,32.6882,335.171,1.5298e+10,1.32111,0.840306,18,0.0456657,1087,1,1
app_10,0.96841,26141.1,4164.32,178.31,1388.94,1.24218e+11,1.86544,0.840306,3,0.0894295,5310,1,1
app_11,18.1237,24711.3,6008.3,67.2924,334.117,5.03703e+10,1.32042,0.840306,18,0.150809,1088,1,1
app_12,21.0713,23632.7,6307.8,163.744,263.988,1.5056e+11,1.2387,0.840306,24,0.570303,799,1,1
app_13,2.99946,25629.9,5465.74,90.1055,545.494,5.81522e+10,1.44825,0.840306,10,0.106506,1895,1,1
app_14,0.917167,25324.9,5446.5,86.2638,496.548,5.81793e+10,1.45331,0.840306,11,0.117061,1712,1,1
app_15,0.159752,24782.4,3792.23,171.973,1899.04,6.68105e+10,2.07306,0.840306,2,0.0351819,6774,1,1
app_16,8.59611,24826.4,5514.7,115.416,502.158,9.39642e+10,1.42636,0.840306,11,0.186808,1661,1,1
app_17,7.42261,24996.1,5493.72,114.458,498.963,9.2145e+10,1.43219,0.840306,11,0.184659,1674,1,1
app_18,0.767934,25224.5,4222.22,107.192,1406.73,2.43331e+10,1.88388,0.840306,3,0.0172943,5060,1,1
app_19,0.825266,25131.7,3816.49,126.864,1911.95,1.12787e+10,2.08999,0.840306,2,0.00589889,6990,1,1
app_2,10.8087,25854.3,5611.8,82.839,466.613,5.50052e+10,1.41173,0.840306,12,0.117784,1633,1,1
app_20,1.90542,26951,5101.97,84.3418,729.08,5.17305e+10,1.55228,0.840306,7,0.0708637,2757,1,1
app_21,30.3363,22099.3,6849.3,182.322,148.893,1.75302e+11,1.13885,0.840306,46,1.17652,416,1,1
app_22,16.5039,21790.4,7210.7,39.6962,104.58,3.40443e+10,1.10425,0.840306,69,0.327349,287,1,1
app_23,97.7064,21498.8,7409.8,61.0517,67.6245,5.76086e+10,1.07132,0.840306,110,0.847186,181,1,1
app_24,236.274,21053.6,7697.9,5.71302,31.8773,3.81416e+09,1.03873,0.840306,238,0.119192,84,1,1
app_25,146.228,20605.9,7613.2,92.6299,35.9126,9.02155e+10,1.0385,0.840306,215,2.50598,92,1,1
app_26,17.4122,24042.9,6293.8,102.222,251.608,8.93181e+10,1.25331,0.840306,25,0.354437,788,1,1
app_27,52.5825,20886.6,7563.1,72.5223,51.8753,6.95521e+10,1.04813,0.840306,145,1.33754,136,1,1
app_28,65.5848,20970.1,7452.9,161.988,59.7712,1.58841e+11,1.05101,0.840306,125,2.64736,156,1,1
app_29,50.8174,20927.7,7556.2,110.557,54.9638,1.08086e+11,1.0438,0.840306,137,1.9652,144,1,1
app_3,0.421506,23915.1,6353,43.262,265.557,2.80667e+10,1.25371,0.840306,24,0.105514,819,1,1
app_30,46.5037,21274.3,7396,64.9905,64.8776,6.15805e+10,1.07273,0.840306,113,0.947392,176,1,1
app_31,98.1249,20840.7,7405.3,176.848,49.3861,1.74328e+11,1.05546,0.840306,150,3.48657,130,1,1
app_32,78.4677,21469.6,7259.9,155.405,71.6316,1.51446e+11,1.07943,0.840306,101,2.10342,193,1,1
app_33,17.314,23552.6,6237.8,127.95,259.908,1.13449e+11,1.25959,0.840306,24,0.436344,787,1,1
app_34,84.1721,21410.1,7369.3,44.2496,72.9987,4.07947e+10,1.07961,0.840306,101,0.558832,197,1,1
app_35,44.8843,20933.7,7501.7,124.994,46.0013,1.22596e+11,1.04928,0.840306,162,2.66513,122,1,1
app_36,24.9368,20996,7513,132.295,55.9464,1.28825e+11,1.04687,0.840306,134,2.30045,147,1,1
app_37,115.443,21214.2,7573.1,43.2628,60.7609,4.05511e+10,1.05074,0.840306,123,0.664772,161,1,1
app_38,17.7614,23961.1,6241.1,117.007,283.922,1.03107e+11,1.26099,0.840306,22,0.363051,875,1,1
app_39,50.367,22190.5,7009.8,63.2696,135.542,5.5866e+10,1.13224,0.840306,52,0.410779,378,1,1
app_4,8.59471,25320.6,5167.8,134.951,646.818,1.03241e+11,1.51773,0.840306,8,0.159569,2242,1,1
app_40,16.5006,20748.4,7533.01,125.341,45.652,1.2238e+11,1.04501,0.840306,165,2.71338,119,1,1
app_41,84.2686,20283.6,7756.4,84.0396,20.4031,8.29404e+10,1.02049,0.840306,382,4.14702,52,1,1
app_42,1163.04,22476.2,7871.8,110.201,5.85912,1.09846e+11,1.0023,0.840306,1314,18.3076,16,1,1
app_43,230.905,20684.1,7584.23,154.006,32.5001,1.51921e+11,1.03411,0.840306,234,4.72356,84,1,1
app_44,481.737,21164.3,7804.7,155.711,4.98538,1.55494e+11,1.005,0.840306,1543,31.0989,13,1,1
app_45,433.268,21209.7,7818,147.436,9.41928,1.47179e+11,1.00437,0.840306,825,16.3532,24,1,1
app_46,712.76,21761.1,7870.5,61.8292,6.30442,6.15202e+10,1.00857,0.840306,1222,10.2534,17,1,1
app_47,782.37,21938,7836.2,94.2184,7.6613,9.36789e+10,1.00884,0.840306,1037,11.7099,20,1,1
app_48,834.384,21720.2,7853.1,62.4894,9.34641,6.20245e+10,1.01072,0.840306,861,6.20245,24,1,1
app_49,1362.24,22290,7840.7,147.492,3.88259,1.47336e+11,1.0015,0.840306,2076,36.8341,10,1,1
app_5,0.221662,26015.9,5448.79,154.615,493.798,1.30193e+11,1.43395,0.840306,11,0.263549,1760,1,1
app_50,189.222,21242.8,7831.3,129.997,4.24878,1.29812e+11,1.00488,0.840306,1897,25.9625,11,1,1
app_51,430.221,21402,7921.1,68.5219,6.25935,6.82504e+10,1.00133,0.840306,1294,11.3751,16,1,1
app_52,43.6085,20415,7674.4,159.043,24.2768,1.57945e+11,1.02141,0.840306,323,6.58102,61,1,1
app_53,1119.33,23008,7852.9,136.71,4.32119,1.36443e+11,1.00133,0.840306,1766,34.1108,12,1,1
app_54,209.647,20704.5,7780.6,152.918,14.7046,1.5208e+11,1.00849,0.840306,522,10.1387,38,1,1
app_55,301.791,20404,7730.9,186.134,11.3609,1.85702e+11,1.01053,0.840306,712,15.4752,28,1,1
app_56,280.806,20921.6,7854.7,105.806,5.11043,1.05528e+11,1.005,0.840306,1550,21.1055,13,1,1
app_57,369.613,21709.1,7825.4,158.562,5.26775,1.58373e+11,1.00203,0.840306,1490,31.6745,14,1,1
app_58,469.439,21730.5,7917.6,20.9127,6.12205,2.06452e+10,1.00778,0.840306,1296,3.44087,16,1,1
app_59,1246.62,22501.4,7863.6,109.184,5.67201,1.08877e+11,1.00345,0.840306,1409,18.1462,15,1,1
app_6,1.08022,27115,3801.46,173.037,1903.2,7.15865e+10,2.06556,0.840306,2,0.037598,7877,1,1
app_60,831.611,21301.1,7891.3,35.9097,6.93096,3.5577e+10,1.00922,0.840306,1115,5.08242,18,1,1
app_7,6.89506,24935.4,5764.3,161.922,409.975,1.39907e+11,1.35497,0.840306,14,0.341237,1351,1,1
app_8,6.30817,25894.5,5572.07,135.795,463.547,1.11603e+11,1.40754,0.840306,12,0.240524,1623,1,1
app_9,0.937786,25623,3186.93,248.813,3183.83,5.04946e+10,2.4711,0.840306,1,0.0158589,12416,1,1
