app_id,start_app,end_app,effective_cpu,effective_io,effective_iter,total_bytes,stretch,utilization,Tcomp,Tio,iterations,priority,group_id
app_1,4.029,19447,7934.1,65.9,565.002,8.24855e+09,1.00726,0.950123,14,0.0145992,1376,1,1
app_10,5.22477,20061.9,7758,242,774.991,5.49264e+10,1.02394,0.950123,10,0.0708727,1942,1.00001,1.00001
app_11,4.13347,20850.5,7436.1,563.9,466.375,1.47971e+11,1.05484,0.950123,16,0.316855,1216,1.00001,1.00001
app_12,4.69318,19441,7470.1,529.9,1494.12,1.28323e+11,1.05285,0.950123,5,0.085892,3636,1.00001,1.00001
app_13,0.275639,19842.8,7242.3,757.7,908.064,2.02347e+11,1.0746,0.950123,8,0.222849,2250,1.00001,1.00001
app_14,3.5187,20178.3,7453.3,546.7,1066.95,1.36613e+11,1.05403,0.950123,7,0.128035,2695,1.00001,1.00001
app_15,2.69911,17833.3,6990.4,1009.6,2327.19,2.47234e+11,1.10533,0.950123,3,0.106246,5205,1.00002,1.00002
app_16,5.91579,19285,7825.3,174.7,712.224,3.62283e+10,1.01761,0.950123,11,0.0508824,1718,1.00002,1.00002
app_17,7.63167,20724.4,7469.1,530.9,829.893,1.35714e+11,1.05197,0.950123,9,0.163511,2155,1.00002,1.00002
app_18,12.6221,20561.3,7380.5,619.5,568.832,1.66272e+11,1.06006,0.950123,13,0.292218,1466,1.00002,1.00002
app_19,8.61475,20457.6,7332.99,667.014,564.442,1.74659e+11,1.06558,0.950123,13,0.309523,1449,1.00002,1.00002
app_2,3.59514,20663.2,7629.5,370.5,760.869,8.92044e+10,1.03644,0.950123,10,0.11722,1973,1,1
app_20,0.836091,21479.5,7186.7,813.3,2395.58,2.02916e+11,1.0826,0.950123,3,0.0846896,6469,1.00002,1.00002
app_21,45.3637,21220.8,7338.2,661.801,71.5321,1.89616e+11,1.06273,0.950123,102,2.64166,191,1.00002,1.00002
app_22,19.0012,20854.4,7494.7,505.3,47.8699,1.35986e+11,1.0484,0.950123,158,2.83303,124,1.00002,1.00002
app_23,3.89482,20120.8,7727.5,272.5,198.52,6.95209e+10,1.02603,0.950123,39,0.351116,500,1.00002,1.00002
app_24,58.7386,20264.5,7880.6,119.4,67.2331,3.15475e+10,1.0111,0.950123,118,0.470858,169,1.00002,1.00002
app_25,96.0476,20889,7695.8,304.2,59.3187,8.03532e+10,1.02879,0.950123,130,1.33922,153,1.00003,1.00003
app_26,1.90461,21172,7387.1,612.9,59.879,1.74665e+11,1.05795,0.950123,123,2.91108,159,1.00003,1.00003
app_27,1.78669,20746.9,7553.4,446.6,198.766,1.19931e+11,1.04257,0.950123,38,0.602668,515,1.00003,1.00003
app_28,88.8172,20316,7972,28,54.7501,6.15046e+09,1.00274,0.950123,145,0.111827,138,1.00003,1.00003
app_29,36.6404,20917.9,7484.7,515.3,73.5929,1.29768e+11,1.05063,0.950123,102,1.77765,192,1.00003,1.00003
app_3,12.1933,19882.9,7840.7,159.3,604.318,3.55558e+10,1.01571,0.950123,13,0.0587699,1501,1,1
app_30,59.1286,20530.4,7746.68,253.322,66.6225,6.79682e+10,1.02372,0.950123,116,1.02136,171,1.00003,1.00003
app_31,6.75824,20643.2,7492.9,507.1,183.377,1.40457e+11,1.04803,0.950123,41,0.767526,472,1.00003,1.00003
app_32,3.28991,19812.2,7953.8,46.2,159.507,9.89712e+09,1.00456,0.950123,50,0.062246,395,1.00003,1.00003
app_33,33.1606,21071.7,7226.5,773.5,171.529,2.13918e+11,1.07521,0.950123,42,1.25098,453,1.00003,1.00003
app_34,186.008,20314.5,7952.1,47.9,37.9252,1.30536e+10,1.00437,0.950123,211,0.343515,95,1.00003,1.00003
app_35,74.2716,20724.7,7583.1,416.9,85.0284,1.10258e+11,1.03986,0.950123,89,1.29716,221,1.00004,1.00004
app_36,41.7002,20794.6,7574.8,425.2,145.124,1.12765e+11,1.04064,0.950123,52,0.777692,379,1.00004,1.00004
app_37,0.512577,20991.6,7051.6,948.4,7052.11,1.57755e+11,1.10967,0.950123,1,0.0223703,18554,1.00004,1.00004
app_38,57.3458,20312.5,7836.4,163.6,55.7948,3.81331e+10,1.01593,0.950123,141,0.680948,141,1.00004,1.00004
app_39,11.2426,20323.4,7532.2,467.8,343.482,1.22597e+11,1.0451,0.950123,22,0.356385,873,1.00004,1.00004
app_4,4.34026,19695.9,7840.6,159.4,871.368,2.95126e+10,1.0165,0.950123,9,0.0338835,2142,1,1
app_40,50.7708,20311.2,7738.5,261.5,148.572,6.75112e+10,1.02485,0.950123,52,0.456157,376,1.00004,1.00004
app_41,212.027,21318.5,7792.6,207.4,7.51871,3.87986e+10,1.02153,0.950123,1036,5.54266,20,1.00004,1.00004
app_42,775.81,22008.6,7621.2,378.8,7.21308,1.14967e+11,1.0341,0.950123,1060,16.4239,19,1.00004,1.00004
app_43,278.206,21541.2,7335.8,664.2,7.85397,1.68749e+11,1.06602,0.950123,890,21.0937,22,1.00004,1.00004
app_44,256.731,21550.8,7536.8,463.2,14.9132,1.20181e+11,1.0448,0.950123,504,8.01208,40,1.00004,1.00004
app_45,472.918,22041.8,7316.9,683.1,4.85832,1.975e+11,1.06462,0.950123,1546,39.5001,13,1.00004,1.00004
app_46,267.491,21808.3,7524.8,475.2,7.43155,1.54731e+11,1.04173,0.950123,1009,22.1044,20,1.00005,1.00005
app_47,113.025,20527.8,7953.8,46.2,4.62632,1.13728e+10,1.00437,0.950123,1688,2.27457,12,1.00005,1.00005
app_48,369.715,21872,7539.7,460.3,8.4087,1.10709e+11,1.0457,0.950123,865,13.8386,23,1.00005,1.00005
app_49,270.039,20328.8,7933.6,66.4,17.9694,2.1621e+10,1.00563,0.950123,445,1.20117,45,1.00005,1.00005
app_5,5.37851,19962.4,7925.3,74.7,528.394,1.2867e+10,1.00779,0.950123,15,0.0243233,1321,1.00001,1.00001
app_50,499.083,22454.1,7822.6,177.4,4.10855,6.24142e+10,1.01458,0.950123,1926,15.6035,11,1.00005,1.00005
app_51,725.871,22033.3,7467.9,532.1,7.28102,1.20444e+11,1.05425,0.950123,1070,17.2062,19,1.00005,1.00005
app_52,213.101,21925.8,7540.7,459.3,10.6985,1.69426e+11,1.0376,0.950123,696,15.4023,29,1.00005,1.00005
app_53,456.786,21265.1,7713.2,286.8,4.26946,8.61781e+10,1.02572,0.950123,1841,17.2356,11,1.00005,1.00005
app_54,1039.41,22446.9,7451,549,4.73502,1.39044e+11,1.05401,0.950123,1569,34.761,13,1.00005,1.00005
app_55,389.909,21095.8,7869.9,130.1,10.589,3.19011e+10,1.01243,0.950123,727,2.9001,28,1.00005,1.00005
app_56,687.048,22063.2,7396.7,603.3,7.40002,1.72874e+11,1.05686,0.950123,996,21.6093,20,1.00006,1.00006
app_57,141.46,20386.1,7810.4,189.6,54.5679,5.03551e+10,1.01771,0.950123,143,0.932501,139,1.00006,1.00006
app_58,801.518,21814.1,7780.3,219.7,5.40293,4.60224e+10,1.02219,0.950123,1427,9.20448,14,1.00006,1.00006
app_59,155.633,22169.8,7553.03,446.971,6.78577,1.32163e+11,1.04096,0.950123,1085,19.8471,19,1.00006,1.00006
app_6,6.23365,18730.7,7537,463,1075.62,1.08059e+11,1.04643,0.950123,7,0.100427,2520,1.00001,1.00001
app_60,107.975,21134.6,7472.7,527.3,48.0434,1.52273e+11,1.04918,0.950123,156,3.17236,126,1.00006,1.00006
app_7,8.12378,18416.8,7915.3,84.7,790.473,9.32152e+09,1.00951,0.950123,10,0.0117845,1824,1.00001,1.00001
app_8,3.89991,18945,7606.7,393.3,846.167,9.30144e+10,1.039,0.950123,9,0.109946,2003,1.00001,1.00001
app_9,7.96285,20537.3,7628.9,371.1,692.736,9.08946e+10,1.0363,0.950123,11,0.131351,1783,1.00001,1.00001
