app_id,Tcomp,Tio,iter,witer,alpha_io,compute_size,io_size,mu,desyn_time
1,7.756002757838907,0.055657907732285565,2561,7.811660665571193,0.0071249776603315666,7e9,55657907.73228557,10,1.1882876248976322
2,8.290194607663047,0.7959764031885742,2202,9.08617101085162,0.08760306208610195,8e9,795976403.1885742,10,0.8692830441568941
3,8.358898680054642,0.11231214903757472,2361,8.471210829092216,0.013258098671310038,8e9,112312149.03757472,10,0.9007637157589548
4,8.413831952617013,0.7044314649093352,2194,9.118263417526348,0.07725500269660307,8e9,704431464.9093351,10,0.47754613924040984
5,9.427888474900023,0.018393129503701252,2118,9.446281604403724,0.001947129068767824,9e9,18393129.50370125,10,2.307406233273437
6,93.56168883112166,9.023858747828209,195,102.58554757894987,0.08796423044760222,93e9,9023858747.828209,100,74.19263446225393
7,86.88825798381394,3.392297142510591,222,90.28055512632453,0.0375750585246617,86e9,3392297142.510591,100,18.82195655663306
8,99.22250358750179,8.67954618625833,186,107.90204977376013,0.08043912237493973,99e9,8679546186.25833,100,52.327252917744495
9,87.76448292447036,5.557611339412506,215,93.32209426388286,0.059553007069231514,87e9,5557611339.412506,100,23.45318279447178
10,96.45221773349894,9.3691748807796,189,105.82139261427854,0.088537625987691,96e9,9369174880.7796,100,72.77301513981352
11,1002.5306119329537,29.361251933033998,20,1031.8918638659877,0.028453806993914973,1002e9,29361251933.033997,1000,962.6867610262162
12,933.9910306862922,43.04049934275301,21,977.0315300290453,0.04405231358446897,933e9,43040499342.753006,1000,928.1962002272853
13,997.5977894369785,64.57686574287416,19,1062.1746551798526,0.06079684299371622,997e9,64576865742.87416,1000,185.6703223185775
14,988.7346204855359,82.62764251434115,19,1071.362262999877,0.0771239060474082,988e9,82627642514.34114,1000,427.3294740812052
15,1150.8733604394847,58.428401151483065,17,1209.3017615909678,0.04831581579325094,1150e9,58428401151.48306,1000,255.9131983453589
