app_id,Tcomp,Tio,iter,witer,alpha_io,compute_size,io_size,mu,desyn_time
1,8.168409055943725,0.7655655903047417,2239,8.933974646248467,0.08569148902008762,8e9,765565590.3047417,10,1.0425663698628866
2,8.688583864853605,0.042585773367838586,2291,8.731169638221443,0.004877441984567075,8e9,42585773.367838584,10,6.15967953151725
3,10.134789289481514,0.6190393520359125,1860,10.753828641517426,0.05756455423196725,10e9,619039352.0359125,10,5.228599680411809
4,10.568279556768053,0.5517562398204254,1799,11.120035796588478,0.04961820716347865,10e9,551756239.8204254,10,4.613384356705765
5,9.5937464096659,1.0862191379224704,1873,10.67996554758837,0.10170623988274459,9e9,1086219137.9224703,10,1.775639927224929
6,85.73997217645953,7.739560648356367,214,93.4795328248159,0.08279417338189515,85e9,7739560648.356367,100,20.49627906706966
7,103.13921373503216,5.086626153204244,185,108.22583988823641,0.047000107908214385,103e9,5086626153.204244,100,41.334472533076145
8,100.93674532175186,7.4977010163512325,185,108.43444633810309,0.06914501129072113,100e9,7497701016.351233,100,8.325328152137866
9,96.92921605097263,3.9673202701900956,199,100.89653632116273,0.03932067853708832,96e9,3967320270.1900954,100,99.03146330881813
10,98.16332973756307,0.9902530636859035,202,99.15358280124897,0.00998706285450968,98e9,990253063.6859035,100,88.42704989724861
11,697.7019041047863,78.81780433561329,26,776.5197084403997,0.10150135724683002,697e9,78817804335.6133,1000,236.88898173600546
12,988.9592505534871,116.89798625642413,19,1105.8572368099112,0.10570802664694959,988e9,116897986256.42413,1000,24.894550445668916
13,1120.7909050868466,10.679850361614239,18,1131.4707554484607,0.00943890976429281,1120e9,10679850361.614239,1000,404.92251279109126
14,1008.9352645335641,13.926470161512869,20,1022.861734695077,0.013615203002646743,1008e9,13926470161.512869,1000,371.3416424286821
15,1024.8377116618033,23.08740098043983,20,1047.925112642243,0.02203153708400704,1024e9,23087400980.43983,1000,213.05946093259706
