app_id,Tcomp,Tio,iter,witer,alpha_io,compute_size,io_size,mu,desyn_time
1,6.894949591006842,0.4077485431917116,2739,7.302698134198554,0.05583532766912878,6e9,407748543.1917116,10,1.9884626810966513
2,9.33194477101342,0.3577566633765904,2065,9.689701434390011,0.03692132990876947,9e9,357756663.3765904,10,9.674258756071382
3,9.658757685534967,0.7968029781949224,1913,10.455560663729889,0.07620853666499344,9e9,796802978.1949224,10,3.066973250860381
4,7.713284394644625,0.8383946796964697,2339,8.551679074341095,0.09803860416278166,7e9,838394679.6964698,10,2.0500219840696867
5,10.498844696326936,0.2675036989323661,1858,10.766348395259302,0.02484627926866595,10e9,267503698.93236607,10,3.4439705978647073
6,95.98450626360543,8.770006362121142,191,104.75451262572656,0.0837196044570907,95e9,8770006362.121141,100,59.357164557609906
7,117.03224884088254,1.4398936061761602,169,118.4721424470587,0.012153858083722942,117e9,1439893606.1761603,100,36.974060263695094
8,110.12161708328716,2.852288175105585,178,112.97390525839275,0.02524731856070533,110e9,2852288175.1055846,100,22.210622187659226
9,106.60520524557708,7.263364443761189,176,113.86856968933827,0.06378726336492546,106e9,7263364443.7611885,100,30.875048977463265
10,103.48144435822518,1.980720336943999,190,105.46216469516918,0.018781335872150254,103e9,1980720336.943999,100,25.64304643371089
11,1113.8598709160722,0.49125490175837117,18,1114.3511258178305,0.0004408439049207543,1113e9,491254901.7583712,1000,635.7991347814574
12,828.4292361901032,40.82265287070076,24,869.2518890608039,0.046962972855668104,828e9,40822652870.70076,1000,826.1110907726518
13,798.0532951108999,72.7293647688081,23,870.7826598797079,0.08352183400029475,798e9,72729364768.80809,1000,774.7023146980677
14,792.3605586943493,87.05274501945699,23,879.4133037138063,0.09898957026443528,792e9,87052745019.45699,1000,663.0517894664536
15,946.6171743259044,76.24995873526716,20,1022.8671330611716,0.07454532096174714,946e9,76249958735.26715,1000,1022.7162239133484
