app_id,start_app,end_app,effective_cpu,effective_io,effective_iter,total_bytes,stretch,utilization,Tcomp,Tio,iterations,priority,group_id
app_1,8.77434,19314,7674.2,250.136,848.396,1.84416e+11,1.01799,0.904079,9,0.217472,2051,0.1,1
app_10,65.1499,20817.5,7122,770.798,65.2829,5.69632e+11,1.04009,0.904079,110,8.76357,168,0.01,2
app_11,366.373,24425.3,7293.1,495.368,7.79966,2.71913e+11,1.0575,0.904079,858,33.9892,23,0.001,3
app_12,494.701,22693.3,6993.51,1000.88,6.60632,5.09701e+11,1.06621,0.904079,1030,83.1446,18,0.001,3
app_13,661.163,22203.2,6379.1,1386.77,8.47765,6.85863e+11,1.13235,0.904079,778,76.2071,24,0.001,3
app_14,281.281,21416.1,6860.4,838.397,8.41314,4.37936e+11,1.09614,0.904079,985,54.742,20,0.001,3
app_15,517.069,23926.3,6895.6,786.926,8.16462,4.10056e+11,1.09504,0.904079,844,51.257,23,0.001,3
app_2,6.70515,20280,7770.12,169.66,700.643,1.3493e+11,1.01201,0.904079,11,0.19259,1781,0.1,1
app_3,9.84081,18577.7,7437.1,517.909,739.024,4.64324e+11,1.01248,0.904079,10,0.628314,1722,0.1,1
app_4,7.78064,19904.2,7289,676.718,812.392,6.03226e+11,1.01366,0.904079,9,0.742889,2016,0.1,1
app_5,8.2175,18536.4,7526.1,408.827,829.96,3.32117e+11,1.01804,0.904079,9,0.400141,1931,0.1,1
app_6,25.7886,20468.1,7195.2,619.713,73.5332,4.56017e+11,1.04559,0.904079,99,6.16239,189,0.01,2
app_7,57.6111,20992.6,6981.4,898.049,65.0911,6.69997e+11,1.04556,0.904079,104,10.3076,174,0.01,2
app_8,66.513,20372.5,7796.8,39.9932,68.9314,2.51701e+10,1.02276,0.904079,107,0.364784,185,0.01,2
app_9,36.3541,21114.6,7275.88,579.266,76.7826,4.29092e+11,1.03829,0.904079,93,5.6227,202,0.01,2
