app_id,start_app,end_app,effective_cpu,effective_io,effective_iter,total_bytes,stretch,utilization,Tcomp,Tio,iterations,priority,group_id
app_1,7.51904,26146.5,4753.5,363.757,597.28,3.39568e+11,1.57076,0.800421,8,0.56784,2110,1,1
app_10,75.1056,22333.9,6713.12,704.555,67.0449,7.02006e+11,1.07888,0.800421,96,10.4777,187,1,1
app_11,38.3399,20990.3,7535.6,342.788,9.37864,3.42297e+11,1.0155,0.800421,820,38.033,24,1,1
app_12,383.225,20926.3,7453.7,478.887,5.91258,4.78757e+11,1.00851,0.800421,1136,79.7928,17,1,1
app_13,502.999,20557.3,7521.5,455.134,7.65293,4.546e+11,1.003,0.800421,1010,56.825,19,1,1
app_14,992.627,21937.2,7401.4,441.542,6.37364,4.41215e+11,1.02007,0.800421,1029,63.0307,19,1,1
app_15,453.359,22261.5,7863.1,28.757,7.961,2.83854e+10,1.01375,0.800421,978,3.54817,21,1,1
app_2,6.60366,26858.1,4905.01,383.271,491.681,3.50842e+11,1.52211,0.800421,10,0.713297,1820,1,1
app_3,3.90858,26019.8,4582.5,632.287,566.518,6.13663e+11,1.5396,0.800421,8,1.0823,2018,1,1
app_4,8.03409,27467,5019.2,197.34,508.755,1.67363e+11,1.54245,0.800421,10,0.328807,1927,1,1
app_5,8.51908,27060.6,4974.4,242.926,496.267,2.13551e+11,1.54203,0.800421,10,0.42968,1843,1,1
app_6,100.019,21651.8,6666.04,519.441,62.422,5.15646e+11,1.11395,0.800421,106,8.31687,174,1,1
app_7,60.8153,22838.8,6921.65,75.3891,84.3263,7.07505e+10,1.1441,0.800421,84,0.842268,234,1,1
app_8,15.0811,22870.6,6884.91,266.048,70.6764,2.62445e+11,1.11929,0.800421,97,3.74922,199,1,1
app_9,96.5061,21947.5,6854.9,389.616,64.1203,3.86056e+11,1.10483,0.800421,106,6.03213,178,1,1
