app_id,start_app,end_app,effective_cpu,effective_io,effective_iter,total_bytes,stretch,utilization,Tcomp,Tio,iterations,priority,group_id
app_1,8.89169,18991.3,7533.3,369.351,748.356,3.07669e+11,1.02028,0.905279,10,0.411322,1776,0.1,1
app_10,1.64949,20750,7389.5,441.876,72.7086,3.0252e+11,1.04004,0.905279,104,4.14411,184,0.01,2
app_11,1131,21967.8,7091,891.121,5.75051,4.32128e+11,1.06339,0.905279,1200,72.0213,16,0.001,3
app_12,530.646,22390.1,7216.5,699.974,8.41848,2.85308e+11,1.06641,0.905279,843,35.6635,23,0.001,3
app_13,251.635,21203.1,7540,86.6367,8.35643,3.2909e+10,1.0564,0.905279,977,3.65656,21,0.001,3
app_14,742.883,23467.2,7299.1,629.389,7.322,2.72793e+11,1.05654,0.905279,964,34.0991,21,0.001,3
app_15,919.299,23365.5,6581.1,1418.9,7.22565,6.00837e+11,1.11391,0.905279,849,85.8338,22,0.001,3
app_2,4.59636,20421.2,7196.78,719.041,903.494,6.32889e+11,1.02175,0.905279,8,0.700098,2296,0.1,1
app_3,1.06784,20286.5,7624.2,254.454,831.403,2.14201e+11,1.02062,0.905279,9,0.257453,2141,0.1,1
app_4,5.40719,19970.9,7301,611.826,726.913,5.58105e+11,1.01793,0.905279,10,0.76874,1808,0.1,1
app_5,5.95636,19850.7,7237.85,678.61,813.067,5.96185e+11,1.02119,0.905279,9,0.732645,2017,0.1,1
app_6,33.6407,21275,6839.21,1073.35,75.1838,7.32056e+11,1.05663,0.905279,92,9.74789,196,0.01,2
app_7,39.3387,21210.5,7169.8,710.254,73.7933,4.86934e+11,1.04483,0.905279,96,6.67033,195,0.01,2
app_8,2.39717,20526.9,7303.4,513.288,80.3257,3.42312e+11,1.04634,0.905279,91,4.22607,209,0.01,2
app_9,18.3694,20765.5,7310.7,502.322,79.2854,3.35883e+11,1.04622,0.905279,94,4.25169,204,0.01,2
