app_id,start_app,end_app,effective_cpu,effective_io,effective_iter,total_bytes,stretch,utilization,Tcomp,Tio,iterations,priority,group_id
app_1,1.08577,28915.7,4546.5,198.926,414.067,1.70497e+11,1.69599,0.748932,11,0.411828,1720,1,1
app_10,21.2269,23967.1,6190.3,365.886,63.933,3.63152e+11,1.22073,0.748932,95,5.67425,198,1,1
app_11,635.795,21376.3,7048.1,798.14,7.91839,7.97633e+11,1.01966,0.748932,858,99.7042,21,1,1
app_12,251.645,22338.6,7041.5,715.356,9.4803,7.14861e+11,1.03141,0.748932,671,79.429,27,1,1
app_13,231.617,21781.7,7515.6,467.198,7.55294,4.67053e+11,1.00217,0.748932,986,58.3816,20,1,1
app_14,78.1834,19666.2,7472.1,393.61,8.14461,3.93288e+11,1.01711,0.748932,999,49.161,20,1,1
app_15,565.411,20493,7727.8,75.854,8.45507,7.54153e+10,1.02522,0.748932,947,8.37948,21,1,1
app_2,0.383681,28948.8,4326.6,375.227,426.723,3.41802e+11,1.71365,0.748932,10,0.800472,1809,1,1
app_3,0.424082,29056.5,4366.61,241.806,484.075,2.17319e+11,1.74523,0.748932,9,0.448081,2062,1,1
app_4,2.38452,28069.5,4498.38,81.6958,448.424,5.06783e+10,1.75861,0.748932,10,0.112869,1818,1,1
app_5,0.189188,28592.6,4551.61,97.4157,457.334,8.17179e+10,1.72662,0.748932,10,0.178423,1874,1,1
app_6,18.7597,23654.6,6303.6,13.8911,63.6765,1.12232e+10,1.26686,0.748932,98,0.175363,203,1,1
app_7,28.1005,24113.9,6047.4,545.864,69.6262,5.42112e+11,1.21405,0.748932,86,7.85669,214,1,1
app_8,101.61,23747.6,6170.8,423.463,62.6944,4.20869e+11,1.21365,0.748932,95,6.68045,196,1,1
app_9,14.3867,24011,6064.9,612.481,69.7021,6.07944e+11,1.19889,0.748932,87,8.80073,207,1,1
