app_id,Tcomp,Tio,iter,witer,alpha_io,compute_size,io_size,mu,desyn_time
1,9.198279497988718,0.10421707365826005,2150,9.302496571646978,0.011203129488475452,9e9,104217073.65826005,10,4.727546081241586
2,8.163979072577169,0.17064845939703308,2400,8.334627531974201,0.02047463533821673,8e9,170648459.39703307,10,1.201139716172963
3,10.03594371763975,0.2472950016887823,1945,10.283238719328532,0.02404835756890121,10e9,247295001.6887823,10,8.575962921454309
4,11.457601297552054,0.2200650477476334,1713,11.677666345299688,0.018844950800997202,11e9,220065047.74763343,10,3.0093752561129326
5,10.368171131231673,0.17644501260586903,1897,10.544616143837542,0.016733184992133315,10e9,176445012.60586902,10,5.963762588019917
6,8.521257487200693,0.09330589689609192,2322,8.614563384096785,0.01083118119118405,8e9,93305896.89609192,10,5.542187000588744
7,10.289235695418341,0.1502177155183218,1916,10.439453410936663,0.014389423431015031,10e9,150217715.5183218,10,4.304076930839295
8,10.763317666775224,0.15254993237926412,1833,10.915867599154488,0.013975062540249224,10e9,152549932.37926412,10,9.28296171545977
9,9.179417375689546,0.0811448396731509,2160,9.260562215362697,0.008762409644906512,9e9,81144839.67315091,10,8.677163621076112
10,9.033484294246422,0.108686205060377,2188,9.142170499306799,0.011888446520289475,9e9,108686205.060377,10,6.087864845685915
11,8.253274221303984,0.0802933732750741,2400,8.333567594579058,0.009634933942013564,8e9,80293373.27507411,10,3.486665737927304
12,9.20561754987929,0.18921156847056783,2129,9.39482911834986,0.02013996913482995,9e9,189211568.47056782,10,6.944677878567246
13,10.327025914747246,0.18738649868803914,1903,10.514412413435284,0.017821870716103663,10e9,187386498.68803912,10,10.158042901408649
14,11.887891002191143,0.11813278663287408,1666,12.006023788824017,0.009839459650483095,11e9,118132786.63287407,10,11.468934434497678
15,9.559250781334502,0.22840668095597214,2044,9.787657462290474,0.023336194777552135,9e9,228406680.95597214,10,8.375660396670346
16,10.192420398161497,0.18697508067857124,1927,10.379395478840069,0.0180140626744349,10e9,186975080.67857125,10,1.911854458550405
17,9.624222198186802,0.2390911102240487,2028,9.86331330841085,0.024240445654318404,9e9,239091110.2240487,10,8.672186079888142
18,11.640129941700103,0.05408831063969119,1711,11.694218252339795,0.004625218161023216,11e9,54088310.63969119,10,2.4898647729372887
19,10.685466615881065,0.0349410311390516,1866,10.720407647020117,0.0032593006058649213,10e9,34941031.1390516,10,3.3148673777314417
20,11.139697550304787,0.13739313501453232,1774,11.277090685319319,0.012183384779674842,11e9,137393135.01453233,10,3.618965567036945
21,115.02348712266078,0.19120420436415114,174,115.21469132702494,0.0016595470782579096,115e9,191204204.36415115,100,100.85582713809272
22,100.81778124693881,0.37283384984146134,198,101.19061509678026,0.003684470634800246,100e9,372833849.84146136,100,8.365329710357763
23,86.98689372111683,0.8377035984240387,228,87.82459731954087,0.00953837107133141,86e9,837703598.4240388,100,70.21064754591181
24,87.48782635680939,1.92001962062026,224,89.40784597742966,0.02147484484868313,87e9,1920019620.62026,100,82.61222520729572
25,105.50766580658893,1.6023136288740165,187,107.10997943546295,0.014959517659504918,105e9,1602313628.8740165,100,101.37184106015218
26,91.03593156541739,1.0518181002726696,218,92.08774966569005,0.011421911210678164,91e9,1051818100.2726697,100,11.642033478867711
27,105.7262985877876,0.6437380137043132,189,106.3700366014919,0.006051873575225266,105e9,643738013.7043132,100,93.84510422363812
28,99.24601476232631,2.3194178307377196,197,101.56543259306403,0.022836685391089587,99e9,2319417830.7377195,100,94.63146930705845
29,79.96866828133487,0.0790574039345465,250,80.04772568526941,0.0009876283586792128,79e9,79057403.9345465,100,13.127475660260847
30,85.11220324791823,1.5029360208102198,231,86.61513926872846,0.017351885980893874,85e9,1502936020.8102198,100,32.876682037475014
31,102.12925541174036,2.633358884968097,191,104.76261429670846,0.025136437293459508,102e9,2633358884.9680967,100,48.44616965659417
32,96.21953524357497,1.8768504459535262,204,98.09638568952849,0.019132717609940186,96e9,1876850445.9535263,100,84.83063431237326
33,88.81408458839067,0.18004603432356578,225,88.99413062271424,0.002023122570710434,88e9,180046034.32356578,100,49.26217591103009
34,102.18137538174541,0.14524825142766354,196,102.32662363317307,0.0014194570901543534,102e9,145248251.42766353,100,85.24635619794748
35,90.90443316942519,1.873627706600458,216,92.77806087602565,0.020194728030628776,90e9,1873627706.6004581,100,47.54714629063279
36,83.84023050746606,2.1885714696108485,233,86.02880197707691,0.025439985438760516,83e9,2188571469.6108484,100,57.59910810726041
37,96.76656851631915,0.6095315804904504,206,97.37610009680961,0.00625956040429289,96e9,609531580.4904504,100,33.35140520474377
38,81.3477242630545,0.9472369956610729,244,82.29496125871557,0.011510267228672573,81e9,947236995.6610729,100,31.813709427804785
39,126.87817404348186,1.8619205195925634,156,128.74009456307442,0.0144626312875694,126e9,1861920519.5925634,100,91.4388002628119
40,95.94225609567893,1.5151185139231134,206,97.45737460960204,0.01554647372753909,95e9,1515118513.9231133,100,10.78524172818705
41,1062.7351349655792,0.25170930238064476,19,1062.98684426796,0.00023679437213918462,1062e9,251709302.38064477,1000,34.610698245001544
42,940.8503463901552,21.598312707136472,21,962.4486590972916,0.02244100243995784,940e9,21598312707.13647,1000,584.9931927309611
43,1018.7588967879694,12.142733624281828,20,1030.9016304122513,0.011778751013737385,1018e9,12142733624.281828,1000,322.36622705371974
44,1067.193785245939,11.599098396926147,19,1078.792883642865,0.010751923351365038,1067e9,11599098396.926147,1000,287.4527709200569
45,878.8666427161597,10.402178383471723,23,889.2688210996315,0.011697450913221986,878e9,10402178383.471724,1000,127.33909093915668
46,907.5454435872622,12.467482602576759,22,920.0129261898389,0.013551421124276868,907e9,12467482602.57676,1000,751.1447340177306
47,946.3973283759728,15.041707072074129,21,961.439035448047,0.015644993096275144,946e9,15041707072.07413,1000,508.0988232457588
48,964.4919369630238,8.503585236210007,21,972.9955221992338,0.008739593391950662,964e9,8503585236.210008,1000,153.75181029973132
49,884.5580898316994,15.908217082119968,23,900.4663069138194,0.017666643337986093,884e9,15908217082.119968,1000,653.4614304784272
50,1011.0527969531378,17.22244255303593,20,1028.2752395061736,0.016748864400651094,1011e9,17222442553.03593,1000,696.0632583951387
51,1017.0908618181501,26.33264386252465,20,1043.4235056806747,0.025236774635766537,1017e9,26332643862.52465,1000,103.13760548479165
52,1040.113369241155,6.182268583300488,20,1046.2956378244555,0.0059087205946449055,1040e9,6182268583.3004875,1000,616.151320887347
53,1003.9361772248342,14.26600698440728,20,1018.2021842092414,0.01401097660725073,1003e9,14266006984.40728,1000,843.4061250213077
54,1092.2414820148933,12.916183512509622,19,1105.157665527403,0.011687186286081421,1092e9,12916183512.509623,1000,800.3922381935479
55,1022.9637397577046,20.272734843308193,20,1043.2364746010128,0.019432540307854487,1022e9,20272734843.308193,1000,77.02080311251444
56,976.3301561307729,3.982113205079199,21,980.3122693358521,0.004062086469423692,976e9,3982113205.079199,1000,94.6365859857806
57,923.2624938949773,12.50658396079468,22,935.769077855772,0.013365032310591366,923e9,12506583960.79468,1000,37.396969125251246
58,951.2517838398854,17.664557694780566,21,968.916341534666,0.01823125169589119,951e9,17664557694.780567,1000,409.3082844032185
59,1058.6582472571174,12.830722414773701,19,1071.488969671891,0.011974665888257064,1058e9,12830722414.7737,1000,590.5881216197591
60,942.5253688387428,1.4117425827193595,22,943.9371114214622,0.0014955896591388755,942e9,1411742582.7193594,1000,31.90411332182039
