app_id,Tcomp,Tio,iter,witer,alpha_io,compute_size,io_size,mu,desyn_time
1,9.751577438311239,0.2268798044890427,2005,9.978457242800282,0.022736962134376277,9e9,226879804.4890427,10,3.3687953589158917
2,9.896898079610096,0.19808725310312478,1982,10.094985332713222,0.0196223418434512,9e9,198087253.10312477,10,10.053376716197743
3,9.674884714438544,0.1829274054276059,2029,9.85781211986615,0.018556592802063843,9e9,182927405.4276059,10,1.892081111286893
4,10.437616040720048,0.1703203007688917,1886,10.607936341488939,0.01605593164268418,10e9,170320300.76889172,10,3.315117934859339
5,10.686474993413068,0.16517757278642392,1844,10.851652566199492,0.015221421048893114,10e9,165177572.78642392,10,3.132578444529586
6,11.530768171941494,0.2630918512380917,1696,11.793860023179585,0.022307527028556595,11e9,263091851.2380917,10,11.235419346460379
7,11.702295304000073,0.30602402357579983,1666,12.008319327575872,0.025484334254257137,11e9,306024023.5757998,10,6.4532781980280545
8,8.365897422511058,0.05819424180535778,2375,8.424091664316416,0.006908073193441448,8e9,58194241.805357784,10,0.42287491883433637
9,8.641070977151541,0.12421299367214601,2282,8.765283970823686,0.01417101762881888,8e9,124212993.672146,10,2.3124884550364286
10,9.463425267726139,0.17078584213817297,2076,9.634211109864312,0.01772701886958945,9e9,170785842.13817295,10,1.8643937405286994
11,10.183258901294213,0.26302227778663423,1915,10.446281179080847,0.025178556203651527,10e9,263022277.78663424,10,2.54751720184146
12,9.304620419834437,0.2404031733800438,2096,9.54502359321448,0.02518623144639951,9e9,240403173.3800438,10,8.392540105732355
13,8.654828999131475,3.07351937288728e-05,2311,8.654859734325203,3.5512064519055013e-06,8e9,30735.193728872797,10,5.841952746799132
14,8.49244974905162,0.01871819069393764,2350,8.511167939745556,0.0021992505407544835,8e9,18718190.69393764,10,5.091104565603113
15,7.702679766484757,0.1341949644481889,2553,7.836874730932946,0.017123530623567026,7e9,134194964.4481889,10,6.774597949277683
16,11.802665811807673,0.2355366463431449,1662,12.038202458150817,0.0195657655004521,11e9,235536646.3431449,10,9.322375159188338
17,9.570959189824734,0.2487044735996059,2037,9.81966366342434,0.02532718860076283,9e9,248704473.5996059,10,2.931508155396757
18,8.987312100384266,0.2400569236592064,2168,9.227369024043472,0.026015749780213343,8e9,240056923.6592064,10,8.093971689977234
19,10.123104546718535,0.011443946921682945,1974,10.134548493640217,0.0011292014566672034,10e9,11443946.921682945,10,9.505970668486382
20,10.560064089050226,0.20619734352342212,1858,10.766261432573648,0.019152176901404777,10e9,206197343.52342212,10,9.468871954226685
21,96.6498601212012,1.1894264791378824,205,97.83928660033908,0.012156941454372381,96e9,1189426479.1378825,100,72.63414574722067
22,93.94206551339494,1.7652159200459494,209,95.70728143344088,0.018443904095986254,93e9,1765215920.0459495,100,41.420433497207185
23,91.86068947850637,2.312231299242214,213,94.17292077774859,0.024553037966180972,91e9,2312231299.2422137,100,39.411686558280365
24,92.5182955213515,1.3685257528124024,214,93.8868212741639,0.014576334934336497,92e9,1368525752.8124025,100,46.57376644708345
25,81.82323960681546,0.8289581560757482,242,82.6521977628912,0.010029475059499627,81e9,828958156.0757482,100,71.72817115076995
26,102.0194158202002,0.11893055886817208,196,102.13834637906837,0.0011644065435207106,102e9,118930558.86817208,100,25.03520511175177
27,69.35452206060972,0.46593601952300984,287,69.82045808013274,0.006673345210486251,69e9,465936019.52300984,100,1.3030529336025847
28,101.30711116923256,1.277118758963229,195,102.58422992819578,0.012449464794512305,101e9,1277118758.963229,100,87.60669804284043
29,105.18796096985368,0.7995803922352386,189,105.98754136208892,0.007544097937922763,105e9,799580392.2352386,100,44.9484848167814
30,96.30670694996813,1.5388936133253717,205,97.8456005632935,0.015727775234308114,96e9,1538893613.3253717,100,0.7459116872228416
31,109.87593531972088,1.1730320582069544,181,111.04896737792784,0.010563196452019481,109e9,1173032058.2069545,100,68.01774522942463
32,106.9957496153648,1.6691300003056604,185,108.66487961567046,0.015360344632130405,106e9,1669130000.3056605,100,6.834729998164746
33,91.46097701923587,1.838600729200549,215,93.29957774843642,0.01970642068882634,91e9,1838600729.2005491,100,50.30969747889781
34,99.3894955686819,1.06019641624815,200,100.44969198493004,0.01055450141556637,99e9,1060196416.2481501,100,10.37912139035291
35,94.63299997877748,0.516986039668565,211,95.14998601844604,0.0054333800907584015,94e9,516986039.66856503,100,58.33069548255953
36,101.75992466758322,1.2654664948404974,195,103.02539116242372,0.012283054502995655,101e9,1265466494.8404975,100,97.93462996085195
37,99.8489472261579,0.8945598446673785,199,100.74350707082529,0.00887957815523019,99e9,894559844.6673784,100,0.8067410949670231
38,110.99216628249987,2.227751430476866,177,113.21991771297674,0.01967632087601784,110e9,2227751430.4768662,100,74.57363674583438
39,99.94370988902496,2.1490774657230407,196,102.092787354748,0.021050237939488427,99e9,2149077465.7230406,100,19.62991654694021
40,103.47220891235226,1.8025841509923937,190,105.27479306334465,0.017122656796938703,103e9,1802584150.9923937,100,90.9155430875111
41,973.1095183462733,11.823873731731753,21,984.933392078005,0.012004744510474799,973e9,11823873731.731752,1000,654.3071690822806
42,1021.9608491345665,8.874404042345914,20,1030.8352531769124,0.008608945042378061,1021e9,8874404042.345913,1000,357.73314727933257
43,1156.4160063911154,0.8038928849938748,18,1157.2198992761093,0.0006946759950263076,1156e9,803892884.9938748,1000,584.5062848536202
44,983.7610661003374,4.650807449178385,21,988.4118735495158,0.0047053334481674414,983e9,4650807449.178385,1000,845.7383182624127
45,1120.9376416314042,0.8976674583997352,18,1121.835309089804,0.0008001775760900712,1120e9,897667458.3997352,1000,592.8102112301045
46,1025.3935737248862,13.316214798813233,20,1038.7097885236994,0.012819956975412104,1025e9,13316214798.813232,1000,313.64236225261254
47,1029.8554341715571,13.50368268286703,20,1043.3591168544242,0.012942507009071494,1029e9,13503682682.86703,1000,69.7002720500525
48,829.5136317890156,3.0958247835503463,25,832.6094565725659,0.0037182195795544995,829e9,3095824783.5503464,1000,145.07324424450744
49,1096.1470723725702,23.513142678085778,18,1119.660215050656,0.021000248434318074,1096e9,23513142678.085777,1000,525.3142975757328
50,943.3373580058667,11.770118044383462,21,955.1074760502502,0.012323344062866714,943e9,11770118044.383463,1000,805.1444280563813
51,845.7079213294693,14.072052087454564,24,859.7799734169239,0.016367038687269766,845e9,14072052087.454563,1000,263.48827628437397
52,1014.8069052321698,16.39836597887001,20,1031.2052712110399,0.015902135526917827,1014e9,16398365978.87001,1000,443.60786190934095
53,1045.2904528392269,6.559183413268481,20,1051.8496362524954,0.006235856520935237,1045e9,6559183413.26848,1000,480.39381388651776
54,1142.885048335047,21.97969232310963,18,1164.8647406581567,0.018868879412292067,1142e9,21979692323.10963,1000,892.9455333247587
55,910.612552541765,1.8559763605763226,22,912.4685289023413,0.002034016847473062,910e9,1855976360.5763226,1000,801.7505518220505
56,1001.5322750361713,2.4016184255469097,20,1003.9338934617182,0.00239220773517842,1001e9,2401618425.54691,1000,367.02153095721667
57,994.0884016559754,6.855953345248773,20,1000.9443550012242,0.006849484999833371,994e9,6855953345.248773,1000,206.96770427268896
58,1012.8427275565108,22.556244713123238,20,1035.398972269634,0.021785075432013506,1012e9,22556244713.123238,1000,950.1813335657276
59,992.9050141145323,6.949489601047236,21,999.8545037155795,0.006950500873099133,992e9,6949489601.0472355,1000,95.11070859377062
60,795.4470634495634,7.528501237310145,25,802.9755646868736,0.009375753844073626,795e9,7528501237.310145,1000,631.7790951624697
