app_id,start_app,end_app,effective_cpu,effective_io,effective_iter,total_bytes,stretch,utilization,Tcomp,Tio,iterations,priority,group_id
app_1,4.0362,19955.9,7296,704,821.716,1.94084e+11,1.06808,0.953766,9,0.236399,2039,1,1
app_10,8.79064,20833.5,7512.2,487.8,743.716,1.2654e+11,1.04729,0.953766,10,0.170081,1955,1.00001,1.00001
app_11,1.26275,19979,7395.6,604.4,734.279,1.61533e+11,1.0586,0.953766,10,0.220072,1860,1.00001,1.00001
app_12,3.01014,20950.5,7303.6,696.4,913.224,1.85869e+11,1.06817,0.953766,8,0.203581,2394,1.00001,1.00001
app_13,0.0100072,20272.6,7376.4,623.6,693.867,1.71516e+11,1.0599,0.953766,11,0.247142,1728,1.00001,1.00001
app_14,2.07125,19252,7632.4,367.6,861.732,8.8108e+10,1.0362,0.953766,9,0.102213,2034,1.00001,1.00001
app_15,6.87411,19162.9,7868.8,131.2,973.448,2.16847e+10,1.01388,0.953766,8,0.0222865,2340,1.00002,1.00002
app_16,5.2149,19616.2,7450.1,549.9,680.616,1.50468e+11,1.05255,0.953766,11,0.220952,1674,1.00002,1.00002
app_17,8.03497,19262.9,7308.6,691.4,916.819,1.84031e+11,1.06772,0.953766,8,0.200688,2204,1.00002,1.00002
app_18,8.65711,19960.6,7569.3,430.7,760.125,1.10987e+11,1.04163,0.953766,10,0.146036,1907,1.00002,1.00002
app_19,6.85125,19913.3,7737.4,262.6,717.634,6.51872e+10,1.0253,0.953766,11,0.09079,1773,1.00002,1.00002
app_2,3.68424,19475.3,7736,264,869.453,6.08168e+10,1.02606,0.953766,9,0.0699043,2122,1,1
app_20,9.69044,20173,7738.6,261.4,773.555,6.3967e+10,1.0253,0.953766,10,0.0827516,1957,1.00002,1.00002
app_21,13.814,21028,7700.7,299.3,89.1526,8.04695e+10,1.02812,0.953766,82,0.904152,239,1.00002,1.00002
app_22,86.4123,20825.3,7355.5,644.5,76.0368,1.88772e+11,1.06041,0.953766,98,2.48384,198,1.00002,1.00002
app_23,96.5822,19690.8,7621.4,378.6,80.8019,1.07225e+11,1.03511,0.953766,100,1.32377,196,1.00002,1.00002
app_24,52.1268,21229.7,7771.8,228.2,65.1487,6.25427e+10,1.02115,0.953766,109,0.962195,182,1.00002,1.00002
app_25,1.79313,19977.9,7764,235.999,82.8841,6.58632e+10,1.02173,0.953766,99,0.802156,200,1.00003,1.00003
app_26,65.1709,20241.4,7812.8,187.2,89.2129,4.54163e+10,1.01804,0.953766,88,0.510295,226,1.00003,1.00003
app_27,54.8561,20656.1,7712.6,287.4,74.7129,7.27939e+10,1.02757,0.953766,98,0.970585,201,1.00003,1.00003
app_28,45.3681,19593.2,7855,145,79.7317,3.86278e+10,1.01348,0.953766,97,0.482848,204,1.00003,1.00003
app_29,79.0954,20297.2,7855.2,144.8,95.272,3.90749e+10,1.01339,0.953766,86,0.411315,231,1.00003,1.00003
app_3,9.18494,20052.1,7736.9,263.1,700.248,6.80502e+10,1.02499,0.953766,11,0.0972145,1768,1,1
app_30,50.5147,20909.2,7479.5,520.5,76.2688,1.49127e+11,1.04868,0.953766,94,1.93671,208,1.00003,1.00003
app_31,10.1347,19914.2,7835,165,72.9299,4.77237e+10,1.01488,0.953766,108,0.65375,184,1.00003,1.00003
app_32,84.5174,20402.6,7738.4,261.6,76.8476,7.01586e+10,1.02452,0.953766,103,0.911151,192,1.00003,1.00003
app_33,49.2259,20624,7807.5,192.5,67.7184,4.95408e+10,1.0182,0.953766,109,0.728541,182,1.00003,1.00003
app_34,25.5005,19937,7695,305,89.314,9.24464e+10,1.02729,0.953766,88,1.03872,223,1.00003,1.00003
app_35,63.7936,20303.3,7951.5,48.5,79.8621,1.25963e+10,1.00451,0.953766,99,0.157454,202,1.00004,1.00004
app_36,27.7123,21979.6,7385.5,614.5,65.0261,1.87091e+11,1.05644,0.953766,108,2.87832,180,1.00004,1.00004
app_37,38.563,19837.9,7929.4,70.6,70.709,1.69877e+10,1.00675,0.953766,110,0.239264,181,1.00004,1.00004
app_38,93.3098,21274.5,7286,714,77.7291,2.06201e+11,1.06778,0.953766,94,2.64361,206,1.00004,1.00004
app_39,73.3923,20619.8,7838.1,161.9,79.619,4.48738e+10,1.01485,0.953766,96,0.560922,208,1.00004,1.00004
app_4,2.81617,20077.1,7582.4,417.6,839.77,1.07153e+11,1.04037,0.953766,9,0.127564,2121,1,1
app_40,63.3389,20593.2,7795.2,204.8,98.0447,5.66109e+10,1.01887,0.953766,79,0.577662,251,1.00004,1.00004
app_41,874.037,22701.8,7175.6,824.4,7.4163,2.42583e+11,1.07843,0.953766,1068,30.3228,19,1.00004,1.00004
app_42,119.468,21929.9,7553.9,446.1,7.80057,1.61625e+11,1.03687,0.953766,933,23.0893,21,1.00004,1.00004
app_43,505.354,22775.9,7515.5,484.5,8.24442,1.31195e+11,1.0462,0.953766,873,16.3994,23,1.00004,1.00004
app_44,323.533,19188.6,7667.6,332.4,6.51435,1.22978e+11,1.02688,0.953766,1110,17.5682,18,1.00004,1.00004
app_45,645.25,23772.4,7686.5,313.5,7.69428,9.14948e+10,1.02854,0.953766,852,11.4368,24,1.00004,1.00004
app_46,226.706,23192.5,7784.2,215.8,6.88673,9.14081e+10,1.01579,0.953766,1078,13.0583,19,1.00005,1.00005
app_47,187.894,20328.4,7656.9,343.1,9.48866,7.93698e+10,1.03409,0.953766,965,8.81887,21,1.00005,1.00005
app_48,405.197,22099.4,7499.2,500.8,6.36383,1.69116e+11,1.04325,0.953766,1138,28.186,18,1.00005,1.00005
app_49,242.539,21951.2,7556.9,443.1,6.70214,1.17533e+11,1.04242,0.953766,1037,16.7904,19,1.00005,1.00005
app_5,0.0590692,19147.3,7823.7,176.3,878.354,3.56196e+10,1.0179,0.953766,9,0.0405229,2076,1.00001,1.00001
app_50,339.768,20659.5,7675.2,324.8,6.72281,8.86234e+10,1.03042,0.953766,1119,14.7706,18,1.00005,1.00005
app_51,181.22,19170,7898.6,101.4,6.19508,2.38821e+10,1.00978,0.953766,1206,3.98035,17,1.00005,1.00005
app_52,301.617,21529.3,7401.4,598.6,6.06117,1.39062e+11,1.06094,0.953766,1177,23.177,17,1.00005,1.00005
app_53,83.4193,23089.2,7493.1,506.9,6.38861,1.65906e+11,1.04452,0.953766,975,27.6509,20,1.00005,1.00005
app_54,336.731,21660,7269.3,730.702,9.38646,2.20352e+11,1.06814,0.953766,917,22.2356,22,1.00005,1.00005
app_55,914.943,23506.5,7872.7,127.3,6.86886,2.38044e+10,1.01311,0.953766,1024,3.9674,20,1.00005,1.00005
app_56,837.691,24421.8,7745.12,254.876,5.82372,8.20256e+10,1.02208,0.953766,996,13.809,20,1.00006,1.00006
app_57,37.3875,19281.2,7582,418,8.43874,1.08479e+11,1.04025,0.953766,1014,12.0532,20,1.00006,1.00006
app_58,442.792,21114,7941.1,58.9,6.71094,2.24158e+10,1.00458,0.953766,1027,3.20226,20,1.00006,1.00006
app_59,645.049,20822.1,7551.3,448.7,9.26407,1.11343e+11,1.04403,0.953766,891,12.3715,23,1.00006,1.00006
app_6,1.15106,20619.3,7706.6,293.4,841.98,7.39318e+10,1.02821,0.953766,9,0.087805,2163,1.00001,1.00001
app_60,204.073,21440.4,7515.2,484.8,7.13916,1.61686e+11,1.04209,0.953766,982,23.098,20,1.00006,1.00006
app_7,6.75231,19755.5,7760.9,239.1,774.668,5.69272e+10,1.0233,0.953766,10,0.0734544,1920,1.00001,1.00001
app_8,3.68664,18100.1,7737,263,1101.81,5.62277e+10,1.02653,0.953766,7,0.0510697,2488,1.00001,1.00001
app_9,1.93048,20267.2,7303.9,696.1,796.919,1.87838e+11,1.06784,0.953766,9,0.235682,2029,1.00001,1.00001
