app_id,start_app,end_app,effective_cpu,effective_io,effective_iter,total_bytes,stretch,utilization,Tcomp,Tio,iterations,priority,group_id
app_1,9.00986,18500,7663,260.923,855.802,2.14063e+11,1.01561,0.964755,9,0.250074,1977,0.1,1
app_10,0.300352,19365.6,7698.1,198.796,1094,1.11323e+11,1.0244,0.964755,7,0.101758,2654,0.1,1
app_11,0.611353,20058.5,7815.9,98.5351,878.456,6.7674e+10,1.01477,0.964755,9,0.0770775,2202,0.1,1
app_12,9.03146,20202.9,7853,77.8431,714.258,4.71094e+10,1.01264,0.964755,11,0.0659796,1786,0.1,1
app_13,5.71764,18647.8,7851.8,76.6024,790.061,3.40419e+10,1.01448,0.964755,10,0.043091,1834,0.1,1
app_14,0.552802,19990.2,7704.5,232.962,764.368,1.89971e+11,1.01337,0.964755,10,0.248653,1908,0.1,1
app_15,7.89834,19253.2,7682.7,250.053,843.282,1.93652e+11,1.0157,0.964755,9,0.229717,2033,0.1,1
app_16,8.65903,19010.7,7853.1,78.0216,795.294,3.32439e+10,1.01441,0.964755,10,0.0418162,1894,0.1,1
app_17,0.31598,19806.8,7723.3,218.191,698.339,1.87764e+11,1.01124,0.964755,11,0.269003,1748,0.1,1
app_18,8.90938,19287.4,7668.9,254.093,851.442,1.99477e+11,1.01673,0.964755,9,0.234128,2063,0.1,1
app_19,8.38115,19308.8,7674.5,253.985,865.552,1.94095e+11,1.0167,0.964755,9,0.224128,2060,0.1,1
app_2,1.10851,18748.7,7678.2,257.284,845.471,2.08384e+11,1.01438,0.964755,9,0.246316,1997,0.1,1
app_20,1.15052,19973.7,7836.5,92.2686,802.025,6.38754e+10,1.01261,0.964755,10,0.0796452,1982,0.1,1
app_21,17.0226,20110.4,7923.7,5.87603,72.9205,3.07781e+08,1.00959,0.964755,106,0.00421618,188,0.01,2
app_22,13.1199,20445.9,7697.7,237.882,83.0072,1.48901e+11,1.01955,0.964755,91,1.79399,215,0.01,2
app_23,85.1889,20284.3,7886.6,48.0224,89.2931,2.63431e+10,1.011,0.964755,85,0.29599,234,0.01,2
app_24,58.1436,20700.3,7671.5,288.471,69.7068,1.78156e+11,1.01915,0.964755,108,2.58198,181,0.01,2
app_25,31.2479,20391.7,7733.7,186.803,82.0665,1.17028e+11,1.01901,0.964755,91,1.42717,215,0.01,2
app_26,11.1156,19910.3,7857.3,76.3196,92.8494,4.20905e+10,1.01274,0.964755,84,0.452586,235,0.01,2
app_27,70.2702,20448.8,7922.3,37.1508,66.8185,1.95623e+10,1.00732,0.964755,113,0.291974,177,0.01,2
app_28,39.866,19505.4,7828.3,112.079,86.046,6.99284e+10,1.01289,0.964755,94,0.813121,210,0.01,2
app_29,5.23482,20159.4,7706.4,254.934,80.3962,1.57835e+11,1.01726,0.964755,97,1.94858,201,0.01,2
app_3,5.17425,18475.9,7774.2,134.782,941.52,8.97066e+10,1.01731,0.964755,8,0.0952299,2223,0.1,1
app_30,97.6582,20452.1,7646.3,306.227,79.7561,1.92745e+11,1.02053,0.964755,96,2.40931,202,0.01,2
app_31,14.3654,19626,7778,170.206,107.704,1.03462e+11,1.01504,0.964755,73,0.966931,270,0.01,2
app_32,2.78193,19992,7729,230.966,67.3385,1.51143e+11,1.01521,0.964755,111,2.22269,176,0.01,2
app_33,80.8581,19670.8,7845.8,83.585,85.2783,4.88559e+10,1.01334,0.964755,95,0.574776,210,0.01,2
app_34,110.333,19540.5,7777.09,160.137,71.3124,1.01267e+11,1.01544,0.964755,111,1.42441,178,0.01,2
app_35,8.55939,20291,7770.3,170.744,80.231,1.04492e+11,1.0159,0.964755,98,1.30616,201,0.01,2
app_36,109.56,20413.5,7662.69,245.149,72.1238,1.55549e+11,1.02325,0.964755,108,2.13583,181,0.01,2
app_37,25.4617,20244.2,7762.5,181.19,91.5002,1.12079e+11,1.01593,0.964755,87,1.21825,226,0.01,2
app_38,68.0615,20791.1,7904.7,44.7516,68.5878,2.51075e+10,1.00885,0.964755,111,0.363877,179,0.01,2
app_39,46.6305,20200.2,7717,211.826,86.1347,1.33965e+11,1.01898,0.964755,91,1.55773,216,0.01,2
app_4,4.3401,18559.7,7699.5,235.745,772.803,1.93063e+11,1.01361,0.964755,10,0.249758,1792,0.1,1
app_40,30.4192,19894.4,7838.4,94.2311,72.5722,5.82083e+10,1.01309,0.964755,103,0.797374,192,0.01,2
app_41,728.374,21832.4,7605.28,292.638,7.70458,1.22462e+11,1.03523,0.964755,862,15.5637,23,0.001,3
app_42,681.446,21219,7359.5,393.631,7.23371,1.69089e+11,1.06262,0.964755,1020,21.1362,20,0.001,3
app_43,121.28,21511.8,7829.9,128.497,6.13124,4.87466e+10,1.0154,0.964755,1012,8.12443,20,0.001,3
app_44,451.372,20174.4,7619.9,250.291,8.51412,1.06291e+11,1.03544,0.964755,979,11.8101,21,0.001,3
app_45,82.7131,18922.7,7837.3,53.921,9.60919,1.63033e+10,1.01864,0.964755,962,1.63033,21,0.001,3
app_46,363.767,23505.2,7565.4,280.416,6.3656,1.16344e+11,1.04143,0.964755,1060,19.3907,19,0.001,3
app_47,157.613,21372.6,7672,164.306,8.2016,6.54292e+10,1.03394,0.964755,964,8.17865,21,0.001,3
app_48,325.816,24184.2,7503.3,404.178,7.27417,1.78984e+11,1.04136,0.964755,1011,22.373,20,0.001,3
app_49,365.178,20273.2,7354.8,570.553,8.24257,2.43136e+11,1.05292,0.964755,1069,27.0151,19,0.001,3
app_5,8.37731,19471.6,7687.2,244.008,833.195,1.86635e+11,1.01602,0.964755,9,0.224052,2066,0.1,1
app_50,760.63,25422.1,7657.9,186.039,5.77899,8.44894e+10,1.03327,0.964755,1021,14.0816,20,0.001,3
app_51,385.435,20215,7648.6,43.8206,7.45934,2.0481e+10,1.04315,0.964755,1014,2.92586,20,0.001,3
app_52,86.5476,21856.8,7700.8,244.407,6.84213,1.00032e+11,1.02553,0.964755,1112,14.2903,18,0.001,3
app_53,410.216,18203.3,7546.9,162.705,8.8071,7.95314e+10,1.04898,0.964755,964,8.83682,21,0.001,3
app_54,735.111,21037,7466.2,361.364,7.47555,1.64824e+11,1.04835,0.964755,945,20.603,21,0.001,3
app_55,200.537,24350.2,7754.6,1.83554,5.76385,3.04543e+08,1.03161,0.964755,1032,0.0507572,20,0.001,3
app_56,399.295,20246.2,7732.6,13.3336,10.4168,5.55544e+09,1.03384,0.964755,861,0.555544,24,0.001,3
app_57,835.224,22489.2,7435.87,417.27,9.10889,1.68034e+11,1.05209,0.964755,898,17.2165,22,0.001,3
app_58,122.962,23206.5,7812.7,143.298,7.49599,4.62732e+10,1.01794,0.964755,1015,6.61046,20,0.001,3
app_59,164.229,21694.1,7629.9,192.514,6.85088,9.7435e+10,1.03529,0.964755,999,13.9193,20,0.001,3
app_6,2.34734,20151.2,7869.9,63.3397,707.086,1.99757e+10,1.01396,0.964755,11,0.0282541,1810,0.1,1
app_60,501.198,19996.8,7686.6,203.337,9.86225,9.57024e+10,1.02797,0.964755,1005,9.57024,20,0.001,3
app_7,2.15132,19919.3,7747.9,171.211,865.693,1.18722e+11,1.01695,0.964755,9,0.137092,2124,0.1,1
app_8,4.27202,19028,7831.7,92.59,872.543,5.22175e+10,1.01472,0.964755,9,0.0598139,2083,0.1,1
app_9,5.35188,19263.6,7689.2,245.785,845.562,1.84623e+11,1.01602,0.964755,9,0.21823,2054,0.1,1
