app_id,start_app,end_app,effective_cpu,effective_io,effective_iter,total_bytes,stretch,utilization,Tcomp,Tio,iterations,priority,group_id
app_1,1.79431,25553.2,5544.4,146.058,551.083,1.12432e+11,1.41422,0.865848,10,0.204051,1939,1,1
app_10,7.27411,24075,5637.9,73.8253,557.322,5.37816e+10,1.40556,0.865848,10,0.0963828,1817,1,1
app_11,8.6226,24486.4,5507.3,113.569,615.874,7.90561e+10,1.43206,0.865848,9,0.128338,2011,1,1
app_12,7.42653,24090.9,5646.5,110.447,521.255,8.66704e+10,1.39539,0.865848,11,0.166035,1672,1,1
app_13,9.75081,25771.9,5609.8,72.515,550.332,5.11738e+10,1.41318,0.865848,10,0.0930433,1964,1,1
app_14,3.10312,24663.1,5591.1,157.233,557.104,1.24577e+11,1.39966,0.865848,10,0.223657,1854,1,1
app_15,2.65445,26153.6,5518.4,114.51,626.971,7.93914e+10,1.42914,0.865848,9,0.126621,2185,1,1
app_16,3.84209,24894.1,5651.1,167.209,509.496,1.48255e+11,1.37946,0.865848,11,0.291268,1719,1,1
app_17,9.35758,24459.8,5518,111.021,558.532,8.24721e+10,1.42845,0.865848,10,0.147535,1812,1,1
app_18,7.77864,25773.9,5707.4,87.5705,515.209,5.60499e+10,1.38806,0.865848,11,0.108835,1800,1,1
app_19,3.35771,24231,5587.9,163.29,557.816,1.32854e+11,1.39842,0.865848,10,0.23809,1802,1,1
app_2,5.04537,25914.8,5488.88,104.828,605.289,6.82735e+10,1.43959,0.865848,9,0.112735,2156,1,1
app_20,1.19745,25417.5,5737.2,70.9875,531.849,5.04807e+10,1.38225,0.865848,11,0.0948885,1790,1,1
app_21,8.72507,21169.9,7514.8,45.4732,65.6064,4.18476e+10,1.05867,0.865848,115,0.634055,173,1,1
app_22,93.9583,21225,7300.3,184.852,76.3074,1.81722e+11,1.06923,0.865848,95,2.39108,205,1,1
app_23,61.0006,20463.6,7426.6,16.4633,70.576,1.3685e+10,1.07523,0.865848,108,0.192746,185,1,1
app_24,80.1603,21196.6,7374.3,140.825,79.3579,1.36984e+11,1.06506,0.865848,89,1.73398,219,1,1
app_25,66.4228,20954.6,7184.9,111.332,86.5528,1.06857e+11,1.09713,0.865848,86,1.24252,229,1,1
app_26,64.9518,20517.2,7321.7,115.83,82.5397,1.11984e+11,1.07618,0.865848,94,1.36566,209,1,1
app_27,44.9972,21428.8,7524.4,35.3532,67.9189,3.26049e+10,1.05862,0.865848,106,0.479484,188,1,1
app_28,48.7592,21183.2,7548.8,42.1478,69.5523,3.91744e+10,1.0543,0.865848,101,0.567745,197,1,1
app_29,12.1245,21735.1,7332.3,160.396,67.0111,1.56738e+11,1.06823,0.865848,104,2.33937,188,1,1
app_3,1.11253,25779.6,5563.6,152.887,564.201,1.18225e+11,1.408,0.865848,10,0.209618,1951,1,1
app_30,31.8945,21805.2,7216.1,160.766,76.9255,1.56542e+11,1.08509,0.865848,96,2.03302,204,1,1
app_31,78.9913,20876,7296.2,116.47,76.8251,1.12885e+11,1.07976,0.865848,98,1.46605,201,1,1
app_32,86.575,20490.6,7303.2,139.496,68.4595,1.36506e+11,1.07531,0.865848,109,1.97835,179,1,1
app_33,47.2691,21127.7,7191.7,188.423,93.5631,1.84089e+11,1.08463,0.865848,77,1.9584,253,1,1
app_34,8.2073,21622.6,7496,69.501,63.7089,6.60393e+10,1.05792,0.865848,107,1.03186,184,1,1
app_35,58.7465,21370.9,7431.7,31.7056,75.3892,2.77637e+10,1.07246,0.865848,95,0.365312,210,1,1
app_36,77.1198,20906,7466.5,61.6648,80.3353,5.70191e+10,1.06333,0.865848,96,0.712739,206,1,1
app_37,50.9514,21545.8,7467,43.7387,72.6577,3.95857e+10,1.06573,0.865848,102,0.54227,194,1,1
app_38,0.951692,20913.6,7413.8,97.5978,76.0596,9.38423e+10,1.06558,0.865848,98,1.23477,202,1,1
app_39,4.09517,19836,7287.5,139.738,80.6714,1.35978e+11,1.07766,0.865848,105,1.67874,187,1,1
app_4,5.15321,24265.4,5242.3,129.778,761.096,8.28811e+10,1.5023,0.865848,7,0.108911,2480,1,1
app_40,36.2472,21201.6,7276.3,171.898,85.9495,1.67131e+11,1.07477,0.865848,82,1.94338,238,1,1
app_41,478.714,22256.1,7814,167.31,8.62157,1.67084e+11,1.00237,0.865848,870,20.8855,23,1,1
app_42,997.738,19158.8,7833.9,58.3641,7.92151,5.79932e+10,1.0137,0.865848,1001,7.24915,20,1,1
app_43,37.4836,21833.1,7919.8,46.1315,6.71533,4.56764e+10,1.00433,0.865848,1163,7.61273,18,1,1
app_44,838.043,19343,7753.7,225.252,9.92939,2.24918e+11,1.00268,0.865848,935,22.4918,21,1,1
app_45,78.4393,21425.1,7842.7,104.513,6.64412,1.04151e+11,1.00669,0.865848,1070,14.8787,19,1,1
app_46,614.869,20195.9,7965.8,23.0778,7.88507,2.24031e+10,1.00148,0.865848,1072,2.80039,19,1,1
app_47,716.013,23618.3,7770.2,175.142,6.80264,1.7472e+11,1.00693,0.865848,968,24.9599,21,1,1
app_48,72.8745,21762.7,7931.7,42.242,6.92128,4.19837e+10,1.0033,0.865848,1095,5.99768,19,1,1
app_49,167.532,20939.7,7923.3,58.9173,9.44253,5.85009e+10,1.00228,0.865848,791,6.50011,26,1,1
app_5,6.33266,26087.6,5510.4,117.369,617.11,8.36721e+10,1.43009,0.865848,9,0.135611,2182,1,1
app_50,841.725,22492.9,7899.3,78.0365,6.50465,7.77774e+10,1.00287,0.865848,1058,12.9629,19,1,1
app_51,654.831,21346.9,7738.7,174.043,6.48691,1.73698e+11,1.01107,0.865848,1185,24.814,17,1,1
app_52,769.762,20836,7954,18.7744,8.74137,1.84438e+10,1.00346,0.865848,918,2.04931,22,1,1
app_53,536.847,20528.5,7914.5,46.2872,9.13473,4.58841e+10,1.00498,0.865848,975,5.09824,21,1,1
app_54,977.082,19456.4,7739.6,199.116,8.72372,1.98569e+11,1.00779,0.865848,1087,24.8211,18,1,1
app_55,315.112,21883.8,7879.6,84.0644,6.82106,8.35087e+10,1.00463,0.865848,1038,11.9298,20,1,1
app_56,454.821,23100.2,7853.9,17.9658,9.1906,1.74646e+10,1.01634,0.865848,807,1.94052,25,1,1
app_57,769.387,22086.6,7779.7,192.252,8.94492,1.9176e+11,1.00358,0.865848,830,21.3067,24,1,1
app_58,463.278,19488.7,7816.3,83.529,8.62216,8.31298e+10,1.01273,0.865848,881,10.3912,23,1,1
app_59,533.631,19316,7834.5,105.643,10.4693,1.05295e+11,1.00758,0.865848,968,9.57223,21,1,1
app_6,5.6803,25307,5468,170.118,608.734,1.35456e+11,1.42769,0.865848,9,0.222789,2103,1,1
app_60,429.224,19664.3,7806,114.279,10.3011,1.13689e+11,1.01014,0.865848,825,10.3353,24,1,1
app_7,4.98816,24536.8,5525.5,72.6697,610.494,4.64512e+10,1.43576,0.865848,9,0.0761496,2039,1,1
app_8,4.22106,25321.8,5551.7,68.2416,615.975,4.11163e+10,1.43041,0.865848,9,0.0667472,2112,1,1
app_9,9.81286,24166.2,5654.3,68.2007,568.702,4.5562e+10,1.40354,0.865848,10,0.0800737,1813,1,1
