app_id,start_app,end_app,effective_cpu,effective_io,effective_iter,total_bytes,stretch,utilization,Tcomp,Tio,iterations,priority,group_id
app_1,9.78372,19890.4,7858,84.7853,779.668,5.45128e+10,1.01106,0.96788,10,0.0698882,1966,0.1,1
app_10,9.34221,19495.4,7724.4,227.322,766.345,1.77332e+11,1.01244,0.96788,10,0.231504,1878,0.1,1
app_11,5.8884,19488.8,7693.5,243.971,841.371,1.79928e+11,1.01608,0.96788,9,0.213945,2048,0.1,1
app_12,2.95268,18749.8,7721.3,223.418,772.487,1.63645e+11,1.01459,0.96788,10,0.211701,1820,0.1,1
app_13,3.79278,19670.8,7870,68.9076,801.576,1.07023e+10,1.01514,0.96788,10,0.0133612,1968,0.1,1
app_14,1.50342,19805,7850.6,79.4819,879.739,2.2149e+10,1.01616,0.96788,9,0.025198,2171,0.1,1
app_15,8.58576,19022.2,7781.2,165.314,784.313,1.32618e+11,1.01089,0.96788,10,0.169155,1855,0.1,1
app_16,2.13806,19701.1,7764.6,181.066,860.311,1.47021e+11,1.01117,0.96788,9,0.170756,2126,0.1,1
app_17,8.59107,20069.2,7762.7,183.329,759.342,1.44972e+11,1.01168,0.96788,10,0.191004,1947,0.1,1
app_18,4.74498,18895.2,7873.3,70.0703,722.622,2.76994e+10,1.01253,0.96788,11,0.0383118,1717,0.1,1
app_19,8.0813,19694.8,7859.1,76.7281,878.671,1.40359e+10,1.01611,0.96788,9,0.015968,2166,0.1,1
app_2,0.414685,19320.9,7715.6,238.584,705.023,1.97382e+11,1.011,0.96788,11,0.279974,1715,0.1,1
app_20,8.48392,19800,7822,133.62,706.258,8.02952e+10,1.01236,0.96788,11,0.113572,1772,0.1,1
app_21,48.8912,19954.5,7922.9,12.3568,91.0154,3.41871e+09,1.0093,0.96788,90,0.0375683,222,0.01,2
app_22,43.3539,20329.2,7887.6,56.6668,71.1417,3.39173e+10,1.00991,0.96788,109,0.477708,183,0.01,2
app_23,33.7199,20000.6,7750.7,194.048,87.5871,1.27404e+11,1.01547,0.96788,87,1.44777,224,0.01,2
app_24,59.7788,19713,7664.4,273.157,88.3406,1.85232e+11,1.01916,0.96788,88,2.10491,221,0.01,2
app_25,65.4181,19675.2,7918.7,27.8625,93.9731,1.64137e+10,1.00818,0.96788,92,0.174614,217,0.01,2
app_26,101.491,21227.1,7716,227.062,76.0145,1.49942e+11,1.01704,0.96788,100,1.97292,196,0.01,2
app_27,4.85727,21576.5,7784.3,160.862,77.5848,1.0657e+11,1.01383,0.96788,91,1.36629,216,0.01,2
app_28,7.26422,20557.4,7828.3,132.57,74.2342,8.60795e+10,1.01082,0.96788,101,1.16324,194,0.01,2
app_29,20.9668,20406.9,7724.6,242.629,70.954,1.66044e+11,1.01386,0.96788,110,2.33864,178,0.01,2
app_3,4.93921,19666.8,7735,200.009,976.493,1.50263e+11,1.01455,0.96788,8,0.153801,2360,0.1,1
app_30,20.7854,20733,7898.3,48.2021,79.3589,2.73196e+10,1.00938,0.96788,97,0.345818,204,0.01,2
app_31,1.01215,20370.7,7755.5,190.159,83.4722,1.23656e+11,1.01534,0.96788,88,1.4721,222,0.01,2
app_32,21.6767,20639.4,7673.4,275.898,68.0211,1.844e+11,1.0181,0.96788,116,2.71177,168,0.01,2
app_33,63.3767,20036.1,7769.4,161.221,75.9483,1.0232e+11,1.0163,0.96788,104,1.34632,189,0.01,2
app_34,10.8969,19750.6,7886.6,48.9569,81.6616,2.82473e+10,1.01076,0.96788,102,0.344479,195,0.01,2
app_35,29.7617,20697.8,7775.3,179.701,80.6756,1.17691e+11,1.01356,0.96788,98,1.45298,202,0.01,2
app_36,15.5342,19661.6,7802.3,154.071,76.151,9.86831e+10,1.01253,0.96788,108,1.29846,183,0.01,2
app_37,37.8081,20862.3,7864.3,99.8289,71.1131,6.56993e+10,1.00883,0.96788,99,0.925342,199,0.01,2
app_38,31.678,20525.5,7702.3,246.227,76.4979,1.66304e+11,1.0167,0.96788,99,2.18821,196,0.01,2
app_39,11.3582,20390.1,7750.4,198.279,82.5905,1.32996e+11,1.01479,0.96788,90,1.60236,218,0.01,2
app_4,5.52242,20306.8,7753.1,203.296,687.605,1.56304e+11,1.01145,0.96788,11,0.227187,1774,0.1,1
app_40,6.68572,19982.1,7846,102.015,76.1097,6.49331e+10,1.01126,0.96788,101,0.854383,197,0.01,2
app_41,704.75,20286.3,7626.2,169.341,9.15919,6.6876e+10,1.0399,0.96788,989,7.43067,21,0.001,3
app_42,120.735,22160,7687.1,255.875,7.10487,1.05872e+11,1.02657,0.96788,1138,15.1246,18,0.001,3
app_43,881.045,21675.1,7669.4,132.248,6.34619,5.30202e+10,1.03594,0.96788,1053,8.8367,19,0.001,3
app_44,416.863,22014.9,7700.56,233.573,7.14487,1.15646e+11,1.02351,0.96788,979,14.6671,21,0.001,3
app_45,978.855,21539.5,7585.6,193.2,6.74714,1.04818e+11,1.04026,0.96788,968,17.4697,21,0.001,3
app_46,241.11,21268.2,7926.8,3.45251,6.49193,1.61164e+09,1.00903,0.96788,1263,0.230234,16,0.001,3
app_47,170.687,21042.5,7831.2,42.7529,9.38457,2.42599e+10,1.0184,0.96788,869,2.69554,23,0.001,3
app_48,329.157,19938.1,7706.3,165.174,9.0614,7.86838e+10,1.02762,0.96788,948,8.74265,21,0.001,3
app_49,387.913,24260.1,7621.2,236.917,6.45839,1.09695e+11,1.03481,0.96788,881,18.2825,23,0.001,3
app_5,5.86815,19683.4,7757.3,182.729,864.352,1.48425e+11,1.01192,0.96788,9,0.171589,2128,0.1,1
app_50,307.382,20067.3,7566,286.529,8.05635,1.29994e+11,1.0395,0.96788,984,16.2492,20,0.001,3
app_51,692.064,22214.5,7550.2,263.316,6.5026,1.17597e+11,1.04332,0.96788,1066,16.7995,19,0.001,3
app_52,572.495,19250.5,7505.7,351.005,8.54682,1.66231e+11,1.04276,0.96788,1074,18.4701,19,0.001,3
app_53,338.376,20247.5,7629,274.388,5.93103,1.31618e+11,1.03085,0.96788,1208,21.9363,17,0.001,3
app_54,617.147,22289,7771.9,162.704,6.45016,7.40504e+10,1.01963,0.96788,1137,12.3417,18,0.001,3
app_55,680.82,23960.1,7553.8,322.264,7.08922,1.55403e+11,1.03772,0.96788,962,22.2005,21,0.001,3
app_56,721.492,22729.2,7625.8,284.616,7.59292,1.30256e+11,1.03145,0.96788,960,16.282,21,0.001,3
app_57,143.385,21634.2,7676.1,145.319,9.77742,7.57667e+10,1.03201,0.96788,754,8.41852,27,0.001,3
app_58,784.85,20334.6,7569.3,125.638,8.5455,5.96031e+10,1.04864,0.96788,845,6.62256,24,0.001,3
app_59,312.59,23379.3,7662.11,314.817,7.57793,1.51058e+11,1.02391,0.96788,902,20.995,22,0.001,3
app_6,1.44078,18123.3,7673.9,255.83,965.409,1.91305e+11,1.01714,0.96788,8,0.198244,2179,0.1,1
app_60,599.053,19912.5,7564.5,367.516,9.64733,1.68541e+11,1.03452,0.96788,969,16.8541,21,0.001,3
app_7,2.67506,18827,7771.4,183.447,763.482,1.4545e+11,1.0105,0.96788,10,0.190629,1801,0.1,1
app_8,7.68194,18570.5,7842.9,92.9959,882.17,5.20136e+10,1.01331,0.96788,9,0.0589724,2061,0.1,1
app_9,2.84969,18704.8,7802.65,146.415,770.712,8.98938e+10,1.01362,0.96788,10,0.116705,1840,0.1,1
