app_id,Tcomp,Tio,iter,witer,alpha_io,compute_size,io_size,mu,desyn_time
1,2.109535983139869,0.0011198181981451865,9476,2.110655801338014,0.0005305546254558876,2e9,1119818.1981451865,10,0.39826170371025055
2,2.7097749226193626,0.0052574675648645606,7367,2.715032390184227,0.001936429039989397,2e9,5257467.564864561,10,1.56465853023948
3,14.161223433815309,0.007623225244261208,1412,14.16884665905957,0.0005380272246355996,14e9,7623225.244261208,10,8.763584548490492
4,7.694124471099275,0.028058646467211002,2590,7.722183117566486,0.0036335121869077364,7e9,28058646.467211,10,0.7145000618201995
5,5.176029864798193,0.027845990180718386,3844,5.203875854978911,0.00535100970060156,5e9,27845990.180718385,10,3.3418026848899984
6,13.310715255299634,0.036482250138774514,1499,13.347197505438409,0.002733326612115357,13e9,36482250.138774514,10,8.024686963025166
7,7.920534676625555,0.030763678488363387,2516,7.951298355113918,0.003869013224560687,7e9,30763678.48836339,10,3.2307840974962225
8,6.905951161052247,0.006723396613537018,2894,6.912674557665784,0.0009726187103776111,6e9,6723396.613537017,10,5.232069802728727
9,12.990899488611108,0.0547618734683566,1534,13.045661362079464,0.004197707724311772,12e9,54761873.4683566,10,5.7654991222827
10,18.17378310714863,0.06730066040581792,1097,18.241083767554446,0.0036895099690033833,18e9,67300660.40581793,10,17.68235363202431
11,10.608651536235161,0.011916643839136709,1884,10.620568180074297,0.0011220344935494162,10e9,11916643.839136709,10,0.058997905310907595
12,7.543337737111321,0.00476925121727463,2650,7.548106988328596,0.0006318473260446859,7e9,4769251.21727463,10,5.876020542552949
13,12.553861740571435,0.036039669789045076,1589,12.58990141036048,0.002862585544902466,12e9,36039669.78904507,10,11.924448032432908
14,17.789372139165962,0.02201141502589494,1123,17.811383554191856,0.0012358060202860893,17e9,22011415.02589494,10,11.03302857393415
15,7.257158688709758,0.013326440230809363,2751,7.270485128940567,0.0018329506208275886,7e9,13326440.230809363,10,5.480669797851429
16,11.348163862793504,0.05257043005437711,1755,11.400734292847881,0.004611144221417085,11e9,52570430.05437711,10,1.9430019940783858
17,13.742075048441757,0.06848474170803057,1449,13.810559790149787,0.004958867906055225,13e9,68484741.70803057,10,13.398247558631281
18,8.97571402945736,0.05321657152619542,2216,9.028930600983555,0.0058940060432404184,8e9,53216571.526195414,10,6.7450088285533205
19,1.7337554257123398,0.005543404510382594,11499,1.7392988302227224,0.0031871489901897677,1e9,5543404.510382594,10,1.1627747295845652
20,5.011627860275027,0.006563041841691913,3986,5.018190902116719,0.0013078501734407038,5e9,6563041.841691913,10,1.5414212420031381
21,218.32625410798568,0.4656086711307755,92,218.79186277911646,0.002128089524064409,218e9,465608671.13077545,100,195.58068617839152
22,46.57144254053492,0.23570197279724792,428,46.80714451333217,0.005035598202964773,46e9,235701972.79724792,100,42.85645220829468
23,88.75694382087948,0.5319247491578318,224,89.28886857003732,0.005957346729515283,88e9,531924749.15783185,100,12.243222888652035
24,205.70550694502387,1.229395111698641,97,206.9349020567225,0.005940975154407032,205e9,1229395111.698641,100,74.45238745797474
25,104.82359430166969,0.18221082447956985,191,105.00580512614926,0.001735245249161891,104e9,182210824.47956985,100,39.35587509805573
26,33.541386303569986,0.20376565626496718,593,33.745151959834956,0.0060383683116169845,33e9,203765656.26496717,100,27.1137661741896
27,93.18911056667095,0.16422138899162075,215,93.35333195566257,0.0017591379498871707,93e9,164221388.99162075,100,1.937227765836754
28,35.853119430963616,0.08629840927967482,557,35.939417840243294,0.0024012188974035596,35e9,86298409.27967481,100,30.248120496045402
29,77.4539223026483,0.2335838700855873,258,77.68750617273388,0.0030067108804628954,77e9,233583870.0855873,100,42.11681556433578
30,212.5245139702572,0.9688506592472804,94,213.49336462950447,0.004538083237053386,212e9,968850659.2472805,100,85.24076933595524
31,137.04314055208232,0.16212794220536875,146,137.20526849428768,0.0011816451655580463,137e9,162127942.20536876,100,122.069899387674
32,78.4467346532124,0.12111334189504161,255,78.56784799510744,0.0015415127814444344,78e9,121113341.89504161,100,26.616680872027395
33,150.7950879056785,0.6928506995967887,133,151.4879386052753,0.0045736360661829045,150e9,692850699.5967886,100,93.45020032024418
34,93.60612063661925,0.30026880139387774,213,93.90638943801314,0.003197533236991108,93e9,300268801.39387774,100,91.91181700251694
35,202.4524577592765,0.6075026852706709,99,203.0599604445472,0.0029917403900833086,202e9,607502685.2706709,100,34.77306954260915
36,226.20561760330554,0.19431553672108445,89,226.39993314002663,0.0008582844262630669,226e9,194315536.72108445,100,33.13247335940673
37,123.56981269904772,0.5863864564602822,162,124.156199155508,0.004722973644882782,123e9,586386456.4602822,100,63.65876007541277
38,78.76323747889474,0.48345693318979716,253,79.24669441208454,0.006100657406299,78e9,483456933.18979716,100,22.410259942676472
39,67.78129520944913,0.09554437551139615,295,67.87683958496052,0.0014076137913257517,67e9,95544375.51139615,100,7.765540685310704
40,56.50237346767625,0.22060956251773423,353,56.72298303019399,0.0038892447246701117,56e9,220609562.51773423,100,3.7352226733255267
41,46.77181511988703,0.02490450038181865,428,46.796719620268846,0.0005321847467922063,46e9,24904500.38181865,1000,38.756508995992526
42,984.4427079317816,0.05723298463935355,21,984.4999409164209,5.813406609865134e-05,984e9,57232984.63935355,1000,130.2230172419592
43,363.05178483607085,2.1179838372031714,55,365.169768673274,0.005799997751451822,363e9,2117983837.2031715,1000,109.93789851800923
44,571.4815363239237,3.4166619316920817,35,574.8981982556157,0.00594307295110523,571e9,3416661931.6920815,1000,561.8999844678435
45,619.206681085306,1.5675966217531927,33,620.7742777070591,0.0025252280547824746,619e9,1567596621.7531927,1000,398.6788470014938
46,1384.0164481848312,5.52205680727002,15,1389.5385049921013,0.003974022157307119,1384e9,5522056807.27002,1000,1163.9643745338053
47,1168.397669571142,6.827071711353341,18,1175.2247412824952,0.005809162683133371,1168e9,6827071711.353341,1000,351.985252598307
48,1260.6306045966066,4.589243342134773,16,1265.2198479387414,0.0036272299629281283,1260e9,4589243342.134772,1000,346.62168486558215
49,506.0700186157904,2.158297017782793,40,508.2283156335732,0.004246707535553569,506e9,2158297017.782793,1000,11.523364607340842
50,510.9378296099365,2.175453266194073,39,513.1132828761306,0.004239713409873359,510e9,2175453266.194073,1000,352.26609384296046
51,1488.058889584696,7.661253425061326,14,1495.7201430097575,0.005122116901925915,1488e9,7661253425.061326,1000,1074.2333353142178
52,1705.7741352962682,4.126718281060276,12,1709.9008535773285,0.0024134254757675923,1705e9,4126718281.060276,1000,458.23388073443726
53,1292.8788299921375,6.59131744362363,16,1299.4701474357612,0.005072311554544172,1292e9,6591317443.623631,1000,165.07109012603337
54,512.1233865053862,1.1179859096717424,39,513.2413724150579,0.002178284857300296,512e9,1117985909.6717424,1000,195.36170171830693
55,1301.358424187125,0.726934491284716,16,1302.0853586784096,0.0005582848209141526,1301e9,726934491.284716,1000,509.4319039888676
56,843.9505496955124,2.8159109352893688,24,846.7664606308018,0.003325487092617775,843e9,2815910935.2893686,1000,632.0356969840809
57,475.30735007910096,2.339685937045233,42,477.6470360161462,0.004898357491254574,475e9,2339685937.0452332,1000,281.3780636635511
58,1942.515455318642,12.307122812149634,11,1954.8225781307915,0.006295774844138413,1942e9,12307122812.149633,1000,85.89266664132833
59,737.1403088994879,2.5351999409869217,28,739.6755088404748,0.0034274488078713528,737e9,2535199940.986922,1000,537.6616178833281
60,720.056446443969,4.238201955278971,28,724.294648399248,0.005851488706489483,720e9,4238201955.2789707,1000,192.15170243365571
