app_id,Tcomp,Tio,iter,witer,alpha_io,compute_size,io_size,mu,desyn_time
1,14.056194970563288,0.08325929534861728,1415,14.139454265911905,0.005888437685274948,14e9,83259295.34861729,10,6.609662814017468
2,4.750464842825774,0.025081171216301,4189,4.7755460140420745,0.005252000743486088,4e9,25081171.216301,10,2.675807633629348
3,1.6880096335557764,0.008629830649924421,11789,1.6966394642057008,0.005086425744531744,1e9,8629830.649924422,10,0.43700481100106475
4,3.816085035204224,0.021463210831191862,5212,3.837548246035416,0.0055929487931169536,3e9,21463210.83119186,10,0.5676432517243813
5,4.849997226975809,0.01599033092628048,4111,4.8659875579020895,0.0032861429948198456,4e9,15990330.92628048,10,0.00766824337140443
6,1.483164374474492,0.002340143978062357,13464,1.4855045184525544,0.0015753193268641674,1e9,2340143.9780623573,10,0.7468240224091027
7,17.62923898741839,0.01834394892504187,1134,17.647582936343433,0.0010394595674212326,17e9,18343948.92504187,10,10.217668736142356
8,19.070389388992936,0.03768909610817255,1047,19.10807848510111,0.0019724168569623247,19e9,37689096.10817255,10,5.625329920035767
9,10.020218607114442,0.056002556394576866,1985,10.076221163509018,0.005557892734370483,10e9,56002556.39457687,10,8.125899284086726
10,16.27106804866223,0.019545708770956613,1228,16.290613757433185,0.0011998141421797673,16e9,19545708.770956613,10,12.331051594619705
11,10.591294193152251,0.02706536566901312,1884,10.618359558821265,0.0025489215654341266,10e9,27065365.66901312,10,1.3557403226361167
12,5.061036661035871,0.01807444839136507,3938,5.079111109427236,0.0035585849574775886,5e9,18074448.39136507,10,4.523271379426328
13,18.829851727728947,0.08556853290234619,1058,18.915420260631294,0.00452374473965245,18e9,85568532.9023462,10,9.785418433066818
14,13.726457509556274,0.07227602704215483,1450,13.79873353659843,0.005237873957813365,13e9,72276027.04215483,10,13.69047855367513
15,14.64017086580468,0.04465267013627371,1362,14.684823535940954,0.003040735901727846,14e9,44652670.13627371,10,13.332554517149159
16,13.915343077374587,0.05982583970562143,1432,13.975168917080207,0.004280867019253222,13e9,59825839.70562143,10,5.250245002868438
17,1.2475426879280636,0.00037305175288844414,16027,1.247915739680952,0.0002989398570962975,1e9,373051.7528884441,10,0.49821613646567436
18,9.61688396631945,0.03500634576083359,2073,9.651890312080285,0.0036268901353986305,9e9,35006345.76083359,10,6.390621868950906
19,15.498636430754047,0.06728441150596491,1285,15.565920842260011,0.004322546169147543,15e9,67284411.5059649,10,9.17614830655623
20,2.8014435466542995,0.01942117580149462,7091,2.820864722455794,0.006884830614843129,2e9,19421175.80149462,10,0.3444142638501406
21,32.5702419183543,0.039279063339815956,614,32.60952098169412,0.0012045274557042985,32e9,39279063.33981596,100,27.44594766072903
22,143.11334735588184,0.0907966556767218,140,143.20414401155855,0.0006340365099308387,143e9,90796655.6767218,100,88.3340336525077
23,123.48637637066203,0.45803621257162525,162,123.94441258323366,0.0036954970621530477,123e9,458036212.57162523,100,81.85747371229229
24,194.4105220572159,0.33797434750437416,103,194.74849640472027,0.0017354400867979304,194e9,337974347.50437415,100,80.95811548943824
25,21.56832950371507,0.017997440370472587,927,21.586326944085542,0.000833742600910792,21e9,17997440.370472588,100,20.854382034079745
26,161.2470666996766,0.29309076127649625,124,161.54015746095308,0.0018143523312297198,161e9,293090761.27649623,100,147.16969028564682
27,93.22207664415342,0.10564447583797448,215,93.3277211199914,0.0011319731647807777,93e9,105644475.83797449,100,62.08812995703048
28,117.34269288717377,0.5469078299916524,170,117.88960071716542,0.004639152449958374,117e9,546907829.9916525,100,0.20263538735305878
29,15.563550525458032,0.07848280767665897,1279,15.642033333134691,0.005017430023653509,15e9,78482807.67665897,100,0.10846553957561478
30,119.98717941406113,0.11100096685949261,167,120.09818038092062,0.0009242518621633234,119e9,111000966.85949261,100,37.367499083422615
31,219.53605753408831,1.178957933897817,91,220.71501546798612,0.0053415393211832495,219e9,1178957933.897817,100,136.95962007494057
32,41.093060393545436,0.07464011133242768,486,41.167700504877864,0.001813074580728252,41e9,74640111.33242768,100,39.956460120336544
33,190.74656359823385,0.07613645507132971,105,190.82270005330517,0.0003989905553692587,190e9,76136455.07132971,100,106.68686104998321
34,112.11957163157057,0.4513061676372165,178,112.57087779920778,0.004009084555973788,112e9,451306167.6372165,100,22.783720175686753
35,133.76409724328894,0.6524039724614078,149,134.41650121575034,0.0048536003136567425,133e9,652403972.4614078,100,28.894101284301453
36,115.80846798140638,0.7525744107161116,172,116.56104239212249,0.006456483189163489,115e9,752574410.7161117,100,50.46142565574443
37,147.52528652612375,0.16734641887415488,136,147.6926329449979,0.001133072215839474,147e9,167346418.8741549,100,28.118068897754693
38,6.177595770074397,0.027772250924790427,3224,6.205368020999188,0.004475520360888852,6e9,27772250.924790427,100,3.2265505563135344
39,17.015922803774657,0.11143263288728798,1168,17.127355436661944,0.0065061201829653735,17e9,111432632.88728799,100,7.745254357015678
40,134.060619375334,0.16772054237790926,149,134.2283399177119,0.0012495166257790985,134e9,167720542.37790927,100,8.53656724363829
41,2794.8333205305958,4.342909471448562,8,2799.176230002044,0.0015514955524773765,2794e9,4342909471.448562,1000,2097.666879054369
42,874.00873250859,3.7311635649897563,23,877.7398960735798,0.004250876121366344,874e9,3731163564.989756,1000,635.6550030970686
43,1817.3128245339774,2.871474409928647,11,1820.184298943906,0.0015775734422029204,1817e9,2871474409.928647,1000,1417.0495045792852
44,430.12153662405166,0.3277130785576724,47,430.44924970260934,0.0007613280282962144,430e9,327713078.5576724,1000,198.72354957381833
45,1132.6747048229693,5.6506240188586885,18,1138.325328841828,0.004963979870858036,1132e9,5650624018.858688,1000,769.8310671965525
46,1415.0201164690195,6.303728986060148,15,1421.3238454550797,0.004435110975037374,1415e9,6303728986.060147,1000,463.9319688752576
47,10.247247263174744,0.026160962410314195,1947,10.273408225585058,0.00254647355929676,10e9,26160962.410314195,1000,5.430630762431898
48,2013.2292988535064,9.740665755994527,10,2022.969964609501,0.004815032317039266,2013e9,9740665755.994528,1000,1849.2123572091139
49,1298.145266167306,2.4889233217533038,16,1300.6341894890593,0.001913622863267228,1298e9,2488923321.753304,1000,315.9832096644314
50,1809.4054655421646,8.450869268957826,12,1817.8563348111225,0.0046488103086737495,1809e9,8450869268.957826,1000,1584.798245806473
51,1865.9133745607714,1.5239920561497735,11,1867.4373666169213,0.000816087373741836,1865e9,1523992056.1497736,1000,95.69169764763375
52,942.2124624229355,6.179912286033875,22,948.3923747089693,0.006516197779352969,942e9,6179912286.0338745,1000,490.4201916721804
53,139.72271394593966,0.6467090381973727,143,140.36942298413703,0.004607193108362755,139e9,646709038.1973727,1000,5.708341094385986
54,2424.7957878129946,5.407149641297222,9,2430.2029374542917,0.0022249786460061516,2424e9,5407149641.297222,1000,2392.8797015940563
55,580.6392752746091,3.742069420081201,35,584.3813446946903,0.006403471729639561,580e9,3742069420.0812006,1000,341.04729409577556
56,1486.1283481179796,10.827717350845074,14,1496.9560654688246,0.007233156403594245,1486e9,10827717350.845074,1000,87.58333315288348
57,69.57714194477747,0.14338489659989895,287,69.72052684137736,0.002056566453178372,69e9,143384896.59989893,1000,14.01415717159419
58,1391.0382441702845,0.18385257766725555,15,1391.2220967479518,0.00013215185274660296,1391e9,183852577.66725555,1000,730.4715413572841
59,373.55593148996513,0.15427993551123367,54,373.71021142547636,0.0004128330743833568,373e9,154279935.5112337,1000,154.38770635497036
60,1960.6384999140741,10.825033380757338,11,1971.4635332948314,0.005490861584777008,1960e9,10825033380.757338,1000,436.9592359598167
