app_id,Tcomp,Tio,iter,witer,alpha_io,compute_size,io_size,mu,desyn_time
1,3.8760231845507613,0.018110174513229597,5136,3.894133359063991,0.004650630279796742,3e9,18110174.513229597,10,0.628111173579479
2,2.9241679263164153,0.005319568179010749,6828,2.929487494495426,0.0018158699052330278,2e9,5319568.179010749,10,0.9702512716248622
3,7.249205196526574,0.038801670589011406,2745,7.288006867115585,0.005324044186084605,7e9,38801670.58901141,10,0.5780110358051087
4,12.213107336300594,0.05963993140484239,1630,12.272747267705435,0.004859542049055241,12e9,59639931.40484239,10,0.45537568542574564
5,5.625679450965781,0.03521740033326098,3534,5.660896851299042,0.0062211697648543824,5e9,35217400.333260976,10,0.8600689706891285
6,2.7497687790372076,0.0031694807511667995,7265,2.7529382597883743,0.0011513083302530896,2e9,3169480.7511667996,10,0.22798448117237738
7,9.44571609773879,0.0402562558174178,2109,9.485972353556209,0.004243766934691316,9e9,40256255.8174178,10,0.7071687814578436
8,14.03681840333896,0.0626862099194649,1419,14.099504613258425,0.004445986695200491,14e9,62686209.9194649,10,13.23873024058834
9,7.053460196338059,0.015181816634999639,2830,7.068642012973059,0.002147769912118409,7e9,15181816.634999638,10,6.343455135954538
10,13.205287181870919,0.02550798631719517,1512,13.230795168188113,0.0019279254189140584,13e9,25507986.31719517,10,0.2705419143175367
11,14.037829610427842,0.05058154965178939,1420,14.088411160079632,0.0035902948229616753,14e9,50581549.65178939,10,2.2703830128186957
12,9.714952233837574,0.027468901189812506,2053,9.742421135027387,0.0028195148627944513,9e9,27468901.189812507,10,5.373153938547819
13,17.947235567107153,0.08706261608585167,1109,18.034298183193005,0.004827613206872077,17e9,87062616.08585167,10,0.1220226421320159
14,15.195688356639238,0.03202880351442859,1314,15.227717160153666,0.0021033227224786055,15e9,32028803.514428593,10,3.0528038973077396
15,7.349699130416452,0.004258151789180096,2720,7.3539572822056325,0.0005790286271424971,7e9,4258151.789180096,10,2.0503082659420357
16,4.440066140352397,0.009184427568567764,4496,4.449250567920965,0.0020642639537515285,4e9,9184427.568567764,10,1.489935709020195
17,10.378495699622897,0.002059396029804039,1927,10.380555095652701,0.0001983897788535893,10e9,2059396.0298040388,10,9.517132930245117
18,5.345294273714214,0.009816648098546998,3735,5.355110921812761,0.0018331362770771442,5e9,9816648.098546999,10,4.970655262832361
19,15.240151695478705,0.006675053790756935,1312,15.246826749269461,0.00043779954350676705,15e9,6675053.790756935,10,2.961105232035948
20,7.273389718840711,0.025508038767436795,2741,7.298897757608148,0.0034947795700861813,7e9,25508038.767436795,10,3.1130328335260073
21,17.749690447783777,0.030796959070826052,1125,17.780487406854604,0.0017320649522213566,17e9,30796959.070826054,100,2.8099174013706274
22,132.1224553532718,0.4625915353120634,151,132.58504688858386,0.0034890173980237473,132e9,462591535.3120634,100,114.46062652098819
23,54.11187009678838,0.21051127638781725,369,54.3223813731762,0.00387522179747012,54e9,210511276.38781723,100,2.845856297572597
24,184.4723149585404,0.5932195107215015,109,185.0655344692619,0.003205456447753815,184e9,593219510.7215015,100,49.22358287085155
25,135.40783231077384,0.6912445611484721,147,136.0990768719223,0.005078980526803839,135e9,691244561.1484721,100,88.7530570963077
26,118.15444407016105,0.4879664195360583,169,118.64241048969711,0.004112917274033582,118e9,487966419.5360583,100,53.070552914876814
27,95.27836921675622,0.5220540991760022,209,95.80042331593222,0.0054493924046072695,95e9,522054099.1760022,100,20.531874464796136
28,195.11573226118267,0.9721180303590263,102,196.08785029154168,0.0049575638108821625,195e9,972118030.3590263,100,87.98015665379741
29,4.135191554518412,0.018976165048274384,4815,4.154167719566686,0.004567982404488414,4e9,18976165.048274383,100,4.023800291635387
30,97.38096399130106,0.19033795680983384,205,97.57130194811089,0.0019507575794269602,97e9,190337956.80983385,100,31.346154523881225
31,188.51446003946683,0.10314189112721331,107,188.61760193059405,0.0005468306778980607,188e9,103141891.12721331,100,142.34289311842915
32,147.8439127200348,0.2278930406686203,136,148.07180576070343,0.0015390711249710478,147e9,227893040.6686203,100,145.21921628781624
33,146.35208627199844,0.8874992475047702,136,147.2395855195032,0.00602758588577535,146e9,887499247.5047702,100,130.71998553797204
34,180.98015672133596,0.5908706375251385,111,181.5710273588611,0.0032542121180893484,180e9,590870637.5251385,100,124.50019024520321
35,86.82486050595763,0.2931059851253978,230,87.11796649108302,0.003364472300388218,86e9,293105985.1253978,100,78.15649288297499
36,93.0732784738663,0.511234813760634,214,93.58451328762693,0.005462814260617902,93e9,511234813.76063395,100,87.9536006163913
37,62.35327528831059,0.350067762853281,319,62.70334305116387,0.0055829202370858795,62e9,350067762.853281,100,0.8750999493823874
38,131.85167631504694,0.2980030163401327,152,132.1496793313871,0.0022550415396229684,131e9,298003016.3401327,100,25.107150568427468
39,196.36168244429933,0.19995236537234964,102,196.5616348096717,0.001017250215516172,196e9,199952365.37234965,100,134.81034508762843
40,161.3707001439617,1.0072627103516154,124,162.37796285431332,0.006203198344441227,161e9,1007262710.3516154,100,92.086490435665
41,1353.7583824687795,1.8978200334913973,15,1355.6562025022708,0.0013999272308040933,1353e9,1897820033.4913974,1000,905.133118556549
42,12.332407797475557,0.038492235849584784,1617,12.370900033325142,0.0031115145822772083,12e9,38492235.84958478,1000,2.116805564247606
43,767.2815774539728,1.9408991645194036,27,769.2224766184921,0.002523196114928429,767e9,1940899164.5194037,1000,396.14144488327406
44,1245.0333681502245,0.3374067300628022,17,1245.3707748802874,0.00027092873613903117,1245e9,337406730.0628022,1000,197.81675436262242
45,964.7782536756755,3.2764295619526465,21,968.0546832376282,0.0033845500865661137,964e9,3276429561.9526463,1000,664.1602080239869
46,1135.8422853308793,4.115252235607153,18,1139.9575375664865,0.003610004846664858,1135e9,4115252235.6071534,1000,828.9910106711446
47,1262.4463484478629,2.1697578412455862,16,1264.6161062891085,0.0017157442724753263,1262e9,2169757841.2455864,1000,819.5115202702286
48,728.4084614989513,2.0317040989511654,28,730.4401655979025,0.0027814791609770146,728e9,2031704098.9511654,1000,730.1042203666321
49,781.401814627758,0.8306570682569654,26,782.232471696015,0.0010619056333163433,781e9,830657068.2569654,1000,393.88385888767607
50,460.34781540931453,2.6776909998746867,44,463.02550640918923,0.005783031307800855,460e9,2677690999.8746867,1000,260.7866636890648
51,1179.8794422694277,1.478772421754035,17,1181.3582146911817,0.0012517561594478778,1179e9,1478772421.754035,1000,911.0291117247135
52,2115.943510521713,1.066482663452374,10,2117.0099931851655,0.0005037683652346811,2115e9,1066482663.4523741,1000,1435.1798061266982
53,91.62478918621454,0.48524661393119056,218,92.11003580014574,0.00526811882891943,91e9,485246613.93119055,1000,40.50935761050418
54,421.2524247993116,2.5471266443171157,48,423.79955144362873,0.006010215526752201,421e9,2547126644.317116,1000,213.71229408354074
55,1301.7089240534135,5.438495403735367,16,1307.1474194571488,0.004160583054965556,1301e9,5438495403.735368,1000,400.52721539409777
56,2057.802539788951,9.60922685143219,10,2067.411766640383,0.00464795015994686,2057e9,9609226851.43219,1000,2007.3175513426552
57,1612.4219155596734,7.807126829934424,13,1620.229042389608,0.0048185328281858345,1612e9,7807126829.934423,1000,1479.257605533701
58,1011.3801026878677,4.848135932624448,20,1016.2282386204922,0.004770715621134173,1011e9,4848135932.624448,1000,227.60237513947234
59,901.2856029715246,5.448608607243089,23,906.7342115787676,0.006009047125018256,901e9,5448608607.243089,1000,97.64718346797629
60,1701.7650804734653,7.7065068414249165,12,1709.4715873148903,0.004508122216602453,1701e9,7706506841.424916,1000,337.18364639937573
