app_id,Tcomp,Tio,iter,witer,alpha_io,compute_size,io_size,mu,desyn_time
1,7.249634166654641,0.021786488197057075,2751,7.271420654851697,0.0029961804207435743,7e9,21786488.197057076,10,7.0520334131992986
2,14.184502716816509,0.05491597678570237,1405,14.239418693602211,0.0038566164790404113,14e9,54915976.78570237,10,8.109865863017156
3,7.580269791688021,0.027678585866535117,2629,7.607948377554556,0.0036381143105799992,7e9,27678585.866535116,10,2.840700290654829
4,13.433070334929145,0.029094470210436322,1486,13.462164805139581,0.0021612029440709747,13e9,29094470.21043632,10,12.674446043462233
5,2.932483602778206,0.01095510102665225,6795,2.9434387038048584,0.0037218716369024625,2e9,10955101.02665225,10,0.13523127002018628
6,2.960340740592704,0.006400043763125927,6742,2.9667407843558298,0.002157264226411197,2e9,6400043.763125927,10,1.3679180601336443
7,15.170149509852974,0.04662836768393031,1315,15.216777877536904,0.00306427340000562,15e9,46628367.683930315,10,3.203879466818666
8,15.191848871961014,0.06893494360269686,1311,15.26078381556371,0.0045171299479646355,15e9,68934943.60269687,10,0.8318414255399548
9,2.446266282457704,0.010941835814311872,8140,2.457208118272016,0.004452954445717242,2e9,10941835.814311871,10,2.4136231828352352
10,4.180459153738723,0.014409813576345555,4768,4.1948689673150685,0.0034351045738548005,4e9,14409813.576345555,10,0.19477516468995273
11,5.690858634258412,0.03596139284786944,3493,5.726820027106282,0.006279469701798968,5e9,35961392.84786944,10,0.9245914051528641
12,12.302095193455232,0.06723995282887954,1617,12.369335146284111,0.005436019966609053,12e9,67239952.82887954,10,9.307451196741733
13,16.081796798586087,0.026383762395132605,1242,16.108180560981218,0.001637910768087731,16e9,26383762.395132605,10,5.167939209821561
14,13.15574892995874,0.04461680532502081,1516,13.20036573528376,0.00337996735997722,13e9,44616805.32502081,10,5.432464603569023
15,16.723695384148037,0.04914572195724144,1193,16.77284110610528,0.0029300773581735357,16e9,49145721.957241446,10,6.809168588449786
16,14.859975887522971,0.087349024731735,1339,14.947324912254706,0.005843789791450982,14e9,87349024.731735,10,1.3023844396358977
17,21.198342698019182,0.025842897464673654,943,21.224185595483856,0.0012176155051232015,21e9,25842897.464673653,10,5.381776097981286
18,1.8064346210536337,0.008661802772329528,11019,1.8150964238259633,0.004772089602860706,1e9,8661802.772329528,10,0.9159753864327203
19,16.51533742708533,0.0786790560666392,1206,16.59401648315197,0.0047414112277472205,16e9,78679056.0666392,10,0.6097399619708873
20,2.615936912532128,0.005658237734749303,7629,2.6215951502668773,0.002158318661130151,2e9,5658237.734749303,10,0.29230258115620106
21,144.01019221830896,0.8376246519084216,139,144.84781687021737,0.005782791000978133,144e9,837624651.9084216,100,107.45638481216673
22,177.17359844810443,0.7307796723438517,113,177.90437812044829,0.00410771044571531,177e9,730779672.3438517,100,19.244373633810834
23,191.96835716486692,1.2183341970997281,104,193.18669136196664,0.006306512050651466,191e9,1218334197.099728,100,185.11117754338878
24,184.26359800422966,0.7314742028580679,109,184.99507220708773,0.003954019932159268,184e9,731474202.8580679,100,97.56907288662254
25,157.4334781948784,0.39129528491336063,127,157.82477347979176,0.002479302053067499,157e9,391295284.91336066,100,34.57886931713617
26,37.62226524897555,0.05961145990503094,531,37.68187670888058,0.0015819663220484493,37e9,59611459.905030936,100,31.735029406975258
27,98.10206823273215,0.15926097822507093,204,98.26132921095723,0.001620789984258747,98e9,159260978.22507092,100,85.03947831715332
28,114.60519248822469,0.2940611711277615,175,114.89925365935245,0.002559295746163672,114e9,294061171.1277615,100,91.62953797795602
29,188.68650985147175,0.4194008834657712,106,189.10591073493754,0.0022178094901202177,188e9,419400883.4657712,100,5.504438394995929
30,138.14381381254748,0.6753313094611798,145,138.81914512200865,0.004864828326580088,138e9,675331309.4611799,100,85.41259548929403
31,131.54349809355563,0.6188445049769193,152,132.16234259853255,0.004682457141795477,131e9,618844504.9769193,100,73.99738427888396
32,42.82053200028336,0.07217308246259084,467,42.89270508274595,0.001682642358959618,42e9,72173082.46259084,100,26.707258219634188
33,192.78949052731076,0.30111335935403105,104,193.09060388666478,0.0015594407666297972,192e9,301113359.354031,100,6.880770586544968
34,144.9506295160924,0.13136682788131385,138,145.0819963439737,0.0009054660894647281,144e9,131366827.88131385,100,46.529584364438115
35,133.30478780899904,0.18083285208873462,150,133.48562066108778,0.001354699114355236,133e9,180832852.08873463,100,69.19257117935248
36,121.06276058760135,0.4613116473655498,165,121.5240722349669,0.003796051587817131,121e9,461311647.3655498,100,42.1541927775606
37,8.58946291121324,0.0032582449337394113,2328,8.592721156146979,0.00037918662488058965,8e9,3258244.933739411,100,2.2670565113426586
38,134.31186157593788,0.8020706896619103,149,135.1139322655998,0.005936254509159295,134e9,802070689.6619103,100,125.96038015298977
39,200.06843932185058,0.7712199604133722,100,200.83965928226394,0.0038399784343862322,200e9,771219960.4133722,100,122.81726628158738
40,43.18612284114199,0.13252556742937724,462,43.31864840857136,0.0030593190761500004,43e9,132525567.42937724,100,29.0896572783523
41,1426.8205927612282,4.955512272915839,14,1431.7761050341442,0.0034610944095883364,1426e9,4955512272.915839,1000,649.2547779662036
42,1294.0437102032645,7.047035092539584,16,1301.090745295804,0.0054162518010513055,1294e9,7047035092.539584,1000,713.8892127134768
43,1050.9471566286768,3.8040625533791608,19,1054.751219182056,0.0036065969720605346,1050e9,3804062553.379161,1000,263.45248095897824
44,1869.8058037670203,11.086728110819926,11,1880.8925318778402,0.005894397432558887,1869e9,11086728110.819927,1000,1113.727330598017
45,2094.3191430140187,10.18709379589713,10,2104.5062368099157,0.004840609933919267,2094e9,10187093795.897131,1000,235.9196129947316
46,1493.3696159746005,0.1265131263758417,14,1493.4961291009763,8.470937681773399e-05,1493e9,126513126.37584169,1000,596.912043521612
47,1047.3821270620215,3.846815690819354,20,1051.2289427528408,0.003659351007541462,1047e9,3846815690.819354,1000,765.6565219927595
48,753.5640867921896,2.1196107414180063,27,755.6836975336076,0.0028048914490758094,753e9,2119610741.4180064,1000,12.834240829052227
49,869.4157526185043,1.9616329800175356,23,871.3773855985218,0.0022511864691899842,869e9,1961632980.0175357,1000,164.33413831657725
50,945.2237683158305,0.32740393228445946,22,945.551172248115,0.0003462572327059078,945e9,327403932.2844595,1000,35.03723143081919
51,1521.5076898132097,1.738063345353899,14,1523.2457531585635,0.0011410262209823302,1521e9,1738063345.353899,1000,716.0918994964587
52,869.1521001463645,1.4227006078431674,23,870.5748007542077,0.0016342083490248453,869e9,1422700607.8431675,1000,524.4127504967206
53,856.4629988416549,5.166023487425574,24,861.6290223290805,0.005995647028533497,856e9,5166023487.425573,1000,712.5029747840025
54,1322.6764266302916,8.21224810590826,16,1330.8886747361998,0.0061704996532005495,1322e9,8212248105.90826,1000,427.32074607141743
55,1596.5325194460484,2.7604464502473225,13,1599.2929658962958,0.0017260417628988185,1596e9,2760446450.2473226,1000,344.7376030556323
56,994.9799816681465,1.5364085589864271,21,996.5163902271329,0.001541779517180082,994e9,1536408558.986427,1000,606.2507194455995
57,888.3683636188572,4.172015704833249,23,892.5403793236904,0.004674315920580012,888e9,4172015704.8332486,1000,425.0628922219252
58,775.6384598584192,2.265571628945968,26,777.9040314873652,0.002912405049006056,775e9,2265571628.945968,1000,182.96694979297754
59,1297.8722723336448,1.8413326659952478,16,1299.71360499964,0.0014167218523466621,1297e9,1841332665.9952478,1000,1029.4434708667513
60,2052.942411412588,11.050836938658462,10,2063.9932483512466,0.005354105178147293,2052e9,11050836938.65846,1000,982.7045255162516
