app_id,Tcomp,Tio,iter,witer,alpha_io,compute_size,io_size,mu,desyn_time
1,17.443309325021957,0.09959733531818388,1141,17.54290666034014,0.005677356509189383,17e9,99597335.31818388,10,6.213780498609465
2,3.9463131316426914,0.010953661593910969,5054,3.9572667932366024,0.002767986634773264,3e9,10953661.59391097,10,0.8761465278554927
3,7.834423537925381,0.019125786988456742,2547,7.853549324913837,0.0024353048790034275,7e9,19125786.98845674,10,1.0718239514415189
4,5.72342934129522,0.010020049753237576,3489,5.733449391048458,0.0017476477195179777,5e9,10020049.753237575,10,4.114153919812036
5,13.102106898925767,0.052952110928999194,1521,13.155059009854766,0.004025227928611458,13e9,52952110.92899919,10,13.017992753716877
6,4.53658772659065,0.023214774835119873,4387,4.55980250142577,0.005091179898221694,4e9,23214774.835119873,10,0.24335231173066454
7,12.615031778863663,0.009058046253121975,1585,12.624089825116785,0.0007175207384139616,12e9,9058046.253121976,10,4.563001524804253
8,20.23823162867564,0.054614300284195574,986,20.292845928959835,0.0026913080834194743,20e9,54614300.28419557,10,9.060879928170134
9,20.73156470869373,0.05508793150789928,963,20.786652640201627,0.0026501588524820287,20e9,55087931.50789928,10,3.232832728426302
10,8.951313382673572,0.018348839374947808,2230,8.96966222204852,0.002045655557669065,8e9,18348839.37494781,10,6.684720738405956
11,4.969028614957868,0.0003674960581336842,4025,4.969396111016002,7.395185449576668e-05,4e9,367496.0581336842,10,1.9316044846006823
12,7.658564204776046,0.017923957508155997,2606,7.676488162284202,0.0023349163223124903,7e9,17923957.508155998,10,1.630660135146953
13,3.743231426368956,0.012782215602609214,5325,3.756013641971565,0.003403133433748583,3e9,12782215.602609213,10,1.860040543942397
14,8.754779299923332,0.02371572046461353,2279,8.778495020387945,0.002701570190509201,8e9,23715720.46461353,10,6.1352877194132445
15,13.63224166234821,0.033730544414249455,1464,13.66597220676246,0.002468214035848709,13e9,33730544.41424946,10,9.260427681967899
16,14.888319362398347,0.015122869901433609,1342,14.903442232299781,0.001014723287795773,14e9,15122869.90143361,10,11.566482635551663
17,2.3568237200362607,0.0037244418854254814,8473,2.3605481619216864,0.0015777868655700166,2e9,3724441.8854254815,10,1.0420696484346952
18,12.69939314672962,0.011536866390035608,1574,12.710930013119654,0.0009076335388620478,12e9,11536866.390035607,10,1.4667829820635911
19,3.2574808484116997,0.007748698375852063,6126,3.265229546787552,0.0023730945297476885,3e9,7748698.375852063,10,1.3427386534436994
20,4.084777548677353,0.011700326519478577,4883,4.096477875196832,0.002856191800844619,4e9,11700326.519478576,10,3.3114775484761645
21,117.74433519363097,0.6641368185616316,169,118.4084720121926,0.005608862332867914,117e9,664136818.5616317,100,50.1486438226706
22,137.52674810409647,0.1915588833240985,146,137.71830698742056,0.0013909471261623616,137e9,191558883.3240985,100,110.00574334049753
23,78.57959827197934,0.2019515552413843,254,78.78154982722072,0.0025634371967077716,78e9,201951555.2413843,100,42.768267648126184
24,124.85094492263053,0.28051442799846504,160,125.131459350629,0.002241757823765483,124e9,280514427.99846506,100,6.443961230703025
25,35.01801854094073,0.20087649310651912,568,35.21889503404725,0.005703656883963148,35e9,200876493.1065191,100,33.086514215425254
26,68.53763975638127,0.26111140951153705,291,68.79875116589281,0.003795292866318536,68e9,261111409.51153705,100,46.78299806310068
27,194.55773622612594,0.8560439465286479,103,195.41378017265458,0.004380673388398221,194e9,856043946.5286479,100,191.59060257453967
28,5.779479919159339,0.016653753206430397,3451,5.7961336723657695,0.0028732520931721277,5e9,16653753.206430398,100,5.4642090357017725
29,46.78640781562356,0.255372935250779,426,47.04178075087434,0.005428640905479168,46e9,255372935.25077897,100,10.53822706117053
30,73.39402147299826,0.434980676229298,271,73.82900214922756,0.0058917317526530994,73e9,434980676.229298,100,38.821235182535965
31,95.36945465203102,0.5416898739164752,209,95.9111445259475,0.005647830360005015,95e9,541689873.9164752,100,9.015089671729875
32,185.53200313621937,0.6194310089419149,108,186.1514341451613,0.003327565064359812,185e9,619431008.9419149,100,23.792505212402908
33,81.32216061980012,0.18441037354089643,246,81.50657099334101,0.0022625215524765792,81e9,184410373.54089642,100,37.4188153883618
34,58.63293239696259,0.27900822142467097,340,58.911940618387256,0.004736021568734209,58e9,279008221.424671,100,16.55559788859187
35,53.021310802700484,0.17802841039904352,376,53.19933921309953,0.0033464402571979075,53e9,178028410.39904353,100,23.893692995877437
36,34.503155251189526,0.20195044728315362,577,34.70510569847268,0.005819041412458259,34e9,201950447.28315362,100,23.13866267789225
37,95.91682238817985,0.07324743582463507,209,95.9900698240045,0.000763073054941334,95e9,73247435.82463507,100,20.526511808676414
38,177.3580602916326,0.36314359009283764,113,177.72120388172544,0.0020433329403649098,177e9,363143590.09283763,100,51.76691838756182
39,201.78368293747775,0.6841451395043853,99,202.46782807698213,0.003379031355264305,201e9,684145139.5043852,100,167.527166905651
40,97.8669735631279,0.03470815045055541,205,97.90168171357845,0.00035452047240718204,97e9,34708150.450555414,100,27.899576750054536
41,425.1809225583586,1.8974647597730325,47,427.0783873181316,0.004442895768358344,425e9,1897464759.7730324,1000,352.2267566414832
42,225.45672050717337,1.1809351146259877,89,226.63765562179935,0.005210674772407054,225e9,1180935114.6259878,1000,118.93241679968288
43,486.2819038010106,1.0102303434588664,42,487.2921341444695,0.002073151345306467,486e9,1010230343.4588665,1000,285.12269144059303
44,1549.2743245327024,4.128236569907819,13,1553.4025611026102,0.0026575445884276017,1549e9,4128236569.907819,1000,846.0366590899501
45,1530.5941620624058,7.204385493046235,14,1537.798547555452,0.004684869487293133,1530e9,7204385493.046235,1000,247.41593251045146
46,1470.788461896476,9.554786413128399,14,1480.3432483096044,0.0064544398226823105,1470e9,9554786413.128399,1000,501.3744243538067
47,845.1592207325168,2.6148880201021374,24,847.774108752619,0.0030844159937245303,845e9,2614888020.1021376,1000,414.5128894699737
48,1418.7037624402487,6.464018706773313,15,1425.167781147022,0.004535619449361154,1418e9,6464018706.773313,1000,243.6802613002276
49,579.2129558021887,2.635665158955906,35,581.8486209611447,0.004529812504500056,579e9,2635665158.955906,1000,116.89344131594468
50,976.0524666816302,2.6486118173832267,21,978.7010784990134,0.0027062520677358145,976e9,2648611817.383227,1000,539.7664211127361
51,733.1459548899725,1.642996272070634,28,734.7889511620431,0.0022360111287360713,733e9,1642996272.070634,1000,283.0129726795224
52,1142.0727937456943,2.312524498387874,18,1144.385318244082,0.0020207568740362356,1142e9,2312524498.3878736,1000,1059.5792275470005
53,1504.8681871054237,8.044353752426403,14,1512.91254085785,0.005317130723144844,1504e9,8044353752.426403,1000,1170.2790476604423
54,677.3938774425899,3.2557815349134995,30,680.6496589775033,0.004783344106576727,677e9,3255781534.9134994,1000,32.86857605733933
55,2343.7956380128385,13.809667222192521,9,2357.605305235031,0.005857497517302128,2343e9,13809667222.192522,1000,1435.9516343713044
56,1130.511372951919,3.39180865063777,18,1133.9031816025567,0.002991268307267727,1130e9,3391808650.63777,1000,151.52707144697757
57,1657.1017597784812,9.006102899412461,13,1666.1078626778938,0.00540547409994043,1657e9,9006102899.41246,1000,213.26607650327637
58,337.08033630250486,1.2862584834102584,60,338.36659478591514,0.003801375499919179,337e9,1286258483.4102583,1000,84.34795896380945
59,1276.1878982578835,0.21504122349218766,16,1276.4029394813756,0.0001684744032159332,1276e9,215041223.49218765,1000,1101.4235595403343
60,559.9938483004072,3.3353587077093616,36,563.3292070081166,0.005920798471330291,559e9,3335358707.7093616,1000,492.5747041250927
