app_id,Tcomp,Tio,iter,witer,alpha_io,compute_size,io_size,mu,desyn_time
1,10.118216882855178,0.026427706187755137,1972,10.144644589042933,0.002605089410061667,10e9,26427706.187755138,10,1.2662935270882436
2,3.9311923367614554,0.00803071790819147,5078,3.9392230546696467,0.002038655287283534,3e9,8030717.9081914695,10,3.490739513683517
3,2.8725166243944047,0.01447829500722346,6928,2.8869949194016282,0.00501500536420213,2e9,14478295.00722346,10,2.2757973626534342
4,8.000251745509654,0.02758303575410384,2492,8.027834781263758,0.003435924692730368,8e9,27583035.75410384,10,4.142991452636861
5,1.0226746940308822,0.006353873559048751,19436,1.0290285675899309,0.006174632813090936,1e9,6353873.559048751,10,1.0175855615216762
6,9.628495238069446,0.01857585804782488,2074,9.647071096117271,0.0019255438114580956,9e9,18575858.047824882,10,2.6749299749125943
7,7.572001306152642,0.038395863265899895,2628,7.610397169418542,0.005045185213222381,7e9,38395863.2658999,10,0.6202076576486555
8,3.8072134757302103,0.004145190044443049,5248,3.8113586657746534,0.0010875885498959057,3e9,4145190.044443049,10,3.75448516569709
9,10.734168546604552,0.019108306719971154,1860,10.753276853324524,0.0017769752402555837,10e9,19108306.719971154,10,0.2966691210207467
10,1.8899262809029347,0.0017071133644454672,10573,1.8916333942673802,0.0009024546561817404,1e9,1707113.3644454672,10,1.2270103970443802
11,14.299122152186074,0.06503467021479815,1393,14.364156822400872,0.004527566150863567,14e9,65034670.21479815,10,10.745442873708951
12,7.578638635994098,0.0348786715676753,2627,7.613517307561773,0.004581150887124625,7e9,34878671.5676753,10,0.2576059319486326
13,12.618883088049264,0.075749866105853,1576,12.694632954155118,0.005967078085629809,12e9,75749866.105853,10,1.940768856620738
14,12.754853082651922,0.07479640791372519,1559,12.829649490565647,0.005829965032850441,12e9,74796407.91372518,10,1.5342390435489484
15,3.7463944109842395,0.00362656152791251,5334,3.750020972512152,0.0009670776655638446,3e9,3626561.52791251,10,2.855759195316349
16,10.573098383679017,0.04496747482515658,1884,10.618065858504174,0.004234996789847695,10e9,44967474.825156584,10,4.021017503111402
17,18.149311880131474,0.11234146054141139,1096,18.261653340672886,0.00615176832270719,18e9,112341460.54141138,10,14.014117968331908
18,3.8597910404471976,0.0013915472354495363,5180,3.861182587682647,0.00036039405126518415,3e9,1391547.2354495362,10,3.6784114438902438
19,5.056526357045914,0.022206476356482437,3938,5.0787328334023965,0.004372444285793559,5e9,22206476.356482435,10,0.2678468045080341
20,11.751248210170415,0.07118489251577588,1692,11.82243310268619,0.006021171098832597,11e9,71184892.51577587,10,1.1937312853486317
21,180.97325523231262,0.13642672569627504,111,181.1096819580089,0.0007532823437231047,180e9,136426725.69627503,100,128.85608578394982
22,76.38754415502112,0.2759987494433388,261,76.66354290446445,0.0036001303747112134,76e9,275998749.4433388,100,21.997976359363687
23,105.46646539108264,0.469390934095487,189,105.93585632517812,0.0044308976240741,105e9,469390934.095487,100,62.83892343283408
24,155.89943136142008,0.7172919077353233,128,156.61672326915541,0.004579919007133186,155e9,717291907.7353233,100,32.099322604528744
25,150.05600870645475,0.5259874775274422,133,150.5819961839822,0.0034930303147581256,150e9,525987477.5274422,100,4.087734373373257
26,121.54210552267274,0.7055526433822323,164,122.24765816605498,0.00577150232541752,121e9,705552643.3822323,100,121.40680397927666
27,88.17364893419261,0.06980729194714691,227,88.24345622613976,0.0007910761311099732,88e9,69807291.9471469,100,0.6295680158569784
28,148.46456076367946,0.6395097346739435,135,149.1040704983534,0.004289015937234294,148e9,639509734.6739434,100,51.97313921562412
29,137.4059720084933,0.6080030895959303,145,138.01397509808925,0.0044053733628338036,137e9,608003089.5959303,100,45.31582646988628
30,83.36173323213293,0.09195835675649093,240,83.45369158888943,0.0011019087952333767,83e9,91958356.75649093,100,3.8992758375957854
31,236.27417139358494,0.4317692865423697,85,236.7059406801273,0.0018240745682248903,236e9,431769286.54236966,100,78.19752551448005
32,70.45614180848919,0.2645090678613382,283,70.72065087635053,0.0037401956088301764,70e9,264509067.8613382,100,65.25978114503997
33,88.97597697193953,0.4388237960366662,224,89.4148007679762,0.0049077310721227976,88e9,438823796.0366662,100,10.692464061561163
34,51.93855098450441,0.2906901422265002,383,52.22924112673091,0.005565658928896921,51e9,290690142.2265002,100,47.360558034017316
35,77.79557650688126,0.37315308590760227,256,78.16872959278886,0.004773687481573526,77e9,373153085.90760225,100,13.977974729630644
36,149.46121561943087,0.5255240431332842,134,149.98673966256416,0.0035038033649880847,149e9,525524043.13328415,100,86.76342920543043
37,4.900347037759222,0.013017448201945244,4071,4.913364485961168,0.0026493959972112126,4e9,13017448.201945245,100,2.4239044766691147
38,35.08964495690425,0.04600699271569236,570,35.13565194961994,0.0013094105321187876,35e9,46006992.71569236,100,23.8439222759129
39,40.01388723161088,0.024416315169751103,500,40.03830354678063,0.0006098239187687648,40e9,24416315.169751104,100,38.760140786407035
40,73.76750638984117,0.2022889056100605,271,73.96979529545123,0.0027347501071494818,73e9,202288905.61006048,100,50.08421240762397
41,1286.6481699249011,2.1545719094719127,16,1288.8027418343731,0.0016717623570580529,1286e9,2154571909.471913,1000,889.2354166912147
42,1924.3641401091818,11.008518561428389,11,1935.3726586706102,0.005688061424299565,1924e9,11008518561.428389,1000,1278.2154233574993
43,712.9116671573742,1.0089869134666607,29,713.9206540708408,0.0014133039963381436,712e9,1008986913.4666607,1000,463.3974107341756
44,2584.670854562597,14.55321988378645,8,2599.2240744463834,0.005599063207694467,2584e9,14553219883.786451,1000,364.42381301962115
45,1791.6690735408552,10.203486368438064,12,1801.8725599092932,0.005662712555515974,1791e9,10203486368.438065,1000,1285.6487466693568
46,521.6621628970073,0.6817410201902797,39,522.3439039171976,0.0013051574165558748,521e9,681741020.1902797,1000,324.2502986957187
47,575.8462247015635,3.6163801869650904,35,579.4626048885286,0.006240920736655257,575e9,3616380186.9650903,1000,147.63685273984473
48,777.8161997029622,0.8554415396261968,26,778.6716412425884,0.0010985908492328045,777e9,855441539.6261969,1000,768.1642837410147
49,1149.8831838436097,1.9841928806582112,18,1151.8673767242678,0.0017225879652056368,1149e9,1984192880.6582112,1000,675.1960812463147
50,1150.4325411369268,3.7084686098721837,18,1154.141009746799,0.0032131850255332018,1150e9,3708468609.872184,1000,845.7920280875903
51,233.50499181889987,0.2012046311966524,86,233.7061964500965,0.0008609298095338084,233e9,201204631.1966524,1000,225.55397440661386
52,816.8286951565236,0.16833836000167374,25,816.9970335165253,0.00020604525242534896,816e9,168338360.00167373,1000,260.28094307827297
53,2156.5744530099028,7.814800616758936,10,2164.3892536266617,0.003610626232626325,2156e9,7814800616.758936,1000,960.5831149267908
54,1697.2823691567066,7.035539550460945,12,1704.3179087071676,0.0041280676067048105,1697e9,7035539550.460945,1000,314.4200930058805
55,592.4802213132112,3.470979395742634,34,595.9512007089539,0.005824267811883752,592e9,3470979395.742634,1000,93.66478266604251
56,2417.3183681731457,5.862505597711352,9,2423.180873770857,0.0024193429641050095,2417e9,5862505597.711352,1000,2243.003549995601
57,1898.2282544605107,7.292846373564628,11,1905.5211008340752,0.003827218901103976,1898e9,7292846373.564628,1000,581.0031079817742
58,755.9182201829257,1.2580818414750945,27,757.1763020244008,0.001661544131943199,755e9,1258081841.4750946,1000,611.7738216545969
59,1697.0721681562668,8.886083689071285,12,1705.958251845338,0.005208851787234061,1697e9,8886083689.071285,1000,729.5864335674029
60,863.0694444603934,0.675815680783531,24,863.7452601411769,0.0007824247633764968,863e9,675815680.7835311,1000,449.75761546799504
