app_id,Tcomp,Tio,iter,witer,alpha_io,compute_size,io_size,mu,desyn_time
1,3.88256274438243,0.02000916760313258,5125,3.9025719119855626,0.005127174605464798,3e9,20009167.60313258,10,3.1392094267348165
2,13.284282505653767,0.03173833083049803,1502,13.316020836484265,0.0023834695980302833,13e9,31738330.830498025,10,3.595986882977286
3,14.335341919343275,0.0016831460583338184,1395,14.337025065401608,0.00011739855727780094,14e9,1683146.0583338183,10,6.115728196541717
4,5.336080308626555,0.023174166326257097,3732,5.359254474952812,0.004324139940464601,5e9,23174166.3262571,10,4.423944410658025
5,8.945651151387619,0.05467001562869719,2223,9.000321167016315,0.0060742294207286355,8e9,54670015.62869719,10,2.523424623407818
6,4.389245381998187,0.02523074465094472,4531,4.414476126649132,0.005715456132752147,4e9,25230744.65094472,10,0.4310726505571204
7,14.972018498225738,0.0776940305075002,1329,15.049712528733238,0.005162492662844229,14e9,77694030.5075002,10,11.071028710713914
8,7.534149670592447,0.048976850098926654,2638,7.583126520691374,0.006458661867936407,7e9,48976850.098926656,10,2.8029722137218727
9,12.529621491919592,0.04747932937456425,1591,12.577100821294156,0.003775061522459731,12e9,47479329.374564245,10,5.387073106505481
10,5.370260620002724,0.00874616085074254,3719,5.379006780853467,0.0016259806330556103,5e9,8746160.85074254,10,2.650171409449358
11,22.493150880420416,0.08630547767658975,886,22.579456358097005,0.003822300958350601,22e9,86305477.67658974,10,2.4137398006049393
12,17.84346048945984,0.024174490522337916,1120,17.867634979982178,0.0013529765158859335,17e9,24174490.522337917,10,4.301841642617338
13,18.535422307165128,0.08670845408350998,1074,18.622130761248638,0.00465620477029107,18e9,86708454.08350998,10,1.3207603422131011
14,11.817910505684457,0.059493706659120696,1684,11.877404212343578,0.00500898223176508,11e9,59493706.659120694,10,6.61126022211738
15,4.232926629379561,0.017686143655424542,4706,4.250612773034986,0.004160845647390373,4e9,17686143.655424543,10,2.372730452710893
16,14.386560364156216,0.0693424244907232,1384,14.455902788646938,0.004796824211157662,14e9,69342424.4907232,10,9.907115134264629
17,24.803227075516034,0.1395582801777505,802,24.942785355693786,0.005595136156110687,24e9,139558280.1777505,10,10.989305391783459
18,4.428138307100828,0.006798276167136665,4510,4.434936583267965,0.0015328914043066721,4e9,6798276.167136665,10,2.681400987749564
19,16.069132518503853,0.10677807338024317,1237,16.175910591884097,0.006601054869443745,16e9,106778073.38024317,10,1.649276901599128
20,8.314707309836196,0.030823595443103157,2397,8.345530905279299,0.0036934253545936138,8e9,30823595.443103157,10,8.113084394657799
21,169.4376599276279,0.2343921349640008,118,169.6720520625919,0.001381442212283339,169e9,234392134.9640008,100,17.422898072590062
22,115.57993456234662,0.7298655335530062,172,116.30980009589963,0.006275185177441783,115e9,729865533.5530062,100,8.302980402486789
23,58.60459282703748,0.2839885513542676,340,58.88858137839175,0.004822472280822727,58e9,283988551.3542676,100,10.078971780481067
24,116.84707957802985,0.3172291514605799,171,117.16430872949043,0.0027075579150387876,116e9,317229151.4605799,100,25.9505256008237
25,5.939390912316257,0.01669437764294859,3358,5.956085289959205,0.0028029111119499996,5e9,16694377.64294859,100,3.9222193380379897
26,164.28087847971565,0.6191370534137097,122,164.90001553312936,0.0037546209526543163,164e9,619137053.4137098,100,64.81134776564275
27,75.60846766124695,0.08521724845471783,265,75.69368490970166,0.0011258171478423498,75e9,85217248.45471783,100,20.595787754749352
28,91.30147360793609,0.5108422455100512,218,91.81231585344614,0.005563983881263539,91e9,510842245.5100512,100,89.31180309808795
29,107.91693398832764,0.4517437781060055,185,108.36867776643365,0.004168582540793255,107e9,451743778.10600555,100,101.22355447802344
30,203.95131240116825,0.0775484090561062,99,204.02886081022436,0.0003800854876518532,203e9,77548409.0561062,100,157.42497826619982
31,129.18590317816177,0.8109227532596304,154,129.9968259314214,0.006238019639705858,129e9,810922753.2596303,100,117.00618862832779
32,127.91650497736704,0.2213353198648708,157,128.13784029723192,0.0017273220724764483,127e9,221335319.8648708,100,67.7550115434391
33,174.69265600739894,0.11807443394579714,115,174.81073044134473,0.0006754415684191386,174e9,118074433.94579715,100,139.65825097484552
34,114.23351281084493,0.4130313199379152,175,114.64654413078284,0.0036026495440346674,114e9,413031319.9379152,100,103.19623657623427
35,146.7997720242443,0.3498643084278236,136,147.14963633267212,0.002377609059371777,146e9,349864308.4278236,100,23.889015850267597
36,44.166213563214015,0.0516194366691853,453,44.2178329998832,0.0011673895613410466,44e9,51619436.6691853,100,5.453336918984559
37,85.67996883956266,0.5640427705647193,232,86.24401161012739,0.006540080407141977,85e9,564042770.5647193,100,23.81860825026469
38,153.37273234684739,0.29439539725745595,131,153.66712774410485,0.0019157994398626345,153e9,294395397.25745595,100,146.03933442332547
39,182.89489868062114,0.08813776118445595,110,182.9830364418056,0.00048167175984363195,182e9,88137761.18445595,100,85.40115229763269
40,29.361251855841196,0.005218670713879215,682,29.366470526555077,0.00017770847569714425,29e9,5218670.7138792155,100,11.80254828352254
41,640.0643370051488,2.842147582564061,32,642.9064845877128,0.004420779150153839,640e9,2842147582.564061,1000,172.5443606537746
42,117.34615201150746,0.6589707255773227,170,118.00512273708478,0.0055842552449651564,117e9,658970725.5773227,1000,14.853105853480114
43,421.3769040575364,1.5206217125370143,48,422.89752577007346,0.0035957214688547645,421e9,1520621712.5370142,1000,157.00781551152008
44,1777.0872010082483,0.314283515535452,12,1777.4014845237837,0.00017682190448921418,1777e9,314283515.53545195,1000,523.4583134568084
45,1535.2001057722919,8.731189950615798,13,1543.9312957229076,0.005655167412438281,1535e9,8731189950.615799,1000,1234.6886126117606
46,1716.3575935553195,7.854443878016376,12,1724.2120374333358,0.004555381651150349,1716e9,7854443878.016376,1000,149.56058461160535
47,1084.1664145203622,4.377744214445637,19,1088.5441587348078,0.004021650549789178,1084e9,4377744214.445637,1000,986.0574811236854
48,1256.4972376489934,4.866864042165513,16,1261.364101691159,0.003858413312730498,1256e9,4866864042.165513,1000,1194.739943881621
49,855.3996087849504,2.50465681931978,24,857.9042656042701,0.002919506196365173,855e9,2504656819.31978,1000,798.591080506168
50,1608.9540694778939,2.753862793227644,13,1611.7079322711215,0.0017086611898391954,1608e9,2753862793.227644,1000,1384.8071029487016
51,1069.3565457674717,2.1259970969449284,19,1071.4825428644167,0.0019841640081801576,1069e9,2125997096.9449284,1000,113.70257772529527
52,1145.5162398420605,0.39448279077743326,18,1145.9107226328379,0.00034425263939504106,1145e9,394482790.7774333,1000,306.40263406830434
53,976.1198460198389,2.442231096476444,21,978.5620771163153,0.0024957344593542347,976e9,2442231096.4764442,1000,878.6912534906512
54,1205.6225349882802,0.7644756784763852,17,1206.3870106667566,0.0006336902434434104,1205e9,764475678.4763852,1000,40.73375914483423
55,230.51988146996206,1.0717029097224333,87,231.5915843796845,0.004627555498585917,230e9,1071702909.7224333,1000,96.70021141135157
56,1981.154591616519,11.947395612034429,11,1993.1019872285533,0.005994372434823324,1981e9,11947395612.03443,1000,37.64964435738172
57,1372.272403784562,1.673544202251464,15,1373.9459479868133,0.0012180567981612666,1372e9,1673544202.251464,1000,83.30209450505274
58,253.96021803786314,0.4927376769296494,79,254.45295571479278,0.0019364588457834284,253e9,492737676.9296494,1000,39.140785460504446
59,541.787961705575,0.07269929661461619,37,541.8606610021895,0.0001341660353791995,541e9,72699296.61461619,1000,412.01779312633136
60,208.99836835216416,0.8950134343231884,96,209.89338178648734,0.004264133660172453,208e9,895013434.3231883,1000,139.51132014424996
