app_id,Tcomp,Tio,iter,witer,alpha_io,compute_size,io_size,mu,desyn_time
1,5.530786009439002,0.01238334034307763,3609,5.5431693497820795,0.002233981962604924,5e9,12383340.34307763,10,2.6099280369546505
2,6.2944368870352285,0.025421987991133353,3165,6.319858875026362,0.004022556277576263,6e9,25421987.99113335,10,2.6692080056762006
3,9.450021256909672,0.03816318380568027,2108,9.488184440715353,0.00402217980100764,9e9,38163183.80568027,10,7.103697009408063
4,25.40967277398983,0.06272559574487413,786,25.4723983697347,0.002462492727791279,25e9,62725595.74487413,10,9.406888193269323
5,10.896027323991834,0.048445698991228005,1828,10.944473022983063,0.004426499009088286,10e9,48445698.99122801,10,3.253693615865715
6,13.884584429070356,0.056274086889162335,1435,13.940858515959519,0.004036629941028357,13e9,56274086.88916233,10,3.0785999745908383
7,9.585477228426903,0.06718960193146839,2072,9.652666830358372,0.006960729414191732,9e9,67189601.9314684,10,4.624070405991776
8,23.605646034597992,0.15280387376176044,842,23.758449908359754,0.006431559060088099,23e9,152803873.76176044,10,13.888976604820234
9,5.128845362248884,0.02057499515198143,3884,5.1494203574008655,0.003995594401690391,5e9,20574995.15198143,10,0.5252915956131152
10,6.072855168776383,0.029145453659244966,3278,6.102000622435628,0.004776376710301201,6e9,29145453.659244966,10,1.0036388625970531
11,8.943641457831998,0.0340274373373387,2228,8.977668895169336,0.0037902308199011477,8e9,34027437.3373387,10,8.46110461091228
12,21.07942040721605,0.007010324306592739,949,21.08643073152264,0.0003324566587797539,21e9,7010324.306592739,10,3.533413656675925
13,5.580512452405641,0.023974111495209997,3569,5.604486563900851,0.00427766419311807,5e9,23974111.495209996,10,1.2252262519297634
14,7.899252224425719,0.036204590262633854,2521,7.935456814688353,0.004562382621202093,7e9,36204590.26263385,10,5.973993829835117
15,16.941433328682805,0.11616134698475526,1173,17.05759467566756,0.006809948834723922,16e9,116161346.98475526,10,15.477798555016394
16,9.507533288811638,0.023982371686375924,2099,9.531515660498014,0.0025161131283419477,9e9,23982371.686375923,10,6.3437366999152545
17,6.860592214335624,0.02141193328107068,2907,6.882004147616695,0.0031112932834377674,6e9,21411933.281070683,10,3.513531290668773
18,8.078485279396356,0.00178205804642945,2476,8.080267337442786,0.00022054444141614618,8e9,1782058.04642945,10,2.497197487765437
19,15.63885381403591,0.01101431330379174,1278,15.649868127339701,0.0007037959179061815,15e9,11014313.303791739,10,11.12708890322614
20,13.142477110218449,0.028447413355851235,1519,13.1709245235743,0.0021598645793568963,13e9,28447413.355851237,10,4.1246048044386265
21,186.90760909138731,0.13696678253082695,107,187.04457587391815,0.000732268133897412,186e9,136966782.53082696,100,16.711161757387657
22,152.498269887279,0.7073111522696419,131,153.20558103954866,0.004616745339629995,152e9,707311152.2696419,100,125.80496221402451
23,168.1802913309929,0.6094110946503787,119,168.78970242564327,0.003610475555633151,168e9,609411094.6503787,100,43.0680368620173
24,155.5666712197706,0.9844600992280416,128,156.55113131899864,0.006288425327454468,155e9,984460099.2280415,100,25.528287282401095
25,126.6496705578784,0.6606477748648978,158,127.3103183327433,0.005189271250883237,126e9,660647774.8648977,100,75.52749964912203
26,104.7444055364271,0.3441151700964454,191,105.08852070652354,0.0032745267302547905,104e9,344115170.0964454,100,44.37610971448861
27,32.28518081394378,0.0426640651649425,619,32.327844879108724,0.0013197311891493691,32e9,42664065.164942496,100,24.14762318644574
28,166.4477812474077,0.06563805537789942,121,166.5134193027856,0.00039419078445890375,166e9,65638055.37789942,100,142.26221998450487
29,233.5929069354472,0.12890002354667102,86,233.72180695899385,0.0005515104697495615,233e9,128900023.54667102,100,5.004765838291022
30,165.1618332883972,0.7302278620287207,121,165.89206115042592,0.0044018252408508695,165e9,730227862.0287207,100,60.584024608693134
31,174.39170882117097,0.8348893678045807,115,175.22659818897554,0.004764626925554891,174e9,834889367.8045807,100,155.1722192028545
32,107.51937842912581,0.3371613553303729,186,107.85653978445617,0.0031260167997616698,107e9,337161355.33037287,100,92.34043519229019
33,97.00775904142853,0.03358946911130831,207,97.04134851053983,0.0003461356383321497,97e9,33589469.11130831,100,44.33260233655538
34,96.85211679811364,0.5853459229730468,206,97.43746272108669,0.006007401123001231,96e9,585345922.9730468,100,87.95719405590381
35,102.57773082824144,0.2398472851851132,195,102.81757811342655,0.00233274591354912,102e9,239847285.1851132,100,71.48311025659075
36,27.51009274591787,0.11360225612020498,725,27.623695002038076,0.004112493137207872,27e9,113602256.12020499,100,9.065309285043854
37,171.72042508272642,0.08467389668020277,117,171.80509897940664,0.0004928485660972855,171e9,84673896.68020277,100,160.7803525866855
38,143.1970586492821,0.6248546436361988,140,143.8219132929183,0.004344641434185163,143e9,624854643.6361988,100,56.918502188732724
39,235.16975701516984,1.1487293783481358,85,236.31848639351796,0.004860937440312095,235e9,1148729378.3481357,100,83.29503081992773
40,162.14029540145438,0.4438063994314908,124,162.58410180088586,0.0027297035473678316,162e9,443806399.4314908,100,145.61319396202614
41,1541.5254784778274,4.008383683519608,13,1545.533862161347,0.0025935269240326426,1541e9,4008383683.5196085,1000,280.2022356996567
42,1978.5552180344232,4.6189256700408405,11,1983.174143704464,0.0023290570244189107,1978e9,4618925670.04084,1000,82.3611557763725
43,1683.5870351167378,8.091895647837239,12,1691.678930764575,0.004783351911925751,1683e9,8091895647.837239,1000,684.2816944689154
44,294.81172512718183,0.22171662505559284,68,295.0334417522374,0.000751496588789367,294e9,221716625.05559283,1000,293.0478493961447
45,948.3124713122276,4.5294763782805925,21,952.8419476905082,0.00475364921670284,948e9,4529476378.280593,1000,29.024949341000337
46,1384.5071225182032,2.7022819210023434,15,1387.2094044392056,0.001947998559089044,1384e9,2702281921.0023437,1000,364.31901162760556
47,345.7699392091247,2.454522585932987,58,348.22446179505766,0.007048679387083265,345e9,2454522585.9329867,1000,276.20317911717655
48,1031.2773532652377,2.5867889484534787,20,1033.8641422136911,0.002502058871018288,1031e9,2586788948.453479,1000,634.0543272262696
49,1850.2834409799455,0.6154628592504924,11,1850.898903839196,0.00033252105664651854,1850e9,615462859.2504923,1000,1314.766866618049
50,879.8846934023555,0.21293963880268713,23,880.0976330411582,0.00024195001873471563,879e9,212939638.80268714,1000,392.64702207668
51,916.971764623378,5.32748851256561,22,922.2992531359437,0.0057763122917550026,916e9,5327488512.56561,1000,686.4387240652894
52,2100.1470886234874,1.414380041024733,10,2101.561468664512,0.0006730138813991174,2100e9,1414380041.0247328,1000,32.89679612572312
53,1199.2631359972427,3.5686872327769175,17,1202.8318232300196,0.002966904569579609,1199e9,3568687232.7769175,1000,802.039619604385
54,1709.1827191545763,8.181061400832709,12,1717.363780555409,0.004763732351562049,1709e9,8181061400.832709,1000,1161.8267736643788
55,1430.1712851401812,3.35560249274886,14,1433.52688763293,0.002340801921259881,1430e9,3355602492.7488604,1000,553.3937469100988
56,575.0337871450756,2.6683586650296807,35,577.7021458101053,0.004618917697263996,575e9,2668358665.0296807,1000,181.44646813336595
57,285.80646029611086,0.8527122178601919,70,286.65917251397104,0.0029746552687709054,285e9,852712217.860192,1000,27.608295430833824
58,1060.8384541270955,5.183795417030199,19,1066.0222495441258,0.0048627459879444345,1060e9,5183795417.030199,1000,611.4629310244086
59,1831.2913553406859,3.52886654837788,11,1834.8202218890638,0.0019232764639713247,1831e9,3528866548.3778796,1000,552.992306437142
60,1077.9025460592477,7.015007113848991,19,1084.9175531730966,0.006465935677169157,1077e9,7015007113.848991,1000,508.7218600252214
