app_id,Tcomp,Tio,iter,witer,alpha_io,compute_size,io_size,mu,desyn_time
1,4.502308430399975,0.004435069118081887,4438,4.506743499518057,0.0009840961924183537,4e9,4435069.118081887,10,1.366004463865579
2,12.411118113020851,0.050856432987304266,1605,12.461974546008156,0.004080928973137303,12e9,50856432.98730426,10,4.000317551627917
3,3.931974192167992,0.012871302063057902,5070,3.94484549423105,0.0032628152564861974,3e9,12871302.063057901,10,0.2755745094388223
4,20.654035669402635,0.11646849319184112,963,20.770504162594477,0.005607398466599997,20e9,116468493.19184113,10,15.918943783509954
5,8.014000581194175,0.003764964161876809,2495,8.01776554535605,0.00046957773217221396,8e9,3764964.161876809,10,4.8582835460398135
6,7.119361378653013,0.005397101314262785,2808,7.1247584799672765,0.0007575135816095163,7e9,5397101.314262785,10,0.28546740671865517
7,5.426718876431597,0.02491515395245017,3669,5.451634030384047,0.004570217628987651,5e9,24915153.95245017,10,0.0502611018046793
8,7.9221276365888835,0.01063502217172047,2522,7.932762658760604,0.0013406454509231544,7e9,10635022.171720471,10,6.930784769985956
9,15.869123413225225,0.04581635110146775,1257,15.914939764326693,0.0028788265478808164,15e9,45816351.10146775,10,8.831004174349422
10,8.69620660969442,0.0324753174447964,2292,8.728681927139215,0.0037205293669625135,8e9,32475317.4447964,10,1.922014134024444
11,14.238747766367615,0.06677188169221773,1399,14.305519648059832,0.004667560727252127,14e9,66771881.69221773,10,11.080954535413124
12,12.958115434254973,0.022796806156946667,1541,12.98091224041192,0.001756179052345497,12e9,22796806.156946667,10,6.192606224213434
13,9.953936041499174,0.04886649078732988,2000,10.002802532286504,0.004885279963250426,9e9,48866490.78732988,10,5.854141231997891
14,6.588275913333038,0.0036380624180681947,3035,6.5919139757511065,0.0005518977388738846,6e9,3638062.4180681948,10,1.5524150866448765
15,6.0396978705370215,0.015458551594011632,3303,6.0551564221310334,0.0025529566069527228,6e9,15458551.594011633,10,1.3772629366486286
16,1.312858389667418,0.003600982006761575,15193,1.3164593716741795,0.0027353536951027226,1e9,3600982.006761575,10,0.4092932062047298
17,4.948992833752977,0.016284546228485047,4028,4.965277379981463,0.0032796850975817674,4e9,16284546.228485048,10,0.6828877438445701
18,13.677166638732755,0.020632528759781495,1461,13.697799167492537,0.0015062659707222442,13e9,20632528.759781495,10,12.664907579736498
19,7.97507472972777,0.014463196434804433,2504,7.9895379261625745,0.0018102669476595373,7e9,14463196.434804434,10,2.300258169615894
20,8.210753820595443,0.04212817805779348,2424,8.252881998653237,0.005104662597219765,8e9,42128178.05779348,10,6.650480024038694
21,71.93253374453744,0.35471838607434863,277,72.28725213061179,0.004907066953291126,71e9,354718386.0743486,100,0.2518721036706155
22,158.1648703742776,0.8221311606823689,126,158.98700153495997,0.005171058971771279,158e9,822131160.6823689,100,58.451256478286034
23,77.44117870046705,0.3395148551324187,258,77.78069355559947,0.004365027355917385,77e9,339514855.1324187,100,31.985493554877795
24,74.03998760761908,0.28839314379020115,270,74.32838075140928,0.00387998690237488,74e9,288393143.7902011,100,69.16979898242458
25,86.02099939180691,0.4207656312561784,232,86.44176502306308,0.004867619618177811,86e9,420765631.2561784,100,73.20383173003417
26,69.02685428699962,0.07413824725663834,290,69.10099253425626,0.001072896995218772,69e9,74138247.25663833,100,61.62105951571736
27,81.33852264967562,0.41683191006304404,245,81.75535455973866,0.005098527335704536,81e9,416831910.0630441,100,3.4136478626987246
28,143.30353614029224,0.6704907346174119,139,143.97402687490964,0.004657025639770157,143e9,670490734.617412,100,42.10135770070555
29,113.77852502963383,0.5210267394386886,175,114.29955176907251,0.004558432044347434,113e9,521026739.4386886,100,86.1601434066503
30,66.9770096378042,0.38260508030062895,297,67.35961471810484,0.005680036649583045,66e9,382605080.30062896,100,52.20025516559389
31,163.3392632049622,0.10458260502861587,123,163.44384580999082,0.0006398687237829486,163e9,104582605.02861586,100,163.1128735053462
32,99.06645894602183,0.5585333428988649,201,99.6249922889207,0.005606357702684404,99e9,558533342.8988649,100,33.42361970394382
33,139.20521925268463,0.20763844899736372,144,139.412857701682,0.0014893780417418315,139e9,207638448.99736372,100,138.74951169179897
34,60.10925646586541,0.33377635483097196,331,60.44303282069638,0.005522164247136903,60e9,333776354.83097196,100,0.7419351211265673
35,111.04283469999393,0.4978982032471959,180,111.54073290324112,0.004463824024530218,111e9,497898203.2471959,100,61.813107397138246
36,147.7907918871489,0.2929548228383144,136,148.08374670998722,0.0019783050425651923,147e9,292954822.8383144,100,25.123267644157938
37,133.89388143022762,0.5365840550377466,149,134.43046548526536,0.003991536093405557,133e9,536584055.03774667,100,87.99869725437858
38,96.01482040640012,0.5106375715343755,208,96.5254579779345,0.005290185431195841,96e9,510637571.5343755,100,60.68131322896225
39,202.48403552166445,0.5346915961389659,99,203.01872711780342,0.002633705785322486,202e9,534691596.1389659,100,151.64090322161368
40,147.39838278238142,0.44178564861806324,136,147.84016843099948,0.0029882653226565763,147e9,441785648.6180633,100,89.64255789872342
41,260.6169343124056,0.01618704018739828,77,260.633121352593,6.210661217343871e-05,260e9,16187040.187398281,1000,145.4035935447329
42,1226.0112613678364,7.230546134131744,17,1233.2418075019682,0.0058630400706069195,1226e9,7230546134.131744,1000,139.28517241388448
43,850.5014599268143,3.6853879669069536,24,854.1868478937213,0.004314498608816666,850e9,3685387966.906954,1000,540.5429749933139
44,1055.1349770455024,2.069597987388807,19,1057.2045750328912,0.0019576135369300863,1055e9,2069597987.388807,1000,85.39391168122108
45,807.1887889602511,1.5150743074049096,25,808.7038632676561,0.0018734599600935338,807e9,1515074307.4049096,1000,542.6103165240639
46,976.9463931611044,4.468951743495097,21,981.4153449045996,0.004553578428029888,976e9,4468951743.495097,1000,418.1407561969564
47,997.5125101557678,5.171368725642872,20,1002.6838788814107,0.005157526549057542,997e9,5171368725.642872,1000,78.81803420663672
48,515.882788923772,2.96354814784597,39,518.8463370716179,0.005711803160396799,515e9,2963548147.84597,1000,93.38870038222288
49,835.2458468314322,1.677191366564736,24,836.923038197997,0.0020039971299821604,835e9,1677191366.564736,1000,529.4148814072914
50,1121.1322157033644,1.5602358524306559,18,1122.692451555795,0.0013897268573138848,1121e9,1560235852.430656,1000,467.9741988474152
51,1363.5862612267276,3.85367512242835,15,1367.439936349156,0.002818167745427299,1363e9,3853675122.42835,1000,941.043277252933
52,1288.3078285024524,2.0726879304989896,16,1290.3805164329513,0.0016062610246383763,1288e9,2072687930.4989896,1000,969.6590011535183
53,1145.7033031917322,6.8789098141823315,18,1152.5822130059146,0.005968259562363238,1145e9,6878909814.182331,1000,824.5991736069351
54,1175.9274743772596,2.8715918123391253,17,1178.7990661895988,0.002436031631430947,1175e9,2871591812.339125,1000,85.08959698218088
55,781.4771421392018,3.425770669746278,26,784.902912808948,0.004364578871909651,781e9,3425770669.746278,1000,339.68076282385994
56,863.3387806184332,4.197341901332041,24,867.5361225197653,0.004838233005377147,863e9,4197341901.332041,1000,408.42952634678966
57,341.4818007719391,1.5937697220904303,59,343.07557049402953,0.004645535442221661,341e9,1593769722.0904303,1000,238.06781691225694
58,820.6991285410332,1.177981046113294,25,821.8771095871465,0.001433281244084081,820e9,1177981046.1132941,1000,348.4520633375147
59,1619.2240572683686,3.1392326655946974,13,1622.3632899339632,0.0019349751594308308,1619e9,3139232665.5946975,1000,916.9025419510734
60,466.04070616408455,0.7858553315025935,43,466.82656149558716,0.0016833989243990822,466e9,785855331.5025934,1000,29.365509505752733
