app_id,start_app,end_app,effective_cpu,effective_io,effective_iter,total_bytes,stretch,utilization,Tcomp,Tio,iterations,priority,group_id
app_1,6.21378,19608.3,7933.1,59.1639,464.855,4.63128e+10,1.00258,0.990328,17,0.0995973,1141,0.1,1
app_10,6.68472,18096.6,7893.4,89.9477,986.849,1.81103e+10,1.01118,0.990328,8,0.0183488,2230,0.1,1
app_11,1.9316,16513.5,7801.5,168.378,1948.48,7.15882e+08,1.02535,0.990328,4,0.000367496,4025,0.1,1
app_12,1.63066,18539.1,7880.5,102.98,1125.91,2.01824e+10,1.01257,0.990328,7,0.017924,2606,0.1,1
app_13,1.86004,16547,7727,231.039,2576.04,3.2927e+10,1.03094,0.990328,3,0.0127822,5325,0.1,1
app_14,6.13529,18484.2,7891.1,92.2457,986.39,2.33837e+10,1.01081,0.990328,8,0.0237157,2279,0.1,1
app_15,9.26043,19227.3,7931.1,58.2522,607.774,2.04744e+10,1.00609,0.990328,13,0.0337305,1464,0.1,1
app_16,11.5665,18940.7,7939.1,51.0905,566.492,8.57467e+09,1.00658,0.990328,14,0.0151229,1342,0.1,1
app_17,1.04207,17805.8,7619,381,3810.36,1.41901e+10,1.04805,0.990328,2,0.00372444,8473,1,0
app_18,1.46678,19046.4,7927.9,58.2015,661.267,7.63741e+09,1.00812,0.990328,12,0.0115369,1574,0.1,1
app_19,1.34274,19016.1,7732.8,231.505,2577.67,1.99761e+10,1.03189,0.990328,3,0.0077487,6126,0.1,1
app_2,0.876147,15689.3,7730.9,229.676,2575.64,2.82057e+10,1.03105,0.990328,3,0.0109537,5054,0.1,1
app_20,3.31148,20020,7793.76,175.297,1951.14,2.28321e+10,1.02346,0.990328,4,0.0117003,4883,0.1,1
app_21,50.1486,19998.1,7948,50.1881,67.4808,4.44972e+10,1.00094,0.990328,117,0.664137,169,0.01,2
app_22,110.006,20126.6,7982.3,14.9761,58.2372,1.11104e+10,1.00082,0.990328,137,0.191559,146,0.01,2
app_23,42.7683,19896.3,7964.3,30.2027,102.268,2.05991e+10,1.00189,0.990328,78,0.201952,254,0.01,2
app_24,6.44396,19810.6,7976.5,22.3846,64.1258,1.79529e+10,1.00069,0.990328,124,0.280514,160,0.01,2
app_25,33.0865,20075.9,7927,68.3167,227.968,4.57998e+10,1.00341,0.990328,35,0.200876,568,0.01,2
app_26,46.783,19934.2,7960.7,37.1873,118.066,3.08111e+10,1.00106,0.990328,68,0.261111,291,0.01,2
app_27,191.591,20281.4,7958,41.1193,41.3743,3.59538e+10,1.00076,0.990328,194,0.856044,103,0.01,2
app_28,5.46421,17635.1,7831.3,142.904,1564.14,2.60465e+10,1.01816,0.990328,5,0.0166538,3451,0.1,1
app_29,10.5382,19734.1,7942.2,53.9183,172.775,4.41795e+10,1.00171,0.990328,46,0.255373,426,0.01,2
app_3,1.07182,18120.8,7879.7,102.974,1121.42,2.14591e+10,1.01251,0.990328,7,0.0191258,2547,0.1,1
app_30,38.8212,19977.1,7943.5,56.3718,108.391,4.74129e+10,1.00114,0.990328,73,0.434981,271,0.01,2
app_31,9.01509,20056.5,7945.7,52.0296,83.5056,4.49603e+10,1.00117,0.990328,95,0.54169,209,0.01,2
app_32,23.7925,19952.7,7969,30.5227,43.1674,2.66355e+10,1.00055,0.990328,185,0.619431,108,0.01,2
app_33,37.4188,20118.6,7973.6,23.441,97.9593,1.78878e+10,1.00107,0.990328,81,0.18441,246,0.01,2
app_34,16.5556,19891.4,7950.6,45.8718,136.643,3.82241e+10,1.0014,0.990328,58,0.279008,340,0.01,2
app_35,23.8937,19991.1,7963,33.4839,151.319,2.68823e+10,1.00127,0.990328,53,0.178028,376,0.01,2
app_36,23.1387,19849.2,7923.8,69.1416,232.262,4.68525e+10,1.00368,0.990328,34,0.20195,577,0.01,2
app_37,20.5265,19913,7986.9,9.17482,83.5744,6.07954e+09,1.00088,0.990328,95,0.0732474,209,0.01,2
app_38,51.7669,20085.8,7979.5,19.2026,45.1044,1.63415e+10,1.00052,0.990328,177,0.363144,113,0.01,2
app_39,167.527,20074.1,7967.4,30.6581,39.495,2.66817e+10,1.00074,0.990328,201,0.684145,99,0.01,2
app_4,4.11415,17843.1,7834.71,141.8,1566.54,1.57005e+10,1.01906,0.990328,5,0.01002,3489,0.1,1
app_40,27.8996,19994.1,7988.4,8.04474,81.6821,2.84607e+09,1.0011,0.990328,97,0.0347082,205,0.01,2
app_41,352.227,20575.6,7958,38.3845,18.3483,3.41544e+10,1.00098,0.990328,425,1.89746,47,0.001,3
app_42,118.932,20308.5,7951.8,47.8773,35.3095,4.25137e+10,1.00071,0.990328,225,1.18094,89,0.01,2
app_43,285.123,21043.8,7968.9,22.6152,16.1701,1.61637e+10,1.00187,0.990328,486,1.01023,42,0.001,3
app_44,846.037,20684.1,7977.2,22.8,5.26219,2.06412e+10,1.00027,0.990328,1549,4.12824,13,0.001,3
app_45,247.416,21903.7,7959.5,40.5,5.32902,3.60219e+10,1.00056,0.990328,1530,7.20439,14,0.001,3
app_46,501.374,21133.2,7931.4,68.6,5.59079,5.73287e+10,1.00141,0.990328,1470,9.55479,14,0.001,3
app_47,414.513,20369.3,7969.1,30.9,9.92079,2.61489e+10,1.00059,0.990328,845,2.61489,24,0.001,3
app_48,243.68,21910.2,7954,46,5.39318,3.87841e+10,1.0009,0.990328,1418,6.46402,15,0.001,3
app_49,116.893,20273.5,7950.1,43.3918,14.0619,3.68993e+10,1.00163,0.990328,579,2.63567,35,0.001,3
app_5,13.018,19950.1,7926.4,62.4894,611.494,3.24067e+10,1.00518,0.990328,13,0.0529521,1521,0.1,1
app_50,539.766,20676.8,7969.5,27.5257,8.33464,2.38375e+10,1.00083,0.990328,976,2.64861,21,0.001,3
app_51,283.013,20562.8,7980,20,11.1633,1.8073e+10,1.00024,0.990328,733,1.643,28,0.001,3
app_52,1059.58,21744.2,7980.5,19.5,6.94339,1.61877e+10,1.00041,0.990328,1142,2.31252,18,0.001,3
app_53,1170.28,22372.4,7952.6,47.4,5.14416,4.02218e+10,1.0009,0.990328,1504,8.04435,14,0.001,3
app_54,32.8686,20331.4,7956.3,43.7,11.8671,3.90694e+10,1.00058,0.990328,677,3.25578,30,0.001,3
app_55,1435.95,23077.2,7936.8,63.2,3.24466,5.52387e+10,1.001,0.990328,2343,13.8097,9,0.001,3
app_56,151.527,20394.6,7968.4,27.4458,7.04784,2.37427e+10,1.00098,0.990328,1130,3.39181,18,0.001,3
app_57,213.266,22657.4,7948.9,51.1,4.66086,4.50305e+10,1.00076,0.990328,1657,9.0061,13,0.001,3
app_58,84.348,20606.9,7954.7,34.6972,23.5507,2.95839e+10,1.00197,0.990328,337,1.28626,60,0.001,3
app_59,1101.42,21260.2,7997.1,2.9,6.26533,1.50529e+09,1.00017,0.990328,1276,0.215041,16,0.001,3
app_6,0.243352,18015.9,7788.6,180.769,1945.94,4.5176e+10,1.02122,0.990328,4,0.0232148,4387,0.1,1
app_60,492.575,20638.5,7944.9,53.3413,14.2545,4.6695e+10,1.00105,0.990328,559,3.33536,36,0.001,3
app_7,4.563,19179.1,7930.2,58.6749,660.305,5.97831e+09,1.00804,0.990328,12,0.00905805,1585,0.1,1
app_8,9.06088,19869.3,7951.5,40.8196,397.072,2.16819e+10,1.00336,0.990328,20,0.0546143,986,0.1,1
app_9,3.23283,19438.8,7953.6,40.125,396.321,2.18148e+10,1.00308,0.990328,20,0.0550879,963,0.1,1
