app_id,start_app,end_app,effective_cpu,effective_io,effective_iter,total_bytes,stretch,utilization,Tcomp,Tio,iterations,priority,group_id
app_1,2.46452,15038.1,7616,360.967,3807.09,3.20868e+10,1.04601,0.984768,2,0.00842838,7155,1,0
app_10,4.36641,18867.2,7854.7,125.112,1308.88,3.72158e+10,1.0137,0.984768,6,0.0284307,3089,0.1,1
app_11,1.52578,11616,5102.96,488.152,5098.32,2.75429e+10,1.5593,0.984768,1,0.00540164,10551,1,0
app_12,5.54543,18198.7,7863.7,115.89,1310.47,4.87805e+09,1.0167,0.984768,6,0.00372086,2977,0.1,1
app_13,14.0722,18940.4,7935.7,54.9035,530.122,3.14063e+10,1.00413,0.984768,15,0.0592572,1251,0.1,1
app_14,7.52501,19392.7,7952.7,41.9639,420.696,1.88021e+10,1.00357,0.984768,19,0.044767,1018,0.1,1
app_15,6.32939,19437.9,7946.9,44.296,497.007,5.41071e+09,1.006,0.984768,16,0.0108867,1208,0.1,1
app_16,6.00553,20140.5,7864.2,113.529,1310.12,3.05426e+09,1.01687,0.984768,6,0.0023315,3300,0.1,1
app_17,3.9222,18091.1,7790.8,180.627,1947.67,3.50972e+10,1.02225,0.984768,4,0.0180263,4405,0.1,1
app_18,1.47667,19869.3,7953.2,40.6229,376.935,2.98231e+10,1.00213,0.984768,21,0.0791064,938,0.1,1
app_19,3.20271,17749.6,7721.8,240.261,2570.13,5.53644e+10,1.02865,0.984768,3,0.0215342,5708,0.1,1
app_2,10.574,19459.1,7910.5,82.0291,439.772,4.48028e+10,1.00562,0.984768,18,0.101824,1067,0.1,1
app_20,4.28784,19419,7911.6,76.9836,790.727,2.65094e+10,1.0078,0.984768,10,0.0335137,1918,0.1,1
app_21,5.31578,20181.2,7967.6,28.7232,48.5489,2.37119e+10,1.00109,0.984768,162,0.483916,123,0.01,2
app_22,6.28374,18593.4,7881.8,100.084,1124.07,1.02137e+10,1.01368,0.984768,7,0.00908696,2618,0.1,1
app_23,102.759,19981.5,7992.9,6.36338,60.6914,2.88079e+09,1.00053,0.984768,132,0.0472261,151,0.01,2
app_24,20.8295,20045.4,7974.9,21.939,66.7983,1.71354e+10,1.001,0.984768,119,0.259628,168,0.01,2
app_25,29.111,19751,7961.4,33.4648,166.92,1.88836e+10,1.00247,0.984768,48,0.113076,410,0.01,2
app_26,10.3031,19650.2,7968.1,26.4137,275.421,8.77599e+09,1.0029,0.984768,29,0.0319127,676,0.1,1
app_27,0.900723,18325,7903.1,81.7927,877.622,1.91199e+10,1.00982,0.984768,9,0.0217767,2011,0.1,1
app_28,15.373,20011.9,7971.4,24.4354,248.574,5.47592e+09,1.0029,0.984768,32,0.0220803,621,0.01,2
app_29,20.3554,19953.1,7961.1,38.2153,57.9699,3.18279e+10,1.00088,0.984768,136,0.548758,146,0.01,2
app_3,1.22611,15819.7,7611,366.274,3814.13,4.91825e+10,1.04436,0.984768,2,0.0128919,7537,1,0
app_30,13.6806,20145.8,7948.9,50.1868,50.2489,4.26116e+10,1.00106,0.984768,156,0.835522,128,0.01,2
app_31,87.1517,20061.7,7980,18.6694,55.2676,1.44953e+10,1.00069,0.984768,145,0.263551,138,0.01,2
app_32,82.0877,20154.6,7974.8,23.846,33.5394,2.03055e+10,1.00061,0.984768,238,0.59722,84,0.01,2
app_33,78.0711,20046.9,7968.6,30.4094,93.9271,2.42591e+10,1.00089,0.984768,85,0.258075,235,0.01,2
app_34,76.2847,20117.6,7947.1,51.7134,83.6505,4.23917e+10,1.00132,0.984768,94,0.504664,210,0.01,2
app_35,117.507,20233.2,7965.9,32.3339,61.2877,2.64516e+10,1.00096,0.984768,130,0.433633,154,0.01,2
app_36,44.7808,20227.3,7944.6,54.8448,52.6202,4.77162e+10,1.00096,0.984768,150,0.917619,133,0.01,2
app_37,2.16134,19439.4,7954.1,39.454,397.071,1.72643e+10,1.00359,0.984768,20,0.043487,964,0.1,1
app_38,85.6293,20032,7967.9,30.9539,76.204,2.31196e+10,1.00112,0.984768,104,0.304205,192,0.01,2
app_39,93.4492,20220.1,7963.3,36.7,33.91,3.13196e+10,1.00067,0.984768,232,0.921164,86,0.01,2
app_4,1.12909,19264.4,7731.1,231.774,2575.55,1.59267e+10,1.03265,0.984768,3,0.00618513,6200,0.1,1
app_40,42.1945,20146.6,7982.6,16.1615,80.6401,1.04557e+10,1.00087,0.984768,98,0.130696,204,0.01,2
app_41,371.814,21786.5,7980.8,12.2821,4.63051,9.61473e+09,1.0012,0.984768,1769,2.40368,12,0.001,3
app_42,714.542,20970.4,7963.5,36.5,8.85771,2.99695e+10,1.00082,0.984768,915,3.32995,22,0.001,3
app_43,694.366,21189.8,7982.6,15.6565,10.3162,1.27877e+10,1.00058,0.984768,786,1.27877,26,0.001,3
app_44,359.54,20513,7960.2,39.8,8.29339,3.37722e+10,1.00075,0.984768,969,4.22153,21,0.001,3
app_45,305.617,20297.8,7948.9,43.426,14.5224,3.79547e+10,1.00165,0.984768,564,2.71105,36,0.001,3
app_46,864.209,20562.8,7982.4,15.5631,7.72521,1.24154e+10,1.00065,0.984768,1052,1.55193,19,0.001,3
app_47,3.02213,18443.2,7905.9,82.2331,792.975,4.82446e+10,1.00576,0.984768,10,0.060838,1824,0.1,1
app_48,1071.47,21517,7959.3,40.7,5.93112,3.337e+10,1.00092,0.984768,1400,5.56166,15,0.001,3
app_49,1405.54,23084,7935.8,63.4201,5.09508,5.47233e+10,1.00119,0.984768,1527,9.12055,14,0.001,3
app_5,9.11517,19545.8,7902.5,82.7862,877.126,2.69576e+10,1.0089,0.984768,9,0.0307384,2143,0.1,1
app_50,424.303,21522.5,7947.6,52.4,8.07523,4.43029e+10,1.00101,0.984768,969,5.53786,21,0.001,3
app_51,279.893,19983.3,7955.2,44.8,19.1633,3.57217e+10,1.00114,0.984768,424,1.88009,47,0.001,3
app_52,769.718,21707.2,7950.2,40.6212,7.32658,3.41317e+10,1.00196,0.984768,1081,4.87596,19,0.001,3
app_53,1095.9,21702.3,7943.6,56.4,6.7445,4.92089e+10,1.0009,0.984768,1136,7.02984,18,0.001,3
app_54,614.709,21941.1,7994.8,5.2,4.74413,4.03202e+09,1.00015,0.984768,1622,0.806404,13,0.001,3
app_55,321.251,21010.3,7931.8,61.9907,9.68618,5.20805e+10,1.00202,0.984768,803,5.20805,25,0.001,3
app_56,858.633,20692.2,7994,1.06558,5.24939,6.57706e+08,1.00067,0.984768,1539,0.131541,13,0.001,3
app_57,51.8284,20252.5,7980.9,14.8493,8.15329,1.33969e+10,1.00071,0.984768,973,1.67462,21,0.001,3
app_58,224.016,20450.9,7949.2,50.4653,30.0665,4.45963e+10,1.00078,0.984768,259,1.48654,77,0.01,2
app_59,8.03652,20353.5,7986.2,13.2468,26.5794,1.05615e+10,1.0004,0.984768,302,0.391165,67,0.01,2
app_6,4.71806,19288.1,7919.1,70.8069,659.552,5.11454e+10,1.00373,0.984768,12,0.0774931,1593,0.1,1
app_60,790.258,21632.4,7979.5,20.5,7.69839,1.79041e+10,1.00032,0.984768,1026,2.55773,20,0.001,3
app_7,4.22628,19702.2,7914.8,73.0276,719.615,3.70598e+10,1.00605,0.984768,11,0.0515435,1771,0.1,1
app_8,0.429777,19843.8,7922.6,67.7726,610.533,5.20259e+10,1.00318,0.984768,13,0.0851488,1511,0.1,1
app_9,1.56213,19189.4,7850.1,127.992,1305.12,5.30171e+10,1.01226,0.984768,6,0.0406261,3132,0.1,1
