app_id,start_app,end_app,effective_cpu,effective_io,effective_iter,total_bytes,stretch,utilization,Tcomp,Tio,iterations,priority,group_id
app_1,11.8667,19665.5,7798.9,81.2187,432.016,5.09224e+10,1.01913,0.980712,18,0.117876,1062,1,1
app_10,2.45677,19358.6,7770.2,60.628,598.98,3.07589e+10,1.02551,0.980712,13,0.0513504,1448,1,1
app_11,2.04898,17254.9,7263.9,217.516,2425.62,4.52908e+10,1.09451,0.980712,3,0.0186689,5250,1,1
app_12,4.80233,19049,7613.4,88.1405,1087.17,7.50037e+09,1.04974,0.980712,7,0.00690006,2598,1,1
app_13,2.13119,19347,7712.8,75.4764,704.056,4.7298e+10,1.03091,0.980712,11,0.0671847,1704,1,1
app_14,2.10376,20005.8,7853.2,41.0107,356.902,2.79119e+10,1.01509,0.980712,22,0.0781847,895,1,1
app_15,2.96203,19231.2,7495,126.573,1497.25,1.51383e+10,1.06523,0.980712,5,0.0101124,3613,1,1
app_16,6.66392,19486.2,7681.8,72.9569,853.215,1.36473e+10,1.03958,0.980712,9,0.0159804,2084,1,1
app_17,6.04499,19273.1,7779.7,55.7128,598.236,2.01743e+10,1.02566,0.980712,13,0.0337362,1447,1,1
app_18,5.199,19872.9,7702.5,80.3258,768.561,4.92349e+10,1.03203,0.980712,10,0.064108,1920,1,1
app_19,1.08104,15019.6,6628,571.282,6626.43,4.59755e+10,1.19869,0.980712,1,0.00693865,12532,1,1
app_2,5.47277,20477.9,7606.1,88.6826,1085.33,6.8222e+09,1.05084,0.980712,7,0.00628195,2787,1,1
app_20,9.21391,19792.4,7829.9,41.9613,521.511,1.62066e+09,1.02151,0.980712,15,0.00311067,1291,1,1
app_21,144.834,20217,7963.9,11.0768,51.1221,9.44505e+09,1.00334,0.980712,156,0.185197,128,1,1
app_22,65.7438,19980.7,7920.1,40.7285,101.089,3.61425e+10,1.0055,0.980712,79,0.357846,251,1,1
app_23,76.2032,19929.8,7931.5,53.2868,88.3127,4.98035e+10,1.00234,0.980712,90,0.565949,219,1,1
app_24,4.99964,19604.3,7811,67.7604,371.424,3.93498e+10,1.01906,0.980712,21,0.105779,912,1,1
app_25,96.111,20206.7,7975.5,11.1713,56.6274,8.68272e+09,1.00198,0.980712,140,0.155049,143,1,1
app_26,84.4141,20020.1,7930.7,38.3258,79.6656,3.34986e+10,1.0045,0.980712,99,0.424033,200,1,1
app_27,60.5588,19932.2,7970.8,8.68446,50.8974,5.26818e+09,1.003,0.980712,160,0.103298,125,1,1
app_28,105.032,20268.4,7929,41.7861,60.6141,3.70484e+10,1.00426,0.980712,130,0.60735,153,1,1
app_29,45.2081,19980,7985.1,6.9019,77.0914,1.49615e+09,1.00168,0.980712,104,0.0194305,192,1,1
app_3,7.30938,20235.2,7811.5,55.0021,487.51,3.98399e+10,1.01893,0.980712,16,0.0818068,1235,1,1
app_30,58.393,20201.5,7931,42.9089,62.6542,3.91406e+10,1.00375,0.980712,125,0.6313,159,1,1
app_31,41.1029,19946.7,7949.9,13.2871,151.975,3.26013e+09,1.00589,0.980712,52,0.0214482,378,1,1
app_32,118.075,20198.2,7978.5,6.91222,54.0661,5.34791e+09,1.00202,0.980712,148,0.0990354,135,1,1
app_33,9.59733,19987.8,7919.4,53.5398,75.127,5.12226e+10,1.00369,0.980712,105,0.682968,189,1,1
app_34,6.33601,20228.6,7851,46.0155,393.543,3.70615e+10,1.01419,0.980712,20,0.094304,991,1,1
app_35,54.641,20306.4,7934.5,46.568,77.6831,4.1724e+10,1.00298,0.980712,101,0.534924,197,1,1
app_36,106.277,20256.6,7935.4,42.2464,69.419,3.9214e+10,1.00318,0.980712,113,0.568319,176,1,1
app_37,115.731,20191.6,7938.7,41.2167,50.0538,3.99388e+10,1.00268,0.980712,159,0.798777,125,1,1
app_38,173.588,20363.9,7956.1,21.3197,36.1586,1.91392e+10,1.0031,0.980712,217,0.531646,92,1,1
app_39,61.1313,20392.8,7978.1,11.1639,39.1274,7.95215e+09,1.00175,0.980712,203,0.203901,99,1,1
app_4,3.53819,19687.3,7588.5,101.236,1264.14,1.00488e+09,1.05409,0.980712,6,0.000795002,3115,1,1
app_40,135.099,20537.7,7967.4,25.4738,52.4921,2.21643e+10,1.00131,0.980712,151,0.426236,133,1,1
app_41,87.8841,20830.6,7975.5,23.133,6.90077,2.28624e+10,1.0002,0.980712,1151,3.26606,18,1,1
app_42,308.289,20551.7,7979.9,19.9186,6.38593,1.97504e+10,1.00004,0.980712,1279,3.29174,16,1,1
app_43,317.438,20656.7,7969.9,27.2815,17.0686,2.62676e+10,1.00048,0.980712,472,1.54515,43,1,1
app_44,0.216163,21085.9,7983.9,3.15398,7.6892,2.88497e+09,1.00165,0.980712,1041,0.360621,20,1,1
app_45,494.992,20824.6,7944.8,50.7885,10.1289,5.0035e+10,1.00065,0.980712,785,5.0035,26,1,1
app_46,259.348,20810.4,7971.9,27.7664,20.2654,2.6274e+10,1.00023,0.980712,390,1.3137,52,1,1
app_47,257.041,20516.6,7975.4,21.7218,4.70287,2.1468e+10,1.00039,0.980712,1680,4.2936,12,1,1
app_48,1587.91,22782.7,7983.8,16.0607,4.92516,1.58936e+10,1.00004,0.980712,1628,3.17873,13,1,1
app_49,1246.39,21916.3,7976,23.9303,5.11695,2.34994e+10,1.00006,0.980712,1592,3.91656,13,1,1
app_5,3.33512,20080.7,7597.2,102.582,1083.88,3.87707e+10,1.04767,0.980712,7,0.0357664,2734,1,1
app_50,313.552,20974.8,7953.7,43.0443,8.42137,4.24153e+10,1.00049,0.980712,931,5.30192,22,1,1
app_51,806.106,21543.4,7977.3,22.4069,8.41261,2.20974e+10,1.00008,0.980712,933,2.76218,22,1,1
app_52,279.271,21251,7959.7,40.0194,6.56024,3.97211e+10,1.00007,0.980712,1230,5.67445,17,1,1
app_53,717.963,21271.7,7936.4,57.7709,7.37052,5.74612e+10,1.00077,0.980712,1085,7.18266,19,1,1
app_54,50.1561,20792.1,7952.2,47.3932,10.9627,4.72725e+10,1.00007,0.980712,733,4.2975,28,1,1
app_55,942.94,21617.2,7972.4,27.318,6.93603,2.69229e+10,1.00008,0.980712,1135,3.84613,18,1,1
app_56,1026.58,21822.7,7962.8,37.0905,5.88467,3.66752e+10,1.00007,0.980712,1372,6.11253,15,1,1
app_57,1281.62,22757.8,7995.6,2.60916,6.00307,2.3304e+09,1.00026,0.980712,1328,0.3884,16,1,1
app_58,290.834,20276.7,7943.3,54.0153,9.99889,5.34996e+10,1.0004,0.980712,802,5.34996,25,1,1
app_59,286.758,20364.2,7993.1,4.94055,17.5001,4.27085e+09,1.00033,0.980712,467,0.251226,43,1,1
app_6,0.777285,19670.4,7789.2,57.6867,554.97,3.36655e+10,1.02264,0.980712,14,0.0606586,1366,1,1
app_60,812.884,21930.5,7977.6,21.5406,7.69296,2.11337e+10,1.00016,0.980712,1043,2.64172,20,1,1
app_7,7.49476,19355.5,7645.3,87.2799,957.131,2.44688e+10,1.04306,0.980712,8,0.0255682,2320,1,1
app_8,6.21562,20838.9,7598.4,90.0305,1083.39,1.46864e+10,1.05082,0.980712,7,0.0135609,2838,1,1
app_9,1.3689,20245.9,7833.5,43.4925,413.086,2.57834e+10,1.0179,0.980712,19,0.0624296,1047,1,1
