app_id,start_app,end_app,effective_cpu,effective_io,effective_iter,total_bytes,stretch,utilization,Tcomp,Tio,iterations,priority,group_id
app_1,0.915326,17392.3,7138.9,307.283,3572.15,4.75817e+10,1.1132,0.982451,2,0.013317,7802,1,1
app_10,8.1216,20285.1,7801.6,58.1018,521.58,4.09975e+10,1.02007,0.982451,15,0.0786901,1322,1,1
app_11,3.95636,19507.1,7537.9,142.227,1512.13,5.22352e+10,1.054,0.982451,5,0.0345471,3695,1,1
app_12,0.673365,16560.3,6717.13,560.487,6714.14,3.23864e+08,1.19093,0.982451,1,4.8236e-05,13965,1,1
app_13,6.57589,20708.2,7716.2,75.961,964.284,1.73157e+09,1.03655,0.982451,8,0.00179623,2497,1,1
app_14,5.81799,19458.3,7784.9,64.6152,648.588,3.04886e+10,1.02362,0.982451,12,0.0470502,1582,1,1
app_15,3.81009,20398.5,7805.8,62.5718,601.553,3.35852e+10,1.02049,0.982451,13,0.0558823,1531,1,1
app_16,0.250791,18570.5,7593.6,113.823,1264.13,3.30386e+10,1.04895,0.982451,6,0.0261174,2947,1,1
app_17,8.177,19664.9,7835.3,57.783,602.073,2.4498e+10,1.01784,0.982451,13,0.0406943,1478,1,1
app_18,2.81841,20588,7469.8,165.633,1866.76,4.18053e+10,1.06502,0.982451,4,0.0223917,4825,1,1
app_19,5.16346,19101.8,7777.1,62.3849,705.492,1.5516e+10,1.02661,0.982451,11,0.0220085,1688,1,1
app_2,10.6076,19881.8,7859.9,42.0059,462.119,1.24223e+10,1.01622,0.982451,17,0.02683,1149,1,1
app_20,6.12346,19341.2,7825,85.0333,460.297,5.21599e+10,1.01559,0.982451,17,0.113145,1113,1,1
app_21,22.8535,19722.1,7938.6,22.621,207.727,1.54096e+10,1.00578,0.982451,38,0.0740846,515,1,1
app_22,8.89884,19875.9,7930.1,42.7365,84.4563,3.93203e+10,1.00384,0.982451,94,0.468099,210,1,1
app_23,22.7099,19869.7,7966.2,19.2017,67.4387,1.51005e+10,1.00234,0.982451,119,0.222066,167,1,1
app_24,30.3396,20031,7930.6,50.3939,104.436,4.30394e+10,1.00331,0.982451,76,0.413841,261,1,1
app_25,57.2114,20102.7,7983.6,9.32953,95.1498,4.57115e+09,1.00148,0.982451,84,0.0481174,237,1,1
app_26,1.94441,20035.1,7968,11.5773,60.7481,7.89072e+09,1.00302,0.982451,131,0.129356,152,1,1
app_27,12.7875,19969.2,7891,62.0755,202.627,5.30152e+10,1.00705,0.982451,39,0.261159,505,1,1
app_28,61.2773,20099.3,7962.6,30.2382,48.4822,2.89626e+10,1.00106,0.982451,165,0.591074,121,1,1
app_29,41.6261,19951,7960.2,22.0538,103.014,1.85633e+10,1.00266,0.982451,78,0.180226,255,1,1
app_3,9.45599,19870,7805.2,61.9034,649.174,2.33309e+10,1.0219,0.982451,12,0.0358937,1613,1,1
app_30,42.9864,20111,7964.6,26.6709,65.9638,2.33843e+10,1.0015,0.982451,120,0.354307,166,1,1
app_31,50.5296,20250.3,7921.7,61.0896,88.492,5.50142e+10,1.00292,0.982451,89,0.618137,224,1,1
app_32,17.874,19935.3,7962.3,14.8132,127.8,1.03919e+10,1.00343,0.982451,62,0.0811864,319,1,1
app_33,0.962633,20016.2,7966.7,13.0476,63.354,9.86798e+09,1.00294,0.982451,125,0.156635,160,1,1
app_34,65.2257,20022.4,7984.7,6.32959,63.6965,3.37186e+09,1.00149,0.982451,126,0.0535215,158,1,1
app_35,19.0427,19991.6,7927.8,31.413,161.56,2.28773e+10,1.0062,0.982451,49,0.142095,404,1,1
app_36,51.0327,20077.2,7973.8,13.5025,78.9766,8.01894e+09,1.00228,0.982451,101,0.101506,198,1,1
app_37,7.06401,20196.7,7909.6,47.9391,219.061,4.24776e+10,1.00603,0.982451,36,0.193962,553,1,1
app_38,140.405,20248.9,7971.7,20.887,40.9015,1.9626e+10,1.00109,0.982451,193,0.478683,103,1,1
app_39,58.3072,20060,7933,48.6004,61.8346,4.3872e+10,1.0029,0.982451,128,0.707613,155,1,1
app_4,7.69869,19334,7787.9,65.2246,706.881,2.31883e+10,1.02419,0.982451,11,0.0327982,1711,1,1
app_40,99.7101,20191.4,7955.7,27.8054,66.6057,2.59184e+10,1.0023,0.982451,120,0.386842,166,1,1
app_41,675.331,20496.5,7968.2,31.8,5.61748,3.12011e+10,1.00007,0.982451,1424,5.20019,14,1,1
app_42,463.954,20741.3,7971.6,27.6344,4.66374,2.7512e+10,1.00011,0.982451,1704,6.87799,12,1,1
app_43,1399.69,21403.1,7996.1,3.58538,4.44794,3.5261e+09,1.00005,0.982451,1837,0.881525,11,1,1
app_44,60.1762,20767.3,7969.7,27.3532,7.43022,2.68511e+10,1.00043,0.982451,1081,3.83587,19,1,1
app_45,848.155,21086.3,7983.8,15.5829,5.49438,1.52871e+10,1.00011,0.982451,1500,2.54786,14,1,1
app_46,510.61,20927.9,7985.9,13.898,9.11037,1.31496e+10,1.00012,0.982451,874,1.31496,23,1,1
app_47,101.771,20326.8,7969.1,30.5246,4.7687,3.03745e+10,1.00007,0.982451,1669,6.07489,12,1,1
app_48,202.707,20474,7959.1,35.1735,14.7932,3.46783e+10,1.00078,0.982451,535,2.47702,38,1,1
app_49,1069.75,22047.4,7963,36.3214,6.88588,3.59497e+10,1.00013,0.982451,1130,5.13567,18,1,1
app_5,3.37803,19325.3,7605.4,115.928,1269.43,3.99042e+10,1.04639,0.982451,6,0.0314206,3073,1,1
app_50,77.4277,20097,7944.9,39.5384,82.3693,3.3431e+10,1.00272,0.982451,97,0.402783,205,1,1
app_51,1224.26,21786.8,7971.7,28.2448,5.79956,2.80697e+10,1.00003,0.982451,1381,4.67829,15,1,1
app_52,86.0985,20313.1,7960.7,38.5488,11.3463,3.81482e+10,1.00014,0.982451,726,3.17901,28,1,1
app_53,143.447,20532.5,7965.5,34.2126,11.3727,3.37246e+10,1.0001,0.982451,695,3.06587,29,1,1
app_54,1025.13,21933.2,7995.7,3.27331,6.63882,2.85708e+09,1.00018,0.982451,1244,0.408155,17,1,1
app_55,424.221,21584.8,7963.7,35.7257,7.37158,3.54031e+10,1.00011,0.982451,1099,5.05759,19,1,1
app_56,249.602,21336.6,7965,31.7658,10.7752,3.08024e+10,1.00052,0.982451,709,2.80022,29,1,1
app_57,996.437,21753.8,7967.2,32.1589,6.22615,3.19105e+10,1.00011,0.982451,1313,4.55865,16,1,1
app_58,131.247,20147.9,7988.3,6.4506,37.3153,3.72494e+09,1.001,0.982451,215,0.100674,93,1,1
app_59,537.567,21352,7953.2,46.4612,10.3926,4.60943e+10,1.00009,0.982451,761,4.19039,27,1,1
app_6,4.94452,19324.6,7662,106.435,1093.39,4.59527e+10,1.03789,0.982451,7,0.0420427,2643,1,1
app_60,223.256,20336.7,7963.4,28.6009,19.5318,2.77703e+10,1.0011,0.982451,415,1.4616,49,1,1
app_7,6.93329,19030.9,7785.6,65.0148,777.493,7.75077e+09,1.02652,0.982451,10,0.00996243,1851,1,1
app_8,12.7284,20094.6,7852,47.9271,434.903,3.30291e+10,1.01458,0.982451,18,0.0759289,1097,1,1
app_9,5.60477,19558.9,7807,64.7722,600.821,4.15398e+10,1.0193,0.982451,13,0.0691179,1469,1,1
