app_id,start_app,end_app,effective_cpu,effective_io,effective_iter,total_bytes,stretch,utilization,Tcomp,Tio,iterations,priority,group_id
app_1,8.7173,21961.3,6546,1454,661.803,6.05135e+11,1.1187,0.88405,10,0.914102,1780,1,1
app_10,84.3792,22346,7042.47,957.531,75.326,3.91223e+11,1.07618,0.88405,94,5.16896,202,1.00001,1.00001
app_11,91.8372,23283.3,6882.8,1117.2,7.57789,4.3285e+11,1.09355,0.88405,1050,54.1062,19,1.00001,1.00001
app_12,1164.69,20778.1,7727.2,272.8,5.89827,1.28444e+11,1.01838,0.88405,1145,25.6888,18,1.00001,1.00001
app_13,416.558,19717.8,7954.4,45.6,5.47441,1.31974e+10,1.00407,0.88405,1041,2.63948,20,1.00001,1.00001
app_14,432.661,17364.1,7628,372,8.33171,1.53193e+11,1.02812,0.88405,942,19.1492,21,1.00001,1.00001
app_15,822.06,20772.6,6404.9,1595.1,5.99703,6.53401e+11,1.13342,0.88405,902,108.9,20,1.00002,1.00002
app_2,7.37152,22080.3,6120.8,1879.2,620.099,8.0701e+11,1.15477,0.88405,10,1.30163,1718,1,1
app_3,7.30699,22236.6,6078.8,1921.2,691.026,8.23395e+11,1.15905,0.88405,9,1.1916,1925,1,1
app_4,5.82709,18121.1,7873.1,126.9,1110.02,2.6943e+10,1.01265,0.88405,7,0.024273,2525,1,1
app_5,0.449875,21565.2,6744.6,1255.4,843.32,5.01824e+11,1.10399,0.88405,8,0.594579,2261,1.00001,1.00001
app_6,45.5774,21351.9,7798.2,201.8,70.7237,7.47393e+10,1.01614,0.88405,101,1.05267,196,1.00001,1.00001
app_7,45.0654,22780.7,7454.5,545.5,75.4767,2.20222e+11,1.04238,0.88405,90,2.93629,214,1.00001,1.00001
app_8,88.367,22267.1,7552.4,447.6,64.5307,1.73569e+11,1.03547,0.88405,106,2.6703,183,1.00001,1.00001
app_9,85.4049,22854.1,6277.8,1722.2,70.2586,7.31717e+11,1.14131,0.88405,90,10.4531,198,1.00001,1.00001
