app_id,start_app,end_app,effective_cpu,effective_io,effective_iter,total_bytes,stretch,utilization,Tcomp,Tio,iterations,priority,group_id
app_1,2.17663,22632.8,5992.2,2007.8,667.806,8.34196e+11,1.17192,0.877967,9,1.2488,1906,1,1
app_10,3.47008,20427.2,6587.46,1412.54,77.0902,5.86983e+11,1.11507,0.877967,104,7.54026,180,1.00001,1.00001
app_11,448.012,20352,7702.7,297.3,7.8257,1.1525e+11,1.02329,0.877967,785,14.4062,26,1.00001,1.00001
app_12,928.029,16613.8,7966.2,33.8,8.41476,1.65547e+10,1.00216,0.877967,975,1.83941,21,1.00001,1.00001
app_13,141.214,23642.6,7166,834,6.20152,3.01765e+11,1.07127,0.877967,928,43.1092,21,1.00001,1.00001
app_14,922.556,22780.8,6521,1479,5.82991,5.80749e+11,1.12648,0.877967,926,96.7915,20,1.00001,1.00001
app_15,114.297,22720.9,6880.1,1119.9,6.65157,4.65387e+11,1.0891,0.877967,1042,66.4839,19,1.00002,1.00002
app_2,2.99867,20738,7308.3,691.7,666.03,2.61388e+11,1.05685,0.877967,11,0.392474,1692,1,1
app_3,1.06903,22726.6,5907.3,2092.7,716.525,8.85759e+11,1.17767,0.877967,8,1.23709,2064,1,1
app_4,8.83683,20321.9,6786.4,1213.6,855.134,4.63242e+11,1.1035,0.877967,8,0.541804,2164,1,1
app_5,7.00329,20308.2,6957.76,1042.24,759.608,3.84085e+11,1.08964,0.877967,9,0.505882,1936,1.00001,1.00001
app_6,13.497,21217.6,7484.6,515.4,80.2552,1.98013e+11,1.04131,0.877967,94,2.44461,207,1.00001,1.00001
app_7,67.0554,22619.4,6983.1,1016.9,63.7964,3.98238e+11,1.08381,0.877967,104,6.22247,182,1.00001,1.00001
app_8,44.4689,22844.6,7176.7,823.3,80.0521,3.25088e+11,1.06641,0.877967,93,4.0636,206,1.00001,1.00001
app_9,56.3426,21026.2,7936.2,63.8,74.0629,2.23944e+10,1.0052,0.877967,104,0.302627,192,1.00001,1.00001
