app_id,start_app,end_app,effective_cpu,effective_io,effective_iter,total_bytes,stretch,utilization,Tcomp,Tio,iterations,priority,group_id
app_1,3.91042,19617.2,7305.5,604.79,758.913,5.3594e+11,1.02022,0.88897,10,0.706467,1816,0.1,1
app_10,76.3888,20531.5,7139.6,779.234,81.0839,5.11869e+11,1.04555,0.88897,98,6.31937,192,0.01,2
app_11,810.29,25027.6,6961.4,329.595,6.76648,1.41031e+11,1.12637,0.88897,1096,20.1473,18,0.001,3
app_12,829.516,20419.7,6349.77,920.619,8.89683,4.33036e+11,1.17945,0.88897,789,48.1151,24,0.001,3
app_13,148.382,23973,6558.32,1085.51,8.46654,5.78182e+11,1.121,0.88897,713,69.9033,26,0.001,3
app_14,351.5,25463.2,7272.9,433.907,7.62703,2.22889e+11,1.06727,0.88897,775,31.8414,25,0.001,3
app_15,238.739,21928.3,5703.4,2176.27,9.7964,1.0787e+12,1.17958,0.88897,940,107.87,20,0.001,3
app_2,4.30354,19339,7627.3,277.979,707.353,2.18543e+11,1.01965,0.88897,11,0.309113,1719,0.1,1
app_3,4.60487,19007.6,7034.4,889.331,860.571,8.14903e+11,1.0192,0.88897,8,0.947561,2087,0.1,1
app_4,4.6128,18401.4,7668.7,199.076,955.29,1.69084e+11,1.0207,0.88897,8,0.177051,2197,0.1,1
app_5,2.34885,19859.1,7307.7,605.453,817.177,5.59103e+11,1.01693,0.88897,9,0.6835,2026,0.1,1
app_6,29.5912,20524.5,7026.6,899.497,84.5909,6.00688e+11,1.04887,0.88897,86,7.06692,215,0.01,2
app_7,77.0057,20310.5,7689.8,189.412,94.1659,1.1991e+11,1.02437,0.88897,87,1.27564,226,0.01,2
app_8,86.8881,18315.2,7753.7,109.386,101.199,6.87882e+10,1.02269,0.88897,92,0.681071,216,0.01,2
app_9,0.420291,20817.3,7277.3,620.702,87.1412,4.12904e+11,1.04028,0.88897,78,4.74602,240,0.01,2
