app_id,start_app,end_app,effective_cpu,effective_io,effective_iter,total_bytes,stretch,utilization,Tcomp,Tio,iterations,priority,group_id
app_1,1.32677,19457.4,7872.7,84.0363,874.343,2.07763e+10,1.0135,0.92549,9,0.0237715,2127,0.1,1
app_10,55.5797,20571.4,7334.63,531.342,80.821,4.29253e+11,1.03041,0.92549,91,5.34924,207,0.01,2
app_11,11.8045,20503.1,7372.5,463.157,84.3665,3.76312e+11,1.03242,0.92549,88,4.4799,215,0.01,2
app_12,79.5883,20835.5,7257.6,608.656,85.8731,4.9208e+11,1.0323,0.92549,84,5.72186,223,0.01,2
app_13,60.5623,20436.9,7708.7,72.2326,76.0776,5.52545e+10,1.0304,0.92549,102,0.727033,193,0.01,2
app_14,5.55924,20680.9,7420.9,391.405,86.6658,3.1418e+11,1.03425,0.92549,86,3.61126,223,0.01,2
app_15,14.7901,20861.2,7183.1,580.242,96.8019,4.68359e+11,1.04555,0.92549,75,4.82844,251,0.01,2
app_16,712.387,23505.2,6890.2,978.905,8.58215,3.92285e+11,1.09853,0.92549,802,49.0356,24,0.001,3
app_17,9.43446,22202.4,7102.2,826.877,6.90525,3.22446e+11,1.07749,0.92549,1059,46.0637,19,0.001,3
app_18,55.162,21909.9,7079.52,801.507,6.92091,3.3061e+11,1.0796,0.92549,1002,51.2131,19,0.001,3
app_19,936.249,22679.6,7371.7,612.753,7.87715,2.62053e+11,1.04798,0.92549,961,32.7566,21,0.001,3
app_2,4.44901,19824.7,7878.2,82.5206,876.555,1.59792e+10,1.0134,0.92549,9,0.0182203,2168,0.1,1
app_20,357.137,21994.3,7674.3,162.613,8.86526,5.20555e+10,1.03542,0.92549,846,6.50694,24,0.001,3
app_3,4.33722,19879,7488.6,492.495,750.279,4.24443e+11,1.01099,0.92549,10,0.565924,1865,0.1,1
app_4,0.161294,18458.7,7536.11,429.934,1074.48,3.56202e+11,1.01364,0.92549,7,0.33159,2480,0.1,1
app_5,0.261648,19080.3,7541.9,429.028,940.472,3.59393e+11,1.01249,0.92549,8,0.381927,2246,0.1,1
app_6,71.8053,20713.7,7385.5,373.591,80.1349,3.00596e+11,1.04084,0.92549,92,3.75745,208,0.01,2
app_7,68.6315,20809.1,7271.4,515.912,93.1406,4.18339e+11,1.04035,0.92549,78,4.45041,242,0.01,2
app_8,30.7605,20744.8,7294.5,544.401,76.5864,4.4427e+11,1.03376,0.92549,94,5.84566,200,0.01,2
app_9,76.6726,20668.6,7414.1,425.242,72.3426,3.51595e+11,1.03017,0.92549,103,4.81636,186,0.01,2
