app_id,start_app,end_app,effective_cpu,effective_io,effective_iter,total_bytes,stretch,utilization,Tcomp,Tio,iterations,priority,group_id
app_1,8.20412,26499.1,4574.4,222.557,570.366,1.90794e+11,1.67884,0.815238,8,0.334726,2145,1,1
app_10,54.2403,21684.4,6697,561.751,71.1038,5.58442e+11,1.10262,0.815238,95,7.86538,194,1,1
app_11,38.0589,22102.7,7068.7,40.8355,69.1251,3.69817e+10,1.12586,0.815238,102,0.535967,194,1,1
app_12,99.2232,22032,6961.5,259.336,67.7317,2.55587e+11,1.10848,0.815238,102,3.81473,188,1,1
app_13,44.537,22121.1,6687.1,441.66,69.2055,4.39118e+11,1.12262,0.815238,96,6.29066,195,1,1
app_14,39.4686,22165.6,6911.8,250.384,76.8301,2.45778e+11,1.1177,0.815238,89,3.23392,216,1,1
app_15,82.7139,21940.6,6728.92,487.626,66.3042,4.83175e+11,1.10925,0.815238,102,7.21157,183,1,1
app_16,17.765,20948.7,7717.1,155.879,7.63197,1.55535e+11,1.01618,0.815238,1007,19.4419,20,1,1
app_17,639.881,21452.1,7661.8,300.442,7.54544,3.00001e+11,1.0048,0.815238,1047,37.5001,19,1,1
app_18,298.033,20249.1,7445.3,516.987,8.87923,5.1666e+11,1.00478,0.815238,862,64.5825,22,1,1
app_19,122.333,20591.2,7791.6,205.765,7.52027,2.05396e+11,1.00038,0.815238,1042,29.3423,19,1,1
app_2,5.38287,27039.7,4817.6,242.647,483.946,2.17184e+11,1.58895,0.815238,10,0.448728,1827,1,1
app_20,733.175,21025.7,7864.7,74.7897,7.00909,7.4582e+10,1.00765,0.815238,1120,10.6546,18,1,1
app_3,1.17984,26903.8,4742.9,62.8858,525.073,4.19239e+10,1.67195,0.815238,9,0.079855,2022,1,1
app_4,2.77321,27339.4,4740.1,162.206,526.979,1.3807e+11,1.63996,0.815238,9,0.261992,2045,1,1
app_5,7.13789,26997.8,4606.8,216.409,575.067,1.79302e+11,1.67151,0.815238,8,0.311829,2208,1,1
app_6,11.5698,21883.9,6682.4,504.106,72.5627,5.00585e+11,1.11374,0.815238,92,6.95256,201,1,1
app_7,81.0092,22311.1,6957.8,137.02,68.0859,1.33929e+11,1.12807,0.815238,101,1.96954,194,1,1
app_8,97.984,22058.9,6828.5,480.853,64.4844,4.77909e+11,1.09493,0.815238,104,7.46733,180,1,1
app_9,90.8005,21782.2,6952.1,439.661,64.2662,4.35808e+11,1.08285,0.815238,108,6.80949,174,1,1
