app_id,start_app,end_app,effective_cpu,effective_io,effective_iter,total_bytes,stretch,utilization,Tcomp,Tio,iterations,priority,group_id
app_1,1.1176,18429.6,7862,92.7724,876.015,6.70004e+10,1.00895,0.919467,9,0.0764845,2011,0.1,1
app_10,47.3759,20528.3,7641.8,121.651,73.8999,9.42519e+10,1.03412,0.919467,103,1.27367,191,0.01,2
app_11,0.625264,20701.6,7206.05,483.845,112.746,3.76921e+11,1.055,0.919467,64,3.34227,294,0.01,2
app_12,35.4066,20526.9,7376.7,413.292,67.0314,3.20796e+11,1.0393,0.919467,110,4.78799,173,0.01,2
app_13,23.685,20972.4,7186,575.833,77.8653,4.52658e+11,1.0473,0.919467,91,5.80331,207,0.01,2
app_14,85.6077,20519,7422.5,389.52,67.2285,3.00351e+11,1.03589,0.919467,111,4.48286,172,0.01,2
app_15,74.9279,20912.4,7094.8,577.308,89.286,4.46598e+11,1.06081,0.919467,80,5.01795,235,0.01,2
app_16,802.989,22210.7,7501.7,450.957,7.26998,1.71127e+11,1.04264,0.919467,1050,24.4468,19,0.001,3
app_17,458.439,22013.4,7011,917.841,8.35937,3.62994e+11,1.08489,0.919467,831,40.3326,23,0.001,3
app_18,459.685,22698.7,7265.6,649.124,9.589,2.64527e+11,1.0624,0.919467,770,26.4527,26,0.001,3
app_19,218.254,22672.1,6835.6,953.152,6.98616,3.9008e+11,1.10716,0.919467,992,55.7257,20,0.001,3
app_2,0.334382,18827.5,7705.5,253.328,852.868,1.86181e+11,1.01373,0.919467,9,0.218266,2012,0.1,1
app_20,653.3,22914.4,7140.41,680.453,7.52517,2.8077e+11,1.078,0.919467,956,38.4726,21,0.001,3
app_3,2.70016,19147.1,7474.1,497.363,830.032,4.24242e+11,1.01287,0.919467,9,0.511134,1988,0.1,1
app_4,3.83121,19291.1,7453.6,516.369,932.772,4.40898e+11,1.01336,0.919467,8,0.472559,2248,0.1,1
app_5,3.65951,19601.5,7623.7,341.598,847.141,2.95406e+11,1.01022,0.919467,9,0.348767,2075,0.1,1
app_6,40.9165,20507,7593.5,179.64,75.63,1.41428e+11,1.03427,0.919467,102,1.86089,192,0.01,2
app_7,54.9527,20921.6,7151,613.718,84.7289,4.78278e+11,1.04859,0.919467,84,5.6268,224,0.01,2
app_8,19.3528,20746.8,7376.8,388.739,76.5035,2.99175e+11,1.04221,0.919467,97,3.93651,198,0.01,2
app_9,49.6512,20844.3,7192.4,567.391,82.6049,4.39597e+11,1.04822,0.919467,87,5.29635,216,0.01,2
