app_id,start_app,end_app,effective_cpu,effective_io,effective_iter,total_bytes,stretch,utilization,Tcomp,Tio,iterations,priority,group_id
app_1,8.20412,18091.4,7595.6,380.244,948.731,3.17655e+11,1.01096,0.920731,8,0.334726,2145,0.1,1
app_10,54.2403,20984.2,7005.4,709.004,73.6368,5.74173e+11,1.05547,0.920731,95,7.86538,194,0.01,2
app_11,38.0589,21122,7399,51.1328,73.8239,3.96615e+10,1.07546,0.920731,102,0.535967,194,0.01,2
app_12,99.2232,20819.1,7378.9,336.828,72.1188,2.7466e+11,1.04527,0.920731,102,3.81473,188,0.01,2
app_13,44.537,21033.6,7161.1,583.874,74.2382,4.71799e+11,1.04809,0.920731,96,6.29066,195,0.01,2
app_14,39.4686,21076.3,7297.4,326.254,81.9843,2.65181e+11,1.05784,0.920731,89,3.23392,216,0.01,2
app_15,82.7139,20808.1,7133.2,633.587,70.341,5.12021e+11,1.04641,0.920731,102,7.21157,183,0.01,2
app_16,17.765,21395.5,7599.3,318.608,7.35625,1.36093e+11,1.03421,0.920731,1007,19.4419,20,0.001,3
app_17,639.881,22219.1,7374.95,604.147,6.80322,2.4137e+11,1.05038,0.920731,1047,37.5001,19,0.001,3
app_18,298.033,23406,6685.8,1236.22,7.38656,4.52077e+11,1.12078,0.920731,862,64.5825,22,0.001,3
app_19,122.333,21529.5,7406.7,495.885,7.26038,2.05396e+11,1.05096,0.920731,1042,29.3423,19,0.001,3
app_2,5.38287,19247.9,7596.9,382.528,758.534,3.40584e+11,1.00788,0.920731,10,0.448728,1827,0.1,1
app_20,733.175,21787.3,7581.9,251.574,6.74901,7.4582e+10,1.04487,0.920731,1120,10.6546,18,0.001,3
app_3,1.17984,18491.3,7871,93.3546,874.224,6.97933e+10,1.00746,0.920731,9,0.079855,2022,0.1,1
app_4,2.77321,19092.5,7706.17,261.69,859.525,2.25256e+11,1.00865,0.920731,9,0.261992,2045,0.1,1
app_5,7.13789,18585.3,7588.5,376.859,950.52,2.96238e+11,1.01462,0.920731,8,0.311829,2208,0.1,1
app_6,11.5698,21010.3,7014.2,661.766,76.4479,5.35347e+11,1.05967,0.920731,92,6.95256,201,0.01,2
app_7,81.0092,20938.9,7476,185.155,74.5448,1.47716e+11,1.04936,0.920731,101,1.96954,194,0.01,2
app_8,97.984,20793.9,7231,640.135,70.1503,5.22713e+11,1.03176,0.920731,104,7.46733,180,0.01,2
app_9,90.8005,20732,7213.9,561.395,66.8838,4.56236e+11,1.04301,0.920731,108,6.80949,174,0.01,2
