app_id,start_app,end_app,effective_cpu,effective_io,effective_iter,total_bytes,stretch,utilization,Tcomp,Tio,iterations,priority,group_id
app_1,3.63764,21644.2,6419.43,1580.57,806.237,5.92296e+11,1.14095,0.8648,8,0.734555,2197,1,1
app_10,34.0618,21494.1,6762.3,1237.7,83.5067,4.70902e+11,1.10601,0.8648,86,5.67017,218,1.00001,1.00001
app_11,764.5,22434.4,7327.85,672.149,7.34273,2.19274e+11,1.06001,0.8648,960,27.8823,21,1.00001,1.00001
app_12,78.9238,21991.1,7122.3,877.7,7.64247,3.30702e+11,1.07339,0.8648,838,41.3378,23,1.00001,1.00001
app_13,60.9632,23001.6,6053.9,1946.1,7.9401,7.21383e+11,1.18076,0.8648,903,90.1729,21,1.00001,1.00001
app_14,97.5329,24581.8,6408,1592,6.69451,6.58247e+11,1.13214,0.8648,937,94.0352,20,1.00001,1.00001
app_15,163.792,21736.8,7123.8,876.2,8.3684,3.72026e+11,1.06726,0.8648,884,41.3362,22,1.00002,1.00002
app_2,3.26721,20428.1,7329.2,670.8,723.338,2.176e+11,1.06005,0.8648,10,0.300552,1862,1,1
app_3,4.68343,19407.7,7497.5,502.5,753.032,1.52214e+11,1.04579,0.8648,10,0.202143,1824,1,1
app_4,1.77917,21516.1,6763.1,1236.9,671.851,4.44866e+11,1.10988,0.8648,10,0.662003,1823,1,1
app_5,5.22582,20239.7,7373.1,626.9,810.039,2.06882e+11,1.05541,0.8648,9,0.25541,2078,1.00001,1.00001
app_6,86.9618,22633.9,6477.74,1522.26,72.6969,5.63112e+11,1.13623,0.8648,89,7.79067,206,1.00001,1.00001
app_7,7.6439,20209.8,7548.3,451.7,95.6314,1.54789e+11,1.03854,0.8648,83,1.61238,234,1.00001,1.00001
app_8,46.9053,21829.4,6976.8,1023.2,78.8128,3.65177e+11,1.08962,0.8648,87,4.6225,217,1.00001,1.00001
app_9,8.94555,22238.1,6592.64,1407.36,84.3596,5.24813e+11,1.124,0.8648,78,6.22992,237,1.00001,1.00001
