app_id,start_app,end_app,effective_cpu,effective_io,effective_iter,total_bytes,stretch,utilization,Tcomp,Tio,iterations,priority,group_id
app_1,9.81767,27986.4,4258.5,694.058,433.672,6.71002e+11,1.62288,0.75799,10,1.54609,1688,1,1
app_10,38.8151,24279.3,6191.1,274.992,68.6745,2.70566e+11,1.23807,0.75799,87,3.92125,220,1,1
app_11,998.042,21729.7,7700.6,145.657,7.30147,1.45232e+11,1.01965,0.75799,1055,20.7475,19,1,1
app_12,360.176,21416.8,7885.7,0.916873,6.92625,5.69253e+08,1.01442,0.75799,1079,0.0813218,19,1,1
app_13,536.954,20610.9,6863.1,1016.3,8.40492,1.01596e+12,1.01535,0.75799,860,126.995,21,1,1
app_14,113.978,21514.2,7276,576.676,8.52302,5.76133e+11,1.01883,0.75799,788,64.0148,24,1,1
app_15,742.132,20472.4,7288.6,499.601,7.11183,4.9919e+11,1.02725,0.75799,821,71.3129,23,1,1
app_2,3.29749,28584.6,4654.31,188.727,471.703,1.64585e+11,1.66013,0.75799,10,0.348696,1869,1,1
app_3,2.54133,28981.1,4729.23,45.5158,485.135,1.68128e+10,1.68561,0.75799,10,0.0345942,1926,1,1
app_4,9.488,28529.3,4608.61,209.345,518.18,1.85806e+11,1.66861,0.75799,9,0.358009,2059,1,1
app_5,0.332814,28798.8,4742.9,47.5634,478.462,2.38621e+10,1.67829,0.75799,10,0.0498165,1958,1,1
app_6,74.3799,23380.5,5931.5,567.73,62.9843,5.64904e+11,1.23145,0.75799,93,8.96674,195,1,1
app_7,58.0401,23635.5,6485.4,20.1254,64.6992,1.70978e+10,1.2303,0.75799,98,0.263044,204,1,1
app_8,8.67062,23889.4,6033.05,593.193,68.2952,5.89441e+11,1.208,0.75799,84,8.63107,215,1,1
app_9,67.7885,24056.5,6310.2,428.001,65.9411,4.245e+11,1.18788,0.75799,95,6.43182,197,1,1
