app_id,start_app,end_app,effective_cpu,effective_io,effective_iter,total_bytes,stretch,utilization,Tcomp,Tio,iterations,priority,group_id
app_1,5.88209,25321.4,5084.9,319.415,631.005,2.91756e+11,1.48791,0.818338,8,0.46237,2159,1,1
app_10,35.1682,20916.8,6311.27,1082.88,78.6869,1.07937e+12,1.08245,0.818338,87,13.663,198,1,1
app_11,434.299,19913.4,7709.5,195.208,9.35518,1.94655e+11,1.01213,0.818338,935,21.6284,21,1,1
app_12,775.938,22204.2,7673.3,218.956,8.12735,2.18523e+11,1.01371,0.818338,990,24.2804,20,1,1
app_13,493.267,19727.4,7928.4,16.7517,8.20289,1.64069e+10,1.00695,0.818338,1077,2.05087,19,1,1
app_14,567.201,20479.5,7653.7,330.431,7.47073,3.30142e+11,1.00202,0.818338,1031,47.1632,19,1,1
app_15,649.939,19706.5,7306.06,646.834,8.7984,6.46413e+11,1.00598,0.818338,903,80.4473,21,1,1
app_2,9.31686,25863.5,4830.36,661.91,604.034,6.2941e+11,1.46526,0.818338,8,1.04159,2122,1,1
app_3,5.44445,25951.4,5180.72,310.615,516.106,2.84454e+11,1.46381,0.818338,10,0.550201,1864,1,1
app_4,8.83596,25779.4,5025.02,650.133,496.025,6.30449e+11,1.41456,0.818338,10,1.27107,1742,1,1
app_5,5.86258,25984,5119.07,347.765,576.035,3.19857e+11,1.47088,0.818338,9,0.555308,2051,1,1
app_6,54.6936,21635.3,7185.93,241.309,83.2986,2.35846e+11,1.07791,0.818338,90,2.80769,215,1,1
app_7,22.6407,21667,6906.4,366.619,80.7967,3.63703e+11,1.1004,0.818338,87,4.49016,218,1,1
app_8,69.2544,22140.7,7235.17,169.674,73.7649,1.65585e+11,1.08097,0.818338,95,2.23764,205,1,1
app_9,40.92,23049.3,7050.76,74.103,81.0088,7.04087e+10,1.12341,0.818338,83,0.869243,237,1,1
