app_id,Tcomp,Tio,iter,witer,alpha_io,compute_size,io_size,mu,desyn_time
1,11.602384106429469,0.43993500201995156,1661,12.042319108449421,0.03653241523148758,11e9,439935002.0199516,10,2.933687308814877
2,8.688150426905102,0.0023706829243212543,2302,8.690521109829422,0.00027278950184470425,8e9,2370682.9243212542,10,2.707985188597869
3,10.135860748163886,0.2052133740555996,1935,10.341074122219485,0.019844493099093564,10e9,205213374.0555996,10,9.706217591577909
4,10.53261839004007,0.3192262816217614,1844,10.851844671661832,0.02941677579069842,10e9,319226281.62176144,10,5.259650988894803
5,9.965432817820599,1.2000507681154609,1792,11.165483585936059,0.1074786200596841,9e9,1200050768.1154609,10,8.758895104716723
6,83.77485755705172,4.860661757636657,226,88.63551931468838,0.05483875759084275,83e9,4860661757.636657,100,68.07022372464745
7,104.02448351400385,1.4732268458243605,190,105.4977103598282,0.013964538574339914,104e9,1473226845.8243604,100,68.91019966556647
8,85.39952329802742,7.3820788160171285,216,92.78160211404455,0.079564036919122,85e9,7382078816.017128,100,68.86822192289344
9,98.72100707444943,4.901916103427516,194,103.62292317787694,0.047305325434730205,98e9,4901916103.427516,100,68.53694646998478
10,84.13010709263173,10.233871286122756,212,94.36397837875448,0.10845103674038033,84e9,10233871286.122757,100,62.66487155893906
11,627.5909997257801,31.85421172982054,31,659.4452114556007,0.04830456143507114,627e9,31854211729.82054,1000,137.40032701107663
12,703.9799009499665,17.650584232245958,28,721.6304851822124,0.02445931067863516,703e9,17650584232.245956,1000,690.2857608909814
13,1017.3331857146915,94.74474732991764,18,1112.0779330446092,0.08519614004976135,1017e9,94744747329.91765,1000,631.4014349511749
14,589.2412483201309,48.094784558118576,32,637.3360328782495,0.07546220843801897,589e9,48094784558.118576,1000,493.7668065530147
15,907.6384263499954,67.17329135179187,21,974.8117177017872,0.06890899045628976,907e9,67173291351.79188,1000,406.22199371056126
