app_id,Tcomp,Tio,iter,witer,alpha_io,compute_size,io_size,mu,desyn_time
1,7.71790784532285,0.5733957642247005,2413,8.291303609547551,0.0691562860590978,7e9,573395764.2247005,10,6.668750263233155
2,8.786763158846979,0.08138319621704607,2256,8.868146355064026,0.009177024482751503,8e9,81383196.21704607,10,0.521642133305442
3,9.219426446121965,0.015370685613634404,2166,9.234797131735599,0.0016644313236522197,9e9,15370685.613634404,10,6.6117664365044675
4,9.250253361566411,0.28603586991469593,2098,9.536289231481108,0.02999446251802399,9e9,286035869.9146959,10,4.4057686279725585
5,9.583450176276585,0.061957249185062936,2074,9.645407425461649,0.00642349736533784,9e9,61957249.18506294,10,5.030175122572217
6,46.361587245244976,3.308574219600453,403,49.67016146484543,0.06661090123377454,46e9,3308574219.600453,100,0.728367784842601
7,79.17941313454789,9.723386585734433,225,88.90279972028232,0.10937098287486367,79e9,9723386585.734432,100,32.90914675876299
8,100.26323159120628,7.07350992505615,187,107.33674151626242,0.06590017383734771,100e9,7073509925.05615,100,18.533777373602273
9,89.8087506877614,12.368399259778874,196,102.17714994754027,0.1210485834272051,89e9,12368399259.778873,100,18.911545303062272
10,105.82075300285769,10.168126621394656,173,115.98887962425235,0.08766466797795142,105e9,10168126621.394655,100,28.190256317735773
11,954.1230783137946,2.4350422324739873,21,956.5581205462686,0.0025456291470124055,954e9,2435042232.473987,1000,311.89399090338344
12,829.7228599602206,105.81873203834499,22,935.5415919985657,0.11310959656244468,829e9,105818732038.34499,1000,676.9610575803688
13,808.9316911353762,60.124946127658575,24,869.0566372630349,0.0691841515841973,808e9,60124946127.65858,1000,24.585767200811354
14,688.0682153376994,23.83137344935189,29,711.8995887870512,0.033475751109726386,688e9,23831373449.35189,1000,583.5910951556253
15,850.2053521843873,12.661589123897361,24,862.8669413082846,0.014673860496613506,850e9,12661589123.897362,1000,100.7454855358421
