app_id,Tcomp,Tio,iter,witer,alpha_io,compute_size,io_size,mu,desyn_time
1,10.333671388585802,0.08752926220409765,1920,10.4212006507899,0.008399153335317764,10e9,87529262.20409766,10,2.2671629561178075
2,7.514247820879908,0.5916339191128592,2468,8.105881739992768,0.07298822485823574,7e9,591633919.1128592,10,1.22285618196517
3,6.628419771174549,1.2028289871241429,2554,7.831248758298692,0.1535935103388866,6e9,1202828987.124143,10,0.30778318845961017
4,7.991977932219425,0.37560362036141637,2391,8.367581552580841,0.04488795454232145,7e9,375603620.36141634,10,0.3083845215161131
5,10.698434776846259,0.8167791045963547,1737,11.515213881442614,0.07093043281746057,10e9,816779104.5963547,10,3.450351303936348
6,123.50384758033286,3.470158984272665,158,126.97400656460552,0.027329680130295145,123e9,3470158984.2726645,100,12.180114285804729
7,97.90284367735546,3.882260573608509,197,101.78510425096397,0.03814173598561443,97e9,3882260573.608509,100,19.706019683334677
8,105.09655872340524,8.154013203673715,177,113.25057192707895,0.07199975298070911,105e9,8154013203.673716,100,33.95023298153762
9,109.14386312319634,3.495797754498316,178,112.63966087769465,0.031035229751748723,109e9,3495797754.498316,100,0.7503374262941229
10,77.51656961791907,1.0166107397488615,255,78.53318035766793,0.012944983701396734,77e9,1016610739.7488616,100,8.659047550531943
11,1302.4405205296737,18.39882209744077,16,1320.8393426271145,0.013929644207028236,1302e9,18398822097.44077,1000,635.8342318159314
12,769.285100487022,134.7483201361387,23,904.0334206231606,0.14905236583317363,769e9,134748320136.13869,1000,718.0441810500123
13,1022.345847687724,3.271442213481791,20,1025.6172899012058,0.0031897299759805313,1022e9,3271442213.481791,1000,809.0552292441316
14,925.809834485874,34.262962737447054,21,960.0727972233211,0.03568787995716662,925e9,34262962737.447056,1000,19.646328214917332
15,1015.7889048243186,71.65112050924934,19,1087.440025333568,0.06588972158466454,1015e9,71651120509.24934,1000,988.2802238875286
