app_id,start_app,end_app,effective_cpu,effective_io,effective_iter,total_bytes,stretch,utilization,Tcomp,Tio,iterations,priority,group_id
app_1,2.93369,20237.8,7205.4,794.6,656.395,2.89037e+11,1.06746,0.875252,11,0.439935,1661,1,1
app_10,62.6649,22812.9,6191.6,1808.4,74.1491,7.57306e+11,1.15126,0.875252,84,10.2339,212,1.00001,1.00001
app_11,137.4,21929.2,7130.5,869.5,11.1763,3.50396e+11,1.06939,0.875252,627,31.8542,31,1.00001,1.00001
app_12,690.286,22035.5,7432.2,567.8,10.3282,1.76506e+11,1.05143,0.875252,703,17.6506,28,1.00001,1.00001
app_13,631.401,22650.7,6496.1,1503.9,6.29626,5.81037e+11,1.1304,0.875252,1017,94.7447,18,1.00001,1.00001
app_14,493.767,23021.7,6654.4,1345.6,11.2999,5.77137e+11,1.10627,0.875252,589,48.0948,32,1.00001,1.00001
app_15,406.222,22743,6829.6,1170.4,7.29708,4.70213e+11,1.09592,0.875252,907,67.1733,21,1.00002,1.00002
app_2,2.70799,18618.2,7901.2,98.8,987.926,2.34223e+09,1.0122,0.875252,8,0.00237068,2302,1,1
app_3,9.70622,20572.2,7522.6,477.4,752.057,1.5432e+11,1.04208,0.875252,10,0.205213,1935,1,1
app_4,5.25965,20086.9,7333.1,666.9,729.473,2.32716e+11,1.05739,0.875252,10,0.319226,1844,1,1
app_5,8.75889,21149.7,6058,1942,672.607,8.07634e+11,1.16522,0.875252,9,1.20005,1792,1.00001,1.00001
app_6,68.0702,21451.6,6932.71,1067.29,84.5486,4.11503e+11,1.08929,0.875252,83,4.86066,226,1.00001,1.00001
app_7,68.9102,20470.8,7703.5,296.5,74.1377,1.09019e+11,1.024,0.875252,104,1.47323,190,1.00001,1.00001
app_8,68.8682,22314.7,6569.3,1430.7,77.5311,5.6842e+11,1.12081,0.875252,85,7.38208,216,1.00001,1.00001
app_9,68.5369,21384,7070,930,72.3457,3.52938e+11,1.07774,0.875252,98,4.90192,194,1.00001,1.00001
