app_id,start_app,end_app,effective_cpu,effective_io,effective_iter,total_bytes,stretch,utilization,Tcomp,Tio,iterations,priority,group_id
app_1,4.99163,21296.1,6891.5,1108.5,766.507,4.15844e+11,1.09479,0.876447,9,0.542169,2046,1,1
app_10,84.4859,21706.8,6845.64,1154.36,74.4264,4.40685e+11,1.09795,0.876447,92,5.93137,204,1.00001,1.00001
app_11,18.4693,21286.6,7689.4,310.6,7.89254,1.4634e+11,1.02096,0.876447,948,18.2925,21,1.00001,1.00001
app_12,838.315,21890.3,7867.7,132.3,7.38998,5.41073e+10,1.00987,0.876447,1069,6.76342,19,1.00001,1.00001
app_13,743.525,21860,7384.1,615.9,10.2747,2.66453e+11,1.04568,0.876447,745,26.6453,26,1.00001,1.00001
app_14,412.768,23267.1,6479.2,1520.8,6.73738,6.55561e+11,1.12127,0.876447,986,93.6515,19,1.00001,1.00001
app_15,880.859,24007.4,6360.9,1639.1,7.74878,8.14713e+11,1.11489,0.876447,835,101.839,22,1.00002,1.00002
app_2,6.23287,20246.2,7406.5,593.5,925.06,1.97998e+11,1.05201,0.876447,8,0.214052,2343,1,1
app_3,7.34041,20410.1,7411.7,588.3,927.103,1.92719e+11,1.05202,0.876447,8,0.207895,2367,1,1
app_4,5.82482,20318.4,6892.9,1107.1,626.07,4.23639e+11,1.09341,0.876447,11,0.67674,1594,1,1
app_5,5.31276,21240.6,6919.3,1080.7,862.669,4.10518e+11,1.09143,0.876447,8,0.475687,2294,1.00001,1.00001
app_6,87.4402,20170.8,7869.6,130.4,81.7531,4.76375e+10,1.01045,0.876447,96,0.580945,206,1.00001,1.00001
app_7,62.2393,22728.6,6237.1,1762.9,76.3309,6.50924e+11,1.16144,0.876447,82,8.56479,221,1.00001,1.00001
app_8,85.9984,22182.6,6650.5,1349.5,67.6337,5.48506e+11,1.11126,0.876447,98,8.18666,188,1.00001,1.00001
app_9,72.4472,22725.7,6267.6,1732.4,75.0477,6.53984e+11,1.1558,0.876447,83,8.71978,217,1.00001,1.00001
