app_id,start_app,end_app,effective_cpu,effective_io,effective_iter,total_bytes,stretch,utilization,Tcomp,Tio,iterations,priority,group_id
app_1,8.71315,20218.2,7651.7,255.064,849.524,2.04356e+11,1.01832,0.89394,9,0.240419,2152,0.1,1
app_10,10.3215,20643,7372,295.488,68.4487,1.98421e+11,1.05674,0.89394,108,2.91796,179,0.01,2
app_11,173.177,22097.8,7341.3,335.135,7.46586,1.42629e+11,1.06896,0.89394,969,17.8286,21,0.001,3
app_12,330.465,21204.6,7321.8,359.865,8.27862,1.86043e+11,1.06555,0.89394,886,23.2554,22,0.001,3
app_13,823.873,23638.3,6285.1,1714.9,8.26385,7.75932e+11,1.13298,0.89394,767,96.9915,24,0.001,3
app_14,89.6345,21883.2,7096.1,259.319,10.6414,1.17153e+11,1.10907,0.89394,659,11.1757,30,0.001,3
app_15,328.998,22585.3,6455.4,1118.35,8.25575,5.19116e+11,1.14703,0.89394,776,64.8895,24,0.001,3
app_2,3.28489,18604.5,7266,667.382,1035.62,5.96841e+11,1.01744,0.89394,7,0.576101,2407,0.1,1
app_3,2.22229,19846.7,7272.7,681.16,727.763,6.00635e+11,1.01609,0.89394,10,0.825048,1804,0.1,1
app_4,3.88973,18715.5,7388.05,488.038,1229.47,3.93103e+11,1.02812,0.89394,6,0.319761,2875,0.1,1
app_5,1.72799,19583.9,7654.3,272.568,694.731,2.13419e+11,1.01681,0.89394,11,0.307078,1705,0.1,1
app_6,3.93521,20686.8,7615.2,120.48,79.1838,8.1016e+10,1.03947,0.89394,95,1.02552,207,0.01,2
app_7,74.9255,21187.5,7030,724.474,69.0201,5.15511e+11,1.06023,0.89394,102,7.47118,183,0.01,2
app_8,93.0065,20923.3,6993.3,923.096,67.6401,6.53968e+11,1.04613,0.89394,103,9.61718,177,0.01,2
app_9,42.3214,21359.1,6529.9,1259.95,119.278,8.9557e+11,1.07737,0.89394,55,7.46308,319,0.01,2
