app_id,start_app,end_app,effective_cpu,effective_io,effective_iter,total_bytes,stretch,utilization,Tcomp,Tio,iterations,priority,group_id
app_1,9.51918,29272.7,4197.95,118.879,419.566,9.04379e+10,1.8655,0.71537,10,0.215328,1861,1,1
app_10,18.9859,25376.9,5817.79,115.593,83.4457,1.10376e+11,1.34949,0.71537,70,1.314,280,1,1
app_11,737.956,21949.4,6921.96,911.973,7.48131,9.11689e+11,1.02123,0.71537,918,113.961,20,1,1
app_12,709.028,21217.5,6914.8,918.832,8.6039,9.18409e+11,1.02129,0.71537,811,102.045,22,1,1
app_13,564.881,22794.9,7571,7.36581,7.87408,7.04262e+09,1.05568,0.71537,937,0.880327,22,1,1
app_14,872.742,22116,7473.9,374.481,6.53371,3.74214e+11,1.01935,0.71537,1088,62.369,18,1,1
app_15,91.7122,21773.6,7034.99,597.69,10.397,5.97104e+11,1.0482,0.71537,649,58.811,29,1,1
app_2,2.73643,30169.5,4060.67,154.864,508.293,1.32466e+11,1.90788,0.71537,8,0.260247,2372,1,1
app_3,5.29928,30412.9,3990.04,201.893,499.382,1.79491e+11,1.91868,0.71537,8,0.358983,2375,1,1
app_4,0.579051,28287.2,4196.98,234.433,379.862,2.22963e+11,1.80998,0.71537,11,0.586744,1597,1,1
app_5,6.47641,29076.7,4222.18,86.6403,423.398,6.86723e+10,1.86443,0.71537,10,0.161963,1863,1,1
app_6,67.7383,24633.6,5556.85,695.055,68.9346,6.90309e+11,1.28058,0.71537,81,10.0045,220,1,1
app_7,38.7411,24436.4,5853.96,561.54,63.5391,5.58042e+11,1.24766,0.71537,92,8.71941,198,1,1
app_8,30.2934,24545,6133.4,240.948,59.4298,2.38708e+11,1.25547,0.71537,103,3.97846,187,1,1
app_9,70.092,24954.5,5897.87,210.391,80.3065,2.06255e+11,1.31059,0.71537,74,2.54636,260,1,1
