app_id,start_app,end_app,effective_cpu,effective_io,effective_iter,total_bytes,stretch,utilization,Tcomp,Tio,iterations,priority,group_id
app_1,7.70863,19749,7676.9,233.216,697.645,2.00557e+11,1.01556,0.898507,11,0.287744,1721,0.1,1
app_10,48.8492,20396.8,7732.3,210.72,69.3671,1.47983e+11,1.01519,0.898507,111,2.14469,176,0.01,2
app_11,143.895,22783.1,6656.6,1020.51,5.89267,5.29514e+11,1.11326,0.898507,1137,88.2523,17,0.001,3
app_12,54.3459,22837.3,6411.1,1044.32,9.90028,5.41138e+11,1.15071,0.898507,655,54.1138,29,0.001,3
app_13,717.317,22981.3,6746.03,951.159,8.95152,4.89886e+11,1.1056,0.898507,764,56.9955,25,0.001,3
app_14,511.646,22291.2,6852.7,632.941,7.48522,3.34746e+11,1.11305,0.898507,904,47.8209,21,0.001,3
app_15,551.88,23061.2,6728.9,751.517,5.13303,3.99366e+11,1.12229,0.898507,1322,79.8733,15,0.001,3
app_2,7.93527,18805.5,7705.7,175.579,856.156,1.40827e+11,1.01956,0.898507,9,0.164517,2013,0.1,1
app_3,6.30973,19968,7319.7,621.937,610.575,5.55818e+11,1.01581,0.898507,12,0.911177,1524,0.1,1
app_4,0.487627,19233.7,7251.9,677.267,806.337,6.37604e+11,1.01401,0.898507,9,0.791073,1939,0.1,1
app_5,3.68356,18649.6,7269.6,634.555,910.178,5.62481e+11,1.02144,0.898507,8,0.618111,2119,0.1,1
app_6,44.6482,20314.1,7816.8,137.481,73.3429,8.71183e+10,1.01216,0.898507,106,1.1934,186,0.01,2
app_7,99.3424,20745,7243.3,720.391,74.8735,5.01142e+11,1.033,0.898507,96,6.68189,194,0.01,2
app_8,69.8841,20794.9,7023.8,898.854,77.4138,6.30557e+11,1.04516,0.898507,91,8.08406,201,0.01,2
app_9,12.175,20577.6,7385.48,510.764,74.9222,3.58224e+11,1.0331,0.898507,97,4.80873,195,0.01,2
