app_id,start_app,end_app,effective_cpu,effective_io,effective_iter,total_bytes,stretch,utilization,Tcomp,Tio,iterations,priority,group_id
app_1,5.07896,18333.6,7561.3,438.7,1080.84,1.35913e+11,1.03934,0.872594,7,0.125729,2484,1,1
app_10,84.0514,22206,6444.56,1555.44,71.2143,5.83567e+11,1.13828,0.872594,91,8.17898,200,1.00001,1.00001
app_11,516.842,23379.6,6650.6,1349.4,7.79245,6.16464e+11,1.10086,0.872594,813,77.058,23,1.00001,1.00001
app_12,848.955,23384.7,7063.4,936.6,6.41353,3.85054e+11,1.07405,0.872594,1080,64.1757,18,1.00001,1.00001
app_13,363.595,21926.8,6933.06,1066.94,7.10274,3.98744e+11,1.09114,0.872594,1025,51.6105,19,1.00001,1.00001
app_14,1106.19,21968.6,7528.9,471.1,4.99479,1.86087e+11,1.03694,0.872594,1518,37.2174,13,1.00001,1.00001
app_15,323.591,21855.5,6791.91,1208.09,8.0126,5.666e+11,1.08718,0.872594,848,70.6602,22,1.00002,1.00002
app_2,9.13837,20161.6,7167.9,832.1,797.369,2.94715e+11,1.07201,0.872594,9,0.36978,2019,1,1
app_3,5.07468,18427.4,7587.69,412.309,1083.24,1.21866e+11,1.03767,0.872594,7,0.112507,2500,1,1
app_4,0.950405,19402.3,7583.5,416.5,846.256,1.33877e+11,1.03662,0.872594,9,0.158248,2049,1,1
app_5,2.54612,21200.3,6482.1,1517.9,719.963,5.85275e+11,1.13196,0.872594,9,0.812882,1925,1.00001,1.00001
app_6,41.8459,22214.4,6472.8,1527.2,68.172,5.84141e+11,1.13364,0.872594,95,8.59031,193,1.00001,1.00001
app_7,25.7704,22173.8,6524.3,1475.7,79.8311,5.68325e+11,1.12793,0.872594,82,7.10406,223,1.00001,1.00001
app_8,45.2503,21926.7,6729.3,1270.7,72.5783,4.64767e+11,1.11203,0.872594,93,6.36668,200,1.00001,1.00001
app_9,66.5773,21251.5,7189.95,810.052,100.167,3.04771e+11,1.06742,0.872594,72,3.03574,266,1.00001,1.00001
