app_id,start_app,end_app,effective_cpu,effective_io,effective_iter,total_bytes,stretch,utilization,Tcomp,Tio,iterations,priority,group_id
app_1,0.276462,19141.6,7810.7,74.1153,781.456,2.46033e+10,1.02102,0.894496,10,0.0315023,1870,0.1,1
app_10,23.6798,20651.4,7350.5,517.908,69.301,3.73192e+11,1.03577,0.894496,106,5.40858,179,0.01,2
app_11,251.176,22483.3,6827.7,771.705,8.44034,3.93257e+11,1.10789,0.894496,835,43.6952,23,0.001,3
app_12,507.42,22300.4,6774.3,516.981,9.28939,2.7606e+11,1.13469,0.894496,762,27.606,26,0.001,3
app_13,1191.98,23026.4,6885.29,854.131,5.54419,4.58702e+11,1.08933,0.894496,1188,90.7706,16,0.001,3
app_14,399.768,22868.4,6619.8,1105.69,7.23802,5.82678e+11,1.11073,0.894496,884,83.2397,21,0.001,3
app_15,675.989,23370.8,6506.1,1357.31,7.52789,6.97193e+11,1.1106,0.894496,898,87.1491,21,0.001,3
app_2,3.92514,18719.1,7750.3,131.972,970.219,8.93437e+10,1.02045,0.894496,8,0.0921069,2266,0.1,1
app_3,4.64362,18588.4,7400.4,520.972,1055.26,4.23593e+11,1.0225,0.894496,7,0.40151,2454,0.1,1
app_4,3.1528,18671.6,7122.69,720.974,1782.03,6.40415e+11,1.03052,0.894496,4,0.359322,4154,0.1,1
app_5,10.4681,18821.1,7154.3,813.098,716.099,7.54841e+11,1.01149,0.894496,10,1.05425,1681,0.1,1
app_6,88.4991,20746.3,7165,725.697,83.3963,5.18753e+11,1.04116,0.894496,86,6.17563,216,0.01,2
app_7,49.7222,20955.5,6777.3,1138.03,91.368,8.08593e+11,1.05459,0.894496,74,8.88563,241,0.01,2
app_8,7.2477,20776.1,7350.5,196.644,93.3417,1.37901e+11,1.06832,0.894496,79,1.4828,247,0.01,2
app_9,68.2215,20309.6,7844.6,52.1578,66.7028,3.20693e+10,1.01566,0.894496,117,0.485899,170,0.01,2
