app_id,start_app,end_app,effective_cpu,effective_io,effective_iter,total_bytes,stretch,utilization,Tcomp,Tio,iterations,priority,group_id
app_1,0.196776,18403.4,7434.4,500.8,924.258,4.57105e+11,1.01375,0.905389,8,0.494702,2134,0.1,1
app_10,34.0464,20476.6,7519.6,351.342,93.7586,2.69148e+11,1.02712,0.905389,80,2.89406,240,0.01,2
app_11,746.47,21761.4,7365.1,321.985,9.27461,1.54881e+11,1.06383,0.905389,824,15.4881,24,0.001,3
app_12,822.036,23416.1,6593.5,1161.99,6.34572,6.27456e+11,1.10789,0.905389,1056,89.6366,18,0.001,3
app_13,65.8746,22609.7,6591.8,1216.95,8.7446,6.46864e+11,1.10518,0.905389,743,71.8738,25,0.001,3
app_14,1007.68,22767.8,6691.6,1062.02,6.48301,5.72179e+11,1.10136,0.905389,1017,95.3631,18,0.001,3
app_15,617.562,21639.2,7149.8,804.046,7.01037,4.36882e+11,1.05448,0.905389,1056,62.4117,18,0.001,3
app_2,1.35975,19804.9,7221.6,748.604,802.393,6.65871e+11,1.01427,0.905389,9,0.82923,1987,0.1,1
app_3,3.71823,19707.4,7732.7,167.287,860.51,1.069e+11,1.02046,0.905389,9,0.124158,2121,0.1,1
app_4,5.08936,18473.8,7642.6,256.908,1273.77,1.99887e+11,1.02008,0.905389,6,0.15702,2941,0.1,1
app_5,5.5634,18577.5,7640.3,262.463,1271.37,2.22332e+11,1.01747,0.905389,6,0.174789,2957,0.1,1
app_6,37.6286,20768.9,7076.64,848.102,72.7464,6.29542e+11,1.03813,0.905389,97,8.72022,189,0.01,2
app_7,111.144,20497,7608.4,292.323,69.2917,2.18732e+11,1.02209,0.905389,110,3.12474,176,0.01,2
app_8,52.7909,20707.9,6962.1,941.047,95.0198,7.01496e+11,1.0439,0.905389,73,7.38417,247,0.01,2
app_9,26.7146,20385.9,7416.5,437.59,72.4265,3.22964e+11,1.03366,0.905389,103,4.48561,185,0.01,2
