app_id,start_app,end_app,effective_cpu,effective_io,effective_iter,total_bytes,stretch,utilization,Tcomp,Tio,iterations,priority,group_id
app_1,8.44123,20713.7,6856.2,1143.8,763.736,4.37061e+11,1.0969,0.878729,9,0.572069,1974,1,1
app_10,77.2416,22111,6751.4,1248.6,60.4626,5.44134e+11,1.09656,0.878729,113,9.0689,164,1.00001,1.00001
app_11,526.808,21654.9,7977.5,22.5,5.65956,8.03615e+09,1.00181,0.878729,1415,1.60723,15,1.00001,1.00001
app_12,97.57,23050.4,6239.21,1760.79,5.27601,7.57919e+11,1.14333,0.878729,1220,131.748,15,1.00001,1.00001
app_13,169.682,20998.6,7837.7,162.3,9.90056,5.28708e+10,1.01387,0.878729,780,5.28708,26,1.00001,1.00001
app_14,268.562,20428.1,7610.7,389.3,8.06049,1.44042e+11,1.03163,0.878729,983,18.0052,20,1.00001,1.00001
app_15,1065.22,24184.3,6174.63,1825.37,6.05031,7.80745e+11,1.15019,0.878729,1016,130.431,18,1.00002,1.00002
app_2,0.160869,21416.6,6449.96,1550.04,539.846,6.26094e+11,1.13057,0.878729,12,1.16095,1445,1,1
app_3,4.10067,23012.8,6140.6,1859.4,678.425,7.74491e+11,1.15689,0.878729,9,1.14153,1970,1,1
app_4,4.51936,20121.2,7554.3,445.7,838.102,1.51849e+11,1.03813,0.878729,9,0.181204,2107,1,1
app_5,8.3457,21507.7,6716.15,1283.85,747.327,5.01126e+11,1.10845,0.878729,9,0.670837,2008,1.00001,1.00001
app_6,83.1493,21925.8,6853.8,1146.2,61.6337,4.64662e+11,1.09313,0.878729,111,7.49454,169,1.00001,1.00001
app_7,99.9262,21119.6,7424,576,66.7871,2.2361e+11,1.04608,0.878729,112,3.33747,173,1.00001,1.00001
app_8,57.5196,20392.6,7574.8,425.2,123.434,1.58269e+11,1.03452,0.878729,62,1.27637,312,1.00001,1.00001
app_9,115.832,21282,7286.5,713.5,62.1076,2.85408e+11,1.05654,0.878729,117,4.60335,164,1.00001,1.00001
