app_id,start_app,end_app,effective_cpu,effective_io,effective_iter,total_bytes,stretch,utilization,Tcomp,Tio,iterations,priority,group_id
app_1,4.33613,26132.9,4899.02,462.936,377.531,4.51627e+11,1.49515,0.797498,13,1.19795,1338,1,1
app_10,59.7212,22138.1,6563.76,690.014,64.1786,6.85196e+11,1.10361,0.797498,102,10.7062,177,1,1
app_11,145.454,20877.7,7512,457.048,7.66767,4.5671e+11,1.00393,0.797498,969,57.0887,20,1,1
app_12,600.456,21661.7,7726.7,204.363,7.59215,2.03946e+11,1.00875,0.797498,999,29.1351,20,1,1
app_13,645.237,21757.4,7420.49,472.121,8.26765,4.71569e+11,1.01368,0.797498,890,56.6144,22,1,1
app_14,807.206,21593.9,7496.1,488.359,8.13459,4.87992e+11,1.00199,0.797498,930,60.999,21,1,1
app_15,496.094,21300.4,7659.6,232.561,10.0547,2.32136e+11,1.01372,0.797498,766,23.2136,26,1,1
app_2,2.75108,26983.8,4761.78,296.154,477.007,2.82226e+11,1.58604,0.797498,10,0.591668,1803,1,1
app_3,8.56618,26946.3,4720.85,380.941,470.315,3.61013e+11,1.57423,0.797498,10,0.768113,1771,1,1
app_4,3.61288,27637.1,4607.58,280.096,574.988,2.44685e+11,1.64872,0.797498,8,0.425539,2268,1,1
app_5,13.5735,26700,5152.96,150.069,399.246,1.23471e+11,1.51618,0.797498,13,0.30945,1443,1,1
app_6,39.2569,22506.8,6793.18,257.833,68.0446,2.53803e+11,1.13524,0.797498,100,3.7324,193,1,1
app_7,111.403,22330.4,6496.65,698.157,64.2183,6.94495e+11,1.11248,0.797498,102,10.7388,177,1,1
app_8,8.92507,21791.4,7045.4,307.129,57.0134,3.03326e+11,1.08862,0.797498,124,5.32151,154,1,1
app_9,13.1492,22770.5,6843.7,193.447,81.3949,1.88597e+11,1.13761,0.797498,84,2.32835,232,1,1
