app_id,start_app,end_app,effective_cpu,effective_io,effective_iter,total_bytes,stretch,utilization,Tcomp,Tio,iterations,priority,group_id
app_1,13.0383,19398.8,7608.45,391.546,584.689,1.17226e+11,1.03551,0.867056,13,0.200466,1417,1,1
app_10,48.1154,22042.1,6794.3,1205.7,83.2675,4.38672e+11,1.10605,0.867056,81,5.28521,231,1.00001,1.00001
app_11,516.642,21820.2,7408.7,591.3,7.33378,2.2794e+11,1.04758,0.867056,990,32.5629,20,1.00001,1.00001
app_12,714.43,23284.9,6870.67,1129.33,6.23635,5.27813e+11,1.0813,0.867056,1139,79.5621,17,1.00001,1.00001
app_13,731.971,23869.4,6651.44,1348.56,5.95605,4.45794e+11,1.1272,0.867056,1091,77.5399,18,1.00001,1.00001
app_14,887.281,23248.4,7191.9,808.1,8.3525,3.02124e+11,1.06752,0.867056,853,37.7655,23,1.00001,1.00001
app_15,995.232,23946.4,6396.34,1603.66,6.35966,5.69199e+11,1.14851,0.867056,1003,89.2446,19,1.00002,1.00002
app_2,0.122218,20365.9,6437.03,1562.97,1075.92,5.88097e+11,1.13877,0.867056,6,0.546687,2742,1,1
app_3,0.316505,20981,6949.8,1050.2,772.632,3.77811e+11,1.09176,0.867056,9,0.488981,2031,1,1
app_4,4.40648,21032.9,6949.81,1050.19,695.595,3.76371e+11,1.09197,0.867056,10,0.540872,1831,1,1
app_5,6.0093,21063,6386.96,1613.04,639.826,6.23055e+11,1.14122,0.867056,10,0.974106,1684,1.00001,1.00001
app_6,37.4008,20818.8,7449.2,550.8,71.5249,1.95498e+11,1.04648,0.867056,105,2.7535,185,1.00001,1.00001
app_7,60.7675,21225.3,7388.1,611.9,60.9286,2.13125e+11,1.05246,0.867056,120,3.49385,162,1.00001,1.00001
app_8,92.8958,21911.8,6744.1,1255.9,56.0935,4.78821e+11,1.10759,0.867056,121,8.55037,154,1.00001,1.00001
app_9,105.447,21819.9,6819.9,1180.1,57.9798,4.55872e+11,1.09954,0.867056,118,7.85985,158,1.00001,1.00001
