app_id,start_app,end_app,effective_cpu,effective_io,effective_iter,total_bytes,stretch,utilization,Tcomp,Tio,iterations,priority,group_id
app_1,9.39349,22229.3,6546.88,1453.12,596.399,5.43863e+11,1.12823,0.867684,11,0.911134,1674,1,1
app_10,13.3384,21969.2,6605.3,1394.7,69.5029,5.49934e+11,1.11806,0.867684,96,7.97006,191,1.00001,1.00001
app_11,785.919,23157.4,7232.6,767.4,6.70683,2.52143e+11,1.06884,0.867684,1072,36.0205,19,1.00001,1.00001
app_12,390.919,23384,6224,1776,7.67652,5.9464e+11,1.17325,0.867684,802,74.33,23,1.00001,1.00001
app_13,135.543,22540.4,6441.1,1558.9,6.94684,4.83567e+11,1.15529,0.867684,955,69.0809,20,1.00001,1.00001
app_14,488.543,22651.1,6579,1421,6.98685,7.65051e+11,1.08932,0.867684,965,109.293,19,1.00001,1.00001
app_15,544.58,23198.2,6397,1603,7.14562,4.80044e+11,1.16329,0.867684,897,68.5777,21,1.00002,1.00002
app_2,1.66323,19635.8,7509.4,490.6,680.874,1.61059e+11,1.04296,0.867684,11,0.236503,1678,1,1
app_3,5.90032,19529.1,7577.8,422.2,948.654,1.3152e+11,1.03771,0.867684,8,0.138588,2318,1,1
app_4,2.28639,19135,7434.6,565.4,825.653,1.84672e+11,1.04997,0.867684,9,0.223573,1981,1,1
app_5,4.56699,20851.2,6547.4,1452.6,655.705,5.51438e+11,1.12694,0.867684,10,0.840607,1725,1.00001,1.00001
app_6,8.59493,19987.2,7894.7,105.3,99.6151,3.53162e+10,1.00883,0.867684,80,0.356729,248,1.00001,1.00001
app_7,5.47408,21898.7,6780.81,1219.19,65.0784,4.88736e+11,1.10048,0.867684,103,7.47042,181,1.00001,1.00001
app_8,33.4935,22162.9,6699.5,1300.5,66.3453,5.21639e+11,1.10786,0.867684,101,7.90362,184,1.00001,1.00001
app_9,74.2865,20570.4,7652,348,80.3204,1.20817e+11,1.02923,0.867684,95,1.49157,207,1.00001,1.00001
