app_id,start_app,end_app,effective_cpu,effective_io,effective_iter,total_bytes,stretch,utilization,Tcomp,Tio,iterations,priority,group_id
app_1,1.98321,27353.2,4256.69,432.027,710.999,4.03676e+11,1.7166,0.769393,6,0.567758,2800,1,1
app_10,19.8564,23024.1,6315.56,528.355,61.9504,5.25954e+11,1.16933,0.769393,101,8.58364,182,1,1
app_11,552.449,21873.8,7273,513.146,6.60214,5.12663e+11,1.02753,0.769393,1089,73.2376,18,1,1
app_12,708.833,21508.2,7361.4,539.99,8.46114,5.39465e+11,1.01255,0.769393,853,59.9406,22,1,1
app_13,410.332,21608.9,7715.6,19.3161,12.0632,1.88881e+10,1.03433,0.769393,635,1.57401,32,1,1
app_14,469.05,20886.6,7220.68,689.637,9.45234,6.89154e+11,1.0114,0.769393,775,68.9631,24,1,1
app_15,612.44,21934.3,7286.4,517.126,9.53941,5.16693e+11,1.02523,0.769393,744,57.4103,25,1,1
app_2,8.23564,26940.5,4925.25,154.718,409.367,1.25364e+11,1.58396,0.769393,12,0.306514,1540,1,1
app_3,9.15963,26577.3,4746.33,287.265,474.373,2.65863e+11,1.59611,0.769393,10,0.560892,1755,1,1
app_4,6.44032,26785.9,4634.61,367.097,514.008,3.50639e+11,1.60473,0.769393,9,0.682176,1922,1,1
app_5,8.81847,27927.5,4645.29,332.89,464.007,3.15809e+11,1.61255,0.769393,10,0.680624,1854,1,1
app_6,33.2201,22953.2,6609.5,236.473,64.0875,2.32852e+11,1.16919,0.769393,104,3.63831,185,1,1
app_7,23.5229,23360.7,6530.17,232.689,63.3072,2.29004e+11,1.18358,0.769393,103,3.63498,187,1,1
app_8,9.69764,23102.5,6609.81,25.1621,63.1021,2.20645e+10,1.2063,0.769393,105,0.35023,190,1,1
app_9,7.80737,23045.8,6196.9,589.94,63.8589,5.86975e+11,1.17927,0.769393,97,9.17149,188,1,1
