app_id,start_app,end_app,effective_cpu,effective_io,effective_iter,total_bytes,stretch,utilization,Tcomp,Tio,iterations,priority,group_id
app_1,2.5958,25557.4,5243.29,59.6705,522.406,3.74269e+10,1.51495,0.804387,10,0.071562,1817,1,1
app_10,59.2397,22054.6,6712.8,605.573,82.5522,6.01185e+11,1.09379,0.804387,81,7.24319,225,1,1
app_11,275.267,21673.2,7481.5,437.177,8.23306,4.36539e+11,1.01035,0.804387,903,48.5044,22,1,1
app_12,780.902,21949.7,7399.5,472.804,7.98151,4.72332e+11,1.01628,0.804387,934,59.0416,21,1,1
app_13,23.3834,20542.9,7539.3,348.806,10.0186,3.48124e+11,1.01427,0.804387,738,34.8124,26,1,1
app_14,164.029,20373.6,7417.84,565.715,9.53685,5.65378e+11,1.0021,0.804387,785,62.2913,24,1,1
app_15,200.237,20563.7,7870.6,78.9898,6.32576,7.8491e+10,1.0064,0.804387,1277,11.213,16,1,1
app_2,6.84137,26056.5,4640.89,531.235,662.445,4.99795e+11,1.55621,0.804387,7,0.753839,2379,1,1
app_3,7.4083,26605.6,4905.52,540.295,490.594,5.16176e+11,1.47555,0.804387,10,1.05127,1795,1,1
app_4,3.06581,26597.1,4980.52,437.6,497.488,4.05127e+11,1.48543,0.804387,10,0.813508,1821,1,1
app_5,6.46368,26884.1,5103.21,311.555,511.69,2.88827e+11,1.48367,0.804387,10,0.564115,1884,1,1
app_6,4.7203,23232.2,6457.05,256.493,114.836,2.52502e+11,1.19233,0.804387,56,2.19567,341,1,1
app_7,55.5548,21462.6,7007.79,386.697,56.4724,3.83316e+11,1.08238,0.804387,124,6.72483,153,1,1
app_8,8.11389,21691.3,7094.2,220.495,60.7537,2.17762e+11,1.0941,0.804387,118,3.56988,165,1,1
app_9,90.089,22250.5,6672.37,333.017,76.4016,3.29987e+11,1.14247,0.804387,89,4.28555,213,1,1
