app_id,start_app,end_app,effective_cpu,effective_io,effective_iter,total_bytes,stretch,utilization,Tcomp,Tio,iterations,priority,group_id
app_1,4.0164,16660.4,7691.7,308.3,1921.25,8.41429e+10,1.02883,0.884024,4,0.0438016,4003,1,1
app_10,69.6491,20613.7,7573.5,426.5,77.4044,1.67081e+11,1.03351,0.884024,98,2.16988,199,1.00001,1.00001
app_11,88.064,22790.7,6915,1085,10.8887,4.35011e+11,1.08843,0.884024,615,39.5464,31,1.00001,1.00001
app_12,446.41,23160.6,6385,1615,8.61558,7.34051e+11,1.12375,0.884024,718,91.7564,25,1.00001,1.00001
app_13,887.869,25153.3,6259.7,1740.3,6.55118,8.4407e+11,1.12616,0.884024,984,120.581,19,1.00001,1.00001
app_14,785.476,24116.1,6351.6,1648.4,6.28551,7.81982e+11,1.12146,0.884024,1074,130.33,17,1.00001,1.00001
app_15,112.75,22755.7,7212.76,787.242,6.45957,2.49506e+11,1.07206,0.884024,1129,36.1749,18,1.00002,1.00002
app_2,4.12552,19746.5,7816.4,183.6,1117.74,5.27099e+10,1.01663,0.884024,7,0.0471466,2754,1,1
app_3,0.661403,19396.1,7028.02,971.976,1003.78,3.71406e+11,1.08116,0.884024,7,0.369965,2437,1,1
app_4,6.77074,18364.1,7659.3,340.7,1276.63,1.16814e+11,1.02879,0.884024,6,0.0915469,2925,1,1
app_5,6.63878,20303.9,7643,357,762.314,1.19837e+11,1.03055,0.884024,10,0.157266,1939,1.00001,1.00001
app_6,47.6968,20135.9,7818.2,181.8,66.8817,6.46145e+10,1.01487,0.884024,117,0.979008,169,1.00001,1.00001
app_7,24.5138,22064.4,6865.64,1134.36,60.4459,5.05259e+11,1.08535,0.884024,115,8.3325,163,1.00001,1.00001
app_8,47.791,22224,6532.8,1467.2,121.527,6.1391e+11,1.1194,0.884024,54,5.06878,338,1.00001,1.00001
app_9,34.7658,22834.5,6330.2,1669.8,58.6403,7.54821e+11,1.12914,0.884024,107,12.7936,167,1.00001,1.00001
