app_id,start_app,end_app,effective_cpu,effective_io,effective_iter,total_bytes,stretch,utilization,Tcomp,Tio,iterations,priority,group_id
app_1,0.974935,27934.2,4327.93,154.664,481.097,1.41448e+11,1.78996,0.735165,9,0.29407,1968,1,1
app_10,73.7225,24645.2,5579.19,482.737,81.9963,4.77479e+11,1.32086,0.735165,69,5.82467,266,1,1
app_11,600.728,21522.6,7158.39,634.242,10.9141,6.33859e+11,1.02666,0.735165,659,62.6815,28,1,1
app_12,304.583,21337.7,7132.44,701.639,6.7966,7.01395e+11,1.02121,0.735165,1065,100.199,18,1,1
app_13,72.4806,20735.9,7044.1,735.761,9.38136,7.35165e+11,1.02837,0.735165,769,73.5165,24,1,1
app_14,688.146,21452.2,7003,637.387,8.22822,6.36852e+11,1.04714,0.735165,877,79.6065,21,1,1
app_15,270.538,21363.9,7367.9,273.398,17.4,2.7237e+11,1.04708,0.735165,421,15.1317,46,1,1
app_2,10.1053,28425.2,4366.49,282.474,364.353,2.55565e+11,1.73083,0.735165,12,0.702102,1521,1,1
app_3,5.10649,28799.3,4123.8,418.856,457.188,4.06097e+11,1.76604,0.735165,9,0.888615,1967,1,1
app_4,4.22939,29207.6,4377.4,54.2643,484.992,3.5718e+10,1.81278,0.735165,9,0.0736453,2140,1,1
app_5,0.650867,27941.1,4469.02,149.692,373.425,1.30903e+11,1.73916,0.735165,12,0.350947,1525,1,1
app_6,48.8233,23893.8,5978.6,509.081,59.2508,5.05486e+11,1.23379,0.735165,100,8.42476,184,1,1
app_7,15.1136,23499.8,6572.89,80.2577,49.0684,7.77251e+10,1.2029,0.735165,132,1.5545,150,1,1
app_8,65.0258,23804.7,6411.7,152.068,57.4398,1.48538e+11,1.21947,0.735165,111,2.60593,176,1,1
app_9,24.7946,23722,6307,188.57,52.0717,1.86244e+11,1.23205,0.735165,120,3.58162,162,1,1
