app_id,start_app,end_app,effective_cpu,effective_io,effective_iter,total_bytes,stretch,utilization,Tcomp,Tio,iterations,priority,group_id
app_1,7.81121,26797.3,4514.8,491.329,499.792,4.55831e+11,1.60945,0.768041,9,0.911663,1861,1,1
app_10,21.1572,23513.7,6231.5,366.841,68.4683,3.63648e+11,1.21301,0.768041,90,5.34777,210,1,1
app_11,755.71,22147.2,7364.2,576.574,6.97983,5.76166e+11,1.00751,0.768041,1023,82.3095,19,1,1
app_12,343.086,20597.6,7565.4,418.514,7.86861,4.18051e+11,1.00207,0.768041,966,52.2564,20,1,1
app_13,533.914,21274.3,7836.9,160.295,7.78559,1.59959e+11,1.00039,0.768041,1011,22.8512,20,1,1
app_14,81.1122,20878.7,6937.6,771.839,7.9391,7.71372e+11,1.03775,0.768041,879,96.4215,21,1,1
app_15,366.18,20545.3,7338.4,659.413,7.11733,6.59186e+11,1.0003,0.768041,1017,94.1695,18,1,1
app_2,0.878436,27858.5,4849.8,82.5285,441.887,5.63975e+10,1.63059,0.768041,11,0.127596,1743,1,1
app_3,6.04391,27910.8,4588.7,456.233,459.19,4.2962e+11,1.59416,0.768041,10,0.935992,1802,1,1
app_4,0.296502,27232.8,4783.12,163.656,399.932,1.4702e+11,1.62267,0.768041,12,0.36805,1534,1,1
app_5,5.32803,26933.4,4689.3,346.66,423.671,3.33731e+11,1.59266,0.768041,11,0.788962,1590,1,1
app_6,9.42934,24360.2,6194,32.0194,74.9737,2.98643e+10,1.28538,0.768041,82,0.39819,242,1,1
app_7,68.2464,23170.8,6641.5,284.304,55.5408,2.80908e+11,1.15567,0.768041,119,5.01621,161,1,1
app_8,19.0037,24334.8,6181.4,265.247,91.8831,2.58653e+11,1.24223,0.768041,68,2.81144,282,1,1
app_9,42.1823,22913,6448.3,396.18,63.3172,3.92912e+11,1.16938,0.768041,102,6.2367,184,1,1
