app_id,start_app,end_app,effective_cpu,effective_io,effective_iter,total_bytes,stretch,utilization,Tcomp,Tio,iterations,priority,group_id
app_1,4.80271,19008.4,7663,337,960.362,8.25562e+10,1.03285,0.953097,8,0.0859066,2274,1,1
app_10,4.29547,19487.4,7310.4,689.6,1044.24,1.8219e+11,1.06772,0.953097,7,0.174512,2547,1.00001,1.00001
app_11,3.98365,19788.3,7404.4,595.6,924.841,1.59399e+11,1.05767,0.953097,8,0.172323,2287,1.00001,1.00001
app_12,4.18838,20895,7448.6,551.4,741.651,1.45749e+11,1.05341,0.953097,10,0.196692,1947,1.00001,1.00001
app_13,8.45051,18980.3,7388.1,611.9,925.438,1.57708e+11,1.06019,0.953097,8,0.170495,2192,1.00001,1.00001
app_14,6.56289,20448.7,7776.5,223.5,863.46,4.89268e+10,1.02231,0.953097,9,0.0566939,2207,1.00001,1.00001
app_15,0.0526826,20097.7,7836.2,163.8,781.687,3.50442e+10,1.01636,0.953097,10,0.0448709,1966,1.00002,1.00002
app_16,46.9444,20592.5,7718.6,281.4,73.96,7.43802e+10,1.02656,0.953097,104,1.00514,191,1.00002,1.00002
app_17,70.5901,20043.9,7992.1,7.9,72.8504,9.20918e+08,1.00087,0.953097,109,0.0127905,183,1.00002,1.00002
app_18,92.1754,21033.1,7449.8,550.2,74.2533,1.6119e+11,1.05111,0.953097,100,2.17825,195,1.00002,1.00002
app_19,56.7145,20590.6,7642.9,357.1,83.2459,9.26409e+10,1.03419,0.953097,92,1.11616,213,1.00002,1.00002
app_2,6.17622,18921.7,7442.98,557.024,927.729,1.44582e+11,1.05436,0.953097,8,0.155858,2196,1,1
app_20,95.8963,20939.2,7415.93,584.072,76.8489,1.69517e+11,1.05465,0.953097,98,2.21107,198,1.00002,1.00002
app_21,50.5866,20923.2,7577.4,422.6,76.6256,1.1751e+11,1.03965,0.953097,98,1.5261,201,1.00002,1.00002
app_22,58.6518,20610.9,7610.1,389.9,86.42,1.0787e+11,1.03654,0.953097,88,1.2543,222,1.00002,1.00002
app_23,0.499731,20996.1,7429.3,570.7,75.4912,1.54437e+11,1.05489,0.953097,99,2.05917,198,1.00002,1.00002
app_24,66.8013,20872.4,7443.1,556.9,68.016,1.69312e+11,1.05092,0.953097,110,2.48989,177,1.00002,1.00002
app_25,81.0081,21209.5,7477.02,522.983,76.9677,1.43953e+11,1.04974,0.953097,97,1.8832,203,1.00003,1.00003
app_26,66.2574,20975.2,7463.9,536.1,79.1967,1.56029e+11,1.04988,0.953097,94,1.97505,208,1.00003,1.00003
app_27,64.1406,21097.4,7367.74,632.259,72.3796,1.83603e+11,1.05941,0.953097,102,2.54158,191,1.00003,1.00003
app_28,77.9751,20913.4,7524.19,475.814,66.5724,1.2147e+11,1.04635,0.953097,113,1.81667,173,1.00003,1.00003
app_29,40.8186,21016.9,7398.5,601.5,71.975,1.72989e+11,1.0566,0.953097,103,2.40263,190,1.00003,1.00003
app_3,5.64353,19593.6,7728.9,271.1,861.031,6.2778e+10,1.02674,0.953097,9,0.0729129,2107,1,1
app_30,48.9438,20212.9,7847.5,152.5,82.8597,4.22539e+10,1.01397,0.953097,95,0.509084,209,1.00003,1.00003
app_31,248.389,21563.3,7470.03,529.973,13.7792,1.43634e+11,1.05074,0.953097,537,10.519,37,1.00003,1.00003
app_32,44.4572,20317.1,7910.1,89.9,16.2231,2.78314e+10,1.00782,0.953097,480,1.73946,42,1.00003,1.00003
app_33,402.818,21456.9,7559.4,440.6,17.7285,1.21829e+11,1.0415,0.953097,423,7.16638,47,1.00003,1.00003
app_34,469.437,21393.7,7577.43,422.574,15.2219,1.23043e+11,1.0389,0.953097,508,8.01751,39,1.00003,1.00003
app_35,103.602,20240.8,7898.3,101.7,16.6014,2.98486e+10,1.00906,0.953097,475,1.7558,42,1.00004,1.00004
app_36,538.364,21027.6,7861.9,138.1,14.0429,4.38629e+10,1.01192,0.953097,555,3.13306,36,1.00004,1.00004
app_37,451.837,20643.1,7900.72,99.2819,14.0123,1.99015e+10,1.01002,0.953097,558,1.37906,36,1.00004,1.00004
app_38,304.608,21029.3,7664.5,335.5,15.956,8.08436e+10,1.03288,0.953097,474,5.05272,42,1.00004,1.00004
app_39,20.6247,21292.6,7508.2,491.8,16.3022,1.68477e+11,1.04212,0.953097,462,10.5298,43,1.00004,1.00004
app_4,2.01116,19852.1,7839.7,160.3,870.131,2.94018e+10,1.01663,0.953097,9,0.0337951,2159,1,1
app_40,135.42,20047,7975.5,24.5,13.7361,7.11245e+09,1.00218,0.953097,572,0.508032,35,1.00004,1.00004
app_41,156.458,21613.9,7425.9,574.1,15.394,1.58613e+11,1.05478,0.953097,485,10.5742,41,1.00004,1.00004
app_42,267.207,20690.3,7844.2,155.798,15.2737,4.2506e+10,1.01436,0.953097,515,2.75817,39,1.00004,1.00004
app_43,150.055,20984.1,7812.4,187.6,15.2781,4.83171e+10,1.01772,0.953097,504,3.22114,40,1.00004,1.00004
app_44,41.4941,21172.1,7561.4,438.6,15.3733,1.37367e+11,1.03913,0.953097,475,8.58543,42,1.00004,1.00004
app_45,235.867,20984.9,7872.4,127.6,15.9399,4.28376e+10,1.01071,0.953097,489,2.67735,41,1.00004,1.00004
app_46,28.5192,22071.4,7328.3,671.7,7.09093,1.61181e+11,1.06816,0.953097,1008,23.0258,20,1.00005,1.00005
app_47,774.634,21067.9,7754.1,245.9,7.66759,9.7873e+10,1.01885,0.953097,1055,12.2341,19,1.00005,1.00005
app_48,647.014,22168,7492.6,507.4,7.43378,1.46899e+11,1.04719,0.953097,966,20.9856,21,1.00005,1.00005
app_49,544.011,21270.2,7577.7,422.3,9.17543,1.35705e+11,1.03716,0.953097,830,15.0783,24,1.00005,1.00005
app_5,3.46359,19615.1,7369.5,630.5,737.578,1.69953e+11,1.06108,0.953097,10,0.230601,1803,1.00001,1.00001
app_50,743.759,23070.3,7425.4,574.6,7.31906,1.73637e+11,1.05277,0.953097,1023,24.8052,20,1.00005,1.00005
app_51,6.67302,20422.3,7861.2,138.8,8.41046,3.82033e+10,1.01273,0.953097,912,4.24482,22,1.00005,1.00005
app_52,343.678,20636.8,7841.9,158.1,8.47897,3.73709e+10,1.01532,0.953097,910,4.67136,22,1.00005,1.00005
app_53,841.233,21682.5,7846.5,153.5,6.78099,4.18802e+10,1.01415,0.953097,1140,5.98288,18,1.00005,1.00005
app_54,768.875,21330.6,7853.6,146.4,6.86165,3.36454e+10,1.0143,0.953097,1143,4.80648,18,1.00005,1.00005
app_55,356.831,21329,7622.6,377.4,8.33963,1.00992e+11,1.03579,0.953097,932,11.2213,22,1.00005,1.00005
app_56,232.997,20367,7842,158,8.37366,4.76825e+10,1.01398,0.953097,961,5.29805,21,1.00006,1.00006
app_57,663.434,21701.1,7807.6,192.4,8.26023,6.49157e+10,1.01619,0.953097,935,8.11446,22,1.00006,1.00006
app_58,440.362,21700.5,7675.8,324.2,7.45799,9.2591e+10,1.02981,0.953097,1011,13.2273,20,1.00006,1.00006
app_59,254.402,21276.5,7823.7,176.3,8.34429,4.60407e+10,1.01655,0.953097,946,5.11564,22,1.00006,1.00006
app_6,0.811079,19327.8,7404.9,595.1,823.198,1.61141e+11,1.05736,0.953097,9,0.195797,1987,1.00001,1.00001
app_60,172.689,21382.1,7692.12,307.882,6.90716,9.84299e+10,1.02689,0.953097,1110,14.154,18,1.00006,1.00006
app_7,8.17532,20346.6,7465.3,534.7,678.91,1.39372e+11,1.05198,0.953097,11,0.205261,1727,1.00001,1.00001
app_8,10.2462,20942.6,7404.34,595.664,740.835,1.55934e+11,1.05816,0.953097,10,0.210664,1939,1.00001,1.00001
app_9,8.34392,19019.5,7358.06,641.941,920.223,1.70638e+11,1.0626,0.953097,8,0.185422,2185,1.00001,1.00001
