app_id,start_app,end_app,effective_cpu,effective_io,effective_iter,total_bytes,stretch,utilization,Tcomp,Tio,iterations,priority,group_id
app_1,1.29963,18992.8,7797.5,180.13,862.705,1.49205e+11,1.00671,0.966433,9,0.172891,2049,0.1,1
app_10,8.8672,18583.6,7804.9,169.615,866.022,1.07491e+11,1.01107,0.966433,9,0.124124,2009,0.1,1
app_11,4.02109,18554.4,7830,136.712,981.352,9.46854e+10,1.0095,0.966433,8,0.0965193,2269,0.1,1
app_12,5.17038,19667.1,7821,154.634,783.274,1.04381e+11,1.00942,0.966433,10,0.133309,1924,0.1,1
app_13,8.86357,19924.7,7885.7,87.5415,789.445,6.91226e+10,1.00568,0.966433,10,0.087497,1964,0.1,1
app_14,6.78482,19275.8,7718.4,259.263,859.082,2.11698e+11,1.00881,0.966433,9,0.246447,2066,0.1,1
app_15,4.39597,19158.3,7783.1,186.705,970.79,1.05562e+11,1.01411,0.966433,8,0.108715,2328,0.1,1
app_16,25.5303,20306.8,7711.7,256.4,68.7065,1.81284e+11,1.01356,0.966433,111,2.66594,175,0.01,2
app_17,52.9234,20311.7,7726.7,221.975,72.6681,1.56761e+11,1.01478,0.966433,106,2.14742,185,0.01,2
app_18,21.4825,20170.1,7714.6,222.371,84.6632,1.56833e+11,1.01633,0.966433,92,1.8451,212,0.01,2
app_19,71.9474,20086.5,7868.2,57.9141,94.5406,3.75774e+10,1.01192,0.966433,84,0.395551,235,0.01,2
app_2,11.0735,19864,7840,136.356,712.779,7.99754e+10,1.0101,0.966433,11,0.112168,1769,0.1,1
app_20,107.157,20200.5,7757.23,209.703,70.4684,1.47067e+11,1.01211,0.966433,111,2.07454,176,0.01,2
app_21,88.4719,20309.4,7762.7,184.64,82.8275,1.31088e+11,1.01346,0.966433,93,1.57938,210,0.01,2
app_22,32.1702,20295.5,7757.2,193.8,74.3647,1.36068e+11,1.01352,0.966433,105,1.83876,187,0.01,2
app_23,73.2249,20444.4,7825.5,102.446,77.8021,7.16574e+10,1.01302,0.966433,101,0.918685,197,0.01,2
app_24,55.5179,20440.2,7699.7,265.626,68.6002,1.89259e+11,1.01408,0.966433,111,2.78322,176,0.01,2
app_25,32.221,20353.2,7659.7,265.879,95.0254,1.90683e+11,1.01906,0.966433,81,2.00719,241,0.01,2
app_26,25.9843,20232.9,7691.9,259.412,75.5308,1.82212e+11,1.01599,0.966433,101,2.39752,192,0.01,2
app_27,97.1688,20369.8,7790.8,141.876,80.6737,9.91826e+10,1.01394,0.966433,97,1.22448,204,0.01,2
app_28,17.2025,20359.1,7675.7,279.692,89.4944,1.98469e+11,1.01598,0.966433,85,2.20521,229,0.01,2
app_29,10.1268,20248.1,7782.4,172.01,92.8315,1.16978e+11,1.01274,0.966433,84,1.25782,235,0.01,2
app_3,2.47126,19365.9,7904.1,68.4862,789.211,4.43459e+09,1.01157,0.966433,10,0.00562052,1911,0.1,1
app_30,32.9854,20203.4,7742.4,217.533,73.0906,1.56521e+11,1.0128,0.966433,106,2.14412,184,0.01,2
app_31,372.07,21164.1,7545.7,390.789,16.7813,1.89619e+11,1.03422,0.966433,458,11.1541,43,0.002,2.69897
app_32,426.253,21525.4,7634.3,254.656,13.0031,1.23367e+11,1.03124,0.966433,578,9.48979,35,0.002,2.69897
app_33,51.5141,20873.1,7506.6,395.592,16.323,1.81502e+11,1.04057,0.966433,455,11.3439,43,0.002,2.69897
app_34,130.415,20450.7,7777.3,179.941,14.1039,8.95206e+10,1.01693,0.966433,549,6.39433,36,0.002,2.69897
app_35,545.914,21433.5,7731,5.88886,14.0091,2.63647e+09,1.03444,0.966433,552,0.18832,37,0.002,2.69897
app_36,240.822,21570.2,7384.2,444.599,15.132,1.7545e+11,1.05825,0.966433,484,11.6967,41,0.002,2.69897
app_37,467.932,21369.9,7604.9,326.823,15.3691,1.44053e+11,1.0324,0.966433,498,9.60357,40,0.002,2.69897
app_38,81.0249,20966,7563.4,289.393,18.8512,1.23404e+11,1.04074,0.966433,400,6.49496,50,0.002,2.69897
app_39,460.298,21038.6,7754.1,117.03,16.4278,5.72146e+10,1.02416,0.966433,472,3.57591,42,0.002,2.69897
app_4,1.21784,18479.2,7746,219.282,1106.2,1.52576e+11,1.01284,0.966433,7,0.137953,2554,0.1,1
app_40,243.397,21120.7,7757.1,145.147,13.611,5.6993e+10,1.02379,0.966433,559,4.07093,36,0.002,2.69897
app_41,51.0573,20980.4,7630.5,145.235,17.6233,5.88371e+10,1.0404,0.966433,435,3.46101,46,0.002,2.69897
app_42,54.3102,21084.7,7472.9,422.94,15.856,1.87633e+11,1.04431,0.966433,473,11.7271,42,0.002,2.69897
app_43,108.308,20619.8,7822.7,34.0661,17.3834,1.46179e+10,1.02076,0.966433,454,0.859874,44,0.002,2.69897
app_44,104.9,21051.4,7561.5,352.366,13.0784,1.64919e+11,1.03541,0.966433,578,12.6861,34,0.002,2.69897
app_45,54.316,20861.7,7551.3,354.193,14.5444,1.67992e+11,1.03636,0.966433,524,11.1995,38,0.002,2.69897
app_46,432.833,22016.4,7483.5,482.553,7.94988,1.36046e+11,1.04993,0.966433,915,17.0058,22,0.001,3
app_47,363.9,21445,7633.5,279.471,7.64964,1.18333e+11,1.03201,0.966433,1005,14.7917,20,0.001,3
app_48,504.24,21827.6,7656.7,282.418,6.80645,8.71336e+10,1.03308,0.966433,1130,12.4477,18,0.001,3
app_49,87.6558,20770.9,7770,119.259,8.4894,5.81903e+10,1.02195,0.966433,911,7.27379,22,0.001,3
app_5,1.58967,18844.3,7882.2,86.9207,876.02,4.21734e+10,1.00954,0.966433,9,0.0481431,2061,0.1,1
app_50,234.192,21107.5,7680.6,304.266,7.09205,7.71359e+10,1.03123,0.966433,1045,11.0194,19,0.001,3
app_51,257.018,20207.7,7874.7,29.813,7.65389,1.02325e+10,1.01459,0.966433,1054,1.27906,19,0.001,3
app_52,361.086,21464.9,7604.6,374.887,7.66715,1.39073e+11,1.0331,0.966433,987,19.8676,20,0.001,3
app_53,712.07,21218.1,7809.7,109.616,7.68277,4.98072e+10,1.01788,0.966433,995,6.2259,20,0.001,3
app_54,750.327,22118.5,7715.2,184.858,8.50857,5.00607e+10,1.03023,0.966433,924,6.25759,22,0.001,3
app_55,243.805,20222.4,7865.7,95.7271,6.68616,2.76049e+10,1.01352,0.966433,1182,3.94356,17,0.001,3
app_56,272.688,22062.8,7761,195.813,7.65869,5.75389e+10,1.02321,0.966433,1037,8.21984,20,0.001,3
app_57,838.692,21624.6,7958.3,20.749,8.58628,4.03843e+09,1.00473,0.966433,932,0.504804,22,0.001,3
app_58,828.626,21544.2,7638.7,265.537,7.66953,8.03022e+10,1.0364,0.966433,995,10.0378,20,0.001,3
app_59,333.656,21165,7882.8,47.9684,6.37086,1.00462e+10,1.01358,0.966433,1233,1.43517,17,0.001,3
app_6,0.127439,18503.5,7805.9,167.576,865.485,1.01081e+11,1.01176,0.966433,9,0.116857,2003,0.1,1
app_60,467.465,21720.2,7715.9,214.192,8.72509,7.51922e+10,1.02681,0.966433,845,8.35469,24,0.001,3
app_7,1.46812,19942.4,7911.3,64.6623,719.15,6.81543e+09,1.01034,0.966433,11,0.00947904,1790,0.1,1
app_8,3.26171,20167.8,7792.7,185.586,778.595,1.43517e+11,1.00804,0.966433,10,0.184233,1961,0.1,1
app_9,2.13816,19652.3,7850.2,120.356,873.853,8.12466e+10,1.00864,0.966433,9,0.0929595,2141,0.1,1
