app_id,start_app,end_app,effective_cpu,effective_io,effective_iter,total_bytes,stretch,utilization,Tcomp,Tio,iterations,priority,group_id
app_1,2.92138,20087.5,7866.8,133.2,789.709,2.46419e+10,1.01376,0.950481,10,0.0311923,1978,1,1
app_10,8.86685,20765.4,7599.41,400.592,761.897,9.60706e+10,1.03957,0.950481,10,0.126182,1974,1.00001,1.00001
app_11,3.23221,19629.6,7472.05,527.95,749.329,1.32298e+11,1.05203,0.950481,10,0.176593,1838,1.00001,1.00001
app_12,10.9139,19550.7,7381.6,618.4,738.508,1.55485e+11,1.06142,0.950481,10,0.210685,1805,1.00001,1.00001
app_13,0.925908,19088.3,7316.9,683.1,1049.91,1.76571e+11,1.0676,0.950481,7,0.168163,2494,1.00001,1.00001
app_14,1.12762,20005.1,7283.6,716.4,727.275,1.8945e+11,1.07051,0.950481,10,0.260591,1822,1.00001,1.00001
app_15,6.50651,20406.7,7488.3,511.7,834.468,1.25453e+11,1.05073,0.950481,9,0.150424,2127,1.00002,1.00002
app_16,106.608,20954,7557.1,442.9,69.7353,1.25193e+11,1.04136,0.950481,107,1.78847,183,1.00002,1.00002
app_17,82.9173,20592.4,7662,338,78.8534,8.61246e+10,1.03251,0.950481,97,1.10416,203,1.00002,1.00002
app_18,48.9388,20716.7,7565.2,434.8,73.8033,1.14381e+11,1.04172,0.950481,103,1.56686,191,1.00002,1.00002
app_19,68.1565,21090.5,7385.3,614.7,87.8258,1.6948e+11,1.05893,0.950481,84,1.92591,231,1.00002,1.00002
app_2,9.97274,20533.1,7527.2,472.804,752.688,1.16363e+11,1.04663,0.950481,10,0.154645,1932,1,1
app_20,16.9242,20391.9,7861.5,138.5,72.3302,3.74015e+10,1.0128,0.950481,108,0.51235,185,1.00002,1.00002
app_21,9.70805,20045.2,7980.4,19.6,86.9823,4.18781e+09,1.00193,0.950481,92,0.0481357,217,1.00002,1.00002
app_22,94.6424,20609.8,7606.1,393.9,78.0384,1.15655e+11,1.03603,0.950481,98,1.48276,200,1.00002,1.00002
app_23,29.6579,20921,7610.1,389.9,69.1959,9.77988e+10,1.0379,0.950481,110,1.41737,180,1.00002,1.00002
app_24,17.6298,20639,7680.1,319.9,77.953,8.33309e+10,1.03047,0.950481,99,1.06834,200,1.00002,1.00002
app_25,12.8112,19899.4,7942.2,57.8,81.5194,1.40326e+10,1.0055,0.950481,98,0.17113,203,1.00003,1.00003
app_26,65.1238,21061.4,7426.1,573.9,70.0858,1.69131e+11,1.05329,0.950481,107,2.38213,183,1.00003,1.00003
app_27,5.40162,20928.8,7481,519,81.6169,1.31376e+11,1.05092,0.950481,92,1.60215,214,1.00003,1.00003
app_28,76.3986,21177.2,7371.6,628.4,72.6404,1.72336e+11,1.06045,0.950481,101,2.39355,193,1.00003,1.00003
app_29,37.6509,20485.3,7665.35,334.651,81.8173,1.0011e+11,1.0302,0.950481,94,1.22761,209,1.00003,1.00003
app_3,9.13346,20908.3,7295.73,704.265,808.523,1.79522e+11,1.0702,0.950481,9,0.221982,2121,1,1
app_30,47.4023,20227.7,7956,44,82.5269,1.01331e+10,1.00425,0.950481,96,0.122085,208,1.00003,1.00003
app_31,412.062,21895.4,7372.5,627.5,15.8637,1.44291e+11,1.06428,0.950481,457,9.0182,43,1.00003,1.00003
app_32,112.435,21331.9,7615.7,384.3,16.0944,1.01771e+11,1.03661,0.950481,480,6.36066,42,1.00003,1.00003
app_33,232.194,21303.3,7648.4,351.6,16.0193,8.59069e+10,1.03435,0.950481,480,5.36918,42,1.00003,1.00003
app_34,16.3815,20556.5,7672.8,327.2,15.3519,6.7817e+10,1.03351,0.950481,496,4.23856,40,1.00003,1.00003
app_35,327.197,21700.3,7388.9,611.1,16.381,1.53594e+11,1.06066,0.950481,454,9.59962,44,1.00004,1.00004
app_36,467.977,21004.2,7821.4,178.6,14.3129,4.97905e+10,1.01636,0.950481,556,3.31937,36,1.00004,1.00004
app_37,125.522,21088.8,7672.9,327.1,14.1067,9.28492e+10,1.03016,0.950481,548,6.63209,37,1.00004,1.00004
app_38,171.463,20277.6,7985.9,14.1,13.5002,3.81556e+09,1.00129,0.950481,595,0.293505,34,1.00004,1.00004
app_39,361.316,21620,7413.8,586.2,19.0632,1.46091e+11,1.05822,0.950481,389,7.68899,51,1.00004,1.00004
app_4,5.34987,19284.3,7529.7,470.3,840.631,1.15042e+11,1.04647,0.950481,9,0.136792,2022,1,1
app_40,44.424,21606.3,7557.3,442.7,15.0964,1.59473e+11,1.0367,0.950481,498,10.6315,40,1.00004,1.00004
app_41,113.675,20811.3,7844.1,155.9,15.7587,3.43275e+10,1.01543,0.950481,492,2.14547,41,1.00004,1.00004
app_42,108.798,20663.5,7894.4,105.6,17.1531,2.40081e+10,1.0103,0.950481,460,1.41224,44,1.00004,1.00004
app_43,392.613,20877,7932,68,15.9721,1.34413e+10,1.00687,0.950481,497,0.84008,41,1.00004,1.00004
app_44,142.979,20838.3,7805.3,194.7,16.4778,6.64287e+10,1.0163,0.950481,482,3.90757,42,1.00004,1.00004
app_45,322.192,22109.2,7278.2,721.8,13.3906,1.77172e+11,1.07305,0.950481,541,13.6286,37,1.00004,1.00004
app_46,857.659,22519.2,7132.6,867.4,6.90109,1.77978e+11,1.0943,0.950481,1043,25.4255,19,1.00005,1.00005
app_47,480.176,21298.1,7883.7,116.3,7.85403,3.24826e+10,1.01059,0.950481,1021,4.06033,20,1.00005,1.00005
app_48,421.182,21104.1,7789.8,210.2,6.45369,7.86538e+10,1.01672,0.950481,1185,11.2363,17,1.00005,1.00005
app_49,586.22,22733.1,7360,640,6.86043,1.41471e+11,1.06646,0.950481,1080,20.2102,19,1.00005,1.00005
app_5,1.22156,20533.7,7705.4,294.6,641.659,6.66956e+10,1.02932,0.950481,12,0.104049,1643,1.00001,1.00001
app_50,247.259,21671.4,7731.2,268.8,9.25016,7.37162e+10,1.02499,0.950481,814,8.19069,25,1.00005,1.00005
app_51,505.658,21860.2,7637.7,362.3,7.16135,1.31498e+11,1.02971,0.950481,1074,16.4373,19,1.00005,1.00005
app_52,132.87,21739.8,7745.9,254.1,6.68624,8.66047e+10,1.02138,0.950481,1123,12.3721,18,1.00005,1.00005
app_53,84.6963,22182.9,7715.3,284.7,7.26393,1.08206e+11,1.02256,0.950481,1027,15.458,20,1.00005,1.00005
app_54,393.77,21394.9,7936.7,63.3,7.15347,1.34194e+10,1.00627,0.950481,1081,1.91705,19,1.00005,1.00005
app_55,599.377,22258.8,7515.7,484.3,6.68209,1.26587e+11,1.04681,0.950481,1138,18.0839,18,1.00005,1.00005
app_56,203.612,21868.3,7508.5,491.5,7.55538,9.99632e+10,1.05146,0.950481,986,12.4954,21,1.00006,1.00006
app_57,291.762,20910.8,7845.3,154.7,7.04177,5.36653e+10,1.01279,0.950481,1123,7.66647,18,1.00006,1.00006
app_58,462.104,21629.6,7671.18,328.822,7.84995,1.33734e+11,1.025,0.950481,1006,16.7847,20,1.00006,1.00006
app_59,475.545,22196.8,7259.1,740.9,8.15803,1.85116e+11,1.07466,0.950481,907,23.1395,22,1.00006,1.00006
app_6,3.65265,21046.6,7356.3,643.7,918.004,1.63721e+11,1.06383,0.950481,8,0.178346,2421,1.00001,1.00001
app_60,488.822,21247.9,7896.9,103.1,9.15722,2.78311e+10,1.0095,0.950481,846,3.09234,24,1.00006,1.00006
app_7,3.04129,19936.4,7468,532,745.052,1.3483e+11,1.05224,0.950481,10,0.18098,1861,1.00001,1.00001
app_8,5.23802,19597.9,7363.9,636.1,921.142,1.64466e+11,1.06265,0.950481,8,0.178573,2256,1.00001,1.00001
app_9,4.15884,20061.3,7292.7,707.3,810.394,1.81842e+11,1.0703,0.950481,9,0.22422,2034,1.00001,1.00001
