app_id,Tcomp,Tio,iter,witer,alpha_io,compute_size,io_size,mu,desyn_time
1,7.977141752368743,0.5509925108351761,2346,8.528134263203919,0.06460879880990227,7e9,550992510.8351761,10,1.1590006633714833
2,8.999342352185625,0.6066497802644519,2083,9.605992132450076,0.06315326640911183,8e9,606649780.264452,10,0.8408337211954914
3,7.211915779007577,0.7394008450030763,2516,7.951316624010653,0.09299099507247666,7e9,739400845.0030763,10,2.7972304750538375
4,8.721142372323198,0.5731149450433448,2152,9.294257317366544,0.06166333957340149,8e9,573114945.0433449,10,5.384921688042634
5,10.089395551248739,0.30538653185560805,1925,10.394782083104348,0.029378829629529465,10e9,305386531.85560805,10,8.313392189359726
6,83.07305739414349,5.10746623401888,227,88.18052362816238,0.057920570482841854,83e9,5107466234.01888,100,1.1001023105911019
7,90.97764600455774,2.9897956530732,213,93.96744165763094,0.03181735716469199,90e9,2989795653.0731997,100,65.36687167414094
8,75.13440552706444,1.8253240346903667,260,76.95972956175481,0.023717911238574085,75e9,1825324034.6903667,100,44.70341018157693
9,106.20988157133304,4.212228084132345,182,110.42210965546539,0.03814660032556133,106e9,4212228084.132345,100,104.16003779013437
10,108.59474757397689,3.323869859046521,179,111.91861743302341,0.029698989634460576,108e9,3323869859.046521,100,6.802274942680396
11,988.454812710788,19.779735539725962,20,1008.234548250514,0.01961818861895549,988e9,19779735539.725964,1000,706.9982823491722
12,806.7964000393687,30.79690457562046,24,837.5933046149892,0.03676832706987392,806e9,30796904575.62046,1000,336.8776233153428
13,835.6052060274707,73.06621160034595,23,908.6714176278166,0.08040993717079059,835e9,73066211600.34595,1000,412.8451270949856
14,938.5805708602221,93.88806760055886,20,1032.468638460781,0.09093551523320702,938e9,93888067600.55885,1000,145.78510918612994
15,888.831580429591,76.42031869118138,21,965.2518991207724,0.07917137356662135,888e9,76420318691.18138,1000,616.2826082474174
