app_id,start_app,end_app,effective_cpu,effective_io,effective_iter,total_bytes,stretch,utilization,Tcomp,Tio,iterations,priority,group_id
app_1,2.91025,21595.3,6851.84,1148.16,684.504,3.89805e+11,1.10472,0.855928,10,0.569374,1869,1,1
app_10,12.816,22357.2,6556.56,1443.44,75.68,5.39275e+11,1.12742,0.855928,86,7.18275,214,1.00001,1.00001
app_11,549.983,22747.4,6616.4,1383.6,7.73521,4.91435e+11,1.12552,0.855928,885,61.4294,22,1.00001,1.00001
app_12,257.57,23036.7,6175.51,1824.49,7.1311,4.66827e+11,1.20439,0.855928,863,63.9392,22,1.00001,1.00001
app_13,578.649,21203.6,7658.1,341.9,7.22232,8.81858e+10,1.03275,0.855928,1066,12.598,19,1.00001,1.00001
app_14,217.815,22376.3,7277.9,722.1,8.11878,2.41534e+11,1.06391,0.855928,907,30.1917,22,1.00001,1.00001
app_15,127.061,23485.6,6138.73,1861.27,6.98436,5.57003e+11,1.19479,0.855928,863,77.1552,22,1.00002,1.00002
app_2,0.616325,21555.1,6058.29,1941.71,758.015,7.27716e+11,1.1789,0.855928,8,0.959782,2074,1,1
app_3,2.09401,21521.3,7022.62,977.383,703.424,3.33877e+11,1.08747,0.855928,10,0.474264,1906,1,1
app_4,4.89411,20863.4,6437.8,1562.2,712.894,5.57906e+11,1.14356,0.855928,9,0.782477,1886,1,1
app_5,3.82965,21713.7,6579.6,1420.4,820.811,4.99279e+11,1.13012,0.855928,8,0.608135,2259,1.00001,1.00001
app_6,15.1476,21303.5,7168.8,831.2,71.8003,2.78518e+11,1.07421,0.855928,99,3.8683,194,1.00001,1.00001
app_7,15.944,21099.2,7270.8,729.2,95.1243,2.49614e+11,1.06377,0.855928,76,2.62751,253,1.00001,1.00001
app_8,63.1546,21821.4,6971.79,1028.21,75.6602,3.63802e+11,1.09057,0.855928,92,4.82853,207,1.00001,1.00001
app_9,70.242,20307.1,7926.6,73.4,79.5166,2.27227e+10,1.00638,0.855928,100,0.287629,200,1.00001,1.00001
