app_id,start_app,end_app,effective_cpu,effective_io,effective_iter,total_bytes,stretch,utilization,Tcomp,Tio,iterations,priority,group_id
app_1,4.89447,21093.4,7152.2,847.8,894.925,2.8456e+11,1.07574,0.864089,8,0.317944,2363,1,1
app_10,68.6372,21252.7,7334.9,665.1,77.9995,2.43751e+11,1.0556,0.864089,93,3.12502,208,1.00001,1.00001
app_11,557.955,22928.6,6658.1,1341.9,7.80698,4.96964e+11,1.11809,0.864089,854,62.1205,22,1.00001,1.00001
app_12,644.093,24372.5,6605.1,1394.9,7.29124,5.99414e+11,1.11041,0.864089,923,74.9268,21,1.00001,1.00001
app_13,712.111,23181.3,7005,995,7.62394,3.75941e+11,1.08387,0.864089,888,53.7058,22,1.00001,1.00001
app_14,12.3706,21618.5,7232.45,767.547,7.37913,2.37014e+11,1.07103,0.864089,982,33.1788,20,1.00001,1.00001
app_15,785.225,24302.5,6250,1750,6.61831,5.50967e+11,1.1763,0.864089,945,78.7096,20,1.00002,1.00002
app_2,4.95743,21292,6410.5,1589.5,798.865,5.95689e+11,1.14185,0.864089,8,0.745667,2139,1,1
app_3,0.816522,19382.2,7522.4,477.6,940.906,1.48599e+11,1.04289,0.864089,8,0.157916,2283,1,1
app_4,0.247516,20472.5,6551.3,1448.7,725.308,5.3633e+11,1.12873,0.864089,9,0.739766,1869,1,1
app_5,4.42928,19414.8,7383.1,616.9,922.398,1.92787e+11,1.05598,0.864089,8,0.209097,2246,1.00001,1.00001
app_6,31.1456,22254.9,6636.6,1363.4,72.2575,5.25519e+11,1.11699,0.864089,91,7.29888,203,1.00001,1.00001
app_7,41.5136,22091.8,6684.8,1315.2,75.2723,4.83591e+11,1.11601,0.864089,89,6.44788,208,1.00001,1.00001
app_8,27.3149,22248.7,6649.5,1350.5,71.8926,5.26078e+11,1.11489,0.864089,92,7.30664,201,1.00001,1.00001
app_9,41.5305,20892.8,7614.7,385.3,77.3689,1.23562e+11,1.03382,0.864089,97,1.6047,203,1.00001,1.00001
