app_id,start_app,end_app,effective_cpu,effective_io,effective_iter,total_bytes,stretch,utilization,Tcomp,Tio,iterations,priority,group_id
app_1,4.89447,28988.8,4414.6,211.564,552.954,1.75823e+11,1.74276,0.755032,8,0.317944,2363,1,1
app_10,68.6372,23485,6531.3,226.18,70.3069,2.21876e+11,1.18463,0.755032,93,3.12502,208,1,1
app_11,557.955,21045,7351.2,559.526,8.62517,5.59084e+11,1.01134,0.755032,854,62.1205,22,1,1
app_12,644.093,21925.6,7342.8,599.816,7.94371,5.99414e+11,1.00728,0.755032,923,74.9268,21,1,1
app_13,712.111,21706.7,7422.9,483.902,8.67757,4.83352e+11,1.01186,0.755032,888,53.7058,22,1,1
app_14,12.3706,20414.3,7585.6,265.885,7.79533,2.65431e+11,1.01897,0.755032,982,33.1788,20,1,1
app_15,785.225,21272.8,7410.2,551.426,7.7466,5.50967e+11,1.00488,0.755032,945,78.7096,20,1,1
app_2,4.95743,27839.3,4248.41,423.344,531.17,3.96314e+11,1.72238,0.755032,8,0.745667,2139,1,1
app_3,0.816522,28011.1,4460.4,114.819,558.86,8.82753e+10,1.75875,0.755032,8,0.157916,2283,1,1
app_4,0.247516,27139.3,4344.3,384.497,482.552,3.57307e+11,1.70155,0.755032,9,0.739766,1869,1,1
app_5,4.42928,27915.2,4421.6,154.348,553.638,1.1584e+11,1.76311,0.755032,8,0.209097,2246,1,1
app_6,31.1456,23242.6,6211.2,498.422,67.668,4.96324e+11,1.19269,0.755032,91,7.29888,203,1,1
app_7,41.5136,23002,6367.2,467.613,71.3735,4.64247e+11,1.17105,0.755032,89,6.44788,208,1,1
app_8,27.3149,23427.3,6143.2,493.459,66.6663,4.89545e+11,1.20614,0.755032,92,7.30664,201,1,1
app_9,41.5305,23750.5,6348.9,109.758,65.7002,1.0591e+11,1.23939,0.755032,97,1.6047,203,1,1
