app_id,Tcomp,Tio,iter,witer,alpha_io,compute_size,io_size,mu,desyn_time
1,10.89137309658034,0.05374009408264703,1828,10.945113190662987,0.0049099623865463005,10e9,53740094.08264703,10,9.071552546611258
2,8.359998386490243,0.03960792987240338,2382,8.399606316362647,0.00471545074621487,8e9,39607929.872403376,10,4.612072547897165
3,10.6587352259774,0.03414004698049227,1871,10.692875272957894,0.0031927845513013593,10e9,34140046.98049227,10,9.816687038888448
4,10.764069377446377,0.03892978630076394,1852,10.802999163747142,0.0036036091191606378,10e9,38929786.30076394,10,5.3412462099138756
5,8.343098310252074,0.015212011624860366,2393,8.358310321876935,0.0018199864612641432,8e9,15212011.624860365,10,8.260756367980852
6,9.329383379202433,0.05897365404746944,2131,9.388357033249902,0.006281573425319014,9e9,58973654.04746944,10,6.085037710098471
7,9.164986912415008,0.0546781664300876,2170,9.219665078845097,0.005930602246663918,9e9,54678166.430087596,10,8.132843606984242
8,9.602941049905604,0.0019642697119524413,2083,9.604905319617558,0.00020450693125943832,9e9,1964269.7119524414,10,0.037748724838289636
9,8.404785360945732,0.004407651448656565,2379,8.40919301239439,0.0005241467810478468,8e9,4407651.4486565655,10,3.3137052721682556
10,9.996286007282977,0.043550276296811095,1993,10.039836283579788,0.004337747655112447,9e9,43550276.2968111,10,2.717054312497249
11,10.14139592627686,0.01275559274413863,1970,10.154151519021,0.0012561948401345548,10e9,12755592.74413863,10,4.103468437637693
12,12.572730375257017,0.07642198389256644,1582,12.649152359149584,0.006041668383991571,12e9,76421983.89256644,10,5.261124723684269
13,9.187775371841722,0.03757652414909827,2168,9.225351895990821,0.004073180575954872,9e9,37576524.14909827,10,3.672626242065127
14,8.825706803526645,0.05857920856480774,2252,8.884286012091453,0.006593575272687286,8e9,58579208.56480774,10,7.298382829042586
15,10.725322755291154,0.037093287002853144,1859,10.762416042294008,0.003446557618390184,10e9,37093287.00285314,10,10.138796405242607
16,19.783607709492138,0.11365463355482631,1006,19.897262343046965,0.0057120739323489175,19e9,113654633.55482632,20,15.050212113365133
17,18.51804918223936,0.06580805252925048,1077,18.583857234768608,0.003541140662990563,18e9,65808052.52925048,20,3.880876569357716
18,20.407719389238267,0.060571756472145036,978,20.468291145710413,0.002959297190026496,20e9,60571756.472145036,20,8.317659898302885
19,18.763162202246118,0.022479731139492087,1065,18.78564193338561,0.0011966442892505785,18e9,22479731.139492087,20,0.046029264749399945
20,18.842807784817683,0.02108228214279288,1061,18.863890066960476,0.0011175999259939416,18e9,21082282.14279288,20,12.581012533741967
21,21.04215333676428,0.0009597148874230597,951,21.0431130516517,4.5607077482660315e-05,21e9,959714.8874230597,20,15.152765160989654
22,21.609075681152504,0.12510227434740273,921,21.734177955499906,0.00575601592126217,21e9,125102274.34740274,20,10.38698553337809
23,18.960130360678072,0.09758876474759,1050,19.057719125425663,0.005120694879871167,18e9,97588764.74759,20,5.162790698704614
24,19.476825572079264,0.09552815180144049,1022,19.572353723880703,0.004880769740273204,19e9,95528151.80144049,20,0.5038910290519766
25,18.94015385555045,0.03978473107488869,1054,18.979938586625337,0.0020961464597637814,18e9,39784731.07488869,20,14.32227113820274
26,20.641971125098415,0.024999669406682273,968,20.666970794505097,0.0012096436219539801,20e9,24999669.40668227,20,13.151328081388014
27,21.740955417050568,0.03199604774769601,919,21.772951464798265,0.001469531946526684,21e9,31996047.74769601,20,21.145245312575163
28,20.968021429383164,0.1115524364347453,949,21.07957386581791,0.0052919682885827135,20e9,111552436.4347453,20,3.2633092201141567
29,18.680169847349056,0.0738170086863291,1067,18.753986856035386,0.0039360701941930495,18e9,73817008.6863291,20,12.424803826309951
30,20.25094785147854,0.018495838589859884,987,20.2694436900684,0.0009124985802606144,20e9,18495838.589859884,20,11.363789532507337
31,105.28613457491225,0.7075764105469108,189,105.99371098545916,0.006675645224309396,105e9,707576410.5469108,100,28.82351602417548
32,110.51304014086269,0.29724426370160617,181,110.81028440456429,0.002682460976423256,110e9,297244263.70160615,100,18.155721212496083
33,98.890444925077,0.13220379349450007,202,99.0226487185715,0.0013350864191709459,98e9,132203793.49450007,100,54.579489209088294
34,109.5422535551839,0.19861093525651907,183,109.74086449044043,0.0018098174839311582,109e9,198610935.25651908,100,30.04231585079267
35,91.85502719291979,0.5946984389702744,217,92.44972563189006,0.006432668511512989,91e9,594698438.9702744,100,45.73759445155822
36,98.83794062134871,0.5180092574991474,202,99.35594987884785,0.005213671230870369,98e9,518009257.4991474,100,22.088914781246466
37,101.43042101999114,0.26779184595803684,197,101.69821286594917,0.0026332010997186317,101e9,267791845.95803684,100,83.12348959290317
38,82.64191257446612,0.41843123992304965,241,83.06034381438917,0.005037677677546064,82e9,418431239.9230496,100,50.88622286564603
39,98.08445985530736,0.011582286038831038,204,98.09604214134619,0.00011807088019047873,98e9,11582286.038831038,100,11.345856719275522
40,97.97984532314,0.01849738028048786,205,97.99834270342049,0.0001887519703926813,97e9,18497380.280487858,100,54.2549169940418
41,90.30184335886798,0.17938139162067412,222,90.48122475048866,0.00198252612202517,90e9,179381391.62067413,100,33.24182213700529
42,94.36163587425774,0.1450329895294932,212,94.50666886378724,0.0015346323309578258,94e9,145032989.5294932,100,82.33073739455965
43,102.45401778292914,0.5297482704202762,195,102.98376605334941,0.005143997842784725,102e9,529748270.42027617,100,102.49038106269482
44,99.59661938371423,0.466940077055197,200,100.06355946076943,0.004666434809749737,99e9,466940077.055197,100,38.56778136594581
45,100.29770800507262,0.26931846377335233,199,100.56702646884597,0.00267799967076468,100e9,269318463.7733523,100,83.75545867486152
46,986.310161040572,6.453965364259248,21,992.7641264048312,0.006501005820618701,986e9,6453965364.259248,1000,47.49074109443457
47,938.8158515170124,0.48539502579204136,22,939.3012465428045,0.00051676182436528,938e9,485395025.79204136,1000,175.82391867087946
48,965.609443408936,3.6577945428105902,21,969.2672379517467,0.0037737730107748543,965e9,3657794542.8105903,1000,856.0271068426398
49,779.4056315579525,2.6763023081440025,26,782.0819338660965,0.0034220229265674654,779e9,2676302308.1440024,1000,309.38062327210906
50,1169.043240140431,5.067567683193453,18,1174.1108078236243,0.004316089801257248,1169e9,5067567683.193453,1000,820.721783530137
51,1119.5643692725484,6.719792639511588,18,1126.28416191206,0.005966338573121361,1119e9,6719792639.511588,1000,267.15395013974745
52,977.2369043415338,3.478702339314456,21,980.7156066808483,0.003547106129051866,977e9,3478702339.314456,1000,141.73750416450886
53,916.8555921914171,1.3566587934255996,22,918.2122509848427,0.0014775002097505172,916e9,1356658793.4255996,1000,302.80452527056
54,1050.151796592782,4.362820230017009,19,1054.5146168227989,0.004137278099721343,1050e9,4362820230.017009,1000,262.71049474643013
55,1078.2008833141767,5.325350822684966,19,1083.5262341368616,0.004914833305284156,1078e9,5325350822.684966,1000,778.8545301524326
56,1010.0494873443365,2.278006173594173,20,1012.3274935179306,0.002250266033650724,1010e9,2278006173.594173,1000,358.0228797183331
57,1012.7083463966397,0.7126456246146061,20,1013.4209920212544,0.0007032078773040255,1012e9,712645624.6146061,1000,730.1697723718505
58,885.4228013659754,2.1227014734361096,23,887.5455028394115,0.002391653686087328,885e9,2122701473.4361095,1000,481.14774721781924
59,1154.4218239600345,3.260125836332695,18,1157.6819497963672,0.0028160807352193245,1154e9,3260125836.332695,1000,240.5262115574951
60,1031.759483440461,3.059120419979609,20,1034.8186038604406,0.0029561900110487123,1031e9,3059120419.979609,1000,830.9395653606363
