app_id,start_app,end_app,effective_cpu,effective_io,effective_iter,total_bytes,stretch,utilization,Tcomp,Tio,iterations,priority,group_id
app_1,6.45333,20144.2,7763.1,59.8143,704.392,5.31151e+09,1.02981,0.984976,11,0.00753405,1779,1,1
app_10,0.802342,19949.7,7719.3,79.3341,769.779,4.46816e+10,1.0304,0.984976,10,0.058028,1932,1,1
app_11,10.9766,19717.9,7798.4,75.3249,710.822,4.66425e+10,1.01975,0.984976,11,0.0656013,1745,1,1
app_12,0.712089,20209.7,7750.3,68.4126,775.855,1.0844e+10,1.03078,0.984976,10,0.0139742,1961,1,1
app_13,3.83801,19331.7,7725.1,88.943,970.295,2.2259e+10,1.03261,0.984976,8,0.0229474,2338,1,1
app_14,7.13825,19554.4,7744.3,76.7028,772.146,3.63596e+10,1.02819,0.984976,10,0.0470979,1893,1,1
app_15,1.79837,18278.6,7645,101.121,1095.83,2.59644e+10,1.04289,0.984976,7,0.0236902,2506,1,1
app_16,15.7816,19714.9,7844.6,39.4984,461.44,4.43504e+09,1.01923,0.984976,17,0.00962048,1139,1,1
app_17,16.0323,19808.1,7876.5,41.6143,375.648,2.97858e+10,1.01185,0.984976,21,0.0792175,928,1,1
app_18,18.3527,19569.9,7877.8,33.5976,375.385,7.97786e+09,1.01448,0.984976,21,0.0212177,917,1,1
app_19,8.90585,19670.7,7853.3,51.4241,437.023,4.328e+10,1.0131,0.984976,18,0.0990388,1071,1,1
app_2,3.33668,18968.8,7726.7,62.7112,772.853,6.04277e+07,1.03536,0.984976,10,7.8173e-05,1832,1,1
app_20,1.69764,19632.2,7882.7,34.8077,414.902,1.86401e+09,1.01464,0.984976,19,0.00450243,1016,1,1
app_21,9.45063,19544,7874.9,37.7307,392.514,1.51612e+10,1.01393,0.984976,20,0.0386765,959,1,1
app_22,15.6979,19918.8,7882.5,39.8559,375.052,2.63969e+10,1.01152,0.984976,21,0.0703917,932,1,1
app_23,17.127,19542.5,7833.5,72.2437,391.957,4.1148e+10,1.01592,0.984976,20,0.105238,958,1,1
app_24,14.0118,20239.7,7869.3,47.3661,437.203,3.37296e+10,1.01227,0.984976,18,0.0770082,1105,1,1
app_25,17.7315,19896.9,7886.3,39.142,342.914,3.06878e+10,1.01049,0.984976,23,0.0894688,853,1,1
app_26,4.72218,19601.1,7875.3,34.7563,392.768,7.0954e+09,1.01492,0.984976,20,0.0180545,965,1,1
app_27,9.32135,19783.4,7814.7,70.1477,372.612,4.43287e+10,1.01794,0.984976,21,0.119163,922,1,1
app_28,8.11502,20283.1,7861.1,47.8135,462.901,2.63367e+10,1.01427,0.984976,17,0.0568827,1171,1,1
app_29,17.3995,19762.9,7891.1,39.1428,373.686,2.43705e+10,1.01068,0.984976,21,0.0651618,926,1,1
app_3,3.26973,19706.5,7756.9,73.254,704.947,4.13731e+10,1.02587,0.984976,11,0.0587685,1744,1,1
app_30,14.5672,20096.2,7857.5,41.0191,437.24,1.43684e+10,1.01628,0.984976,18,0.0328796,1096,1,1
app_31,43.8783,20217.3,7936.3,36.683,91.9101,3.24368e+10,1.00392,0.984976,86,0.352573,232,1,1
app_32,95.5984,20074,7928.7,47.3039,76.2597,4.53017e+10,1.00326,0.984976,103,0.588334,192,1,1
app_33,96.3384,20206.5,7949.4,39.648,77.982,3.71712e+10,1.00168,0.984976,103,0.476554,194,1,1
app_34,86.1804,20079.5,7952.5,42.7367,71.5896,3.95726e+10,1.00099,0.984976,112,0.557361,178,1,1
app_35,46.1302,20047.8,7967.9,24.4016,62.5586,2.05546e+10,1.00145,0.984976,127,0.331526,157,1,1
app_36,95.4153,20130.4,7958,31.0735,76.1255,2.95514e+10,1.00156,0.984976,105,0.388835,189,1,1
app_37,39.8241,19997,7952.7,29.8812,77.9737,2.36079e+10,1.00297,0.984976,102,0.302666,194,1,1
app_38,31.1376,19974.1,7968.3,17.3577,89.1457,1.25587e+10,1.0024,0.984976,89,0.141109,223,1,1
app_39,47.864,20203.6,7960.5,32.1134,79.8033,2.91489e+10,1.0013,0.984976,99,0.368973,200,1,1
app_4,5.24532,19809,7686.5,95.7553,962.174,4.71497e+10,1.03444,0.984976,8,0.0490122,2386,1,1
app_40,78.1208,20095.5,7933.1,44.3752,91.4148,3.73209e+10,1.00371,0.984976,87,0.405662,229,1,1
app_41,98.958,19943.9,7978.2,8.34187,77.9726,5.06442e+09,1.0021,0.984976,103,0.0649285,193,1,1
app_42,76.8205,20101.4,7953.9,15.9257,82.6724,1.02838e+10,1.0045,0.984976,96,0.123901,207,1,1
app_43,66.9542,20049.7,7944.4,41.5397,100.789,3.84392e+10,1.00215,0.984976,79,0.380587,251,1,1
app_44,47.633,19917.7,7953.38,33.6147,81.7592,3.17954e+10,1.00186,0.984976,97,0.388723,204,1,1
app_45,84.3153,20099.7,7929.7,50.8161,84.6267,4.61747e+10,1.00302,0.984976,94,0.543232,212,1,1
app_46,371.023,20571.4,7954.2,45.6137,7.37047,4.52008e+10,1.00007,0.984976,1120,5.6501,18,1,1
app_47,309.239,20599.1,7979.1,20.8088,8.42179,2.03598e+10,1.00007,0.984976,938,2.54497,22,1,1
app_48,689.61,21247.8,7959.3,40.5296,8.83178,4.02358e+10,1.00006,0.984976,890,4.47064,23,1,1
app_49,816.735,21483.5,7969.6,22.3585,8.70093,2.18845e+10,1.00107,0.984976,928,2.43161,22,1,1
app_5,0.943288,20326,7725.8,72.8878,857.768,8.09458e+09,1.03441,0.984976,9,0.00943424,2183,1,1
app_50,19.7183,19995.9,7966.9,32.8755,8.55493,3.27389e+10,1.00005,0.984976,960,4.09237,21,1,1
app_51,33.6629,20444.2,7982.5,16.9965,8.80457,1.66787e+10,1.0001,0.984976,938,1.85318,22,1,1
app_52,655.858,21088,7980.4,19.5788,7.4328,1.93534e+10,1.00003,0.984976,1065,2.76478,19,1,1
app_53,247.778,20579.3,7965.2,32.1529,9.46457,3.19646e+10,1.00035,0.984976,851,3.19646,24,1,1
app_54,113.759,20689.6,7960,36.3079,7.43915,3.60008e+10,1.0005,0.984976,1086,5.14297,19,1,1
app_55,84.1249,21264.3,7985.1,10.5619,7.87645,1.01037e+10,1.0006,0.984976,985,1.44339,21,1,1
app_56,257.377,21481,7954.1,44.2498,7.56626,4.3892e+10,1.00025,0.984976,1046,6.27029,20,1,1
app_57,817.741,21843.1,7978.8,20.1258,7.28502,1.99307e+10,1.00016,0.984976,1108,2.49134,19,1,1
app_58,107.739,20503.9,7946.1,53.637,7.18165,5.32311e+10,1.00008,0.984976,1109,6.65389,18,1,1
app_59,180.144,20539.3,7963.1,36.8006,8.26688,3.65117e+10,1.00005,0.984976,967,4.56396,21,1,1
app_6,8.75544,20037.7,7746.5,66.9754,774.495,1.19714e+10,1.03113,0.984976,10,0.0154669,1941,1,1
app_60,161.828,20560.8,7953.6,43.2171,7.56714,4.28522e+10,1.00044,0.984976,1093,5.35653,19,1,1
app_7,0.862599,18664.9,7738.8,85.3163,856.22,4.00745e+10,1.02843,0.984976,9,0.046816,2006,1,1
app_8,1.29944,20025.5,7728.06,69.3538,771.087,1.68353e+10,1.03294,0.984976,10,0.0218222,1938,1,1
app_9,6.45335,20358,7787.42,58.6021,708.473,2.02365e+09,1.02703,0.984976,11,0.00285826,1803,1,1
