app_id,start_app,end_app,effective_cpu,effective_io,effective_iter,total_bytes,stretch,utilization,Tcomp,Tio,iterations,priority,group_id
app_1,5.30833,19075.6,7920.2,65.9896,720.265,1.19862e+10,1.00855,0.993116,11,0.0166476,1719,0.1,1
app_10,7.21548,18465.1,7896.9,87.2523,877.026,4.10543e+10,1.00782,0.993116,9,0.0468122,2026,0.1,1
app_11,8.7645,20067.4,7910.3,78.721,790.451,3.92436e+10,1.00635,0.993116,10,0.0496755,1983,0.1,1
app_12,6.9913,20031.6,7921,64.8426,721.153,7.21248e+09,1.00905,0.993116,11,0.0100034,1805,0.1,1
app_13,8.11036,19424.4,7903.5,80.6603,878.693,1.7139e+10,1.01002,0.993116,9,0.0194983,2132,0.1,1
app_14,5.66882,18757.2,7896.2,87.0008,874.404,3.87903e+10,1.00819,0.993116,9,0.0443318,2054,0.1,1
app_15,6.3948,18721.6,7912.9,73.2768,788.111,1.30988e+10,1.00934,0.993116,10,0.0166229,1847,0.1,1
app_16,15.555,20036.7,7915.75,77.7904,394.318,5.44255e+10,1.00374,0.993116,20,0.137881,991,0.1,1
app_17,14.0514,19209.1,7947.3,45.1741,442.564,2.76491e+10,1.00314,0.993116,18,0.0625545,1061,0.1,1
app_18,10.7613,19268.2,7935.5,56.3966,528.344,3.95282e+10,1.00313,0.993116,15,0.074864,1273,0.1,1
app_19,1.73831,19844.6,7952,40.3724,398.495,2.23553e+10,1.00322,0.993116,20,0.0561691,988,0.1,1
app_2,5.93051,19044.9,7895.3,87.6758,876.409,4.23312e+10,1.00786,0.993116,9,0.0482682,2087,0.1,1
app_20,4.07754,19636.2,7952.2,39.9264,440.77,5.12463e+09,1.00536,0.993116,18,0.0116469,1080,0.1,1
app_21,6.01489,19976.8,7947.6,45.4904,418.347,3.61476e+10,1.00204,0.993116,19,0.0864774,1044,0.1,1
app_22,18.7259,19168.4,7949.5,43.9486,442.582,2.13681e+10,1.00365,0.993116,18,0.0482351,1060,0.1,1
app_23,6.15936,19155.1,7953.6,39.8487,397.664,1.90763e+10,1.00343,0.993116,20,0.0479305,953,0.1,1
app_24,3.35706,19393.8,7952.3,40.3467,397.981,2.11814e+10,1.00333,0.993116,20,0.0532197,964,0.1,1
app_25,6.11497,19216,7950.6,41.7599,468.176,2.47973e+09,1.0059,0.993116,17,0.00529857,1124,0.1,1
app_26,14.4991,19628.1,7908.2,83.9987,438.984,4.88556e+10,1.0054,0.993116,18,0.111288,1077,0.1,1
app_27,14.1138,20009.4,7944.3,46.5482,466.651,2.19152e+10,1.00424,0.993116,17,0.0470283,1167,0.1,1
app_28,20.0547,20036.1,7924.2,69.1757,343.271,5.18421e+10,1.003,0.993116,23,0.151143,861,0.1,1
app_29,14.0667,19211,7917.4,77.1747,395.096,5.02127e+10,1.00406,0.993116,20,0.127121,947,0.1,1
app_3,1.50804,19570.9,7921.3,67.5702,658.931,3.86043e+10,1.00504,0.993116,12,0.0586691,1615,0.1,1
app_30,14.5583,19532.1,7958.3,35.5494,362.545,1.54429e+10,1.00329,0.993116,22,0.0425425,883,0.1,1
app_31,60.4965,19964.3,7990.5,8.82588,76.158,5.91926e+09,1.00045,0.993116,106,0.077885,189,0.01,2
app_32,72.8726,19987.2,7946.1,53.722,81.3673,4.45038e+10,1.00118,0.993116,98,0.54943,203,0.01,2
app_33,82.3284,20073.9,7956.6,42.2469,97.8656,3.30731e+10,1.00129,0.993116,82,0.33748,243,0.01,2
app_34,35.5631,20182.8,7972.1,26.8948,84.5312,1.84091e+10,1.00119,0.993116,94,0.216577,213,0.01,2
app_35,7.28468,20014.4,7980.5,17.6493,85.4297,1.00088e+10,1.00119,0.993116,93,0.11775,214,0.01,2
app_36,40.2375,20061.5,7962.92,36.2766,78.2925,3.03546e+10,1.00084,0.993116,102,0.387697,195,0.01,2
app_37,15.5606,20186.1,7988.8,10.1811,97.1526,4.07956e+09,1.00089,0.993116,82,0.0420573,244,0.01,2
app_38,28.2025,19916,7937.7,60.9822,95.7772,4.98218e+10,1.00156,0.993116,83,0.518978,239,0.01,2
app_39,4.78148,19966.2,7990,8.19069,72.6088,4.5085e+09,1.00069,0.993116,110,0.062618,181,0.01,2
app_4,6.63752,20095.4,7914.3,72.3311,794.191,7.49302e+09,1.00987,0.993116,10,0.00942518,1990,0.1,1
app_40,3.29595,20035.7,7959.2,39.9303,85.0703,3.22605e+10,1.00107,0.993116,94,0.379536,212,0.01,2
app_41,78.2435,20010.3,7983.4,15.9149,77.86,8.23e+09,1.00105,0.993116,103,0.106883,193,0.01,2
app_42,36.3696,20176.4,7966.1,32.5338,77.1185,2.48228e+10,1.00114,0.993116,102,0.322373,195,0.01,2
app_43,94.81,20110,7966.8,30.7565,72.4589,2.2593e+10,1.00133,0.993116,110,0.313792,181,0.01,2
app_44,45.5303,20099.2,7991.3,7.94051,75.8887,3.14932e+09,1.00069,0.993116,104,0.0414384,192,0.01,2
app_45,62.4907,20019.8,7947.2,52.3846,76.0919,4.2746e+10,1.00126,0.993116,105,0.562447,189,0.01,2
app_46,118.609,20823,7947.7,48.988,9.29145,4.21642e+10,1.00127,0.993116,858,4.21642,24,0.001,3
app_47,11.7267,20646.9,7977.8,22.2,8.21896,1.88181e+10,1.00042,0.993116,990,2.35226,21,0.001,3
app_48,333.005,20714.9,7958.2,41.8,6.98776,3.57747e+10,1.00075,0.993116,1137,5.11067,18,0.001,3
app_49,610.648,21455.6,7993.7,3.56021,8.29645,2.11549e+09,1.00052,0.993116,942,0.235054,22,0.001,3
app_5,1.66817,18119.2,7887.2,96.4848,986.693,3.60304e+10,1.00969,0.993116,8,0.036505,2233,0.1,1
app_50,289.959,21142.2,7968.3,31.7,8.00298,2.61116e+10,1.0007,0.993116,986,3.26395,21,0.001,3
app_51,212.304,19976,7942.5,57.5,7.36971,4.92905e+10,1.00103,0.993116,1104,7.04149,18,0.001,3
app_52,753.129,21340.2,7946.3,53.7,9.2579,4.60729e+10,1.00095,0.993116,857,5.11921,24,0.001,3
app_53,901.888,21160.3,7931.2,63.5122,8.38695,5.1895e+10,1.00212,0.993116,959,6.48687,21,0.001,3
app_54,295.49,20856.2,7963.8,36.2,7.86252,3.11062e+10,1.00064,0.993116,1029,3.88827,20,0.001,3
app_55,195.816,21173.3,7975.5,24.5,7.63015,2.11968e+10,1.00041,0.993116,1024,2.6496,20,0.001,3
app_56,836.363,21031.4,7970,24.0588,8.9067,2.09708e+10,1.00113,0.993116,867,2.62135,23,0.001,3
app_57,863.341,21153,7967.4,32.6,9.11558,2.74235e+10,1.00065,0.993116,871,2.74235,23,0.001,3
app_58,382.501,21145.4,7966.4,33.6,8.66355,2.80955e+10,1.00069,0.993116,928,3.12172,22,0.001,3
app_59,206.729,20960.4,7989.6,10.4,7.21252,8.12893e+09,1.00028,0.993116,1056,1.16128,19,0.001,3
app_6,0.554733,20127.7,7909.5,77.0903,789.672,3.26912e+10,1.00728,0.993116,10,0.0413813,1992,0.1,1
app_60,260.528,20644.4,7963.5,32.5878,7.41185,2.82727e+10,1.00103,0.993116,1081,4.03895,19,0.001,3
app_7,10.5093,19157,7910.9,74.7649,788.585,1.63093e+10,1.00918,0.993116,10,0.0206971,1888,0.1,1
app_8,1.6969,19733.1,7897.6,86.6503,874.741,3.78889e+10,1.00813,0.993116,9,0.0433016,2158,0.1,1
app_9,4.0277,18320.4,7888.6,94.815,983.352,3.52069e+10,1.00962,0.993116,8,0.0357794,2256,0.1,1
