app_id,Tcomp,Tio,iter,witer,alpha_io,compute_size,io_size,mu,desyn_time
1,8.021209239315873,0.049483152385548484,2479,8.07069239170142,0.006131215264309771,8e9,49483152.38554849,10,7.284201965049477
2,3.788230855422168,0.022469052655817622,5249,3.8106999080779858,0.005896305979955899,3e9,22469052.65581762,10,3.072634814133557
3,9.243040885789327,0.041002668466155856,2155,9.284043554255483,0.004416466621094389,9e9,41002668.46615586,10,7.136373975755907
4,6.317310828598224,0.03859488649249733,3147,6.355905715090721,0.006072287447697994,6e9,38594886.49249733,10,0.3624094398876348
5,12.003943218191223,0.025378631053092123,1663,12.029321849244315,0.002109730820336012,12e9,25378631.053092122,10,5.18837557088706
6,13.145684914604608,0.042972754958018056,1517,13.188657669562627,0.003258311500281981,13e9,42972754.95801806,10,12.817288101106508
7,12.588167786910345,0.005980360217869123,1589,12.594148147128214,0.0004748523002909726,12e9,5980360.2178691225,10,10.413204002368996
8,10.71541200331107,0.010865801397243862,1865,10.726277804708314,0.0010130076430124068,10e9,10865801.397243863,10,1.8168090895878521
9,11.892598689977305,0.05890148536462358,1674,11.951500175341929,0.0049283758942787635,11e9,58901485.36462358,10,5.053347276691815
10,11.668232281349784,0.0544404406251578,1707,11.722672721974941,0.004644029729082645,11e9,54440440.6251578,10,9.6253323254772
11,16.698136045615325,0.026910725459628637,1196,16.725046771074954,0.0016090074860758688,16e9,26910725.459628638,10,16.257999313685723
12,9.52506051078127,0.0064261953035661115,2099,9.531486706084836,0.0006742070258004632,9e9,6426195.303566111,10,2.35975541986925
13,7.549899655937619,0.020370881995321534,2642,7.570270537932941,0.00269090541655646,7e9,20370881.995321535,10,2.3965918779498385
14,9.339681184530665,0.04402721211211717,2132,9.383708396642783,0.00469187769388367,9e9,44027212.11211717,10,3.5488478676949877
15,13.366853012669148,0.002251570274390364,1496,13.369104582943539,0.00016841593694037998,13e9,2251570.274390364,10,7.9455651293527545
16,7.137613557638435,0.03998213286903313,2787,7.177595690507468,0.005570407500370966,7e9,39982132.86903313,10,6.98378193712962
17,9.11284829895061,0.021084035713315477,2190,9.133932334663925,0.002308319674462669,9e9,21084035.713315476,10,2.8450442585226305
18,5.478557946000584,0.007228173215156682,3646,5.48578611921574,0.0013176184885950377,5e9,7228173.215156682,10,3.5253316528725773
19,16.40341191725725,0.004193195150790985,1219,16.407605112408042,0.0002555641193253691,16e9,4193195.150790985,10,6.355872749507993
20,7.264101409429884,0.01267953113814626,2749,7.27678094056803,0.0017424643179043517,7e9,12679531.138146259,10,3.8674121850636496
21,61.435680718461875,0.2881170477237924,325,61.72379776618567,0.004667843816338086,61e9,288117047.7237924,100,20.63703469524149
22,85.57739686451976,0.2780163207671815,233,85.85541318528693,0.0032381921005631507,85e9,278016320.7671815,100,23.412569746303287
23,103.0564858684345,0.3990033879190293,194,103.45548925635353,0.0038567638197557043,103e9,399003387.9190293,100,101.03980754070534
24,144.11794591005264,0.5793197629378237,139,144.69726567299045,0.004003667659118461,144e9,579319762.9378238,100,136.60647114792306
25,99.78668775431666,0.01996498063672589,201,99.80665273495339,0.00020003657160755513,99e9,19964980.63672589,100,15.20663759265337
26,97.82486518104817,0.581139811896595,204,98.40600499294476,0.0059055320042538054,97e9,581139811.896595,100,12.404971332146765
27,73.15006406324478,0.4185112889473308,272,73.56857535219211,0.005688723574485536,73e9,418511288.94733083,100,53.26782837867372
28,134.38044393846894,0.29276753042598214,149,134.67321146889492,0.002173910662950232,134e9,292767530.4259821,100,70.19577541313332
29,70.19254790805137,0.41117971291916666,284,70.60372762097053,0.005823767763743952,70e9,411179712.9191667,100,9.85904832230327
30,19.45637820596245,0.028962769362351856,1027,19.485340975324803,0.0014863876079473674,19e9,28962769.362351857,100,17.30057295236132
31,144.27734093950903,0.5233701531131166,139,144.80071109262215,0.0036144170091702214,144e9,523370153.1131166,100,24.561487668512175
32,92.85042501864405,0.39850894249702307,215,93.24893396114106,0.00427360319918607,92e9,398508942.49702305,100,20.22575944929321
33,63.958457542457914,0.23941197186622676,312,64.19786951432414,0.0037292821970175815,63e9,239411971.86622676,100,63.81728700288542
34,68.2374994384475,0.24926627031598664,293,68.48676570876349,0.0036396268350001935,68e9,249266270.31598663,100,53.685499387396575
35,80.24798844845922,0.4688975002104029,248,80.71688594866963,0.005809162416258097,80e9,468897500.2104029,100,17.71436103297673
36,102.15692272346344,0.2924275395376133,196,102.44935026300105,0.0028543620704954507,102e9,292427539.5376133,100,5.842830071602665
37,69.7291833118354,0.33876424076221945,286,70.06794755259762,0.004834796117125033,69e9,338764240.7622194,100,2.3071007421685974
38,115.47020021356803,0.7338673382743819,173,116.20406755184241,0.006315332619032288,115e9,733867338.2743819,100,50.62519388327131
39,163.26301955667438,0.26837550260332815,123,163.5313950592777,0.001641125256138407,163e9,268375502.60332814,100,11.48897468626892
40,96.39983023951024,0.6367727907304013,207,97.03660303024064,0.006562191697208901,96e9,636772790.7304013,100,16.519268268371196
41,841.4751876449783,5.142605191409639,24,846.6177928363879,0.006074293778046627,841e9,5142605191.409639,1000,564.0542068199439
42,1217.309348479039,4.574261371515855,17,1221.8836098505549,0.003743614641066607,1217e9,4574261371.515856,1000,877.1462247293248
43,1262.3013027070353,4.429426822577846,16,1266.7307295296132,0.003496739061680983,1262e9,4429426822.577847,1000,150.01298656800336
44,549.2591209068077,1.3494787272774944,37,550.6085996340852,0.002450885671190588,549e9,1349478727.2774944,1000,86.90537351839761
45,740.6284441754384,1.7927980408243767,27,742.4212422162627,0.0024147989562805987,740e9,1792798040.8243766,1000,518.2506947036585
46,1054.8139794466929,1.9740456571721554,19,1056.788025103865,0.001867967473399539,1054e9,1974045657.1721554,1000,1037.7058333917682
47,1426.3036791843876,1.170381827974118,15,1427.4740610123617,0.0008198970895093432,1426e9,1170381827.974118,1000,837.3119353624285
48,1125.6251429351616,3.667212279439039,18,1129.2923552146008,0.0032473542059373584,1125e9,3667212279.439039,1000,62.111089942889606
49,1011.3126020661068,0.27033109309934444,20,1011.5829331592062,0.0002672357196212195,1011e9,270331093.09934443,1000,196.20404489304562
50,1156.5956381813746,3.4777832390164294,18,1160.073421420391,0.002997899249133939,1156e9,3477783239.0164294,1000,57.184912135101385
51,963.5407273670018,2.8614278050630726,21,966.4021551720648,0.0029609079302535335,963e9,2861427805.0630727,1000,595.7860976136955
52,1053.7141707029634,2.3436192339873716,19,1056.0577899369507,0.002219214948575202,1053e9,2343619233.9873714,1000,948.6752114358977
53,1113.6577036947879,0.7775200156416525,18,1114.4352237104295,0.0006976807616085189,1113e9,777520015.6416525,1000,677.304694236857
54,1337.759800267089,7.724233085405337,15,1345.4840333524944,0.005740858229405474,1337e9,7724233085.405337,1000,275.76893757793636
55,784.3748308103266,3.9725502088510876,26,788.3473810191776,0.005039085946750231,784e9,3972550208.8510876,1000,597.1962627441867
56,872.2477624577378,5.728807890682007,23,877.9765703484198,0.0065250122658837735,872e9,5728807890.682007,1000,385.42755934157105
57,934.1382388562203,0.06966323679504266,22,934.2079020930153,7.456930800838652e-05,934e9,69663236.79504266,1000,770.202788252503
58,1343.761000479457,0.019172126249755065,15,1343.7801726057066,1.4267308478423702e-05,1343e9,19172126.249755066,1000,978.8087981859294
59,939.0458464384055,3.7622530982743636,22,942.80809953668,0.003990476004738643,939e9,3762253098.2743635,1000,640.9604599356687
60,1023.1630824299423,5.2088535794153055,20,1028.3719360093576,0.005065145592778903,1023e9,5208853579.415305,1000,200.9938157069116
