app_id,Tcomp,Tio,iter,witer,alpha_io,compute_size,io_size,mu,desyn_time
1,10.294146524925416,0.026504789289646852,1938,10.320651314215063,0.0025681314563103883,10e9,26504789.289646853,10,6.97538446161371
2,13.064028842154475,0.029501380052196456,1528,13.09353022220667,0.002253126509927935,13e9,29501380.052196458,10,13.041143048776124
3,10.85100681911745,0.009933989520492258,1842,10.860940808637942,0.0009146527631005538,10e9,9933989.520492258,10,6.100687675295574
4,8.220501009408254,0.004632928514467518,2432,8.225133937922722,0.0005632648111791813,8e9,4632928.514467518,10,3.7745138055738416
5,3.9338682480871245,0.0047113739912295945,5078,3.938579622078354,0.0011962114374479609,3e9,4711373.991229595,10,2.9623703785625253
6,8.235995229162006,0.007141688391157312,2427,8.243136917553164,0.000866379930672946,8e9,7141688.391157311,10,0.10961557562489524
7,10.453522624416719,0.005921777439142196,1913,10.45944440185586,0.0005661655831443085,10e9,5921777.439142196,10,2.0628070945836137
8,11.314464762875373,0.008821618525248159,1767,11.32328638140062,0.0007790687463083468,11e9,8821618.525248159,10,3.8404615894476692
9,9.54509230976225,0.04830015350541648,2085,9.593392463267666,0.005034731320578608,9e9,48300153.505416475,10,0.35187779237957534
10,5.560755661875883,0.00933632937610561,3591,5.570091991251989,0.0016761535340473047,5e9,9336329.376105608,10,1.5180134160949281
11,12.715882961253275,0.07552070224681039,1564,12.791403663500086,0.005904019936631866,12e9,75520702.24681039,10,6.203560767851099
12,8.613236164645501,0.033899201442237875,2313,8.647135366087738,0.003920281111266452,8e9,33899201.44223788,10,3.232674036683311
13,13.025275659567601,0.07434032264113813,1527,13.09961598220874,0.005675000148256525,13e9,74340322.64113814,10,6.463380676917471
14,11.430497488542938,0.05230136012083381,1742,11.482798848663773,0.004554757146766531,11e9,52301360.120833814,10,10.12079990556706
15,8.54545179274678,0.031063966249118235,2332,8.576515758995898,0.0036219797318666706,8e9,31063966.249118235,10,4.351348118814078
16,7.7087070559853075,0.04988882578150752,2578,7.758595881766815,0.006430135883059638,7e9,49888825.78150752,10,5.517766960520961
17,14.92913004565636,0.04994553552603002,1336,14.97907558118239,0.003334353662570111,14e9,49945535.52603002,10,10.117961345112736
18,2.93559475772181,0.010105773812144619,6790,2.945700531533955,0.0034306860809378,2e9,10105773.812144618,10,0.17543707946205117
19,11.390303064836864,0.07753369040322292,1745,11.467836755240087,0.006760969139868062,11e9,77533690.40322292,10,10.510035223739015
20,15.45211875096778,0.07732472454314925,1288,15.52944347551093,0.004979233458371257,15e9,77324724.54314925,10,7.7440205643436935
21,136.26009921441695,0.49583209964751807,147,136.75593131406447,0.0036256716245003182,136e9,495832099.64751804,100,95.96565864226434
22,161.51981080003281,0.23720463309695544,124,161.75701543312977,0.0014664256289707302,161e9,237204633.09695545,100,93.44882614514523
23,148.23365601770735,0.6674648815992502,135,148.9011208993066,0.004482604815652254,148e9,667464881.5992502,100,100.69771412912054
24,113.48807700691997,0.14733858301878508,177,113.63541558993875,0.0012965903477703336,113e9,147338583.0187851,100,7.512766081460117
25,108.43900646859618,0.40878692309735504,184,108.84779339169353,0.0037555830059532534,108e9,408786923.097355,100,91.83636178812569
26,57.512140172416274,0.35018448727609647,346,57.86232465969237,0.00605202935304878,57e9,350184487.27609646,100,40.00410775737684
27,96.30890136641558,0.5552718981749561,207,96.86417326459053,0.005732479609960602,96e9,555271898.1749562,100,48.84602809421387
28,103.42884734493222,0.5174639282703214,193,103.94631127320254,0.004978184621773338,103e9,517463928.27032137,100,28.584534939531277
29,93.39509183984451,0.0923699916312307,214,93.48746183147574,0.000988046844161205,93e9,92369991.63123071,100,77.44486193699807
30,119.29365195378736,0.3606278149551332,168,119.6542797687425,0.0030139148858872714,119e9,360627814.9551332,100,18.03075103879724
31,79.31689168548536,0.09116839501357231,252,79.40806008049893,0.0011481000155544852,79e9,91168395.0135723,100,0.8118132021574226
32,62.98667931985002,0.06770297353742002,318,63.05438229338744,0.0010737235236466679,62e9,67702973.53742002,100,42.0093103834937
33,68.34213504929474,0.38431020204458133,292,68.72644525133933,0.005591882435343794,68e9,384310202.04458135,100,45.608742076557895
34,149.2271827500776,0.8529149033854277,134,150.080097653463,0.0056830646882627955,149e9,852914903.3854277,100,130.74776864322482
35,95.50498490862647,0.09997476970068345,210,95.60495967832715,0.0010457069386050576,95e9,99974769.70068344,100,40.1233235973304
36,64.04437530318955,0.19789556468898822,312,64.24227086787855,0.0030804571820940564,64e9,197895564.6889882,100,52.16571031473802
37,119.6878411990891,0.4197571310154378,167,120.10759833010455,0.0034948424317150562,119e9,419757131.01543784,100,37.20417477869398
38,75.23899993396753,0.18973794138270855,266,75.42873787535024,0.002515459581151417,75e9,189737941.38270855,100,6.475804986696971
39,125.19091048951316,0.1301268193346678,160,125.32103730884782,0.0010383477676934349,125e9,130126819.3346678,100,103.09829956664571
40,111.29508495786455,0.5692479405200143,179,111.86433289838456,0.0050887349503716105,111e9,569247940.5200143,100,90.5109576962706
41,730.8853852342452,4.685867449237686,28,735.5712526834828,0.006370378711977778,730e9,4685867449.237686,1000,340.40270403338013
42,876.3191835551614,5.920595021822469,23,882.2397785769839,0.006710868366615868,876e9,5920595021.822469,1000,541.81083967133
43,983.9796353997793,3.2251171476848546,21,987.2047525474642,0.0032669181741300348,983e9,3225117147.6848545,1000,238.15034523127974
44,362.37650592913104,0.2835399303396197,56,362.66004585947064,0.0007818339339467528,362e9,283539930.3396197,1000,204.39544416886494
45,1340.6581972426427,4.377107134598947,15,1345.0353043772416,0.003254269326875082,1340e9,4377107134.598947,1000,509.426416754502
46,1136.1341019276235,1.310464165167646,18,1137.444566092791,0.0011521125549609776,1136e9,1310464165.1676462,1000,772.5211548947689
47,1016.4656566381776,0.18219365070850327,20,1016.6478502888862,0.00017921018635580838,1016e9,182193650.70850328,1000,35.18631466523415
48,1222.4828263875272,6.170050997587227,17,1228.6528773851144,0.005021801609840091,1222e9,6170050997.587227,1000,1027.2750124323954
49,1346.4172780547283,3.0036373708962345,15,1349.4209154256246,0.002225871361975184,1346e9,3003637370.8962345,1000,496.4259151795592
50,963.7368047827439,5.633094759553694,21,969.3698995422976,0.005811088999373143,963e9,5633094759.553695,1000,584.6907322489079
51,1654.7223178035563,10.229128793703376,13,1664.9514465972597,0.00614380005771888,1654e9,10229128793.703377,1000,477.19989996554466
52,1471.1441390373607,6.457316954868982,14,1477.6014559922296,0.0043701344017239106,1471e9,6457316954.868981,1000,829.393279941485
53,1773.1042184860828,1.457997873629331,12,1774.5622163597122,0.0008216098935207961,1773e9,1457997873.629331,1000,1624.7874647396961
54,869.1576821274786,0.40740168327067816,24,869.5650838107492,0.00046851200773298805,869e9,407401683.27067816,1000,56.8016665107492
55,797.4139112246403,3.3779349361346083,25,800.7918461607749,0.004218243420346241,797e9,3377934936.1346083,1000,713.677507381045
56,818.705928850148,3.749701602282118,25,822.4556304524301,0.004559153665492471,818e9,3749701602.282118,1000,813.6294201488872
57,828.2115712237978,5.367057136153082,24,833.5786283599509,0.0064385733433601315,828e9,5367057136.153082,1000,200.29857794280375
58,518.6812271987176,2.1284260888608166,39,520.8096532875784,0.004086763898144476,518e9,2128426088.8608167,1000,64.55372919511035
59,679.9560198189437,1.7093845853319116,30,681.6654044042756,0.002507659291915783,679e9,1709384585.3319116,1000,644.7165106863416
60,1104.321442108839,1.581490018074563,19,1105.9029321269136,0.0014300441495647205,1104e9,1581490018.074563,1000,435.64871342388346
