app_id,Tcomp,Tio,iter,witer,alpha_io,compute_size,io_size,mu,desyn_time
1,6.2292276462416485,0.013700292308794182,3204,6.242927938550443,0.002194529945507473,6e9,13700292.308794182,10,5.511061868110026
2,11.08302950806791,0.05813852973054561,1796,11.141168037798455,0.0052183513912814165,11e9,58138529.73054561,10,1.901531568846228
3,10.478753442106184,0.032053304730799946,1903,10.510806746836984,0.0030495570418936436,10e9,32053304.730799947,10,5.3750802851412605
4,9.970550366216113,0.06122881706156938,1994,10.031779183277683,0.006103485328268967,9e9,61228817.06156938,10,2.008032613935696
5,11.823102073651286,0.026183041002526886,1688,11.849285114653814,0.0022096726299670817,11e9,26183041.002526887,10,9.062338598779421
6,4.581070366806186,0.012376793463899161,4355,4.593447160270085,0.002694445594356512,4e9,12376793.463899162,10,4.39367788086717
7,12.199670277048563,0.041424687244886814,1634,12.241094964293449,0.0033840671415196256,12e9,41424687.244886816,10,6.918614239894206
8,12.505890899054345,0.0038100727189539154,1599,12.509700971773299,0.00030456944794690985,12e9,3810072.7189539154,10,0.00744787748324313
9,9.640667796406003,0.026633566520849385,2069,9.667301362926853,0.0027550156471780724,9e9,26633566.520849384,10,7.906265322019278
10,10.687906511201462,0.025758126476013787,1867,10.713664637677475,0.002404231170857115,10e9,25758126.476013787,10,10.457311854241091
11,9.016525917287154,0.005143185865755366,2217,9.02166910315291,0.0005700924969591176,9e9,5143185.865755365,10,6.49699648695207
12,4.6886411331013305,0.024730548188710098,4244,4.713371681290041,0.00524689115583208,4e9,24730548.188710097,10,1.1041536595563817
13,9.887243311106204,0.06040297297235292,2011,9.947646284078557,0.006072086928646559,9e9,60402972.97235292,10,1.3873135864830375
14,8.964372488122812,0.05398877825693963,2218,9.018361266379753,0.005986539756198122,8e9,53988778.25693963,10,2.7144707691345835
15,7.170129895677956,0.024849442870401,2780,7.194979338548357,0.0034537198372851154,7e9,24849442.870401002,10,2.118137669507241
16,9.166995657814287,0.011672376632908493,2179,9.178668034447195,0.0012716852368015166,9e9,11672376.632908493,10,4.740542073338597
17,9.91669497077056,0.05049058932366394,2007,9.967185560094224,0.005065681683083527,9e9,50490589.323663935,10,2.693156628467613
18,16.595942158312788,0.04714100839455296,1202,16.643083166707342,0.002832468474882909,16e9,47141008.39455296,10,1.5869727929932378
19,4.954184219689147,0.00888862419530845,4030,4.963072843884455,0.0017909517903330987,4e9,8888624.195308449,10,3.839312102762273
20,9.9577661351856,0.03586405933400719,2002,9.993630194519609,0.003588691860308642,9e9,35864059.33400719,10,3.11835189724435
21,70.1877633208081,0.09648869707250007,285,70.2842520178806,0.0013728352269858823,70e9,96488697.07250008,100,2.4485000164312054
22,162.05135982547077,0.8286259724488042,123,162.87998579791957,0.005087340647713809,162e9,828625972.4488043,100,149.91400159024522
23,104.65546804125319,0.48605137688829736,191,105.14151941814148,0.004622830063500417,104e9,486051376.8882974,100,63.50733010250595
24,97.1626617964987,0.18654630108251818,206,97.34920809758121,0.0019162590505669786,97e9,186546301.0825182,100,19.20392333292282
25,79.7523497370434,0.20225838684889316,251,79.9546081238923,0.0025296651637074768,79e9,202258386.84889317,100,12.513434952040019
26,87.15350879029921,0.3785175404642172,229,87.53202633076343,0.0043243319768913645,87e9,378517540.4642172,100,85.28064558824586
27,138.78484890622926,0.171885042602316,144,138.95673394883158,0.0012369680670935293,138e9,171885042.602316,100,127.33330354317614
28,155.75511932817201,0.30337062662508646,129,156.0584899547971,0.001943954646190405,155e9,303370626.6250865,100,15.08097745971328
29,95.95762264448193,0.45619641118753107,208,96.41381905566946,0.00473164962923129,95e9,456196411.18753105,100,34.64517556756891
30,116.30043298144976,0.5315822312984039,172,116.83201521274816,0.004549970573822646,116e9,531582231.29840386,100,102.57918056785059
31,75.54134104318861,0.20168097246856623,265,75.74302201565717,0.0026627003663370584,75e9,201680972.46856624,100,61.985692556964935
32,125.98958695841608,0.5769534143255519,159,126.56654037274164,0.004558498736130494,125e9,576953414.3255519,100,41.816861854694714
33,91.64261064323965,0.027844520541200807,219,91.67045516378084,0.00030374585237362525,91e9,27844520.54120081,100,54.6470824190192
34,116.52173513182855,0.6991537259753796,171,117.22088885780393,0.005964412425020046,116e9,699153725.9753796,100,74.58511644154522
35,106.41113319938053,0.5586903784884913,187,106.96982357786902,0.005222878376365564,106e9,558690378.4884913,100,93.32930331898497
36,130.40312928025395,0.6828009033417297,153,131.08593018359568,0.005208803892114248,130e9,682800903.3417298,100,104.68794452159354
37,68.18870913367165,0.11458122644316114,293,68.30329036011481,0.001677535969922614,68e9,114581226.44316114,100,46.22815614414181
38,75.78602506044692,0.3135875271606067,263,76.09961258760752,0.004120750638508152,75e9,313587527.16060674,100,43.053380187277575
39,112.83850629092834,0.548145186094906,177,113.38665147702324,0.0048343008542410535,112e9,548145186.0949061,100,8.745428865571055
40,71.2832367072224,0.11780626951515348,281,71.40104297673756,0.0016499236510247439,71e9,117806269.51515348,100,19.90847172280165
41,1692.6850288824326,8.04993368687734,12,1700.7349625693098,0.004733208797399132,1692e9,8049933686.87734,1000,990.6884891452797
42,728.2429911576988,2.868876570352109,28,731.1118677280509,0.003923991248107102,728e9,2868876570.352109,1000,147.92532791783253
43,446.4277697065495,0.339698712112654,45,446.76746841866213,0.0007603479127856398,446e9,339698712.11265403,1000,413.99570197120977
44,377.8525288749629,0.36076086729749535,53,378.2132897422604,0.0009538556076211435,377e9,360760867.29749537,1000,351.344204926134
45,1763.8512911810435,8.901601837220422,12,1772.7528930182639,0.005021343850165536,1763e9,8901601837.220423,1000,14.743951778809407
46,503.74179922491817,0.833142002028696,40,504.57494122694686,0.0016511759383111475,503e9,833142002.0286961,1000,338.5702334848485
47,1089.3460152747027,3.449424963433984,19,1092.7954402381367,0.00315651478439762,1089e9,3449424963.4339843,1000,621.6503965802069
48,1022.0022034758058,0.5797079094329028,20,1022.5819113852388,0.00056690608642549,1022e9,579707909.4329028,1000,155.8439742159306
49,953.2517379115286,4.981300569250752,21,958.2330384807793,0.005198422898409247,953e9,4981300569.250752,1000,765.4802261607335
50,1124.6518987101663,4.39513956272233,18,1129.0470382728886,0.0038927869377750703,1124e9,4395139562.72233,1000,852.1855429281129
51,957.2701486951128,3.188834524955818,21,960.4589832200686,0.0033201152580871482,957e9,3188834524.9558177,1000,874.1119404632585
52,804.5988158592232,2.862955508331052,25,807.4617713675543,0.0035456235946405472,804e9,2862955508.331052,1000,235.59924713463496
53,458.0897641905312,0.29735126423990504,44,458.3871154547711,0.0006486902755652272,458e9,297351264.23990506,1000,210.7300610015468
54,1446.4396469616684,3.899241388853166,14,1450.3388883505215,0.0026885036457153784,1446e9,3899241388.853166,1000,506.3469448133913
55,944.0812582075514,4.940883469215403,22,949.0221416767668,0.005206288928607789,944e9,4940883469.215403,1000,729.4390376688818
56,886.7277065872678,4.811650171172286,23,891.53935675844,0.005397013754577285,886e9,4811650171.172286,1000,835.0358651184777
57,1038.9874400968683,4.180563603286689,20,1043.168003700155,0.004007565021605416,1038e9,4180563603.2866893,1000,289.1226413895614
58,1240.510833671087,3.9365367166492,17,1244.4473703877363,0.0031632809955013854,1240e9,3936536716.6492,1000,1012.2876486195706
59,491.7887765446925,2.3907968668055446,41,494.17957341149804,0.004837911146956197,491e9,2390796866.8055444,1000,156.77694633498075
60,1061.4398995841887,2.7779949631829957,19,1064.2178945473715,0.0026103629504975767,1061e9,2777994963.182996,1000,263.8047889778492
