app_id,Tcomp,Tio,iter,witer,alpha_io,compute_size,io_size,mu,desyn_time
1,3.162561145814828,0.016249163357451493,6292,3.1788103091722792,0.005111712174383429,3e9,16249163.357451493,10,2.6157694098808792
2,13.579999609276236,0.03609029421273047,1469,13.616089903488966,0.0026505622736438268,13e9,36090294.21273047,10,12.896625076578944
3,9.31698802629922,0.033700045820947364,2139,9.350688072120168,0.0036040177536695696,9e9,33700045.820947364,10,4.207236308354607
4,12.566203095813702,0.02521823412849064,1589,12.591421329942193,0.0020028107604120986,12e9,25218234.12849064,10,0.020596972885676263
5,10.77372764647094,0.05076406365391384,1848,10.824491710124853,0.004689741099476375,10e9,50764063.65391384,10,10.429210283099552
6,7.401249959573816,0.015489848323341632,2697,7.416739807897158,0.0020884982788324908,7e9,15489848.323341632,10,7.322256483827724
7,14.492634868252765,0.052258577093263064,1376,14.544893445346027,0.0035929157741602016,14e9,52258577.09326307,10,9.664428068657863
8,4.90540394277314,0.00862923634818842,4070,4.914033179121328,0.0017560394962028729,4e9,8629236.348188419,10,4.6636199275915615
9,12.470062322211147,0.055101471457076175,1597,12.525163793668224,0.004399261547775632,12e9,55101471.45707618,10,1.8262949554052756
10,10.932669615103066,0.06388715050083227,1819,10.996556765603898,0.0058097413456423665,10e9,63887150.50083227,10,10.225451193295207
11,8.329024213766504,0.0061920847182751,2400,8.335216298484779,0.0007428823076133886,8e9,6192084.7182751,10,7.553582947510615
12,6.418698649891399,0.028973394519737336,3102,6.447672044411137,0.004493621003079952,6e9,28973394.519737337,10,4.395783686370018
13,11.119288958615686,0.06354456559847342,1789,11.182833524214159,0.005682331357332696,11e9,63544565.59847342,10,3.697929234150834
14,5.840095075472233,0.0010939499599415957,3424,5.8411890254321746,0.00018728206794517443,5e9,1093949.9599415958,10,5.537279958592872
15,5.135665833422422,0.030659622604913683,3872,5.1663254560273355,0.005934512423940382,5e9,30659622.60491368,10,4.621288665020196
16,8.464552761295051,0.02101699373471162,2357,8.485569755029763,0.002476792288726864,8e9,21016993.73471162,10,6.381260736392905
17,11.554455883092935,0.03219508025304741,1727,11.586650963345981,0.002778635548347453,11e9,32195080.25304741,10,6.759044570825094
18,3.185083524772189,0.004673878418783569,6271,3.1897574031909723,0.0014652770816074947,3e9,4673878.418783569,10,2.9487638930573663
19,11.417638930063815,0.03759777415301194,1746,11.455236704216826,0.0032821472941865697,11e9,37597774.15301194,10,7.458487427836955
20,7.2327240137345505,0.04144701077313601,2750,7.2741710245076865,0.005697832871057789,7e9,41447010.77313601,10,1.5613238719441092
21,77.79276829428369,0.014894611116121455,258,77.80766290539981,0.00019142858890686172,77e9,14894611.116121454,100,7.73528167660903
22,66.67636373169226,0.11247526968692281,300,66.78883900137919,0.0016840428935229763,66e9,112475269.68692282,100,55.649233886911595
23,116.08393142963887,0.1298603875162005,173,116.21379181715507,0.001117426645199877,116e9,129860387.5162005,100,30.483876011139802
24,67.86530724125018,0.232468273937509,294,68.09777551518769,0.0034137425514826417,67e9,232468273.937509,100,8.426862702733745
25,137.32381953501786,0.617962908863228,145,137.9417824438811,0.004479882004675662,137e9,617962908.863228,100,5.90760416204916
26,71.67878326688876,0.13211447854289915,279,71.81089774543166,0.0018397552835398687,71e9,132114478.54289915,100,63.906108472784275
27,132.057595194576,0.577436019196745,151,132.63503121377275,0.004353570952654809,132e9,577436019.196745,100,109.19093578960718
28,74.44832139971176,0.1570368929422564,269,74.60535829265402,0.0021049009955323673,74e9,157036892.9422564,100,1.7961648745563314
29,77.54376453972387,0.4940136746723958,257,78.03777821439627,0.006330442587885736,77e9,494013674.6723958,100,73.2264115451955
30,92.43407688538211,0.5147857287633401,216,92.94886261414545,0.005538375772281879,92e9,514785728.76334006,100,83.07105123706395
31,102.96948309859806,0.5630701972213731,194,103.53255329581944,0.005438581193033413,102e9,563070197.2213731,100,33.091184311451435
32,122.52205062109078,0.5245762339518426,163,123.04662685504263,0.004263231324251005,122e9,524576233.9518426,100,115.19684679456842
33,102.7150703747585,0.6004338348348756,194,103.31550420959337,0.005811652756558122,102e9,600433834.8348756,100,33.86618715198882
34,80.96553457196771,0.0015597792702038897,248,80.96709435123792,1.9264360203387266e-05,80e9,1559779.2702038898,100,3.2682835379648254
35,136.44803857888866,0.8410579473662522,146,137.2890965262549,0.006126181675362762,136e9,841057947.3662522,100,0.3066436161895011
36,101.14834094505483,0.42786051150239646,197,101.57620145655723,0.004212212165517792,101e9,427860511.50239646,100,66.0518568265193
37,79.00419149714932,0.23824722661283365,253,79.24243872376215,0.0030065610101092373,79e9,238247226.61283365,100,1.2938624444111748
38,104.53233596309977,0.08944872830091015,192,104.62178469140068,0.0008549723039494501,104e9,89448728.30091015,100,77.00233306531855
39,74.40058362725613,0.12694835383986902,269,74.52753198109599,0.0017033752556312968,74e9,126948353.83986902,100,24.56054108653187
40,72.63680127690807,0.21854207365639644,275,72.85534335056447,0.0029996711786096225,72e9,218542073.65639645,100,43.86270635901763
41,638.3287387469796,2.8043677135747416,32,641.1331064605544,0.004374080335761417,638e9,2804367713.5747414,1000,147.43430774480655
42,879.7510749551535,5.882474217102296,23,885.6335491722558,0.006642108604174112,879e9,5882474217.102296,1000,699.2234041510912
43,601.4038764584934,3.9784868188577924,34,605.3823632773513,0.00657185782109592,601e9,3978486818.8577924,1000,229.0299082671832
44,1365.6934077657584,3.755970638243871,15,1369.4493784040023,0.0027426867305027315,1365e9,3755970638.243871,1000,221.85375652501438
45,1099.934889611646,2.5891251394829706,19,1102.524014751129,0.0023483616727091516,1099e9,2589125139.4829707,1000,382.99708739359374
46,1207.0241490353583,3.98089148141133,17,1211.0050405167697,0.0032872625201564583,1207e9,3980891481.41133,1000,615.0909235995533
47,1256.948171577089,7.682094377062953,16,1264.6302659541518,0.006074577355830468,1256e9,7682094377.062953,1000,917.7371544670749
48,1081.461445240422,3.591315697055714,19,1085.0527609374778,0.0033098074364170484,1081e9,3591315697.0557137,1000,89.6736005252905
49,937.8802222893045,0.9154747986450277,22,938.7956970879495,0.000975158707570496,937e9,915474798.6450276,1000,211.59317556387361
50,578.3176737900523,0.9195854866641825,35,579.2372592767165,0.0015875799975513538,578e9,919585486.6641825,1000,15.639682992702847
51,1104.051458535549,3.615502283360683,19,1107.6669608189097,0.0032640698073071574,1104e9,3615502283.360683,1000,516.0132276433457
52,1038.1792906951268,3.990378831723968,20,1042.1696695268508,0.0038289147615815917,1038e9,3990378831.723968,1000,690.5284563127145
53,1404.1363153245607,3.9126379768821753,15,1408.048953301443,0.0027787655874522256,1404e9,3912637976.8821754,1000,201.87507302509266
54,1918.8504843340208,4.049148022194895,11,1922.8996323562158,0.0021057511032093186,1918e9,4049148022.194895,1000,1060.1016753183733
55,683.4360506971528,1.0380653410089677,30,684.4741160381618,0.0015165881611673567,683e9,1038065341.0089678,1000,242.45379939149132
56,955.9566386059427,2.3478213348710124,21,958.3044599408137,0.0024499743380261606,955e9,2347821334.871012,1000,815.7584445697719
57,1297.481151056697,5.347486479874942,16,1302.828637536572,0.004104520215326347,1297e9,5347486479.874943,1000,194.01717041655004
58,1025.055076352397,6.664892280243891,20,1031.719968632641,0.006459981858330226,1025e9,6664892280.243892,1000,309.25242566375056
59,881.6040850484093,0.10080563517600352,23,881.7048906835853,0.00011433035728978317,881e9,100805635.17600352,1000,706.7793626112477
60,1192.906962959079,1.8252358463783849,17,1194.7321988054573,0.001527736381595249,1192e9,1825235846.3783848,1000,506.88392523217425
