app_id,start_app,end_app,effective_cpu,effective_io,effective_iter,total_bytes,stretch,utilization,Tcomp,Tio,iterations,priority,group_id
app_1,3.33219,19601.1,7839.2,144.159,1565.4,1.67018e+10,1.01834,0.992921,5,0.0106721,3835,0.1,1
app_10,10.9531,19349.9,7920.7,69.5317,719.683,2.55242e+10,1.00677,0.992921,11,0.0354503,1739,0.1,1
app_11,11.4476,19216.3,7942.1,50.8387,567.937,2.66645e+09,1.00695,0.992921,14,0.00469445,1364,0.1,1
app_12,1.40395,19209.5,7862.4,120.461,1310.96,1.9321e+10,1.01501,0.992921,6,0.0147376,3145,0.1,1
app_13,1.97235,18696.9,7909.2,79.937,880.785,4.62524e+09,1.01089,0.992921,9,0.00524999,2056,0.1,1
app_14,4.32977,18979.8,7854.8,129.685,1310.58,5.31871e+10,1.01164,0.992921,6,0.0405699,3112,0.1,1
app_15,1.05073,18360.3,7913.7,76.2064,791.295,2.46683e+10,1.00776,0.992921,10,0.0311468,1816,0.1,1
app_16,10.8495,18825.5,7925.8,64.3805,720.974,3.41583e+09,1.00893,0.992921,11,0.00473763,1693,0.1,1
app_17,10.6101,18712.4,7909,82.4286,791.662,5.70559e+10,1.00426,0.992921,10,0.0720403,1848,0.1,1
app_18,3.60105,20136.4,7918.4,72.3468,795.449,5.61355e+09,1.00959,0.992921,10,0.00706107,1995,0.1,1
app_19,9.59199,18806.6,7920.1,69.0776,720.563,2.34098e+10,1.00711,0.992921,11,0.0325136,1693,0.1,1
app_2,1.00006,17753.3,7881.2,105.417,1125.77,2.24931e+10,1.01219,0.992921,7,0.0199761,2495,0.1,1
app_20,6.25067,19058,7887.2,100.019,986.011,5.43631e+10,1.00736,0.992921,8,0.055135,2347,0.1,1
app_21,39.7985,20021.4,7945.9,50.6316,146.665,4.15564e+10,1.00157,0.992921,54,0.284633,368,0.01,2
app_22,13.1576,19970,7977.8,19.0031,194.785,4.78893e+08,1.00272,0.992921,41,0.00245586,486,0.01,2
app_23,19.3364,19909.5,7989.1,8.13182,82.8041,1.03945e+09,1.00123,0.992921,97,0.0125235,205,0.01,2
app_24,91.0053,20101.9,7944.8,53.8951,58.3678,4.73534e+10,1.00098,0.992921,136,0.816438,146,0.01,2
app_25,17.9756,19904.6,7974.4,23.7348,104.503,1.81659e+10,1.00093,0.992921,76,0.173009,261,0.01,2
app_26,43.7689,20161.4,7944.3,54.0699,74.5762,4.65092e+10,1.00115,0.992921,107,0.620123,186,0.01,2
app_27,16.0226,20066.6,7954.3,41.3883,199.646,3.05543e+10,1.0019,0.992921,40,0.152772,498,0.01,2
app_28,66.4229,20132.9,7957.9,40.9161,90.7254,3.3654e+10,1.00106,0.992921,88,0.369824,227,0.01,2
app_29,48.3257,20055.1,7939.1,56.6792,158.695,4.73484e+10,1.0017,0.992921,50,0.297789,397,0.01,2
app_3,2.1552,19036.1,7877.9,108.582,1124.53,3.53074e+10,1.01097,0.992921,7,0.0314123,2676,0.1,1
app_30,42.0275,19869.9,7932.2,64.9622,90.3818,5.63794e+10,1.00143,0.992921,89,0.619554,222,0.01,2
app_31,13.6171,19742,7964,32.2112,140.463,2.46418e+10,1.00142,0.992921,57,0.174765,345,0.01,2
app_32,14.535,19828.1,7931,64.0171,104.438,5.43965e+10,1.00183,0.992921,76,0.523043,259,0.01,2
app_33,54.251,20163.6,7953.7,44.1339,70.9838,3.7395e+10,1.00111,0.992921,112,0.52669,177,0.01,2
app_34,9.06405,19875.4,7982.9,14.7796,72.8778,9.66311e+09,1.00093,0.992921,110,0.132371,181,0.01,2
app_35,99.2723,20128.2,7990.7,7.17445,74.6134,1.1878e+08,1.00115,0.992921,106,0.00158374,188,0.01,2
app_36,85.1325,19929.4,7987.3,8.88709,70.1232,6.07397e+09,1.00083,0.992921,114,0.0855489,174,0.01,2
app_37,105.588,20139.1,7935,63.1887,59.2011,5.58937e+10,1.00114,0.992921,134,0.94735,148,0.01,2
app_38,69.0002,19940.3,7964.1,33.7023,112.585,2.39946e+10,1.00149,0.992921,71,0.212342,278,0.01,2
app_39,54.9754,20158.7,7968.8,31.1516,101.575,2.31848e+10,1.001,0.992921,78,0.227302,254,0.01,2
app_4,1.02729,19346.2,7900.8,88.3903,877.276,4.42798e+10,1.00691,0.992921,9,0.0504901,2121,0.1,1
app_40,73.2592,19928.2,7983.5,14.4918,72.6439,1.00453e+10,1.00081,0.992921,110,0.139518,181,0.01,2
app_41,51.9675,20344.9,7983.1,15.9483,10.2304,1.31285e+10,1.00047,0.992921,783,1.31285,26,0.001,3
app_42,354.324,20379,7991.2,7.98766,9.1881,6.24424e+09,1.00032,0.992921,884,0.693804,23,0.001,3
app_43,59.8602,20540.2,7985.5,6.72912,12.9998,5.2728e+09,1.00115,0.992921,619,0.4056,33,0.001,3
app_44,449.475,22348.9,7993.4,6.36192,7.03141,5.32067e+09,1.00016,0.992921,1107,0.760096,19,0.001,3
app_45,506.149,21262.6,7952.8,47.2,6.88299,4.12491e+10,1.00074,0.992921,1119,5.89272,18,0.001,3
app_46,971.826,21147.8,7997.3,2.7,8.25692,1.72997e+09,1.00012,0.992921,1020,0.192218,20,0.001,3
app_47,447.301,20264,7941.3,58.7,8.07669,4.98711e+10,1.0011,0.992921,996,6.23389,20,0.001,3
app_48,559.354,21073.4,7983.6,16.4,9.45934,1.39725e+10,1.0003,0.992921,859,1.5525,24,0.001,3
app_49,135.537,20845.3,7940.2,59.8,8.0514,4.80197e+10,1.00147,0.992921,969,6.00247,21,0.001,3
app_5,2.31103,18655.4,7889.1,100.24,989.403,5.43365e+10,1.00712,0.992921,8,0.0549408,2305,0.1,1
app_50,229.528,20391.9,7982.7,17.3,7.64115,1.43345e+10,1.00037,0.992921,1085,2.04778,19,0.001,3
app_51,259.644,20824.9,7976.6,18.8057,11.2109,1.6318e+10,1.00089,0.992921,703,1.48346,29,0.001,3
app_52,269.611,20311.5,7964.2,35.8,6.37952,3.03972e+10,1.00068,0.992921,1254,4.34246,16,0.001,3
app_53,290.315,20254.3,7979.8,20.2,5.6842,1.7952e+10,1.00028,0.992921,1444,2.99201,14,0.001,3
app_54,482.036,20366,7960.5,38.8831,10.7534,3.4185e+10,1.00066,0.992921,741,3.10772,27,0.001,3
app_55,29.5531,20588.7,7959.5,40.5,5.13475,3.60702e+10,1.00055,0.992921,1572,7.21403,13,0.001,3
app_56,199.839,21443.9,7976.7,18.0132,7.24068,1.47077e+10,1.00108,0.992921,1099,2.1011,19,0.001,3
app_57,886.767,21716.2,7941.5,58.5,6.87211,5.00511e+10,1.00106,0.992921,1121,7.15016,18,0.001,3
app_58,461.088,20603.2,7959.6,33.0326,6.42176,2.79512e+10,1.00156,0.992921,1268,4.65854,16,0.001,3
app_59,48.5537,20473.7,7945.5,53.8978,8.90407,4.62717e+10,1.00103,0.992921,893,5.1413,23,0.001,3
app_6,4.58372,19278.4,7926.6,65.1001,719.224,4.38095e+08,1.0092,0.992921,11,0.000608465,1733,0.1,1
app_60,822.379,21104.2,7936.2,63.8,7.3437,5.46325e+10,1.00115,0.992921,1112,7.80465,18,0.001,3
app_7,3.83482,18965.9,7903.7,87.0261,878.383,3.86624e+10,1.00726,0.992921,9,0.0439845,2084,0.1,1
app_8,6.40218,18646.4,7917.6,72.3285,791.017,7.88896e+09,1.0094,0.992921,10,0.0099734,1844,0.1,1
app_9,9.68487,19327.6,7930.8,62.7021,609.059,4.05589e+10,1.00359,0.992921,13,0.0665991,1472,0.1,1
