app_id,start_app,end_app,effective_cpu,effective_io,effective_iter,total_bytes,stretch,utilization,Tcomp,Tio,iterations,priority,group_id
app_1,2.21546,19009.1,7884.8,115.2,1127.35,3.7611e+10,1.00979,0.99295,7,0.0333727,2679,1,1
app_10,4.91642,20118.6,7910.2,89.8,876.7,3.52365e+10,1.00687,0.99295,9,0.0401785,2209,1.00001,1.00001
app_11,5.44075,18161,7865.3,134.7,1313.5,4.87069e+10,1.01087,0.99295,6,0.0370677,2976,1.00001,1.00001
app_12,6.88863,20166.6,7920.9,79.1,791.05,4.31032e+09,1.00944,0.99295,10,0.00544921,1993,1.00001,1.00001
app_13,9.1382,19900.3,7923.5,76.5,721.142,3.56516e+10,1.00513,0.99295,11,0.0494474,1793,1.00001,1.00001
app_14,0.752798,19306.2,7912.3,87.7,876.539,1.16168e+10,1.0096,0.99295,9,0.0132461,2118,1.00001,1.00001
app_15,3.76604,19558.4,7936,64,612.291,2.69654e+10,1.00465,0.99295,13,0.0439892,1495,1.00002,1.00002
app_16,7.10733,20057.4,7918.9,81.1,660.199,4.87973e+10,1.00405,0.99295,12,0.0739354,1653,1.00002,1.00002
app_17,13.5661,19206.3,7947.3,52.7,526.805,6.46725e+09,1.00581,0.99295,15,0.0122718,1267,1.00002,1.00002
app_18,9.16702,19295.6,7917.1,82.9,720.634,3.71107e+10,1.00576,0.99295,11,0.0515427,1736,1.00002,1.00002
app_19,7.13795,19228.7,7901,99,990.262,7.61615e+09,1.01155,0.99295,8,0.00769308,2377,1.00002,1.00002
app_2,9.48396,19082.8,7942.2,57.8,498.092,3.11952e+10,1.00334,0.99295,16,0.062641,1185,1,1
app_20,2.19637,19050.2,7869,131,1310.06,2.3321e+10,1.01364,0.99295,6,0.0178023,3123,1.00002,1.00002
app_21,43.8727,19945.8,7968.2,31.8,143.573,1.94541e+10,1.00155,0.99295,55,0.135098,361,1.00002,1.00002
app_22,52.1924,19942.8,7946.4,53.6,86.3439,3.89455e+10,1.00184,0.99295,93,0.452855,213,1.00002,1.00002
app_23,54.8192,19976.1,7953.3,46.7,89.429,3.38791e+10,1.00161,0.99295,89,0.376435,223,1.00002,1.00002
app_24,20.8836,19804.2,7978.2,21.8,99.7518,1.42965e+10,1.00094,0.99295,80,0.142965,247,1.00002,1.00002
app_25,82.7213,19980.9,7952.9,47.1,81.5016,3.41587e+10,1.00162,0.99295,98,0.41657,203,1.00003,1.00003
app_26,33.2011,20051.2,7955.8,44.2,76.8567,3.2265e+10,1.00149,0.99295,103,0.419026,192,1.00003,1.00003
app_27,88.5683,20068.3,7958.5,41.5,63.1641,3.17515e+10,1.00122,0.99295,127,0.496117,157,1.00003,1.00003
app_28,3.54383,20342.8,7994.5,5.5,53.5699,2.07534e+09,1.00043,0.99295,149,0.0384322,135,1.00003,1.00003
app_29,15.9041,19989.2,7968.9,31.1,90.6081,2.19092e+10,1.00115,0.99295,87,0.24076,228,1.00003,1.00003
app_3,6.57787,18966.6,7921,79,790.574,1.59724e+10,1.00794,0.99295,10,0.0202182,1876,1,1
app_30,47.3899,19929,7975.5,24.5,112.575,1.47023e+10,1.00123,0.99295,71,0.130109,279,1.00003,1.00003
app_31,20.9329,20001.2,7976.1,23.9,111.157,1.28091e+10,1.00139,0.99295,72,0.115397,276,1.00003,1.00003
app_32,27.333,19961.9,7960.6,39.4,116.438,2.68891e+10,1.00157,0.99295,69,0.229821,289,1.00003,1.00003
app_33,16.3562,19949.4,7941.6,58.4,89.2277,4.43323e+10,1.00176,0.99295,88,0.498116,225,1.00003,1.00003
app_34,40.8758,19915.5,7987.3,12.7,126.265,1.09587e+09,1.00145,0.99295,63,0.00862891,314,1.00003,1.00003
app_35,64.5236,20008,7979,21,76.8812,1.49083e+10,1.00076,0.99295,103,0.193615,193,1.00004,1.00004
app_36,2.89145,19858.5,7949.8,50.2,93.4755,3.6949e+10,1.00166,0.99295,85,0.397301,232,1.00004,1.00004
app_37,65.0809,19986.5,7936.3,63.7,69.4235,4.68368e+10,1.00211,0.99295,115,0.669097,173,1.00004,1.00004
app_38,22.7856,20207,7941.6,58.4,59.5764,4.14878e+10,1.00212,0.99295,133,0.703183,150,1.00004,1.00004
app_39,7.80141,19949.9,7956,44,76.4712,3.46289e+10,1.00117,0.99295,105,0.449726,189,1.00004,1.00004
app_4,0.212561,19134.2,7804.8,195.2,1951.52,2.51658e+10,1.02172,0.99295,4,0.0128923,4669,1,1
app_40,89.4827,20057.2,7967.1,32.9,65.8497,2.35941e+10,1.00116,0.99295,121,0.357487,165,1.00004,1.00004
app_41,962.425,22228.2,7974.3,25.7,6.793,2.1111e+10,1.00057,0.99295,1169,3.01586,18,1.00004,1.00004
app_42,563.671,20948.9,7952.2,47.8,8.75512,4.21602e+10,1.00071,0.99295,907,4.68446,22,1.00004,1.00004
app_43,238.99,20868.3,7982.2,17.8,13.8176,1.56454e+10,1.00027,0.99295,566,1.2035,36,1.00004,1.00004
app_44,1092.24,21855.9,7990.9,9.1,7.17042,7.95976e+09,1.00014,0.99295,1099,1.13711,19,1.00004,1.00004
app_45,529.471,20629.8,7990,10,5.33358,9.19271e+09,1.0001,0.99295,1549,1.83854,13,1.00004,1.00004
app_46,252.347,19936.9,7968.8,31.2,5.52706,2.66301e+10,1.00057,0.99295,1434,5.32602,14,1.00005,1.00005
app_47,924.161,21975.9,7970.7,29.3,7.88928,2.55228e+10,1.00047,0.99295,984,3.64611,21,1.00005,1.00005
app_48,860.206,21495.9,7943.7,56.3,6.00145,4.74381e+10,1.00111,0.99295,1373,7.90635,15,1.00005,1.00005
app_49,69.6627,20581.7,7958.3,41.7,12.1624,3.64156e+10,1.00066,0.99295,653,3.03463,31,1.00005,1.00005
app_5,2.54229,18599.6,7918.5,81.5,793.053,2.93771e+10,1.00656,0.99295,10,0.0370455,1840,1.00001,1.00001
app_50,161.891,21200.7,7960.4,39.6,6.99952,3.27253e+10,1.00086,0.99295,1170,4.67505,18,1.00005,1.00005
app_51,64.8942,20341.7,7936.7,63.3,13.4169,4.85958e+10,1.00184,0.99295,602,3.73814,33,1.00005,1.00005
app_52,0.908379,20912.1,7969.1,30.9,9.71764,2.2275e+10,1.00108,0.99295,825,2.475,25,1.00005,1.00005
app_53,313.435,21310.6,7962.9,37.1,7.26738,3.26129e+10,1.00056,0.99295,1097,4.65899,19,1.00005,1.00005
app_54,152.224,20730.7,7982.4,17.6,15.9087,1.42997e+10,1.00041,0.99295,491,0.893729,41,1.00005,1.00005
app_55,14.8772,20346.9,7950,50,11.4504,4.32606e+10,1.00084,0.99295,725,3.93278,28,1.00005,1.00005
app_56,648.385,21523,7968.8,31.2,8.636,2.64452e+10,1.00059,0.99295,938,2.93835,22,1.00006,1.00006
app_57,218.106,20439.9,7968,32,15.3704,1.99863e+10,1.0015,0.99295,510,1.33242,40,1.00006,1.00006
app_58,632.526,21112.8,7960.2,39.8,7.48025,3.49644e+10,1.0006,0.99295,1060,4.37055,19,1.00006,1.00006
app_59,629.688,21560.6,7944,56,7.88378,3.6148e+10,1.00249,0.99295,994,4.5185,21,1.00006,1.00006
app_6,5.05811,19502.4,7901,99,989.79,3.5744e+09,1.01207,0.99295,8,0.0036105,2413,1.00001,1.00001
app_60,34.8536,21120.2,7979.2,20.8,8.38235,1.41082e+10,1.00084,0.99295,947,1.76352,22,1.00006,1.00006
app_7,8.60646,18998.4,7906.8,93.2,790.078,5.19216e+10,1.00519,0.99295,10,0.0657236,1876,1.00001,1.00001
app_8,0.471494,19559.8,7842.9,157.1,1568.67,3.48207e+10,1.01552,0.99295,5,0.0222071,3838,1.00001,1.00001
app_9,7.41704,18303.3,7912.3,87.7,875.385,1.75261e+10,1.00885,0.99295,9,0.020007,2006,1.00001,1.00001
