app_id,start_app,end_app,effective_cpu,effective_io,effective_iter,total_bytes,stretch,utilization,Tcomp,Tio,iterations,priority,group_id
app_1,8.43593,18428,7908,92,791.742,4.00498e+10,1.00654,0.993132,10,0.0506319,1824,1,1
app_10,1.45995,18127.9,7868.63,131.37,1313.62,8.91514e+09,1.01554,0.993132,6,0.00678627,2973,1.00001,1.00001
app_11,9.78252,19780.1,7920.8,79.2,791.542,1.33825e+10,1.0083,0.993132,10,0.0168971,1954,1.00001,1.00001
app_12,9.63183,19979.5,7934.6,65.4,566.721,3.09756e+10,1.00432,0.993132,14,0.0546306,1416,1.00001,1.00001
app_13,8.77681,18679.8,7923,77,720.036,3.36169e+10,1.00545,0.993132,11,0.0466901,1681,1.00001,1.00001
app_14,0.267463,18329.3,7920.8,79.2,792.228,1.68441e+10,1.00786,0.993132,10,0.0212678,1816,1.00001,1.00001
app_15,10.4971,19255.4,7928.1,71.9,719.741,1.38263e+10,1.00731,0.993132,11,0.0192299,1732,1.00002,1.00002
app_16,2.02655,19765.3,7887.4,112.6,1126.17,1.04718e+10,1.01293,0.993132,7,0.00930001,2779,1.00002,1.00002
app_17,7.8383,19584,7937.8,62.2,610.582,2.18008e+10,1.00508,0.993132,13,0.0356805,1493,1.00002,1.00002
app_18,8.52982,19577,7917.4,82.6,794.59,3.56641e+10,1.0059,0.993132,10,0.0448605,1939,1.00002,1.00002
app_19,4.4627,18702.6,7901.13,98.8658,987.615,2.3329e+10,1.00953,0.993132,8,0.0236206,2310,1.00002,1.00002
app_2,2.7693,19286,7911.5,88.5,878.512,2.62345e+10,1.00784,0.993132,9,0.0298459,2119,1,1
app_20,2.709,17921.1,7885.3,114.7,1124.59,4.42612e+10,1.00888,0.993132,7,0.0393783,2516,1.00002,1.00002
app_21,30.9406,19961.6,7948.3,51.7,72.7108,3.66641e+10,1.00188,0.993132,110,0.509223,181,1.00002,1.00002
app_22,35.6446,19851.4,7992.8,7.2,72.5346,1.74532e+09,1.00068,0.993132,111,0.0242406,180,1.00002,1.00002
app_23,47.052,19917.6,7940.8,59.2,108.222,4.33633e+10,1.00198,0.993132,74,0.397828,267,1.00002,1.00002
app_24,46.9885,19904.5,7954.3,45.7,130.158,3.1383e+10,1.00179,0.993132,61,0.241407,324,1.00002,1.00002
app_25,48.1432,19921.1,7947.3,52.7,106.973,3.99402e+10,1.0016,0.993132,74,0.373273,267,1.00003,1.00003
app_26,26.8022,20108.9,7950.6,49.4,68.2533,3.64455e+10,1.00162,0.993132,117,0.528196,171,1.00003,1.00003
app_27,15.4503,20032.2,7938.9,61.1,115.298,4.41762e+10,1.00212,0.993132,69,0.38083,287,1.00003,1.00003
app_28,73.5153,20249.1,7994.1,5.9,58.9885,4.15335e+08,1.00069,0.993132,135,0.00703958,149,1.00003,1.00003
app_29,51.2237,20042.8,7940.7,59.3,90.5881,4.13187e+10,1.00225,0.993132,87,0.454052,228,1.00003,1.00003
app_3,9.52996,19081.6,7916.6,83.4,722.383,4.40105e+10,1.00495,0.993132,11,0.0609563,1716,1,1
app_30,39.6026,20139.6,7967.3,32.7,69.9299,2.67611e+10,1.00074,0.993132,113,0.382301,176,1.00003,1.00003
app_31,55.976,20193.3,7967.9,32.1,69.4355,2.09574e+10,1.00139,0.993132,115,0.30373,174,1.00003,1.00003
app_32,82.0302,20060.1,7945.6,54.4,96.6799,3.95366e+10,1.00186,0.993132,82,0.407594,241,1.00003,1.00003
app_33,38.3719,19953.4,7962.6,37.4,76.2615,2.82099e+10,1.00115,0.993132,105,0.371183,189,1.00003,1.00003
app_34,19.7241,19954.9,7946.1,53.9,100.489,3.93727e+10,1.00182,0.993132,79,0.393727,250,1.00003,1.00003
app_35,20.3164,19980.9,7966.4,33.6,72.6862,2.35026e+10,1.00126,0.993132,110,0.321954,181,1.00004,1.00004
app_36,3.28638,19834.2,7938,62,137.981,4.32902e+10,1.00234,0.993132,58,0.313697,340,1.00004,1.00004
app_37,77.2397,20027.8,7991.7,8.3,81.0359,2.65785e+09,1.00071,0.993132,99,0.0328129,202,1.00004,1.00004
app_38,101.934,20136.7,7992.6,7.4,74.5515,1.91876e+08,1.0009,0.993132,107,0.00259292,187,1.00004,1.00004
app_39,60.0909,20087.5,7952.6,47.4,110.307,3.44006e+10,1.00163,0.993132,72,0.312733,277,1.00004,1.00004
app_4,7.8005,19304.4,7901.3,98.7,987.032,8.83402e+09,1.01136,0.993132,8,0.00895038,2384,1,1
app_40,46.1639,19997.9,7947.7,52.3,69.6264,4.06575e+10,1.00146,0.993132,114,0.580821,174,1.00004,1.00004
app_41,9.94488,20701.1,7960.4,39.6,6.42479,2.99813e+10,1.0012,0.993132,1229,4.28304,17,1.00004,1.00004
app_42,160.336,20301.7,7947.5,52.5,8.80937,4.02023e+10,1.00154,0.993132,923,4.46692,22,1.00004,1.00004
app_43,41.5623,20287.4,7945.9,54.1,15.2067,4.21105e+10,1.0015,0.993132,523,2.80737,38,1.00004,1.00004
app_44,136.124,21060.8,7972.9,27.1,8.3134,1.93624e+10,1.00097,0.993132,936,2.4203,22,1.00004,1.00004
app_45,1094.58,22395.7,7983.4,16.6,5.90831,1.39456e+10,1.00033,0.993132,1302,2.32427,16,1.00004,1.00004
app_46,408.228,20979,7949,51,15.749,3.98498e+10,1.0014,0.993132,505,2.49061,40,1.00005,1.00005
app_47,25.0128,21065.6,7976.3,23.7,10.5179,1.92724e+10,1.00055,0.993132,735,1.92724,28,1.00005,1.00005
app_48,161.246,20439.5,7960.7,39.3,7.56395,3.50334e+10,1.00053,0.993132,1057,5.00477,19,1.00005,1.00005
app_49,32.9052,20145.3,7947.3,52.7,6.64211,4.66209e+10,1.00076,0.993132,1253,6.66012,16,1.00005,1.00005
app_5,2.38266,18819.3,7911,89,880.328,2.49425e+10,1.00807,0.993132,9,0.0283437,2069,1.00001,1.00001
app_50,610.401,21744,7968.7,31.3,5.38032,2.67746e+10,1.00057,0.993132,1497,5.35491,14,1.00005,1.00005
app_51,1048.44,21940.8,7986.9,13.1,7.22701,1.08639e+10,1.00028,0.993132,1077,1.55198,19,1.00005,1.00005
app_52,230.036,20589.7,7962.4,37.6,9.82667,3.29263e+10,1.00058,0.993132,821,3.65848,25,1.00005,1.00005
app_53,383.569,21057.8,7983,17,7.7752,1.27585e+10,1.00053,0.993132,1034,1.59481,20,1.00005,1.00005
app_54,158.577,21349.2,7974.8,25.2,4.71427,2.2435e+10,1.00035,0.993132,1610,4.48699,13,1.00005,1.00005
app_55,500.739,21951.8,7947.1,52.9,5.65853,4.50755e+10,1.00098,0.993132,1414,7.51258,15,1.00005,1.00005
app_56,197.799,20502.2,7980.4,19.6,13.68,1.49021e+10,1.00059,0.993132,580,1.14631,35,1.00006,1.00006
app_57,20.166,20220.7,7952.4,47.6,6.29338,3.88632e+10,1.00109,0.993132,1268,5.55189,16,1.00006,1.00006
app_58,293.864,20555.5,7958.6,41.4,11.4191,3.53388e+10,1.00076,0.993132,692,3.21262,29,1.00006,1.00006
app_59,584.75,21242.5,7992,8,6.17124,6.32162e+09,1.00021,0.993132,1281,1.0536,16,1.00006,1.00006
app_6,2.95076,19538.2,7950.4,49.6,495.894,5.70196e+08,1.00617,0.993132,16,0.00114959,1214,1.00001,1.00001
app_60,495.119,20308.1,7962.6,37.4,9.01607,3.28256e+10,1.00057,0.993132,872,3.64728,23,1.00006,1.00006
app_7,8.91994,18239,7909.1,90.9,878.928,3.09309e+10,1.00755,0.993132,9,0.0351888,2004,1.00001,1.00001
app_8,5.57395,19425,7884.3,115.7,1124.14,4.56489e+10,1.00883,0.993132,7,0.0406129,2732,1.00001,1.00001
app_9,0.00207814,19098.8,7887.4,112.6,1125.11,1.6333e+10,1.01218,0.993132,7,0.0145053,2688,1.00001,1.00001
