app_id,start_app,end_app,effective_cpu,effective_io,effective_iter,total_bytes,stretch,utilization,Tcomp,Tio,iterations,priority,group_id
app_1,6.97538,20012.3,7728.1,70.2593,775.021,2.05412e+10,1.03244,0.981281,10,0.0265048,1938,1,1
app_10,1.51801,19132,7478.3,129.231,1496,1.39671e+10,1.06777,0.981281,5,0.00933633,3591,1,1
app_11,6.20356,19340.3,7741.1,70.2522,646.703,4.87864e+10,1.02697,0.981281,12,0.0755207,1564,1,1
app_12,3.23267,19347.4,7651.5,90.0516,956.492,3.24076e+10,1.04114,0.981281,8,0.0338992,2313,1,1
app_13,6.46338,20410.5,7788.3,64.7792,597.62,4.43812e+10,1.02136,0.981281,13,0.0743403,1527,1,1
app_14,10.1208,19799.7,7740,71.2219,705.137,3.68725e+10,1.02869,0.981281,11,0.0523014,1742,1,1
app_15,4.35135,19520.5,7626.94,88.254,952.938,2.95729e+10,1.04486,0.981281,8,0.031064,2332,1,1
app_16,5.51777,18994.2,7602.5,108.34,1086,5.41793e+10,1.04484,0.981281,7,0.0498888,2578,1,1
app_17,10.118,19285.7,7763.53,55.1217,551.249,2.752e+10,1.02682,0.981281,14,0.0499455,1336,1,1
app_18,0.175437,15244.7,7086.65,309.509,3538.17,3.57542e+10,1.12322,0.981281,2,0.0101058,6790,1,1
app_19,10.51,19841.5,7725.4,77.3473,702.6,5.45062e+10,1.02829,0.981281,11,0.0775337,1745,1,1
app_2,13.0411,20469.6,7742.6,55.2606,595.516,1.75828e+10,1.0309,0.981281,13,0.0295014,1528,1,1
app_20,7.74402,19863.4,7781.2,56.9818,517.76,4.00542e+10,1.02285,0.981281,15,0.0773247,1288,1,1
app_21,95.9657,20288.4,7945.6,30.0586,58.1805,2.87583e+10,1.00322,0.981281,136,0.495832,147,1,1
app_22,93.4488,20146.8,7965.2,14.7721,49.7547,1.18602e+10,1.00288,0.981281,161,0.237205,124,1,1
app_23,100.698,20244,7950.3,38.3394,53.5664,3.60431e+10,1.00171,0.981281,148,0.667465,135,1,1
app_24,7.51277,20063.8,7970.6,13.895,70.6319,1.03137e+10,1.00239,0.981281,113,0.147339,177,1,1
app_25,91.8364,20065.5,7935.5,36.4714,74.7475,3.0659e+10,1.00425,0.981281,108,0.408787,184,1,1
app_26,40.0041,19993.7,7912.6,56.3096,140.059,4.90258e+10,1.00482,0.981281,57,0.350184,346,1,1
app_27,48.846,20117.9,7925.3,50.113,82.6568,4.60876e+10,1.00359,0.981281,96,0.555272,207,1,1
app_28,28.5845,20034.8,7909.5,45.2962,77.5968,4.03622e+10,1.00631,0.981281,103,0.517464,193,1,1
app_29,77.4449,19981.3,7971.4,9.95667,85.364,7.94382e+09,1.00259,0.981281,93,0.09237,214,1,1
app_3,6.10069,19155.6,7699.9,65.6111,766.863,7.61937e+09,1.03795,0.981281,10,0.00993399,1842,1,1
app_30,18.0308,20127.6,7956.7,27.1583,66.8763,2.41621e+10,1.0024,0.981281,119,0.360628,168,1,1
app_31,0.811813,19920.9,7959.8,11.4793,101.534,9.20801e+09,1.00389,0.981281,79,0.0911684,252,1,1
app_32,42.0093,19862.1,7949.7,13.7468,127.519,8.66598e+09,1.00523,0.981281,62,0.067703,318,1,1
app_33,45.6087,20138.9,7898.8,47.3225,115.403,4.41957e+10,1.00718,0.981281,68,0.38431,292,1,1
app_34,130.748,20313.8,7944.3,47.7659,52.4894,4.52045e+10,1.00131,0.981281,149,0.852915,134,1,1
app_35,40.1233,20175.5,7950.2,9.55071,83.0116,8.29791e+09,1.00521,0.981281,95,0.0999748,210,1,1
app_36,52.1657,20214.5,7944.8,26.3313,124.016,2.4539e+10,1.00385,0.981281,64,0.197896,312,1,1
app_37,37.2042,19989.6,7927.2,32.7711,67.0122,2.81237e+10,1.00562,0.981281,119,0.419757,167,1,1
app_38,6.4758,20058,7937.6,22.7727,106.445,2.01122e+10,1.00531,0.981281,75,0.189738,266,1,1
app_39,103.098,20266.1,7975.1,12.3744,63.7328,8.32812e+09,1.00208,0.981281,125,0.130127,160,1,1
app_4,3.77451,20312.9,7642.3,80.0329,954.43,4.41981e+09,1.0462,0.981281,8,0.00463293,2432,1,1
app_40,90.511,20171.8,7940.2,43.2635,70.7732,4.04166e+10,1.00243,0.981281,111,0.569248,179,1,1
app_41,340.403,20915.4,7942.6,51.8886,10.8172,5.15445e+10,1.00073,0.981281,730,4.68587,28,1,1
app_42,541.811,20691.3,7944.6,53.9238,9.10789,5.32854e+10,1.00026,0.981281,876,5.9206,23,1,1
app_43,238.15,21097.1,7969.4,26.2646,8.21528,2.58009e+10,1.0006,0.981281,983,3.22512,21,1,1
app_44,204.395,20507.6,7984.2,6.58634,21.7686,5.95434e+09,1.00123,0.981281,362,0.28354,56,1,1
app_45,509.426,20761.6,7973.4,26.4312,5.94786,2.62626e+10,1.00004,0.981281,1340,4.37711,15,1,1
app_46,772.521,21235.8,7988.9,9.69548,7.14432,9.17325e+09,1.00024,0.981281,1136,1.31046,18,1,1
app_47,35.1863,21168.9,7998.5,1.45223,7.35206,1.27536e+09,1.00003,0.981281,1016,0.182194,20,1,1
app_48,1027.28,21906.1,7956,43.4896,6.66139,4.31904e+10,1.0001,0.981281,1222,6.17005,17,1,1
app_49,496.426,20230.3,7976.5,18.3547,6.11795,1.80218e+10,1.00069,0.981281,1346,3.00364,15,1,1
app_5,2.96237,16647,7284.86,206.177,2425.95,1.14251e+10,1.09645,0.981281,3,0.00471137,5078,1,1
app_50,584.691,20825.1,7944.9,51.2628,8.26013,5.06979e+10,1.00055,0.981281,963,5.63309,21,1,1
app_51,477.2,22043,7947.9,51.4558,4.88335,5.11456e+10,1.00012,0.981281,1654,10.2291,13,1,1
app_52,829.393,21500.6,7964.34,33.9419,5.31957,3.36423e+10,1.00025,0.981281,1471,6.45732,14,1,1
app_53,1624.79,22399.6,7992,7.59418,4.54072,7.28999e+09,1.00009,0.981281,1773,1.458,12,1,1
app_54,56.8017,21200.6,7989.1,4.37217,9.33435,3.66662e+09,1.0009,0.981281,869,0.407402,24,1,1
app_55,713.677,20685.3,7965.4,34.124,9.97647,3.37793e+10,1.0001,0.981281,797,3.37793,25,1,1
app_56,813.629,21176.8,7953.5,38.052,9.84948,3.7497e+10,1.00113,0.981281,818,3.7497,25,1,1
app_57,200.299,20156.8,7943,54.0313,9.68632,5.36706e+10,1.00042,0.981281,828,5.36706,24,1,1
app_58,64.5537,20293.5,7952.9,35.1681,15.4139,3.40548e+10,1.00163,0.981281,518,2.12843,39,1,1
app_59,644.716,20654.4,7975.9,21.5055,11.9862,2.05126e+10,1.00045,0.981281,679,1.70938,30,1,1
app_6,0.109616,20256,7625.53,80.009,954.044,6.81317e+09,1.04817,0.981281,8,0.00714169,2427,1,1
app_60,435.649,21323.6,7984.2,12.9391,7.31215,1.26519e+10,1.00039,0.981281,1104,1.58149,19,1,1
app_7,2.06281,19845.1,7692,62.7419,766.819,4.542e+09,1.03943,0.981281,10,0.00592178,1913,1,1
app_8,3.84046,20100.2,7742.5,59.2285,703.322,6.2016e+09,1.03243,0.981281,11,0.00882162,1767,1,1
app_9,0.351878,19485.5,7654.2,86.2036,853.945,4.12483e+10,1.03958,0.981281,9,0.0483002,2085,1,1
