app_id,start_app,end_app,effective_cpu,effective_io,effective_iter,total_bytes,stretch,utilization,Tcomp,Tio,iterations,priority,group_id
app_1,0.566244,18898.2,7927.6,62.448,659.308,1.96498e+10,1.00664,0.992869,12,0.0298176,1556,0.1,1
app_10,2.10748,17857.9,7876.9,107.044,1125.27,3.04913e+10,1.01171,0.992869,7,0.0271033,2511,0.1,1
app_11,2.64733,19640.7,7916,74.1103,790.021,1.75148e+10,1.00838,0.992869,10,0.0221707,1942,0.1,1
app_12,1.73732,18314.5,7913.6,76.4223,793.072,2.51447e+10,1.00772,0.992869,10,0.0317083,1815,0.1,1
app_13,2.66663,19529.4,7836.6,142.739,1569.45,1.84287e+10,1.01846,0.992869,5,0.0117455,3829,0.1,1
app_14,0.344825,18399.8,7874.9,109.995,1125.38,4.09917e+10,1.01063,0.992869,7,0.0364371,2587,0.1,1
app_15,2.61819,19028.2,7926.6,65.4108,609.749,4.99597e+10,1.00294,0.992869,13,0.0819011,1450,0.1,1
app_16,0.818674,19757.8,7920.8,70.4116,657.799,5.23695e+10,1.00337,0.992869,12,0.0795889,1627,0.1,1
app_17,4.83664,19853.9,7909.6,79.8096,881.7,3.95476e+09,1.01092,0.992869,9,0.00448386,2185,0.1,1
app_18,4.86609,19789.9,7831,149.662,1563.08,4.93449e+10,1.01518,0.992869,5,0.0315504,3869,0.1,1
app_19,5.59897,17511.9,7828.4,152.093,1563.98,5.99021e+10,1.01416,0.992869,5,0.0383006,3427,0.1,1
app_2,2.133,18885.4,7836.4,144.585,1566.7,1.72471e+10,1.01864,0.992869,5,0.0110064,3698,0.1,1
app_20,2.01957,19581,7916.1,74.3014,717.977,4.33528e+10,1.00509,0.992869,11,0.06038,1758,0.1,1
app_21,49.0784,20075.9,7993,6.09031,61.6414,1.86671e+09,1.00064,0.992869,129,0.0301082,155,0.01,2
app_22,60.534,20071.3,7953.8,45.7072,71.6495,3.78987e+10,1.00104,0.992869,111,0.526371,180,0.01,2
app_23,0.58271,19887.8,7991.8,7.07612,70.9078,2.0438e+09,1.00077,0.992869,113,0.028786,176,0.01,2
app_24,80.33,19920.7,7947.3,51.3251,98.0725,4.15764e+10,1.00139,0.992869,81,0.424249,244,0.01,2
app_25,70.353,20142.5,7977.4,21.3986,95.2426,1.71068e+10,1.00069,0.992869,84,0.180071,238,0.01,2
app_26,93.2353,20104,7963.8,34.5494,80.5241,2.84431e+10,1.00097,0.992869,98,0.355538,202,0.01,2
app_27,45.7621,20071.9,7980.8,17.204,82.232,1.19721e+10,1.0009,0.992869,97,0.146002,206,0.01,2
app_28,23.0434,20031.9,7977.1,21.879,89.0923,1.69145e+10,1.00075,0.992869,89,0.190051,224,0.01,2
app_29,42.5067,19717.7,7964.7,35.2986,61.9219,2.91216e+10,1.00077,0.992869,132,0.477403,150,0.01,2
app_3,7.64877,18917.7,7900.9,88.4794,878.898,4.32367e+10,1.00703,0.992869,9,0.0491885,2075,0.1,1
app_30,64.5478,20049.7,7988,11.8576,54.3094,9.19431e+09,1.00035,0.992869,147,0.167169,136,0.01,2
app_31,63.073,20063.6,7958.1,41.4663,48.7161,3.54759e+10,1.0008,0.992869,163,0.723998,122,0.01,2
app_32,69.1189,20086.6,7980.4,18.4619,84.7771,1.2884e+10,1.00084,0.992869,94,0.151577,212,0.01,2
app_33,21.325,19908.2,7968.1,29.4109,68.3029,2.39375e+10,1.001,0.992869,117,0.34692,170,0.01,2
app_34,49.2292,20099.8,7979.3,19.3245,77.3297,1.51013e+10,1.0007,0.992869,103,0.196121,194,0.01,2
app_35,6.15499,19843.3,7984.7,13.3215,111.005,9.592e+09,1.00071,0.992869,72,0.0864144,276,0.01,2
app_36,62.1461,20131.2,7962.9,36.2464,79.3155,3.03925e+10,1.00084,0.992869,101,0.384715,197,0.01,2
app_37,6.30093,19820,7987.3,11.5963,82.5896,8.18913e+09,1.00056,0.992869,97,0.0986642,205,0.01,2
app_38,50.3824,19896,7956.3,41.716,78.0472,3.45051e+10,1.00115,0.992869,103,0.442373,192,0.01,2
app_39,59.8697,19740.1,7957.3,41.8712,81.667,3.5269e+10,1.00093,0.992869,99,0.43542,200,0.01,2
app_4,4.65589,19517.9,7941.9,49.7254,567.492,2.64038e+09,1.00698,0.992869,14,0.00465676,1384,0.1,1
app_40,55.2262,20234.9,7971.6,24.663,124.404,1.41437e+10,1.00179,0.992869,64,0.114062,312,0.01,2
app_41,1072.7,21730.2,7968.7,30.6996,6.2509,2.63263e+10,1.00062,0.992869,1289,3.7609,16,0.001,3
app_42,1182.65,22061.1,7992.9,7.1,6.69815,6.12088e+09,1.00012,0.992869,1243,0.874411,17,0.001,3
app_43,581.294,20645.6,7985.9,7.71179,7.65053,6.60977e+09,1.00094,0.992869,1072,0.944252,19,0.001,3
app_44,688.464,21426.2,7984.4,14.9916,6.93665,1.2413e+10,1.0004,0.992869,1151,1.77329,18,0.001,3
app_45,466.89,21587.1,7945.8,46.3738,5.33723,4.20432e+10,1.00152,0.992869,1460,7.0072,14,0.001,3
app_46,172.712,20230.5,7985.6,12.2083,9.57085,1.00309e+10,1.00055,0.992869,845,1.00309,24,0.001,3
app_47,216.008,21859.4,7965.8,33.9637,5.94943,2.89803e+10,1.00065,0.992869,1320,4.83006,16,0.001,3
app_48,1471.93,21523.2,7933.9,64.6928,5.18218,5.71216e+10,1.00112,0.992869,1545,9.52026,13,0.001,3
app_49,302.857,20336.4,7941.8,56.2904,19.1305,4.90613e+10,1.00114,0.992869,426,2.58217,47,0.001,3
app_5,9.99211,18914,7930.6,59.0039,658.432,6.00088e+09,1.00799,0.992869,12,0.00910603,1556,0.1,1
app_50,310.979,20953.6,7946.8,53.2,8.30428,4.67171e+10,1.00081,0.992869,985,5.19079,21,0.001,3
app_51,1007.34,21459.4,7977,21.1365,6.56665,1.75383e+10,1.00068,0.992869,1195,2.92304,17,0.001,3
app_52,916.781,21401,7938.6,57.9542,6.69014,4.75241e+10,1.00174,0.992869,1193,7.92068,17,0.001,3
app_53,313.825,20857.1,7958.1,40.9994,14.4196,3.48333e+10,1.00088,0.992869,552,2.4881,37,0.001,3
app_54,611.42,21379.8,7940.2,58.4411,6.89929,5.10037e+10,1.0011,0.992869,1139,7.28624,18,0.001,3
app_55,584.282,20960.4,7936.5,63.5,7.82599,5.35225e+10,1.00125,0.992869,1011,6.69031,20,0.001,3
app_56,449.485,20245.7,7987.5,12.3586,7.99146,1.01446e+10,1.00029,0.992869,1000,1.26807,20,0.001,3
app_57,871.341,21308.6,7963.2,36.8,9.20591,2.94173e+10,1.00092,0.992869,883,3.26859,23,0.001,3
app_58,426.497,20990.7,7990.3,9.7,10.3655,7.79028e+09,1.00024,0.992869,787,0.708208,26,0.001,3
app_59,798.143,22090.1,7959.9,39.4907,7.8423,3.41431e+10,1.00075,0.992869,977,4.87759,21,0.001,3
app_6,9.52963,19162.3,7922.6,66.7304,719.832,1.13688e+10,1.00832,0.992869,11,0.01579,1727,0.1,1
app_60,873.834,21282.8,7939.2,60.8,7.56865,5.28004e+10,1.001,0.992869,1100,6.60005,19,0.001,3
app_7,3.56909,19487.9,7875.1,111.627,1126.16,4.78964e+10,1.00972,0.992869,7,0.0425367,2739,0.1,1
app_8,0.220274,19823,7921.8,70.2654,659.707,5.42418e+10,1.003,0.992869,12,0.0821846,1639,0.1,1
app_9,6.2278,19653.5,7883.8,102.809,1120.55,1.17976e+10,1.01322,0.992869,7,0.0105336,2760,0.1,1
