app_id,start_app,end_app,effective_cpu,effective_io,effective_iter,total_bytes,stretch,utilization,Tcomp,Tio,iterations,priority,group_id
app_1,8.79038,19545.1,7747.4,71.167,702.549,3.77002e+10,1.0276,0.983408,11,0.053704,1716,1,1
app_10,5.01856,19322.7,7630.5,96.588,953.777,4.86622e+10,1.04178,0.983408,8,0.0510086,2308,1,1
app_11,2.15886,20127.4,7789.3,47.7547,554.85,6.68011e+09,1.02617,0.983408,14,0.0120372,1400,1,1
app_12,6.767,20132.4,7661.7,94.8847,956.917,4.439e+10,1.03814,0.983408,8,0.0463846,2407,1,1
app_13,0.0549015,20427.3,7737.13,59.4899,700.455,4.18088e+09,1.03342,0.983408,11,0.00596704,1798,1,1
app_14,9.072,19662.5,7680.8,77.4721,853.66,1.75144e+10,1.03919,0.983408,9,0.0205087,2098,1,1
app_15,0.911409,18769.4,7263.7,215.13,2424.62,2.69572e+10,1.09729,0.983408,3,0.0111164,5698,1,1
app_16,2.32708,19036.6,7595.9,101.322,1084.91,3.24045e+10,1.04873,0.983408,7,0.0298659,2579,1,1
app_17,3.84031,20366.2,7589.2,104.51,1084.26,4.01712e+10,1.04858,0.983408,7,0.0370583,2761,1,1
app_18,3.2012,19497.4,7779.1,50.6142,596.869,4.74818e+09,1.02777,0.983408,13,0.00795339,1459,1,1
app_19,0.0918329,19230.2,7748.4,61.1221,593.809,3.45251e+10,1.02789,0.983408,13,0.0581231,1434,1,1
app_2,12.1156,19293.6,7796.9,53.0373,558.079,1.90992e+10,1.02354,0.983408,14,0.0341667,1344,1,1
app_20,3.04771,20144.2,7763.7,43.285,517.761,4.90466e+09,1.02979,0.983408,15,0.00948677,1309,1,1
app_21,11.7578,20024.3,7950.2,29.8833,73.7719,2.80578e+10,1.00273,0.983408,107,0.384353,186,1,1
app_22,55.3902,19951.9,7932,35.2904,90.0019,2.87142e+10,1.00493,0.983408,89,0.319046,223,1,1
app_23,19.8647,19952.4,7908.5,48.5826,127.76,3.90184e+10,1.0066,0.983408,62,0.307232,318,1,1
app_24,47.3747,20062.2,7972.7,11.3963,53.4281,1.0452e+10,1.00211,0.983408,149,0.197207,134,1,1
app_25,127.251,20021.7,7963,26.3332,53.0157,2.32723e+10,1.00172,0.983408,151,0.4391,132,1,1
app_26,90.8729,19988.7,7947.1,34.1314,56.5989,3.11838e+10,1.00272,0.983408,141,0.547083,141,1,1
app_27,11.3872,19883.9,7929.5,43.7051,60.8412,4.18608e+10,1.00359,0.983408,132,0.686243,150,1,1
app_28,70.1034,20005.8,7926.2,42.8743,88.753,3.58579e+10,1.00477,0.983408,89,0.402898,222,1,1
app_29,59.1158,20235.8,7952.6,21.9773,103.011,1.98675e+10,1.00345,0.983408,77,0.192888,259,1,1
app_3,2.78093,20374.3,7764.8,58.2402,646.783,1.36208e+10,1.02849,0.983408,12,0.0210523,1646,1,1
app_30,10.8736,19805.6,7966.8,6.25977,78.0858,1.30946e+08,1.00415,0.983408,104,0.00167879,192,1,1
app_31,29.1901,20136.9,7955.7,9.24949,111.876,1.78692e+09,1.00534,0.983408,71,0.0160984,280,1,1
app_32,13.0392,19911.1,7929.7,35.8661,74.3431,2.96668e+10,1.00511,0.983408,108,0.400903,184,1,1
app_33,20.168,19999.1,7937.4,49.2069,82.0103,4.52715e+10,1.00217,0.983408,97,0.552092,205,1,1
app_34,39.5124,20008.8,7966.6,7.04929,66.8244,4.38136e+09,1.00364,0.983408,119,0.0663842,167,1,1
app_35,52.3209,20295.6,7957.8,17.9031,60.2076,1.36826e+10,1.00358,0.983408,131,0.228044,153,1,1
app_36,61.3893,20172.1,7930.5,32.9004,81.2116,2.87574e+10,1.00512,0.983408,97,0.355029,204,1,1
app_37,1.59752,19803.4,7953.9,17.9245,86.3944,1.48165e+10,1.00393,0.983408,93,0.170304,213,1,1
app_38,20.2344,20028.7,7921,43.0603,106.563,3.95162e+10,1.00496,0.983408,74,0.372795,268,1,1
app_39,5.2232,20085.3,7945,44.9667,64.336,4.20944e+10,1.00162,0.983408,122,0.657726,163,1,1
app_4,1.19454,19494.5,7660.9,70.9628,850.523,1.57478e+09,1.04405,0.983408,9,0.00185051,2079,1,1
app_40,89.9912,20017.8,7980,14.4827,68.6989,1.36962e+10,1.00079,0.983408,116,0.198496,171,1,1
app_41,324.442,20233.6,7943,41.7163,19.2142,4.04517e+10,1.00207,0.983408,418,2.12904,48,1,1
app_42,909.209,21343.5,7957.6,39.9156,6.99865,3.9692e+10,1.00034,0.983408,1111,5.67028,18,1,1
app_43,938.704,20967.6,7983,14.4963,7.73379,1.41526e+10,1.00036,0.983408,1068,1.76907,19,1,1
app_44,220.536,20858.7,7962.5,36.9173,9.51869,3.62124e+10,1.00016,0.983408,845,3.62124,24,1,1
app_45,328.767,21147.3,7956.6,43.4,7.24004,4.32304e+10,1.00002,0.983408,1088,6.17577,19,1,1
app_46,773.946,21575.4,7991.2,8.78643,7.29484,8.54599e+09,1.00003,0.983408,1095,1.06825,19,1,1
app_47,509.017,21242,7964.6,34.6006,6.45888,3.42315e+10,1.00015,0.983408,1201,5.70525,17,1,1
app_48,10.0215,20834.9,7947.2,39.0465,15.3525,3.83947e+10,1.0018,0.983408,508,2.55965,40,1,1
app_49,856.953,21289.1,7978.4,21.6,8.15197,2.14879e+10,1.00001,0.983408,961,2.68599,21,1,1
app_5,4.03421,19471.3,7776.5,59.8255,556.86,4.00822e+10,1.02347,0.983408,14,0.0719608,1355,1,1
app_50,656.932,20627.6,7984,15.9281,7.31949,1.52943e+10,1.00009,0.983408,1116,1.91179,18,1,1
app_51,500.379,21064.6,7955.3,42.9389,10.2977,4.2259e+10,1.00031,0.983408,789,4.2259,26,1,1
app_52,390.922,20708.3,7955.4,42.7852,12.6898,4.18311e+10,1.00035,0.983408,626,3.21777,32,1,1
app_53,42.6501,20394.5,7976.7,23.1549,6.71691,2.2787e+10,1.00006,0.983408,1210,3.25529,17,1,1
app_54,705.697,21346.6,7985.1,3.95239,10.4319,3.5888e+09,1.00142,0.983408,765,0.35888,27,1,1
app_55,1100.57,21667.9,7963.7,35.405,6.42104,3.50091e+10,1.00016,0.983408,1194,5.83485,17,1,1
app_56,870.089,20697.8,7952.4,43.6486,5.68296,4.32281e+10,1.00055,0.983408,1439,7.20468,14,1,1
app_57,43.8996,20427.3,7954.4,45.6,8.31041,4.50633e+10,1.00007,0.983408,969,5.63291,21,1,1
app_58,674.59,21361.4,7968.4,31.3617,6.71681,3.0822e+10,1.0001,0.983408,1156,4.40314,18,1,1
app_59,639.242,21059.4,7955.5,43.9441,10.1923,4.30781e+10,1.00018,0.983408,768,3.91619,26,1,1
app_6,0.684795,20189.6,7633.4,94.8935,952.824,4.38484e+10,1.04204,0.983408,8,0.046011,2410,1,1
app_60,282.548,20469.2,7952.3,44.6871,7.60672,4.43535e+10,1.00042,0.983408,1057,5.54419,19,1,1
app_7,4.84686,19483.8,7680.8,69.4586,769.016,1.56387e+10,1.03944,0.983408,10,0.0203364,1878,1,1
app_8,4.51296,19251.7,7819.2,49.4438,488.196,2.54634e+10,1.0198,0.983408,16,0.0521791,1176,1,1
app_9,2.41426,19811.5,7702.9,68.9288,770.314,1.32629e+10,1.03678,0.983408,10,0.0172022,1908,1,1
