app_id,start_app,end_app,effective_cpu,effective_io,effective_iter,total_bytes,stretch,utilization,Tcomp,Tio,iterations,priority,group_id
app_1,5.92836,19669,7919.2,70.746,720.918,2.75858e+10,1.0067,0.992806,11,0.0382605,1771,0.1,1
app_10,2.62805,19789.7,7832.8,147.838,1562.62,3.81508e+10,1.0164,0.992806,5,0.0244087,3874,0.1,1
app_11,0.438931,18566.3,7915.03,75.8127,793.695,2.06918e+10,1.0081,0.992806,10,0.026069,1841,0.1,1
app_12,2.95528,20149.6,7837.1,142.401,1568.45,1.32442e+10,1.01906,0.992806,5,0.00844117,3953,0.1,1
app_13,5.94611,19630.9,7897.2,88.9405,876.245,4.50817e+10,1.00727,0.992806,9,0.0514631,2152,0.1,1
app_14,9.86728,18815.8,7927.3,64.0573,660.245,2.42387e+10,1.00609,0.992806,12,0.0367254,1553,0.1,1
app_15,6.6823,18605.2,7903.6,87.2041,878.84,3.78589e+10,1.00737,0.992806,9,0.0430704,2044,0.1,1
app_16,4.87477,17213.5,7840.34,138.706,1563.97,1.64015e+09,1.02015,0.992806,5,0.00104896,3362,0.1,1
app_17,6.80114,20188.4,7881.9,104.63,1127.17,1.56089e+10,1.01298,0.992806,7,0.0138499,2839,0.1,1
app_18,1.43603,19764.6,7928.3,63.2364,662.581,1.9154e+10,1.00661,0.992806,12,0.0289336,1633,0.1,1
app_19,0.592521,18879,7923.4,67.3273,721.386,1.41301e+10,1.00787,0.992806,11,0.0195708,1703,0.1,1
app_2,4.25988,20078.8,7903.9,85.2813,877.809,3.388e+10,1.00784,0.992806,9,0.0385877,2205,0.1,1
app_20,7.44387,19485.7,7897.3,87.8537,985.813,4.7044e+09,1.0124,0.992806,8,0.00477119,2404,0.1,1
app_21,110.179,20106.3,7984.5,14.6973,66.6402,1.12785e+10,1.00053,0.992806,121,0.170886,165,0.01,2
app_22,112.956,20133.8,7978.8,20.3605,66.971,1.55013e+10,1.00071,0.992806,120,0.231363,166,0.01,2
app_23,90.1255,19919.4,7979.7,19.1171,62.8938,1.43666e+10,1.00074,0.992806,128,0.228041,155,0.01,2
app_24,1.12852,20110.4,7990.9,8.17895,58.715,5.50852e+09,1.00045,0.992806,136,0.0949744,147,0.01,2
app_25,16.7502,20059.1,7945.9,52.6473,82.4548,4.53622e+10,1.00109,0.992806,95,0.553198,209,0.01,2
app_26,87.0284,19954.7,7974,23.1075,57.6829,1.81854e+10,1.00098,0.992806,139,0.319043,144,0.01,2
app_27,30.3573,20121.3,7932.5,67.2498,51.8591,5.95846e+10,1.00099,0.992806,154,1.14586,129,0.01,2
app_28,10.176,19882.4,7957,41.2177,125.46,3.25666e+10,1.00131,0.992806,63,0.258465,313,0.01,2
app_29,59.7091,20014.5,7942.6,54.7997,80.5202,4.7877e+10,1.00119,0.992806,99,0.598462,201,0.01,2
app_3,5.29108,19272.7,7828.4,150.106,1566.83,4.96177e+10,1.01548,0.992806,5,0.0316641,3769,0.1,1
app_30,20.9947,19946.5,7991.5,7.99534,80.7704,1.79796e+09,1.00084,0.992806,100,0.022197,199,0.01,2
app_31,65.6631,19969.5,7976.1,23.0826,74.986,1.70348e+10,1.00086,0.992806,107,0.227131,186,0.01,2
app_32,86.2057,19870.7,7956.9,41.6138,75.0649,3.53912e+10,1.00096,0.992806,106,0.471882,187,0.01,2
app_33,36.9991,20116.3,7936.4,61.5258,61.496,5.44106e+10,1.00115,0.992806,130,0.891977,153,0.01,2
app_34,133.083,20093.4,7970.5,27.7557,59.2473,2.35821e+10,1.00074,0.992806,133,0.399697,150,0.01,2
app_35,86.9043,20195.3,7943.6,55.0324,58.2227,4.78918e+10,1.00106,0.992806,135,0.825721,148,0.01,2
app_36,44.1672,19917.8,7978.2,17.9729,90.217,1.15782e+10,1.00128,0.992806,88,0.128647,225,0.01,2
app_37,42.5811,19832.2,7957.2,38.4995,180.949,2.81613e+10,1.00183,0.992806,44,0.155587,447,0.01,2
app_38,9.21447,19906.3,7993.6,5.95747,60.0859,2.78103e+09,1.00045,0.992806,132,0.0463505,151,0.01,2
app_39,24.1178,20168,7955.9,41.2082,136.866,2.99651e+10,1.00177,0.992806,58,0.218723,344,0.01,2
app_4,0.0245726,19726.2,7923.6,67.5535,659.633,3.84472e+10,1.00477,0.992806,12,0.0582533,1630,0.1,1
app_40,16.6771,20043.2,7981.2,16.725,147.072,1.01386e+10,1.00108,0.992806,54,0.0685043,370,0.01,2
app_41,240.993,20973.8,7972.5,24.3498,7.81649,2.10982e+10,1.0008,0.992806,1038,2.63727,20,0.001,3
app_42,122.122,21169.7,7927.8,71.7557,7.53894,6.19748e+10,1.00128,0.992806,1027,7.74686,20,0.001,3
app_43,528.193,21399.2,7968.3,29.2692,7.68962,2.53731e+10,1.00079,0.992806,1022,3.62472,20,0.001,3
app_44,49.2278,19952,7932,64.2231,14.0408,5.58859e+10,1.00152,0.992806,571,3.99185,35,0.001,3
app_45,936.082,22285.8,7946.5,53.5,5.26798,4.66988e+10,1.00085,0.992806,1478,9.33976,14,0.001,3
app_46,622.72,20535.8,7990.7,9.3,10.1215,7.16507e+09,1.00027,0.992806,799,0.65137,25,0.001,3
app_47,107.224,20836.9,7960.7,36.2919,8.66868,3.04122e+10,1.00111,0.992806,940,3.80153,22,0.001,3
app_48,501.728,21296,7981.4,18.6,7.262,1.5505e+10,1.00039,0.992806,1098,1.93813,19,0.001,3
app_49,768.08,21416.5,7951.2,48.8,8.48654,4.09245e+10,1.00099,0.992806,909,4.54717,22,0.001,3
app_5,3.65453,19934.3,7892,94.6498,984.883,3.13366e+10,1.00968,0.992806,8,0.0318138,2453,0.1,1
app_50,487.229,20911,7966,34,8.13642,2.91782e+10,1.0006,0.992806,967,3.64728,21,0.001,3
app_51,570.996,20823.8,7967.7,26.5959,9.39793,2.26044e+10,1.00121,0.992806,890,2.5116,23,0.001,3
app_52,799.019,21371.2,7965.8,31.379,6.85711,2.78123e+10,1.0008,0.992806,1159,3.97319,18,0.001,3
app_53,595.554,21275.2,7977.5,15.4132,11.0352,1.3088e+10,1.00118,0.992806,727,1.18982,28,0.001,3
app_54,742.058,20567.7,7965.9,34.1,6.9301,2.90739e+10,1.00063,0.992806,1201,4.15342,17,0.001,3
app_55,855.411,22227.4,7950.1,40.7528,6.3917,3.54459e+10,1.00181,0.992806,1230,5.90765,17,0.001,3
app_56,43.7816,20841.9,7994.3,5.12653,11.8516,3.95805e+09,1.00022,0.992806,664,0.329837,31,0.001,3
app_57,145.561,21201.4,7967,32.4027,11.1961,2.86863e+10,1.00054,0.992806,709,2.60784,29,0.001,3
app_58,584.67,20688.5,7953.8,44.6259,13.35,3.85995e+10,1.00095,0.992806,587,2.96919,34,0.001,3
app_59,96.8512,19864.4,7974.7,16.4715,16.7594,1.24637e+10,1.00161,0.992806,478,0.733158,42,0.001,3
app_6,9.2192,19453.6,7936.4,56.7325,495.942,4.56112e+10,1.00225,0.992806,16,0.091958,1205,0.1,1
app_60,479.453,20931.4,7989.9,8.39739,6.38067,6.6451e+09,1.00043,0.992806,1203,0.9493,17,0.001,3
app_7,4.41046,18799.7,7935,56.1513,609.299,1.22677e+10,1.00664,0.992806,13,0.020111,1432,0.1,1
app_8,6.99326,18889.4,7907.4,81.7526,878.489,1.48174e+10,1.00982,0.992806,9,0.0168571,2071,0.1,1
app_9,6.62943,18709.3,7885.9,100.696,984.15,5.88692e+10,1.00695,0.992806,8,0.0598265,2305,0.1,1
