app_id,start_app,end_app,effective_cpu,effective_io,effective_iter,total_bytes,stretch,utilization,Tcomp,Tio,iterations,priority,group_id
app_1,1.21,19214.6,7918.7,81.3,791.067,3.07696e+10,1.00636,0.993059,10,0.0388996,1897,1,1
app_10,7.73461,19521.8,7920.8,79.2,791.883,8.37215e+09,1.00893,0.993059,10,0.0105709,1929,1.00001,1.00001
app_11,3.60284,18950.1,7887.5,112.5,1124.57,1.11238e+10,1.01283,0.993059,7,0.00988778,2667,1.00001,1.00001
app_12,1.77997,18949,7943,57,570.595,9.88369e+09,1.00592,0.993059,14,0.0173398,1349,1.00001,1.00001
app_13,14.8603,19876.9,7947,53,529.837,1.17247e+10,1.00519,0.993059,15,0.0221221,1317,1.00001,1.00001
app_14,5.94372,18637.9,7868.8,131.2,1312.64,3.95e+09,1.01616,0.993059,6,0.00301067,3055,1.00001,1.00001
app_15,7.24384,19252.6,7920.1,79.9,793.652,2.42139e+10,1.00701,0.993059,10,0.0304961,1908,1.00002,1.00002
app_16,8.86636,18120.3,7901.2,98.8,988.87,7.52002e+09,1.01154,0.993059,8,0.00761136,2235,1.00002,1.00002
app_17,1.23326,18620.7,7908.5,91.5,789.736,4.60637e+10,1.00571,0.993059,10,0.0583085,1839,1.00002,1.00002
app_18,3.01716,19498.7,7896.3,103.7,986.749,4.86911e+10,1.00692,0.993059,8,0.0493824,2404,1.00002,1.00002
app_19,3.71916,19820,7938.7,61.3,612.671,5.60771e+09,1.00701,0.993059,13,0.00914798,1516,1.00002,1.00002
app_2,10.6903,18636.7,7916.6,83.4,721.762,3.65708e+10,1.00589,0.993059,11,0.0506521,1678,1,1
app_20,6.635,19633.9,7883.1,116.9,1125.79,4.95163e+10,1.00849,0.993059,7,0.0439754,2759,1.00002,1.00002
app_21,81.7526,20165,7983.4,16.6,68.1277,1.14764e+10,1.00064,0.993059,117,0.168771,171,1.00002,1.00002
app_22,96.9277,19926.4,7962.7,37.3,82.8709,2.50576e+10,1.00153,0.993059,96,0.301899,206,1.00002,1.00002
app_23,32.8087,19923.2,7943.8,56.2,213.513,3.95567e+10,1.00208,0.993059,37,0.185712,533,1.00002,1.00002
app_24,82.0063,19868.3,7973.6,26.4,72.671,2.06939e+10,1.00071,0.993059,111,0.283478,179,1.00002,1.00002
app_25,54.8847,20104.4,7941.7,58.3,58.4857,4.22838e+10,1.00201,0.993059,136,0.716674,146,1.00003,1.00003
app_26,52.6698,19845.2,7960.1,39.9,109.716,2.9079e+10,1.00135,0.993059,73,0.264354,271,1.00003,1.00003
app_27,8.24818,19977.4,7968.9,31.1,93.996,1.91705e+10,1.00149,0.993059,85,0.203941,235,1.00003,1.00003
app_28,55.6413,20027.1,7944.8,55.2,77.2276,4.44394e+10,1.00135,0.993059,103,0.577135,193,1.00003,1.00003
app_29,38.1926,19749.5,7947.1,52.9,162.561,3.39029e+10,1.00238,0.993059,49,0.209277,400,1.00003,1.00003
app_3,2.33229,19414,7917,83,793.897,3.61968e+10,1.00588,0.993059,10,0.0455879,1925,1,1
app_30,40.8719,20035.7,7966.2,33.8,83.1838,2.43225e+10,1.00119,0.993059,95,0.293042,209,1.00003,1.00003
app_31,48.5728,20057.7,7936.2,63.8,103.721,4.84497e+10,1.00192,0.993059,77,0.465863,258,1.00003,1.00003
app_32,94.1646,20029.9,7943.7,56.3,51.5001,4.55072e+10,1.00135,0.993059,155,0.892299,129,1.00003,1.00003
app_33,73.0651,20189.3,7971.5,28.5,57.123,2.14572e+10,1.00088,0.993059,139,0.376443,144,1.00003,1.00003
app_34,29.8325,19829.9,7939.6,60.4,180.811,4.51186e+10,1.00191,0.993059,44,0.249274,447,1.00003,1.00003
app_35,67.4648,20033.3,7962.4,37.6,86.3334,2.64281e+10,1.0014,0.993059,92,0.307304,215,1.00004,1.00004
app_36,95.5745,19959.5,7962.4,37.6,45.618,2.60831e+10,1.00144,0.993059,175,0.567024,114,1.00004,1.00004
app_37,42.7405,20023.1,7947,53,100.916,3.7526e+10,1.00194,0.993059,78,0.371545,254,1.00004,1.00004
app_38,22.4298,20009.7,7948.8,51.2,102.021,3.76533e+10,1.0017,0.993059,78,0.36915,254,1.00004,1.00004
app_39,43.65,19852.5,7948.8,51.2,130.041,3.82093e+10,1.00163,0.993059,61,0.293917,322,1.00004,1.00004
app_4,0.028063,20038.7,7919.6,80.4,660.998,4.5524e+10,1.00438,0.993059,12,0.0688714,1655,1,1
app_40,122.123,20249.9,7938.4,61.6,64.9415,4.47425e+10,1.00211,0.993059,123,0.688346,162,1.00004,1.00004
app_41,511.053,21373.7,7956.7,43.3,6.43378,3.62725e+10,1.00088,0.993059,1206,6.04542,17,1.00004,1.00004
app_42,651.151,21184.4,7992.5,7.5,9.75044,6.07514e+09,1.00018,0.993059,802,0.607514,25,1.00004,1.00004
app_43,507.979,20645.4,7960.1,39.9,6.20059,3.29172e+10,1.00087,0.993059,1251,5.48619,16,1.00004,1.00004
app_44,711.733,21352.2,7946.2,53.8,10.7715,4.50044e+10,1.0011,0.993059,736,4.09131,28,1.00004,1.00004
app_45,557.957,20721.4,7941.5,58.5,8.89996,5.00293e+10,1.00106,0.993059,919,5.55881,22,1.00004,1.00004
app_46,624.931,20644.2,7984.9,15.1,9.55356,1.23933e+10,1.00034,0.993059,834,1.23933,24,1.00005,1.00005
app_47,1527.61,22744.4,7975,25,4.74833,2.15144e+10,1.00044,0.993059,1597,4.30288,13,1.00005,1.00005
app_48,18.4923,20496.3,7959.7,40.3,5.71115,3.25118e+10,1.00097,0.993059,1385,5.41863,15,1.00005,1.00005
app_49,192.038,20720.5,7952.4,47.6,5.91669,3.85183e+10,1.00114,0.993059,1340,6.41971,15,1.00005,1.00005
app_5,7.63502,18219.3,7900.7,99.3,986.537,3.13112e+10,1.00857,0.993059,8,0.0317236,2248,1.00001,1.00001
app_50,161.659,20748.8,7979.2,20.8,11.8338,1.58996e+10,1.00061,0.993059,653,1.32497,31,1.00005,1.00005
app_51,363.667,21105.7,7969.9,30.1,9.81819,2.23658e+10,1.00097,0.993059,817,2.23658,25,1.00005,1.00005
app_52,80.8874,20387.8,7961,39,12.8334,3.29001e+10,1.00076,0.993059,623,2.53078,32,1.00005,1.00005
app_53,873.157,21182,7957.6,42.4,8.98915,3.70224e+10,1.00067,0.993059,894,4.1136,23,1.00005,1.00005
app_54,503.759,21294.3,7968.5,31.5,8.01175,2.79596e+10,1.00044,0.993059,987,3.49495,21,1.00005,1.00005
app_55,394.323,21278.9,7993,7,5.95745,5.98622e+09,1.00013,0.993059,1286,0.997703,16,1.00005,1.00005
app_56,629.627,20976.4,7997.9,2.1,9.79695,1.10922e+09,1.00012,0.993059,828,0.110922,25,1.00006,1.00006
app_57,1.44907,20124,7974.3,25.7,9.53642,2.15389e+10,1.00052,0.993059,840,2.39321,24,1.00006,1.00006
app_58,918.462,21511,7998.7,1.3,7.37216,6.12492e+08,1.00009,0.993059,1062,0.0765615,19,1.00006,1.00006
app_59,550.567,21197.1,7998.1,1.9,9.22764,1.73739e+09,1.00002,0.993059,855,0.193044,24,1.00006,1.00006
app_6,3.84877,20077.6,7938.5,61.5,610.299,2.01666e+10,1.00519,0.993059,13,0.03306,1531,1.00001,1.00001
app_60,838.988,21097.5,7993.1,6.9,5.59058,5.81907e+09,1.00014,0.993059,1430,0.969846,14,1.00006,1.00006
app_7,12.181,19681.3,7943.3,56.7,566.703,4.74801e+09,1.00654,0.993059,14,0.00837391,1396,1.00001,1.00001
app_8,6.03215,19590.4,7906.3,93.7,790.718,4.9566e+10,1.00555,0.993059,10,0.0626625,1934,1.00001,1.00001
app_9,0.333888,15859.6,7741.4,258.6,2585.83,3.77927e+10,1.02838,0.993059,3,0.0146143,5126,1.00001,1.00001
