app_id,start_app,end_app,effective_cpu,effective_io,effective_iter,total_bytes,stretch,utilization,Tcomp,Tio,iterations,priority,group_id
app_1,11.933,20366.6,7794.2,59.223,597.703,2.79461e+10,1.02274,0.983369,13,0.0468108,1525,1,1
app_10,4.42185,18284.2,7533.4,141.145,1507.49,4.86514e+10,1.05512,0.983369,5,0.0322836,3443,1,1
app_11,1.58761,19769.2,7782.6,56.6831,647.568,1.11058e+10,1.02647,0.983369,12,0.0171651,1599,1,1
app_12,4.37875,19213.2,7740.99,63.4151,643.911,3.03008e+10,1.02943,0.983369,12,0.0471194,1553,1,1
app_13,4.29797,20461.6,7721.6,79.073,774.804,4.21585e+10,1.03043,0.983369,10,0.0543981,1984,1,1
app_14,3.76513,18970.2,7707.7,70.675,771.643,2.17791e+10,1.035,0.983369,10,0.0282113,1832,1,1
app_15,7.93951,19474.8,7738.3,68.1213,774.661,1.29859e+10,1.03209,0.983369,10,0.016756,1890,1,1
app_16,1.27759,20105.8,7733.5,69.6025,773.637,1.65864e+10,1.03225,0.983369,10,0.0214294,1950,1,1
app_17,3.13267,20001.8,7506.7,141.488,1499.4,4.86655e+10,1.05885,0.983369,5,0.0324653,3759,1,1
app_18,4.57526,18966.2,7637,94.555,1091.47,1.27589e+10,1.04578,0.983369,7,0.0116947,2588,1,1
app_19,5.14487,20529.2,7584.1,109.25,1264.79,1.24992e+10,1.0531,0.983369,6,0.00988075,3249,1,1
app_2,1.96524,20591.9,7645.5,83.4486,957.721,1.36905e+10,1.0445,0.983369,8,0.0142907,2468,1,1
app_20,6.43873,19071.8,7743.6,70.4196,643.532,4.87542e+10,1.02665,0.983369,12,0.075823,1540,1,1
app_21,77.6519,20123.6,7962.7,19.6637,99.8218,1.49522e+10,1.0028,0.983369,80,0.149522,249,1,1
app_22,119.639,20256.8,7932,42.9495,54.1506,3.90559e+10,1.00363,0.983369,145,0.723257,137,1,1
app_23,64.9194,20123.4,7937.2,47.0956,59.8546,4.34857e+10,1.00242,0.983369,133,0.737046,149,1,1
app_24,49.4988,20233.9,7937.9,29.3069,95.8624,2.49602e+10,1.00466,0.983369,83,0.260003,241,1,1
app_25,59.4176,20167.9,7971.1,16.3353,56.0552,1.17089e+10,1.00215,0.983369,143,0.209088,140,1,1
app_26,25.1691,19956.5,7938.3,47.9958,49.1089,4.4203e+10,1.00219,0.983369,163,0.902101,122,1,1
app_27,7.22975,20025.3,7970.3,6.54474,63.7821,2.81081e+09,1.00337,0.983369,124,0.0439189,161,1,1
app_28,48.3131,20151.9,7920.1,51.1482,102.167,4.73683e+10,1.00408,0.983369,77,0.464395,257,1,1
app_29,38.1288,20165.3,7940.8,47.7738,80.6056,4.39827e+10,1.00191,0.983369,98,0.549784,203,1,1
app_3,0.978279,20150.9,7524.4,139.09,1501.84,4.07137e+10,1.05749,0.983369,5,0.0271063,3788,1,1
app_30,6.43486,19936.3,7940.8,40.492,57.2465,3.86307e+10,1.00258,0.983369,140,0.677732,142,1,1
app_31,21.6919,20108.9,7949.2,18.4758,94.7073,1.2467e+10,1.00481,0.983369,84,0.132628,237,1,1
app_32,140.775,20229.2,7979.9,5.75566,56.3679,3.85739e+09,1.00203,0.983369,141,0.068882,142,1,1
app_33,27.8545,19918.4,7973.3,14.1839,126.453,9.29546e+09,1.00218,0.983369,63,0.0731926,315,1,1
app_34,67.6645,20090.2,7949.8,32.1582,104.04,2.86543e+10,1.0027,0.983369,76,0.275522,261,1,1
app_35,119.463,20065.8,7937.3,56.1753,57.0026,5.20974e+10,1.00133,0.983369,141,0.91399,141,1,1
app_36,42.5761,19842,7946,16.5697,90.9246,1.039e+10,1.00548,0.983369,88,0.114176,225,1,1
app_37,37.9501,20104.6,7937.1,45.2644,118.507,3.57824e+10,1.0034,0.983369,67,0.300692,297,1,1
app_38,78.9571,20062.9,7927.5,42.6812,83.501,3.89604e+10,1.00421,0.983369,95,0.463815,209,1,1
app_39,0.202318,19927.4,7964.2,18.9403,90.0204,1.68587e+10,1.00237,0.983369,89,0.187319,223,1,1
app_4,0.823944,18786.2,7685.4,80.8819,853.159,2.82881e+10,1.03712,0.983369,9,0.033163,2010,1,1
app_40,59.2147,20152.6,7919.7,43.0264,72.9694,3.85258e+10,1.00525,0.983369,107,0.52775,186,1,1
app_41,785.486,20755.8,7943.8,55.8734,8.53525,5.52582e+10,1.00012,0.983369,949,6.1398,21,1,1
app_42,292.704,20628.3,7993.3,3.41218,18.2045,2.35103e+09,1.00054,0.983369,443,0.130613,46,1,1
app_43,1.49054,21079.7,7969.4,28.7224,9.11207,2.84194e+10,1.00027,0.983369,860,3.15771,24,1,1
app_44,803.424,21217.7,7946.5,51.2339,7.88855,5.10821e+10,1.0003,0.983369,1007,6.38526,20,1,1
app_45,447.904,20668.8,7962.1,37.5625,8.71834,3.71237e+10,1.0001,0.983369,907,4.64046,22,1,1
app_46,749.346,20641.9,7972.2,26.3359,7.93008,2.59341e+10,1.00023,0.983369,1006,3.24177,20,1,1
app_47,691.788,21107.3,7973.7,24.2296,10.9967,2.34406e+10,1.00036,0.983369,730,2.13096,28,1,1
app_48,811.237,21226.8,7993.8,5.79235,7.60883,5.52083e+09,1.00008,0.983369,1062,0.690103,19,1,1
app_49,386.099,20229,7986.7,13.1959,11.8277,1.2668e+10,1.00008,0.983369,666,1.05566,30,1,1
app_5,3.21941,20510.5,7638.9,85.1942,956.776,1.87816e+10,1.0447,0.983369,8,0.0196254,2455,1,1
app_50,85.0924,20771.4,7989.7,6.61848,6.31639,6.45294e+09,1.00048,0.983369,1265,1.07549,16,1,1
app_51,284.354,20620.8,7966.8,25.1238,10.3565,2.43858e+10,1.0011,0.983369,754,2.21689,27,1,1
app_52,331.603,21040.5,7980,19.2411,8.07731,1.89182e+10,1.00014,0.983369,976,2.36477,21,1,1
app_53,425.782,21356.4,7949.4,46.4756,4.82288,4.6107e+10,1.00056,0.983369,1616,9.2214,13,1,1
app_54,911.129,21413,7953.5,46.3606,7.49153,4.59374e+10,1.00007,0.983369,1070,5.74218,19,1,1
app_55,112.412,20927.7,7966.8,33.0309,6.73556,3.27425e+10,1.00006,0.983369,1139,5.45708,18,1,1
app_56,1309.17,21365.8,7966.8,33.2,4.23586,3.29353e+10,1.00003,0.983369,1848,8.23383,11,1,1
app_57,268.671,20279.4,7965.8,19.9328,25.1346,1.82894e+10,1.00199,0.983369,322,0.731574,62,1,1
app_58,488.758,20660.8,7980.4,18.083,6.22369,1.76587e+10,1.00024,0.983369,1263,2.94311,16,1,1
app_59,1096.93,22315.7,7974.1,24.3828,4.10375,2.41515e+10,1.00022,0.983369,1909,6.03789,11,1,1
app_6,3.99795,19774.5,7622.7,98.6661,1089.53,2.28213e+10,1.04636,0.983369,7,0.0209562,2699,1,1
app_60,623.017,20551.2,7996.1,2.40981,8.21203,2.23623e+09,1.00021,0.983369,955,0.279528,21,1,1
app_7,0.0802822,18983.8,7754,66.9498,645.732,3.71639e+10,1.0268,0.983369,12,0.0575292,1536,1,1
app_8,8.24932,19270.4,7780.1,52.8973,598.735,1.1252e+10,1.02678,0.983369,13,0.0187846,1444,1,1
app_9,12.9693,19451.1,7776.4,52.397,517.903,2.92583e+10,1.0249,0.983369,15,0.0564833,1265,1,1
