app_id,start_app,end_app,effective_cpu,effective_io,effective_iter,total_bytes,stretch,utilization,Tcomp,Tio,iterations,priority,group_id
app_1,2.21546,19535.4,7663.7,104.123,1095.97,3.65765e+10,1.03892,0.984366,7,0.0333727,2679,1,1
app_10,4.91642,20596.2,7738.2,82.7576,856.639,3.4433e+10,1.02925,0.984366,9,0.0401785,2209,1,1
app_11,5.44075,18765.8,7599.8,121.591,1264.54,4.68536e+10,1.04621,0.984366,6,0.0370677,2976,1,1
app_12,6.88863,20606.4,7740,63.6304,772.374,4.20679e+09,1.03303,0.984366,10,0.00544921,1993,1,1
app_13,9.1382,20373.2,7755.2,70.0564,703.629,3.47615e+10,1.02696,0.984366,11,0.0494474,1793,1,1
app_14,0.752798,19752.3,7729.8,74.5985,856.381,1.13519e+10,1.03344,0.984366,9,0.0132461,2118,1,1
app_15,3.76604,20001.3,7786.11,58.0433,598.099,2.63446e+10,1.02401,0.984366,13,0.0439892,1495,1,1
app_16,7.10733,20440.4,7794.9,70.625,648.403,4.79101e+10,1.02004,0.984366,12,0.0739354,1653,1,1
app_17,13.5661,19414.8,7821.1,44.3782,521.686,6.40589e+09,1.02204,0.984366,15,0.0122718,1267,1,1
app_18,9.16702,19656.9,7774.1,70.2431,706.939,3.64407e+10,1.02426,0.984366,11,0.0515427,1736,1,1
app_19,7.13795,19744.6,7709.8,83.888,961.832,7.40075e+09,1.03665,0.984366,8,0.00769308,2377,1,1
app_2,9.48396,19373,7822.4,51.1491,489.412,3.06314e+10,1.01871,0.984366,16,0.062641,1185,1,1
app_20,2.19637,19711.5,7592.3,112.37,1262.6,2.24665e+10,1.05059,0.984366,6,0.0178023,3123,1,1
app_21,43.8727,20007.5,7937.1,28.1313,145.183,1.95892e+10,1.00544,0.984366,55,0.135098,361,1,1
app_22,52.1924,19902,7931.5,42.4821,85.0404,3.84926e+10,1.00377,0.984366,93,0.452855,213,1,1
app_23,54.8192,19973,7942,36.7756,89.9845,3.38791e+10,1.00302,0.984366,89,0.376435,223,1,1
app_24,20.8836,19893.8,7957.9,19.5641,99.1884,1.41536e+10,1.00351,0.984366,80,0.142965,247,1,1
app_25,82.7213,20160.5,7950.4,39.7902,80.5912,3.37422e+10,1.00199,0.984366,98,0.41657,203,1,1
app_26,33.2011,20081.9,7945.3,36.7856,75.5919,3.1427e+10,1.00292,0.984366,103,0.419026,192,1,1
app_27,88.5683,20070.6,7959.3,32.5484,63.0055,3.12554e+10,1.00118,0.984366,127,0.496117,157,1,1
app_28,3.54383,20082.8,7975.2,4.87068,54.4246,2.07534e+09,1.00285,0.984366,149,0.0384322,135,1,1
app_29,15.9041,20011.9,7938.2,26.9822,90.5894,2.19092e+10,1.00501,0.984366,87,0.24076,228,1,1
app_3,6.57787,19370.2,7761.1,69.014,774.601,1.56489e+10,1.02871,0.984366,10,0.0202182,1876,1,1
app_30,47.3899,20094.1,7950,21.5646,111.628,1.45722e+10,1.00445,0.984366,71,0.130109,279,1,1
app_31,20.9329,19910,7946.5,20.9418,111.068,1.28091e+10,1.00511,0.984366,72,0.115397,276,1,1
app_32,27.333,20068.7,7933.6,34.2176,115.621,2.66593e+10,1.00499,0.984366,69,0.229821,289,1,1
app_33,16.3562,19909.8,7922.9,46.1128,89.843,4.48304e+10,1.00405,0.984366,88,0.498116,225,1,1
app_34,40.8758,19896.4,7963.95,10.5693,126.038,1.09124e+09,1.00439,0.984366,63,0.00862891,314,1,1
app_35,64.5236,20070.8,7948.2,16.5895,77.0998,1.49083e+10,1.00463,0.984366,103,0.193615,193,1,1
app_36,2.89145,19909.2,7936.1,39.178,93.9,3.73463e+10,1.00333,0.984366,85,0.397301,232,1,1
app_37,65.0809,20053.8,7944.8,48.7205,69.4292,4.61677e+10,1.00113,0.984366,115,0.669097,173,1,1
app_38,22.7856,20253,7941.9,46.2852,59.3587,4.14878e+10,1.00208,0.984366,133,0.703183,150,1,1
app_39,7.80141,19953.8,7950.2,37.9078,76.0288,3.41792e+10,1.00196,0.984366,105,0.449726,189,1,1
app_4,0.212561,19977,7466.6,162.176,1866.83,2.40699e+10,1.068,0.984366,4,0.0128923,4669,1,1
app_40,89.4827,20041.9,7960.1,27.0108,66.2108,2.39516e+10,1.002,0.984366,121,0.357487,165,1,1
app_41,962.425,22118.8,7977.1,21.6019,6.82863,2.1111e+10,1.00022,0.984366,1169,3.01586,18,1,1
app_42,563.671,20596.1,7962.3,37.6406,8.80049,3.74757e+10,1.00003,0.984366,907,4.68446,22,1,1
app_43,238.99,20625.5,7981.1,18.0141,13.9171,1.68489e+10,1.00026,0.984366,566,1.2035,36,1,1
app_44,1092.24,21643.3,7990.9,8.31847,7.29897,7.95976e+09,1.00014,0.984366,1099,1.13711,19,1,1
app_45,529.471,20820.7,7990.5,9.44553,5.02153,9.19271e+09,1.00004,0.984366,1549,1.83854,13,1,1
app_46,252.347,20047.2,7972.5,26.9853,5.54665,2.66301e+10,1.00011,0.984366,1434,5.32602,14,1,1
app_47,924.161,21934.7,7969.1,29.6564,7.91101,2.91689e+10,1.00022,0.984366,984,3.64611,21,1,1
app_48,860.206,21817.1,7952,47.8339,5.80971,4.74381e+10,1.00007,0.984366,1373,7.90635,15,1,1
app_49,69.6627,20392.9,7958.8,40.236,12.2887,3.94502e+10,1.00022,0.984366,653,3.03463,31,1,1
app_5,2.54229,19050.9,7729.9,74.0767,772.159,2.86361e+10,1.03112,0.984366,10,0.0370455,1840,1,1
app_50,161.891,20947.4,7962.4,37.6,7.05513,3.74004e+10,1.00002,0.984366,1170,4.67505,18,1,1
app_51,64.8942,20226.6,7943.9,49.3878,13.0774,4.85958e+10,1.00094,0.984366,602,3.73814,33,1,1
app_52,0.908379,20694.8,7973,25.0324,9.73983,2.475e+10,1.00028,0.984366,825,2.475,25,1,1
app_53,313.435,20827.6,7956.5,32.9382,7.20698,3.26129e+10,1.00136,0.984366,1097,4.65899,19,1,1
app_54,152.224,20399.7,7985.9,13.7391,15.9544,1.34059e+10,1.00009,0.984366,491,0.893729,41,1,1
app_55,14.8772,20648.5,7955.9,43.9854,11.0041,4.32606e+10,1.0001,0.984366,725,3.93278,28,1,1
app_56,648.385,21288.5,7968,26.9661,8.52078,2.64452e+10,1.00069,0.984366,938,2.93835,22,1,1
app_57,218.106,20535.1,7969.2,22.3286,15.5466,2.13187e+10,1.00119,0.984366,510,1.33242,40,1,1
app_58,632.526,20991.1,7968.6,30.8512,7.41667,3.05939e+10,1.0001,0.984366,1060,4.37055,19,1,1
app_59,629.688,21992.5,7967.6,32.1538,7.84468,3.16295e+10,1.0001,0.984366,994,4.5185,21,1,1
app_6,5.05811,20081.2,7697.7,80.1213,959.746,3.46608e+09,1.0388,0.984366,8,0.0036105,2413,1,1
app_60,34.8536,21432.7,7985.3,14.3687,8.1485,1.41082e+10,1.00007,0.984366,947,1.76352,22,1,1
app_7,8.60646,19398.5,7733.5,81.5644,772.195,5.07386e+10,1.02772,0.984366,10,0.0657236,1876,1,1
app_8,0.471494,20325.9,7548.8,137.369,1508.13,3.34883e+10,1.05509,0.984366,5,0.0222071,3838,1,1
app_9,7.41704,18713.7,7705,76.8757,854.853,1.71059e+10,1.03599,0.984366,9,0.020007,2006,1,1
