app_id,start_app,end_app,effective_cpu,effective_io,effective_iter,total_bytes,stretch,utilization,Tcomp,Tio,iterations,priority,group_id
app_1,14.682,19523.9,7944.8,50.0465,528.17,1.01191e+10,1.00567,0.993399,15,0.0191287,1290,0.1,1
app_10,3.13499,18235,7880.5,108.608,1126.94,3.24035e+10,1.01101,0.993399,7,0.028752,2567,0.1,1
app_11,4.69512,20155.4,7913.5,78.1408,791.505,3.17259e+10,1.00689,0.993399,10,0.0401085,1990,0.1,1
app_12,5.44546,19500.7,7894.9,93.7134,985.535,2.32555e+10,1.01034,0.993399,8,0.0236096,2403,0.1,1
app_13,7.08033,19527.2,7932.6,58.599,658.546,1.00959e+09,1.00837,0.993399,12,0.00153201,1609,0.1,1
app_14,1.3623,18359.9,7876.9,109.948,1125.9,4.13317e+10,1.01033,0.993399,7,0.0367067,2582,0.1,1
app_15,2.42467,17713,7880.7,107.448,1128.4,2.87688e+10,1.01145,0.993399,7,0.0254817,2497,0.1,1
app_16,10.0185,19478.7,7926.3,66.3889,662.517,3.46809e+10,1.0049,0.993399,12,0.0523881,1612,0.1,1
app_17,9.02193,19825,7921.9,71.8307,718.968,3.34726e+10,1.00561,0.993399,11,0.0465543,1785,0.1,1
app_18,6.93442,18730.4,7903.8,86.6466,878.047,3.41575e+10,1.00782,0.993399,9,0.0388594,2055,0.1,1
app_19,0.496173,20136.2,7904.3,87.5541,876.816,3.91028e+10,1.00713,0.993399,9,0.0446379,2208,0.1,1
app_2,9.72267,18517.5,7907.2,84.1923,879.619,2.46883e+10,1.00859,0.993399,9,0.0280549,2031,0.1,1
app_20,2.55625,19087,7899.5,89.8852,986.369,4.94097e+09,1.01209,0.993399,8,0.00500605,2355,0.1,1
app_21,52.2131,19869.1,7982.6,13.8244,121.158,1.04595e+10,1.00087,0.993399,66,0.0864423,300,0.01,2
app_22,63.2573,20192.8,7966.8,30.8463,68.3157,2.47745e+10,1.00105,0.993399,117,0.364331,171,0.01,2
app_23,52.1183,19905.2,7946.9,50.5255,91.0881,4.21701e+10,1.00137,0.993399,87,0.463408,227,0.01,2
app_24,94.2292,19932,7954,45.5299,79.7264,3.87339e+10,1.00091,0.993399,100,0.484174,198,0.01,2
app_25,42.2107,19993.4,7982.9,16.3735,50.6324,1.26638e+10,1.00055,0.993399,157,0.248309,127,0.01,2
app_26,89.8578,19931.1,7963.2,35.2303,86.5289,2.69485e+10,1.00123,0.993399,92,0.313355,215,0.01,2
app_27,134.126,20156.2,7986.3,12.6083,58.0469,9.82703e+09,1.00048,0.993399,138,0.169432,145,0.01,2
app_28,31.4178,19786.4,7984.5,12.727,127.246,3.62382e+09,1.00149,0.993399,63,0.0283111,314,0.01,2
app_29,57.9293,20021.3,7975.2,24.2687,77.6527,1.78136e+10,1.00087,0.993399,103,0.228379,193,0.01,2
app_3,1.35224,19415.2,7928.6,65.2992,662.525,2.84179e+10,1.0054,0.993399,12,0.0429274,1603,0.1,1
app_30,34.8455,20319.6,7935.6,63.5332,56.963,5.62454e+10,1.00102,0.993399,137,0.986761,145,0.01,2
app_31,56.7375,19954.8,7958.9,38.1704,121.074,2.99256e+10,1.0014,0.993399,65,0.247319,303,0.01,2
app_32,68.7136,20191.1,7981.1,16.7127,67.038,1.32919e+10,1.0007,0.993399,119,0.198387,168,0.01,2
app_33,54.5304,20209.8,7993.3,5.36638,54.5695,1.54993e+09,1.00064,0.993399,146,0.0287024,137,0.01,2
app_34,107.68,20055.4,7984.1,15.6566,71.9911,1.1639e+10,1.00053,0.993399,111,0.161653,180,0.01,2
app_35,87.1217,20072,7982.9,16.2879,80.4746,9.66247e+09,1.00093,0.993399,99,0.11929,201,0.01,2
app_36,73.6419,19796.6,7986.5,10.4319,107.308,2.55534e+09,1.00137,0.993399,75,0.0238817,264,0.01,2
app_37,34.6373,19849.5,7945.1,52.4832,127.778,4.15045e+10,1.00168,0.993399,62,0.324254,316,0.01,2
app_38,102.411,20193.3,7962.6,36.9196,65.0657,3.1297e+10,1.00076,0.993399,122,0.481492,164,0.01,2
app_39,51.9338,20152.7,7962.4,36.1717,56.6767,3.02575e+10,1.00092,0.993399,140,0.530834,142,0.01,2
app_4,11.4435,20109.8,7932.7,61.6451,608.721,3.61451e+10,1.00391,0.993399,13,0.0593516,1529,0.1,1
app_40,7.33944,19781.2,7986.2,11.3234,111.902,4.63183e+09,1.00115,0.993399,72,0.0413557,275,0.01,2
app_41,409.384,20568.8,7972.3,27.6003,8.43525,2.35063e+10,1.00052,0.993399,971,2.61181,21,0.001,3
app_42,220.396,20375.8,7987.7,12.3,6.46281,1.09164e+10,1.00017,0.993399,1248,1.8194,16,0.001,3
app_43,636.003,20925.1,7977.8,17.4903,10.5059,1.37026e+10,1.00106,0.993399,744,1.37026,27,0.001,3
app_44,843.483,21353,7929.3,64.3831,8.08089,5.40676e+10,1.00208,0.993399,963,6.75845,21,0.001,3
app_45,26.3986,20054.3,7943.9,46.7836,17.9679,4.09903e+10,1.00189,0.993399,443,2.27724,45,0.001,3
app_46,184.24,20650.7,7930.8,69.2,8.94072,6.08441e+10,1.00105,0.993399,901,6.76046,23,0.001,3
app_47,253.79,20799.5,7929.9,36.5783,11.8338,3.20479e+10,1.00478,0.993399,654,2.67066,31,0.001,3
app_48,3.72875,20420,7934.9,61.541,4.52727,5.42401e+10,1.00136,0.993399,1829,13.56,11,0.001,3
app_49,78.9075,19610.7,7947.1,50.6919,6.08708,4.45185e+10,1.00105,0.993399,1329,7.41975,15,0.001,3
app_5,5.67909,18909.4,7910.6,80.9394,875.82,5.99805e+09,1.01054,0.993399,9,0.00684709,2075,0.1,1
app_50,932.862,21924.2,7939.8,57.7792,6.20093,5.02228e+10,1.00125,0.993399,1317,7.17469,16,0.001,3
app_51,358.977,21125.2,7987.8,10.9431,6.96991,9.77616e+09,1.0003,0.993399,1159,1.39659,18,0.001,3
app_52,673.404,21118.9,7979.5,20.5,7.42092,1.78846e+10,1.00033,0.993399,1075,2.23558,19,0.001,3
app_53,689.542,20926.4,7990.1,9.9,8.87492,8.65103e+09,1.00016,0.993399,879,1.08138,23,0.001,3
app_54,526.463,21271.1,7931.3,67.7327,11.6184,5.71515e+10,1.00145,0.993399,684,4.76263,30,0.001,3
app_55,448.44,20528.3,7939.2,60.8,13.8576,5.32501e+10,1.00094,0.993399,587,3.80358,34,0.001,3
app_56,400.197,21186.6,7978.5,21.5,9.25704,1.84902e+10,1.00038,0.993399,858,2.05446,24,0.001,3
app_57,778.272,21764.7,7966.33,33.6662,7.57033,2.96197e+10,1.00051,0.993399,1030,4.13492,20,0.001,3
app_58,30.4071,20423,7958.4,27.1649,8.28286,2.36477e+10,1.00225,0.993399,975,2.95597,21,0.001,3
app_59,499.973,21275.8,7966.4,30.1871,9.93299,2.58537e+10,1.00097,0.993399,788,2.58537,26,0.001,3
app_6,4.9571,20067.3,7919.4,73.4653,792.272,3.80466e+09,1.00969,0.993399,10,0.0047978,1988,0.1,1
app_60,1109.68,21421.2,7965.1,34.9,5.77097,2.92247e+10,1.00071,0.993399,1366,4.87079,15,0.001,3
app_7,10.4032,19541,7915.5,76.488,719.539,6.05545e+10,1.003,0.993399,11,0.0842204,1757,0.1,1
app_8,9.26448,19238.4,7931.9,60.8521,610.302,2.80945e+10,1.00503,0.993399,13,0.0460566,1466,0.1,1
app_9,8.10878,18652.3,7928.9,64.2502,610,4.52623e+10,1.00324,0.993399,13,0.0742005,1422,0.1,1
