app_id,Tcomp,Tio,iter,witer,alpha_io,compute_size,io_size,mu,desyn_time
1,7.9574756635139785,0.011139726643197354,2510,7.968615390157176,0.0013979500951893263,7e9,11139726.643197354,10,1.2729111319060338
2,9.823793717319273,0.03954029290080129,2028,9.863334010220074,0.0040088161730943,9e9,39540292.90080129,10,0.1423401671675544
3,10.007035743483456,0.0208622746034377,1995,10.027898018086894,0.0020804234911253883,10e9,20862274.6034377,10,3.976260542353287
4,10.080333223508045,0.014426934980989854,1982,10.094760158489036,0.001429150842069065,10e9,14426934.980989855,10,6.551227452543174
5,12.483523051051362,0.02425371701889753,1600,12.50777676807026,0.0019390909726508872,12e9,24253717.01889753,10,1.7497006099039978
6,9.732663148115416,0.0048407881811804955,2054,9.737503936296596,0.0004971282386994918,9e9,4840788.181180496,10,5.4402135308093245
7,10.293447159250888,0.02841416248335022,1938,10.32186132173424,0.0027528138189107333,10e9,28414162.48335022,10,5.429397395359359
8,9.460215892936603,0.059807462986929495,2101,9.520023355923533,0.0062822811195853,9e9,59807462.9869295,10,0.017982257746960405
9,10.509374170045747,0.06211083462636093,1892,10.571485004672109,0.005875317857321919,10e9,62110834.62636093,10,3.6370552567835372
10,9.856882036302306,0.05608414040479054,2018,9.912966176707096,0.0056576547730560955,9e9,56084140.404790536,10,8.6532346721889
11,9.380440919401876,0.004916592336652801,2131,9.385357511738528,0.0005238577572035463,9e9,4916592.336652801,10,1.4300067602849007
12,12.193357796754201,0.040069773936536095,1635,12.233427570690736,0.0032754331282049383,12e9,40069773.936536096,10,10.221322079938872
13,10.141410594142744,0.013287180785804256,1970,10.154697774928549,0.0013084762422580073,10e9,13287180.785804255,10,9.528791251544822
14,10.263409902324069,0.012718315756235166,1947,10.276128218080304,0.0012376563902597052,10e9,12718315.756235166,10,2.5394152406927164
15,10.56810353589404,0.02952108842821015,1888,10.597624624322249,0.002785632580385731,10e9,29521088.42821015,10,5.593993435043748
16,102.29430570840645,0.16272620734143775,196,102.45703191574789,0.0015882385454543538,102e9,162726207.34143776,100,20.41038749440543
17,93.4937505181464,0.2283262001257505,214,93.72207671827215,0.0024362050876454364,93e9,228326200.1257505,100,44.02640556903296
18,107.69583527106337,0.41328570008862725,185,108.109120971152,0.003822856909537809,107e9,413285700.0886273,100,93.73134462496442
19,101.1204328934384,0.4982730680520859,197,101.61870596149049,0.004903359704668074,101e9,498273068.0520859,100,97.78417299658072
20,110.8480938765313,0.18792679552058006,181,111.03602067205188,0.0016924849646370822,110e9,187926795.52058005,100,4.387200947831261
21,94.91579685020717,0.3666417195185723,210,95.28243856972574,0.0038479464319153773,94e9,366641719.5185723,100,6.443703830122697
22,99.04839131908247,0.1812492095229044,202,99.22964052860537,0.0018265631978244936,99e9,181249209.5229044,100,63.49861932441117
23,88.94553603709461,0.25073487694053803,225,89.19627091403515,0.002811046632007623,88e9,250734876.94053802,100,42.2911351263212
24,103.89206426352418,0.4391648958739623,192,104.33122915939813,0.004209333096258288,103e9,439164895.8739623,100,91.9258183286672
25,101.81597605406752,0.4914677319335162,196,102.30744378600103,0.004803831605464909,101e9,491467731.9335162,100,77.0535126936624
26,102.57164590352907,0.324871050059422,195,102.8965169535885,0.0031572599314120143,102e9,324871050.059422,100,42.83026077183071
27,95.61356351080435,0.4641143354881476,209,96.0776778462925,0.004830615663199619,95e9,464114335.4881476,100,92.38110672671455
28,116.66051866870352,0.48432595558155955,171,117.14484462428507,0.004134419718895208,116e9,484325955.58155954,100,100.20315029869533
29,124.07905486538311,0.7327651689998176,161,124.81182003438293,0.0058709597279965695,124e9,732765168.9998176,100,89.0526832210905
30,110.29507405937882,0.41804042538534864,181,110.71311448476416,0.0037758889480331392,110e9,418040425.3853486,100,103.70459922855484
31,1090.4941591447225,3.744709763228135,19,1094.2388689079507,0.0034222050318550206,1090e9,3744709763.228135,1000,969.1890370831555
32,902.7533891478895,5.566783378729204,23,908.3201725266186,0.006128657655201495,902e9,5566783378.729203,1000,863.575336252905
33,1002.5437625467227,3.6811007636018482,20,1006.2248633103246,0.0036583281707943437,1002e9,3681100763.601848,1000,498.33758462044585
34,1050.7025396711747,6.536861609032963,19,1057.2394012802076,0.006182953076774758,1050e9,6536861609.032963,1000,725.5156124167494
35,1139.037477703969,7.0108598992022175,18,1146.0483376031711,0.006117420765920422,1139e9,7010859899.202217,1000,288.483827957957
36,920.2973680405568,4.123270185424287,22,924.4206382259811,0.0044603830928494756,920e9,4123270185.4242873,1000,903.4105841413519
37,1015.8761524779717,6.242683141958011,20,1022.1188356199297,0.006107590354864887,1015e9,6242683141.958011,1000,411.55950053555136
38,1187.6734794931092,3.076828387128309,17,1190.7503078802374,0.0025839408705303213,1187e9,3076828387.128309,1000,736.9790919142349
39,940.7834954118795,0.1220207849249325,22,940.9055161968045,0.00012968441870566102,940e9,122020784.9249325,1000,580.3168593978568
40,1079.006401943318,5.676437182553097,19,1084.6828391258712,0.0052332690974696795,1079e9,5676437182.553097,1000,312.4865249336717
41,1058.604787411032,6.008901106001938,19,1064.613688517034,0.005644208007856921,1058e9,6008901106.001938,1000,615.5926834635875
42,951.3673241372873,3.861050418700165,21,955.2283745559874,0.004042018140944433,951e9,3861050418.700165,1000,631.7656416599547
43,999.2563585447518,1.3360965185560922,20,1000.592455063308,0.0013353054101048131,999e9,1336096518.5560923,1000,14.453552900823782
44,961.2350477750431,3.100610872406696,21,964.3356586474498,0.0032152817793293324,961e9,3100610872.406696,1000,524.8148115942323
45,948.8029215578294,1.411434199363411,22,950.2143557571928,0.0014853850510800671,948e9,1411434199.363411,1000,449.510768772285
46,859.928417206009,0.26739710860226945,24,860.1958143146113,0.00031085609131372804,859e9,267397108.60226944,1000,680.6338109436433
47,835.8725882897843,1.4019967180383721,24,837.2745850078227,0.0016744766211018733,835e9,1401996718.038372,1000,296.859530514167
48,882.7168506306347,5.605287616108528,23,888.3221382467432,0.006309971771244528,882e9,5605287616.108528,1000,70.54083438062864
49,1060.7154080246517,2.2474618692843764,19,1062.962869893936,0.0021143371353212286,1060e9,2247461869.2843766,1000,412.8572036153409
50,924.2569974828252,1.7572654942635324,22,926.0142629770887,0.0018976656888782827,924e9,1757265494.2635324,1000,19.649286126751097
51,896.6936071751478,3.9957372143179004,23,900.6893443894658,0.004436310076507477,896e9,3995737214.3179,1000,58.25777522616334
52,788.3514215238966,4.290097163035576,26,792.6415186869323,0.005412405307941012,788e9,4290097163.0355763,1000,783.1987122714903
53,936.6350847846569,5.187308403948008,22,941.8223931886049,0.0055077352603456545,936e9,5187308403.948009,1000,818.398571271027
54,986.2747748417906,0.3631992360770978,21,986.6379740778677,0.0003681180388546785,986e9,363199236.07709783,1000,462.22121429095347
55,964.7276563498096,1.844567384386746,21,966.5722237341964,0.0019083596022039164,964e9,1844567384.3867462,1000,865.3218492599586
56,967.8097632091733,3.031509263703569,21,970.8412724728769,0.0031225591140989144,967e9,3031509263.703569,1000,70.25701698931897
57,1064.2198309490652,0.25240986541409083,19,1064.4722408144794,0.00023712207395935452,1064e9,252409865.41409084,1000,184.4687789557586
58,844.0823120912194,1.8773512002594508,24,845.9596632914788,0.002219197063078647,844e9,1877351200.2594507,1000,537.1823372401284
59,923.0634832980046,3.414556399468203,22,926.4780396974728,0.003685523297004616,923e9,3414556399.468203,1000,174.58316085113492
60,947.7930902193078,5.995551924031038,21,953.7886421433388,0.006286038288900073,947e9,5995551924.031038,1000,312.365330253097
