app_id,start_app,end_app,effective_cpu,effective_io,effective_iter,total_bytes,stretch,utilization,Tcomp,Tio,iterations,priority,group_id
app_1,8.58878,19059.9,7698,77.0897,853.893,1.57938e+10,1.0371,0.987077,9,0.0184939,2039,1,1
app_10,6.25902,19952.1,7717.9,74.8022,701.93,5.09881e+10,1.02975,0.987077,11,0.0726326,1752,1,1
app_11,5.7889,19623.7,7730.6,75.7717,773.113,3.33696e+10,1.0304,0.987077,10,0.043169,1898,1,1
app_12,5.22489,19825,7666.1,87.6015,955.967,1.95297e+10,1.0409,0.987077,8,0.0204286,2372,1,1
app_13,6.5269,20188.4,7746.2,62.0055,701.542,1.04893e+10,1.03137,0.987077,11,0.0149633,1773,1,1
app_14,2.36889,19480.3,7629.1,104.929,1093.26,3.60488e+10,1.04368,0.987077,7,0.0329514,2660,1,1
app_15,8.2248,19311,7731.6,77.9157,773.128,4.09496e+10,1.02926,0.987077,10,0.052975,1867,1,1
app_16,64.3679,19953.8,7935.9,49.9082,84.536,4.38894e+10,1.00253,0.987077,94,0.516346,210,1,1
app_17,18.6568,20325.6,7966.9,14.2204,67.1729,1.19396e+10,1.00265,0.987077,117,0.178203,171,1,1
app_18,7.06226,19918.4,7950.9,20.6522,68.8023,1.72561e+10,1.004,0.987077,115,0.250089,173,1,1
app_19,0.827994,19972.2,7934.2,47.6816,97.8014,3.98737e+10,1.00325,0.987077,81,0.406874,244,1,1
app_2,4.8187,18968.7,7711.8,76.8819,860.285,1.06769e+10,1.03594,0.987077,9,0.012415,2033,1,1
app_20,95.2393,20394.9,7959.5,18.3988,63.9196,1.33544e+10,1.0034,0.987077,122,0.208662,164,1,1
app_21,35.2039,20005.4,7935.1,30.813,80.5045,2.47842e+10,1.00504,0.987077,99,0.309802,201,1,1
app_22,71.9378,20115,7916.1,48.3684,81.7714,4.28257e+10,1.00516,0.987077,97,0.522265,205,1,1
app_23,83.2301,20055.1,7941.7,46.1278,77.3031,4.25257e+10,1.00198,0.987077,103,0.552282,192,1,1
app_24,66.0704,19932.3,7956.1,24.7733,81.581,2.04578e+10,1.00294,0.987077,99,0.249486,201,1,1
app_25,94.2693,20090.2,7928.7,40.8145,83.867,3.58406e+10,1.00445,0.987077,94,0.431814,210,1,1
app_26,14.7041,20166,7948.2,34.8788,89.1206,2.82819e+10,1.00295,0.987077,88,0.317774,227,1,1
app_27,66.1418,20095.8,7935.67,42.5733,82.5951,4.07719e+10,1.00295,0.987077,96,0.491228,206,1,1
app_28,113.005,20118.7,7936,48.4078,68.4044,4.55431e+10,1.00231,0.987077,116,0.660045,171,1,1
app_29,41.3737,19905.4,7933,45.4198,89.1833,4.26629e+10,1.00305,0.987077,89,0.479358,222,1,1
app_3,6.44677,19030.6,7686.2,81.1925,855.269,2.89135e+10,1.03693,0.987077,9,0.033817,2027,1,1
app_30,47.0107,20100.6,7935.4,46.2829,78.209,4.1448e+10,1.0029,0.987077,102,0.531385,195,1,1
app_31,760.927,21128.7,7983.7,9.05057,9.07778,8.78908e+09,1.00094,0.987077,887,0.976564,23,1,1
app_32,129.624,20610.6,7958.3,35.9354,8.18347,3.54505e+10,1.00078,0.987077,973,4.43131,21,1,1
app_33,549.08,20999,7984.7,14.2561,8.39108,1.37046e+10,1.0002,0.987077,972,1.71307,21,1,1
app_34,444.898,20762.2,7947.6,51.9833,7.74764,5.13158e+10,1.00014,0.987077,1009,6.41448,20,1,1
app_35,557.818,20566.8,7971,28.7138,8.74447,2.81238e+10,1.00011,0.987077,922,3.51548,22,1,1
app_36,774.037,21378.3,7970.9,28.9616,9.5855,2.82021e+10,1.00011,0.987077,850,2.82021,24,1,1
app_37,955.795,21331.9,7989.8,7.04368,7.1371,6.86417e+09,1.00042,0.987077,1170,0.980595,18,1,1
app_38,803.53,21221.2,7991.7,8.06511,8.60504,7.38841e+09,1.00011,0.987077,937,0.820934,22,1,1
app_39,856.615,20995.9,7998,0.96268,9.0476,4.74191e+08,1.00019,0.987077,877,0.0474191,23,1,1
app_4,0.224925,20051.7,7666.3,86.0712,958.742,1.53616e+10,1.04144,0.987077,8,0.0160184,2403,1,1
app_40,513.743,20551.1,7962.4,37.5528,7.2262,3.70224e+10,1.00007,0.987077,1127,4.62779,18,1,1
app_41,376.236,20755.8,7954.48,37.3223,8.50676,3.72653e+10,1.00103,0.987077,928,4.2952,22,1,1
app_42,421.81,20745.1,7961.5,38.442,7.3543,3.79513e+10,1.00007,0.987077,1071,5.42162,19,1,1
app_43,790.43,21193.8,7994.6,5.37183,6.30066,4.87422e+09,1.00007,0.987077,1268,0.81237,16,1,1
app_44,652.564,20694.8,7970.9,25.1442,8.4837,2.43922e+10,1.00059,0.987077,951,2.71024,21,1,1
app_45,452.602,21283.8,7985.9,13.9841,7.20453,1.33368e+10,1.0001,0.987077,1106,1.90526,19,1,1
app_46,920.912,21921.6,7967,32.0544,7.98082,3.17116e+10,1.00016,0.987077,981,3.96395,21,1,1
app_47,429.78,21291.4,7971.9,26.6703,7.70458,2.63117e+10,1.00022,0.987077,1017,3.75882,20,1,1
app_48,821.045,21231.6,7977.4,19.3367,8.04081,1.89731e+10,1.00045,0.987077,1009,2.37163,20,1,1
app_49,421.57,21271,7960.2,36.1798,7.96694,3.58691e+10,1.00049,0.987077,985,4.48364,21,1,1
app_5,4.15234,20294.2,7715.8,71.2162,701.84,3.8078e+10,1.03174,0.987077,11,0.0542422,1784,1,1
app_50,129.781,20861.5,7982.4,17.572,7.71419,1.68431e+10,1.00009,0.987077,1045,2.10538,20,1,1
app_51,612.028,21000.7,7984.4,15.3557,9.63367,1.52123e+10,1.00005,0.987077,853,1.69026,24,1,1
app_52,684.646,21689.1,7970.5,23.0632,9.83407,2.27885e+10,1.00084,0.987077,797,2.27885,26,1,1
app_53,836.262,21271.5,7995.9,3.93984,8.15625,3.2229e+09,1.00011,0.987077,967,0.402862,21,1,1
app_54,909.925,21277.6,7989.1,10.3477,7.63648,9.82138e+09,1.00013,0.987077,1015,1.22767,20,1,1
app_55,825.076,20992.5,7966.9,32.2679,7.41699,3.21539e+10,1.00012,0.987077,1058,4.59342,19,1,1
app_56,109.499,20446.3,7982.1,17.657,7.56362,1.74167e+10,1.00006,0.987077,1082,2.17708,19,1,1
app_57,484.314,20997.2,7988.1,11.7287,9.96037,1.15796e+10,1.00004,0.987077,768,1.28663,26,1,1
app_58,305.85,20112.3,7964.3,29.8974,10.0985,2.92205e+10,1.00081,0.987077,799,2.92205,25,1,1
app_59,491.371,20573.2,7957.6,40.7958,7.51513,4.04838e+10,1.00024,0.987077,1068,5.78339,19,1,1
app_6,5.14945,20306.9,7690.1,84.6636,855.504,3.80765e+10,1.03517,0.987077,9,0.0444819,2164,1,1
app_60,1160.99,21238.2,7967.8,31.5926,6.74937,3.12801e+10,1.00011,0.987077,1180,5.21336,17,1,1
app_7,7.2772,20211,7688,77.8789,855.118,2.07036e+10,1.03779,0.987077,9,0.0242147,2155,1,1
app_8,4.95072,20013.9,7675.1,85.9179,852.123,4.12966e+10,1.03675,0.987077,9,0.0484702,2135,1,1
app_9,9.07194,19199.1,7679.6,80.4306,854.216,2.76419e+10,1.03798,0.987077,9,0.0323676,2046,1,1
