app_id,Tcomp,Tio,iter,witer,alpha_io,compute_size,io_size,mu,desyn_time
1,9.393512880202572,0.10964303623029309,2105,9.503155916432865,0.011537539444206978,9e9,109643036.2302931,10,7.135084539591657
2,17.025544721992226,0.28068617046857913,1156,17.306230892460807,0.01621879265408713,17e9,280686170.4685791,10,6.318328985301013
3,5.5255852675683705,0.08728892496052003,3564,5.61287419252889,0.01555155557854965,5e9,87288924.96052003,10,2.576210776933244
4,16.10432122347898,0.2095624774280241,1226,16.313883700907002,0.012845652284279375,16e9,209562477.4280241,10,0.040709056299059514
5,13.427298773205985,0.18477680973139268,1470,13.612075582937377,0.013574477206327658,13e9,184776809.73139268,10,5.296938000432394
6,27.634352172766,0.4107311562765513,714,28.04508332904255,0.014645389049395758,27e9,410731156.2765513,10,14.341316047576708
7,3.342620136762132,0.06468926827790487,5870,3.4073094050400368,0.018985440002078344,3e9,64689268.277904876,10,1.4849006786195655
8,9.187567324140845,0.2083292808397725,2129,9.395896604980617,0.02217236838572068,9e9,208329280.8397725,10,4.6925985905573935
9,9.25677557865339,0.12400130892203523,2133,9.380776887575424,0.01321866092842177,9e9,124001308.92203523,10,9.10407684585721
10,11.46974824253969,0.021279776752785366,1741,11.491028019292475,0.0018518601396723079,11e9,21279776.752785366,10,7.174001885497895
11,9.26707646234177,0.14895406581482787,2125,9.416030528156597,0.015819199541612896,9e9,148954065.81482786,10,8.48821837190543
12,12.368876941447667,0.0760864568140345,1608,12.4449633982617,0.006113835322702691,12e9,76086456.8140345,10,5.718095673413013
13,2.1105193464596606,0.004301077263262931,9458,2.1148204237229233,0.0020337789511656636,2e9,4301077.263262931,10,1.2579640742640525
14,25.21342400370425,0.6116284940338351,775,25.825052497738085,0.023683533425049388,25e9,611628494.0338352,10,24.422652153175285
15,12.444045094972216,0.1580902763209435,1588,12.602135371293159,0.01254472132405932,12e9,158090276.3209435,10,10.504133803146583
16,9.240326071201617,0.05511999531139883,2152,9.295446066513016,0.005929784855615423,9e9,55119995.31139883,10,0.7779546362441642
17,11.348296973166235,0.1919463920480825,1734,11.540243365214318,0.01663278545985133,11e9,191946392.0480825,10,6.6277344411752175
18,13.506050128348495,0.34099132636861296,1445,13.847041454717107,0.024625572724955733,13e9,340991326.36861295,10,1.9887897709875249
19,24.798484793635403,0.234958815423461,799,25.033443609058864,0.009385796820156072,24e9,234958815.423461,10,16.814317931726706
20,14.201547028553799,0.2737221024788861,1382,14.475269131032686,0.018909638225106936,14e9,273722102.4788861,10,10.401382906100286
21,6.016236261861135,0.10627729513489083,3267,6.122513556996026,0.017358441781390704,6e9,106277295.13489082,100,5.166843121366709
22,92.94479387465711,1.0070269338518203,213,93.95182080850893,0.010718546220666933,92e9,1007026933.8518203,100,54.54599650157974
23,104.82913636151461,0.8203234482892648,190,105.64945980980387,0.007764577781713768,104e9,820323448.2892648,100,72.91462265606764
24,26.677267411909156,0.008281772426413848,750,26.68554918433557,0.0003103467112183418,26e9,8281772.426413848,100,6.846656485447579
25,110.99714215961791,1.9255457893888404,178,112.92268794900674,0.01705189474641599,110e9,1925545789.3888404,100,57.17129199321362
26,139.18076114092,0.1314744138224069,144,139.31223555474241,0.0009437391719318461,139e9,131474413.8224069,100,19.9693744378366
27,286.0326556847974,4.284117909562854,69,290.31677359436026,0.014756701297420583,286e9,4284117909.562854,100,17.82463416682556
28,273.3068629427476,5.941254739874613,72,279.24811768262225,0.021275898971777885,273e9,5941254739.874613,100,90.67498180266132
29,49.55900905570225,0.8883922244291751,397,50.44740128013142,0.0176102673653294,49e9,888392224.4291751,100,6.950979050853222
30,52.24716431068522,0.7751390437905056,378,53.022303354475724,0.014619112991157418,52e9,775139043.7905055,100,15.210875078547193
31,124.04568290229723,0.07585669872544441,162,124.12153960102268,0.0006111485481833276,124e9,75856698.7254444,100,108.54631519704903
32,117.10323582859711,2.0136709154951857,168,119.11690674409229,0.01690499670060527,117e9,2013670915.4951856,100,59.634408574159316
33,111.82293551509476,0.6142565685842171,178,112.43719208367897,0.005463108400350925,111e9,614256568.5842171,100,13.700097513097932
34,303.9803664166708,6.282071889043974,65,310.26243830571474,0.02024760690771721,303e9,6282071889.043974,100,268.74229068340884
35,24.870444778476262,0.25312838237788743,797,25.12357316085415,0.010075333662024434,24e9,253128382.37788743,100,11.681270431195127
36,231.759984068025,1.9599847867169247,86,233.71996885474192,0.008386039054861695,231e9,1959984786.7169247,100,162.82523941672306
37,71.16351618537502,0.3934166527818974,280,71.55693283815691,0.005497952989009508,71e9,393416652.7818974,100,59.49991084670532
38,88.34363581341981,1.667218148479124,223,90.01085396189893,0.018522412299130587,88e9,1667218148.479124,100,52.96422663870162
39,76.19645372171253,1.6741932604372634,257,77.8706469821498,0.02149967061171377,76e9,1674193260.4372633,100,37.114550587638355
40,203.87393238336267,0.2290317560867365,98,204.1029641394494,0.0011221383141219595,203e9,229031756.0867365,100,185.1431248553386
41,1751.4969219197721,47.17499695939175,12,1798.671918879164,0.026227683027813475,1751e9,47174996959.39175,1000,1444.6477914787438
42,1988.2471711681312,43.468741479075824,10,2031.715912647207,0.021395088362741913,1988e9,43468741479.07582,1000,1539.0227444552056
43,2822.3881666975562,3.983024765830511,8,2826.371191463387,0.001409236259504985,2822e9,3983024765.830511,1000,2157.763378876398
44,726.8856121264614,0.8662232068325786,28,727.751835333294,0.0011902727891244243,726e9,866223206.8325785,1000,36.20496200178359
45,2896.49202728776,56.642047645829635,7,2953.1340749335895,0.019180316981410133,2896e9,56642047645.829636,1000,805.6005444590469
46,1168.059869754417,13.177551529314389,17,1181.2374212837312,0.011155717971577167,1168e9,13177551529.314388,1000,1071.587193442507
47,756.2573536723426,17.151693431840343,26,773.409047104183,0.022176742690119974,756e9,17151693431.840343,1000,74.56482926234419
48,2494.5942520637627,29.039047595806892,8,2523.6332996595697,0.011506841187950789,2494e9,29039047595.806892,1000,1652.0535693861273
49,1624.8291426139187,26.528136326840237,13,1651.357278940759,0.016064443876043805,1624e9,26528136326.840237,1000,954.7872120523315
50,26.392402490205455,0.13623972202330362,754,26.52864221222876,0.005135570864629549,26e9,136239722.02330363,1000,17.260848120443107
51,1816.539082074613,44.466443251690194,11,1861.005525326303,0.023893772826866583,1816e9,44466443251.69019,1000,145.58540923545635
52,1451.7303118698983,37.87821168822982,14,1489.6085235581281,0.02542829950902313,1451e9,37878211688.22982,1000,1423.3603208210104
53,1857.6587616135357,12.651003858914086,11,1870.3097654724497,0.006764122228554144,1857e9,12651003858.914085,1000,380.62488954138234
54,498.17174635719806,5.979872720766321,40,504.15161907796437,0.01186125858665856,498e9,5979872720.76632,1000,308.65341983848174
55,1671.9146370868127,42.71627984073624,12,1714.630916927549,0.024912813258540587,1671e9,42716279840.736244,1000,337.229890702075
56,1225.0647635993816,21.363569148992436,17,1246.428332748374,0.017139829533468463,1225e9,21363569148.992435,1000,1033.64984772875
57,324.91545527449426,8.05023802282831,61,332.96569329732256,0.024177379786811337,324e9,8050238022.82831,1000,112.36797985117025
58,392.6795284973001,0.8496335473759924,51,393.5291620446761,0.0021590103842915108,392e9,849633547.3759924,1000,351.2866868272351
59,2664.7597146920866,55.0426565787651,8,2719.802371270852,0.02023774122714877,2664e9,55042656578.7651,1000,1884.4239002124725
60,707.681641360394,0.6825384954713825,29,708.3641798558654,0.000963541797963672,707e9,682538495.4713825,1000,523.0267501707829
