app_id,Tcomp,Tio,iter,witer,alpha_io,compute_size,io_size,mu,desyn_time
1,10.58776526283419,0.1480172531815514,1863,10.73578251601574,0.013787281268108579,10e9,148017253.1815514,10,5.611454386499217
2,30.415201816145945,0.20780435532837904,654,30.623006171474323,0.006785890129949135,30e9,207804355.32837903,10,29.019576032835687
3,16.334123900415257,0.06678350729666924,1220,16.400907407711927,0.004071939779701868,16e9,66783507.29666924,10,1.5740270347167558
4,20.84897391473679,0.09811185677467174,955,20.94708577151146,0.004683795056021884,20e9,98111856.77467173,10,6.270685370067358
5,17.10007466351104,0.2591933471160487,1153,17.35926801062709,0.014931121920427424,17e9,259193347.1160487,10,5.81457112321062
6,10.357877214909722,0.048413242451823386,1922,10.406290457361546,0.004652305511766225,10e9,48413242.45182338,10,3.4165298557653894
7,21.234856488748623,0.2979197231757622,929,21.532776211924386,0.013835639224763815,21e9,297919723.17576224,10,16.614523195273723
8,26.087767589491353,0.5570458486274319,751,26.644813438118785,0.02090635199683955,26e9,557045848.6274319,10,26.570438984668584
9,9.018746562652092,0.13564449136909698,2185,9.15439105402119,0.014817423744369465,9e9,135644491.369097,10,7.221269141540799
10,2.9728887878784582,0.018310404402541572,6687,2.991199192281,0.006121425965142294,2e9,18310404.40254157,10,0.30098134658510944
11,13.549980052541764,0.07107768744584068,1469,13.621057739987606,0.0052182208461811685,13e9,71077687.44584069,10,9.10638144083741
12,6.972226144517598,0.09999654478823314,2828,7.072222689305831,0.014139337685087548,6e9,99996544.78823313,10,0.5176130066143261
13,4.504682221092749,0.06836520132482928,4374,4.573047422417579,0.014949593785031743,4e9,68365201.32482928,10,0.4496069491261841
14,5.353305268087036,0.09456891967256265,3672,5.447874187759599,0.017358866305143782,5e9,94568919.67256264,10,0.4548314703058945
15,21.57972830182806,0.22768242623414983,918,21.80741072806221,0.010440598797965665,21e9,227682426.23414984,10,11.54111235696295
16,2.0379609303209025,0.020073831345012127,9719,2.0580347616659145,0.009753883519811391,2e9,20073831.34501213,10,1.7304316540811011
17,18.698092547645334,0.14294457160454055,1062,18.841037119249876,0.007586873838197271,18e9,142944571.60454056,10,12.897841680632366
18,4.312863701397336,0.09353876147107656,4539,4.406402462868413,0.021227920567697334,4e9,93538761.47107656,10,0.06490390402267267
19,12.229581047869273,0.2036660620440845,1609,12.433247109913356,0.0163807620200596,12e9,203666062.0440845,10,10.31405876988816
20,22.01855344882011,0.311925440326544,896,22.330478889146654,0.013968596100200521,22e9,311925440.326544,10,11.169697368699422
21,67.00006877804694,0.7141962530234666,296,67.71426503107041,0.010547205270495966,67e9,714196253.0234666,100,16.5999011903698
22,230.20809417266898,3.046371428074975,86,233.25446560074394,0.013060291987246992,230e9,3046371428.074975,100,27.211096076679443
23,51.64094197377267,0.5834683018160034,383,52.224410275588674,0.011172329160579047,51e9,583468301.8160034,100,51.822032343469914
24,2.3604709207552323,0.023347326462158664,8390,2.383818247217391,0.009794088324230163,2e9,23347326.462158665,100,1.2411326185608043
25,54.450768772802405,0.5480348975113394,364,54.99880367031375,0.00996448760588492,54e9,548034897.5113394,100,13.774247389280383
26,55.23651216144552,0.6566790473563653,358,55.89319120880188,0.011748820082632061,55e9,656679047.3563653,100,39.96692792481861
27,229.63086750248274,0.4217876895220732,87,230.0526551920048,0.001833439779993167,229e9,421787689.5220732,100,6.767211445805962
28,203.47493662388672,3.078136564952402,97,206.5530731888391,0.014902400227849652,203e9,3078136564.952402,100,48.0011370472075
29,137.0532532513978,1.4603590297992595,145,138.51361228119706,0.010543072307107106,137e9,1460359029.7992594,100,136.6407199303977
30,262.5941123066971,6.538518283663683,75,269.1326305903608,0.024294780864442176,262e9,6538518283.663683,100,77.08436761298479
31,213.8638078871389,1.2423288419732437,93,215.10613672911214,0.005775422593069651,213e9,1242328841.9732437,100,166.32825703044878
32,220.41368607248427,0.003488336011410573,91,220.41717440849567,1.5826062650389007e-05,220e9,3488336.011410573,100,111.87163767134953
33,169.79158303207905,1.3296025227295585,117,171.1211855548086,0.007769946885411792,169e9,1329602522.7295585,100,36.15713695645462
34,125.63615371940413,3.4495429700537064,155,129.08569668945785,0.02672289075026097,125e9,3449542970.053706,100,18.595948236592907
35,185.73465210839575,1.9606969196881772,107,187.69534902808394,0.010446166779523171,185e9,1960696919.688177,100,93.40360399462638
36,28.2254573580079,0.5323229785856665,696,28.75778033659357,0.01851057252524801,28e9,532322978.5856665,100,6.360473244071416
37,103.47473177246405,2.746973746266407,189,106.22170551873046,0.025860757298629734,103e9,2746973746.266407,100,28.942547976664084
38,256.658674417196,1.0469068704125406,78,257.70558128760854,0.004062414423396424,256e9,1046906870.4125406,100,157.32119806340884
39,249.4847286451696,4.86403431880596,79,254.34876296397556,0.019123483291699248,249e9,4864034318.80596,100,10.085876253272824
40,52.21014149307281,1.4740117954880507,373,53.684153288560864,0.027457111739566848,52e9,1474011795.4880507,100,15.564659176230547
41,1195.2473201075154,31.168382972055557,17,1226.415703079571,0.025414207347305408,1195e9,31168382972.055557,1000,476.50703175024427
42,1104.836080917319,2.4402688684943925,19,1107.2763497858132,0.002203848089924821,1104e9,2440268868.4943924,1000,769.9374649227811
43,910.6364725142522,17.753122112706983,22,928.3895946269591,0.0191224914792808,910e9,17753122112.70698,1000,920.1413600086928
44,1059.0635514832782,30.846231996020343,19,1089.9097834792985,0.028301637863595,1059e9,30846231996.020344,1000,547.7654321152224
45,945.6796058602955,10.393742821461831,21,956.0733486817574,0.010871281827689077,945e9,10393742821.461832,1000,195.52984164812352
46,409.09198861742055,1.5422361226588286,49,410.6342247400794,0.0037557418007108964,409e9,1542236122.6588285,1000,18.140533405175997
47,663.5276124990113,3.6421853136464457,30,667.1697978126577,0.005459157961867417,663e9,3642185313.6464458,1000,299.4672441643691
48,1586.0769568040087,41.27879552357083,13,1627.3557523275795,0.025365563408326953,1586e9,41278795523.57083,1000,1271.584919007826
49,1003.2806336959733,27.00459239799729,20,1030.2852260939706,0.026210792617474887,1003e9,27004592397.997288,1000,790.9579847810704
50,1946.4948770808717,32.59647723496775,11,1979.0913543158395,0.016470425765785918,1946e9,32596477234.96775,1000,1908.0277035226854
51,890.1806224403008,25.55727568191004,22,915.7378981222108,0.027908941777245594,890e9,25557275681.910038,1000,328.34130594295027
52,935.3553824770053,4.633677781949592,22,939.9890602589549,0.004929501818535072,935e9,4633677781.949592,1000,808.320326768229
53,17.94968750875876,0.44954570430649765,1088,18.39923321306526,0.02443284995090318,17e9,449545704.30649763,1000,15.307687362355074
54,1874.4445373067185,39.662438348718105,11,1914.1069756554366,0.020721118962087646,1874e9,39662438348.7181,1000,809.6342940787132
55,1704.0108696267755,29.554577755265566,12,1733.5654473820412,0.01704843494654192,1704e9,29554577755.265564,1000,1134.245680545251
56,1580.2658400541259,26.386153424556213,13,1606.651993478682,0.01642306705599984,1580e9,26386153424.556213,1000,1425.569787998438
57,778.1690681503798,2.3124524934256394,26,780.4815206438054,0.0029628536131363343,778e9,2312452493.4256396,1000,671.346688843781
58,1234.085088190065,0.9269613810067174,17,1235.0120495710719,0.000750568693907608,1234e9,926961381.0067174,1000,530.8183907399282
59,57.95092079060434,0.3657412465517602,343,58.31666203715611,0.006271642336434318,57e9,365741246.5517602,1000,34.59394456360654
60,1182.619309310921,19.415918078049838,17,1202.0352273889707,0.016152536660863578,1182e9,19415918078.04984,1000,881.4252661981974
