app_id,Tcomp,Tio,iter,witer,alpha_io,compute_size,io_size,mu,desyn_time
1,14.434633944460025,0.2993749896062419,1358,14.734008934066267,0.020318637714007475,14e9,299374989.60624194,10,7.773503882413126
2,18.996724750968006,0.38308861604744454,1033,19.37981336701545,0.019767404814097098,18e9,383088616.0474445,10,10.324762126062582
3,22.695367672703178,0.30799046364821614,870,23.003358136351395,0.013388934859972019,22e9,307990463.6482161,10,5.240437806017672
4,10.826468242447978,0.13704247339382963,1825,10.963510715841808,0.01249987134101206,10e9,137042473.39382964,10,0.2708372083836848
5,12.381236238253766,0.10452108970364554,1602,12.485757327957412,0.008371225465803964,12e9,104521089.70364554,10,8.181234114700837
6,15.089900865319045,0.3068202027767911,1299,15.396721068095836,0.019927632735554687,15e9,306820202.7767911,10,6.73312604639875
7,10.458666977240934,0.19165873914856302,1878,10.650325716389498,0.01799557537039685,10e9,191658739.14856303,10,4.921695472668242
8,10.11464363373258,0.20383319346782638,1939,10.318476827200406,0.01975419404252615,10e9,203833193.4678264,10,0.4810333768027194
9,20.705780633711694,0.43936415069506496,946,21.14514478440676,0.020778488640052675,20e9,439364150.69506496,10,4.944716475179924
10,9.781565042895412,0.03374062031583435,2038,9.815305663211246,0.0034375516640605085,9e9,33740620.31583435,10,8.572757478060861
11,32.07699909218811,0.1337151967984558,621,32.210714288986566,0.0041512645636727,32e9,133715196.7984558,10,28.646023869228472
12,21.65887250448557,0.26814925562297004,913,21.927021760108538,0.01222916903885276,21e9,268149255.62297004,10,4.1413142378371885
13,12.976686753490121,0.05060178970302953,1536,13.027288543193151,0.0038842917722482872,12e9,50601789.70302953,10,5.66240101043025
14,2.3543753522159325,0.029347409002218758,8391,2.3837227612181513,0.012311586514877,2e9,29347409.002218757,10,0.10326435583039031
15,4.8403815179863665,0.11007126357787965,4041,4.9504527815642465,0.022234585084376722,4e9,110071263.57787965,10,4.0954115545134355
16,11.57291595549313,0.2793482914235926,1688,11.852264246916723,0.023569191979183463,11e9,279348291.42359257,10,9.082379986119218
17,10.814591981255392,0.1629317690291713,1822,10.977523750284563,0.014842306219100435,10e9,162931769.02917132,10,8.851549241453203
18,22.43638015022813,0.38761797196259934,877,22.823998122190726,0.01698291289227439,22e9,387617971.96259934,10,0.9942356512731166
19,1.9938277701618259,0.0493300888374847,9789,2.0431578589993107,0.024144041841997164,1e9,49330088.8374847,10,1.1933380767510686
20,20.390716392034637,0.08819454473870149,977,20.47891093677334,0.0043066032666968295,20e9,88194544.73870149,10,9.360862531927372
21,166.5167362931675,0.3591459834550792,120,166.87588227662258,0.0021521742899896054,166e9,359145983.4550792,100,0.9576443600589984
22,114.60500819191724,1.263182165292973,173,115.86819035721021,0.010901889132804325,114e9,1263182165.2929728,100,89.38745708605852
23,228.17304837444664,4.573721426867215,86,232.74676980131386,0.01965106295899019,228e9,4573721426.867215,100,111.79480095168071
24,198.61320098128851,1.6538726248517588,100,200.2670736061403,0.008258335207435968,198e9,1653872624.8517587,100,110.9186331865204
25,40.64590053752706,0.13945257735060107,491,40.785353114877665,0.00341918278745346,40e9,139452577.35060108,100,12.820125677549711
26,51.48573404352575,1.019138967374219,381,52.50487301089997,0.01941036915111949,51e9,1019138967.3742191,100,48.72358526335993
27,111.22077245142604,2.170643194217311,177,113.39141564564335,0.019142923490793457,111e9,2170643194.217311,100,10.895989291274667
28,62.88656301372182,1.3762875794323939,312,64.26285059315421,0.02141653485223712,62e9,1376287579.4323938,100,50.15561915612859
29,218.73430631878483,2.1505066735099883,91,220.88481299229483,0.00973587384473103,218e9,2150506673.5099883,100,61.04859643626993
30,86.33509212492635,0.7918105358345554,230,87.1269026607609,0.00908801428322966,86e9,791810535.8345554,100,72.6763437850742
31,81.50081869282079,2.0039680159574216,240,83.50478670877821,0.0239982412379093,81e9,2003968015.9574215,100,30.84755286145015
32,24.2118873475062,0.37288161253541574,814,24.584768960041615,0.015167179856010515,24e9,372881612.53541577,100,17.771778509551933
33,149.58120616983197,2.0136662805350607,132,151.59487245036703,0.013283208382884756,149e9,2013666280.5350606,100,132.15193536709475
34,53.434529520835866,0.6792698564849998,370,54.113799377320866,0.012552618080808466,53e9,679269856.4849998,100,36.98742633108149
35,140.82002725570985,0.2236303288862796,142,141.04365758459613,0.0015855397734006512,140e9,223630328.88627958,100,98.69224813893514
36,88.91128035392506,1.0635676418352784,223,89.97484799576034,0.011820721740873563,88e9,1063567641.8352784,100,47.70903057877265
37,166.01020064447812,2.9812676790369244,119,168.99146832351505,0.017641527756475994,166e9,2981267679.0369244,100,117.98864835478912
38,8.51671152802266,0.08708395588970544,2325,8.603795483912364,0.010121574374069867,8e9,87083955.88970543,100,3.994101593934667
39,346.59068767492823,0.7642900748549121,58,347.35497774978313,0.002200314156446227,346e9,764290074.854912,100,196.62922593555314
40,275.4460403744344,3.8626700960715667,72,279.30871047050596,0.013829393610978886,275e9,3862670096.0715666,100,113.57756559065352
41,1541.7667904808852,27.588545246949337,13,1569.3553357278345,0.017579540221943645,1541e9,27588545246.949337,1000,1167.889408437365
42,869.9652399197757,20.503704473922344,23,890.468944393698,0.023025737846346674,869e9,20503704473.922344,1000,141.40842051253335
43,1748.1389809024727,14.693125413804369,12,1762.832106316277,0.008334954509370737,1748e9,14693125413.804369,1000,1492.32164408011
44,64.0118583507959,0.24431212048446982,312,64.25617047128037,0.0038021581225987687,64e9,244312120.48446983,1000,32.449813802314026
45,901.3994144124373,20.24137186151533,22,921.6407862739526,0.021962322157364565,901e9,20241371861.515327,1000,293.5634941050498
46,1712.4310369271507,17.981466538352297,12,1730.412503465503,0.010391433546822364,1712e9,17981466538.3523,1000,1673.686032979588
47,2533.2600440425417,44.59043665643335,8,2577.850480698975,0.01729752636558766,2533e9,44590436656.43335,1000,2209.659279635572
48,1565.2353182584234,10.665032975442102,13,1575.9003512338654,0.0067675808099743225,1565e9,10665032975.442102,1000,1297.3161752037354
49,773.7752957434309,0.9700752838450338,26,774.745371027276,0.0012521214325666246,773e9,970075283.8450339,1000,456.72505588761135
50,1096.667706572045,14.458422407095272,18,1111.1261289791403,0.013012404289672416,1096e9,14458422407.095272,1000,911.2098793306733
51,1312.7918901453118,20.362004846037983,16,1333.1538949913497,0.015273559131123497,1312e9,20362004846.037983,1000,453.489377936175
52,1618.1122232901864,13.262772967020966,13,1631.3749962572074,0.008129812579847778,1618e9,13262772967.020966,1000,46.38918866161549
53,1049.7322339118664,25.04638357445701,19,1074.7786174863234,0.023303760576326993,1049e9,25046383574.457012,1000,912.98716540698
54,1247.0155496504128,25.27221533641641,16,1272.2877649868292,0.01986360006902843,1247e9,25272215336.41641,1000,1116.6820635096522
55,1731.0346515749434,24.998437671512498,12,1756.0330892464558,0.014235744089674165,1731e9,24998437671.512497,1000,816.5113445591053
56,4534.6566253070805,93.00193378633132,5,4627.658559093412,0.020096974009368357,4534e9,93001933786.33131,1000,2718.884418395571
57,2023.9489259398536,28.073709534565463,10,2052.022635474419,0.013680994083223132,2023e9,28073709534.565464,1000,1271.3124176373938
58,184.71191733432707,1.427146901138578,108,186.13906423546564,0.007667100439127808,184e9,1427146901.138578,1000,137.13338901246559
59,807.5399924537613,4.03082063365374,25,811.5708130874151,0.0049666899901433205,807e9,4030820633.6537404,1000,798.256400208399
60,1777.1271166356923,16.291118816940465,12,1793.4182354526329,0.009083836940483,1777e9,16291118816.940464,1000,577.9639864904099
