app_id,Tcomp,Tio,iter,witer,alpha_io,compute_size,io_size,mu,desyn_time
1,5.35135390190572,0.028090022739361464,3718,5.379443924645082,0.005221733534700755,5e9,28090022.739361465,10,0.6343916700397312
2,17.471517396179035,0.20578980116183854,1132,17.677307197340873,0.011641467722685426,17e9,205789801.16183853,10,12.8816380060333
3,6.563767739180217,0.050196273865332465,3024,6.61396401304555,0.0075894386129594996,6e9,50196273.86533246,10,2.8569696707993653
4,26.19076593476878,0.48781936811870896,750,26.67858530288749,0.0182850538205229,26e9,487819368.11870897,10,20.41338165958987
5,7.177228186183341,0.0017854111672366726,2786,7.179013597350578,0.0002486986746891774,7e9,1785411.1672366727,10,2.639845597288177
6,15.929213171777329,0.0972477550927437,1248,16.026460926870072,0.006067949470347347,15e9,97247755.09274371,10,5.334864787392289
7,10.482968954442178,0.08936788404150112,1892,10.572336838483679,0.008452992503625014,10e9,89367884.04150112,10,2.8712610458503747
8,13.376336589278221,0.18339185777070743,1475,13.55972844704893,0.013524744133841405,13e9,183391857.77070743,10,6.715686716094206
9,3.446241563082652,0.037655885363129686,5741,3.4838974484457816,0.010808551606456883,3e9,37655885.36312968,10,2.227091040931251
10,19.876978805409127,0.25014071187477394,994,20.1271195172839,0.012428043250797455,19e9,250140711.87477395,10,17.753405698151482
11,11.466336080740462,0.044958767418005786,1738,11.511294848158467,0.0039056220877878144,11e9,44958767.41800579,10,9.215598213472326
12,15.821685771303281,0.06060743322103135,1260,15.882293204524313,0.0038160379260449868,15e9,60607433.221031345,10,6.523508579633237
13,15.899632410622475,0.3668169137222024,1230,16.266449324344677,0.022550521408087332,15e9,366816913.72220236,10,10.756523948370493
14,11.941631428908094,0.2997493201148745,1634,12.24138074902297,0.024486561300595,11e9,299749320.1148745,10,6.0840010731299925
15,8.670684841876144,0.06568383938187385,2290,8.736368681258018,0.007518437210964352,8e9,65683839.381873846,10,7.3236859817378175
16,22.8241891275419,0.2222564357633494,868,23.046445563305248,0.009643848772811546,22e9,222256435.7633494,10,5.865166094584188
17,6.318930488860287,0.15147541888175908,3091,6.470405907742046,0.0234104971220606,6e9,151475418.88175908,10,5.728774461851847
18,29.940650047267198,0.5231154018687871,657,30.463765449135984,0.017171724970841507,29e9,523115401.8687871,10,23.5173549944859
19,3.2150747556124255,0.03769575479915953,6149,3.252770510411585,0.011588814728398945,3e9,37695754.79915953,10,1.8009988742524616
20,8.052488780710894,0.04568623569730972,2470,8.098175016408204,0.005641547089898905,8e9,45686235.697309725,10,0.15560027193051207
21,249.17439331334688,6.401825648396492,79,255.57621896174336,0.02504859675287225,249e9,6401825648.396492,100,20.220013244131717
22,106.94700183936642,2.861682132065851,183,109.80868397143227,0.026060617690403645,106e9,2861682132.065851,100,46.49292342300217
23,206.574418016167,1.8227261590449353,96,208.39714417521193,0.008746406608683949,206e9,1822726159.0449352,100,68.70500876235761
24,103.31417396839575,1.7668120373023082,191,105.08098600569805,0.016813812892910066,103e9,1766812037.302308,100,24.552684151519937
25,6.184209335373008,0.14091466630450078,3162,6.3251240016775085,0.02227856185382742,6e9,140914666.3045008,100,4.540712064586588
26,104.43102495622628,1.4676718247568143,189,105.8986967809831,0.013859205725564448,104e9,1467671824.7568142,100,57.021940355655865
27,87.3915947559759,0.5064069232922708,228,87.89800167926818,0.005761301891027098,87e9,506406923.2922708,100,84.43133767106559
28,241.96304506913157,0.8010931172422877,83,242.76413818637386,0.0032998824423864283,241e9,801093117.2422878,100,148.6575722901078
29,274.11668007753747,5.2712009232020165,72,279.38788100073947,0.01886696339268941,274e9,5271200923.202017,100,186.52418650951302
30,220.07153447740376,3.221856824481063,90,223.2933913018848,0.014428805105679217,220e9,3221856824.481063,100,197.2906459778464
31,49.47954668797538,0.9467422658930431,397,50.42628895386842,0.01877477572777868,49e9,946742265.8930432,100,16.123667906013818
32,42.69718014448385,1.0133430989079448,458,43.7105232433918,0.023183046637657058,42e9,1013343098.9079448,100,3.8824593264479486
33,126.54449729981819,2.1183513209551372,156,128.66284862077333,0.016464358932381958,126e9,2118351320.9551373,100,48.99001709810632
34,164.11849933605677,1.3177352318523068,121,165.43623456790908,0.007965215330813132,164e9,1317735231.8523068,100,145.62487761044045
35,367.52011779781975,0.5444961092063839,55,368.0646139070261,0.0014793492463905393,367e9,544496109.206384,100,179.9866865905545
36,198.4338179798951,1.5183251144232819,101,199.9521430943184,0.007593442565439675,198e9,1518325114.423282,100,68.33782571125525
37,116.08301801415675,2.058876782189338,170,118.1418947963461,0.017427152203191302,116e9,2058876782.189338,100,59.247328277571306
38,20.00263672177616,0.46321640312235635,978,20.465853124898516,0.022633622957003083,20e9,463216403.12235636,100,10.642759495101624
39,88.84435704040042,1.3295071127653375,222,90.17386415316577,0.014743818791075529,88e9,1329507112.7653375,100,67.22191540334761
40,133.40870214700297,1.9193774987427112,148,135.32807964574567,0.014183142949838282,133e9,1919377498.7427113,100,70.29980682685273
41,1005.494235413744,25.902020333035782,20,1031.3962557467798,0.025113548928177454,1005e9,25902020333.03578,1000,557.4240083148059
42,293.44621558985705,6.062444727209006,67,299.5086603170661,0.02024130027088758,293e9,6062444727.209006,1000,59.985336566310906
43,420.24957723812855,5.098773218233364,48,425.3483504563619,0.011987288096363421,420e9,5098773218.233364,1000,124.30082634980792
44,868.8225522810759,12.834228994093657,23,881.6567812751696,0.01455694468263612,868e9,12834228994.093657,1000,604.2371763498319
45,1543.1248702956411,25.941880017565055,13,1569.0667503132063,0.016533318300439873,1543e9,25941880017.565056,1000,564.3435109733525
46,1415.5152776565503,35.98901083654535,14,1451.5042884930956,0.024794284882139733,1415e9,35989010836.54535,1000,1426.9880639194052
47,313.5926022699783,0.879930311384699,64,314.472532581363,0.0027981150028008757,313e9,879930311.384699,1000,94.49453816129392
48,204.07122604905703,5.119607623132319,96,209.19083367218934,0.02447338410226404,204e9,5119607623.132319,1000,158.97595211145753
49,701.682299704685,11.00441677415329,29,712.6867164788382,0.015440749097335033,701e9,11004416774.15329,1000,306.2487194952546
50,443.21099284243184,8.172544680921137,45,451.38353752335297,0.018105544401911908,443e9,8172544680.921137,1000,69.49580202281203
51,800.6627274295516,0.3324423483145328,25,800.9951697778662,0.0004150366454852986,800e9,332442348.3145328,1000,192.62018084379594
52,1671.9362004317738,43.80792315959573,12,1715.7441235913695,0.025532900015357563,1671e9,43807923159.59573,1000,282.2083474222242
53,1559.7413618444555,39.85381527388484,13,1599.5951771183404,0.024914938381898108,1559e9,39853815273.88484,1000,704.1408408792088
54,1041.2692666062583,4.112913675513191,20,1045.3821802817715,0.0039343636739671605,1041e9,4112913675.5131907,1000,959.0649707866814
55,1894.1966135369803,21.52445917604268,11,1915.721072713023,0.01123569578193342,1894e9,21524459176.04268,1000,646.2093972429257
56,804.21454750154,5.798042629928154,25,810.0125901314682,0.007157966061968381,804e9,5798042629.928154,1000,164.80181096063862
57,2490.452090510128,25.273610061824968,8,2515.725700571953,0.010046250295125174,2490e9,25273610061.824966,1000,1876.0561295422117
58,1625.23265980561,1.9760527937311794,13,1627.2087125993412,0.0012143818911678431,1625e9,1976052793.7311795,1000,202.91394804572005
59,2162.5299337289593,24.334719481195837,10,2186.864653210155,0.011127675160634324,2162e9,24334719481.195835,1000,1921.9078128461492
60,1579.9441406687042,10.756234303646169,13,1590.7003749723503,0.006761948681776814,1579e9,10756234303.64617,1000,1326.5946572409557
