app_id,start_app,end_app,effective_cpu,effective_io,effective_iter,total_bytes,stretch,utilization,Tcomp,Tio,iterations,priority,group_id
app_1,9.40577,24438.2,6055.7,66.3001,356.59,4.67048e+10,1.31096,0.85108,17,0.131193,1130,1,1
app_10,14.4077,24621.8,6025.9,26.9291,376.008,5.90253e+09,1.3263,0.85108,16,0.0156982,1204,1,1
app_11,15.2682,24198.5,6137,179.568,293.099,1.66059e+11,1.26923,0.85108,21,0.566753,911,1,1
app_12,1.28576,24959.1,5761.3,35.2928,480.62,7.71581e+09,1.38672,0.85108,12,0.0160412,1580,1,1
app_13,1.8948,26102.8,4787.6,95.4895,957.372,4.66962e+10,1.65484,0.85108,5,0.0487434,3509,1,1
app_14,4.58234,27512.1,4841.7,67.6937,967.231,1.29111e+10,1.64792,0.85108,5,0.0133517,3808,1,1
app_15,3.74834,27902.1,4562.5,134.871,1138.23,8.4142e+10,1.72167,0.85108,4,0.0739385,4643,1,1
app_16,0.805406,25948.1,3228.4,268.841,3221.98,8.30995e+10,2.41582,0.85108,1,0.0257913,12590,1,1
app_17,11.7651,25869.2,5671.1,147.105,475.473,1.23014e+11,1.38071,0.85108,12,0.258433,1628,1,1
app_18,0.575793,33553.5,3246.7,231.819,3239.73,3.44446e+10,2.43817,0.85108,1,0.0106311,19569,1,1
app_19,0.791621,30512.6,3233.82,251.402,3232.73,5.84443e+10,2.42994,0.85108,1,0.0180783,16776,1,1
app_2,28.3062,23821.4,6480.44,121.726,232.201,1.11792e+11,1.21355,0.85108,28,0.481864,700,1,1
app_20,8.3954,25012.4,5500.6,39.0446,610.755,4.29986e+09,1.45325,0.85108,9,0.00704895,2027,1,1
app_21,2.89626,20655.2,7574.3,187.984,33.2318,1.8628e+11,1.03085,0.85108,228,5.64484,86,1,1
app_22,23.5674,21273.4,7243.6,200.9,84.5021,1.95983e+11,1.07533,0.85108,86,2.30568,225,1,1
app_23,34.8906,21515.9,7298.1,135.225,71.0043,1.31479e+11,1.07678,0.85108,103,1.85182,190,1,1
app_24,107.905,21223.9,7536.4,115.48,47.9402,1.13304e+11,1.04579,0.85108,158,2.36049,125,1,1
app_25,0.854453,21079.1,7572,24.1271,56.3494,2.12958e+10,1.05356,0.85108,134,0.380283,149,1,1
app_26,29.0263,22408.5,7054.8,60.8454,129.598,5.36279e+10,1.12542,0.85108,54,0.412522,366,1,1
app_27,25.5956,23697,6565.6,55.9463,198.42,4.4817e+10,1.21021,0.85108,33,0.226348,602,1,1
app_28,75.5195,20907.7,7549.5,159.102,37.3002,1.57148e+11,1.03806,0.85108,200,4.24725,98,1,1
app_29,90.4328,21485,7348.8,193.987,49.176,1.91568e+11,1.06096,0.85108,146,3.90955,134,1,1
app_3,0.0675977,24344.5,5900,170.278,369.55,1.48513e+11,1.32264,0.85108,16,0.402475,1163,1,1
app_30,149.778,20739.4,7525,105.093,39.432,1.02832e+11,1.04879,0.85108,193,2.63672,102,1,1
app_31,57.004,21486.4,7322.4,57.6244,81.2925,5.34706e+10,1.08462,0.85108,91,0.66013,217,1,1
app_32,196.796,21010.2,7630,178.064,38.9693,1.75804e+11,1.02488,0.85108,195,4.50779,101,1,1
app_33,129.075,21404.6,7546.5,8.96932,52.4742,5.90017e+09,1.05927,0.85108,145,0.111324,138,1,1
app_34,165.941,21028.2,7534.6,96.9982,38.3717,9.5207e+10,1.04852,0.85108,196,2.50545,101,1,1
app_35,9.33258,23765.4,6449.7,158.24,228.645,1.47078e+11,1.21271,0.85108,28,0.645079,693,1,1
app_36,108.92,21213.7,7547.4,133.383,45.1157,1.31073e+11,1.04187,0.85108,164,2.91272,120,1,1
app_37,69.5897,20886.8,7575.6,83.2777,57.442,8.04934e+10,1.04492,0.85108,133,1.38782,149,1,1
app_38,130.971,21058.8,7572.1,95.6165,52.7076,9.28261e+10,1.04372,0.85108,144,1.75144,137,1,1
app_39,78.05,21253.3,7513,98.0624,49.7878,9.54142e+10,1.05147,0.85108,150,1.90828,132,1,1
app_4,20.4901,24303.8,6165.8,128.246,294.789,1.16541e+11,1.27341,0.85108,21,0.395053,924,1,1
app_40,91.0588,20833.4,7652,11.8897,33.0544,1.0084e+10,1.0441,0.85108,232,0.305575,86,1,1
app_41,517.428,21368.6,7750.3,178.1,4.93782,1.7778e+11,1.00907,0.85108,1543,35.5561,13,1,1
app_42,584.926,21618,7889.6,98.5611,5.26475,9.83922e+10,1.0015,0.85108,1461,19.6784,14,1,1
app_43,513.239,21246.7,7687.4,170.128,10.629,1.69542e+11,1.01821,0.85108,714,15.4129,28,1,1
app_44,758.832,21593,7699.2,211.726,4.90675,2.11474e+11,1.01129,0.85108,1577,42.2947,13,1,1
app_45,89.6326,21458.4,7419.9,62.5242,56.4776,5.99231e+10,1.06954,0.85108,131,1.07006,152,1,1
app_46,551.378,20719.4,7788.6,162.685,5.2108,1.62331e+11,1.00617,0.85108,1507,32.4661,13,1,1
app_47,720.082,20976.7,7839.6,127.905,6.31843,1.27753e+11,1.0041,0.85108,1277,21.2922,16,1,1
app_48,47.4567,20363.3,7845.8,22.1135,19.0672,2.10282e+10,1.01693,0.85108,416,1.10675,48,1,1
app_49,899.441,22724.1,7915.3,44.9344,4.0695,4.47909e+10,1.00501,0.85108,1949,11.1977,11,1,1
app_5,11.8189,24554.3,6008.8,51.7562,376.467,3.68106e+10,1.32327,0.85108,16,0.0979006,1197,1,1
app_50,0.710224,23028.3,6471.4,159.448,202.162,1.48791e+11,1.20842,0.85108,32,0.736591,595,1,1
app_51,1396.2,21816.8,7888.9,57.3961,4.71631,5.70172e+10,1.00681,0.85108,1697,11.4034,12,1,1
app_52,310.006,20898.4,7887.5,33.3677,21.3904,3.21671e+10,1.01014,0.85108,366,1.46214,55,1,1
app_53,43.0187,21210.5,7471.8,57.6501,59.173,5.44404e+10,1.06295,0.85108,127,0.922718,156,1,1
app_54,178.034,20409.7,7816.8,52.5607,17.855,5.17531e+10,1.01671,0.85108,445,3.0443,45,1,1
app_55,604.41,21395.7,7772.9,216.891,8.50281,2.16543e+11,1.00132,0.85108,924,24.0604,22,1,1
app_56,149.556,20814.2,7783.1,1.92588,17.8778,1.01686e+09,1.02773,0.85108,439,0.059815,46,1,1
app_57,1737.67,24327.8,7941.4,6.8271,3.18962,6.65322e+09,1.00654,0.85108,2409,2.21774,9,1,1
app_58,863.165,22987.3,7934.5,59.8348,4.57426,5.958e+10,1.00074,0.85108,1650,11.916,13,1,1
app_59,993.02,22381.9,7879.2,116.484,4.7997,1.16319e+11,1.00056,0.85108,1609,29.0797,13,1,1
app_6,3.05138,25575.5,5621.2,165.077,512.108,1.42245e+11,1.38806,0.85108,11,0.277823,1730,1,1
app_60,714.979,21745.8,7860.6,135.351,8.1045,1.34863e+11,1.00057,0.85108,970,16.8578,21,1,1
app_7,7.90655,24820.6,5903.6,72.8722,394.052,4.92806e+10,1.34389,0.85108,15,0.125078,1284,1,1
app_8,10.1626,25789.2,5603.2,148.897,508.245,1.23144e+11,1.39705,0.85108,11,0.242409,1751,1,1
app_9,5.0289,24634.4,5628,178.652,469.342,1.53011e+11,1.38384,0.85108,12,0.326249,1518,1,1
