app_id,start_app,end_app,effective_cpu,effective_io,effective_iter,total_bytes,stretch,utilization,Tcomp,Tio,iterations,priority,group_id
app_1,2.33408,15690.2,7676,324,2555.77,4.39267e+10,1.03628,0.942222,3,0.0171857,5021,1,1
app_10,6.45792,20544.1,7614.7,385.3,951.027,8.76104e+10,1.03865,0.942222,8,0.0921245,2450,1.00001,1.00001
app_11,2.75771,20219.4,7887.2,112.8,874.016,1.55475e+10,1.01231,0.942222,9,0.0177889,2212,1.00001,1.00001
app_12,13.9827,20791.9,7216.4,783.6,400.778,2.03864e+11,1.07813,0.942222,18,0.508388,1052,1.00001,1.00001
app_13,1.14,20936.8,7355.8,644.2,1837.46,1.47854e+11,1.06615,0.942222,4,0.0804866,4840,1.00001,1.00001
app_14,4.76641,20539.7,7496.2,503.8,300.393,1.26654e+11,1.04948,0.942222,25,0.422181,776,1.00001,1.00001
app_15,3.14939,20145.6,7629.4,370.6,476.107,8.80419e+10,1.03661,0.942222,16,0.184962,1202,1.00002,1.00002
app_16,7.3247,19857.3,7459.4,540.6,1066.74,1.24137e+11,1.05492,0.942222,7,0.116451,2654,1.00002,1.00002
app_17,0.249874,19516.5,7868.8,131.2,1311.09,6.73214e+09,1.0158,0.942222,6,0.00513512,3200,1.00002,1.00002
app_18,6.01019,20247.6,7143.9,856.1,647.549,2.18726e+11,1.08657,0.942222,11,0.338062,1655,1.00002,1.00002
app_19,20.5452,19913,7635.2,364.8,330.686,8.78273e+10,1.03586,0.942222,23,0.265339,826,1.00002,1.00002
app_2,9.62132,21241.9,7265,735,723.051,1.84878e+11,1.07384,0.942222,10,0.25571,1940,1,1
app_20,15.5016,20185.1,7654,346,254.502,8.10961e+10,1.03425,0.942222,30,0.318024,644,1.00002,1.00002
app_21,144.32,21583.2,7175.6,824.4,34.0902,1.94072e+11,1.08553,0.942222,211,5.5449,93,1.00002,1.00002
app_22,179.302,20034.5,7995.9,4.1,39.8474,4.36822e+08,1.00046,0.942222,202,0.0109206,99,1.00002,1.00002
app_23,59.0022,20541.3,7798.1,201.9,40.5052,4.7608e+10,1.01967,0.942222,192,1.1902,104,1.00002,1.00002
app_24,29.7796,20324.1,7788.5,211.5,60.0706,5.00161e+10,1.0206,0.942222,130,0.833602,153,1.00002,1.00002
app_25,2.22788,17080.3,7570,430,1893.86,8.7631e+10,1.04471,0.942222,4,0.0462677,4057,1.00003,1.00003
app_26,60.7704,20653.2,7612.3,387.7,121.006,9.78613e+10,1.03759,0.942222,63,0.808771,312,1.00003,1.00003
app_27,118.818,20783,7632.3,367.7,53.6106,8.32697e+10,1.03686,0.942222,142,1.57113,140,1.00003,1.00003
app_28,68.6996,21067.1,7358.5,641.5,55.9347,1.50161e+11,1.06544,0.942222,132,2.68144,148,1.00003,1.00003
app_29,67.3278,20011.2,7978.5,21.5,42.1379,4.84805e+09,1.00209,0.942222,193,0.11543,104,1.00003,1.00003
app_3,7.76256,21333.1,7271.5,728.5,212.224,1.92681e+11,1.07179,0.942222,34,0.904608,573,1,1
app_30,44.5451,20619.6,7678,322,90.6483,8.17259e+10,1.03096,0.942222,84,0.898087,234,1.00003,1.00003
app_31,3.56987,19949.3,7334.6,665.4,1223.37,1.5764e+11,1.06777,0.942222,6,0.128791,3064,1.00003,1.00003
app_32,69.6813,21326.1,7207.2,792.8,78.2969,2.1383e+11,1.07802,0.942222,92,2.74141,210,1.00003,1.00003
app_33,173.281,21101.7,7486.46,513.541,40.7253,1.37208e+11,1.04936,0.942222,184,3.38053,107,1.00003,1.00003
app_34,58.0993,21119.8,7268.61,731.39,26.6523,1.68441e+11,1.0757,0.942222,275,6.34063,71,1.00003,1.00003
app_35,136.75,20914.7,7534.3,465.7,53.2162,9.65061e+10,1.04838,0.942222,142,1.82087,139,1.00004,1.00004
app_36,149.41,21333.7,7251.8,748.2,41.3549,1.76941e+11,1.0769,0.942222,174,4.21288,112,1.00004,1.00004
app_37,27.7744,20776.5,7470.8,529.2,79.2757,1.32285e+11,1.0522,0.942222,93,1.6745,210,1.00004,1.00004
app_38,84.0739,19949.6,7964.7,35.3,73.1023,6.98281e+09,1.00355,0.942222,109,0.095655,182,1.00004,1.00004
app_39,192.303,20818.5,7681.4,318.6,36.6895,7.8526e+10,1.03094,0.942222,209,2.12232,95,1.00004,1.00004
app_4,3.47038,19204.5,7328.6,671.4,1048.22,1.62398e+11,1.06795,0.942222,7,0.15496,2533,1,1
app_40,2.48221,19448.8,7466.6,533.4,829.489,1.27958e+11,1.05339,0.942222,9,0.154352,2028,1.00004,1.00004
app_41,547.445,20591.9,7983.8,16.2,10.528,4.80462e+09,1.00143,0.942222,780,0.480462,26,1.00004,1.00004
app_42,933.457,23231.5,7700.3,299.7,4.33144,4.83024e+10,1.03244,0.942222,1783,12.0756,12,1.00004,1.00004
app_43,61.7637,20507.9,7945.4,54.6,18.8425,1.21905e+10,1.00533,0.942222,420,0.677251,48,1.00004,1.00004
app_44,97.6433,21249.3,7931.1,68.9,5.84595,2.16369e+10,1.00594,0.942222,1385,3.60615,15,1.00004,1.00004
app_45,340.049,21731.5,7376,624,18.3441,1.46389e+11,1.06349,0.942222,404,8.13271,49,1.00004,1.00004
app_46,332.433,21960.1,7597.4,402.6,7.00379,1.22417e+11,1.03629,0.942222,1075,17.4881,19,1.00005,1.00005
app_47,1266.86,22587.9,7806.2,193.8,4.09853,5.53555e+10,1.01761,0.942222,1863,13.8389,11,1.00005,1.00005
app_48,273.268,21099.8,7823.6,176.4,8.73346,6.93732e+10,1.01356,0.942222,901,7.70813,22,1.00005,1.00005
app_49,246.204,20722.4,7585.8,414.2,18.9141,9.41998e+10,1.04167,0.942222,403,4.95788,49,1.00005,1.00005
app_5,2.08323,17989.4,7568.8,431.2,1890.18,8.84655e+10,1.04476,0.942222,4,0.0468072,4262,1.00001,1.00001
app_50,927.57,22981.7,7474.6,525.4,4.65327,1.73534e+11,1.04601,0.942222,1542,43.3834,13,1.00005,1.00005
app_51,16.5924,20706.6,7904.5,95.5,5.11037,2.09714e+10,1.0094,0.942222,1586,4.19427,13,1.00005,1.00005
app_52,101.026,20673.4,7650.3,349.7,28.3931,1.0257e+11,1.03188,0.942222,267,3.6632,74,1.00005,1.00005
app_53,15.6055,21688.2,7795.5,204.5,5.93182,5.69814e+10,1.01879,0.942222,1317,9.4969,16,1.00005,1.00005
app_54,611.98,22835.9,7686.4,313.6,4.94423,7.65647e+10,1.03053,0.942222,1509,15.3129,14,1.00005,1.00005
app_55,1389.31,22835.6,7571.1,428.9,4.45445,7.43002e+10,1.04638,0.942222,1702,14.86,12,1.00005,1.00005
app_56,1617.9,24005.2,7357.6,642.397,4.51242,1.4405e+11,1.06643,0.942222,1609,29.4204,13,1.00006,1.00006
app_57,65.682,20646.6,7506.2,493.8,12.1325,1.13981e+11,1.04984,0.942222,618,9.49846,32,1.00006,1.00006
app_58,220.222,21672.5,7082.9,917.1,3.6719,2.20701e+11,1.09535,0.942222,2013,55.1753,10,1.00006,1.00006
app_59,301.963,21779.2,7313.2,686.8,18.4016,1.70099e+11,1.06905,0.942222,403,9.44996,49,1.00006,1.00006
app_6,1.44008,19785.3,7781,219,649.502,4.72783e+10,1.02194,0.942222,12,0.0727358,1606,1.00001,1.00001
app_60,16.7559,19986.4,7939.9,60.1,283.824,1.11831e+10,1.00615,0.942222,28,0.0395162,711,1.00006,1.00006
app_7,6.67587,20827,7216.61,783.391,902.883,1.95402e+11,1.07933,0.942222,8,0.216513,2369,1.00001,1.00001
app_8,0.399265,12304,5661.45,642.6,5659.15,7.72373e+10,1.39405,0.942222,1,0.0136462,11085,1.00001,1.00001
app_9,6.68242,20265,7250.6,749.4,607.028,1.90782e+11,1.07507,0.942222,12,0.314303,1544,1.00001,1.00001
