app_id,start_app,end_app,effective_cpu,effective_io,effective_iter,total_bytes,stretch,utilization,Tcomp,Tio,iterations,priority,group_id
app_1,2.55479,16091.3,7603.1,396.9,3807.44,3.82976e+10,1.04693,0.949613,2,0.0100571,7656,1,1
app_10,31.6801,20987.5,7375.5,624.5,217.73,1.6797e+11,1.06052,0.949613,34,0.770506,571,1.00001,1.00001
app_11,6.54511,20066.7,7257.8,742.2,906.467,1.92337e+11,1.07381,0.949613,8,0.212059,2279,1.00001,1.00001
app_12,1.64534,19980.4,7788.7,211.3,408.194,4.90757e+10,1.0207,0.949613,19,0.120284,1023,1.00001,1.00001
app_13,15.9668,20387.8,7366.23,633.768,386.628,1.7371e+11,1.06102,0.949613,19,0.449763,987,1.00001,1.00001
app_14,1.43703,18334,7857.3,142.7,1122.7,2.04374e+10,1.01552,0.949613,7,0.018199,2574,1.00001,1.00001
app_15,1.12737,20102.1,7358.1,641.9,667.87,1.67241e+11,1.06307,0.949613,11,0.250361,1681,1.00002,1.00002
app_16,0.934845,20652.3,7223.75,776.248,3615.14,1.70948e+11,1.08186,0.949613,2,0.0472822,9359,1.00002,1.00002
app_17,13.9672,19843.6,7740.8,259.2,296.704,6.47542e+10,1.02491,0.949613,26,0.218028,737,1.00002,1.00002
app_18,12.9444,19097,7681.2,318.8,639.607,7.43989e+10,1.03151,0.949613,12,0.116248,1525,1.00002,1.00002
app_19,29.0277,20709.8,7414.1,585.9,186.166,1.53564e+11,1.05713,0.949613,40,0.825613,482,1.00002,1.00002
app_2,8.96729,18710.1,7938.8,61.2,612.744,2.63953e+09,1.00737,0.949613,13,0.00431296,1431,1,1
app_20,6.64433,20131.6,7699.8,300.2,767.386,7.06398e+10,1.02954,0.949613,10,0.0920988,1940,1.00002,1.00002
app_21,94.5827,21090.1,7441.9,558.1,28.3887,1.45425e+11,1.05439,0.949613,265,5.01465,74,1.00002,1.00002
app_22,90.3596,21146.7,7481.5,518.5,38.2404,1.38946e+11,1.04981,0.949613,196,3.65646,101,1.00002,1.00002
app_23,211.073,21281.6,7330.65,669.353,35.086,1.61523e+11,1.06778,0.949613,208,4.52149,94,1.00002,1.00002
app_24,90.3293,20737.7,7738.6,261.4,50.545,6.63623e+10,1.02499,0.949613,153,1.30122,130,1.00002,1.00002
app_25,90.2932,21000.3,7448.1,551.9,53.4704,1.53077e+11,1.05247,0.949613,139,2.88825,141,1.00003,1.00003
app_26,120.184,21190.7,7416.3,583.7,55.8023,1.66559e+11,1.05501,0.949613,133,2.97426,147,1.00003,1.00003
app_27,42.8183,20653.4,7642.45,357.553,93.3914,9.66348e+10,1.03371,0.949613,82,1.03601,241,1.00003,1.00003
app_28,81.1356,20877.8,7485.5,514.5,33.2093,1.67833e+11,1.0453,0.949613,230,5.08586,85,1.00003,1.00003
app_29,8.03987,19831.2,7698.8,301.2,855.421,6.9007e+10,1.02989,0.949613,9,0.0806157,2122,1.00003,1.00003
app_3,2.87452,20506.6,7343.9,656.1,1049.9,1.68433e+11,1.06492,0.949613,7,0.160412,2698,1,1
app_30,25.7211,20757.5,7516.5,483.5,278.004,1.28799e+11,1.04639,0.949613,27,0.463307,725,1.00003,1.00003
app_31,0.116529,20084.6,7371.7,628.3,2457.41,1.35017e+11,1.06571,0.949613,3,0.054952,6182,1.00003,1.00003
app_32,2.91723,20823.8,7539.5,460.5,234.429,1.22681e+11,1.04409,0.949613,32,0.524279,613,1.00003,1.00003
app_33,23.7818,20715.1,7614.7,385.3,317.151,9.94304e+10,1.03706,0.949613,24,0.312674,822,1.00003,1.00003
app_34,62.7178,21525.7,7260.4,739.6,43.1878,1.91403e+11,1.07357,0.949613,169,4.35007,116,1.00003,1.00003
app_35,139.333,20562,7809.7,190.3,53.7201,5.03671e+10,1.0178,0.949613,145,0.932724,137,1.00004,1.00004
app_36,18.6343,20508.1,7705.4,294.6,91.5136,8.21555e+10,1.02728,0.949613,84,0.892995,234,1.00004,1.00004
app_37,34.3591,20322.4,7768.6,231.4,52.7525,6.46188e+10,1.02129,0.949613,149,1.24267,133,1.00004,1.00004
app_38,5.17085,20841.2,7511.1,488.9,105.999,1.31954e+11,1.0467,0.949613,71,1.24484,276,1.00004,1.00004
app_39,0.723943,20120.5,7815.1,184.9,178.503,4.54479e+10,1.01774,0.949613,44,0.253899,449,1.00004,1.00004
app_4,15.6007,20798.9,7379.5,620.5,408.055,1.6679e+11,1.06012,0.949613,18,0.4088,1065,1,1
app_40,16.3478,20184.8,7810.3,189.7,144.588,4.4976e+10,1.01842,0.949613,54,0.310179,365,1.00004,1.00004
app_41,534.505,22104.8,7392.4,607.6,6.0666,1.82192e+11,1.05616,0.949613,1213,30.3654,17,1.00004,1.00004
app_42,386.525,22531.5,7493.6,506.4,6.41622,1.38287e+11,1.04823,0.949613,1148,19.7552,18,1.00004,1.00004
app_43,37.0999,21321.7,7442.3,557.7,4.19879,1.46756e+11,1.05415,0.949613,1854,36.689,11,1.00004,1.00004
app_44,201.941,20782.9,7733,267,35.9148,7.01768e+10,1.02522,0.949613,217,1.94935,92,1.00004,1.00004
app_45,1363.74,22977.1,7425,575,5.63279,1.22026e+11,1.06002,0.949613,1384,24.4052,15,1.00004,1.00004
app_46,567.231,21752.9,7806.7,193.3,8.01429,6.29258e+10,1.01657,0.949613,979,7.86573,21,1.00005,1.00005
app_47,277.554,20845.8,7618.3,381.7,26.5445,9.08719e+10,1.03772,0.949613,287,3.49507,69,1.00005,1.00005
app_48,1054.39,22836.2,7961.2,38.8,3.26679,1.37832e+10,1.00314,0.949613,2422,4.5944,9,1.00005,1.00005
app_49,66.2916,20777.6,7525.3,474.7,68.9509,1.28818e+11,1.04519,0.949613,109,1.86692,180,1.00005,1.00005
app_5,1.91153,19217.4,7778.9,221.1,1551.34,3.71137e+10,1.02354,0.949613,5,0.0239289,3734,1.00001,1.00001
app_50,55.6679,19994.7,7886.4,113.6,3.62175,2.45713e+10,1.01125,0.949613,2250,6.14281,9,1.00005,1.00005
app_51,468.099,22770.3,7749.3,250.7,2.82225,9.63325e+10,1.01968,0.949613,2753,32.1108,8,1.00005,1.00005
app_52,202.191,21403.1,7420.59,579.411,7.34555,1.6229e+11,1.05501,0.949613,995,22.0159,20,1.00005,1.00005
app_53,457.308,21572.6,7700.9,299.1,9.4207,7.44854e+10,1.02889,0.949613,811,7.44854,25,1.00005,1.00005
app_54,251.985,21220.5,7460.2,539.8,3.80487,1.41497e+11,1.0524,0.949613,1965,35.3742,10,1.00005,1.00005
app_55,1277.52,23156.5,7985.6,14.4,2.97598,3.60535e+09,1.00135,0.949613,2730,1.20178,8,1.00005,1.00005
app_56,45.819,22391.7,7902.8,97.2,4.91997,2.1345e+10,1.00957,0.949613,1532,4.26899,14,1.00006,1.00006
app_57,2103.14,24020.5,7937,63,3.27247,1.3612e+10,1.00621,0.949613,2336,4.53733,9,1.00006,1.00006
app_58,989.434,22275.3,7855.4,144.6,4.91771,3.83437e+10,1.01346,0.949613,1583,9.58593,13,1.00006,1.00006
app_59,502.762,21475.6,7571.45,428.549,14.9852,1.14493e+11,1.04086,0.949613,510,7.54742,39,1.00006,1.00006
app_6,7.66321,20894,7274.33,725.672,806.972,1.90299e+11,1.07172,0.949613,9,0.235734,2118,1.00001,1.00001
app_60,681.012,21519.2,7925.6,74.4,8.78323,1.88007e+10,1.007,0.949613,899,2.08896,23,1.00006,1.00006
app_7,16.9195,20270.9,7496.5,503.5,268.81,1.34166e+11,1.0484,0.949613,28,0.498759,680,1.00001,1.00001
app_8,13.2934,19790.1,7608.4,391.6,507.348,9.88468e+10,1.03798,0.949613,15,0.194964,1257,1.00001,1.00001
app_9,18.0692,20345,7427.8,572.2,414.011,1.53238e+11,1.05526,0.949613,18,0.37014,1052,1.00001,1.00001
