app_id,start_app,end_app,effective_cpu,effective_io,effective_iter,total_bytes,stretch,utilization,Tcomp,Tio,iterations,priority,group_id
app_1,3.02442,25932.1,5140.8,111.027,641.092,7.20635e+10,1.53467,0.847347,8,0.112424,2278,1,1
app_10,16.8824,24397,6094.1,126.096,263.673,1.1103e+11,1.28926,0.847347,23,0.42057,834,1,1
app_11,9.09891,25380.5,5634.9,163.418,403.261,1.44259e+11,1.38428,0.847347,14,0.357962,1347,1,1
app_12,2.26576,24905.8,5890.05,43.2803,326.724,3.1184e+10,1.35107,0.847347,18,0.0953638,1073,1,1
app_13,1.99077,25283.4,5409.8,113.701,490.405,9.52875e+10,1.4532,0.847347,11,0.194068,1669,1,1
app_14,6.56939,24758.5,5577.9,171.216,399.248,1.53417e+11,1.39584,0.847347,14,0.384504,1302,1,1
app_15,4.19903,25476.2,5472.7,174.146,454.404,1.49879e+11,1.42283,0.847347,12,0.329405,1547,1,1
app_16,12.5129,25135.5,5842.5,153.394,324.036,1.33152e+11,1.33877,0.847347,18,0.410964,1067,1,1
app_17,3.10802,27651.3,5044.55,71.1832,720.584,3.30282e+10,1.57555,0.847347,7,0.0458089,2819,1,1
app_18,0.440412,29168.3,3908.4,179.742,1953.6,7.08777e+10,2.01042,0.847347,2,0.0362732,8876,1,1
app_19,2.634,27532.9,4462,141.732,1115.37,1.01199e+11,1.75316,0.847347,4,0.0907615,4487,1,1
app_2,7.2967,25452.2,5633,28.3357,434.009,1.51873e+09,1.41982,0.847347,13,0.00349937,1472,1,1
app_20,3.94621,26390.5,5143,105.205,639.078,6.51757e+10,1.53605,0.847347,8,0.101996,2328,1,1
app_21,21.5529,21613,7248.9,100.428,69.9688,9.75159e+10,1.08897,0.847347,103,1.39308,190,1,1
app_22,98.8615,21207.1,7591.24,111.665,34.9535,1.09885e+11,1.03881,0.847347,217,3.14924,91,1,1
app_23,96.0026,21030.8,7544.1,118.973,49.1114,1.16136e+11,1.04435,0.847347,153,2.32272,129,1,1
app_24,29.4766,20671.7,7647.8,27.7314,30.268,2.64401e+10,1.04245,0.847347,256,0.852907,78,1,1
app_25,85.2151,21610.5,7332.1,39.9965,63.5437,3.73762e+10,1.08556,0.847347,114,0.593273,174,1,1
app_26,11.1457,24980.5,5653.48,79.2028,404.775,5.81451e+10,1.40065,0.847347,14,0.143568,1334,1,1
app_27,149.546,20865.6,7560.6,114.271,39.025,1.12525e+11,1.0426,0.847347,193,2.88526,102,1,1
app_28,207.154,20979.4,7464.7,188.423,36.827,1.86471e+11,1.04559,0.847347,204,5.03976,96,1,1
app_29,12.9691,20900.6,7422.2,128.462,24.8777,1.27279e+11,1.05968,0.847347,295,5.09115,67,1,1
app_3,0.423425,25205.2,5791.4,138.477,342.97,1.2251e+11,1.35274,0.847347,17,0.357172,1138,1,1
app_30,47.7149,22447.4,6832.08,49.6424,126.938,4.24851e+10,1.16371,0.847347,54,0.334529,363,1,1
app_31,8.17758,23035.1,6613.2,122.077,151.147,1.14364e+11,1.18914,0.847347,44,0.757378,444,1,1
app_32,76.6785,20936.5,7504.26,127.526,48.694,1.24792e+11,1.04862,0.847347,155,2.54677,127,1,1
app_33,6.26092,20825.7,7588.6,166.865,41.8774,1.64681e+11,1.03182,0.847347,180,3.92097,109,1,1
app_34,40.4991,22420.3,6882.3,88.9782,130.094,8.16065e+10,1.14878,0.847347,53,0.627742,367,1,1
app_35,62.7093,21417.9,7419.7,145.228,54.1848,1.42353e+11,1.05791,0.847347,135,2.63616,145,1,1
app_36,22.3031,21190.6,7418.4,49.1049,54.3268,4.67014e+10,1.07165,0.847347,134,0.864842,148,1,1
app_37,125.064,20921.6,7605.7,8.34503,42.292,6.13198e+09,1.051,0.847347,180,0.142604,111,1,1
app_38,10.6322,21999.2,6999.6,44.9818,93.2567,3.96916e+10,1.13648,0.847347,75,0.426791,263,1,1
app_39,83.6471,22332.8,7182,17.2614,85.0585,1.33233e+10,1.11183,0.847347,84,0.156744,236,1,1
app_4,10.3902,24038.2,6295.5,43.1672,232.566,3.00782e+10,1.26471,0.847347,27,0.129091,717,1,1
app_40,45.6869,22463.1,7069.5,30.7434,115.349,2.42825e+10,1.12775,0.847347,61,0.211152,326,1,1
app_41,542.984,21303.4,7650.5,185.487,13.247,1.84802e+11,1.02102,0.847347,587,13.2002,34,1,1
app_42,484.05,21751.9,7907.7,51.3464,5.60443,5.11936e+10,1.00516,0.847347,1395,10.2387,15,1,1
app_43,474.731,21803.7,7885.8,65.2508,4.55356,6.51306e+10,1.00617,0.847347,1761,16.2827,12,1,1
app_44,1216.9,23029.6,7755.9,188.042,4.76189,1.87789e+11,1.00709,0.847347,1627,37.5579,13,1,1
app_45,124.965,20970.3,7748.7,20.5962,19.3186,1.97546e+10,1.02981,0.847347,395,0.987731,51,1,1
app_46,106.973,20725.1,7603.9,140.374,30.0597,1.38943e+11,1.03321,0.847347,256,4.63143,77,1,1
app_47,34.2071,20927.4,7335.2,178.841,38.0274,1.77387e+11,1.06488,0.847347,197,4.66808,99,1,1
app_48,1392.33,23676.4,7831.5,163.093,4.38868,1.62811e+11,1.00071,0.847347,1767,40.7028,12,1,1
app_49,1103.59,22392,7797.3,123.414,4.80093,1.23132e+11,1.01005,0.847347,1612,24.6264,13,1,1
app_5,12.5862,25820.4,5688.8,35.7491,406.257,1.33087e+10,1.40299,0.847347,14,0.0326995,1403,1,1
app_50,1128.87,22681.4,7930.7,29.7851,3.64999,2.96794e+10,1.00498,0.847347,2202,9.89314,10,1,1
app_51,264.952,20656.2,7874.2,32.6909,11.9731,3.21541e+10,1.01184,0.847347,673,2.67951,30,1,1
app_52,2201.14,22640.5,7865.9,125.432,3.0644,1.25271e+11,1.0011,0.847347,2460,41.7571,8,1,1
app_53,1221.5,21663.5,7925.6,66.9871,4.16503,6.67616e+10,1.00096,0.847347,1842,16.6904,11,1,1
app_54,463.798,22200.5,7867,131.998,4.20052,1.31824e+11,1.00015,0.847347,1938,32.956,11,1,1
app_55,1097.49,22748.6,7745.4,185.346,5.58585,1.8498e+11,1.00878,0.847347,1391,30.83,15,1,1
app_56,65.2911,21305.5,7497.7,31.2769,42.8968,2.94141e+10,1.06282,0.847347,175,0.684049,114,1,1
app_57,447.493,20365.8,7825.4,70.7822,7.63293,7.03588e+10,1.0132,0.847347,1051,10.0513,19,1,1
app_58,1052.13,22593.4,7848.7,119.128,3.89311,1.18841e+11,1.00407,0.847347,1954,29.7104,11,1,1
app_59,1000.68,21878.3,7775,197.566,6.10668,1.97344e+11,1.00347,0.847347,1256,32.8907,16,1,1
app_6,5.3146,26485.3,5051.3,54.0214,720.424,8.16894e+09,1.58119,0.847347,7,0.0113458,2657,1,1
app_60,105.702,20705.6,7763.3,200.286,8.98277,1.99824e+11,1.00463,0.847347,862,22.2027,23,1,1
app_7,11.0381,25249.6,5313.53,155.133,533.033,1.26145e+11,1.47068,0.847347,10,0.236247,1803,1,1
app_8,8.42601,25554.8,5411.07,134.883,494.332,1.05019e+11,1.4503,0.847347,11,0.212159,1694,1,1
app_9,1.95188,29022.7,3905.6,163.376,1948.74,4.75468e+10,2.0237,0.847347,2,0.0243955,8809,1,1
