app_id,start_app,end_app,effective_cpu,effective_io,effective_iter,total_bytes,stretch,utilization,Tcomp,Tio,iterations,priority,group_id
app_1,3.02442,19305.2,7538.5,461.5,939.927,1.05678e+11,1.04655,0.947795,8,0.112424,2278,1,1
app_10,16.8824,20503.1,7465.8,534.2,324.5,1.36685e+11,1.05229,0.947795,23,0.42057,834,1.00001,1.00001
app_11,9.09891,20648.2,7289.8,710.2,520.76,1.86498e+11,1.07005,0.947795,14,0.357962,1347,1.00001,1.00001
app_12,2.26576,19721,7821.9,178.1,436.608,4.15786e+10,1.01736,0.947795,18,0.0953638,1073,1.00001,1.00001
app_13,1.99077,19531,7465.9,534.1,679.646,1.31966e+11,1.05293,0.947795,11,0.194068,1669,1.00001,1.00001
app_14,6.56939,20033.9,7240.5,759.5,520.057,1.99942e+11,1.0752,0.947795,14,0.384504,1302,1.00001,1.00001
app_15,4.19903,20398.5,7242.7,757.3,602.569,1.98631e+11,1.07508,0.947795,12,0.329405,1547,1.00002,1.00002
app_16,12.5129,20779.6,7356.2,643.8,409.763,1.68495e+11,1.06317,0.947795,18,0.410964,1067,1.00002,1.00002
app_17,3.10802,20381.8,7750.7,249.3,1107.61,5.07105e+10,1.02546,0.947795,7,0.0458089,2819,1.00002,1.00002
app_18,0.440412,19359.1,7302.96,697.042,3654.32,1.32568e+11,1.07592,0.947795,2,0.0362732,8876,1.00002,1.00002
app_19,2.634,19569.9,7311.9,688.1,1825.01,1.6564e+11,1.06987,0.947795,4,0.0907615,4487,1.00002,1.00002
app_2,7.2967,19283.4,7938.8,61.2,611.67,2.14161e+09,1.00744,0.947795,13,0.00349937,1472,1,1
app_20,3.94621,19675.9,7565.98,434.017,944.652,9.63584e+10,1.04407,0.947795,8,0.101996,2328,1.00002,1.00002
app_21,21.5529,20740.3,7568.6,431.4,73.2191,1.03088e+11,1.0428,0.947795,103,1.39308,190,1.00002,1.00002
app_22,98.8615,20728.9,7622.9,377.1,35.3316,1.10223e+11,1.03451,0.947795,217,3.14924,91,1.00002,1.00002
app_23,96.0026,20954.2,7539.7,460.3,49.3068,1.13813e+11,1.04527,0.947795,153,2.32272,129,1.00002,1.00002
app_24,29.4766,20243.3,7902.4,97.6,30.6316,2.55872e+10,1.00908,0.947795,256,0.852907,78,1.00002,1.00002
app_25,85.2151,20376.7,7839.2,160.8,68.8113,4.03425e+10,1.01529,0.947795,114,0.593273,174,1.00003,1.00003
app_26,11.1457,19481.9,7678.4,321.6,546.523,7.83882e+10,1.03135,0.947795,14,0.143568,1334,1.00003,1.00003
app_27,149.546,20909.8,7549.62,450.383,39.4367,1.12636e+11,1.04408,0.947795,193,2.88526,102,1.00003,1.00003
app_28,207.154,21557.4,7281.9,718.1,35.8889,1.81432e+11,1.07191,0.947795,204,5.03976,96,1.00003,1.00003
app_29,12.9691,21034.1,7470.1,529.9,25.3157,1.27279e+11,1.05299,0.947795,295,5.09115,67,1.00003,1.00003
app_3,0.423425,20844,7398.9,601.1,433.888,1.55013e+11,1.05905,0.947795,17,0.357172,1138,1,1
app_30,47.7149,20080.7,7812.3,187.7,144.63,4.85066e+10,1.01771,0.947795,54,0.334529,363,1.00003,1.00003
app_31,8.17758,20796.4,7507.64,492.358,170.631,1.29224e+11,1.04755,0.947795,44,0.757378,444,1.00003,1.00003
app_32,76.6785,20868.9,7489.3,510.7,48.4231,1.22245e+11,1.05103,0.947795,155,2.54677,127,1.00003,1.00003
app_33,6.26092,21256.4,7431.7,568.3,41.3708,1.6076e+11,1.05368,0.947795,180,3.92097,109,1.00003,1.00003
app_34,40.4991,20280.3,7640.8,359.2,145.477,9.10226e+10,1.03468,0.947795,53,0.627742,367,1.00003,1.00003
app_35,62.7093,20974.5,7451.3,548.7,55.1275,1.44989e+11,1.05315,0.947795,135,2.63616,145,1.00004,1.00004
app_36,22.3031,20206.3,7808.2,191.8,58.437,5.01608e+10,1.01802,0.947795,134,0.864842,148,1.00004,1.00004
app_37,125.064,19931.7,7968.4,31.6,44.5208,6.41719e+09,1.00316,0.947795,180,0.142604,111,1.00004,1.00004
app_38,10.6322,20222.2,7811.3,188.7,104.544,4.48131e+10,1.01832,0.947795,75,0.426791,263,1.00004,1.00004
app_39,83.6471,20155.2,7941,59,93.3658,1.45772e+10,1.00558,0.947795,84,0.156744,236,1.00004,1.00004
app_4,10.3902,19716.6,7844.3,155.7,289.991,3.74364e+10,1.015,0.947795,27,0.129091,717,1,1
app_40,45.6869,20221.7,7884.1,115.9,128.537,2.72386e+10,1.01121,0.947795,61,0.211152,326,1.00004,1.00004
app_41,542.984,21922.8,7370,630,12.5969,1.71602e+11,1.06078,0.947795,587,13.2002,34,1.00004,1.00004
app_42,484.05,22276.4,7721.3,278.7,5.5779,6.14323e+10,1.02792,0.947795,1395,10.2387,15,1.00004,1.00004
app_43,474.731,22516.8,7723.1,276.9,4.11158,6.51306e+10,1.02719,0.947795,1761,16.2827,12,1.00004,1.00004
app_44,1216.9,24150.3,7416.1,583.9,4.50494,1.87789e+11,1.05209,0.947795,1627,37.5579,13,1.00004,1.00004
app_45,124.965,20472.5,7913.2,86.8,20.011,1.97546e+10,1.00845,0.947795,395,0.987731,51,1.00004,1.00004
app_46,106.973,20941.8,7421.7,578.3,29.3712,1.38943e+11,1.05811,0.947795,256,4.63143,77,1.00005,1.00005
app_47,34.2071,21108.3,7367.1,632.9,37.2614,1.72719e+11,1.06103,0.947795,197,4.66808,99,1.00005,1.00005
app_48,1392.33,24457.7,7350.9,649.1,4.09019,1.62811e+11,1.06472,0.947795,1767,40.7028,12,1.00005,1.00005
app_49,1103.59,23551.1,7536.2,463.8,4.56449,1.23132e+11,1.04448,0.947795,1612,24.6264,13,1.00005,1.00005
app_5,12.5862,19893.1,7901.2,98.8,563.664,1.84425e+10,1.01015,0.947795,14,0.0326995,1403,1.00001,1.00001
app_50,1128.87,23662.2,7880,120,3.5392,2.96794e+10,1.01142,0.947795,2202,9.89314,10,1.00005,1.00005
app_51,264.952,20763.2,7856.9,143.1,11.6808,3.21541e+10,1.01406,0.947795,673,2.67951,30,1.00005,1.00005
app_52,2201.14,23023.1,7583.7,416.3,3.15889,1.25271e+11,1.03775,0.947795,2460,41.7571,8,1.00005,1.00005
app_53,1221.5,21505.5,7758.9,241.1,4.30637,6.67616e+10,1.02228,0.947795,1842,16.6904,11,1.00005,1.00005
app_54,463.798,23512.5,7350.1,649.9,3.68704,1.31824e+11,1.06924,0.947795,1938,32.956,11,1.00005,1.00005
app_55,1097.49,23833.6,7361.2,638.8,5.11033,1.5415e+11,1.06449,0.947795,1391,30.83,15,1.00005,1.00005
app_56,65.2911,20290.2,7877.1,122.9,45.0029,3.07822e+10,1.01165,0.947795,175,0.684049,114,1.00006,1.00006
app_57,447.493,20862.3,7658,342,7.27453,7.03588e+10,1.03515,0.947795,1051,10.0513,19,1.00006,1.00006
app_58,1052.13,24002.4,7422.1,577.9,3.8255,1.18841e+11,1.06088,0.947795,1954,29.7104,11,1.00006,1.00006
app_59,1000.68,21905.9,7420.2,579.8,6.09457,1.97344e+11,1.05021,0.947795,1256,32.8907,16,1.00006,1.00006
app_6,5.3146,18924.5,7878.8,121.2,1121.76,1.27299e+10,1.01375,0.947795,7,0.0113458,2657,1.00001,1.00001
app_60,105.702,21650.8,7244.49,755.514,8.55462,1.81387e+11,1.07731,0.947795,862,22.2027,23,1.00006,1.00006
app_7,11.0381,19646.9,7324.3,675.7,733.183,1.73169e+11,1.06703,0.947795,10,0.236247,1803,1.00001,1.00001
app_8,8.42601,20047.5,7411.2,588.8,673.23,1.42995e+11,1.05901,0.947795,11,0.212159,1694,1.00001,1.00001
app_9,1.95188,18832.7,7460.3,539.7,3733.23,9.10683e+10,1.05941,0.947795,2,0.0243955,8809,1.00001,1.00001
