app_id,start_app,end_app,effective_cpu,effective_io,effective_iter,total_bytes,stretch,utilization,Tcomp,Tio,iterations,priority,group_id
app_1,0.290836,11576.2,5062.53,502.345,5059.42,1.68134e+11,1.52944,0.954963,1,0.033228,10502,1,0
app_10,13.5281,20055.9,7884.2,68.8902,561.208,4.6477e+10,1.00874,0.954963,14,0.0828466,1405,0.1,1
app_11,3.50633,19051.6,7710.5,246.573,594.503,1.97439e+11,1.01164,0.954963,13,0.33183,1410,0.1,1
app_12,21.3094,19654.5,7902.1,65.4939,341.381,3.91805e+10,1.00739,0.954963,23,0.114563,840,0.1,1
app_13,4.42104,20000.3,7792.5,156.88,600.27,1.18021e+11,1.01131,0.954963,13,0.196375,1499,0.1,1
app_14,3.18838,19695.4,7789.5,180.991,389.445,1.44652e+11,1.0083,0.954963,20,0.371857,958,0.1,1
app_15,2.28963,18723.9,7722.8,136.727,1545.98,2.89161e+10,1.03203,0.954963,5,0.0187038,3618,0.1,1
app_16,0.128267,18756.7,7620.44,220.512,1909.66,1.30859e+11,1.03209,0.954963,4,0.0685259,4476,0.1,1
app_17,0.620897,13957.2,7565.93,379.491,3781.25,2.12465e+11,1.02849,0.954963,2,0.056178,6629,1,0
app_18,0.120534,18752.2,7685.4,227.14,1097.67,1.57395e+11,1.02004,0.954963,7,0.143347,2579,0.1,1
app_19,4.25365,19844.2,7711.8,236.711,642.909,1.88724e+11,1.01259,0.954963,12,0.293505,1595,0.1,1
app_2,2.01152,16703.9,7504.4,282.545,2503.36,1.64739e+11,1.04314,0.954963,3,0.0658166,5235,0.1,1
app_20,11.6076,19570.4,7784.6,187.076,312.135,1.54571e+11,1.00766,0.954963,25,0.495419,763,0.1,1
app_21,152.009,20635.2,7659.3,302.919,25.8975,2.00537e+11,1.01783,0.954963,299,7.71297,66,0.01,2
app_22,25.0685,20214.3,7762.3,116.167,55.1461,7.25003e+10,1.02109,0.954963,141,1.31819,140,0.01,2
app_23,153.017,20466.1,7819.3,131.147,44.6276,8.81993e+10,1.0117,0.954963,173,2.00453,115,0.01,2
app_24,88.0395,20263.2,7950.5,13.5635,35.6795,7.12334e+09,1.00533,0.954963,225,0.19787,89,0.01,2
app_25,56.194,20435.2,7529.6,315.711,96.7145,1.98218e+11,1.03522,0.954963,78,2.04349,248,0.01,2
app_26,21.2972,20172.4,7815.1,22.3658,90.6195,1.11628e+10,1.0222,0.954963,87,0.124031,228,0.01,2
app_27,21.8817,20505.1,7445,273.954,186.27,1.72481e+11,1.05022,0.954963,40,0.927319,480,0.01,2
app_28,157.007,22149.2,7205.4,263.943,22.6126,1.1498e+11,1.09284,0.954963,321,4.99913,62,0.001,3
app_29,65.7694,20364.4,7884.3,43.8015,38.8419,2.59651e+10,1.01134,0.954963,207,0.665773,97,0.01,2
app_3,0.358889,19424.4,7665,246.93,1092.02,1.8316e+11,1.01935,0.954963,7,0.167729,2660,0.1,1
app_30,187.654,20409.6,7789.4,186.419,37.8202,1.18849e+11,1.0116,0.954963,204,3.1276,97,0.01,2
app_31,8.24324,20353.7,7674.3,107.236,95.3593,6.10519e+10,1.03421,0.954963,81,0.642651,244,0.01,2
app_32,5.50477,19697.4,7820.3,97.2617,867.762,5.63687e+10,1.01566,0.954963,9,0.0649408,2142,0.1,1
app_33,148.702,20566.8,7875.4,45.6023,43.4993,2.58385e+10,1.0125,0.954963,180,0.587238,111,0.01,2
app_34,22.9309,20583.5,7556,118.256,221.313,6.53749e+10,1.04968,0.954963,34,0.295814,573,0.01,2
app_35,16.6114,19330.3,7728.3,235.132,458.155,1.92122e+11,1.01005,0.954963,17,0.41948,1101,0.1,1
app_36,24.7755,20336.7,7641.7,280.941,44.5473,1.80728e+11,1.0227,0.954963,171,4.01617,114,0.01,2
app_37,51.0738,20467.9,7634.9,236.166,84.6448,1.48188e+11,1.02787,0.954963,91,1.76414,215,0.01,2
app_38,24.122,20593.2,7543.2,36.7672,229.205,1.15635e+10,1.05893,0.954963,33,0.0504957,591,0.01,2
app_39,127.544,20461.8,7837,109.508,52.573,6.62903e+10,1.01224,0.954963,152,1.27481,131,0.01,2
app_4,12.903,18977.1,7832.5,114.02,602.61,6.54936e+10,1.01292,0.954963,13,0.108613,1429,0.1,1
app_40,111.292,20279.1,7823.3,124.774,36.7255,8.21213e+10,1.01196,0.954963,213,2.28115,93,0.01,2
app_41,130.759,20236.4,7658.8,302.247,30.1649,1.95841e+11,1.01851,0.954963,257,6.52802,76,0.01,2
app_42,553.786,21471.6,7366.5,500.963,3.10789,1.8755e+11,1.05903,0.954963,2445,62.5167,8,0.001,3
app_43,440.855,22261.9,7292.7,427.213,11.8189,1.79002e+11,1.07071,0.954963,628,15.828,32,0.001,3
app_44,49.8303,21895.8,7615.2,286.835,4.3113,1.34479e+11,1.0323,0.954963,1735,33.6196,12,0.001,3
app_45,20.3264,21350.9,7861.7,105.114,7.62643,5.99659e+10,1.00989,0.954963,1018,7.49573,20,0.001,3
app_46,300.389,20969.7,7820.9,142.968,9.59791,5.05322e+10,1.01633,0.954963,839,5.05322,24,0.001,3
app_47,56.3798,21818,7445.64,451.306,5.13121,1.91332e+11,1.04754,0.954963,1448,37.3165,14,0.001,3
app_48,209.844,20367.7,7862,84.3212,33.4519,4.82077e+10,1.01135,0.954963,237,1.46084,84,0.01,2
app_49,314.54,21620.5,7565.5,396.448,4.89601,1.78758e+11,1.03302,0.954963,1593,35.7516,13,0.001,3
app_5,9.52479,19996,7819.3,146.633,411.206,1.13618e+11,1.00846,0.954963,19,0.276444,1027,0.1,1
app_50,57.8661,22176.7,7771,112.828,6.32349,6.20666e+10,1.02131,0.954963,1235,10.3444,17,0.001,3
app_51,16.9218,22562.7,7144.83,150.434,20.8191,5.27157e+10,1.11149,0.954963,342,2.51027,59,0.001,3
app_52,43.2074,20875.3,7773.4,58.6593,12.4681,1.18946e+10,1.02758,0.954963,613,0.914971,33,0.001,3
app_53,1000.71,22828,7762.5,212.33,4.79691,7.71492e+10,1.02045,0.954963,1645,15.4298,13,0.001,3
app_54,70.9948,21517.4,7538.42,20.8694,15.3274,1.00288e+10,1.05982,0.954963,493,0.626801,41,0.001,3
app_55,1546.01,23769.1,7375.4,333.913,4.17255,1.3025e+11,1.06586,0.954963,1734,32.5626,12,0.001,3
app_56,945.054,22961.5,7389.5,320.298,5.17778,1.54444e+11,1.06045,0.954963,1494,30.8888,14,0.001,3
app_57,1848.74,23876.5,7818.9,42.4567,2.93916,2.42664e+10,1.02,0.954963,2723,8.0888,8,0.001,3
app_58,576.446,22560.2,7549.84,293.266,5.50638,1.48615e+11,1.03917,0.954963,1379,29.723,15,0.001,3
app_59,130.432,20838.6,7666.1,238.858,55.5262,1.54348e+11,1.02296,0.954963,135,2.80632,145,0.01,2
app_6,18.112,19756.8,7902.7,71.2479,329.731,5.0445e+10,1.00589,0.954963,24,0.152864,813,0.1,1
app_60,19.5915,20747.5,7691.3,263.304,29.568,1.69486e+11,1.01771,0.954963,256,5.84433,77,0.01,2
app_7,4.56266,20105.3,7738.9,122.574,1543.02,2.59914e+09,1.03339,0.954963,5,0.00168447,3888,0.1,1
app_8,16.7735,19453.8,7815.4,148.606,459.509,1.17424e+11,1.00847,0.954963,17,0.255827,1118,0.1,1
app_9,5.47942,20016.3,7907.2,47.1088,496.188,1.79131e+10,1.00945,0.954963,16,0.0361151,1240,0.1,1
