app_id,start_app,end_app,effective_cpu,effective_io,effective_iter,total_bytes,stretch,utilization,Tcomp,Tio,iterations,priority,group_id
app_1,7.7735,24834.7,5788.25,139.434,415.004,1.24241e+11,1.35307,0.854601,14,0.299375,1358,1,1
app_10,8.57276,24943.6,5473.33,54.3451,610.999,2.06155e+10,1.45615,0.854601,9,0.0337406,2038,1,1
app_11,28.646,23699.7,6489.56,37.8394,203.108,2.71442e+10,1.22761,0.854601,32,0.133715,621,1,1
app_12,4.14131,24015.2,6109.95,92.1331,293.013,7.85677e+10,1.29272,0.854601,21,0.268149,913,1,1
app_13,5.6624,24386.8,5742.33,47.734,478,2.41877e+10,1.38732,0.854601,12,0.0506018,1536,1,1
app_14,0.103264,27597,4096.45,180.293,2048.02,6.01035e+10,1.92467,0.854601,2,0.0293474,8391,1,1
app_15,4.09541,25257.5,4642.08,200.771,1164.99,1.28233e+11,1.67704,0.854601,4,0.110071,4041,1,1
app_16,9.08238,24944.4,5582.67,162.654,507.999,1.41909e+11,1.39748,0.854601,11,0.279348,1688,1,1
app_17,8.85155,24732.6,5536.19,117.072,554.006,9.02642e+10,1.42185,0.854601,10,0.162932,1822,1,1
app_18,0.994236,24187.1,6114.26,118.748,279.005,1.08145e+11,1.28568,0.854601,22,0.387618,877,1,1
app_19,1.19334,21681.4,3441.91,344.795,3438.01,1.69597e+11,2.21514,0.854601,1,0.0493301,9789,1,1
app_2,10.3248,23994.9,5913.92,139.394,329.001,1.26036e+11,1.32451,0.854601,18,0.383089,1033,1,1
app_20,9.36086,24347,6150.06,40.6657,307.005,2.70757e+10,1.2951,0.854601,20,0.0881945,977,1,1
app_21,0.957644,20724.2,7579.2,18.5228,45.4266,1.61616e+10,1.05327,0.854601,166,0.359146,120,1,1
app_22,89.3875,21271,7346.37,83.9835,64.8265,8.08437e+10,1.07712,0.854601,114,1.26318,173,1,1
app_23,111.795,20936.2,7535.5,152.237,32.5833,1.50933e+11,1.04079,0.854601,228,4.57372,86,1,1
app_24,110.919,21140.2,7551.2,64.8312,37.762,6.28472e+10,1.05069,0.854601,198,1.65387,100,1,1
app_25,12.8201,22912.3,6722.7,32.4368,167.942,2.3428e+10,1.18587,0.854601,40,0.139453,491,1,1
app_26,48.7236,22580.1,6825.4,145.077,133.965,1.36565e+11,1.1491,0.854601,51,1.01914,381,1,1
app_27,10.896,21547.9,7268.05,143.905,65.771,1.41092e+11,1.07975,0.854601,111,2.17064,177,1,1
app_28,50.1556,22186,6880.27,155.821,110.404,1.51392e+11,1.13771,0.854601,62,1.37629,312,1,1
app_29,61.0486,21204.7,7451.48,74.7885,33.9358,7.31172e+10,1.06318,0.854601,218,2.15051,91,1,1
app_3,5.24044,24068.7,6173.04,102.644,279.996,8.62373e+10,1.2781,0.854601,22,0.30799,870,1,1
app_30,72.6763,21789,7217.7,70.4853,84.1505,6.65121e+10,1.09827,0.854601,86,0.791811,230,1,1
app_31,30.8476,21970.5,7088.18,181.189,87.6486,1.76349e+11,1.10124,0.854601,81,2.00397,240,1,1
app_32,17.7718,24169.8,6222.81,108.558,260.058,9.69492e+10,1.26587,0.854601,24,0.372882,814,1,1
app_33,132.152,21256.1,7509.2,103.398,50.2327,1.00683e+11,1.05126,0.854601,149,2.01367,132,1,1
app_34,36.9874,22743.4,6824.7,92.1312,128.485,8.69465e+10,1.15747,0.854601,53,0.67927,370,1,1
app_35,98.6922,21113.2,7622.7,15.8793,54.6471,1.22997e+10,1.04781,0.854601,140,0.22363,142,1,1
app_36,47.709,21659.7,7203.8,91.3071,82.0684,8.72125e+10,1.09724,0.854601,88,1.06357,223,1,1
app_37,117.989,21468,7439.1,136.142,44.2024,1.34157e+11,1.05635,0.854601,166,2.98127,119,1,1
app_38,3.9941,25585.5,5362.29,85.0685,671.004,5.84333e+10,1.47582,0.854601,8,0.087084,2325,1,1
app_39,196.629,20646.7,7905.3,17.7646,22.6588,1.68144e+10,1.00983,0.854601,346,0.76429,58,1,1
app_4,0.270837,24725.3,5551.84,106.323,553.995,7.59215e+10,1.42152,0.854601,10,0.137042,1825,1,1
app_40,113.578,20624.8,7668.06,109.662,28.0495,1.08155e+11,1.02878,0.854601,275,3.86267,72,1,1
app_41,1167.89,22177.5,7844.2,110.559,4.87978,1.10354e+11,1.00571,0.854601,1541,27.5885,13,1,1
app_42,141.408,21110.3,7740.7,185.02,8.76167,1.84533e+11,1.00943,0.854601,869,20.5037,23,1,1
app_43,1492.32,22411.1,7908.4,73.5788,4.7057,7.34656e+10,1.00227,0.854601,1748,14.6931,12,1,1
app_44,32.4498,22444.4,6976.64,32.8005,109.094,2.663e+10,1.14232,0.854601,64,0.244312,312,1,1
app_45,293.564,21079.1,7808.9,162.261,8.28429,1.61931e+11,1.00366,0.854601,901,20.2414,22,1,1
app_46,1673.69,22145.9,7885.4,90.1236,4.75767,8.99073e+10,1.0031,0.854601,1712,17.9815,12,1,1
app_47,2209.66,22819.7,7839.5,133.923,3.20168,1.33771e+11,1.00335,0.854601,2533,44.5904,8,1,1
app_48,1297.32,21907.3,7893.7,53.6641,4.99698,5.33252e+10,1.00667,0.854601,1565,10.665,13,1,1
app_49,456.725,21119.8,7878.6,10.1754,10.0118,9.70075e+09,1.01416,0.854601,773,0.970075,26,1,1
app_5,8.18123,25354.6,5687.87,77.8933,474,4.9543e+10,1.39436,0.854601,12,0.104521,1602,1,1
app_50,911.21,21042.8,7759.7,101.498,7.14787,1.01209e+11,1.01769,0.854601,1096,14.4584,18,1,1
app_51,453.489,22127.5,7892.1,102.062,5.74164,1.0181e+11,1.00076,0.854601,1312,20.362,16,1,1
app_52,46.3892,21369,7892.4,66.5581,5.13721,6.63139e+10,1.00519,0.854601,1618,13.2628,13,1,1
app_53,912.987,21345.4,7747.94,197.756,7.30897,1.9734e+11,1.00689,0.854601,1049,25.0464,19,1,1
app_54,1116.68,21862.7,7781.2,177.25,6.19428,1.76906e+11,1.00526,0.854601,1247,25.2722,16,1,1
app_55,816.511,22098.5,7801.2,125.1,4.54087,1.24992e+11,1.00931,0.854601,1731,24.9984,12,1,1
app_56,2718.88,25098.4,7800.5,186.121,1.75693,1.86004e+11,1.00169,0.854601,4534,93.0019,5,1,1
app_57,1271.31,21761.8,7866.7,112.496,3.97925,1.12295e+11,1.00263,0.854601,2023,28.0737,10,1,1
app_58,137.133,21002.1,7672.6,62.314,42.0305,5.99402e+10,1.03459,0.854601,184,1.42715,108,1,1
app_59,798.256,21395.5,7834.17,36.7292,9.70309,3.62774e+10,1.01646,0.854601,807,4.03082,25,1,1
app_6,6.73313,25296.3,5804.37,142.071,386.003,1.18433e+11,1.35071,0.854601,15,0.30682,1299,1,1
app_60,577.964,21787.1,7760.86,65.4606,4.50674,6.52999e+10,1.02221,0.854601,1777,16.2911,12,1,1
app_7,4.9217,25395.5,5558.55,127.553,553.996,1.06179e+11,1.41225,0.854601,10,0.191659,1878,1,1
app_8,0.481033,26147.6,5499.79,144.939,548.999,1.11904e+11,1.42559,0.854601,10,0.203833,1939,1,1
app_9,4.94472,23954.3,6042.47,149.698,303.996,1.33567e+11,1.29533,0.854601,20,0.439364,946,1,1
