app_id,start_app,end_app,effective_cpu,effective_io,effective_iter,total_bytes,stretch,utilization,Tcomp,Tio,iterations,priority,group_id
app_1,4.17457,26202.6,5087.19,117.213,647.723,7.90331e+10,1.54852,0.853287,8,0.121965,2347,1,1
app_10,4.56577,25008.6,5209.53,189.464,599.013,1.62314e+11,1.48925,0.853287,9,0.270975,1980,1,1
app_11,7.996,26244.9,5235.6,102.361,589.98,6.70067e+10,1.50869,0.853287,9,0.113571,2105,1,1
app_12,2.28808,26018.8,5343,60.8015,597.151,3.00577e+10,1.48891,0.853287,9,0.0502638,2111,1,1
app_13,1.63764,25500.7,5113.3,144.382,634.275,1.21937e+11,1.52811,0.853287,8,0.192329,2255,1,1
app_14,2.45024,25965.5,5419.3,54.4409,529.527,2.69754e+10,1.46889,0.853287,10,0.050897,1903,1,1
app_15,0.321758,25637.8,5423.7,49.511,518.205,2.24866e+10,1.46892,0.853287,10,0.0434105,1830,1,1
app_16,3.50697,26611.1,5143.1,142.125,637.476,1.14796e+11,1.52152,0.853287,8,0.180213,2374,1,1
app_17,7.50906,25913.6,5249,39.1285,570.293,5.1832e+09,1.5226,0.853287,9,0.00909333,2049,1,1
app_18,3.74496,25854,5532.44,44.3619,499.148,1.69192e+10,1.44161,0.853287,11,0.0338385,1758,1,1
app_19,6.35298,26379.2,5284.32,60.956,570.851,3.34084e+10,1.5044,0.853287,9,0.0585086,2111,1,1
app_2,8.0846,25392.1,5169.18,86.1224,665.387,6.2457e+10,1.52916,0.853287,8,0.0937792,2263,1,1
app_20,6.44522,26176,5477.69,138.568,498.913,1.08133e+11,1.4322,0.853287,11,0.216699,1757,1,1
app_21,79.7041,21335,7432.5,16.1343,67.9341,1.35686e+10,1.07439,0.853287,105,0.199539,189,1,1
app_22,28.3764,21723.6,7357.69,17.5442,78.4188,1.38252e+10,1.08526,0.853287,91,0.175003,218,1,1
app_23,13.1218,22409.3,7539.4,21.8398,70.2375,1.85692e+10,1.05849,0.853287,98,0.265275,204,1,1
app_24,59.1053,22281.1,7552.9,22.6669,68.9458,2.01477e+10,1.05638,0.853287,105,0.291995,190,1,1
app_25,22.9268,21723.4,7207,172.477,78.1383,1.68224e+11,1.08471,0.853287,90,2.12942,215,1,1
app_26,15.9767,22023.4,7350.2,9.72734,79.1115,5.60305e+09,1.08758,0.853287,96,0.0709246,208,1,1
app_27,93.0519,21509.4,7272.46,122.155,80.8328,1.1814e+11,1.08246,0.853287,95,1.45852,207,1,1
app_28,9.34502,21151.2,7145.77,155.722,92.7025,1.50483e+11,1.09645,0.853287,84,1.631,232,1,1
app_29,31.0566,21062.1,7270.9,169.731,85.1897,1.64306e+11,1.07596,0.853287,87,1.91054,224,1,1
app_3,0.300162,26350.4,5417.2,141.964,535,1.08849e+11,1.44769,0.853287,10,0.203456,1923,1,1
app_30,121.017,20752.9,7342.8,153.108,61.155,1.49983e+11,1.06769,0.853287,119,2.45873,164,1,1
app_31,103.772,20293.6,7407.2,33.1536,70.2249,2.9386e+10,1.07576,0.853287,111,0.413887,179,1,1
app_32,48.8899,21009.9,7514.4,71.667,65.6527,6.82201e+10,1.05504,0.853287,108,1.03364,183,1,1
app_33,91.8693,21305.5,7524.7,68.8396,71.452,6.42742e+10,1.05416,0.853287,100,0.905271,198,1,1
app_34,94.8647,20712.5,7269.4,192.942,74.2309,1.89169e+11,1.07259,0.853287,101,2.55633,193,1,1
app_35,96.2328,22995.2,7403.26,156.923,59.7525,1.5403e+11,1.05858,0.853287,106,2.56717,184,1,1
app_36,26.4223,20500.6,7289,127.468,89.6506,1.23325e+11,1.07928,0.853287,90,1.37028,218,1,1
app_37,75.5601,22795.4,7364.9,71.3934,76.6869,6.89692e+10,1.07616,0.853287,89,0.895704,221,1,1
app_38,82.8389,20793.8,7262.2,171.373,69.0568,1.67743e+11,1.07672,0.853287,104,2.43105,187,1,1
app_39,83.7919,20977.1,7382.3,119.944,66.5698,1.17021e+11,1.06676,0.853287,113,1.77305,174,1,1
app_4,8.95208,26173.1,5434.74,50.7509,520.185,2.3768e+10,1.4656,0.853287,10,0.0456199,1903,1,1
app_40,27.7907,22389.5,7260.5,126.706,82.5554,1.23269e+11,1.08346,0.853287,92,1.48517,214,1,1
app_41,39.9927,18917,7889.3,11.6391,9.32246,1.11389e+10,1.0126,0.853287,925,1.23766,22,1,1
app_42,311.411,21715.4,7843.5,55.3219,7.91817,5.5046e+10,1.01284,0.853287,846,7.86371,24,1,1
app_43,18.13,22938,7832.9,152.809,6.66514,1.52484e+11,1.00183,0.853287,874,21.7834,23,1,1
app_44,599.471,22989.1,7844,137.539,5.27438,1.37187e+11,1.00236,0.853287,1242,27.4374,16,1,1
app_45,508.323,24372.4,7825.1,42.8316,7.55044,4.25852e+10,1.01682,0.853287,947,6.0836,21,1,1
app_46,759.886,14852.2,7790.5,121.375,12.2696,1.20887e+11,1.0112,0.853287,1003,9.29899,20,1,1
app_47,225.577,20877.9,7767.9,164.851,8.77703,1.64477e+11,1.00852,0.853287,1075,18.2752,19,1,1
app_48,878.123,20357.3,7815.5,157.892,4.92719,1.5759e+11,1.00338,0.853287,1258,31.5179,16,1,1
app_49,599.39,18224.6,7946.8,11.163,8.30296,1.06466e+10,1.00535,0.853287,983,1.18296,21,1,1
app_5,4.29545,25475.9,5408.9,121.425,536.234,1.0164e+11,1.45176,0.853287,10,0.189627,1833,1,1
app_50,333.781,23394.4,7839.6,137.382,7.28397,1.37051e+11,1.00293,0.853287,961,19.5788,21,1,1
app_51,711.491,20388.8,7749.9,193.867,9.65595,1.93337e+11,1.00715,0.853287,863,21.4819,23,1,1
app_52,200.141,20635.2,7786.1,190.512,8.44647,1.89962e+11,1.003,0.853287,880,21.1069,23,1,1
app_53,554.5,22790.9,7831.5,157.653,7.28344,1.57495e+11,1.00138,0.853287,855,22.4993,23,1,1
app_54,469.55,18732.6,7755.5,117.722,9.49409,1.17038e+11,1.01619,0.853287,946,11.7038,21,1,1
app_55,631.891,20927.2,7839.1,110.757,7.26168,1.1034e+11,1.00636,0.853287,937,15.7629,21,1,1
app_56,357.386,17529.9,7891.8,44.9921,9.3593,4.45328e+10,1.00802,0.853287,999,4.45328,20,1,1
app_57,474.192,18477.7,7689.8,199.959,10.9106,1.99339e+11,1.01405,0.853287,819,18.1217,24,1,1
app_58,663.116,21838.6,7656.9,206.762,10.426,2.06409e+11,1.01738,0.853287,823,18.7644,24,1,1
app_59,859.273,17120.1,7883.5,10.6794,9.59619,1.01729e+10,1.01347,0.853287,891,1.01729,23,1,1
app_6,4.87015,24911.4,5308.9,53.4871,654.077,1.72785e+10,1.50202,0.853287,8,0.0264197,2224,1,1
app_60,229.712,14496.6,7788.7,157.957,9.60491,1.57403e+11,1.00678,0.853287,1023,15.7403,20,1,1
app_7,7.38876,26897.4,5317.93,104.438,566.901,7.20966e+10,1.48422,0.853287,9,0.127155,2144,1,1
app_8,7.6078,25972.5,5315.8,160.368,558.172,1.28403e+11,1.46945,0.853287,10,0.230113,1930,1,1
app_9,5.95307,26878.3,5269.4,101.161,586.342,6.47502e+10,1.49977,0.853287,9,0.110495,2153,1,1
