app_id,start_app,end_app,effective_cpu,effective_io,effective_iter,total_bytes,stretch,utilization,Tcomp,Tio,iterations,priority,group_id
app_1,7.88709,18756,7879.6,65.3631,731.616,1.51164e+10,1.01334,0.96529,11,0.0206791,1685,0.1,1
app_10,5.02582,19014.8,7780.52,167.628,799.083,1.34974e+11,1.01068,0.96529,10,0.168717,1886,0.1,1
app_11,0.13898,19701.9,7870.4,71.8826,868.969,6.30832e+09,1.01565,0.96529,9,0.00725928,2141,0.1,1
app_12,7.1889,19960.9,7865.3,84.4815,798.373,5.05547e+10,1.01063,0.96529,10,0.0633518,1976,0.1,1
app_13,6.69493,19085.9,7672,271.463,930.35,2.01661e+11,1.01605,0.96529,8,0.21684,2231,0.1,1
app_14,8.09328,19484.3,7702.4,252.339,855.843,1.89062e+11,1.01375,0.96529,9,0.220867,2096,0.1,1
app_15,3.51304,17457.4,7620.8,307.267,1290.89,2.36362e+11,1.01818,0.96529,6,0.183226,2785,0.1,1
app_16,2.81563,19922.3,7728.1,226.987,763.08,1.7702e+11,1.012,0.96529,10,0.232005,1935,0.1,1
app_17,8.1604,19579.5,7849.7,98.9411,850.841,7.55534e+10,1.00943,0.96529,9,0.0887818,2102,0.1,1
app_18,9.78686,18224.5,7841.3,99.4557,878.026,7.12954e+10,1.01105,0.96529,9,0.0812021,2002,0.1,1
app_19,7.02259,18645.6,7741.1,192.267,991.715,1.26788e+11,1.01679,0.96529,8,0.127811,2281,0.1,1
app_2,3.72647,20475.9,7838,121.307,645.093,7.14728e+10,1.01145,0.96529,12,0.110811,1646,0.1,1
app_20,9.63154,18985.4,7700.9,251.066,856.883,1.89887e+11,1.01384,0.96529,9,0.221572,2002,0.1,1
app_21,117.343,21173,7884.4,63.2502,64.2528,3.90065e+10,1.00967,0.96529,117,0.609476,169,0.01,2
app_22,42.6922,20687.3,7745.1,194.304,69.917,1.33714e+11,1.01538,0.96529,104,1.91019,189,0.01,2
app_23,64.2798,19678.8,7811.4,106.462,79.3894,7.06357e+10,1.01497,0.96529,96,0.894123,206,0.01,2
app_24,50.5499,19845,7834.3,69.818,103.555,4.14023e+10,1.01578,0.96529,79,0.401964,251,0.01,2
app_25,43.3843,20276.9,7879.6,39.9371,81.1393,2.23095e+10,1.01241,0.96529,98,0.275426,203,0.01,2
app_26,102.592,21298.6,7771.7,149.202,64.6893,1.00302e+11,1.01626,0.96529,114,1.54311,174,0.01,2
app_27,58.0743,20176.6,7816.9,113.704,99.2143,7.44785e+10,1.01376,0.96529,79,0.744785,249,0.01,2
app_28,50.7346,19949.5,7694.1,242.445,61.684,1.6645e+11,1.01774,0.96529,123,2.68468,159,0.01,2
app_29,56.2667,20046.5,7692.6,243.899,72.1484,1.64688e+11,1.01816,0.96529,96,2.28733,203,0.01,2
app_3,4.55291,18618.3,7854.9,91.2862,793.019,6.70309e+10,1.00985,0.96529,10,0.0845283,1850,0.1,1
app_30,82.4461,21483.7,7911.2,20.3534,72.4069,1.14962e+10,1.00976,0.96529,107,0.157482,186,0.01,2
app_31,44.401,20904.7,7632.5,300.872,80.7602,2.09471e+11,1.02015,0.96529,97,2.58607,200,0.01,2
app_32,35.0868,20003,7695,257.646,72.188,1.71733e+11,1.01694,0.96529,100,2.38518,194,0.01,2
app_33,28.038,19951.6,7740,211.999,81.3018,1.39267e+11,1.01532,0.96529,92,1.69838,213,0.01,2
app_34,60.7986,20514.8,7730.3,189.721,82.7822,1.32074e+11,1.0175,0.96529,91,1.60919,215,0.01,2
app_35,58.1685,20587,7841.6,97.1466,88.5528,6.20694e+10,1.01219,0.96529,88,0.705334,225,0.01,2
app_36,81.8393,18329.1,7713.3,201.216,95.4179,1.35679e+11,1.01924,0.96529,97,1.41332,203,0.01,2
app_37,11.6759,20549.9,7888.4,58.5226,73.1704,3.48288e+10,1.00969,0.96529,98,0.477107,202,0.01,2
app_38,89.0409,20604.8,7775.3,157.042,76.6677,1.01095e+11,1.01569,0.96529,100,1.33019,197,0.01,2
app_39,31.2858,20567.1,7770,161.292,85.0412,1.03621e+11,1.01605,0.96529,88,1.21907,224,0.01,2
app_4,0.348371,19966.2,7734.26,222.686,767.716,1.62441e+11,1.01308,0.96529,10,0.211661,1924,0.1,1
app_40,13.7719,21638.8,7651,291.288,70.603,1.96415e+11,1.01944,0.96529,100,2.80593,195,0.01,2
app_41,166.871,25021.2,7592,227.405,7.38226,1.02273e+11,1.03973,0.96529,977,12.7841,21,0.001,3
app_42,607.075,20089.6,7736.5,154.928,6.35719,5.92117e+10,1.02621,0.96529,1110,9.86861,18,0.001,3
app_43,181.72,19492.2,7523.9,204.117,8.61128,1.03041e+11,1.04891,0.96529,1078,11.449,19,0.001,3
app_44,707.085,19889.4,7782.2,49.9592,10.3016,1.86009e+10,1.02554,0.96529,944,1.69099,22,0.001,3
app_45,214.247,24523.6,7609.2,370.635,5.27603,1.67599e+11,1.0287,0.96529,1063,27.9332,19,0.001,3
app_46,469.24,19426.8,7463.8,492.349,9.48645,2.43158e+11,1.03802,0.96529,1004,24.3158,20,0.001,3
app_47,634.795,20761.9,7541.72,239.115,7.94026,8.23187e+10,1.04931,0.96529,994,11.2656,20,0.001,3
app_48,1030.35,17522.7,7443.1,324.167,9.11884,1.62139e+11,1.05191,0.96529,1024,18.0154,20,0.001,3
app_49,162.424,21992.9,7727.4,226.307,7.32035,1.10892e+11,1.02063,0.96529,1148,15.8417,18,0.001,3
app_5,3.12438,18552,7790.2,159.921,798.169,1.14654e+11,1.01204,0.96529,10,0.143497,1832,0.1,1
app_50,310.215,20830.5,7588.1,266.642,7.50595,1.3835e+11,1.0354,0.96529,955,19.7643,21,0.001,3
app_51,895.443,24706.5,7689,169.809,5.49207,9.07455e+10,1.02831,0.96529,1104,18.1491,18,0.001,3
app_52,139.531,21602.6,7572.7,169.095,10.7667,7.71449e+10,1.04577,0.96529,903,7.01317,22,0.001,3
app_53,839.929,23143.4,7880.9,46.0859,7.23048,2.33676e+10,1.01211,0.96529,965,3.33823,21,0.001,3
app_54,871.407,25154.2,7767.2,25.346,6.35375,9.27326e+09,1.02874,0.96529,889,1.54554,23,0.001,3
app_55,201.11,20725,7813.4,30.1697,9.94329,9.65385e+09,1.02262,0.96529,774,0.965385,26,0.001,3
app_56,813.602,18595,7394.4,479.976,9.57569,1.95133e+11,1.05408,0.96529,832,21.6814,24,0.001,3
app_57,756.856,19473.3,7225.5,586.657,10.7562,2.83883e+11,1.06533,0.96529,936,25.8075,21,0.001,3
app_58,92.4207,20869.3,7545.2,289.454,6.90984,1.21234e+11,1.04351,0.96529,1044,17.3191,19,0.001,3
app_59,353.872,21038.7,7578,220.296,7.20283,1.05228e+11,1.04123,0.96529,1142,15.0326,18,0.001,3
app_6,6.13239,20432,7820,138.081,715.256,8.90359e+10,1.0115,0.96529,11,0.124526,1796,0.1,1
app_60,306.407,15253.3,7631.3,247.188,9.28129,1.14193e+11,1.03286,0.96529,1180,12.6881,17,0.001,3
app_7,0.4755,19710.6,7819.8,134.687,708.548,8.33756e+10,1.01225,0.96529,11,0.117762,1752,0.1,1
app_8,7.2025,19885.3,7801.1,147.762,792.809,8.53581e+10,1.0144,0.96529,10,0.107775,1954,0.1,1
app_9,7.73692,19118.4,7844.7,84.9332,988.718,1.1935e+10,1.01825,0.96529,8,0.0120678,2353,0.1,1
