app_id,Tcomp,Tio,iter,witer,alpha_io,compute_size,io_size,mu,desyn_time
1,10.52882929886532,0.4459716152919371,1823,10.974800914157257,0.04063596403982539,10e9,445971615.29193705,10,7.532807020909063
2,7.7042891750343765,0.17482470149653737,2539,7.879113876530914,0.02218837095593683,7e9,174824701.49653736,10,6.6401450742522155
3,10.467260036785518,0.4864327246792119,1826,10.95369276146473,0.04440810375752825,10e9,486432724.6792119,10,9.962319185870335
4,10.421152948639318,0.6491991418602323,1807,11.07035209049955,0.05864304373998796,10e9,649199141.8602324,10,3.590965393127847
5,10.279297976549952,0.28903510715435843,1893,10.56833308370431,0.02734916706968973,10e9,289035107.15435845,10,8.185686549095605
6,117.19739369970728,1.3973015255930312,169,118.59469522530031,0.011782158746126942,117e9,1397301525.5930312,100,45.02219307172548
7,102.14394836165407,3.322616633998662,190,105.46656499565273,0.03150398075575533,102e9,3322616633.998662,100,58.71107371856889
8,100.48787864502034,1.1046470422306232,197,101.59252568725097,0.010873310164876108,100e9,1104647042.2306232,100,90.73178906805774
9,89.97789297118494,4.889752710340007,211,94.86764568152495,0.05154289088985229,89e9,4889752710.340007,100,60.41076404417137
10,101.12356490961162,6.5746593492049845,186,107.6982242588166,0.06104705434515795,101e9,6574659349.204985,100,43.788470772359645
11,914.2505100310656,60.98202817513026,21,975.2325382061958,0.06253075629254351,914e9,60982028175.13026,1000,23.67211752465351
12,964.8757732075323,70.77960773957834,20,1035.6553809471106,0.06834281851058421,964e9,70779607739.57834,1000,426.173561506562
13,1037.8366872263591,54.91636392143396,19,1092.753051147793,0.05025505429955246,1037e9,54916363921.43396,1000,533.8143076814731
14,820.7578424167339,35.86455404152371,24,856.6223964582575,0.041867401774465934,820e9,35864554041.52371,1000,103.53798707353907
15,927.64300024386,12.398296630737057,22,940.041296874597,0.013189097832146633,927e9,12398296630.737057,1000,95.29572746207639
16,1906.8873451750485,45.93732358276229,11,1952.8246687578107,0.023523526877598778,1906e9,45937323582.76229,2000,1289.4416727805801
17,2029.826881695813,107.20925694800376,10,2137.0361386438167,0.05016726437580965,2029e9,107209256948.00375,2000,127.48655302443892
18,2139.022787324496,10.927656935713335,10,2149.9504442602097,0.00508274828607666,2139e9,10927656935.713335,2000,1194.0929931244152
19,1938.5331601408222,145.42859299450328,10,2083.9617531353256,0.06978467468306729,1938e9,145428592994.50327,2000,1947.9035569153423
20,2039.8439529933264,119.36681226489978,10,2159.2107652582263,0.05528261260341778,2039e9,119366812264.89978,2000,1671.3088524743039
