app_id,start_app,end_app,effective_cpu,effective_io,effective_iter,total_bytes,stretch,utilization,Tcomp,Tio,iterations,priority,group_id
app_1,7.97703,19541.6,7525.5,415.47,943.734,3.48913e+11,1.01595,0.915554,8,0.369611,2302,0.1,1
app_10,74.1804,20674.2,7096.61,762.834,89.559,6.02433e+11,1.03909,0.915554,80,6.73869,230,0.01,2
app_11,7.50192,20553.6,7654.1,279.21,7.99134,1.00317e+11,1.03167,0.915554,945,12.5397,21,0.001,3
app_12,703.108,21435.1,7912.2,70.6046,7.70238,2.38241e+10,1.00806,0.915554,1013,3.40344,20,0.001,3
app_13,681.195,22437.1,7228.5,720.579,6.88257,2.89965e+11,1.06405,0.915554,1055,41.4235,19,0.001,3
app_14,281.028,21480.1,7459.9,511.6,8.09466,2.20127e+11,1.04166,0.915554,922,27.5159,22,0.001,3
app_15,214.518,21263.9,7572.8,391.833,7.49114,1.35352e+11,1.03786,0.915554,1001,16.919,20,0.001,3
app_16,1320.65,23049.6,6767.9,899.499,3.48586,3.35767e+11,1.12618,0.915554,1897,111.922,10,0.0005,3.30103
app_17,1740.08,24949.7,7560.6,122.98,4.23961,4.41399e+10,1.05198,0.915554,1799,11.035,12,0.0005,3.30103
app_18,1642.49,23995,7260.2,122.16,3.39297,6.21244e+10,1.09255,0.915554,2102,20.7081,10,0.0005,3.30103
app_19,304.039,23492.4,6007.7,1324.13,3.75496,5.27424e+11,1.22415,0.915554,1713,131.856,11,0.0005,3.30103
app_2,6.96377,18865.8,7786.9,154.588,779.443,1.02958e+11,1.01396,0.915554,10,0.131998,1836,0.1,1
app_20,1703.41,23360.5,6881.88,1051.92,3.74726,4.58308e+11,1.08989,0.915554,1898,125.304,10,0.0005,3.30103
app_3,4.95988,19302,7697.5,235.149,770.671,2.02359e+11,1.01268,0.915554,10,0.262804,1859,0.1,1
app_4,12.3292,18973.5,7295,690.157,663.557,6.26428e+11,1.00992,0.915554,11,0.943416,1573,0.1,1
app_5,3.44103,19551.2,7750.8,186.339,967.861,1.02241e+11,1.01871,0.915554,8,0.105621,2366,0.1,1
app_6,45.096,20602.3,7155.6,760.543,81.2719,5.92255e+11,1.03254,0.915554,88,7.31179,209,0.01,2
app_7,10.4849,20606.2,7420.1,419.061,85.0876,3.28168e+11,1.03249,0.915554,87,3.8608,219,0.01,2
app_8,53.3825,20561.5,7159.3,748.933,79.2182,5.90188e+11,1.03233,0.915554,91,7.47073,203,0.01,2
app_9,110.41,20694.7,7295.5,587.836,67.261,4.58711e+11,1.0317,0.915554,109,6.74575,173,0.01,2
