app_id,start_app,end_app,effective_cpu,effective_io,effective_iter,total_bytes,stretch,utilization,Tcomp,Tio,iterations,priority,group_id
app_1,4.53783,19255.3,7836.2,99.559,979.136,5.73077e+10,1.01349,0.92159,8,0.058537,2359,0.1,1
app_10,23.5769,20421,7251.3,676.564,80.8531,5.38921e+11,1.02693,0.92159,90,6.65334,206,0.01,2
app_11,411.538,22136.6,7176.7,223.055,6.97703,1.23127e+11,1.09592,0.92159,1041,17.5896,19,0.001,3
app_12,832.458,23398.3,7145.8,786.984,6.14463,3.92958e+11,1.06118,0.92159,1103,65.4931,18,0.001,3
app_13,520.219,22274.6,6916.57,900.024,7.29437,4.76094e+11,1.08215,0.92159,966,59.8517,20,0.001,3
app_14,265.522,21678.7,7277.71,491.905,6.8888,2.38984e+11,1.0643,0.92159,1032,36.7127,19,0.001,3
app_15,626.784,21283.5,7526.6,230.275,8.5602,1.14472e+11,1.04697,0.92159,910,12.7191,22,0.001,3
app_16,443.191,22048.3,6895.2,979.462,3.80152,5.80401e+11,1.07015,0.92159,1870,145.1,10,0.0005,3.30103
app_17,1126.72,23242.3,7223.2,507.44,3.59911,1.80074e+11,1.0806,0.92159,2000,60.0246,10,0.0005,3.30103
app_18,434.313,23733.6,7310.5,689.5,3.34228,3.38559e+11,1.04588,0.92159,2095,112.853,10,0.0005,3.30103
app_19,1659.76,23820.3,7460.5,539.5,3.18432,2.60073e+11,1.03619,0.92159,2284,86.6912,9,0.0005,3.30103
app_2,1.99931,20084,7339.2,640.637,734.898,5.87233e+11,1.00928,0.92159,10,0.798957,1843,0.1,1
app_20,55.2432,21759.9,7040.42,840.254,4.02445,3.13639e+11,1.08783,0.92159,1779,75.6901,11,0.0005,3.30103
app_3,10.5533,18959.2,7789,149.204,778.73,8.18415e+10,1.01641,0.92159,10,0.10506,1842,0.1,1
app_4,7.53845,18324.3,7839.4,93.0488,868.599,7.30604e+10,1.01106,0.92159,9,0.0840741,1993,0.1,1
app_5,3.33137,19558.8,7465.44,496.701,829.765,4.35837e+11,1.01249,0.92159,9,0.525713,2024,0.1,1
app_6,36.109,20492.8,7392.2,530.575,83.6074,4.20766e+11,1.02394,0.92159,89,5.06947,213,0.01,2
app_7,93.113,20335.1,7749,127.852,68.7608,9.97963e+10,1.01926,0.92159,112,1.44632,175,0.01,2
app_8,85.3595,20536.2,7218.8,702.306,69.3794,5.63709e+11,1.02795,0.92159,105,8.1697,176,0.01,2
app_9,96.7721,20482.5,7600.6,319.058,80.7785,2.58496e+11,1.01793,0.92159,94,3.2312,205,0.01,2
