app_id,start_app,end_app,effective_cpu,effective_io,effective_iter,total_bytes,stretch,utilization,Tcomp,Tio,iterations,priority,group_id
app_1,0.00167956,28975.5,4065.44,315.279,451.336,2.94223e+11,1.835,0.783,9,0.651046,1980,1,1
app_10,64.3509,24583.4,5741.5,469.495,65.6527,4.66411e+11,1.28868,0.783,88,7.06684,210,1,1
app_11,297.725,21431.9,7193.4,461.515,9.80881,4.60977e+11,1.04515,0.783,729,51.2197,26,1,1
app_12,115.389,21105,7235.8,499.407,7.54219,4.99119e+11,1.03427,0.783,976,62.3898,20,1,1
app_13,817.934,22559.3,7505.6,444.387,7.89717,4.44113e+11,1.00633,0.783,930,63.4447,21,1,1
app_14,734.256,22303.7,7482.5,280.636,7.66922,2.80235e+11,1.03056,0.783,951,40.0335,21,1,1
app_15,1102.29,22192.3,7524.3,170.032,6.8057,1.69673e+11,1.03977,0.783,1087,24.2389,18,1,1
app_16,1974.52,24372.2,7601.8,70.9917,3.52821,7.07899e+10,1.04267,0.783,2153,17.6975,10,1,1
app_17,190.358,20905.2,7479.8,287.997,4.64512,2.87824e+11,1.02992,0.783,1668,57.5647,12,1,1
app_18,1828.94,23046,7686.26,101.959,3.67661,1.01799e+11,1.02721,0.783,2062,25.4496,10,1,1
app_19,514.681,20620.1,7361.6,600.407,4.06271,6.00324e+11,1.00478,0.783,1855,150.081,10,1,1
app_2,4.70888,29293.7,4154.13,287.359,413.512,2.62419e+11,1.81137,0.783,10,0.633861,1832,1,1
app_20,420.157,21246.9,7373.4,478.885,3.93981,4.78746e+11,1.01883,0.783,1945,119.687,10,1,1
app_3,1.87097,29934,4254.74,87.2679,471.557,5.37013e+10,1.85682,0.783,9,0.113774,2171,1,1
app_4,6.28303,28281.8,4246.8,125.465,423.912,1.03543e+11,1.83894,0.783,10,0.244783,1793,1,1
app_5,0.000256555,29520.6,4163.37,253.944,416.93,2.36583e+11,1.8182,0.783,10,0.567345,1865,1,1
app_6,41.9653,24322.7,6143.3,158.556,58.644,1.55426e+11,1.2701,0.783,105,2.63434,185,1,1
app_7,98.4633,24653.3,6175.3,164.585,62.4687,1.61584e+11,1.26245,0.783,99,2.56483,196,1,1
app_8,24.5601,24833.9,5919.8,72.8657,73.6387,6.77235e+10,1.33611,0.783,80,0.915182,245,1,1
app_9,74.9454,24871.9,5971.1,111.625,61.579,1.0832e+11,1.31591,0.783,97,1.7471,201,1,1
