app_id,start_app,end_app,effective_cpu,effective_io,effective_iter,total_bytes,stretch,utilization,Tcomp,Tio,iterations,priority,group_id
app_1,5.68891,29118.1,4268.29,328.45,474,3.01743e+11,1.75054,0.815009,9,0.636588,2069,1,1
app_10,24.5469,23662.9,6255.27,373.749,77.9428,3.69186e+11,1.20765,0.815009,79,4.73315,238,1,1
app_11,414.848,21432.4,7790.47,127.316,8.85123,1.26924e+11,1.01043,0.815009,880,15.8655,23,1,1
app_12,351.534,21091.4,7576.36,325.367,8.10554,3.24661e+11,1.01253,0.815009,933,39.6058,21,1,1
app_13,903.212,21768.6,7637.6,351.865,7.24065,3.51238e+11,1.0014,0.815009,1055,43.9048,19,1,1
app_14,817.304,21113.6,7820,134.205,8.28063,1.33775e+11,1.00581,0.815009,942,16.7219,21,1,1
app_15,661.128,22640.2,7498.82,297.858,7.73779,2.97495e+11,1.02613,0.815009,959,37.1869,21,1,1
app_16,78.4617,19741.9,7682,298.749,4.40431,2.9861e+11,1.00243,0.815009,1748,74.6525,11,1,1
app_17,617.068,21928.6,7640.7,314.698,3.73054,3.14479e+11,1.00563,0.815009,2105,78.6198,10,1,1
app_18,1870.45,23249,7656,173.44,3.96316,1.73316e+11,1.0218,0.815009,1866,43.3289,11,1,1
app_19,2039.73,22409.5,7746.3,162.283,3.57109,1.62056e+11,1.01159,0.815009,2192,40.514,9,1,1
app_2,0.82488,28881.1,4117.08,362.312,587.006,3.44722e+11,1.793,0.815009,7,0.587261,2553,1,1
app_20,434.309,20280.4,7412.73,546.448,4.44828,5.46309e+11,1.00515,0.815009,1712,128.31,11,1,1
app_3,1.71843,28956,4541.82,94.3957,453.996,7.47494e+10,1.73289,0.815009,10,0.164646,1954,1,1
app_4,1.57972,28579.4,4413.16,152.548,490.999,1.31903e+11,1.76015,0.815009,9,0.268642,2080,1,1
app_5,9.40678,28268.5,4423.48,102.108,490.001,8.08437e+10,1.77607,0.815009,9,0.164987,2064,1,1
app_6,27.5293,23723,6721.06,21.3093,78.0001,1.62946e+10,1.18741,0.815009,86,0.208905,230,1,1
app_7,4.73912,23075.9,6372.28,548.755,65.1569,5.46049e+11,1.15635,0.815009,96,8.27348,191,1,1
app_8,73.9945,23515,6470.87,348.224,62.8608,3.4619e+11,1.17353,0.815009,103,5.49509,185,1,1
app_9,22.0524,23257.7,6357.18,487.801,72.2422,4.8341e+11,1.16949,0.815009,88,6.62206,211,1,1
