app_id,start_app,end_app,effective_cpu,effective_io,effective_iter,total_bytes,stretch,utilization,Tcomp,Tio,iterations,priority,group_id
app_1,5.41304,19272.6,7828.9,71.2792,784.665,1.55749e+10,1.01983,0.919205,10,0.0198407,1886,0.1,1
app_10,51.4647,20973.1,7013.4,875.382,75.4042,6.19362e+11,1.04811,0.919205,92,8.25816,199,0.01,2
app_11,834.609,23322.3,6773.4,931.152,8.0474,4.74454e+11,1.10378,0.919205,841,59.3067,23,0.001,3
app_12,661.429,22199.5,7179.7,465.868,7.10296,2.12048e+11,1.08229,0.919205,1053,30.2926,19,0.001,3
app_13,424.758,22414.5,7616.4,16.8716,6.19346,6.07074e+09,1.04953,0.919205,1220,1.01179,17,0.001,3
app_14,188.233,22354.1,7298.1,199.083,7.77097,1.02293e+11,1.08102,0.919205,963,12.7866,21,0.001,3
app_15,163.961,22877,7520.57,222.048,7.63365,1.16146e+11,1.04757,0.919205,973,16.2244,21,0.001,3
app_16,1120.15,22560.7,7530,295.03,3.92787,1.51548e+11,1.04146,0.919205,1834,37.887,11,0.001,3
app_17,871.031,24010.9,6958.7,833.737,3.45044,4.17083e+11,1.08463,0.919205,2016,139.028,10,0.001,3
app_18,782.723,23410.5,7312.5,625.313,4.08679,3.14945e+11,1.04884,0.919205,1669,78.7363,12,0.001,3
app_19,922.152,22860.8,7241.5,487.428,3.91398,2.44084e+11,1.06872,0.919205,1812,61.0211,11,0.001,3
app_2,6.1594,19974.3,7485.3,432.002,833.337,3.77037e+11,1.01751,0.919205,9,0.452625,2078,0.1,1
app_20,219.131,22609.5,7745.9,95.0735,4.00799,6.71671e+10,1.02393,0.919205,1929,16.7918,11,0.001,3
app_3,8.77333,19584.3,7285.6,659.367,732.021,5.92765e+11,1.01544,0.919205,10,0.809789,1789,0.1,1
app_4,0.0805081,20318.2,7410.9,521.893,825.778,4.58048e+11,1.01665,0.919205,9,0.554537,2093,0.1,1
app_5,6.24772,19517,7363.4,555.212,920.715,4.97165e+11,1.01774,0.919205,8,0.53981,2246,0.1,1
app_6,75.7927,20809.4,6954.4,853.701,82.65,6.15621e+11,1.0568,0.919205,85,7.41712,215,0.01,2
app_7,29.1098,20398.9,7667.95,211.224,74.1089,1.43885e+11,1.02409,0.919205,104,1.91847,188,0.01,2
app_8,94.594,20415,7895.8,10.7248,69.5532,2.20317e+09,1.01291,0.919205,115,0.0314739,174,0.01,2
app_9,32.2944,20899,6990.39,913.2,72.1846,6.52272e+11,1.04676,0.919205,97,9.02838,189,0.01,2
