app_id,start_app,end_app,effective_cpu,effective_io,effective_iter,total_bytes,stretch,utilization,Tcomp,Tio,iterations,priority,group_id
app_1,5.21973,18212.6,7896.8,94.4144,992.702,1.83802e+10,1.01072,0.994249,8,0.0185098,2250,0.1,1
app_10,2.90422,18282.3,7909.55,82.5977,877.479,9.55713e+09,1.01022,0.994249,9,0.0108908,2007,0.1,1
app_11,6.10235,18623.4,7914.8,78.6425,793.811,3.08153e+10,1.00684,0.994249,10,0.0388102,1846,0.1,1
app_12,4.51014,19892.8,7904.8,86.8024,878.325,3.56298e+10,1.0075,0.994249,9,0.0405807,2187,0.1,1
app_13,9.16329,18249.9,7903.8,88.4601,880.956,4.36166e+10,1.00662,0.994249,9,0.0495643,2005,0.1,1
app_14,8.64399,18458.4,7913.4,79.34,792.914,3.9667e+10,1.0059,0.994249,10,0.0500215,1826,0.1,1
app_15,5.36577,19286.2,7909.8,82.8852,879.721,1.05066e+10,1.01006,0.994249,9,0.0119393,2122,0.1,1
app_16,74.7308,20195.1,7972,27.5206,67.3411,2.18888e+10,1.00076,0.994249,118,0.326699,170,0.01,2
app_17,9.59911,19866.5,7967.7,30.7022,66.9718,2.52983e+10,1.00088,0.994249,120,0.377586,165,0.01,2
app_18,95.3647,20169.7,7972.2,27.3547,79.5249,2.31665e+10,1.00058,0.994249,99,0.293247,202,0.01,2
app_19,93.5092,20126.7,7974,23.3925,70.5449,1.95941e+10,1.0008,0.994249,112,0.275973,177,0.01,2
app_2,3.6906,19980,7915,78.8674,793.081,3.70936e+10,1.00602,0.994249,10,0.0467763,1979,0.1,1
app_20,36.5466,19968.5,7944.7,53.641,92.8131,4.62721e+10,1.00113,0.994249,86,0.497549,230,0.01,2
app_21,48.8364,20092.8,7962.9,35.4873,84.1889,2.95212e+10,1.00095,0.994249,94,0.351443,212,0.01,2
app_22,47.9505,20092.3,7981.5,16.8156,84.5535,1.05002e+10,1.001,0.994249,95,0.123532,210,0.01,2
app_23,69.5816,20079.1,7961.7,37.2777,82.8311,3.11395e+10,1.0009,0.994249,96,0.375174,207,0.01,2
app_24,79.1512,20018,7952.8,45.8326,68.3208,3.96541e+10,1.00094,0.994249,116,0.583148,171,0.01,2
app_25,63.2858,19997.8,7989.7,9.19806,86.0402,5.57794e+09,1.00059,0.994249,92,0.0648598,216,0.01,2
app_26,108.41,19964,7954,45.3502,73.3034,3.92072e+10,1.00085,0.994249,108,0.537084,183,0.01,2
app_27,61.3809,20012,7972.3,26.1455,86.6888,1.97903e+10,1.00099,0.994249,92,0.23012,216,0.01,2
app_28,57.7561,20087.5,7951.7,46.9797,74.914,4.02178e+10,1.00101,0.994249,107,0.536238,186,0.01,2
app_29,3.75346,19772.8,7945.7,53.7968,85.6459,4.50351e+10,1.00116,0.994249,93,0.523664,212,0.01,2
app_3,0.149265,19451.9,7906.8,87.3402,878.814,3.90699e+10,1.00681,0.994249,9,0.0444481,2132,0.1,1
app_30,72.5507,19974.9,7960.1,38.9426,97.1512,3.12469e+10,1.00108,0.994249,82,0.322133,242,0.01,2
app_31,785.437,21530.7,7993.1,6.9,7.07772,4.93915e+09,1.00025,0.994249,1148,0.705593,18,0.001,3
app_32,636.237,21126.9,7990.3,9.7,8.15972,7.84998e+09,1.00023,0.994249,978,0.981248,21,0.001,3
app_33,335.943,20695.9,7955.9,42.0196,7.30361,3.78664e+10,1.00078,0.994249,1063,5.40949,19,0.001,3
app_34,92.5962,21097.8,7974.4,25.6,7.64568,2.23443e+10,1.00041,0.994249,1044,2.79304,20,0.001,3
app_35,781.76,20340.1,7979.5,20.5,8.46505,1.81823e+10,1.00029,0.994249,953,2.27278,21,0.001,3
app_36,910.918,21087.6,7994.6,5.4,7.88102,4.7837e+09,1.00008,0.994249,1011,0.683385,20,0.001,3
app_37,1.47551,21142.7,7954.9,41.475,7.54369,3.55333e+10,1.0012,0.994249,1032,4.44167,20,0.001,3
app_38,404.948,20410.6,7971.5,28.5,7.59942,2.43096e+10,1.00052,0.994249,1066,3.4728,19,0.001,3
app_39,246.573,20505.6,7959.3,40.7,8.41034,3.70444e+10,1.00046,0.994249,960,4.11604,21,0.001,3
app_4,1.14424,19240.3,7923.6,70.1635,721.144,2.57871e+10,1.00637,0.994249,11,0.0357658,1732,0.1,1
app_40,160.356,20406,7987.3,12.7,7.21965,1.02623e+10,1.0003,0.994249,1124,1.46605,18,0.001,3
app_41,450.953,20965.8,7965.5,34.3859,7.90162,2.99232e+10,1.00057,0.994249,1002,3.7404,20,0.001,3
app_42,503.603,21022.6,7966.3,32.134,8.97859,2.9393e+10,1.00054,0.994249,881,3.26589,23,0.001,3
app_43,196.173,20931.4,7967.1,31.3337,8.80641,2.76254e+10,1.00066,0.994249,901,3.06949,23,0.001,3
app_44,28.6419,20624.1,7951.8,44.5476,10.2287,3.78323e+10,1.0013,0.994249,793,3.78323,26,0.001,3
app_45,842.63,20890.2,7964.8,35.2,7.05765,3.11445e+10,1.00051,0.994249,1107,4.44922,18,0.001,3
app_46,868.79,22533.6,7963.5,36.5,2.24143,3.0895e+10,1.0007,0.994249,3712,15.4475,6,0.00025,3.60206
app_47,1679.67,23733,7957.8,42.2,1.83175,3.37901e+10,1.00105,0.994249,4440,16.8951,5,0.00025,3.60206
app_48,2634.24,24002.5,7941.8,58.2,2.30815,5.00383e+10,1.00102,0.994249,3508,16.6794,6,0.00025,3.60206
app_49,1940.29,23261.6,7948.5,51.5,1.90496,3.85882e+10,1.00162,0.994249,4455,19.2941,5,0.00025,3.60206
app_5,3.54498,18286.4,7897.3,94.8882,983.739,2.59745e+10,1.00968,0.994249,8,0.0263969,2252,0.1,1
app_50,1774.35,22153.8,7973.08,26.9167,1.94235,2.43047e+10,1.00033,0.994249,4253,17.5322,5,0.00025,3.60206
app_51,841.928,21332.8,7983.5,16.5,2.38797,1.49899e+10,1.00019,0.994249,3568,7.49493,6,0.00025,3.60206
app_52,9.68656,22005.7,7999.4,0.6,1.75699,1.72741e+08,1.00005,0.994249,4439,0.0863706,5,0.00025,3.60206
app_53,1134.47,20949.6,7999.8,0.2,2.38713,4.53145e+07,1.00002,0.994249,3507,0.0226573,6,0.00025,3.60206
app_54,3667.48,24255.6,7968.8,31.2,2.32356,2.71522e+10,1.00051,0.994249,3664,13.5761,6,0.00025,3.60206
app_55,4207.87,25804.6,7979.9,20.1,1.82287,1.75471e+10,1.00032,0.994249,4265,8.77354,5,0.00025,3.60206
app_56,2048.03,24150,7986.2,13.8,2.07846,9.03719e+09,1.0006,0.994249,3655,4.5186,6,0.00025,3.60206
app_57,1172.22,23759.6,7973.9,26.1,1.84618,2.27489e+10,1.00042,0.994249,4480,22.7489,5,0.00025,3.60206
app_58,278.617,22831.7,7967.4,32.6,2.49563,2.95216e+10,1.00038,0.994249,3319,9.84055,7,0.00025,3.60206
app_59,463.358,23042.6,7962.1,37.9,2.15402,3.24924e+10,1.00068,0.994249,3774,16.2462,6,0.00025,3.60206
app_6,8.77559,18462.7,7894,97.0149,986.66,3.6321e+10,1.00879,0.994249,8,0.0367994,2277,0.1,1
app_60,1180.36,21839.5,7972.3,27.7,1.93641,2.3644e+10,1.00051,0.994249,4110,11.822,5,0.00025,3.60206
app_7,6.38463,19823.4,7904.5,88.8837,878.791,4.69558e+10,1.00611,0.994249,9,0.0534196,2172,0.1,1
app_8,5.00508,19533.9,7923.5,70.9909,722.164,2.88766e+10,1.00599,0.994249,11,0.0399953,1761,0.1,1
app_9,8.90014,19917.4,7904.7,87.8576,879.118,4.28622e+10,1.0066,0.994249,9,0.0487625,2188,0.1,1
