app_id,start_app,end_app,effective_cpu,effective_io,effective_iter,total_bytes,stretch,utilization,Tcomp,Tio,iterations,priority,group_id
app_1,6.77475,19116.8,7907.4,85.7853,878.389,3.13953e+10,1.00771,0.994014,9,0.035717,2100,0.1,1
app_10,1.6053,19174.3,7918.2,75.5542,789.573,1.25796e+10,1.00873,0.994014,10,0.0159235,1895,0.1,1
app_11,7.26417,18070.3,7899.7,91.6757,987.138,5.52431e+09,1.01199,0.994014,8,0.00559707,2228,0.1,1
app_12,2.49999,18310.8,7907.1,85.1168,879.362,2.64581e+10,1.00837,0.994014,9,0.0301002,2010,0.1,1
app_13,6.37296,19474.6,7913.7,80.1148,792.952,4.72846e+10,1.0049,0.994014,10,0.0596274,1930,0.1,1
app_14,4.74569,18876.8,7906.1,86.2656,878.653,3.25718e+10,1.00773,0.994014,9,0.0370555,2074,0.1,1
app_15,4.82374,19149.9,7919.2,73.6239,794.432,5.69483e+09,1.00948,0.994014,10,0.00716331,1897,0.1,1
app_16,67.1947,19821,7938.4,60.4216,89.3808,5.27589e+10,1.00111,0.994014,90,0.592797,219,0.01,2
app_17,2.05996,19934,7987.8,10.4989,94.8995,7.06424e+09,1.00064,0.994014,84,0.0743604,238,0.01,2
app_18,83.2097,20166.9,7951.6,47.5067,84.6924,4.10059e+10,1.00093,0.994014,94,0.482423,212,0.01,2
app_19,100.492,20239.8,7940.9,57.678,74.2352,5.15535e+10,1.00094,0.994014,107,0.68738,186,0.01,2
app_2,4.64823,19063.7,7917.8,76.1619,793.239,1.95331e+10,1.0079,0.994014,10,0.0246319,1887,0.1,1
app_20,39.1935,20106.4,7991.3,6.26003,63.6522,7.71402e+08,1.00099,0.994014,126,0.0120532,159,0.01,2
app_21,3.05701,19873.7,7961.9,36.6765,85.7181,3.18253e+10,1.00078,0.994014,93,0.370061,213,0.01,2
app_22,97.6523,20011.4,7965.1,32.3616,79.9935,2.5949e+10,1.00112,0.994014,100,0.324362,199,0.01,2
app_23,13.7787,19776.8,7988.1,10.7954,84.0057,8.16271e+09,1.00047,0.994014,95,0.0971751,209,0.01,2
app_24,82.1542,20019.7,7969.2,29.5154,86.064,2.49676e+10,1.00073,0.994014,93,0.290321,214,0.01,2
app_25,49.6652,20040.6,7961.2,37.2093,85.3064,3.21557e+10,1.00083,0.994014,93,0.378303,213,0.01,2
app_26,95.3312,19988.3,7950.9,48.7834,79.9032,4.24455e+10,1.00083,0.994014,100,0.530569,199,0.01,2
app_27,4.87077,19976.6,7956,42.5271,94.2146,3.578e+10,1.00103,0.994014,84,0.380638,235,0.01,2
app_28,73.2705,20259.9,7987.9,11.3319,90.7493,8.74267e+09,1.00042,0.994014,87,0.0960733,230,0.01,2
app_29,36.3946,19777.7,7971.1,27.7963,81.0862,2.35722e+10,1.00067,0.994014,99,0.291015,200,0.01,2
app_3,0.438045,19403.1,7896.6,94.8355,989.423,2.3237e+10,1.01012,0.994014,8,0.0234955,2397,0.1,1
app_30,32.504,20024.8,7963,36.1155,85.2168,3.12712e+10,1.00072,0.994014,94,0.367896,212,0.01,2
app_31,60.2927,20207,7957.1,38.7402,9.88687,3.49577e+10,1.00099,0.994014,802,3.49577,25,0.001,3
app_32,109.967,19870.3,7941.3,58.7,7.96195,5.00615e+10,1.00108,0.994014,1012,6.25769,20,0.001,3
app_33,19.5731,20400.1,7983.2,14.1818,7.8287,1.2046e+10,1.00059,0.994014,1025,1.50575,20,0.001,3
app_34,588.945,21397,7942.1,57.9,9.06953,5.16072e+10,1.00079,0.994014,892,5.73414,23,0.001,3
app_35,14.7042,20152.7,7967.7,28.9948,9.43194,2.53003e+10,1.00088,0.994014,841,2.81114,24,0.001,3
app_36,577.166,21074.4,7977.4,22.6,7.2791,1.92614e+10,1.00042,0.994014,1084,2.75163,19,0.001,3
app_37,245.848,21043.2,7943.6,56.4,6.45945,5.03127e+10,1.00076,0.994014,1194,7.18752,17,0.001,3
app_38,854.431,21891.2,7983.5,12.1717,8.3961,1.02323e+10,1.00078,0.994014,942,1.27904,22,0.001,3
app_39,841.171,21416.5,7975.8,24.2,9.15871,2.18371e+10,1.0003,0.994014,902,2.42635,23,0.001,3
app_4,4.57497,19331,7916.9,76.9528,793.052,1.92294e+10,1.00805,0.994014,10,0.024249,1914,0.1,1
app_40,867.809,21968.3,7975.2,24.8,8.08816,2.1484e+10,1.00041,0.994014,989,2.6855,21,0.001,3
app_41,310.348,21244.9,7955.3,42.5829,7.72097,3.65519e+10,1.00102,0.994014,1021,4.56898,20,0.001,3
app_42,257.722,20460.2,7968.7,31.3,7.09114,2.73829e+10,1.00049,0.994014,1143,3.91184,18,0.001,3
app_43,201.597,20464.7,7978.4,15.4888,9.49527,1.35499e+10,1.00101,0.994014,849,1.50555,24,0.001,3
app_44,667.281,20741.9,7962.7,37.3,7.55394,3.23455e+10,1.00062,0.994014,1055,4.62079,19,0.001,3
app_45,956.59,21399.9,7978.4,21.6,7.76654,1.93272e+10,1.00028,0.994014,1019,2.76102,20,0.001,3
app_46,2163.47,23517.4,7951.8,48.2,1.94609,3.789e+10,1.00129,0.994014,4251,18.945,5,0.0001,4
app_47,1585.59,22669.7,7941.5,58.5,1.96872,4.67873e+10,1.00147,0.994014,4100,23.3937,5,0.0001,4
app_48,2869.62,26131.3,7983.1,16.9,2.167,1.54058e+10,1.00019,0.994014,3821,7.70292,6,0.0001,4
app_49,421.372,21718.7,7963.9,36.1,1.92043,3.16321e+10,1.00056,0.994014,4378,15.8161,5,0.0001,4
app_5,7.28158,19724.6,7917,76.1366,791.186,1.68207e+10,1.00834,0.994014,10,0.0212382,1950,0.1,1
app_50,2710.95,22956.1,7994.2,5.8,2.44121,4.00341e+09,1.00022,0.994014,3477,1.33447,6,0.0001,4
app_51,1593.47,21371.3,7936.5,36.9762,1.99567,2.99709e+10,1.00421,0.994014,4192,14.9855,5,0.0001,4
app_52,1001.89,21949.1,7947.2,52.8,1.91291,4.74293e+10,1.00067,0.994014,4136,23.7147,5,0.0001,4
app_53,3013.7,24069.7,7993.9,6.1,1.89756,5.68769e+09,1.00005,0.994014,4118,2.84385,5,0.0001,4
app_54,3160.55,22733.4,7985.2,14.8,2.02299,1.29657e+10,1.00023,0.994014,4059,6.48287,5,0.0001,4
app_55,3111.87,25881.1,7970.3,29.7,2.13094,2.4381e+10,1.00067,0.994014,3827,12.1905,6,0.0001,4
app_56,2778.79,27025.8,7944.1,55.9,1.91764,5.17653e+10,1.00052,0.994014,3967,25.8827,6,0.0001,4
app_57,1869.34,24505.2,7939.7,60.3,2.04473,4.85737e+10,1.00147,0.994014,3674,24.2868,6,0.0001,4
app_58,3256.66,26451.5,7985,15,2.11911,1.39023e+10,1.00014,0.994014,3894,6.95113,6,0.0001,4
app_59,18.9971,21500.9,7974.2,25.8,2.22739,2.31615e+10,1.00033,0.994014,3604,11.5808,6,0.0001,4
app_6,0.531989,18660.5,7914.4,77.9578,794.164,2.92789e+10,1.00709,0.994014,10,0.0368288,1848,0.1,1
app_60,2590.78,23531.6,7990.8,9.2,1.86121,3.45364e+09,1.00072,0.994014,4184,1.72682,5,0.0001,4
app_7,5.99224,18270.8,7904.9,88.1624,876.347,5.07904e+10,1.00557,0.994014,9,0.05798,2006,0.1,1
app_8,3.44954,20074.8,7917.4,76.4565,791.058,2.23598e+10,1.00759,0.994014,10,0.0282678,1988,0.1,1
app_9,3.68839,19718.7,7893.9,97.572,992.194,3.70212e+10,1.00871,0.994014,8,0.0373198,2437,0.1,1
