app_id,start_app,end_app,effective_cpu,effective_io,effective_iter,total_bytes,stretch,utilization,Tcomp,Tio,iterations,priority,group_id
app_1,9.36653,18312.9,7909.6,90.4,876.632,3.58293e+10,1.00687,0.993958,9,0.0408543,2007,1,1
app_10,2.67447,19642.8,7900.4,99.6,987.148,3.20912e+10,1.00851,0.993958,8,0.032481,2426,1.00001,1.00001
app_11,7.48097,19435.9,7908.4,91.6,877.886,3.9061e+10,1.00661,0.993958,9,0.0444886,2132,1.00001,1.00001
app_12,3.47086,19370.7,7928.1,71.9,719.436,4.60081e+09,1.00848,0.993958,11,0.00639891,1746,1.00001,1.00001
app_13,5.50711,19248.8,7927.9,72.1,720.758,8.76999e+09,1.00798,0.993958,11,0.0121636,1732,1.00001,1.00001
app_14,6.58623,18776.6,7911.4,88.6,880.443,2.55453e+10,1.00794,0.993958,9,0.0289958,2062,1.00001,1.00001
app_15,7.80933,19298.8,7900.9,99.1,987.446,2.81595e+10,1.00895,0.993958,8,0.0285304,2381,1.00002,1.00002
app_16,3.17144,19943.3,7949.8,50.2,79.5075,3.88119e+10,1.00143,0.993958,100,0.485149,198,1.00002,1.00002
app_17,45.2909,19949.5,7992.6,7.4,73.6503,1.42098e+09,1.00075,0.993958,109,0.0192024,183,1.00002,1.00002
app_18,35.3539,20103.3,7950.5,49.5,71.3077,3.83538e+10,1.0014,0.993958,111,0.540194,179,1.00002,1.00002
app_19,52.2436,19915,7979.9,20.1,83.0464,1.27935e+10,1.00091,0.993958,97,0.154139,205,1.00002,1.00002
app_2,1.75656,18570.1,7912.3,87.7,876.855,3.84847e+09,1.01059,0.993958,9,0.00438822,2039,1,1
app_20,6.40135,19943.3,7934.3,65.7,83.2651,4.94298e+10,1.00204,0.993958,96,0.58845,206,1.00002,1.00002
app_21,85.1166,19859.8,7947.9,52.1,89.0143,3.65334e+10,1.00195,0.993958,90,0.410487,219,1.00002,1.00002
app_22,25.6958,19950.1,7950.4,49.6,104.736,3.45601e+10,1.00188,0.993958,76,0.329143,261,1.00002,1.00002
app_23,39.2336,19957.6,7976.8,23.2,70.8,1.48893e+10,1.00104,0.993958,113,0.212704,177,1.00002,1.00002
app_24,14.8286,20070.9,7991.6,8.4,82.6495,2.677e+09,1.00072,0.993958,97,0.0326463,206,1.00002,1.00002
app_25,13.9589,19978.1,7935.3,64.7,90.3704,4.74229e+10,1.00216,0.993958,88,0.526922,225,1.00003,1.00003
app_26,60.3618,20119.8,7932.5,67.5,68.6069,5.15025e+10,1.002,0.993958,116,0.746413,171,1.00003,1.00003
app_27,78.5089,20045.6,7973.7,26.3,78.4499,1.82095e+10,1.00101,0.993958,102,0.233456,196,1.00003,1.00003
app_28,82.8572,20326.8,7931,69,86.9095,5.15294e+10,1.00219,0.993958,90,0.592292,221,1.00003,1.00003
app_29,73.8337,19990.6,7937.7,62.3,86.1822,4.50058e+10,1.00217,0.993958,93,0.523324,213,1.00003,1.00003
app_3,4.64719,18942,7907.4,92.6,789.841,4.09498e+10,1.0065,0.993958,10,0.0518352,1870,1,1
app_30,3.58303,19874.9,7981,19,77.7053,1.31062e+10,1.00074,0.993958,103,0.170211,193,1.00003,1.00003
app_31,789.541,20574.5,7959.3,40.7,7.69133,3.42867e+10,1.0008,0.993958,1049,4.28583,19,1.00003,1.00003
app_32,67.161,20104.5,7952.1,47.9,7.61273,4.17655e+10,1.00077,0.993958,1052,5.22069,19,1.00003,1.00003
app_33,131.959,20070.1,7974.3,25.7,7.92233,2.00263e+10,1.00071,0.993958,1011,2.50329,20,1.00003,1.00003
app_34,507.768,20688.9,7972.3,27.7,10.3206,2.14021e+10,1.00079,0.993958,777,2.14021,26,1.00003,1.00003
app_35,239.188,20522.2,7980,20,7.0724,1.2691e+10,1.00091,0.993958,1114,1.813,18,1.00004,1.00004
app_36,87.7306,20483.7,7947,53,8.46573,4.61372e+10,1.00086,0.993958,914,5.76715,22,1.00004,1.00004
app_37,162.616,20201.5,7966,34,7.68487,2.95676e+10,1.00055,0.993958,1054,3.69595,19,1.00004,1.00004
app_38,388.257,21200.6,7998.4,1.6,7.99529,1.05381e+09,1.00007,0.993958,986,0.131726,21,1.00004,1.00004
app_39,658.021,21502.2,7998.2,1.8,8.9232,1.2797e+09,1.00007,0.993958,850,0.142189,24,1.00004,1.00004
app_4,9.81312,18945.4,7928,72,719.566,9.88427e+09,1.00783,0.993958,11,0.0137281,1705,1,1
app_40,631.911,21447.5,7961.3,38.7,6.34217,3.37195e+10,1.00062,0.993958,1201,5.61991,17,1.00004,1.00004
app_41,103.966,20921.3,7966.7,33.3,8.45561,2.85312e+10,1.0006,0.993958,934,3.5664,22,1.00004,1.00004
app_42,410.798,20512.3,7945,55,8.7721,4.83822e+10,1.00083,0.993958,925,6.04778,22,1.00004,1.00004
app_43,818.857,21364.2,7990.8,9.2,9.28742,7.65813e+09,1.00019,0.993958,855,0.765813,24,1.00004,1.00004
app_44,769.771,20856.4,7973.2,26.8,8.50704,2.3337e+10,1.00043,0.993958,956,2.91713,21,1.00004,1.00004
app_45,654.48,21592.1,7984.5,15.5,8.94609,1.28661e+10,1.00033,0.993958,865,1.42956,24,1.00004,1.00004
app_46,17.455,22700.2,7925.3,74.7,2.42757,6.64431e+10,1.00103,0.993958,3270,22.1477,7,1.00005,1.00005
app_47,1860.26,22438,7988.3,11.7,1.92301,1.02462e+10,1.00018,0.993958,4369,10.2462,5,1.00005,1.00005
app_48,640.146,23196.4,7946.7,53.3,2.54136,4.2344e+10,1.00137,0.993958,3165,14.1147,7,1.00005,1.00005
app_49,2635.73,24799,7950.3,49.7,1.83549,4.55145e+10,1.00052,0.993958,4537,22.7573,5,1.00005,1.00005
app_5,7.20276,19432.8,7930.1,69.9,657.774,3.2049e+10,1.00475,0.993958,12,0.0487067,1601,1.00001,1.00001
app_50,2460.84,25199.6,7968.3,31.7,2.14422,2.11483e+10,1.00132,0.993958,3853,7.04945,6,1.00005,1.00005
app_51,549.128,23544.3,7961.1,38.9,1.65012,2.79357e+10,1.00137,0.993958,4492,27.9357,5,1.00005,1.00005
app_52,522.495,22181.8,7962,38,1.84533,3.36502e+10,1.00054,0.993958,4320,16.8251,5,1.00005,1.00005
app_53,2262.27,24656.5,7949.1,50.9,1.73422,4.53604e+10,1.00069,0.993958,4366,22.6802,5,1.00005,1.00005
app_54,3945.39,24858.8,7960,40,1.87021,3.16816e+10,1.00104,0.993958,4308,15.8408,5,1.00005,1.00005
app_55,2882.53,27176.7,7998.5,1.5,2.14062,1.35999e+09,1.00002,0.993958,3954,0.679996,6,1.00005,1.00005
app_56,65.6462,23433.1,7960.9,39.1,1.65755,2.8814e+10,1.00129,0.993958,4436,28.814,5,1.00006,1.00006
app_57,2590.37,24735,7958.1,41.9,2.17705,3.69734e+10,1.00062,0.993958,3598,12.3245,6,1.00006,1.00006
app_58,2492.87,24377,7952.45,47.5504,2.11771,4.46798e+10,1.00036,0.993958,3682,20.4723,6,1.00006,1.00006
app_59,820.092,21990.5,7993.2,6.8,1.85539,5.92264e+09,1.00011,0.993958,4049,2.96132,5,1.00006,1.00006
app_6,1.79474,19248.8,7920.9,79.1,791.139,3.11858e+09,1.00959,0.993958,10,0.00394259,1904,1.00001,1.00001
app_60,1786.67,22623.9,7975.6,24.4,1.93325,2.17335e+10,1.00033,0.993958,4166,10.8667,5,1.00006,1.00006
app_7,2.29787,19232.7,7897.7,102.3,984.329,3.84012e+10,1.00805,0.993958,8,0.0390256,2370,1.00001,1.00001
app_8,0.082647,18821.6,7920.5,79.5,793.929,1.63347e+10,1.00796,0.993958,10,0.0205727,1864,1.00001,1.00001
app_9,2.44943,19044,7912.2,87.8,878.072,6.05575e+09,1.01032,0.993958,9,0.0068972,2088,1.00001,1.00001
