app_id,Tcomp,Tio,iter,witer,alpha_io,compute_size,io_size,mu,desyn_time
1,10.809328030384657,0.6023623138936027,1753,11.41169034427826,0.05278467043189819,10e9,602362313.8936027,10,3.6362921996375923
2,9.363934051187789,0.3705411570799348,2055,9.734475208267723,0.038064831349637146,9e9,370541157.0799348,10,6.678171346933816
3,8.619615855201326,0.14104557938028323,2283,8.760661434581609,0.01609987789546615,8e9,141045579.38028324,10,1.3549836869765803
4,11.958489722943545,0.07045072195151812,1663,12.028940444895063,0.005856768704962419,11e9,70450721.95151812,10,1.0299887393224072
5,9.464790481540787,0.5856654159749719,1990,10.050455897515759,0.05827252235589978,9e9,585665415.9749719,10,4.732938303012278
6,89.26231279031967,3.458168280008221,216,92.72048107032789,0.037296703382990674,89e9,3458168280.008221,100,24.903409727633353
7,107.29718721450858,2.9423059109348535,182,110.23949312544343,0.026690125539553713,107e9,2942305910.9348536,100,9.510978510866028
8,96.97708411499107,2.3443345280238934,202,99.32141864301497,0.023603514328062458,96e9,2344334528.0238934,100,3.4845110904526724
9,99.48828222336233,4.667130645362892,193,104.15541286872522,0.0448092952331265,99e9,4667130645.362892,100,76.76712610406746
10,100.05127217484504,4.0923028109434805,193,104.14357498578852,0.039294817865642866,100e9,4092302810.9434805,100,61.161642850176484
11,150.74934192113815,2.3634276492220687,131,153.11276957036023,0.015435862442132875,150e9,2363427649.222069,150,99.4231155679929
12,141.1348962112556,10.970218688137944,132,152.10511489939356,0.0721226153071443,141e9,10970218688.137943,150,14.698499972695247
13,142.34546704406355,5.142774198941846,136,147.4882412430054,0.03486904552932108,142e9,5142774198.941846,150,2.722695980553953
14,158.1592232246436,1.9526151000617111,125,160.1118383247053,0.012195319974415796,158e9,1952615100.061711,150,11.357084990399983
15,130.88328621797427,10.13521416852782,142,141.0185003865021,0.07187152140144255,130e9,10135214168.52782,150,104.33423388326678
16,1050.9879222515,48.12101479007442,19,1099.1089370415746,0.04378184288046982,1050e9,48121014790.07442,1000,219.38454167793543
17,756.8150051937342,38.07941316408656,26,794.8944183578208,0.04790499503412686,756e9,38079413164.08656,1000,188.13069131049414
18,861.9139033827518,62.627822376954455,22,924.5417257597062,0.06773931411856234,861e9,62627822376.95445,1000,164.10573620824144
19,967.0203735178956,59.47920635570437,20,1026.4995798736,0.057943722064677766,967e9,59479206355.70437,1000,256.7735328639837
20,1216.9640432744254,42.00243813970992,16,1258.9664814141354,0.0333626341604668,1216e9,42002438139.70992,1000,291.11534032810266
