app_id,Tcomp,Tio,iter,witer,alpha_io,compute_size,io_size,mu,desyn_time
1,10.513878225415821,0.565838124831839,1806,11.07971635024766,0.051069730211928316,10e9,565838124.8318391,10,9.70483201101838
2,9.31481881937717,0.48752447461660864,2041,9.802343293993777,0.04973550303174254,9e9,487524474.6166086,10,8.70029904040473
3,9.530214919985795,0.060743413958103655,2086,9.590958333943899,0.0063334040085570205,9e9,60743413.95810366,10,7.093935433758361
4,7.36317934748515,0.1265457690359085,2671,7.4897251165210585,0.01689591634768679,7e9,126545769.0359085,10,1.9735558952984265
5,8.67697498331673,0.5174779248862502,2176,9.194452908202981,0.056281535187871136,8e9,517477924.8862502,10,6.847445305730889
6,94.5519445564205,4.904159628855415,202,99.4561041852759,0.049309790173557355,94e9,4904159628.855414,100,31.57564316228254
7,97.56155119924149,2.215924426457784,201,99.77747562569928,0.022208663955084442,97e9,2215924426.457784,100,76.45215103696653
8,87.83021016405166,5.510949113565971,215,93.34115927761763,0.059040932812663774,87e9,5510949113.565971,100,91.19404115147225
9,100.36742883019186,2.8252309756884793,194,103.19265980588034,0.02737821644488212,100e9,2825230975.6884794,100,18.911055964257443
10,106.89498488655556,1.5056379582067956,185,108.40062284476235,0.013889569254255852,106e9,1505637958.2067957,100,80.40983495239539
11,148.72494747281553,9.424532925890755,127,158.1494803987063,0.05959256332762413,148e9,9424532925.890755,150,22.669262953406655
12,123.21279000163535,4.880274670826381,157,128.09306467246174,0.03809944498795003,123e9,4880274670.826381,150,85.65912419092024
13,115.74427828079237,4.712582017869832,167,120.4568602986622,0.03912257057161708,115e9,4712582017.869832,150,84.78248604419115
14,141.60976532809977,4.265328894628185,138,145.87509422272797,0.02923959650107036,141e9,4265328894.6281853,150,11.53136919531873
15,135.36827235843262,8.743961621010262,139,144.1122339794429,0.06067466570712905,135e9,8743961621.010262,150,11.995104147141927
16,1029.4788108044286,2.9953837835773856,20,1032.474194588006,0.002901170604823349,1029e9,2995383783.5773854,1000,501.15044022755075
17,993.5733804856079,64.68718408595898,19,1058.2605645715669,0.061125951633799525,993e9,64687184085.95898,1000,725.4123607553653
18,920.853963878261,55.712389968588425,21,976.5663538468494,0.05704926219209632,920e9,55712389968.588425,1000,553.0961382914215
19,1040.2973771478696,50.56032476693392,19,1090.8577019148036,0.046349147719436185,1040e9,50560324766.933914,1000,1054.8862246382475
20,944.4641628081434,53.59831584714353,21,998.062478655287,0.05370236532622467,944e9,53598315847.14353,1000,868.0124601062508
