app_id,start_app,end_app,effective_cpu,effective_io,effective_iter,total_bytes,stretch,utilization,Tcomp,Tio,iterations,priority,group_id
app_1,7.58679,18646.6,7729.6,270.4,856.868,8.43601e+10,1.02381,0.892565,9,0.0984365,2001,1,1
app_10,25.9514,21443.5,7177,823,77.195,2.76089e+11,1.07338,0.892565,93,3.58557,208,1.00001,1.00001
app_11,48.0187,20582.1,7627,373,50.9099,1.09844e+11,1.03401,0.892565,149,2.1538,132,1.00001,1.00001
app_12,59.5952,21961.5,6947.7,1052.3,52.9675,4.12869e+11,1.08687,0.892565,131,7.78999,144,1.00001,1.00001
app_13,76.2897,21628.8,6993.8,1006.2,52.7763,3.52028e+11,1.08905,0.892565,134,6.64204,142,1.00001,1.00001
app_14,124.736,22240.3,6723.11,1276.89,45.3232,4.62773e+11,1.11329,0.892565,146,10.1449,128,1.00001,1.00001
app_15,26.0748,21109.7,7250.75,749.25,66.305,2.60596e+11,1.06506,0.892565,110,3.89451,175,1.00002,1.00002
app_16,777.262,23530.2,7036.74,963.255,7.09263,2.89011e+11,1.09204,0.892565,954,39.4861,21,1.00002,1.00002
app_17,81.4165,22106.2,7187.56,812.445,6.754,2.6994e+11,1.07275,0.892565,1062,42.8014,19,1.00002,1.00002
app_18,508.897,21194.9,7567.5,432.5,7.42831,1.65088e+11,1.03458,0.892565,1029,23.5841,19,1.00002,1.00002
app_19,232.696,22096.1,7190.27,809.726,8.11053,2.72051e+11,1.07205,0.892565,882,33.2196,22,1.00002,1.00002
app_2,6.15065,20056.1,7014.7,985.303,701.687,3.32748e+11,1.08881,0.892565,10,0.474015,1764,1,1
app_20,587.716,22462.4,7121.5,878.5,7.39866,3.09317e+11,1.0766,0.892565,972,38.6646,20,1.00002,1.00002
app_3,5.96431,21733.6,6824.75,1175.25,759.928,4.03306e+11,1.1068,0.892565,9,0.530808,2071,1,1
app_4,6.41846,19065.8,7838.9,161.1,871.403,3.9018e+10,1.0155,0.892565,9,0.0447967,2074,1,1
app_5,6.77168,21341.1,6513.28,1486.72,648.836,5.27699e+11,1.13621,0.892565,10,0.813138,1743,1.00001,1.00001
app_6,91.2103,21414.8,7271.64,728.358,80.7833,2.56816e+11,1.06263,0.892565,90,3.17639,215,1.00001,1.00001
app_7,76.0536,21892,6961.1,1038.9,78.3322,3.72627e+11,1.09085,0.892565,89,4.77727,213,1.00001,1.00001
app_8,72.7796,21976.7,6803.7,1196.3,56.4149,4.2829e+11,1.1062,0.892565,122,7.51385,155,1.00001,1.00001
app_9,41.7694,21604.3,7029.77,970.228,76.2515,3.48986e+11,1.08419,0.892565,92,4.56172,206,1.00001,1.00001
