app_id,Tcomp,Tio,iter,witer,alpha_io,compute_size,io_size,mu,desyn_time
1,11.621044433550145,0.2483632102613777,1686,11.869407643811522,0.020924650809416714,11e9,248363210.2613777,10,2.9424720972249707
2,9.461350632828244,0.044666379846642,2104,9.506017012674887,0.004698748149417984,9e9,44666379.846641995,10,9.07167790393938
3,8.504987020886073,0.16946874153239655,2306,8.67445576241847,0.019536527267406116,8e9,169468741.53239655,10,1.6323638713870152
4,10.983585138794119,0.22968625038645224,1784,11.213271389180571,0.02048342918089642,10e9,229686250.38645223,10,4.1152686619371055
5,8.133091605029318,0.15900131192729405,2412,8.292092916956612,0.019175051886134817,8e9,159001311.92729405,10,4.9900887999947345
6,10.210787055388117,0.1402542829572514,1933,10.351041338345368,0.013549775174569179,10e9,140254282.9572514,10,4.317109351824438
7,10.526795273456278,0.07881133835651033,1886,10.605606611812789,0.007431101420330668,10e9,78811338.35651033,10,8.026151340552344
8,8.927195443551367,0.18507746544808798,2195,9.112272908999456,0.02031079043575417,8e9,185077465.448088,10,3.7627795410272133
9,11.67913214059328,0.01362291358020525,1711,11.692755054173485,0.0011650730317268414,11e9,13622913.58020525,10,11.420902179357556
10,12.533673737982923,0.021302335560929937,1593,12.554976073543854,0.0016967245047817118,12e9,21302335.560929935,10,8.878004742950873
11,8.642288555556867,0.07361356120106963,2295,8.715902116757936,0.008445891224447544,8e9,73613561.20106962,10,5.5203814264093545
12,9.109280090368388,0.16785544246218942,2156,9.277135532830577,0.018093455880661743,9e9,167855442.4621894,10,4.445678820297159
13,8.074304470945616,0.035348815290511114,2467,8.109653286236128,0.004358856543288461,8e9,35348815.29051112,10,4.896497755079231
14,7.768325104895783,0.1880789754026902,2514,7.956404080298473,0.0236386907332181,7e9,188078975.4026902,10,5.278200035561171
15,8.37328335530581,0.06371097703541764,2371,8.436994332341229,0.0075513831734124355,8e9,63710977.035417646,10,5.397865128672586
16,10.542808102242594,0.1996487064260926,1862,10.742456808668686,0.018585013650228032,10e9,199648706.4260926,10,3.7013987647823363
17,9.49507539315739,0.021852432341524123,2102,9.516927825498913,0.0022961645545923363,9e9,21852432.341524124,10,2.6316805635565483
18,9.507077268401705,0.22480456910433355,2056,9.73188183750604,0.023099804627502912,9e9,224804569.10433355,10,8.179424778134328
19,10.614807724958936,0.21011780831767657,1848,10.824925533276613,0.0194105546196839,10e9,210117808.31767657,10,7.275137734112883
20,11.135938129329034,0.15688020485823323,1772,11.292818334187267,0.013892032990852477,11e9,156880204.85823324,10,1.0839032700608704
21,99.13262349377253,0.29946268106070645,202,99.43208617483323,0.003011730846460928,99e9,299462681.06070644,100,0.7543816088765578
22,100.48813076617738,0.3720942216757302,199,100.8602249878531,0.0036892067385388308,100e9,372094221.67573017,100,78.23034011493027
23,103.25530431024181,2.521909360382713,190,105.77721367062452,0.0238417072341836,103e9,2521909360.382713,100,32.496831914274146
24,103.95422659418936,0.47612708895961225,192,104.43035368314898,0.004559278717031107,103e9,476127088.95961225,100,45.241381173575306
25,110.56830168337179,1.000987117470097,180,111.56928880084189,0.008971887588679724,110e9,1000987117.4700971,100,58.82737242801665
26,94.43396300832852,0.1834514011952821,212,94.6174144095238,0.0019388756534950995,94e9,183451401.1952821,100,0.7645497010539783
27,94.75757382746228,2.2919809737201087,207,97.0495548011824,0.023616604717203553,94e9,2291980973.7201085,100,45.558827012268914
28,101.47224817684139,2.057204527557409,194,103.52945270439879,0.019870717692589537,101e9,2057204527.5574088,100,14.193131061146955
29,110.97327057878387,0.0815633449963878,181,111.05483392378025,0.0007344420959862656,110e9,81563344.9963878,100,32.7546928982076
30,108.14162821295307,1.4714131141184104,183,109.61304132707147,0.013423704846651409,108e9,1471413114.1184103,100,28.912458410200028
31,98.85352600729959,0.13974009061123846,203,98.99326609791083,0.0014116120835231999,98e9,139740090.61123845,100,38.923992821350595
32,110.9155621404683,1.4912303357172028,178,112.4067924761855,0.013266372101429145,110e9,1491230335.7172027,100,104.66803189286179
33,97.00270612739429,1.7137103983690025,203,98.7164165257633,0.017359933217609792,97e9,1713710398.3690026,100,84.51724171297845
34,110.86841947267855,2.632195087208621,177,113.50061455988717,0.023191020572137754,110e9,2632195087.208621,100,10.878350533267986
35,94.9422291769462,0.6931746054235941,210,95.63540378236979,0.0072480961862303505,94e9,693174605.4235941,100,82.32626507326395
36,101.31083853027926,2.3386984160410904,193,103.64953694632035,0.022563520155929807,101e9,2338698416.0410905,100,25.646275265444878
37,84.13283364131505,1.0481552759763926,235,85.18098891729144,0.01230503765334451,84e9,1048155275.9763926,100,5.300799786776637
38,90.07306505308779,1.0146524782935027,220,91.08771753138129,0.011139289750497232,90e9,1014652478.2935027,100,77.31285510406028
39,116.06863170219209,1.6253752931314451,170,117.69400699532353,0.013810178909075871,116e9,1625375293.1314452,100,63.84603303959814
40,91.18622656508796,0.9563207160478889,218,92.14254728113585,0.01037870933967195,91e9,956320716.0478889,100,10.671430753526622
41,984.9457182845937,10.487863511885646,21,995.4335817964793,0.010535975180742832,984e9,10487863511.885645,1000,111.58833465859449
42,990.5875930713323,23.278336860656804,20,1013.8659299319892,0.02295997544982928,990e9,23278336860.656803,1000,721.2101906043597
43,928.7429773513785,14.628167313877428,22,943.3711446652559,0.015506269612547944,928e9,14628167313.877428,1000,446.938630476542
44,1112.0467430262838,27.643222294774333,18,1139.6899653210583,0.0242550370152527,1112e9,27643222294.774334,1000,53.634882997046454
45,970.3189448697522,20.872699686591854,21,991.191644556344,0.021058187688753616,970e9,20872699686.591854,1000,823.9001177792265
46,1178.5709969582638,9.36472075566845,17,1187.9357177139323,0.007883188135541503,1178e9,9364720755.668451,1000,561.1890814157093
47,880.0258646234661,2.020955170136743,23,882.0468197936028,0.002291210766577723,880e9,2020955170.1367433,1000,21.846333906910633
48,1068.0577426334023,5.515455139436441,19,1073.5731977728387,0.005137474697466764,1068e9,5515455139.436441,1000,49.16093801055284
49,837.3670176844535,3.2391361490113497,24,840.6061538334648,0.0038533338522918612,837e9,3239136149.0113497,1000,369.1287438229251
50,955.0058346834935,14.543392843024051,21,969.5492275265176,0.015000159280335544,955e9,14543392843.024052,1000,967.1323255604509
51,1099.8711226538944,22.864245358934806,18,1122.7353680128292,0.020364768056967048,1099e9,22864245358.934807,1000,874.5189180752121
52,875.3587515926881,21.357421727940157,23,896.7161733206283,0.023817370940072954,875e9,21357421727.940155,1000,535.5602362028922
53,875.7701406256552,17.0441683918158,23,892.814309017471,0.01909038443903599,875e9,17044168391.815798,1000,233.5538687334937
54,917.2283917444688,8.411292091960972,22,925.6396838364298,0.009087004629165549,917e9,8411292091.960972,1000,516.1083312498624
55,955.9530975066255,17.083624319356804,21,973.0367218259822,0.017557019109513152,955e9,17083624319.356804,1000,624.2917699523674
56,987.8044374468933,22.61038626971914,20,1010.4148237166124,0.022377330319196302,987e9,22610386269.71914,1000,585.8006960671669
57,1075.682977661335,5.05278840463904,19,1080.7357660659738,0.004675322648968935,1075e9,5052788404.63904,1000,19.065610169614477
58,903.176616103982,8.382390603988497,22,911.5590067079705,0.00919566428756038,903e9,8382390603.988498,1000,828.6428721664814
59,998.5346359743253,23.142795664407007,20,1021.6774316387323,0.02265176360731276,998e9,23142795664.407005,1000,39.85322110576233
60,958.7451046632339,17.60049853982414,21,976.345603203058,0.01802691432427502,958e9,17600498539.824142,1000,342.2695997415126
