app_id,Tcomp,Tio,iter,witer,alpha_io,compute_size,io_size,mu,desyn_time
1,9.359076166368418,0.001243327230250966,2137,9.360319493598668,0.0001328295718005408,9e9,1243327.230250966,10,2.9400244618943723
2,9.86573983900487,0.08662366196166098,2010,9.952363500966532,0.0087038281864653,9e9,86623661.96166098,10,5.237976385312929
3,10.313975154603364,0.25517127925781513,1893,10.56914643386118,0.024143035660883973,10e9,255171279.25781512,10,1.9063939751727963
4,9.944865638815369,0.10600483776705719,1990,10.050870476582427,0.010546831542008066,9e9,106004837.76705718,10,6.301642539825564
5,9.562413033485823,0.08750521169351579,2073,9.64991824517934,0.009067974408718893,9e9,87505211.69351579,10,4.012586512596872
6,9.785777093791733,0.2529218196591638,1993,10.038698913450897,0.02519468128686206,9e9,252921819.65916383,10,5.05809120607043
7,9.318480023489574,0.1531710495455481,2112,9.471651073035122,0.01617152578409601,9e9,153171049.5455481,10,3.5257079528712123
8,10.508903837296469,0.2095986660425771,1866,10.718502503339046,0.019554846022313523,10e9,209598666.0425771,10,10.48511501685397
9,9.50465594510939,0.21257071183371196,2059,9.717226656943101,0.021875656433497623,9e9,212570711.83371195,10,0.11211519130298316
10,10.132815791942683,0.21870383440580193,1933,10.351519626348486,0.021127703206891377,10e9,218703834.40580192,10,5.744130634326524
11,10.198320513101283,0.11958556373724565,1939,10.31790607683853,0.011590100050017843,10e9,119585563.73724565,10,8.32553893603386
12,10.501400506266437,0.2332079942861658,1864,10.734608500552604,0.021724871873451235,10e9,233207994.28616577,10,8.830011812909802
13,8.491872344853476,0.04192922254123477,2344,8.533801567394711,0.004913311167374069,8e9,41929222.54123477,10,4.988285860687339
14,9.936329596266818,0.11222918773830377,1991,10.048558784005122,0.011168684997588463,9e9,112229187.73830378,10,5.047781380645545
15,10.729759712392529,0.07745078553978972,1851,10.807210497932319,0.007166584342426562,10e9,77450785.53978972,10,2.6140070146886094
16,10.54031327743659,0.030423247436316872,1893,10.570736524872908,0.002878063166623354,10e9,30423247.43631687,10,4.674387697433691
17,10.496310835716052,0.23565208460777656,1864,10.731962920323829,0.021957966716555328,10e9,235652084.60777655,10,1.56072947502615
18,11.847266150467894,0.0661853910247608,1679,11.913451541492654,0.005555517709896886,11e9,66185391.0247608,10,10.416703299085928
19,9.839679883909657,0.1307358437630123,2006,9.97041572767267,0.013112376387692427,9e9,130735843.7630123,10,1.78386234204045
20,10.163343355041365,0.1466671098050099,1940,10.310010464846375,0.014225699411760523,10e9,146667109.8050099,10,3.6926835182049302
21,110.77438771118459,0.024776075622354406,181,110.79916378680694,0.0002236124784301354,110e9,24776075.622354407,100,43.20830234100859
22,103.39127830979308,1.1210886825542854,192,104.51236699234737,0.010726851901042238,103e9,1121088682.5542853,100,76.15918037143169
23,118.7345536198251,1.0400948027148116,167,119.77464842253991,0.008683764188942343,118e9,1040094802.7148116,100,58.82503675384122
24,100.24488434438115,2.168905662491595,196,102.41379000687274,0.02117786737846578,100e9,2168905662.491595,100,7.937389095157136
25,112.09604002968099,1.1745837214245494,177,113.27062375110555,0.010369711779865476,112e9,1174583721.4245493,100,86.44281668894405
26,92.81793493227306,1.474790530975463,213,94.29272546324853,0.015640554705890607,92e9,1474790530.975463,100,20.642861867440836
27,107.08918698273716,1.58471280634031,185,108.67389978907747,0.014582276051711042,107e9,1584712806.3403099,100,2.1647784344600005
28,76.68512642199404,1.836781882416094,255,78.52190830441013,0.02339196693100405,76e9,1836781882.416094,100,14.232985174927794
29,108.87611118236913,2.573568818742868,180,111.449680001112,0.023091756016860615,108e9,2573568818.742868,100,73.32518839509098
30,103.49664109719428,0.41917896483758765,193,103.91582006203187,0.004033832043930958,103e9,419178964.83758765,100,67.02214463234992
31,102.46898972950527,1.7021670664752748,192,104.17115679598054,0.016340099494229224,102e9,1702167066.4752748,100,27.353918336251635
32,80.85159202889726,1.5760739067026432,243,82.4276659355999,0.019120690714862866,80e9,1576073906.7026432,100,45.42101071834916
33,88.21701101153045,0.9003689646237684,225,89.11737997615421,0.010103180376989165,88e9,900368964.6237683,100,58.807941972110086
34,99.05106067633838,2.0780038532769973,198,101.12906452961538,0.02054803792502658,99e9,2078003853.2769973,100,39.49161364152209
35,71.49243571726636,0.8056176858664219,277,72.29805340313278,0.011143006594856859,71e9,805617685.8664219,100,69.24814269599919
36,108.00349825003553,0.950693684034266,184,108.9541919340698,0.008725627414221459,108e9,950693684.034266,100,36.95309293718249
37,116.38511448766127,0.9330006304082337,171,117.3181151180695,0.007952741394364011,116e9,933000630.4082336,100,20.47149124394131
38,89.43447676161165,2.2661912566440146,219,91.70066801825567,0.024712919825108183,89e9,2266191256.6440144,100,0.47552433315435216
39,98.98351768564488,0.8530698861852837,201,99.83658757183017,0.008544661901344727,98e9,853069886.1852837,100,13.502623668171024
40,96.36754063364809,1.9571555355454002,204,98.32469616919349,0.0199050250018327,96e9,1957155535.5454001,100,30.478874383775807
41,947.3547304833891,7.3693724541597865,21,954.7241029375489,0.007718850327005766,947e9,7369372454.159786,1000,142.1396274992271
42,939.3166087658792,14.810551287464836,21,954.127160053344,0.015522617851730367,939e9,14810551287.464836,1000,251.26810800335008
43,1019.4076855852344,18.39598922774817,20,1037.8036748129825,0.01772588561228907,1019e9,18395989227.74817,1000,713.6513707665173
44,917.5319167744397,11.80008816936818,22,929.3320049438079,0.012697387054997287,917e9,11800088169.368181,1000,773.121110271266
45,944.8862447052172,4.76807108066211,22,949.6543157858794,0.00502084916732709,944e9,4768071080.662109,1000,347.2918090532142
46,969.3658110529368,18.871469742567427,21,988.2372807955043,0.01909609170722279,969e9,18871469742.56743,1000,984.7046537391344
47,1093.9388252281665,15.692894816026477,19,1109.631720044193,0.014142435307636557,1093e9,15692894816.026478,1000,255.90132283167114
48,1109.2831345523991,1.0135238916567304,19,1110.2966584440558,0.0009128406214218994,1109e9,1013523891.6567304,1000,516.3320404546507
49,1043.5962446957506,4.681017749589923,20,1048.2772624453405,0.004465438598439506,1043e9,4681017749.589923,1000,531.8107015353334
50,1212.0542481286009,20.933751169931863,17,1232.9879992985327,0.016978065627436294,1212e9,20933751169.93186,1000,982.5013103241781
51,993.2112199046733,7.21028088367443,20,1000.4215007883477,0.0072072430250575545,993e9,7210280883.67443,1000,137.57736089784137
52,958.145887284293,10.095330256375409,21,968.2412175406685,0.010426461994685101,958e9,10095330256.375408,1000,391.3897327098425
53,1142.6304587944912,4.459052232151979,18,1147.0895110266433,0.0038872748720029135,1142e9,4459052232.151979,1000,480.0535629616869
54,1088.055858352075,10.973662927574388,19,1099.0295212796493,0.009984866389027713,1088e9,10973662927.574389,1000,281.36677382682944
55,1048.3113171546418,26.889860084377098,19,1075.2011772390188,0.025009143082810673,1048e9,26889860084.377098,1000,151.32907442674596
56,964.1398043793278,8.665407793616653,21,972.8052121729444,0.008907649429900593,964e9,8665407793.616653,1000,156.94966069294935
57,976.8032939136052,25.53057639342465,20,1002.3338703070299,0.0254711300792462,976e9,25530576393.42465,1000,270.6197465410855
58,1086.9970101975373,10.259122637564698,19,1097.2561328351019,0.009349797490816542,1086e9,10259122637.564697,1000,291.2419615153968
59,967.3417255922722,18.780106156540786,21,986.121831748813,0.019044407650153816,967e9,18780106156.540787,1000,863.9497446701329
60,959.4816310338805,16.197534793528582,21,975.6791658274091,0.01660129206488951,959e9,16197534793.528582,1000,902.942638066295
