app_id,Tcomp,Tio,iter,witer,alpha_io,compute_size,io_size,mu,desyn_time
1,9.660646947920137,0.010325591937077903,2069,9.670972539857214,0.0010676890968848057,9e9,10325591.937077904,10,2.5637318904502227
2,10.840581596907876,0.0907291218682308,1830,10.931310718776107,0.008299930740454611,10e9,90729121.8682308,10,0.5825097093307985
3,8.815542185819393,0.12094740774645087,2239,8.936489593565843,0.013534107154730133,8e9,120947407.74645087,10,3.400689701732976
4,9.413174993955225,0.017380949359324396,2121,9.43055594331455,0.001843046100759944,9e9,17380949.359324396,10,5.375232404363535
5,7.453914988037274,0.0892585720743014,2652,7.543173560111576,0.011833026426211665,7e9,89258572.0743014,10,4.741946620910001
6,8.832013356437532,0.14958093557804206,2227,8.981594292015574,0.01665416302660386,8e9,149580935.57804206,10,7.854540487126173
7,10.530010904129245,0.189389567052538,1866,10.719400471181784,0.017667925324900035,10e9,189389567.052538,10,2.1679966662540204
8,10.770708215228996,0.06779569536699616,1846,10.838503910595993,0.006255078738378033,10e9,67795695.36699615,10,4.058619553032841
9,9.134667937325892,0.09674176338494034,2167,9.231409700710833,0.010479630578793515,9e9,96741763.38494034,10,9.05806066115737
10,9.249878412558624,0.1716029144519515,2123,9.421481327010575,0.018214005685070003,9e9,171602914.4519515,10,6.5753599142979064
11,10.025127012452877,0.10392867001291674,1975,10.129055682465793,0.010260450062766028,10e9,103928670.01291674,10,5.796230873578061
12,10.295383549400567,0.20942330374952672,1904,10.504806853150093,0.019935949958635044,10e9,209423303.7495267,10,7.948561821318387
13,10.35454983215804,0.18623830221351592,1898,10.540788134371557,0.01766834698121171,10e9,186238302.2135159,10,7.572856813552352
14,11.612844188493623,0.06635828769831556,1713,11.67920247619194,0.005681748204433219,11e9,66358287.69831556,10,5.9711542831779445
15,11.828097271254986,0.02608915885184712,1688,11.854186430106834,0.002200839256719197,11e9,26089158.85184712,10,10.979172910156276
16,8.98043039122952,0.023187669248514856,2222,9.003618060478034,0.002575372377277823,8e9,23187669.248514857,10,6.555821394953531
17,10.609804543359937,0.2514681294004648,1842,10.861272672760402,0.023152731450259593,10e9,251468129.4004648,10,2.6415666981425283
18,11.256409419014265,0.08671021265766612,1764,11.34311963167193,0.007644300287158779,11e9,86710212.65766613,10,6.6168320703230625
19,10.346106266349569,0.24932726450399556,1888,10.595433530853564,0.023531577427007826,10e9,249327264.50399557,10,8.23563577838498
20,10.538211457597795,0.26579950477909114,1852,10.804010962376886,0.024601928460151724,10e9,265799504.77909115,10,7.01802352694034
21,97.80301109720449,1.3112462983673996,202,99.11425739557188,0.013229643573215955,97e9,1311246298.3673997,100,18.361289002599445
22,101.39591283862386,1.7448610785229979,194,103.14077391714686,0.01691727735070756,101e9,1744861078.5229979,100,13.751695554378545
23,94.82912125082532,0.9820117577186472,209,95.81113300854398,0.01024945355391086,94e9,982011757.7186472,100,11.938749428188979
24,92.80149188353424,1.8264079525616623,212,94.6278998360959,0.019300945658998734,92e9,1826407952.5616624,100,47.980734323321826
25,96.20363311643517,0.9367414165777892,206,97.14037453301296,0.009643172790727088,96e9,936741416.5777892,100,13.589415885911839
26,95.66547226973557,2.1457146098813666,205,97.81118687961694,0.021937312881421707,95e9,2145714609.8813667,100,54.125185793328065
27,95.87304673162036,0.383237361691516,208,96.25628409331188,0.003981426930214776,95e9,383237361.691516,100,8.971070021578239
28,93.86949756155535,1.9959556853763178,209,95.86545324693166,0.020820385423256753,93e9,1995955685.3763177,100,50.568544712152516
29,91.76135670354213,0.18700957402754537,218,91.94836627756968,0.0020338542336142125,91e9,187009574.02754536,100,30.745902423085212
30,114.7090156816639,0.8665411942445338,174,115.57555687590843,0.007497616430911293,114e9,866541194.2445338,100,35.48721073760871
31,80.19783373587464,1.9932716711236116,244,82.19110540699825,0.024251671287948057,80e9,1993271671.1236117,100,58.942233948542295
32,95.80722205275951,1.0426404549830233,207,96.84986250774254,0.010765533661957143,95e9,1042640454.9830233,100,45.55990148846941
33,111.07828886346402,2.4008665377963,177,113.47915540126033,0.02115689466763193,111e9,2400866537.7963,100,29.14110836696954
34,99.92808989128157,1.53941724701319,198,101.46750713829476,0.015171529196189346,99e9,1539417247.01319,100,5.548695609942083
35,94.47734915140047,1.461877093295956,209,95.93922624469643,0.015237532660179957,94e9,1461877093.295956,100,47.395687626374425
36,96.11083916729235,1.1091040364867903,206,97.21994320377914,0.011408194655720363,96e9,1109104036.4867904,100,43.54964962476844
37,96.27247929791206,2.1565681613179692,204,98.42904745923002,0.02190987535677651,96e9,2156568161.3179693,100,28.42494195324858
38,88.17687179100115,0.4639783042229723,226,88.64085009522412,0.005234362077129616,88e9,463978304.22297233,100,73.65521350775651
39,95.24516386238871,2.306979093026312,206,97.55214295541502,0.023648676729538253,95e9,2306979093.026312,100,86.5593909119276
40,107.51548714796837,1.510890083198043,184,109.02637723116642,0.013858023366167009,107e9,1510890083.1980429,100,46.55729593244434
41,998.7012866730188,15.579982191885117,20,1014.281268864904,0.015360613145622702,998e9,15579982191.885117,1000,19.171989660654152
42,980.4010779198607,1.6124028968524673,21,982.0134808167131,0.0016419356030748955,980e9,1612402896.8524673,1000,221.38336119106046
43,983.1676993390395,24.84707840318825,20,1008.0147777422277,0.02464951799500524,983e9,24847078403.188248,1000,142.10255078847567
44,705.1574243654155,6.698779259232578,29,711.8562036246481,0.00941029835116075,705e9,6698779259.232577,1000,242.14116474047333
45,1179.836929595233,14.158781940603925,17,1193.9957115358368,0.011858318923433555,1179e9,14158781940.603926,1000,588.9173881732885
46,1030.3405550356408,22.213563726038974,20,1052.5541187616798,0.021104438555779943,1030e9,22213563726.038975,1000,87.27927523027168
47,999.3717388705868,20.396723506897867,20,1019.7684623774846,0.020001328006697735,999e9,20396723506.89787,1000,559.3792484065793
48,1078.681894030161,6.310049985694123,19,1084.991944015855,0.005815757453773236,1078e9,6310049985.694123,1000,255.29058298389302
49,1195.6025323782667,29.920612963757062,17,1225.5231453420238,0.02441456375383812,1195e9,29920612963.75706,1000,831.8372230054563
50,1030.9210355373796,23.196885364468343,19,1054.1179209018478,0.02200596812225933,1030e9,23196885364.46834,1000,984.0345879545224
51,1051.1732232519728,6.920456598023607,19,1058.0936798499963,0.006540495165801109,1051e9,6920456598.023607,1000,115.17504981081025
52,1114.3278914525781,1.0903634268246043,18,1115.4182548794026,0.0009775377281614356,1114e9,1090363426.8246043,1000,44.3940269485281
53,980.9793887743741,14.520955651236664,21,995.5003444256108,0.014586590283517224,980e9,14520955651.236664,1000,18.807236362321724
54,958.8587885686785,14.948441352301858,21,973.8072299209804,0.015350513831690128,958e9,14948441352.301857,1000,646.304769255782
55,1047.1658692131568,0.6304788484627983,20,1047.7963480616197,0.0006017188832821935,1047e9,630478848.4627984,1000,939.5356445340798
56,997.5171037581916,12.576888114221202,20,1010.0939918724129,0.012451205744633135,997e9,12576888114.2212,1000,359.67601952737573
57,933.7818924986489,4.25375823282043,22,938.0356507314693,0.004534751136061192,933e9,4253758232.82043,1000,775.7563841339291
58,840.5713963244287,13.16035029016652,24,853.7317466145953,0.015415088337001443,840e9,13160350290.16652,1000,836.972377747613
59,1004.2754864694721,21.885523478677907,20,1026.16100994815,0.021327572638706806,1004e9,21885523478.677906,1000,900.5407845885786
60,1053.1772291885663,22.147996789809852,19,1075.3252259783762,0.020596556515875157,1053e9,22147996789.809853,1000,703.0568671193394
