app_id,Tcomp,Tio,iter,witer,alpha_io,compute_size,io_size,mu,desyn_time
1,8.913199255615435,0.09977578278915752,2220,9.012975038404592,0.011070238446684866,8e9,99775782.78915752,10,6.973791278996158
2,7.93538279964626,0.1075739825686394,2487,8.0429567822149,0.01337492982761189,7e9,107573982.5686394,10,5.85960805966982
3,10.29646550206101,0.050670641943928944,1933,10.347136144004939,0.00489706922173699,10e9,50670641.94392894,10,2.1660467644877124
4,9.875513027440608,0.05374506253955276,2015,9.929258089980161,0.0054127974167363134,9e9,53745062.53955276,10,8.304463197497613
5,10.167170425083794,0.16662655317457856,1936,10.333796978258373,0.016124426822507722,10e9,166626553.17457855,10,7.231703593342421
6,10.182559653389577,0.09020873016800468,1947,10.272768383557581,0.008781345670402852,10e9,90208730.16800468,10,1.5009349809069534
7,11.113311938021,0.04866682771370513,1792,11.161978765734705,0.004360053780347949,11e9,48666827.71370513,10,0.8736997938659965
8,9.861480959207347,0.1332282694015622,2002,9.994709228608908,0.01332987947465334,9e9,133228269.40156221,10,4.786451919225923
9,10.646397825229448,0.21378327979849426,1842,10.860181105027943,0.01968505660550347,10e9,213783279.79849425,10,9.26939652125968
10,9.90631303889902,0.04444857166663172,2010,9.950761610565651,0.004466851222667874,9e9,44448571.66663172,10,4.563478007825059
11,10.712214014146001,0.06742538877696454,1856,10.779639402922966,0.006254883512957003,10e9,67425388.77696453,10,0.008505857294561459
12,11.061018398976083,0.15794026958635768,1783,11.218958668562442,0.014077979449994319,11e9,157940269.58635768,10,6.335994060023688
13,9.915498590007601,0.13984692841950327,1989,10.055345518427105,0.01390771984545178,9e9,139846928.41950327,10,8.187705811977473
14,8.948472118425245,0.12151239268740059,2206,9.069984511112645,0.01339719958049788,8e9,121512392.6874006,10,3.2696879502607272
15,9.3901228163283,0.17672352381937628,2091,9.566846340147677,0.01847249527545441,9e9,176723523.8193763,10,1.191766601630971
16,8.946855485116826,0.2055767597547177,2186,9.152432244871544,0.022461434759040163,8e9,205576759.7547177,10,5.59270140686429
17,9.334903504184663,0.16209101913966534,2106,9.496994523324329,0.017067612152620995,9e9,162091019.13966534,10,2.5886961477786685
18,8.906164542212753,0.10310273013219694,2220,9.00926727234495,0.01144407497474111,8e9,103102730.13219693,10,0.7771058612593605
19,10.01008843742608,0.17840170058219063,1963,10.188490138008271,0.01751012153573778,10e9,178401700.58219063,10,3.3549574370729434
20,8.540649228555502,0.1956482469487868,2290,8.736297475504289,0.02239487008053069,8e9,195648246.9487868,10,1.8543651694476808
21,113.9022284336583,2.308140279130526,173,116.21036871278882,0.01986174129466055,113e9,2308140279.130526,100,66.05064762815525
22,97.44370454378152,0.9611186758455684,204,98.40482321962709,0.009766987474795553,97e9,961118675.8455684,100,20.878896804800593
23,107.72960549169424,0.06477548409053416,186,107.79438097578478,0.0006009170747507285,107e9,64775484.09053416,100,45.08817643755482
24,98.06088124774885,2.2567172527411516,200,100.31759850049,0.022495726437571455,98e9,2256717252.741152,100,94.49008875214857
25,104.01717953880902,0.5231894624325367,192,104.54036900124156,0.005004664393582953,104e9,523189462.4325367,100,36.544233852272086
26,98.17975875738904,0.46078243104434846,203,98.64054118843339,0.0046713291055866584,98e9,460782431.0443485,100,66.17286492767033
27,109.77720609253971,0.3907883417588308,182,110.16799443429855,0.003547203920389848,109e9,390788341.7588308,100,106.67774341679952
28,83.84023804857415,0.08127058056001336,239,83.92150862913417,0.0009684118158452587,83e9,81270580.56001337,100,28.11979126046851
29,95.99238902800705,0.5565221035305941,208,96.54891113153765,0.005764146866166018,95e9,556522103.5305941,100,25.60658069712457
30,117.52772779880203,2.5133432248450243,167,120.04107102364706,0.02093736088334231,117e9,2513343224.845024,100,34.05757414477922
31,112.13303044827899,1.6520315313152294,176,113.78506197959422,0.014518878863127908,112e9,1652031531.3152294,100,37.206968657380216
32,120.34305608538347,0.7187149571346937,166,121.06177104251816,0.005936762290403578,120e9,718714957.1346937,100,26.685697337290915
33,108.04099080713519,1.149880823596748,184,109.19087163073193,0.010530924485019974,108e9,1149880823.5967479,100,31.779802222795478
34,109.2351185865527,1.2699833058147694,181,110.50510189236748,0.011492530969762278,109e9,1269983305.8147693,100,41.17206487610625
35,93.83331417020705,1.7648068119714044,210,95.59812098217846,0.01846068514568819,93e9,1764806811.9714043,100,0.6491892901984545
36,124.9914668594595,1.8972945902639207,158,126.88876144972343,0.014952424222500408,124e9,1897294590.2639208,100,122.66443344723764
37,92.59644118181586,0.9476667509597754,214,93.54410793277563,0.01013069419231412,92e9,947666750.9597753,100,51.1583333374159
38,96.69598486021688,0.867763075247472,205,97.56374793546435,0.0088943187773134,96e9,867763075.2474719,100,14.577655775939983
39,84.47405339298727,1.4840487395757747,233,85.95810213256304,0.01726479183180547,84e9,1484048739.5757747,100,36.42284881613135
40,117.87246791363883,2.504184595227497,167,120.37665250886633,0.020802909393439494,117e9,2504184595.227497,100,95.18392809451039
41,807.4288156515454,17.52313194448491,25,824.9519475960303,0.02124139714506837,807e9,17523131944.48491,1000,663.4676863094403
42,856.8942614618835,18.733339505545533,23,875.6276009674291,0.021394185707312306,856e9,18733339505.545532,1000,461.91623671314386
43,801.8191127179764,14.82889747517078,25,816.6480101931472,0.018158248462104946,801e9,14828897475.17078,1000,300.86925107508847
44,1026.826367092856,18.413212564236225,20,1045.239579657092,0.017616260350834575,1026e9,18413212564.236225,1000,295.89854800588387
45,973.7278690937231,15.15058280462228,21,988.8784518983455,0.015320975773653248,973e9,15150582804.62228,1000,708.2791012540237
46,918.5174629428134,21.110520230511323,22,939.6279831733247,0.02246689180032355,918e9,21110520230.511322,1000,737.0226135603023
47,829.5378887712249,5.023040818487437,24,834.5609295897123,0.0060187826201699495,829e9,5023040818.487437,1000,152.8583885315415
48,931.1194591741786,14.718750190225485,22,945.8382093644041,0.015561593985631401,931e9,14718750190.225485,1000,851.7712657100942
49,880.9837354949386,15.061375056960564,23,896.0451105518991,0.016808724113994488,880e9,15061375056.960564,1000,155.4762470935803
50,1054.9491647188809,23.27647303527561,19,1078.2256377541564,0.02158775697799056,1054e9,23276473035.27561,1000,766.5222883276182
51,1062.2953007934093,23.56737282527081,19,1085.86267361868,0.021703824431805557,1062e9,23567372825.27081,1000,979.5209706676955
52,1120.5543946932785,8.100820099233715,18,1128.6552147925122,0.007177409002378942,1120e9,8100820099.233715,1000,702.6014655756732
53,1100.1223587009436,0.20494118025404695,19,1100.3272998811976,0.00018625474463477773,1100e9,204941180.25404695,1000,715.2740464325544
54,931.4093826586494,13.414369081202555,22,944.823751739852,0.014197747523282067,931e9,13414369081.202555,1000,299.0783399200603
55,854.7621440667615,14.051064453274705,24,868.8132085200363,0.01617271044625315,854e9,14051064453.274706,1000,69.21679265695822
56,1201.963758875537,17.000802761237853,17,1218.9645616367748,0.013946921261115158,1201e9,17000802761.237854,1000,458.3658997539993
57,1090.5247097706003,16.182985618481574,19,1106.707695389082,0.01462263765392195,1090e9,16182985618.481573,1000,276.0199380035636
58,995.5911658096795,21.461372234698814,20,1017.0525380443784,0.021101537464294065,995e9,21461372234.698814,1000,203.0164324832185
59,890.6393874566432,15.817412417505931,23,906.4567998741492,0.017449714558600025,890e9,15817412417.505932,1000,828.6973503527933
60,1087.3739680334534,13.398577983209286,19,1100.7725460166625,0.012171976882685145,1087e9,13398577983.209286,1000,988.6442126443766
