app_id,Tcomp,Tio,iter,witer,alpha_io,compute_size,io_size,mu,desyn_time
1,8.553874793745603,0.051746018241943116,2325,8.605620811987546,0.006013048840109411,8e9,51746018.24194311,10,8.050515231779032
2,9.699738465922698,0.1112331047706669,2039,9.810971570693365,0.011337623798945103,9e9,111233104.7706669,10,1.1280745290800942
3,8.841236547823714,0.20083287983000467,2212,9.042069427653718,0.022210942023491827,8e9,200832879.83000466,10,0.6993071412261449
4,10.335061517303277,0.15739113267445307,1907,10.49245264997773,0.015000413909400594,10e9,157391132.67445308,10,7.894064536776043
5,11.292893139880768,0.27678582886096453,1729,11.569678968741732,0.023923380208627047,11e9,276785828.86096454,10,5.298661035598256
6,9.8052285188751,0.08586764644493125,2023,9.891096165320032,0.008681307411204707,9e9,85867646.44493125,10,0.7598778748842085
7,9.93987519779082,0.0768874123731206,1997,10.01676261016394,0.007675874468174325,9e9,76887412.3731206,10,6.551505883429783
8,10.657688437436112,0.20601986588237328,1841,10.863708303318486,0.018964046173758308,10e9,206019865.88237327,10,8.37731627597469
9,9.532797264111391,0.03853974273575662,2090,9.571337006847148,0.004026578805885326,9e9,38539742.73575662,10,6.172197494515336
10,9.955235322522173,0.008152020389167413,2008,9.96338734291134,0.0008181976780183436,9e9,8152020.389167413,10,0.12065735934064066
11,7.971530970734372,0.038843744722302724,2497,8.010374715456674,0.004849179483120875,7e9,38843744.72230273,10,5.680569561293072
12,10.40378330158703,0.029991552636798376,1917,10.433774854223827,0.0028744680670061726,10e9,29991552.636798374,10,4.693575771662715
13,8.325080282061935,0.1614630450643603,2357,8.486543327126295,0.019025772784104167,8e9,161463045.0643603,10,3.3360102246263263
14,10.924295433521543,0.23257503720982284,1793,11.156870470731366,0.02084590278429367,10e9,232575037.20982283,10,2.024111810073657
15,9.038929823753943,0.18805616107173026,2168,9.226985984825673,0.020381104011754195,9e9,188056161.07173026,10,9.11268376172471
16,9.513849684879446,0.03190245967584081,2096,9.545752144555287,0.003342058246718396,9e9,31902459.675840806,10,0.35251460530484113
17,8.952163195114288,0.10902619379195293,2208,9.061189388906241,0.012032216645359542,8e9,109026193.79195292,10,7.643658440324473
18,9.286252414615186,0.21157235730834845,2106,9.497824771923534,0.02227587499126919,9e9,211572357.30834845,10,1.3036033201562867
19,9.137063280556866,0.1721618667654714,2149,9.309225147322337,0.018493683850260217,9e9,172161866.7654714,10,6.933484347044353
20,10.964429136080387,0.13349184897595645,1803,11.097920985056343,0.012028545630817422,10e9,133491848.97595645,10,1.2317332882009757
21,108.08048079790136,2.596550611155077,181,110.67703140905644,0.0234606094697134,108e9,2596550611.155077,100,52.894012992483304
22,115.81593380877946,1.2312291717351218,171,117.04716298051459,0.010519085985365493,115e9,1231229171.7351217,100,112.20805175248299
23,95.689956182688,1.1017505201514244,207,96.79170670283942,0.011382695456893974,95e9,1101750520.1514244,100,43.938574882724666
24,81.1372881926149,0.8258621185624957,245,81.9631503111774,0.010076017276386606,81e9,825862118.5624957,100,25.43992472363319
25,88.04976664629568,1.760586329354234,223,89.81035297564992,0.019603378352511074,88e9,1760586329.354234,100,62.370299689131336
26,102.20684600144416,0.2758182406611912,196,102.48266424210536,0.0026913648537629483,102e9,275818240.6611912,100,28.267539770000546
27,83.03852902280646,0.6859760095844596,239,83.72450503239092,0.008193252493031431,83e9,685976009.5844595,100,13.817802818815547
28,83.03804876722923,1.3911516986885866,237,84.42920046591782,0.016477139319235452,83e9,1391151698.6885865,100,64.38118514152806
29,96.66781212619122,0.4735099873641489,206,97.14132211355538,0.004874444541846255,96e9,473509987.3641489,100,80.63355388356862
30,89.55664861756483,1.9534181589727182,219,91.51006677653756,0.0213464838108233,89e9,1953418158.9727182,100,67.6555888384862
31,84.90519723818115,0.4061472025279621,235,85.3113444407091,0.004760764294486439,84e9,406147202.5279621,100,42.400557348263774
32,98.77706747948613,1.7499814047713056,199,100.52704888425744,0.01740806503517436,98e9,1749981404.7713056,100,62.26096021155785
33,93.10353231910717,0.8562969019345569,213,93.95982922104173,0.009113436125135,93e9,856296901.9345568,100,17.589143482056336
34,105.17108964310422,1.030638963835168,189,106.2017286069394,0.00970454038134954,105e9,1030638963.8351681,100,37.94460986907899
35,117.00553927589868,0.334369848954611,171,117.33990912485329,0.0028495833297333744,117e9,334369848.954611,100,40.57005245051009
36,91.86417014851348,2.0870092219709906,213,93.95117937048447,0.022213762892120136,91e9,2087009221.9709907,100,55.461937923097224
37,103.91871314772342,2.5558528515585484,188,106.47456599928198,0.024004350969374075,103e9,2555852851.5585485,100,7.658872140856397
38,95.07607989972733,0.5902707838881982,210,95.66635068361553,0.006170098259944309,95e9,590270783.8881983,100,40.62469174882967
39,78.27950441458611,1.1919662140440965,252,79.47147062863021,0.01499866813355133,78e9,1191966214.0440965,100,69.0897718040275
40,107.06906381009887,2.1161458068164944,184,109.18520961691536,0.01938124966047282,107e9,2116145806.8164945,100,100.49223215870623
41,825.22662402617,4.228884968991218,25,829.4555089951613,0.005098386740615267,825e9,4228884968.9912176,1000,327.8070120641863
42,1036.191366099079,9.506510001469458,20,1045.6978761005485,0.009091067524130043,1036e9,9506510001.469458,1000,234.05653219698863
43,1081.5895137426578,4.336752138604123,19,1085.926265881262,0.0039935972403105265,1081e9,4336752138.604122,1000,71.30564217545414
44,1073.0058957230344,19.572907014941993,19,1092.5788027379765,0.017914412183261064,1073e9,19572907014.941994,1000,23.543811303067436
45,986.2480168223835,3.3076589774806986,21,989.5556757998643,0.003342569860768164,986e9,3307658977.4806986,1000,651.5478585195051
46,1023.4537905931898,3.318371788971717,20,1026.7721623821615,0.0032318482235366925,1023e9,3318371788.971717,1000,397.62513745147305
47,1197.2937633087138,25.825145833985648,17,1223.1189091426995,0.021114174297319006,1197e9,25825145833.98565,1000,460.13231183733416
48,972.6118395162952,9.232839611325653,21,981.8446791276208,0.009403564339248778,972e9,9232839611.325653,1000,113.87157107284257
49,1008.3832524332236,21.94997604385935,20,1030.333228477083,0.021303764099992406,1008e9,21949976043.859352,1000,650.5934840395695
50,1041.3587992364987,18.283086098231433,19,1059.6418853347302,0.017254023601054606,1041e9,18283086098.231434,1000,250.51740658638698
51,973.1560446128568,16.399308856774017,21,989.5553534696309,0.016572401735055954,973e9,16399308856.774017,1000,429.04947496933175
52,1097.1464234654698,22.694387203183513,18,1119.8408106686534,0.020265726152302637,1097e9,22694387203.183514,1000,286.7299651427651
53,1096.7889145458003,9.206325908039299,19,1105.9952404538396,0.008324019463466704,1096e9,9206325908.039299,1000,409.3315173036265
54,982.6380488962274,21.082140079375556,20,1003.7201889756029,0.02100400122557263,982e9,21082140079.375557,1000,253.3352507800459
55,1005.0206899069603,16.01988733343078,20,1021.0405772403911,0.015689765608266418,1005e9,16019887333.43078,1000,419.54778849131503
56,1017.8757132789277,20.905673610894315,20,1038.781386889822,0.02012519080023877,1017e9,20905673610.894314,1000,267.33603390482625
57,866.9004473529798,21.3095610955878,23,888.2100084485676,0.02399157957340417,866e9,21309561095.5878,1000,664.9285625403654
58,938.1914409364189,21.29365692802836,21,959.4850978644472,0.02219279588127241,938e9,21293656928.02836,1000,941.5648001990172
59,988.4397901691485,23.66196864812248,20,1012.101758817271,0.023379041130976344,988e9,23661968648.12248,1000,171.1731466924097
60,914.6765057182491,2.4568717967732163,22,917.1333775150224,0.0026788598659773163,914e9,2456871796.7732162,1000,625.3419958931989
