app_id,Tcomp,Tio,iter,witer,alpha_io,compute_size,io_size,mu,desyn_time
1,9.256057584244425,0.2422050691574913,2106,9.498262653401916,0.02549993382955594,9e9,242205069.1574913,10,0.08512577248286006
2,9.944521187808952,0.19761620223688023,1972,10.142137390045832,0.019484670206778496,9e9,197616202.23688024,10,4.4272816699533175
3,11.509406260786614,0.18826594235635044,1710,11.697672203142965,0.016094308259532748,11e9,188265942.35635045,10,2.4343499317792383
4,9.294033780943366,0.21360636606440384,2104,9.50764014700777,0.022466812243796343,9e9,213606366.06440383,10,4.369996781800228
5,9.819677986434588,0.22558161821708053,1991,10.045259604651669,0.022456524479727753,9e9,225581618.21708053,10,7.606460861267702
6,10.881607915518035,0.05249483987403779,1830,10.934102755392074,0.0048010194387601065,10e9,52494839.87403779,10,1.6375113267063697
7,9.316069550958451,0.0647158442933766,2133,9.380785395251827,0.006898766101837606,9e9,64715844.293376595,10,2.6540524816531104
8,9.584786499698625,0.11280601612333661,2063,9.697592515821961,0.011632373286389344,9e9,112806016.12333661,10,7.072289835752977
9,8.086053910122432,0.17011378008703076,2423,8.256167690209463,0.020604448270686092,8e9,170113780.08703077,10,4.2758062485909445
10,10.960562566465871,0.22613715932340342,1788,11.186699725789275,0.02021482339443489,10e9,226137159.32340342,10,6.480080181355841
11,9.996394483697792,0.2522230571835688,1952,10.24861754088136,0.02461044684099687,9e9,252223057.1835688,10,2.29903828090664
12,9.185659716659794,0.20247811758044074,2131,9.388137834240235,0.021567441931025604,9e9,202478117.58044073,10,3.676820748715877
13,10.031314364849951,0.05954908683443598,1982,10.090863451684386,0.005901287547845664,10e9,59549086.83443598,10,6.476750242326384
14,9.056984620401165,0.23127444821676874,2154,9.288259068617934,0.024899655199990205,9e9,231274448.21676874,10,9.013938507007937
15,9.048840606469499,0.14232053911586823,2177,9.191161145585367,0.015484500474048006,9e9,142320539.11586824,10,8.818771864389642
16,7.935273635292414,0.11645751706562925,2484,8.051731152358043,0.01446366189605366,7e9,116457517.06562924,10,6.413830125557477
17,9.829199015711472,0.031134032134674194,2029,9.860333047846146,0.00315750309686294,9e9,31134032.134674195,10,5.427267807117837
18,8.948665680749496,0.03678336538238664,2226,8.985449046131883,0.004093659114145374,8e9,36783365.38238664,10,4.018143526535335
19,10.836370525232041,0.06088328935278233,1836,10.897253814584824,0.005587030493067573,10e9,60883289.35278233,10,8.845511656119465
20,9.936246792942894,0.01055216820701038,2011,9.946798961149904,0.001060860709885152,9e9,10552168.207010379,10,3.2096547718658224
21,92.70889309832062,1.351234468180366,213,94.06012756650098,0.014365645711303512,92e9,1351234468.180366,100,50.838772748066226
22,102.1962857361679,1.359867713211254,194,103.55615344937915,0.013131693944928066,102e9,1359867713.211254,100,4.637291996018157
23,88.10586391623853,2.0193867601557796,222,90.12525067639432,0.02240644819293356,88e9,2019386760.1557796,100,50.71283360346406
24,94.32441229654334,0.6291377269145416,211,94.95355002345788,0.0066257420260655425,94e9,629137726.9145416,100,53.30352408318658
25,93.28811110839868,0.2227272779703795,214,93.51083838636906,0.0023818338260439137,93e9,222727277.9703795,100,87.44946849124328
26,103.29492456786626,1.2071413609688058,192,104.50206592883507,0.011551363604532544,103e9,1207141360.9688058,100,40.10418249784141
27,94.672235958119,0.353645513965846,211,95.02588147208485,0.0037215704657234273,94e9,353645513.965846,100,19.487295147084666
28,116.32535913278328,2.250475589262165,169,118.57583472204544,0.018979209335000868,116e9,2250475589.262165,100,90.24128566086904
29,108.9793375111412,2.117037806886975,181,111.09637531802817,0.01905586749186616,108e9,2117037806.8869748,100,15.059365171825572
30,83.9079555596872,1.276891390359971,235,85.18484695004716,0.014989654100203371,83e9,1276891390.359971,100,40.16499650126845
31,89.38353939418796,0.9354183211308631,222,90.31895771531883,0.010356832549809292,89e9,935418321.1308631,100,85.49215244722392
32,94.6277537664593,0.20956420117792718,211,94.83731796763723,0.002209722983197816,94e9,209564201.17792717,100,29.366758627444796
33,100.19807203710472,1.5435182822753737,197,101.7415903193801,0.015170966734745044,100e9,1543518282.2753737,100,32.62234958154761
34,111.89527085087538,1.5987367658362939,177,113.49400761671167,0.014086530200215473,111e9,1598736765.836294,100,69.90517985643483
35,83.45401412046573,0.1143862543635263,240,83.56840037482925,0.0013687740084825097,83e9,114386254.3635263,100,60.83271530284573
36,93.74315068840521,0.5795960783553273,213,94.32274676676053,0.006144817641798975,93e9,579596078.3553274,100,92.74374207623558
37,95.80788970243584,1.9673163990172589,205,97.77520610145311,0.02012081055575521,95e9,1967316399.017259,100,66.95013786258814
38,82.76763948279655,1.378454143603658,238,84.14609362640022,0.016381677202079625,82e9,1378454143.603658,100,31.872988443776865
39,102.85596258863072,0.883744799663164,193,103.73970738829388,0.008518867287289908,102e9,883744799.663164,100,103.51822510084067
40,113.46417305256139,2.5301178023586455,173,115.99429085492004,0.021812433902658128,113e9,2530117802.3586454,100,92.21540573534156
41,945.8035273221773,3.697343931341884,22,949.5008712535191,0.003893986875926398,945e9,3697343931.341884,1000,891.6247492739581
42,801.1326623653194,9.750830901566736,25,810.8834932668861,0.012024946841971841,801e9,9750830901.566736,1000,640.4202855089158
43,1072.1727721609916,24.42811581450558,19,1096.6008879754972,0.022276213782394284,1072e9,24428115814.50558,1000,421.79719473826475
44,878.6114328686222,16.4107895732889,23,895.022222441911,0.018335622470372792,878e9,16410789573.288898,1000,477.27306932674645
45,817.3338625036895,8.330329421507301,25,825.6641919251967,0.010089246334013247,817e9,8330329421.507301,1000,142.49898278540292
46,1126.2595818669627,8.326986205273046,18,1134.5865680722357,0.007339225088325648,1126e9,8326986205.2730465,1000,100.02908650712119
47,1016.1833169758562,14.931751011800161,20,1031.1150679876564,0.014481168470305887,1016e9,14931751011.800161,1000,633.7471645804876
48,1087.250601154062,24.357680525811283,18,1111.6082816798732,0.02191210782363165,1087e9,24357680525.811283,1000,665.1672705922488
49,1054.4666977166462,3.866742135306266,19,1058.3334398519526,0.0036536142483102247,1054e9,3866742135.3062663,1000,11.30950198710841
50,949.4396296494085,17.700654420746616,21,967.1402840701551,0.018302054740450283,949e9,17700654420.746616,1000,260.44549039139
51,1012.3341130706033,23.50850505323595,20,1035.8426181238392,0.022695054868292177,1012e9,23508505053.23595,1000,97.49784172658573
52,1134.651944814439,16.807519451134986,18,1151.459464265574,0.014596709630464664,1134e9,16807519451.134987,1000,432.1060512297491
53,981.2759403299445,20.230009176535162,20,1001.5059495064797,0.020199589614524078,981e9,20230009176.535164,1000,261.3928292431087
54,1110.944078870665,13.542753910452772,18,1124.4868327811178,0.012043497100769414,1110e9,13542753910.452772,1000,777.1334199813291
55,1077.6332332254221,4.956219465714193,19,1082.5894526911363,0.004578115418909598,1077e9,4956219465.714193,1000,520.0281333354319
56,1163.0266933247324,1.280407019426873,18,1164.3071003441592,0.0010997158902907968,1163e9,1280407019.426873,1000,54.82699188743546
57,932.6847500324251,15.660791048244938,22,948.34554108067,0.01651380258549955,932e9,15660791048.244938,1000,764.3398323057173
58,857.7965449029745,11.929507741433715,23,869.7260526444081,0.013716396910454693,857e9,11929507741.433716,1000,697.3771559052965
59,1107.6697075502116,20.667721686073346,18,1128.3374292362848,0.018316968976259427,1107e9,20667721686.073345,1000,1113.7435852795875
60,1028.5685834510057,9.940372764981001,20,1038.5089562159867,0.009571773748779905,1028e9,9940372764.981,1000,788.979390494151
