app_id,Tcomp,Tio,iter,witer,alpha_io,compute_size,io_size,mu,desyn_time
1,10.802775333613672,0.056440864620461516,1842,10.859216198234133,0.005197508143326184,10e9,56440864.620461516,10,9.902510142489433
2,9.70678335260477,0.2398701870326383,2011,9.946653539637408,0.024115667251981356,9e9,239870187.03263828,10,1.8663938290391184
3,10.507378686315027,0.09743926543503309,1886,10.60481795175006,0.00918820727318126,10e9,97439265.43503308,10,0.6680319856330479
4,10.542160537050847,0.011650262356127695,1896,10.553810799406975,0.0011038915305154353,10e9,11650262.356127694,10,4.391547588837088
5,9.16627592550823,0.22530559741510825,2130,9.391581522923339,0.02399016575271945,9e9,225305597.41510826,10,5.018587373199442
6,11.900899263371667,0.07253854780612354,1671,11.97343781117779,0.00605828910209942,11e9,72538547.80612354,10,10.70651891704704
7,9.566957299808553,0.06163428677096969,2078,9.628591586579523,0.006401173652112993,9e9,61634286.77096969,10,4.301608293453394
8,9.823392635843177,0.22494169712415915,1991,10.048334332967336,0.02238596862627803,9e9,224941697.12415916,10,0.7989414290828025
9,8.429978159746085,0.09249216373844847,2347,8.522470323484534,0.01085274107480045,8e9,92492163.73844847,10,5.962235407598272
10,11.521627213499025,0.06955464109849335,1726,11.591181854597519,0.006000651354711103,11e9,69554641.09849335,10,1.7357051838754531
11,9.811428181899378,0.18571917872172228,2001,9.997147360621101,0.018577217282329223,9e9,185719178.72172228,10,4.543285883356057
12,11.193023658811182,0.039383200710183384,1781,11.232406859521365,0.0035062120881776517,11e9,39383200.71018338,10,4.849658441329553
13,9.952552091009093,0.030962764352393812,2004,9.983514855361486,0.0031013891200618346,9e9,30962764.352393813,10,1.0412233717716908
14,9.151118662428805,0.014075762001284731,2183,9.16519442443009,0.0015357843324922144,9e9,14075762.001284732,10,6.162290400954261
15,10.422915922877504,0.0628158062411046,1908,10.485731729118609,0.005990598259029144,10e9,62815806.241104595,10,1.715428041785457
16,10.774811900041659,0.14989465459670492,1831,10.924706554638364,0.013720703054771142,10e9,149894654.59670493,10,3.2838533281612152
17,9.416324202679302,0.2537156393025025,2069,9.670039841981804,0.026237289964516353,9e9,253715639.3025025,10,0.6313110210815068
18,10.617943986849042,0.12168045846180482,1863,10.739624445310847,0.01133004781325786,10e9,121680458.46180482,10,1.8416747307073664
19,9.953067264940003,0.1769534366591463,1975,10.13002070159915,0.01746822063564115,9e9,176953436.6591463,10,9.996137475496734
20,9.800798768131399,0.053160087780442525,2030,9.853958855911841,0.005394794981161237,9e9,53160087.78044253,10,1.1551508568002025
21,103.29023821677328,0.9006173322188048,192,104.19085554899208,0.008643919156564765,103e9,900617332.2188048,100,74.15171788347438
22,94.09905192374931,0.6293922093549533,212,94.72844413310426,0.006644173406570317,94e9,629392209.3549533,100,51.28751429317908
23,103.15882033316565,3.5229985885450454,188,106.6818189217107,0.03302342071173745,103e9,3522998588.5450454,100,60.44779483683923
24,109.91882589128666,0.5935255135117362,181,110.5123514047984,0.005370671295715146,109e9,593525513.5117362,100,82.38828477350565
25,109.53040509624279,2.9389181145971905,178,112.46932321083997,0.026130841999358036,109e9,2938918114.5971904,100,0.10137021843882732
26,96.09503226702323,0.6296875644952359,207,96.72471983151847,0.006510099647660571,96e9,629687564.4952359,100,88.42927174273524
27,90.96282819723363,1.2129236391254812,217,92.17575183635911,0.01315881470952145,90e9,1212923639.1254811,100,64.73772627107046
28,99.54189572571892,0.0647835645334871,201,99.6066792902524,0.0006503937787616506,99e9,64783564.533487104,100,3.432633501278359
29,103.74572149906768,0.3409338957221942,193,104.08665539478987,0.003275481323029041,103e9,340933895.7221942,100,10.1604823351128
30,97.99873387438005,2.122749919111289,200,100.12148379349134,0.021201742510025445,97e9,2122749919.111289,100,0.6224177885974197
31,95.69821748465506,2.7697847966920777,204,98.46800228134714,0.028128780238458842,95e9,2769784796.6920776,100,16.728623422642812
32,89.71441810118004,0.4644410054183889,222,90.17885910659844,0.005150220462086168,89e9,464441005.4183889,100,46.97656270918674
33,98.08299051557655,1.3810702223408544,202,99.4640607379174,0.013885118022477508,98e9,1381070222.3408544,100,34.361276127275545
34,91.83411511717901,1.1091711013865282,216,92.94328621856553,0.01193384854908401,91e9,1109171101.3865283,100,28.468390895639583
35,97.3786714540708,0.7956687496415071,204,98.1743402037123,0.008104650848587218,97e9,795668749.6415071,100,51.91452940843898
36,108.20530474277058,0.9960135137236018,184,109.20131825649418,0.009120892766002567,108e9,996013513.7236018,100,40.8254832176712
37,106.8612817174714,1.4007436850084776,185,108.26202540247988,0.012938458150962985,106e9,1400743685.0084774,100,68.60190014960362
38,100.96348992916542,0.6615786323982853,197,101.62506856156371,0.006509994450803306,100e9,661578632.3982853,100,8.924934257483317
39,94.75306057352043,1.9822941026321568,207,96.73535467615258,0.020491929856136005,94e9,1982294102.6321568,100,57.43268712426238
40,110.83218989797577,2.077906777155434,178,112.9100966751312,0.018403197219235924,110e9,2077906777.155434,100,70.3012839058489
41,1073.0499743313187,22.128063476813566,19,1095.1780378081323,0.02020499198568685,1073e9,22128063476.813564,1000,1007.7903768199398
42,1011.9665753844877,8.190258406861226,20,1020.1568337913488,0.008028430664354465,1011e9,8190258406.861226,1000,52.906486166264585
43,958.7021058736659,1.6393829795161199,21,960.341488853182,0.001707083364141472,958e9,1639382979.51612,1000,566.9649789112445
44,966.9213810095748,9.379373497780843,21,976.3007545073557,0.009607053415126882,966e9,9379373497.780844,1000,424.76948063112775
45,955.8144854725972,31.826654698066307,21,987.6411401706636,0.03222491794192239,955e9,31826654698.066307,1000,678.7322038330706
46,1144.456781784101,20.77483388044805,18,1165.231615664549,0.01782893083329176,1144e9,20774833880.44805,1000,768.021851631747
47,1148.3628596032402,8.914683053989547,18,1157.2775426572298,0.007703150476350302,1148e9,8914683053.989548,1000,958.4031294202196
48,993.782326671622,13.891208880988403,20,1007.6735355526104,0.013785425925044696,993e9,13891208880.988403,1000,786.9186138784364
49,821.2638573768149,8.294220718564839,25,829.5580780953798,0.00999836049768561,821e9,8294220718.564839,1000,1.947473395045286
50,981.556251700554,20.499243042159208,20,1002.0554947427131,0.020457193388698072,981e9,20499243042.159206,1000,644.4344334584516
51,930.8529137723009,24.141725173074217,21,954.9946389453751,0.025279435285348345,930e9,24141725173.07422,1000,337.7658108614409
52,989.6591715503923,32.95695766681692,20,1022.6161292172093,0.032228083173345565,989e9,32956957666.816917,1000,742.2301612597558
53,1000.712825645897,7.794787598846397,20,1008.5076132447434,0.007729031983970524,1000e9,7794787598.846396,1000,443.3180916266499
54,1106.9502910050655,36.560132017708376,18,1143.510423022774,0.03197183976781316,1106e9,36560132017.708374,1000,607.1461702196193
55,939.6436297998197,7.870295082231383,22,947.513924882051,0.008306257961550378,939e9,7870295082.231383,1000,801.3732509422923
56,986.5855738459713,0.31965961772331414,21,986.9052334636947,0.00032390102604018,986e9,319659617.72331417,1000,491.61541220137127
57,1023.6248590432981,28.69428715275713,20,1052.3191461960553,0.02726766614147602,1023e9,28694287152.75713,1000,176.11704676807287
58,854.8479725825765,13.437460836651884,24,868.2854334192284,0.015475856578333228,854e9,13437460836.651884,1000,215.8425116848783
59,1058.0566698402451,10.422348874650151,19,1068.4790187148953,0.009754378599951872,1058e9,10422348874.65015,1000,39.27187860065791
60,1011.8634396819114,19.266498527059667,20,1031.129938208971,0.01868484059392627,1011e9,19266498527.059666,1000,507.0864105064256
