app_id,start_app,end_app,effective_cpu,effective_io,effective_iter,total_bytes,stretch,utilization,Tcomp,Tio,iterations,priority,group_id
app_1,4.38081,25400,5464.5,176.353,548.045,1.52947e+11,1.42413,0.862775,10,0.2791,1868,1,1
app_10,0.985024,26243.5,5429,101.446,603.389,6.57058e+10,1.45595,0.862775,9,0.108965,2167,1,1
app_11,3.36778,24668.1,5417.9,119.358,602.639,8.94747e+10,1.4526,0.862775,9,0.148383,1988,1,1
app_12,10.1132,26054.7,5641.4,56.3077,511.29,3.26164e+10,1.40994,0.862775,11,0.0638285,1801,1,1
app_13,3.44051,25170,5370.8,170.469,597.994,1.3773e+11,1.45229,0.862775,9,0.230317,2027,1,1
app_14,4.3663,24705.3,4964.5,172.572,829.952,1.33439e+11,1.56926,0.862775,6,0.16077,2797,1,1
app_15,4.89788,26236.3,5561.6,58.0091,556.664,3.08697e+10,1.4305,0.862775,10,0.0554214,1984,1,1
app_16,3.29796,25811,5483.8,72.5604,606.068,4.69631e+10,1.44646,0.862775,9,0.0774969,2128,1,1
app_17,6.51166,24880.2,5464.6,52.9347,608.714,1.87072e+10,1.45897,0.862775,9,0.0307179,2030,1,1
app_18,9.03485,26152.8,5575.6,83.2059,507.068,5.2922e+10,1.42133,0.862775,11,0.104383,1795,1,1
app_19,1.84183,25460.8,5423,65.7848,603.562,3.58664e+10,1.46551,0.862775,9,0.0593814,2082,1,1
app_2,7.22609,25897.4,5589.8,108.271,506.993,8.35761e+10,1.4101,0.862775,11,0.164844,1777,1,1
app_20,4.81569,25175.4,5551.8,40.0861,556.209,8.69671e+09,1.43872,0.862775,10,0.0156416,1881,1,1
app_21,51.9607,21411.8,7261.2,175.521,83.0612,1.70983e+11,1.0764,0.862775,88,2.06004,222,1,1
app_22,44.6555,21467.1,7523.6,28.5671,69.8181,2.52768e+10,1.05976,0.862775,107,0.361097,187,1,1
app_23,59.4216,21528.4,7402,58.3964,84.0131,5.3599e+10,1.07302,0.862775,89,0.638084,223,1,1
app_24,11.1582,21054,7383.3,197.384,77.1552,1.92918e+11,1.05594,0.862775,95,2.50543,204,1,1
app_25,90.7392,21442.3,7324.4,151.631,69.8933,1.47379e+11,1.0707,0.862775,104,2.10541,188,1,1
app_26,80.9098,21228.1,7437.7,46.0435,74.1334,4.29364e+10,1.06943,0.862775,101,0.572486,196,1,1
app_27,40.8322,21270.5,7428,172.621,72.6487,1.68245e+11,1.05315,0.862775,101,2.30473,193,1,1
app_28,73.6443,21366.7,7294.8,166.287,76.3422,1.62435e+11,1.07278,0.862775,96,2.1373,204,1,1
app_29,13.1195,21312.7,7302.5,175.074,82.2066,1.71528e+11,1.07037,0.862775,88,2.0918,221,1,1
app_3,7.42591,25705.8,5529.8,65.0815,552.829,4.0512e+10,1.43619,0.862775,10,0.0732587,1922,1,1
app_30,90.5144,21140,7396.8,149.735,71.2868,1.46977e+11,1.06048,0.862775,104,2.0701,188,1,1
app_31,69.4629,21332.6,7606.2,23.3775,73.3116,2.00534e+10,1.04901,0.862775,103,0.274704,194,1,1
app_32,54.2421,21137.9,7342.7,206.44,71.1019,2.03521e+11,1.06013,0.862775,103,2.8665,188,1,1
app_33,1.67744,20921.3,7450,178.434,63.216,1.76035e+11,1.04904,0.862775,118,2.79421,166,1,1
app_34,41.9144,21541.9,7369,5.17693,74.8368,1.44289e+09,1.08542,0.862775,98,0.0192386,204,1,1
app_35,80.025,21225.3,7391.8,71.7395,72.3514,6.79921e+10,1.07242,0.862775,103,0.944335,192,1,1
app_36,74.1778,21166.6,7316.7,207.446,74.8093,2.032e+11,1.06384,0.862775,98,2.70934,199,1,1
app_37,88.6456,21326.7,7503.3,52.4911,71.605,5.03724e+10,1.05909,0.862775,105,0.699617,189,1,1
app_38,72.97,21450.3,7417.8,44.7808,77.9736,4.02503e+10,1.07267,0.862775,95,0.516029,209,1,1
app_39,1.71001,21231.2,7458.2,46.4227,77.5549,4.26042e+10,1.06655,0.862775,96,0.546208,206,1,1
app_4,0.570531,25059.2,5493.3,176.599,548.553,1.55072e+11,1.41634,0.862775,10,0.282463,1832,1,1
app_40,5.8181,21415.1,7349.2,87.1277,76.8794,8.39587e+10,1.07626,0.862775,95,1.09037,208,1,1
app_41,59.0057,20499,7912,34.6882,8.53354,3.42943e+10,1.00676,0.862775,926,3.81048,22,1,1
app_42,474.943,21689.1,7765.5,173.37,7.85528,1.73043e+11,1.00774,0.862775,975,21.6304,21,1,1
app_43,443.963,20777.7,7930.8,30.1935,7.50432,2.98541e+10,1.00494,0.862775,1067,4.26487,19,1,1
app_44,1037.92,22073,7858.4,93.1467,7.18477,9.27529e+10,1.00614,0.862775,1091,13.2504,19,1,1
app_45,956.631,21249.8,7807.6,105.942,7.41387,1.05638e+11,1.01096,0.862775,1053,13.2047,19,1,1
app_46,700.896,21100,7777.1,157.168,7.64444,1.56715e+11,1.00834,0.862775,1045,19.5894,19,1,1
app_47,809.159,21350.8,7929.7,33.2394,9.45438,3.28089e+10,1.00471,0.862775,861,3.28089,24,1,1
app_48,42.9349,21218.9,7793.6,170.145,7.85744,1.69787e+11,1.0046,0.862775,971,21.2234,21,1,1
app_49,782.774,21197.5,7874.2,88.6936,8.13429,8.82258e+10,1.00472,0.862775,947,11.0282,21,1,1
app_5,8.85003,26211,5571.7,101.112,557.985,6.8449e+10,1.4184,0.862775,10,0.122669,1973,1,1
app_50,453.57,21565.2,7898.7,28.6084,8.07017,2.80031e+10,1.00925,0.862775,941,3.50039,22,1,1
app_51,94.5281,20750.9,7837.1,118.75,6.56994,1.18344e+11,1.0056,0.862775,1217,16.9063,17,1,1
app_52,770.396,21663.7,7830.1,143.14,9.60447,1.42818e+11,1.0034,0.862775,791,15.8686,25,1,1
app_53,1017.61,22394.6,7846.7,114.744,6.72758,1.14541e+11,1.00487,0.862775,1149,19.0902,18,1,1
app_54,840.934,21186,7795.4,145.447,8.51134,1.44891e+11,1.00752,0.862775,954,18.1114,21,1,1
app_55,197.069,20588.1,7775.6,130.325,8.33134,1.29785e+11,1.01197,0.862775,944,14.4206,21,1,1
app_56,982.059,21927.5,7859.8,62.6451,7.28752,6.21222e+10,1.00986,0.862775,1095,7.76528,19,1,1
app_57,927.185,20730.7,7830.8,142.217,6.99436,1.41786e+11,1.00344,0.862775,1092,20.2551,18,1,1
app_58,824.618,21406.1,7875.8,70.8538,9.02753,7.04192e+10,1.00677,0.862775,885,7.82435,23,1,1
app_59,667.16,20915.8,7887.9,89.0634,8.69021,8.87044e+10,1.00293,0.862775,924,9.85605,22,1,1
app_6,6.92339,25627,5512.9,126.561,550.696,1.05004e+11,1.42402,0.862775,10,0.19057,1901,1,1
app_60,2.9966,21077.7,7894.6,36.0623,8.40737,3.55988e+10,1.0088,0.862775,935,4.44985,22,1,1
app_7,6.3709,25947.8,5410.6,130.841,600.877,1.03647e+11,1.45079,0.862775,9,0.172458,2127,1,1
app_8,8.46768,25390.7,5365,179.58,597.014,1.4964e+11,1.45068,0.862775,9,0.250652,2050,1,1
app_9,6.01484,24529.5,5369.6,70.7659,670.511,3.91084e+10,1.4791,0.862775,8,0.0583707,2213,1,1
