app_id,start_app,end_app,effective_cpu,effective_io,effective_iter,total_bytes,stretch,utilization,Tcomp,Tio,iterations,priority,group_id
app_1,10.2868,25312.8,5255.17,90.3573,524.959,5.9832e+10,1.50517,0.848578,10,0.114183,1804,1,1
app_10,8.74333,25903.5,5235.2,36.476,580.999,9.94889e+08,1.52783,0.848578,9,0.00171237,2073,1,1
app_11,3.09528,25315.5,5127.06,179.084,567.005,1.52472e+11,1.51529,0.848578,9,0.268909,1965,1,1
app_12,9.7057,25239.1,5253.63,63.5848,525.68,4.10171e+10,1.51096,0.848578,10,0.0781277,1810,1,1
app_13,8.31852,25414.9,5203.18,45.8176,578.006,1.19541e+10,1.534,0.848578,9,0.0206818,2014,1,1
app_14,2.18559,25540,5093.18,117.537,635.973,8.11097e+10,1.54611,0.848578,8,0.127732,2231,1,1
app_15,4.99557,26330.7,5157.87,115.829,573.999,8.68785e+10,1.52533,0.848578,9,0.151356,2092,1,1
app_16,1.99502,26773.6,5290.56,58.3248,528.286,3.42876e+10,1.50239,0.848578,10,0.0649387,1959,1,1
app_17,0.242537,25602.5,5251.82,37.7607,582.997,2.81161e+09,1.52247,0.848578,9,0.00482267,2043,1,1
app_18,9.1035,26852.2,5256.59,67.134,523.944,4.58253e+10,1.50875,0.848578,10,0.0876201,1966,1,1
app_19,6.21739,26279.8,5280.79,149.071,479.117,1.2841e+11,1.47896,0.848578,11,0.26808,1740,1,1
app_2,0.374879,25514.4,5146.36,128.076,571.004,1.03604e+11,1.52382,0.848578,9,0.181443,1999,1,1
app_20,3.10623,26390.6,5121.02,125.509,641.994,9.13651e+10,1.53481,0.848578,8,0.142313,2341,1,1
app_21,74.2574,21560.9,7384.1,137.387,76.1285,1.33549e+11,1.06416,0.848578,97,1.75722,202,1,1
app_22,64.6311,21645.1,7289.1,162.854,71.4683,1.59245e+11,1.07406,0.848578,102,2.24289,191,1,1
app_23,92.556,21362.6,7273.2,216.058,80.9528,2.10939e+11,1.06893,0.848578,90,2.60418,215,1,1
app_24,48.6998,21534.1,7303.2,81.5419,80.3196,7.7536e+10,1.0839,0.848578,92,0.9692,214,1,1
app_25,1.21305,21606.2,7269.5,174.124,83.8973,1.69616e+11,1.0754,0.848578,87,2.01923,225,1,1
app_26,36.7665,21791.9,7265.4,129.769,73.1972,1.25589e+11,1.0824,0.848578,100,1.7204,197,1,1
app_27,61.938,21657.4,7397.2,57.2616,76.2056,5.32448e+10,1.07376,0.848578,97,0.70059,205,1,1
app_28,101.296,21595.9,7496.5,32.3601,68.6514,2.85191e+10,1.06312,0.848578,110,0.41332,182,1,1
app_29,51.6371,21325.6,7435.9,107.014,70.557,1.03729e+11,1.06106,0.848578,105,1.46098,187,1,1
app_3,8.51803,25181.9,5123,130.694,640.898,9.844e+10,1.53214,0.848578,8,0.153813,2197,1,1
app_30,97.1366,21782.4,7303.07,64.5932,67.6879,6.11341e+10,1.08634,0.848578,108,0.91222,183,1,1
app_31,22.3065,22166.5,7163.2,46.5385,95.5299,4.16361e+10,1.11037,0.848578,75,0.43371,265,1,1
app_32,64.1927,21562.5,7372.8,58.4963,74.9154,5.47777e+10,1.07707,0.848578,98,0.730369,202,1,1
app_33,6.57961,21668.8,7282.2,55.944,73.2468,5.18514e+10,1.0908,0.848578,100,0.710293,199,1,1
app_34,50.536,21366.4,7398.9,153.332,73.2346,1.4925e+11,1.05986,0.848578,101,2.04453,193,1,1
app_35,13.677,21589.9,7241.5,105.966,71.6148,1.02293e+11,1.08936,0.848578,102,1.42074,193,1,1
app_36,102.973,21655.3,7346,55.8632,72.5545,5.20977e+10,1.08136,0.848578,102,0.713667,194,1,1
app_37,16.9942,21669.2,7371.9,27.7114,75.5704,2.31364e+10,1.08181,0.848578,98,0.308486,203,1,1
app_38,90.7693,21444.3,7392,104.35,68.0734,1.01189e+11,1.06764,0.848578,109,1.48808,181,1,1
app_39,43.054,21681.3,7351,47.0412,81.2039,4.28433e+10,1.08198,0.848578,91,0.52893,218,1,1
app_4,0.184826,26028.4,5238.07,60.3978,582.9,3.28847e+10,1.51775,0.848578,9,0.0565029,2080,1,1
app_40,1.3243,21336.5,7377.4,54.7511,79.3283,5.09111e+10,1.07696,0.848578,94,0.644444,210,1,1
app_41,727.848,21046.4,7815.7,120.218,7.06997,1.19739e+11,1.00814,0.848578,1109,17.1056,18,1,1
app_42,624.056,20882.3,7731.5,180.141,9.89082,1.79909e+11,1.0112,0.848578,792,17.9909,25,1,1
app_43,48.0033,20504.5,7863.4,104.216,7.20558,1.03781e+11,1.00412,0.848578,1062,14.8259,19,1,1
app_44,828.067,21207,7789.2,164.563,7.82295,1.64141e+11,1.00587,0.848578,1021,20.5176,20,1,1
app_45,734.09,21442.8,7911.2,51.679,7.60228,5.12125e+10,1.00472,0.848578,1021,7.31607,20,1,1
app_46,425.808,20670.1,7855,88.2368,7.45548,8.78458e+10,1.0072,0.848578,1042,12.5494,19,1,1
app_47,845.257,21023.9,7792.2,174.349,8.65516,1.73856e+11,1.00426,0.848578,911,19.3173,22,1,1
app_48,818.096,20821.7,7878.9,90.0391,6.71167,8.97506e+10,1.00393,0.848578,1167,12.8215,17,1,1
app_49,73.5136,20528.5,7852.1,42.0893,11.3136,4.14298e+10,1.01349,0.848578,716,3.76634,28,1,1
app_5,5.58733,25624.5,5370.46,105.873,488.005,8.40341e+10,1.46668,0.848578,11,0.172201,1693,1,1
app_50,509.725,21673.9,7935.5,35.3777,7.23327,3.49509e+10,1.00371,0.848578,1088,4.36886,19,1,1
app_51,703.689,21533,7782.6,136.658,9.21899,1.36259e+11,1.01025,0.848578,831,15.1398,24,1,1
app_52,857.532,21554.3,7841,124.151,8.21996,1.23883e+11,1.00441,0.848578,953,15.4854,21,1,1
app_53,662.524,21512.3,7858.8,111.84,8.92749,1.11365e+11,1.00374,0.848578,891,12.3739,23,1,1
app_54,482.644,20689.7,7833.5,114,7.66174,1.13565e+11,1.00666,0.848578,1040,16.2236,19,1,1
app_55,539.352,20954.3,7834.5,140.693,7.75545,1.40311e+11,1.00316,0.848578,986,17.5389,20,1,1
app_56,216.899,20465.3,7894.2,77.7372,7.34328,7.74881e+10,1.00355,0.848578,1047,9.68601,19,1,1
app_57,482.12,21317.7,7753.9,199.859,8.18075,1.99395e+11,1.00587,0.848578,957,24.9243,21,1,1
app_58,484.294,20800.2,7841.7,116.906,7.27331,1.16454e+11,1.00526,0.848578,1116,14.5567,18,1,1
app_59,600.293,21086.4,7768,190.164,8.02597,1.89723e+11,1.00531,0.848578,957,23.7154,21,1,1
app_6,7.54182,25654.9,5162.24,170.367,574.645,1.40433e+11,1.50867,0.848578,9,0.244658,2004,1,1
app_60,198.836,20050.5,7740.3,214.24,8.20978,2.13696e+11,1.00578,0.848578,982,26.7121,20,1,1
app_7,1.42475,26481.3,5130.02,107.283,641.993,6.78012e+10,1.53911,0.848578,8,0.105609,2354,1,1
app_8,4.25494,26345.6,5130.61,168.725,572.004,1.37056e+11,1.5187,0.848578,9,0.239609,2090,1,1
app_9,1.62957,25417,5203.15,47.4158,576.003,1.47206e+10,1.53319,0.848578,9,0.0255679,2007,1,1
