app_id,start_app,end_app,effective_cpu,effective_io,effective_iter,total_bytes,stretch,utilization,Tcomp,Tio,iterations,priority,group_id
app_1,3.14188,19797.8,7520.8,479.2,752.894,1.10234e+11,1.04835,0.945993,10,0.146394,1863,1,1
app_10,1.76398,20079.1,7830.3,169.7,713.135,3.37054e+10,1.01729,0.945993,11,0.0472726,1791,1.00001,1.00001
app_11,9.49652,19943.5,7273.2,726.8,809.921,1.75975e+11,1.07394,0.945993,9,0.217253,2022,1.00001,1.00001
app_12,4.53102,18299.7,7912.2,87.8,878.639,2.61627e+09,1.01076,0.945993,9,0.00297981,2010,1.00001,1.00001
app_13,1.41243,20443.6,7320.1,679.9,730.208,1.66675e+11,1.06855,0.945993,10,0.228321,1874,1.00001,1.00001
app_14,4.16635,19794.1,7283.2,716.8,807.488,1.72311e+11,1.07303,0.945993,9,0.213521,2008,1.00001,1.00001
app_15,2.78222,19447.5,7863.4,136.6,786.257,2.43349e+10,1.01423,0.945993,10,0.0309605,1911,1.00002,1.00002
app_16,0.835617,19127.1,7483.03,516.972,830.286,1.20282e+11,1.05217,0.945993,9,0.144788,1991,1.00002,1.00002
app_17,1.45417,20857.7,7530.7,469.3,686.858,1.0993e+11,1.04703,0.945993,11,0.160015,1790,1.00002,1.00002
app_18,2.78059,19838.1,7199.1,800.9,800.045,1.98325e+11,1.08146,0.945993,9,0.247906,1993,1.00002,1.00002
app_19,2.03861,19671,7837.6,162.4,785.384,3.09263e+10,1.01671,0.945993,10,0.0393965,1931,1.00002,1.00002
app_2,5.18239,19634.5,7320.1,679.9,914.222,1.65152e+11,1.06877,0.945993,8,0.180692,2253,1,1
app_20,9.3476,20469.1,7723.3,276.7,703.737,6.14104e+10,1.02766,0.945993,11,0.0872307,1799,1.00002,1.00002
app_21,67.5196,20311.9,7825,175,82.7155,3.71395e+10,1.01753,0.945993,94,0.447463,210,1.00002,1.00002
app_22,31.8018,20884,7463.6,536.4,82.9268,1.23889e+11,1.05437,0.945993,90,1.49264,217,1.00002,1.00002
app_23,57.85,20981.3,7459.7,540.3,78.6314,1.28592e+11,1.05426,0.945993,95,1.62775,205,1.00002,1.00002
app_24,48.3736,20574.2,7585.5,414.5,82.6645,9.79129e+10,1.0412,0.945993,93,1.17967,212,1.00002,1.00002
app_25,91.5319,20104.3,7978.7,21.3,81.584,3.98421e+09,1.00217,0.945993,98,0.048588,203,1.00003,1.00003
app_26,76.6942,21069.2,7533,467,80.4573,1.11536e+11,1.0465,0.945993,93,1.3942,212,1.00003,1.00003
app_27,42.8455,21111.7,7312,688,77.649,1.75104e+11,1.0685,0.945993,94,2.27408,207,1.00003,1.00003
app_28,84.4367,20687.4,7503.5,496.5,88.9842,1.25828e+11,1.04859,0.945993,85,1.41379,230,1.00003,1.00003
app_29,51.5595,20757.1,7613.9,386.1,72.904,9.98649e+10,1.03711,0.945993,105,1.36801,188,1.00003,1.00003
app_3,4.81331,19766.5,7547.2,452.8,836.352,1.0265e+11,1.04577,0.945993,9,0.122787,2071,1,1
app_30,17.6779,21234.7,7341.8,658.2,73.9442,1.70624e+11,1.0649,0.945993,99,2.30573,197,1.00003,1.00003
app_31,111.037,21032.4,7518.7,481.3,64.3111,1.21387e+11,1.04711,0.945993,117,1.89667,168,1.00003,1.00003
app_32,85.9802,20868.2,7435.7,564.3,85.9814,1.40599e+11,1.05592,0.945993,88,1.63487,223,1.00003,1.00003
app_33,58.1946,20339.7,7766.1,233.9,80.7098,5.44255e+10,1.02295,0.945993,96,0.680319,205,1.00003,1.00003
app_34,52.6486,20521.5,7707.3,292.7,80.1463,7.1731e+10,1.02841,0.945993,96,0.896637,205,1.00003,1.00003
app_35,38.969,21066.1,7469.3,530.7,78.7178,1.4938e+11,1.05005,0.945993,95,1.91513,206,1.00004,1.00004
app_36,42.903,20788.3,7547.2,452.8,92.8901,1.19008e+11,1.04354,0.945993,81,1.27966,241,1.00004,1.00004
app_37,81.9848,20465.9,7828.3,171.7,71.2548,4.53019e+10,1.01605,0.945993,110,0.638054,181,1.00004,1.00004
app_38,30.2245,21155.7,7368.6,631.396,88.4755,1.6603e+11,1.06176,0.945993,84,1.86624,233,1.00004,1.00004
app_39,36.6063,20173.3,7913.6,86.4,88.5023,2.16178e+10,1.00816,0.945993,89,0.242897,224,1.00004,1.00004
app_4,10.1037,19330.3,7927.7,72.3,723.198,1.33744e+09,1.00895,0.945993,11,0.00184985,1746,1,1
app_40,98.8915,21067.7,7536.87,463.133,77.3182,1.31816e+11,1.0432,0.945993,97,1.69322,203,1.00004,1.00004
app_41,796.39,22196.8,7752.2,247.8,7.13212,5.99462e+10,1.02405,0.945993,1088,8.56374,19,1.00004,1.00004
app_42,946.012,21423.1,7975.8,24.2,8.43369,7.55797e+09,1.00208,0.945993,981,0.944747,21,1.00004,1.00004
app_43,489.091,22502.9,7256.5,743.5,7.29118,1.64084e+11,1.07808,0.945993,991,23.4406,20,1.00004,1.00004
app_44,52.215,20602,7868.8,131.2,8.00596,3.97264e+10,1.01157,0.945993,1024,4.96579,20,1.00004,1.00004
app_45,553.549,21177.7,7926.8,73.2,8.08274,1.88611e+10,1.00684,0.945993,952,2.35763,21,1.00004,1.00004
app_46,1255.05,21996.7,7717.8,282.2,5.95162,6.59792e+10,1.02778,0.945993,1275,10.9965,16,1.00005,1.00005
app_47,597.162,22329.7,7451.7,548.3,7.77566,1.54797e+11,1.05173,0.945993,962,19.3496,21,1.00005,1.00005
app_48,444.844,20867.5,7575.2,424.8,8.09855,9.99588e+10,1.04232,0.945993,948,12.4949,21,1.00005,1.00005
app_49,1039.09,22788.1,7733.7,266.3,7.31752,9.90714e+10,1.02135,0.945993,1036,14.1531,20,1.00005,1.00005
app_5,7.87023,19217.3,7699.2,300.8,855.18,6.55794e+10,1.03029,0.945993,9,0.0766114,2058,1.00001,1.00001
app_50,1062.76,22626.9,7592.2,407.8,6.92988,5.81507e+10,1.0457,0.945993,1090,8.30725,19,1.00005,1.00005
app_51,749.616,23061.4,7201.3,798.7,7.46726,1.40774e+11,1.08961,0.945993,920,20.1106,22,1.00005,1.00005
app_52,99.8169,21026.9,7549.8,450.2,7.30069,7.99325e+10,1.04853,0.945993,1053,11.4189,19,1.00005,1.00005
app_53,891.115,22707.5,7414.1,585.9,7.54019,1.64502e+11,1.0556,0.945993,969,20.5628,21,1.00005,1.00005
app_54,947.087,22741.5,7553.4,446.6,6.69789,1.31079e+11,1.04106,0.945993,1121,21.8465,18,1.00005,1.00005
app_55,163.253,21279.2,7675.4,324.6,8.23002,6.99821e+10,1.03287,0.945993,931,8.74776,22,1.00005,1.00005
app_56,158.455,21832,7445.9,554.1,7.36054,1.37882e+11,1.05488,0.945993,1029,19.6974,20,1.00006,1.00006
app_57,314.415,21089.7,7750.1,249.9,8.70416,6.41751e+10,1.02377,0.945993,873,7.13057,23,1.00006,1.00006
app_58,36.6884,21173.4,7583.2,416.8,7.94863,9.31854e+10,1.04216,0.945993,970,11.6482,21,1.00006,1.00006
app_59,621.313,22532.9,7483,517,7.67742,1.02017e+11,1.05471,0.945993,980,14.5739,21,1.00006,1.00006
app_6,5.42315,19636.7,7213.6,786.4,803.655,1.9349e+11,1.08005,0.945993,9,0.24066,1974,1.00001,1.00001
app_60,526.865,22058.8,7339.3,660.7,7.21669,1.09052e+11,1.07406,0.945993,1013,15.5789,20,1.00006,1.00006
app_7,5.9531,20931.6,7356.6,643.4,735.718,1.51489e+11,1.06552,0.945993,10,0.205828,1936,1.00001,1.00001
app_8,0.933534,19402.8,7380.8,619.2,1057.64,1.45435e+11,1.06295,0.945993,7,0.137462,2563,1.00001,1.00001
app_9,7.93393,20464.2,7300.1,699.9,661.538,1.74848e+11,1.07024,0.945993,11,0.26452,1701,1.00001,1.00001
