app_id,start_app,end_app,effective_cpu,effective_io,effective_iter,total_bytes,stretch,utilization,Tcomp,Tio,iterations,priority,group_id
app_1,1.55187,24460.3,5334.2,83.3628,761,5.05843e+10,1.48567,0.867077,7,0.0664709,2499,1,1
app_10,7.16487,25875.1,5613.44,121.824,559.003,9.64633e+10,1.40107,0.867077,10,0.172564,1957,1,1
app_11,6.72231,25197,5427.83,157.749,601.009,1.2304e+11,1.44122,0.867077,9,0.204725,2055,1,1
app_12,8.24063,24991.9,5466.69,118.275,606.002,8.70855e+10,1.44046,0.867077,9,0.143705,2045,1,1
app_13,2.11428,24888.1,5565.08,162.13,556.004,1.31025e+11,1.40447,0.867077,10,0.235656,1848,1,1
app_14,4.65274,25939,5632.45,101.334,561.134,7.0679e+10,1.40274,0.867077,10,0.125988,1966,1,1
app_15,4.27475,24510.4,5650.88,171.967,516.005,1.51263e+11,1.3788,0.867077,11,0.293144,1666,1,1
app_16,5.91303,24527.8,5373.36,53.6915,766.013,8.1625e+09,1.48657,0.867077,7,0.010656,2507,1,1
app_17,7.67741,24827.1,5452.24,133.295,609.998,1.06175e+11,1.43926,0.867077,9,0.174058,2024,1,1
app_18,1.84676,24440.4,5500.63,98.9809,614.004,6.30601e+10,1.43789,0.867077,9,0.102704,1994,1,1
app_19,3.52694,25418,5629.91,97.6763,563.995,6.52065e+10,1.40471,0.867077,10,0.115614,1916,1,1
app_2,7.06661,25251.1,5683.65,87.6726,517.001,5.72139e+10,1.39352,0.867077,11,0.110665,1747,1,1
app_20,1.41352,24507.9,5464.11,85.188,683.006,5.77836e+10,1.44878,0.867077,8,0.0846027,2232,1,1
app_21,39.5878,21137.5,7565.4,62.8876,71.8515,5.90275e+10,1.04926,0.867077,105,0.831373,189,1,1
app_22,77.9344,21446.7,7319.14,67.5525,84.6905,6.4037e+10,1.08354,0.867077,87,0.762345,227,1,1
app_23,92.8014,21247.4,7416.3,172.575,74.0249,1.70107e+11,1.05452,0.867077,100,2.29875,196,1,1
app_24,9.4543,20944.1,7387.9,180.114,76.5562,1.756e+11,1.05771,0.867077,97,2.31053,200,1,1
app_25,79.1757,21340.6,7490.3,52.111,73.4531,4.87412e+10,1.06114,0.867077,101,0.667688,196,1,1
app_26,78.3824,21075.5,7484.1,173.401,67.1689,1.69771e+11,1.04522,0.867077,110,2.53389,177,1,1
app_27,72.7648,21284.7,7402,104.711,68.0067,1.01667e+11,1.06615,0.867077,109,1.49511,181,1,1
app_28,46.4737,21608.8,7392.3,24.992,93.9009,1.99333e+10,1.0793,0.867077,79,0.212057,252,1,1
app_29,34.457,21035.3,7473.56,90.1012,80.8684,8.60269e+10,1.05826,0.867077,92,1.07534,214,1,1
app_3,2.99631,25448.4,5524.61,63.169,613.002,3.31679e+10,1.43942,0.867077,9,0.0541075,2119,1,1
app_30,26.6562,21177.8,7429.2,144.589,86.1567,1.4001e+11,1.05691,0.867077,87,1.62802,224,1,1
app_31,37.7744,21121.1,7292.66,165.098,82.5478,1.61935e+11,1.07316,0.867077,89,1.97482,218,1,1
app_32,5.52795,21241.5,7350.4,130.11,87.4506,1.25749e+11,1.07007,0.867077,85,1.44539,231,1,1
app_33,22.6208,21131.9,7458.6,118.46,79.5085,1.13902e+11,1.05645,0.867077,94,1.44179,209,1,1
app_34,65.2405,21372.2,7561.2,36.7071,69.3477,3.38578e+10,1.05332,0.867077,108,0.490692,184,1,1
app_35,12.1922,21065.3,7442.9,144.259,71.8174,1.41224e+11,1.05484,0.867077,103,1.98907,189,1,1
app_36,38.8899,21253.1,7422.7,125.783,69.1249,1.23099e+11,1.06019,0.867077,107,1.78404,184,1,1
app_37,79.8035,21244,7255.8,186.119,92.9935,1.81638e+11,1.07564,0.867077,78,1.95309,249,1,1
app_38,71.8413,21334.2,7486,73.8913,74.5165,7.00761e+10,1.05875,0.867077,101,0.946974,196,1,1
app_39,69.2351,21143,7502.2,92.2471,77.0908,8.79028e+10,1.054,0.867077,98,1.14159,201,1,1
app_4,5.3696,26091,5453.07,171.008,609.002,1.36758e+11,1.43117,0.867077,9,0.224562,2158,1,1
app_40,54.1221,21171.5,7443.9,122.822,65.0081,1.19351e+11,1.05775,0.867077,115,1.83617,171,1,1
app_41,204.238,21261.1,7917.9,8.72601,8.01396,8.20443e+09,1.00932,0.867077,980,1.02555,21,1,1
app_42,140.169,20856.6,7842.59,113.397,7.19832,1.13077e+11,1.00557,0.867077,1104,15.1154,18,1,1
app_43,552.019,20810.3,7887.6,67.1397,9.50552,6.6587e+10,1.00576,0.867077,838,6.6587,24,1,1
app_44,449.107,21168.9,7903,63.6762,7.79775,6.32869e+10,1.00423,0.867077,1016,7.91086,20,1,1
app_45,303.939,20684.9,7866,103.5,7.86863,1.03071e+11,1.00388,0.867077,1008,12.8838,20,1,1
app_46,977.098,21705.6,7820.4,163.815,7.42276,1.63316e+11,1.00204,0.867077,1075,20.4145,19,1,1
app_47,1037.17,21736.2,7807.8,161.472,6.5234,1.61279e+11,1.00388,0.867077,1165,26.8799,17,1,1
app_48,637.954,21027.9,7747,218.304,9.16042,2.17757e+11,1.00442,0.867077,858,21.7757,23,1,1
app_49,118.468,20704.6,7800.4,135.421,7.76735,1.35085e+11,1.00813,0.867077,1011,16.8856,20,1,1
app_5,8.41003,24511.7,5469.81,125.854,607.997,9.52785e+10,1.43753,0.867077,9,0.156708,1998,1,1
app_50,1143.31,21838.7,7844.1,102.495,7.00592,1.02187e+11,1.00676,0.867077,1138,14.5981,18,1,1
app_51,677.158,21652.3,7844.6,129.748,6.83092,1.29465e+11,1.00325,0.867077,1143,18.495,18,1,1
app_52,78.9435,20013.4,7938,20.7348,8.66704,2.02436e+10,1.00525,0.867077,956,2.53046,21,1,1
app_53,185.508,20569.1,7927.9,0.455835,7.48508,1.67323e+07,1.00909,0.867077,1087,0.00239033,19,1,1
app_54,430.519,20563.6,7785.49,183.277,7.7658,1.82758e+11,1.00399,0.867077,1063,24.7006,19,1,1
app_55,1106.56,21592.4,7846.4,118.431,7.19645,1.18268e+11,1.00444,0.867077,1103,16.8954,18,1,1
app_56,761.267,21600.6,7931.5,25.7209,6.49997,2.53737e+10,1.00542,0.867077,1228,4.22895,17,1,1
app_57,960.369,21630.8,7918.5,33.6365,7.18751,3.33462e+10,1.00606,0.867077,1062,4.76374,19,1,1
app_58,847.255,21817.9,7813,181.757,7.68831,1.815e+11,1.00069,0.867077,1008,22.6875,20,1,1
app_59,149.683,20434.2,7836.76,53.044,8.23357,5.27233e+10,1.01401,0.867077,966,5.85814,21,1,1
app_6,3.8698,25549.6,5696.9,118.612,515.998,9.98303e+10,1.38009,0.867077,11,0.19347,1764,1,1
app_60,345.534,21471.3,7881.3,24.5305,8.7988,2.41574e+10,1.01196,0.867077,896,3.01968,23,1,1
app_7,6.70786,24798,5396.05,142.265,674.998,1.09737e+11,1.45302,0.867077,8,0.162574,2247,1,1
app_8,1.28593,25395.3,5606.86,117.866,559.193,9.04507e+10,1.40417,0.867077,10,0.161808,1910,1,1
app_9,6.22801,26202,5518.32,44.2204,616.006,7.48591e+09,1.44775,0.867077,9,0.0121525,2204,1,1
