app_id,start_app,end_app,effective_cpu,effective_io,effective_iter,total_bytes,stretch,utilization,Tcomp,Tio,iterations,priority,group_id
app_1,3.3274,25393.9,5304.7,131.696,663.22,9.78234e+10,1.48079,0.859053,8,0.147547,2283,1,1
app_10,1.05594,25796.2,5393.8,124.21,598.751,9.56425e+10,1.45734,0.859053,9,0.15967,2107,1,1
app_11,2.59892,24705.9,5274,144.896,659.316,1.16506e+11,1.48409,0.859053,8,0.176792,2188,1,1
app_12,7.31182,24964.4,5440.78,179.6,542.348,1.59954e+11,1.42838,0.859053,10,0.294575,1817,1,1
app_13,4.57278,24786.7,5285,124.546,661.84,8.81928e+10,1.48887,0.859053,8,0.133222,2203,1,1
app_14,5.98954,24517.5,5485.18,110.061,546.501,8.23312e+10,1.43691,0.859053,10,0.150514,1800,1,1
app_15,3.80279,25809.7,5346.8,159.637,592.993,1.2346e+11,1.46245,0.859053,9,0.208196,2090,1,1
app_16,7.31205,26229.8,5323.3,60.9348,664.277,2.41141e+10,1.49605,0.859053,8,0.0363165,2406,1,1
app_17,7.16788,25286.6,5292.3,69.7653,662.268,3.62668e+10,1.50134,0.859053,8,0.0547837,2276,1,1
app_18,4.05495,24812.5,5178.7,131.256,739.067,8.87909e+10,1.51875,0.859053,7,0.12015,2490,1,1
app_19,1.69826,25533.1,5324.5,43.9694,666.46,4.97775e+09,1.50109,0.859053,8,0.00747409,2321,1,1
app_2,0.981463,26115.6,5513.3,131.406,551.606,1.10281e+11,1.42258,0.859053,10,0.199784,1954,1,1
app_20,6.54971,25155.4,5470.6,121.214,547.956,9.78198e+10,1.43667,0.859053,10,0.178503,1856,1,1
app_21,70.5296,21452.4,7276.2,168.301,76.1502,1.64631e+11,1.07515,0.859053,95,2.1662,206,1,1
app_22,67.1858,21253.3,7419.9,86.1346,67.6314,8.22576e+10,1.06636,0.859053,110,1.20967,180,1,1
app_23,66.3532,21316.4,7372.5,155.455,77.8658,1.50793e+11,1.06336,0.859053,94,1.93325,209,1,1
app_24,36.8392,21102.1,7427.4,157.092,68.0293,1.53856e+11,1.05523,0.859053,109,2.26258,179,1,1
app_25,5.61732,21293.9,7318.3,98.4834,82.9817,9.43881e+10,1.07923,0.859053,88,1.13721,223,1,1
app_26,70.2918,21342.3,7357.4,135.467,72.3036,1.31443e+11,1.06826,0.859053,101,1.8256,195,1,1
app_27,56.4264,21079.1,7406,89.2946,79.5102,8.59809e+10,1.06781,0.859053,94,1.08837,210,1,1
app_28,4.92753,21445.7,7260.5,158.87,74.8704,1.5598e+11,1.07868,0.859053,96,2.07973,204,1,1
app_29,68.8429,21297.2,7312.7,141.461,72.6879,1.38206e+11,1.07369,0.859053,101,1.89323,194,1,1
app_3,6.54075,25488.3,5561.5,93.7045,507.001,6.6266e+10,1.42152,0.859053,11,0.130702,1742,1,1
app_30,50.0898,21378.5,7325.9,183.05,78.5755,1.7989e+11,1.06584,0.859053,93,2.27709,209,1,1
app_31,74.928,21613.9,7392.6,24.8365,87.7367,1.97556e+10,1.07928,0.859053,84,0.224496,238,1,1
app_32,71.1045,21465.5,7362.2,80.3125,81.821,7.59445e+10,1.07554,0.859053,91,0.926153,218,1,1
app_33,62.6089,20984.9,7331.4,196.719,74.4221,1.94001e+11,1.06307,0.859053,99,2.58668,196,1,1
app_34,43.2629,20975.8,7366.1,142.691,85.1426,1.38445e+11,1.06602,0.859053,87,1.62877,224,1,1
app_35,30.515,21418.3,7431.7,32.6462,77.0075,2.89935e+10,1.07229,0.859053,97,0.376539,204,1,1
app_36,44.947,21294.6,7472.3,39.6426,75.607,3.59559e+10,1.06549,0.859053,99,0.473105,201,1,1
app_37,80.0751,21200.9,7485.3,23.1092,71.2817,1.9935e+10,1.06592,0.859053,106,0.280775,188,1,1
app_38,73.2368,21135.7,7524.1,30.4684,71.1553,2.74616e+10,1.05938,0.859053,106,0.386783,187,1,1
app_39,52.6902,21194.9,7411.5,97.4059,80.3565,9.34565e+10,1.06596,0.859053,93,1.16821,212,1,1
app_4,6.89119,26026.8,5462.6,153.912,545.683,1.23283e+11,1.43218,0.859053,10,0.225793,1929,1,1
app_40,45.402,21283,7342.3,169.744,75.2062,1.65769e+11,1.06552,0.859053,97,2.21026,201,1,1
app_41,69.0728,20758,7902.4,55.2017,7.71465,5.48633e+10,1.00537,0.859053,1039,6.85791,20,1,1
app_42,547.321,21583.7,7852.8,91.9293,7.50096,9.17158e+10,1.00698,0.859053,1039,13.1023,20,1,1
app_43,488.231,21880.9,7920.6,43.0748,7.01804,4.27512e+10,1.0046,0.859053,1104,6.10732,19,1,1
app_44,1038.55,21070.7,7783.4,173.673,7.40857,1.73351e+11,1.00544,0.859053,1097,24.7644,18,1,1
app_45,865.925,21189.9,7787.6,162.612,8.51607,1.62236e+11,1.00631,0.859053,903,18.0263,22,1,1
app_46,964.134,21686.7,7903.5,84.843,7.38036,8.46183e+10,1.00149,0.859053,1078,12.0883,19,1,1
app_47,105.557,20772.3,7869.4,87.1159,8.34858,8.65252e+10,1.00554,0.859053,966,9.61391,21,1,1
app_48,593.912,20855.2,7948.3,45.2901,7.98085,4.48749e+10,1.00085,0.859053,1010,5.60936,20,1,1
app_49,786.133,21155.8,7880.3,54.2402,9.48628,5.37227e+10,1.00832,0.859053,842,5.96918,24,1,1
app_5,0.895824,25697.1,5343.33,46.7651,667.401,7.2845e+09,1.49516,0.859053,8,0.0109049,2341,1,1
app_50,22.9491,20346.2,7842.1,136.731,8.00749,1.36419e+11,1.00269,0.859053,1004,17.0524,20,1,1
app_51,523.724,21167,7892.7,66.7843,7.56608,6.63396e+10,1.00515,0.859053,1034,9.47708,20,1,1
app_52,751.871,21002.4,7858,120.106,7.51307,1.19957e+11,1.00276,0.859053,1041,14.9946,19,1,1
app_53,479.917,20747.8,7860.3,109.09,7.9626,1.08716e+11,1.00389,0.859053,1007,13.5895,20,1,1
app_54,759.123,21025,7783.9,158.769,8.89353,1.58365e+11,1.00727,0.859053,900,17.5961,22,1,1
app_55,876.554,21943.8,7876.9,55.2994,7.91389,5.49345e+10,1.00859,0.859053,992,7.03659,21,1,1
app_56,584.772,21223.1,7878.8,81.2749,6.7169,8.07289e+10,1.00508,0.859053,1189,11.5327,17,1,1
app_57,718.86,21277,7769.5,162.27,9.12312,1.61858e+11,1.00865,0.859053,875,17.9842,23,1,1
app_58,115.498,21249.9,7779.8,151.399,8.38215,1.51083e+11,1.00871,0.859053,910,18.8854,22,1,1
app_59,558.813,20114.7,7846.6,107.346,8.17142,1.06914e+11,1.00584,0.859053,988,13.3642,20,1,1
app_6,5.169,25283.4,5437.5,46.7074,603.72,1.05688e+10,1.46841,0.859053,9,0.017498,2070,1,1
app_60,167.643,21534,7859.2,117.343,7.39718,1.16846e+11,1.003,0.859053,1032,14.6058,20,1,1
app_7,6.95578,25379.7,5432.4,53.4774,604.099,2.04139e+10,1.46713,0.859053,9,0.0337979,2080,1,1
app_8,10.212,25410.9,5454.7,166.493,546.73,1.40359e+11,1.42983,0.859053,10,0.256598,1874,1,1
app_9,1.56334,25314.5,5328.1,58.441,665.692,2.09759e+10,1.49559,0.859053,8,0.0314954,2290,1,1
