app_id,start_app,end_app,effective_cpu,effective_io,effective_iter,total_bytes,stretch,utilization,Tcomp,Tio,iterations,priority,group_id
app_1,8.38939,19970.4,7891.2,64.9141,715.132,1.53408e+10,1.01182,0.965537,11,0.0214257,1789,0.1,1
app_10,0.771576,19955.3,7865.2,86.8543,785.879,6.08728e+10,1.00933,0.965537,10,0.0774463,1960,0.1,1
app_11,2.59531,19539.1,7807.2,144.965,706.473,1.08789e+11,1.01061,0.965537,11,0.154092,1728,0.1,1
app_12,0.608275,18717,7728.8,203.414,1104.08,1.10704e+11,1.02047,0.965537,7,0.100275,2584,0.1,1
app_13,2.17772,20213.2,7723.2,238.173,642.696,1.92478e+11,1.01065,0.965537,12,0.299811,1624,0.1,1
app_14,3.77605,18417.2,7780.6,169.764,865.596,1.15529e+11,1.01315,0.965537,9,0.133559,1986,0.1,1
app_15,0.422736,19439,7873.2,84.5476,789.315,5.05608e+10,1.00962,0.965537,10,0.0640821,1916,0.1,1
app_16,6.9774,20085.9,7730.3,224.064,772.262,1.6227e+11,1.01361,0.965537,10,0.210195,1938,0.1,1
app_17,3.9118,19689.2,7733.7,223.42,774.234,1.59659e+11,1.01351,0.965537,10,0.206278,1905,0.1,1
app_18,6.52173,20055.4,7894.5,61.1234,717.139,7.33139e+09,1.01242,0.965537,11,0.0102251,1798,0.1,1
app_19,6.32717,19714.2,7884.1,72.392,790.32,1.82381e+10,1.01236,0.965537,10,0.0230862,1946,0.1,1
app_2,5.45058,18402.7,7862.2,83.6698,872.365,3.35732e+10,1.0132,0.965537,9,0.0385014,2006,0.1,1
app_20,9.13183,20223.5,7752.4,205.201,706.891,1.50431e+11,1.0123,0.965537,11,0.212773,1783,0.1,1
app_21,42.4583,20166.1,7840.9,107.998,79.4595,7.58559e+10,1.01051,0.965537,99,0.948198,199,0.01,2
app_22,37.3231,20481.3,7603.6,345.958,77.6297,2.39866e+11,1.01996,0.965537,97,3.07521,200,0.01,2
app_23,18.0487,20391.2,7747.1,186.106,73.2203,1.32391e+11,1.01529,0.965537,105,1.81357,188,0.01,2
app_24,111.845,20211.2,7734,188.45,66.0789,1.29309e+11,1.01738,0.965537,117,1.95922,168,0.01,2
app_25,87.1829,20317,7870.1,67.7453,71.5349,4.32815e+10,1.01095,0.965537,110,0.601132,181,0.01,2
app_26,9.92303,20122.8,7895.84,27.0972,82.7921,1.58663e+10,1.01116,0.965537,96,0.19116,208,0.01,2
app_27,83.2698,20286.3,7726.6,221.591,74.4744,1.58073e+11,1.01463,0.965537,104,2.13613,188,0.01,2
app_28,7.01171,20156.1,7657,273.779,90.2167,1.91576e+11,1.01929,0.965537,85,2.12863,228,0.01,2
app_29,84.4742,20225,7787,176.208,82.1322,1.21517e+11,1.01157,0.965537,95,1.48191,206,0.01,2
app_3,9.2464,18589.5,7701.7,254.625,856.537,1.96367e+11,1.01291,0.965537,9,0.229133,1986,0.1,1
app_30,68.4616,20142.2,7876.7,31.9004,78.2485,1.70213e+10,1.01346,0.965537,101,0.21546,197,0.01,2
app_31,12.6459,20254.9,7700.3,237.461,84.1231,1.61494e+11,1.01758,0.965537,92,1.92255,212,0.01,2
app_32,52.6717,20279,7648.91,289.672,78.7824,2.03027e+11,1.01886,0.965537,97,2.60204,200,0.01,2
app_33,56.4861,20258.3,7776.9,172.507,80.3989,1.21595e+11,1.01285,0.965537,96,1.51993,204,0.01,2
app_34,15.653,20197.1,7847.7,87.0655,75.6839,5.83813e+10,1.01188,0.965537,104,0.768175,191,0.01,2
app_35,96.9763,20259.1,7840.7,87.1702,79.9526,5.76985e+10,1.01286,0.965537,98,0.721231,201,0.01,2
app_36,14.7413,20156.4,7870,40.6495,92.7279,2.48125e+10,1.01332,0.965537,84,0.269702,235,0.01,2
app_37,48.0034,20318.3,7817.8,125.668,74.6613,8.90394e+10,1.01178,0.965537,104,1.20324,190,0.01,2
app_38,20.7562,20190,7817.4,81.5578,89.275,5.41074e+10,1.01632,0.965537,87,0.607948,227,0.01,2
app_39,67.8143,20386.4,7638.81,306.126,82.6519,2.14845e+11,1.01863,0.965537,92,2.58849,211,0.01,2
app_4,2.21555,19904.9,7874.5,76.2002,716.795,4.79168e+10,1.00979,0.965537,11,0.0668296,1784,0.1,1
app_40,50.843,20526.9,7740.5,194.154,77.418,1.35786e+11,1.01571,0.965537,99,1.76346,199,0.01,2
app_41,911.215,22733.2,7623.3,301.052,8.0684,1.6036e+11,1.02779,0.965537,925,20.045,22,0.001,3
app_42,7.53374,20998.6,7738.8,72.4197,9.86718,4.04709e+10,1.02837,0.965537,787,4.04709,26,0.001,3
app_43,524.539,21466.9,7475.3,377.681,10.3139,1.61704e+11,1.04753,0.965537,726,16.1704,27,0.001,3
app_44,972.67,22677.3,7480.7,316.594,7.6067,1.54371e+11,1.0478,0.965537,969,19.2964,21,0.001,3
app_45,395.097,21370.8,7772.7,148.221,7.43757,6.72715e+10,1.02041,0.965537,1021,9.61021,20,0.001,3
app_46,743.854,22138,7769.1,97.8254,8.30188,5.14081e+10,1.02295,0.965537,928,6.42601,22,0.001,3
app_47,581.212,21390,7663.5,196.502,9.08052,1.01254e+11,1.0303,0.965537,872,11.2505,23,0.001,3
app_48,691.954,22583,7370.5,424.759,7.19885,2.01825e+11,1.05648,0.965537,1014,25.2281,20,0.001,3
app_49,77.9439,21650.3,7681.4,110.811,8.54669,5.81963e+10,1.03365,0.965537,887,7.27454,23,0.001,3
app_5,3.90207,18707.8,7834.8,100.866,978.619,5.38826e+10,1.01411,0.965537,8,0.0550384,2289,0.1,1
app_50,740.087,21398.4,7723.9,145.568,8.1446,6.72784e+10,1.0268,0.965537,960,8.4098,21,0.001,3
app_51,629.959,21826.9,7497.6,342.868,8.69926,1.65491e+11,1.04397,0.965537,879,18.3879,23,0.001,3
app_52,758.539,21500.7,7682.1,66.9768,8.24444,2.88276e+10,1.03749,0.965537,920,3.60345,22,0.001,3
app_53,572.42,21775,7727.3,128.731,6.84825,5.91378e+10,1.02743,0.965537,1149,8.44826,18,0.001,3
app_54,359.642,21036.7,7607.8,131.208,8.23976,6.09402e+10,1.0432,0.965537,947,6.77113,21,0.001,3
app_55,924.726,21492.7,7671.6,139.634,8.07041,6.72658e+10,1.03374,0.965537,962,8.40823,21,0.001,3
app_56,268.621,21468.5,7717.3,28.1347,8.26354,1.45133e+10,1.03469,0.965537,929,1.61258,22,0.001,3
app_57,292.199,22249.1,7643.1,189.621,7.96732,9.51145e+10,1.03383,0.965537,939,11.8893,22,0.001,3
app_58,859.077,21450.7,7324.9,546.897,7.42858,2.54457e+11,1.0555,0.965537,1027,31.8071,19,0.001,3
app_59,928.845,21879.5,7328.1,449.724,7.52625,2.03665e+11,1.06217,0.965537,984,25.4581,20,0.001,3
app_6,8.69341,18543.3,7868.2,78.0276,875.674,1.75337e+10,1.01449,0.965537,9,0.0200157,2026,0.1,1
app_60,151.723,21203.1,7440,401.969,8.18295,1.86509e+11,1.04897,0.965537,931,23.3137,21,0.001,3
app_7,4.84761,19794.3,7668.9,282.669,958.86,2.15066e+11,1.01472,0.965537,8,0.224261,2371,0.1,1
app_8,5.61576,18410,7867.4,86.9707,786.24,6.0263e+10,1.00912,0.965537,10,0.0766705,1809,0.1,1
app_9,9.44468,19109.1,7739,210.065,862.452,1.69809e+11,1.01153,0.965537,9,0.196766,2052,0.1,1
