app_id,start_app,end_app,effective_cpu,effective_io,effective_iter,total_bytes,stretch,utilization,Tcomp,Tio,iterations,priority,group_id
app_1,2.91986,18931.9,7802.9,149.183,779.796,9.27259e+10,1.01322,0.966307,10,0.118879,1844,0.1,1
app_10,0.617093,18670.2,7742.8,194.4,970.568,1.39667e+11,1.01491,0.966307,8,0.143838,2267,0.1,1
app_11,8.62248,19016.4,7854,85.0102,873.316,3.57286e+10,1.01398,0.966307,9,0.0409262,2073,0.1,1
app_12,4.8507,20161.5,7795.7,156.975,778.106,1.16745e+11,1.01107,0.966307,10,0.150058,1964,0.1,1
app_13,5.80801,18488.3,7827.2,108.275,980.883,6.98999e+10,1.01303,0.966307,8,0.0712537,2266,0.1,1
app_14,7.74508,18797.4,7734.7,222.563,773.731,1.60133e+11,1.01332,0.966307,10,0.20689,1816,0.1,1
app_15,1.52956,18386.7,7769.1,174.517,862.433,1.29631e+11,1.01282,0.966307,9,0.150384,1982,0.1,1
app_16,1.55899,20152.9,7863.3,89.0953,786.161,6.74504e+10,1.00873,0.966307,10,0.0858148,1983,0.1,1
app_17,0.574637,18935.6,7840.8,93.7597,981.6,3.62588e+10,1.01561,0.966307,8,0.0369234,2321,0.1,1
app_18,6.27869,19432.6,7807.2,145.292,780.464,8.63485e+10,1.01349,0.966307,10,0.110703,1893,0.1,1
app_19,6.31181,20165.4,7838.7,120.116,655.161,6.89906e+10,1.01167,0.966307,12,0.105329,1649,0.1,1
app_2,5.18283,19261.5,7736.5,204.87,966.675,1.71063e+11,1.01169,0.966307,8,0.177084,2327,0.1,1
app_20,2.98717,20109.4,7692.3,259.414,854.536,2.12047e+11,1.0121,0.966307,9,0.248296,2147,0.1,1
app_21,24.0771,20144.6,7852,102.531,70.9471,6.58145e+10,1.01038,0.966307,111,0.926965,179,0.01,2
app_22,88.9816,20377.7,7733.3,238.223,78.851,1.55607e+11,1.01408,0.966307,97,1.96971,202,0.01,2
app_23,57.2426,19878.5,7949.2,10.9282,75.1665,4.23366e+09,1.00585,0.966307,107,0.0564489,186,0.01,2
app_24,11.6895,20134.5,7798,155.86,79.4513,1.00523e+11,1.01285,0.966307,98,1.25653,201,0.01,2
app_25,66.3664,20498,7699,252.687,80.1521,1.73258e+11,1.01623,0.966307,96,2.13899,204,0.01,2
app_26,41.9058,20276.1,7898.7,36.0294,90.5881,2.04686e+10,1.01021,0.966307,87,0.224929,229,0.01,2
app_27,32.1449,20082.3,7874.4,71.0737,78.7283,4.43845e+10,1.01026,0.966307,99,0.561829,199,0.01,2
app_28,73.1755,20202.7,7913.5,21.3852,90.5652,9.39448e+09,1.00973,0.966307,87,0.103236,228,0.01,2
app_29,49.9278,20209.1,7616.8,330.963,111.064,2.20692e+11,1.02073,0.966307,69,1.98822,280,0.01,2
app_3,5.39493,20164.2,7702.5,258.337,766.573,2.16766e+11,1.01019,0.966307,10,0.282984,1937,0.1,1
app_30,47.7889,20365.3,7647.9,301.239,78.6074,2.04196e+11,1.01884,0.966307,97,2.58476,201,0.01,2
app_31,76.0144,20233.3,7777,193.979,75.2509,1.27754e+11,1.01205,0.966307,103,1.68098,190,0.01,2
app_32,58.8202,20156.8,7832,131.667,79.667,8.77715e+10,1.01013,0.966307,98,1.11103,200,0.01,2
app_33,32.2012,20301.1,7728.2,207.068,91.2965,1.36302e+11,1.01723,0.966307,85,1.49783,230,0.01,2
app_34,44.8675,20147.3,7938.7,8.53864,91.1444,8.67037e+08,1.00761,0.966307,86,0.00952788,231,0.01,2
app_35,40.6304,20212,7659.3,293.981,76.8861,1.96342e+11,1.01838,0.966307,101,2.54989,193,0.01,2
app_36,106.64,20296.7,7877.9,85.8959,74.4638,5.5687e+10,1.00837,0.966307,106,0.752526,188,0.01,2
app_37,78.5427,20139.7,7804,141.319,85.5895,9.38986e+10,1.01293,0.966307,91,1.09184,216,0.01,2
app_38,35.5141,20231.2,7871.1,78.3003,71.8817,5.23492e+10,1.00966,0.966307,109,0.727072,182,0.01,2
app_39,35.5133,20018.5,7772,197.836,78.3816,1.30259e+11,1.01237,0.966307,99,1.66998,198,0.01,2
app_4,4.57673,19673.9,7896.5,63.203,659.279,2.5828e+10,1.0098,0.966307,12,0.0391334,1621,0.1,1
app_40,92.8768,20293.3,7820.7,130.432,73.5116,8.67723e+10,1.0117,0.966307,106,1.1726,186,0.01,2
app_41,201.085,21207.3,7758.7,52.8712,7.72858,3.12264e+10,1.02697,0.966307,963,3.9033,21,0.001,3
app_42,84.8272,21096,7468.8,227.53,7.2298,1.20858e+11,1.05407,0.966307,1058,17.2654,19,0.001,3
app_43,798.007,22264.9,7763.7,160.946,8.13751,7.37121e+10,1.02075,0.966307,943,9.21401,22,0.001,3
app_44,311.147,21482.8,7643,194.563,6.23189,9.2453e+10,1.0342,0.966307,1170,15.4088,17,0.001,3
app_45,235.076,22076.6,7765.7,76.7865,8.0324,3.48726e+10,1.02557,0.966307,940,4.35907,22,0.001,3
app_46,503.703,21549.9,7638.4,300.654,6.87357,1.39417e+11,1.02857,0.966307,1123,19.9167,18,0.001,3
app_47,633.233,21971.6,7656.2,152.833,7.23945,5.87405e+10,1.03695,0.966307,1041,7.34257,20,0.001,3
app_48,667.62,22397,7486.7,283.964,6.90778,1.31319e+11,1.05014,0.966307,1071,18.7599,19,0.001,3
app_49,252.51,20986.4,7818.7,67.0855,7.97447,2.5082e+10,1.01992,0.966307,956,3.13525,21,0.001,3
app_5,7.5938,18560.2,7686.3,258.95,853.703,2.09232e+11,1.01323,0.966307,9,0.24529,1981,0.1,1
app_50,457.556,21646.9,7334,382.427,9.00353,1.85473e+11,1.0639,0.966307,841,20.6082,24,0.001,3
app_51,469.149,21165.9,7682.5,72.621,8.0912,3.69252e+10,1.03635,0.966307,951,4.61565,21,0.001,3
app_52,660.417,21570.6,7409.8,341.191,8.02018,1.65775e+11,1.05603,0.966307,939,20.7219,21,0.001,3
app_53,900.874,21804.5,7756.8,151.426,7.94429,7.34145e+10,1.02168,0.966307,971,9.17681,21,0.001,3
app_54,706.571,22486.1,7377.4,398.227,8.22425,1.94267e+11,1.05657,0.966307,882,24.2834,23,0.001,3
app_55,480.97,21026.3,7546.9,340.498,6.57001,1.58688e+11,1.03821,0.966307,1160,22.6698,17,0.001,3
app_56,1012.56,22641.3,7581.7,268.389,6.95743,1.24659e+11,1.0381,0.966307,1052,17.8085,19,0.001,3
app_57,377.144,20753.4,7666.02,191.833,8.60324,1.04452e+11,1.02954,0.966307,908,11.6916,22,0.001,3
app_58,927.442,22143.9,7551.6,315.457,7.55814,1.40036e+11,1.04009,0.966307,1008,17.5045,20,0.001,3
app_59,647.922,22458.8,7436.76,484.931,6.6189,2.13503e+11,1.04572,0.966307,1137,32.9186,18,0.001,3
app_6,9.35365,18723.6,7756.2,181.273,860.961,1.43061e+11,1.01275,0.966307,9,0.166156,2018,0.1,1
app_60,149.723,21389.8,7664.1,194.449,7.54238,1.01097e+11,1.03024,0.966307,1027,12.6371,20,0.001,3
app_7,4.3484,20085.1,7776.4,166.307,867.835,1.07354e+11,1.01475,0.966307,9,0.123679,2174,0.1,1
app_8,0.466333,18575.2,7770.1,173.243,860.703,1.25758e+11,1.01319,0.966307,9,0.14606,1999,0.1,1
app_9,0.36384,18726.3,7862.9,72.1069,875.626,8.1812e+09,1.01638,0.966307,9,0.00933927,2048,0.1,1
