app_id,Tcomp,Tio,iter,witer,alpha_io,compute_size,io_size,mu,desyn_time
1,0.9896683133071292,0.01683459611530254,19871,1.0065029094224318,0.01672582956065457,1e9,16834596.11530254,10,0.2971002448200927
2,18.356741828149513,0.2067475228579333,1078,18.563489351007448,0.011137320088300803,18e9,206747522.85793328,10,14.896010857926658
3,1.435629119807423,0.03644439014546943,13587,1.4720735099528923,0.02475718087382449,1e9,36444390.14546943,10,0.09697296595189218
4,19.623196160652828,0.10379033061217559,1014,19.726986491265002,0.005261337338986538,19e9,103790330.61217558,10,18.54874100228201
5,12.885889436490476,0.2499644358059491,1523,13.135853872296426,0.019029172997510668,12e9,249964435.8059491,10,9.805752251317784
6,19.169254930953468,0.3444870650527498,1025,19.513741996006218,0.017653562557261148,19e9,344487065.0527498,10,8.620265224825749
7,2.101209002946969,0.05013379479542879,9297,2.151342797742398,0.023303489731175707,2e9,50133794.79542879,10,1.8950703076313684
8,14.554808726081905,0.3800312143082403,1340,14.934839940390146,0.025445951602097495,14e9,380031214.3082403,10,1.7423784475145028
9,8.976653491558368,0.10788227202027158,2202,9.08453576357864,0.011875375344196333,8e9,107882272.02027158,10,1.6902851591063497
10,12.143807991586062,0.01946591144454821,1645,12.16327390303061,0.001600384205743987,12e9,19465911.44454821,10,8.12175773616655
11,12.083325445212308,0.08663981391500204,1644,12.169965259127311,0.00711915047169287,12e9,86639813.91500205,10,1.8871097861340125
12,7.853460663929922,0.03227595125496388,2537,7.885736615184886,0.004092953243304227,7e9,32275951.254963882,10,7.690285080929517
13,11.764117873840792,0.20484925707525928,1671,11.968967130916052,0.017115032135574176,11e9,204849257.07525927,10,3.2240902607305117
14,22.527209186949992,0.4085758019636105,872,22.935784988913603,0.017813900948282453,22e9,408575801.9636105,10,4.091826134104382
15,3.677355876039532,0.07407057807469752,5332,3.7514264541142293,0.019744643532452446,3e9,74070578.07469752,10,0.09244141888092929
16,4.06089857533735,0.0048725161910373885,4920,4.065771091528387,0.0011984236400298014,4e9,4872516.1910373885,10,1.4162624040139289
17,28.98126012060798,0.6816801803900377,675,29.66294030099802,0.022980870185923624,28e9,681680180.3900378,10,11.165386515050491
18,14.997713879036308,0.12035864771601448,1323,15.118072526752321,0.00796124290996969,14e9,120358647.71601449,10,5.487653285789381
19,9.131734651658748,0.19946408810750146,2144,9.331198739766249,0.02137604113579282,9e9,199464088.10750148,10,1.4811500798981863
20,14.441863637538635,0.31606266622947093,1356,14.757926303768105,0.021416468663945788,14e9,316062666.2294709,10,4.4584208571084085
21,235.65131953988248,1.355732286063406,85,237.0070518259459,0.00572021919018272,235e9,1355732286.063406,100,228.54859491317686
22,171.1101351960081,2.302367959893417,116,173.4125031559015,0.013276827898756179,171e9,2302367959.893417,100,103.74257301437328
23,85.18288576236613,1.0614169914578178,232,86.24430275382394,0.012307096904563428,85e9,1061416991.4578178,100,38.65189436623639
24,47.15500320466353,0.7122614311459617,418,47.86726463580949,0.014879927578170388,47e9,712261431.1459618,100,22.250611736559414
25,111.77395524839257,1.7284574910145982,177,113.50241273940716,0.015228376642380317,111e9,1728457491.0145981,100,30.846250877677853
26,109.36532530741206,0.8150891349817498,182,110.18041444239381,0.0073977679164377,109e9,815089134.9817499,100,84.24376512484115
27,191.1073922847718,0.5331452383696237,105,191.64053752314143,0.002782006590360581,191e9,533145238.36962366,100,16.605823646437457
28,232.636733428997,3.594248554445755,85,236.23098198344275,0.015214975293535686,232e9,3594248554.445755,100,143.07997723423748
29,122.58663095725495,0.16773569692854667,163,122.7543666541835,0.0013664336471311198,122e9,167735696.92854667,100,42.711981916779095
30,155.2196283931475,4.033130610297217,126,159.2527590034447,0.02532534215127776,155e9,4033130610.297217,100,68.70862751549377
31,128.19656918426278,3.3687936066781816,153,131.56536279094095,0.02560547499140209,128e9,3368793606.6781816,100,21.115490592570843
32,138.86596626324248,1.8088271167106609,143,140.67479337995314,0.012858217689541158,138e9,1808827116.710661,100,92.7319641667037
33,116.8968888593215,1.986585384883599,169,118.8834742442051,0.016710357747476697,116e9,1986585384.883599,100,83.13598944067299
34,28.92779259363946,0.5837199182715489,678,29.511512511911008,0.019779396872185266,28e9,583719918.2715489,100,23.502069824557427
35,19.61701843624038,0.13177991599280153,1013,19.74879835223318,0.006672806802845295,19e9,131779915.99280153,100,5.362764686696826
36,270.4109638329827,1.163601981569535,74,271.5745658145522,0.004284650066840626,270e9,1163601981.569535,100,0.7627762006403135
37,116.77357561489431,2.2680215569669513,169,119.04159717186127,0.019052344817690837,116e9,2268021556.9669514,100,43.49791491782747
38,222.9613450704167,4.501760621432696,88,227.46310569184942,0.019791168364382383,222e9,4501760621.432696,100,24.64335203729669
39,80.74013459906088,1.5760741642634648,243,82.31620876332434,0.01914658349724287,80e9,1576074164.2634647,100,24.777139895180188
40,9.777907633900194,0.11775662535048537,2022,9.89566425925068,0.011899820190484326,9e9,117756625.35048537,100,7.284090849052013
41,1184.537764802801,30.68901212740921,17,1215.22677693021,0.02525373264480961,1184e9,30689012127.40921,1000,651.4498642881094
42,1482.476070038515,35.45303761282369,14,1517.9291076513387,0.023356188002534237,1482e9,35453037612.82369,1000,15.711525103259898
43,334.7655179234144,6.4399915328631945,59,341.2055094562776,0.018874230791658484,334e9,6439991532.863194,1000,5.794398167575433
44,1457.904686701443,7.594851129554624,14,1465.4995378309977,0.005182431610176643,1457e9,7594851129.554625,1000,870.2168124322912
45,2271.6551249057534,25.544910888517336,9,2297.2000357942707,0.011120020237891486,2271e9,25544910888.517338,1000,123.18727644161135
46,2213.3975539026655,2.4041924360700238,10,2215.8017463387355,0.0010850214555713634,2213e9,2404192436.0700235,1000,618.2129093301888
47,1036.3056362759976,3.035494012617204,20,1039.3411302886147,0.002920594522968871,1036e9,3035494012.617204,1000,701.5576788807215
48,1419.272041896725,30.829320986217752,14,1450.1013628829428,0.02126011448256697,1419e9,30829320986.21775,1000,969.5818151023016
49,472.26504518920075,5.952240447497016,42,478.21728563669774,0.012446727933667669,472e9,5952240447.497016,1000,418.3952791001491
50,660.1460499139863,15.392283094581826,30,675.5383330085681,0.022785210464713334,660e9,15392283094.581825,1000,140.7248501194028
51,883.7411815591037,13.164077635159028,23,896.9052591942627,0.014677222036790167,883e9,13164077635.159029,1000,293.52802194525503
52,1804.3077348574031,39.25205674883569,11,1843.5597916062388,0.02129144762624517,1804e9,39252056748.83569,1000,734.9385900993968
53,793.6719597432839,0.44343094665382105,26,794.1153906899377,0.0005583961120166208,793e9,443430946.65382105,1000,595.7781137186023
54,1485.9325969282156,1.5875351227161478,14,1487.5201320509318,0.0010672360585314024,1485e9,1587535122.716148,1000,1389.200987813582
55,552.7425686098663,2.2365581997453656,37,554.9791268096117,0.00402998615930402,552e9,2236558199.7453656,1000,300.6769552466892
56,947.8484016175265,6.855266709541245,21,954.7036683270678,0.00718051782659824,947e9,6855266709.5412445,1000,527.7531276577791
57,3059.4959957293463,32.30063623362084,7,3091.7966319629672,0.010447205970695853,3059e9,32300636233.620842,1000,1068.5841942151735
58,1725.202744866543,37.40178550176409,12,1762.6045303683072,0.02121961271366343,1725e9,37401785501.76409,1000,37.20181709314954
59,2508.6539234192833,8.008365997623322,8,2516.662289416907,0.003182137719192671,2508e9,8008365997.6233225,1000,296.0156529749381
60,1288.7380134343723,6.676357899375308,16,1295.4143713337476,0.005153839610796804,1288e9,6676357899.375308,1000,911.2326076086949
