app_id,Tcomp,Tio,iter,witer,alpha_io,compute_size,io_size,mu,desyn_time
1,7.133793378677198,0.0896477279574863,2769,7.223441106634684,0.012410667801409142,7e9,89647727.9574863,10,5.012827889798835
2,18.14220912880373,0.18093337011918076,1092,18.323142498922913,0.009874581837139374,18e9,180933370.11918077,10,6.099212777570081
3,14.869655321408377,0.27274529154902827,1321,15.142400612957406,0.018012024547523802,14e9,272745291.5490283,10,11.723024519990167
4,7.740805409140032,0.10265291708260638,2550,7.843458326222638,0.013087711161722127,7e9,102652917.08260638,10,3.0780280924359906
5,7.551132578447045,0.1333024520962131,2603,7.684435030543258,0.017347072565045706,7e9,133302452.0962131,10,1.874333162189671
6,22.22355801119681,0.3476879525853836,887,22.571245963782196,0.015404021255330053,22e9,347687952.5853836,10,6.410876173474044
7,26.16848600371776,0.37291444287618514,754,26.541400446593943,0.014050292622145386,26e9,372914442.8761851,10,6.076933793301862
8,12.468150494832496,0.11185981200499016,1590,12.580010306837487,0.008891869662792894,12e9,111859812.00499016,10,8.190493610750591
9,27.709217098945064,0.6571728110304194,706,28.366389909975485,0.02316730514937025,27e9,657172811.0304193,10,11.537314412331002
10,10.461176890272487,0.07967882690033255,1898,10.54085571717282,0.007559047295422363,10e9,79678826.90033256,10,7.442625953020767
11,7.6970827600825285,0.06968627755424185,2576,7.76676903763677,0.008972363825491792,7e9,69686277.55424185,10,3.9597351042929017
12,6.819153649153478,0.12774633871986904,2879,6.946899987873347,0.018388970467815242,6e9,127746338.71986905,10,5.220447973322842
13,4.370465105483511,0.07388065762550707,4501,4.444345763109018,0.016623517062683318,4e9,73880657.62550707,10,1.7481878439710696
14,9.782549307642057,0.0805292913567914,2028,9.863078598998849,0.008164721648367025,9e9,80529291.3567914,10,7.8479538316364
15,11.067157585669692,0.07087794343025927,1796,11.138035529099952,0.006363594661291838,11e9,70877943.43025927,10,10.739472197049489
16,7.4836373256182265,0.048265135201403235,2656,7.53190246081963,0.006408093499945693,7e9,48265135.20140324,10,6.112862414136762
17,24.061578587793086,0.36421277503678995,819,24.425791362829877,0.014910991812983113,24e9,364212775.03678995,10,20.196309016763287
18,22.689588637694733,0.2323121220854731,873,22.921900759780208,0.01013494144835922,22e9,232312122.08547312,10,3.1414800193113046
19,13.385868686985573,0.16676577015178196,1476,13.552634457137355,0.012305044504757265,13e9,166765770.15178195,10,3.0975505399889967
20,5.957911053380408,0.13451924167269633,3283,6.092430295053104,0.02207973422066437,5e9,134519241.67269632,10,5.685071120930777
21,62.70394328806941,0.3820387812949187,318,63.08598206936433,0.006055842657325351,62e9,382038781.2949187,100,10.480680509616178
22,181.74928328925571,0.19292416442651325,110,181.94220745368222,0.001060359589600048,181e9,192924164.42651325,100,70.63181886762212
23,77.58867589669242,1.8731762193825707,252,79.461852116075,0.023573276603801065,77e9,1873176219.3825707,100,65.19384119514346
24,42.432611588435435,1.0608226940483843,460,43.49343428248382,0.024390409990585893,42e9,1060822694.0483843,100,39.72140464824664
25,186.55718369095132,2.1942252137083966,106,188.7514089046597,0.011624947471606542,186e9,2194225213.7083964,100,63.78529430168235
26,223.03144359629601,5.083665003391015,88,228.11510859968703,0.02228552520960898,223e9,5083665003.391015,100,199.37945801863575
27,2.5619939305184407,0.06198789804834293,7623,2.6239818285667837,0.02362360035176031,2e9,61987898.048342936,100,1.3840258255255968
28,176.32406883684234,3.392961978432869,112,179.71703081527522,0.018879468256519188,176e9,3392961978.432869,100,155.64611688857883
29,63.41900555082499,0.8906985012649763,311,64.30970405208997,0.013850141504982247,63e9,890698501.2649763,100,39.35825693975306
30,92.89896766144301,2.1751402689720036,211,95.07410793041501,0.022878366322027388,92e9,2175140268.9720035,100,52.15103616933041
31,128.13344637879783,2.5990356097253935,153,130.73248198852323,0.019880565030147276,128e9,2599035609.7253933,100,117.58879116345321
32,170.725556109613,0.902838793134181,117,171.62839490274717,0.005260427877600163,170e9,902838793.134181,100,108.695657092571
33,68.52864987599729,1.3362700520195858,287,69.86491992801687,0.01912648083467883,68e9,1336270052.0195858,100,37.20947109157283
34,115.15967827783703,2.40283344146187,171,117.5625117192989,0.020438772584232087,115e9,2402833441.4618697,100,12.0064577569216
35,70.63690471844114,0.11262707213861689,283,70.74953179057977,0.001591912614658647,70e9,112627072.13861689,100,62.79712586453417
36,67.74215971787645,1.184278800232913,291,68.92643851810936,0.01718177851190965,67e9,1184278800.232913,100,5.925948436472723
37,35.34373396252553,0.6974171132337688,555,36.0411510757593,0.01935057822564497,35e9,697417113.2337687,100,15.978075329479617
38,164.60707453326577,4.032329832709726,119,168.6394043659755,0.023910958698353208,164e9,4032329832.709726,100,89.20656837716894
39,35.15057484642559,0.09296724026386526,568,35.24354208668946,0.002637851781049456,35e9,92967240.26386526,100,1.4263675746246527
40,132.04294290451776,0.7272605723987727,151,132.77020347691652,0.005477588746222073,132e9,727260572.3987727,100,32.25114098195083
41,677.4940715255041,9.705447080968904,30,687.199518606473,0.01412318667022635,677e9,9705447080.968904,1000,68.61038005155676
42,858.6492421448388,0.07153746115366683,24,858.7207796059924,8.33070106752167e-05,858e9,71537461.15366682,1000,291.87193625721534
43,2476.281793399187,30.87126980537281,8,2507.1530632045597,0.012313276863086364,2476e9,30871269805.372807,1000,1615.114003769796
44,287.5807095806304,1.295410268272305,70,288.8761198489027,0.004484310675973743,287e9,1295410268.272305,1000,137.81797802813185
45,654.737254490566,13.639783547645127,30,668.3770380382111,0.02040731917972523,654e9,13639783547.645126,1000,466.6189474127209
46,683.5344281072618,5.6648754997303055,30,689.1993036069921,0.008219502646161458,683e9,5664875499.730306,1000,552.9515249224615
47,732.1184391464674,15.051467523946927,27,747.1699066704143,0.02014463830726297,732e9,15051467523.946928,1000,56.89220049197559
48,804.6965323346948,17.143410158937492,25,821.8399424936323,0.02085979187981645,804e9,17143410158.937492,1000,708.8679754971239
49,2793.213082966397,67.57591734529059,7,2860.7890003116877,0.023621426584738717,2793e9,67575917345.29059,1000,1464.2119707979275
50,2171.9596904712566,32.17933553631288,10,2204.1390260075696,0.01459950355064507,2171e9,32179335536.312878,1000,51.82647690949561
51,1064.649915039336,9.267690623363157,19,1073.9176056626993,0.008629796712983577,1064e9,9267690623.363157,1000,1041.1801652326649
52,1240.207940297667,21.514955162035243,16,1261.7228954597022,0.01705204466008868,1240e9,21514955162.035244,1000,283.73845280727846
53,1453.9175569259455,1.295194659078337,14,1455.2127515850239,0.0008900380083033257,1453e9,1295194659.078337,1000,1411.3039440469176
54,535.1897507170214,3.260708753572892,38,538.4504594705943,0.006055726569123607,535e9,3260708753.5728917,1000,78.49060893455898
55,2065.080524315207,22.15265298119446,10,2087.2331772964017,0.010613405929992378,2065e9,22152652981.19446,1000,1757.2291707111717
56,642.7917144591875,10.988382014702681,31,653.7800964738901,0.01680745876781448,642e9,10988382014.70268,1000,11.244086054429157
57,419.8105678037391,5.180149932048512,48,424.9907177357876,0.012188854287563425,419e9,5180149932.048512,1000,76.7493888480982
58,1082.5650355505302,0.17060865736017758,19,1082.7356442078903,0.00015757184892993133,1082e9,170608657.36017758,1000,797.9146410178291
59,1957.803802862145,10.101080120744395,11,1967.9048829828894,0.005132910745885995,1957e9,10101080120.744396,1000,1820.706402398122
60,1295.398225094166,21.572653579000136,16,1316.9708786731662,0.0163805091884297,1295e9,21572653579.000137,1000,1266.0961425788807
