app_id,Tcomp,Tio,iter,witer,alpha_io,compute_size,io_size,mu,desyn_time
1,17.65057948332269,0.4349204540314269,1106,18.08549993735412,0.024048019437556953,17e9,434920454.03142685,10,2.2037075221665168
2,1.7269653765945696,0.04280184503207089,11301,1.7697672216266405,0.024185014000163575,1e9,42801845.03207089,10,0.445657825104102
3,12.586087412022014,0.28342773201249455,1555,12.869515144034509,0.022023186486856396,12e9,283427732.01249456,10,1.803313824149318
4,10.73996579395205,0.22643544734921683,1824,10.966401241301268,0.020648108925325818,10e9,226435447.34921685,10,8.284986268834224
5,31.656882925336284,0.024858644927702706,632,31.681741570263988,0.0007846363140287295,31e9,24858644.927702706,10,0.2610517276783626
6,19.906188697134116,0.0019884539324421095,1005,19.908177151066557,9.988126574087574e-05,19e9,1988453.9324421096,10,12.279495340506392
7,2.8778985151152376,0.06154526580026789,6805,2.9394437809155054,0.0209377250893022,2e9,61545265.80026789,10,0.005914406488636757
8,2.9924810971285134,0.0678868098890953,6536,3.060367907017609,0.022182564956790565,2e9,67886809.8890953,10,2.0497739094035365
9,7.0554649269046035,0.042410965916470894,2818,7.097875892821074,0.005975163070879578,7e9,42410965.91647089,10,0.33997266178447894
10,17.924021489648105,0.4274993030099865,1090,18.351520792658093,0.023295034119516486,17e9,427499303.0099865,10,3.0525489682796167
11,22.938744101770286,0.5615811244707936,852,23.50032522624108,0.023896738409548365,22e9,561581124.4707936,10,5.646198627907675
12,16.266079329237716,0.35759434660900946,1204,16.623673675846725,0.02151115051834627,16e9,357594346.60900944,10,1.8416551091937865
13,4.694661589532269,0.02957065599931923,4234,4.724232245531589,0.0062593569626659675,4e9,29570655.99931923,10,1.7101549886344605
14,10.957012410711236,0.16877767306687294,1798,11.12579008377811,0.01516994944142962,10e9,168777673.06687295,10,10.798714136431773
15,2.509603567003408,0.02263610583365849,7899,2.5322396728370666,0.00893916404378006,2e9,22636105.83365849,10,0.6123238162441222
16,18.351093473606376,0.08905434566648207,1085,18.44014781927286,0.00482937265683989,18e9,89054345.66648208,10,12.40055359709044
17,6.883950569771979,0.1688352574643753,2836,7.052785827236355,0.023938803984713323,6e9,168835257.46437532,10,1.4065400325169541
18,16.639339632387507,0.23616967277849377,1186,16.875509305166002,0.013994817490112521,16e9,236169672.77849376,10,0.5059848451556836
19,15.175679258888689,0.28866445467299096,1294,15.46434371356168,0.01866645361871015,15e9,288664454.672991,10,1.5997481886944744
20,28.380324752572257,0.027503059469770056,705,28.407827812042026,0.0009681507383014888,28e9,27503059.469770055,10,23.06317277983721
21,118.0579196654959,2.1509263372197607,167,120.20884600271566,0.017893245037650298,118e9,2150926337.219761,100,29.77324768783068
22,158.17363499717055,1.8575619480790522,125,160.0311969452496,0.011607498934814362,158e9,1857561948.0790522,100,38.6227546596533
23,135.12204129209096,3.3276012348078527,145,138.4496425268988,0.02403474053146325,135e9,3327601234.8078527,100,138.40447472750333
24,250.8305654642852,5.9054943182792945,78,256.7360597825645,0.023002200482786835,250e9,5905494318.279295,100,182.07380904736777
25,239.9406898021374,2.4748541579282053,83,242.4155439600656,0.010209139717277788,239e9,2474854157.9282055,100,160.69944226933873
26,153.50835051269448,3.601232881404065,128,157.10958339409854,0.022921790024550068,153e9,3601232881.4040647,100,121.13063729745488
27,37.818163677935146,0.5690229728998604,522,38.387186650835005,0.014823252823282451,37e9,569022972.8998604,100,7.119162097965822
28,86.64546703250507,1.1758621786841084,228,87.82132921118918,0.013389255084678149,86e9,1175862178.6841083,100,64.71201011835822
29,87.28289399081666,0.7854247091430029,228,88.06831869995966,0.008918357029374772,87e9,785424709.1430029,100,80.68726414862871
30,131.80055799263258,3.2871024076245887,149,135.08766040025716,0.024333106353941498,131e9,3287102407.6245885,100,0.7803549276069202
31,53.299296041509834,1.3907326182114117,366,54.69002865972124,0.02542936349264843,53e9,1390732618.2114117,100,32.78458301550035
32,54.21968450495317,1.1866742341768193,361,55.40635873912999,0.021417654240085383,54e9,1186674234.1768193,100,32.02255917808332
33,100.89925230128952,0.29884393875604426,198,101.19809624004557,0.002953058899914239,100e9,298843938.75604427,100,65.13806326415029
34,64.79313518280583,0.11848016793246355,309,64.91161535073829,0.0018252537283547357,64e9,118480167.93246354,100,5.740525634604179
35,8.601917995747321,0.06325211168069042,2309,8.665170107428011,0.007299581069559045,8e9,63252111.68069042,100,1.9389153487536526
36,105.44984308589888,0.14014007826485333,190,105.58998316416373,0.001327209968837419,105e9,140140078.26485333,100,80.57968823423099
37,87.14816968695352,0.15633751797442424,230,87.30450720492794,0.001790715313328058,87e9,156337517.97442424,100,10.761903856073262
38,206.79025558589495,2.279314968783121,96,209.06957055467808,0.010902184199909718,206e9,2279314968.783121,100,82.45602183045611
39,70.9251264586524,1.1858587110251544,278,72.11098516967755,0.0164449106919677,70e9,1185858711.0251544,100,17.256501869471844
40,91.66760374238433,2.2890390121524278,213,93.95664275453676,0.024362716089511405,91e9,2289039012.1524277,100,26.036430579746813
41,1341.6892582529074,0.035202966073424324,15,1341.7244612189809,2.623710537515415e-05,1341e9,35202966.073424324,1000,420.8466558263151
42,2178.303021933666,32.33522749231286,10,2210.6382494259788,0.014627100341138639,2178e9,32335227492.31286,1000,193.07412722738562
43,1099.8749024281585,10.430075846849462,19,1110.304978275008,0.009393883708468855,1099e9,10430075846.849463,1000,526.3471310154829
44,1346.6902127528406,19.773074538768068,15,1366.4632872916086,0.014470256700389797,1346e9,19773074538.768066,1000,853.4901015572087
45,99.83971380597949,2.211723730653272,196,102.05143753663276,0.021672636702048845,99e9,2211723730.653272,1000,60.93553507063902
46,878.3331257354928,17.65458618941571,23,895.9877119249085,0.019704049457873945,878e9,17654586189.41571,1000,65.19488314055869
47,1129.5356325221999,2.1790685861045542,18,1131.7147011083043,0.00192545752385346,1129e9,2179068586.104554,1000,477.36928003973804
48,700.5289486968052,1.0064843994427604,29,701.535433096248,0.0014346879030765571,700e9,1006484399.4427603,1000,448.88199160189515
49,995.3258270774751,10.722682661272199,20,1006.0485097387473,0.01065821633596643,995e9,10722682661.272198,1000,371.4273027724056
50,970.9369943801379,1.6715185966977135,21,972.6085129768356,0.001718593426230399,970e9,1671518596.6977136,1000,770.7628944353913
51,2205.8073413232246,14.205949644260432,10,2220.013290967485,0.006399038105789655,2205e9,14205949644.260431,1000,1274.353449707103
52,27.11616895138164,0.53130390092312,724,27.64747285230476,0.019217087354109805,27e9,531303900.92311996,1000,24.55749806621003
53,615.375111578608,3.7500017249836364,33,619.1251133035917,0.0060569368685014086,615e9,3750001724.9836364,1000,81.52475487990445
54,426.42490094738883,4.816965977479451,47,431.2418669248683,0.011169986837847241,426e9,4816965977.479451,1000,73.84370069336113
55,1690.537539335724,26.159455104083875,12,1716.696994439808,0.015238248327346913,1690e9,26159455104.083874,1000,673.3304397184229
56,974.5036134550321,9.430141029475307,21,983.9337544845074,0.009584121884725716,974e9,9430141029.475307,1000,652.367992226341
57,2095.62923898469,36.996026008214635,10,2132.6252649929047,0.01734764499675836,2095e9,36996026008.21464,1000,382.84676202531665
58,216.00631924917553,4.561700189737792,91,220.56801943891332,0.020681602896657294,216e9,4561700189.737792,1000,132.7417086323463
59,472.29642904417756,2.931498786459872,43,475.22792783063744,0.006168616393909839,472e9,2931498786.459872,1000,133.5415897107076
60,1601.9090737559197,8.482045790239065,13,1610.3911195461587,0.00526707188538737,1601e9,8482045790.239064,1000,1267.509573518556
