app_id,Tcomp,Tio,iter,witer,alpha_io,compute_size,io_size,mu,desyn_time
1,17.09805546999231,0.46918901379978806,1139,17.5672444837921,0.026708173511939878,17e9,469189013.79978806,10,6.920978334639365
2,12.109231669835374,0.11114704866777701,1637,12.22037871850315,0.00909522128798568,12e9,111147048.66777702,10,6.904270548166555
3,9.146931433099722,0.09573479477608306,2164,9.242666227875805,0.010357919718808811,9e9,95734794.77608305,10,2.8344065647068826
4,3.4380365021604185,0.075543521205325,5693,3.5135800233657433,0.021500441345565266,3e9,75543521.20532499,10,3.3988574527950677
5,11.682411292618582,0.06009380889763494,1704,11.742505101516217,0.005117631065783015,11e9,60093808.89763494,10,0.16032607433563614
6,20.62617029868791,0.0001895242090904899,970,20.626359822897,9.188446760251997e-06,20e9,189524.2090904899,10,12.885740909420479
7,14.699433401698194,0.26728444962307707,1337,14.96671785132127,0.017858588120539805,14e9,267284449.62307706,10,0.9233948673998613
8,9.619118950866895,0.059905768319499564,2067,9.679024719186394,0.006189236008536113,9e9,59905768.31949957,10,2.064924465769639
9,1.112401471977003,0.013952608222539268,17757,1.1263540801995422,0.01238740860251286,1e9,13952608.222539268,10,0.5877088324894929
10,16.9020476261829,0.06379627256428946,1179,16.96584389874719,0.0037602769980101245,16e9,63796272.564289466,10,11.725649743119074
11,24.868739478765022,0.36497288642478215,793,25.233712365189803,0.014463701620387273,24e9,364972886.42478216,10,20.26940974744895
12,1.4024151005831262,0.015210909466305508,14109,1.4176260100494318,0.010729846488761244,1e9,15210909.466305507,10,0.008291693394480989
13,11.60419142918573,0.18483608319854336,1697,11.789027512384274,0.015678653986036982,11e9,184836083.19854337,10,5.129363194059473
14,10.503074085666054,0.04788983074425873,1896,10.550963916410312,0.0045389057458317976,10e9,47889830.74425873,10,6.61393270862244
15,19.275888682697662,0.1581959313296284,1030,19.43408461402729,0.008140127743163392,19e9,158195931.32962838,10,0.31940260708114326
16,3.2364434765130308,0.06671974000002526,6055,3.303163216513056,0.02019874151736805,3e9,66719740.00002526,10,1.3504139174603493
17,7.713518339893344,0.10270985858673243,2559,7.8162281984800765,0.013140591085442608,7e9,102709858.58673243,10,4.117608632507982
18,8.876877013738435,0.2976090413139371,2180,9.174486055052371,0.03243876981534507,8e9,297609041.3139371,10,8.312670545043492
19,26.61557313922328,0.13526782410287996,748,26.75084096332616,0.005056582119729404,26e9,135267824.10287997,10,8.730513771181183
20,20.403854272198366,0.4971598932792904,957,20.901014165477655,0.023786400475267498,20e9,497159893.2792904,10,2.932068797300947
21,265.5888455586194,1.8233461532827147,75,267.41219171190215,0.006818485505878153,265e9,1823346153.2827146,100,16.68506931270071
22,154.78911019668524,0.11400660254021085,130,154.90311679922544,0.0007359864985026622,154e9,114006602.54021084,100,38.64838408851861
23,66.23426052883296,0.7605467996199086,299,66.99480732845286,0.011352324604669808,66e9,760546799.6199086,100,3.9721868340644875
24,266.5277599486886,0.5708157999789636,75,267.09857574866754,0.002137097879983028,266e9,570815799.9789636,100,14.845173196662136
25,117.5591492320863,0.357975456048686,170,117.91712468813499,0.003035822464255746,117e9,357975456.048686,100,59.10322530524127
26,88.34576912977954,2.112935420776883,222,90.45870455055642,0.023358011053496632,88e9,2112935420.776883,100,83.40184286362152
27,119.96926434551307,1.4150599183000807,165,121.38432426381316,0.011657682545767859,119e9,1415059918.3000808,100,7.5279763498783785
28,4.529848036314806,0.09772746642633216,4322,4.627575502741138,0.021118502846348683,4e9,97727466.42633216,100,3.162691270735482
29,58.921155426700395,1.891311091090774,329,60.812466517791165,0.031100713379837275,58e9,1891311091.090774,100,55.55334834082605
30,182.9972307577814,2.772012683335879,108,185.76924344111728,0.014921806387258693,182e9,2772012683.3358793,100,159.2200721617344
31,170.10033723669744,3.4075869902593987,116,173.50792422695685,0.0196393738524709,170e9,3407586990.259399,100,150.54281895879086
32,67.64851489579775,2.2642140930852865,287,69.91272898888303,0.03238629253687585,67e9,2264214093.0852866,100,13.559775125003496
33,63.29657377706184,1.0172354572098234,311,64.31380923427166,0.015816750233288268,63e9,1017235457.2098235,100,59.99741290124893
34,151.33003472904977,0.4331902844216378,132,151.7632250134714,0.0028543824393767675,151e9,433190284.42163783,100,14.873865364537215
35,41.4434747835603,0.48785828667832565,477,41.93133307023862,0.011634695368762082,41e9,487858286.67832565,100,19.64885334596727
36,116.832954914801,0.1899894861814618,171,117.02294440098245,0.0016235233795729616,116e9,189989486.1814618,100,97.69805047679522
37,1.125716912905197,0.0014635532943362806,17744,1.1271804661995333,0.0012984196747756651,1e9,1463553.2943362806,100,0.4662802209911829
38,14.504214782586526,0.4344421604291455,1339,14.938656943015673,0.029081741557246344,14e9,434442160.4291455,100,7.3216938673906915
39,218.3438136261326,5.873796058228453,90,224.21760968436107,0.026196854326014804,218e9,5873796058.228453,100,126.68876461790272
40,144.79656415918097,2.098605581907957,137,146.89516974108892,0.014286416535049236,144e9,2098605581.907957,100,87.41042034090995
41,1429.467020574409,0.6818475606129156,14,1430.1488681350218,0.0004767668428127174,1429e9,681847560.6129156,1000,1110.039284792238
42,647.787435056058,7.4317876051513485,31,655.2192226612094,0.011342444403518457,647e9,7431787605.151348,1000,476.81297146973924
43,599.3040638713029,5.0921238801653015,34,604.3961877514682,0.008425142288056948,599e9,5092123880.165301,1000,520.7829302913382
44,2190.1823101655964,27.66348687957736,10,2217.8457970451736,0.012473133576930057,2190e9,27663486879.57736,1000,1872.1463325235839
45,391.8636337260095,5.241800808512762,51,397.10543453452226,0.013200022846972817,391e9,5241800808.512762,1000,3.3946189183088795
46,548.4793117907188,6.551175447002807,37,555.0304872377217,0.011803271347501518,548e9,6551175447.002807,1000,158.7313497088257
47,441.8008734690389,1.8498602157288067,46,443.6507336847677,0.0041696318190768715,441e9,1849860215.7288067,1000,4.828593842042159
48,1607.5636423905194,50.927832870929976,13,1658.4914752614493,0.03070732266676352,1607e9,50927832870.92998,1000,531.6214243134267
49,2313.2325845696623,46.677903251692115,9,2359.9104878213543,0.019779522779605378,2313e9,46677903251.692116,1000,661.817289233917
50,322.79820026619956,8.877135819448688,61,331.67533608564827,0.026764534029616094,322e9,8877135819.448689,1000,209.5830258458399
51,1445.668276112321,1.7957205247720824,14,1447.4639966370933,0.001240597713617815,1445e9,1795720524.7720823,1000,450.5268048069118
52,1125.9552948002947,3.3623374187110087,18,1129.3176322190056,0.0029773177384154748,1125e9,3362337418.7110085,1000,471.51772900816013
53,657.9332909277186,12.23392332351617,30,670.1672142512348,0.01825503107785555,657e9,12233923323.516169,1000,117.4342933538266
54,1837.9895936950777,58.61846966336791,11,1896.6080633584456,0.030907002240393527,1837e9,58618469663.36791,1000,77.17380433811103
55,1212.7981522341545,24.769632398798237,17,1237.5677846329527,0.020014768246528494,1212e9,24769632398.798237,1000,1029.2668774367528
56,2233.65945754475,30.227869564424562,9,2263.8873271091743,0.013352196994283914,2233e9,30227869564.42456,1000,110.660484881788
57,1084.858237223729,4.087398244771062,19,1088.9456354685,0.003753537469308585,1084e9,4087398244.7710624,1000,649.2703262289413
58,636.3896910626919,2.530431161971758,32,638.9201222246636,0.003960481246327036,636e9,2530431161.971758,1000,585.6477057979406
59,694.1872499618654,15.722332337700273,29,709.9095822995657,0.022146950442297038,694e9,15722332337.700274,1000,600.5359155924887
60,1344.6875397541562,2.747467756197596,15,1347.435007510354,0.002039035456911627,1344e9,2747467756.197596,1000,291.8612922046299
