app_id,start_app,end_app,effective_cpu,effective_io,effective_iter,total_bytes,stretch,utilization,Tcomp,Tio,iterations,priority,group_id
app_1,10.9993,20034.6,7893,77.4751,376.575,5.04514e+10,1.00712,0.959283,21,0.134179,940,0.1,1
app_10,4.36016,19973.7,7807.8,132.91,648.748,8.92074e+10,1.01304,0.959283,12,0.137454,1620,0.1,1
app_11,3.78716,19902.9,7842.6,119.939,461.577,8.69772e+10,1.00888,0.959283,17,0.188262,1147,0.1,1
app_12,3.91193,20181.7,7846.3,70.2182,872.502,8.50417e+08,1.01948,0.959283,9,0.000975249,2201,0.1,1
app_13,1.38023,19172.5,7621.2,267.939,1266.4,1.88128e+11,1.02442,0.959283,6,0.1486,3043,0.1,1
app_14,8.59564,19764.8,7772.1,208.341,298.648,1.72821e+11,1.00693,0.959283,26,0.579937,738,0.1,1
app_15,7.07826,19631.1,7773.7,131.886,1110.8,8.0444e+10,1.01857,0.959283,7,0.0724069,2727,0.1,1
app_16,12.1173,19755.7,7733.5,251.675,287.107,2.13089e+11,1.00672,0.959283,27,0.742471,707,0.1,1
app_17,5.89722,19205.8,7751.1,193.252,595.592,1.49832e+11,1.01254,0.959283,13,0.251818,1431,0.1,1
app_18,5.15693,18890.9,7736.6,155.527,1290.53,9.70976e+10,1.02123,0.959283,6,0.0752694,3047,0.1,1
app_19,0.759311,19947.5,7720,266.032,2574.46,2.05038e+11,1.00946,0.959283,3,0.0796263,6423,1,0
app_2,1.05875,14086.2,7606.2,377.168,3809.43,1.35106e+11,1.03342,0.959283,2,0.0354608,6704,1,0
app_20,11.5042,19951.8,7700.3,254.122,590.965,2.05071e+11,1.01197,0.959283,13,0.34699,1473,0.1,1
app_21,71.2965,20653.2,7546,282.94,100.956,1.80971e+11,1.03533,0.959283,75,1.79179,260,0.01,2
app_22,125.778,20415.7,7663.4,260.97,36.9579,1.72232e+11,1.02098,0.959283,208,4.65492,94,0.01,2
app_23,89.8129,20485.5,7857.3,61.6974,60.8875,3.52216e+10,1.01362,0.959283,129,0.577403,155,0.01,2
app_24,20.8494,20574.5,7647.2,46.9262,196.259,2.32776e+10,1.04296,0.959283,39,0.118763,506,0.01,2
app_25,42.2158,20279.1,7717.9,139.684,81.5482,9.06101e+10,1.02452,0.959283,96,1.105,205,0.01,2
app_26,49.1602,20088.5,7903.9,28.4908,43.6103,1.58545e+10,1.01013,0.959283,182,0.360331,110,0.01,2
app_27,175.558,20430.9,7619.9,321.945,33.8332,2.16278e+11,1.02091,0.959283,226,6.36112,86,0.01,2
app_28,97.2012,20456.7,7574,320.957,73.0255,2.09471e+11,1.02782,0.959283,103,2.86947,188,0.01,2
app_29,56.2989,20238.6,7764.1,74.6085,102.004,4.62501e+10,1.02428,0.959283,76,0.453432,259,0.01,2
app_3,4.48719,19294.6,7901.1,49.6686,525.703,1.58366e+10,1.01049,0.959283,15,0.0301649,1266,0.1,1
app_30,58.7041,20322.7,7692,121.223,130.731,7.67499e+10,1.02977,0.959283,59,0.585877,331,0.01,2
app_31,59.7255,20348.8,7589.6,304.705,58.9294,2.02665e+11,1.02666,0.959283,129,3.43499,150,0.01,2
app_32,20.1414,20643.2,7558.5,284.999,109.713,1.82037e+11,1.03352,0.959283,70,1.67006,280,0.01,2
app_33,0.950845,20472,7608.8,376.031,3803.64,1.33115e+11,1.03334,0.959283,2,0.0350028,9744,1,0
app_34,13.5534,19396.3,7850.1,102.712,489.875,7.23618e+10,1.00979,0.959283,16,0.147677,1192,0.1,1
app_35,29.5223,20237.7,7715.2,137.262,87.2301,8.47569e+10,1.02565,0.959283,89,0.974218,220,0.01,2
app_36,235.201,20612.7,7707.2,261.845,32.1718,1.73548e+11,1.01513,0.959283,240,5.42338,82,0.01,2
app_37,2.03318,20437.1,7611,288.491,65.7596,1.93049e+11,1.02511,0.959283,116,2.92499,168,0.01,2
app_38,35.9177,20209.9,7836.3,42.5096,79.9802,2.34208e+10,1.01785,0.959283,99,0.29276,201,0.01,2
app_39,2.86496,19635.2,7787.03,188.647,310.358,1.5393e+11,1.00744,0.959283,25,0.495472,764,0.1,1
app_4,0.617395,16122.2,7567.9,213.792,2528.16,1.38655e+10,1.05516,0.959283,3,0.00548475,5088,0.1,1
app_40,56.9031,20207.4,7736.29,208.696,29.2407,1.38148e+11,1.01595,0.959283,268,4.62886,74,0.01,2
app_41,527.377,21589.1,7238.1,134.005,12.8836,5.05311e+10,1.0976,0.959283,571,3.88701,35,0.001,3
app_42,520.801,23076.7,7566.19,376.635,3.6344,1.66176e+11,1.03461,0.959283,2124,46.0487,10,0.001,3
app_43,369.382,21616.5,7466.5,70.5691,10.9129,3.03442e+10,1.06712,0.959283,699,2.75856,29,0.001,3
app_44,498.521,21305.3,7261.2,320.09,10.4809,1.22586e+11,1.08345,0.959283,706,11.1442,28,0.001,3
app_45,1080.55,22050.1,7702.9,233.893,6.53042,1.0211e+11,1.02498,0.959283,1161,17.0183,17,0.001,3
app_46,1351.99,23283.3,7556.9,276.698,3.6086,1.09618e+11,1.0435,0.959283,2064,36.5392,10,0.001,3
app_47,289.602,21643.2,7482.5,125.747,12.5494,5.41218e+10,1.06148,0.959283,592,4.51015,34,0.001,3
app_48,127.648,20142.4,7829.9,138.632,27.3806,8.89553e+10,1.01025,0.959283,291,3.29464,68,0.01,2
app_49,33.6204,20469.4,7769.8,90.7127,70.4744,5.98205e+10,1.02176,0.959283,110,0.854579,180,0.01,2
app_5,14.8986,19272.9,7840,116.159,522.858,8.63633e+10,1.00929,0.959283,15,0.165447,1260,0.1,1
app_50,1284.48,24036.2,7692.1,307.9,3.29087,1.32331e+11,1.02244,0.959283,2417,33.0828,9,0.001,3
app_51,559.156,21560.4,7833.7,47.1364,4.6619,2.3165e+10,1.01822,0.959283,1708,5.79126,12,0.001,3
app_52,828.852,21850.6,7566.2,273.587,5.41633,1.23154e+11,1.0404,0.959283,1349,20.5257,15,0.001,3
app_53,472.52,21035.1,7578.1,9.66159,8.6872,2.5778e+09,1.05531,0.959283,914,0.286422,22,0.001,3
app_54,1426.32,22507.5,7536,317.738,4.92315,1.30106e+11,1.04355,0.959283,1566,26.0211,13,0.001,3
app_55,1087.64,23443.6,7405.9,411.812,2.90898,1.70575e+11,1.0559,0.959283,2633,56.8584,8,0.001,3
app_56,1330.4,23543.3,7790.3,49.1911,3.616,2.17024e+10,1.02407,0.959283,2188,7.23412,10,0.001,3
app_57,798.803,23525.5,7790,145.09,2.76382,6.28579e+10,1.01874,0.959283,2629,20.9526,8,0.001,3
app_58,1294.27,22591.5,7645.6,248.061,4.36116,9.74862e+10,1.03318,0.959283,1730,24.3716,12,0.001,3
app_59,533.434,22097.7,7121,424.421,9.31347,1.91721e+11,1.09398,0.959283,750,21.3024,26,0.001,3
app_6,17.6177,19438.8,7891,74.2883,395.81,4.16084e+10,1.0085,0.959283,20,0.105072,959,0.1,1
app_60,1025.83,22914.5,7225.2,359.35,6.66583,1.54401e+11,1.08407,0.959283,1059,22.0573,19,0.001,3
app_7,9.56781,19493.3,7909.5,53.3392,439.134,3.52761e+10,1.00695,0.959283,18,0.0803555,1070,0.1,1
app_8,2.56229,20069,7593.6,282.877,1519.35,1.51969e+11,1.03285,0.959283,5,0.100046,3809,0.1,1
app_9,4.45825,19348.4,7904.5,50.3507,527.372,1.66912e+10,1.00995,0.959283,15,0.0316722,1278,0.1,1
