app_id,start_app,end_app,effective_cpu,effective_io,effective_iter,total_bytes,stretch,utilization,Tcomp,Tio,iterations,priority,group_id
app_1,6.95004,25247,5614,147.578,468.341,1.25993e+11,1.39373,0.829351,12,0.269216,1563,1,1
app_10,5.17795,25829.9,5762.36,43.8665,442.448,2.136e+10,1.38319,0.829351,13,0.0482167,1525,1,1
app_11,0.867057,31998.2,3461.85,300.484,3467.24,9.92459e+10,2.2465,0.829351,1,0.0286176,18518,1,1
app_12,3.689,25162.7,4377.07,235.893,1460.58,1.49099e+11,1.7675,0.829351,3,0.102052,5037,1,1
app_13,1.41429,28896.1,4107.39,158.523,2057.48,3.97134e+10,1.92906,0.829351,2,0.0192971,8947,1,1
app_14,1.32848,25407.5,5433.03,173.569,542.468,1.49054e+11,1.43316,0.829351,10,0.274501,1843,1,1
app_15,2.72806,25229.5,5480.03,100.124,548.718,6.96806e+10,1.44152,0.829351,10,0.127076,1844,1,1
app_16,18.7615,24544.9,6271.2,28.5913,261.564,1.65378e+10,1.27232,0.829351,24,0.0633632,825,1,1
app_17,12.3464,24838.4,5808.5,71.3622,413.871,4.84753e+10,1.36589,0.829351,14,0.11709,1346,1,1
app_18,10.5535,24825.6,5882.3,163.174,324.821,1.45765e+11,1.32713,0.829351,18,0.448508,1062,1,1
app_19,16.8268,24852.7,6155.3,83.8173,278.889,6.96282e+10,1.28516,0.829351,22,0.249564,896,1,1
app_2,1.91198,28416,4077.51,194.437,2044.17,8.36165e+10,1.92256,0.829351,2,0.0408883,8665,1,1
app_20,13.3902,24153.5,6152.9,59.9874,267.637,4.74034e+10,1.29026,0.829351,23,0.176878,835,1,1
app_21,22.68,23789.1,6381.1,55.4933,236.774,4.53883e+10,1.24485,0.829351,27,0.191512,718,1,1
app_22,165.01,20852.4,7703,61.4083,42.886,5.95062e+10,1.03059,0.829351,183,1.38387,109,1,1
app_23,59.7106,21254.8,7333.2,72.8098,51.8406,7.00014e+10,1.08061,0.829351,142,1.34618,139,1,1
app_24,10.1261,24416.8,5894.92,197.64,345.804,1.78788e+11,1.31715,0.829351,17,0.516728,1099,1,1
app_25,10.6478,21318.9,7329.2,25.6047,53.0435,2.2798e+10,1.08814,0.829351,139,0.430151,143,1,1
app_26,13.0054,21449.2,7206.54,219.385,64.8558,2.15737e+11,1.07784,0.829351,111,3.32585,174,1,1
app_27,143.829,21376.8,7451.9,216.092,30.157,2.14351e+11,1.04353,0.829351,243,7.14502,80,1,1
app_28,43.1334,21825.6,7103.3,158.029,94.5221,1.52984e+11,1.10249,0.829351,75,1.61036,258,1,1
app_29,0.916856,25272.5,4396.8,180.194,1469.57,1.1567e+11,1.77287,0.829351,3,0.078687,5115,1,1
app_3,1.10879,24638.5,5900,22.158,369.259,5.63863e+08,1.3558,0.829351,16,0.00152808,1195,1,1
app_30,13.7518,24334.1,5889.84,53.4437,394.73,3.75739e+10,1.34966,0.829351,15,0.0951237,1245,1,1
app_31,37.6161,21204.8,7422,94.3753,53.8315,9.19122e+10,1.06469,0.829351,138,1.70208,143,1,1
app_32,45.0147,21210.3,7580.7,63.6841,46.1551,6.109e+10,1.04688,0.829351,164,1.32804,121,1,1
app_33,14.9211,21821.5,7193.7,141.004,66.7144,1.37726e+11,1.09119,0.829351,107,2.08676,184,1,1
app_34,22.2674,23595.7,6604.8,36.6253,183.91,2.77473e+10,1.20617,0.829351,36,0.1508,553,1,1
app_35,54.625,22006.6,7168.6,7.4921,74.7409,3.57172e+09,1.11542,0.829351,96,0.0482665,208,1,1
app_36,11.8155,21679.3,7094.2,152.588,77.8722,1.48359e+11,1.10458,0.829351,91,1.90204,214,1,1
app_37,119.408,20772.6,7730.8,46.826,26.6752,4.57219e+10,1.02874,0.829351,290,1.6934,69,1,1
app_38,111.581,21466.6,7358.2,105.658,61.7314,1.03096e+11,1.0722,0.829351,118,1.6901,166,1,1
app_39,42.3767,23009.6,6844.16,11.7464,141.53,4.67667e+09,1.16808,0.829351,48,0.0331679,414,1,1
app_4,1.60427,27742,4444.55,149.075,1484.59,7.38629e+10,1.77053,0.829351,3,0.0497393,5938,1,1
app_40,102.302,21433.2,7329.93,41.633,69.7924,3.80895e+10,1.08577,0.829351,105,0.544135,189,1,1
app_41,371.6,21088.3,7854.7,13.5402,7.27527,1.30722e+10,1.01681,0.829351,1086,1.86746,19,1,1
app_42,1407.62,22609.8,7998.4,1.57618,2.29638,1.54242e+09,1.00001,0.829351,3505,0.771208,6,1,1
app_43,598.292,22679.8,7817.8,138.254,3.57712,1.38023e+11,1.00555,0.829351,2102,34.5057,10,1,1
app_44,435.896,20845.6,7847.8,111.197,14.3985,1.10587e+11,1.00523,0.829351,537,7.89905,37,1,1
app_45,262.318,21196.4,7702.5,62.643,24.8838,6.13401e+10,1.03042,0.829351,308,2.45361,65,1,1
app_46,46.1357,21316.9,7511.4,6.55259,59.1972,3.7358e+09,1.06452,0.829351,128,0.0622633,156,1,1
app_47,641.227,21574.3,7711.9,206.718,6.9774,2.06199e+11,1.01034,0.829351,1118,29.457,18,1,1
app_48,2231.09,24076.8,7904.6,92.312,2.55209,9.22297e+10,1.0004,0.829351,3140,46.1149,7,1,1
app_49,581.98,20950,7763.3,122.297,11.9766,1.21723e+11,1.01458,0.829351,667,10.1436,30,1,1
app_5,2.5939,25236.5,5235.2,62.4397,748.452,2.10224e+10,1.52201,0.829351,7,0.0281049,2527,1,1
app_50,350.236,21249.3,7742.5,167.467,5.98393,1.67247e+11,1.01141,0.829351,1265,27.8746,16,1,1
app_51,466.283,21725.7,7819.6,163.825,4.26845,1.63497e+11,1.00212,0.829351,1925,32.6994,11,1,1
app_52,1506.3,23338.4,7909.8,56.6895,3.69694,5.65417e+10,1.00423,0.829351,2171,18.8472,10,1,1
app_53,236.44,20819,7751.8,214.724,8.32254,2.14399e+11,1.00424,0.829351,892,26.7998,22,1,1
app_54,800.504,21120.7,7843,125.586,4.99366,1.25363e+11,1.00397,0.829351,1559,25.0725,13,1,1
app_55,1769.7,23632.2,7969.9,20.7844,3.5646,2.06152e+10,1.00119,0.829351,2180,6.87172,10,1,1
app_56,445.034,21357.4,7934.1,55.3238,4.52345,5.51212e+10,1.00135,0.829351,1711,13.7803,12,1,1
app_57,59.8594,20257.1,7722.7,102.797,17.4459,1.02013e+11,1.0224,0.829351,449,5.66741,44,1,1
app_58,238.699,20762.2,7871.1,47.102,10.8511,4.6501e+10,1.01041,0.829351,733,4.22737,28,1,1
app_59,1611.72,23004.4,7790.6,208.056,4.30616,2.07928e+11,1.00018,0.829351,1869,51.982,11,1,1
app_6,12.7953,24499.2,5912,199.256,329.891,1.81919e+11,1.31278,0.829351,18,0.551271,1048,1,1
app_60,205.026,21816.3,7773.4,200.043,3.38124,1.99844e+11,1.00336,0.829351,2302,66.6147,9,1,1
app_7,1.43497,25719.1,3456.23,298.818,3451.16,1.02903e+11,2.24774,0.829351,1,0.0298097,12801,1,1
app_8,2.18317,24626.2,4121.9,126.021,2061.79,2.01556e+09,1.9399,0.829351,2,0.000977477,6931,1,1
app_9,1.21018,27114.8,5177.3,141.101,738.004,1.0024e+11,1.51586,0.829351,7,0.135826,2759,1,1
