app_id,start_app,end_app,effective_cpu,effective_io,effective_iter,total_bytes,stretch,utilization,Tcomp,Tio,iterations,priority,group_id
app_1,4.91096,20899.5,7243.5,756.5,803.099,1.89738e+11,1.07625,0.940825,9,0.236287,2114,1,1
app_10,17.0454,21293.2,7258.6,741.4,403.157,1.88946e+11,1.07418,0.940825,18,0.468848,1082,1.00001,1.00001
app_11,2.97484,20861.1,7516.5,483.5,418.093,1.18327e+11,1.04783,0.940825,18,0.28308,1094,1.00001,1.00001
app_12,7.03417,19127.2,7791.9,208.1,647.231,4.45338e+10,1.02087,0.940825,12,0.0688312,1549,1.00001,1.00001
app_13,3.37006,17910.1,7243.6,756.395,2410.83,1.69657e+11,1.07915,0.940825,3,0.0703799,5409,1.00001,1.00001
app_14,9.69653,19697.5,7715,285,550.726,6.36281e+10,1.02846,0.940825,14,0.115477,1359,1.00001,1.00001
app_15,14.4969,19453.5,7585.7,414.3,542.346,9.85313e+10,1.04109,0.940825,14,0.181457,1320,1.00002,1.00002
app_16,13.4867,20845.7,7445.8,554.2,414.46,1.38652e+11,1.05479,0.940825,18,0.334907,1083,1.00002,1.00002
app_17,7.81045,19518.8,7767,233,648.604,5.26473e+10,1.02306,0.940825,12,0.0812459,1585,1.00002,1.00002
app_18,17.8942,20546.9,7473.7,526.3,415.829,1.30047e+11,1.05211,0.940825,18,0.312614,1068,1.00002,1.00002
app_19,6.56652,20744.8,7228.3,771.7,516.855,1.99743e+11,1.077,0.940825,14,0.386351,1346,1.00002,1.00002
app_2,1.62384,18937,7600.7,399.3,1899.79,7.83e+10,1.0418,0.940825,4,0.0412105,4498,1,1
app_20,7.06166,18987.9,7783.5,216.5,975.199,4.32168e+10,1.02214,0.940825,8,0.0443249,2308,1.00002,1.00002
app_21,2.87213,21124.9,7523.5,476.5,28.2208,1.3616e+11,1.04443,0.940825,265,4.86285,74,1.00002,1.00002
app_22,65.8349,20773.9,7614.7,385.3,47.1866,1.01554e+11,1.03677,0.940825,163,2.16073,121,1.00002,1.00002
app_23,11.7815,20873.6,7446.4,553.6,220.154,1.458e+11,1.05371,0.940825,34,0.662729,575,1.00002,1.00002
app_24,44.55,21020.6,7412.7,587.3,158.065,1.43989e+11,1.05866,0.940825,47,0.911326,416,1.00002,1.00002
app_25,97.1055,20441.3,7818.1,181.9,53.3728,4.6303e+10,1.01724,0.940825,149,0.873642,134,1.00003,1.00003
app_26,1.89408,11805.4,4856.53,948.9,4852.27,1.99652e+11,1.58222,0.940825,1,0.04114,9859,1.00003,1.00003
app_27,99.3774,20531.4,7792.3,207.7,74.6663,4.86159e+10,1.02029,0.940825,104,0.656971,191,1.00003,1.00003
app_28,105.806,20409,7789.5,210.5,49.5748,5.3046e+10,1.02008,0.940825,156,1.06092,127,1.00003,1.00003
app_29,24.8213,19965.4,7870.4,129.6,128.161,3.04192e+10,1.01255,0.940825,62,0.23765,318,1.00003,1.00003
app_3,10.7798,20509.4,7530.6,469.4,418.968,1.19446e+11,1.04575,0.940825,18,0.285073,1078,1,1
app_30,110.259,20717.2,7841,159,43.0224,3.44432e+10,1.01582,0.940825,182,0.801004,110,1.00003,1.00003
app_31,27.0795,20973.2,7560.7,439.3,31.2831,1.02666e+11,1.04393,0.940825,241,3.31182,82,1.00003,1.00003
app_32,18.4322,19670.4,7841.2,158.8,270.271,3.68964e+10,1.01547,0.940825,29,0.136653,666,1.00003,1.00003
app_33,0.160064,20392.5,7738.91,261.089,367.702,6.16043e+10,1.02557,0.940825,21,0.167545,942,1.00003,1.00003
app_34,194.01,20468.2,7819.9,180.1,38.1466,4.52064e+10,1.01715,0.940825,207,1.15914,96,1.00003,1.00003
app_35,4.61506,20638.7,7681,319,99.5638,7.90403e+10,1.03092,0.940825,77,0.790403,257,1.00004,1.00004
app_36,191.93,20826.6,7708.3,291.7,37.994,6.89047e+10,1.02865,0.940825,201,1.81328,99,1.00004,1.00004
app_37,64.4308,21082.7,7414.4,585.601,56.0492,1.5504e+11,1.05688,0.940825,132,2.72922,149,1.00004,1.00004
app_38,247.48,21251,7464.4,535.6,27.0449,1.25755e+11,1.054,0.940825,277,4.65758,71,1.00004,1.00004
app_39,7.98568,20472,7633.2,366.8,478.154,8.95631e+10,1.0359,0.940825,16,0.187371,1225,1.00004,1.00004
app_4,15.1519,20169,7435.3,564.7,496.972,1.36625e+11,1.05653,0.940825,15,0.2749,1255,1,1
app_40,76.5797,21046.2,7533.77,466.229,72.2368,1.26183e+11,1.04439,0.940825,103,1.74118,191,1.00004,1.00004
app_41,959.723,22034.5,7441.5,558.5,7.07177,1.46837e+11,1.05425,0.940825,1043,20.9767,19,1.00004,1.00004
app_42,15.7907,21639.4,7023.6,976.4,4.59439,1.94595e+11,1.10831,0.940825,1550,38.919,13,1.00004,1.00004
app_43,138.642,20847.5,7877.8,122.2,17.0644,3.10259e+10,1.01153,0.940825,459,1.82505,44,1.00004,1.00004
app_44,982.487,23088.6,7669.1,330.9,3.55864,1.09519e+11,1.02846,0.940825,2096,36.5064,10,1.00004,1.00004
app_45,4.81757,20368.1,7740.1,259.9,93.5597,6.40585e+10,1.02509,0.940825,84,0.681473,236,1.00004,1.00004
app_46,131.64,21807.4,7589.13,410.867,4.09593,7.06169e+10,1.04442,0.940825,1961,16.9076,11,1.00005,1.00005
app_47,297.425,21518.4,7187.74,812.258,15.6554,1.90429e+11,1.08428,0.940825,464,12.3043,42,1.00005,1.00005
app_48,4.06837,20902.7,7424.11,575.892,101.563,1.43919e+11,1.05708,0.940825,73,1.41369,267,1.00005,1.00005
app_49,997.129,22518.6,7575.7,424.3,7.34192,1.0298e+11,1.04185,0.940825,1013,14.7114,20,1.00005,1.00005
app_5,0.381516,18333.2,7273.2,726.8,7268.52,2.47506e+10,1.0962,0.940825,1,0.00340542,16654,1.00001,1.00001
app_50,506.286,22702.3,7864.8,135.2,4.91504,2.60075e+10,1.01384,0.940825,1521,5.2015,14,1.00005,1.00005
app_51,12.2713,20579.2,7609.43,390.572,345.174,9.52396e+10,1.03833,0.940825,22,0.275839,892,1.00005,1.00005
app_52,791.46,23292.6,7010.8,989.2,4.97302,1.99289e+11,1.10956,0.940825,1479,39.8577,14,1.00005,1.00005
app_53,414.115,21341.3,7864.6,135.4,7.24839,3.14311e+10,1.01317,0.940825,1084,4.49015,19,1.00005,1.00005
app_54,1330.21,21735.6,7810.2,189.8,3.97718,6.12833e+10,1.01633,0.940825,2049,15.3208,10,1.00005,1.00005
app_55,10.2828,21096.5,7260.8,739.2,219.422,1.99297e+11,1.07237,0.940825,33,0.905895,581,1.00005,1.00005
app_56,273.259,21572.7,7777.2,222.8,7.9783,8.13902e+10,1.01799,0.940825,984,10.1738,21,1.00006,1.00006
app_57,66.2223,20366,7847,153,46.5582,3.56647e+10,1.01489,0.940825,169,0.758824,118,1.00006,1.00006
app_58,325.163,21379,7922.8,77.2,4.94927,1.61694e+10,1.00769,0.940825,1625,3.23387,13,1.00006,1.00006
app_59,523.292,22087.3,7422.3,577.7,8.51819,1.76347e+11,1.05282,0.940825,864,19.5941,23,1.00006,1.00006
app_6,10.1307,20501.6,7371.6,628.4,307.248,1.64274e+11,1.06159,0.940825,24,0.535095,790,1.00001,1.00001
app_60,26.476,20760.2,7723.1,276.9,9.90818,6.34657e+10,1.02741,0.940825,785,6.34657,26,1.00006,1.00006
app_7,2.07202,21396.1,7149.1,850.9,2385.06,2.00692e+11,1.08847,0.940825,3,0.0841477,6420,1.00001,1.00001
app_8,6.7578,20413.1,7371.34,628.659,433.055,1.61804e+11,1.06197,0.940825,17,0.373275,1109,1.00001,1.00001
app_9,7.62302,20312.5,7808.2,191.8,648.932,4.00607e+10,1.01933,0.940825,12,0.0617268,1651,1.00001,1.00001
