app_id,start_app,end_app,effective_cpu,effective_io,effective_iter,total_bytes,stretch,utilization,Tcomp,Tio,iterations,priority,group_id
app_1,8.27001,25127.3,5365.23,136.035,595.586,1.13455e+11,1.4602,0.853067,9,0.19068,2028,1,1
app_10,0.908308,27551.5,4830.79,162.944,965.327,1.01483e+11,1.62197,0.853067,5,0.105163,3812,1,1
app_11,1.26786,25352.5,5550.8,147.033,502.21,1.20113e+11,1.41071,0.853067,11,0.239269,1720,1,1
app_12,4.64075,23846.3,6171.22,165.341,279.715,1.50179e+11,1.26554,0.853067,22,0.538275,868,1,1
app_13,23.5845,23767.1,6269.3,125.505,261.3,1.1191e+11,1.25368,0.853067,24,0.428773,804,1,1
app_14,0.848208,28737.5,4344.43,121.039,1451.93,3.42412e+10,1.82704,0.853067,3,0.0235983,6315,1,1
app_15,5.10401,24798.4,5701.9,143.688,438.06,1.25787e+11,1.37276,0.853067,13,0.287185,1448,1,1
app_16,6.8101,25270.2,5763.6,164.363,413.938,1.43393e+11,1.35433,0.853067,14,0.346361,1388,1,1
app_17,6.98511,25248,5125.37,120.356,732.317,7.58225e+10,1.53811,0.853067,7,0.103583,2533,1,1
app_18,8.95024,24306.2,6081.6,23.1334,320.132,5.25905e+09,1.31431,0.853067,19,0.0164345,1025,1,1
app_19,5.47978,25084.5,5539.2,145.515,503.222,1.17402e+11,1.41428,0.853067,11,0.233403,1694,1,1
app_2,13.1577,24529.9,6022,156.02,315.153,1.39753e+11,1.29833,0.853067,19,0.44366,1019,1,1
app_20,2.6598,24917,5840.8,52.1532,418.033,3.60912e+10,1.36126,0.853067,14,0.0863425,1380,1,1
app_21,11.4174,21363.3,7321.13,151.934,60.8489,1.49616e+11,1.07084,0.853067,120,2.49361,163,1,1
app_22,14.5464,21179,7472.6,88.4992,52.2052,8.6208e+10,1.05837,0.853067,145,1.65785,136,1,1
app_23,104.487,21027,7526,179.908,32.6718,1.78299e+11,1.03838,0.853067,229,5.40301,86,1,1
app_24,46.749,21857.1,7035.3,159.003,95.0558,1.53622e+11,1.11282,0.853067,74,1.61707,263,1,1
app_25,57.0238,21196.9,7485.7,45.058,64.5322,4.17431e+10,1.06278,0.853067,116,0.642202,171,1,1
app_26,31.5271,21482.4,7226.3,142.768,69.0042,1.3873e+11,1.08621,0.853067,104,2.01058,189,1,1
app_27,94.7754,21300.7,7453.5,92.4564,66.8013,8.91452e+10,1.06064,0.853067,112,1.33053,176,1,1
app_28,138.375,21163,7411.2,148.494,51.4854,1.46405e+11,1.05854,0.853067,143,2.87069,137,1,1
app_29,12.1378,21152.4,7442.82,34.237,61.0908,3.05757e+10,1.07046,0.853067,123,0.501241,162,1,1
app_3,6.488,26152.9,5112.56,162.558,731.299,1.33255e+11,1.52502,0.853067,7,0.182291,2648,1,1
app_30,51.2159,21516.2,7342.08,21.1244,65.9069,1.81836e+10,1.08692,0.853067,110,0.279748,180,1,1
app_31,19.7065,20953.9,7588.1,18.2469,35.9095,1.66032e+10,1.05198,0.853067,214,0.461199,94,1,1
app_32,52.7761,20863.3,7575.5,38.5646,50.6014,3.59832e+10,1.05104,0.853067,153,0.719664,130,1,1
app_33,67.9891,21357.4,7374.6,100.614,83.5583,9.66048e+10,1.07078,0.853067,89,1.16391,220,1,1
app_34,0.273127,26047.5,5435.44,79.1036,601.589,5.53171e+10,1.457,0.853067,9,0.0920418,2142,1,1
app_35,44.4178,21674.8,7154.2,163.678,69.0305,1.59995e+11,1.09376,0.853067,103,2.31877,190,1,1
app_36,2.77167,23038.5,6543.9,150.334,183.094,1.42331e+11,1.19649,0.853067,36,0.777764,541,1,1
app_37,44.659,22326.3,6772.5,89.8163,151.471,8.15051e+10,1.1672,0.853067,45,0.539769,431,1,1
app_38,75.8461,21084.4,7489.5,141.524,39.3683,1.40118e+11,1.04855,0.853067,189,3.59276,104,1,1
app_39,72.0322,21057.3,7471.4,168.227,46.9427,1.65788e+11,1.04751,0.853067,161,3.5274,122,1,1
app_4,8.04359,26019.8,5319.3,51.2533,665.784,1.24935e+10,1.50043,0.853067,8,0.0187873,2383,1,1
app_40,49.1042,21369.6,7266.6,119.968,71.8267,1.16268e+11,1.08359,0.853067,102,1.63758,192,1,1
app_41,0.691068,28982,3943.79,185.204,1966.09,7.98324e+10,1.98826,0.853067,2,0.0406065,8974,1,1
app_42,429.414,21002.6,7720.8,163.139,10.0077,1.62671e+11,1.01478,0.853067,766,16.2671,26,1,1
app_43,1118.16,21986.3,7698.7,174.75,6.65733,1.7433e+11,1.01613,0.853067,1199,24.9043,17,1,1
app_44,212.228,23344.1,7792.5,173.713,2.84267,1.73569e+11,1.00426,0.853067,2777,57.8563,8,1,1
app_45,282.89,21035,7756.3,75.5463,16.0091,7.48641e+10,1.02156,0.853067,490,4.67901,41,1,1
app_46,361.155,20805.5,7752.7,32.6487,20.0123,3.16842e+10,1.0277,0.853067,395,1.58421,51,1,1
app_47,536.346,21214.8,7934.4,22.439,3.43123,2.23014e+10,1.00544,0.853067,2261,7.43379,9,1,1
app_48,69.5512,20144.8,7867.71,96.8277,11.6432,9.64926e+10,1.00449,0.853067,693,8.19065,29,1,1
app_49,564.337,22042.8,7885.6,83.2214,9.03264,8.27289e+10,1.00397,0.853067,851,9.1921,24,1,1
app_5,13.7995,23697.7,6322.2,26.3004,253.191,1.34758e+10,1.26269,0.853067,25,0.0532641,779,1,1
app_50,779.976,21449.8,7954,3.5682,6.13023,3.17034e+09,1.00538,0.853067,1320,0.52839,16,1,1
app_51,106.941,20214.1,7850.6,97.8898,5.60911,9.75616e+10,1.00652,0.853067,1417,19.5123,14,1,1
app_52,340.176,21427.9,7790.2,180.06,6.63199,1.79782e+11,1.00377,0.853067,1129,25.6832,18,1,1
app_53,1098.88,22031.1,7865.7,111.891,3.80931,1.11795e+11,1.00282,0.853067,2084,27.9488,10,1,1
app_54,606.469,21134.2,7799.6,152.437,7.03254,1.52007e+11,1.00609,0.853067,1111,21.7153,18,1,1
app_55,29.911,19894.5,7873.88,0.751771,6.92378,4.71953e+08,1.01596,0.853067,1203,0.0786588,17,1,1
app_56,1220.64,22684.3,7963.8,13.9511,5.23233,1.36283e+10,1.00283,0.853067,1523,2.72567,14,1,1
app_57,2.39732,20320.3,7874.7,123.939,4.68319,1.23621e+11,1.00021,0.853067,1654,24.7242,12,1,1
app_58,1536.61,21804.6,7817.1,135.075,5.31034,1.34896e+11,1.00604,0.853067,1541,22.4827,13,1,1
app_59,910.595,21505.8,7832.5,123.64,6.35257,1.23369e+11,1.00555,0.853067,1243,20.5614,16,1,1
app_6,5.90317,24751.9,5307.2,123.925,662.139,8.74373e+10,1.48295,0.853067,8,0.13208,2206,1,1
app_60,368.058,21074.1,7724.3,176.555,14.1303,1.7574e+11,1.01265,0.853067,545,11.716,36,1,1
app_7,9.21252,23902.2,6497.41,21.8054,239.873,8.79026e+09,1.2296,0.853067,27,0.0367793,740,1,1
app_8,4.50179,25674.2,5023.2,79.2761,836.444,3.33999e+10,1.58209,0.853067,6,0.0399521,2988,1,1
app_9,2.08448,24617.8,6196.88,23.5084,293.704,7.80365e+09,1.28935,0.853067,21,0.0266336,950,1,1
