app_id,start_app,end_app,effective_cpu,effective_io,effective_iter,total_bytes,stretch,utilization,Tcomp,Tio,iterations,priority,group_id
app_1,15.2192,20655.4,7469.9,530.1,324.841,1.4102e+11,1.05112,0.951257,23,0.433908,840,1,1
app_10,11.512,19913,7419.3,580.7,672.607,1.53226e+11,1.05645,0.951257,11,0.227675,1678,1.00001,1.00001
app_11,2.44683,21002,7365.9,634.1,735.566,1.6592e+11,1.06216,0.951257,10,0.225742,1942,1.00001,1.00001
app_12,15.3209,20996.3,7327,673,386.084,1.84679e+11,1.06501,0.951257,19,0.478443,1015,1.00001,1.00001
app_13,23.6077,20467.8,7522.37,477.631,222.106,1.25804e+11,1.046,0.951257,34,0.564582,567,1.00001,1.00001
app_14,4.54544,20486.9,7355.1,644.9,305.055,1.8338e+11,1.06122,0.951257,24,0.601245,783,1.00001,1.00001
app_15,1.05389,20615.8,7321.1,678.9,662.625,1.82724e+11,1.06612,0.951257,11,0.275601,1716,1.00002,1.00002
app_16,10.9399,20399.2,7338.7,661.3,611.406,1.77217e+11,1.06441,0.951257,12,0.28957,1562,1.00002,1.00002
app_17,3.71691,18737.8,7829.6,170.4,870.582,3.34934e+10,1.01741,0.951257,9,0.038454,2037,1.00002,1.00002
app_18,2.73406,14633.7,7539.1,460.9,3771.87,6.6647e+10,1.05184,0.951257,2,0.0176689,6900,1.00002,1.00002
app_19,11.9197,20827.7,7473.3,526.699,496.723,1.44214e+11,1.05021,0.951257,15,0.290242,1299,1.00002,1.00002
app_2,10.3053,20004.4,7849.3,150.7,713.932,3.06052e+10,1.01524,0.951257,11,0.0428644,1783,1,1
app_20,3.6751,20661.5,7473.2,526.8,465.622,1.38655e+11,1.05099,0.951257,16,0.297543,1207,1.00002,1.00002
app_21,88.0916,20909,7521.06,478.938,74.4826,1.33535e+11,1.04512,0.951257,100,1.78796,195,1.00002,1.00002
app_22,18.7546,20856.3,7564.05,435.948,259.732,1.17276e+11,1.04149,0.951257,29,0.452062,678,1.00002,1.00002
app_23,0.126825,19697.1,7805,195,1950.52,2.93533e+09,1.0246,0.951257,4,0.0015053,4807,1.00002,1.00002
app_24,5.26496,20624.5,7645.3,354.7,69.9655,9.31564e+10,1.0338,0.951257,109,1.33081,181,1.00002,1.00002
app_25,124.011,21326.5,7447.9,552.1,47.7402,1.66638e+11,1.05062,0.951257,156,3.47162,126,1.00003,1.00003
app_26,115.007,20949.7,7469.3,530.7,46.1626,1.36947e+11,1.05177,0.951257,161,2.97712,122,1.00003,1.00003
app_27,67.7796,20918.3,7570.3,429.7,100.024,1.15401e+11,1.04089,0.951257,75,1.15401,262,1.00003,1.00003
app_28,73.6822,20378.4,7895,105,83.3958,2.84131e+10,1.00967,0.951257,94,0.338251,212,1.00003,1.00003
app_29,28.9791,21124.6,7358.8,641.2,68.2539,1.90502e+11,1.0597,0.951257,108,2.8015,180,1.00003,1.00003
app_3,0.335556,20142.5,7732.5,267.5,703.529,6.52465e+10,1.02594,0.951257,11,0.0926797,1771,1,1
app_30,29.3012,20200.6,7845,155,252.357,3.85998e+10,1.01476,0.951257,31,0.153174,639,1.00003,1.00003
app_31,68.3183,21121.9,7332.5,667.5,70.436,1.93671e+11,1.06296,0.951257,105,2.72776,185,1.00003,1.00003
app_32,155.542,21034.7,7576.1,423.9,45.6585,1.33633e+11,1.03765,0.951257,167,2.90507,118,1.00003,1.00003
app_33,30.5654,20973.8,7568.9,431.1,54.2238,1.20391e+11,1.04041,0.951257,139,2.22947,142,1.00003,1.00003
app_34,70.5456,21069.4,7542.49,457.506,29.9312,1.41146e+11,1.04117,0.951257,247,4.76881,80,1.00003,1.00003
app_35,18.1576,19951.4,7771.5,228.5,387.186,5.71839e+10,1.02188,0.951257,20,0.147762,966,1.00004,1.00004
app_36,50.8064,20130.6,7937.9,62.1,64.2328,1.61818e+10,1.00577,0.951257,123,0.252841,162,1.00004,1.00004
app_37,63.9825,20372.2,7738.4,261.6,67.6822,7.6505e+10,1.02368,0.951257,114,1.12507,173,1.00004,1.00004
app_38,5.42912,20300.5,7819.7,180.3,119.911,4.63894e+10,1.01702,0.951257,65,0.386579,305,1.00004,1.00004
app_39,3.9393,19927.8,7973.3,26.7,62.8363,5.37254e+09,1.00267,0.951257,127,0.0866538,157,1.00004,1.00004
app_4,0.743435,20314.9,7612.5,387.5,1521.99,8.51079e+10,1.03928,0.951257,5,0.0559185,3867,1,1
app_40,18.2993,19716.4,7966,34,284.628,4.5912e+09,1.00369,0.951257,28,0.0161662,701,1.00004,1.00004
app_41,591.064,22104.8,7571.2,428.8,6.95004,1.06162e+11,1.04202,0.951257,1144,15.1661,18,1.00004,1.00004
app_42,72.1461,21085.7,7730.3,269.7,7.83819,6.13305e+10,1.02674,0.951257,973,8.7615,21,1.00004,1.00004
app_43,544.302,21942.6,7732.3,267.7,10.4471,9.52723e+10,1.02203,0.951257,730,9.52723,28,1.00004,1.00004
app_44,77.018,20679.2,7888.3,111.7,13.8671,2.8135e+10,1.01056,0.951257,565,2.00965,36,1.00004,1.00004
app_45,110.213,21524,7423.77,576.23,9.76765,1.59922e+11,1.0549,0.951257,781,16.9368,26,1.00004,1.00004
app_46,730.475,22104.2,7428.5,571.5,8.95819,1.45913e+11,1.05619,0.951257,852,16.2126,24,1.00005,1.00005
app_47,973.823,23486.3,7424.4,575.6,3.47097,1.0701e+11,1.06222,0.951257,2150,35.67,10,1.00005,1.00005
app_48,95.4674,20637.4,7704.6,295.4,22.7066,8.50014e+10,1.02701,0.951257,343,3.69571,58,1.00005,1.00005
app_49,158.579,20491.4,7974.7,25.3,24.8332,7.74292e+09,1.0022,0.951257,319,0.309717,63,1.00005,1.00005
app_5,0.588892,20517.8,7309.91,690.095,1217.21,1.79823e+11,1.06813,0.951257,6,0.147666,3126,1.00001,1.00001
app_50,382.08,21774.3,7403.5,596.5,17.2848,1.82215e+11,1.05461,0.951257,428,10.7185,46,1.00005,1.00005
app_51,598.022,22715.4,7908.8,91.2,5.01695,2.90494e+10,1.00783,0.951257,1527,5.80988,14,1.00005,1.00005
app_52,1101.33,21818.4,7775.6,224.4,6.54783,6.26402e+10,1.02064,0.951257,1195,10.44,17,1.00005,1.00005
app_53,358.382,21070.7,7777.46,222.537,19.3823,5.97385e+10,1.02077,0.951257,404,3.03253,50,1.00005,1.00005
app_54,190.172,20720.8,7762.2,237.8,7.34884,6.11076e+10,1.02259,0.951257,1056,8.72966,19,1.00005,1.00005
app_55,881.245,21640.8,7945.91,54.0889,4.62425,1.10802e+10,1.00541,0.951257,1706,2.44887,12,1.00005,1.00005
app_56,292.187,21406.9,7366.7,633.3,25.6896,1.73238e+11,1.06102,0.951257,285,6.66299,69,1.00006,1.00006
app_57,21.9109,20923.4,7472.82,527.181,213.391,1.50288e+11,1.04944,0.951257,35,0.703368,556,1.00006,1.00006
app_58,39.4736,21294.2,7481.7,518.3,20.4836,1.38722e+11,1.04981,0.951257,363,6.60579,55,1.00006,1.00006
app_59,1890.94,23814.1,7581.65,418.347,3.8668,8.40756e+10,1.04361,0.951257,1876,25.6491,11,1.00006,1.00006
app_6,8.51725,20729.6,7609.2,390.8,689.342,1.01607e+11,1.0375,0.951257,11,0.147257,1792,1.00001,1.00001
app_60,281.403,21520.9,7610.1,389.9,12.2295,1.02494e+11,1.03726,0.951257,633,8.54119,32,1.00006,1.00006
app_7,11.5409,19331.2,7897.3,102.7,659.502,1.80554e+10,1.01069,0.951257,12,0.0273567,1593,1.00001,1.00001
app_8,1.91165,20309.9,7603.3,396.7,690.034,1.01994e+11,1.03825,0.951257,11,0.147817,1756,1.00001,1.00001
app_9,0.989586,20649.7,7241.94,758.058,1209.46,2.00806e+11,1.07487,0.951257,6,0.165995,3122,1.00001,1.00001
