app_id,start_app,end_app,effective_cpu,effective_io,effective_iter,total_bytes,stretch,utilization,Tcomp,Tio,iterations,priority,group_id
app_1,0.581807,25031.9,5767.05,107.959,481.082,8.82937e+10,1.36627,0.86128,12,0.183182,1575,1,1
app_10,8.83768,24852.5,5911.2,158.772,393.3,1.38796e+11,1.32231,0.86128,15,0.352274,1267,1,1
app_11,8.53499,23883.2,6553.6,29.047,234.382,1.87423e+10,1.21722,0.86128,28,0.0800954,711,1,1
app_12,0.39404,27615.7,4067.82,208.979,2031.05,1.08761e+11,1.91544,0.86128,2,0.053524,8278,1,1
app_13,4.83889,25105.3,5557.14,58.5383,616.411,2.41267e+10,1.43337,0.86128,9,0.0391033,2039,1,1
app_14,6.01075,24330.3,6068.6,73.6944,356.682,5.65437e+10,1.30609,0.86128,17,0.158386,1116,1,1
app_15,9.43868,24447.1,6165.9,75.1228,342.274,5.94928e+10,1.28506,0.86128,18,0.173449,1075,1,1
app_16,11.0772,24093.1,5844.09,178.291,416.638,1.62417e+11,1.33189,0.86128,14,0.389489,1307,1,1
app_17,2.80748,27301.2,4897.4,164.608,978.421,1.03718e+11,1.59964,0.86128,5,0.105943,3727,1,1
app_18,4.55916,24788.7,5529,64.1544,613.961,3.66622e+10,1.43739,0.86128,9,0.0597104,2006,1,1
app_19,12.8988,24892.8,5948.25,163.599,394.612,1.44258e+11,1.31309,0.86128,15,0.36521,1275,1,1
app_2,7.62947,24919.9,6086.5,39.9887,358.489,2.316e+10,1.3094,0.86128,17,0.0645124,1159,1,1
app_20,9.04108,23751.8,6289.4,41.62,313.292,3.05801e+10,1.26583,0.86128,20,0.0977,951,1,1
app_21,57.3774,21767.9,7060.25,185.038,102.866,1.7961e+11,1.10499,0.86128,69,1.74378,280,1,1
app_22,132.573,21031.2,7427.4,172.118,40.7511,1.69983e+11,1.05299,0.86128,181,4.14594,108,1,1
app_23,17.2188,21856.7,7262.7,18.3984,79.3696,1.52723e+10,1.09921,0.86128,91,0.19332,219,1,1
app_24,96.3932,21222.1,7503,29.37,58.9675,2.62414e+10,1.06252,0.86128,127,0.44477,157,1,1
app_25,33.9733,22647.4,6833.1,93.4211,151.024,8.64054e+10,1.15615,0.86128,45,0.572221,432,1,1
app_26,184.388,21190,7612.6,52.7461,37.834,5.07731e+10,1.04393,0.86128,201,1.33613,99,1,1
app_27,47.0361,22093.9,7031.3,81.2467,121.466,7.39639e+10,1.12593,0.86128,58,0.606261,337,1,1
app_28,32.6218,21202.6,7480.2,58.2618,67.6842,5.48751e+10,1.0617,0.86128,112,0.806986,177,1,1
app_29,73.0366,21139.5,7488.5,83.8267,55.3675,8.15905e+10,1.05679,0.86128,136,1.48346,146,1,1
app_3,1.2679,28058.8,4676.45,204.712,1170.19,1.26776e+11,1.66555,0.86128,4,0.108263,4687,1,1
app_30,49.6933,21917.2,7166.7,67.3681,91.619,6.37516e+10,1.10643,0.86128,78,0.692952,253,1,1
app_31,64.3161,21425.8,7289.7,172.716,71.9739,1.68697e+11,1.07262,0.86128,101,2.34302,193,1,1
app_32,20.6952,22414.1,6921.3,88.2326,144.411,8.17768e+10,1.14236,0.86128,48,0.567895,406,1,1
app_33,276.481,20970.5,7644.1,105.802,26.5518,1.04363e+11,1.03246,0.86128,286,4.01397,69,1,1
app_34,37.9176,22039.1,7010.1,167.963,118.507,1.62672e+11,1.11533,0.86128,59,1.36699,327,1,1
app_35,18.174,22830.3,6727,121.887,167.419,1.15226e+11,1.16921,0.86128,40,0.689975,485,1,1
app_36,50.312,21921.8,7156.11,10.3803,98.5526,5.16749e+09,1.11712,0.86128,73,0.0521968,271,1,1
app_37,169.433,20755.9,7614.11,195.506,27.8353,1.94136e+11,1.02456,0.86128,277,7.0734,71,1,1
app_38,10.081,22453.3,6967.7,130.782,129.435,1.24145e+11,1.12806,0.86128,54,0.962363,364,1,1
app_39,8.80093,24690.7,5669.3,146.19,517.998,1.1614e+11,1.38278,0.86128,11,0.224208,1663,1,1
app_4,1.68895,23700.9,6309.3,47.4111,286.242,3.01306e+10,1.26194,0.86128,22,0.105352,867,1,1
app_40,48.2858,21990,7090.6,12.0525,113.059,6.39985e+09,1.12724,0.86128,63,0.0566359,313,1,1
app_41,1530.32,22784.6,7796.8,157.133,3.88286,1.56953e+11,1.00581,0.86128,2037,52.3176,10,1,1
app_42,455.383,20826.7,7868.8,105.102,3.40295,1.04952e+11,1.00329,0.86128,2190,34.9841,9,1,1
app_43,158.46,20959.2,7862.2,127.087,3.12267,1.26969e+11,1.00136,0.86128,2606,42.323,8,1,1
app_44,299.165,21818.8,7941,12.5848,7.6464,1.20848e+10,1.0059,0.86128,995,1.51059,21,1,1
app_45,33.4255,22267.4,7902.1,37.5954,3.85585,3.74758e+10,1.00761,0.86128,1976,12.4919,11,1,1
app_46,778.759,21006.1,7886.2,59.2187,9.45484,5.86312e+10,1.00694,0.86128,830,6.51458,24,1,1
app_47,369.475,20778.2,7769.3,154.657,8.72711,1.54327e+11,1.00964,0.86128,911,19.2908,22,1,1
app_48,148.927,20512.7,7682.5,162.935,11.3161,1.62663e+11,1.01974,0.86128,678,14.7875,29,1,1
app_49,765.57,21144.8,7936.2,21.4496,8.65975,2.10412e+10,1.00537,0.86128,926,2.33791,22,1,1
app_5,18.3912,23960.1,6312.1,76.4223,287.203,5.79277e+10,1.25588,0.86128,22,0.201839,883,1,1
app_50,309.436,20662.8,7750.7,201.606,16.5402,2.00733e+11,1.00611,0.86128,479,12.5458,41,1,1
app_51,405.686,22032.1,7953.1,45.8969,4.39296,4.5729e+10,1.00015,0.86128,1745,11.4322,12,1,1
app_52,930.906,22913.1,7813.9,121.868,3.50475,1.2174e+11,1.00811,0.86128,2177,40.58,10,1,1
app_53,684.267,21649.2,7845.8,79.3774,11.634,7.90515e+10,1.00948,0.86128,681,6.58763,30,1,1
app_54,7.38667,20737.1,7794.5,197.579,5.92428,1.97239e+11,1.00103,0.86128,1306,32.8731,15,1,1
app_55,1086.01,22344.9,7870.9,77.0221,4.39765,7.67719e+10,1.00658,0.86128,1766,15.3544,12,1,1
app_56,312.888,20997,7803.8,123.103,10.3595,1.22685e+11,1.00927,0.86128,734,12.2685,27,1,1
app_57,715.917,21623.3,7777,63.9309,9.85457,6.34998e+10,1.02034,0.86128,792,6.34998,26,1,1
app_58,239.217,21421.6,7875.2,87.0506,5.39093,8.66742e+10,1.00479,0.86128,1458,14.4457,14,1,1
app_59,49.226,21116.3,7318.3,174.517,60.0168,1.72034e+11,1.06804,0.86128,123,2.86724,159,1,1
app_6,4.56485,24820.4,5750.48,44.6055,522.676,1.48971e+10,1.38759,0.86128,11,0.028484,1697,1,1
app_60,82.1783,21013,7395.8,175.791,49.2702,1.7294e+11,1.05698,0.86128,153,3.52939,128,1,1
app_7,11.9792,24777.8,6049.8,72.3375,355.356,5.52997e+10,1.31038,0.86128,17,0.155336,1145,1,1
app_8,9.44147,24215.4,5941.5,122.73,396.679,1.0374e+11,1.32335,0.86128,15,0.26131,1239,1,1
app_9,0.592827,26896.8,4888.9,167.941,978.485,1.07382e+11,1.60119,0.86128,5,0.109685,3646,1,1
