app_id,start_app,end_app,effective_cpu,effective_io,effective_iter,total_bytes,stretch,utilization,Tcomp,Tio,iterations,priority,group_id
app_1,3.12169,18130.6,7331.7,668.3,2445.2,1.51857e+11,1.06901,0.949818,3,0.0621092,5556,1,1
app_10,6.61264,19749.7,7637.5,362.5,953.408,8.70922e+10,1.03565,0.949818,8,0.0913874,2361,1.00001,1.00001
app_11,6.99366,19697.7,7797.8,202.2,777.242,4.25886e+10,1.02036,0.949818,10,0.0548116,1917,1.00001,1.00001
app_12,14.196,19699.5,7949.9,50.1,345.722,8.4656e+09,1.00523,0.949818,23,0.024467,849,1.00001,1.00001
app_13,2.72519,20299.3,7329.2,670.8,1223.42,1.67477e+11,1.06714,0.949818,6,0.136939,3119,1.00001,1.00001
app_14,6.47489,20436.7,7704.5,295.5,857.681,6.9612e+10,1.02906,0.949818,9,0.0811328,2193,1.00001,1.00001
app_15,0.275782,20153.9,7475.9,524.1,414.8,1.35679e+11,1.05103,0.949818,18,0.326938,1051,1.00002,1.00002
app_16,9.43754,19825.1,7491.2,508.802,533.588,1.35219e+11,1.04899,0.949818,14,0.253611,1327,1.00002,1.00002
app_17,2.21594,19256.3,7097.6,902.4,3547.11,2.00705e+11,1.09614,0.949818,2,0.0565843,8587,1.00002,1.00002
app_18,2.66138,20471.6,7673.1,326.9,2559.41,5.02418e+10,1.03582,0.949818,3,0.0196334,6549,1.00002,1.00002
app_19,9.95925,20304.7,7555.4,444.6,315.753,1.20796e+11,1.04218,0.949818,24,0.383478,800,1.00002,1.00002
app_2,7.70155,20648.1,7483.3,516.7,499.287,1.36985e+11,1.04983,0.949818,15,0.274519,1291,1,1
app_20,1.50876,19565.6,7849.8,150.2,524.807,3.30897e+10,1.01486,0.949818,15,0.0630281,1282,1.00002,1.00002
app_21,87.6722,20948.9,7445.34,554.664,76.2115,1.47325e+11,1.05365,0.949818,98,1.91768,199,1.00002,1.00002
app_22,56.6683,21017.4,7325.3,674.7,73.4216,1.74239e+11,1.06673,0.949818,100,2.38683,195,1.00002,1.00002
app_23,34.0763,20068.9,7994,6,60.4488,9.7317e+06,1.00075,0.949818,131,0.000162195,152,1.00002,1.00002
app_24,69.1328,20848.3,7514.02,485.979,45.4626,1.37792e+11,1.0455,0.949818,164,3.05158,120,1.00002,1.00002
app_25,84.2949,20260.2,7967.9,32.1,31.6223,7.70899e+09,1.00306,0.949818,252,0.240906,80,1.00003,1.00003
app_26,151.533,20504.3,7729.2,270.8,31.1752,7.18066e+10,1.02551,0.949818,250,2.31634,79,1.00003,1.00003
app_27,92.6882,21219.1,7323.01,676.986,35.0946,1.91268e+11,1.06464,0.949818,208,5.40075,94,1.00003,1.00003
app_28,78.8532,20977.7,7421.6,578.4,89.7875,1.53506e+11,1.05609,0.949818,83,1.70562,235,1.00003,1.00003
app_29,29.9103,20637.9,7600.1,399.9,55.3399,1.17433e+11,1.0366,0.949818,137,2.13514,143,1.00003,1.00003
app_3,0.526031,18548.3,7638.86,361.142,953.029,8.57096e+10,1.03566,0.949818,8,0.0899325,2214,1,1
app_30,30.1079,20301.2,7742.1,257.9,90.1729,6.50933e+10,1.0247,0.949818,86,0.723259,229,1.00003,1.00003
app_31,63.9197,21121.7,7433.62,566.381,28.022,1.432e+11,1.05585,0.949818,266,5.10062,74,1.00003,1.00003
app_32,4.54745,20414.3,7610.1,389.9,86.8473,1.10805e+11,1.03615,0.949818,88,1.27362,222,1.00003,1.00003
app_33,109.804,20966.4,7390.5,609.5,45.5068,1.53856e+11,1.0604,0.949818,164,3.3447,119,1.00003,1.00003
app_34,45.8205,21069.9,7369.67,630.327,63.8682,1.71274e+11,1.06087,0.949818,116,2.70083,169,1.00003,1.00003
app_35,108.069,20685.9,7668,332,62.6174,8.72782e+10,1.03156,0.949818,123,1.40771,161,1.00004,1.00004
app_36,149.154,20618.9,7728.6,271.4,46.6075,7.32348e+10,1.0254,0.949818,168,1.55819,118,1.00004,1.00004
app_37,8.6812,20174.4,7716,284,125.009,7.88823e+10,1.02631,0.949818,62,0.631059,315,1.00004,1.00004
app_38,0.837774,19185.8,7940.2,59.8,528.423,7.42527e+09,1.00659,0.949818,15,0.014063,1268,1.00004,1.00004
app_39,31.4254,20817.3,7486.9,513.1,100.294,1.48619e+11,1.04773,0.949818,74,1.48619,263,1.00004,1.00004
app_4,9.25468,21007,7367.27,632.731,305.599,1.72424e+11,1.06105,0.949818,24,0.565152,806,1,1
app_40,21.8551,20301.1,7720.8,279.2,285.88,7.19305e+10,1.0266,0.949818,27,0.251505,728,1.00004,1.00004
app_41,501.229,21338.9,7942.7,57.3,8.3793,1.79906e+10,1.00494,0.949818,947,1.99896,22,1.00004,1.00004
app_42,1651.8,22494.8,7649,351,4.71226,1.24193e+11,1.02918,0.949818,1654,24.8386,12,1.00004,1.00004
app_43,284.207,21904.1,7485.2,514.8,15.7888,1.50305e+11,1.04774,0.949818,464,9.39404,43,1.00004,1.00004
app_44,803.749,22424.8,7477.8,522.2,4.24726,1.64542e+11,1.0468,0.949818,1689,32.9084,12,1.00004,1.00004
app_45,66.7866,21104.5,7737.4,262.6,6.02614,1.09751e+11,1.01948,0.949818,1265,18.2919,16,1.00004,1.00004
app_46,827.756,22699.3,7427.62,572.375,4.68837,1.86399e+11,1.05069,0.949818,1571,38.4462,13,1.00005,1.00005
app_47,288.776,21805.2,7475.9,524.1,5.89124,1.0078e+11,1.05587,0.949818,1268,16.7967,16,1.00005,1.00005
app_48,387.757,21363.7,7671.9,328.1,8.51021,1.10331e+11,1.02798,0.949818,872,13.7914,23,1.00005,1.00005
app_49,538.103,21967.4,7498.6,501.4,5.31494,1.26165e+11,1.04921,0.949818,1445,25.2331,14,1.00005,1.00005
app_5,2.83114,20470.2,7398.7,601.3,1847.29,1.41235e+11,1.06102,0.949818,4,0.0764674,4751,1.00001,1.00001
app_50,1482.67,22952.2,7397.5,602.5,3.39532,1.1986e+11,1.0642,0.949818,2203,29.965,9,1.00005,1.00005
app_51,26.0588,21240.6,7814.7,185.3,8.26682,4.99015e+10,1.01722,0.949818,938,6.23769,22,1.00005,1.00005
app_52,326.055,21749.3,7272.5,727.5,21.5257,1.73554e+11,1.07439,0.949818,341,8.26448,58,1.00005,1.00005
app_53,950.749,22412.9,7570.7,429.3,6.90063,9.85544e+10,1.04313,0.949818,1087,14.0792,19,1.00005,1.00005
app_54,148.972,21072.1,7617.84,382.162,30.0168,1.06294e+11,1.03572,0.949818,251,3.53917,79,1.00005,1.00005
app_55,948.672,21280.9,7828.6,171.4,5.42537,3.25056e+10,1.01767,0.949818,1435,6.50112,14,1.00005,1.00005
app_56,427.465,21727.5,7600.99,399.007,16.6054,9.23297e+10,1.03986,0.949818,456,5.53778,44,1.00006,1.00006
app_57,431.25,20830.3,7795.4,204.6,14.583,6.90678e+10,1.01723,0.949818,539,4.93342,37,1.00006,1.00006
app_58,517.549,22520.8,7454.2,545.8,5.95625,1.63885e+11,1.05013,0.949818,1291,28.7749,16,1.00006,1.00006
app_59,295.551,22355.1,7800.2,199.8,3.96771,4.02694e+10,1.02035,0.949818,1986,10.0673,11,1.00006,1.00006
app_6,10.8022,19069,7867.2,132.8,715.225,2.5522e+10,1.01359,0.949818,11,0.0356951,1710,1.00001,1.00001
app_60,18.1049,20709.2,7589.72,410.283,181.258,1.08885e+11,1.03915,0.949818,42,0.601136,470,1.00006,1.00006
app_7,0.29214,19898.6,7859.1,140.9,874.073,2.51308e+10,1.01468,0.949818,9,0.0287537,2174,1.00001,1.00001
app_8,25.255,19655.4,7921.5,78.5,307.133,1.61075e+10,1.00786,0.949818,26,0.0524673,748,1.00001,1.00001
app_9,2.4233,20906.4,7247.7,752.3,2420.8,1.78733e+11,1.07723,0.949818,3,0.0738261,6353,1.00001,1.00001
