app_id,start_app,end_app,effective_cpu,effective_io,effective_iter,total_bytes,stretch,utilization,Tcomp,Tio,iterations,priority,group_id
app_1,0.913897,25329.6,5479.64,190.005,496.036,1.61911e+11,1.41805,0.862441,11,0.326433,1681,1,1
app_10,17.0981,24485.9,5807.16,177.391,363.557,1.58679e+11,1.34097,0.862441,16,0.437131,1165,1,1
app_11,1.47918,27141.9,5049.19,122.631,723.116,7.53918e+10,1.5611,0.862441,7,0.104276,2750,1,1
app_12,8.87273,26049.4,5601.29,123.251,467.091,9.41433e+10,1.40463,0.862441,12,0.201592,1629,1,1
app_13,8.3683,24510.2,5999.8,127.674,333.243,1.09527e+11,1.30947,0.862441,18,0.32891,1063,1,1
app_14,13.8344,23840.3,6135.8,117.898,292.008,1.04065e+11,1.28208,0.862441,21,0.356386,898,1,1
app_15,2.79229,25111.3,5382.73,46.858,597.871,9.9109e+09,1.4835,0.862441,9,0.0166012,2012,1,1
app_16,14.2149,25327.3,5762.58,130.235,412.544,1.12196e+11,1.36175,0.862441,14,0.27232,1376,1,1
app_17,5.65699,25360.9,5426.3,108.332,544.153,8.07531e+10,1.45268,0.862441,10,0.148443,1846,1,1
app_18,7.60463,25407.2,5576.08,177.922,464.006,1.51435e+11,1.39677,0.862441,12,0.326369,1564,1,1
app_19,2.25229,23864.9,6317.52,80.8114,241.733,7.11799e+10,1.25221,0.862441,26,0.295352,746,1,1
app_2,0.363272,26176.1,4244.68,103.855,1415.41,1.21026e+10,1.87936,0.862441,3,0.00855307,5363,1,1
app_20,5.6766,25799.9,5161.73,113.353,644.393,7.52495e+10,1.5276,0.862441,8,0.116847,2291,1,1
app_21,3.16277,25357.7,4516.59,80.7854,1130.97,9.03944e+09,1.76771,0.862441,4,0.0079995,4030,1,1
app_22,21.7362,21720.7,7260.7,138.983,90.4846,1.35312e+11,1.08166,0.862441,80,1.48694,243,1,1
app_23,18.7148,20886.7,7636.45,4.66444,39.1578,2.94701e+09,1.0472,0.862441,196,0.0755643,102,1,1
app_24,106.136,21533.1,7356.2,138.148,67.81,1.35272e+11,1.06788,0.862441,108,1.98929,181,1,1
app_25,58.8139,21731.4,7258,62.9924,74.72,5.97792e+10,1.09323,0.862441,98,0.797055,202,1,1
app_26,90.6312,20882,7578.2,75.7804,32.5904,7.40812e+10,1.04544,0.862441,236,2.24488,84,1,1
app_27,44.9434,21028.1,7551.8,107.223,54.2687,1.0446e+11,1.0449,0.862441,141,1.93445,140,1,1
app_28,35.0193,20681.6,7664.6,88.4719,35.3434,8.73487e+10,1.032,0.862441,218,2.49568,91,1,1
app_29,74.7078,20652.2,7549.92,191.383,32.8623,1.89706e+11,1.03364,0.862441,233,5.92832,84,1,1
app_3,16.7497,24506.9,6107.37,193.259,292.107,1.75583e+11,1.27329,0.862441,21,0.601311,922,1,1
app_30,48.134,21469.9,7306.6,132.07,66.8885,1.2832e+11,1.076,0.862441,110,1.91523,178,1,1
app_31,77.4413,21412.9,7437.5,21.721,64.7564,1.91453e+10,1.07287,0.862441,113,0.294543,176,1,1
app_32,84.1999,21499,7458.9,38.8458,64.3188,3.53666e+10,1.06748,0.862441,117,0.544102,170,1,1
app_33,18.9735,22682.1,6856.4,149.049,163.403,1.42856e+11,1.14298,0.862441,42,0.876414,461,1,1
app_34,219.284,20867.4,7646.4,154.177,28.9811,1.53034e+11,1.02572,0.862441,262,5.27704,75,1,1
app_35,119.574,20828.3,7516,195.797,34.6396,1.93878e+11,1.03763,0.862441,219,5.53936,89,1,1
app_36,179.413,20852.4,7718.5,26.0167,34.2789,2.3819e+10,1.03328,0.862441,223,0.70056,90,1,1
app_37,86.935,21636.5,7366.2,143.321,76.2443,1.39061e+11,1.06592,0.862441,96,1.82976,204,1,1
app_38,126.912,21302.7,7648.6,5.9862,42.235,4.13415e+09,1.04538,0.862441,182,0.0984323,110,1,1
app_39,33.6879,22376.7,6913,152.611,128.398,1.45845e+11,1.13333,0.862441,54,1.13941,359,1,1
app_4,9.64044,24119.1,6162.9,38.8751,279.76,2.72679e+10,1.29237,0.862441,22,0.0973855,876,1,1
app_40,112.514,20924.5,7713.5,13.1521,43.3132,1.07225e+10,1.0357,0.862441,183,0.243694,109,1,1
app_41,450.869,21298.4,7867.4,27.7514,8.70435,2.72936e+10,1.01334,0.862441,883,3.4117,23,1,1
app_42,232.918,20906.3,7619.6,210.223,26.1912,2.08524e+11,1.02196,0.862441,297,8.02017,66,1,1
app_43,1470.89,22125.7,7775.9,210.137,3.93867,2.09867e+11,1.00178,0.862441,2003,52.4668,10,1,1
app_44,195.093,20832.8,7722.7,22.8204,29.1099,2.13031e+10,1.03306,0.862441,266,0.734591,75,1,1
app_45,733.437,21494.4,7761.9,199.218,8.4281,1.98865e+11,1.00493,0.862441,925,22.0961,22,1,1
app_46,1372.05,22317.5,7799.7,181.164,3.67201,1.80973e+11,1.00242,0.862441,2103,60.3243,10,1,1
app_47,211.007,20338.1,7884.2,93.6599,8.16846,9.328e+10,1.00282,0.862441,1015,11.66,20,1,1
app_48,95.2621,20501.3,7670.7,144.569,17.8675,1.43873e+11,1.02373,0.862441,428,7.99297,46,1,1
app_49,1079.73,22504.1,7830.9,132.151,6.12212,1.31904e+11,1.00467,0.862441,1295,21.984,16,1,1
app_5,3.63317,26308.4,4217.72,139.498,1408.48,6.76811e+10,1.8668,0.862441,3,0.0480689,5370,1,1
app_50,274.939,21096.1,7871.9,35.4592,10.9998,3.49067e+10,1.01179,0.862441,706,3.17334,29,1,1
app_51,626.335,21330.8,7776.2,160.564,11.635,1.59925e+11,1.00805,0.862441,675,13.3271,30,1,1
app_52,376.432,21760.2,7751.76,127.586,8.23353,1.27198e+11,1.01536,0.862441,937,14.4169,22,1,1
app_53,393.897,20643.1,7732.5,196.509,15.0869,1.95637e+11,1.00906,0.862441,516,13.0425,38,1,1
app_54,1023.67,21675,7979.3,0.81543,4.89365,5.55622e+08,1.00252,0.862441,1568,0.111124,13,1,1
app_55,366.277,22905.4,7929.1,52.9819,2.45197,5.28232e+10,1.00226,0.862441,3097,17.6077,7,1,1
app_56,1601.05,23644.8,7837.5,86.9054,4.72798,8.66866e+10,1.00957,0.862441,1638,17.3373,13,1,1
app_57,1051.64,21021.2,7872.4,94.1141,5.82563,9.38767e+10,1.00423,0.862441,1429,15.6461,14,1,1
app_58,391.678,20687.8,7912.8,37.0655,9.48983,3.66496e+10,1.00636,0.862441,842,4.07218,24,1,1
app_59,773.011,22396.6,7922.2,34.6536,5.56582,3.44674e+10,1.00545,0.862441,1395,5.74457,15,1,1
app_6,13.5808,24500.7,6020.27,155.39,315.73,1.38925e+11,1.29887,0.862441,19,0.441032,1008,1,1
app_60,1687.54,23316.4,7843.2,109.147,4.00294,1.09048e+11,1.006,0.862441,1955,27.262,11,1,1
app_7,5.31923,27085.8,5202.9,75.646,655.487,4.70764e+10,1.52382,0.862441,8,0.0718724,2471,1,1
app_8,11.8106,25544.2,5653.44,94.7139,435.193,7.5275e+10,1.39647,0.862441,13,0.173046,1491,1,1
app_9,5.59165,24045.5,6346.67,18.1871,243.496,5.21457e+09,1.25947,0.862441,26,0.0214591,762,1,1
