app_id,Tcomp,Tio,iter,witer,alpha_io,compute_size,io_size,mu,desyn_time
1,11.127653140213523,0.07855902384554239,1785,11.206212164059066,0.007010310236450769,11e9,78559023.84554239,10,8.485466626784223
2,9.862065461211303,0.20698505957602967,1987,10.069050520787332,0.020556561827623526,9e9,206985059.57602966,10,1.8800435874727648
3,10.371411907059313,0.19469531822502367,1893,10.566107225284338,0.018426400004641668,10e9,194695318.2250237,10,4.926838918035134
4,8.666410313570955,0.11601670125869844,2278,8.782427014829654,0.013210095690268452,8e9,116016701.25869843,10,2.544971657504749
5,9.881489466909652,0.1866273921849774,1987,10.06811685909463,0.01853647457581852,9e9,186627392.1849774,10,4.76082861996994
6,7.571214868990527,0.12722708007953923,2598,7.698441949070066,0.016526341423527605,7e9,127227080.07953922,10,7.236513404771457
7,10.311188041000129,0.13491415296946116,1915,10.44610219396959,0.012915262598842417,10e9,134914152.96946117,10,8.544543707533062
8,8.196855275405188,0.0981130446618089,2412,8.294968320066996,0.011828019213100076,8e9,98113044.6618089,10,1.7108481246114546
9,8.991281190616691,0.03807078393752288,2215,9.029351974554213,0.004216336238172006,8e9,38070783.93752288,10,1.8966884569273204
10,9.394703509742495,0.07504031838427766,2112,9.469743828126774,0.007924218410364487,9e9,75040318.38427766,10,1.2503213686113241
11,9.186610996193156,0.2406785962659834,2122,9.42728959245914,0.02552998864684304,9e9,240678596.2659834,10,6.002527677011453
12,10.03243933028527,0.059415123502425844,1982,10.091854453787695,0.005887433650029112,10e9,59415123.50242584,10,7.43947904717299
13,11.560456510387489,0.02086462954750697,1727,11.581321139934996,0.0018015759424510767,11e9,20864629.54750697,10,4.414829329358597
14,10.001213599732564,0.11698779118704987,1977,10.118201390919614,0.011562113330936298,10e9,116987791.18704987,10,0.5176247042222706
15,9.599573664825293,0.14781302228905613,2052,9.74738668711435,0.01516437451737284,9e9,147813022.28905612,10,8.728273266945166
16,10.534322491681221,0.20362882681070726,1863,10.737951318491929,0.01896347084941949,10e9,203628826.81070727,10,2.089123242395042
17,9.639748059423518,0.19343519754039656,2034,9.833183256963915,0.019671676250252398,9e9,193435197.54039657,10,0.4867977213928876
18,11.216007498308024,0.2443563560411377,1746,11.460363854349161,0.021321867189095,11e9,244356356.0411377,10,7.417716157904831
19,10.194147622678006,0.06846068475290731,1949,10.262608307430913,0.006670885480773591,10e9,68460684.75290732,10,9.701986858611967
20,10.020432573704221,0.06247124154203165,1984,10.082903815246253,0.006195758948683964,10e9,62471241.54203165,10,8.498859851598246
21,94.61002582151268,0.7001476081539821,210,95.31017342966666,0.00734599028581823,94e9,700147608.1539822,100,73.80184275855405
22,99.15600711488969,0.2990040755544833,202,99.45501119044417,0.0030064254377482006,99e9,299004075.5544833,100,90.8356856668067
23,86.53906557224467,0.7498731767053123,230,87.28893874894997,0.008590701037871568,86e9,749873176.7053123,100,11.133525650668552
24,100.68110404364127,2.2514461153019947,195,102.93255015894326,0.02187302375998093,100e9,2251446115.301995,100,66.50702588757062
25,91.33856390467123,2.3494657452004186,214,93.68802964987165,0.025077544633831855,91e9,2349465745.2004185,100,0.7537421753199617
26,88.08624963558374,0.9234305069006671,225,89.00968014248441,0.010374495284360793,88e9,923430506.9006671,100,10.55752701617599
27,94.11944037310612,0.6285188830186882,212,94.7479592561248,0.00663358755115413,94e9,628518883.0186882,100,40.2191180704656
28,99.40916725565273,1.9343382900397845,198,101.34350554569252,0.019086948686294,99e9,1934338290.0397844,100,19.69837510715769
29,96.58231898698862,0.836601079784858,206,97.41892006677348,0.008587665303735965,96e9,836601079.784858,100,4.4286915059392715
30,93.38906028272426,0.5010691606266654,214,93.89012944335093,0.005336760781962581,93e9,501069160.6266654,100,65.00053824566325
31,97.11326294314377,1.3417517750640862,204,98.45501471820785,0.013628069417331044,97e9,1341751775.0640862,100,32.132090659499596
32,105.25989968932062,1.7680819067160052,187,107.02798159603662,0.016519809869809592,105e9,1768081906.716005,100,80.3390944895572
33,96.76947597511237,0.5875799642447253,206,97.3570559393571,0.006035309496321704,96e9,587579964.2447252,100,94.18609045152257
34,99.72055949822638,2.2200970444159944,197,101.94065654264237,0.021778327898911605,99e9,2220097044.4159946,100,23.462894035882506
35,89.56970556554131,0.5101899476717066,223,90.07989551321302,0.005663749327916031,89e9,510189947.67170656,100,87.46759053495796
36,106.37274782656382,1.607898023514206,186,107.98064585007803,0.014890613135863588,106e9,1607898023.514206,100,98.59856826097861
37,91.45606750996734,0.29433827583861183,218,91.75040578580595,0.0032080324148729463,91e9,294338275.83861184,100,90.62247349190373
38,93.8304701410503,1.5625269092672693,210,95.39299705031756,0.016379891161644424,93e9,1562526909.2672694,100,93.03351426890984
39,104.08222220747861,1.217487347202419,190,105.29970955468103,0.01156211496072732,104e9,1217487347.202419,100,94.1120841212248
40,97.89801642155189,2.0897377956157785,201,99.98775421716766,0.02089993731709373,97e9,2089737795.6157784,100,61.16039345959777
41,1034.5397806059398,5.94878199972866,20,1040.4885626056684,0.005717296867570827,1034e9,5948781999.728661,1000,728.6529444519273
42,1032.1842495112544,12.399646483368247,20,1044.5838959946227,0.011870417044445875,1032e9,12399646483.368248,1000,928.5222201573033
43,1263.785719673323,6.490697365269735,16,1270.2764170385926,0.005109673200421653,1263e9,6490697365.269735,1000,112.78021102365433
44,935.882830876908,5.576340665039998,22,941.459171541948,0.005923082841613739,935e9,5576340665.039998,1000,766.6757235768151
45,1055.5841376927733,14.717385192000533,19,1070.301522884774,0.013750690695396656,1055e9,14717385192.000532,1000,423.00516876993606
46,862.7003052598819,7.987289640726602,23,870.6875949006086,0.009173542482408256,862e9,7987289640.726603,1000,268.69360409868153
47,814.9143087509274,18.781848219198473,24,833.6961569701258,0.022528409255785368,814e9,18781848219.19847,1000,470.3461431469332
48,914.154579987689,19.459581426249088,22,933.6141614139381,0.02084328005134153,914e9,19459581426.24909,1000,102.86926698635035
49,1134.1847752789986,23.59589733613681,18,1157.7806726151355,0.02038028263404986,1134e9,23595897336.13681,1000,318.23021519989305
50,957.7293912553678,16.81918150227617,21,974.5485727576439,0.017258433260728664,957e9,16819181502.276169,1000,24.024412062493788
51,958.2915683671976,9.31253997742527,21,967.6041083446228,0.009624328686819204,958e9,9312539977.42527,1000,865.7251666365399
52,1074.3472744419385,25.095854493526307,19,1099.4431289354648,0.02282596874094375,1074e9,25095854493.526306,1000,105.2975905119615
53,1050.2737642284565,24.404002643879206,19,1074.6777668723357,0.02270820463226186,1050e9,24404002643.879208,1000,378.3802402597006
54,993.8979328907573,15.670977564713334,20,1009.5689104554706,0.015522444681506008,993e9,15670977564.713335,1000,996.7486253939209
55,908.9757857399583,17.151353879394282,22,926.1271396193525,0.018519437716125735,908e9,17151353879.394281,1000,732.6354288265244
56,1139.007602824152,3.6407634339744606,18,1142.6483662581263,0.00318625006737375,1139e9,3640763433.9744606,1000,407.20870764997915
57,1162.961094344973,7.021402591002459,18,1169.9824969359754,0.006001288574308209,1162e9,7021402591.002459,1000,983.846939080187
58,919.0081778216789,23.167040145233322,22,942.1752179669122,0.024588887187273603,919e9,23167040145.233322,1000,6.29743694099823
59,772.0006674951386,16.72950688628842,26,788.730174381427,0.0212106845023506,772e9,16729506886.28842,1000,66.0943947071143
60,968.1835542445828,12.612283268448474,21,980.7958375130312,0.012859234089358483,968e9,12612283268.448473,1000,497.9376614653024
