app_id,start_app,end_app,effective_cpu,effective_io,effective_iter,total_bytes,stretch,utilization,Tcomp,Tio,iterations,priority,group_id
app_1,0.290033,18385.4,7828,125.04,858.824,8.33618e+10,1.0112,0.967511,9,0.0970452,1984,0.1,1
app_10,6.13143,19915.4,7696.6,262.07,860.132,2.15006e+11,1.01117,0.967511,9,0.250007,2131,0.1,1
app_11,10.4769,20035.5,7895.4,59.7207,719.239,3.34468e+09,1.01282,0.967511,11,0.00465185,1796,0.1,1
app_12,8.00535,19924.9,7699.3,261.089,770.556,2.10698e+11,1.01138,0.967511,10,0.273278,1920,0.1,1
app_13,1.14649,18345.7,7836.2,107.956,975.858,7.53718e+10,1.01118,0.967511,8,0.0772252,2237,0.1,1
app_14,0.893209,18725.5,7745.3,206.255,855.929,1.56909e+11,1.01238,0.967511,9,0.183519,2010,0.1,1
app_15,9.24471,20138.1,7799,160.699,779.375,1.23734e+11,1.00975,0.967511,10,0.158837,1960,0.1,1
app_16,0.402313,18674.6,7792.8,163.683,864.272,9.78811e+10,1.01385,0.967511,9,0.113288,2025,0.1,1
app_17,9.26746,19166,7778.1,172.127,866.88,1.20207e+11,1.01288,0.967511,9,0.138647,2069,0.1,1
app_18,4.85568,18703.9,7778,170.711,878.481,1.13363e+11,1.01377,0.967511,9,0.128968,2038,0.1,1
app_19,4.22566,19412,7856.1,92.1982,877.422,5.19997e+10,1.01162,0.967511,9,0.0592927,2127,0.1,1
app_2,5.75136,20080.7,7857.7,96.0218,876.869,6.42328e+10,1.00985,0.967511,9,0.0732415,2195,0.1,1
app_20,3.08324,20011,7722.9,237.254,763.451,2.03606e+11,1.00927,0.967511,10,0.26685,1913,0.1,1
app_21,34.3281,20549.5,7684.8,246.499,73.5908,1.65275e+11,1.0191,0.967511,103,2.26404,189,0.01,2
app_22,76.6755,20506.3,7914.6,20.8748,78.7286,1.0722e+10,1.00942,0.967511,97,0.135722,206,0.01,2
app_23,111.614,20082.3,7721.6,221.08,67.7387,1.52331e+11,1.01601,0.967511,115,2.24016,170,0.01,2
app_24,4.33977,20370.1,7879.9,33.882,78.465,2.13676e+10,1.0125,0.967511,99,0.270476,201,0.01,2
app_25,65.9598,20410.1,7639.8,281.117,104.596,1.92734e+11,1.02138,0.967511,71,1.85321,274,0.01,2
app_26,52.903,20481.7,7656,271.544,82.5589,1.85114e+11,1.02026,0.967511,93,2.25748,210,0.01,2
app_27,102.668,20108.3,7812.9,131.574,71.8964,8.6809e+10,1.0127,0.967511,107,1.22266,185,0.01,2
app_28,39.7354,19983.1,7866.7,62.8702,75.4696,4.24121e+10,1.01149,0.967511,104,0.558054,190,0.01,2
app_29,34.1671,20286,7691,239.747,89.2128,1.63661e+11,1.0185,0.967511,87,1.83888,224,0.01,2
app_3,4.50386,19045,7790.4,167.383,873.222,1.01881e+11,1.01365,0.967511,9,0.116702,2070,0.1,1
app_30,63.7434,20477.9,7654.9,260.289,89.6541,1.78427e+11,1.02128,0.967511,86,1.98252,226,0.01,2
app_31,68.305,20134.5,7893.4,34.8456,76.4989,2.21261e+10,1.01067,0.967511,103,0.291133,193,0.01,2
app_32,61.9172,20343.6,7836.8,102.73,75.8405,6.97706e+10,1.01182,0.967511,104,0.918035,190,0.01,2
app_33,74.5877,20419.8,7688.5,225.654,88.5951,1.6025e+11,1.01927,0.967511,86,1.80056,226,0.01,2
app_34,36.6319,20639.1,7826.5,96.9566,95.13,5.99919e+10,1.01439,0.967511,79,0.631494,251,0.01,2
app_35,99.4127,20337.4,7633.8,289.716,79.7819,2.02137e+11,1.02094,0.967511,97,2.52672,200,0.01,2
app_36,76.4331,20040.1,7780.8,162.253,71.7725,1.14053e+11,1.01332,0.967511,108,1.58406,182,0.01,2
app_37,18.2286,20038.4,7667.1,247.414,102.29,1.67406e+11,1.02112,0.967511,78,1.64124,251,0.01,2
app_38,35.4683,20460.3,7671.3,267.138,80.0947,1.87734e+11,1.01794,0.967511,97,2.34667,201,0.01,2
app_39,27.6932,20057.5,7920.1,17.2256,72.4088,8.02738e+09,1.00907,0.967511,110,0.109964,181,0.01,2
app_4,3.74154,18910.3,7749.8,198.564,966.779,1.52445e+11,1.01237,0.967511,8,0.157647,2276,0.1,1
app_40,5.4856,20152.1,7705.2,218.285,74.8367,1.47369e+11,1.01877,0.967511,104,1.96491,188,0.01,2
app_41,295.981,19795.5,7757.2,187.971,8.39542,9.43373e+10,1.01891,0.967511,983,11.7922,21,0.001,3
app_42,865.1,21197.7,7675.9,239.938,6.60457,1.15115e+11,1.02682,0.967511,1034,19.1858,19,0.001,3
app_43,841.793,23028.3,7594.8,343.401,7.37737,1.59596e+11,1.03167,0.967511,983,19.9495,20,0.001,3
app_44,28.1468,21134.7,7879.4,83.5611,7.81344,3.24209e+10,1.01115,0.967511,1055,4.05262,19,0.001,3
app_45,319.046,21128.3,7554.1,369.625,8.25443,1.66996e+11,1.03612,0.967511,897,18.5551,22,0.001,3
app_46,902.63,21277.9,7653.6,173.408,7.30769,7.339e+10,1.03533,0.967511,1144,10.4843,18,0.001,3
app_47,852.948,21044.4,7685.6,252.783,7.71556,1.16985e+11,1.0253,0.967511,1060,14.6231,19,0.001,3
app_48,79.0144,21985.6,7344.8,412.376,7.82432,1.95123e+11,1.06102,0.967511,918,24.3904,22,0.001,3
app_49,295.925,21716.2,7743.3,191.914,7.38007,7.51191e+10,1.02322,0.967511,962,10.7313,21,0.001,3
app_5,6.39444,19707.7,7872.48,79.961,781.56,3.98956e+10,1.01107,0.967511,10,0.0510667,1929,0.1,1
app_50,644.034,22123.4,7682.7,37.4471,8.6345,2.02812e+10,1.03856,0.967511,947,2.25347,22,0.001,3
app_51,514.567,20115.9,7353.9,490.966,7.89243,1.95957e+11,1.05962,0.967511,980,24.4946,20,0.001,3
app_52,977.137,22389,7734.8,38.5489,7.86658,1.47635e+10,1.03232,0.967511,1038,1.84544,20,0.001,3
app_53,67.6918,21199.3,7813,41.7162,7.32758,1.2387e+10,1.02231,0.967511,1039,1.54838,20,0.001,3
app_54,447.609,22594.4,7488,427.41,8.7735,1.83204e+11,1.04286,0.967511,843,20.356,24,0.001,3
app_55,132.944,20736.3,7870.7,12.4957,9.57356,5.12612e+09,1.01577,0.967511,857,0.512612,24,0.001,3
app_56,635.487,21934.9,7471.35,482.848,8.29438,2.1388e+11,1.04096,0.967511,887,24.3199,22,0.001,3
app_57,176.677,20884.8,7617.9,368.78,7.42067,1.51719e+11,1.02965,0.967511,1064,21.6741,19,0.001,3
app_58,88.9591,21282.2,7814.34,50.1893,6.84939,2.56967e+10,1.0204,0.967511,1039,4.28278,20,0.001,3
app_59,313.767,21942.6,7704.3,137.046,7.87169,6.08755e+10,1.03024,0.967511,934,7.60944,22,0.001,3
app_6,4.9591,20088.8,7865.4,85.0435,790.939,5.27435e+10,1.01034,0.967511,10,0.0666796,1969,0.1,1
app_60,926.463,21539.2,7748.1,140.283,8.00484,6.18995e+10,1.02433,0.967511,954,7.73744,21,0.001,3
app_7,5.73779,18611.6,7755.1,195.408,969.936,1.40857e+11,1.01318,0.967511,8,0.145214,2260,0.1,1
app_8,8.89873,18822.6,7867.7,88.5197,787.787,6.08437e+10,1.00901,0.967511,10,0.0772128,1849,0.1,1
app_9,6.27899,19127.9,7885.7,65.3758,790.735,2.28504e+09,1.0142,0.967511,10,0.0028888,1892,0.1,1
