app_id,start_app,end_app,effective_cpu,effective_io,effective_iter,total_bytes,stretch,utilization,Tcomp,Tio,iterations,priority,group_id
app_1,4.60976,18932.7,7892,73.3625,714.165,3.82275e+10,1.0088,0.967193,11,0.0535399,1696,0.1,1
app_10,6.51894,18426.6,7792.9,167.548,863.519,1.07005e+11,1.01267,0.967193,9,0.123992,1988,0.1,1
app_11,9.01841,18172,7796.5,169.026,871.964,1.08033e+11,1.01208,0.967193,9,0.123892,1978,0.1,1
app_12,2.34032,19718,7890.8,76.0399,785.957,2.7492e+10,1.01032,0.967193,10,0.0349771,1950,0.1,1
app_13,9.11406,19172.2,7813.4,153.297,776.571,1.04653e+11,1.01035,0.967193,10,0.134688,1868,0.1,1
app_14,5.06679,20170,7888.6,76.6052,791.013,3.12607e+10,1.01012,0.967193,10,0.0395204,1989,0.1,1
app_15,8.11973,18731.6,7879.9,85.1537,788.197,5.4081e+10,1.00832,0.967193,10,0.0686308,1843,0.1,1
app_16,4.60489,19109.7,7816.7,146.941,870.342,8.69779e+10,1.01219,0.967193,9,0.0998598,2078,0.1,1
app_17,9.64574,18858.4,7881.1,84.658,786.326,5.54679e+10,1.00799,0.967193,10,0.0704802,1851,0.1,1
app_18,2.20587,19326.5,7806.9,164.207,776.958,1.39294e+11,1.00677,0.967193,10,0.179271,1877,0.1,1
app_19,0.12941,19734.8,7853.8,112.137,792.765,7.68007e+10,1.00875,0.967193,10,0.0969705,1943,0.1,1
app_2,7.20059,19583.9,7734.8,236.518,779.099,1.9587e+11,1.00874,0.967193,10,0.251115,1897,0.1,1
app_20,3.06383,19404,7810.7,156.185,779.144,1.10492e+11,1.00995,0.967193,10,0.141838,1899,0.1,1
app_21,1.40528,20308.7,7663.9,277.234,81.8555,1.99536e+11,1.01737,0.967193,93,2.43336,208,0.01,2
app_22,72.8295,20336.2,7811.6,128.785,86.1974,9.16357e+10,1.01224,0.967193,92,1.06553,214,0.01,2
app_23,33.084,20631.6,7701.7,247.129,77.16,1.77127e+11,1.01538,0.967193,97,2.30035,200,0.01,2
app_24,98.9854,20533.1,7688.5,257.514,64.0772,1.84817e+11,1.01609,0.967193,118,2.88776,165,0.01,2
app_25,30.3816,20248.6,7898.09,45.3191,99.3881,2.70981e+10,1.00944,0.967193,79,0.273096,252,0.01,2
app_26,59.3847,20243.4,7921.8,16.5049,81.9661,8.06255e+09,1.00884,0.967193,95,0.0983238,210,0.01,2
app_27,68.4002,20059.9,7919.6,28.4761,82.2382,1.73236e+10,1.00795,0.967193,98,0.211263,204,0.01,2
app_28,3.3581,20376.3,7780.1,172.341,66.15,1.21998e+11,1.01239,0.967193,114,1.84845,172,0.01,2
app_29,22.5432,20090.5,7705.4,236.985,70.4004,1.71081e+11,1.01568,0.967193,108,2.44402,181,0.01,2
app_3,8.63129,19840.8,7715.2,254.474,862.392,1.93167e+11,1.01159,0.967193,9,0.224092,2129,0.1,1
app_30,90.6442,20625.4,7778.2,160.022,81.6088,1.16827e+11,1.0133,0.967193,93,1.44231,210,0.01,2
app_31,69.4619,20498.3,7688.5,267.254,86.0875,1.98056e+11,1.01438,0.967193,89,2.30298,218,0.01,2
app_32,44.4955,20327.3,7807.3,153.175,79.2889,1.11935e+11,1.0102,0.967193,97,1.41689,203,0.01,2
app_33,19.9861,20681.4,7894.8,23.4056,78.602,1.40026e+10,1.01153,0.967193,96,0.177248,208,0.01,2
app_34,61.7277,20512,7844.1,108.745,69.6558,7.73133e+10,1.00992,0.967193,111,1.10448,178,0.01,2
app_35,39.3229,20535.5,7725.39,235.717,72.0666,1.70983e+11,1.01312,0.967193,106,2.34821,184,0.01,2
app_36,89.0261,20641.2,7680.3,275.18,79.3792,1.98812e+11,1.01534,0.967193,95,2.48516,205,0.01,2
app_37,24.7669,20255.4,7859,44.2704,101.773,2.74256e+10,1.0144,0.967193,76,0.268878,259,0.01,2
app_38,93.8164,20368.1,7874.5,78.7939,73.755,5.56951e+10,1.0088,0.967193,105,0.752636,189,0.01,2
app_39,101.224,20165.2,7686,264.282,72.8832,1.92744e+11,1.01539,0.967193,108,2.64033,180,0.01,2
app_4,3.84238,18320.5,7868.3,91.8647,872.692,5.46481e+10,1.00973,0.967193,9,0.062598,1997,0.1,1
app_40,9.24555,20225.7,7911.1,24.6619,88.1784,1.41921e+10,1.00943,0.967193,91,0.161274,218,0.01,2
app_41,129.616,20313.7,7537.9,304.798,7.92551,1.61465e+11,1.03905,0.967193,1032,20.1832,20,0.001,3
app_42,568.512,21750.9,7586.1,124.925,9.0693,4.83692e+10,1.04788,0.967193,828,5.37435,24,0.001,3
app_43,364.69,22559.7,7586.08,331.874,6.99714,1.81443e+11,1.02993,0.967193,1083,26.269,19,0.001,3
app_44,212.933,21018.1,7800.9,146.039,6.37946,7.66845e+10,1.01554,0.967193,1113,10.9549,18,0.001,3
app_45,882.264,23321.4,7575.8,251.418,6.70973,1.37187e+11,1.03721,0.967193,1073,22.8646,19,0.001,3
app_46,690.554,21699.5,7610.9,253.966,8.27266,1.18163e+11,1.03505,0.967193,913,14.7703,22,0.001,3
app_47,168.529,21568.7,7445.1,369.006,8.68877,1.84383e+11,1.04856,0.967193,923,20.487,22,0.001,3
app_48,552.185,22387.3,7512.6,338.721,8.79615,1.72652e+11,1.04095,0.967193,804,21.5815,25,0.001,3
app_49,462.281,20704.4,7477.2,308.191,7.87836,1.48284e+11,1.04911,0.967193,1034,18.5355,19,0.001,3
app_5,4.46038,18433,7730.6,229.788,963.481,1.77979e+11,1.01156,0.967193,8,0.184626,2222,0.1,1
app_50,200.084,20898.9,7520.6,356.425,7.53211,1.8473e+11,1.03824,0.967193,1023,23.0912,20,0.001,3
app_51,410.909,21291.5,7329.7,405.073,9.26089,2.02813e+11,1.06206,0.967193,910,22.5348,22,0.001,3
app_52,591.511,22340,7562.3,309.232,7.87105,1.55648e+11,1.03654,0.967193,965,19.456,21,0.001,3
app_53,144.94,21726.5,7512.8,338.804,6.77394,1.89155e+11,1.0387,0.967193,1091,27.0221,18,0.001,3
app_54,245.894,20792.3,7706.4,71.1734,10.0941,3.55895e+10,1.03333,0.967193,745,3.55895,27,0.001,3
app_55,749.954,22285.5,7634.2,236.21,7.70366,1.01656e+11,1.03415,0.967193,942,14.5223,21,0.001,3
app_56,433.028,21499.2,7541.6,210.432,8.19276,9.74953e+10,1.04724,0.967193,955,12.1869,21,0.001,3
app_57,1110.57,22893.7,7745.7,12.8449,6.59818,8.35957e+09,1.03172,0.967193,1115,1.19422,18,0.001,3
app_58,169.751,22501.1,7663.6,210.725,7.56976,1.05821e+11,1.02968,0.967193,893,15.1173,23,0.001,3
app_59,795.309,21109.8,7751.9,98.1287,7.39836,4.23854e+10,1.02639,0.967193,1031,6.05506,20,0.001,3
app_6,0.616787,19237.2,7875,87.4867,779.84,6.23464e+10,1.00789,0.967193,10,0.0799313,1886,0.1,1
app_60,14.3942,21605.7,7690.2,130.715,7.52765,7.21187e+10,1.03062,0.967193,1089,9.01484,19,0.001,3
app_7,0.0992027,18266.5,7871.4,92.3071,875.203,5.75707e+10,1.00896,0.967193,9,0.0657951,1997,0.1,1
app_8,3.47473,19177.8,7871.6,82.9102,987.528,2.76987e+09,1.01595,0.967193,8,0.00280351,2366,0.1,1
app_9,6.86557,18197.2,7830.9,113.009,1115.76,5.59459e+10,1.01435,0.967193,7,0.0501307,2544,0.1,1
