app_id,start_app,end_app,effective_cpu,effective_io,effective_iter,total_bytes,stretch,utilization,Tcomp,Tio,iterations,priority,group_id
app_1,0.723556,19382.2,7655.8,245.664,849.026,1.86026e+11,1.02017,0.963457,9,0.219112,2061,0.1,1
app_10,4.96772,18905.7,7690.7,178.842,958.349,1.15496e+11,1.02483,0.963457,8,0.120559,2272,0.1,1
app_11,1.68612,18802.6,7747.5,114.341,965.194,7.3998e+10,1.02282,0.963457,8,0.0766819,2273,0.1,1
app_12,10.5131,19413,7789.8,110.396,777.597,7.37173e+10,1.01736,0.963457,10,0.0947523,1888,0.1,1
app_13,8.05563,19011.9,7771.9,102.983,865.762,6.81257e+10,1.0204,0.963457,9,0.0786671,2058,0.1,1
app_14,10.348,19054.9,7761.2,136.512,778.67,8.12619e+10,1.02009,0.963457,10,0.104316,1849,0.1,1
app_15,4.98093,18949.3,7652.6,249.171,850.901,1.90714e+11,1.01998,0.963457,9,0.224106,2019,0.1,1
app_16,8.94646,19878.7,7800.5,87.8181,867.688,4.37439e+10,1.01986,0.963457,9,0.0504544,2153,0.1,1
app_17,6.28503,19562.6,7696.6,209.442,854.705,1.68882e+11,1.0171,0.963457,9,0.197523,2087,0.1,1
app_18,8.87613,18784.7,7817,63.3143,867.744,3.43889e+09,1.02296,0.963457,9,0.00396186,2037,0.1,1
app_19,5.57707,18774.9,7776.1,106.927,864.124,7.67331e+10,1.01874,0.963457,9,0.0887087,2026,0.1,1
app_2,6.56523,19033.6,7735,160.191,773.422,1.21346e+11,1.01829,0.963457,10,0.156778,1845,0.1,1
app_20,9.85246,19612.3,7704.4,208.033,700.566,1.62515e+11,1.01692,0.963457,11,0.231833,1714,0.1,1
app_21,4.87466,19977.5,7734.9,162.971,775.681,1.22122e+11,1.0182,0.963457,10,0.157374,1934,0.1,1
app_22,5.87361,19911.1,7685.3,226.885,695.962,1.88253e+11,1.01606,0.963457,11,0.270478,1735,0.1,1
app_23,0.144264,18950.4,7650.8,251.543,849.034,1.96154e+11,1.0195,0.963457,9,0.231042,2015,0.1,1
app_24,3.51514,19851.4,7842,55.3612,712.228,1.13921e+10,1.01867,0.963457,11,0.0160002,1769,0.1,1
app_25,6.17974,18551,7739.7,149.956,861.01,8.68904e+10,1.02216,0.963457,9,0.100918,1994,0.1,1
app_26,2.32198,18981.1,7767,89.0225,971.217,3.15292e+10,1.02583,0.963457,8,0.0324708,2304,0.1,1
app_27,2.62583,19229.1,7644.7,250.664,851.021,1.96415e+11,1.02026,0.963457,9,0.230805,2047,0.1,1
app_28,0.523717,19883.5,7741.6,168.633,701.949,1.33311e+11,1.01588,0.963457,11,0.189902,1748,0.1,1
app_29,2.49886,20208.4,7711.4,185.448,774.978,1.44305e+11,1.01837,0.963457,10,0.1862,1952,0.1,1
app_3,6.44959,19398.2,7661.1,190.949,1099.68,1.1221e+11,1.02916,0.963457,7,0.102102,2660,0.1,1
app_30,0.807972,19224.1,7743.7,134.634,858.593,8.56837e+10,1.02179,0.963457,9,0.0997482,2069,0.1,1
app_31,86.3266,20448.7,7713.7,248.687,67.3476,1.38178e+11,1.01886,0.963457,115,2.03203,171,0.01,2
app_32,35.0428,20620.9,7580.8,348.413,85.6468,1.90273e+11,1.02946,0.963457,89,2.21248,219,0.01,2
app_33,14.4974,20143.1,7775.3,168.681,75.1087,9.79132e+10,1.0161,0.963457,104,1.28833,189,0.01,2
app_34,43.2586,20327.8,7850.2,54.3937,106.155,2.65218e+10,1.01565,0.963457,74,0.247868,269,0.01,2
app_35,41.0888,20246.3,7833.2,114.204,82.7465,6.07117e+10,1.01344,0.963457,95,0.731466,209,0.01,2
app_36,49.3982,20199.5,7787.8,173.85,82.2988,9.21111e+10,1.01524,0.963457,95,1.12331,207,0.01,2
app_37,61.4008,20330.6,7838.8,88.9751,78.5205,4.78976e+10,1.01437,0.963457,100,0.614071,198,0.01,2
app_38,77.031,20248.8,7691.2,247.139,72.754,1.3804e+11,1.02181,0.963457,107,1.89096,183,0.01,2
app_39,81.6058,20219.2,7639.7,326.116,79.1779,1.7897e+11,1.02319,0.963457,97,2.23713,200,0.01,2
app_4,2.22087,18239.3,7663.1,223.742,955.391,1.7445e+11,1.02073,0.963457,8,0.18267,2181,0.1,1
app_40,37.9261,20311.2,7675.7,277.63,92.3213,1.57164e+11,1.02134,0.963457,84,1.7083,233,0.01,2
app_41,19.9063,20354.9,7732.5,205.833,82.5087,1.12733e+11,1.01973,0.963457,93,1.35823,211,0.01,2
app_42,91.241,20406.9,7906.5,54.1151,71.8964,2.69543e+10,1.00839,0.963457,109,0.374366,183,0.01,2
app_43,12.5632,20426.4,7771.2,173.408,77.9842,9.35831e+10,1.01719,0.963457,99,1.19978,199,0.01,2
app_44,71.7831,20389.7,7702.5,252.321,83.6624,1.45693e+11,1.01934,0.963457,92,1.73445,213,0.01,2
app_45,1.36287,20315.9,7794.2,137.706,77.4202,8.05989e+10,1.0159,0.963457,100,1.04674,197,0.01,2
app_46,508.876,22057.6,7575.49,388.159,7.4765,1.45141e+11,1.03618,0.963457,1018,20.2732,20,0.001,3
app_47,764.169,22079.5,7522.7,435.045,7.85717,1.52934e+11,1.04226,0.963457,952,21.8477,21,0.001,3
app_48,46.4,21618.2,7473,432.015,7.58659,1.71877e+11,1.04645,0.963457,961,21.4846,21,0.001,3
app_49,407.148,22021.8,7513.3,456.561,8.20494,1.81996e+11,1.0396,0.963457,928,22.7496,22,0.001,3
app_5,7.67538,19385.5,7834.4,62.4297,781.21,1.28802e+10,1.01946,0.963457,10,0.0164708,1891,0.1,1
app_50,201.042,21776,7503.3,363.656,6.43969,1.50162e+11,1.04528,0.963457,1212,21.4516,17,0.001,3
app_51,563.852,22037.3,7682.5,299.235,7.7775,1.23716e+11,1.02482,0.963457,981,15.4646,21,0.001,3
app_52,232.878,22196,7783.9,196.221,6.12013,7.71711e+10,1.01767,0.963457,1227,12.8618,17,0.001,3
app_53,500.598,21172.8,7371.3,396.71,7.47594,1.6207e+11,1.06194,0.963457,1039,20.2587,19,0.001,3
app_54,129.103,21839.4,7471.3,441.625,7.32605,1.73697e+11,1.04644,0.963457,1021,24.8138,20,0.001,3
app_55,561.861,21460,7807.3,96.8939,7.38017,3.74274e+10,1.01979,0.963457,1070,5.34677,19,0.001,3
app_56,397.199,21531.3,7699,9.23499,8.44895,2.17914e+09,1.0388,0.963457,943,0.242127,22,0.001,3
app_57,1.52377,21351.4,7636,195.623,8.0617,6.70048e+10,1.03856,0.963457,935,8.3756,22,0.001,3
app_58,406.757,21596.6,7502.4,234.133,7.46759,9.63007e+10,1.05281,0.963457,1023,13.7572,20,0.001,3
app_59,174.34,21503,7917.9,23.0227,7.46966,1.08091e+10,1.00899,0.963457,1033,1.54416,20,0.001,3
app_6,3.57493,18286.5,7613.4,263.802,952.646,1.92857e+11,1.02482,0.963457,8,0.202369,2178,0.1,1
app_60,781.638,22091.1,7706.74,199.166,9.67785,8.45342e+10,1.02679,0.963457,779,8.85103,26,0.001,3
app_7,6.92289,19619.9,7838.8,59.3525,785.669,5.91351e+09,1.0198,0.963457,10,0.00753314,1926,0.1,1
app_8,5.28044,19805.4,7708.3,185.743,770.382,1.44495e+11,1.01875,0.963457,10,0.187412,1907,0.1,1
app_9,0.517909,20364.7,7820.8,56.7995,780.49,4.0044e+09,1.02239,0.963457,10,0.00512727,1990,0.1,1
