app_id,start_app,end_app,effective_cpu,effective_io,effective_iter,total_bytes,stretch,utilization,Tcomp,Tio,iterations,priority,group_id
app_1,0.94831,23969.9,5764.5,67.2318,824.263,1.96829e+10,1.38308,0.850064,7,0.023887,2588,1,1
app_10,3.50057,23677,5952,183.515,593.617,1.54775e+11,1.31002,0.850064,10,0.260564,1826,1,1
app_11,8.10112,23957.1,5990.6,130.262,599.33,1.0151e+11,1.31317,0.850064,10,0.169183,1866,1,1
app_12,2.96829,24902.4,5937.25,56.2922,658.33,2.07953e+10,1.34272,0.850064,9,0.0315559,2162,1,1
app_13,5.5495,24834.4,6038.88,51.2991,606.165,1.71651e+10,1.32099,0.850064,10,0.0282785,1971,1,1
app_14,5.06479,23243.2,5978.8,163.015,596.696,1.28883e+11,1.30983,0.850064,10,0.216247,1790,1,1
app_15,6.67316,24555.9,5982.2,131.826,597.072,1.03956e+11,1.31446,0.850064,10,0.17413,1919,1,1
app_16,5.03288,23360.1,5944.3,89.5766,661.081,6.42172e+10,1.33144,0.850064,9,0.0971516,1994,1,1
app_17,3.47194,23761.3,5689.8,172.027,813.373,1.33464e+11,1.3738,0.850064,7,0.164163,2519,1,1
app_18,5.56217,24444.2,6038,63.2314,601.487,3.28181e+10,1.31778,0.850064,10,0.0546058,1925,1,1
app_19,7.95271,23324.4,5805.2,154.311,727.181,1.19536e+11,1.35027,0.850064,8,0.164424,2192,1,1
app_2,2.79639,23514.4,5846.5,72.811,729.542,3.54266e+10,1.3601,0.850064,8,0.0485295,2237,1,1
app_20,6.39542,24501.5,6075.1,63.0317,553.47,3.55614e+10,1.30919,0.850064,11,0.0643063,1769,1,1
app_21,3.75667,25010.7,5963.05,56.0253,664.37,2.08507e+10,1.33692,0.850064,9,0.0313544,2185,1,1
app_22,2.9107,24250.4,5865.4,51.5185,732.37,1.05249e+10,1.36149,0.850064,8,0.0143783,2337,1,1
app_23,8.92614,23857.1,5994.58,154.837,542.458,1.25033e+11,1.30727,0.850064,11,0.230264,1689,1,1
app_24,4.37657,23559.8,5810.03,161.59,726.525,1.2937e+11,1.34694,0.850064,8,0.177951,2224,1,1
app_25,2.02099,25214.3,5773.8,190.668,722.91,1.48011e+11,1.35094,0.850064,8,0.204718,2410,1,1
app_26,4.99735,24236.8,5812.5,163.801,726.537,1.33458e+11,1.34545,0.850064,8,0.183574,2308,1,1
app_27,7.75925,23192,5869.4,207.567,653.313,1.77659e+11,1.32296,0.850064,9,0.272066,1957,1,1
app_28,9.50681,24071.8,6104.82,164.363,510.219,1.41681e+11,1.28072,0.850064,12,0.277262,1589,1,1
app_29,7.25812,23211,5928.07,127.222,658.33,9.26246e+10,1.32875,0.850064,9,0.140553,1974,1,1
app_3,2.15532,23786.2,5958.69,44.7967,661.55,8.45022e+09,1.34068,0.850064,9,0.0127647,2047,1,1
app_30,7.45411,23893.1,6000.9,105.001,597.3,7.09463e+10,1.31756,0.850064,10,0.118838,1856,1,1
app_31,81.0517,20910.1,7480.9,67.5719,76.8994,6.36572e+10,1.06037,0.850064,98,0.826717,202,1,1
app_32,8.77871,21068.6,7463.1,148.318,71.8358,1.442e+11,1.05162,0.850064,102,2.00277,191,1,1
app_33,22.2645,21065.2,7382.3,129.829,93.6973,1.24811e+11,1.06566,0.850064,79,1.32777,247,1,1
app_34,122.289,20854.1,7492.7,202.814,61.2677,2.00412e+11,1.03989,0.850064,122,3.28545,160,1,1
app_35,44.3302,20922.5,7569.7,83.564,74.4461,7.99584e+10,1.0458,0.850064,102,1.06611,193,1,1
app_36,21.8641,21026.7,7643.1,7.75756,73.6589,4.61476e+09,1.04606,0.850064,103,0.0623616,194,1,1
app_37,26.2359,21131.5,7377.2,182.504,87.2056,1.77528e+11,1.05894,0.850064,85,2.01737,230,1,1
app_38,47.4932,20819.6,7400.9,205.225,78.5872,2.013e+11,1.05233,0.850064,94,2.58077,205,1,1
app_39,70.1938,21022.3,7471.4,87.6031,78.0336,8.37781e+10,1.05888,0.850064,96,1.07408,205,1,1
app_4,6.14775,23642.7,5851.4,115.55,730.125,7.30368e+10,1.35034,0.850064,8,0.10005,2242,1,1
app_40,35.9265,20912.1,7474,161.407,79.989,1.57718e+11,1.04826,0.850064,93,1.97147,210,1,1
app_41,65.6593,21071.6,7531.2,38.4793,66.5721,3.52328e+10,1.0573,0.850064,114,0.53383,175,1,1
app_42,22.7656,21000.4,7443.85,133.443,81.5956,1.30045e+11,1.05626,0.850064,92,1.59675,214,1,1
app_43,27.88,20905,7405.4,149.757,79.3885,1.45804e+11,1.05943,0.850064,92,1.84562,211,1,1
app_44,9.18297,21178,7602.8,7.75688,66.0103,4.70769e+09,1.05159,0.850064,114,0.0713287,176,1,1
app_45,69.6178,21088.8,7391.28,150.218,88.6833,1.46209e+11,1.06136,0.850064,84,1.65243,233,1,1
app_46,19.9792,20680.5,7846.5,118.111,7.02397,1.1778e+11,1.00449,0.850064,1124,16.8257,18,1,1
app_47,282.912,20113.5,7838,125.703,7.89653,1.25459e+11,1.00459,0.850064,1040,15.6823,19,1,1
app_48,631.557,20798.9,7765.6,197.18,9.90889,1.96799e+11,1.00472,0.850064,783,19.6799,25,1,1
app_49,6.56387,20501.6,7943.7,4.18138,7.2994,3.77087e+09,1.00661,0.850064,1081,0.538695,19,1,1
app_5,2.40805,23378.4,6007.8,175.982,544.729,1.51319e+11,1.29889,0.850064,11,0.27816,1647,1,1
app_50,485.311,20808,7971.3,3.69249,8.33015,3.22784e+09,1.00319,0.850064,955,0.358648,21,1,1
app_51,95.808,20898.2,7894.2,62.1071,8.90208,6.16571e+10,1.00555,0.850064,883,6.85079,23,1,1
app_52,340.872,21059.7,7841.9,110.833,7.9365,1.10596e+11,1.00597,0.850064,973,13.8245,21,1,1
app_53,717.9,21641,7799.8,187.772,6.84132,1.87516e+11,1.00159,0.850064,1143,26.788,18,1,1
app_54,281.728,20199.2,7937.9,36.8472,8.8416,3.6378e+10,1.00323,0.850064,906,4.042,22,1,1
app_55,413.681,21172.3,7786.2,126.588,11.6872,1.26119e+11,1.01108,0.850064,674,11.4654,30,1,1
app_56,746.052,21345.5,7945.7,33.7167,7.78803,3.35146e+10,1.0026,0.850064,1020,4.7878,20,1,1
app_57,814.095,21215.4,7804.7,174.911,7.96012,1.74438e+11,1.00261,0.850064,987,21.8048,20,1,1
app_58,207.957,21371.4,7918.9,52.0655,7.37139,5.16041e+10,1.0037,0.850064,1022,6.45051,20,1,1
app_59,432.909,21696.2,7882,55.9453,8.22207,5.53145e+10,1.0079,0.850064,940,6.91431,22,1,1
app_6,7.12427,24912.6,5931.46,188.69,591.337,1.6068e+11,1.31317,0.850064,10,0.271418,1934,1,1
app_60,16.3619,20285.8,7972.8,7.26029,7.7825,6.83071e+09,1.00255,0.850064,1067,0.853839,19,1,1
app_7,9.82693,24356.9,6022.8,72.8179,603.008,4.57954e+10,1.31826,0.850064,10,0.0759459,1917,1,1
app_8,0.747872,24252.3,5876.8,178.738,651.674,1.44095e+11,1.32871,0.850064,9,0.221004,2068,1,1
app_9,0.777356,23446.1,5937.19,106.626,658.401,6.86859e+10,1.33203,0.850064,9,0.104228,2003,1,1
