app_id,start_app,end_app,effective_cpu,effective_io,effective_iter,total_bytes,stretch,utilization,Tcomp,Tio,iterations,priority,group_id
app_1,8.27747,18415.3,7572.4,285.472,948.809,2.2937e+11,1.02541,0.963709,8,0.241951,2179,0.1,1
app_10,3.32212,19881.5,7700.5,170.379,855.649,1.20734e+11,1.02286,0.963709,9,0.141209,2126,0.1,1
app_11,3.67155,20019.8,7790.5,63.5165,864.461,6.05414e+09,1.02609,0.963709,9,0.0070071,2166,0.1,1
app_12,2.09414,19139.6,7704,172.381,855.987,1.24985e+11,1.02184,0.963709,9,0.14601,2042,0.1,1
app_13,9.76284,19802.2,7740.9,143.529,774.103,9.40826e+10,1.02106,0.963709,10,0.121554,1915,0.1,1
app_14,10.3256,19951.2,7700.2,183.032,773.022,1.43687e+11,1.0199,0.963709,10,0.185882,1924,0.1,1
app_15,3.73063,19318.6,7643.1,253.55,763.432,2.08881e+11,1.01885,0.963709,10,0.273404,1843,0.1,1
app_16,9.78004,19687.9,7827.9,67.8998,712.118,2.81408e+10,1.01832,0.963709,11,0.0395236,1752,0.1,1
app_17,2.99286,19037,7826.3,56.893,711.428,1.03224e+10,1.02085,0.963709,11,0.0144977,1692,0.1,1
app_18,4.88768,19266.2,7785.3,76.7388,864.252,2.41106e+10,1.02441,0.963709,9,0.0279058,2084,0.1,1
app_19,6.71783,20362.9,7785.5,74.264,778.499,3.12378e+10,1.02344,0.963709,10,0.0400999,1987,0.1,1
app_2,3.29058,20321.9,7713.6,131.442,965.949,8.94419e+10,1.02524,0.963709,8,0.09259,2454,0.1,1
app_20,4.15695,20353.7,7699.6,191.662,698.811,1.40053e+11,1.02045,0.963709,11,0.200362,1780,0.1,1
app_21,6.0368,18902.2,7770.8,80.7123,865.36,3.23873e+10,1.02522,0.963709,9,0.0373987,2045,0.1,1
app_22,6.6617,18827.8,7653.9,242.061,766.662,2.05125e+11,1.01794,0.963709,10,0.267788,1804,0.1,1
app_23,2.13885,18830.7,7673.3,205.678,852.639,1.63213e+11,1.02086,0.963709,9,0.19134,2004,0.1,1
app_24,5.06062,19307.4,7656.7,220.502,851.267,1.69396e+11,1.02222,0.963709,9,0.199056,2054,0.1,1
app_25,0.347398,19710.6,7709.12,173.573,853.641,1.25786e+11,1.02107,0.963709,9,0.14739,2105,0.1,1
app_26,2.19938,19557.3,7696.5,192.111,699.13,1.42517e+11,1.02054,0.963709,11,0.203888,1713,0.1,1
app_27,8.98704,19288.9,7657.4,239.043,764.498,2.00323e+11,1.01811,0.963709,10,0.262203,1844,0.1,1
app_28,7.93011,18981.2,7685.5,212.466,769.713,1.53989e+11,1.02047,0.963709,10,0.200246,1822,0.1,1
app_29,4.5763,19693.6,7693.2,172.579,857.715,1.25022e+11,1.02325,0.963709,9,0.145714,2110,0.1,1
app_3,3.73361,19962.3,7698.5,204.381,701.761,1.56695e+11,1.01843,0.963709,11,0.223212,1750,0.1,1
app_30,0.348147,19023.7,7629.1,249.807,844.883,1.97715e+11,1.02213,0.963709,9,0.233982,2013,0.1,1
app_31,80.1828,20463.3,7675.4,274.309,73.2644,1.44563e+11,1.02302,0.963709,104,1.95355,188,0.01,2
app_32,31.5344,20492.9,7806.5,163.646,78.7117,8.49235e+10,1.01376,0.963709,99,1.08876,200,0.01,2
app_33,24.1818,20437.1,7727.6,213.895,81.1486,1.13698e+11,1.02024,0.963709,94,1.38656,209,0.01,2
app_34,17.0905,20242.7,7877.8,67.3578,79.2688,3.44662e+10,1.01109,0.963709,100,0.436281,199,0.01,2
app_35,74.2264,20562.8,7813.8,144.098,76.8841,7.34483e+10,1.0143,0.963709,101,0.953874,196,0.01,2
app_36,103.502,20545.9,7649.9,311.601,63.9486,1.65968e+11,1.02356,0.963709,120,2.59325,164,0.01,2
app_37,57.673,20345.5,7876.2,66.0522,66.065,3.08772e+10,1.01175,0.963709,118,0.467836,169,0.01,2
app_38,87.2055,20392,7826,113.794,76.7214,6.02292e+10,1.01443,0.963709,101,0.782198,195,0.01,2
app_39,32.0967,20344.8,7657.9,298.803,75.7528,1.55632e+11,1.02386,0.963709,102,2.04779,192,0.01,2
app_4,6.07225,19157,7843,46.9882,652.311,5.33509e+09,1.01932,0.963709,12,0.00818266,1565,0.1,1
app_40,47.9377,20386,7914.2,36.2098,70.5868,1.52049e+10,1.0089,0.963709,112,0.214153,179,0.01,2
app_41,44.4943,20610.2,7602.4,373.464,71.367,2.02371e+11,1.02501,0.963709,106,2.85029,184,0.01,2
app_42,29.8159,20381.8,7825.2,107.96,75.2129,6.0738e+10,1.01446,0.963709,104,0.80984,191,0.01,2
app_43,81.8892,20181.5,7867.63,84.3887,80.1937,4.26617e+10,1.01134,0.963709,99,0.529828,200,0.01,2
app_44,27.6105,20434.6,7819.3,112.526,80.8263,5.80401e+10,1.01557,0.963709,97,0.716545,205,0.01,2
app_45,21.637,20413.6,7686.6,265.75,68.2703,1.40924e+11,1.02203,0.963709,113,2.07242,174,0.01,2
app_46,908.35,22285.7,7798.7,100.428,6.42613,4.02258e+10,1.02055,0.963709,1237,5.74655,17,0.001,3
app_47,485.88,21314.4,7487.94,385.549,10.5746,1.58047e+11,1.0463,0.963709,719,14.7455,28,0.001,3
app_48,288.043,22188.1,7474.9,423.459,9.17937,1.73136e+11,1.04602,0.963709,806,19.2373,25,0.001,3
app_49,708.8,21719.4,7458.3,358.686,7.60919,1.35979e+11,1.05342,0.963709,986,19.4256,20,0.001,3
app_5,4.23431,19456.9,7663.1,228.792,764.216,1.84042e+11,1.01948,0.963709,10,0.240577,1863,0.1,1
app_50,776.624,21653.8,7568.1,343.251,8.72366,1.33801e+11,1.0387,0.963709,854,14.8667,23,0.001,3
app_51,365.964,21299.6,7779.5,65.4498,9.37453,2.22344e+10,1.02541,0.963709,843,2.47049,24,0.001,3
app_52,47.7722,21360.3,7470.2,380.542,7.17017,1.59138e+11,1.04858,0.963709,1039,22.7339,19,0.001,3
app_53,468.626,21320.8,7736.2,122.254,8.01132,5.03243e+10,1.02742,0.963709,967,6.29054,21,0.001,3
app_54,62.2927,20731.6,7716.8,184.066,9.50372,6.86472e+10,1.02756,0.963709,812,7.62747,25,0.001,3
app_55,350.116,21691.1,7529.7,470.3,7.45134,1.80401e+11,1.0376,0.963709,988,25.7716,20,0.001,3
app_56,602.712,21223,7925.5,5.88777,6.63064,3.12429e+09,1.009,0.963709,1238,0.446327,17,0.001,3
app_57,937.224,22485.7,7656.6,289.877,7.25219,1.06403e+11,1.03053,0.963709,1024,15.2004,20,0.001,3
app_58,550.45,21600,7553.6,260.099,8.2438,9.42319e+10,1.04605,0.963709,933,11.779,22,0.001,3
app_59,667.537,21069.6,7817.61,87.8065,7.76628,3.53954e+10,1.01872,0.963709,997,5.05649,20,0.001,3
app_6,3.07221,20348.9,7732.5,147.682,771.545,9.94356e+10,1.02146,0.963709,10,0.128803,1966,0.1,1
app_60,543.481,21918.6,7548.6,370.224,8.87956,1.55813e+11,1.03837,0.963709,832,19.4767,24,0.001,3
app_7,2.93482,19805.5,7798,69.7367,778.833,2.54198e+10,1.02257,0.963709,10,0.0326314,1935,0.1,1
app_8,3.98964,18676.9,7584.7,277.184,946.063,2.14448e+11,1.02575,0.963709,8,0.226689,2210,0.1,1
app_9,0.96838,20141.5,7796.4,66.116,864.065,9.30668e+09,1.02489,0.963709,9,0.0107716,2180,0.1,1
