app_id,Tcomp,Tio,iter,witer,alpha_io,compute_size,io_size,mu,desyn_time
1,9.64609115738561,0.6826172614254761,1937,10.328708418811086,0.06608931472808975,9e9,682617261.4254761,10,2.8826360648774787
2,10.521631140655776,0.27874856731056513,1852,10.800379707966341,0.025809145127088512,10e9,278748567.3105651,10,0.7879983687006299
3,9.673932317802405,0.45872909441681037,1974,10.132661412219216,0.04527232044521078,9e9,458729094.4168104,10,3.0706113369744505
4,8.75967540690558,0.46720122283147336,2168,9.226876629737054,0.050634818430945853,8e9,467201222.83147335,10,2.5131372947714232
5,12.237874449342133,0.006033735410133834,1634,12.243908184752266,0.0004927948918832828,12e9,6033735.410133834,10,4.651369094063525
6,16.186290019031023,0.7410104306953162,1182,16.92730044972634,0.04377605471682262,16e9,741010430.6953162,20,1.728159854508
7,15.645366894845274,0.6762345613374529,1226,16.321601456182727,0.04143187561299574,15e9,676234561.3374529,20,12.678850622379672
8,19.578664317109357,0.29186444162003344,1007,19.870528758729392,0.01468830775284797,19e9,291864441.62003344,20,18.26834744218733
9,22.124533591394773,0.04160419994711529,903,22.16613779134189,0.00187692598226859,22e9,41604199.94711529,20,1.4300407944274687
10,20.045548796725086,1.5065811088431018,928,21.552129905568187,0.06990404732359483,20e9,1506581108.8431017,20,1.3091141386028875
11,84.85232828091145,4.448184333160889,224,89.30051261407235,0.049811408724880324,84e9,4448184333.160889,100,63.80527221106617
12,97.35345662952486,2.353298447652769,201,99.70675507717763,0.023602196720083887,97e9,2353298447.652769,100,48.55809958006147
13,91.40015225516322,3.469258542986698,211,94.86941079814991,0.03656877927036049,91e9,3469258542.9866977,100,45.823603765937996
14,102.001659616294,5.1717145984221915,187,107.17337421471619,0.04825559180455525,102e9,5171714598.422192,100,42.751698675180776
15,91.96855924244606,3.0385034781762124,211,95.00706272062227,0.031981869464917934,91e9,3038503478.1762123,100,34.572259098477396
16,897.8939800509025,65.59842458258272,21,963.4924046334853,0.06808400799748547,897e9,65598424582.582726,1000,726.6234611784056
17,1262.5160288018426,34.17662556533363,16,1296.6926543671761,0.02635676654003475,1262e9,34176625565.33363,1000,698.263874800108
18,1109.8150727902496,45.71125374357202,18,1155.5263265338217,0.03955881635400721,1109e9,45711253743.57202,1000,239.65639583189463
19,846.9965143915921,36.6270369045618,23,883.6235512961539,0.04145095142703585,846e9,36627036904.5618,1000,102.92560217946168
20,1020.6878176868581,81.98839444837307,19,1102.6762121352313,0.07435400668489082,1020e9,81988394448.37308,1000,623.0385675528012
