app_id,start_app,end_app,effective_cpu,effective_io,effective_iter,total_bytes,stretch,utilization,Tcomp,Tio,iterations,priority,group_id
app_1,2.91218,21687,6390.8,1609.2,799.467,6.09388e+11,1.14283,0.89778,8,0.761735,2168,1,1
app_10,16.051,21308.6,7190.76,809.236,400.924,2.82968e+11,1.07042,0.89778,18,0.707239,1061,1.00001,1.00001
app_11,28.3606,21415.4,7202.95,797.05,75.5357,2.9703e+11,1.06667,0.89778,96,3.9256,199,1.00001,1.00001
app_12,46.15,20800.2,7522.1,477.9,77.415,1.76866e+11,1.0391,0.89778,97,2.29696,201,1.00001,1.00001
app_13,19.7473,21290.1,7360.1,639.9,76.9582,2.49066e+11,1.05136,0.89778,97,3.23462,200,1.00001,1.00001
app_14,80.1018,21023.2,7341.2,658.8,88.2476,2.2765e+11,1.05696,0.89778,83,2.55786,232,1.00001,1.00001
app_15,68.7725,22736.7,6571.77,1428.23,74.4859,5.45935e+11,1.12396,0.89778,88,7.36231,210,1.00002,1.00002
app_16,284.995,22157.8,7210.59,789.414,6.7901,2.85674e+11,1.0672,0.89778,1015,41.0514,19,1.00002,1.00002
app_17,667.843,23755.3,6579.9,1420.1,5.98436,5.09228e+11,1.12849,0.89778,1073,84.8713,18,1.00002,1.00002
app_18,708.957,22120.9,7120.8,879.2,8.52524,3.00419e+11,1.07799,0.89778,848,33.3799,23,1.00002,1.00002
app_19,31.2656,21713.8,7274.3,725.7,8.53518,3.02953e+11,1.05579,0.89778,855,37.8691,23,1.00002,1.00002
app_2,6.26214,20784.9,7323.7,676.3,733.218,2.21214e+11,1.06032,0.89778,10,0.301792,1904,1,1
app_20,454.295,23179.6,7286.7,713.3,6.99586,2.43918e+11,1.06233,0.89778,1014,34.8454,20,1.00002,1.00002
app_3,8.61359,20169.5,7714.5,285.502,700.846,8.53182e+10,1.02567,0.89778,11,0.121778,1765,1,1
app_4,9.46183,22212.2,6623.1,1376.9,662.876,5.05552e+11,1.12223,0.89778,10,0.762522,1847,1,1
app_5,7.5492,19381.7,7927.9,72.1,720.718,4.04371e+09,1.00858,0.89778,11,0.00560847,1745,1.00001,1.00001
app_6,2.851,20921.8,7261.4,738.6,361.802,2.57555e+11,1.06398,0.89778,20,0.711478,949,1.00001,1.00001
app_7,5.88259,19855.2,7723.5,276.5,384.359,8.74223e+10,1.02421,0.89778,20,0.227071,955,1.00001,1.00001
app_8,17.9154,20228.7,7498.49,501.511,441.16,1.63871e+11,1.04406,0.89778,17,0.370871,1114,1.00001,1.00001
app_9,10.7647,22329.9,6520.2,1479.8,361.228,5.56085e+11,1.13054,0.89778,18,1.5404,1013,1.00001,1.00001
