app_id,start_app,end_app,effective_cpu,effective_io,effective_iter,total_bytes,stretch,utilization,Tcomp,Tio,iterations,priority,group_id
app_1,8.73056,20284.5,7757.4,88.1572,849.758,5.27316e+10,1.02431,0.986221,9,0.0620372,2180,1,1
app_10,7.51073,20562.4,7736.8,74.4044,823.988,1.35794e+10,1.03221,0.986221,9,0.0164799,2191,1,1
app_11,4.90049,19382.6,7728.3,75.9405,857.34,9.63289e+09,1.03387,0.986221,9,0.0112402,2056,1,1
app_12,5.27164,20163.5,7740.3,67.5995,796.3,7.24276e+08,1.03345,0.986221,10,0.000909895,1981,1,1
app_13,4.08454,20897.4,7788.3,74.6985,690.613,5.31669e+10,1.02022,0.986221,11,0.0770535,1799,1,1
app_14,4.9516,18622.4,7723.2,85.6232,942.592,2.44941e+10,1.03257,0.986221,8,0.0260022,2258,1,1
app_15,3.68185,19859.6,7773.1,73.835,739.524,3.58306e+10,1.02447,0.986221,10,0.0484852,1921,1,1
app_16,8.16433,19510.3,7756.6,73.2696,777.258,2.54373e+10,1.02801,0.986221,10,0.0327378,1879,1,1
app_17,5.38375,19410.7,7732.5,80.0378,846.413,3.0254e+10,1.03056,0.986221,9,0.0357612,2083,1,1
app_18,1.70475,19832.8,7745.5,66.3796,756.957,7.51399e+09,1.03186,0.986221,10,0.00992601,1921,1,1
app_19,6.70957,19366.7,7754.5,73.297,689.429,4.9955e+10,1.02506,0.986221,11,0.0723985,1688,1,1
app_2,9.75773,19003.1,7734.3,91.4859,874.487,5.83129e+10,1.02661,0.986221,9,0.0667196,2025,1,1
app_20,3.44686,20191.5,7803,65.9354,762.09,1.29768e+09,1.02508,0.986221,10,0.00170075,1958,1,1
app_21,57.9611,19948,7972.2,8.37744,85.6724,3.90832e+09,1.003,0.986221,98,0.0459803,202,1,1
app_22,84.9498,20622.5,7966.4,15.8029,74.9092,1.32526e+10,1.00255,0.986221,97,0.176702,205,1,1
app_23,68.932,20039.9,7970.7,15.8721,76.0868,1.36056e+10,1.00197,0.986221,100,0.179021,199,1,1
app_24,29.3122,19732.1,7939.1,42.9589,88.3442,3.65153e+10,1.00306,0.986221,91,0.414947,218,1,1
app_25,32.2819,20239.2,7945.5,37.9075,62.8702,3.49012e+10,1.00246,0.986221,122,0.553987,163,1,1
app_26,101.682,21206.5,7967.8,20.6319,67.9561,1.77943e+10,1.0018,0.986221,111,0.261681,179,1,1
app_27,40.6462,19905.3,7966,7.60263,84.2961,2.58319e+09,1.00394,0.986221,90,0.0303905,221,1,1
app_28,35.9554,18866,7975.1,8.55474,79.5621,5.65026e+09,1.00241,0.986221,105,0.0706283,190,1,1
app_29,6.23609,20246.5,7960.6,15.7083,84.8761,9.01729e+09,1.00381,0.986221,92,0.106086,217,1,1
app_3,9.55397,18922.8,7701.5,87.4042,848.541,4.93251e+10,1.03215,0.986221,9,0.0581664,2043,1,1
app_30,75.8602,21130.8,7941,47.6076,79.5544,4.30152e+10,1.002,0.986221,99,0.53769,201,1,1
app_31,49.397,20384.8,7949.1,34.2301,89.2948,2.80777e+10,1.00286,0.986221,90,0.315479,221,1,1
app_32,13.9462,19777.8,7926.4,50.2901,86.4895,4.30432e+10,1.00383,0.986221,92,0.500502,216,1,1
app_33,42.7438,19240.7,7941.9,44.3902,89.3965,3.92132e+10,1.00237,0.986221,91,0.440598,218,1,1
app_34,18.4542,20390.9,7934.6,39.1233,95.0365,3.6311e+10,1.00365,0.986221,85,0.382222,234,1,1
app_35,2.15773,19358.1,7958.8,30.6494,103.259,2.47182e+10,1.00206,0.986221,82,0.239983,243,1,1
app_36,77.2472,19833.9,7954,16.4434,82.6695,1.15244e+10,1.00433,0.986221,106,0.138848,187,1,1
app_37,2.09202,19916.8,7966.1,9.95133,86.9387,7.2912e+09,1.00334,0.986221,94,0.0838069,212,1,1
app_38,2.77933,20528.4,7933.1,48.5225,81.3326,4.40794e+10,1.00286,0.986221,97,0.537554,205,1,1
app_39,95.855,20380.1,7963.2,15.0581,81.154,8.71104e+09,1.00352,0.986221,97,0.107544,206,1,1
app_4,6.51843,18849.3,7717.3,87.5847,847.725,5.39054e+10,1.02944,0.986221,9,0.0635677,1988,1,1
app_40,19.5841,20084.6,7937.4,44.6332,76.8828,3.86191e+10,1.00301,0.986221,99,0.501547,201,1,1
app_41,110.898,24251.3,7994.9,4.63864,5.11427,4.41706e+09,1.00009,0.986221,924,0.883412,22,1,1
app_42,66.7025,20068,7976.5,11.952,6.89328,1.14379e+10,1.00151,0.986221,963,1.63399,21,1,1
app_43,452.043,18968.9,7930.9,66.1065,11.271,6.55947e+10,1.00044,0.986221,984,5.96315,21,1,1
app_44,912.96,19572,7957.3,42.6958,7.34524,4.2424e+10,1.00003,0.986221,1014,6.06057,20,1,1
app_45,726.079,22125.1,7972.2,27.5701,5.84892,2.71644e+10,1.00008,0.986221,1129,4.5274,18,1,1
app_46,14.6597,19263.5,7998.9,1.04798,10.858,3.06248e+08,1.0001,0.986221,946,0.0278407,22,1,1
app_47,662.29,27014.7,7956,43.4652,6.88537,4.32789e+10,1.00009,0.986221,890,6.18271,23,1,1
app_48,115.441,22913.4,7979.9,20.0124,5.12328,1.96172e+10,1.00006,0.986221,1006,3.92343,20,1,1
app_49,193.111,23341.1,7974,25.8232,10.162,2.50297e+10,1.00012,0.986221,978,2.50297,21,1,1
app_5,4.78145,18793.4,7726.4,80.945,866.101,2.21262e+10,1.03245,0.986221,9,0.0255499,2027,1,1
app_50,122.298,18798.9,7997.9,1.55247,6.77991,1.36991e+09,1.00009,0.986221,1019,0.195702,20,1,1
app_51,533.178,16427.6,7981.7,16.5949,11.3355,1.64736e+10,1.00023,0.986221,774,1.4976,26,1,1
app_52,415.358,22513.6,7995.6,3.6978,8.95871,3.43868e+09,1.00012,0.986221,953,0.382075,21,1,1
app_53,582.857,21343.8,7944.1,47.8964,11.5907,4.68064e+10,1.00114,0.986221,849,3.90054,24,1,1
app_54,1159.65,19920.4,7977.1,22.3842,7.08009,2.1932e+10,1.00012,0.986221,1193,3.13314,17,1,1
app_55,443.96,22244.4,7985.5,10.2613,6.38289,1.01849e+10,1.00054,0.986221,897,1.69748,23,1,1
app_56,1032.26,20732.1,7933.8,65.6719,9.40179,6.50795e+10,1.00014,0.986221,1026,7.23106,20,1,1
app_57,490.77,24795.8,7966.4,33.6,6.74665,3.32795e+10,1.00004,0.986221,1084,5.54658,19,1,1
app_58,808.996,20291.8,7989.3,10.2233,5.12779,9.96035e+09,1.00009,0.986221,1033,1.66006,20,1,1
app_59,740.265,20073.6,7950.2,48.3262,10.7625,4.74239e+10,1.0003,0.986221,953,4.31126,21,1,1
app_6,6.80699,19765.9,7720.2,85.2735,980.457,5.85528e+09,1.03546,0.986221,8,0.00597477,2381,1,1
app_60,1026.42,19208,7965.8,30.6553,5.93411,3.04884e+10,1.00046,0.986221,1064,6.09768,19,1,1
app_7,2.24026,19492.8,7743.1,79.0961,757.456,4.74905e+10,1.02688,0.986221,10,0.0626523,1868,1,1
app_8,5.66149,20508.2,7760.3,68.3439,771.27,9.70051e+09,1.0296,0.986221,10,0.0125817,1996,1,1
app_9,1.82351,19211.4,7746.7,84.0977,779.12,5.82161e+10,1.025,0.986221,10,0.0747318,1869,1,1
