app_id,start_app,end_app,effective_cpu,effective_io,effective_iter,total_bytes,stretch,utilization,Tcomp,Tio,iterations,priority,group_id
app_1,8.18232,19003.6,7921.1,70.0877,723.146,2.35838e+10,1.00696,0.993508,11,0.0326194,1773,0.1,1
app_10,4.5189,19634.9,7902.8,86.8024,886.905,3.3297e+10,1.00805,0.993508,9,0.0375389,2147,0.1,1
app_11,6.72259,18147.9,7900,91.4661,903.471,4.86995e+10,1.00645,0.993508,9,0.0539307,2019,0.1,1
app_12,5.1462,18589.5,7900.4,90.4689,901.395,4.71593e+10,1.0066,0.993508,9,0.052341,2045,0.1,1
app_13,7.71233,18291,7899.8,90.1575,910.299,3.37089e+10,1.00838,0.993508,9,0.0370427,2006,0.1,1
app_14,6.76265,19968.1,7927,64.5877,715.991,1.43859e+09,1.00903,0.993508,11,0.00200921,1792,0.1,1
app_15,7.9492,19312.8,7902.4,86.5133,881.808,3.37798e+10,1.00804,0.993508,9,0.038299,2106,0.1,1
app_16,0.635408,18811.1,7908,82.458,818.759,4.14336e+10,1.00636,0.993508,10,0.0505905,1888,0.1,1
app_17,9.27899,20169.2,7916.4,74.8749,771.211,2.48857e+10,1.00739,0.993508,10,0.0322772,1988,0.1,1
app_18,4.29458,19493.9,7906.6,83.0277,860.941,2.66298e+10,1.00842,0.993508,9,0.0309289,2131,0.1,1
app_19,0.423519,20489.6,7913.1,77.2795,768.176,3.75967e+10,1.0062,0.993508,10,0.048954,1989,0.1,1
app_2,1.67538,19496.9,7918.6,72.9646,774.826,1.34762e+10,1.00856,0.993508,10,0.0173886,1908,0.1,1
app_20,2.66994,19419,7914.6,74.8451,775.513,2.42038e+10,1.00771,0.993508,10,0.0312307,1951,0.1,1
app_21,13.214,18995.3,7991.7,7.60107,72.1671,3.58053e+09,1.00059,0.993508,115,0.0497295,174,0.01,2
app_22,87.3004,19729.5,7977.4,19.8763,82.1475,1.49288e+10,1.00096,0.993508,97,0.182059,205,0.01,2
app_23,4.00013,20503.6,7954.7,43.0599,84.2003,3.47214e+10,1.00132,0.993508,81,0.41335,244,0.01,2
app_24,67.5044,20210,7964.9,34.831,85.1013,2.65681e+10,1.00107,0.993508,90,0.312565,220,0.01,2
app_25,84.5708,19391.1,7971.2,27.7786,89.7634,2.01792e+10,1.00108,0.993508,94,0.224213,211,0.01,2
app_26,0.825527,20021.6,7964.8,34.3743,85.6594,2.63269e+10,1.00111,0.993508,100,0.309728,199,0.01,2
app_27,23.6479,18869.7,7947.7,51.3222,77.5059,4.39877e+10,1.00104,0.993508,105,0.571269,189,0.01,2
app_28,71.1487,19404.3,7964.6,34.0555,82.0488,2.6132e+10,1.00116,0.993508,96,0.318682,208,0.01,2
app_29,99.1181,20159.8,7978.6,19.0828,77.2636,1.44833e+10,1.00087,0.993508,110,0.185684,182,0.01,2
app_3,1.16067,18549,7906.6,83.3527,858.733,3.18505e+10,1.00775,0.993508,9,0.0371218,2039,0.1,1
app_30,88.2007,20082.5,7948.3,49.1508,93.4572,4.0264e+10,1.00143,0.993508,88,0.432946,226,0.01,2
app_31,26.2957,18848.9,7989.7,9.12461,86.7854,5.14649e+09,1.00064,0.993508,95,0.0598429,210,0.01,2
app_32,15.5007,17984.1,7987.8,11.7226,97.5934,8.68097e+09,1.00044,0.993508,93,0.0885813,214,0.01,2
app_33,8.3205,20631.5,7979.8,18.8194,79.0006,1.35295e+10,1.00083,0.993508,91,0.17126,218,0.01,2
app_34,78.3272,19209.5,7943,54.8452,87.515,4.55895e+10,1.00143,0.993508,96,0.518062,206,0.01,2
app_35,34.6502,20077.8,7976.7,20.7826,68.1235,1.63387e+10,1.00087,0.993508,100,0.240275,198,0.01,2
app_36,34.5372,21045.7,7980.4,18.8534,83.1629,1.39589e+10,1.00071,0.993508,96,0.168179,208,0.01,2
app_37,24.9814,20571.3,7972.2,26.9351,83.7833,2.11414e+10,1.00083,0.993508,96,0.254715,208,0.01,2
app_38,95.397,19410.2,7953,46.1518,78.4244,3.85211e+10,1.00106,0.993508,109,0.487609,182,0.01,2
app_39,93.88,19856.6,7950.1,48.9901,84.714,4.13341e+10,1.00107,0.993508,108,0.486284,184,0.01,2
app_4,1.12834,19383.7,7914.8,75.2906,784.03,2.37453e+10,1.00774,0.993508,10,0.0302873,1917,0.1,1
app_40,66.0676,20812.4,7966.2,32.4666,72.2742,2.57146e+10,1.00101,0.993508,111,0.352255,179,0.01,2
app_41,118.257,21286.7,7994.9,3.66583,6.41249,2.26426e+09,1.00035,0.993508,1008,0.377376,20,0.001,3
app_42,811.699,23723.9,7974.2,22.5167,6.26662,1.89304e+10,1.00086,0.993508,1141,2.70435,18,0.001,3
app_43,714.862,20514.6,7946.2,51.8947,8.82348,4.44464e+10,1.00117,0.993508,960,4.93849,21,0.001,3
app_44,366.894,21613.5,7992.5,5.82364,8.27979,4.90976e+09,1.00032,0.993508,1112,0.61372,18,0.001,3
app_45,933.707,19803.6,7982.2,17.8,6.4384,1.54197e+10,1.0003,0.993508,1090,2.20281,19,0.001,3
app_46,153.744,14895.4,7956.3,43.7,10.8986,3.55192e+10,1.00102,0.993508,1020,3.22902,20,0.001,3
app_47,77.59,20320.3,7949.6,50.4,7.79468,4.29371e+10,1.00093,0.993508,1024,5.36714,20,0.001,3
app_48,781.838,21247.4,7968,29.6698,6.89636,2.6284e+10,1.00072,0.993508,1199,3.75486,17,0.001,3
app_49,818.116,24071.1,7965.8,32.4666,7.33715,2.78248e+10,1.0008,0.993508,841,3.97497,24,0.001,3
app_5,6.65215,18127.4,7896.6,92.0117,983.68,1.54092e+10,1.01112,0.993508,8,0.0156597,2230,0.1,1
app_50,606.43,23513.1,7976.6,17.5021,6.08725,1.41912e+10,1.00115,0.993508,1040,2.3652,20,0.001,3
app_51,399.237,21415.1,7956.8,39.997,9.01157,3.37678e+10,1.00118,0.993508,861,3.75197,24,0.001,3
app_52,165.967,17765,7968.7,28.9475,11.6594,2.30253e+10,1.00104,0.993508,944,1.91878,22,0.001,3
app_53,773.714,21088.9,7958.2,38.0668,10.0871,3.26164e+10,1.00115,0.993508,932,3.26164,22,0.001,3
app_54,32.3535,20302.5,7976.2,23.8,6.75106,2.04678e+10,1.00042,0.993508,1132,3.4113,18,0.001,3
app_55,590.317,21694.9,7990.8,5.36911,8.81497,3.69143e+09,1.00069,0.993508,956,0.410159,21,0.001,3
app_56,613.951,20898.9,7957.9,42.1,5.35152,3.45427e+10,1.00095,0.993508,1250,6.90854,16,0.001,3
app_57,555.367,21485.1,7955.6,39.7795,8.49612,3.4537e+10,1.00123,0.993508,873,4.31713,23,0.001,3
app_58,113.862,19107.3,7948.4,51.5021,7.89097,4.37918e+10,1.00098,0.993508,1118,5.47398,18,0.001,3
app_59,199.336,20445.1,7957,40.8885,7.2619,3.31959e+10,1.00123,0.993508,1033,4.74228,20,0.001,3
app_6,2.36532,19045.9,7905.2,85.1813,846.991,4.56408e+10,1.00618,0.993508,9,0.0538852,2071,0.1,1
app_60,287.808,22754.7,7955.8,44.2,7.42592,3.82879e+10,1.00074,0.993508,998,4.78599,20,0.001,3
app_7,4.92162,18609.2,7905.5,85.0459,868.991,3.28973e+10,1.00776,0.993508,9,0.0378565,2006,0.1,1
app_8,6.24197,18391,7916,75.2924,743.034,4.3625e+10,1.00507,0.993508,11,0.0587147,1684,0.1,1
app_9,5.02813,19009.2,7913.8,76.4761,758.055,4.09034e+10,1.00569,0.993508,10,0.0539622,1848,0.1,1
