app_id,start_app,end_app,effective_cpu,effective_io,effective_iter,total_bytes,stretch,utilization,Tcomp,Tio,iterations,priority,group_id
app_1,8.187,18116,7903.4,85.3062,880.853,3.05187e+10,1.00833,0.993345,9,0.0346409,2018,0.1,1
app_10,6.38623,18156.5,7889,99.7419,1096.85,2.71819e+09,1.01372,0.993345,7,0.00247784,2524,0.1,1
app_11,1.1651,19743.3,7911.4,79.7931,787.853,4.2365e+10,1.00581,0.993345,10,0.0537627,1949,0.1,1
app_12,4.22883,20449.8,7908.3,81.4123,881.374,7.40694e+09,1.01065,0.993345,9,0.00840743,2221,0.1,1
app_13,9.41858,18717.7,7898.6,90.6412,890.911,4.94462e+10,1.00654,0.993345,9,0.0554952,2064,0.1,1
app_14,8.76557,18649.7,7917.6,72.6975,791.572,4.87457e+09,1.00979,0.993345,10,0.00616254,1872,0.1,1
app_15,2.07425,19384.1,7915.1,76.1715,770.962,3.36521e+10,1.00645,0.993345,10,0.0436473,1920,0.1,1
app_16,7.55813,19759.8,7907.9,82.6576,853.746,2.85041e+10,1.00801,0.993345,9,0.0333772,2156,0.1,1
app_17,7.54039,20291.8,7913.3,77.3799,803.057,2.46102e+10,1.00782,0.993345,10,0.0306478,1993,0.1,1
app_18,6.04393,18672,7911.2,80.1263,878.077,1.32707e+09,1.01105,0.993345,9,0.00151147,2058,0.1,1
app_19,1.0585,19438.8,7898.2,91.6752,1002.71,3.20099e+07,1.01288,0.993345,8,3.1946e-05,2432,0.1,1
app_2,0.923931,19009.1,7909.8,81.3352,892.508,1.27847e+09,1.01124,0.993345,9,0.00143166,2084,0.1,1
app_20,0.39317,18051,7917.6,73.7248,736.326,3.57716e+10,1.00586,0.993345,11,0.0485367,1667,0.1,1
app_21,88.5728,20429.6,7976.1,22.7109,75.1913,1.59119e+10,1.001,0.993345,101,0.212158,196,0.01,2
app_22,33.1984,18956.7,7958.9,37.8565,83.0986,3.081e+10,1.00129,0.993345,101,0.371205,197,0.01,2
app_23,24.1853,19938,7937.5,59.9714,93.6686,5.20886e+10,1.0013,0.993345,83,0.554134,238,0.01,2
app_24,51.233,20950.8,7952.7,45.945,72.6048,3.8288e+10,1.00113,0.993345,104,0.524494,191,0.01,2
app_25,4.30435,19895.3,7989,9.21659,94.0053,1.92298e+09,1.00114,0.993345,91,0.0204572,220,0.01,2
app_26,69.3137,20719.3,7942.1,56.9669,67.8701,4.94361e+10,1.00106,0.993345,109,0.727001,182,0.01,2
app_27,56.4479,19967.8,7952.2,45.9546,84.9646,3.87865e+10,1.00113,0.993345,82,0.456311,243,0.01,2
app_28,63.3521,20330.3,7955.3,43.0735,81.3918,3.62507e+10,1.00106,0.993345,92,0.447539,216,0.01,2
app_29,82.5002,20946.4,7974.3,24.5246,72.8315,2.06992e+10,1.00063,0.993345,105,0.283551,189,0.01,2
app_3,1.4215,19465.6,7904.1,87.1795,885.283,4.03195e+10,1.007,0.993345,9,0.0455587,2136,0.1,1
app_30,83.2404,21356.4,7968.8,29.2603,67.9222,2.39545e+10,1.00091,0.993345,103,0.352272,193,0.01,2
app_31,9.51101,22045.9,7945.5,52.3471,72.0142,4.45615e+10,1.00124,0.993345,100,0.618909,198,0.01,2
app_32,61.5394,19788.8,7989.7,7.74465,76.9663,3.06044e+09,1.00091,0.993345,94,0.0397459,213,0.01,2
app_33,32.3544,18095.2,7975.3,23.2505,78.5303,1.6038e+10,1.00108,0.993345,105,0.205615,189,0.01,2
app_34,90.5742,18585,7980.8,16.9004,81.8614,1.17887e+10,1.00093,0.993345,102,0.143764,196,0.01,2
app_35,67.5039,19796.8,7945.3,53.8542,79.202,4.7175e+10,1.00094,0.993345,101,0.589687,196,0.01,2
app_36,50.8459,18782.9,7947.8,50.6225,79.0611,4.3507e+10,1.00109,0.993345,101,0.550722,196,0.01,2
app_37,87.028,19379.8,7980.2,19.0761,95.2536,1.12978e+10,1.00106,0.993345,91,0.118924,218,0.01,2
app_38,87.3132,20729,7987.9,8.98889,76.843,6.19416e+09,1.00074,0.993345,110,0.0804436,182,0.01,2
app_39,19.9244,18624.4,7950.1,48.9818,73.9628,4.33483e+10,1.00082,0.993345,117,0.585788,170,0.01,2
app_4,0.244832,18608.7,7910.7,80.3969,797.8,4.11147e+10,1.00606,0.993345,10,0.0515869,1829,0.1,1
app_40,23.5707,21454,7951.4,48.0836,76.3958,4.08565e+10,1.00097,0.993345,96,0.530604,206,0.01,2
app_41,188.425,22294.3,7989.2,10.8,4.86872,1.04891e+10,1.00004,0.993345,1144,2.62229,18,0.001,3
app_42,610.49,22605.9,7992.2,6.90303,5.77216,6.22942e+09,1.0002,0.993345,1117,1.03824,18,0.001,3
app_43,510.861,18588.6,7988.4,11.6,12.1289,9.41493e+09,1.00027,0.993345,812,0.784578,25,0.001,3
app_44,11.4902,21184.8,7985.6,13.3136,6.92817,1.10618e+10,1.00042,0.993345,1115,1.58026,18,0.001,3
app_45,443.749,21600.2,7931.9,67.2702,9.67144,5.43295e+10,1.00172,0.993345,933,5.43295,22,0.001,3
app_46,3.71741,23843.5,7956.2,41.327,7.96745,3.56041e+10,1.00103,0.993345,859,4.45052,24,0.001,3
app_47,652.564,22123.6,7963.6,36.4,6.7155,3.07389e+10,1.00071,0.993345,970,5.12316,21,0.001,3
app_48,486.378,23743.8,7950.9,43.307,6.97297,3.95868e+10,1.00119,0.993345,1110,5.65526,18,0.001,3
app_49,23.496,17665.3,7986.2,12.4409,6.82392,8.94993e+09,1.00061,0.993345,997,1.27856,21,0.001,3
app_5,6.9476,20575.8,7909,81.7545,834.427,3.31114e+10,1.00729,0.993345,9,0.0397019,2211,0.1,1
app_50,45.833,19280.7,7960.7,34.9649,10.9715,3.08236e+10,1.00106,0.993345,909,2.80215,22,0.001,3
app_51,364.606,26968.8,7945.7,54.3,8.19234,4.66884e+10,1.00095,0.993345,858,5.83605,24,0.001,3
app_52,961.121,20182,7937.8,62.2,7.62397,5.22285e+10,1.00125,0.993345,955,6.52856,21,0.001,3
app_53,315.027,22867.2,7988.2,8.1686,6.99969,6.3707e+09,1.00068,0.993345,1028,0.9101,20,0.001,3
app_54,292.703,21490.4,7963.3,36.7,7.01297,3.22483e+10,1.00056,0.993345,1041,4.6069,20,0.001,3
app_55,819.459,19343.6,7939,60.8234,9.58112,5.34489e+10,1.00094,0.993345,869,5.34489,23,0.001,3
app_56,27.0155,19554.1,7986.4,13.6,8.0513,1.18494e+10,1.00022,0.993345,776,1.48117,26,0.001,3
app_57,924.02,19794.3,7981.1,12.458,7.18831,1.05461e+10,1.00105,0.993345,1148,1.50658,18,0.001,3
app_58,961.299,18185.2,7947.2,52.8,10.2668,4.53364e+10,1.00093,0.993345,1034,4.12149,20,0.001,3
app_59,786.78,20985.7,7983.9,16.1,6.81235,1.17928e+10,1.00054,0.993345,970,1.68468,21,0.001,3
app_6,8.82823,20296,7922,69.5978,707.902,2.46538e+10,1.00671,0.993345,11,0.0348217,1784,0.1,1
app_60,802.532,21991.3,7988.4,11.6,8.53309,1.02743e+10,1.00017,0.993345,907,1.14158,23,0.001,3
app_7,3.86143,19933.2,7919.6,72.7303,794.674,9.04209e+07,1.01014,0.993345,10,0.000113737,1979,0.1,1
app_8,3.13922,19311.6,7912.8,79.6394,796.981,4.04663e+10,1.00588,0.993345,10,0.0507733,1933,0.1,1
app_9,8.45791,18624,7899,91.1259,892.868,5.38143e+10,1.00593,0.993345,9,0.0602623,2072,0.1,1
