app_id,start_app,end_app,effective_cpu,effective_io,effective_iter,total_bytes,stretch,utilization,Tcomp,Tio,iterations,priority,group_id
app_1,0,6420.1,4710.5,289.5,77.8678,2.66959e+12,1.00453,0.92581,60.5,3.42255,100,0.1,1
app_10,0,6664,4600.1,372.5,7.661,3.00648e+12,1.02025,0.92581,603.5,37.581,10,0.01,2
app_11,0,6599.9,4612.9,359.7,7.66448,3.00648e+12,1.01759,0.92581,603.5,37.581,10,0.01,2
app_12,0,6535.8,4629.8,360.6,7.71054,3.00648e+12,1.01411,0.92581,603.5,37.581,10,0.01,2
app_13,0,6481.5,4693.9,306.1,7.74684,2.70099e+12,1.00725,0.92581,603.5,37.581,10,0.01,2
app_14,0,6435.6,4710.2,289.8,77.804,2.63537e+12,1.00528,0.92581,60.5,3.42255,100,0.1,1
app_15,0,6429.2,4709.6,290.4,77.8445,2.66419e+12,1.00482,0.92581,60.5,3.42255,100,0.1,1
app_16,0,6425.4,4709,291,77.8445,2.66959e+12,1.00483,0.92581,60.5,3.42255,100,0.1,1
app_2,0,7085,4623.6,332.4,7.6095,2.63067e+12,1.02319,0.92581,603.5,37.581,10,0.01,2
app_3,0,7033.7,4613.4,323.6,7.59061,2.63067e+12,1.02533,0.92581,603.5,37.581,10,0.01,2
app_4,0,6982.3,4603.4,342.8,7.59048,2.66087e+12,1.0268,0.92581,603.5,37.581,10,0.01,2
app_5,0,6937.5,4569.4,385,7.60519,3.00648e+12,1.02668,0.92581,603.5,37.581,10,0.01,2
app_6,0,6893.4,4562.2,374.7,7.59563,3.00648e+12,1.0282,0.92581,603.5,37.581,10,0.01,2
app_7,0,6842.1,4562.2,379.1,7.5854,3.00648e+12,1.0282,0.92581,603.5,37.581,10,0.01,2
app_8,0,6787.5,4565.5,389.7,7.60413,3.00648e+12,1.02751,0.92581,603.5,37.581,10,0.01,2
app_9,0,6726.3,4589.1,380.1,7.64217,3.00648e+12,1.02255,0.92581,603.5,37.581,10,0.01,2
