app_id,start_exec,end_exec,start_io,end_io
app_1,0,60.5,60.5,64
app_1,64,124.5,124.5,128
app_1,128,188.5,188.5,192
app_1,192,252.5,252.5,256
app_1,256,316.5,316.5,320
app_1,320,380.5,380.5,384
app_1,384,444.5,444.5,448
app_1,448,508.5,508.5,512
app_1,512,572.5,572.5,576
app_1,576,636.5,636.5,640.3
app_1,640.3,700.8,700.8,704.6
app_1,704.6,765.1,765.1,768.9
app_1,768.9,829.4,829.4,833.2
app_1,833.2,893.7,893.7,897.5
app_1,897.5,958,958,961.8
app_1,961.8,1022.3,1022.3,1026.1
app_1,1026.1,1086.6,1086.6,1090.4
app_1,1090.4,1150.9,1150.9,1154.7
app_1,1154.7,1215.2,1215.2,1218.7
app_1,1218.7,1279.2,1279.2,1283
app_1,1283,1343.5,1343.5,1347.3
app_1,1347.3,1407.8,1407.8,1411.6
app_1,1411.6,1472.1,1472.1,1475.9
app_1,1475.9,1536.4,1536.4,1540.2
app_1,1540.2,1600.7,1600.7,1604.5
app_1,1604.5,1665,1665,1668.8
app_1,1668.8,1729.3,1729.3,1733.1
app_1,1733.1,1793.6,1793.6,1797.4
app_1,1797.4,1857.9,1857.9,1861.4
app_1,1861.4,1921.9,1921.9,1925.7
app_1,1925.7,1986.2,1986.2,1990
app_1,1990,2050.5,2050.5,2054.3
app_1,2054.3,2114.8,2114.8,2118.6
app_1,2118.6,2179.1,2179.1,2182.9
app_1,2182.9,2243.4,2243.4,2247.2
app_1,2247.2,2307.7,2307.7,2311.5
app_1,2311.5,2372,2372,2375.8
app_1,2375.8,2436.3,2436.3,2440.1
app_1,2440.1,2500.6,2500.6,2504.1
app_1,2504.1,2564.6,2564.6,2568.1
app_1,2568.1,2628.6,2628.6,2632.4
app_1,2632.4,2692.9,2692.9,2696.7
app_1,2696.7,2757.2,2757.2,2761
app_1,2761,2821.5,2821.5,2825.3
app_1,2825.3,2885.8,2885.8,2889.6
app_1,2889.6,2950.1,2950.1,2953.9
app_1,2953.9,3014.4,3014.4,3018.2
app_1,3018.2,3078.7,3078.7,3082.5
app_1,3082.5,3143,3143,3146.5
app_1,3146.5,3207,3207,3210.5
app_1,3210.5,3271,3271,3274.5
app_1,3274.5,3335,3335,3338.8
app_1,3338.8,3399.3,3399.3,3403.1
app_1,3403.1,3463.6,3463.6,3467.4
app_1,3467.4,3527.9,3527.9,3531.7
app_1,3531.7,3592.2,3592.2,3596
app_1,3596,3656.5,3656.5,3660.3
app_1,3660.3,3720.8,3720.8,3724.6
app_1,3724.6,3785.1,3785.1,3788.9
app_1,3788.9,3849.4,3849.4,3852.9
app_1,3852.9,3913.4,3913.4,3916.9
app_1,3916.9,3977.4,3977.4,3980.9
app_1,3980.9,4041.4,4041.4,4045.2
app_1,4045.2,4105.7,4105.7,4109.5
app_1,4109.5,4170,4170,4173.8
app_1,4173.8,4234.3,4234.3,4238.1
app_1,4238.1,4298.6,4298.6,4302.4
app_1,4302.4,4362.9,4362.9,4366.7
app_1,4366.7,4427.2,4427.2,4431
app_1,4431,4491.5,4491.5,4495
app_1,4495,4555.5,4555.5,4559
app_1,4559,4619.5,4619.5,4623
app_1,4623,4683.5,4683.5,4687
app_1,4687,4747.5,4747.5,4751.3
app_1,4751.3,4811.8,4811.8,4815.6
app_1,4815.6,4876.1,4876.1,4879.9
app_1,4879.9,4940.4,4940.4,4944.2
app_1,4944.2,5004.7,5004.7,5008.5
app_1,5008.5,5069,5069,5072.8
app_1,5072.8,5133.3,5133.3,5136.8
app_1,5136.8,5197.3,5197.3,5200.8
app_1,5200.8,5261.3,5261.3,5264.8
app_1,5264.8,5325.3,5325.3,5328.8
app_1,5328.8,5389.3,5389.3,5392.8
app_1,5392.8,5453.3,5453.3,5457.1
app_1,5457.1,5517.6,5517.6,5521.4
app_1,5521.4,5581.9,5581.9,5585.7
app_1,5585.7,5646.2,5646.2,5650
app_1,5650,5710.5,5710.5,5714.3
app_1,5714.3,5774.8,5774.8,5778.6
app_1,5778.6,5839.1,5839.1,5842.6
app_1,5842.6,5903.1,5903.1,5906.6
app_1,5906.6,5967.1,5967.1,5970.6
app_1,5970.6,6031.1,6031.1,6034.6
app_1,6034.6,6095.1,6095.1,6098.6
app_1,6098.6,6159.1,6159.1,6162.9
app_1,6162.9,6223.4,6223.4,6227.2
app_1,6227.2,6287.7,6287.7,6291.5
app_1,6291.5,6352,6352,6355.8
app_1,6355.8,6416.3,6416.3,6420.1
app_10,0,603.5,743.7,795
app_10,795,1398.5,1398.5,1449.8
app_10,1449.8,2053.3,2067,2104.6
app_10,2104.6,2708.1,2721.8,2773.1
app_10,2773.1,3376.6,3376.6,3427.9
app_10,3427.9,4031.4,4031.4,4082.7
app_10,4082.7,4686.2,4686.2,4734.8
app_10,4734.8,5338.3,5338.3,5379.4
app_10,5379.4,5982.9,5982.9,6022.9
app_10,6022.9,6626.4,6626.4,6664
app_11,0,603.5,692.4,743.7
app_11,743.7,1347.2,1360.9,1398.5
app_11,1398.5,2002,2015.7,2067
app_11,2067,2670.5,2670.5,2721.8
app_11,2721.8,3325.3,3325.3,3376.6
app_11,3376.6,3980.1,3980.1,4028.7
app_11,4028.7,4632.2,4632.2,4673.3
app_11,4673.3,5276.8,5276.8,5316.3
app_11,5316.3,5919.8,5919.8,5958.8
app_11,5958.8,6562.3,6562.3,6599.9
app_12,0,603.5,654.8,692.4
app_12,692.4,1295.9,1309.6,1360.9
app_12,1360.9,1964.4,1964.4,2015.7
app_12,2015.7,2619.2,2619.2,2670.5
app_12,2670.5,3274,3274,3322.3
app_12,3322.3,3925.8,3925.8,3966.8
app_12,3966.8,4570.3,4570.3,4609.6
app_12,4609.6,5213.1,5213.1,5252.2
app_12,5252.2,5855.7,5855.7,5894.7
app_12,5894.7,6498.2,6498.2,6535.8
app_13,0,603.5,603.5,654.8
app_13,654.8,1258.3,1258.3,1309.6
app_13,1309.6,1913.1,1913.1,1964.4
app_13,1964.4,2567.9,2567.9,2615.9
app_13,2615.9,3219.4,3219.4,3259.8
app_13,3259.8,3863.3,3863.3,3902.7
app_13,3902.7,4506.2,4506.2,4545.5
app_13,4545.5,5149,5149,5188.1
app_13,5188.1,5791.6,5791.6,5830.6
app_13,5830.6,6434.1,6443.9,6481.5
app_14,0,60.5,71,74.5
app_14,74.5,135,135,138.5
app_14,138.5,199,199,202.5
app_14,202.5,263,263,266.5
app_14,266.5,327,327,330.5
app_14,330.5,391,391,394.5
app_14,394.5,455,455,458.5
app_14,458.5,519,519,522.5
app_14,522.5,583,583,586.5
app_14,586.5,647,647.9,651.7
app_14,651.7,712.2,712.2,716
app_14,716,776.5,776.5,780.3
app_14,780.3,840.8,840.8,844.6
app_14,844.6,905.1,905.1,908.9
app_14,908.9,969.4,969.4,973.2
app_14,973.2,1033.7,1033.7,1037.5
app_14,1037.5,1098,1098,1101.8
app_14,1101.8,1162.3,1162.3,1166.1
app_14,1166.1,1226.6,1226.6,1230.1
app_14,1230.1,1290.6,1290.6,1294.4
app_14,1294.4,1354.9,1354.9,1358.7
app_14,1358.7,1419.2,1419.2,1423
app_14,1423,1483.5,1483.5,1487.3
app_14,1487.3,1547.8,1547.8,1551.6
app_14,1551.6,1612.1,1612.1,1615.9
app_14,1615.9,1676.4,1676.4,1680.2
app_14,1680.2,1740.7,1740.7,1744.5
app_14,1744.5,1805,1805,1808.8
app_14,1808.8,1869.3,1869.3,1872.8
app_14,1872.8,1933.3,1933.3,1937.1
app_14,1937.1,1997.6,1997.6,2001.4
app_14,2001.4,2061.9,2061.9,2065.7
app_14,2065.7,2126.2,2126.2,2130
app_14,2130,2190.5,2190.5,2194.3
app_14,2194.3,2254.8,2254.8,2258.6
app_14,2258.6,2319.1,2319.1,2322.9
app_14,2322.9,2383.4,2383.4,2387.2
app_14,2387.2,2447.7,2447.7,2451.5
app_14,2451.5,2512,2512,2515.5
app_14,2515.5,2576,2576,2579.8
app_14,2579.8,2640.3,2640.3,2644.1
app_14,2644.1,2704.6,2704.6,2708.4
app_14,2708.4,2768.9,2768.9,2772.7
app_14,2772.7,2833.2,2833.2,2837
app_14,2837,2897.5,2897.5,2901.3
app_14,2901.3,2961.8,2961.8,2965.6
app_14,2965.6,3026.1,3026.1,3029.9
app_14,3029.9,3090.4,3090.4,3094.2
app_14,3094.2,3154.7,3154.7,3158.2
app_14,3158.2,3218.7,3218.7,3222.4
app_14,3222.4,3282.9,3282.9,3286.7
app_14,3286.7,3347.2,3347.2,3351
app_14,3351,3411.5,3411.5,3415.3
app_14,3415.3,3475.8,3475.8,3479.6
app_14,3479.6,3540.1,3540.1,3543.9
app_14,3543.9,3604.4,3604.4,3608.2
app_14,3608.2,3668.7,3668.7,3672.5
app_14,3672.5,3733,3733,3736.8
app_14,3736.8,3797.3,3797.3,3801.1
app_14,3801.1,3861.6,3861.6,3865.2
app_14,3865.2,3925.7,3925.7,3929.5
app_14,3929.5,3990,3990,3993.8
app_14,3993.8,4054.3,4054.3,4058.1
app_14,4058.1,4118.6,4118.6,4122.4
app_14,4122.4,4182.9,4182.9,4186.7
app_14,4186.7,4247.2,4247.2,4251
app_14,4251,4311.5,4311.5,4315.3
app_14,4315.3,4375.8,4375.8,4379.6
app_14,4379.6,4440.1,4440.1,4443.9
app_14,4443.9,4504.4,4504.4,4508
app_14,4508,4568.5,4568.5,4572.1
app_14,4572.1,4632.6,4632.6,4636.4
app_14,4636.4,4696.9,4696.9,4700.7
app_14,4700.7,4761.2,4761.2,4765
app_14,4765,4825.5,4825.5,4829.3
app_14,4829.3,4889.8,4889.8,4893.6
app_14,4893.6,4954.1,4954.1,4957.9
app_14,4957.9,5018.4,5018.4,5022.2
app_14,5022.2,5082.7,5082.7,5086.5
app_14,5086.5,5147,5147,5150.6
app_14,5150.6,5211.1,5211.1,5214.7
app_14,5214.7,5275.2,5275.2,5278.9
app_14,5278.9,5339.4,5339.4,5343.2
app_14,5343.2,5403.7,5403.7,5407.5
app_14,5407.5,5468,5468,5471.8
app_14,5471.8,5532.3,5532.3,5536.1
app_14,5536.1,5596.6,5596.6,5600.4
app_14,5600.4,5660.9,5660.9,5664.7
app_14,5664.7,5725.2,5725.2,5729
app_14,5729,5789.5,5789.5,5793.1
app_14,5793.1,5853.6,5853.6,5857.2
app_14,5857.2,5917.7,5917.7,5921.3
app_14,5921.3,5981.8,5981.8,5985.5
app_14,5985.5,6046,6046,6049.8
app_14,6049.8,6110.3,6110.3,6114.1
app_14,6114.1,6174.6,6174.6,6178.4
app_14,6178.4,6238.9,6238.9,6242.7
app_14,6242.7,6303.2,6303.2,6307
app_14,6307,6367.5,6367.5,6371.3
app_14,6371.3,6431.8,6431.8,6435.6
app_15,0,60.5,67.5,71
app_15,71,131.5,131.5,135
app_15,135,195.5,195.5,199
app_15,199,259.5,259.5,263
app_15,263,323.5,323.5,327
app_15,327,387.5,387.5,391
app_15,391,451.5,451.5,455
app_15,455,515.5,515.5,519
app_15,519,579.5,579.5,583
app_15,583,643.5,644.1,647.9
app_15,647.9,708.4,708.4,712.2
app_15,712.2,772.7,772.7,776.5
app_15,776.5,837,837,840.8
app_15,840.8,901.3,901.3,905.1
app_15,905.1,965.6,965.6,969.4
app_15,969.4,1029.9,1029.9,1033.7
app_15,1033.7,1094.2,1094.2,1098
app_15,1098,1158.5,1158.5,1162.3
app_15,1162.3,1222.8,1222.8,1226.3
app_15,1226.3,1286.8,1286.8,1290.6
app_15,1290.6,1351.1,1351.1,1354.9
app_15,1354.9,1415.4,1415.4,1419.2
app_15,1419.2,1479.7,1479.7,1483.5
app_15,1483.5,1544,1544,1547.8
app_15,1547.8,1608.3,1608.3,1612.1
app_15,1612.1,1672.6,1672.6,1676.4
app_15,1676.4,1736.9,1736.9,1740.7
app_15,1740.7,1801.2,1801.2,1805
app_15,1805,1865.5,1865.5,1869
app_15,1869,1929.5,1929.5,1933.3
app_15,1933.3,1993.8,1993.8,1997.6
app_15,1997.6,2058.1,2058.1,2061.9
app_15,2061.9,2122.4,2122.4,2126.2
app_15,2126.2,2186.7,2186.7,2190.5
app_15,2190.5,2251,2251,2254.8
app_15,2254.8,2315.3,2315.3,2319.1
app_15,2319.1,2379.6,2379.6,2383.4
app_15,2383.4,2443.9,2443.9,2447.7
app_15,2447.7,2508.2,2508.2,2511.7
app_15,2511.7,2572.2,2572.2,2576
app_15,2576,2636.5,2636.5,2640.3
app_15,2640.3,2700.8,2700.8,2704.6
app_15,2704.6,2765.1,2765.1,2768.9
app_15,2768.9,2829.4,2829.4,2833.2
app_15,2833.2,2893.7,2893.7,2897.5
app_15,2897.5,2958,2958,2961.8
app_15,2961.8,3022.3,3022.3,3026.1
app_15,3026.1,3086.6,3086.6,3090.4
app_15,3090.4,3150.9,3150.9,3154.4
app_15,3154.4,3214.9,3214.9,3218.4
app_15,3218.4,3278.9,3278.9,3282.7
app_15,3282.7,3343.2,3343.2,3347
app_15,3347,3407.5,3407.5,3411.3
app_15,3411.3,3471.8,3471.8,3475.6
app_15,3475.6,3536.1,3536.1,3539.9
app_15,3539.9,3600.4,3600.4,3604.2
app_15,3604.2,3664.7,3664.7,3668.5
app_15,3668.5,3729,3729,3732.8
app_15,3732.8,3793.3,3793.3,3797.1
app_15,3797.1,3857.6,3857.6,3861.1
app_15,3861.1,3921.6,3921.6,3925.1
app_15,3925.1,3985.6,3985.6,3989.4
app_15,3989.4,4049.9,4049.9,4053.7
app_15,4053.7,4114.2,4114.2,4118
app_15,4118,4178.5,4178.5,4182.3
app_15,4182.3,4242.8,4242.8,4246.6
app_15,4246.6,4307.1,4307.1,4310.9
app_15,4310.9,4371.4,4371.4,4375.2
app_15,4375.2,4435.7,4435.7,4439.5
app_15,4439.5,4500,4500,4503.5
app_15,4503.5,4564,4564,4567.5
app_15,4567.5,4628,4628,4631.5
app_15,4631.5,4692,4692,4695.8
app_15,4695.8,4756.3,4756.3,4760.1
app_15,4760.1,4820.6,4820.6,4824.4
app_15,4824.4,4884.9,4884.9,4888.7
app_15,4888.7,4949.2,4949.2,4953
app_15,4953,5013.5,5013.5,5017.3
app_15,5017.3,5077.8,5077.8,5081.6
app_15,5081.6,5142.1,5142.1,5145.6
app_15,5145.6,5206.1,5206.1,5209.6
app_15,5209.6,5270.1,5270.1,5273.6
app_15,5273.6,5334.1,5334.1,5337.6
app_15,5337.6,5398.1,5398.1,5401.9
app_15,5401.9,5462.4,5462.4,5466.2
app_15,5466.2,5526.7,5526.7,5530.5
app_15,5530.5,5591,5591,5594.8
app_15,5594.8,5655.3,5655.3,5659.1
app_15,5659.1,5719.6,5719.6,5723.4
app_15,5723.4,5783.9,5783.9,5787.4
app_15,5787.4,5847.9,5847.9,5851.4
app_15,5851.4,5911.9,5911.9,5915.4
app_15,5915.4,5975.9,5975.9,5979.4
app_15,5979.4,6039.9,6039.9,6043.4
app_15,6043.4,6103.9,6103.9,6107.7
app_15,6107.7,6168.2,6168.2,6172
app_15,6172,6232.5,6232.5,6236.3
app_15,6236.3,6296.8,6296.8,6300.6
app_15,6300.6,6361.1,6361.1,6364.9
app_15,6364.9,6425.4,6425.4,6429.2
app_16,0,60.5,64,67.5
app_16,67.5,128,128,131.5
app_16,131.5,192,192,195.5
app_16,195.5,256,256,259.5
app_16,259.5,320,320,323.5
app_16,323.5,384,384,387.5
app_16,387.5,448,448,451.5
app_16,451.5,512,512,515.5
app_16,515.5,576,576,579.5
app_16,579.5,640,640.3,644.1
app_16,644.1,704.6,704.6,708.4
app_16,708.4,768.9,768.9,772.7
app_16,772.7,833.2,833.2,837
app_16,837,897.5,897.5,901.3
app_16,901.3,961.8,961.8,965.6
app_16,965.6,1026.1,1026.1,1029.9
app_16,1029.9,1090.4,1090.4,1094.2
app_16,1094.2,1154.7,1154.7,1158.5
app_16,1158.5,1219,1219,1222.5
app_16,1222.5,1283,1283,1286.8
app_16,1286.8,1347.3,1347.3,1351.1
app_16,1351.1,1411.6,1411.6,1415.4
app_16,1415.4,1475.9,1475.9,1479.7
app_16,1479.7,1540.2,1540.2,1544
app_16,1544,1604.5,1604.5,1608.3
app_16,1608.3,1668.8,1668.8,1672.6
app_16,1672.6,1733.1,1733.1,1736.9
app_16,1736.9,1797.4,1797.4,1801.2
app_16,1801.2,1861.7,1861.7,1865.2
app_16,1865.2,1925.7,1925.7,1929.5
app_16,1929.5,1990,1990,1993.8
app_16,1993.8,2054.3,2054.3,2058.1
app_16,2058.1,2118.6,2118.6,2122.4
app_16,2122.4,2182.9,2182.9,2186.7
app_16,2186.7,2247.2,2247.2,2251
app_16,2251,2311.5,2311.5,2315.3
app_16,2315.3,2375.8,2375.8,2379.6
app_16,2379.6,2440.1,2440.1,2443.9
app_16,2443.9,2504.4,2504.4,2507.9
app_16,2507.9,2568.4,2568.4,2572.2
app_16,2572.2,2632.7,2632.7,2636.5
app_16,2636.5,2697,2697,2700.8
app_16,2700.8,2761.3,2761.3,2765.1
app_16,2765.1,2825.6,2825.6,2829.4
app_16,2829.4,2889.9,2889.9,2893.7
app_16,2893.7,2954.2,2954.2,2958
app_16,2958,3018.5,3018.5,3022.3
app_16,3022.3,3082.8,3082.8,3086.6
app_16,3086.6,3147.1,3147.1,3150.6
app_16,3150.6,3211.1,3211.1,3214.6
app_16,3214.6,3275.1,3275.1,3278.9
app_16,3278.9,3339.4,3339.4,3343.2
app_16,3343.2,3403.7,3403.7,3407.5
app_16,3407.5,3468,3468,3471.8
app_16,3471.8,3532.3,3532.3,3536.1
app_16,3536.1,3596.6,3596.6,3600.4
app_16,3600.4,3660.9,3660.9,3664.7
app_16,3664.7,3725.2,3725.2,3729
app_16,3729,3789.5,3789.5,3793.3
app_16,3793.3,3853.8,3853.8,3857.3
app_16,3857.3,3917.8,3917.8,3921.3
app_16,3921.3,3981.8,3981.8,3985.6
app_16,3985.6,4046.1,4046.1,4049.9
app_16,4049.9,4110.4,4110.4,4114.2
app_16,4114.2,4174.7,4174.7,4178.5
app_16,4178.5,4239,4239,4242.8
app_16,4242.8,4303.3,4303.3,4307.1
app_16,4307.1,4367.6,4367.6,4371.4
app_16,4371.4,4431.9,4431.9,4435.7
app_16,4435.7,4496.2,4496.2,4499.7
app_16,4499.7,4560.2,4560.2,4563.7
app_16,4563.7,4624.2,4624.2,4627.7
app_16,4627.7,4688.2,4688.2,4692
app_16,4692,4752.5,4752.5,4756.3
app_16,4756.3,4816.8,4816.8,4820.6
app_16,4820.6,4881.1,4881.1,4884.9
app_16,4884.9,4945.4,4945.4,4949.2
app_16,4949.2,5009.7,5009.7,5013.5
app_16,5013.5,5074,5074,5077.8
app_16,5077.8,5138.3,5138.3,5141.8
app_16,5141.8,5202.3,5202.3,5205.8
app_16,5205.8,5266.3,5266.3,5269.8
app_16,5269.8,5330.3,5330.3,5333.8
app_16,5333.8,5394.3,5394.3,5398.1
app_16,5398.1,5458.6,5458.6,5462.4
app_16,5462.4,5522.9,5522.9,5526.7
app_16,5526.7,5587.2,5587.2,5591
app_16,5591,5651.5,5651.5,5655.3
app_16,5655.3,5715.8,5715.8,5719.6
app_16,5719.6,5780.1,5780.1,5783.6
app_16,5783.6,5844.1,5844.1,5847.6
app_16,5847.6,5908.1,5908.1,5911.6
app_16,5911.6,5972.1,5972.1,5975.6
app_16,5975.6,6036.1,6036.1,6039.6
app_16,6039.6,6100.1,6100.1,6103.9
app_16,6103.9,6164.4,6164.4,6168.2
app_16,6168.2,6228.7,6228.7,6232.5
app_16,6232.5,6293,6293,6296.8
app_16,6296.8,6357.3,6357.3,6361.1
app_16,6361.1,6421.6,6421.6,6425.4
app_2,0,603.5,1126.7,1178
app_2,1178,1781.5,1781.5,1832.8
app_2,1832.8,2436.3,2436.3,2487.6
app_2,2487.6,3091.1,3104.8,3142.4
app_2,3142.4,3745.9,3759.8,3811.1
app_2,3811.1,4414.6,4414.6,4465.9
app_2,4465.9,5069.4,5072.1,5120.6
app_2,5120.6,5724.1,5737.8,5778.9
app_2,5778.9,6382.4,6392.6,6443.9
app_2,6443.9,7047.4,7047.4,7085
app_3,0,603.5,1075.4,1126.7
app_3,1126.7,1730.2,1738.3,1781.5
app_3,1781.5,2385,2398.7,2436.3
app_3,2436.3,3039.8,3053.5,3104.8
app_3,3104.8,3708.3,3708.5,3759.8
app_3,3759.8,4363.3,4366,4414.5
app_3,4414.5,5018,5031.7,5072.1
app_3,5072.1,5675.6,5686.5,5737.8
app_3,5737.8,6341.3,6341.3,6392.6
app_3,6392.6,6996.1,6996.1,7033.7
app_4,0,603.5,1037.8,1075.4
app_4,1075.4,1678.9,1692.6,1738.3
app_4,1738.3,2341.8,2347.4,2398.7
app_4,2398.7,3002.2,3002.2,3053.5
app_4,3053.5,3657,3660.6,3708.5
app_4,3708.5,4312,4325.6,4366
app_4,4366,4969.5,4980.4,5031.7
app_4,5031.7,5635.2,5635.2,5686.5
app_4,5686.5,6290,6296.4,6341.2
app_4,6341.2,6944.7,6944.7,6982.3
app_5,0,603.5,986.5,1037.8
app_5,1037.8,1641.3,1641.3,1692.6
app_5,1692.6,2296.1,2296.1,2347.4
app_5,2347.4,2950.9,2955.4,3002.2
app_5,3002.2,3605.7,3619.5,3660.6
app_5,3660.6,4264.1,4274.3,4325.6
app_5,4325.6,4929.1,4929.1,4980.4
app_5,4980.4,5583.9,5587.3,5635.1
app_5,5635.1,6238.6,6252.3,6296.4
app_5,6296.4,6899.9,6899.9,6937.5
app_6,0,603.5,935.2,986.5
app_6,986.5,1590,1590,1641.3
app_6,1641.3,2244.8,2257.6,2296.1
app_6,2296.1,2899.6,2913.3,2955.4
app_6,2955.4,3558.9,3568.2,3619.5
app_6,3619.5,4223,4223,4274.3
app_6,4274.3,4877.8,4881.2,4929
app_6,4929,5532.5,5546.2,5587.3
app_6,5587.3,6190.8,6201,6252.3
app_6,6252.3,6855.8,6855.8,6893.4
app_7,0,603.5,883.9,935.2
app_7,935.2,1538.7,1552.4,1590
app_7,1590,2193.5,2207.2,2257.6
app_7,2257.6,2861.1,2862,2913.3
app_7,2913.3,3516.8,3516.9,3568.2
app_7,3568.2,4171.7,4178.1,4222.9
app_7,4222.9,4826.4,4840.1,4881.2
app_7,4881.2,5484.7,5494.9,5546.2
app_7,5546.2,6149.7,6149.7,6201
app_7,6201,6804.5,6804.5,6842.1
app_8,0,603.5,846.3,883.9
app_8,883.9,1487.4,1501.1,1552.4
app_8,1552.4,2155.9,2155.9,2207.2
app_8,2207.2,2810.7,2810.7,2862
app_8,2862,3465.5,3475.8,3516.9
app_8,3516.9,4120.4,4134,4178.1
app_8,4178.1,4781.6,4788.8,4840.1
app_8,4840.1,5443.6,5443.6,5494.9
app_8,5494.9,6098.4,6098.4,6146.4
app_8,6146.4,6749.9,6749.9,6787.5
app_9,0,603.5,795,846.3
app_9,846.3,1449.8,1449.8,1501.1
app_9,1501.1,2104.6,2104.6,2155.9
app_9,2155.9,2759.4,2773.1,2810.7
app_9,2810.7,3414.2,3427.9,3475.8
app_9,3475.8,4079.3,4082.7,4134
app_9,4134,4737.5,4737.5,4788.8
app_9,4788.8,5392.3,5392.3,5440.6
app_9,5440.6,6044.1,6044.1,6085.2
app_9,6085.2,6688.7,6688.7,6726.3
