app_id,Tcomp,Tio,iter,witer,alpha_io,compute_size,io_size,mu,desyn_time
1,6.921271366178231,0.04018158312062155,2873,6.961452949298852,0.005772011017422531,6e9,40181583.12062155,10,3.836644917505962
2,9.682659245519039,0.037338416149862066,2058,9.7199976616689,0.003841401762585522,9e9,37338416.149862066,10,4.2528739624408365
3,7.05122385822236,0.02635431385146437,2826,7.0775781720738244,0.003723634442562745,7e9,26354313.85146437,10,2.6416250428186303
4,11.736786715358106,0.06305702614841946,1695,11.799843741506525,0.005343886540345725,11e9,63057026.14841946,10,5.360330427032432
5,8.847495029808414,0.01104005254861787,2258,8.858535082357031,0.0012462616500334943,8e9,11040052.54861787,10,1.634122798065648
6,11.34989175887292,0.036755896361741015,1757,11.386647655234661,0.0032279822362680753,11e9,36755896.361741014,10,2.366772068198919
7,9.509026395874098,0.010347672084166515,2101,9.519374067958266,0.0010870118150936266,9e9,10347672.084166514,10,5.728488626039185
8,13.391453875317314,0.08144085853804524,1485,13.472894733855359,0.006044792908044966,13e9,81440858.53804524,10,1.5091041121377318
9,7.849610820552069,0.005888867385255306,2546,7.855499687937325,0.000749648987230956,7e9,5888867.385255306,10,5.0439396980502265
10,9.085315589553819,0.011411332988368893,2199,9.096726922542187,0.0012544438329890927,9e9,11411332.988368893,10,3.1309382967151356
11,9.543011969073167,0.058353067607423384,2084,9.60136503668059,0.0060775803632602396,9e9,58353067.60742339,10,6.999391281475392
12,9.906457388490054,0.023028743085617687,2015,9.929486131575672,0.0023192280829504863,9e9,23028743.085617688,10,6.945068757887633
13,8.869050948338772,0.02155059516703576,2250,8.890601543505808,0.0024239749202097038,8e9,21550595.16703576,10,3.490813117772969
14,11.275834006795135,0.0481377340008424,1767,11.323971740795978,0.004250958506671329,11e9,48137734.0008424,10,8.23531920111031
15,7.731641707982586,0.02704503812349742,2578,7.7586867461060836,0.00348577523600508,7e9,27045038.123497423,10,1.9996604251643424
16,9.41042645659724,0.023020703430606252,2121,9.433447160027846,0.0024403278080733213,9e9,23020703.430606253,10,2.0906265179845165
17,9.2001317421998,0.04558885368067905,2164,9.245720595880478,0.004930805901812739,9e9,45588853.68067905,10,1.9404359322384572
18,8.688875557520344,0.005208050842073217,2301,8.694083608362417,0.0005990339035920756,8e9,5208050.842073217,10,6.834428162654955
19,7.367835227104022,0.031947233245673314,2703,7.399782460349695,0.004317320599200908,7e9,31947233.245673314,10,1.579058308308335
20,7.948043093047244,0.039519938482385476,2504,7.987563031529629,0.004947684084167703,7e9,39519938.48238548,10,7.710409703106496
21,86.6801233901145,0.4400777943360112,230,87.12020118445051,0.005051386341547587,86e9,440077794.3360112,100,41.20212792400319
22,75.0598510232138,0.3249295439538032,266,75.3847805671676,0.004310280424100883,75e9,324929543.9538032,100,56.0166292424613
23,80.09399787909337,0.03991210909697739,250,80.13390998819034,0.0004980676607800543,80e9,39912109.09697739,100,6.149235334935548
24,138.76047480710443,0.2136360893317669,144,138.9741108964362,0.0015372365971887307,138e9,213636089.3317669,100,106.945197983442
25,84.21751929540285,0.21087868811061442,237,84.42839798351346,0.002497722249234117,84e9,210878688.11061442,100,83.70974935575508
26,68.54858277627727,0.06993939171377297,292,68.61852216799105,0.0010192494607002493,68e9,69939391.71377297,100,7.03123327537502
27,106.03932908398265,0.6003244612450244,188,106.63965354522767,0.005629467475627315,106e9,600324461.2450243,100,89.02802714596784
28,102.87965311052399,0.19930797470596764,195,103.07896108522996,0.0019335465996904212,102e9,199307974.70596763,100,61.25874098305496
29,91.16146378331273,0.43780780411303194,219,91.59927158742576,0.0047795991881351575,91e9,437807804.1130319,100,78.15834688921429
30,99.71911807567653,0.27121604916734693,201,99.99033412484388,0.0027124226710625605,99e9,271216049.16734695,100,25.27581428410539
31,100.97772302026182,0.5997907296453154,197,101.57751374990714,0.005904758912706344,100e9,599790729.6453154,100,74.95957787691339
32,125.08721194897147,0.03130047266745873,160,125.11851242163893,0.00025016659854441647,125e9,31300472.66745873,100,52.36097320865673
33,117.05826507107214,0.07931592170860848,171,117.13758099278076,0.0006771176341220223,117e9,79315921.70860848,100,15.941190188207042
34,125.86926092575635,0.17476997170662245,159,126.04403089746297,0.0013865787254042845,125e9,174769971.70662245,100,49.09366922319828
35,98.03541822615114,0.3982529302004297,204,98.43367115635156,0.0040459014229779836,98e9,398252930.2004297,100,77.89730757106852
36,111.3166276771876,0.3262158900516683,180,111.64284356723927,0.00292195970317791,111e9,326215890.0516683,100,57.96294864695909
37,95.06532419891113,0.4880935943489827,210,95.55341779326011,0.005108070497331918,95e9,488093594.3489827,100,0.8397319743403201
38,75.35539428674217,0.09253056078795,266,75.44792484753012,0.0012264162463704806,75e9,92530560.78795,100,42.00992275281148
39,115.61429476499106,0.553475344299869,173,116.16777010929093,0.004764448381673832,115e9,553475344.299869,100,110.94343306677966
40,97.19595734904836,0.48032493836154855,205,97.6762822874099,0.004917518635160632,97e9,480324938.36154854,100,15.270685658237518
41,726.2829966004531,3.3659663180897046,28,729.6489629185428,0.0046131310933768535,726e9,3365966318.0897045,1000,446.3513084464782
42,921.3308092803583,0.14819735914680945,22,921.4790066395051,0.0001608255403313667,921e9,148197359.14680946,1000,310.0638986042953
43,455.21343609071755,1.7925994845056585,44,457.0060355752232,0.003922485361160174,455e9,1792599484.5056586,1000,46.534381963433226
44,373.4557587483448,1.4359351495545674,54,374.89169389789936,0.003830266642145558,373e9,1435935149.5545673,1000,32.917948200485256
45,1000.7217237283851,4.401456668861095,20,1005.1231803972462,0.004379022148431146,1000e9,4401456668.861095,1000,886.1919419921924
46,854.4535812414931,2.867072193661788,24,857.3206534351549,0.0033442238702332213,854e9,2867072193.661788,1000,479.68675058333895
47,1013.638296478777,5.481487149239556,20,1019.1197836280165,0.005378648552700773,1013e9,5481487149.239556,1000,461.07992318924505
48,1157.539517190783,2.2879246633470087,18,1159.82744185413,0.0019726422921063787,1157e9,2287924663.3470087,1000,207.17575173699913
49,990.0810002682537,5.954194758396198,21,996.0351950266498,0.005977895949988883,990e9,5954194758.396197,1000,571.5852594285299
50,1405.923394225249,2.447931874771595,15,1408.3713261000205,0.0017381295894103898,1405e9,2447931874.771595,1000,1085.4205373461057
51,694.1289186455351,0.9525883727795823,29,695.0815070183147,0.001370470028566711,694e9,952588372.7795823,1000,187.6101131232997
52,1130.3038464309698,2.150770294955181,18,1132.454616725925,0.0018992110263750261,1130e9,2150770294.9551806,1000,598.0413785375514
53,1079.4213343548358,6.597782478246983,19,1086.0191168330828,0.00607519920780643,1079e9,6597782478.246983,1000,648.6411083608051
54,1097.5369544642463,6.044223461063192,19,1103.5811779253095,0.005476917857937829,1097e9,6044223461.063191,1000,1064.5782984466637
55,1355.7778745285802,4.145882854413918,15,1359.9237573829942,0.003048614182895193,1355e9,4145882854.4139175,1000,1151.2712725913905
56,939.399258343156,3.2264176912638116,22,942.6256760344198,0.0034227984376971284,939e9,3226417691.2638116,1000,840.927189939542
57,1134.294126183338,2.600202978544521,18,1136.8943291618825,0.0022871105184079756,1134e9,2600202978.544521,1000,375.42351096469145
58,838.4405868998901,3.14876167279981,24,841.5893485726899,0.0037414466784067724,838e9,3148761672.79981,1000,775.9581225077688
59,1063.6787125614267,2.541546846577308,19,1066.220259408004,0.0023836977624008453,1063e9,2541546846.577308,1000,151.4112424516485
60,804.2488833837824,4.628056740248148,25,808.8769401240305,0.0057215832355642345,804e9,4628056740.248148,1000,451.96168663403523
