app_id,Tcomp,Tio,iter,witer,alpha_io,compute_size,io_size,mu,desyn_time
1,9.385278802093836,0.03933430120764851,2123,9.424613103301485,0.004173571983965,9e9,39334301.20764851,10,6.94250918010802
2,10.334017046547805,0.04213625150786515,1928,10.37615329805567,0.004060874034673412,10e9,42136251.50786515,10,4.509124023717076
3,10.604136007507057,0.06660358901036324,1875,10.67073959651742,0.006241703155430808,10e9,66603589.01036324,10,6.48928690433548
4,7.724217213614735,0.007144537457924586,2587,7.73136175107266,0.0009240981974402301,7e9,7144537.457924586,10,4.021732473049292
5,12.26792515080317,0.011422426534947202,1629,12.279347577338118,0.0009302144485288137,12e9,11422426.534947202,10,12.009313312513104
6,8.128532169150654,0.0003209994663965426,2461,8.12885316861705,3.9488899570214995e-05,8e9,320999.4663965426,10,2.567401312698846
7,10.706684752520111,0.05808029768200471,1858,10.764765050202115,0.005395407833904765,10e9,58080297.68200471,10,6.552141045350612
8,7.0341046739848,0.0026979698844050563,2843,7.036802643869205,0.00038340849117825623,7e9,2697969.8844050565,10,4.179027904263795
9,7.969685658340311,0.027402554926394315,2501,7.997088213266705,0.003426566544674981,7e9,27402554.926394314,10,3.029331599486782
10,9.259280342836675,0.037230704563986534,2152,9.296511047400662,0.004004803993041709,9e9,37230704.56398653,10,7.766904793218785
11,14.312892909978956,0.01926638131957643,1396,14.332159291298533,0.0013442762481207984,14e9,19266381.31957643,10,5.780591786664049
12,10.135908804291594,0.0664963513186638,1961,10.202405155610258,0.006517713255300173,10e9,66496351.3186638,10,0.6953870906164624
13,10.260194832013246,0.05877248065997633,1939,10.318967312673223,0.005695577752998113,10e9,58772480.65997633,10,7.707251141526684
14,10.684243082722821,0.061653258047908485,1862,10.745896340770729,0.005737376957005573,10e9,61653258.047908485,10,6.98095638548419
15,12.091650402037981,0.00043650781169478776,1654,12.092086909849677,3.6098633341712746e-05,12e9,436507.81169478776,10,2.3769530272987014
16,12.705080497999516,0.0532600955695613,1568,12.758340593569077,0.004174531568502521,12e9,53260095.5695613,10,10.355074160576764
17,10.264568166662448,0.032429017615700044,1943,10.296997184278148,0.0031493664643527258,10e9,32429017.615700044,10,9.156742415427168
18,10.556255923694042,0.01875274575415155,1892,10.575008669448193,0.0017733078374043616,10e9,18752745.754151553,10,10.410149255504699
19,7.961764653916679,0.009512178212719548,2510,7.971276832129398,0.0011933067202457856,7e9,9512178.212719548,10,3.0294150591968614
20,10.526571055091347,0.03989093853949282,1893,10.56646199363084,0.0037752408103618722,10e9,39890938.539492816,10,6.89819151801967
21,107.72295770455403,0.5647091203830524,185,108.28766682493709,0.005214897845162623,107e9,564709120.3830525,100,16.117222250572866
22,118.23958249458484,0.4116329687673824,169,118.65121546335222,0.003469268874826853,118e9,411632968.76738244,100,86.52339515925802
23,127.69202518436272,0.000420400055472716,157,127.6924455844182,3.292286035784217e-06,127e9,420400.05547271605,100,117.99361521839224
24,142.74392138746578,0.5772798387955249,140,143.3212012262613,0.00402787468885481,142e9,577279838.795525,100,119.9675009145788
25,143.48336953719743,0.2558244758733048,140,143.73919401307074,0.001779782317758382,143e9,255824475.8733048,100,95.26948433183985
26,113.35871786248612,0.5638875577286815,176,113.9226054202148,0.00494974246462084,113e9,563887557.7286814,100,81.30207902022313
27,46.752650112840676,0.047561448779285885,428,46.80021156161996,0.0010162656789844558,46e9,47561448.779285885,100,8.839995299118723
28,92.35105909944662,0.4159258782451143,216,92.76698497769173,0.004483554988287424,92e9,415925878.24511427,100,44.39911492929506
29,113.63848559411161,0.7097950684882831,175,114.34828066259989,0.006207308622178847,113e9,709795068.4882832,100,99.05777131339119
30,111.18570207084642,0.011704573841858447,180,111.19740664468827,0.00010525941382120855,111e9,11704573.841858447,100,77.21259419380613
31,79.9032381370269,0.1371631585169002,250,80.0404012955438,0.001713674048315106,79e9,137163158.51690018,100,2.1354550130811485
32,97.73916404854148,0.5592154979771172,204,98.2983795465186,0.005688959477836303,97e9,559215497.9771172,100,26.659198237036062
33,123.90155140450791,0.718275117750397,161,124.61982652225831,0.005763730682309256,123e9,718275117.750397,100,108.5557916213789
34,108.23359358031688,0.48661543599230345,184,108.72020901630918,0.004475850813709399,108e9,486615435.99230343,100,6.598267894634188
35,105.1933858290824,0.0016633652491678992,191,105.19504919433157,1.581220087739195e-05,105e9,1663365.2491678991,100,11.744046419178842
36,92.42412503353557,0.04285002732780715,217,92.46697506086338,0.00046340898790733136,92e9,42850027.32780715,100,49.003222410261266
37,85.27612845522341,0.47045524005559597,234,85.74658369527901,0.005486577071425623,85e9,470455240.055596,100,69.05957668441403
38,138.71018430479134,0.7575684396009744,144,139.46775274439233,0.005431853777621253,138e9,757568439.6009744,100,124.644240969362
39,118.39577737799483,0.5956336225651484,169,118.99141100055998,0.005005685852085117,118e9,595633622.5651484,100,38.67347165151379
40,71.943837340264,0.37120392794824464,277,72.31504126821224,0.005133149638558195,71e9,371203927.94824463,100,56.97589198308934
41,1090.9162447116817,2.241372689948658,19,1093.1576174016302,0.002050365523021525,1090e9,2241372689.948658,1000,198.12620317441284
42,1207.9114961185098,2.1475572956632463,17,1210.0590534141731,0.0017747541242751155,1207e9,2147557295.663246,1000,244.20591110922976
43,983.21353920119,0.28555697180795303,21,983.499096172998,0.0002903479758335471,983e9,285556971.80795306,1000,418.8755074205782
44,919.766391563198,2.8423305900907625,22,922.6087221532888,0.003080754085499007,919e9,2842330590.0907626,1000,606.507840182975
45,1269.1630989101754,7.3880157227951795,16,1276.5511146329707,0.005787481314384622,1269e9,7388015722.795179,1000,375.0226420511366
46,1026.6709631108665,2.4206934966617157,20,1029.0916566075282,0.0023522622898738675,1026e9,2420693496.6617155,1000,668.5957555293472
47,1358.7817331719257,4.326297945331486,15,1363.1080311172573,0.0031738481811932995,1358e9,4326297945.331487,1000,1035.0429375538827
48,901.7857226732384,1.005143624101507,23,902.7908662973399,0.0011133737187926495,901e9,1005143624.1015071,1000,623.7417358729053
49,772.5843132439952,4.491728082582159,26,777.0760413265774,0.005780294133009366,772e9,4491728082.582159,1000,94.58620021764317
50,1026.8957377219479,5.709722479749462,20,1032.6054602016973,0.005529432779325213,1026e9,5709722479.749462,1000,414.0726855130674
51,896.8023852241652,4.588668707498105,23,901.3910539316632,0.005090652594657305,896e9,4588668707.498105,1000,646.0874636578134
52,993.7564919123013,1.7172457914000716,21,995.4737377037013,0.0017250538375440324,993e9,1717245791.4000716,1000,501.223200609095
53,755.1532900000465,0.3031296018251797,27,755.4564196018716,0.000401253591815303,755e9,303129601.8251797,1000,653.2100085122397
54,1185.0322840952892,5.057081432102743,17,1190.089365527392,0.0042493291500522576,1185e9,5057081432.102743,1000,679.3611390217122
55,963.3162474374819,4.402940365193314,21,967.7191878026753,0.0045498119916282,963e9,4402940365.193314,1000,468.53879636394754
56,1142.1801021400358,2.1602516584232667,18,1144.340353798459,0.0018877702348367325,1142e9,2160251658.423267,1000,782.8033514130373
57,664.7438641614003,4.058906156982823,30,668.8027703183832,0.00606891349306251,664e9,4058906156.9828224,1000,454.5975277722605
58,752.2644002754889,3.773232858150563,27,756.0376331336395,0.004990800315734541,752e9,3773232858.1505632,1000,5.45760075830042
59,1070.111035634045,2.7803523439923303,19,1072.8913879780373,0.002591457416050436,1070e9,2780352343.9923306,1000,59.69188422170603
60,1029.1823604304714,4.2361474886942645,20,1033.4185079191657,0.004099159688192479,1029e9,4236147488.6942644,1000,566.043741681092
