app_id,Tcomp,Tio,iter,witer,alpha_io,compute_size,io_size,mu,desyn_time
1,10.590895798865056,0.0339028403337553,1883,10.624798639198811,0.003190916033803707,10e9,33902840.3337553,10,0.9241313575427195
2,12.096273095764225,0.05958855819391191,1646,12.155861653958137,0.00490204313690169,12e9,59588558.19391191,10,6.0925773991915495
3,9.277824555104146,0.028395837937186863,2150,9.306220393041333,0.003051275033032709,9e9,28395837.937186863,10,6.99979227904587
4,10.99638129340425,0.05100669631552781,1811,11.047387989719777,0.004617082007348021,10e9,51006696.31552781,10,8.812755874708966
5,10.014082627127186,0.04354973900806723,1989,10.057632366135254,0.004330018976901783,10e9,43549739.00806723,10,3.1804111484341164
6,10.902240379614355,0.04227645125008508,1828,10.94451683086444,0.003862797408366352,10e9,42276451.25008508,10,1.2182505877457963
7,13.043650503028935,0.06424993482882722,1526,13.107900437857763,0.004901619075718861,13e9,64249934.828827225,10,9.313431544984512
8,8.279008143420212,0.01389835248378261,2412,8.292906495903994,0.0016759326167064877,8e9,13898352.48378261,10,8.110617225139507
9,12.746946571112233,0.04366153575246953,1564,12.790608106864703,0.0034135621533925697,12e9,43661535.75246953,10,5.86300138683434
10,9.600970469807358,0.00014329942983256591,2084,9.601113769237191,1.4925292343864295e-05,9e9,143299.42983256592,10,4.451359731876139
11,10.12959931431583,0.02813188727738585,1969,10.157731201593215,0.0027695049927067804,10e9,28131887.277385853,10,5.920034482222609
12,5.860451717710455,0.0044032365168473545,3411,5.864854954227302,0.0007507835319394499,5e9,4403236.516847354,10,1.2485803898303038
13,7.113250946740681,0.010064515630149913,2808,7.123315462370831,0.0014128976434240597,7e9,10064515.630149912,10,2.204885121069947
14,13.156166069016104,0.04940685914613749,1515,13.20557292816224,0.0037413643023978373,13e9,49406859.14613749,10,2.5104052893179083
15,8.353358138737734,0.0051313841141125555,2393,8.358489522851848,0.0006139128487370251,8e9,5131384.114112555,10,1.8402551726786878
16,7.628778593222523,0.04060083404054743,2608,7.66937942726307,0.0052938877813529205,7e9,40600834.04054743,10,0.20886053346394423
17,7.219872911378767,0.029066272198612027,2760,7.248939183577379,0.004009727694289706,7e9,29066272.198612027,10,6.469471820411197
18,8.667922979570582,0.04363488990907105,2296,8.711557869479654,0.005008850375883158,8e9,43634889.90907105,10,2.089955731486993
19,9.384627966111244,0.027568957645221808,2125,9.412196923756467,0.002929067237813259,9e9,27568957.645221807,10,3.026375893678485
20,8.941679846913217,0.035722973607713204,2228,8.97740282052093,0.003979210281848566,8e9,35722973.60771321,10,5.119339342299539
21,90.21719999093042,0.28799429907659624,221,90.50519429000703,0.0031820748116817713,90e9,287994299.07659626,100,40.40016944469518
22,127.74825256052118,0.5148125866501047,156,128.2630651471713,0.004013724341137487,127e9,514812586.65010464,100,126.5961583054058
23,130.66678130763177,0.3659704917639483,153,131.03275179939573,0.0027929695952980515,130e9,365970491.7639483,100,85.67335656908135
24,81.58698542179167,0.1975638640275987,245,81.78454928581927,0.0024156624417792636,81e9,197563864.0275987,100,2.4734385841261277
25,95.67511302309073,0.3420298742282982,209,96.01714289731903,0.003562175085693456,95e9,342029874.22829825,100,64.3155204116262
26,116.47154909994302,0.16535164287117265,172,116.63690074281419,0.0014176614932162428,116e9,165351642.87117267,100,23.70902820910853
27,62.728477455418705,0.39612572452045497,317,63.12460317993916,0.006275298450451768,62e9,396125724.52045494,100,55.40397738670148
28,122.6042490001652,0.7428450972927138,163,123.34709409745791,0.006022396414996072,122e9,742845097.2927138,100,44.27410976980755
29,97.30901929468295,0.09815138570315268,206,97.4071706803861,0.0010076402488396724,97e9,98151385.70315269,100,36.479274328844554
30,122.78724062277436,0.26585239181805065,163,123.05309301459242,0.0021604689919214317,122e9,265852391.81805065,100,85.71111574825542
31,87.77290796304615,0.4211642137202101,227,88.19407217676635,0.0047754254149425775,87e9,421164213.72021013,100,59.21520726434665
32,131.1204538065943,0.3169158770917169,153,131.43736968368603,0.002411155045588625,131e9,316915877.09171695,100,33.879608910794985
33,111.6377472303678,0.519582736858981,179,112.15732996722677,0.0046326239846366446,111e9,519582736.858981,100,71.70288886277858
34,125.63510064514453,0.4938864117674294,159,126.12898705691197,0.003915724872543199,125e9,493886411.7674294,100,121.18918175787675
35,69.95538569622195,0.028694840738524897,286,69.98408053696048,0.00041001954327842286,69e9,28694840.738524895,100,57.666162257953744
36,92.91759830817834,0.30175451849163376,215,93.21935282666998,0.0032370372604142565,92e9,301754518.4916338,100,32.015506905741034
37,119.78513696794107,0.05146159387930759,167,119.83659856182038,0.00042943136318042256,119e9,51461593.87930759,100,60.2808173000692
38,85.16539404176264,0.5169993721727374,234,85.68239341393537,0.00603390441808845,85e9,516999372.1727374,100,82.56515515361991
39,104.94339874216,0.08503293478445648,191,105.02843167694445,0.0008096182474285453,104e9,85032934.78445648,100,12.383121773735878
40,79.00869272770498,0.029952152291393835,254,79.03864487999638,0.0003789557922819894,79e9,29952152.291393835,100,63.75472694514937
41,905.0537434399985,0.9309365162503066,23,905.9846799562488,0.001027541123868963,905e9,930936516.2503066,1000,646.9308435971602
42,779.6057824607884,3.7987877024007792,26,783.4045701631892,0.0048490752378550234,779e9,3798787702.4007792,1000,410.83992511817604
43,872.1962119795536,3.740888022001296,23,875.9371000015549,0.004270726770215185,872e9,3740888022.001296,1000,512.7402114267654
44,1336.595168806555,4.337438137150776,15,1340.9326069437057,0.0032346429005383026,1336e9,4337438137.150776,1000,995.3809506743743
45,1324.807322089972,2.088180914316405,16,1326.8955030042885,0.0015737342613555126,1324e9,2088180914.3164053,1000,40.08621269637966
46,1016.2268634423818,3.0494941914727374,20,1019.2763576338546,0.002991822746239131,1016e9,3049494191.4727373,1000,704.233891116068
47,856.7451472514315,2.4641222523388304,24,859.2092695037703,0.0028678953309732858,856e9,2464122252.3388305,1000,51.74290259161768
48,491.64957011392744,3.0942722347015197,41,494.74384234862896,0.0062542915542162375,491e9,3094272234.7015195,1000,279.89313283181144
49,959.5003346517227,0.42718372982042474,21,959.9275183815431,0.000445016651403707,959e9,427183729.82042474,1000,755.4368065295813
50,977.8290284145243,6.27703773782027,21,984.1060661523445,0.006378415857512408,977e9,6277037737.82027,1000,502.41561267964033
51,886.379062919638,2.391306270000209,23,888.7703691896382,0.0026905783010976736,886e9,2391306270.000209,1000,7.411975393754063
52,1013.3515206831825,6.105097900688671,20,1019.4566185838711,0.00598858037644532,1013e9,6105097900.688671,1000,741.8420780080656
53,1097.541231369994,4.680762475764689,19,1102.2219938457586,0.00424666038411469,1097e9,4680762475.7646885,1000,838.7633119692096
54,976.2246973888439,2.620421407295656,21,978.8451187961396,0.0026770541702434555,976e9,2620421407.295656,1000,508.2629703462899
55,774.5369578913887,2.511378474976438,26,777.0483363663652,0.0032319462734070703,774e9,2511378474.976438,1000,410.096292914636
56,884.7804349568279,1.8009124450621776,23,886.5813474018901,0.0020312997226252477,884e9,1800912445.0621777,1000,632.9948730754727
57,530.2533341836929,3.0127701437872783,38,533.2661043274802,0.005649656183542331,530e9,3012770143.787278,1000,488.930157956109
58,733.6325871139046,4.292622950695528,28,737.9252100646002,0.005817151781980371,733e9,4292622950.695528,1000,513.6395875823667
59,296.3004825417263,1.9252813256660977,68,298.2257638673924,0.0064557847071931174,296e9,1925281325.6660976,1000,19.846386069883827
60,802.2268244497809,2.385498057152823,25,804.6123225069338,0.0029647794228658065,802e9,2385498057.152823,1000,610.0753028178962
