app_id,Tcomp,Tio,iter,witer,alpha_io,compute_size,io_size,mu,desyn_time
1,8.511252051061618,0.02400566629423325,2344,8.53525771735585,0.002812529754716065,8e9,24005666.29423325,10,7.329248350525509
2,7.493382283426482,0.015000783227657006,2664,7.5083830666541385,0.001997871325222836,7e9,15000783.227657007,10,1.6190725127746608
3,9.111475342504084,0.05304550648700052,2183,9.164520848991085,0.0057881374663292144,9e9,53045506.487000525,10,6.2565037043052
4,7.052113378283611,0.02897077451032337,2825,7.0810841527939345,0.004091290808751732,7e9,28970774.51032337,10,4.607595528339361
5,12.532421761649438,0.061034680743243516,1589,12.593456442392682,0.004846539234279298,12e9,61034680.743243515,10,10.067701856865815
6,10.832101306775867,0.016589907863296883,1844,10.848691214639164,0.0015292082275243076,10e9,16589907.863296883,10,2.973692396461537
7,9.647481420101133,0.00276014506686869,2073,9.650241565168002,0.0002860182357332149,9e9,2760145.0668686903,10,7.542520660914393
8,6.7700250696403454,0.023130916270600464,2945,6.793155985910946,0.0034050324059353484,6e9,23130916.270600464,10,5.730610651301099
9,8.077826919757575,0.00039962817320550855,2476,8.07822654793078,4.946979028557603e-05,8e9,399628.17320550856,10,2.019476843632794
10,9.44605594261492,0.002212184075929493,2117,9.44826812669085,0.000234136462499428,9e9,2212184.075929493,10,3.0414318950584813
11,9.246708312063012,0.03509046961706555,2155,9.281798781680077,0.003780567801827945,9e9,35090469.61706555,10,8.143814266041417
12,9.257598180200198,0.041175376336176434,2151,9.298773556536375,0.004428043772206183,9e9,41175376.33617643,10,3.088663456380458
13,10.741126546066631,0.06530468148200548,1851,10.806431227548638,0.006043131178730444,10e9,65304681.48200548,10,3.4492093597415283
14,14.9136543452148,0.019618181534851488,1340,14.93327252674965,0.001313722862802501,14e9,19618181.534851488,10,7.022535941391644
15,8.071988411504607,0.049377756512731866,2463,8.121366168017339,0.006079981556204898,8e9,49377756.512731865,10,5.364485116890931
16,13.940807375340652,0.02843101280082285,1432,13.969238388141475,0.002035258616887662,13e9,28431012.80082285,10,11.100990102262163
17,10.187434887219297,0.02557779162477905,1959,10.213012678844075,0.0025044315941918508,10e9,25577791.62477905,10,6.091640823030959
18,9.510521100600123,0.04387340678650983,2094,9.554394507386633,0.00459196098220465,9e9,43873406.786509834,10,2.855946930703869
19,13.412985065577228,0.07415528795672718,1483,13.487140353533956,0.005498221714382672,13e9,74155287.95672718,10,7.39098395760287
20,9.711258304315624,0.060341080670572,2047,9.771599384986196,0.006175148846491238,9e9,60341080.670572,10,9.385747133069568
21,116.11922831944372,0.5395542847164536,172,116.65878260416018,0.0046250635629144,116e9,539554284.7164537,100,90.30682056121925
22,68.2251443962946,0.32728750469612317,292,68.55243190099071,0.004774265414373917,68e9,327287504.6961232,100,38.098796086902496
23,91.9419497988455,0.44723539725369005,217,92.38918519609919,0.004840776507601162,91e9,447235397.25369006,100,52.13178193595586
24,93.90063495490014,0.36008836918075765,213,94.2607233240809,0.0038201316145509085,93e9,360088369.18075764,100,25.268418835772827
25,113.81644084177756,0.06348234548872897,176,113.87992318726629,0.0005574498446432687,113e9,63482345.48872897,100,101.91904582777909
26,101.90277546376774,0.539958187897373,196,102.44273365166511,0.005270829551790241,101e9,539958187.8973731,100,9.069775726373571
27,72.89646944814783,0.27171435860770954,274,73.16818380675554,0.0037135588786149764,72e9,271714358.6077095,100,52.47892396207561
28,79.35224699335164,0.3466846508604589,251,79.6989316442121,0.004349928458365174,79e9,346684650.8604589,100,77.54657985091823
29,97.98671171684806,0.188904806898291,204,98.17561652374636,0.0019241519797596526,97e9,188904806.898291,100,22.350655956391755
30,98.17540811809025,0.5327571153782421,203,98.70816523346849,0.005397295290801361,98e9,532757115.37824214,100,49.213861207417395
31,70.97432179696408,0.13331746738796235,282,71.10763926435204,0.001874868421553654,70e9,133317467.38796236,100,4.478282957918317
32,102.92401540426535,0.16385877815122876,195,103.08787418241657,0.0015895058410194448,102e9,163858778.15122876,100,45.187360499031236
33,100.64675740896796,0.28086259340693503,199,100.9276200023749,0.002782812013206357,100e9,280862593.40693504,100,84.29115262658689
34,79.73605258219466,0.05503214416294821,251,79.79108472635761,0.0006897029204663675,79e9,55032144.162948206,100,64.52041415635763
35,61.40250827176625,0.022779647798975903,326,61.42528791956523,0.00037085129871601487,61e9,22779647.798975904,100,40.56368595876635
36,91.05200683778129,0.15007998395615188,220,91.20208682173744,0.0016455762053942528,91e9,150079983.95615187,100,69.90223767188797
37,89.49172445660264,0.3967982247546585,223,89.8885226813573,0.004414336924428658,89e9,396798224.75465846,100,0.07652351745843113
38,103.2241436868583,0.108827596847962,194,103.33297128370626,0.001053173982089124,103e9,108827596.847962,100,15.430388176936884
39,95.47759451213481,0.2674379403239345,209,95.74503245245874,0.0027932304525222044,95e9,267437940.32393447,100,78.05175291259278
40,90.72788977946257,0.4476970244444875,220,91.17558680390707,0.004910273025249153,90e9,447697024.4444875,100,35.06185367349903
41,1236.8545732672503,5.2526488793289285,17,1242.1072221465793,0.004228820818102506,1236e9,5252648879.328929,1000,659.8487761241767
42,972.8339327345358,3.8537570637932874,21,976.6876897983291,0.0039457414115550375,972e9,3853757063.7932873,1000,778.9551587253801
43,1375.7044735816187,2.807227066791727,15,1378.5117006484104,0.0020364187445571134,1375e9,2807227066.791727,1000,1359.6273980844048
44,1239.6123322105568,8.03024171689679,17,1247.6425739274537,0.006436331914851538,1239e9,8030241716.89679,1000,849.4740946140374
45,782.0277233315471,2.1285802686136104,26,784.1563036001608,0.002714484674599986,782e9,2128580268.6136103,1000,223.75891577340886
46,910.1741055511537,4.920883513534773,22,915.0949890646885,0.005377456517999699,910e9,4920883513.534773,1000,866.4346899084188
47,988.7258440506498,1.710567738350521,21,990.4364117890003,0.0017270848668222581,988e9,1710567738.3505208,1000,60.10055107431433
48,1063.297393434728,1.0954481540755427,19,1064.3928415888035,0.0010291765514322544,1063e9,1095448154.0755427,1000,771.8965036972181
49,756.8661494568198,4.888188078418629,27,761.7543375352384,0.006417013776692153,756e9,4888188078.41863,1000,241.64133721219764
50,1069.4493359107335,1.9629493639229085,19,1071.4122852746564,0.0018321139218780815,1069e9,1962949363.9229085,1000,194.44349774973105
51,955.0143791565113,1.1493441304144842,21,956.1637232869258,0.0012020369549928939,955e9,1149344130.4144843,1000,74.79857977778234
52,957.6892963168604,0.43916929424234696,21,958.1284656111027,0.0004583615976405011,957e9,439169294.24234694,1000,600.1309387722773
53,916.0306912140971,4.1830808579442955,22,920.2137720720415,0.004545770759902093,916e9,4183080857.9442954,1000,684.5731157882456
54,1415.8366526799632,7.829395692777252,15,1423.6660483727405,0.005499460847385032,1415e9,7829395692.777252,1000,156.52076237476263
55,842.1243959173746,0.7852401178247054,24,842.9096360351994,0.0009315827987425146,842e9,785240117.8247054,1000,618.0398961244002
56,1012.432078586954,4.622962440413634,20,1017.0550410273677,0.004545439778503822,1012e9,4622962440.413633,1000,791.2683601408737
57,1170.5429494734456,2.937001583450908,18,1173.4799510568964,0.002502813602231289,1170e9,2937001583.450908,1000,432.3144854565573
58,745.5726374609249,3.848889630634822,27,749.4215270915597,0.005135814079923792,745e9,3848889630.634822,1000,463.9029138437192
59,897.4030765869576,5.967151465520541,23,903.3702280524781,0.006605432944568879,897e9,5967151465.52054,1000,200.64303051470918
60,926.8062143508504,3.666208932153794,22,930.4724232830042,0.0039401586123511715,926e9,3666208932.153794,1000,381.80316283996183
