app_id,Tcomp,Tio,iter,witer,alpha_io,compute_size,io_size,mu,desyn_time
1,10.920185532971605,0.0606706106075453,1822,10.98085614357915,0.005525125710987599,10e9,60670610.6075453,10,10.248512235117445
2,10.487352777977506,0.04463659141053498,1899,10.531989369388041,0.004238191840591325,10e9,44636591.41053498,10,5.295042279432903
3,9.342006172088572,0.014128313485521961,2138,9.356134485574094,0.0015100588290287969,9e9,14128313.485521961,10,0.010714097874769853
4,9.435547621051585,0.054880685219355664,2108,9.49042830627094,0.005782740614887996,9e9,54880685.219355665,10,7.583082736102438
5,12.94155481741009,0.009035390078192283,1545,12.950590207488283,0.0006976817221015799,12e9,9035390.078192282,10,7.843865631505662
6,10.598547151309214,0.017455475953721475,1884,10.616002627262935,0.0016442607040143436,10e9,17455475.953721475,10,9.51010055934598
7,9.879132640796577,0.001782693081140301,2025,9.880915333877716,0.00018041780755150867,9e9,1782693.081140301,10,8.24123924695411
8,9.237045709819682,0.0054688881658026016,2164,9.242514597985485,0.0005917099840983329,9e9,5468888.165802602,10,2.25042667039076
9,6.823731037477901,0.012588119616788976,2926,6.836319157094691,0.0018413592647623979,6e9,12588119.616788976,10,4.899195358705836
10,6.244382320823813,0.03401152180674901,3186,6.278393842630562,0.005417232919637714,6e9,34011521.80674901,10,3.214553326187681
11,11.02566787705501,0.0306164304572069,1809,11.056284307512216,0.0027691428336737416,11e9,30616430.4572069,10,7.69362619585599
12,9.149325650783043,0.050455980615932705,2174,9.199781631398976,0.005484475897093664,9e9,50455980.6159327,10,8.691779470850925
13,8.718839913698748,0.04415655401720219,2283,8.76299646771595,0.0050389788675461455,8e9,44156554.01720219,10,7.023581823344142
14,11.759006431562089,0.044391523417809844,1695,11.803397954979898,0.0037609105095944757,11e9,44391523.417809844,10,11.218816558484107
15,12.340646361997418,0.002453441326643582,1621,12.343099803324062,0.0001987702737348731,12e9,2453441.326643582,10,1.1772445328110968
16,13.653286684203502,0.024055251609235762,1463,13.677341935812738,0.0017587665587455643,13e9,24055251.609235764,10,9.81223925673755
17,11.800714115722418,0.04113171029551451,1689,11.841845826017932,0.003473420520738692,11e9,41131710.29551451,10,10.514506561708815
18,13.773889632492061,0.05448856811435707,1447,13.828378200606418,0.0039403440753426585,13e9,54488568.11435707,10,8.217206826484917
19,9.23775126773254,0.018179795447968584,2161,9.255931063180508,0.0019641239032436864,9e9,18179795.447968584,10,1.429370757359637
20,11.32245477163012,0.061832446051962364,1757,11.384287217682083,0.005431384931673559,11e9,61832446.05196236,10,4.720972378442791
21,124.94725190284964,0.36773659062958586,160,125.31498849347923,0.002934498060052258,124e9,367736590.62958586,100,72.50076718112444
22,129.1827056737643,0.10403424997001806,155,129.28673992373433,0.000804678422794073,129e9,104034249.97001806,100,76.62847420422328
23,84.01192196914128,0.0578584853833168,238,84.0697804545246,0.0006882197749358209,84e9,57858485.3833168,100,36.668242076343354
24,126.41467775802714,0.501857596587956,158,126.91653535461509,0.003954233348599733,126e9,501857596.587956,100,70.54809594142145
25,108.4432077342771,0.3243862581957501,184,108.76759399247284,0.0029823796435011606,108e9,324386258.1957501,100,45.727739330949895
26,49.22967631232686,0.16070174929917092,405,49.39037806162603,0.003253705592183521,49e9,160701749.2991709,100,17.35420240024754
27,113.0802836123977,0.2691561968693849,177,113.34943980926708,0.0023745701551087825,113e9,269156196.8693849,100,61.516392895339905
28,127.811101851065,0.6539769142425894,156,128.4650787653076,0.005090697958760743,127e9,653976914.2425894,100,109.11296944300501
29,90.07045872680864,0.10859581275929252,222,90.17905453956793,0.0012042243435990323,90e9,108595812.75929251,100,40.36393659902473
30,90.56369375104737,0.2008222969578711,221,90.76451604800523,0.002212563958933648,90e9,200822296.9578711,100,79.38906185355565
31,79.57544526633522,0.3121899506372837,251,79.88763521697251,0.003907863210487891,79e9,312189950.63728374,100,70.78720928299099
32,88.57846175165633,0.12496276234177643,226,88.70342451399812,0.0014087704395455026,88e9,124962762.34177643,100,37.37951451505619
33,110.85562896536825,0.24983246966666392,181,111.10546143503491,0.002248606562088263,110e9,249832469.66666391,100,23.65071198081027
34,87.75954098365857,0.41325513721621304,227,88.17279612087478,0.0046868779872840565,87e9,413255137.21621305,100,69.38471268245912
35,77.34285978270762,0.41704357602974795,258,77.75990335873736,0.005363221377806504,77e9,417043576.02974796,100,31.145637050568688
36,77.88665753230177,0.2912266459248964,256,78.17788417822666,0.0037251794287623606,77e9,291226645.92489636,100,12.596608113927797
37,95.77451614404387,0.5272258934593167,208,96.30174203750319,0.005474728517932697,95e9,527225893.4593167,100,39.42185403777458
38,94.26209289938686,0.6167872644097137,211,94.87888016379657,0.006500785668474451,94e9,616787264.4097136,100,46.80748404513173
39,107.8979898913633,0.5295887180039287,185,108.42757860936723,0.004884262148026763,107e9,529588718.0039287,100,2.4780582885025235
40,115.83684772878823,0.07488214265709459,173,115.91172987144532,0.0006460273066422563,115e9,74882142.65709458,100,28.128967647597754
41,1296.875961975893,5.2892314559562275,16,1302.1651934318493,0.004061874393997958,1296e9,5289231455.956227,1000,951.0785785665477
42,913.8650300183695,0.5473855118682357,22,914.4124155302377,0.0005986199471611776,913e9,547385511.8682357,1000,361.05674058422517
43,1094.512427799016,2.3308634857133606,19,1096.8432912847293,0.0021250651795328276,1094e9,2330863485.713361,1000,217.60443627344682
44,1174.7594284498064,3.16470275724172,17,1177.924131207048,0.0026866779221160625,1174e9,3164702757.24172,1000,263.8679870044185
45,995.9434092129525,4.7445585628330145,20,1000.6879677757855,0.004741296703485578,995e9,4744558562.8330145,1000,855.1867209406131
46,1092.2289523201248,5.103563205745811,19,1097.3325155258706,0.004650881235666337,1092e9,5103563205.7458105,1000,272.36828863206813
47,739.0738569869684,1.8208122314105077,27,740.8946692183789,0.002457585817605367,739e9,1820812231.4105077,1000,10.887919832019058
48,1049.360562900675,3.4723725646716486,19,1052.8329354653465,0.0032981230427948935,1049e9,3472372564.6716485,1000,409.8360916059548
49,1166.5750847147817,4.547553196975049,18,1171.1226379117568,0.003883071720894959,1166e9,4547553196.975049,1000,727.9220314433798
50,683.3584515649559,3.878616584301397,30,687.2370681492573,0.00564378256654081,683e9,3878616584.3013973,1000,271.1231223679325
51,998.6184609778588,5.001621391525767,20,1003.6200823693846,0.004983580419911236,998e9,5001621391.525766,1000,498.14747679241526
52,1234.5862312493769,2.855702776040064,17,1237.441934025417,0.002307746890999904,1234e9,2855702776.0400643,1000,1193.2415746733182
53,1220.6203066483615,6.003682453022842,17,1226.6239891013843,0.0048944766337246474,1220e9,6003682453.022841,1000,354.3821801036765
54,972.8691170224267,2.5568810682643415,21,975.4259980906911,0.0026212968213572396,972e9,2556881068.2643414,1000,691.1959964743759
55,524.9993627127953,0.9743414033243352,39,525.9737041161197,0.0018524526905041414,524e9,974341403.3243352,1000,25.358071845587503
56,964.1395599195805,4.417161742563682,21,968.5567216621442,0.004560560722745666,964e9,4417161742.563682,1000,139.59321045413841
57,1262.649212243554,8.011638021299722,16,1270.6608502648537,0.006305095509655307,1262e9,8011638021.299723,1000,280.22667781849793
58,988.7862602335031,6.432404939942166,21,995.2186651734453,0.00646330818044006,988e9,6432404939.942166,1000,483.7061660565476
59,908.0495026819966,4.33341658228394,22,912.3829192642805,0.004749559084006399,908e9,4333416582.28394,1000,270.0294378816491
60,821.1028896877934,1.2497727961758105,25,822.3526624839692,0.0015197528422912759,821e9,1249772796.1758106,1000,483.1271530749132
