app_id,Tcomp,Tio,iter,witer,alpha_io,compute_size,io_size,mu,desyn_time
1,11.485371836145847,0.03853433615588835,1736,11.523906172301736,0.0033438606302182055,11e9,38534336.155888356,10,10.210133809131603
2,7.188893222351084,0.046053480708930214,2765,7.2349467030600145,0.006365420866120815,7e9,46053480.70893022,10,6.3604762687796415
3,11.688687481325578,0.03131325265743256,1707,11.72000073398301,0.00267177906965803,11e9,31313252.65743256,10,1.7463332696343257
4,7.688069512474727,0.05179413921271775,2585,7.739863651687445,0.0066918671366291566,7e9,51794139.21271775,10,7.0878880584938875
5,5.81658305304538,0.008365533917945832,3434,5.824948586963326,0.001436155837781732,5e9,8365533.917945832,10,0.7617553688997909
6,9.182665728107365,0.054407115429236326,2166,9.237072843536602,0.0058900818853351656,9e9,54407115.42923632,10,8.658755682638347
7,7.971388789454706,0.047886759336262595,2494,8.019275548790969,0.0059714570281204854,7e9,47886759.3362626,10,0.2422799894359992
8,9.002924793691639,0.015202739249155352,2218,9.018127532940794,0.0016857977660688249,9e9,15202739.249155352,10,3.445650558452487
9,10.03117070284585,0.05104636304598113,1984,10.08221706589183,0.0050630097241876615,10e9,51046363.04598113,10,0.17278498590807562
10,6.016693352417256,0.0029461377298377373,3323,6.019639490147094,0.0004894209586238438,6e9,2946137.729837737,10,4.4437564286808175
11,7.86735764405761,0.05519606366813093,2525,7.922553707725741,0.006966953548614767,7e9,55196063.66813093,10,0.03822591744955128
12,11.35050451408558,0.043364888373363275,1756,11.393869402458943,0.0038059843273264638,11e9,43364888.37336327,10,6.778921618409955
13,11.5317835887451,0.022564215818651888,1731,11.554347804563752,0.001952876631404452,11e9,22564215.81865189,10,4.6505847715375905
14,13.607638290427344,0.04700633213343648,1465,13.654644622560781,0.003442515966748093,13e9,47006332.13343648,10,10.16982025120949
15,13.200136790073861,0.05517087461972097,1509,13.255307664693582,0.004162172317333106,13e9,55170874.61972097,10,5.472184003936262
16,9.203253891358154,0.02917956720204953,2167,9.232433458560203,0.0031605499604218192,9e9,29179567.20204953,10,7.524348073290438
17,9.53090268336834,0.013964032513269735,2096,9.54486671588161,0.0014629887382329935,9e9,13964032.513269736,10,8.213870031205536
18,11.041604221660153,0.008845966929135356,1810,11.050450188589288,0.0008005073800766701,11e9,8845966.929135356,10,5.084387675225864
19,9.958293070261801,0.009457437366987247,2007,9.967750507628788,0.0009488035800804831,9e9,9457437.366987247,10,1.3738247581468848
20,12.445797019604884,0.012129021788644185,1606,12.457926041393527,0.0009735987955253142,12e9,12129021.788644185,10,7.969834151288437
21,62.664261466517694,0.4617604621931765,317,63.12602192871087,0.007314898802187302,62e9,461760462.1931765,100,53.0070269938817
22,107.38406448311765,0.38364586006597035,186,107.76771034318362,0.003559933293973302,107e9,383645860.06597036,100,6.448363579442524
23,113.10801310239262,0.3682466287068554,177,113.47625973109947,0.0032451424604536304,113e9,368246628.70685536,100,48.758024429705436
24,89.67984024117898,6.288247810349981e-05,224,89.67990312365708,7.011880690458924e-07,89e9,62882.47810349981,100,76.19407605260344
25,73.66965415756938,0.45451350115675265,270,74.12416765872614,0.006131785563507044,73e9,454513501.15675265,100,63.09281110416644
26,72.55946439388346,0.3802853963351363,275,72.9397497902186,0.005213692087358017,72e9,380285396.3351363,100,67.38502282279595
27,79.57932511136782,0.12116127092204201,251,79.70048638228987,0.001520207421832812,79e9,121161270.92204201,100,5.452446084071044
28,115.25732546679696,0.6155771103424743,173,115.87290257713943,0.00531251998225098,115e9,615577110.3424743,100,57.3365541276743
29,71.5481123716015,0.49479767020802845,278,72.04291004180953,0.006868096665180189,71e9,494797670.20802844,100,16.440491931562075
30,104.45394574406555,0.3599343446260809,191,104.81388008869163,0.0034340332055402484,104e9,359934344.62608093,100,37.81400303619373
31,131.68039723013703,0.3227743510120187,152,132.00317158114905,0.002445201483765812,131e9,322774351.0120187,100,13.45918759935444
32,101.04329711977492,0.7372540871020198,197,101.78055120687694,0.007243565478472338,101e9,737254087.1020198,100,58.482811049894714
33,121.84826663485825,0.5451228185380909,164,122.39338945339634,0.004453858341309005,121e9,545122818.5380908,100,102.16835169719023
34,66.04441774746844,0.4085544762476627,301,66.4529722237161,0.006148024122566719,66e9,408554476.2476627,100,50.69280548361001
35,93.93302592643438,0.3341612478737835,213,94.26718717430816,0.003544831005256267,93e9,334161247.87378347,100,37.04659988485769
36,100.02140754836594,0.517228252402094,199,100.53863580076803,0.005144572017339257,100e9,517228252.402094,100,29.721801009270873
37,105.11167840448766,0.08581871417661341,191,105.19749711866427,0.0008157866539334931,105e9,85818714.1766134,100,54.290113583787004
38,103.63836965488747,0.1829423349582064,193,103.82131198984568,0.0017620884522832768,103e9,182942334.9582064,100,25.44349483440158
39,75.71651722933305,0.18194057870710306,264,75.89845780804015,0.002397157781087741,75e9,181940578.70710307,100,20.11397147374168
40,83.31559068052375,0.11596137806766643,240,83.43155205859142,0.0013898983682603713,83e9,115961378.06766643,100,71.77148195443547
41,1194.6195503173665,8.824046940398997,17,1203.4435972577655,0.00733233112088175,1194e9,8824046940.398996,1000,197.2303368801471
42,949.4536167192647,6.324280390773965,21,955.7778971100387,0.006616893328352257,949e9,6324280390.773965,1000,165.43365486383152
43,859.7711861908098,2.5763229004586696,24,862.3475090912684,0.0029875692494010543,859e9,2576322900.4586697,1000,250.34924276828306
44,1058.9399209112896,0.7124557125588584,19,1059.6523766238486,0.0006723485251161412,1058e9,712455712.5588584,1000,214.0749906283908
45,1008.5285036459178,1.156112599639977,20,1009.6846162455578,0.0011450234865802962,1008e9,1156112599.639977,1000,701.1776468008646
46,1320.0115449733723,2.3507580248698883,16,1322.3623029982423,0.001777695885265275,1320e9,2350758024.8698883,1000,515.3731453432544
47,1168.2037276122169,3.4763783565917774,18,1171.6801059688087,0.002967002971956513,1168e9,3476378356.5917773,1000,903.4930177411419
48,674.8642686826217,2.9077178546675158,30,677.7719865372893,0.004290112179942599,674e9,2907717854.6675158,1000,350.07075007797954
49,769.8378555643785,0.25422173661889663,26,770.0920773009974,0.0003301186236195127,769e9,254221736.61889663,1000,0.17151014166622122
50,944.5986018765335,0.48600165298604436,22,945.0846035295195,0.0005142414247052795,944e9,486001652.98604435,1000,103.84716903254774
51,1093.1196168843285,3.361707429928374,19,1096.4813243142569,0.003065904868038493,1093e9,3361707429.928374,1000,318.508549601179
52,1242.211726990622,2.2000232119484053,17,1244.4117502025706,0.0017679222424493149,1242e9,2200023211.9484053,1000,286.5020785459302
53,1163.7710685492807,1.5907397714241742,18,1165.3618083207048,0.0013650179369756783,1163e9,1590739771.4241743,1000,649.7135451848503
54,1115.9447630183806,2.565311396387987,18,1118.5100744147687,0.002293507635798649,1115e9,2565311396.387987,1000,535.6846974047085
55,1341.5994012462834,3.007492123320818,15,1344.6068933696042,0.0022367073515323125,1341e9,3007492123.320818,1000,693.6080177699018
56,1000.2434213004046,2.362875082599233,20,1002.6062963830038,0.002356732738586947,1000e9,2362875082.599233,1000,784.6851395309566
57,812.3644702385254,3.6676106904499712,25,816.0320809289753,0.004494444245714878,812e9,3667610690.449971,1000,745.102170959823
58,1002.5998084754069,2.407866458358375,20,1005.0076749337653,0.00239586872659163,1002e9,2407866458.358375,1000,12.8732567540854
59,894.1367808621108,1.1366730663366242,23,895.2734539284473,0.0012696378534948387,894e9,1136673066.3366241,1000,400.9683134641097
60,1181.809332630769,5.806399488285349,17,1187.6157321190542,0.004889123081861699,1181e9,5806399488.285349,1000,344.9429311347084
