app_id,Tcomp,Tio,iter,witer,alpha_io,compute_size,io_size,mu,desyn_time
1,10.946864327090106,0.040759557126573864,1821,10.98762388421668,0.0037095879469557997,10e9,40759557.12657386,10,10.586957820702741
2,9.047258843335472,0.013043387242570802,2208,9.060302230578042,0.0014396194421142,9e9,13043387.242570803,10,4.408088962762308
3,5.860917894605997,0.03426924480197643,3393,5.895187139407973,0.005813088540123585,5e9,34269244.80197643,10,5.265207921392695
4,9.791250096747012,0.01498309900920596,2040,9.806233195756217,0.0015279158378254866,9e9,14983099.00920596,10,6.348566307277103
5,8.344689389553334,0.051603932306060155,2383,8.396293321859394,0.00614603734384928,8e9,51603932.30606016,10,7.67502110390241
6,8.825753550439142,0.0015416410915485106,2266,8.827295191530691,0.00017464478734410414,8e9,1541641.0915485106,10,7.502304816298109
7,13.330333453101318,0.027686837538240708,1498,13.358020290639558,0.0020726752120328686,13e9,27686837.53824071,10,8.865170576403134
8,10.973641263575255,0.010136037883631243,1821,10.983777301458886,0.0009228189543031755,10e9,10136037.883631242,10,8.498528235511769
9,8.0068472345251,0.05102461522750803,2483,8.057871849752608,0.006332269385628735,8e9,51024615.22750803,10,7.029630890208891
10,10.211517597595446,0.02862045698756261,1954,10.240138054583008,0.0027949288217607015,10e9,28620456.98756261,10,1.8179053481941516
11,9.75294662018995,0.047846681954801455,2041,9.800793302144752,0.004881919297729802,9e9,47846681.954801455,10,6.728155576519959
12,8.735705782996819,0.05029795318853503,2277,8.786003736185354,0.005724781675357339,8e9,50297953.18853503,10,7.072465652018625
13,10.92701673397406,0.020770049700243882,1827,10.947786783674305,0.001897191652582863,10e9,20770049.700243883,10,7.591729860190081
14,12.338126481005615,0.018665976248217083,1619,12.356792457253832,0.0015105842647101804,12e9,18665976.248217084,10,2.8780105615744276
15,9.505425046745039,0.046839814066472016,2094,9.55226486081151,0.0049035296601368265,9e9,46839814.06647202,10,1.6894375284997698
16,9.832048718270997,0.03416668871553574,2028,9.866215406986532,0.003462998455450445,9e9,34166688.715535745,10,9.567419441642517
17,7.453183506739284,0.03820745195207729,2670,7.491390958691362,0.0051001812831233655,7e9,38207451.95207729,10,4.351635366686222
18,8.186202741385982,0.05433575823268551,2428,8.240538499618667,0.006593714504846972,8e9,54335758.23268551,10,3.340244011671853
19,12.13680787095805,0.06443775563940031,1640,12.20124562659745,0.005281244031259619,12e9,64437755.63940031,10,6.163819480165656
20,9.962410285830721,0.05350265812244116,1997,10.015912943953163,0.00534176549075758,9e9,53502658.122441165,10,7.403915733851342
21,86.07977292509271,0.21340209899676876,232,86.29317502408948,0.0024729893057845623,86e9,213402098.99676877,100,70.35380150705127
22,112.94307686609244,0.7092513908882878,176,113.65232825698072,0.006240535515335774,112e9,709251390.8882878,100,27.721548358487272
23,103.89075463852123,0.15990039189236888,193,104.0506550304136,0.0015367552644971877,103e9,159900391.89236888,100,102.39071003162408
24,78.75854789734117,0.4332226955953554,253,79.19177059293654,0.005470551956998376,78e9,433222695.59535545,100,36.256281902010095
25,87.69639235518525,0.02047190124569431,229,87.71686425643095,0.00023338615007767352,87e9,20471901.24569431,100,60.28082498366416
26,97.97798760669056,0.2929331179346567,204,98.27092072462521,0.0029808728337400434,97e9,292933117.9346567,100,23.70353836398553
27,105.54313430395521,0.6247795401317481,189,106.16791384408697,0.005884824496497774,105e9,624779540.1317481,100,71.6783945736902
28,94.1578968372974,0.6107008174675033,212,94.7685976547649,0.0064441263517715204,94e9,610700817.4675033,100,56.86893819349828
29,106.69591629878555,0.5530473172341223,187,107.24896361601967,0.005156668172703108,106e9,553047317.2341223,100,40.027854528346815
30,125.8803339948629,0.3576985504655394,159,126.23803254532844,0.0028335244399274057,125e9,357698550.4655394,100,104.9707143441056
31,84.74533908292454,0.046911293646616024,236,84.79225037657116,0.0005532497774062855,84e9,46911293.64661603,100,16.54438116808038
32,75.5842140097631,0.1464686038053765,265,75.73068261356848,0.0019340721455366108,75e9,146468603.8053765,100,53.72671786114507
33,104.73831849619863,0.24637151056664808,191,104.98469000676528,0.0023467375152583844,104e9,246371510.56664807,100,84.47039600860234
34,115.15353197153892,0.2557845779771892,174,115.40931654951612,0.0022163252120763173,115e9,255784577.97718918,100,60.75373967938248
35,100.79274538488237,0.139103603303467,199,100.93184898818583,0.001378193352226701,100e9,139103603.303467,100,0.44092244823591187
36,100.41206423192466,0.20132703457439982,199,100.61339126649906,0.0020009964085311084,100e9,201327034.57439983,100,94.18494365355734
37,61.293465977567585,0.014539355917525724,327,61.30800533348511,0.00023715264977940232,61e9,14539355.917525724,100,16.981127067319076
38,115.26325132176076,0.483313440846364,173,115.74656476260712,0.0041756180136976505,115e9,483313440.846364,100,48.243671014018055
39,103.81187933806065,0.45869694440669057,192,104.27057628246735,0.004399102419498362,103e9,458696944.40669054,100,19.727632635157708
40,126.50329880188042,0.5666705729876236,158,127.06996937486804,0.00445951609003614,126e9,566670572.9876236,100,116.58882855043723
41,1423.80257797541,1.832086639121239,15,1425.6346646145312,0.0012851024772301016,1423e9,1832086639.121239,1000,57.85224936703802
42,1020.4215894906433,2.3096604822497344,20,1022.731249972893,0.0022583259114366074,1020e9,2309660482.2497344,1000,593.6477437925337
43,1109.3536734944307,3.0666279912408645,18,1112.4203014856716,0.002756717031454108,1109e9,3066627991.2408643,1000,54.500102827734544
44,1279.0462915991773,4.0216433942208285,16,1283.067934993398,0.0031343963047767397,1279e9,4021643394.2208285,1000,456.25215990952603
45,688.5955915147745,1.7053049577775925,29,690.300896472552,0.002470379173041389,688e9,1705304957.7775924,1000,124.8759172038636
46,862.6890282991511,4.365450710755948,24,867.054479009907,0.005034805558862776,862e9,4365450710.755948,1000,403.8191718419033
47,1173.0480895342657,4.206575831608326,17,1177.254665365874,0.003573208036768308,1173e9,4206575831.608326,1000,67.70784315463655
48,701.084982936131,4.37723853678074,29,705.4622214729118,0.006204780927377862,701e9,4377238536.78074,1000,280.88641340959754
49,1258.072401270027,2.5541284899561436,16,1260.6265297599832,0.0020260786439600287,1258e9,2554128489.9561434,1000,347.5514310051175
50,1316.2162130531128,6.5892882748210235,16,1322.8055013279338,0.004981297906764214,1316e9,6589288274.821024,1000,1001.734973479222
51,1119.8857520859121,3.6440695084632098,18,1123.5298215943753,0.003243411468413001,1119e9,3644069508.4632096,1000,10.584984454759528
52,844.9496920275667,1.5777233166559455,24,846.5274153442226,0.0018637592688175342,844e9,1577723316.6559455,1000,170.90138118895038
53,823.3940770562042,3.350510896956608,25,826.7445879531608,0.004052655373592153,823e9,3350510896.956608,1000,507.7093713138619
54,974.6038121883231,1.0264083584501789,21,975.6302205467733,0.0010520464996204688,974e9,1026408358.4501789,1000,491.00361517283187
55,1207.0945267877742,1.3908096042600895,17,1208.4853363920342,0.001150870070473829,1207e9,1390809604.2600894,1000,557.6013004553406
56,1177.5146836569008,4.097985125822361,17,1181.6126687827232,0.0034681289682210615,1177e9,4097985125.822361,1000,663.9880494926895
57,1031.8864834943863,3.6251407981877115,20,1035.511624292574,0.003500820959556377,1031e9,3625140798.1877117,1000,962.2186096915019
58,1022.932407772808,0.23866715232230643,20,1023.1710749251303,0.00023326221603730413,1022e9,238667152.32230642,1000,33.364197832276396
59,881.001142787307,5.533581713572388,23,886.5347245008794,0.0062418104566494045,881e9,5533581713.572388,1000,324.0212766554945
60,852.5820089968312,2.46377002483512,24,855.0457790216662,0.002881448087673315,852e9,2463770024.83512,1000,71.66836615181481
