app_id,Tcomp,Tio,iter,witer,alpha_io,compute_size,io_size,mu,desyn_time
1,12.687085803443376,0.05537395507855669,1570,12.742459758521932,0.004345625266073418,12e9,55373955.078556694,10,0.8916656937694747
2,14.080134398680602,0.06932790371015293,1414,14.149462302390756,0.004899684682607266,14e9,69327903.71015294,10,4.533127509604295
3,12.507020347153166,0.018473771315477186,1597,12.525494118468643,0.0014748936162317064,12e9,18473771.315477185,10,10.073058415036716
4,8.493235307871561,0.0068469479598161215,2353,8.500082255831378,0.0008055154942905236,8e9,6846947.9598161215,10,6.4997827770302115
5,10.669303994128462,0.05152966589845754,1866,10.72083366002692,0.00480649803294571,10e9,51529665.89845754,10,9.214935077953724
6,9.737336437124402,0.018009123515522536,2051,9.755345560639924,0.001846077456054892,9e9,18009123.515522536,10,4.990098542619849
7,12.166454722305298,0.0657615617239397,1636,12.232216284029239,0.005376095402253476,12e9,65761561.723939694,10,7.962231018096157
8,8.584551427161143,0.017853490820471385,2325,8.602404917981614,0.0020754069345366687,8e9,17853490.820471384,10,3.556198612970723
9,9.719960609063694,0.007243826156181703,2057,9.727204435219877,0.0007446976368619893,9e9,7243826.156181703,10,3.0895453837847175
10,10.704872647545459,0.05809824290550464,1859,10.762970890450964,0.005397974545954602,10e9,58098242.90550464,10,10.736499719725646
11,6.772124515858315,0.013022932458123405,2948,6.7851474483164385,0.0019193293229544648,6e9,13022932.458123405,10,2.305183933355881
12,8.141713319253787,0.011446993941711918,2454,8.1531603131955,0.0014039947090437443,8e9,11446993.941711918,10,0.6864616998164094
13,6.60042724928204,0.009140241848011639,3026,6.6095674911300515,0.001382880477471138,6e9,9140241.848011639,10,4.390988577736389
14,10.667744161310413,0.04996105660758969,1867,10.717705217918002,0.004661544201091119,10e9,49961056.60758969,10,1.382559785474578
15,14.12757643264733,0.021249612396093416,1414,14.148826045043425,0.0015018639941182623,14e9,21249612.396093417,10,0.2964651823100489
16,10.106841505929506,0.0048073767618908,1978,10.111648882691396,0.0004754295582909155,10e9,4807376.7618908,10,0.48266642800874004
17,6.497125642969333,0.015204305945007943,3072,6.512329948914341,0.0023346952725487482,6e9,15204305.945007943,10,1.7519583790006572
18,7.620214464434754,0.0033090739028789583,2624,7.623523538337633,0.00043406095439177026,7e9,3309073.9028789583,10,4.79500104383104
19,7.864142491722435,0.03784950254159545,2532,7.901991994264031,0.0047898685001288265,7e9,37849502.54159545,10,2.1439438893821934
20,8.872650691659247,0.04504377947802834,2243,8.917694471137276,0.005051056595829291,8e9,45043779.478028335,10,8.302044504706377
21,112.72146742069276,0.683393194008292,177,113.40486061470105,0.006026136713223926,112e9,683393194.008292,100,99.71028859865396
22,91.58025044739223,0.2795087127862499,218,91.85975916017848,0.00304277645991715,91e9,279508712.7862499,100,21.1562628391878
23,95.13478686990635,0.3131343524851674,210,95.44792122239151,0.0032806827898909543,95e9,313134352.4851674,100,91.75541189231402
24,92.08979725872562,0.19917806716845868,217,92.28897532589409,0.0021582000067192648,92e9,199178067.16845867,100,86.97928161026447
25,114.36498014391327,0.3061518433565028,175,114.67113198726977,0.002669824898828855,114e9,306151843.35650283,100,89.07043522329059
26,96.64145513281484,0.14611524130147013,207,96.78757037411631,0.0015096488189205069,96e9,146115241.30147013,100,13.896108386401725
27,94.48642023087929,0.11740536531723318,212,94.60382559619653,0.0012410213284435442,94e9,117405365.31723318,100,93.18090801290874
28,93.31669096103496,0.47211576041339165,214,93.78880672144835,0.0050338177541331755,93e9,472115760.41339165,100,5.86285953702313
29,124.33548608958391,0.4181679827940657,161,124.75365407237797,0.0033519497757673565,124e9,418167982.7940657,100,54.77975767146471
30,96.03964380479941,0.1496447864199315,208,96.18928859121934,0.0015557323337308875,96e9,149644786.4199315,100,14.880350848764898
31,83.70333798719162,0.2583682674556121,239,83.96170625464723,0.003077215542428446,83e9,258368267.4556121,100,75.94251959022766
32,145.83525877617004,0.5539304652943082,137,146.38918924146435,0.0037839574641035643,145e9,553930465.2943082,100,10.863002707998112
33,91.79426117338596,0.49567473321254196,217,92.2899359065985,0.005370842750548518,91e9,495674733.21254194,100,14.476545136512641
34,99.87199499425205,0.5138761584074254,200,100.38587115265948,0.00511900880579061,99e9,513876158.4074254,100,88.2463364924626
35,93.23081757038388,0.5613317358131659,214,93.79214930619705,0.005984847772073366,93e9,561331735.8131659,100,24.022337701281966
36,91.94967998116577,0.2934865139616741,217,92.24316649512744,0.0031816613101326796,91e9,293486513.9616741,100,47.556679569381814
37,95.561647824162,0.10913549886040744,210,95.6707833230224,0.001140740099220499,95e9,109135498.86040744,100,70.6386369461384
38,78.02396776912153,0.45170095467012267,255,78.47566872379164,0.005755936356018327,78e9,451700954.6701227,100,45.62929261179158
39,116.5219061366325,0.18331327015216894,172,116.70521940678466,0.0015707375478487984,116e9,183313270.15216896,100,111.30750026757315
40,129.28756577093955,0.4947254520800206,155,129.78229122301957,0.0038119642319295933,129e9,494725452.0800206,100,109.89322104943348
41,1302.7030697266925,2.24706095443093,16,1304.9501306811235,0.0017219515915585745,1302e9,2247060954.43093,1000,1236.5570556306075
42,995.2293882835199,0.9003822733889136,21,996.1297705569089,0.0009038804983064954,995e9,900382273.3889136,1000,393.5575695158042
43,1249.3488254264494,4.802703654306201,16,1254.1515290807556,0.003829444483336393,1249e9,4802703654.306201,1000,1133.3335367099994
44,1018.435185368933,5.723759602909153,20,1024.1589449718422,0.0055887415044415,1018e9,5723759602.909153,1000,168.34913045711005
45,946.7829997295311,4.145943061526949,22,950.928942791058,0.004359887342747451,946e9,4145943061.526949,1000,497.2897696426931
46,1048.1752525495244,2.8034332354216382,20,1050.978685784946,0.002667450133232563,1048e9,2803433235.421638,1000,438.74540957682814
47,731.9485752394719,2.3686251551620887,28,734.317200394634,0.0032256157882304144,731e9,2368625155.162089,1000,109.11991563937664
48,1036.0848977405367,4.032186806401989,20,1040.1170845469387,0.0038766662583552855,1036e9,4032186806.401989,1000,58.4063957490834
49,1000.191334971805,4.954753135920043,20,1005.1460881077251,0.004929386080831093,1000e9,4954753135.920043,1000,682.5368098505872
50,907.1897788305898,2.4503113655620186,22,909.6400901961518,0.0026937152308597586,907e9,2450311365.5620184,1000,606.5485972217368
51,934.4240494198228,5.45279053376334,22,939.8768399535862,0.005801601126837655,934e9,5452790533.76334,1000,814.9731699499425
52,915.1103291862947,3.819101106436773,22,918.9294302927315,0.004156033075597733,915e9,3819101106.436773,1000,903.58280511021
53,1130.6103585084777,4.012986334093079,18,1134.6233448425708,0.003536844497633602,1130e9,4012986334.093079,1000,956.775783035568
54,1204.3792218922688,5.162774118603304,17,1209.541996010872,0.004268371115372912,1204e9,5162774118.603304,1000,237.9212008770179
55,1412.21168826672,7.333306084876876,15,1419.5449943515969,0.005165955368837391,1412e9,7333306084.876876,1000,1305.715530084734
56,1157.6945788604505,2.2223520204126266,18,1159.9169308808632,0.001915957911507447,1157e9,2222352020.4126267,1000,1140.614204366819
57,1078.2151102869443,6.053413421988952,19,1084.2685237089333,0.005582946742087628,1078e9,6053413421.988952,1000,535.3519818693368
58,982.6878847440466,5.738135122168565,21,988.4260198662153,0.005805325848205846,982e9,5738135122.168565,1000,122.34729571604633
59,1064.939530773644,2.238390075734152,19,1067.177920849378,0.002097485369592911,1064e9,2238390075.7341523,1000,1057.199863939628
60,898.2376748491895,3.135738047235443,23,901.373412896425,0.0034788446190788243,898e9,3135738047.235443,1000,516.4486454490358
