app_id,start_app,end_app,effective_cpu,effective_io,effective_iter,total_bytes,stretch,utilization,Tcomp,Tio,iterations,priority,group_id
app_1,7.65252,18879.6,7921,79,790.715,1.14047e+10,1.00852,0.992563,10,0.0144364,1871,1,1
app_10,9.82119,19166.2,7920.7,79.3,792.679,1.5795e+10,1.008,0.992563,10,0.019918,1896,1.00001,1.00001
app_11,7.15091,18745,7898.4,101.6,985.344,3.89171e+10,1.0079,0.992563,8,0.0395098,2309,1.00001,1.00001
app_12,8.76848,18543.1,7920,80,795.082,2.01529e+10,1.00754,0.992563,10,0.0253496,1838,1.00001,1.00001
app_13,4.54121,18712.4,7912,88,880.048,3.69681e+09,1.01065,0.992563,9,0.00420092,2058,1.00001,1.00001
app_14,6.2295,18272.7,7901.2,98.8,988.026,1.71606e+10,1.01031,0.992563,8,0.017369,2254,1.00001,1.00001
app_15,0.564258,17460.7,7843.5,156.5,1565.49,2.75627e+09,1.01959,0.992563,5,0.0017612,3419,1.00002,1.00002
app_16,3.83491,18098.3,7887.3,112.7,1126.95,1.04201e+09,1.01415,0.992563,7,0.000924591,2546,1.00002,1.00002
app_17,5.82862,19798.4,7912.3,87.7,877.224,3.43133e+09,1.01065,0.992563,9,0.00391257,2175,1.00002,1.00002
app_18,1.95083,18823.6,7901.4,98.6,986.203,1.10474e+09,1.01234,0.992563,8,0.00112043,2321,1.00002,1.00002
app_19,6.04153,19561.5,7933.7,66.3,662.704,1.30414e+09,1.00819,0.992563,12,0.00196703,1619,1.00002,1.00002
app_2,3.34746,18818.8,7913.2,86.8,718.198,5.1193e+10,1.00447,0.992563,11,0.0712994,1691,1,1
app_20,6.24927,19712,7883.6,116.4,1127.79,4.95068e+10,1.00843,0.992563,7,0.043889,2775,1.00002,1.00002
app_21,103.848,19986.7,7943.8,56.2,77.1577,4.22169e+10,1.00175,0.992563,104,0.548271,191,1.00002,1.00002
app_22,17.0791,19829.5,7960,40,84.0945,2.673e+10,1.00166,0.992563,94,0.318215,210,1.00002,1.00002
app_23,15.965,20058.5,7941.4,58.6,103.154,4.29382e+10,1.00196,0.992563,76,0.416875,260,1.00002,1.00002
app_24,83.3663,20025.4,7947.5,52.5,73.731,3.99717e+10,1.00157,0.992563,108,0.540158,183,1.00002,1.00002
app_25,8.53571,19906.9,7993.1,6.9,67.3746,3.07049e+09,1.00048,0.992563,120,0.0451543,166,1.00003,1.00003
app_26,97.8182,20288,7972.3,27.7,74.9564,1.88413e+10,1.00111,0.992563,106,0.251217,188,1.00003,1.00003
app_27,72.3035,20031.7,7932.6,67.4,74.5508,5.20144e+10,1.00193,0.992563,107,0.693526,185,1.00003,1.00003
app_28,77.9315,19857.3,7975.1,24.9,67.9184,1.81884e+10,1.00084,0.992563,119,0.267477,167,1.00003,1.00003
app_29,4.20133,20147.5,7991.9,8.1,81.4787,1.85236e+09,1.00078,0.992563,97,0.0228686,206,1.00003,1.00003
app_3,2.13224,19403.2,7909.3,90.7,878.97,3.38116e+10,1.00716,0.992563,9,0.038466,2131,1,1
app_30,12.373,19971.3,7939.9,60.1,117.833,4.21795e+10,1.00225,0.992563,67,0.357453,295,1.00003,1.00003
app_31,88.7358,20126.9,7953.4,46.6,81.5559,3.38263e+10,1.0016,0.992563,97,0.412515,205,1.00003,1.00003
app_32,102.826,20060.6,7968,32,57.9124,2.36286e+10,1.00105,0.992563,137,0.414536,145,1.00003,1.00003
app_33,38.8944,20047.7,7959.7,40.3,74.7244,3.17802e+10,1.00107,0.992563,107,0.423736,185,1.00003,1.00003
app_34,25.7695,20189.4,7948.82,51.1763,60.8716,4.07623e+10,1.0013,0.992563,130,0.668452,153,1.00003,1.00003
app_35,89.5923,19973.2,7935.2,64.8,80.833,4.91273e+10,1.00196,0.992563,99,0.60651,200,1.00004,1.00004
app_36,29.4697,19847.2,7969.4,30.6,87.3251,2.11227e+10,1.00119,0.992563,91,0.24003,218,1.00004,1.00004
app_37,54.1688,19794.9,7987.2,12.8,121.663,5.61549e+09,1.0009,0.992563,66,0.0460286,299,1.00004,1.00004
app_38,4.09403,20088.1,7953.6,46.4,64.7588,3.58913e+10,1.00132,0.992563,123,0.552174,162,1.00004,1.00004
app_39,84.431,20194.4,7947.9,52.1,88.414,3.63014e+10,1.00198,0.992563,90,0.412516,221,1.00004,1.00004
app_4,9.62948,18331.8,7911.9,88.1,880.5,2.19757e+10,1.00833,0.992563,9,0.0249441,2016,1,1
app_40,36.4625,19811.6,7948.6,51.4,111.868,3.55884e+10,1.00198,0.992563,71,0.317754,277,1.00004,1.00004
app_41,715.999,21961,7963.7,36.3,6.70682,3.30298e+10,1.00041,0.992563,1166,4.71854,18,1.00004,1.00004
app_42,328.977,21005.6,7970.9,29.1,7.04183,2.18841e+10,1.0009,0.992563,1146,3.12629,18,1.00004,1.00004
app_43,644.061,21790.4,7943,57,7.04421,5.00498e+10,1.00087,0.992563,1095,7.14997,19,1.00004,1.00004
app_44,484.661,21137.7,7940.4,59.6,7.31739,4.78039e+10,1.00148,0.992563,1094,5.97549,19,1.00004,1.00004
app_45,994.058,21841.4,7941.6,58.4,6.87963,5.00552e+10,1.00104,0.992563,1138,7.15075,18,1.00004,1.00004
app_46,5.15321,21247.9,7983.3,16.7,6.42087,1.19668e+10,1.00059,0.992563,1233,1.70955,17,1.00005,1.00005
app_47,630.545,20813.3,7977.5,22.5,11.9779,1.69157e+10,1.0007,0.992563,647,1.40964,31,1.00005,1.00005
app_48,403.856,21646.1,7939.7,60.3,7.1951,4.96925e+10,1.00133,0.992563,1082,7.09893,19,1.00005,1.00005
app_49,607.754,21828.2,7984.5,15.5,7.96275,1.12237e+10,1.00053,0.992563,997,1.40296,21,1.00005,1.00005
app_5,1.98607,19003.8,7885.2,114.8,1126.57,4.21825e+10,1.00916,0.992563,7,0.037429,2678,1.00001,1.00001
app_50,868.736,21716.5,7967.7,32.3,8.59405,2.5028e+10,1.00091,0.992563,944,3.1285,22,1.00005,1.00005
app_51,997.006,21489.3,7956.5,43.5,5.80008,3.72149e+10,1.00079,0.992563,1375,6.20249,15,1.00005,1.00005
app_52,249.433,20626,7931.2,68.8,6.37871,5.83233e+10,1.00131,0.992563,1286,8.33191,16,1.00005,1.00005
app_53,431.114,20849.3,7940.7,59.3,7.74297,4.92996e+10,1.00125,0.992563,1022,6.16245,20,1.00005,1.00005
app_54,677.034,20737.2,7997.5,2.5,11.4335,2.07564e+09,1.00005,0.992563,715,0.188694,28,1.00005,1.00005
app_55,162.574,20276.9,7988.5,11.5,6.65393,7.59984e+09,1.00049,0.992563,1177,1.26664,17,1.00005,1.00005
app_56,717.638,21816.1,7945.4,54.6,7.27363,4.62732e+10,1.00104,0.992563,1103,5.78416,19,1.00006,1.00006
app_57,652.629,20953.4,7946.1,53.9,9.00706,4.40384e+10,1.00123,0.992563,876,4.89316,23,1.00006,1.00006
app_58,263.075,20771.8,7942.8,57.2,7.84054,4.57706e+10,1.00143,0.992563,1036,5.72133,20,1.00006,1.00006
app_59,48.269,20453.9,7986,14,11.1544,1.25822e+10,1.00018,0.992563,720,1.14384,28,1.00006,1.00006
app_6,9.71177,19276.8,7941.7,58.3,566.146,2.09199e+10,1.00469,0.992563,14,0.036961,1365,1.00001,1.00001
app_60,818.215,20800.7,7974.5,25.5,8.06308,1.96866e+10,1.00073,0.992563,1000,2.46083,20,1.00006,1.00006
app_7,1.14203,17846.4,7868.7,131.3,1313.71,6.87455e+09,1.0158,0.992563,6,0.00523576,2932,1.00001,1.00001
app_8,0.297396,17842.9,7887.4,112.6,1125.9,2.04267e+10,1.01166,0.992563,7,0.018141,2510,1.00001,1.00001
app_9,3.60708,19604.2,7886.9,113.1,1126.26,3.32506e+10,1.01008,0.992563,7,0.0295298,2759,1.00001,1.00001
