app_id,start_app,end_app,effective_cpu,effective_io,effective_iter,total_bytes,stretch,utilization,Tcomp,Tio,iterations,priority,group_id
app_1,1.17663,20288.4,7648,103.217,1092.11,3.53769e+10,1.04121,0.984849,7,0.0323964,2779,1,1
app_10,5.48194,19186.1,7735.3,69.7268,773.078,1.57416e+10,1.03212,0.984849,10,0.0203643,1859,1,1
app_11,0.040558,19079.3,7775,74.9911,708.286,4.62088e+10,1.02286,0.984849,11,0.0652666,1684,1,1
app_12,8.70129,18468.4,7677.9,89.5656,959.468,3.08307e+10,1.03778,0.984849,8,0.0321488,2219,1,1
app_13,6.35005,19026.8,7683.4,92.51,960.215,3.74687e+10,1.03615,0.984849,8,0.0390299,2287,1,1
app_14,4.14614,19953.2,7806.7,59.7631,559.138,3.67869e+10,1.01995,0.984849,14,0.0658085,1394,1,1
app_15,0.804793,20105.6,7699.6,82.5888,962.866,1.28184e+10,1.03729,0.984849,8,0.0133109,2419,1,1
app_16,1.07327,20314.3,7653.8,88.7516,954.724,2.98887e+10,1.04117,0.984849,8,0.0312971,2437,1,1
app_17,7.83501,19547.9,7761.2,63.4651,704.948,1.29306e+10,1.02905,0.984849,11,0.0183413,1724,1,1
app_18,1.20593,20541.7,7460.2,169.808,1864.77,4.36868e+10,1.06611,0.984849,4,0.0234371,4799,1,1
app_19,3.04837,18698.8,7721.7,87.74,857.218,4.69732e+10,1.02978,0.984849,9,0.0548112,2002,1,1
app_2,11.3291,20015.1,7781.7,69.4258,650.126,4.19572e+10,1.02254,0.984849,12,0.0645496,1624,1,1
app_20,5.78578,19627.4,7769.9,65.0572,705.561,1.88909e+10,1.02712,0.984849,11,0.0267577,1730,1,1
app_21,11.0134,19985.2,7976.8,13.0697,63.9798,1.06724e+10,1.00157,0.984849,124,0.166756,161,1,1
app_22,14.2761,20064.9,7940.1,46.067,77.9328,4.08484e+10,1.00239,0.984849,102,0.523697,195,1,1
app_23,1.49426,19944,7933.5,45.4123,88.1132,4.3964e+10,1.00282,0.984849,90,0.499591,221,1,1
app_24,15.2943,19976.9,7928.1,52.5754,87.9813,4.84075e+10,1.00295,0.984849,90,0.550086,221,1,1
app_25,57.681,20084.9,7965.4,13.6662,128.612,9.38469e+09,1.00316,0.984849,62,0.0727495,321,1,1
app_26,55.3778,20288.1,7976.6,12.6421,68.4264,7.18253e+09,1.00203,0.984849,115,0.104095,174,1,1
app_27,89.8538,20181.1,7961.6,25.3522,84.5604,2.05838e+10,1.00223,0.984849,93,0.242162,213,1,1
app_28,21.4722,19983.2,7911.3,49.5672,122.262,4.32636e+10,1.00571,0.984849,65,0.351737,304,1,1
app_29,16.1167,20090.9,7936.2,36.313,58.7298,3.47789e+10,1.00364,0.984849,135,0.589472,148,1,1
app_3,8.42057,20342.1,7739.8,72.0457,862.531,2.92765e+09,1.03323,0.984849,9,0.00339634,2189,1,1
app_30,55.9568,20303,7948.6,42.237,70.2873,3.9534e+10,1.00149,0.984849,112,0.564772,178,1,1
app_31,74.227,20022,7958,27.6339,71.8141,2.21512e+10,1.00249,0.984849,110,0.311988,181,1,1
app_32,81.1413,20223.8,7936.4,39.4866,81.7432,3.4059e+10,1.00371,0.984849,97,0.420481,206,1,1
app_33,19.4423,20050.6,7965.3,28.1753,70.7163,2.39623e+10,1.00134,0.984849,112,0.337497,178,1,1
app_34,23.5467,20198.5,7964.8,6.53181,73.1586,1.6532e+09,1.00421,0.984849,108,0.0223406,185,1,1
app_35,35.7466,19918.2,7967.5,7.31575,66.8126,5.10069e+09,1.00344,0.984849,119,0.0761297,167,1,1
app_36,3.23153,19964.4,7967.9,16.2204,88.0946,9.99327e+09,1.00277,0.984849,91,0.11356,219,1,1
app_37,51.0784,19857.7,7943.7,27.973,91.1804,2.4581e+10,1.00398,0.984849,88,0.270121,225,1,1
app_38,77.5263,20276.7,7946.7,44.781,64.9122,3.99454e+10,1.00167,0.984849,121,0.614545,165,1,1
app_39,29.2142,20010.5,7941.2,25.5478,64.1545,2.25806e+10,1.00455,0.984849,124,0.352822,160,1,1
app_4,1.60246,18613.9,7740.2,71.6944,859.745,1.77497e+09,1.03333,0.984849,9,0.00206391,2003,1,1
app_40,62.9428,19948.6,7944,53.1619,76.6933,4.94272e+10,1.00082,0.984849,104,0.650358,190,1,1
app_41,557.807,20890.8,7956.3,40.5782,13.9779,3.97446e+10,1.00049,0.984849,560,2.8389,36,1,1
app_42,865.217,21468,7984.4,10.0445,8.91594,9.84079e+09,1.00072,0.984849,888,1.09342,23,1,1
app_43,89.6756,20375,7953.9,40.5116,9.06845,3.98914e+10,1.00078,0.984849,887,4.43237,23,1,1
app_44,269.326,21122.4,7968.4,25.9152,9.97543,2.5166e+10,1.0008,0.984849,789,2.5166,26,1,1
app_45,513.989,20946.4,7969.2,30.2888,8.87915,2.97245e+10,1.00013,0.984849,881,3.71557,23,1,1
app_46,626.146,21142.9,7972.7,21.9294,9.82791,2.1456e+10,1.00073,0.984849,810,2.1456,25,1,1
app_47,359.847,21404.1,7961.1,34.3172,7.74779,3.38052e+10,1.00064,0.984849,1045,4.22565,20,1,1
app_48,920.448,21259.1,7961.1,36.7033,7.84426,3.60486e+10,1.00036,0.984849,1026,4.50607,20,1,1
app_49,752.192,21477.1,7962,37.5149,8.277,3.72302e+10,1.0001,0.984849,941,4.65377,22,1,1
app_5,5.88727,19160.9,7742.2,76.1201,774.049,3.5515e+10,1.02858,0.984849,10,0.045885,1860,1,1
app_50,113.102,20424.5,7972.8,26.2923,22.0517,2.50807e+10,1.00026,0.984849,354,1.14003,57,1,1
app_51,1027.66,21037.3,7963.3,36.4635,7.1975,3.63883e+10,1.00004,0.984849,1112,5.19833,18,1,1
app_52,482.095,21235.6,7970.8,26.1383,8.46052,2.55515e+10,1.00046,0.984849,945,2.83906,22,1,1
app_53,865.26,20734.2,7961.4,34.3333,6.89577,3.39889e+10,1.00058,0.984849,1178,4.85555,17,1,1
app_54,549.449,21593.2,7953.1,43.9974,7.26098,4.382e+10,1.00039,0.984849,1088,6.26001,19,1,1
app_55,686.948,21388.6,7986.4,13.5499,7.41119,1.31294e+10,1.00006,0.984849,1080,1.64118,19,1,1
app_56,47.3158,20528.8,7996.9,2.48616,6.17205,2.2277e+09,1.00011,0.984849,1265,0.371284,16,1,1
app_57,17.4127,20526.5,7991.7,8.1928,8.86471,7.91422e+09,1.00005,0.984849,887,0.879358,23,1,1
app_58,26.9851,20615.1,7970.5,24.5508,7.40268,2.44224e+10,1.00064,0.984849,1093,3.48891,19,1,1
app_59,822.876,20981.9,7950.1,43.3428,9.71135,4.27851e+10,1.00089,0.984849,828,4.7539,24,1,1
app_6,5.13515,18798.7,7677.1,83.7455,962.144,1.38969e+10,1.04018,0.984849,8,0.0144459,2259,1,1
app_60,73.5469,20781,7985.4,14.4755,12.0223,1.38547e+10,1.00009,0.984849,661,1.15456,31,1,1
app_7,9.42736,19299.1,7807.8,58.0693,601.578,2.33956e+10,1.02156,0.984849,13,0.0389277,1449,1,1
app_8,10.0762,20219,7765.7,73.4456,778.391,2.36222e+10,1.02705,0.984849,10,0.0303627,1961,1,1
app_9,0.81272,19113.7,7674.9,96.8946,1094.59,1.94e+10,1.03973,0.984849,7,0.0177331,2623,1,1
