app_id,start_app,end_app,effective_cpu,effective_io,effective_iter,total_bytes,stretch,utilization,Tcomp,Tio,iterations,priority,group_id
app_1,10.2043,19201.5,7916.7,83.3,718.771,4.20889e+10,1.00518,0.993395,11,0.0586196,1730,1,1
app_10,6.21552,19913.6,7943.7,56.3,529.146,2.60019e+10,1.0038,0.993395,15,0.049153,1318,1.00001,1.00001
app_11,5.99694,19539.2,7926,74,720.192,2.69639e+10,1.00591,0.993395,11,0.0374498,1760,1.00001,1.00001
app_12,8.10707,19800.8,7914.4,85.6,720.304,4.436e+10,1.00518,0.993395,11,0.0616111,1782,1.00001,1.00001
app_13,9.50696,18782.1,7927.7,72.3,722.619,7.24104e+08,1.00903,0.993395,11,0.00100153,1691,1.00001,1.00001
app_14,8.883,19298,7933.9,66.1,660.998,6.70945e+09,1.00748,0.993395,12,0.0101505,1592,1.00001,1.00001
app_15,10.1553,19581.3,7901.4,98.6,791.036,5.90372e+10,1.00497,0.993395,10,0.0746362,1935,1.00002,1.00002
app_16,8.93556,19771,7940.8,59.2,567.525,2.54129e+10,1.00424,0.993395,14,0.0448199,1402,1.00002,1.00002
app_17,7.40923,18833.9,7907.4,92.6,716.118,6.04469e+10,1.00404,0.993395,11,0.0844231,1691,1.00002,1.00002
app_18,0.0424659,19891.1,7901.4,98.6,986.08,3.42022e+08,1.01243,0.993395,8,0.000346878,2454,1.00002,1.00002
app_19,7.1241,20109.8,7900.4,99.6,988.636,3.17991e+10,1.00855,0.993395,8,0.0321528,2479,1.00002,1.00002
app_2,8.05136,19597.5,7912,88,880.323,9.93628e+09,1.00985,0.993395,9,0.0112912,2155,1,1
app_20,0.0633921,18598.5,7870.1,129.9,1126.19,6.04441e+10,1.00876,0.993395,7,0.0536804,2612,1.00002,1.00002
app_21,41.0939,19977.8,7974,26,123.957,1.31047e+10,1.00161,0.993395,64,0.105683,309,1.00002,1.00002
app_22,20.1969,20075.2,7942.9,57.1,75.2713,4.49705e+10,1.00152,0.993395,105,0.599607,189,1.00002,1.00002
app_23,18.0168,19989.9,7945.2,54.8,74.8454,3.79129e+10,1.00212,0.993395,107,0.505506,186,1.00002,1.00002
app_24,33.3439,20202.9,7963.3,36.7,81.9115,2.63199e+10,1.0013,0.993395,97,0.320974,206,1.00002,1.00002
app_25,26.5008,19877.9,7950,50,85.4844,3.94551e+10,1.00132,0.993395,94,0.464178,211,1.00003,1.00003
app_26,79.2445,20185.7,7958.3,41.7,87.5439,3.31296e+10,1.00107,0.993395,91,0.3808,219,1.00003,1.00003
app_27,92.368,20101.1,7960.8,39.2,79.7319,2.95672e+10,1.00121,0.993395,99,0.36959,201,1.00003,1.00003
app_28,34.493,19947.9,7949.3,50.7,74.1912,3.75356e+10,1.00165,0.993395,107,0.507238,185,1.00003,1.00003
app_29,15.222,19862,7939.6,60.4,69.8201,4.78074e+10,1.00158,0.993395,114,0.682963,174,1.00003,1.00003
app_3,7.12283,19214,7911.94,88.0626,880.049,9.35548e+09,1.00994,0.993395,9,0.0106237,2112,1,1
app_30,83.6247,20062.8,7950.6,49.4,76.878,3.40988e+10,1.00192,0.993395,104,0.442841,191,1.00003,1.00003
app_31,14.552,19868,7962,38,101.985,2.70336e+10,1.00137,0.993395,78,0.265035,254,1.00003,1.00003
app_32,61.1367,19839.3,7977.7,22.3,91.7735,1.53031e+10,1.00088,0.993395,87,0.168166,227,1.00003,1.00003
app_33,7.99252,20059,7966.8,33.2,68.8288,2.17268e+10,1.00144,0.993395,116,0.314881,172,1.00003,1.00003
app_34,100.063,19953.5,7991.5,8.5,60.9803,4.6304e+09,1.00048,0.993395,129,0.0759083,154,1.00003,1.00003
app_35,82.0572,20160.4,7969.7,30.3,90.8414,2.15297e+10,1.0011,0.993395,87,0.23659,229,1.00004,1.00004
app_36,20.7654,19950.4,7980.2,19.8,85.3617,1.23223e+10,1.00094,0.993395,94,0.144968,212,1.00004,1.00004
app_37,62.0526,20282.1,7990.1,9.9,81.0801,5.84818e+09,1.00051,0.993395,98,0.0713193,204,1.00004,1.00004
app_38,94.1765,19973.5,7978.1,21.9,78.5592,1.57535e+10,1.00077,0.993395,103,0.199412,194,1.00004,1.00004
app_39,15.5683,19916.4,7989.4,10.6,74.5593,7.24222e+09,1.00042,0.993395,107,0.0978679,186,1.00004,1.00004
app_4,1.76508,20121.8,7936.9,63.1,608.959,2.45153e+10,1.00485,0.993395,13,0.040255,1531,1,1
app_40,59.1523,20048.1,7934.8,65.2,131.57,4.73981e+10,1.00223,0.993395,60,0.359077,329,1.00004,1.00004
app_41,13.028,20503.7,7986.1,13.9,8.51683,1.08426e+10,1.00038,0.993395,932,1.35532,22,1.00004,1.00004
app_42,466.826,21278.9,7956.9,43.1,8.65526,3.62635e+10,1.00086,0.993395,871,4.53294,23,1.00004,1.00004
app_43,15.1967,20504.5,7975.6,24.4,12.6474,1.64578e+10,1.00099,0.993395,634,1.37148,32,1.00004,1.00004
app_44,654.606,20806.2,7946.1,53.9,10.708,4.53669e+10,1.00107,0.993395,746,4.53669,27,1.00004,1.00004
app_45,751.5,21600.6,7953.1,46.9,8.36305,3.69336e+10,1.00125,0.993395,942,4.6167,22,1.00004,1.00004
app_46,2.91205,20092.7,7959.6,40.4,6.0628,3.0553e+10,1.00123,0.993395,1345,5.09217,15,1.00005,1.00005
app_47,105.535,19817.8,7984.7,15.3,7.41562,1.36972e+10,1.0002,0.993395,1118,1.95674,18,1.00005,1.00005
app_48,385.339,20815,7982.4,17.6,9.7923,1.45875e+10,1.00038,0.993395,805,1.45875,25,1.00005,1.00005
app_49,32.1102,20769.5,7978.8,21.2,7.36851,1.50073e+10,1.00077,0.993395,1073,2.1439,19,1.00005,1.00005
app_5,2.69992,18757.7,7868.8,131.2,1310.75,3.14627e+10,1.01262,0.993395,6,0.023999,3078,1.00001,1.00001
app_50,354.889,20361.5,7994.8,5.2,10.0642,3.48642e+09,1.00021,0.993395,802,0.316947,25,1.00005,1.00005
app_51,808.238,21226.4,7987.2,12.8,5.27489,9.30815e+09,1.00044,0.993395,1442,1.86163,14,1.00005,1.00005
app_52,794.671,21227.6,7928.3,71.7,7.79053,5.82434e+10,1.00168,0.993395,1010,7.28042,20,1.00005,1.00005
app_53,521.552,21375.8,7930.2,69.8,6.12002,5.04607e+10,1.00242,0.993395,1279,8.41012,16,1.00005,1.00005
app_54,587.87,21341.1,7939.5,60.5,7.50056,4.9248e+10,1.00141,0.993395,1088,6.15599,19,1.00005,1.00005
app_55,354.537,20230.9,7987.7,12.3,10.3843,9.60958e+09,1.00034,0.993395,773,0.960958,26,1.00005,1.00005
app_56,597.725,21037.8,7936.2,63.8,8.31346,4.43019e+10,1.00244,0.993395,961,5.53774,21,1.00006,1.00006
app_57,715.214,20363.9,7949,51,9.56464,4.41857e+10,1.00085,0.993395,831,4.41857,24,1.00006,1.00006
app_58,350.976,20421.7,7974.3,25.7,8.56172,2.09673e+10,1.00059,0.993395,954,2.3297,21,1.00006,1.00006
app_59,790.362,21273.7,7969.6,30.4,7.91896,2.34747e+10,1.00087,0.993395,983,2.93434,21,1.00006,1.00006
app_6,10.2069,19400,7926.3,73.7,719.451,2.44842e+10,1.00619,0.993395,11,0.0340531,1749,1.00001,1.00001
app_60,476.568,21116.5,7982.6,17.4,6.63677,1.4782e+10,1.00033,0.993395,1197,2.11171,17,1.00006,1.00006
app_7,5.54079,17966.1,7887.2,112.8,1127.92,2.37978e+10,1.01125,0.993395,7,0.0211161,2532,1.00001,1.00001
app_8,7.24596,19317,7924.3,75.7,722.279,3.20337e+10,1.00549,0.993395,11,0.044368,1739,1.00001,1.00001
app_9,2.17673,19642.5,7901.3,98.7,987.028,2.95835e+09,1.01211,0.993395,8,0.00299731,2424,1.00001,1.00001
