app_id,start_app,end_app,effective_cpu,effective_io,effective_iter,total_bytes,stretch,utilization,Tcomp,Tio,iterations,priority,group_id
app_1,1.25912,19894.6,7901.4,88.2239,875.783,4.42829e+10,1.00684,0.993077,9,0.0505513,2182,0.1,1
app_10,3.50426,18541.3,7875.79,110.577,1121.66,4.40654e+10,1.01012,0.993077,7,0.0393066,2607,0.1,1
app_11,1.40973,19194.7,7897.1,90.3102,878.928,5.39355e+10,1.00616,0.993077,9,0.06136,2107,0.1,1
app_12,8.98047,19819.7,7924.9,66.6636,719.908,9.81622e+09,1.00823,0.993077,11,0.0136336,1781,0.1,1
app_13,2.41564,19367.1,7908,82.0023,878.513,1.5654e+10,1.00964,0.993077,9,0.0178292,2127,0.1,1
app_14,10.7964,19933.1,7918.4,73.6388,719.899,4.20405e+10,1.00497,0.993077,11,0.0583896,1793,0.1,1
app_15,5.67185,19937.6,7923.9,66.4639,720.423,1.21014e+10,1.00806,0.993077,11,0.0168075,1795,0.1,1
app_16,0.387151,18586.6,7925.79,64.2818,717.926,7.68256e+09,1.00839,0.993077,11,0.0107132,1674,0.1,1
app_17,0.403862,18252.2,7878.4,108.527,1125.15,3.71506e+10,1.01067,0.993077,7,0.0330228,2566,0.1,1
app_18,0.623169,17653.5,7866.4,118.315,1312.34,4.18319e+08,1.01693,0.993077,6,0.000318841,2897,0.1,1
app_19,0.0979551,18690.2,7926.8,66.2903,658.958,3.16996e+10,1.00521,0.993077,12,0.0481026,1543,0.1,1
app_2,5.60796,17451.3,7859.4,125.599,1309.1,3.97981e+10,1.01276,0.993077,6,0.0303802,2856,0.1,1
app_20,4.41655,18340.7,7832.4,149.262,1564.67,4.24535e+10,1.01589,0.993077,5,0.0271269,3587,0.1,1
app_21,75.9947,19968.4,7986.3,12.1214,87.3517,8.58721e+09,1.00064,0.993077,92,0.0987036,216,0.01,2
app_22,23.2803,20093.1,7969.8,29.668,72.3863,2.32365e+10,1.00087,0.993077,109,0.318308,182,0.01,2
app_23,41.5643,19988.5,7959.4,39.9421,85.4027,3.3217e+10,1.00092,0.993077,93,0.386244,213,0.01,2
app_24,95.6761,19892.4,7953.7,44.3519,72.6142,3.62729e+10,1.00125,0.993077,111,0.50379,179,0.01,2
app_25,27.7328,19868,7988,10.0852,103.072,1.75534e+09,1.00128,0.993077,78,0.0170421,254,0.01,2
app_26,11.6012,19945.3,7958.6,39.479,94.7946,3.22088e+10,1.00115,0.993077,85,0.33904,233,0.01,2
app_27,63.0997,19807.4,7952,45.5279,72.6093,3.83536e+10,1.00121,0.993077,110,0.532689,181,0.01,2
app_28,44.7153,19929.1,7933.5,65.6917,87.711,5.63289e+10,1.00127,0.993077,90,0.640101,219,0.01,2
app_29,100.143,20242,7938.9,60.337,62.3525,5.32962e+10,1.00098,0.993077,126,0.859616,158,0.01,2
app_3,7.45139,18337.9,7912.89,77.6621,792.85,3.23093e+10,1.0069,0.993077,10,0.0407432,1815,0.1,1
app_30,67.9491,20056.7,7944.2,55.0001,77.0583,4.69303e+10,1.00111,0.993077,103,0.609484,192,0.01,2
app_31,1.33155,20015.3,7962.9,36.3722,86.5274,3.03246e+10,1.00085,0.993077,92,0.352611,217,0.01,2
app_32,76.4628,19971.2,7972.4,22.7062,103.583,1.69183e+10,1.00134,0.993077,77,0.162676,257,0.01,2
app_33,30.0245,20031.7,7944.6,53.1863,85.2761,4.55848e+10,1.00123,0.993077,94,0.536292,212,0.01,2
app_34,9.6772,19919.7,7978.6,19.4537,87.6692,1.52615e+10,1.00077,0.993077,91,0.175419,218,0.01,2
app_35,28.8224,20113.1,7989,10.3308,78.3937,6.79126e+09,1.00053,0.993077,102,0.0870675,195,0.01,2
app_36,67.197,20102.5,7991.2,7.23659,75.1728,5.33707e+07,1.00109,0.993077,106,0.000711609,188,0.01,2
app_37,7.02128,19939.5,7990.6,7.0591,66.1922,3.80423e+09,1.0007,0.993077,121,0.0567795,165,0.01,2
app_38,79.0124,20089,7988.8,9.19575,92.5778,3.02952e+09,1.00102,0.993077,86,0.0325754,233,0.01,2
app_39,67.981,20088.9,7945.1,53.9333,72.8279,4.52138e+10,1.00121,0.993077,108,0.619367,184,0.01,2
app_4,10.7079,18982.5,7925,65.9619,722.042,5.58985e+09,1.00875,0.993077,11,0.00774218,1710,0.1,1
app_40,77.7663,19938.4,7958.3,39.9767,77.7141,3.2257e+10,1.00118,0.993077,103,0.413551,192,0.01,2
app_41,966.128,21277.3,7977.1,22.9,7.50038,1.8603e+10,1.00054,0.993077,1052,2.32537,19,0.001,3
app_42,546.664,20569.9,7946.6,51.075,10.4695,4.33786e+10,1.00125,0.993077,786,3.94351,26,0.001,3
app_43,202.118,20682.4,7976.3,22.2316,9.27199,1.81246e+10,1.0007,0.993077,843,1.81246,24,0.001,3
app_44,12.0093,20674.1,7945.4,50.566,8.31962,4.40535e+10,1.00132,0.993077,929,5.50669,22,0.001,3
app_45,263.038,20690.2,7981.5,18.5,8.8846,1.60258e+10,1.00031,0.993077,886,1.78065,23,0.001,3
app_46,54.3595,21336.3,7961.4,38.6,7.43914,3.41889e+10,1.00055,0.993077,1037,4.27361,20,0.001,3
app_47,706.703,21400.4,7981.9,13.8673,9.51725,1.16687e+10,1.0008,0.993077,819,1.29653,25,0.001,3
app_48,686.84,21816.8,7961.3,38.7,6.29049,3.44783e+10,1.00053,0.993077,1235,5.74639,17,0.001,3
app_49,559.002,21692.9,7964.5,35.5,7.19677,3.11348e+10,1.00055,0.993077,1100,4.44783,19,0.001,3
app_5,9.11435,18477.8,7919,71.0077,792.936,3.44736e+09,1.00979,0.993077,10,0.00434724,1833,0.1,1
app_50,274.52,20565.9,7952.9,43.3843,6.75611,3.68209e+10,1.00129,0.993077,1173,5.26013,17,0.001,3
app_51,62.136,20007.5,7934.1,65.1901,11.9293,5.6485e+10,1.00118,0.993077,672,4.70708,30,0.001,3
app_52,530.106,21315.6,7999.2,0.8,7.94061,2.05664e+08,1.00007,0.993077,995,0.025708,21,0.001,3
app_53,987.698,20927,7970.9,28.9244,7.27521,2.39628e+10,1.00064,0.993077,1108,3.42325,18,0.001,3
app_54,641.561,21624.4,7989.4,10.6,8.01294,9.15329e+09,1.00018,0.993077,997,1.14416,21,0.001,3
app_55,566.853,20991.1,7978.3,16.7915,8.15499,1.38495e+10,1.00098,0.993077,966,1.73119,21,0.001,3
app_56,7.46621,20058.5,7981,19,7.23679,1.5551e+10,1.00043,0.993077,1117,2.22157,18,0.001,3
app_57,648.209,21326.9,7932.5,63.0181,8.21204,5.34247e+10,1.00176,0.993077,990,6.67809,21,0.001,3
app_58,177.872,20302,7973.8,26.2,8.15386,2.13244e+10,1.00061,0.993077,1015,2.66555,20,0.001,3
app_59,180.675,20761.3,7934.8,65.2,11.6833,5.52324e+10,1.00125,0.993077,684,4.6027,30,0.001,3
app_6,1.89842,18243.3,7877.2,108.9,1125.08,3.73261e+10,1.0108,0.993077,7,0.0331787,2568,0.1,1
app_60,522.227,21122.8,7991.7,7.6553,6.65416,6.70808e+09,1.0002,0.993077,1222,0.958297,17,0.001,3
app_7,0.522916,19262,7929,64.4104,611.806,4.66221e+10,1.00306,0.993077,13,0.0761799,1469,0.1,1
app_8,9.18707,19930.4,7919.5,70.7236,716.267,3.20529e+10,1.00609,0.993077,11,0.0447042,1791,0.1,1
app_9,2.01125,19574.7,7915.2,75.1829,790.585,2.16229e+10,1.00796,0.993077,10,0.0273708,1934,0.1,1
