app_id,start_app,end_app,effective_cpu,effective_io,effective_iter,total_bytes,stretch,utilization,Tcomp,Tio,iterations,priority,group_id
app_1,4.75305,20517.1,7749.8,72.8566,776.401,2.5035e+10,1.02896,0.984748,10,0.0322617,1990,1,1
app_10,6.14432,19211,7799.63,68.8995,651.479,4.29139e+10,1.02008,0.984748,12,0.0659199,1560,1,1
app_11,0.00199774,18038.3,7382.06,206.575,2463.76,4.09668e+09,1.08311,0.984748,3,0.00166329,5565,1,1
app_12,4.60887,20445.7,7787.9,68.3283,648.175,4.55913e+10,1.02126,0.984748,12,0.070357,1656,1,1
app_13,7.6037,18975.6,7749.5,69.6094,774.412,1.54719e+10,1.03027,0.984748,10,0.0199896,1841,1,1
app_14,6.6016,20605.9,7684.35,88.7102,964.994,2.75807e+10,1.03735,0.984748,8,0.028581,2488,1,1
app_15,8.67392,19389.1,7776.7,67.6209,709.413,2.84755e+10,1.02496,0.984748,11,0.0401629,1719,1,1
app_16,3.17242,18537.8,7606.58,119.609,1268.67,4.07542e+10,1.04612,0.984748,6,0.0321405,2943,1,1
app_17,8.29877,19651.6,7702.8,78.3269,857.119,1.84383e+10,1.0361,0.984748,9,0.021515,2113,1,1
app_18,2.77067,20067.1,7728.82,85.4872,856.082,4.22704e+10,1.02946,0.984748,9,0.0493813,2156,1,1
app_19,9.95363,19297.3,7738.8,63.1408,774.417,4.16852e+08,1.0337,0.984748,10,0.000538569,1872,1,1
app_2,3.12815,19769.9,7646.63,103.731,1095.16,3.61193e+10,1.04129,0.984748,7,0.0329857,2710,1,1
app_20,3.29636,19550.9,7760,76.1198,774.278,3.61786e+10,1.02614,0.984748,10,0.0467424,1894,1,1
app_21,55.2049,19996.6,7946.5,50.617,55.7904,4.74305e+10,1.00076,0.984748,142,0.846974,140,1,1
app_22,0.950912,20020.2,7957.5,21.4427,70.8498,1.80542e+10,1.00307,0.984748,113,0.254284,177,1,1
app_23,71.0007,20047.7,7945.3,45.5235,65.7168,4.20372e+10,1.00159,0.984748,122,0.646726,163,1,1
app_24,92.455,20205.6,7931.69,51.3986,85.3593,4.82322e+10,1.00252,0.984748,92,0.567379,216,1,1
app_25,117.258,20175.1,7945.2,31.5312,64.424,2.68285e+10,1.00351,0.984748,123,0.412747,162,1,1
app_26,42.6066,20046.6,7968.1,24.8085,83.2703,2.01939e+10,1.00147,0.984748,96,0.2433,208,1,1
app_27,53.2358,20068.4,7948.1,41.3631,68.7797,3.77084e+10,1.00178,0.984748,116,0.546499,171,1,1
app_28,60.5419,19826.6,7952.7,32.5609,105.893,3.03854e+10,1.00212,0.984748,75,0.286655,263,1,1
app_29,44.3433,20139.7,7969.8,14.307,69.8685,1.19863e+10,1.00228,0.984748,114,0.171232,175,1,1
app_3,7.07639,19358.3,7769.12,75.2909,708.639,4.41592e+10,1.0239,0.984748,11,0.0623718,1714,1,1
app_30,54.1215,20040.4,7926,51.6294,85.3766,4.89253e+10,1.00314,0.984748,93,0.575592,213,1,1
app_31,57.961,20258.4,7930.7,45.2215,77.1771,3.93049e+10,1.00376,0.984748,102,0.510454,195,1,1
app_32,65.3366,19762,7959.4,32.84,64.8145,3.01949e+10,1.0013,0.984748,124,0.464537,160,1,1
app_33,20.201,20106,7954.9,32.096,66.261,2.75543e+10,1.0022,0.984748,120,0.41749,166,1,1
app_34,60.4037,20131.2,7966.9,18.0356,88.4,1.44837e+10,1.00233,0.984748,90,0.162738,222,1,1
app_35,43.8368,19904.3,7927.9,51.2535,87.7636,4.4781e+10,1.00343,0.984748,91,0.508875,217,1,1
app_36,91.5413,20071.1,7958.4,23.8429,58.3186,2.26498e+10,1.00237,0.984748,137,0.390514,145,1,1
app_37,49.8979,19913.5,7959.9,21.8711,106.184,1.87106e+10,1.00268,0.984748,75,0.174865,264,1,1
app_38,102.518,20144.9,7932.9,28.9085,76.4879,2.30271e+10,1.00554,0.984748,104,0.302988,191,1,1
app_39,47.4744,20274.2,7966.7,25.0907,51.3808,2.18021e+10,1.00144,0.984748,155,0.427492,129,1,1
app_4,4.40139,19405.3,7780.2,74.2314,776.246,2.82265e+10,1.02453,0.984748,10,0.0363744,1881,1,1
app_40,58.1653,19951.2,7921.2,52.8296,89.9627,4.61775e+10,1.00409,0.984748,88,0.513083,224,1,1
app_41,821.073,21529.8,7984.5,13.3481,7.43682,1.31364e+10,1.0003,0.984748,1010,1.87662,20,1,1
app_42,730.333,21532.2,7984,15.9732,7.31915,1.53777e+10,1.00008,0.984748,1102,1.92221,19,1,1
app_43,570.462,20558.1,7987.2,11.2322,6.90295,1.07536e+10,1.00026,0.984748,1181,1.53623,17,1,1
app_44,117.119,20481.8,7947.36,52.5976,7.50259,5.24619e+10,1.00002,0.984748,1083,6.69025,19,1,1
app_45,841.456,21726.5,7973.4,20.3854,7.28931,2.01478e+10,1.00081,0.984748,1098,2.87825,19,1,1
app_46,336.216,20911.4,7975.9,10.9675,11.7864,1.04252e+10,1.00171,0.984748,687,0.868763,30,1,1
app_47,82.0268,20807.4,7995.7,3.63459,5.4577,3.39939e+09,1.00011,0.984748,1496,0.566564,14,1,1
app_48,280.197,20784.4,7949.5,50.4476,6.64068,5.00552e+10,1.00006,0.984748,1210,7.15075,17,1,1
app_49,322.26,20864.7,7964.8,34.3732,7.21967,3.42613e+10,1.00012,0.984748,1154,4.89448,18,1,1
app_5,0.983732,17667,7578.92,129.978,1516.6,1.3607e+10,1.05367,0.984748,5,0.00897559,3350,1,1
app_50,286.537,20821,7988.3,11.0462,13.8668,9.91584e+09,1.00022,0.984748,562,0.708275,36,1,1
app_51,947.448,21337.1,7970.6,28.1479,6.87143,2.78076e+10,1.0002,0.984748,1138,3.97252,18,1,1
app_52,188.173,20395.9,7955.8,43.5623,14.7811,4.29436e+10,1.00016,0.984748,548,2.86291,37,1,1
app_53,541.14,21682.4,7952.6,39.7572,6.62111,3.93994e+10,1.001,0.984748,1143,5.62848,18,1,1
app_54,1236.14,22944.6,7988.4,10.8851,5.4841,1.05872e+10,1.00013,0.984748,1417,2.11744,15,1,1
app_55,32.4544,20496.8,7972.2,26.3221,8.11619,2.56415e+10,1.00027,0.984748,1005,3.20519,20,1,1
app_56,1016.01,21006.7,7993.3,3.51578,6.3177,3.38525e+09,1.00041,0.984748,1252,0.483607,16,1,1
app_57,513.043,20673.8,7995,4.74282,9.1593,4.38855e+09,1.00008,0.984748,886,0.487617,23,1,1
app_58,1252.29,22181.4,7960,40,5.20781,3.99726e+10,1,0.984748,1479,7.99451,14,1,1
app_59,556.376,21384.2,7971,24.4548,7.05223,2.41595e+10,1.00061,0.984748,1078,3.45136,19,1,1
app_6,7.19603,19643,7693.8,84.2772,959.997,1.7497e+10,1.03744,0.984748,8,0.0182261,2365,1,1
app_60,93.1726,20814.3,7997.6,2.37621,7.84912,2.20968e+09,1.00002,0.984748,1027,0.27621,20,1,1
app_7,0.99819,19959.8,7774.36,73.4187,708.304,4.3091e+10,1.02335,0.984748,11,0.060863,1762,1,1
app_8,7.51863,19086.8,7768.7,63.6884,646.931,3.15624e+10,1.02561,0.984748,12,0.0487826,1544,1,1
app_9,5.92803,19719.8,7723.5,74.9303,859.252,1.38666e+10,1.03394,0.984748,9,0.0161427,2117,1,1
