app_id,start_app,end_app,effective_cpu,effective_io,effective_iter,total_bytes,stretch,utilization,Tcomp,Tio,iterations,priority,group_id
app_1,1.01516,18946,7884.7,115.3,986.229,6.01427e+10,1.00694,0.993509,8,0.0609966,2331,1,1
app_10,5.77031,19981.7,7907.21,92.7886,787.825,4.80351e+10,1.00563,0.993509,10,0.0609627,1972,1.00001,1.00001
app_11,5.96171,18780.2,7897.2,102.8,986.606,4.08623e+10,1.0078,0.993509,8,0.0414005,2319,1.00001,1.00001
app_12,1.69333,18492.1,7911.7,88.3,880.411,2.11265e+10,1.00847,0.993509,9,0.0240074,2034,1.00001,1.00001
app_13,0.168656,20041.4,7912.2,87.8,878.476,9.54826e+09,1.00988,0.993509,9,0.010875,2204,1.00001,1.00001
app_14,3.52123,19706.2,7895.5,104.5,878.184,5.42507e+10,1.00632,0.993509,9,0.0617187,2164,1.00001,1.00001
app_15,0.054729,18551.5,7901.3,98.7,986.457,5.72219e+09,1.01176,0.993509,8,0.00579755,2290,1.00002,1.00002
app_16,5.12979,20087.1,7928.6,71.4,610.841,3.55795e+10,1.0045,0.993509,13,0.0582315,1532,1.00002,1.00002
app_17,0.905239,19466.2,7912.1,87.9,878.101,1.7404e+10,1.00889,0.993509,9,0.0198223,2136,1.00002,1.00002
app_18,3.44981,19506.5,7915.9,84.1,659.033,5.47455e+10,1.00368,0.993509,12,0.0830736,1604,1.00002,1.00002
app_19,0.00051679,20041.8,7916,84,791.986,3.69243e+10,1.00592,0.993509,10,0.0466216,1983,1.00002,1.00002
app_2,10.6921,18790.1,7920,80,792.538,2.18081e+10,1.00733,0.993509,10,0.0275355,1858,1,1
app_20,2.32537,19493.5,7928,72,718.532,1.25605e+10,1.00749,0.993509,11,0.0174695,1758,1.00002,1.00002
app_21,23.4313,20118.5,7932.4,67.6,74.0571,5.07355e+10,1.00211,0.993509,107,0.685615,186,1.00002,1.00002
app_22,76.1138,20120.1,7930.1,69.9,101.745,5.15342e+10,1.0023,0.993509,78,0.505237,255,1.00002,1.00002
app_23,79.9802,19994,7962.5,37.5,93.6425,2.78442e+10,1.00121,0.993509,85,0.296215,233,1.00002,1.00002
app_24,8.46553,19890.1,7973.1,26.9,81.5817,1.69057e+10,1.00125,0.993509,98,0.208712,202,1.00002,1.00002
app_25,93.8095,20123.5,7974.7,25.3,77.6939,1.61475e+10,1.00115,0.993509,102,0.209708,195,1.00003,1.00003
app_26,59.104,20101.4,7957.1,42.9,71.1745,3.1421e+10,1.00144,0.993509,112,0.436403,178,1.00003,1.00003
app_27,110.279,20127.6,7967.7,32.3,69.3786,2.29918e+10,1.00116,0.993509,114,0.328454,175,1.00003,1.00003
app_28,8.98795,19834.6,7985,15,109.251,1.06021e+10,1.00055,0.993509,73,0.097267,271,1.00003,1.00003
app_29,92.7228,20100,7985.7,14.3,61.9104,9.12055e+09,1.00065,0.993509,130,0.147106,154,1.00003,1.00003
app_3,4.48401,18617.1,7922.5,77.5,719.88,3.40472e+10,1.00546,0.993509,11,0.0472878,1673,1,1
app_30,16.1197,20320.1,7944.1,55.9,72.3372,4.13927e+10,1.00182,0.993509,109,0.574899,183,1.00003,1.00003
app_31,39.2311,20006.6,7990.8,9.2,91.7419,1.43931e+09,1.00097,0.993509,87,0.0156447,230,1.00003,1.00003
app_32,59.0948,19966,7975.8,24.2,99.5706,1.50018e+10,1.00115,0.993509,81,0.150018,246,1.00003,1.00003
app_33,10.7812,20055,7993.3,6.7,58.853,4.50579e+09,1.00027,0.993509,135,0.0763693,148,1.00003,1.00003
app_34,63.1639,19879.6,7977.5,22.5,66.033,1.48939e+10,1.00095,0.993509,121,0.225665,164,1.00003,1.00003
app_35,77.4867,20006,7942,58,98.7261,4.20839e+10,1.00199,0.993509,81,0.42509,245,1.00004,1.00004
app_36,35.508,19940.9,7976.1,23.9,99.0372,1.71074e+10,1.00085,0.993509,80,0.172802,247,1.00004,1.00004
app_37,129.33,20170.3,7928.7,71.3,57.5446,5.46783e+10,1.00208,0.993509,139,0.94273,143,1.00004,1.00004
app_38,85.4838,19855.8,7990.5,9.5,89.5458,4.13872e+09,1.00067,0.993509,90,0.0465024,221,1.00004,1.00004
app_39,73.6528,19986.9,7989.2,10.8,102.491,4.52648e+09,1.00078,0.993509,77,0.0443772,257,1.00004,1.00004
app_4,1.86895,19731.9,7943.33,56.6661,566.902,5.40947e+09,1.00645,0.993509,14,0.00954622,1402,1,1
app_40,98.7286,20004.5,7933.9,66.1,75.9206,4.68846e+10,1.00241,0.993509,105,0.616902,188,1.00004,1.00004
app_41,918.306,22440.9,7975.2,24.8,7.43812,1.99466e+10,1.00061,0.993509,1044,2.49332,20,1.00004,1.00004
app_42,164.662,20193.2,7966.5,33.5,9.71542,2.4655e+10,1.00111,0.993509,818,2.4655,25,1.00004,1.00004
app_43,364.728,20847.7,7938.5,61.5,9.09638,5.2663e+10,1.00111,0.993509,850,5.85145,24,1.00004,1.00004
app_44,129.259,20762.4,7949.2,50.8,7.32834,4.29301e+10,1.00098,0.993509,1085,6.13287,19,1.00004,1.00004
app_45,707.623,21517.6,7966.2,33.8,8.41793,2.60121e+10,1.00097,0.993509,940,3.25152,22,1.00004,1.00004
app_46,766.78,21736.6,7948.1,51.9,7.47328,4.08055e+10,1.00139,0.993509,1028,5.82936,20,1.00005,1.00005
app_47,799.038,21370.3,7960.6,39.4,8.19838,3.11544e+10,1.00103,0.993509,995,3.8943,21,1.00005,1.00005
app_48,740.61,21076.7,7952.9,47.1,6.80278,3.54971e+10,1.00145,0.993509,1132,5.07101,18,1.00005,1.00005
app_49,81.7352,20165.4,7947.9,52.1,9.09753,3.94307e+10,1.00159,0.993509,871,4.38119,23,1.00005,1.00005
app_5,2.05266,18261.3,7901,99,989.749,1.51773e+10,1.01059,0.993509,8,0.0153307,2253,1.00001,1.00001
app_50,529.294,20496,7931.3,68.7,8.34619,5.91363e+10,1.0012,0.993509,949,6.5707,21,1.00005,1.00005
app_51,670.342,21438.4,7991.1,8.9,6.6189,6.08574e+09,1.00035,0.993509,1218,0.869391,17,1.00005,1.00005
app_52,765.312,21111.2,7943.4,56.5993,5.87411,4.29355e+10,1.00171,0.993509,1347,7.97627,15,1.00005,1.00005
app_53,984.302,22347.8,7971.7,28.3,6.79979,2.21439e+10,1.00077,0.993509,1172,3.16341,18,1.00005,1.00005
app_54,156.148,20379.5,7991.8,8.2,8.47994,6.85344e+09,1.00017,0.993509,967,0.761493,21,1.00005,1.00005
app_55,378.816,21010.7,7930.9,69.1,6.91574,5.297e+10,1.00202,0.993509,1155,7.56714,18,1.00005,1.00005
app_56,429.705,21512.7,7994.7,5.3,7.16595,4.50905e+09,1.0001,0.993509,1093,0.563632,19,1.00006,1.00006
app_57,341.166,21410.8,7993.8,6.2,5.311,2.80691e+09,1.00042,0.993509,1482,0.561383,14,1.00006,1.00006
app_58,501.929,21602.9,7990.7,9.3,6.11544,6.40061e+09,1.00036,0.993509,1299,1.06677,16,1.00006,1.00006
app_59,215.601,20657.7,7994.6,5.4,12.1925,3.57669e+09,1.00023,0.993509,656,0.298057,31,1.00006,1.00006
app_6,1.38304,19905.9,7912.2,87.8,878.703,8.47256e+09,1.01002,0.993509,9,0.00964985,2187,1.00001,1.00001
app_60,915.21,21814.5,7964.3,35.7,7.83559,2.95292e+10,1.00077,0.993509,995,3.69115,21,1.00006,1.00006
app_7,4.99507,20140.9,7943.4,56.6,566.201,5.147e+09,1.00647,0.993509,14,0.00909364,1426,1.00001,1.00001
app_8,1.50849,19769.5,7907.1,92.9,788.868,4.55465e+10,1.00595,0.993509,10,0.0577269,1952,1.00001,1.00001
app_9,6.78434,18684.8,7911,89,718.773,4.88625e+10,1.00504,0.993509,11,0.067959,1682,1.00001,1.00001
