app_id,start_app,end_app,effective_cpu,effective_io,effective_iter,total_bytes,stretch,utilization,Tcomp,Tio,iterations,priority,group_id
app_1,5.19431,19740.4,7892.4,96.2695,989.805,3.49418e+10,1.00917,0.993291,8,0.0352947,2438,0.1,1
app_10,5.85682,18787.4,7937.1,55.955,608.303,6.10325e+09,1.00715,0.993291,13,0.0100382,1431,0.1,1
app_11,0.745829,18244,7906.7,83.2979,878.712,1.94936e+10,1.00931,0.993291,9,0.0222022,2002,0.1,1
app_12,11.9503,19080.6,7937.9,56.8774,567.095,2.73582e+10,1.00436,0.993291,14,0.0482507,1348,0.1,1
app_13,5.7487,20102.9,7912.1,79.1561,792.571,4.12211e+10,1.00587,0.993291,10,0.0519812,1988,0.1,1
app_14,11.8531,19518.4,7929,64.0055,611.138,4.46902e+10,1.0033,0.993291,13,0.0731428,1488,0.1,1
app_15,10.8377,18684.7,7925.2,66.4945,723.213,5.7555e+09,1.00871,0.993291,11,0.00796059,1687,0.1,1
app_16,1.96925,19060.2,7922.7,70.3112,719.695,2.95261e+10,1.00601,0.993291,11,0.0410655,1716,0.1,1
app_17,2.33147,18920.1,7908.9,83.1264,789.67,5.76346e+10,1.0042,0.993291,10,0.0729552,1869,0.1,1
app_18,0.849883,19998.8,7841.3,141.668,1571.59,7.33516e+08,1.02014,0.993291,5,0.000466613,3922,0.1,1
app_19,3.81957,18584.5,7896.82,91.8358,986.819,1.56707e+10,1.01106,0.993291,8,0.01588,2295,0.1,1
app_2,8.7869,19713.4,7906.9,83.2519,791.553,5.69399e+10,1.00454,0.993291,10,0.0718938,1947,0.1,1
app_20,2.34917,19197.2,7881.4,106.384,1125.19,2.34621e+10,1.01204,0.993291,7,0.0208552,2698,0.1,1
app_21,4.52514,20077.7,7950.9,47.106,66.1867,4.00388e+10,1.00113,0.993291,119,0.606649,166,0.01,2
app_22,79.2279,19991.1,7937.5,60.4547,98.8572,5.14014e+10,1.00139,0.993291,80,0.524505,247,0.01,2
app_23,28.1857,19955.2,7980.9,17.5405,72.448,1.36197e+10,1.00069,0.993291,111,0.186571,180,0.01,2
app_24,62.9273,19940.7,7986.9,9.95816,98.7335,2.26376e+09,1.00136,0.993291,81,0.0228662,246,0.01,2
app_25,21.615,19808.6,7986.3,11.9007,119.083,3.02064e+09,1.00134,0.993291,67,0.025172,295,0.01,2
app_26,102.271,19957.5,7960.4,36.5163,69.6979,3.07217e+10,1.00111,0.993291,115,0.438881,173,0.01,2
app_27,12.5271,19850.3,7936.6,62.5491,84.2122,5.30883e+10,1.00129,0.993291,95,0.624568,208,0.01,2
app_28,11.2967,20062.4,7986.4,12.3248,62.5941,7.29739e+09,1.00079,0.993291,128,0.1177,156,0.01,2
app_29,17.9463,19918.6,7965.9,32.3891,75.9998,2.72614e+10,1.00086,0.993291,106,0.358703,188,0.01,2
app_3,9.11353,19899.6,7911.6,79.1816,790.741,3.82178e+10,1.00631,0.993291,10,0.0483158,1966,0.1,1
app_30,68.4017,20115.7,7935.3,61.7579,74.0196,5.30717e+10,1.00146,0.993291,107,0.717185,185,0.01,2
app_31,44.4411,19743.5,7958,38.4345,110.178,3.22583e+10,1.00122,0.993291,73,0.293257,270,0.01,2
app_32,11.2476,20070.1,7985.9,11.7212,58.0154,6.82728e+09,1.00091,0.993291,139,0.117712,144,0.01,2
app_33,55.1901,19805.8,7935.3,63.4905,72.121,5.51843e+10,1.00119,0.993291,111,0.766449,178,0.01,2
app_34,61.0901,20087,7987.6,9.6533,90.3891,5.56807e+09,1.00085,0.993291,88,0.0611876,227,0.01,2
app_35,61.6738,19878.8,7972.3,24.2197,79.5093,1.77845e+10,1.00124,0.993291,101,0.222306,197,0.01,2
app_36,61.4428,19944.4,7948.6,48.5164,115.21,4.12076e+10,1.00128,0.993291,69,0.358327,286,0.01,2
app_37,52.7487,19837.7,7953.2,44.092,108.708,3.40868e+10,1.00159,0.993291,73,0.312723,270,0.01,2
app_38,4.2827,19973.8,7944.1,54.6818,75.6117,4.66664e+10,1.00116,0.993291,105,0.614032,189,0.01,2
app_39,2.05287,19997.5,7930.1,65.8719,86.8974,5.73843e+10,1.00157,0.993291,91,0.65959,217,0.01,2
app_4,3.85143,18366.1,7907.2,82.7373,877.194,1.88669e+10,1.00933,0.993291,9,0.021513,2015,0.1,1
app_40,59.5618,20040.8,7943.5,55.3533,74.4221,4.72829e+10,1.00115,0.993291,107,0.638958,185,0.01,2
app_41,656.215,21634.9,7954,44.5808,8.5478,3.78371e+10,1.00102,0.993291,940,4.20413,22,0.001,3
app_42,679.855,21047.3,7971.6,28.4,7.08221,2.49311e+10,1.00043,0.993291,1111,3.56158,18,0.001,3
app_43,708.188,20979,7939.7,59.2388,7.74548,5.1074e+10,1.00115,0.993291,1028,6.38425,20,0.001,3
app_44,499.093,21107.6,7993.8,6.2,8.4623,5.33943e+09,1.00011,0.993291,923,0.59327,22,0.001,3
app_45,135.334,20113.7,7990.8,9.07498,12.2469,6.99109e+09,1.00028,0.993291,669,0.582591,30,0.001,3
app_46,402.93,20606.3,7995.4,2.4107,10.9254,5.57382e+08,1.00051,0.993291,726,0.0506711,28,0.001,3
app_47,256.145,20760.3,7951.6,48.4,9.08882,4.1452e+10,1.00087,0.993291,879,4.60578,23,0.001,3
app_48,590.198,20649.2,7993.2,6.8,12.3003,5.17252e+09,1.0002,0.993291,658,0.431043,31,0.001,3
app_49,191.135,20452.1,7934.5,65.0763,15.8584,5.45445e+10,1.00137,0.993291,502,3.40903,40,0.001,3
app_5,6.28151,18646.4,7899.4,90.8827,873.399,6.02054e+10,1.00507,0.993291,9,0.0689638,2041,0.1,1
app_50,395.012,20581.8,7997.8,2.06302,12.7811,8.92451e+08,1.00016,0.993291,628,0.0743709,32,0.001,3
app_51,683.919,21236.8,7979.1,20.6971,9.3901,1.70281e+10,1.00048,0.993291,845,1.89201,24,0.001,3
app_52,441.043,21049.3,7980.2,19.8,7.83352,1.51468e+10,1.00058,0.993291,1035,1.89335,20,0.001,3
app_53,583.322,21142.1,7994.4,5.6,9.79998,4.81486e+09,1.0001,0.993291,825,0.481486,25,0.001,3
app_54,145.885,20500.5,7972.9,22.3621,10.5509,1.80979e+10,1.00113,0.993291,749,1.64527,27,0.001,3
app_55,862.96,21543.7,7985.4,14.6,8.28941,1.13126e+10,1.00041,0.993291,983,1.41407,21,0.001,3
app_56,499.863,20639.4,7965.9,33.7584,9.40944,2.87157e+10,1.00067,0.993291,876,3.19063,23,0.001,3
app_57,480.987,21208.2,7955.2,44.8,7.20208,3.75505e+10,1.00091,0.993291,1076,5.36435,19,0.001,3
app_58,741.92,20665.4,7991.7,7.71176,8.90998,5.76742e+09,1.00032,0.993291,919,0.640824,22,0.001,3
app_59,242.686,20223.8,7934.5,65.5,8.79506,5.50048e+10,1.00131,0.993291,922,6.11164,22,0.001,3
app_6,2.98693,18598.7,7924,68.024,720.523,1.24322e+10,1.00801,0.993291,11,0.0172431,1673,0.1,1
app_60,965.336,21957.3,7943,52.7511,7.22056,4.2149e+10,1.00186,0.993291,1075,6.02129,19,0.001,3
app_7,3.81904,18477.2,7909.56,79.5145,878.235,5.2886e+09,1.01076,0.993291,9,0.00602347,2029,0.1,1
app_8,8.10639,19260.4,7926.1,65.5386,718.345,8.45098e+09,1.00825,0.993291,11,0.0117702,1731,0.1,1
app_9,5.21586,18543.6,7893.2,95.9029,988.198,3.20516e+10,1.00943,0.993291,8,0.0324409,2289,0.1,1
