app_id,start_app,end_app,effective_cpu,effective_io,effective_iter,total_bytes,stretch,utilization,Tcomp,Tio,iterations,priority,group_id
app_1,9.34482,19543.2,7908.1,81.7482,791.53,5.05385e+10,1.0052,0.993317,10,0.0638113,1930,0.1,1
app_10,5.004,18201.5,7901.1,86.2495,879.547,3.278e+10,1.00833,0.993317,9,0.03725,1998,0.1,1
app_11,8.70326,18615.8,7920.55,70.8135,720.541,2.65293e+10,1.00666,0.993317,11,0.0368184,1677,0.1,1
app_12,2.95194,18632.9,7913.2,77.6709,790.054,3.38687e+10,1.00666,0.993317,10,0.0428718,1844,0.1,1
app_13,0.884061,18575.4,7913.2,76.654,791.426,2.59927e+10,1.00766,0.993317,10,0.0328191,1836,0.1,1
app_14,5.47324,18981.2,7918.8,71.5733,719.732,3.3518e+10,1.006,0.993317,11,0.0466175,1708,0.1,1
app_15,6.95054,20032.7,7911.9,78.4901,792.258,3.51696e+10,1.00666,0.993317,10,0.044406,1982,0.1,1
app_16,6.63441,18978.7,7910,79.8323,878.095,4.53922e+09,1.0108,0.993317,9,0.00516995,2084,0.1,1
app_17,4.73808,18482.4,7909.8,79.2118,879.497,3.08298e+09,1.01101,0.993317,9,0.00350737,2031,0.1,1
app_18,4.21518,19715,7899.7,90.0733,881.05,5.34981e+10,1.00588,0.993317,9,0.0607243,2167,0.1,1
app_19,1.11605,18077.4,7899.5,89.806,987.864,7.5883e+08,1.01263,0.993317,8,0.000768047,2232,0.1,1
app_2,8.1181,19481.1,7927.4,65.8143,660.8,3.26516e+10,1.00502,0.993317,12,0.0494722,1609,0.1,1
app_20,11.4993,18957.2,7920.2,72.4218,720.725,3.70519e+10,1.00537,0.993317,11,0.0513897,1706,0.1,1
app_21,37.907,19911.4,7982.5,16.7118,127.429,1.20952e+10,1.00068,0.993317,62,0.0952377,319,0.01,2
app_22,78.5911,19946.9,7969.5,28.9891,96.7212,1.95112e+10,1.00138,0.993317,82,0.201147,241,0.01,2
app_23,27.0012,20042.6,7962.8,36.3153,70.9012,2.87159e+10,1.00106,0.993317,112,0.40445,178,0.01,2
app_24,26.0485,19955.5,7944.5,54.2593,99.8755,4.52573e+10,1.00128,0.993317,80,0.452573,248,0.01,2
app_25,28.1898,20111.6,7956.9,42.2836,101.513,3.4053e+10,1.00113,0.993317,78,0.333853,255,0.01,2
app_26,81.3935,20070.5,7981.8,17.1499,83.5547,1.14248e+10,1.00085,0.993317,96,0.13601,207,0.01,2
app_27,91.3374,19980.1,7952,47.4427,72.606,3.95001e+10,1.00106,0.993317,110,0.548613,180,0.01,2
app_28,16.2898,19879.2,7951.9,47.3589,83.988,3.99874e+10,1.00102,0.993317,95,0.47604,208,0.01,2
app_29,48.7359,20131.8,7989.2,9.69643,82.8166,6.05654e+09,1.00059,0.993317,95,0.0729703,210,0.01,2
app_3,3.44853,19607.2,7911.4,78.5003,791.42,3.11737e+10,1.00723,0.993317,10,0.0393607,1937,0.1,1
app_30,62.3685,20139.9,7979.6,20.1678,61.7945,1.46557e+10,1.00072,0.993317,129,0.236382,155,0.01,2
app_31,84.7621,20190.5,7989.4,9.68252,82.1267,7.20525e+09,1.00042,0.993317,96,0.0878689,208,0.01,2
app_32,44.1009,20082.1,7981.1,18.3861,59.7081,1.35441e+10,1.00067,0.993317,133,0.225736,150,0.01,2
app_33,8.24314,19944.2,7991.1,7.62695,78.8181,1.28067e+09,1.00095,0.993317,101,0.0164189,197,0.01,2
app_34,115.311,20227.3,7968.5,31.382,58.0801,2.62584e+10,1.00066,0.993317,137,0.452732,146,0.01,2
app_35,45.3382,20018.6,7982,16.9112,84.4235,9.75817e+09,1.00103,0.993317,95,0.116169,210,0.01,2
app_36,67.3101,20019.7,7935,64.2249,80.9338,5.55283e+10,1.00119,0.993317,97,0.685534,204,0.01,2
app_37,40.3139,20034.9,7978.4,21.0387,62.3308,1.68123e+10,1.0006,0.993317,128,0.266862,156,0.01,2
app_38,8.2093,20006.3,7980.9,18.1435,84.1625,1.31268e+10,1.00075,0.993317,94,0.154432,211,0.01,2
app_39,51.1097,19742.7,7953.7,43.6012,142.454,3.13177e+10,1.00188,0.993317,56,0.219005,350,0.01,2
app_4,10.5585,18458.6,7906.5,82.8342,788.15,5.57145e+10,1.00475,0.993317,10,0.0707036,1820,0.1,1
app_40,5.06563,19992.8,7965.8,33.219,76.4303,2.73622e+10,1.00086,0.993317,104,0.360029,191,0.01,2
app_41,767.194,21560.5,7993.1,6.9,8.9246,5.80755e+09,1.00014,0.993317,907,0.645283,23,0.001,3
app_42,215.341,20692.6,7954.9,45.1,7.37307,3.83392e+10,1.00085,0.993317,1081,5.47702,19,0.001,3
app_43,326.299,21478.6,7992,8,7.4142,6.64424e+09,1.00017,0.993317,1042,0.949178,20,0.001,3
app_44,1031.92,21718.8,7991.1,8.9,7.20258,7.99085e+09,1.00011,0.993317,1107,1.14155,19,0.001,3
app_45,1073.49,21838.4,7931.4,68.6,6.41547,5.90866e+10,1.00119,0.993317,1287,8.44094,16,0.001,3
app_46,303.332,20758.2,7970.5,29.5,10.7024,2.62774e+10,1.0004,0.993317,783,2.38885,26,0.001,3
app_47,603.943,20700.1,7934.3,60.0579,7.38607,5.174e+10,1.00175,0.993317,1053,7.39143,19,0.001,3
app_48,442.356,20554.2,7954.2,44.7864,8.44446,3.77096e+10,1.00101,0.993317,962,4.18996,21,0.001,3
app_49,727.903,21146.6,7985.9,11.6584,9.15327,9.63366e+09,1.00056,0.993317,853,1.07041,24,0.001,3
app_5,0.587093,18334.3,7908.3,81.4199,791.511,4.88245e+10,1.00539,0.993317,10,0.0616471,1813,0.1,1
app_50,519.685,20560.7,7992.9,7.1,9.12593,5.3545e+09,1.00022,0.993317,871,0.594944,23,0.001,3
app_51,644.215,21705.5,7963.9,34.5909,9.28617,2.97509e+10,1.00079,0.993317,859,2.97509,24,0.001,3
app_52,857.054,21393.9,7986,11.431,7.44437,9.53843e+09,1.00056,0.993317,1053,1.1923,19,0.001,3
app_53,429.295,20605.6,7923.9,66.9376,7.97806,5.66929e+10,1.00243,0.993317,995,7.08661,20,0.001,3
app_54,293.714,20988.3,7958.2,27.6418,6.55118,2.45937e+10,1.00216,0.993317,1213,3.51338,17,0.001,3
app_55,248.077,21068.1,7956.1,43.9,7.07382,3.824e+10,1.00071,0.993317,1138,5.46285,18,0.001,3
app_56,112.989,19439.4,7961.9,28.9065,8.1855,2.41157e+10,1.00175,0.993317,999,3.01446,20,0.001,3
app_57,58.3582,20710.7,7973,27,8.49546,2.30898e+10,1.00049,0.993317,936,2.88623,22,0.001,3
app_58,1123.76,21422.6,7947.3,52.7,6.74218,4.47397e+10,1.001,0.993317,1205,7.45662,17,0.001,3
app_59,947.21,21743.7,7941.1,57.1659,7.22611,4.84235e+10,1.00131,0.993317,1133,6.91765,18,0.001,3
app_6,2.76187,18283.6,7861.8,120.712,1312.11,1.73306e+10,1.01534,0.993317,6,0.0132093,2997,0.1,1
app_60,104.114,20840.1,7957,42.7681,10.2605,3.77523e+10,1.00066,0.993317,763,3.77523,27,0.001,3
app_7,8.16167,18742.6,7890.1,98.6712,987.415,4.57669e+10,1.00808,0.993317,8,0.0463228,2310,0.1,1
app_8,6.50981,17997.7,7865.8,118.494,1310.24,4.78854e+09,1.01644,0.993317,6,0.00365258,2944,0.1,1
app_9,6.32786,19912.7,7929.3,63.9868,661.5,2.12569e+10,1.00622,0.993317,12,0.0321101,1646,0.1,1
