app_id,start_app,end_app,effective_cpu,effective_io,effective_iter,total_bytes,stretch,utilization,Tcomp,Tio,iterations,priority,group_id
app_1,3.88913,20075.4,7900.2,99.8,990.412,2.67696e+10,1.00921,0.993226,8,0.02704,2477,1,1
app_10,5.95147,18721.4,7920.9,79.1,790.557,5.50524e+09,1.00928,0.993226,10,0.00695984,1850,1.00001,1.00001
app_11,8.73531,18233.3,7896.6,103.4,874.849,4.98697e+10,1.00674,0.993226,9,0.056994,1993,1.00001,1.00001
app_12,5.31333,19351,7919.1,80.9,659.534,4.79323e+10,1.00414,0.993226,12,0.0726247,1597,1.00001,1.00001
app_13,7.05994,18062.5,7897.9,102.1,989.569,4.15431e+10,1.00763,0.993226,8,0.0420051,2230,1.00001,1.00001
app_14,6.58249,18833.8,7934,66,659.099,9.97885e+09,1.00705,0.993226,12,0.0151195,1555,1.00001,1.00001
app_15,5.29007,19951.3,7901.2,98.8,987.66,8.73636e+09,1.01139,0.993226,8,0.00884247,2464,1.00002,1.00002
app_16,6.34457,19930.5,7920.4,79.6,790.684,2.15844e+10,1.0073,0.993226,10,0.027322,1972,1.00002,1.00002
app_17,7.52881,19456.8,7907.5,92.5,878.358,4.13864e+10,1.00643,0.993226,9,0.0471372,2135,1.00002,1.00002
app_18,0.887607,19662.7,7916.9,83.1,793.937,3.28247e+10,1.00632,0.993226,10,0.041341,1946,1.00002,1.00002
app_19,2.40646,19722.9,7920.6,79.4,794.174,4.31429e+09,1.00947,0.993226,10,0.00543361,1954,1.00002,1.00002
app_2,0.864172,19428.8,7911.9,88.1,880.966,9.79786e+09,1.00988,0.993226,9,0.0111213,2137,1,1
app_20,2.99015,18046,7867.9,132.1,1310.64,4.13442e+10,1.01147,0.993226,6,0.0315364,2956,1.00002,1.00002
app_21,61.3147,19866.9,7939.6,60.4,76.6239,4.57072e+10,1.00184,0.993226,105,0.601411,189,1.00002,1.00002
app_22,82.3837,20235.9,7980,20,55.2966,1.35332e+10,1.00081,0.993226,142,0.241665,141,1.00002,1.00002
app_23,95.6499,19918.5,7964.9,35.1,77.5561,2.43679e+10,1.00134,0.993226,103,0.316466,193,1.00002,1.00002
app_24,23.1291,19956.4,7960,40,68.9727,3.03269e+10,1.00121,0.993226,117,0.43952,170,1.00002,1.00002
app_25,59.9098,19966.1,7940.7,59.3,112.29,4.48994e+10,1.0018,0.993226,71,0.39734,279,1.00003,1.00003
app_26,50.7101,20126.4,7980.5,19.5,68.5644,1.32423e+10,1.00078,0.993226,115,0.194739,173,1.00003,1.00003
app_27,16.3613,20138.9,7969.7,30.3,84.8738,2.14146e+10,1.00111,0.993226,93,0.251936,215,1.00003,1.00003
app_28,36.9153,20044.7,7991,9,73.7191,6.14535e+09,1.00036,0.993226,109,0.0841828,183,1.00003,1.00003
app_29,86.2794,20005.8,7991.9,8.1,79.3234,2.01869e+09,1.00076,0.993226,101,0.025553,198,1.00003,1.00003
app_3,4.1781,19088.5,7901,99,990.254,4.91237e+09,1.0119,0.993226,8,0.00496199,2360,1,1
app_30,49.4179,20087.3,7943,57,81.5489,4.31187e+10,1.00174,0.993226,97,0.532329,205,1.00003,1.00003
app_31,19.4005,19928.2,7977.2,22.8,65.6113,1.36953e+10,1.00114,0.993226,122,0.207504,163,1.00003,1.00003
app_32,11.2633,19968.6,7984.5,15.5,53.3653,1.06943e+10,1.0006,0.993226,150,0.198042,133,1.00003,1.00003
app_33,64.7108,19971.6,7943.8,56.2,119.612,3.93468e+10,1.00211,0.993226,66,0.330645,298,1.00003,1.00003
app_34,3.01978,19942.7,7983.7,16.3,66.9381,1.0238e+10,1.00076,0.993226,119,0.152806,167,1.00003,1.00003
app_35,39.7838,19892.7,7962.1,37.9,104.14,2.97414e+10,1.00102,0.993226,77,0.285975,257,1.00004,1.00004
app_36,8.96975,20003.3,7974.4,25.6,92.5218,1.8102e+10,1.00094,0.993226,86,0.196761,231,1.00004,1.00004
app_37,41.0927,20111.5,7941.8,58.2,72.4073,4.52423e+10,1.00162,0.993226,108,0.628365,183,1.00004,1.00004
app_38,47.9297,19974.2,7961.4,38.6,110.913,2.43378e+10,1.00179,0.993226,72,0.219259,277,1.00004,1.00004
app_39,11.7226,20070.2,7992.2,7.8,74.5178,3.6732e+09,1.00052,0.993226,106,0.0496379,188,1.00004,1.00004
app_4,1.33397,18323.9,7920.6,79.4,794.849,5.64016e+08,1.00995,0.993226,10,0.000710348,1819,1,1
app_40,80.6942,19945.6,7947.2,52.8,64.7498,4.19723e+10,1.00136,0.993226,122,0.645727,163,1.00004,1.00004
app_41,756.394,21982.4,7964.7,35.3,8.69587,2.89571e+10,1.00079,0.993226,898,3.21745,23,1.00004,1.00004
app_42,1047.3,20693.5,7989.7,10.3,6.1519,8.17022e+09,1.00027,0.993226,1344,1.16717,15,1.00004,1.00004
app_43,952.341,21440.3,7963.2,36.8,7.41649,3.20852e+10,1.00059,0.993226,1062,4.01065,19,1.00004,1.00004
app_44,335.866,20976.1,7933.7,66.3,10.7955,5.11444e+10,1.0019,0.993226,732,4.64949,28,1.00004,1.00004
app_45,757.349,21697.5,7960.2,39.8,7.70002,2.77442e+10,1.00151,0.993226,1035,3.96346,20,1.00004,1.00004
app_46,1017.3,21435.9,7995.5,4.5,7.79516,3.14427e+09,1.00017,0.993226,1023,0.393034,20,1.00005,1.00005
app_47,118.306,20538.1,7980.1,19.9,9.4098,1.26899e+10,1.0009,0.993226,832,1.26899,24,1.00005,1.00005
app_48,224.922,20805.1,7949.2,50.8,7.17727,4.07276e+10,1.00126,0.993226,1068,5.81822,19,1.00005,1.00005
app_49,455.554,21396.7,7964.2,35.8,8.68083,2.87563e+10,1.00088,0.993226,896,3.19514,23,1.00005,1.00005
app_5,5.81901,18294.8,7899,101,881.103,4.41662e+10,1.00716,0.993226,9,0.0501319,2008,1.00001,1.00001
app_50,64.1224,20445.3,7940.7,59.3,13.0188,4.92475e+10,1.00126,0.993226,618,3.78827,33,1.00005,1.00005
app_51,239.013,19964.7,7939.2,60.8,9.40456,5.09806e+10,1.00123,0.993226,864,5.09806,23,1.00005,1.00005
app_52,61.5372,20845,7975.6,24.4,6.98581,1.80733e+10,1.00079,0.993226,1158,2.5819,18,1.00005,1.00005
app_53,872.637,21757.4,7987.2,12.8,8.70821,9.5006e+09,1.00041,0.993226,893,1.05562,23,1.00005,1.00005
app_54,424.148,20452.1,7971.1,28.9,8.06917,2.19664e+10,1.00087,0.993226,1004,2.7458,20,1.00005,1.00005
app_55,946.809,21503.5,7957.8,42.2,7.90619,3.69091e+10,1.00066,0.993226,1019,4.61364,20,1.00005,1.00005
app_56,590.242,20919.8,7956.4,43.6,10.0139,3.53063e+10,1.00104,0.993226,805,3.53063,25,1.00006,1.00006
app_57,911.839,21161.5,7982.5,17.5,6.40341,1.36509e+10,1.00048,0.993226,1249,1.95012,16,1.00006,1.00006
app_58,665.325,20842.3,7951.9,48.1,9.04071,4.1308e+10,1.00085,0.993226,865,4.58978,23,1.00006,1.00006
app_59,172.18,21000.8,7938.9,61.1,6.86475,4.5186e+10,1.00199,0.993226,1163,7.53101,18,1.00006,1.00006
app_6,5.26921,20156.5,7927.9,72.1,720.73,7.65381e+09,1.00812,0.993226,11,0.0106155,1816,1.00001,1.00001
app_60,1307.22,22168,7938.3,61.7,5.8837,5.14534e+10,1.00128,0.993226,1372,8.57557,15,1.00006,1.00006
app_7,4.67264,19293.2,7899,101,881.249,4.60084e+10,1.00692,0.993226,9,0.0521638,2118,1.00001,1.00001
app_8,8.61717,20009.9,7909.1,90.9,789.986,4.49604e+10,1.00578,0.993226,10,0.0569119,1978,1.00001,1.00001
app_9,2.08634,19153.8,7907,93,790.406,4.9597e+10,1.00545,0.993226,10,0.0627016,1891,1.00001,1.00001
