app_id,Tcomp,Tio,iter,witer,alpha_io,compute_size,io_size,mu,desyn_time
1,9.54953638507634,0.04571002386920196,2085,9.595246408945542,0.004763819699990926,9e9,45710023.869201966,10,4.643181269429447
2,9.251855140420664,0.035593977390002404,2154,9.287449117810667,0.0038324815499385457,9e9,35593977.39000241,10,7.5668510393425095
3,12.129064805048717,0.024644833092011566,1646,12.153709638140729,0.0020277622080645433,12e9,24644833.092011567,10,10.284664343546405
4,10.137605030023952,0.022561728520207512,1969,10.16016675854416,0.002220606123539685,10e9,22561728.520207513,10,5.3037997660542215
5,9.118881420594391,0.041832404678967865,2184,9.160713825273358,0.004566500545356745,9e9,41832404.67896786,10,6.725042884089851
6,8.968790368130826,0.02998977597468788,2223,8.998780144105513,0.0033326490362510005,8e9,29989775.974687878,10,0.8942541460216757
7,8.803896047621212,0.008313767492235929,2270,8.812209815113448,0.0009434373064946024,8e9,8313767.492235929,10,4.704433986271338
8,11.457679480092409,0.057763974455417415,1737,11.515443454547826,0.005016217975748431,11e9,57763974.45541742,10,4.032396394003803
9,10.278398113306956,0.008944850690013124,1945,10.287342963996968,0.0008695005815707497,10e9,8944850.690013124,10,7.460953023520376
10,7.953464750255362,0.024993636649730176,2507,7.978458386905093,0.0031326398456563743,7e9,24993636.649730176,10,7.718090476937321
11,9.479803851060954,0.00428723538516818,2109,9.484091086446123,0.00045204493989889463,9e9,4287235.38516818,10,7.823501737920852
12,10.811619669626428,0.05977459919968358,1840,10.87139426882611,0.0054983379060299705,10e9,59774599.19968358,10,5.125522530490095
13,8.748589885799465,0.004141122535877255,2286,8.752731008335342,0.0004731234779103355,8e9,4141122.535877255,10,5.9655397533002965
14,9.569846480659322,0.03709680753265424,2082,9.606943288191976,0.0038614579497154343,9e9,37096807.53265424,10,4.897752633571167
15,10.162447154579828,0.04672575755292737,1960,10.209172912132756,0.004576840646650002,10e9,46725757.55292737,10,10.026324973130219
16,10.027158547389773,0.041015891465144026,1987,10.068174438854916,0.004073816133623613,10e9,41015891.46514402,10,0.25844365759188725
17,10.969636704882506,0.02034909645082272,1820,10.989985801333328,0.0018516035251250212,10e9,20349096.45082272,10,2.627854040260595
18,103.91775235647847,0.17985102573042994,193,104.0976033822089,0.0017277153352904943,103e9,179851025.73042995,100,21.84496049173384
19,112.49329675873017,0.21641832269230293,178,112.70971508142247,0.0019201390273763043,112e9,216418322.69230294,100,95.2697655184883
20,99.94233240882548,0.17860982247902005,200,100.1209422313045,0.0017839406871180512,99e9,178609822.47902006,100,54.101260469890775
21,115.92555649973298,0.3129139603947862,173,116.23847046012776,0.002691999982072392,115e9,312913960.3947862,100,60.01934265300366
22,85.96530951291165,0.22012913722342659,233,86.18543865013507,0.0025541337454581905,85e9,220129137.22342658,100,74.0167400388253
23,95.5262364926813,0.5391649788373174,209,96.06540147151863,0.0056124782760333175,95e9,539164978.8373173,100,93.40460494395658
24,110.18563447385803,0.45173115796387925,181,110.63736563182191,0.004082989100329326,110e9,451731157.9638792,100,17.948542626108537
25,96.35988647758127,0.28900766016642143,207,96.64889413774769,0.0029902841904690257,96e9,289007660.1664214,100,21.51877734004268
26,84.40164040616358,0.3052646873497425,237,84.70690509351333,0.003603775713594322,84e9,305264687.3497425,100,50.191557834903435
27,108.61105130316241,0.5944350693465292,184,109.20548637250894,0.005443271112944473,108e9,594435069.3465292,100,100.72283350314217
28,91.37146248756396,0.17564174824747852,219,91.54710423581143,0.0019185942549865048,91e9,175641748.24747851,100,70.16193179542317
29,102.32478038699492,0.2527582812913862,195,102.57753866828631,0.0024640704443957477,102e9,252758281.29138622,100,11.906715906113405
30,83.07228691560869,0.4618639653530779,240,83.53415088096176,0.00552904363643135,83e9,461863965.3530779,100,61.13499417738448
31,94.7864571912446,0.5233403208303302,210,95.30979751207492,0.005490939383897312,94e9,523340320.8303302,100,78.88220438962446
32,90.30070974941736,0.21220862049500366,221,90.51291836991237,0.0023445119693051956,90e9,212208620.49500367,100,41.02354689690144
33,112.04132847858125,0.32361488345643014,178,112.36494336203768,0.0028800342328634404,112e9,323614883.45643014,100,39.442192531244004
34,100.06501726282782,0.46606748430680417,199,100.53108474713463,0.0046360534702187045,100e9,466067484.3068042,100,37.125065908007976
35,103.0618164459659,0.36455345091375946,194,103.42636989687966,0.003524763087762185,103e9,364553450.91375947,100,69.209756980918
36,93.40528191685011,0.3335881484391268,214,93.73887006528925,0.0035586960692696873,93e9,333588148.4391268,100,57.906238910386556
37,91.33397021548508,0.38450055853460563,219,91.71847077401969,0.004192182395648051,91e9,384500558.5346056,100,46.162848680738676
38,767.6081578732966,2.104669439114007,26,769.7128273124106,0.0027343567164689656,767e9,2104669439.1140068,1000,762.2186334428292
39,891.2973185804378,3.823495046141896,23,895.1208136265798,0.004271484907887479,891e9,3823495046.141896,1000,503.36898164431057
40,1107.6102578919822,5.855626467286878,18,1113.465884359269,0.005258918615774591,1107e9,5855626467.286878,1000,812.165825839286
41,939.5243630864608,4.266550779505349,22,943.7909138659661,0.00452065252676428,939e9,4266550779.5053487,1000,237.57209148561668
42,973.7896351023327,2.3577439457901863,21,976.1473790481228,0.002415356529553262,973e9,2357743945.7901864,1000,943.5434212232229
43,1110.0610950868536,2.149474523220407,18,1112.210569610074,0.0019326147241830152,1110e9,2149474523.220407,1000,288.29520504326507
44,1075.519117919254,1.786148520297493,19,1077.3052664395516,0.001657978082851705,1075e9,1786148520.297493,1000,1064.242860044019
45,971.8691497011279,1.4113140166859206,21,973.2804637178137,0.0014500589185720133,971e9,1411314016.6859207,1000,458.614955288934
46,1010.6146414504441,2.0618633277706926,20,1012.6765047782147,0.002036053288529943,1010e9,2061863327.7706926,1000,1000.3253872603957
47,1104.537496584906,2.978698067991987,19,1107.5161946528979,0.002689530033396513,1104e9,2978698067.991987,1000,636.008624806895
48,1067.7044160770554,2.881829649083069,19,1070.5862457261385,0.002691823905442043,1067e9,2881829649.083069,1000,467.11235511765256
49,914.9689812154483,3.2606402361906475,22,918.2296214516389,0.003551007460460562,914e9,3260640236.1906476,1000,157.6613693943024
50,1089.93590568556,5.0588492575960275,19,1094.994754943156,0.004619975789617956,1089e9,5058849257.596027,1000,853.4227390701334
51,1107.6549129097525,4.607188291181844,18,1112.2621012009345,0.004142178616179908,1107e9,4607188291.181844,1000,1020.4764944329805
52,943.743127961572,4.937076370553033,22,948.6802043321251,0.005204152408796973,943e9,4937076370.553033,1000,90.32521515360645
53,981.6965289717774,5.591251829148073,21,987.2877808009255,0.005663244231192891,981e9,5591251829.148072,1000,119.5893557802177
54,938.0812114960795,5.346710466233923,22,943.4279219623135,0.005667322687580478,938e9,5346710466.233923,1000,380.97760322470316
55,1113.3427186165297,0.26819725747363066,18,1113.6109158740035,0.0002408356937334252,1113e9,268197257.47363067,1000,160.03276120330165
56,996.1453066729789,5.473734865286854,20,1001.6190415382657,0.005464886986254181,996e9,5473734865.286854,1000,591.7734428141562
57,1020.2211619336621,4.2262970320683815,20,1024.4474589657304,0.004125440494854854,1020e9,4226297032.0683813,1000,738.3040378029815
58,1065.5795459178821,4.364324052689718,19,1069.9438699705718,0.0040790215030717045,1065e9,4364324052.689718,1000,686.5390002156543
59,924.1723899523236,1.0852951929452284,22,925.2576851452687,0.0011729653375154977,924e9,1085295192.9452283,1000,609.2508365360172
60,941.8012772687908,3.751656166385469,22,945.5529334351763,0.003967684974288823,941e9,3751656166.385469,1000,460.8567195307135
