app_id,Tcomp,Tio,iter,witer,alpha_io,compute_size,io_size,mu,desyn_time
1,11.08380781459068,0.0344065766983748,1799,11.118214391289055,0.0030946135312278026,11e9,34406576.6983748,10,2.217533508737355
2,9.70862769986839,0.026156275522186835,2055,9.734783975390577,0.002686888131088435,9e9,26156275.522186834,10,3.8560004398515537
3,8.147362405756834,0.022722517074925685,2448,8.170084922831759,0.002781184931312812,8e9,22722517.074925683,10,5.632292550755417
4,9.979815570058532,0.03879653157453271,1997,10.018612101633066,0.003872445722118411,9e9,38796531.57453271,10,0.031680571971989806
5,10.246049925350937,0.002488279027389785,1952,10.248538204378326,0.00024279355531179613,10e9,2488279.027389785,10,5.122607968277063
6,8.724133005984449,0.03674257884270031,2283,8.760875584827149,0.004193939120232951,8e9,36742578.84270031,10,8.308246823143417
7,10.083939855340411,0.04183202540618468,1976,10.125771880746596,0.004131243118929547,10e9,41832025.40618468,10,3.5857247043463127
8,10.849030792788032,0.014971449615607153,1841,10.86400224240364,0.001378078656608851,10e9,14971449.615607154,10,2.6345839582726702
9,10.054251248957609,0.032060662863911994,1983,10.086311911821522,0.003178630915264056,10e9,32060662.863911994,10,7.66422119824743
10,10.401692060445741,0.06515913127764654,1911,10.466851191723388,0.006225284957635665,10e9,65159131.27764654,10,7.735736467788459
11,10.253847162106622,0.004275830340789723,1950,10.258122992447412,0.0004168238520768197,10e9,4275830.340789723,10,2.2834361299973356
12,8.42170351546143,0.044604957962281214,2363,8.466308473423712,0.0052685250132686575,8e9,44604957.96228121,10,4.547541856364244
13,9.012285648934006,0.007358295591447965,2218,9.019643944525454,0.0008158077676574077,9e9,7358295.591447965,10,4.661663410541244
14,9.947127132215083,0.00565438195730034,2010,9.952781514172385,0.0005681207760110793,9e9,5654381.95730034,10,9.73804467800849
15,10.47185773824204,0.07655961651385831,1897,10.548417354755898,0.007257924477110338,10e9,76559616.51385832,10,9.567752417426748
16,10.325660614778782,0.022365230250838777,1933,10.348025845029621,0.0021613040579697893,10e9,22365230.250838775,10,9.187436098072817
17,12.06501223063979,0.08425772420358443,1647,12.149269954843374,0.006935208824625271,12e9,84257724.20358443,10,8.344900833374407
18,8.715965527212322,0.01453448462214906,2291,8.730500011834472,0.001664794067057683,8e9,14534484.62214906,10,6.35358586421454
19,11.128167461651362,0.004376411616285593,1797,11.132543873267647,0.00039311873962559284,11e9,4376411.616285593,10,7.1916046745371505
20,11.617246315210734,0.04758999989932289,1715,11.664836315110056,0.0040797829145426704,11e9,47589999.89932289,10,10.736137730883831
21,10.169656266444983,0.05134676566158249,1957,10.221003032106566,0.005023652326517297,10e9,51346765.66158249,10,9.857603775456974
22,9.353193941102903,0.04609720078324666,2128,9.39929114188615,0.004904327367605762,9e9,46097200.78324666,10,6.5451846445763895
23,9.748434555437264,0.046607449319240074,2042,9.795042004756503,0.004758269469044374,9e9,46607449.31924007,10,2.497696207559804
24,9.332466907334478,0.0292392843137575,2137,9.361706191648235,0.0031232858322174702,9e9,29239284.3137575,10,7.554271909661738
25,9.874471441316635,0.06812149224944057,2012,9.942592933566075,0.006851481570714137,9e9,68121492.24944057,10,0.8795325453067138
26,11.998071906993117,0.027747947657267718,1664,12.025819854650384,0.0023073643204905973,11e9,27747947.65726772,10,8.126460168118301
27,11.066186984774552,0.0640397899737167,1797,11.130226774748268,0.0057536824064543905,11e9,64039789.973716706,10,11.121161962287347
28,9.57146964709038,0.02438798270034841,2085,9.595857629790729,0.0025415115189532335,9e9,24387982.70034841,10,7.012004280292407
29,11.381038097620689,0.013664313169546801,1756,11.394702410790236,0.0011991812227239347,11e9,13664313.169546802,10,4.118182768874179
30,9.064001641738905,0.04336685371203701,2197,9.107368495450942,0.004761732627124773,9e9,43366853.71203701,10,3.637528366103363
31,11.269408570967615,0.009049480335469567,1774,11.278458051303085,0.0008023685768307675,11e9,9049480.335469568,10,4.47478099206309
32,8.613725142677346,0.0483514334453866,2309,8.662076576122733,0.005581967905787019,8e9,48351433.4453866,10,1.8862373953409364
33,10.171985436684759,0.032528518645465944,1960,10.204513955330224,0.0031876597736901525,10e9,32528518.645465944,10,6.991311451748945
34,9.329669999928614,0.027551841547669112,2138,9.357221841476283,0.002944446761489014,9e9,27551841.547669113,10,5.861651682230933
35,9.906123305864584,0.04369746093323642,2011,9.94982076679782,0.004391783727306245,9e9,43697460.93323642,10,8.767120740661097
36,9.068795179978625,0.03207979594768018,2198,9.100874975926306,0.0035249133772893115,9e9,32079795.94768018,10,6.832392803269665
37,99.34761521246324,0.15788736736983258,201,99.50550257983308,0.001586719962980538,99e9,157887367.36983258,100,10.612075066341719
38,111.91343710426534,0.22016255639556814,179,112.1335996606609,0.001963395066793761,111e9,220162556.39556813,100,39.39959113123772
39,99.92154521853388,0.019445297888362807,201,99.94099051642225,0.00019456779233309246,99e9,19445297.888362806,100,33.16933927338953
40,104.17348838992135,0.08947849956399764,192,104.26296688948534,0.0008582002050530688,104e9,89478499.56399764,100,78.12706024482743
41,92.71370939000352,0.1457274562621304,216,92.85943684626565,0.0015693338362948606,92e9,145727456.2621304,100,78.28991442947388
42,117.15248864075191,0.6817231178523986,170,117.83421175860431,0.0057854430192903535,117e9,681723117.8523986,100,61.67810098687365
43,91.11255109445948,0.03481277958856421,220,91.14736387404804,0.0003819395110172385,91e9,34812779.58856421,100,17.221077513961536
44,81.41196601936383,0.08525559473512347,246,81.49722161409896,0.001046116579762939,81e9,85255594.73512347,100,74.6773762608953
45,82.3994384491775,0.13015294864562849,243,82.52959139782313,0.001577045838240531,82e9,130152948.64562848,100,2.4708114667476577
46,128.54473978937781,0.7652428889917912,155,129.3099826783696,0.0059178949153149765,128e9,765242888.9917911,100,120.95860185207296
47,96.28160127346031,0.11014856925561527,208,96.39174984271592,0.0011427178097227883,96e9,110148569.25561526,100,19.71302343905624
48,101.2196659298821,0.48865955674462624,197,101.70832548662672,0.004804518749144861,101e9,488659556.7446262,100,74.14248059143567
49,97.60433861497914,0.6538547045113039,204,98.25819331949045,0.006654454783076147,97e9,653854704.5113039,100,32.30386319947551
50,97.04235685927749,0.2883750143856647,206,97.33073187366315,0.002962836185799775,97e9,288375014.3856647,100,2.0758762064384224
51,99.518159390751,0.2613043451678004,201,99.7794637359188,0.0026188188970365806,99e9,261304345.16780037,100,64.82241143067503
52,102.24885988033984,0.08046386142030715,196,102.32932374176015,0.0007863226148485744,102e9,80463861.42030714,100,24.440397337812502
53,99.57892229770711,0.6400233534964445,200,100.21894565120355,0.0063862511158713055,99e9,640023353.4964445,100,80.64424543833593
54,96.5561743058982,0.2417669660120797,207,96.79794127191028,0.002497645743652173,96e9,241766966.0120797,100,80.72543576015686
55,107.21783909873493,0.7681812899452759,186,107.9860203886802,0.007113710526421082,107e9,768181289.9452759,100,39.323020506873114
56,116.94807470212346,0.27196081286196866,171,117.22003551498543,0.0023200881288523508,116e9,271960812.86196864,100,14.205003980213247
57,1098.7218967202173,7.268440161004944,19,1105.9903368812222,0.006571883965551805,1098e9,7268440161.004944,1000,879.2898442679656
58,837.2890915222457,2.149420429355771,24,839.4385119516015,0.0025605454107157973,837e9,2149420429.355771,1000,611.6231443254334
59,984.6923552559588,5.280465696171442,21,989.9728209521302,0.005333950169553975,984e9,5280465696.171442,1000,411.99444600022525
60,887.8990004488828,3.889497417294692,23,891.7884978661775,0.004361457258757281,887e9,3889497417.294692,1000,823.4480950278651
