app_id,Tcomp,Tio,iter,witer,alpha_io,compute_size,io_size,mu,desyn_time
1,9.860993594058694,0.027075464370605658,2023,9.8880690584293,0.002738195315042282,9e9,27075464.37060566,10,5.099696593419294
2,9.203362264134896,0.03179755027374542,2166,9.235159814408641,0.0034430969157821256,9e9,31797550.27374542,10,5.199912726083598
3,10.329453988002175,0.04808228216195832,1928,10.377536270164134,0.004633304178391259,10e9,48082282.16195832,10,7.5812392814560585
4,10.746728768703536,0.047369091791451864,1853,10.794097860494988,0.004388425267554471,10e9,47369091.791451864,10,9.644232513861969
5,9.515816469084305,0.01749523603368011,2098,9.533311705117985,0.0018351687823537485,9e9,17495236.03368011,10,0.8392770653274741
6,8.634104681790356,0.03019646254941328,2309,8.66430114433977,0.0034851584734147977,8e9,30196462.54941328,10,0.5952603687833165
7,8.402236300471865,0.012986940067184042,2377,8.41522324053905,0.0015432674447210678,8e9,12986940.067184042,10,7.364561956155298
8,8.277847804002578,0.008734949229707469,2414,8.286582753232285,0.0010541075241540662,8e9,8734949.229707468,10,2.307675983636831
9,8.978721743587503,0.00664697314716591,2226,8.98536871673467,0.000739755190545086,8e9,6646973.14716591,10,5.943050317255436
10,9.819990137599063,0.04384461747472486,2028,9.863834755073789,0.004444987022128684,9e9,43844617.47472486,10,5.155334225537057
11,10.56501073906504,0.02463320344010728,1889,10.589643942505147,0.0023261597437883173,10e9,24633203.44010728,10,8.623807515180976
12,10.024689201553286,0.0015792588712589444,1995,10.026268460424545,0.00015751212701839757,10e9,1579258.8712589443,10,9.931605268544983
13,8.93886817568033,0.030193866566215602,2230,8.969062042246545,0.003366446393613387,8e9,30193866.5662156,10,1.3349510973029246
14,10.693807342071652,0.06195931583042201,1860,10.755766657902074,0.005760567126556393,10e9,61959315.83042201,10,3.06564943634745
15,9.68708151061689,0.0660022377288344,2051,9.753083748345725,0.006767319899209254,9e9,66002237.7288344,10,3.4794593207840228
16,8.419999371108483,0.014033331179001515,2372,8.434032702287485,0.0016638933798769101,8e9,14033331.179001514,10,7.8628593437931285
17,10.57692419443545,0.03148187440364654,1886,10.608406068839097,0.0029676347416715807,10e9,31481874.40364654,10,9.077345251128627
18,10.660267054485278,0.025550534702709665,1872,10.685817589187987,0.002391069704255661,10e9,25550534.702709664,10,7.6890567986795455
19,10.411334770569702,0.027260578486512272,1916,10.438595349056214,0.0026115178886570198,10e9,27260578.486512274,10,5.338636407291068
20,8.63629578586841,0.036172585035664846,2307,8.672468370904076,0.004170967651726814,8e9,36172585.03566485,10,2.627410431697071
21,95.51246348555443,0.28584647014522424,209,95.79830995569966,0.002983836252199117,95e9,285846470.1452242,100,69.68373206077551
22,100.13188326379151,0.07387878990473429,200,100.20576205369625,0.0007372708753529125,100e9,73878789.90473428,100,14.269583680218778
23,98.07027865920409,0.3583975833469455,204,98.42867624255103,0.003641190728439453,98e9,358397583.34694546,100,74.07557005374173
24,106.28540940994645,0.6813492788293583,187,106.96675868877581,0.006369729130633677,106e9,681349278.8293582,100,93.15878464925049
25,76.23120421635296,0.1307666709776817,262,76.36197088733064,0.0017124580397567689,76e9,130766670.97768168,100,0.583652602484395
26,97.64453460166537,0.6402175121728793,204,98.28475211383825,0.006513904735002513,97e9,640217512.1728792,100,53.13627063394932
27,88.5932949249787,0.21778741252717213,226,88.81108233750587,0.0024522549077774067,88e9,217787412.52717212,100,22.427686882070898
28,96.03630111818377,0.5501899917976624,208,96.58649110998144,0.005696345166646236,96e9,550189991.7976624,100,28.89864417801258
29,79.85551134061323,0.03681409430044974,251,79.89232543491369,0.0004607963793774069,79e9,36814094.30044974,100,29.967355677199155
30,102.97037144766871,0.06449810893143515,195,103.03486955660014,0.0006259833123387846,102e9,64498108.93143515,100,13.973922087897318
31,102.406855222315,0.5974156640250955,195,103.0042708863401,0.005799911585067312,102e9,597415664.0250955,100,59.32503996642065
32,98.7463579724942,0.6718193396737725,202,99.41817731216797,0.006757510123770367,98e9,671819339.6737725,100,88.33567587331008
33,109.8576744764927,0.17666977973503428,182,110.03434425622774,0.0016055876092980405,109e9,176669779.7350343,100,46.133536678652405
34,97.0138673721373,0.39822923088266876,206,97.41209660301996,0.0040880880790971795,97e9,398229230.88266873,100,25.561396757908273
35,100.42929031698864,0.18418037534728315,199,100.61347069233592,0.0018305737201978146,100e9,184180375.34728315,100,81.24656697934886
36,89.9141304840639,0.039967167271529526,223,89.95409765133543,0.0004443062441295712,89e9,39967167.271529526,100,35.44434432078586
37,105.96000538263674,0.1018665289745279,189,106.06187191161126,0.0009604443815532538,105e9,101866528.9745279,100,56.23900311674865
38,97.68295449746972,0.5695485567758021,204,98.25250305424552,0.005796784194509044,97e9,569548556.775802,100,1.2143017530991924
39,106.70704416547053,0.3373729188787402,187,107.04441708434928,0.003151709618007409,106e9,337372918.8787402,100,45.27461445789382
40,96.77006326005578,0.46753293285219005,206,97.23759619290797,0.004808149842830952,96e9,467532932.8521901,100,4.955538051930811
41,961.8299044376903,0.12786668031559328,21,961.9577711180059,0.0001329233820388853,961e9,127866680.31559329,1000,341.294067592855
42,1097.5738016268938,5.255423939849452,19,1102.8292255667432,0.004765401403965055,1097e9,5255423939.849452,1000,983.591068803855
43,911.44348239681,2.5159484314601053,22,913.9594308282701,0.0027528009959698566,911e9,2515948431.4601054,1000,85.38778204431568
44,850.9097632240889,4.609419608076131,24,855.519182832165,0.005387862365419809,850e9,4609419608.076131,1000,241.30439095552552
45,918.8686639681861,3.646749042549656,22,922.5154130107358,0.003953049446239677,918e9,3646749042.549656,1000,593.6922384695655
46,1084.3053521886648,2.0785990444248803,19,1086.3839512330896,0.001913318990091474,1084e9,2078599044.4248803,1000,208.04801014165764
47,1038.1549057094933,5.945274779554409,20,1044.1001804890477,0.005694161241088659,1038e9,5945274779.554409,1000,370.34157679852984
48,926.6869416806173,5.689048013939172,22,932.3759896945566,0.006101667220970466,926e9,5689048013.939172,1000,583.6487190965847
49,972.7398582450882,2.3874658529045845,21,975.1273240979928,0.0024483631971989155,972e9,2387465852.9045844,1000,828.0908863013248
50,1030.288405474839,0.7537370793855571,20,1031.0421425542245,0.0007310439101143886,1030e9,753737079.3855572,1000,598.1070540584263
51,1122.1118571513962,6.321841472941814,18,1128.433698624338,0.005602315386937404,1122e9,6321841472.941813,1000,340.07639571375626
52,1090.5938998454694,3.212621874015168,19,1093.8065217194846,0.0029371025041657877,1090e9,3212621874.015168,1000,522.7596858213797
53,1017.2833117205616,6.577765388720585,20,1023.8610771092822,0.006424470600339566,1017e9,6577765388.720585,1000,182.19689235808409
54,1186.8731384764392,2.941505732729178,17,1189.8146442091684,0.00247223863569464,1186e9,2941505732.729178,1000,6.138523484236607
55,994.8349065450002,7.085203573985166,20,1001.9201101189853,0.00707162527473747,994e9,7085203573.985166,1000,266.48285178890114
56,971.3916965902255,1.5106494666710344,21,972.9023460568965,0.001552724662237262,971e9,1510649466.6710343,1000,832.8567833066261
57,901.2054729096661,2.530298498280044,23,903.7357714079461,0.002799821118442669,901e9,2530298498.280044,1000,243.58219764552447
58,863.7450691443297,5.862804786260916,23,869.6078739305906,0.006741894780415554,863e9,5862804786.260916,1000,1.4040765033508769
59,957.7250326356143,1.2221628702213911,21,958.9471955058357,0.0012744840132482076,957e9,1222162870.2213912,1000,243.5919965710517
60,1145.6211306881196,2.660961371569715,18,1148.2820920596894,0.0023173411742376925,1145e9,2660961371.569715,1000,541.1361397563564
