app_id,Tcomp,Tio,iter,witer,alpha_io,compute_size,io_size,mu,desyn_time
1,8.437808888374372,0.01073251440805828,2368,8.44854140278243,0.0012703393279843134,8e9,10732514.40805828,10,0.17432041657173025
2,11.494081351672135,0.059958161421815086,1731,11.554039513093949,0.005189367870333641,11e9,59958161.42181508,10,0.19240883460892894
3,10.462469420955625,0.03468068799271524,1906,10.49715010894834,0.0033038193826676384,10e9,34680687.99271524,10,1.081476001476981
4,10.962917643327657,0.0022953139754619684,1824,10.96521295730312,0.00020932689446156438,10e9,2295313.975461968,10,4.455857232265969
5,10.888645263437716,0.03449941738851963,1831,10.923144680826237,0.003158377774586985,10e9,34499417.38851963,10,2.310889986264395
6,11.131243703160495,0.0420668111281876,1790,11.173310514288682,0.0037649370859595835,11e9,42066811.128187604,10,4.956843367894518
7,7.7240949806237245,0.019926130446612268,2583,7.744021111070337,0.0025730986732625505,7e9,19926130.44661227,10,1.5102895805769259
8,10.365423967293868,0.016259771017991545,1927,10.38168373831186,0.0015661978757826722,10e9,16259771.017991545,10,5.61401867682846
9,10.719305749640062,0.07445837525422462,1853,10.793764124894286,0.006898277041509267,10e9,74458375.25422463,10,3.999387191630222
10,11.876092550918553,0.02322422361145756,1681,11.89931677453001,0.0019517274858307865,11e9,23224223.61145756,10,4.06797991136708
11,8.936115228658311,0.03785445048789326,2229,8.973969679146204,0.004218250321912697,8e9,37854450.48789326,10,5.303667041176884
12,9.555360850308416,0.020696220079018994,2089,9.576057070387435,0.0021612465262993313,9e9,20696220.079018995,10,0.7136096294871028
13,10.623967596298675,0.04607857617939708,1875,10.670046172478072,0.0043184982927487675,10e9,46078576.17939708,10,8.159098752209017
14,10.220985271489598,0.0007892459966878307,1957,10.221774517486285,7.721222918170183e-05,10e9,789245.9966878308,10,9.102654303531276
15,9.023014631960391,0.016116617648088315,2213,9.039131249608479,0.001782983032665489,9e9,16116617.648088316,10,3.1456819755413488
16,9.997513234220756,0.023783389821203087,1996,10.021296624041959,0.0023732846869480616,9e9,23783389.821203087,10,1.8874452574564786
17,9.17419987827562,0.003474748849990154,2180,9.17767462712561,0.0003786088514971056,9e9,3474748.849990154,10,1.9287068925866249
18,10.653403678114055,0.03384771296839785,1872,10.687251391082453,0.003167111142968033,10e9,33847712.96839785,10,7.708803042263819
19,88.41417328642237,0.6199685826205976,225,89.03414186904297,0.0069632679060633446,88e9,619968582.6205976,100,73.52923923279627
20,93.78576777355532,0.5107191507718085,213,94.29648692432713,0.005416099447921749,93e9,510719150.7718085,100,18.88180555377018
21,90.38951295040938,0.5598416875718016,220,90.94935463798119,0.006155532271781588,90e9,559841687.5718017,100,76.19578965883417
22,108.26965450450291,0.2692005658288069,185,108.53885507033172,0.0024802230100397556,108e9,269200565.82880694,100,48.18688717577061
23,115.63180967983118,0.6689784729190936,172,116.30078815275027,0.005752140493153431,115e9,668978472.9190936,100,9.51669391687338
24,92.46808027833944,0.6617788088574152,215,93.12985908719686,0.007105978848714849,92e9,661778808.8574152,100,4.779474827020984
25,102.45873639459104,0.47125698166262103,195,102.92999337625366,0.004578422345175646,102e9,471256981.662621,100,84.16010908220818
26,96.70888145957477,0.4738437893840943,206,97.18272524895886,0.004875802650833469,96e9,473843789.3840943,100,5.34891029913375
27,113.06386286199799,0.37774631378722884,177,113.44160917578522,0.00332987443083504,113e9,377746313.7872288,100,37.831427038324875
28,92.8598991603501,0.3146211957620821,215,93.17452035611218,0.0033766870444795712,92e9,314621195.7620821,100,28.551992377955422
29,108.88649415689984,0.018435710096626156,184,108.90492986699647,0.0001692826038191415,108e9,18435710.096626155,100,90.18634560358242
30,89.45496996605772,0.5023329550566307,223,89.95730292111435,0.005584126454937607,89e9,502332955.0566307,100,54.35889116528387
31,94.34279552535398,0.10759927406018836,212,94.45039479941417,0.0011392146564204277,94e9,107599274.06018837,100,67.06001938143682
32,109.39667322019012,0.21213230392134214,183,109.60880552411146,0.00193535823063666,109e9,212132303.92134213,100,40.46648894713528
33,111.55793308905777,0.03926445973451164,180,111.59719754879228,0.0003518409117517895,111e9,39264459.73451164,100,10.085808097997909
34,88.4906898184514,0.49441013998552047,225,88.98509995843692,0.005556100293380006,88e9,494410139.9855205,100,27.414125695254864
35,93.83891971765856,0.34406102478855977,213,94.18298074244711,0.0036531125058510243,93e9,344061024.7885598,100,28.40631120253885
36,93.20878974228552,0.3294203981084906,214,93.53821014039401,0.0035217735897881165,93e9,329420398.1084906,100,63.386254298392295
37,101.43214260753251,0.18988836396006942,197,101.62203097149258,0.0018685747779764181,101e9,189888363.96006942,100,27.076046983837024
38,85.07365717481996,0.24805484084311458,235,85.32171201566307,0.0029072886019630914,85e9,248054840.84311458,100,20.08088202335987
39,757.2213885351766,3.0887714287964556,27,760.3101599639731,0.004062514999066717,757e9,3088771428.7964554,1000,26.27578218059214
40,1093.2971404289506,0.09713803513815154,19,1093.3942784640888,8.884081163713711e-05,1093e9,97138035.13815154,1000,784.3184211834789
41,838.2067665210919,1.468607834678093,24,839.67537435577,0.0017490185844795834,838e9,1468607834.6780932,1000,174.47665611328054
42,1054.4264217495042,1.7440533947553807,19,1056.1704751442596,0.0016512991375915568,1054e9,1744053394.7553806,1000,359.3863074101182
43,1212.5918022380977,1.317570750413093,17,1213.9093729885108,0.001085394659380032,1212e9,1317570750.4130929,1000,644.1976184271277
44,879.486715013011,5.539590307960276,23,885.0263053209712,0.006259238030163681,879e9,5539590307.960277,1000,736.0849879108811
45,918.8538464913496,3.8904228600803767,22,922.7442693514299,0.004216144157486713,918e9,3890422860.0803766,1000,419.4462566773803
46,879.8680746800754,1.7201128639945213,23,881.5881875440699,0.0019511523501538912,879e9,1720112863.9945214,1000,43.74189578662247
47,899.7309282843472,5.1217287265407725,23,904.852657010888,0.005660290310093153,899e9,5121728726.540772,1000,451.0316671739851
48,1001.7181381253604,3.989218996773978,20,1005.7073571221343,0.003966580306411662,1001e9,3989218996.773978,1000,168.21391998710104
49,1005.5968248630365,4.424325711971892,20,1010.0211505750084,0.004380428775628222,1005e9,4424325711.971891,1000,1008.2133166646931
50,1079.9585896578274,2.5148912094169655,19,1082.4734808672442,0.0023232820515862547,1079e9,2514891209.4169655,1000,151.84820547510708
51,863.8348555801947,4.361779440268344,24,868.1966350204631,0.0050239534044790885,863e9,4361779440.268344,1000,143.4147490072898
52,1102.442382413311,0.03032620538187233,19,1102.4727086186929,2.7507443172782532e-05,1102e9,30326205.38187233,1000,1089.6759560411745
53,1001.3882656052884,1.5046066120023187,20,1002.8928722172908,0.0015002665326315377,1001e9,1504606612.0023186,1000,593.9249891291149
54,1041.6794315897153,4.981330398056188,20,1046.6607619877714,0.004759259713334307,1041e9,4981330398.056188,1000,1001.657300761899
55,983.0248660687853,5.177761299508699,21,988.202627368294,0.005239574512463824,983e9,5177761299.508699,1000,192.26103523945952
56,954.5687536740278,1.1508784674648502,21,955.7196321414926,0.0012042009275105743,954e9,1150878467.4648502,1000,895.6417477747342
57,986.8461459177636,4.328248272632791,21,991.1743941903964,0.00436678782059151,986e9,4328248272.6327915,1000,26.337378827907163
58,1195.887457825334,2.4003341362724018,17,1198.2877919616064,0.0020031366023875083,1195e9,2400334136.272402,1000,893.9054533031864
59,934.7820497385211,6.444658788064,22,941.2267085265851,0.006847084479947022,934e9,6444658788.064,1000,37.782770685156265
60,1003.4719926347078,6.616767041991157,20,1010.0887596766989,0.006550678817680337,1003e9,6616767041.991157,1000,180.60062845552716
