app_id,Tcomp,Tio,iter,witer,alpha_io,compute_size,io_size,mu,desyn_time
1,10.775948476463295,0.05648189827232188,1847,10.832430374735617,0.005214148286062759,10e9,56481898.27232188,10,8.260287631722123
2,10.386564357759074,0.06815879965440871,1914,10.454723157413483,0.006519426543215261,10e9,68158799.65440871,10,2.6764367845540367
3,10.050625952397862,0.04725965660620872,1981,10.09788560900407,0.0046801536911913804,10e9,47259656.60620872,10,3.8462645209527686
4,11.524594718111153,0.03677212617900391,1730,11.561366844290157,0.003180603701470182,11e9,36772126.17900391,10,9.016297774161847
5,10.588665089952952,0.011676552993983827,1887,10.600341642946937,0.0011015261005057285,10e9,11676552.993983828,10,8.404166070885191
6,9.844018766794587,0.0187419095436826,2028,9.86276067633827,0.0019002701331531117,9e9,18741909.5436826,10,7.596031550275555
7,10.341001579374971,0.010199974879402529,1933,10.351201554254374,0.000985390423125353,10e9,10199974.87940253,10,0.10750209459426355
8,10.425226021045898,0.020246920040452997,1915,10.44547294108635,0.001938344022778855,10e9,20246920.040452998,10,9.612103524201332
9,12.1304614416636,0.0510032029291682,1642,12.181464644592769,0.00418695160370621,12e9,51003202.929168195,10,3.6726323168568737
10,12.660159481584923,0.017073462430359985,1578,12.677232944015284,0.0013467814708272036,12e9,17073462.430359986,10,0.18743129009232856
11,10.005293354290494,0.04083798240739296,1991,10.046131336697886,0.00406504564181979,10e9,40837982.407392964,10,5.053238889964356
12,8.88119533018662,0.05751663501374368,2238,8.938711965200364,0.006434555139226307,8e9,57516635.01374368,10,2.1098855270633434
13,11.05558649263287,0.04346204294467084,1802,11.099048535577541,0.00391583502003393,11e9,43462042.94467084,10,7.0159309734180635
14,9.88692890359285,0.061388205585029165,2011,9.948317109177879,0.006170712584985366,9e9,61388205.58502916,10,1.8860414325208354
15,8.532352052473543,0.04030194066865128,2333,8.572653993142195,0.0047012209638801865,8e9,40301940.66865128,10,6.073368082319647
16,10.985621675617562,0.017691625653890264,1818,11.003313301271453,0.0016078453070899985,10e9,17691625.653890263,10,0.2466983794026554
17,10.526662697074599,0.0585950904383862,1890,10.585257787512985,0.005535537406326423,10e9,58595090.438386194,10,9.67476147025396
18,9.917872951702904,0.005671708068357062,2016,9.923544659771261,0.0005715405394757196,9e9,5671708.0683570625,10,2.1987425335460236
19,9.524155462383739,0.02440489861126078,2095,9.548560360995,0.0025558720570016576,9e9,24404898.61126078,10,8.612821711804493
20,9.40523678814841,0.014863013944865234,2124,9.420099802093274,0.00157779792752965,9e9,14863013.944865234,10,1.3952996948756797
21,11.492217344781036,0.07519751628922816,1729,11.567414861070263,0.006500805684967937,11e9,75197516.28922816,10,8.389807365255983
22,9.830927488599388,0.013787535698891452,2032,9.84471502429828,0.0014005012501491084,9e9,13787535.698891452,10,2.7461815841890593
23,9.514604681585256,0.02619822987602416,2097,9.540802911461281,0.0027459145859257254,9e9,26198229.87602416,10,4.649587718786379
24,8.000241539752013,0.036434603208033794,2489,8.036676142960047,0.004533541299900421,8e9,36434603.20803379,10,7.403902038321123
25,9.649070605854913,0.032818726380829916,2066,9.681889332235743,0.003389702696927172,9e9,32818726.380829915,10,9.214135546205265
26,8.97352379200378,0.01878606442710932,2225,8.99230985643089,0.002089125566961461,8e9,18786064.42710932,10,8.102074932483033
27,9.9366095956144,0.038926424934868295,2005,9.975536020549267,0.003902188800148802,9e9,38926424.9348683,10,1.4008196216207585
28,9.745621117735405,0.00883866540926228,2051,9.754459783144668,0.0009061153160460155,9e9,8838665.409262279,10,1.2357764846428025
29,10.149466077983982,0.031015187939286128,1965,10.180481265923268,0.0030465345526544084,10e9,31015187.939286128,10,9.768608224842778
30,10.327284587653779,0.022567300425779115,1933,10.349851888079558,0.0021804467029881854,10e9,22567300.425779115,10,6.985752956075687
31,8.975415159174409,0.05342449322736642,2216,9.028839652401775,0.0059170940324712595,8e9,53424493.22736642,10,1.3597905598545925
32,9.721709179220777,0.010909479012340267,2055,9.732618658233118,0.001120919188908281,9e9,10909479.012340268,10,6.84573512000211
33,10.376145148630107,0.04182326187530812,1920,10.417968410505415,0.004014531454437297,10e9,41823261.87530812,10,5.229535321375162
34,8.593441604705637,0.03997124939018759,2317,8.633412854095825,0.0046298318018261585,8e9,39971249.39018759,10,1.698857168006556
35,10.210810275725732,0.01273065861007569,1957,10.223540934335809,0.0012452298760128905,10e9,12730658.61007569,10,2.2218817690607513
36,104.27062913721922,0.4637866119248583,191,104.73441574914408,0.004428215965186673,104e9,463786611.92485833,100,15.4561642418539
37,103.40885737434104,0.3534525354065595,193,103.7623099097476,0.00340636726104105,103e9,353452535.4065595,100,75.91032110884406
38,102.36077117134855,0.7034948610401447,195,103.06426603238869,0.006825788298138818,102e9,703494861.0401447,100,77.63704971032384
39,97.51638362860707,0.07105615751863562,205,97.58743978612571,0.0007281281041326988,97e9,71056157.51863562,100,68.73040156349312
40,101.91556301465553,0.4705794546078754,196,102.3861424692634,0.004596124468202761,101e9,470579454.6078754,100,75.96826283773137
41,98.83592231580901,0.06555355604298459,203,98.901475871852,0.0006628167624912214,98e9,65553556.04298459,100,55.11555684296096
42,101.4443218183263,0.012465116336015231,198,101.45678693466232,0.00012286133547716928,101e9,12465116.336015232,100,60.68487318882708
43,99.75693690738801,0.1760165670540453,201,99.93295347444206,0.001761346592233579,99e9,176016567.05404532,100,25.29887153311791
44,109.21441926027512,0.6404869222866907,183,109.85490618256182,0.0058302987508113725,109e9,640486922.2866907,100,33.84915029120697
45,108.78217852345358,0.5621309129011908,183,109.34430943635478,0.005140925172959148,108e9,562130912.9011908,100,54.99445095618857
46,95.32565003179319,0.5178257865402612,209,95.84347581833345,0.005402827705474437,95e9,517825786.5402612,100,83.18538226587256
47,82.50761193024616,0.12048665481998075,243,82.62809858506614,0.001458180169738978,82e9,120486654.81998076,100,28.88182978925148
48,102.6188524863773,0.07208594873149675,195,102.6909384351088,0.0007019699092247405,102e9,72085948.73149675,100,8.660052718257116
49,110.66630760872941,0.23716027416777632,181,110.90346788289719,0.002138438758454276,110e9,237160274.16777632,100,36.54647490291191
50,80.87673930792837,0.22397707381431456,247,81.10071638174269,0.0027617151093961984,80e9,223977073.81431454,100,26.377482543554336
51,87.02466282648349,0.2917281133891131,230,87.3163909398726,0.00334104639746278,87e9,291728113.38911307,100,36.09922233025638
52,109.51316649769748,0.01754011732573287,183,109.53070661502322,0.00016013881282974456,109e9,17540117.32573287,100,38.95484747501169
53,114.51533049305102,0.38701297197196305,175,114.902343465023,0.0033681904154528606,114e9,387012971.97196305,100,49.98323770798624
54,88.86529015120199,0.469491471366848,224,89.33478162256884,0.005255416343327573,88e9,469491471.366848,100,81.82794533575348
55,109.63175288459551,0.6216506722326085,182,110.25340355682812,0.005638380786242032,109e9,621650672.2326086,100,29.778841529586384
56,1056.3760685696072,3.5286146734970627,19,1059.9046832431043,0.0033291811323072763,1056e9,3528614673.4970627,1000,986.5222622838517
57,1135.9150884467372,7.6998473295431,18,1143.6149357762802,0.00673290203604807,1135e9,7699847329.543099,1000,922.6480422269766
58,995.1084969367314,5.2584626285957885,20,1000.3669595653272,0.005256533693276576,995e9,5258462628.595789,1000,347.0017205184048
59,939.2586828483823,1.619760383095517,22,940.8784432314777,0.00172154053985167,939e9,1619760383.095517,1000,878.4620148342339
60,899.0901175202964,3.0841948525502336,23,902.1743123728467,0.0034186241065081568,899e9,3084194852.550234,1000,393.5991349975487
