app_id,Tcomp,Tio,iter,witer,alpha_io,compute_size,io_size,mu,desyn_time
1,10.449166380936834,0.005397761575968757,1914,10.454564142512803,0.0005163067060843896,10e9,5397761.575968757,10,10.251922965942072
2,10.313747663259322,0.03298490222886559,1933,10.346732565488187,0.003187953493539366,10e9,32984902.22886559,10,7.363756868752517
3,9.36049508390553,0.029092009077351176,2131,9.38958709298288,0.0030983267729730634,9e9,29092009.077351175,10,5.409198188484916
4,10.118467274333574,0.03967946426103483,1969,10.158146738594608,0.003906171596269393,10e9,39679464.26103483,10,2.044624405192555
5,9.776892763264872,0.0014385498604141025,2046,9.778331313125285,0.00014711608906963113,9e9,1438549.8604141024,10,7.40059228714519
6,77.9612970036711,0.4358021543532119,256,78.39709915802432,0.00555890663090441,77e9,435802154.3532119,100,27.18066709693711
7,95.79406422317211,0.4594642393146237,208,96.25352846248674,0.004773479441781633,95e9,459464239.3146237,100,86.10545651683398
8,101.51761051177687,0.11119728215920106,197,101.62880779393606,0.0010941512015438198,101e9,111197282.15920107,100,62.94392216636395
9,124.36859978252748,0.6029632418558896,161,124.97156302438337,0.004824803557416055,124e9,602963241.8558896,100,74.41473360978766
10,103.12332155241491,0.07945285581255826,194,103.20277440822747,0.000769871316620575,103e9,79452855.81255826,100,24.165500395043832
11,101.41688553191997,0.6526445700861612,196,102.06953010200614,0.006394117514148659,101e9,652644570.0861611,100,58.290551161185945
12,101.35663308839399,0.22700720103422692,197,101.58364028942822,0.0022346826751576013,101e9,227007201.03422692,100,39.063281638981124
13,107.42447880151398,0.6581778980993851,186,108.08265669961337,0.006089579199821237,107e9,658177898.0993851,100,40.34195877533474
14,103.12254851566375,0.1586903963020726,194,103.28123891196583,0.0015364881170464662,103e9,158690396.3020726,100,12.169092933410337
15,102.06051090349703,0.5101064362607529,195,102.57061733975779,0.0049732218591515545,102e9,510106436.2607529,100,97.52432201430429
16,98.24972507769584,0.0013614077233653713,204,98.25108648541921,1.3856413929503047e-05,98e9,1361407.7233653713,100,80.13081261335964
17,115.26712660110672,0.024875853476594354,174,115.29200245458333,0.0002157639120405913,115e9,24875853.476594355,100,25.9711821120116
18,101.76835832469006,0.45190616304104675,196,102.2202644877311,0.004420905828269368,101e9,451906163.04104674,100,57.009328861380574
19,99.62632046217676,0.4119552622460468,200,100.03827572442282,0.004117976437147589,99e9,411955262.2460468,100,29.960492782693294
20,108.54267028052907,0.25870670618116304,184,108.80137698671022,0.002377788897035405,108e9,258706706.18116304,100,1.7097453001701242
21,95.49803878398782,0.23066471935051017,209,95.72870350333834,0.0024095669418782656,95e9,230664719.35051018,100,25.656930827797716
22,125.25413982096747,0.6101863635731677,159,125.86432618454063,0.004847969095536414,125e9,610186363.5731677,100,69.13773006561566
23,109.2969080292961,0.32572553252148734,183,109.6226335618176,0.0029713346773210534,109e9,325725532.52148736,100,33.661335925532974
24,103.27223150005742,0.519496965514392,193,103.79172846557181,0.0050051865711698935,103e9,519496965.51439196,100,60.34733249702318
25,89.05295268994779,0.22721865368787325,225,89.28017134363566,0.0025450069177546503,89e9,227218653.68787324,100,62.241122223255275
26,1085.8558975053566,5.427436812323429,19,1091.2833343176799,0.00497344423913237,1085e9,5427436812.323429,1000,179.81191151778634
27,1045.558472932029,2.598720414879441,20,1048.1571933469083,0.002479323169630095,1045e9,2598720414.8794413,1000,79.76424935603534
28,1138.0076759263645,5.396098790315279,18,1143.40377471668,0.004719329172804559,1138e9,5396098790.315279,1000,195.7430239127239
29,1008.8863885023187,4.31459295785065,20,1013.2009814601694,0.004258378186362094,1008e9,4314592957.85065,1000,361.62854170291337
30,1082.1648289159891,1.152563895156212,19,1083.3173928111453,0.0010639207888699877,1082e9,1152563895.156212,1000,1034.1749110316155
31,1090.2056359602325,0.18128751199287801,19,1090.3869234722254,0.0001662598001593659,1090e9,181287511.99287802,1000,802.6147754956335
32,1102.7009309555795,5.2443188600658734,19,1107.9452498156454,0.004733373658074253,1102e9,5244318860.065873,1000,419.1454533721218
33,1088.0279883314615,4.787358491055441,19,1092.8153468225169,0.004380757009841803,1088e9,4787358491.055441,1000,980.4070505238237
34,996.5014459050038,4.59958960225009,20,1001.1010355072539,0.004594530860633359,996e9,4599589602.25009,1000,269.8947066257382
35,963.2344974345606,5.795698105957064,21,969.0301955405176,0.005980926221524262,963e9,5795698105.957065,1000,916.0342322663535
36,997.2321338160201,1.6875871113465186,21,998.9197209273666,0.0016894121479349854,997e9,1687587111.3465185,1000,100.12776827642452
37,1021.6225363100006,0.6785451214762529,20,1022.3010814314769,0.0006637429362063476,1021e9,678545121.4762529,1000,494.47212834660564
38,1125.1883359207409,3.9001576563831915,18,1129.0884935771242,0.003454253301286331,1125e9,3900157656.3831916,1000,1010.5814103099295
39,1004.1464689812418,4.687583477435668,20,1008.8340524586774,0.004646535736984031,1004e9,4687583477.435668,1000,720.213425950658
40,969.9863623270443,6.075132300674915,21,976.0614946277192,0.006224128637501512,969e9,6075132300.674915,1000,305.0557797978788
41,1198.0154221315786,1.090154720307351,17,1199.1055768518859,0.0009091398967298836,1198e9,1090154720.3073509,1000,327.699556518235
42,917.7791391896776,4.397867540065517,22,922.1770067297431,0.004769005850255789,917e9,4397867540.065517,1000,497.8120619097067
43,997.0560074766986,1.5572604471753044,21,998.6132679238739,0.0015594229489989285,997e9,1557260447.1753044,1000,809.3969886395577
44,1004.2119446217112,1.4334636221134245,20,1005.6454082438246,0.001425416563693863,1004e9,1433463622.1134245,1000,963.1593459869935
45,918.5027868974815,3.044134471127049,22,921.5469213686085,0.0033032875489466575,918e9,3044134471.127049,1000,265.22999970565985
46,1059.5703780188494,4.1967566317593255,19,1063.7671346506088,0.003945183579240524,1059e9,4196756631.7593255,1000,809.5974200086162
47,1052.070737369279,5.194956868161285,19,1057.2656942374404,0.004913577444606468,1052e9,5194956868.161285,1000,999.0729303742164
48,1114.6592897710798,5.851272283812446,18,1120.5105620548923,0.005221969771602921,1114e9,5851272283.812447,1000,1094.815079751009
49,1003.6905519751202,0.8972639105417974,20,1004.587815885662,0.000893166228330924,1003e9,897263910.5417974,1000,983.8712864121463
50,1089.607971436413,6.28719178126829,19,1095.8951632176813,0.005737037622110067,1089e9,6287191781.26829,1000,388.9702323897198
51,1001.7877017819285,4.859693428288578,20,1006.647395210217,0.004827602446906182,1001e9,4859693428.288578,1000,432.7591192616272
52,948.445976548883,2.772351401374678,22,951.2183279502576,0.002914526896626043,948e9,2772351401.374678,1000,652.0558096355129
53,1171.0035346957745,1.784109086533485,18,1172.7876437823081,0.0015212550166197436,1171e9,1784109086.533485,1000,712.6372769779862
54,971.5135432809186,3.7899672371236033,21,975.3035105180422,0.0038859362201111368,971e9,3789967237.1236033,1000,754.4489259267397
55,839.5821511160702,1.8244229232146185,24,841.4065740392848,0.002168301246395345,839e9,1824422923.2146184,1000,699.1855945975607
56,837.0703960798811,4.153003404787926,24,841.223399484669,0.004936861489269133,837e9,4153003404.7879257,1000,45.37152099652734
57,1006.3904892982234,5.122274283082441,20,1011.5127635813059,0.005063973948234525,1006e9,5122274283.082441,1000,943.3416880564578
58,914.8543710488053,0.798904539603498,22,915.6532755884089,0.0008724967855219141,914e9,798904539.6034981,1000,483.97890220382516
59,928.4432440278273,3.2373908091392996,22,931.6806348369666,0.003474785981470792,928e9,3237390809.1392994,1000,619.8271075179191
60,1038.0760714181106,5.844078778709084,20,1043.9201501968196,0.005598204783773211,1038e9,5844078778.7090845,1000,184.35817111730705
