app_id,Tcomp,Tio,iter,witer,alpha_io,compute_size,io_size,mu,desyn_time
1,9.090526664393346,0.026126578888102145,2194,9.116653243281448,0.002865808119592157,9e9,26126578.888102144,10,6.059893653611986
2,98.82158385529978,0.4571921207055653,202,99.27877597600535,0.004605134543722254,98e9,457192120.70556533,100,64.20889563005
3,104.73468305408342,0.006888857891300546,191,104.74157191197472,6.577004493583477e-05,104e9,6888857.891300546,100,10.221050670525365
4,92.29386035474951,0.04956117981259061,217,92.3434215345621,0.0005367050406946526,92e9,49561179.81259061,100,58.35030603492054
5,106.85227238619576,0.7593245900209402,186,107.6115969762167,0.007056159478692235,106e9,759324590.0209402,100,74.10956609580006
6,108.57269808492846,0.2637027341198988,184,108.83640081904836,0.002422927734980244,108e9,263702734.1198988,100,77.51406532212889
7,78.4717573472731,0.2911585147331003,254,78.7629158620062,0.003696644690544651,78e9,291158514.7331003,100,56.07361462875654
8,87.69008434692685,0.24178327002435354,228,87.93186761695121,0.0027496660377738114,87e9,241783270.02435353,100,7.907696237174343
9,99.42640765230536,0.1826401623753242,201,99.60904781468068,0.001833570005760121,99e9,182640162.37532422,100,33.0902012266622
10,101.16237444321985,0.3940848664677164,197,101.55645930968757,0.003880451023464583,101e9,394084866.4677164,100,64.16454108980436
11,94.23873667621157,0.3733427200435081,212,94.61207939625508,0.003946036514849981,94e9,373342720.0435081,100,89.85518799769855
12,91.1721617783584,0.42325990496012383,219,91.59542168331852,0.004620972284220713,91e9,423259904.96012384,100,53.2813602922916
13,90.60027399553753,0.40998179058868717,220,91.01025578612622,0.004504786708347935,90e9,409981790.5886872,100,51.247311471750486
14,101.3910593979175,0.5089511319833381,197,101.90001052990084,0.004994613144166407,101e9,508951131.98333806,100,62.55390028172514
15,110.10502686053488,0.8211040193410803,181,110.92613087987596,0.007402259619334147,110e9,821104019.3410803,100,76.92909748514981
16,116.32374276207979,0.12872875787645852,172,116.45247151995625,0.0011054188562618743,116e9,128728757.87645851,100,74.39214833056423
17,92.44190461274052,0.7168936531939337,215,93.15879826593445,0.0076953939567518176,92e9,716893653.1939337,100,23.083084359915826
18,113.25075356559663,0.16827982598487667,177,113.41903339158151,0.0014837000541512919,113e9,168279825.98487666,100,7.5644773853360645
19,100.54897023911776,0.03509136581189405,199,100.58406160492966,0.0003488760073114229,100e9,35091365.81189405,100,37.70501777583467
20,112.06313954422272,0.3191965741011159,178,112.38233611832383,0.0028402735263043815,112e9,319196574.1011159,100,29.306443092393152
21,85.35072608026195,0.32121417117919837,234,85.67194025144114,0.0037493509571098456,85e9,321214171.1791984,100,17.508207582236547
22,1105.3048857302092,0.07647135740793899,19,1105.381357087617,6.918097262778204e-05,1105e9,76471357.40793899,1000,785.3909463253841
23,990.9662716941214,2.304578544723265,21,993.2708502388447,0.0023201914605357637,990e9,2304578544.723265,1000,307.1046791008783
24,1160.7490214226855,3.1010501180994403,18,1163.850071540785,0.002664475600361528,1160e9,3101050118.09944,1000,263.83892346954696
25,1032.0649852946178,2.05554262534386,20,1034.1205279199617,0.001987720550793431,1032e9,2055542625.3438597,1000,85.35831552372845
26,1056.8155342952357,1.9533186068275743,19,1058.7688529020634,0.0018448961749050028,1056e9,1953318606.8275743,1000,889.3803062365599
27,929.2466881110299,0.5735379277118844,22,929.8202260387418,0.0006168266850413591,929e9,573537927.7118844,1000,714.7098536403764
28,877.7678567590814,4.683832871471578,23,882.451689630553,0.005307749904623686,877e9,4683832871.471579,1000,580.3836343109091
29,832.2545771930182,2.5171666613009753,24,834.7717438543192,0.00301539514224413,832e9,2517166661.3009753,1000,413.3550947239718
30,930.1315288940631,1.3673677482711375,22,931.4988966423342,0.0014679220267462786,930e9,1367367748.2711375,1000,256.3764197419662
31,928.2035103423827,1.4498760649394713,22,929.6533864073222,0.0015595877841553052,928e9,1449876064.9394712,1000,62.26943000558918
32,999.0260613726597,4.684377518017602,20,1003.7104388906773,0.004667060674585469,999e9,4684377518.017602,1000,251.468712567544
33,930.2987459866285,0.021909941053534176,22,930.3206559276821,2.3550956236359575e-05,930e9,21909941.053534176,1000,109.96112924739593
34,1049.456775912979,3.0534262131989456,20,1052.510202126178,0.0029010894213003474,1049e9,3053426213.1989455,1000,949.2157678769233
35,1156.0873473195893,0.3850003608300417,18,1156.4723476804193,0.00033290926635837995,1156e9,385000360.8300417,1000,589.7717547091445
36,1081.7333405054367,2.981906119797572,19,1084.7152466252342,0.0027490220397241374,1081e9,2981906119.7975717,1000,652.0758810090896
37,1002.7058291665102,6.718314896586345,20,1009.4241440630965,0.006655591642125811,1002e9,6718314896.586345,1000,140.6607569251572
38,1039.4071455797985,2.453758493576448,20,1041.860904073375,0.0023551689903930184,1039e9,2453758493.576448,1000,280.5556695212524
39,1014.5339245148211,7.484181954906342,20,1022.0181064697275,0.007322944581440276,1014e9,7484181954.906342,1000,997.0471950636419
40,1122.9930919377546,8.162227576934352,18,1131.155319514689,0.007215832729705303,1122e9,8162227576.934353,1000,162.34253653817248
41,962.8866477964523,4.299012382613083,21,967.1856601790654,0.004444867784554582,962e9,4299012382.613083,1000,261.7313298713963
42,1097.3159884340173,2.6087144478407125,19,1099.924702881858,0.0023717209378112426,1097e9,2608714447.8407125,1000,484.2623005925284
43,1145.7801503011406,5.328637915140842,18,1151.1087882162815,0.0046291349433600585,1145e9,5328637915.1408415,1000,429.2468174897843
44,1206.537297274744,4.4330893917448915,17,1210.970386666489,0.0036607744008902835,1206e9,4433089391.744891,1000,1158.597114583412
45,1132.3297543514232,7.0343806322741855,18,1139.3641349836973,0.006173953011409155,1132e9,7034380632.274185,1000,108.51361462781854
46,922.0891775223271,7.020995643867042,22,929.1101731661942,0.007556687943627934,922e9,7020995643.867042,1000,275.06396361044295
47,947.1105711652182,3.0829102862146414,22,950.1934814514328,0.003244507930643195,947e9,3082910286.2146416,1000,105.0022756087457
48,1106.6727907332213,1.5964783237723172,19,1108.2692690569936,0.001440514835470203,1106e9,1596478323.7723172,1000,691.2584274756186
49,1043.9179701751532,2.261227898102471,20,1046.1791980732557,0.002161415465215678,1043e9,2261227898.102471,1000,433.0250437813111
50,958.9332182560119,2.0407189740402365,21,960.9739372300521,0.0021235945065508047,958e9,2040718974.0402365,1000,141.09226149466937
51,1184.821590669553,9.073200237131596,17,1193.8947909066846,0.0075996648165631885,1184e9,9073200237.131596,1000,835.2249025929998
52,1095.2435271354007,6.741081864873243,19,1101.9846090002738,0.006117219614336345,1095e9,6741081864.873242,1000,495.77376973678497
53,1007.2580952752186,4.490604479570258,20,1011.7486997547888,0.0044384583648673015,1007e9,4490604479.570258,1000,909.8027953263644
54,917.6942464648208,1.4806667380960379,22,919.1749132029169,0.0016108650451920746,917e9,1480666738.0960379,1000,580.6523002899929
55,969.0845234979682,0.5354754485257309,21,969.619998946494,0.0005522528919654428,969e9,535475448.5257309,1000,542.3066431596851
56,918.0944894725573,6.910098556645268,22,925.0045880292025,0.00747033976487381,918e9,6910098556.645268,1000,380.95570858908036
57,1054.9257345532128,0.8516211547263526,19,1055.7773557079393,0.0008066294944877918,1054e9,851621154.7263526,1000,611.303085793909
58,978.3357611483895,4.593807386421185,21,982.9295685348106,0.00467358754225786,978e9,4593807386.421185,1000,27.968342765648252
59,1031.6959519535972,0.4784758117065272,20,1032.1744277653038,0.0004635610017411933,1031e9,478475811.7065272,1000,627.8899628940156
60,967.9382927802986,0.9481665814740377,21,968.8864593617727,0.0009786147513080286,967e9,948166581.4740376,1000,257.99722622408734
