app_id,Tcomp,Tio,iter,witer,alpha_io,compute_size,io_size,mu,desyn_time
1,9.561515684454909,0.05340287044988737,2081,9.614918554904795,0.0055541677389087515,9e9,53402870.449887365,10,6.201887329621067
2,11.853865040193503,0.021717847710965098,1685,11.875582887904468,0.0018287816198971744,11e9,21717847.710965097,10,3.2921332005329424
3,9.560310442309415,0.054092279221742826,2081,9.614402721531158,0.005626171566602347,9e9,54092279.22174282,10,1.3038346757593497
4,9.113428386637027,0.035748906958348044,2186,9.149177293595375,0.0039073356883545214,9e9,35748906.95834804,10,3.3919048680445414
5,10.631689651505685,0.018966173945511738,1878,10.650655825451196,0.0017807517449009548,10e9,18966173.945511736,10,3.1097729413139303
6,8.097140374240979,0.0014794528528867528,2470,8.098619827093867,0.00018267962745173634,8e9,1479452.8528867527,10,5.797630223926043
7,9.425073086556273,0.020673080909876976,2118,9.44574616746615,0.0021886127938818617,9e9,20673080.909876976,10,4.561285832946127
8,8.563754680379278,0.017838049700677427,2331,8.581592730079954,0.0020786409075499476,8e9,17838049.70067743,10,6.685642445827356
9,10.487110002450208,0.03414091532097601,1901,10.521250917771184,0.003244948303942589,10e9,34140915.32097601,10,0.6576762233714534
10,10.775376754824414,0.02511537593535041,1852,10.800492130759764,0.0023253918091215406,10e9,25115375.93535041,10,7.161933980822887
11,10.611697270957979,0.0024921451808443875,1885,10.614189416138823,0.0002347937353609964,10e9,2492145.1808443875,10,5.563456267142469
12,9.774109058057139,0.007373703945644207,2045,9.781482762002783,0.0007538431672433293,9e9,7373703.945644206,10,0.21842692438254704
13,10.17786630321602,0.030934978106417328,1960,10.208801281322437,0.0030302262972847333,10e9,30934978.106417328,10,8.558298239680093
14,11.643751033912205,0.041380468181142,1712,11.685131502093347,0.003541292468444095,11e9,41380468.181142,10,5.981963879164113
15,10.13058162351608,0.03915236425134058,1967,10.16973398776742,0.003849890695118936,10e9,39152364.25134058,10,9.811561765217984
16,11.17420115446624,0.07193367404306816,1779,11.246134828509309,0.006396301941953783,11e9,71933674.04306817,10,2.209894801904839
17,11.42669867199409,0.03235558503582441,1746,11.459054257029916,0.0028235824973055577,11e9,32355585.03582441,10,8.220691361569024
18,9.81733320207116,0.052530563562463106,2027,9.869863765633623,0.005322319011673893,9e9,52530563.562463105,10,6.091085779032752
19,9.980003394043909,0.004698465687733885,2004,9.984701859731642,0.00047056644792598396,9e9,4698465.687733885,10,7.338027892626129
20,7.567155278749025,0.025320942361330867,2635,7.592476221110356,0.003335004499708242,7e9,25320942.361330867,10,2.3369866597738107
21,103.10095829076127,0.4715449263218697,194,103.57250321708314,0.004552800325135847,103e9,471544926.3218697,100,65.0458479123765
22,89.24531168909796,0.38949897647072373,224,89.63481066556868,0.00434539855195278,89e9,389498976.47072375,100,87.77003124136041
23,82.39962979198343,0.5329244029039849,242,82.93255419488742,0.006425997704732918,82e9,532924402.9039849,100,19.02158348210893
24,98.61864912295833,0.5877655062618603,202,99.20641462922019,0.005924672396020048,98e9,587765506.2618603,100,20.89755419429279
25,92.95795122133211,0.4985665812305157,215,93.45651780256263,0.0053347438247570225,92e9,498566581.2305157,100,75.37279655186164
26,105.97422449752237,0.41683761711131606,188,106.39106211463368,0.003917975897845479,105e9,416837617.1113161,100,48.99760660840509
27,89.83702619039636,0.4499638340168327,222,90.28699002441319,0.004983706222736682,89e9,449963834.0168327,100,0.2510126709103866
28,113.47428197755907,0.17573596733605906,176,113.65001794489513,0.0015462907134890839,113e9,175735967.33605906,100,14.957690193477601
29,82.78424072632919,0.34484924159057007,241,83.12908996791975,0.004148358194750483,82e9,344849241.5905701,100,3.189201265667346
30,80.8645726281459,0.11786925671891153,247,80.9824418848648,0.0014554915111906583,80e9,117869256.71891153,100,53.60605342908945
31,89.5242985153134,0.18686174559823035,223,89.71116026091164,0.002082926416900312,89e9,186861745.59823036,100,38.515057519078894
32,93.95803438362675,0.1905860348204441,213,94.1486204184472,0.0020243104357066206,93e9,190586034.82044408,100,37.98611753312673
33,103.47085195244279,0.3231630066821554,193,103.79401495912494,0.0031135032863833243,103e9,323163006.68215543,100,61.861582138176885
34,86.67859177937258,0.07570489345784237,231,86.75429667283042,0.0008726356660274963,86e9,75704893.45784236,100,74.24097470421212
35,93.77445675675483,0.3460694809534169,213,94.12052623770825,0.0036768757548103076,93e9,346069480.9534169,100,84.02541953454545
36,113.95350696374462,0.6310810206738776,175,114.58458798441849,0.005507555874440057,113e9,631081020.6738776,100,70.21223755920518
37,101.2885004488686,0.5771270727559183,197,101.86562752162452,0.005665572252361604,101e9,577127072.7559184,100,13.732212648783817
38,88.0833634781479,0.08811724814128107,227,88.17148072628919,0.0009993849191987998,88e9,88117248.14128107,100,72.78634436828193
39,103.60242203813647,0.266648193657771,193,103.86907023179424,0.00256715683564625,103e9,266648193.657771,100,1.2167409119897943
40,78.4871286683556,0.1811519669737489,255,78.66828063532934,0.0023027319970737345,78e9,181151966.97374892,100,36.98449403355986
41,1073.426497927603,2.5719364272246747,19,1075.9984343548276,0.002390278967986433,1073e9,2571936427.2246747,1000,882.5572547954914
42,1038.7857274090672,4.224156932009552,20,1043.0098843410767,0.004049968265332567,1038e9,4224156932.009552,1000,82.79625098103031
43,950.3443498454895,4.6734428228554945,21,955.017792668345,0.004893566233774317,950e9,4673442822.8554945,1000,34.73590458594617
44,1218.7569642426763,1.9296260734654445,17,1220.6865903161417,0.001580771091264054,1218e9,1929626073.4654446,1000,383.10867864642
45,922.9030386228224,1.773097673168158,22,924.6761362959905,0.0019175337218831244,922e9,1773097673.168158,1000,601.6417175720743
46,1110.569560731694,1.4917850054508615,18,1112.0613457371448,0.001341459273959398,1110e9,1491785005.4508615,1000,366.2328454426394
47,966.7841548625444,1.9097058149774062,21,968.6938606775218,0.001971423472883088,966e9,1909705814.9774063,1000,145.05478706709388
48,897.8389956513257,3.325854513301788,23,901.1648501646275,0.0036906172191405497,897e9,3325854513.301788,1000,314.7094428765622
49,1079.6793972069715,3.568267204093314,19,1083.2476644110648,0.0032940456013198917,1079e9,3568267204.0933137,1000,1061.057506122227
50,1005.32143304029,6.476438388525654,20,1011.7978714288157,0.006400921143844588,1005e9,6476438388.525654,1000,113.0919727997862
51,939.3152171565822,3.857523013091121,22,943.1727401696734,0.00408994328270892,939e9,3857523013.091121,1000,23.7285046770924
52,1027.7067653481342,6.018591344347831,20,1033.7253566924821,0.0058222344120540635,1027e9,6018591344.347831,1000,605.8467324437012
53,954.453994098604,6.134664107827997,21,960.588658206432,0.006386359088688769,954e9,6134664107.827997,1000,301.13438616614474
54,967.1005050016291,3.8883488263622725,21,970.9888538279914,0.004004524677119605,967e9,3888348826.3622727,1000,631.8416875984318
55,907.3378342854506,5.360110343973623,22,912.6979446294242,0.005872819562610002,907e9,5360110343.973622,1000,61.1798322288552
56,805.9464237361806,0.03783565498921404,25,805.9842593911698,4.694341675828088e-05,805e9,37835654.98921404,1000,654.9749594950446
57,953.9508190980825,2.5014737060470047,21,956.4522928041296,0.002615366939748952,953e9,2501473706.0470047,1000,60.64058171253727
58,940.2501667687906,2.355558941467348,22,942.605725710258,0.0024989864555431413,940e9,2355558941.467348,1000,670.9420919182054
59,851.6066313773462,1.6853247813806955,24,853.2919561587269,0.001975085747869392,851e9,1685324781.3806956,1000,302.65532287640457
60,880.982179435466,4.635108408800794,23,885.6172878442668,0.005233760081720383,880e9,4635108408.800794,1000,707.1593411199551
