app_id,Tcomp,Tio,iter,witer,alpha_io,compute_size,io_size,mu,desyn_time
1,10.036328057934858,0.057144375105028705,1982,10.093472433039887,0.0056615179249881135,10e9,57144375.105028704,10,3.143036318343426
2,11.34818415757729,0.034028168228314976,1758,11.382212325805604,0.0029895917642624495,11e9,34028168.22831497,10,2.2757151932771604
3,11.305940833462078,0.0607855660679631,1760,11.366726399530041,0.005347675657124666,11e9,60785566.0679631,10,4.6877291604040865
4,11.273857824784907,0.033982765605841146,1769,11.307840590390748,0.0030052391819813274,11e9,33982765.605841145,10,4.432115744049577
5,10.607597910445586,0.0302651900552829,1881,10.63786310050087,0.0028450441380335027,10e9,30265190.055282902,10,5.215497489778311
6,8.9834017613118,0.02967481811322415,2219,9.013076579425023,0.0032924182826722654,8e9,29674818.113224152,10,6.333482606759963
7,8.836424186680027,0.04612205226399772,2252,8.882546238944025,0.0051924359325914195,8e9,46122052.263997726,10,8.650983574008896
8,9.284653648925188,0.04098808763430191,2145,9.32564173655949,0.004395202903154164,9e9,40988087.63430191,10,1.0770860974479528
9,8.324031879101069,0.05047969852106102,2389,8.37451157762213,0.006027778223622003,8e9,50479698.52106102,10,6.292462930007184
10,9.101431877130933,0.05038060712526452,2186,9.151812484256197,0.00550498682222062,9e9,50380607.125264525,10,0.05660896835695783
11,10.471423549930105,0.01247964376469365,1908,10.483903193694799,0.0011903623616249265,10e9,12479643.764693651,10,8.133105626751346
12,9.817436747633058,0.002223883477496441,2037,9.819660631110555,0.0002264725392291822,9e9,2223883.477496441,10,1.9739938975976057
13,9.14939472389122,0.0341844775246757,2178,9.183579201415895,0.003722347983823697,9e9,34184477.5246757,10,1.1145853106021562
14,8.759554352851175,0.04685568915664679,2272,8.806410042007823,0.005320634507493805,8e9,46855689.15664679,10,1.6881923708765878
15,11.784609810293814,0.07722823029046304,1687,11.861838040584278,0.0065106461600835525,11e9,77228230.29046303,10,0.7366488759428769
16,100.46470965667837,0.3220027624631164,199,100.78671241914148,0.0031948930045858047,100e9,322002762.46311635,100,52.396521821129
17,119.37727466045835,0.08158963196360655,168,119.45886429242196,0.0006829935346102424,119e9,81589631.96360655,100,82.08310984647767
18,102.10500923693552,0.2641515645941301,196,102.36916080152965,0.002580382241349614,102e9,264151564.59413007,100,6.635258382063862
19,93.31410671100926,0.28145523854135635,214,93.59556194955061,0.00300714299565897,93e9,281455238.5413563,100,64.94737964299223
20,105.79824230671396,0.19261411388494074,189,105.9908564205989,0.0018172710400659329,105e9,192614113.88494074,100,77.9373022082968
21,93.6915060513791,0.6161696281377916,213,94.30767567951689,0.006533610585756598,93e9,616169628.1377916,100,31.206571052814045
22,98.7245562111138,0.16697759320767316,203,98.89153380432148,0.0016884922984213677,98e9,166977593.20767316,100,21.992066082406193
23,89.3392405023658,0.17901723442299652,224,89.5182577367888,0.0019997846132055234,89e9,179017234.42299652,100,25.065323177730402
24,109.60066785147686,0.5220686490168047,182,110.12273650049366,0.0047407889197746585,109e9,522068649.0168047,100,104.68773321222169
25,115.6280277975038,0.09837967582926632,173,115.72640747333307,0.0008501056757675298,115e9,98379675.82926632,100,82.99112404806596
26,78.67706032392412,0.5222115328149178,253,79.19927185673905,0.0065936405799226164,78e9,522211532.81491786,100,33.75841187484738
27,103.68857506552462,0.2935402539502593,193,103.98211531947487,0.002822987905644981,103e9,293540253.95025927,100,31.013167844507215
28,81.47926244290937,0.39569513644668064,245,81.87495757935605,0.0048329202010658654,81e9,395695136.44668067,100,37.2538477098437
29,104.31390638704536,0.16908822036750515,192,104.48299460741286,0.001618332447331182,104e9,169088220.36750516,100,89.70006817856958
30,96.7102941026741,0.24625970362786684,207,96.95655380630197,0.00253989744849884,96e9,246259703.62786683,100,18.154936311630077
31,117.94203471061637,0.41567024163598737,169,118.35770495225236,0.0035119829486696813,117e9,415670241.63598734,100,14.630260002211532
32,101.78164153437154,0.5059533927596025,196,102.28759492713115,0.004946380771979628,101e9,505953392.7596025,100,50.45229512958671
33,96.33571925675705,0.603842321153749,207,96.9395615779108,0.00622905974944438,96e9,603842321.153749,100,12.029034417593666
34,92.028952187935,0.0102430344276603,218,92.03919522236266,0.00011128991733264917,92e9,10243034.4276603,100,29.298173679446947
35,101.29705341611513,0.022981971299724697,198,101.32003538741486,0.00022682553565885673,101e9,22981971.299724698,100,22.844894358993347
36,1149.1325652469693,2.658137113513761,18,1151.790702360483,0.002307829979931395,1149e9,2658137113.513761,1000,1036.396340725109
37,989.7710153322067,6.514524623774364,21,996.2855399559811,0.006538812782590617,989e9,6514524623.774364,1000,669.3549507729267
38,929.0343353750177,3.480609707910655,22,932.5149450829283,0.0037324975071591215,929e9,3480609707.910655,1000,833.9075593847876
39,915.4060289888395,3.951307482849204,22,919.3573364716887,0.004297901725583155,915e9,3951307482.849204,1000,475.58783489213965
40,1035.7251895651432,1.4525742674218574,20,1037.177763832565,0.0014005065650986625,1035e9,1452574267.4218574,1000,720.9409762322064
41,916.1193109315391,3.3903259036608913,22,919.5096368352,0.003687102089902866,916e9,3390325903.660891,1000,433.86476741110425
42,876.8941149425439,0.5192196161133777,23,877.4133345586572,0.0005917617110008335,876e9,519219616.11337775,1000,109.10306891212058
43,1023.066475243568,6.803222861893334,20,1029.8696981054613,0.0066059064310839315,1023e9,6803222861.893334,1000,868.0739883512981
44,962.1646305899426,0.13453824484484628,21,962.2991688347875,0.0001398091666313644,962e9,134538244.84484628,1000,13.99154928920001
45,916.3204766575674,1.808073896085758,22,918.1285505536531,0.0019693036394472724,916e9,1808073896.085758,1000,223.89622834912805
46,906.9785866527353,2.8306390100314807,22,909.8092256627668,0.003111244566650169,906e9,2830639010.031481,1000,578.7379122998649
47,967.9599864538267,1.205817336318582,21,969.1658037901452,0.0012441806464930528,967e9,1205817336.318582,1000,72.67947365347142
48,844.1444358153694,4.06484923289762,24,848.209285048267,0.004792271559095597,844e9,4064849232.89762,1000,278.2001023781198
49,1063.7224907204811,2.0639281623221652,19,1065.7864188828032,0.0019365307398884397,1063e9,2063928162.3221653,1000,568.7186426506456
50,1084.174007719627,3.263552021874823,19,1087.437559741502,0.0030011396908624453,1084e9,3263552021.874823,1000,70.93499192647282
51,698.6179159598036,1.6462859655638304,29,700.2642019253674,0.0023509497715824804,698e9,1646285965.5638304,1000,147.04408793258318
52,903.2925804552433,3.9046420148993675,23,907.1972224701427,0.004304071835964947,903e9,3904642014.8993673,1000,877.7358682840354
53,1158.7847375649876,3.6877221914283984,18,1162.472459756416,0.003172309296859491,1158e9,3687722191.4283986,1000,984.6003920295046
54,967.339348606775,0.6324405492784689,21,967.9717891560535,0.0006533667162241118,967e9,632440549.278469,1000,97.28075053321581
55,995.0577508494101,4.502589550608895,21,999.5603404000191,0.00450457002806552,995e9,4502589550.608895,1000,895.5922307672079
56,986.1121894671954,0.6134717871413309,21,986.7256612543367,0.000621724772376426,986e9,613471787.1413308,1000,427.31374749733084
57,988.9837415046788,5.352997103897314,21,994.3367386085762,0.005383485187712186,988e9,5352997103.897314,1000,861.0360294432946
58,897.1681737760808,5.312743435614288,23,902.4809172116951,0.005886820800630931,897e9,5312743435.614288,1000,262.03727536072176
59,886.6859356264963,5.134926021755774,23,891.820861648252,0.005757799848128097,886e9,5134926021.7557745,1000,845.3308331893419
60,1142.745095816368,0.28228906502901635,18,1143.027384881397,0.00024696614338623853,1142e9,282289065.0290164,1000,306.6793707803634
