app_id,Tcomp,Tio,iter,witer,alpha_io,compute_size,io_size,mu,desyn_time
1,10.42597341508499,0.022097144607522615,1915,10.448070559692512,0.002114949787262246,10e9,22097144.607522614,10,3.712565105494125
2,10.156423621525766,0.049386254940580146,1960,10.205809876466347,0.004839033407281109,10e9,49386254.940580145,10,3.042838566978343
3,8.266436536749643,0.015757766796540448,2415,8.282194303546182,0.0019026077171110864,8e9,15757766.796540448,10,5.971921686811277
4,9.082130605311386,0.042102490851055115,2192,9.124233096162442,0.0046143594105199906,9e9,42102490.851055115,10,4.895359019098186
5,10.919432743926231,0.05575377119477673,1823,10.975186515121008,0.00507998393630598,10e9,55753771.19477673,10,1.5522474013276626
6,10.39895884917353,0.062495291088759335,1912,10.461454140262289,0.005973862739429115,10e9,62495291.08875933,10,3.9779511074733294
7,104.8992872359734,0.29621715538220916,191,105.19550439135561,0.0028158727608758025,104e9,296217155.3822092,100,50.26051809152231
8,79.03435764947298,0.17003652239598865,253,79.20439417186897,0.0021468066787685945,79e9,170036522.39598864,100,9.652220825987731
9,120.35179031144831,0.13859298483573515,166,120.49038329628405,0.0011502410486564482,120e9,138592984.83573514,100,103.79654266847649
10,99.52697859434551,0.024048993665703164,201,99.55102758801121,0.00024157453969464953,99e9,24048993.665703163,100,63.45470837089075
11,83.45368561430371,0.3794262647938364,239,83.83311187909754,0.004525971376811557,83e9,379426264.7938364,100,66.76738525129095
12,95.85785624516619,0.5406138271217162,208,96.3984700722879,0.005608116256578732,95e9,540613827.1217163,100,14.908256744476498
13,107.27649185915524,0.600904786166837,186,107.87739664532208,0.005570256651098877,107e9,600904786.166837,100,87.14385359183291
14,90.68157167482066,0.0696998470476555,221,90.75127152186832,0.0007680316306186403,90e9,69699847.0476555,100,56.269590835523566
15,91.65309592867459,0.3027044301307724,218,91.95580035880536,0.0032918470498830964,91e9,302704430.1307724,100,39.12845544269975
16,104.14122051804945,0.15099473459630042,192,104.29221525264575,0.0014478044620158733,104e9,150994734.59630042,100,44.863938145229206
17,82.47078182514772,0.34334232703745876,242,82.81412415218519,0.004145939241070862,82e9,343342327.0374588,100,50.524967809558376
18,81.73290683853922,0.3291215431594621,244,82.06202838169868,0.004010643529655455,81e9,329121543.15946215,100,53.75132792304803
19,78.27445822775009,0.4051287721186665,255,78.67958699986876,0.0051490963230315665,78e9,405128772.11866647,100,38.992473337911974
20,100.40923997068506,0.10529547712475525,199,100.51453544780982,0.0010475646796321099,100e9,105295477.12475525,100,97.2408187162895
21,106.6542949089016,0.5675820605890745,187,107.22187696949068,0.005293528490930787,106e9,567582060.5890745,100,42.75686796535089
22,94.06444476377663,0.000582321709118206,213,94.06502708548575,6.190629261064214e-06,94e9,582321.709118206,100,43.179621989970144
23,120.91986459327885,0.08545736831245838,166,121.0053219615913,0.0007062281801091664,120e9,85457368.31245838,100,84.68711688433332
24,116.4287474687865,0.09579158983396253,172,116.52453905862046,0.0008220722485396169,116e9,95791589.83396253,100,43.93586346767717
25,97.78274039168933,0.2544825731069062,205,98.03722296479624,0.0025957750067878527,97e9,254482573.1069062,100,18.284852227172717
26,93.38590536218825,0.2600988050890564,214,93.64600416727731,0.0027774682689551706,93e9,260098805.08905643,100,11.07636795449067
27,1043.133010010499,5.532374410974123,20,1048.6653844214732,0.005275633670340152,1043e9,5532374410.974123,1000,315.14639613354484
28,1160.3817725280041,5.440187888329953,18,1165.8219604163342,0.004666396819620015,1160e9,5440187888.329952,1000,216.8635383739118
29,986.5790413065462,3.054239535971781,21,989.6332808425179,0.003086233653512111,986e9,3054239535.9717813,1000,463.5105730086694
30,998.1288539590366,0.5509485298750766,21,998.6798024889117,0.0005516768522823848,998e9,550948529.8750765,1000,667.6546257193943
31,935.5759726131805,3.8512037857938886,22,939.4271763989744,0.004099523499582349,935e9,3851203785.7938886,1000,580.1191144681069
32,947.1336192056411,0.6791142105151874,22,947.8127334161563,0.000716506738696671,947e9,679114210.5151874,1000,820.9133954881008
33,1079.3939683974088,0.10838573654467501,19,1079.5023541339535,0.00010040342768092344,1079e9,108385736.54467501,1000,50.908882853169324
34,1088.1672561169796,1.7615968845060284,19,1089.9288530014855,0.001616249427340949,1088e9,1761596884.5060284,1000,791.031085811571
35,1090.8731502843157,6.404312402459466,19,1097.2774626867752,0.005836547837935151,1090e9,6404312402.459466,1000,299.5853986136359
36,1058.1645585908616,4.875655376867016,19,1063.0402139677285,0.004586520164339737,1058e9,4875655376.867016,1000,287.75211471936655
37,929.3704145130779,1.5950407173745442,22,930.9654552304524,0.0017133189082506888,929e9,1595040717.3745441,1000,835.5468133656615
38,1055.486807581024,6.474364099377707,19,1061.9611716804018,0.006096610942124138,1055e9,6474364099.3777075,1000,396.71461386008804
39,951.7784986996172,1.7170581130193705,21,953.4955568126366,0.0018008034759586984,951e9,1717058113.0193706,1000,164.5682423852906
40,940.1828045317586,4.831237785004804,22,945.0140423167634,0.005112344969140046,940e9,4831237785.004804,1000,297.359723994884
41,863.8924238531888,0.7415167352996788,24,864.6339405884885,0.0008576077117617966,863e9,741516735.2996788,1000,642.5274839034812
42,1115.5971997438912,0.40352395192325075,18,1116.0007236958145,0.00036158036760667754,1115e9,403523951.92325073,1000,634.4503716158745
43,1063.113187895435,3.765744474092857,19,1066.8789323695278,0.0035296830407262566,1063e9,3765744474.0928574,1000,318.36813498819504
44,985.1720526930833,3.6569331224469597,21,988.8289858155302,0.0036982462841448037,985e9,3656933122.4469595,1000,852.9156072309312
45,992.1355675244242,4.862655764170017,21,996.9982232885942,0.004877296318674038,992e9,4862655764.170017,1000,611.89960054649
46,995.3917235288483,0.26212364567392266,21,995.6538471745222,0.0002632678479752578,995e9,262123645.67392266,1000,684.915433330892
47,879.6360794661081,5.608151307379521,23,885.2442307734876,0.006335145841593753,879e9,5608151307.379521,1000,492.3946166984173
48,1258.742713046165,5.5077833673442,16,1264.2504964135092,0.004356560177725034,1258e9,5507783367.3442,1000,479.99267423862403
49,1003.4603421847477,6.49400409764345,20,1009.9543462823912,0.006429997674199499,1003e9,6494004097.64345,1000,44.82843191581293
50,1010.7067850289977,4.629189375917386,20,1015.3359744049151,0.0045592685501274965,1010e9,4629189375.917386,1000,974.6025531319383
51,896.6031958274365,2.5177805241209716,23,899.1209763515575,0.0028002689185804472,896e9,2517780524.1209717,1000,576.3583482954685
52,915.054736187139,3.051964803826505,22,918.1067009909656,0.003324194018551812,915e9,3051964803.8265047,1000,78.20225766949538
53,1100.831168564221,3.844813473154307,19,1104.6759820373752,0.0034804897867547037,1100e9,3844813473.154307,1000,546.8621761327378
54,1164.629513102227,7.183118083264617,18,1171.8126311854917,0.006129920340590327,1164e9,7183118083.264617,1000,769.3777571993475
55,928.1153880319868,2.1700092524353183,22,930.2853972844221,0.002332627448275282,928e9,2170009252.4353185,1000,639.9202402239165
56,970.2813678545,4.969428626396439,21,975.2507964808964,0.005095539162160307,970e9,4969428626.39644,1000,770.4745852538912
57,1001.3072626012641,3.265041002982365,20,1004.5723036042465,0.0032501801923743214,1001e9,3265041002.982365,1000,730.8609730276818
58,939.0755630237577,5.2794950034965025,22,944.3550580272542,0.005590582650687868,939e9,5279495003.496503,1000,251.32393305788275
59,1027.3205182727268,2.503946321344257,20,1029.824464594071,0.0024314302169265757,1027e9,2503946321.344257,1000,109.38823332260833
60,888.054582033653,5.712527687329098,23,893.767109720982,0.006391517012874244,888e9,5712527687.329098,1000,489.6262021868503
