app_id,start_app,end_app,effective_cpu,effective_io,effective_iter,total_bytes,stretch,utilization,Tcomp,Tio,iterations,priority,group_id
app_1,6.56086,19333.2,7904.4,91.1839,791.275,4.3204e+10,1.00659,0.994356,10,0.0546194,1911,1,1
app_10,8.72916,18216.5,7906.1,88.3771,879.787,3.30997e+10,1.00766,0.994356,9,0.0376133,2000,1,1
app_11,4.33101,19802,7906.5,88.5764,879.93,3.24501e+10,1.00769,0.994356,9,0.0368751,2178,1,1
app_12,9.26007,19324.1,7914.2,79.8108,789.508,3.35913e+10,1.00657,0.994356,10,0.0425746,1911,1,1
app_13,50.5109,20109.4,7979.7,18.776,89.8943,1.15117e+10,1.0011,0.994356,89,0.127908,225,1,2
app_14,68.534,19998,7980.4,17.3611,83.8015,1.10841e+10,1.00107,0.994356,95,0.131954,210,1,2
app_15,30.4359,20061.1,7942.5,55.62,72.2967,4.42735e+10,1.00166,0.994356,110,0.61491,181,1,2
app_16,89.4664,20030.3,7976.9,20.5689,81.7795,1.54288e+10,1.00096,0.994356,98,0.188156,203,1,2
app_17,43.5345,19968.3,7941.2,56.5623,77.5175,4.43648e+10,1.00181,0.994356,102,0.576167,194,1,2
app_18,31.6804,20059,7969.7,27.1064,86.7822,1.9412e+10,1.00136,0.994356,92,0.225721,217,1,2
app_19,87.3854,20076.9,7962.5,36.3011,78.6755,2.81433e+10,1.00117,0.994356,101,0.356245,198,1,2
app_2,5.03646,19045.1,7907.8,86.4056,880.938,2.35756e+10,1.00865,0.994356,9,0.0267601,2093,1,1
app_20,105.47,19987.5,7945.9,53.3038,71.6931,4.41863e+10,1.00124,0.994356,111,0.622343,178,1,2
app_21,82.8483,20158,7958.6,39.4548,84.4068,3.15182e+10,1.00124,0.994356,93,0.370802,214,1,2
app_22,1.69508,19921.3,7962.3,36.1506,81.2822,2.81035e+10,1.0012,0.994356,97,0.346957,205,1,2
app_23,28.0079,19956.9,7944.3,51.4246,91.9701,4.29451e+10,1.0016,0.994356,86,0.466794,230,1,2
app_24,34.7776,20057.9,7979.9,18.5645,75.9632,1.45101e+10,1.0007,0.994356,105,0.190923,190,1,2
app_25,40.9841,20118.9,7929.4,68.237,76.2285,5.53968e+10,1.0019,0.994356,103,0.719439,192,1,2
app_26,30.372,19862.7,7976,20.1601,83.0302,1.39235e+10,1.00126,0.994356,96,0.167753,207,1,2
app_27,71.7202,20150.6,7988.1,9.41103,94.1909,2.63874e+09,1.00116,0.994356,84,0.0280717,238,1,2
app_28,30.2282,19995,7973,26.0066,81.0889,1.7334e+10,1.00121,0.994356,98,0.214,203,1,2
app_29,102.567,20274.3,7957.6,40.4303,75.9841,3.19449e+10,1.00131,0.994356,104,0.420328,192,1,2
app_3,8.43098,18958,7916.1,78.9872,794.859,2.84878e+10,1.00697,0.994356,10,0.0358337,1883,1,1
app_30,59.3876,19918.3,7959.7,39.6043,88.3591,3.27507e+10,1.00094,0.994356,91,0.372167,219,1,2
app_31,22.2707,19873.5,7981.2,18.1236,83.9521,1.43144e+10,1.00056,0.994356,95,0.17041,209,1,2
app_32,71.8287,19990.5,7967.8,30.9277,72.479,2.35199e+10,1.00109,0.994356,110,0.322191,180,1,2
app_33,1051.67,21110.1,7957.3,42.7,7.5398,3.85902e+10,1.00051,0.994356,1058,4.82378,19,1,3
app_34,132.06,19726.4,7994,6,8.12294,4.46413e+09,1.00019,0.994356,1000,0.558017,20,1,3
app_35,4.08412,20084.5,7968,30.5811,7.40964,2.84443e+10,1.00044,0.994356,1113,4.06347,18,1,3
app_36,880.695,21302.4,7988,6.54251,7.06587,5.81731e+09,1.00077,0.994356,1124,0.831045,18,1,3
app_37,457.512,21603.2,7961.9,38.1,7.43503,3.36435e+10,1.00056,0.994356,1046,4.80621,20,1,3
app_38,31.9975,20393.6,7970.4,24.8518,7.07036,2.06801e+10,1.00112,0.994356,1116,2.9543,18,1,3
app_39,487.485,21250.1,7986.1,12.453,8.52266,1.06257e+10,1.00041,0.994356,937,1.18063,22,1,3
app_4,7.6856,18804.7,7918,76.8068,793.617,1.69724e+10,1.0082,0.994356,10,0.0214028,1859,1,1
app_40,557.839,20604.9,7983.6,16.4,8.70892,1.42959e+10,1.00026,0.994356,919,1.78699,22,1,3
app_41,331.243,21240.5,7964,36,7.91647,3.18456e+10,1.00052,0.994356,988,3.9807,21,1,3
app_42,763.2,21462.9,7964.9,29.5153,7.24292,2.57253e+10,1.00117,0.994356,1074,3.21567,19,1,3
app_43,192.625,20654.7,7936.9,61.9392,8.96399,5.63007e+10,1.00085,0.994356,888,6.25563,23,1,3
app_44,659.415,21476,7978.8,20.356,8.65129,1.81588e+10,1.00038,0.994356,936,2.01764,22,1,3
app_45,340.707,21473.9,7979.9,20.1,7.55543,1.77564e+10,1.00029,0.994356,1049,2.53662,20,1,3
app_46,851.453,21568.7,7936.1,59.9248,7.76043,5.319e+10,1.00134,0.994356,1032,6.64875,20,1,3
app_47,552.316,21321.7,7998.8,1.2,9.85658,8.67255e+08,1.00004,0.994356,796,0.0963617,26,1,3
app_48,943.099,21083.2,7938.1,60.772,7.68151,5.66454e+10,1.00066,0.994356,1057,7.08067,19,1,3
app_49,92.9329,20688.6,7948.8,47.5157,8.46507,4.10601e+10,1.00127,0.994356,940,5.13252,22,1,3
app_5,4.58469,19593.5,7918.1,77.6394,793.168,1.80971e+10,1.00804,0.994356,10,0.022821,1943,1,1
app_50,174.814,20313,7976.9,10.9075,7.60698,1.00355e+10,1.00164,0.994356,1071,1.25444,19,1,3
app_51,545.153,20964.6,7983.2,16.8,8.93693,1.51291e+10,1.00021,0.994356,884,1.68102,23,1,3
app_52,708.84,21352.9,7952.7,40.1605,6.9767,3.55991e+10,1.00146,0.994356,1163,5.08559,18,1,3
app_53,733.746,21712.8,7942.5,56.1623,6.76307,4.85297e+10,1.00112,0.994356,1150,6.93281,18,1,3
app_54,503.004,20508.1,7956.7,36.2263,7.35066,3.3452e+10,1.00123,0.994356,1068,4.77886,19,1,3
app_55,704.765,20912.5,7990,10,8.76115,7.74357e+09,1.00028,0.994356,925,0.860396,22,1,3
app_56,152.182,21134.5,7948.5,51.5,6.91017,4.66305e+10,1.00061,0.994356,1149,6.6615,18,1,3
app_57,121.947,20626.5,7975.2,4.51187,8.46057,3.94057e+09,1.00261,0.994356,910,0.492571,22,1,3
app_58,36.1188,19934,7936,63.2291,7.97238,5.44233e+10,1.0012,0.994356,1002,6.80291,20,1,3
app_59,316.469,21741.9,7962.2,37.5973,7.22935,3.41831e+10,1.00045,0.994356,1102,4.88329,19,1,3
app_6,2.654,19914.5,7922.4,73.258,719.561,3.24599e+10,1.00567,0.994356,11,0.0451459,1793,1,1
app_60,891.348,21658.6,7986.3,3.91837,6.99053,3.35082e+09,1.0013,0.994356,1171,0.478688,18,1,3
app_7,0.954034,20011.1,7930.4,64.8075,660.929,1.70026e+10,1.00662,0.994356,12,0.0257225,1654,1,1
app_8,3.86906,18319.9,7909.98,84.5276,881.464,1.73309e+10,1.00917,0.994356,9,0.0196665,2016,1,1
app_9,2.57902,19109.7,7894.3,99.8663,987.448,4.06827e+10,1.00819,0.994356,8,0.0411768,2361,1,1
