app_id,start_app,end_app,effective_cpu,effective_io,effective_iter,total_bytes,stretch,utilization,Tcomp,Tio,iterations,priority,group_id
app_1,10.4319,19813.2,7927.7,72.3,722.281,1.17038e+10,1.00763,0.995473,11,0.0161878,1785,1,1
app_10,13.5732,20213.3,7969,31,94.1019,2.2539e+10,1.00106,0.995473,84,0.239776,238,1.00001,1.00001
app_11,47.3792,20126.5,7928,72,97.6513,5.53075e+10,1.00209,0.995473,81,0.564362,245,1.00001,1.00001
app_12,46.6547,20000.2,7931.3,68.7,83.4021,5.2125e+10,1.00208,0.995473,95,0.628011,208,1.00001,1.00001
app_13,59.3826,20000.3,7991.4,8.6,80.5664,4.04791e+09,1.00057,0.995473,100,0.0499742,200,1.00001,1.00001
app_14,52.6355,19925.6,7972.1,27.9,79.7589,1.86901e+10,1.00115,0.995473,100,0.236583,198,1.00001,1.00001
app_15,27.0386,19840.6,7967.2,32.8,83.5281,2.37507e+10,1.00113,0.995473,97,0.286153,205,1.00002,1.00002
app_16,86.1605,19997.7,7943.6,56.4,90.3541,3.82926e+10,1.00227,0.995473,88,0.420797,225,1.00002,1.00002
app_17,20.1086,19844.7,7980.4,19.6,77.7629,1.39085e+10,1.00071,0.995473,103,0.178314,193,1.00002,1.00002
app_18,34.4035,19867.4,7947.2,52.8,93.6493,4.26098e+10,1.00128,0.995473,85,0.45817,232,1.00002,1.00002
app_19,81.65,20067.1,7961.2,38.8,84.1723,2.63512e+10,1.00156,0.995473,94,0.313705,211,1.00002,1.00002
app_2,0.150249,18863.4,7911.5,88.5,881.877,2.364e+10,1.00817,0.995473,9,0.0268027,2074,1,1
app_20,41.1373,20118.3,7935.1,64.9,80.661,5.39975e+10,1.00136,0.995473,98,0.674968,203,1.00002,1.00002
app_21,27.8611,19962,7970,30,80.4789,2.2482e+10,1.00094,0.995473,99,0.277556,200,1.00002,1.00002
app_22,64.5744,19904.8,7989.3,10.7,83.1297,6.91586e+09,1.00047,0.995473,97,0.0833236,206,1.00002,1.00002
app_23,57.408,20004.5,7969.8,30.2,85.8232,2.07891e+10,1.00118,0.995473,93,0.241734,214,1.00002,1.00002
app_24,293.124,20892.6,7977.8,22.2,7.70586,1.73854e+10,1.0006,0.995473,1007,2.17318,20,1.00002,1.00002
app_25,119.11,20191.1,7963.7,36.3,8.454,3.36962e+10,1.00033,0.995473,964,4.21202,21,1.00003,1.00003
app_26,562.639,21715.5,7998.2,1.8,7.75848,1.46369e+09,1.00004,0.995473,1044,0.182961,20,1.00003,1.00003
app_27,992.278,22025.5,7935.2,64.8,6.61467,5.6105e+10,1.00109,0.995473,1215,8.015,17,1.00003,1.00003
app_28,554.316,21039.5,7989.4,10.6,9.04791,8.0895e+09,1.00031,0.995473,899,0.898833,23,1.00003,1.00003
app_29,807.507,21452.4,7931.8,68.2,8.61622,5.73803e+10,1.00135,0.995473,926,6.37559,22,1.00003,1.00003
app_3,5.2045,19971.9,7914.6,85.4,720.37,4.23203e+10,1.00541,0.995473,11,0.0587781,1796,1,1
app_30,430.853,20368.4,7947.7,52.3,8.82622,3.91371e+10,1.00165,0.995473,906,4.34856,22,1.00003,1.00003
app_31,90.3171,20319,7936.7,63.3,7.73376,4.91377e+10,1.00177,0.995473,1055,6.14222,19,1.00003,1.00003
app_32,102.024,20029.5,7985.4,14.6,8.36767,1.28198e+10,1.00022,0.995473,952,1.60248,21,1.00003,1.00003
app_33,130.619,21005.3,7981,19,6.64765,1.51506e+10,1.00048,0.995473,1165,2.5251,18,1.00003,1.00003
app_34,626.095,20786.3,7961.7,38.3,8.97908,3.37536e+10,1.00057,0.995473,874,4.2192,23,1.00003,1.00003
app_35,421.531,21222.1,7959.3,40.7,8.32506,3.18505e+10,1.00111,0.995473,946,3.53895,22,1.00004,1.00004
app_36,543.55,20831.6,7980.3,19.7,8.16044,1.60431e+10,1.00046,0.995473,950,2.00539,21,1.00004,1.00004
app_37,636.339,21291.6,7984.9,15.1,8.00618,1.09853e+10,1.00051,0.995473,988,1.37316,21,1.00004,1.00004
app_38,995.62,21210.4,7983.3,16.7,7.49412,1.22291e+10,1.00056,0.995473,1058,1.52864,19,1.00004,1.00004
app_39,963.798,21893,7970.5,29.5,7.33685,2.62246e+10,1.00041,0.995473,1100,3.74637,19,1.00004,1.00004
app_4,50.6056,20038.1,7933.3,66.7,69.5762,5.19379e+10,1.00185,0.995473,115,0.74197,172,1,1
app_40,483.434,20468.7,7996.2,3.8,8.77763,2.54825e+09,1.00016,0.995473,908,0.283139,22,1.00004,1.00004
app_41,617.812,21053.8,7977.2,22.8,7.60619,1.89527e+10,1.00048,0.995473,1013,2.70752,20,1.00004,1.00004
app_42,891.241,21261.6,7995.2,4.8,7.10094,3.42617e+09,1.00017,0.995473,1114,0.489453,18,1.00004,1.00004
app_43,56.7028,20635.5,7976.2,23.8,8.59646,1.87135e+10,1.00064,0.995473,940,2.07928,22,1.00004,1.00004
app_44,588.056,21162.5,7988.3,11.7,8.16718,7.01785e+09,1.00059,0.995473,963,0.877231,21,1.00004,1.00004
app_45,967.48,21286.8,7958.7,41.3,7.81103,3.66746e+10,1.00058,0.995473,998,4.58432,20,1.00004,1.00004
app_46,573.114,20638.3,7934.8,65.2,7.89233,5.42111e+10,1.00138,0.995473,1003,6.77639,20,1.00005,1.00005
app_47,32.2769,20533.8,7990.7,9.3,9.05826,7.42297e+09,1.00023,0.995473,907,0.824775,23,1.00005,1.00005
app_48,725.765,20789.4,7947.3,52.7,8.52399,4.13275e+10,1.00142,0.995473,956,5.16594,21,1.00005,1.00005
app_49,1075.15,21996.6,7965.1,34.9,6.67553,3.04203e+10,1.00056,0.995473,1149,4.34576,18,1.00005,1.00005
app_5,6.26483,19959,7988.2,11.8,90.5785,8.94304e+09,1.00036,0.995473,89,0.0993672,224,1.00001,1.00001
app_50,7.97947,19991.3,7984.2,15.8,9.94513,1.3753e+10,1.00026,0.995473,810,1.3753,25,1.00005,1.00005
app_51,1016.34,21597.1,7997.2,2.8,7.3223,2.64777e+09,1.00002,0.995473,1081,0.378254,19,1.00005,1.00005
app_52,874.601,21576.9,7995.6,4.4,7.90854,3.17657e+09,1.00015,0.995473,993,0.397072,21,1.00005,1.00005
app_53,0.609197,20661.5,7943.8,56.2,7.25819,4.57866e+10,1.0013,0.995473,1091,6.54094,19,1.00005,1.00005
app_54,553.175,21059.1,7949.4,50.6,9.1714,4.26749e+10,1.00099,0.995473,853,4.74165,24,1.00005,1.00005
app_55,767.727,21574.5,7974.8,25.2,7.68763,2.09921e+10,1.00053,0.995473,1025,2.99887,20,1.00005,1.00005
app_56,215.104,20182.2,7959.3,40.7,7.6582,3.2164e+10,1.00107,0.995473,1069,4.0205,19,1.00006,1.00006
app_57,790.043,21191.9,7997.2,2.8,8.13363,1.76292e+09,1.00013,0.995473,987,0.220365,21,1.00006,1.00006
app_58,476.961,21191.9,7959.9,40.1,7.32312,3.53132e+10,1.0006,0.995473,1094,5.04475,19,1.00006,1.00006
app_59,24.8223,20492.6,7973.5,26.5,11.0263,2.19664e+10,1.00057,0.995473,723,1.99694,28,1.00006,1.00006
app_6,47.0787,19991.7,7943.4,56.6,115.518,4.15111e+10,1.00189,0.995473,69,0.357855,288,1.00001,1.00001
app_60,306.414,20015,7935.5,64.5,8.53422,5.2895e+10,1.00145,0.995473,957,6.61188,21,1.00006,1.00006
app_7,35.5339,19940.9,7938.4,61.6,81.4697,4.61091e+10,1.00194,0.995473,98,0.562307,202,1.00001,1.00001
app_8,62.308,19972.4,7990.7,9.3,77.6823,6.12025e+09,1.0004,0.995473,103,0.0784647,193,1.00001,1.00001
app_9,65.3792,20009.9,7936.6,63.4,83.4536,4.91554e+10,1.00178,0.995473,95,0.592233,209,1.00001,1.00001
