app_id,start_app,end_app,effective_cpu,effective_io,effective_iter,total_bytes,stretch,utilization,Tcomp,Tio,iterations,priority,group_id
app_1,3.09553,18779.8,7722.1,74.5923,770.594,3.0278e+10,1.03194,0.986123,10,0.0392711,1819,1,1
app_10,2.30999,19391.2,7702.6,81.1926,854.559,2.95985e+10,1.03463,0.986123,9,0.0346182,2074,1,1
app_11,0.00763748,18563.7,7668.45,94.0243,958.298,4.39418e+10,1.03729,0.986123,8,0.0458205,2223,1,1
app_12,2.64369,20644.7,7662.9,86.346,956.128,1.78238e+10,1.04157,0.986123,8,0.0186442,2481,1,1
app_13,4.52447,19631,7784.78,66.3045,707.338,2.22774e+10,1.02471,0.986123,11,0.0314653,1731,1,1
app_14,11.094,20471.6,7738.32,72.8132,705.205,3.99713e+10,1.0285,0.986123,11,0.0566166,1803,1,1
app_15,7.93318,18587.4,7676.2,93.0227,962.55,3.54924e+10,1.03739,0.986123,8,0.0368561,2229,1,1
app_16,2.26727,19046.3,7698.2,71.0954,856.347,2.79393e+08,1.03917,0.986123,9,0.000326013,2039,1,1
app_17,10.0171,19780.6,7752.27,76.5718,776.038,3.44482e+10,1.02739,0.986123,10,0.0443678,1918,1,1
app_18,92.8516,20196.5,7941.6,33.487,83.0038,2.98874e+10,1.00358,0.986123,95,0.360089,210,1,1
app_19,60.305,20169.5,7969.1,7.13294,85.1752,7.96335e+07,1.00387,0.986123,93,0.000925971,215,1,1
app_2,1.94677,18770.7,7738.85,82.4384,774.32,5.60639e+10,1.02631,0.986123,10,0.0723406,1814,1,1
app_20,2.35337,20106.7,7968.7,22.4979,74.1522,1.93689e+10,1.00149,0.986123,107,0.261742,186,1,1
app_21,53.2619,20093.9,7963.1,16.8662,82.9414,1.30103e+10,1.003,0.986123,96,0.156751,207,1,1
app_22,72.9844,20000.9,7924.87,49.6607,100.577,4.29453e+10,1.00404,0.986123,79,0.425201,250,1,1
app_23,40.3926,20115.2,7938.1,50.6252,83.9153,4.83103e+10,1.0017,0.986123,94,0.575122,211,1,1
app_24,79.4401,20187.4,7934.4,48.2501,69.0616,4.51814e+10,1.00256,0.986123,114,0.654803,174,1,1
app_25,60.7423,20100.6,7933.8,42.7578,88.2305,3.53947e+10,1.00387,0.986123,90,0.402212,221,1,1
app_26,69.7843,20019,7965.5,9.55774,93.947,4.9337e+09,1.00371,0.986123,85,0.0524861,234,1,1
app_27,66.6724,20008.3,7964,14.9979,76.4516,1.1033e+10,1.00313,0.986123,104,0.145171,191,1,1
app_28,16.254,20107,7969,15.3238,80.3667,9.15505e+09,1.00274,0.986123,99,0.113025,201,1,1
app_29,23.4773,20043.4,7940.5,26.4096,65.9164,2.25811e+10,1.00464,0.986123,120,0.342138,166,1,1
app_3,7.34713,18663.1,7630.3,107.391,1088.43,4.82776e+10,1.04186,0.986123,7,0.0443321,2536,1,1
app_30,36.3935,19982.8,7972.2,6.95388,85.6257,3.61287e+07,1.00348,0.986123,93,0.000425044,214,1,1
app_31,85.0415,20261.6,7923.3,55.5513,92.3405,5.2836e+10,1.00299,0.986123,85,0.574305,233,1,1
app_32,83.653,19975.7,7940.5,39.5142,78.4467,3.62155e+10,1.00292,0.986123,101,0.464302,196,1,1
app_33,38.5,19994.1,7938.91,30.2376,96.3015,2.74657e+10,1.00422,0.986123,82,0.283151,242,1,1
app_34,33.1889,19965.5,7957.1,16.9753,85.5305,1.21113e+10,1.00386,0.986123,93,0.14083,214,1,1
app_35,68.3941,20038.2,7934.8,52.7421,89.14,4.66668e+10,1.00232,0.986123,89,0.524347,223,1,1
app_36,66.4699,20063.4,7951.2,30.0022,73.6221,2.7042e+10,1.00273,0.986123,107,0.365433,186,1,1
app_37,93.9168,19879.5,7956.7,23.5522,75.5305,2.09107e+10,1.00281,0.986123,106,0.275141,187,1,1
app_38,822.866,21576.9,7959.4,39.1284,8.13902,3.86321e+10,1.00025,0.986123,977,4.82902,21,1,1
app_39,798.068,21554.6,7949.9,46.0201,9.83198,4.56355e+10,1.00056,0.986123,825,4.56355,25,1,1
app_4,6.5372,18973.8,7629.39,105.2,1088.28,4.37052e+10,1.0426,0.986123,7,0.0401333,2585,1,1
app_40,900.886,21231.5,7987.1,4.8443,7.80325,4.55366e+09,1.00104,0.986123,1024,0.650523,20,1,1
app_41,278.305,20848.6,7983.9,14.5064,8.45825,1.43573e+10,1.00022,0.986123,924,1.79466,22,1,1
app_42,909.566,21415.9,7976.8,16.8609,7.67312,1.66175e+10,1.00082,0.986123,1082,2.07719,19,1,1
app_43,909.171,20887.2,7953.1,46.8447,7.16363,4.63836e+10,1.00006,0.986123,1114,6.62623,18,1,1
app_44,747.95,20666.4,7956.1,43.0441,10.5823,4.28673e+10,1.00013,0.986123,783,3.89703,26,1,1
app_45,1080.37,21495.3,7968.8,31.1486,6.51944,3.06167e+10,1.00007,0.986123,1177,5.10279,17,1,1
app_46,784.602,21354.6,7975.3,22.5577,6.81062,2.23463e+10,1.00029,0.986123,1167,3.19232,18,1,1
app_47,468.422,20924.6,7995.8,2.37459,6.81022,2.08048e+09,1.00027,0.986123,1141,0.346746,18,1,1
app_48,322.948,20755.3,7960.3,35.2876,8.6221,3.48467e+10,1.00061,0.986123,943,4.35584,22,1,1
app_49,573.088,21462.7,7977.5,22.4995,8.74942,2.24046e+10,1.00001,0.986123,904,2.4894,23,1,1
app_5,4.00539,18591.9,7684,88.878,857.072,5.23783e+10,1.03408,0.986123,9,0.0611182,1991,1,1
app_50,623.2,21279.3,7974.6,25.1662,7.71427,2.4764e+10,1.00008,0.986123,1014,3.53771,20,1,1
app_51,378.74,21230.4,7996.2,0.882762,8.30847,5.43611e+08,1.00041,0.986123,941,0.0604012,22,1,1
app_52,400.121,20578.8,7951.8,47.9455,7.79091,4.73863e+10,1.0001,0.986123,1010,5.92328,20,1,1
app_53,333.9,20113.1,7974.1,25.4205,8.38043,2.48971e+10,1.00013,0.986123,956,3.11214,21,1,1
app_54,189.815,20959,7995.7,3.83336,8.28286,3.24542e+09,1.00013,0.986123,941,0.405678,22,1,1
app_55,562.711,20987.5,7994.4,5.59835,7.77798,5.54178e+09,1.00001,0.986123,1007,0.692723,20,1,1
app_56,97.5949,20759.7,7962,35.8674,8.11512,3.53299e+10,1.00033,0.986123,989,4.41623,21,1,1
app_57,640.077,21199.2,7996,1.48183,8.01421,1.08775e+09,1.00036,0.986123,980,0.135969,21,1,1
app_58,114.214,20522.2,7949.4,50.3473,7.84399,4.99077e+10,1.00009,0.986123,1001,6.23846,20,1,1
app_59,835.785,21345.6,7950.7,46.7221,9.09778,4.61001e+10,1.0004,0.986123,857,5.12224,24,1,1
app_6,4.75162,20560.6,7740.2,65.0659,773.797,3.09083e+09,1.03315,0.986123,10,0.00399332,1986,1,1
app_60,1052.28,21820.3,7990.1,9.36283,6.82708,9.09835e+09,1.0001,0.986123,1141,1.29976,18,1,1
app_7,2.79251,18810.5,7712.8,79.9076,859.337,2.44247e+10,1.03396,0.986123,9,0.0284009,2019,1,1
app_8,1.28688,19984.2,7708.5,87.2728,855.136,4.87229e+10,1.0313,0.986123,9,0.0569859,2137,1,1
app_9,3.87833,19184.2,7722.6,68.4838,772.15,1.01334e+10,1.03456,0.986123,10,0.0131262,1860,1,1
