app_id,start_app,end_app,effective_cpu,effective_io,effective_iter,total_bytes,stretch,utilization,Tcomp,Tio,iterations,priority,group_id
app_1,3.9032,18385.1,7912,88,877.295,4.17584e+10,1.00581,0.994222,9,0.047615,2019,0.100947,1
app_10,2.06802,19635.7,7911.9,88.1,879.187,3.62407e+10,1.00652,0.994222,9,0.0411826,2157,0.107834,1.00001
app_11,2.80082,18956.8,7927.1,72.9,720.477,3.92668e+10,1.00422,0.994222,11,0.0544615,1706,0.0852696,1.00001
app_12,1.26058,19017.4,7900.8,99.2,988.92,5.35181e+10,1.00574,0.994222,8,0.0541682,2346,0.117293,1.00001
app_13,7.83078,19453.6,7912.4,87.6,876.118,9.60757e+09,1.00985,0.994222,9,0.0109675,2132,0.106582,1.00001
app_14,1.14446,18776.8,7912.2,87.8,878.528,9.74633e+09,1.00985,0.994222,9,0.0111006,2063,0.103103,1.00001
app_15,8.8995,20120.3,7946.3,53.7,78.2726,4.22327e+10,1.00144,0.994222,101,0.541445,197,0.00981152,1.00002
app_16,81.5958,20059.5,7990.8,9.2,92.4482,3.35795e+09,1.00073,0.994222,86,0.0364994,231,0.011538,1.00002
app_17,31.8355,19982.6,7956.1,43.9,98.8271,3.52209e+10,1.00109,0.994222,81,0.355767,245,0.0122363,1.00002
app_18,61.4215,20200,7941.8,58.2,77.7088,4.77437e+10,1.00131,0.994222,102,0.612099,195,0.00973558,1.00002
app_19,113.554,20150.8,7939.7,60.3,70.1094,5.07053e+10,1.0012,0.994222,113,0.724362,176,0.00878166,1.00002
app_2,1.69622,18412.8,7887.3,112.7,1127.54,4.2709e+10,1.00883,0.994222,7,0.0378962,2592,0.129573,1
app_20,39.0736,19937.9,7992.8,7.2,71.1937,1.43763e+09,1.00072,0.994222,113,0.0199671,177,0.00881594,1.00002
app_21,52.2754,20075.4,7991,9,81.4492,5.90561e+09,1.00039,0.994222,99,0.0729088,202,0.0100661,1.00002
app_22,16.7162,19922.9,7941.1,58.9,86.2189,4.8758e+10,1.00127,0.994222,92,0.566953,215,0.0107039,1.00002
app_23,100.193,20210.5,7959.6,40.4,72.3682,3.15718e+10,1.0011,0.994222,110,0.438497,182,0.00905424,1.00002
app_24,91.9278,20087.2,7956.3,43.7,81.0555,3.58524e+10,1.00098,0.994222,98,0.442622,203,0.0101322,1.00002
app_25,43.495,19966,7973.2,26.8,84.0976,1.71268e+10,1.00121,0.994222,95,0.203891,209,0.0104416,1.00003
app_26,97.012,20150.3,7967.4,32.6,75.7406,2.5604e+10,1.00088,0.994222,105,0.336895,190,0.00946665,1.00003
app_27,37.7536,19953,7984.6,15.4,73.8513,9.92895e+09,1.00068,0.994222,109,0.134175,183,0.00914114,1.00003
app_28,34.275,20131.5,7948.8,51.2,80.6681,4.25848e+10,1.00108,0.994222,98,0.532311,203,0.0101393,1.00003
app_29,48.1523,19912.6,7971.8,28.2,73.9976,2.17888e+10,1.0008,0.994222,108,0.294443,184,0.00919396,1.00003
app_3,8.7423,18283.3,7912.2,87.8,875.978,4.50864e+10,1.00537,0.994222,9,0.0514685,2001,0.100026,1
app_30,91.7088,20248.3,7963,37,69.0465,2.82137e+10,1.0011,0.994222,115,0.408894,174,0.00865667,1.00003
app_31,13.7174,19917.3,7982.5,17.5,85.8508,8.94456e+09,1.00107,0.994222,93,0.104007,214,0.0106967,1.00003
app_32,2.23702,19911.5,7976.5,23.5,72.8956,1.60021e+10,1.00094,0.994222,111,0.219208,179,0.00893954,1.00003
app_33,26.1919,20002.8,7955.3,44.7,80.5631,3.43807e+10,1.00129,0.994222,99,0.429759,201,0.010002,1.00003
app_34,26.2947,20148.9,7942.6,57.4,82.7185,4.75148e+10,1.00124,0.994222,96,0.579449,207,0.0103114,1.00003
app_35,532.662,21286.3,7981.4,18.6,8.1405,1.39749e+10,1.00058,0.994222,973,1.74686,21,0.00102584,1.00004
app_36,931.914,21384.8,7967.7,32.3,8.1396,2.68089e+10,1.00069,0.994222,964,3.35112,21,0.00103328,1.00004
app_37,264.308,21003.5,7977.6,22.4,6.63834,1.79216e+10,1.00056,0.994222,1209,2.56023,17,0.000825312,1.00004
app_38,126.922,19996.5,7935,65,10.0065,5.3549e+10,1.00143,0.994222,803,5.3549,25,0.00123605,1.00004
app_39,87.9448,20657.2,7984.5,15.5,9.79679,1.18702e+10,1.00045,0.994222,824,1.31891,25,0.00121054,1.00004
app_4,11.1487,19418.8,7927.7,72.3,722.899,1.07933e+10,1.00775,0.994222,11,0.0149284,1750,0.0874609,1
app_40,555.909,21548,7939.6,60.4,7.76336,4.86458e+10,1.00147,0.994222,1042,6.9494,20,0.000953294,1.00004
app_41,634.674,20704.2,7982.2,17.8,7.03303,1.18748e+10,1.00074,0.994222,1128,1.6964,18,0.000884731,1.00004
app_42,175.148,20680.2,7965.1,34.9,8.65723,2.70666e+10,1.00098,0.994222,928,3.38333,22,0.0010733,1.00004
app_43,218.577,21734.6,7970.2,29.8,7.12236,2.32386e+10,1.00082,0.994222,1104,3.31981,19,0.000902501,1.00004
app_44,433.03,20411,7929.9,70.1,7.4142,5.30756e+10,1.00213,0.994222,1108,6.63444,18,0.000897152,1.00004
app_45,601.932,20567.3,7990.4,9.6,7.03837,8.59119e+09,1.00013,0.994222,1122,1.22731,18,0.000889929,1.00004
app_46,286.787,20787.1,7965.5,34.5,8.61756,2.61299e+10,1.00105,0.994222,947,3.26623,22,0.0010515,1.00005
app_47,569.279,21573.8,7981.7,18.3,7.30613,1.62324e+10,1.00026,0.994222,1104,2.02905,19,0.000903455,1.00005
app_48,595.578,21707.6,7985.9,14.1,7.25537,9.27622e+09,1.0006,0.994222,1047,1.32517,20,0.000953439,1.00005
app_49,55.252,20588.5,7962.6,37.4,8.5447,2.65761e+10,1.00135,0.994222,937,3.32201,22,0.00106271,1.00005
app_5,4.27833,18817.5,7918.7,81.3,789.899,4.89467e+10,1.00406,0.994222,10,0.0619578,1860,0.092953,1.00001
app_50,245.769,20470.6,7991.4,8.6,8.31042,5.48352e+09,1.00039,0.994222,959,0.609281,21,0.00104181,1.00005
app_51,822.205,20979.7,7975,25,9.33187,1.77753e+10,1.0009,0.994222,839,1.97503,24,0.00118781,1.00005
app_52,919.51,22080.3,7952.7,47.3,7.21491,3.78886e+10,1.00118,0.994222,1103,5.41266,19,0.000901394,1.00005
app_53,521.112,20711.6,7954.4,45.6,10.0224,2.97733e+10,1.00198,0.994222,800,2.97733,25,0.00124411,1.00005
app_54,791.491,20884.1,7980.2,19.8,8.77134,1.45731e+10,1.00065,0.994222,921,1.61923,22,0.00108307,1.00005
app_55,7.99152,20093.7,7948,52,7.89307,4.59636e+10,1.00076,0.994222,995,6.56623,20,0.000998012,1.00005
app_56,145.987,20788.5,7993.5,6.5,7.75185,4.00271e+09,1.00031,0.994222,1010,0.500339,20,0.000989179,1.00006
app_57,704.017,21635.3,7940.8,59.2,8.79241,4.59684e+10,1.00166,0.994222,892,5.1076,23,0.00111403,1.00006
app_58,433.863,20816.4,7985.1,14.9,9.11855,1.2802e+10,1.00026,0.994222,890,1.42244,23,0.00112087,1.00006
app_59,81.6849,20173.3,7955.4,44.6,7.42748,3.66156e+10,1.001,0.994222,1050,4.57695,19,0.000947499,1.00006
app_6,8.35616,18721.5,7912.4,87.6,875.729,5.31534e+09,1.01039,0.994222,9,0.00606774,2052,0.102557,1.00001
app_60,30.6289,20212.6,7964.8,35.2,7.48813,2.53936e+10,1.00123,0.994222,1069,3.1742,19,0.000932205,1.00006
app_7,2.3684,20005.1,7920.8,79.2,791.893,1.8452e+10,1.00765,0.994222,10,0.0232979,1981,0.0990087,1.00001
app_8,9.84676,19720.7,7927.9,72.1,720.915,2.03365e+10,1.00651,0.994222,11,0.028206,1776,0.088763,1.00001
app_9,0.15024,18082.5,7901.6,98.4,983.88,2.76082e+10,1.00893,0.994222,8,0.0280571,2227,0.111313,1.00001
