app_id,start_app,end_app,effective_cpu,effective_io,effective_iter,total_bytes,stretch,utilization,Tcomp,Tio,iterations,priority,group_id
app_1,6.84382,19947.4,7791.77,70.6657,778.375,1.99668e+10,1.0241,0.982316,10,0.0256643,1943,1,1
app_10,9.40635,19681.1,7785.54,77.5973,775.792,3.82799e+10,1.02252,0.982316,10,0.0493934,1913,1,1
app_11,4.30989,18585.8,7760.2,87.5023,861.71,4.35744e+10,1.02514,0.982316,9,0.0505504,2004,1,1
app_12,9.11578,18675.8,7771.8,87.1341,774.161,5.97751e+10,1.02151,0.982316,10,0.0772288,1809,1,1
app_13,8.8798,19663.3,7777.2,80.6795,775.447,4.26558e+10,1.02304,0.982316,10,0.0550398,1912,1,1
app_14,4.05513,20040.9,7791.9,67.2008,778.434,1.11119e+10,1.02525,0.982316,10,0.0142826,1951,1,1
app_15,11.4252,19187,7832.8,59.6576,711.147,5.98679e+09,1.02057,0.982316,11,0.00842024,1704,1,1
app_16,8.1344,19027.7,7787.1,63.9552,778.069,1.08231e+10,1.02591,0.982316,10,0.0138936,1852,1,1
app_17,6.41908,18665.4,7753.2,85.3689,968.268,1.95679e+10,1.02923,0.982316,8,0.0201939,2266,1,1
app_18,2.31256,18699.2,7784.6,85.0739,779.565,5.52795e+10,1.02042,0.982316,10,0.0708712,1824,1,1
app_19,5.07145,19331,7779.9,79.5283,778.85,3.87242e+10,1.0232,0.982316,10,0.049774,1879,1,1
app_2,5.62031,20164.2,7783.1,71.1229,779.87,2.23922e+10,1.02492,0.982316,10,0.0287079,1965,1,1
app_20,5.37266,19018.3,7781.1,80.4153,776.405,4.52286e+10,1.02219,0.982316,10,0.0582842,1849,1,1
app_21,8.02573,20180,7777.5,70.9648,863.351,9.65111e+09,1.02733,0.982316,9,0.0111832,2180,1,1
app_22,10.2212,20055.9,7783.3,76.3895,777.159,3.60342e+10,1.02311,0.982316,10,0.0463165,1951,1,1
app_23,6.73414,18734,7746.7,93.0527,968.956,3.80027e+10,1.02766,0.982316,8,0.0392185,2267,1,1
app_24,5.17598,20208.9,7783.1,64.9293,776.605,1.00598e+10,1.02654,0.982316,10,0.0129637,1974,1,1
app_25,8.0027,20048.9,7808.5,68.3644,708.634,2.9075e+10,1.02072,0.982316,11,0.0410085,1781,1,1
app_26,5.58106,19458.9,7753.3,87.2211,971.05,2.37042e+10,1.02867,0.982316,8,0.0244122,2359,1,1
app_27,5.25845,19638,7780.9,84.7417,776.77,5.39397e+10,1.02108,0.982316,10,0.0694205,1907,1,1
app_28,0.260395,18661.2,7785.4,71.5314,865.954,5.50784e+09,1.02684,0.982316,9,0.00636009,2017,1,1
app_29,7.10078,18836.5,7798.88,63.0505,780.335,7.84428e+09,1.02476,0.982316,10,0.0100568,1840,1,1
app_3,5.28864,19932.9,7808.8,69.737,599.739,5.60552e+10,1.01718,0.982316,13,0.0934253,1500,1,1
app_30,8.95701,19992.1,7783.2,81.6437,779.326,4.41793e+10,1.02205,0.982316,10,0.0566401,1950,1,1
app_31,0.0467073,19336.3,7771.4,85.464,864.991,4.057e+10,1.02407,0.982316,9,0.0469017,2088,1,1
app_32,4.98649,19453.2,7768.5,76.7773,966.891,1.65838e+09,1.02958,0.982316,8,0.00171497,2354,1,1
app_33,8.12709,18881.7,7765.5,81.445,969.248,1.23992e+10,1.02856,0.982316,8,0.0127959,2289,1,1
app_34,5.93279,19883.1,7777.9,75.2764,779.139,3.45901e+10,1.024,0.982316,10,0.0444032,1937,1,1
app_35,74.2587,19948.1,7954.6,35.6621,86.1188,3.23678e+10,1.00163,0.982316,92,0.376369,215,1,1
app_36,90.6962,19938.5,7965.6,14.9034,80.4004,1.00154e+10,1.00306,0.982316,99,0.125193,200,1,1
app_37,74.5229,19977.6,7940,47.9597,81.0045,4.32044e+10,1.0021,0.982316,98,0.533387,202,1,1
app_38,5.00529,20015.2,7957.9,32.2642,66.8679,2.86337e+10,1.00169,0.982316,120,0.433844,166,1,1
app_39,10.5967,20060.5,7963.1,15.3496,81.7241,9.01525e+09,1.0035,0.982316,97,0.109942,206,1,1
app_4,10.0708,20039.2,7814.5,66.4894,709.894,2.32569e+10,1.0207,0.982316,11,0.0327562,1780,1,1
app_40,76.1793,20047.3,7938.9,37.0414,73.807,3.33295e+10,1.00348,0.982316,108,0.450399,184,1,1
app_41,38.56,20060.3,7933.2,50.494,81.8411,4.85968e+10,1.00228,0.982316,97,0.592644,204,1,1
app_42,73.0271,19963.8,7958.9,12.224,108.99,8.92201e+09,1.00404,0.982316,73,0.0818533,272,1,1
app_43,12.9153,20068.1,7972,14.5195,76.3443,9.34454e+09,1.00234,0.982316,105,0.122954,190,1,1
app_44,67.6807,20093.2,7944,27.1001,92.4457,2.16773e+10,1.00431,0.982316,86,0.235623,231,1,1
app_45,84.4517,19960.1,7980.5,14.3588,73.8408,9.6972e+09,1.00123,0.982316,109,0.131043,183,1,1
app_46,79.0583,19955,7950.4,42.3172,81.8841,4.0752e+10,1.00111,0.982316,97,0.496976,204,1,1
app_47,44.9885,19974.8,7958.3,22.8643,76.7818,1.84747e+10,1.00291,0.982316,104,0.239931,191,1,1
app_48,22.5878,20158.2,7938.3,43.5512,72.5783,4.03619e+10,1.00267,0.982316,108,0.560582,184,1,1
app_49,41.3137,19905.3,7953.9,33.5056,79.9846,3.12693e+10,1.00186,0.982316,100,0.390867,199,1,1
app_5,2.18546,19469.2,7793.93,68.002,776.179,1.70978e+10,1.02419,0.982316,10,0.0220332,1895,1,1
app_50,32.1384,20079.1,7937.2,51.5788,73.188,4.82982e+10,1.00182,0.982316,109,0.661619,183,1,1
app_51,43.2492,19900.6,7982.6,5.61986,78.7032,7.3778e+07,1.00217,0.982316,101,0.000933899,197,1,1
app_52,31.8238,19985.2,7946.4,37.0554,76.8165,3.1475e+10,1.00277,0.982316,104,0.408766,191,1,1
app_53,1.24227,20195.7,7940.7,35.7804,73.1799,3.02793e+10,1.00364,0.982316,108,0.40918,184,1,1
app_54,34.8006,19866,7973,19.4955,94.1227,1.48023e+10,1.00153,0.982316,85,0.155814,234,1,1
app_55,914.929,21207.2,7979.4,20.4547,7.10926,2.02874e+10,1.00004,0.982316,1135,2.89821,18,1,1
app_56,1094.95,22142.5,7947.4,52.3573,7.24345,5.18277e+10,1.0001,0.982316,1090,7.40396,19,1,1
app_57,26.0282,20508,7973.3,14.5691,8.49702,1.43136e+10,1.00155,0.982316,942,1.5904,22,1,1
app_58,323.6,21233.4,7978.7,20.8253,8.4765,2.03769e+10,1.00012,0.982316,942,2.54712,22,1,1
app_59,476.339,21291.8,7952.5,46.2243,6.54953,4.58269e+10,1.00021,0.982316,1237,6.5467,17,1,1
app_6,0.186757,20261.4,7779.4,78.3,863.605,2.40522e+10,1.02519,0.982316,9,0.0278382,2189,1,1
app_60,637.424,21507.6,7942.9,53.7575,8.01754,5.341e+10,1.00046,0.982316,984,6.67626,21,1,1
app_7,8.47954,19640.5,7781.2,67.8148,862.816,1.73801e+08,1.0281,0.982316,9,0.000201392,2122,1,1
app_8,2.80901,19925.1,7807.84,64.0423,781.339,9.61592e+09,1.02335,0.982316,10,0.0123024,1944,1,1
app_9,4.37409,19936.5,7797.9,63.6365,709.229,1.91049e+10,1.02341,0.982316,11,0.0269463,1771,1,1
