app_id,start_app,end_app,effective_cpu,effective_io,effective_iter,total_bytes,stretch,utilization,Tcomp,Tio,iterations,priority,group_id
app_1,7.07778,18565.7,7763.4,100.839,971.26,6.02612e+10,1.02254,0.984977,8,0.062061,2254,1,1
app_10,1.82781,18766.8,7789.8,79.942,865.516,2.76409e+10,1.02335,0.984977,9,0.0319548,2033,1,1
app_11,7.47374,20217.2,7810.3,69.0526,780.849,1.89294e+10,1.02181,0.984977,10,0.0242374,1976,1,1
app_12,4.85838,18410.7,7756.2,91.8494,968.309,3.53529e+10,1.02675,0.984977,8,0.0364839,2227,1,1
app_13,9.51101,19649,7817.3,78.9778,708.344,5.76083e+10,1.01588,0.984977,11,0.0812529,1740,1,1
app_14,0.791831,19009.3,7802.2,67.4469,867.679,3.45221e+08,1.02531,0.984977,9,0.000398179,2062,1,1
app_15,3.35445,17795.1,7720.5,112.055,1282.26,1.85857e+10,1.03371,0.984977,6,0.0144861,2854,1,1
app_16,4.99926,20214.9,7827,75.647,711.182,4.70783e+10,1.01599,0.984977,11,0.0662143,1798,1,1
app_17,6.06503,18893,7750.3,101.403,973.255,5.79918e+10,1.02455,0.984977,8,0.0595399,2291,1,1
app_18,0.352101,18738.2,7798.1,84.898,783.738,5.54454e+10,1.01865,0.984977,10,0.0707212,1831,1,1
app_19,3.16482,18740,7785.8,79.7532,973.827,4.42299e+09,1.02693,0.984977,8,0.00454573,2283,1,1
app_2,4.62297,19363.7,7859.8,58.1508,715.154,3.64467e+09,1.01737,0.984977,11,0.00509744,1729,1,1
app_20,5.27835,18378.3,7758.2,83.1707,969.248,1.85008e+10,1.02871,0.984977,8,0.0190927,2231,1,1
app_21,6.67968,18899.7,7792.3,73.4656,866.198,1.2872e+10,1.02496,0.984977,9,0.0148638,2043,1,1
app_22,8.05301,20128.3,7782.1,78.5976,864.564,2.75055e+10,1.02438,0.984977,9,0.0318351,2175,1,1
app_23,7.69991,20129.1,7816.8,80.0679,783.298,4.33871e+10,1.01779,0.984977,10,0.0553407,1966,1,1
app_24,3.98105,20207.6,7815.7,63.9284,708.741,1.89853e+10,1.0211,0.984977,11,0.0268154,1794,1,1
app_25,7.83216,19476.6,7796.6,73.2274,863.467,1.5062e+10,1.02411,0.984977,9,0.0174329,2103,1,1
app_26,6.49615,20150.9,7827.2,65.3805,782.262,8.05235e+09,1.02103,0.984977,10,0.010284,1971,1,1
app_27,6.90051,19358.7,7778,87.2874,864.754,4.31053e+10,1.02287,0.984977,9,0.0498904,2093,1,1
app_28,4.77997,20001.8,7824.9,62.3181,710.711,1.35413e+10,1.02061,0.984977,11,0.0190455,1781,1,1
app_29,3.99219,19288.2,7801,75.6372,869.044,1.56385e+10,1.02346,0.984977,9,0.017996,2089,1,1
app_3,2.18958,18543.9,7768.3,79.4932,967.388,7.13324e+09,1.02888,0.984977,8,0.00736905,2253,1,1
app_30,24.9499,19887.1,7944.6,52.2122,64.0819,5.10084e+10,1.00055,0.984977,125,0.797006,159,1,1
app_31,80.0346,20154.3,7929,58.526,75.2381,5.27425e+10,1.00229,0.984977,104,0.703233,190,1,1
app_32,48.5587,19824.9,7949.4,40.7538,83.6363,3.46112e+10,1.002,0.984977,95,0.412038,208,1,1
app_33,34.7658,20153.3,7961.1,27.115,87.1872,2.43905e+10,1.00182,0.984977,91,0.28035,219,1,1
app_34,53.537,20051.1,7980.5,7.67554,81.3076,2.97253e+09,1.00207,0.984977,98,0.0362503,203,1,1
app_35,47.0551,20106.5,7952.4,34.5621,85.5736,3.03222e+10,1.00216,0.984977,93,0.352583,214,1,1
app_36,38.3768,19894,7980.5,6.60193,86.2916,1.78326e+08,1.00242,0.984977,93,0.00204972,214,1,1
app_37,105.334,20362,7921.3,59.579,68.3751,5.46054e+10,1.00302,0.984977,115,0.803021,173,1,1
app_38,39.1796,19866.1,7939.2,54.2894,90.4348,5.03243e+10,1.00131,0.984977,89,0.558657,222,1,1
app_39,24.6374,20138.8,7962.2,29.6354,72.9039,2.69174e+10,1.00136,0.984977,109,0.368732,183,1,1
app_4,5.82604,19520,7783.07,74.0714,866.823,1.53642e+10,1.02585,0.984977,9,0.0177364,2117,1,1
app_40,33.5343,20171.3,7943.3,46.2835,92.4184,4.03326e+10,1.00205,0.984977,86,0.433684,232,1,1
app_41,71.6914,20063.7,7983.8,6.38792,78.9218,1.06732e+09,1.0019,0.984977,101,0.0135103,197,1,1
app_42,19.341,19949.9,7935.6,47.0516,92.449,4.38019e+10,1.00258,0.984977,85,0.476107,232,1,1
app_43,96.9025,20183.5,7939.7,53.7468,76.5215,5.09273e+10,1.00117,0.984977,103,0.670096,193,1,1
app_44,36.0873,19943.8,7984.9,9.44066,80.7775,7.631e+09,1.00093,0.984977,99,0.0942099,201,1,1
app_45,9.04128,20024.6,7931.1,47.353,113.412,4.39957e+10,1.00312,0.984977,70,0.385927,284,1,1
app_46,27.7836,19837.7,7948.9,43.0239,83.7907,4.00097e+10,1.00139,0.984977,96,0.476305,206,1,1
app_47,96.2929,20096.4,7968.7,8.85267,79.4881,6.19147e+09,1.00315,0.984977,99,0.0773934,201,1,1
app_48,65.2238,20150.3,7928.4,59.2771,73.6074,5.51203e+10,1.00206,0.984977,107,0.744869,185,1,1
app_49,25.0345,19957.3,7970.2,13.823,73.8172,8.37518e+09,1.00269,0.984977,109,0.113178,183,1,1
app_5,3.00369,19589.4,7802,80.6244,867.357,2.58485e+10,1.02199,0.984977,9,0.0298137,2124,1,1
app_50,53.4907,20461.7,7957.5,39.3541,7.40848,3.91868e+10,1.00041,0.984977,1077,5.59811,19,1,1
app_51,73.6153,20260,7977.6,20.5727,7.55887,2.03368e+10,1.00026,0.984977,1069,2.5421,19,1,1
app_52,814.065,21666.5,7986.3,11.4023,8.61159,1.11755e+10,1.00032,0.984977,949,1.39694,22,1,1
app_53,354.803,20714.7,7964.9,34.2077,9.1532,3.37814e+10,1.00016,0.984977,895,3.75349,23,1,1
app_54,642.746,21051.6,7971.8,27.9972,8.57185,2.763e+10,1.00007,0.984977,941,3.07,22,1,1
app_55,697.873,21145.9,7976.5,19.0605,7.45621,1.88003e+10,1.00059,0.984977,1087,2.68575,19,1,1
app_56,166.868,21222.2,7990.7,7.12576,7.6974,6.53143e+09,1.00035,0.984977,1038,0.816429,20,1,1
app_57,517.558,21346,7988.1,11.1487,7.46198,1.05764e+10,1.00017,0.984977,1079,1.32205,19,1,1
app_58,969.19,21406.8,7955.9,43.291,7.95374,4.29516e+10,1.00014,0.984977,995,5.36895,20,1,1
app_59,609.386,20888.4,7980.2,19.5736,7.10972,1.91174e+10,1.00009,0.984977,1137,2.73106,18,1,1
app_6,1.99839,19305.8,7813.9,62.8516,782.479,3.21797e+09,1.0234,0.984977,10,0.0041098,1888,1,1
app_60,422.974,20647.3,7977.5,21.6548,8.0481,2.15499e+10,1.00012,0.984977,1019,2.69374,20,1,1
app_7,6.7161,20132.8,7765.6,82.1009,860.203,3.27203e+10,1.02586,0.984977,9,0.0380469,2174,1,1
app_8,7.3662,19334.8,7795.1,78.6803,780.05,3.99721e+10,1.02105,0.984977,10,0.0512463,1885,1,1
app_9,2.49168,19211.4,7805.8,72.3894,780.27,2.30305e+10,1.02186,0.984977,10,0.0295263,1873,1,1
