app_id,start_app,end_app,effective_cpu,effective_io,effective_iter,total_bytes,stretch,utilization,Tcomp,Tio,iterations,priority,group_id
app_1,2.98645,19096,7911.9,88.1,881.217,9.90131e+08,1.01101,0.992509,9,0.00112387,2099,0.104931,1
app_10,8.04083,18856.1,7911.8,88.2,881.419,9.64048e+09,1.00992,0.992509,9,0.0109303,2072,0.103564,1.00001
app_11,4.56349,19332.1,7921.8,78.2,719.967,4.63336e+10,1.004,0.992509,11,0.0643522,1740,0.0869858,1.00001
app_12,6.60552,18328.2,7910.2,89.8,876.581,4.37963e+10,1.00578,0.992509,9,0.0499387,2009,0.100411,1.00001
app_13,2.99805,19070.2,7905,95,878.561,5.71544e+10,1.00475,0.992509,9,0.0650961,2092,0.10457,1.00001
app_14,1.29652,19040.2,7912.2,87.8,878.231,2.0168e+10,1.00853,0.992509,9,0.0229704,2090,0.10447,1.00001
app_15,3.46939,18113.5,7901.4,98.6,986.303,4.16793e+08,1.01243,0.992509,8,0.000422711,2235,0.111708,1.00002
app_16,1.82561,18612.4,7927.8,72.2,722.308,5.9358e+09,1.00835,0.992509,11,0.00822133,1677,0.0838212,1.00002
app_17,0.658289,19710.1,7928,72,719.351,1.91282e+10,1.00665,0.992509,11,0.0266038,1776,0.0887667,1.00002
app_18,9.80206,19604.7,7920.8,79.2,791.44,9.41851e+09,1.0088,0.992509,10,0.0118921,1940,0.0969655,1.00002
app_19,5.05001,19422,7920.7,79.3,792.186,2.48798e+10,1.00685,0.992509,10,0.0314139,1925,0.0962283,1.00002
app_2,5.14068,18684,7918.7,81.3,788.383,4.3946e+10,1.00469,0.992509,10,0.0557691,1845,0.0922103,1
app_20,8.22304,19389.6,7912.3,87.7,877.303,1.69496e+10,1.00892,0.992509,9,0.0193268,2126,0.106267,1.00002
app_21,6.45547,19320.4,7920.9,79.1,790.909,2.34285e+10,1.00701,0.992509,10,0.0296189,1914,0.0956713,1.00002
app_22,5.87676,18418.6,7911.3,88.7,880.46,3.60467e+10,1.00663,0.992509,9,0.0409156,2025,0.10121,1.00002
app_23,1.82362,19463.2,7925.1,74.9,722.163,4.00963e+10,1.00437,0.992509,11,0.055535,1754,0.087697,1.00002
app_24,1.49343,19492.1,7915.3,84.7,790.046,5.28562e+10,1.004,0.992509,10,0.0669066,1931,0.0965042,1.00002
app_25,9.1428,20115.6,7927.8,72.2,718.383,2.56841e+10,1.00585,0.992509,11,0.035722,1810,0.0904837,1.00003
app_26,1.40521,19329.3,7912.4,87.6,876.855,2.18645e+10,1.00829,0.992509,9,0.0249594,2117,0.105814,1.00003
app_27,2.14119,18498.4,7901.2,98.8,988.175,1.82539e+10,1.01017,0.992509,8,0.0184756,2283,0.114104,1.00003
app_28,4.09677,19563,7910.2,89.8,882.296,3.92371e+10,1.00636,0.992509,9,0.0444865,2153,0.107634,1.00003
app_29,7.48046,19854.1,7912,88,879.971,2.46862e+10,1.00798,0.992509,9,0.0280526,2180,0.108982,1.00003
app_3,5.10789,18627.5,7901.3,98.7,986.13,1.48193e+10,1.0106,0.992509,8,0.0150145,2295,0.114718,1
app_30,100.662,20032.3,7932.8,67.2,77.879,5.11262e+10,1.00201,0.992509,102,0.655465,194,0.00967811,1.00003
app_31,1.20679,19884.7,7957.4,42.6,85.0067,3.23725e+10,1.00128,0.992509,94,0.380852,212,0.0105527,1.00003
app_32,11.0943,19808.7,7964,36,73.9888,2.71152e+10,1.00111,0.992509,108,0.371441,183,0.00914469,1.00003
app_33,1.73516,20030,7990.4,9.6,74.896,6.25365e+09,1.00042,0.992509,106,0.083382,189,0.00942138,1.00003
app_34,61.7595,19890.8,7949.8,50.2,84.7169,3.90265e+10,1.0014,0.992509,94,0.459136,210,0.0104782,1.00003
app_35,40.6095,20242.7,7930.6,69.4,78.0549,5.38259e+10,1.00195,0.992509,101,0.690075,197,0.0098035,1.00004
app_36,45.3506,19948,7956.5,43.5,91.3923,3.31839e+10,1.00129,0.992509,87,0.364658,228,0.0113693,1.00004
app_37,68.6788,19985.2,7929,71,71.4068,5.67616e+10,1.00178,0.992509,111,0.799459,178,0.00888282,1.00004
app_38,24.5304,20123.8,7985.2,14.8,72.9139,7.35407e+09,1.00093,0.992509,109,0.100741,183,0.00912353,1.00004
app_39,100.237,19947.8,7935.1,64.9,73.0873,4.97675e+10,1.0019,0.992509,110,0.681747,181,0.00903091,1.00004
app_4,10.2424,19641.3,7918.2,81.8,791.77,4.08139e+10,1.00515,0.992509,10,0.0515326,1946,0.0972785,1
app_40,18.1623,19792.9,7979.3,20.7,82.9537,1.41658e+10,1.00082,0.992509,97,0.170673,205,0.0102374,1.00004
app_41,30.2986,20100.2,7976.6,23.4,107.016,1.4986e+10,1.00105,0.992509,74,0.140056,269,0.0134369,1.00004
app_42,99.648,20139.9,7971.6,28.4,72.9016,2.05308e+10,1.00098,0.992509,109,0.281244,183,0.00912127,1.00004
app_43,39.768,20046.9,7967.4,32.6,65.2683,2.53996e+10,1.0009,0.992509,122,0.384842,164,0.00816943,1.00004
app_44,86.8481,20063.3,7979.1,20.9,84.5311,1.40566e+10,1.00086,0.992509,94,0.16734,211,0.0105191,1.00004
app_45,34.7867,19954.5,7972.1,27.9,79.2348,1.87461e+10,1.00115,0.992509,100,0.237292,199,0.00992584,1.00004
app_46,79.9398,20239.2,7977.7,22.3,82.2915,1.5539e+10,1.00085,0.992509,97,0.1895,206,0.0102761,1.00005
app_47,53.9861,20052.2,7958.4,41.6,89.7979,3.00673e+10,1.00144,0.992509,89,0.334081,224,0.0111578,1.00005
app_48,38.8831,20086.2,7972.5,27.5,85.2373,1.73615e+10,1.00127,0.992509,93,0.204253,214,0.0106711,1.00005
app_49,36.7057,19911.7,7958.5,41.5,64.9677,3.00834e+10,1.00143,0.992509,123,0.462821,161,0.00804026,1.00005
app_5,6.75522,19204.3,7901.2,98.8,988.123,1.10239e+10,1.01109,0.992509,8,0.0111578,2372,0.118588,1.00001
app_50,391.001,20265.9,7927.1,72.9,6.77199,5.79796e+10,1.00187,0.992509,1171,8.28279,17,0.000847855,1.00005
app_51,944.002,21699.6,7970.7,29.3,7.90559,2.18406e+10,1.00093,0.992509,1025,2.73008,20,0.000972301,1.00005
app_52,594.245,21168.7,7986.2,13.8,8.19566,1.02433e+10,1.00044,0.992509,954,1.28041,21,0.00104661,1.00005
app_53,835.477,21187.4,7963.6,36.4,7.07926,2.90155e+10,1.00092,0.992509,1122,4.14507,18,0.000887275,1.00005
app_54,435.151,21148,7996.2,3.8,8.10213,2.32288e+09,1.00018,0.992509,985,0.29036,21,0.001014,1.00005
app_55,165.49,21427.2,7950.7,49.3,7.38061,4.09856e+10,1.00104,0.992509,1026,5.85508,20,0.000968859,1.00005
app_56,541.325,21191.1,7974.4,25.6,7.3846,2.17678e+10,1.00048,0.992509,1089,2.72098,19,0.000915569,1.00006
app_57,982.592,21212.8,7949.7,50.3,7.29758,4.17714e+10,1.00107,0.992509,1050,5.22142,19,0.000947395,1.00006
app_58,831.042,21123.2,7975.6,24.4,6.78531,1.97903e+10,1.00058,0.992509,1195,2.82718,17,0.000834296,1.00006
app_59,1008.72,21940.3,7988.1,11.9,6.97715,9.48119e+09,1.0003,0.992509,1134,1.35446,18,0.000880038,1.00006
app_6,2.62915,18268.6,7904.4,95.6,876.349,5.59724e+10,1.00498,0.992509,9,0.0638954,2003,0.100125,1.00001
app_60,258.573,20385.4,7968,32,9.06088,2.29338e+10,1.00113,0.992509,894,2.5482,23,0.00111425,1.00006
app_7,7.15142,20060.6,7914.6,85.4,789.132,5.34248e+10,1.00401,0.992509,10,0.0676263,1982,0.0990738,1.00001
app_8,2.98957,19378,7912.1,87.9,879.737,7.45089e+09,1.01016,0.992509,9,0.00847656,2133,0.106611,1.00001
app_9,4.71805,18984.9,7919.2,80.8,790.314,3.63369e+10,1.00559,0.992509,10,0.0459379,1876,0.0937791,1.00001
