app_id,start_app,end_app,effective_cpu,effective_io,effective_iter,total_bytes,stretch,utilization,Tcomp,Tio,iterations,priority,group_id
app_1,8.83605,19641.5,7927.1,71.8197,719.791,3.14245e+10,1.00521,0.99556,11,0.0436451,1766,0.1,1
app_10,39.693,19930.4,7981.7,16.4723,84.1773,8.41906e+09,1.00124,0.99556,95,0.100227,209,0.01,2
app_11,61.0787,19848.1,7962.5,36.463,89.6613,3.21198e+10,1.00067,0.99556,89,0.356886,222,0.01,2
app_12,6.62036,20057.2,7947.2,50.3041,100.617,4.21427e+10,1.00133,0.99556,79,0.417254,252,0.01,2
app_13,83.9531,19947.5,7989.3,8.90096,88.9248,3.17243e+09,1.00094,0.99556,91,0.0356453,219,0.01,2
app_14,67.1862,19909.1,7981.8,15.9579,80.4308,1.18078e+10,1.0008,0.99556,100,0.147597,199,0.01,2
app_15,74.0386,19968,7964.3,35.0743,86.1883,2.84924e+10,1.0009,0.99556,92,0.327499,215,0.01,2
app_16,63.7818,19936.9,7962.4,35.6734,109.08,3.14764e+10,1.00077,0.99556,73,0.288774,271,0.01,2
app_17,69.5305,20121.6,7986.6,9.11077,93.0833,2.94903e+09,1.00131,0.99556,85,0.0313727,235,0.01,2
app_18,77.1498,19998.6,7948,49.4183,97.9697,4.26641e+10,1.00117,0.99556,81,0.435348,244,0.01,2
app_19,110.917,19991.5,7977.2,21.9113,66.8634,1.94399e+10,1.00042,0.99556,119,0.294543,167,0.01,2
app_2,3.77407,18163.3,7911.2,87.7739,883.027,2.58722e+10,1.00793,0.99556,9,0.0293004,1998,0.1,1
app_20,98.0203,20043.1,7990.5,7.9894,81.1304,2.7192e+09,1.00085,0.99556,98,0.0335703,203,0.01,2
app_21,29.0676,20107.8,7952.7,45.102,73.725,4.13385e+10,1.00075,0.99556,108,0.566281,185,0.01,2
app_22,34.782,19881,7979.2,19.6976,95.9515,1.61353e+10,1.00058,0.99556,83,0.168076,240,0.01,2
app_23,53.8769,20143.4,7954.1,45.7445,75.8353,4.13675e+10,1.00057,0.99556,104,0.54431,191,0.01,2
app_24,53.3474,20066.2,7970,29.3699,97.6509,2.34218e+10,1.00082,0.99556,82,0.238997,244,0.01,2
app_25,577.537,20709.7,7991.1,8.9,8.31465,7.30682e+09,1.0002,0.99556,955,0.913352,21,0.001,3
app_26,401.914,21205.8,7966.2,32.1913,9.23603,2.9758e+10,1.00051,0.99556,860,3.30644,24,0.001,3
app_27,854.16,21607,7956.8,42.8238,7.29033,3.9716e+10,1.00044,0.99556,1080,5.67371,19,0.001,3
app_28,1018.96,21925.9,7954.5,45.5,7.59137,3.99642e+10,1.00069,0.99556,1038,4.99552,20,0.001,3
app_29,563.991,20674.4,7972.8,27.2,8.55892,2.32689e+10,1.00049,0.99556,935,2.90861,22,0.001,3
app_3,0.510762,19493.3,7920.7,78.6631,793.287,1.78138e+10,1.00775,0.99556,10,0.0224638,1931,0.1,1
app_30,159.882,20410.1,7985.9,5.75507,9.24443,4.94895e+09,1.00115,0.99556,875,0.549884,23,0.001,3
app_31,557.553,20899.1,7968.8,31.2,10.5665,2.83465e+10,1.00036,0.99556,758,2.83465,27,0.001,3
app_32,387.985,20601.3,7990.3,9.65533,7.74473,8.09086e+09,1.0002,0.99556,1013,1.01136,20,0.001,3
app_33,270.062,20917.6,7976.3,17.7616,8.21736,1.54158e+10,1.00104,0.99556,972,1.92698,21,0.001,3
app_34,34.5845,20155,7947.6,47.0029,7.25087,4.24348e+10,1.00125,0.99556,1116,6.06211,18,0.001,3
app_35,572.378,21249.8,7983.5,14.4098,7.78064,1.22198e+10,1.00054,0.99556,989,1.52748,21,0.001,3
app_36,503.145,20612.6,7976.4,18.2738,7.70948,1.66874e+10,1.00086,0.99556,1082,2.38391,19,0.001,3
app_37,937.546,21894.8,7990.2,9.8,7.43703,8.55759e+09,1.00016,0.99556,1045,1.0697,20,0.001,3
app_38,189.658,20974.3,7950.12,49.8807,8.41667,4.62463e+10,1.00045,0.99556,947,5.14221,22,0.001,3
app_39,230.154,20990.9,7992.7,7.3,6.7205,6.99441e+09,1.00004,0.99556,1144,1.16574,18,0.001,3
app_4,3.91108,18587.3,7919.8,79.0248,790.933,3.96513e+10,1.00509,0.99556,10,0.0501281,1841,0.1,1
app_40,752.553,21719.2,7977.1,22.9,6.83415,2.11214e+10,1.00022,0.99556,1151,3.01735,18,0.001,3
app_41,576.417,21208.7,7971.7,21.2746,7.72583,1.96227e+10,1.00109,0.99556,1016,2.80324,20,0.001,3
app_42,663.61,21152.9,7966.3,31.0539,8.59246,2.85507e+10,1.00064,0.99556,927,3.1723,22,0.001,3
app_43,132.084,20559.4,7960.6,39.4,8.39763,3.62656e+10,1.00039,0.99556,917,4.5332,22,0.001,3
app_44,662.119,20502.5,7952.5,47.5,7.67293,4.41439e+10,1.00042,0.99556,1051,6.30627,19,0.001,3
app_45,834.875,21974.6,7978.1,14.4002,8.04796,1.23619e+10,1.00119,0.99556,986,1.54524,21,0.001,3
app_46,559.468,20662,7977.5,19.3024,8.5081,1.7875e+10,1.00058,0.99556,953,1.98611,21,0.001,3
app_47,258.57,22008.3,7974.4,17.966,6.93688,1.67679e+10,1.00111,0.99556,1106,2.39542,19,0.001,3
app_48,998.97,21407.5,7965.9,33.8106,7.03249,3.12287e+10,1.00036,0.99556,1114,4.46125,18,0.001,3
app_49,508.489,21035.3,7970.4,29.6,8.54303,2.63824e+10,1.0004,0.99556,914,3.2978,22,0.001,3
app_5,76.6273,20149.3,7943.5,55.1476,79.8328,4.77329e+10,1.0011,0.99556,99,0.604214,201,0.01,2
app_50,132.06,20487.1,7952.1,44.402,7.98935,4.11836e+10,1.00084,0.99556,1012,5.14796,20,0.001,3
app_51,357.047,21416.8,7957.3,42.1232,7.80866,4.05038e+10,1.00027,0.99556,1020,5.06298,20,0.001,3
app_52,588.663,20803.6,7940,49.0814,11.2547,4.47326e+10,1.00191,0.99556,713,4.0666,28,0.001,3
app_53,122.095,20424.4,7948.6,51.4,7.022,4.55107e+10,1.00074,0.99556,1136,6.50152,18,0.001,3
app_54,25.9511,20202.3,7960.7,36.6954,9.47764,3.31593e+10,1.00077,0.99556,832,3.68437,24,0.001,3
app_55,1060.85,22012.4,7978.2,21.8,7.19455,2.01301e+10,1.00021,0.99556,1079,2.87574,19,0.001,3
app_56,751.296,20320.6,7945.7,51.4331,9.06855,4.53911e+10,1.00111,0.99556,913,5.04345,22,0.001,3
app_57,266.116,20750.2,7937.3,57.4872,8.18508,5.06686e+10,1.00151,0.99556,953,5.62985,21,0.001,3
app_58,883.452,20949.1,7997.9,2.1,7.13384,1.67052e+09,1.00005,0.99556,1116,0.238646,18,0.001,3
app_59,400.953,21229.1,7973.7,26.3,8.8588,2.51203e+10,1.00015,0.99556,901,2.79114,23,0.001,3
app_6,14.1211,20039.1,7953.4,44.8228,68.4655,4.09494e+10,1.00071,0.99556,116,0.593469,172,0.01,2
app_60,218.498,20728.3,7980.8,19.2,9.29698,1.70438e+10,1.00027,0.99556,852,1.70438,24,0.001,3
app_7,67.4128,19808.9,7944.2,54.3277,105.312,4.77382e+10,1.00101,0.99556,76,0.45465,259,0.01,2
app_8,60.3573,19940.7,7978.1,19.3882,98.7079,1.03069e+10,1.00145,0.99556,81,0.10411,244,0.01,2
app_9,73.5672,20082.1,7953.5,44.5562,85.1048,3.98632e+10,1.00083,0.99556,93,0.468979,213,0.01,2
