app_id,start_app,end_app,effective_cpu,effective_io,effective_iter,total_bytes,stretch,utilization,Tcomp,Tio,iterations,priority,group_id
app_1,2.14171,19623.5,7700.5,62.4937,641.577,2.58085e+10,1.03542,0.993845,12,0.0402001,1581,1,1
app_10,76.4796,20086.3,7909.5,52.0343,88.5501,4.47082e+10,1.00576,0.993845,90,0.508048,220,1,1
app_11,18.4962,20036.5,7913.5,48.8351,82.8027,4.22624e+10,1.00556,0.993845,96,0.509185,207,1,1
app_12,21.1068,20069.2,7950,26.1002,90.2716,1.82075e+10,1.00399,0.993845,88,0.200083,227,1,1
app_13,46.534,19985.4,7934.8,35.7409,86.5533,3.40367e+10,1.00391,0.993845,92,0.395776,215,1,1
app_14,92.1337,20071.9,7927.01,25.5436,86.1494,1.88498e+10,1.00681,0.993845,92,0.216775,216,1,1
app_15,52.1023,20180.8,7926.1,45.2103,90.0611,4.13668e+10,1.00408,0.993845,88,0.459631,226,1,1
app_16,5.49663,20081.1,7960.6,15.6114,81.312,1.00412e+10,1.00368,0.993845,97,0.122453,205,1,1
app_17,25.9697,20126.3,7930.7,50.3811,71.7799,4.68062e+10,1.00282,0.993845,109,0.650086,182,1,1
app_18,70.7354,20106.9,7904.8,44.7727,74.6244,4.19246e+10,1.0067,0.993845,106,0.566549,187,1,1
app_19,100.223,20110.4,7929.4,30.3783,75.105,2.76203e+10,1.0054,0.993845,105,0.368271,189,1,1
app_2,1.55466,20022.7,7660.8,76.459,767.879,3.43206e+10,1.03962,0.993845,10,0.0446883,1923,1,1
app_20,34.959,20146.3,7914.3,43.6349,85.3794,4.10349e+10,1.00561,0.993845,92,0.47715,216,1,1
app_21,69.0697,20092,7965.2,7.97225,80.3626,3.32376e+09,1.00395,0.993845,98,0.0410341,203,1,1
app_22,50.8294,20166.9,7934.7,50.8433,73.6973,4.46887e+10,1.00258,0.993845,107,0.612174,186,1,1
app_23,874.697,21194.2,7950.5,45.9443,8.75548,4.57123e+10,1.00047,0.993845,919,5.07915,22,1,1
app_24,318.614,20574.7,7973.5,21.7681,7.44358,2.1595e+10,1.00061,0.993845,1054,3.085,19,1,1
app_25,372.737,20619.4,7972.8,26.5397,7.58213,2.59886e+10,1.00015,0.993845,1077,3.71266,19,1,1
app_26,515.203,21397.6,7982.9,16.8243,7.96881,1.62496e+10,1.00011,0.993845,980,2.0312,21,1,1
app_27,711.329,21363.4,7949.8,44.2467,9.00581,4.38468e+10,1.00079,0.993845,884,4.87187,23,1,1
app_28,995.474,21529,7986.1,9.50671,7.70106,9.03883e+09,1.00061,0.993845,1036,1.12985,20,1,1
app_29,10.7509,20500.7,7986.9,3.23556,8.13843,3.00165e+09,1.00126,0.993845,962,0.375206,21,1,1
app_3,91.9838,20030.3,7952,22.9312,73.4488,2.18815e+10,1.00328,0.993845,109,0.295696,183,1,1
app_30,290.164,20434.8,7974.9,20.6878,7.81194,2.00856e+10,1.00063,0.993845,999,2.5107,20,1,1
app_31,530.088,21259.2,7973.7,25.9837,7.72958,2.58614e+10,1.00005,0.993845,1043,3.69448,20,1,1
app_32,7.62725,20757.5,7982.4,15.8153,8.26341,1.52094e+10,1.0003,0.993845,944,1.90118,22,1,1
app_33,520.119,20403.7,7979.8,16.1392,7.79965,1.60382e+10,1.00052,0.993845,1056,2.29117,19,1,1
app_34,301.535,20608,7978.4,21.6,7.86765,2.11367e+10,1.00006,0.993845,1024,2.64209,20,1,1
app_35,909.092,20728.2,7950.2,44.7175,7.62973,4.41342e+10,1.00071,0.993845,1062,5.51678,19,1,1
app_36,112.731,20401.3,7966.3,33.6621,6.52858,3.3592e+10,1.00001,0.993845,1178,5.59867,17,1,1
app_37,633.477,21135.8,7976.3,19.0435,7.7256,1.88187e+10,1.00061,0.993845,1015,2.68839,20,1,1
app_38,951.469,21670.7,7983.2,15.2687,7.8112,1.49044e+10,1.00024,0.993845,1043,1.86305,20,1,1
app_39,629.057,21221.3,7989.6,10.4,8.19328,1.03798e+10,1,0.993845,978,1.29748,21,1,1
app_4,32.13,19983.8,7949.8,24.5689,82.4727,1.83738e+10,1.00399,0.993845,97,0.221371,205,1,1
app_40,55.8043,20287.8,7958.1,37.5275,7.48382,3.69306e+10,1.00062,0.993845,1055,4.61633,19,1,1
app_41,62.2825,20659.2,7997.6,2.4,8.03159,2.34019e+09,1.00001,0.993845,986,0.292524,21,1,1
app_42,412.779,20862.3,7973.9,26.1,9.06743,2.53204e+10,1.0001,0.993845,890,2.81338,23,1,1
app_43,817.672,20733.1,7963.3,34.3449,7.15443,3.42736e+10,1.0003,0.993845,1107,4.89624,18,1,1
app_44,682.412,20698,7956.4,40.0053,7.49298,3.94765e+10,1.00052,0.993845,1059,4.93457,19,1,1
app_45,157.928,21021.2,7989.2,6.29203,8.13905,5.88895e+09,1.00061,0.993845,985,0.654327,21,1,1
app_46,352.005,20931.4,7979.1,17.5514,7.10685,1.74031e+10,1.00044,0.993845,1141,2.48616,18,1,1
app_47,353.977,20979.1,7966.7,32.901,7.39683,3.25656e+10,1.00009,0.993845,1082,4.65222,19,1,1
app_48,647.599,20544.7,7995.3,3.04506,10.2794,2.65962e+09,1.00026,0.993845,775,0.265962,26,1,1
app_49,283.697,20883.3,7983.6,12.5294,6.85508,1.1949e+10,1.00056,0.993845,1128,1.707,18,1,1
app_5,58.4182,20105.4,7954.4,17.7916,89.8459,1.14941e+10,1.00428,0.993845,89,0.127712,224,1,1
app_50,342.51,20313.3,7952,48,7.98159,4.72674e+10,1.00009,0.993845,998,5.90842,20,1,1
app_51,269.15,20679.5,7961.4,38.551,9.88142,3.77064e+10,1.00011,0.993845,800,4.10324,25,1,1
app_52,842.527,21686.5,7956.9,41.2049,7.25881,4.06079e+10,1.00031,0.993845,1035,5.80113,20,1,1
app_53,78.5077,20502.3,7994.5,4.48942,8.70411,3.95233e+09,1.00019,0.993845,936,0.439148,22,1,1
app_54,467.691,21184.1,7972.1,27.9,8.98606,2.72797e+10,1.00008,0.993845,899,3.03107,23,1,1
app_55,10.8446,20180.3,7976,24,7.79538,2.33264e+10,1.00008,0.993845,1022,2.91581,20,1,1
app_56,1054.15,21540.3,7990.8,8.56615,6.89778,8.39807e+09,1.0001,0.993845,1125,1.19972,18,1,1
app_57,38.0111,19912.1,7984,10.6884,9.20044,1.00354e+10,1.00075,0.993845,909,1.11504,22,1,1
app_58,730.117,21189.1,7957.3,39.2237,7.69382,3.89734e+10,1.00047,0.993845,1034,4.87167,20,1,1
app_59,573.415,21131.2,7956.9,36.0851,7.84551,3.58938e+10,1.0009,0.993845,1042,4.48673,20,1,1
app_6,33.766,20126.5,7955.2,16.8062,83.2615,1.30231e+10,1.00399,0.993845,95,0.156905,210,1,1
app_60,417.629,20835.3,7954.4,45.5946,8.51897,4.51938e+10,1.00005,0.993845,923,5.64922,22,1,1
app_7,31.9891,20050.3,7925.2,51.094,74.2638,4.62163e+10,1.00359,0.993845,107,0.624545,185,1,1
app_8,33.9742,20121.1,7930.8,48.5003,79.6873,4.65341e+10,1.00284,0.993845,99,0.581677,200,1,1
app_9,81.9453,20288.3,7939.5,42.6175,83.2198,4.18577e+10,1.00234,0.993845,95,0.498306,210,1,1
