app_id,start_app,end_app,effective_cpu,effective_io,effective_iter,total_bytes,stretch,utilization,Tcomp,Tio,iterations,priority,group_id
app_1,9.20925,19070.4,7897.7,86.1834,877.272,3.46569e+10,1.00853,0.992251,9,0.0394726,2095,0.1,1
app_10,9.89163,19968,7915.3,70.5493,791.859,7.89726e+09,1.00969,0.992251,10,0.0099839,1980,0.1,1
app_11,8.32438,19203,7910.4,77.542,791.245,3.60179e+10,1.00674,0.992251,10,0.0455346,1896,0.1,1
app_12,9.38908,19313.4,7915.8,70.0159,793.146,6.65655e+09,1.00979,0.992251,10,0.00839413,1912,0.1,1
app_13,6.73143,18836.9,7908.8,77.9534,791.299,3.33561e+10,1.00728,0.992251,10,0.0421163,1861,0.1,1
app_14,4.88736,19369.5,7898.7,86.612,877.419,3.85497e+10,1.00791,0.992251,9,0.0439063,2124,0.1,1
app_15,1.75249,19040.8,7897.26,90.5784,877.465,5.68425e+10,1.00577,0.992251,9,0.0647884,2087,0.1,1
app_16,1.21281,19857,7896.5,87.7395,877.461,4.08813e+10,1.00789,0.992251,9,0.0466149,2177,0.1,1
app_17,7.43903,19899.9,7908.1,78.5799,793.946,3.52159e+10,1.00714,0.992251,10,0.0443525,1969,0.1,1
app_18,5.28314,18751.8,7916.2,70.7108,791.052,6.81062e+09,1.00972,0.992251,10,0.00861014,1853,0.1,1
app_19,4.48029,19206.7,7907.1,80.666,789.554,4.56917e+10,1.00594,0.992251,10,0.0578376,1897,0.1,1
app_2,4.05717,18954.5,7900.9,84.7703,877.264,2.88522e+10,1.00886,0.992251,9,0.0328987,2077,0.1,1
app_20,3.01067,19052.3,7918.5,67.3007,792.466,4.2175e+08,1.01024,0.992251,10,0.000532513,1885,0.1,1
app_21,5.8181,18760.7,7918.6,67.2397,792.512,2.26067e+08,1.01025,0.992251,10,0.000285078,1856,0.1,1
app_22,5.15406,19606,7861.7,116.465,1312.28,9.78806e+09,1.01633,0.992251,6,0.00745473,3211,0.1,1
app_23,3.31743,19932.4,7907.4,80.6327,790.738,4.56232e+10,1.00591,0.992251,10,0.0576779,1969,0.1,1
app_24,3.54277,19368.1,7898.7,85.2894,878.854,3.15953e+10,1.00879,0.992251,9,0.0359446,2122,0.1,1
app_25,2.27162,18215.6,7897.8,88.8624,879.612,4.61617e+10,1.00705,0.992251,9,0.0524565,1999,0.1,1
app_26,4.91043,19320.8,7896.7,88.3296,877.695,4.50125e+10,1.00734,0.992251,9,0.0513255,2115,0.1,1
app_27,88.4203,19981.6,7944.1,53.0168,77.5276,4.39926e+10,1.00149,0.992251,103,0.571332,192,0.01,2
app_28,9.95974,19904.4,7933,63.7989,74.225,5.3183e+10,1.00173,0.992251,107,0.718689,185,0.01,2
app_29,88.3649,19965.7,7940.9,52.8487,83.7321,4.45588e+10,1.00182,0.992251,94,0.530462,210,0.01,2
app_3,6.25904,18313.2,7891,91.8126,985.848,2.23981e+10,1.01094,0.992251,8,0.0227161,2259,0.1,1
app_30,79.484,20195.7,7982.5,16.4589,76.2322,1.1746e+10,1.00072,0.992251,104,0.152545,192,0.01,2
app_31,60.9621,20007.1,7979.8,18.527,74.1902,1.39923e+10,1.00078,0.992251,108,0.189085,184,0.01,2
app_32,21.3397,20001.7,7977.7,21.4122,67.4263,1.49696e+10,1.00092,0.992251,118,0.223427,169,0.01,2
app_33,33.9741,20062.5,7965,32.0569,86.7714,2.56467e+10,1.00117,0.992251,91,0.29479,218,0.01,2
app_34,78.3652,20053.9,7986.3,9.00504,86.1928,4.4887e+09,1.00115,0.992251,92,0.0521942,216,0.01,2
app_35,21.6489,19909.2,7940.5,55.6941,77.4144,4.6512e+10,1.00163,0.992251,103,0.604052,192,0.01,2
app_36,0.655925,20069.9,7947,48.4177,76.1301,3.96441e+10,1.00167,0.992251,104,0.514858,191,0.01,2
app_37,89.6814,20169.7,7949.1,48.8348,78.4987,3.91091e+10,1.00148,0.992251,101,0.501399,197,0.01,2
app_38,27.3685,19977.2,7956.7,40.3376,79.3527,3.21574e+10,1.00139,0.992251,100,0.401967,198,0.01,2
app_39,45.4711,20245,7968.9,26.485,72.8951,2.16456e+10,1.00118,0.992251,109,0.296516,183,0.01,2
app_4,0.146486,18528.9,7895.8,91.0991,877.312,5.49203e+10,1.0062,0.992251,9,0.0625516,2031,0.1,1
app_40,61.1777,20029.5,7942.9,53.9445,99.2569,4.49795e+10,1.00152,0.992251,80,0.454339,247,0.01,2
app_41,40.4414,19970.5,7944.6,55.2168,77.4487,4.67259e+10,1.00109,0.992251,101,0.59905,196,0.01,2
app_42,31.4507,19934.8,7930.7,66.0258,82.3935,5.59587e+10,1.00167,0.992251,97,0.674202,204,0.01,2
app_43,1.7397,19916.8,7973.6,25.6944,72.3964,2.05678e+10,1.00073,0.992251,109,0.285663,182,0.01,2
app_44,80.9132,19976.1,7981.2,15.5846,78.8639,7.92245e+09,1.00136,0.992251,102,0.100284,195,0.01,2
app_45,93.1197,20098,7971.6,25.8163,82.7816,1.89224e+10,1.00119,0.992251,96,0.22798,207,0.01,2
app_46,26.0191,20053.8,7953.4,43.8607,80.4507,3.6984e+10,1.0012,0.992251,99,0.456592,201,0.01,2
app_47,291.647,20489.7,7996.5,2.58293,8.66389,1.3848e+09,1.00026,0.992251,916,0.173099,22,0.001,3
app_48,473.343,20748.8,7985.7,12.4742,7.83591,9.2624e+09,1.00063,0.992251,1015,1.1578,20,0.001,3
app_49,988.901,21815.4,7990.1,9.9,7.04237,7.20073e+09,1.00034,0.992251,1161,1.02868,18,0.001,3
app_5,2.72183,18452.7,7905.5,81.7678,792.479,4.69527e+10,1.00598,0.992251,10,0.059209,1821,0.1,1
app_50,261.846,20518.9,7994.2,5.8,7.30851,4.20897e+09,1.0002,0.992251,1075,0.601282,19,0.001,3
app_51,796.175,21286.4,7975.1,24.9,6.54,2.13581e+10,1.00044,0.992251,1213,3.55969,17,0.001,3
app_52,45.0399,20354.6,7945.4,48.575,7.52688,3.9351e+10,1.00191,0.992251,1062,4.91888,19,0.001,3
app_53,900.418,21579.7,7956.9,43.1,8.32237,3.7592e+10,1.00069,0.992251,977,4.699,21,0.001,3
app_54,499.854,20804.2,7992.1,7.86974,8.17528,6.18507e+09,1.00021,0.992251,962,0.773134,21,0.001,3
app_55,739.25,21346.7,7991.2,8.8,9.01046,6.90996e+09,1.00024,0.992251,895,0.767773,23,0.001,3
app_56,626.488,20801.2,7963.7,36.3,7.70963,3.05714e+10,1.00072,0.992251,1001,3.82142,20,0.001,3
app_57,932.205,21080.7,7973,27,7.50933,2.28273e+10,1.00052,0.992251,1073,2.85341,19,0.001,3
app_58,52.9004,21271.5,7957.1,42.9,7.08137,3.38734e+10,1.00113,0.992251,1085,4.83905,19,0.001,3
app_59,300.906,21536.5,7944.9,55.1,7.51031,4.60262e+10,1.00114,0.992251,1038,6.57517,20,0.001,3
app_6,5.88584,18417,7908.6,77.2578,879.681,2.60672e+09,1.01122,0.992251,9,0.00296555,2023,0.1,1
app_60,427.875,20414.4,7988.4,10.4542,7.13275,9.38619e+09,1.00028,0.992251,1139,1.34088,18,0.001,3
app_7,0.7601,18368.3,7897.8,85.6494,987.202,1.00572e+09,1.01281,0.992251,8,0.00101793,2269,0.1,1
app_8,6.9951,19956.9,7916.5,68.5955,790.714,5.10851e+09,1.0099,0.992251,10,0.00645829,1972,0.1,1
app_9,0.821643,17911.8,7869.4,111.633,1123.98,5.12974e+10,1.01001,0.992251,7,0.0456382,2516,0.1,1
