app_id,start_app,end_app,effective_cpu,effective_io,effective_iter,total_bytes,stretch,utilization,Tcomp,Tio,iterations,priority,group_id
app_1,8.64115,18560.8,7912.6,74.6667,791.223,1.88512e+10,1.00864,0.992671,10,0.0238322,1833,1,1
app_10,5.84451,18214.6,7899.1,88.376,877.617,4.06016e+10,1.00759,0.992671,9,0.0462433,1997,1,1
app_11,1.06457,18635.9,7885.1,98.7064,876.271,4.97157e+10,1.00821,0.992671,9,0.0566883,2039,1,1
app_12,4.16314,19240.4,7906.27,82.0671,720.594,3.95784e+10,1.00681,0.992671,11,0.0549593,1729,1,1
app_13,3.57368,19338.1,7892.3,90.9514,986.467,1.84649e+10,1.01128,0.992671,8,0.0187271,2383,1,1
app_14,7.98166,18462.2,7887.6,97.4246,874.904,4.65495e+10,1.0083,0.992671,9,0.0531994,2020,1,1
app_15,7.15744,19578,7906.7,80.5262,794.189,3.5465e+10,1.00728,0.992671,10,0.0446663,1941,1,1
app_16,8.30791,18379.5,7896,90.2545,875.552,4.19495e+10,1.00782,0.992671,9,0.0478875,2015,1,1
app_17,0.942921,19820.7,7891.8,96.9986,877.983,4.40265e+10,1.00809,0.992671,9,0.050144,2176,1,1
app_18,9.20024,18637.6,7910.8,77.121,791.62,2.55427e+10,1.00802,0.992671,10,0.0322509,1842,1,1
app_19,5.6611,19543.9,7905.5,81.7446,877.916,1.49105e+10,1.01005,0.992671,9,0.0169823,2147,1,1
app_2,0.465405,19229,7896.7,89.0612,877.342,4.10799e+10,1.00784,0.992671,9,0.0468413,2107,1,1
app_20,0.0872178,19602.5,7876.4,106.078,1127.11,2.39965e+10,1.01261,0.992671,7,0.0212924,2764,1,1
app_21,4.94659,17599.2,7863.4,118.414,1312.63,4.81027e+09,1.01675,0.992671,6,0.00366357,2884,1,1
app_22,10.9225,19872.6,7920.3,67.7355,719.106,1.5311e+10,1.00811,0.992671,11,0.0212948,1786,1,1
app_23,13.7379,20079.2,7941.9,57.1834,70.5428,4.7801e+10,1.00129,0.992671,113,0.682871,176,1,2
app_24,48.9952,20001.1,7988.9,8.9194,83.0803,5.38408e+09,1.00072,0.992671,96,0.0648684,208,1,2
app_25,88.7784,19995.1,7949.4,48.7235,74.9635,3.90333e+10,1.00145,0.992671,106,0.520443,187,1,2
app_26,87.119,20096,7956.1,42.211,80.7252,3.22428e+10,1.00146,0.992671,98,0.403035,203,1,2
app_27,40.8931,19951,7949,49.6185,88.5955,3.72574e+10,1.00172,0.992671,90,0.418622,220,1,2
app_28,58.3268,20310.4,7954.2,42.6147,78.8631,3.25762e+10,1.00166,0.992671,100,0.412357,200,1,2
app_29,45.9061,20021.8,7943.5,53.8424,108.292,4.35775e+10,1.00162,0.992671,73,0.399794,271,1,2
app_3,8.60672,19139,7907.1,81.0984,717.473,4.12317e+10,1.0065,0.992671,11,0.0575059,1717,1,1
app_30,42.1995,19924.1,7939.6,59.0699,88.1965,4.52575e+10,1.0019,0.992671,91,0.514289,218,1,2
app_31,67.215,19871.4,7974.2,23.9216,75.8431,1.86456e+10,1.0009,0.992671,105,0.248608,189,1,2
app_32,65.0544,20047.1,7985.8,12.2419,91.6344,8.96135e+09,1.00066,0.992671,87,0.0984763,229,1,2
app_33,9.04147,20082.4,7990.2,8.14756,78.9768,3.76907e+09,1.00075,0.992671,100,0.0477098,200,1,2
app_34,18.788,19896.1,7945.54,53.6052,82.282,4.19405e+10,1.00157,0.992671,97,0.509805,204,1,2
app_35,50.5288,20221.8,7961.7,34.7234,79.527,2.62142e+10,1.00151,0.992671,99,0.327678,201,1,2
app_36,36.6391,20057.6,7982.6,15.3458,74.4853,8.23233e+09,1.00115,0.992671,107,0.109764,187,1,2
app_37,52.6268,19795.4,7960.7,38.0305,87.3808,2.8061e+10,1.00141,0.992671,92,0.32254,215,1,2
app_38,15.4334,20044.6,7969.2,30.184,80.7427,2.37529e+10,1.00088,0.992671,99,0.296911,202,1,2
app_39,67.2499,19861.1,7980.2,18.9382,86.3455,1.37708e+10,1.00075,0.992671,93,0.160126,213,1,2
app_4,7.76441,19698.4,7924.6,64.3944,721.503,2.83164e+09,1.00915,0.992671,11,0.00392739,1774,1,1
app_40,28.3127,19833.4,7967.5,30.0905,82.0061,2.13444e+10,1.0014,0.992671,98,0.260298,202,1,2
app_41,8.84308,20211,7991.6,6.96034,69.6687,2.07713e+09,1.00079,0.992671,115,0.0296733,174,1,2
app_42,45.3535,19920.7,7946.3,53.2095,92.9369,4.32239e+10,1.00131,0.992671,86,0.464773,230,1,2
app_43,260.104,21106.6,7966.8,33.2,8.18384,2.69838e+10,1.00078,0.992671,972,3.37298,21,1,3
app_44,91.0262,20665.2,7963.9,36.1,9.19953,3.04663e+10,1.0007,0.992671,899,3.38515,23,1,3
app_45,442.951,21121.4,7977.9,22.1,7.43685,1.94274e+10,1.00033,0.992671,1077,2.77535,19,1,3
app_46,411.805,20670.1,7976.9,22.5491,8.95932,1.95604e+10,1.00044,0.992671,882,2.17338,23,1,3
app_47,603.983,20372.3,7994.2,5.8,7.38171,4.63943e+09,1.00015,0.992671,1111,0.579929,18,1,3
app_48,637.366,20770.7,7994.7,4.6935,7.53014,3.94686e+09,1.00017,0.992671,1064,0.493358,19,1,3
app_49,476.889,21400.3,7985.5,10.144,8.01722,8.18232e+09,1.00079,0.992671,984,1.02279,21,1,3
app_5,4.75369,19961.8,7917,70.7334,790.853,2.91477e+09,1.01011,0.992671,10,0.00368492,1973,1,1
app_50,364.738,20678.6,7954.4,43.8989,8.47564,3.70012e+10,1.00108,0.992671,917,4.62515,22,1,3
app_51,482.465,21488.4,7993.8,6.2,8.57412,5.17778e+09,1.00013,0.992671,951,0.575309,22,1,3
app_52,174.942,19728.8,7970.7,29.3,9.12289,2.4232e+10,1.00063,0.992671,914,2.69245,22,1,3
app_53,444.56,20816,7958.3,41.7,9.56306,3.6066e+10,1.0007,0.992671,848,4.00733,24,1,3
app_54,283.248,21646.5,7946.5,52.9817,7.90112,4.64266e+10,1.00088,0.992671,977,5.80333,21,1,3
app_55,836.126,21804.9,7979.3,20.7,7.87045,1.66379e+10,1.00051,0.992671,996,2.07973,21,1,3
app_56,687.343,21278.5,7952.7,47.3,7.6248,3.99143e+10,1.00092,0.992671,998,5.70204,20,1,3
app_57,42.2222,20507.6,7957.5,42.5,7.77688,3.54367e+10,1.00088,0.992671,1003,4.42959,20,1,3
app_58,282.235,21189.2,7974.2,21.3237,8.03127,1.87265e+10,1.00088,0.992671,993,2.34081,21,1,3
app_59,1156.12,22880.6,7944,56,6.5983,4.81011e+10,1.00099,0.992671,1169,6.87158,18,1,3
app_6,5.72098,18178.5,7874.2,108.897,1127.04,3.45497e+10,1.01154,0.992671,7,0.0306564,2557,1,1
app_60,821.404,20784.9,7966.3,33.7,8.47864,2.81565e+10,1.00069,0.992671,956,3.51957,21,1,3
app_7,2.09562,18701.7,7883.2,100.593,981.196,4.65185e+10,1.00886,0.992671,8,0.0474195,2298,1,1
app_8,6.85987,19362.3,7888.8,97.432,877.214,4.56421e+10,1.00826,0.992671,9,0.0520435,2121,1,1
app_9,5.58971,18757,7900.9,83.1921,876.924,1.92905e+10,1.01008,0.992671,9,0.021996,2058,1,1
