app_id,start_app,end_app,effective_cpu,effective_io,effective_iter,total_bytes,stretch,utilization,Tcomp,Tio,iterations,priority,group_id
app_1,4.90995,19371,7897.7,93.6193,788.619,5.49791e+10,1.00595,0.993655,10,0.069682,1914,1,1
app_10,1.23967,19696.6,7897.4,92.866,791.625,5.16087e+10,1.00641,0.993655,10,0.0651625,1948,1,1
app_11,7.95514,19081,7905.3,83.0945,878.632,1.49421e+10,1.01007,0.993655,9,0.0170183,2093,1,1
app_12,0.437232,19904.5,7900.4,91.6184,791.378,4.83117e+10,1.00645,0.993655,10,0.0609997,1968,1,1
app_13,0.555161,18604.9,7889.1,100.467,875.812,4.7681e+10,1.00797,0.993655,9,0.0544303,2039,1,1
app_14,0.814085,19181.9,7914.1,77.2828,788.951,2.55208e+10,1.0076,0.993655,10,0.0323457,1898,1,1
app_15,5.58792,19230.7,7888.5,99.3302,877.538,4.68446e+10,1.00815,0.993655,9,0.0534146,2106,1,1
app_16,9.08986,18651.8,7918.9,72.9326,792.159,3.02814e+09,1.00986,0.993655,10,0.00382341,1846,1,1
app_17,9.5128,20032.8,7915.5,75.6667,789.899,1.89572e+10,1.00826,0.993655,10,0.0239965,1977,1,1
app_18,30.2102,19979.8,7980.5,16.7611,72.5142,1.25685e+10,1.00087,0.993655,110,0.174562,181,1,2
app_19,54.1948,19962.5,7989.9,8.53831,86.5374,2.11889e+09,1.001,0.993655,92,0.024355,216,1,2
app_2,3.63285,18488.4,7916.9,73.8757,794.033,6.67562e+09,1.00965,0.993655,10,0.00839701,1830,1,1
app_20,28.4988,19817.6,7937,59.8706,85.1183,4.88423e+10,1.00177,0.993655,94,0.574615,210,1,2
app_21,93.2715,20032,7973,25.4762,80.1469,1.78936e+10,1.00114,0.993655,100,0.223671,199,1,2
app_22,71.2058,20004.5,7974.2,23.0055,96.1053,1.69082e+10,1.00111,0.993655,83,0.176127,240,1,2
app_23,103.658,20167.3,7978.4,20.9776,69.5601,1.5747e+10,1.00073,0.993655,114,0.228217,175,1,2
app_24,16.8672,20065.1,7987.6,9.31219,96.3427,2.03498e+09,1.0013,0.993655,83,0.0209791,241,1,2
app_25,34.7687,19813,7963.2,34.2101,70.6435,2.78116e+10,1.00112,0.993655,113,0.397308,175,1,2
app_26,71.6301,20217,7989.1,8.52953,86.4483,1.28219e+09,1.0012,0.993655,91,0.0147379,219,1,2
app_27,71.1295,20227.5,7982.5,14.8339,68.1111,1.00024e+10,1.00094,0.993655,117,0.144962,171,1,2
app_28,37.4379,19858.9,7943.6,53.3931,87.9662,4.20586e+10,1.0018,0.993655,90,0.477938,219,1,2
app_29,18.5029,19923.7,7939.6,58.8095,78.8489,4.59363e+10,1.00181,0.993655,102,0.581473,195,1,2
app_3,0.157319,19165.7,7898.8,90.4855,878.277,4.17744e+10,1.00748,0.993655,9,0.0475249,2106,1,1
app_30,0.223671,20059,7935.4,60.7052,75.0911,4.84454e+10,1.00202,0.993655,105,0.645938,189,1,2
app_31,83.1127,20206.1,7989.8,8.70829,89.5967,1.06713e+09,1.00114,0.993655,89,0.0119902,225,1,2
app_32,14.1586,20122.9,7934.1,63.6927,81.3545,5.05032e+10,1.00193,0.993655,97,0.615893,205,1,2
app_33,48.6766,20172.8,7947.4,48.8008,70.9373,3.73458e+10,1.00191,0.993655,112,0.525997,178,1,2
app_34,39.3437,19990.3,7989.5,9.36473,77.9446,5.98993e+09,1.00056,0.993655,102,0.0767939,195,1,2
app_35,16.0388,20165.3,7953.4,43.9557,90.5262,3.42128e+10,1.00155,0.993655,87,0.375965,229,1,2
app_36,110.64,20103.6,7979.6,17.8862,72.0329,1.31121e+10,1.00091,0.993655,110,0.182112,181,1,2
app_37,30.367,20018.8,7967.2,30.8538,85.3688,2.26941e+10,1.00126,0.993655,94,0.26699,212,1,2
app_38,176.093,20684.3,7952.2,47.8,7.81662,4.18523e+10,1.00074,0.993655,1035,5.23153,20,1,3
app_39,138.833,20475.3,7950.1,49.9,7.98126,4.37339e+10,1.00077,0.993655,1014,5.46673,20,1,3
app_4,5.64988,19538.8,7913.8,76.2733,789.55,2.04736e+10,1.00828,0.993655,10,0.0259488,1928,1,1
app_40,624.421,20321.3,7958.3,39.6922,7.68501,3.27142e+10,1.00112,0.993655,1049,4.67346,19,1,3
app_41,567.783,20920.1,7964,34.3859,7.83201,3.01298e+10,1.00073,0.993655,1007,3.76622,20,1,3
app_42,110.698,21050.1,7975.2,24.8,7.35256,2.23094e+10,1.00031,0.993655,1069,3.18706,19,1,3
app_43,408.159,21329.3,7977.7,18.8011,7.67507,1.55938e+10,1.00084,0.993655,1039,2.22768,20,1,3
app_44,492.915,21300.9,7927.3,67.3122,7.79307,5.7873e+10,1.00186,0.993655,1032,7.23413,20,1,3
app_45,818.462,22031.3,7963.1,32.6441,7.47258,2.85147e+10,1.00105,0.993655,1037,3.56433,20,1,3
app_46,709.372,20794.6,7981.1,18.9,7.47373,1.69541e+10,1.00024,0.993655,1054,2.42202,19,1,3
app_47,551.778,20622.3,7996.1,0.765574,7.70806,4.71042e+08,1.00043,0.993655,1055,0.0588802,19,1,3
app_48,1116.78,21698.9,7991.6,8.4,6.98754,6.73483e+09,1.00021,0.993655,1131,0.962119,18,1,3
app_49,571.854,22038.8,7961.7,36.2739,6.84751,3.27511e+10,1.00069,0.993655,1163,4.67873,18,1,3
app_5,7.39721,19810.9,7916.5,74.917,793.283,1.19398e+10,1.00903,0.993655,10,0.0150564,1961,1,1
app_50,379.33,20936.1,7964.8,35.2,7.76934,3.13769e+10,1.00048,0.993655,1013,3.92211,20,1,3
app_51,794.119,21588.5,7976.8,20.3076,8.54526,1.75128e+10,1.00071,0.993655,938,2.1891,22,1,3
app_52,183.915,20696.7,7993.5,6.5,7.36715,5.6941e+09,1.0001,0.993655,1053,0.813443,19,1,3
app_53,468.855,21504.9,7976.9,21.7058,7.14098,1.93903e+10,1.00046,0.993655,1076,2.77005,19,1,3
app_54,943.756,21151.9,7944.2,54.8459,7.54736,4.74277e+10,1.00105,0.993655,1059,5.92846,19,1,3
app_55,921.748,21346.8,7973.8,26.2,7.89013,2.27925e+10,1.00043,0.993655,1026,3.25607,20,1,3
app_56,765.25,21575.8,7963.9,30.5527,7.34069,2.57487e+10,1.0013,0.993655,1083,3.21859,19,1,3
app_57,25.6897,21165.9,7931.9,66.2664,8.80859,5.64127e+10,1.00146,0.993655,897,6.26808,23,1,3
app_58,1063.97,21122.6,7937.6,62.0823,7.14236,5.44811e+10,1.00099,0.993655,1113,7.78301,18,1,3
app_59,793.524,21256.5,7952.5,47.5,9.64718,4.08802e+10,1.00083,0.993655,821,4.08802,25,1,3
app_6,2.57208,18526.5,7897.8,93.5761,788.815,5.57078e+10,1.00585,0.993655,10,0.0706056,1826,1,1
app_60,76.5618,20476.2,7991.9,8.1,8.69253,7.19765e+09,1.00011,0.993655,940,0.799739,22,1,3
app_7,8.44477,18602.6,7904.5,84.4051,880.95,1.77535e+10,1.00981,0.993655,9,0.0201516,2046,1,1
app_8,7.94391,20062.2,7913.7,77.6988,790.008,2.87004e+10,1.00725,0.993655,10,0.0363297,1981,1,1
app_9,2.39935,19856.2,7924.4,68.1868,718.314,1.10938e+10,1.00813,0.993655,11,0.0154509,1785,1,1
