app_id,start_app,end_app,effective_cpu,effective_io,effective_iter,total_bytes,stretch,utilization,Tcomp,Tio,iterations,priority,group_id
app_1,8.23354,18939.7,7907.4,92.6,791.995,4.84581e+10,1.00555,0.993728,10,0.0611845,1870,1,1
app_10,5.30877,20027.1,7905.1,94.9,792.818,4.95454e+10,1.0057,0.993728,10,0.0624784,1981,1.00001,1.00001
app_11,4.00155,18371.8,7917.4,82.6,791.665,3.34676e+10,1.00618,0.993728,10,0.0423105,1821,1.00001,1.00001
app_12,7.97683,19486.4,7909.7,90.3,876.236,3.45432e+10,1.00702,0.993728,9,0.0394328,2139,1.00001,1.00001
app_13,7.77327,17976.5,7887.4,112.6,1125.68,1.41793e+10,1.01246,0.993728,7,0.0125927,2533,1.00001,1.00001
app_14,7.77993,20049.7,7901.6,98.4,984.691,1.44231e+10,1.01061,0.993728,8,0.0146576,2473,1.00001,1.00001
app_15,8.66981,20126,7917.6,82.4,790.829,3.27067e+10,1.00625,0.993728,10,0.0413486,1990,1.00002,1.00002
app_16,8.19833,19067.5,7924.1,75.9,721.489,3.16187e+10,1.00557,0.993728,11,0.0437932,1718,1.00002,1.00002
app_17,44.3061,19946.8,7991.6,8.4,83.9763,1.54883e+09,1.00086,0.993728,95,0.0184385,210,1.00002,1.00002
app_18,3.88127,19989,7978.9,21.1,81.6195,1.47289e+10,1.0008,0.993728,98,0.181838,203,1.00002,1.00002
app_19,23.1193,20127.7,7956.7,43.3,86.5206,3.10034e+10,1.00154,0.993728,92,0.35636,217,1.00002,1.00002
app_2,0.947148,17846.3,7883.3,116.7,1127.65,3.98378e+10,1.0097,0.993728,7,0.0353172,2518,1,1
app_20,79.4406,19952.9,7978.7,21.3,95.0848,1.02711e+10,1.00138,0.993728,85,0.108117,234,1.00002,1.00002
app_21,93.4124,20101.2,7964.4,35.6,72.4219,2.50939e+10,1.00131,0.993728,109,0.343752,182,1.00002,1.00002
app_22,21.2568,20091.8,7992.2,7.8,71.9317,3.41923e+09,1.00055,0.993728,110,0.0474893,182,1.00002,1.00002
app_23,82.3681,20119,7970.3,29.7,77.2879,2.2161e+10,1.00094,0.993728,103,0.287805,193,1.00002,1.00002
app_24,5.39443,20084.2,7991.7,8.3,80.3573,2.95274e+09,1.00067,0.993728,99,0.0369093,202,1.00002,1.00002
app_25,74.2721,19985.5,7974.4,25.6,73.2797,1.73501e+10,1.00103,0.993728,109,0.237672,183,1.00003,1.00003
app_26,5.30851,20089.5,7937.4,62.6,85.0061,4.68397e+10,1.00197,0.993728,93,0.551055,214,1.00003,1.00003
app_27,78.4873,19987.1,7965.3,34.7,92.5298,2.41323e+10,1.00132,0.993728,86,0.262308,230,1.00003,1.00003
app_28,0.680266,19821.2,7967.6,32.4,98.4082,2.00924e+10,1.00154,0.993728,82,0.202953,242,1.00003,1.00003
app_29,54.5055,19999.1,7967.8,32.2,80.9207,2.30481e+10,1.00115,0.993728,99,0.284544,201,1.00003,1.00003
app_3,4.51636,18839.4,7912.1,87.9,878.822,5.08325e+09,1.01046,0.993728,9,0.00578299,2069,1,1
app_30,30.3888,20040.5,7937.9,62.1,67.1339,4.76402e+10,1.00181,0.993728,119,0.700592,167,1.00003,1.00003
app_31,78.3145,20145,7972.5,27.5,83.9876,1.86972e+10,1.0011,0.993728,95,0.222585,210,1.00003,1.00003
app_32,1.19277,20033.9,7933.3,66.7,84.5014,4.91006e+10,1.0022,0.993728,94,0.577654,210,1.00003,1.00003
app_33,83.9617,20068.4,7927.6,72.4,81.977,5.27717e+10,1.00246,0.993728,97,0.643557,204,1.00003,1.00003
app_34,50.4379,20113.1,7944.9,55.1,74.6128,3.9025e+10,1.00201,0.993728,106,0.520333,187,1.00003,1.00003
app_35,51.4874,19902.5,7940.5,59.5,76.0279,4.35112e+10,1.002,0.993728,104,0.572516,190,1.00004,1.00004
app_36,13.7749,19788.7,7939.1,60.9,87.1795,4.71649e+10,1.00172,0.993728,92,0.542125,215,1.00004,1.00004
app_37,174.365,20279.5,7972.9,27.1,8.26687,2.25855e+10,1.00056,0.993728,977,2.82319,21,1.00004,1.00004
app_38,99.7028,20275.2,7944.5,55.5,6.5156,4.58029e+10,1.00121,0.993728,1180,7.63382,17,1.00004,1.00004
app_39,731.198,21228.3,7983.3,16.7,10.2245,1.36796e+10,1.00038,0.993728,795,1.36796,26,1.00004,1.00004
app_4,9.57743,18639.2,7911.6,88.4,877.929,2.2459e+10,1.00831,0.993728,9,0.0255798,2044,1,1
app_40,346.138,20688,7993.7,6.3,9.35713,4.94302e+09,1.00017,0.993728,851,0.549225,24,1.00004,1.00004
app_41,190.116,21487,7946,54,7.28421,4.76963e+10,1.00079,0.993728,1087,6.81375,19,1.00004,1.00004
app_42,267.469,20931.5,7994.9,5.1,6.85013,4.04653e+09,1.00013,0.993728,1130,0.674422,18,1.00004,1.00004
app_43,418.753,21166.8,7991.7,8.3,6.63842,6.91895e+09,1.00017,0.993728,1212,0.988421,17,1.00004,1.00004
app_44,979.425,21807.4,7957.6,42.4,7.71956,3.04079e+10,1.0015,0.993728,1047,3.80099,20,1.00004,1.00004
app_45,664.037,20442,7957.4,42.6,7.41216,3.56936e+10,1.00086,0.993728,1107,4.4617,18,1.00004,1.00004
app_46,372.238,21640.6,7989.7,10.3,7.57869,8.70436e+09,1.0002,0.993728,1044,1.24348,20,1.00005,1.00005
app_47,463.74,21489.9,7955.7,44.3,7.56401,3.66923e+10,1.00095,0.993728,1045,5.24175,20,1.00005,1.00005
app_48,449.075,21472.3,7965.9,34.1,8.0209,2.73528e+10,1.00084,0.993728,993,3.4191,21,1.00005,1.00005
app_49,53.978,20735.4,7972.7,27.3,8.52858,2.22394e+10,1.00063,0.993728,931,2.77992,22,1.00005,1.00005
app_5,6.14452,18855,7916.4,83.6,791.697,3.71263e+10,1.00584,0.993728,10,0.0469359,1867,1.00001,1.00001
app_50,179.186,20528.3,7953.2,46.8,8.37758,3.22803e+10,1.00182,0.993728,977,3.5867,21,1.00005,1.00005
app_51,589.353,20791.2,7995.6,4.4,8.0133,3.31743e+09,1.00014,0.993728,1027,0.414679,20,1.00005,1.00005
app_52,1030.52,21475.3,7989.8,10.2,7.34561,7.41603e+09,1.00035,0.993728,1060,1.05943,19,1.00005,1.00005
app_53,1003.34,22124.5,7932.2,67.8,7.48764,4.16973e+10,1.00327,0.993728,1024,5.21216,20,1.00005,1.00005
app_54,859.041,21655.1,7960.3,39.7,7.92426,3.28577e+10,1.00086,0.993728,1037,4.10721,20,1.00005,1.00005
app_55,835.724,20974.2,7971.3,28.7,8.10213,2.31019e+10,1.0007,0.993728,1001,2.56688,20,1.00005,1.00005
app_56,675.339,20886.6,7999.1,0.9,7.23069,5.11006e+08,1.00005,0.993728,1129,0.0730009,18,1.00006,1.00006
app_57,844.358,21616.3,7980.3,19.7,8.46677,1.61879e+10,1.00044,0.993728,940,2.02349,22,1.00006,1.00006
app_58,548.712,20912.2,7917.74,82.2575,7.11852,5.25762e+10,1.00372,0.993728,1133,7.30514,18,1.00006,1.00006
app_59,431.619,20837.8,7933.7,66.3,7.15593,4.30026e+10,1.00292,0.993728,1113,5.37533,18,1.00006,1.00006
app_6,5.79069,20106.5,7920.4,79.6,795.521,1.6245e+10,1.00798,0.993728,10,0.020434,1996,1.00001,1.00001
app_60,399.174,20115.9,7975.1,24.9,7.24878,1.91774e+10,1.00072,0.993728,1108,2.73963,18,1.00006,1.00006
app_7,5.4049,19015,7910.4,89.6,719.978,5.43896e+10,1.00442,0.993728,11,0.075541,1708,1.00001,1.00001
app_8,0.14717,18174.7,7897.1,102.9,876.523,4.94688e+10,1.00672,0.993728,9,0.0564068,1990,1.00001,1.00001
app_9,3.27258,18872.7,7900.5,99.5,986.764,3.00721e+10,1.00875,0.993728,8,0.0304991,2326,1.00001,1.00001
