app_id,start_app,end_app,effective_cpu,effective_io,effective_iter,total_bytes,stretch,utilization,Tcomp,Tio,iterations,priority,group_id
app_1,3.58696,19915.5,7920.8,79.2,792.178,8.53559e+09,1.00891,0.992071,10,0.0107773,1974,0.0986884,1
app_10,1.13417,18679.5,7900.3,99.7,878.303,5.91488e+10,1.00509,0.992071,9,0.0673677,2048,0.102369,1.00001
app_11,9.81103,19777.7,7928,72,719.303,8.27957e+09,1.00803,0.992071,11,0.0114994,1778,0.088871,1.00001
app_12,6.88266,18607.1,7899.7,100.3,878.723,5.81013e+10,1.0053,0.992071,9,0.0660993,2041,0.102013,1.00001
app_13,0.455672,20063,7920.8,79.2,792.3,9.77726e+08,1.00987,0.992071,10,0.0012345,1991,0.0995032,1.00001
app_14,0.416745,18412.8,7900.8,99.2,986.183,3.2912e+10,1.00836,0.992071,8,0.0333793,2271,0.113548,1.00001
app_15,2.78294,19036.6,7904.6,95.4,876.817,5.51981e+10,1.00505,0.992071,9,0.0629397,2088,0.104377,1.00002
app_16,9.48149,19060.4,7905.9,94.1,880.243,5.00948e+10,1.00553,0.992071,9,0.0569259,2094,0.104661,1.00002
app_17,7.40492,19872.6,7920.1,79.9,795.643,2.69422e+10,1.00666,0.992071,10,0.033847,1971,0.0985343,1.00002
app_18,8.79873,18339.3,7901.6,98.4,983.763,1.45334e+08,1.01243,0.992071,8,0.000147697,2260,0.11298,1.00002
app_19,11.5564,18530.7,7927.7,72.3,718.39,2.26218e+10,1.00625,0.992071,11,0.0314629,1664,0.0831743,1.00002
app_2,1.55502,19094.4,7900.5,99.5,988.166,3.79745e+10,1.00775,0.992071,8,0.0384357,2357,0.117808,1
app_20,2.65783,20036.7,7901.57,98.4275,984.009,4.37213e+09,1.0119,0.992071,8,0.00444198,2474,0.123672,1.00002
app_21,1.12397,19341.7,7918.3,81.7,792.787,3.76636e+10,1.00554,0.992071,10,0.0474951,1914,0.0956793,1.00002
app_22,8.90175,19830.9,7920.5,79.5,789.509,2.70403e+10,1.0066,0.992071,10,0.0342716,1962,0.0980785,1.00002
app_23,7.24622,18907.2,7927.8,72.2,721.329,1.61331e+09,1.0089,0.992071,11,0.0022345,1707,0.0853174,1.00002
app_24,10.1927,19363.2,7912.6,87.4,718.827,6.05183e+10,1.00337,0.992071,11,0.0841701,1738,0.0868701,1.00002
app_25,2.26295,19865.1,7911.5,88.5,879.732,3.72533e+10,1.00645,0.992071,9,0.0423333,2185,0.1092,1.00003
app_26,8.99983,17942.6,7896.4,103.6,984.266,5.38031e+10,1.00626,0.992071,8,0.054678,2210,0.11046,1.00003
app_27,5.71609,18708.9,7912,88,879.824,1.67051e+10,1.00899,0.992071,9,0.0189831,2061,0.103036,1.00003
app_28,4.64883,19913.9,7917,83,718.349,5.01383e+10,1.00412,0.992071,11,0.0697334,1791,0.0895265,1.00003
app_29,3.34354,19963.6,7911.8,88.2,879.127,2.68207e+10,1.00773,0.992071,9,0.0305128,2199,0.109947,1.00003
app_3,11.0143,19651.8,7927.8,72.2,719.175,1.80105e+10,1.00682,0.992071,11,0.0250493,1771,0.0885102,1
app_30,0.85607,18163.5,7900.2,99.8,876.875,5.65762e+10,1.00543,0.992071,9,0.0645111,1990,0.0994892,1.00003
app_31,9.07919,19283.6,7912,88,878.845,2.92414e+10,1.0074,0.992071,9,0.0332666,2123,0.106114,1.00003
app_32,10.3957,19113.4,7920.4,79.6,792.009,2.66154e+10,1.00667,0.992071,10,0.0336052,1892,0.0945814,1.00003
app_33,3.50794,19360,7919.5,80.5,789.651,3.46908e+10,1.00576,0.992071,10,0.0439124,1913,0.0956221,1.00003
app_34,6.0513,18513.6,7909.1,90.9,793.633,5.37623e+10,1.00466,0.992071,10,0.0677106,1837,0.0918435,1.00003
app_35,12.6268,19806.8,7981,19,85.3717,1.19807e+10,1.00088,0.992071,94,0.14095,211,0.0105202,1.00004
app_36,110.206,20381.1,7952.1,47.9,70.9228,3.52422e+10,1.00158,0.992071,111,0.496369,180,0.00896604,1.00004
app_37,33.5793,19882,7967.3,32.7,87.8711,2.14542e+10,1.00141,0.992071,91,0.243798,217,0.0108456,1.00004
app_38,92.0985,20007.5,7988.3,11.7,82.4595,7.23872e+09,1.00056,0.992071,97,0.0872135,205,0.0102245,1.00004
app_39,105.15,20162.6,7956.4,43.6,69.4371,3.39411e+10,1.00121,0.992071,113,0.484874,176,0.0087968,1.00004
app_4,9.47876,19233.4,7901.6,98.4,877.469,6.05908e+10,1.00475,0.992071,9,0.0690101,2107,0.105307,1
app_40,36.9449,19814.2,7955.4,44.6,84.9273,3.37918e+10,1.00135,0.992071,94,0.397551,210,0.0104953,1.00004
app_41,65.4075,19964.3,7988.7,11.3,91.4658,6.79103e+09,1.00056,0.992071,87,0.0738156,228,0.0113723,1.00004
app_42,72.2716,20045.6,7991.5,8.5,84.9712,8.34412e+08,1.00096,0.992071,94,0.00981661,212,0.0105996,1.00004
app_43,71.2436,20048.9,7990.1,9.9,85.6649,5.10802e+09,1.0006,0.992071,93,0.0593956,214,0.0106606,1.00004
app_44,81.9864,19806.8,7953.1,46.9,89.6072,3.49586e+10,1.00149,0.992071,89,0.388429,222,0.0110782,1.00004
app_45,62.3636,20140.6,7984,16,75.0857,9.41188e+09,1.00082,0.992071,107,0.123841,187,0.00933484,1.00004
app_46,2.77344,19956.2,7944.5,55.5,67.4969,4.26298e+10,1.00161,0.992071,118,0.626909,168,0.00837077,1.00005
app_47,57.4872,19963.5,7982.6,17.4,73.6784,1.12523e+10,1.00077,0.992071,109,0.152058,183,0.0091032,1.00005
app_48,55.4867,20112.7,7975.1,24.9,70.9825,1.72221e+10,1.00096,0.992071,112,0.242565,178,0.00887236,1.00005
app_49,66.9858,20033.1,7978.5,21.5,77.47,1.51606e+10,1.00079,0.992071,103,0.196891,193,0.00964383,1.00005
app_5,4.34631,19946.6,7927.3,72.7,722.326,2.38243e+10,1.00615,0.992071,11,0.0329977,1800,0.0899791,1.00001
app_50,43.8093,19988.1,7947.5,52.5,103.798,4.07854e+10,1.00147,0.992071,77,0.392168,258,0.0128941,1.00005
app_51,88.2493,20044.7,7975.3,24.7,87.2406,1.70226e+10,1.00096,0.992071,91,0.195662,218,0.0108981,1.00005
app_52,83.6093,19841,7991.9,8.1,80.9082,1.91896e+09,1.00077,0.992071,99,0.023987,201,0.0100348,1.00005
app_53,52.1606,19962.5,7969.6,30.4,84.1856,2.11972e+10,1.00115,0.992071,95,0.252347,209,0.0104361,1.00005
app_54,38.733,19842.5,7963,37,70.958,2.8262e+10,1.00109,0.992071,112,0.398056,177,0.00884179,1.00005
app_55,690.733,20924.6,7953.6,46.4,7.68545,3.02554e+10,1.00202,0.992071,1026,3.78192,20,0.000970861,1.00005
app_56,670.779,20755.1,7933,67,7.83626,4.8756e+10,1.00229,0.992071,996,6.0945,20,0.000997865,1.00006
app_57,586.099,20343.5,7925.42,74.5781,8.89202,5.4771e+10,1.00248,0.992071,922,6.42068,22,0.00107679,1.00006
app_58,271.916,21256.7,7939.9,60.1,8.2288,4.91667e+10,1.00137,0.992071,943,6.14584,22,0.00105334,1.00006
app_59,562.844,20697.9,7984.2,15.8,8.48801,1.28923e+10,1.00036,0.992071,978,1.61154,21,0.00102009,1.00006
app_6,5.41115,18922,7901.3,98.7,987.3,5.64881e+09,1.01177,0.992071,8,0.00572321,2336,0.116752,1.00001
app_60,796.007,21582.6,7989.1,10.9,7.29873,8.89409e+09,1.00025,0.992071,1103,1.11176,19,0.000905151,1.00006
app_7,6.60504,20127.7,7933.8,66.2,662.153,5.10495e+09,1.0077,0.992071,12,0.0077114,1662,0.0830798,1.00001
app_8,3.65766,19505.4,7907.9,92.1,876.45,4.69314e+10,1.00568,0.992071,9,0.0535135,2137,0.106842,1.00001
app_9,8.17338,19864.1,7912,88,880.901,9.2031e+09,1.00995,0.992071,9,0.0104581,2182,0.109083,1.00001
