app_id,start_app,end_app,effective_cpu,effective_io,effective_iter,total_bytes,stretch,utilization,Tcomp,Tio,iterations,priority,group_id
app_1,1.23166,19235.6,7695,68.9383,772.423,1.20063e+10,1.03802,0.986139,10,0.015532,1854,1,1
app_10,6.05828,19312.5,7642.9,81.662,850.722,3.47077e+10,1.04199,0.986139,9,0.0408326,2055,1,1
app_11,2.28646,19026.8,7623,82.4883,952.371,4.49462e+09,1.04884,0.986139,8,0.00471628,2261,1,1
app_12,3.14414,19313.7,7632.7,76.4158,847.967,1.47947e+10,1.04609,0.986139,9,0.0174466,2059,1,1
app_13,3.83011,20435.9,7731.5,67.3039,703.012,2.52386e+10,1.03136,0.986139,11,0.0359012,1796,1,1
app_14,5.49253,20337.4,7686.4,73.7002,768.702,2.89764e+10,1.03689,0.986139,10,0.0376806,1951,1,1
app_15,76.11,20072.4,7934.5,25.9105,89.1895,2.02358e+10,1.00569,0.986139,89,0.227368,223,1,1
app_16,88.7147,20019.3,7947.1,23.8868,81.7209,1.76202e+10,1.00443,0.986139,98,0.21488,203,1,1
app_17,27.8548,19911.7,7940.2,44.981,91.6924,3.81328e+10,1.00272,0.986139,86,0.414487,229,1,1
app_18,22.4182,20190.6,7923,45.093,91.7717,3.95055e+10,1.00471,0.986139,85,0.429408,234,1,1
app_19,2.48292,20082.1,7975.6,9.94578,93.6898,6.95763e+09,1.00219,0.986139,85,0.0740174,236,1,1
app_2,6.39019,18822.2,7622.1,83.9644,950.882,1.5186e+10,1.04749,0.986139,8,0.0159853,2242,1,1
app_20,19.5257,20114.1,7964.7,16.289,81.2909,1.27799e+10,1.00282,0.986139,98,0.157777,204,1,1
app_21,97.0663,19984.1,7931.9,49.1671,81.6552,4.43846e+10,1.00297,0.986139,98,0.541275,202,1,1
app_22,33.844,20138,7934.3,33.7092,82.5555,3.04734e+10,1.00442,0.986139,97,0.367149,205,1,1
app_23,12.1851,20094,7908.5,60.0103,87.852,5.29527e+10,1.00484,0.986139,90,0.601736,221,1,1
app_24,37.7533,19969.5,7960.9,22.2508,70.8597,2.09995e+10,1.00227,0.986139,112,0.295768,177,1,1
app_25,40.9101,20079.8,7945.6,15.0605,75.9859,1.0212e+10,1.00555,0.986139,104,0.134368,192,1,1
app_26,95.9928,20199.9,7954.7,16.9253,78.4799,1.5416e+10,1.00375,0.986139,100,0.19514,199,1,1
app_27,62.9624,20046.9,7929.5,51.0142,82.5876,4.96822e+10,1.00261,0.986139,96,0.59858,206,1,1
app_28,64.6722,19983.1,7937.7,34.5601,71.016,2.90268e+10,1.00418,0.986139,113,0.408828,176,1,1
app_29,60.7013,20102.8,7924,53.3942,88.7042,4.88603e+10,1.0034,0.986139,89,0.548993,223,1,1
app_3,4.83217,20415,7700.6,68.5318,765.515,1.5408e+10,1.03681,0.986139,10,0.0201149,1957,1,1
app_30,56.5738,20168.6,7944.3,30.4923,78.6877,2.56594e+10,1.00377,0.986139,101,0.328967,197,1,1
app_31,15.1185,19855.6,7952.1,30.8232,75.9669,2.92674e+10,1.00233,0.986139,105,0.385098,189,1,1
app_32,84.3929,20004.2,7970.6,9.11273,90.7973,4.2774e+09,1.00315,0.986139,88,0.0470044,226,1,1
app_33,21.9422,19983.5,7958.6,30.7505,76.8156,2.67884e+10,1.00183,0.986139,102,0.347902,194,1,1
app_34,61.6446,20104.4,7930,16.6659,75.8118,1.46641e+10,1.00697,0.986139,105,0.192948,190,1,1
app_35,579.994,21712.6,7984.5,15.1643,8.37415,1.44454e+10,1.00013,0.986139,946,1.60504,22,1,1
app_36,234.613,20334.7,7943.5,55.8731,8.7935,5.5635e+10,1.00011,0.986139,919,6.18166,22,1,1
app_37,569.024,20914.6,7977,16.6602,8.47366,1.62797e+10,1.00084,0.986139,907,2.03496,22,1,1
app_38,224.862,20594.2,7962.5,36.7449,7.79251,3.61543e+10,1.00017,0.986139,1014,4.51929,20,1,1
app_39,201.17,20711.3,7971.5,27.9843,8.51446,2.7201e+10,1.00016,0.986139,937,3.40012,22,1,1
app_4,5.42073,19579,7689.3,80.3482,854.494,2.59633e+10,1.03691,0.986139,9,0.030402,2085,1,1
app_40,354.463,21216.3,7970.3,29.5649,7.56372,2.91703e+10,1.00007,0.986139,1045,3.64629,20,1,1
app_41,227.088,20242.4,7999.1,0.83409,6.7675,5.81072e+08,1.00004,0.986139,1178,0.0830102,17,1,1
app_42,479.334,20781.6,7970.2,24.0515,7.65763,2.37161e+10,1.00076,0.986139,1011,2.96452,20,1,1
app_43,95.474,20822.7,7975.9,19.9805,7.77254,1.96106e+10,1.00056,0.986139,1037,2.45133,20,1,1
app_44,59.6649,21247.9,7946.4,53.1318,8.52409,5.2663e+10,1.00012,0.986139,942,5.85144,22,1,1
app_45,544.665,20451.3,7967.1,31.4992,7.73326,3.14702e+10,1.00018,0.986139,1063,4.49574,19,1,1
app_46,650.428,22182.1,7976.5,20.2785,6.57046,1.98836e+10,1.00045,0.986139,1172,2.84051,18,1,1
app_47,256.98,20228.1,7982.5,17.494,7.02149,1.7189e+10,1.00004,0.986139,1125,2.45557,18,1,1
app_48,787.498,20649.7,7954.4,45.5249,8.39146,4.48757e+10,1.00009,0.986139,958,5.60946,21,1,1
app_49,130.507,20568,7963.5,33.6225,8.08468,3.31798e+10,1.00042,0.986139,975,4.14747,21,1,1
app_5,5.86603,20683.8,7696.8,72.1509,771.899,2.25693e+10,1.03635,0.986139,10,0.0292349,1991,1,1
app_50,662.284,20839.3,7968.5,23.2462,7.71337,2.29512e+10,1.00107,0.986139,1018,2.8689,20,1,1
app_51,461.669,21143.1,7958.6,39.6862,8.95543,3.92974e+10,1.00026,0.986139,895,4.36637,23,1,1
app_52,64.7826,20999.8,7989.5,8.74925,7.9344,8.08797e+09,1.0003,0.986139,974,1.011,21,1,1
app_53,267.988,21265.8,7990.8,2.2307,7.68594,1.72183e+09,1.00094,0.986139,1034,0.215229,20,1,1
app_54,650.15,21473.4,7946.8,53.0566,8.83955,5.25152e+10,1.00009,0.986139,896,5.83502,23,1,1
app_55,924.164,21921.7,7957.5,40.7211,8.33655,4.00732e+10,1.0003,0.986139,939,5.00915,22,1,1
app_56,675.762,21454.6,7970.1,25.0848,8.51484,2.44603e+10,1.00068,0.986139,918,2.71781,22,1,1
app_57,587.516,20458,7961.1,38.7443,8.54554,3.85891e+10,1.00004,0.986139,955,4.28768,21,1,1
app_58,819.485,21505.6,7960.7,36.1029,8.03766,3.56736e+10,1.00045,0.986139,967,4.4592,21,1,1
app_59,131.509,21018.8,7967.5,31.212,6.73614,3.09329e+10,1.0002,0.986139,1138,5.15548,18,1,1
app_6,4.83285,19254.2,7597.5,91.6101,950.747,3.54292e+10,1.04809,0.986139,8,0.0372547,2292,1,1
app_60,439.622,21936,7950.4,49.6,7.69292,4.88345e+10,1.0001,0.986139,991,6.10431,21,1,1
app_7,6.30812,18909,7648,73.814,850.272,8.27694e+09,1.04489,0.986139,9,0.00973758,2011,1,1
app_8,7.79288,20228.2,7642.6,83.3676,846.614,3.55973e+10,1.04191,0.986139,9,0.0420772,2149,1,1
app_9,10.6901,20097.5,7703.9,65.6658,700.459,2.11811e+10,1.03559,0.986139,11,0.0302588,1757,1,1
