app_id,start_app,end_app,effective_cpu,effective_io,effective_iter,total_bytes,stretch,utilization,Tcomp,Tio,iterations,priority,group_id
app_1,8.4107,18823.8,7912.2,87.8,878.456,2.32063e+10,1.00814,0.994641,9,0.0264309,2065,0.103214,1
app_10,7.60224,19680.3,7911.8,88.2,881.723,1.54418e+10,1.00918,0.994641,9,0.0175077,2168,0.108379,1.00001
app_11,6.03718,20009.2,7984.9,15.1,72.635,7.93159e+09,1.0009,0.994641,110,0.110161,181,0.00904928,1.00001
app_12,84.7806,20046.2,7980.8,19.2,90.7941,1.1808e+10,1.00092,0.994641,88,0.129758,226,0.0112683,1.00001
app_13,77.8972,19990.5,7992.9,7.1,71.1505,1.36644e+09,1.00072,0.994641,112,0.0192456,178,0.00885663,1.00001
app_14,35.3768,19933,7936.4,63.6,83.1076,5.26866e+10,1.00137,0.994641,96,0.634778,206,0.0102935,1.00001
app_15,24.6105,20030,7971.2,28.8,84.5921,2.29769e+10,1.00073,0.994641,94,0.273534,211,0.0105115,1.00002
app_16,14.0062,19977.8,7949.7,50.3,87.8914,4.12418e+10,1.00113,0.994641,91,0.468657,219,0.0109051,1.00002
app_17,102.315,20172.4,7944.3,55.7,75.3968,4.6634e+10,1.00113,0.994641,105,0.621786,189,0.00940183,1.00002
app_18,90.7973,20186.3,7931.1,68.9,75.1455,5.71042e+10,1.00148,0.994641,105,0.761389,190,0.00945137,1.00002
app_19,53.1302,20054,7972,28,84.6147,2.0047e+10,1.001,0.994641,95,0.235847,210,0.0104704,1.00002
app_2,5.49697,18289.6,7901,99,990.216,1.74588e+10,1.0103,0.994641,8,0.0176352,2260,0.112961,1
app_20,52.2627,20191.1,7938.17,61.8292,76.6494,4.89595e+10,1.00161,0.994641,103,0.639047,193,0.00962814,1.00002
app_21,13.1092,20187.6,7981.5,18.5,81.8886,1.1951e+10,1.00082,0.994641,98,0.145744,204,0.0101708,1.00002
app_22,63.3044,20134.4,7977.6,22.4,109.176,1.30294e+10,1.00117,0.994641,73,0.119535,273,0.0136177,1.00002
app_23,86.1292,20014,7982.4,17.6,81.4422,1.09247e+10,1.00084,0.994641,98,0.133228,204,0.0101526,1.00002
app_24,98.9439,20201,7929.5,70.5,79.4725,5.83155e+10,1.00153,0.994641,100,0.738171,199,0.00992346,1.00002
app_25,47.7492,20119.8,7945.6,54.4,79.4231,4.64244e+10,1.001,0.994641,100,0.58765,199,0.00993545,1.00003
app_26,91.5828,20082.6,7991.8,8.2,81.7099,1.52599e+09,1.00083,0.994641,98,0.0186096,204,0.0101847,1.00003
app_27,63.0225,20066.6,7958,42,89.7385,3.40751e+10,1.00099,0.994641,89,0.378612,223,0.0111175,1.00003
app_28,40.3979,20117.1,7936.1,63.9,81.8198,5.36899e+10,1.00128,0.994641,97,0.654755,205,0.0102295,1.00003
app_29,22.9589,20022.6,7955.2,44.8,66.9757,3.87504e+10,1.00076,0.994641,118,0.578365,169,0.00842901,1.00003
app_3,6.05454,19906.8,7928.2,71.8,718.826,3.86932e+09,1.00856,0.994641,11,0.00538902,1790,0.0894831,1
app_30,19.7012,20096.8,7948.2,51.8,80.4355,4.13704e+10,1.00131,0.994641,99,0.510746,201,0.0100294,1.00003
app_31,578.041,21285.6,7973.1,26.9,9.27182,2.0577e+10,1.00079,0.994641,862,2.28634,24,0.00115675,1.00003
app_32,509.356,21167.3,7985.5,14.5,8.1416,1.13648e+10,1.00039,0.994641,979,1.42059,21,0.00101984,1.00003
app_33,6.72559,20550.4,7984,16,8.09356,1.28921e+10,1.00039,0.994641,985,1.61152,21,0.00101327,1.00003
app_34,717.872,20847.3,7966.9,33.1,7.72079,2.45793e+10,1.00107,0.994641,1052,3.07241,19,0.000947084,1.00003
app_35,904.425,20845.1,7966.4,33.6,7.58412,2.5232e+10,1.00105,0.994641,1051,3.154,19,0.000948141,1.00004
app_36,3.58472,20450.1,7981.7,18.3,7.52901,1.48319e+10,1.00043,0.994641,1058,2.11884,19,0.000942657,1.00004
app_37,466.071,20702.5,7987.1,12.9,7.65978,9.19851e+09,1.00046,0.994641,1060,1.31407,19,0.000941709,1.00004
app_38,958.826,21947.1,7999.2,0.8,8.06517,3.8306e+08,1.00005,0.994641,967,0.0478825,21,0.00103355,1.00004
app_39,117.385,20573.8,7958.2,41.8,8.49493,3.37138e+10,1.00101,0.994641,919,4.21423,22,0.00108212,1.00004
app_4,7.61688,18232.9,7910.8,89.2,876.8,6.31718e+10,1.00326,0.994641,9,0.0720317,1997,0.0998106,1
app_40,132.67,20969,7945.5,54.5,8.0782,4.25179e+10,1.0015,0.994641,974,5.31473,21,0.00102032,1.00004
app_41,161.724,20287.8,7983.7,16.3,7.42094,1.25446e+10,1.00047,0.994641,1063,1.79209,19,0.000938384,1.00004
app_42,456.617,20464.7,7971.7,28.3,8.09658,2.17073e+10,1.00082,0.994641,1001,2.71342,20,0.000995391,1.00004
app_43,262.449,20605.8,7983.3,16.7,7.12936,1.23826e+10,1.00054,0.994641,1118,1.76894,18,0.000892874,1.00004
app_44,744.097,20695.4,7955.4,44.6,8.00802,3.81616e+10,1.00081,0.994641,998,4.7702,20,0.000996301,1.00004
app_45,201.968,20661.2,7934.5,65.5,7.3822,5.48164e+10,1.00134,0.994641,1065,7.83091,19,0.000931699,1.00004
app_46,498.25,21517.5,7954.2,45.8,7.08134,3.91873e+10,1.00083,0.994641,1100,4.89841,19,0.000904974,1.00005
app_47,957.246,21270.6,7941.6,58.4,8.37858,5.11167e+10,1.00091,0.994641,968,6.38959,21,0.00102565,1.00005
app_48,907.221,20677.9,7976.3,23.7,7.29676,2.13357e+10,1.0003,0.994641,1115,3.04796,18,0.000893973,1.00005
app_49,144.342,20930.8,7993.9,6.1,8.5053,4.46325e+09,1.0002,0.994641,947,0.557907,22,0.00105532,1.00005
app_5,6.88632,18252.2,7912.1,87.9,878.931,2.57081e+10,1.00783,0.994641,9,0.029247,2003,0.100119,1.00001
app_50,419.92,20747.5,7968.8,31.2,8.51722,2.48043e+10,1.0008,0.994641,915,3.10053,22,0.00108852,1.00005
app_51,326.701,20415.8,7947.5,52.5,8.85817,4.49677e+10,1.00094,0.994641,923,4.99641,22,0.00107747,1.00005
app_52,952.956,20898.1,7988.2,11.8,7.4985,7.7575e+09,1.00051,0.994641,1071,0.969688,19,0.000932396,1.00005
app_53,985.719,22232.5,7950.1,49.9,7.25612,3.55827e+10,1.00179,0.994641,1033,5.08325,20,0.000962717,1.00005
app_54,185.304,20894.7,7957.6,42.4,7.81081,2.94224e+10,1.00162,0.994641,1029,3.67779,20,0.000968165,1.00005
app_55,398.715,20886.9,7955.9,44.1,7.9106,3.25525e+10,1.00145,0.994641,1025,4.06906,20,0.000971328,1.00005
app_56,964.665,21611.7,7963.9,36.1,7.28753,2.92769e+10,1.00085,0.994641,1102,4.18242,19,0.00090348,1.00006
app_57,970.818,21629.4,7958.2,41.8,7.24674,3.45136e+10,1.00091,0.994641,1052,4.93051,19,0.000945766,1.00006
app_58,411.698,21088.9,7970,30,8.82059,2.25893e+10,1.00093,0.994641,933,2.50992,22,0.00106893,1.00006
app_59,295.396,21377.8,7984.5,15.5,8.46794,1.1109e+10,1.00055,0.994641,944,1.23434,22,0.00105786,1.00006
app_6,4.77081,19031.2,7911.9,88.1,880.895,7.99495e+08,1.01103,0.994641,9,0.000907486,2092,0.104551,1.00001
app_60,451.227,21089.6,7984.8,15.2,8.7258,1.17421e+10,1.00043,0.994641,935,1.30468,22,0.00106797,1.00006
app_7,3.63053,19312.4,7921.3,78.7,787.776,1.36716e+10,1.0082,0.994641,10,0.0173718,1907,0.0953259,1.00001
app_8,7.61977,18945.7,7927.3,72.7,720.504,4.41307e+10,1.00358,0.994641,11,0.0612077,1704,0.0851867,1.00001
app_9,5.48246,19834.5,7911.9,88.1,880.44,4.18519e+10,1.00581,0.994641,9,0.047559,2181,0.109023,1.00001
