app_id,start_app,end_app,effective_cpu,effective_io,effective_iter,total_bytes,stretch,utilization,Tcomp,Tio,iterations,priority,group_id
app_1,3.21808,18762.1,7911.5,88.5,876.622,2.51244e+10,1.00799,0.994555,9,0.0286808,2056,1,1
app_10,63.0884,20056.9,7983.3,16.7,73.5879,8.98101e+09,1.00097,0.994555,108,0.121365,184,1.00001,1.00001
app_11,58.2521,19865.8,7981.3,18.7,80.7112,1.26652e+10,1.00075,0.994555,100,0.158316,199,1.00001,1.00001
app_12,37.6821,20072.4,7989.5,10.5,88.3366,7.47339e+09,1.00038,0.994555,90,0.0849248,222,1.00001,1.00001
app_13,58.8705,20077,7976.7,23.3,70.3372,1.48399e+10,1.00106,0.994555,113,0.211998,177,1.00001,1.00001
app_14,3.25268,19760.6,7969.8,30.2,77.3913,2.2813e+10,1.00092,0.994555,104,0.292474,191,1.00001,1.00001
app_15,96.6558,20203.6,7937.5,62.5,72.3338,4.7758e+10,1.00185,0.994555,110,0.663305,181,1.00002,1.00002
app_16,35.1123,19835.8,7989.1,10.9,85.4731,6.78923e+09,1.00051,0.994555,93,0.0798733,214,1.00002,1.00002
app_17,35.9711,19861,7961.9,38.1,112.043,2.36705e+10,1.00181,0.994555,71,0.211344,279,1.00002,1.00002
app_18,87.3424,20178.6,7946.5,53.5,89.9063,4.0222e+10,1.00166,0.994555,88,0.446911,226,1.00002,1.00002
app_19,70.9695,20015.7,7961.4,38.6,103.634,2.76254e+10,1.00137,0.994555,77,0.265629,258,1.00002,1.00002
app_2,8.94096,18959.7,7912.1,87.9,879.763,8.46981e+09,1.01003,0.994555,9,0.00963573,2087,1,1
app_20,29.439,20175.5,7972.4,27.6,77.5277,1.64368e+10,1.0014,0.994555,103,0.210728,194,1.00002,1.00002
app_21,51.0476,19831.5,7955.3,44.7,87.353,3.27072e+10,1.0015,0.994555,92,0.375944,215,1.00002,1.00002
app_22,48.648,19925.5,7965.1,34.9,88.9287,2.47766e+10,1.00127,0.994555,90,0.278389,220,1.00002,1.00002
app_23,88.8878,20039.5,7944.2,55.8,88.0769,3.87469e+10,1.00214,0.994555,90,0.440306,220,1.00002,1.00002
app_24,6.05449,19947,7965.1,34.9,75.3131,2.48787e+10,1.00125,0.994555,106,0.331716,188,1.00002,1.00002
app_25,92.3512,20114.7,7945,55,73.4888,4.13634e+10,1.00171,0.994555,108,0.566622,184,1.00003,1.00003
app_26,73.15,20117.2,7990,10,99.6406,5.19367e+08,1.00119,0.994555,80,0.00519367,250,1.00003,1.00003
app_27,74.4748,20295.4,7970.6,29.4,81.0511,1.90914e+10,1.00129,0.994555,97,0.235696,206,1.00003,1.00003
app_28,80.5902,19798,7975.3,24.7,89.6193,1.59939e+10,1.00109,0.994555,89,0.179707,222,1.00003,1.00003
app_29,87.8565,20246.7,7950.1,49.9,85.1926,3.84283e+10,1.00144,0.994555,93,0.452098,214,1.00003,1.00003
app_3,8.13838,18672.8,7884.6,115.4,985.007,4.98252e+10,1.00826,0.994555,8,0.050584,2303,1,1
app_30,293.356,20992.3,7992.2,7.8,7.73905,6.48072e+09,1.00016,0.994555,1027,0.81009,20,1.00003,1.00003
app_31,1093.41,22028.4,7957.2,42.8,7.29595,3.66539e+10,1.00077,0.994555,1096,5.23627,19,1.00003,1.00003
app_32,900.456,21267.9,7972.9,27.1,8.50231,1.99932e+10,1.00089,0.994555,926,2.22147,22,1.00003,1.00003
app_33,508.115,21317.6,7943.1,56.9,8.62935,3.93464e+10,1.0022,0.994555,897,4.91831,23,1.00003,1.00003
app_34,785.228,21866.5,7953.2,46.8,7.2327,3.37954e+10,1.00163,0.994555,1085,4.82791,19,1.00003,1.00003
app_35,1074.74,22147.8,7975.2,24.8,7.09527,1.93013e+10,1.00069,0.994555,1100,2.75733,19,1.00004,1.00004
app_36,17.8729,20351.5,7941.6,58.4,9.06761,4.05524e+10,1.00224,0.994555,884,4.50582,23,1.00004,1.00004
app_37,424.785,21197.9,7993.3,6.7,7.22795,5.82451e+09,1.00011,0.994555,1079,0.832073,19,1.00004,1.00004
app_38,549.136,21402.8,7983.3,16.7,8.009,1.2542e+10,1.00052,0.994555,986,1.56775,21,1.00004,1.00004
app_39,393.84,21312.1,7944.3,55.7,7.62529,4.82819e+10,1.00093,0.994555,1039,6.03523,20,1.00004,1.00004
app_4,3.57016,19429.8,7908.9,91.1,876.152,3.38073e+10,1.00721,0.994555,9,0.0385928,2133,1,1
app_40,141.786,20922.4,7957.4,42.6,7.79885,3.38142e+10,1.0011,0.994555,1010,4.22677,20,1.00004,1.00004
app_41,359.423,20263.3,7961.5,38.5,9.27728,3.04314e+10,1.00101,0.994555,879,3.38127,23,1.00004,1.00004
app_42,754.591,21717.8,7965.7,34.3,7.72264,3.0776e+10,1.00044,0.994555,1038,3.847,20,1.00004,1.00004
app_43,645.908,21515.1,7939.1,60.9,8.60303,4.477e+10,1.00202,0.994555,933,4.97445,22,1.00004,1.00004
app_44,51.299,20349.5,7951.8,48.2,7.98976,3.88536e+10,1.00117,0.994555,1009,4.8567,20,1.00004,1.00004
app_45,69.1973,20910.8,7968.9,31.1,7.85594,2.60088e+10,1.00064,0.994555,986,3.71555,21,1.00004,1.00004
app_46,762.028,20996.7,7952,48,6.76708,4.20044e+10,1.00075,0.994555,1200,6.00063,17,1.00005,1.00005
app_47,293.235,21049,7977.5,22.5,6.7163,1.44819e+10,1.001,0.994555,1118,2.41365,18,1.00005,1.00005
app_48,148.724,20817.4,7948.6,51.4,7.80126,4.50755e+10,1.00079,0.994555,1025,5.63443,20,1.00005,1.00005
app_49,786.793,20664,7980,20,8.77251,1.65268e+10,1.00043,0.994555,909,1.83631,22,1.00005,1.00005
app_5,2.37414,18556.7,7909,91,877.232,3.05682e+10,1.00761,0.994555,9,0.0348554,2036,1.00001,1.00001
app_50,736.258,21251.8,7997.2,2.8,8.85432,2.24875e+09,1.00007,0.994555,899,0.281094,23,1.00005,1.00005
app_51,828.295,20672.2,7990.6,9.4,7.46916,7.62463e+09,1.00022,0.994555,1067,1.08923,19,1.00005,1.00005
app_52,320.278,20830.7,7953.2,46.8,7.81242,3.96114e+10,1.0009,0.994555,1003,4.95142,20,1.00005,1.00005
app_53,945.224,21759.9,7949.5,50.5,7.22653,3.80089e+10,1.00156,0.994555,1148,5.42985,18,1.00005,1.00005
app_54,67.2377,20312.9,7941.2,58.8,7.23893,4.57554e+10,1.00163,0.994555,1076,5.71943,19,1.00005,1.00005
app_55,384.199,20540.3,7965,35,9.6812,3.15946e+10,1.00043,0.994555,840,3.15946,24,1.00005,1.00005
app_56,351.299,20412.4,7966,34,8.11488,2.91905e+10,1.0006,0.994555,998,3.64882,20,1.00006,1.00006
app_57,1061.28,21643.6,7972.4,27.6,7.25026,2.25307e+10,1.00063,0.994555,1073,3.21867,19,1.00006,1.00006
app_58,624.564,20802.4,7952,48,8.97879,3.52777e+10,1.00159,0.994555,883,3.91975,23,1.00006,1.00006
app_59,1021.58,21928.4,7973,27,7.59115,1.87563e+10,1.00103,0.994555,1041,2.34454,20,1.00006,1.00006
app_6,2.28069,19249.6,7911.1,88.9,880.688,2.31017e+10,1.00829,0.994555,9,0.0262221,2111,1.00001,1.00001
app_60,395.592,20234.3,7954.3,45.7,8.18092,3.56534e+10,1.00126,0.994555,996,4.45667,20,1.00006,1.00006
app_7,9.49689,19117.6,7918,82,790.809,2.93988e+10,1.00662,0.994555,10,0.0371667,1893,1.00001,1.00001
app_8,3.26882,18901.5,7916.1,83.9,793.238,3.89132e+10,1.00566,0.994555,10,0.0490709,1869,1.00001,1.00001
app_9,1.45675,19067.3,7911.7,88.3,881.913,1.88556e+10,1.00876,0.994555,9,0.0213783,2098,1.00001,1.00001
