app_id,start_app,end_app,effective_cpu,effective_io,effective_iter,total_bytes,stretch,utilization,Tcomp,Tio,iterations,priority,group_id
app_1,3.21761,19118.7,7836.6,68.5242,783.083,1.60977e+10,1.01876,0.985686,10,0.020559,1873,1,1
app_10,6.33537,19168.1,7806.3,85.5234,868.362,3.8448e+10,1.01979,0.985686,9,0.044244,2081,1,1
app_11,7.29386,19873.1,7812.8,81.1338,977.103,1.23703e+10,1.02234,0.985686,8,0.0126616,2427,1,1
app_12,0.515604,18942.8,7835.5,71.4306,785.246,2.14433e+10,1.01821,0.985686,10,0.0273163,1860,1,1
app_13,2.58488,19189.7,7827.9,87.1818,868.509,4.41635e+10,1.01625,0.985686,9,0.0508211,2082,1,1
app_14,10.4465,19375.5,7856.3,63.3135,782.227,5.02834e+09,1.01764,0.985686,10,0.00642189,1899,1,1
app_15,2.07154,19124,7834.7,72.6333,782.715,2.65501e+10,1.01765,0.985686,10,0.0339082,1867,1,1
app_16,7.39064,18808.5,7816.8,78.7063,977.834,4.638e+09,1.02283,0.985686,8,0.00474233,2294,1,1
app_17,6.73006,18845.7,7836.9,78.432,710.442,5.29606e+10,1.01396,0.985686,11,0.0744875,1675,1,1
app_18,8.59023,20121.1,7872.4,58.0468,713.434,5.21201e+09,1.01554,0.985686,11,0.00730997,1795,1,1
app_19,3.37556,19571.2,7811.4,84.2612,870.243,3.74746e+10,1.01925,0.985686,9,0.0430742,2126,1,1
app_2,9.54431,19294.5,7831.9,84.6306,784.257,5.11451e+10,1.01484,0.985686,10,0.065153,1886,1,1
app_20,8.78694,20210.3,7814.5,77.6711,779.128,3.49667e+10,1.01918,0.985686,10,0.0448866,1971,1,1
app_21,2.84461,19709.4,7805.8,84.5024,977.601,1.49603e+10,1.02292,0.985686,8,0.0152968,2406,1,1
app_22,2.98196,19270.4,7808,83.5597,869.569,3.43497e+10,1.0201,0.985686,9,0.0394824,2094,1,1
app_23,3.71854,19726.7,7812.7,83.6173,780.651,4.99847e+10,1.01746,0.985686,10,0.0640009,1926,1,1
app_24,3.45876,18799.4,7809.9,82.9763,781.816,4.97866e+10,1.01785,0.985686,10,0.0636657,1837,1,1
app_25,9.20583,19429.7,7829.1,68.9951,782.044,1.82707e+10,1.01945,0.985686,10,0.0233641,1904,1,1
app_26,5.036,20228,7842.2,72.7053,786.189,2.40641e+10,1.017,0.985686,10,0.0306159,1985,1,1
app_27,4.00183,18586.7,7796.8,90.1003,866.396,4.99333e+10,1.01953,0.985686,9,0.0575932,2010,1,1
app_28,7.78399,20436.6,7837.6,67.4998,780.708,1.33872e+10,1.01898,0.985686,10,0.017163,1995,1,1
app_29,1.10857,19945.7,7849.4,73.8282,712.32,4.19139e+10,1.01377,0.985686,11,0.0587852,1780,1,1
app_3,4.4435,19644.6,7860.7,62.1027,785.869,4.03357e+09,1.0172,0.985686,10,0.00513177,1929,1,1
app_30,1.71896,19729,7812.1,80.3891,868.653,2.59627e+10,1.02066,0.985686,9,0.029911,2143,1,1
app_31,1.75485,19228.3,7802.9,89.574,871.204,4.77129e+10,1.01903,0.985686,9,0.0547167,2086,1,1
app_32,0.927061,20200.8,7825.8,68.2907,783.486,1.65076e+10,1.02011,0.985686,10,0.0210824,1979,1,1
app_33,0.640015,20386.8,7843.6,63.2374,783.984,3.53764e+09,1.01948,0.985686,10,0.0045123,1997,1,1
app_34,9.85603,19096,7819.4,78.3514,782.223,3.7689e+10,1.01819,0.985686,10,0.0481957,1861,1,1
app_35,1.54271,19938,7936.4,55.9204,80.7588,5.03245e+10,1.00166,0.985686,99,0.62129,200,1,1
app_36,104.986,20116.6,7941.1,50.8923,70.9453,4.86782e+10,1.00128,0.985686,112,0.685608,177,1,1
app_37,105.48,19811.2,7980.3,7.97625,74.3672,4.50601e+09,1.0019,0.985686,108,0.060892,184,1,1
app_38,51.1502,19827.1,7975.4,14.4735,79.5774,8.97054e+09,1.00196,0.985686,102,0.112132,195,1,1
app_39,71.5053,20205.6,7964.3,27.4224,90.6675,2.3799e+10,1.00149,0.985686,87,0.261527,229,1,1
app_4,0.810274,18845.8,7797.2,87.6582,970.795,2.58532e+10,1.02262,0.985686,8,0.0266253,2294,1,1
app_40,22.5688,19888.3,7947.8,37.6472,73.1901,3.44519e+10,1.00222,0.985686,109,0.465566,182,1,1
app_41,59.5237,19928,7942.9,48.5885,80.4604,4.48044e+10,1.00154,0.985686,99,0.560054,201,1,1
app_42,40.3056,19998.3,7952.6,37.1433,73.013,3.4195e+10,1.00165,0.985686,109,0.468424,182,1,1
app_43,91.497,19970.5,7989.6,7.21652,77.1236,3.16564e+09,1.00091,0.985686,103,0.0411121,193,1,1
app_44,42.4109,20033.4,7975.1,17.0807,84.8599,1.31346e+10,1.00147,0.985686,94,0.154525,212,1,1
app_45,57.639,19951.7,7930.9,50.7859,98.0778,4.85328e+10,1.00258,0.985686,81,0.495233,244,1,1
app_46,27.8258,19966,7967.7,23.8867,80.2521,1.93733e+10,1.00162,0.985686,100,0.242167,199,1,1
app_47,44.5908,20043,7962.1,35.3864,73.3213,2.9566e+10,1.00104,0.985686,109,0.405013,183,1,1
app_48,37.4785,19941.5,7982.4,5.9293,72.2064,7.36983e+08,1.00211,0.985686,111,0.0102359,180,1,1
app_49,82.9815,20000.7,7954.5,34.8848,82.8332,3.25575e+10,1.00162,0.985686,96,0.392258,206,1,1
app_5,0.845147,19141.8,7810.8,90.8832,868.316,5.2613e+10,1.01737,0.985686,9,0.0605443,2075,1,1
app_50,8.68301,20141.9,7977.9,13.5243,65.4082,1.16942e+10,1.0013,0.985686,121,0.17991,165,1,1
app_51,67.3272,19908.9,7952.8,35.9819,94.0422,2.99001e+10,1.00217,0.985686,86,0.318086,231,1,1
app_52,62.4218,19870.4,7966.2,16.6504,83.479,1.18232e+10,1.00275,0.985686,96,0.140753,206,1,1
app_53,89.6232,20157.7,7941.7,45.9229,78.2064,4.10348e+10,1.00216,0.985686,101,0.526087,196,1,1
app_54,14.1786,19971.6,7938,56.5623,83.4923,5.00027e+10,1.0015,0.985686,95,0.602442,208,1,1
app_55,90.2368,20461.2,7988.5,6.93317,9.21249,6.33042e+09,1.00065,0.985686,873,0.703379,23,1,1
app_56,163.437,20592.7,7947.2,51.6287,7.92944,5.12144e+10,1.0002,0.985686,1020,6.40181,20,1,1
app_57,880.256,21334.4,7973.9,25.6987,8.20422,2.52987e+10,1.0001,0.985686,966,3.16234,21,1,1
app_58,782.919,20765.3,7984.9,13.7773,8.46239,1.35899e+10,1.00019,0.985686,970,1.69873,21,1,1
app_59,48.0292,21155.2,7988,11.9191,7.57058,1.15547e+10,1.00006,0.985686,1049,1.44433,20,1,1
app_6,10.7617,20192.7,7869.4,60.8329,712.469,1.10114e+10,1.01518,0.985686,11,0.0154654,1800,1,1
app_60,414.854,21073.5,7963.9,34.1328,8.406,3.36952e+10,1.0003,0.985686,918,4.2119,22,1,1
app_7,2.41411,19198.2,7816.6,85.2701,868.078,3.82671e+10,1.01848,0.985686,9,0.0440358,2081,1,1
app_8,1.08736,20100,7837.1,71.464,713.408,3.58622e+10,1.01614,0.985686,11,0.0502272,1789,1,1
app_9,4.90186,19334.7,7821.9,68.5294,870.163,2.71116e+09,1.02242,0.985686,9,0.0031127,2103,1,1
