app_id,start_app,end_app,effective_cpu,effective_io,effective_iter,total_bytes,stretch,utilization,Tcomp,Tio,iterations,priority,group_id
app_1,3.9569,19296.7,7681.3,93.5764,962.946,3.6918e+10,1.03651,0.985768,8,0.0383365,2326,1,1
app_10,0.986126,18488,7651.8,104.965,1094.49,3.7531e+10,1.0404,0.985768,7,0.0343062,2532,1,1
app_11,4.47912,19720.4,7690.1,88.5266,963.108,2.68915e+10,1.03667,0.985768,8,0.0279247,2372,1,1
app_12,8.25374,19352.9,7753.9,75.3443,706.202,5.13502e+10,1.02495,0.985768,11,0.072734,1707,1,1
app_13,0.752459,20319.7,7714.3,81.5879,772.741,5.15623e+10,1.03015,0.985768,10,0.0667041,1965,1,1
app_14,5.45006,19604.8,7694.8,89.6149,855.339,5.34938e+10,1.03249,0.985768,9,0.0624927,2102,1,1
app_15,7.49135,19821.2,7713.4,83.5999,859.587,3.59132e+10,1.03235,0.985768,9,0.0417596,2125,1,1
app_16,7.17887,20252.6,7762.5,62.5176,703.082,1.24482e+10,1.02895,0.985768,11,0.0177072,1785,1,1
app_17,1.56136,19196.9,7693.2,91.4383,853.501,5.55767e+10,1.03242,0.985768,9,0.0650781,2057,1,1
app_18,7.81435,19677.1,7668.8,98.1743,957.012,5.44829e+10,1.03583,0.985768,8,0.0569309,2360,1,1
app_19,38.705,19969.9,7975.2,6.54099,72.0414,1.45788e+09,1.00293,0.985768,111,0.0202483,179,1,1
app_2,5.24018,19325.8,7673.6,85.2905,956.487,1.80274e+10,1.04009,0.985768,8,0.0188374,2324,1,1
app_20,43.8523,19913.1,7963.5,20.4343,94.505,1.84887e+10,1.00226,0.985768,84,0.194618,236,1,1
app_21,62.1182,20083.4,7946.6,46.4356,66.8761,4.42036e+10,1.00115,0.985768,119,0.669751,167,1,1
app_22,41.6403,19959.6,7976.9,6.71843,66.9276,3.02791e+09,1.00252,0.985768,119,0.0451927,167,1,1
app_23,31.9328,20287.1,7929.4,47.1867,92.6949,4.31363e+10,1.00344,0.985768,85,0.463831,235,1,1
app_24,29.6011,20049.6,7964.6,17.3266,81.8304,1.44971e+10,1.00262,0.985768,97,0.176793,205,1,1
app_25,34.3817,20210.1,7935.6,41.5852,69.4247,3.8929e+10,1.00319,0.985768,114,0.564189,175,1,1
app_26,74.0004,20050.5,7939.4,20.8625,75.3407,1.54659e+10,1.00567,0.985768,106,0.203498,188,1,1
app_27,98.3986,20187.3,7957.4,6.57103,73.044,1.77359e+09,1.00513,0.985768,108,0.0242957,185,1,1
app_28,53.9759,19975.1,7962.7,19.1824,103.164,1.09114e+10,1.00331,0.985768,78,0.105936,255,1,1
app_29,80.888,19958.3,7938.4,37.5162,75.1896,3.38727e+10,1.00348,0.985768,107,0.451637,185,1,1
app_3,10.7077,19958.4,7769.6,68.3992,704.911,2.66179e+10,1.02614,0.985768,11,0.0377559,1760,1,1
app_30,35.674,20165.2,7964.5,7.44281,84.281,1.69442e+09,1.00424,0.985768,94,0.0201717,213,1,1
app_31,24.0078,20098.8,7929.4,52.3674,89.5387,4.48219e+10,1.00323,0.985768,88,0.503617,226,1,1
app_32,100.795,19987.5,7947.7,23.4566,80.3554,1.82331e+10,1.00428,0.985768,100,0.227914,198,1,1
app_33,11.664,20173.8,7949.2,25.4023,87.7513,1.98598e+10,1.00388,0.985768,91,0.225679,220,1,1
app_34,80.884,20142.8,7961.1,33.3644,66.5846,3.18025e+10,1.00089,0.985768,119,0.481856,167,1,1
app_35,20.6708,20115.5,7961,7.47277,79.6985,2.33438e+09,1.0046,0.985768,100,0.0291798,200,1,1
app_36,95.2049,20151.8,7933.1,45.6935,67.0557,4.048e+10,1.00331,0.985768,118,0.60418,169,1,1
app_37,100.101,20029.9,7903.2,53.2434,78.3247,4.72465e+10,1.00623,0.985768,101,0.605725,196,1,1
app_38,34.04,20098.2,7929.5,55.0884,80.2147,4.89883e+10,1.0027,0.985768,99,0.612353,200,1,1
app_39,135.611,20876.8,7974.4,25.2742,7.29973,2.49064e+10,1.00009,0.985768,1098,3.55805,19,1,1
app_4,6.84189,19063.8,7730.4,70.1508,857.605,2.39278e+09,1.03456,0.985768,9,0.00278879,2050,1,1
app_40,712.601,20821.5,7999.1,0.9,8.75536,8.96353e+08,1,0.985768,919,0.0995948,22,1,1
app_41,778.04,20855.2,7957.4,32.0949,8.379,3.18315e+10,1.00135,0.985768,951,3.97893,21,1,1
app_42,371.384,20521.8,7990,4.36883,7.0787,4.18761e+09,1.00073,0.985768,1117,0.59823,18,1,1
app_43,777.458,20607.9,7995.7,4.03243,7.66992,3.52663e+09,1.0001,0.985768,1059,0.440829,19,1,1
app_44,369.918,21247.7,7957.1,42.4026,7.54113,4.1958e+10,1.00012,0.985768,1033,5.24475,20,1,1
app_45,1019.23,21806.7,7956.7,39.9592,6.76824,3.96804e+10,1.00045,0.985768,1150,5.66863,18,1,1
app_46,717.572,20951,7977.9,18.0544,8.706,1.77678e+10,1.00054,0.985768,917,1.9742,22,1,1
app_47,496.262,21309.3,7986.6,11.0371,8.11522,1.04385e+10,1.00037,0.985768,971,1.30482,21,1,1
app_48,968.107,21443.5,7951.3,47.1075,8.46473,4.66228e+10,1.00026,0.985768,980,5.82785,21,1,1
app_49,185.567,21001.4,7982.1,16.6723,8.42918,1.60057e+10,1.00024,0.985768,949,2.00071,22,1,1
app_5,8.43916,19356.9,7694.5,77.957,851.631,2.1456e+10,1.03681,0.985768,9,0.0251832,2073,1,1
app_50,497.616,21146.2,7959.2,38.7331,8.47025,3.82504e+10,1.00032,0.985768,927,4.25004,22,1,1
app_51,95.1273,21500.7,7994.7,3.47506,7.07111,3.1799e+09,1.00027,0.985768,1107,0.454271,19,1,1
app_52,397.156,20712.8,7973.5,25.5889,7.81115,2.52352e+10,1.00016,0.985768,1008,3.1544,20,1,1
app_53,868.927,21122.9,7978,18.9645,8.76089,1.87232e+10,1.00041,0.985768,931,2.08036,22,1,1
app_54,163.032,20460.6,7976.5,21.6314,8.64094,2.12441e+10,1.00028,0.985768,915,2.36046,22,1,1
app_55,158.02,20617.3,7987,10.3813,7.66557,9.90198e+09,1.00039,0.985768,1054,1.41457,19,1,1
app_56,651.121,21365.8,7995.6,3.07716,8.23822,2.69516e+09,1.00021,0.985768,973,0.336895,21,1,1
app_57,96.9388,19840.5,7954,45.9161,8.37453,4.57277e+10,1.00003,0.985768,1000,5.08085,20,1,1
app_58,805.369,20977,7951.9,47.6295,7.13494,4.7288e+10,1.0001,0.985768,1130,6.75543,18,1,1
app_59,417.106,20866.6,7981.7,13.7057,7.8161,1.32751e+10,1.00063,0.985768,1016,1.65938,20,1,1
app_6,1.34924,19509.4,7717.4,76.9834,858.492,1.99791e+10,1.03394,0.985768,9,0.0232585,2097,1,1
app_60,675.292,21475.7,7947.7,52.1699,8.45502,5.1388e+10,1.00011,0.985768,932,5.70978,22,1,1
app_7,4.73701,18606.5,7698.5,88.9382,855.751,5.11714e+10,1.0323,0.985768,9,0.0597796,1996,1,1
app_8,2.39042,19826.1,7704.4,87.9644,856.703,4.74929e+10,1.03201,0.985768,9,0.0554176,2122,1,1
app_9,4.11033,19633.8,7759.7,67.3049,706.329,2.40968e+10,1.02778,0.985768,11,0.0341315,1736,1,1
