app_id,start_app,end_app,effective_cpu,effective_io,effective_iter,total_bytes,stretch,utilization,Tcomp,Tio,iterations,priority,group_id
app_1,3.15259,19962.6,7897.5,62.7062,717.584,1.44024e+10,1.01113,0.988177,11,0.020059,1791,1,1
app_10,3.93384,18694.6,7876,73.7608,873.129,1.556e+10,1.01374,0.988177,9,0.0178236,2042,1,1
app_11,8.79248,19955.8,7880.1,78.8696,718.242,5.13649e+10,1.00864,0.988177,11,0.0714394,1787,1,1
app_12,3.88755,18542.7,7874.5,86.1136,786.029,5.41209e+10,1.009,0.988177,10,0.0688561,1823,1,1
app_13,2.89244,18629.1,7854,89.5843,875.771,4.43908e+10,1.01286,0.988177,9,0.0506745,2034,1,1
app_14,3.75926,18274.1,7847.9,94.8092,980.052,4.03789e+10,1.01416,0.988177,8,0.041203,2241,1,1
app_15,3.07791,19638.8,7892,61.7245,787.342,4.25095e+09,1.01314,0.988177,10,0.0053946,1933,1,1
app_16,1.46047,18511.8,7871.9,78.3385,875.083,2.33595e+10,1.01327,0.988177,9,0.0266966,2023,1,1
app_17,10.503,20129.8,7894,67.2317,716.451,2.49752e+10,1.01023,0.988177,11,0.0348329,1805,1,1
app_18,2.45009,19240.7,7886.3,71.7601,718.443,3.22813e+10,1.01028,0.988177,11,0.0448975,1728,1,1
app_19,1.7995,19210.6,7878.6,76.8093,872.531,2.11958e+10,1.01268,0.988177,9,0.0242792,2095,1,1
app_2,6.68872,20130.9,7900.8,55.0894,720.101,4.28443e+09,1.01201,0.988177,11,0.00594315,1809,1,1
app_20,9.14076,18698.8,7869.1,81.4012,875.472,2.88221e+10,1.01292,0.988177,9,0.0329396,2045,1,1
app_21,4.30362,20003.3,7893.5,69.6007,719.477,3.08625e+10,1.00954,0.988177,11,0.0428646,1796,1,1
app_22,9.2098,19423.4,7872.7,77.429,877.362,1.93528e+10,1.01368,0.988177,9,0.022067,2127,1,1
app_23,1.35348,19264.6,7853.9,96.9115,981.284,4.43617e+10,1.01288,0.988177,8,0.0451748,2364,1,1
app_24,9.12278,19990,7882.5,71.0427,787.166,2.30109e+10,1.01195,0.988177,10,0.0292387,1968,1,1
app_25,0.515502,19551,7874.5,79.0351,785.988,3.78028e+10,1.01108,0.988177,10,0.0480952,1921,1,1
app_26,0.662242,18365.7,7838.3,100.675,1119.01,3.30363e+10,1.01635,0.988177,7,0.029523,2565,1,1
app_27,4.06247,19108.7,7878.5,78.1471,786.745,3.5077e+10,1.01092,0.988177,10,0.0445705,1881,1,1
app_28,2.8396,18877.1,7860.3,92.38,872.53,5.44689e+10,1.01077,0.988177,9,0.0624643,2061,1,1
app_29,0.431207,18522.2,7867.8,75.2424,986.49,6.2185e+08,1.01672,0.988177,8,0.000630041,2279,1,1
app_3,3.80043,19024.7,7876.6,68.4389,877.979,6.2188e+09,1.01487,0.988177,9,0.00708291,2087,1,1
app_30,3.96092,19102.6,7864.9,84.9541,875.909,3.56951e+10,1.01258,0.988177,9,0.0407479,2090,1,1
app_31,5.77091,19223.5,7900.2,59.0998,720.972,7.56999e+09,1.01166,0.988177,11,0.0104993,1729,1,1
app_32,9.75711,18945,7894.8,61.4029,790.285,1.01106e+09,1.0132,0.988177,10,0.00127821,1871,1,1
app_33,3.61744,18587.1,7850.2,89.9562,982.086,3.17523e+10,1.01498,0.988177,8,0.0323343,2281,1,1
app_34,7.43898,20126.6,7881.9,78.0973,717.269,5.00156e+10,1.00858,0.988177,11,0.0697568,1804,1,1
app_35,1.68978,18773,7865,88.7071,871.974,4.57231e+10,1.01129,0.988177,9,0.0524348,2046,1,1
app_36,7.56123,19963.7,7879.4,78.8879,788.778,4.08973e+10,1.01006,0.988177,10,0.0518344,1967,1,1
app_37,4.11605,19196.9,7824.4,108.71,1119.53,4.57461e+10,1.0165,0.988177,7,0.0408447,2688,1,1
app_38,4.45702,19027,7860.97,88.6687,876.075,4.33355e+10,1.01211,0.988177,9,0.0494513,2076,1,1
app_39,7.46197,18530.9,7874.4,84.8887,787.089,5.42268e+10,1.009,0.988177,10,0.0689031,1822,1,1
app_4,0.0876064,19092.5,7884.2,71.4974,786.372,2.59608e+10,1.01136,0.988177,10,0.032987,1881,1,1
app_40,9.89985,18867.7,7876.8,76.4735,786.927,3.43997e+10,1.01122,0.988177,10,0.0437099,1856,1,1
app_41,7.3327,20034.2,7974.6,22.3613,69.2167,2.05085e+10,1.00061,0.988177,115,0.297224,173,1,1
app_42,16.3422,19877.3,7970.3,24.0686,112.992,2.03425e+10,1.00117,0.988177,71,0.180022,279,1,1
app_43,75.0961,19967.9,7956.5,39.1344,81.4494,3.29289e+10,1.00132,0.988177,97,0.401572,204,1,1
app_44,21.0047,20135.3,7958.3,36.9861,75.2222,3.21591e+10,1.00119,0.988177,105,0.428788,189,1,1
app_45,62.6774,19967.5,7963.2,31.8313,74.3598,2.94876e+10,1.00091,0.988177,107,0.393168,186,1,1
app_46,48.1543,20157.1,7980.6,15.3576,80.6652,1.04424e+10,1.00112,0.988177,99,0.128918,202,1,1
app_47,53.0719,19914.9,7963.4,30.552,79.0298,2.60255e+10,1.00132,0.988177,101,0.329437,196,1,1
app_48,7.62822,19991.8,7964.1,27.5866,97.1774,2.1503e+10,1.0018,0.988177,82,0.22168,243,1,1
app_49,60.1108,20087.8,7960,34.6652,90.0875,2.8129e+10,1.00149,0.988177,88,0.312544,225,1,1
app_5,2.86761,20146.5,7881.6,69.7896,788.368,1.81682e+10,1.01269,0.988177,10,0.0230269,1987,1,1
app_50,60.6105,19911.3,7988.6,7.67281,73.3652,4.6598e+09,1.00084,0.988177,109,0.0638329,182,1,1
app_51,30.0043,20020.9,7981.5,15.2897,77.5854,1.04653e+10,1.00101,0.988177,103,0.134171,193,1,1
app_52,94.5604,20053.3,7956,39.9028,79.4023,3.66802e+10,1.00092,0.988177,101,0.464306,197,1,1
app_53,88.7182,19948.7,7944.1,52.9734,76.6957,4.84759e+10,1.00093,0.988177,104,0.637841,190,1,1
app_54,29.1441,19953.4,7972.9,23.7803,73.7555,2.09144e+10,1.00077,0.988177,109,0.282627,183,1,1
app_55,83.239,20195.3,7983,13.2405,73.8696,8.36225e+09,1.00108,0.988177,107,0.113003,187,1,1
app_56,97.3791,19985.2,7947.9,47.7889,77.8691,4.48216e+10,1.00091,0.988177,102,0.574636,195,1,1
app_57,83.0584,20095.7,7976.2,19.3838,90.1451,1.73482e+10,1.00081,0.988177,88,0.192758,227,1,1
app_58,37.6175,19955.7,7988.6,6.98902,81.0577,1.64437e+09,1.00122,0.988177,99,0.0203009,201,1,1
app_59,94.8503,20237.3,7959.5,36.9608,73.3671,3.41924e+10,1.00079,0.988177,108,0.468389,185,1,1
app_6,8.09946,19041.6,7885.7,71.7115,788.831,2.31781e+10,1.01152,0.988177,10,0.0293765,1873,1,1
app_60,89.2449,19934.1,7976.1,16.3554,76.117,1.37915e+10,1.00127,0.988177,106,0.181468,188,1,1
app_7,1.35514,19569.9,7871.1,82.3853,788.211,4.53602e+10,1.01055,0.988177,10,0.0574907,1927,1,1
app_8,8.2566,19168.9,7889.6,69.6702,789.576,1.68986e+10,1.01183,0.988177,10,0.0214177,1891,1,1
app_9,7.338,18313.1,7852.9,87.491,979.901,2.61893e+10,1.01535,0.988177,8,0.0267238,2248,1,1
