app_id,start_app,end_app,effective_cpu,effective_io,effective_iter,total_bytes,stretch,utilization,Tcomp,Tio,iterations,priority,group_id
app_1,10.4288,19601.6,7911.4,85.7897,721.552,4.35906e+10,1.00566,0.994865,11,0.0604586,1766,1,1
app_10,58.3901,20150.4,7931.7,66.197,68.5939,4.77904e+10,1.00257,0.994865,116,0.702799,172,1,2
app_11,77.9851,19905.9,7987.3,10.4978,95.7464,4.99197e+09,1.00096,0.994865,84,0.0519997,236,1,2
app_12,101.928,20029.5,7982.7,15.3484,70.9479,1.04804e+10,1.00085,0.994865,113,0.147612,176,1,2
app_13,72.62,20100.4,7942.7,55.2121,86.5725,4.39702e+10,1.00167,0.994865,92,0.505405,216,1,2
app_14,17.6214,20001.9,7963.3,26.8811,77.2935,1.91686e+10,1.0022,0.994865,103,0.248943,193,1,2
app_15,71.7821,20256,7942,51.6831,93.7602,3.97117e+10,1.00229,0.994865,84,0.422465,237,1,2
app_16,48.9174,19962,7957.2,39.8621,95.2168,3.08959e+10,1.00149,0.994865,84,0.32522,236,1,2
app_17,34.9274,20000.3,7938.8,59.4852,75.6341,4.74074e+10,1.00173,0.994865,104,0.632098,190,1,2
app_18,27.0439,20193.9,7942,55.8406,72.404,4.88134e+10,1.00115,0.994865,110,0.668676,181,1,2
app_19,92.41,20189.2,7941.9,53.931,75.5764,4.48204e+10,1.00166,0.994865,105,0.589742,189,1,2
app_2,2.86606,18334.6,7909,87.1703,878.079,2.79785e+10,1.00794,0.994865,9,0.0318299,2011,1,1
app_20,19.5367,19980.2,7979.2,17.0519,78.8266,1.15827e+10,1.00115,0.994865,101,0.146616,198,1,2
app_21,21.9516,19940.6,7950.3,47.1379,86.3505,3.78323e+10,1.00149,0.994865,92,0.439911,215,1,2
app_22,54.2617,20114,7956,42.8412,74.8929,3.50751e+10,1.00112,0.994865,106,0.467668,188,1,2
app_23,37.4475,19872.3,7966.3,31.197,93.8706,2.16924e+10,1.0015,0.994865,85,0.230771,234,1,2
app_24,0.754465,20144.3,7984.4,15.2984,72.6344,1.05442e+10,1.00063,0.994865,111,0.144441,180,1,2
app_25,60.1802,20178.5,7953.9,43.9156,78.7566,3.47047e+10,1.00143,0.994865,101,0.4393,197,1,2
app_26,11.2489,20088,7958.4,40.791,74.4303,3.63508e+10,1.00066,0.994865,107,0.491227,186,1,2
app_27,23.0616,20049.3,7951.7,47.3949,69.6978,3.97e+10,1.00108,0.994865,114,0.567143,175,1,2
app_28,42.7224,20785.2,7991.1,8.9,8.65594,7.64555e+09,1.00016,0.994865,897,0.849506,23,1,3
app_29,265.205,21450.4,7981.7,16.3073,8.06193,1.58409e+10,1.00031,0.994865,990,1.98011,21,1,3
app_3,7.12143,18460.3,7905,92.3112,790.145,5.2114e+10,1.00539,0.994865,10,0.0659671,1823,1,1
app_30,755.334,22284,7961.3,38.7,6.57091,3.32747e+10,1.00068,0.994865,1170,5.54579,18,1,3
app_31,540.899,20518.9,7950.4,47.6706,8.5911,4.29763e+10,1.00083,0.994865,904,5.37204,22,1,3
app_32,272.47,21283.4,7970.8,29.0226,7.24136,2.5967e+10,1.0004,0.994865,1094,3.70956,19,1,3
app_33,360.768,21524,7952.3,47.7,7.07666,4.38335e+10,1.00048,0.994865,1094,6.26193,19,1,3
app_34,147.839,20390.6,7940.2,56.6061,8.39404,5.16529e+10,1.00102,0.994865,953,5.73922,21,1,3
app_35,360.76,21208.8,7945,52.0572,7.22405,4.34043e+10,1.00145,0.994865,1083,6.20061,19,1,3
app_36,157.297,21124.4,7940,57.8395,7.45654,5.09603e+10,1.00113,0.994865,1031,6.37003,20,1,3
app_37,68.6022,20474.2,7948.4,47.1103,7.29466,3.92983e+10,1.00154,0.994865,1077,4.91228,19,1,3
app_38,762.522,20691.3,7977,17.1954,8.13412,1.4922e+10,1.00101,0.994865,1010,1.86525,20,1,3
app_39,895.807,21885.2,7976.2,23.8,7.71954,2.22739e+10,1.00019,0.994865,1044,2.78423,20,1,3
app_4,2.99688,18272.4,7911.4,85.4404,878.857,6.8395e+09,1.01033,0.994865,9,0.007781,2008,1,1
app_40,420.85,20877.6,7982.9,13.8213,8.59589,1.21917e+10,1.00061,0.994865,926,1.52396,22,1,3
app_41,310.396,20973,7972,28,7.32902,2.61569e+10,1.00023,0.994865,1069,3.7367,19,1,3
app_42,4.96745,20259.1,7995.1,3.92504,9.49546,3.28978e+09,1.0002,0.994865,854,0.365531,24,1,3
app_43,535.715,20741.4,7980,20,10.6519,1.68962e+10,1.00039,0.994865,766,1.68962,27,1,3
app_44,268.668,20459.1,7993.2,0.962009,8.31771,6.92065e+08,1.00076,0.994865,959,0.0865081,21,1,3
app_45,724.188,21041.8,7956.1,40.3557,10.0709,3.63334e+10,1.00095,0.994865,825,3.63334,25,1,3
app_46,244.857,21174.3,7950.2,49.8,7.43554,4.38688e+10,1.00074,0.994865,1080,6.26697,19,1,3
app_47,54.691,20135.9,7972.8,25.7359,7.3958,2.41539e+10,1.00038,0.994865,1052,3.01924,19,1,3
app_48,152.211,20650,7990.9,2.51075,8.62103,1.93789e+09,1.0009,0.994865,921,0.242236,22,1,3
app_49,940.81,21819.6,7974.6,20.0405,6.9797,1.73876e+10,1.001,0.994865,1152,2.48394,18,1,3
app_5,1.81414,19035,7920.5,76.544,792.885,1.16887e+08,1.01002,0.994865,10,0.000147399,1888,1,1
app_50,626.399,21468.8,7962.4,37.6,8.23757,3.40752e+10,1.00044,0.994865,947,4.2594,22,1,3
app_51,666.864,20935.6,7986.1,9.67618,8.32271,8.68596e+09,1.00065,0.994865,983,1.08574,21,1,3
app_52,763.529,21458.6,7959.8,40.2,7.34429,3.46768e+10,1.00069,0.994865,1102,4.3346,19,1,3
app_53,301.185,21215.2,7942.5,57.5,7.4948,5.06704e+10,1.00085,0.994865,1039,6.33381,20,1,3
app_54,730.664,21389.8,7998.7,1.1293,9.81955,7.94547e+08,1.00006,0.994865,830,0.088283,25,1,3
app_55,490.537,21584.7,7985.6,14.4,7.91904,1.26739e+10,1.00022,0.994865,987,1.58424,21,1,3
app_56,262.891,20637.7,7970.8,24.6688,8.73869,2.1935e+10,1.00091,0.994865,916,2.74188,22,1,3
app_57,293.964,20900,7986.8,13.2,7.06982,1.10078e+10,1.00027,0.994865,1134,1.57254,18,1,3
app_58,323.529,20292.7,7984.7,12.987,7.23328,1.16976e+10,1.00045,0.994865,1125,1.67109,18,1,3
app_59,960.115,21487.2,7962.6,37.4,7.84321,3.36937e+10,1.00046,0.994865,1011,4.81339,20,1,3
app_6,4.95972,17806.4,7886.3,109.066,1127.69,4.68037e+09,1.01382,0.994865,7,0.00414927,2509,1,1
app_60,234.173,21046.4,7990,10,7.26531,8.75158e+09,1.00016,0.994865,1076,1.25023,19,1,3
app_7,5.72365,18245.8,7906.8,90.0681,878.937,4.19983e+10,1.00644,0.994865,9,0.0477797,2003,1,1
app_8,82.4865,20151,7942.9,56.922,87.6116,4.53284e+10,1.00147,0.994865,90,0.515095,221,1,2
app_9,44.3241,20106.9,7980,16.8521,79.4889,1.15028e+10,1.00106,0.994865,100,0.143784,200,1,2
