app_id,start_app,end_app,effective_cpu,effective_io,effective_iter,total_bytes,stretch,utilization,Tcomp,Tio,iterations,priority,group_id
app_1,2.06374,19249.7,7504.9,92.3704,940.597,4.10076e+10,1.06018,0.993857,8,0.0435788,2266,1,1
app_10,64.4478,20117.3,7949.1,30.0193,73.5971,2.8497e+10,1.00281,0.993857,108,0.39037,184,1,1
app_11,24.5933,20157.8,7961.9,6.98679,76.1294,1.00196e+09,1.00466,0.993857,105,0.0131837,191,1,1
app_12,78.5598,20472.2,7936.7,9.69365,93.1975,7.87639e+09,1.00698,0.993857,85,0.0846924,236,1,1
app_13,72.6253,20224.9,7937.4,25.1349,87.291,1.75412e+10,1.00566,0.993857,91,0.201623,219,1,1
app_14,5.4448,20077.9,7935.2,25.0127,81.1621,2.36799e+10,1.00517,0.993857,97,0.292344,204,1,1
app_15,37.7121,20040.6,7960.5,15.4539,80.4211,9.01573e+09,1.00383,0.993857,100,0.112697,200,1,1
app_16,35.7082,20049,7925,41.6119,102.169,3.98369e+10,1.00441,0.993857,78,0.390558,255,1,1
app_17,74.9224,20070.3,7925.5,41.1497,82.3022,3.52977e+10,1.00492,0.993857,98,0.425274,203,1,1
app_18,27.6654,19901.8,7917.2,42.1124,83.0914,3.99702e+10,1.00538,0.993857,96,0.481568,207,1,1
app_19,83.448,20075.6,7904.7,59.356,74.5214,5.64638e+10,1.00488,0.993857,106,0.763024,187,1,1
app_2,36.3593,20113.3,7907.8,52.0429,102.774,4.98976e+10,1.00532,0.993857,77,0.484443,258,1,1
app_20,6.84108,20039.4,7963,15.7684,77.5004,1.25351e+10,1.00307,0.993857,103,0.160707,193,1,1
app_21,49.8553,20038.7,7921.5,47.0521,79.09,4.25848e+10,1.00451,0.993857,101,0.539048,197,1,1
app_22,630.595,21120.9,7975.6,23.8421,7.4403,2.34206e+10,1.00012,0.993857,1065,3.34579,19,1,1
app_23,110.232,20488.8,7932,61.1754,8.42139,6.06441e+10,1.00092,0.993857,968,6.73823,21,1,1
app_24,737.805,21700.7,7961.6,37.8151,8.59167,3.75867e+10,1.0001,0.993857,902,4.1763,23,1,1
app_25,714.986,21365.3,7986,8.77181,8.16524,8.34824e+09,1.00071,0.993857,964,1.04353,21,1,1
app_26,72.6823,20574.5,7956.3,39.1475,7.32155,3.85044e+10,1.00065,0.993857,1085,5.50062,19,1,1
app_27,576.153,21398,7972.7,27.2094,7.94373,2.69649e+10,1.00004,0.993857,987,3.37062,21,1,1
app_28,41.1019,20838.2,7988.3,6.96685,7.16683,6.33618e+09,1.00067,0.993857,1082,0.905169,19,1,1
app_29,205.417,21169.4,7946.4,53.1926,6.59355,5.29297e+10,1.00008,0.993857,1217,7.56139,17,1,1
app_3,4.7644,19949.2,7954.9,15.1405,78.5751,7.98781e+09,1.00466,0.993857,102,0.101111,195,1,1
app_30,711.084,20987.7,7947.5,49.5714,8.3363,4.93068e+10,1.0004,0.993857,967,6.16336,21,1,1
app_31,565.515,21047.5,7972.1,23.4938,8.69602,2.33581e+10,1.00057,0.993857,946,2.59535,22,1,1
app_32,672.24,20904.7,7950.9,48.303,7.41979,4.76741e+10,1.00018,0.993857,1072,6.81059,19,1,1
app_33,95.5851,20661.9,7987.4,6.96869,9.40838,6.30836e+09,1.00079,0.993857,861,0.630836,24,1,1
app_34,464.147,21036.6,7954.3,43.9914,9.03747,4.33708e+10,1.00029,0.993857,892,4.81898,23,1,1
app_35,612.912,20870.4,7987.1,9.77185,7.49853,9.31939e+09,1.00045,0.993857,1064,1.33134,19,1,1
app_36,811.276,21212.8,7978.2,13.2326,7.0307,1.26989e+10,1.00114,0.993857,1140,1.81413,18,1,1
app_37,739.899,21234.7,7951.9,44.0638,9.19788,4.37664e+10,1.00054,0.993857,880,4.37664,23,1,1
app_38,122.429,20157.7,7948,45.3294,7.21062,4.49256e+10,1.00089,0.993857,1125,6.41794,18,1,1
app_39,895.44,20931.2,7991.6,8.4,7.17338,7.73007e+09,1.00008,0.993857,1118,1.1043,18,1,1
app_4,74.0998,20129.8,7937.2,32.0281,81.6107,2.69188e+10,1.00451,0.993857,98,0.332331,204,1,1
app_40,762.5,20749.6,7961.9,37.8037,7.90447,3.72555e+10,1.00011,0.993857,1009,5.32222,20,1,1
app_41,1005.31,22296.6,7993.7,6.3,6.96624,5.64794e+09,1.00008,0.993857,1174,0.806849,18,1,1
app_42,124.027,20513.3,7992,4.47322,9.40314,3.68776e+09,1.00054,0.993857,841,0.409751,24,1,1
app_43,239.632,20374.2,7991.3,4.77038,7.96472,4.24046e+09,1.00056,0.993857,1002,0.530057,20,1,1
app_44,107.225,20043.1,7990.2,9.61006,6.72881,9.18419e+09,1.00008,0.993857,1190,1.5307,17,1,1
app_45,275.606,20781.4,7930.1,63.8966,8.67173,6.37551e+10,1.00077,0.993857,937,7.0839,22,1,1
app_46,27.9181,20474.8,7978.8,13.586,7.54802,1.28043e+10,1.00105,0.993857,1066,1.60054,19,1,1
app_47,134.365,20462.1,7951,48.9514,7.20689,4.86308e+10,1.00005,0.993857,1111,6.94726,18,1,1
app_48,302.595,20189.9,7987.3,6.3373,8.20761,5.68773e+09,1.00088,0.993857,1003,0.710966,20,1,1
app_49,713.823,21235.5,7992.7,7.20706,8.58504,6.94944e+09,1.00004,0.993857,924,0.77216,22,1,1
app_5,28.2179,20090.2,7939.6,26.9365,88.1848,2.61426e+10,1.0043,0.993857,90,0.297075,221,1,1
app_50,2.0194,20173,7953.4,46.3233,7.55657,4.57159e+10,1.00011,0.993857,1050,5.71449,19,1,1
app_51,282.364,20319.6,7990.4,9.6,7.72899,9.54298e+09,1.00001,0.993857,1058,1.19287,19,1,1
app_52,219.102,20346.6,7959.9,38.4146,8.26305,3.83414e+10,1.00022,0.993857,952,4.79267,21,1,1
app_53,44.4138,21158.6,7985.3,14.7,7.25061,1.46134e+10,1.00001,0.993857,1103,2.08763,19,1,1
app_54,572.93,20429.8,7991.2,8.8,8.27699,8.23775e+09,1.00007,0.993857,1015,1.02972,20,1,1
app_55,271.05,20069.8,7951.6,43.2501,8.02691,4.31963e+10,1.00065,0.993857,1000,5.39954,20,1,1
app_56,741.423,21236.7,7979.9,10.8025,8.75638,1.05441e+10,1.0012,0.993857,876,1.17157,23,1,1
app_57,551.91,21015.6,7976.2,20.8395,7.67978,2.05841e+10,1.0004,0.993857,1020,2.57301,20,1,1
app_58,928.093,21377,7957.3,37.7189,7.53573,3.75277e+10,1.00065,0.993857,1011,4.69096,20,1,1
app_59,309.503,20532.4,7943.1,56.0245,7.77887,5.55322e+10,1.00017,0.993857,1008,6.94152,20,1,1
app_6,6.38201,20173.4,7956.8,22.178,71.407,2.10655e+10,1.00277,0.993857,112,0.296697,179,1,1
app_60,682.187,21153.8,7985.4,14.3546,8.96673,1.39087e+10,1.00009,0.993857,877,1.54542,23,1,1
app_7,53.5011,20226.8,7925.7,38.8863,65.6824,3.36233e+10,1.00511,0.993857,119,0.509444,167,1,1
app_8,78.8237,20099.5,7921.8,30.421,76.4117,2.71041e+10,1.00643,0.993857,104,0.356632,191,1,1
app_9,35.3242,20158.1,7934.3,26.3361,68.0985,2.12125e+10,1.00559,0.993857,116,0.311949,172,1,1
