app_id,start_app,end_app,effective_cpu,effective_io,effective_iter,total_bytes,stretch,utilization,Tcomp,Tio,iterations,priority,group_id
app_1,1.54112,19950.9,7922.7,72.2896,716.966,3.01608e+10,1.00593,0.993804,11,0.0420653,1793,1,1
app_10,5.93564,19550.1,7918.1,76.6971,791.536,1.43281e+10,1.00852,0.993804,10,0.018091,1932,1,1
app_11,2.46687,18216.1,7911.2,82.4583,879.768,4.94591e+08,1.01116,0.993804,9,0.000562035,2002,1,1
app_12,6.89427,18286.9,7907.2,85.0727,880.017,2.05548e+10,1.00911,0.993804,9,0.0233577,2006,1,1
app_13,3.48817,18168.8,7904.6,87.0515,876.836,2.84564e+10,1.00844,0.993804,9,0.0324474,1995,1,1
app_14,4.07842,19361.6,7891.6,100.298,986.289,4.55567e+10,1.00792,0.993804,8,0.0462036,2388,1,1
app_15,10.2439,20048.2,7943.5,55.055,78.3738,4.44948e+10,1.0015,0.993804,102,0.570446,195,1,2
app_16,74.334,20153.2,7990.4,9.35794,82.7402,4.24257e+09,1.00067,0.993804,97,0.0511152,207,1,2
app_17,71.4606,20116,7989.7,7.80091,81.5914,6.79907e+08,1.0012,0.993804,99,0.00829155,202,1,2
app_18,89.8671,20058.5,7982.2,16.5393,75.3002,1.17407e+10,1.00076,0.993804,105,0.156543,190,1,2
app_19,5.63753,20040.3,7982.1,16.4498,63.6292,1.15276e+10,1.0008,0.993804,125,0.182978,159,1,2
app_2,4.85032,19844.9,7902.9,91.6019,789.001,4.58966e+10,1.00644,0.993804,10,0.0581706,1958,1,1
app_20,24.7397,19897.8,7980.7,17.3512,82.7436,9.97513e+09,1.00117,0.993804,97,0.120182,205,1,2
app_21,17.8108,20136.3,7945,52.7772,78.4875,4.27464e+10,1.00153,0.993804,100,0.541094,199,1,2
app_22,3.43115,20108.2,7954.7,44.2517,83.9705,3.51935e+10,1.00126,0.993804,94,0.41897,212,1,2
app_23,15.8652,19966,7956.81,41.9258,76.2963,3.29783e+10,1.00128,0.993804,104,0.430671,191,1,2
app_24,48.7678,20056.8,7972.8,25.3126,75.3745,1.82157e+10,1.00112,0.993804,106,0.239681,188,1,2
app_25,100.358,20128.8,7970.1,28.2024,78.8345,2.18325e+10,1.00101,0.993804,101,0.276361,197,1,2
app_26,19.7146,20060,7943.1,55.5402,79.1996,4.61808e+10,1.00134,0.993804,100,0.57726,198,1,2
app_27,62.5051,20270.3,7976.3,20.6022,81.1088,1.58496e+10,1.00098,0.993804,98,0.195675,204,1,2
app_28,46.2906,20106.9,7990.9,7.95876,70.8472,4.10624e+09,1.00062,0.993804,112,0.0578344,178,1,2
app_29,0.151199,19864.9,7959.9,38.1903,83.2128,2.98079e+10,1.00129,0.993804,96,0.359132,206,1,2
app_3,5.02966,20028.7,7903.8,89.558,875.792,3.87448e+10,1.00723,0.993804,9,0.0442292,2197,1,1
app_30,21.1717,19989.2,7938.9,59.1941,82.8481,4.38171e+10,1.00217,0.993804,95,0.534355,209,1,2
app_31,84.4955,19955.5,7930.5,68.3353,85.4488,5.60474e+10,1.00168,0.993804,93,0.651714,213,1,2
app_32,69.9492,20236.3,7968.9,28.1538,85.1615,2.01012e+10,1.00138,0.993804,93,0.233735,215,1,2
app_33,20.1311,19847.3,7965.1,32.322,84.732,2.47259e+10,1.00127,0.993804,95,0.294356,209,1,2
app_34,40.3211,19921.9,7988.1,9.04748,77.9855,4.16559e+09,1.00097,0.993804,102,0.0534051,195,1,2
app_35,532.236,20305.7,7992.6,7.4,6.16158,6.85422e+09,1.00007,0.993804,1345,1.14237,15,1,3
app_36,644.659,20531.2,7932.9,61.8052,7.06718,5.62609e+10,1.00136,0.993804,1111,8.03727,18,1,3
app_37,574.09,20883.3,7964.9,35.1,7.47707,3.20916e+10,1.00038,0.993804,1091,4.58451,19,1,3
app_38,236.987,20920.9,7946.5,38.8057,8.94773,3.2718e+10,1.0026,0.993804,885,3.63533,23,1,3
app_39,355.568,20677.9,7945,48.0075,8.33002,4.25421e+10,1.00156,0.993804,966,4.7269,21,1,3
app_4,8.40528,18965.2,7910.7,81.4651,878.054,2.43392e+09,1.01098,0.993804,9,0.00277212,2085,1,1
app_40,567.329,22002,7951.6,48.4,7.64633,4.37436e+10,1.00058,0.993804,992,5.46796,21,1,3
app_41,155.45,20886.8,7988.2,1.77565,8.11809,1.00579e+09,1.00135,0.993804,992,0.111754,21,1,3
app_42,524.328,20384.3,7965.3,34.7,8.40875,2.94041e+10,1.00066,0.993804,953,3.67551,21,1,3
app_43,440.49,20665.1,7959.6,34.4523,8.3061,2.94685e+10,1.00137,0.993804,974,3.27428,21,1,3
app_44,458.729,20961.1,7993,4.88251,8.63635,4.40216e+09,1.00032,0.993804,945,0.489129,22,1,3
app_45,397.927,20544.2,7928.7,63.82,7.72524,5.61121e+10,1.0019,0.993804,1059,8.01601,19,1,3
app_46,203.885,21506.7,7952.6,34.8044,6.77701,3.23988e+10,1.00188,0.993804,1134,4.62841,18,1,3
app_47,126.209,20833.4,7939.5,53.1843,7.57301,4.64877e+10,1.00175,0.993804,1072,6.64109,19,1,3
app_48,355.902,21381.4,7959.9,35.3035,8.73415,3.00659e+10,1.00126,0.993804,902,3.34065,23,1,3
app_49,487.042,20871.6,7942.1,57.9,7.25644,5.30535e+10,1.00061,0.993804,1143,7.57907,18,1,3
app_5,1.29978,19808.1,7911.1,82.0381,876.644,5.70007e+09,1.01051,0.993804,9,0.00649951,2171,1,1
app_50,569.128,20971.6,7958,42,7.94983,3.78863e+10,1.00051,0.993804,1014,4.73579,20,1,3
app_51,34.4347,20580.5,7977.3,18.84,8.47974,1.72874e+10,1.00068,0.993804,925,1.92083,22,1,3
app_52,743.142,21073.8,7969.7,15.4257,9.34225,1.30141e+10,1.00217,0.993804,847,1.44601,24,1,3
app_53,762.34,21572.2,7933.4,52.9554,7.696,4.73182e+10,1.00242,0.993804,1023,6.75974,20,1,3
app_54,479.315,21308.1,7988.6,11.4,7.40299,9.78522e+09,1.0002,0.993804,1031,1.39789,20,1,3
app_55,839.224,21384.8,7980.9,14.2914,6.87289,1.26507e+10,1.00081,0.993804,1120,1.80724,18,1,3
app_56,686.325,20947.9,7943,47.3057,7.13569,4.21476e+10,1.00186,0.993804,1139,6.02108,18,1,3
app_57,1115.17,22824.9,7960,39.9653,6.8254,3.48657e+10,1.00064,0.993804,1163,5.81095,18,1,3
app_58,167.961,20392.7,7948.5,51.5,7.66112,4.54998e+10,1.00075,0.993804,1078,5.68748,19,1,3
app_59,344.774,21353.9,7938.8,47.755,9.11409,4.42485e+10,1.00212,0.993804,855,4.9165,24,1,3
app_6,2.86995,18810.4,7914,79.4553,792.031,3.23778e+10,1.00675,0.993804,10,0.040881,1857,1,1
app_60,796.427,21226.8,7988,12,8.77422,1.01803e+10,1.00023,0.993804,939,1.13115,22,1,3
app_7,10.9423,19725,7927,66.8829,721.346,2.55792e+09,1.00888,0.993804,11,0.00354282,1779,1,1
app_8,3.75132,19002.9,7907.9,84.4823,880.646,1.70309e+10,1.00947,0.993804,9,0.0193533,2088,1,1
app_9,1.31952,19202.5,7914.6,79.2895,793.569,2.69162e+10,1.00736,0.993804,10,0.0338994,1898,1,1
