app_id,start_app,end_app,effective_cpu,effective_io,effective_iter,total_bytes,stretch,utilization,Tcomp,Tio,iterations,priority,group_id
app_1,8.76201,18885.6,7918.5,81.5,791.257,3.01215e+10,1.00646,0.993701,10,0.0380322,1870,1,1
app_10,5.4385,18162.1,7911.9,88.1,880.457,1.89904e+10,1.00871,0.993701,9,0.02158,1998,1.00001,1.00001
app_11,4.1573,19523.1,7896.4,103.6,877.804,4.98914e+10,1.00676,0.993701,9,0.0568239,2142,1.00001,1.00001
app_12,7.74864,19155.4,7910,90,879.907,3.36562e+10,1.00709,0.993701,9,0.0382457,2102,1.00001,1.00001
app_13,4.82858,18646.4,7897.7,102.3,877.288,5.32803e+10,1.00617,0.993701,9,0.0607529,2042,1.00001,1.00001
app_14,6.1486,18773.6,7903.6,96.4,790.244,5.25729e+10,1.00551,0.993701,10,0.0665479,1854,1.00001,1.00001
app_15,5.43573,18946.2,7906.6,93.4,790.382,4.8902e+10,1.00559,0.993701,10,0.061823,1871,1.00002,1.00002
app_16,6.03229,18930.8,7899,101,878.453,4.66806e+10,1.00684,0.993701,9,0.0531669,2076,1.00002,1.00002
app_17,10.8294,18372.9,7916,84,792.685,3.95448e+10,1.00559,0.993701,10,0.0499303,1817,1.00002,1.00002
app_18,2.14464,18271,7912.2,87.8,877.431,3.06495e+09,1.01071,0.993701,9,0.00349083,2005,1.00002,1.00002
app_19,3.77934,19341.1,7906.4,93.6,878.07,4.26436e+10,1.00641,0.993701,9,0.048569,2124,1.00002,1.00002
app_2,8.47192,18939,7927.9,72.1,720.315,7.89298e+09,1.00809,0.993701,11,0.0109473,1710,1,1
app_20,60.1332,20094.4,7937.8,62.2,94.7041,4.70242e+10,1.0019,0.993701,84,0.494992,237,1.00002,1.00002
app_21,76.7316,20097.8,7972.6,27.4,79.1816,2.0123e+10,1.00091,0.993701,100,0.254722,199,1.00002,1.00002
app_22,86.5824,20114.3,7949.6,50.4,80.468,3.69933e+10,1.00168,0.993701,100,0.456707,200,1.00002,1.00002
app_23,46.4784,20028.8,7991.7,8.3,82.3705,1.60131e+09,1.00084,0.993701,97,0.0192928,206,1.00002,1.00002
app_24,74.5341,20041.2,7956.7,43.3,83.001,3.23168e+10,1.00137,0.993701,96,0.389359,208,1.00002,1.00002
app_25,81.7759,20134.9,7964.9,35.1,75.7873,2.48573e+10,1.00128,0.993701,105,0.327069,190,1.00003,1.00003
app_26,43.8039,19820.4,7974.4,25.6,97.188,1.75736e+10,1.001,0.993701,83,0.181171,239,1.00003,1.00003
app_27,13.9407,19991.9,7958.7,41.3,70.0573,2.99206e+10,1.00142,0.993701,113,0.427437,176,1.00003,1.00003
app_28,99.893,20054.9,7936.6,63.4,68.0471,4.64148e+10,1.00213,0.993701,116,0.682571,171,1.00003,1.00003
app_29,57.6004,19994.9,7979.7,20.3,91.2847,1.16184e+10,1.00109,0.993701,88,0.127675,227,1.00003,1.00003
app_3,3.81369,18924.1,7911.8,88.2,881.556,2.5285e+09,1.01082,0.993701,9,0.00286678,2083,1,1
app_30,1.95305,20018.5,7958,42,72.4262,2.94015e+10,1.00158,0.993701,111,0.408354,179,1.00003,1.00003
app_31,6.6749,19933.6,7982,18,73.8436,1.18588e+10,1.00077,0.993701,108,0.160254,185,1.00003,1.00003
app_32,97.8278,20044.4,7951.2,48.8,74.8659,3.68993e+10,1.00149,0.993701,106,0.49199,187,1.00003,1.00003
app_33,6.43543,20003.4,7959.9,40.1,81.4907,3.06547e+10,1.00118,0.993701,98,0.378453,203,1.00003,1.00003
app_34,26.1599,19985.6,7971.5,28.5,88.419,1.82122e+10,1.00129,0.993701,90,0.206957,221,1.00003,1.00003
app_35,18.8604,20107.2,7963.4,36.6,86.8538,2.60824e+10,1.00132,0.993701,91,0.299797,219,1.00004,1.00004
app_36,93.0893,20104.1,7979.4,20.6,76.6956,1.48999e+10,1.00071,0.993701,103,0.193505,193,1.00004,1.00004
app_37,18.9024,19901.8,7948.9,51.1,73.2493,3.99105e+10,1.0014,0.993701,108,0.54672,183,1.00004,1.00004
app_38,53.7389,19975.6,7977.8,22.2,83.8029,1.42831e+10,1.00099,0.993701,96,0.170037,207,1.00004,1.00004
app_39,64.34,20115.1,7980.3,19.7,71.7652,1.41696e+10,1.00069,0.993701,111,0.1968,180,1.00004,1.00004
app_4,10.3482,18483.3,7902.3,97.7,788.529,5.65402e+10,1.00517,0.993701,10,0.0716606,1826,1,1
app_40,576.923,21573.8,7947.3,52.7,8.091,4.34849e+10,1.00115,0.993701,975,5.43561,21,1.00004,1.00004
app_41,90.2542,19976.5,7955.8,44.2,7.51856,3.47371e+10,1.00118,0.993701,1055,4.34214,19,1.00004,1.00004
app_42,88.0177,20776.8,7954.5,45.5,8.02304,3.82509e+10,1.00091,0.993701,980,4.78136,21,1.00004,1.00004
app_43,916.4,21335.6,7996,4,8.22805,2.8328e+09,1.00015,0.993701,977,0.3541,21,1.00004,1.00004
app_44,716.874,20488.4,7961.9,38.1,7.99038,3.18315e+10,1.00078,0.993701,1000,3.97893,20,1.00004,1.00004
app_45,44.9869,21035.9,7979.7,20.3,7.13756,1.82904e+10,1.00025,0.993701,1087,2.61291,19,1.00004,1.00004
app_46,91.5933,20687.1,7955.5,44.5,8.6176,3.57948e+10,1.00109,0.993701,920,4.47435,22,1.00005,1.00005
app_47,301.235,21012.4,7941.7,58.3,6.8528,4.93803e+10,1.00112,0.993701,1137,7.05432,18,1.00005,1.00005
app_48,315.681,21502.2,7989.6,10.4,7.78736,8.1227e+09,1.00028,0.993701,994,1.01534,21,1.00005,1.00005
app_49,229.638,20131.8,7945.3,54.7,7.37857,4.78874e+10,1.00085,0.993701,1108,6.84106,18,1.00005,1.00005
app_5,6.49119,19870.6,7921,79,790.698,1.02373e+10,1.00867,0.993701,10,0.0129587,1963,1.00001,1.00001
app_50,207.951,19613.8,7994,6,10.0272,5.31177e+09,1.00009,0.993701,833,0.531177,24,1.00005,1.00005
app_51,733.497,21121.7,7981,19,9.22854,1.59916e+10,1.00038,0.993701,897,1.77684,23,1.00005,1.00005
app_52,364.43,21626.1,7949.9,50.1,7.51366,4.27122e+10,1.00092,0.993701,1032,6.10174,20,1.00005,1.00005
app_53,224.412,20479.3,7973.3,26.7,9.2906,2.22534e+10,1.00056,0.993701,848,2.4726,24,1.00005,1.00005
app_54,499.215,21477.5,7988,12,8.08924,8.06382e+09,1.00049,0.993701,976,1.00798,21,1.00005,1.00005
app_55,829.43,20981.4,7997.5,2.5,7.60975,1.78908e+09,1.00009,0.993701,1091,0.223634,19,1.00005,1.00005
app_56,296.195,20507.2,7978.8,21.2,7.33828,1.8337e+10,1.00036,0.993701,1073,2.61958,19,1.00006,1.00006
app_57,958.566,21658.8,7960.4,39.6,7.99063,3.0174e+10,1.00118,0.993701,1022,3.77175,20,1.00006,1.00006
app_58,988.296,21654.8,7983,17,7.25415,1.50121e+10,1.00025,0.993701,1093,2.14459,19,1.00006,1.00006
app_59,347.324,21742.2,7969.2,30.8,6.30185,2.59778e+10,1.0006,0.993701,1239,4.32963,17,1.00006,1.00006
app_6,0.406044,19269.8,7903.1,96.9,786.643,5.28986e+10,1.00553,0.993701,10,0.067301,1896,1.00001,1.00001
app_60,672.743,20958.5,7995.9,4.1,6.53405,3.34559e+09,1.00009,0.993701,1178,0.477942,17,1.00006,1.00006
app_7,0.222299,20071.9,7920.9,79.1,791.308,8.63657e+09,1.00889,0.993701,10,0.0109185,1987,1.00001,1.00001
app_8,3.4049,19189.2,7901.1,98.9,987.221,2.21355e+10,1.00969,0.993701,8,0.022427,2367,1.00001,1.00001
app_9,3.24747,19336.7,7916.6,83.4,789.701,3.66893e+10,1.00587,0.993701,10,0.0464422,1910,1.00001,1.00001
