app_id,start_app,end_app,effective_cpu,effective_io,effective_iter,total_bytes,stretch,utilization,Tcomp,Tio,iterations,priority,group_id
app_1,1.13904,19321.5,7922.8,77.2,720.573,5.13909e+10,1.00324,0.994438,11,0.0713763,1740,0.0869708,1
app_10,5.69586,19127.5,7920.5,79.5,795.249,3.17639e+10,1.006,0.994438,10,0.0399545,1895,0.0947144,1.00001
app_11,8.00241,19938.7,7920.5,79.5,794.677,2.16841e+10,1.00728,0.994438,10,0.0272756,1975,0.0987417,1.00001
app_12,3.48779,18345.6,7917.5,82.5,792.401,4.9796e+10,1.0041,0.994438,10,0.0627945,1815,0.090706,1.00001
app_13,3.82912,18151,7911.1,88.9,878.09,4.90096e+10,1.00501,0.994438,9,0.0558196,1991,0.099517,1.00001
app_14,5.48705,18806.7,7920.8,79.2,791.938,1.24504e+10,1.00841,0.994438,10,0.0157202,1865,0.09322,1.00001
app_15,6.46796,18902.6,7901.1,98.9,988.248,3.49954e+10,1.00805,0.994438,8,0.0354204,2334,0.116695,1.00002
app_16,5.03322,19851.8,7954.5,45.5,81.4618,3.48922e+10,1.00133,0.994438,98,0.425515,202,0.0100895,1.00002
app_17,63.5724,20111.9,7991.8,8.2,81.6631,3.60384e+09,1.00057,0.994438,98,0.0439493,203,0.0101316,1.00002
app_18,47.9159,20003.2,7992.3,7.7,76.4077,2.2844e+09,1.00068,0.994438,105,0.0296676,190,0.00949431,1.00002
app_19,54.2245,20219.7,7970.9,29.1,79.6377,2.21316e+10,1.00087,0.994438,99,0.276645,202,0.0100574,1.00002
app_2,9.30123,18277.1,7911.9,88.1,880.137,3.05479e+10,1.00725,0.994438,9,0.0347135,2006,0.100275,1
app_20,46.354,19841.8,7962.8,37.2,111.182,2.79696e+10,1.00116,0.994438,72,0.251979,274,0.0136727,1.00002
app_21,65.5299,19881.9,7947.9,52.1,89.7251,4.00612e+10,1.00151,0.994438,88,0.450126,224,0.0111818,1.00002
app_22,22.5477,20051.2,7983,17,78.3945,1.09937e+10,1.00075,0.994438,102,0.139161,195,0.00973162,1.00002
app_23,24.117,20034.1,7992.1,7.9,76.1028,3.32413e+09,1.00057,0.994438,105,0.0437386,190,0.00946096,1.00002
app_24,87.2832,20271.4,7990.7,9.3,84.8905,6.10303e+09,1.0004,0.994438,93,0.0718004,215,0.010707,1.00002
app_25,86.5651,19890.5,7962.9,37.1,88.453,2.80425e+10,1.00113,0.994438,90,0.318665,220,0.0109819,1.00003
app_26,29.2312,20117.8,7966.1,33.9,71.6105,2.87863e+10,1.00064,0.994438,112,0.39981,178,0.00889273,1.00003
app_27,88.7077,20095.4,7939.3,60.7,86.552,4.82065e+10,1.00156,0.994438,93,0.560541,213,0.0106025,1.00003
app_28,65.4447,19775.4,7972.4,27.6,85.2076,2.12528e+10,1.00079,0.994438,94,0.250033,211,0.0105495,1.00003
app_29,24.351,20089.5,7940.1,59.9,77.9343,4.81243e+10,1.00147,0.994438,101,0.616979,197,0.00980144,1.00003
app_3,2.92662,19721.6,7912.2,87.8,877.835,3.28987e+10,1.00691,0.994438,9,0.03747,2167,0.108345,1
app_30,14.7933,20116.3,7976.5,23.5,72.1321,1.624e+10,1.00091,0.994438,110,0.222466,182,0.00906387,1.00003
app_31,56.7513,20148.2,7975.9,24.1,72.8651,1.68163e+10,1.00091,0.994438,109,0.23036,183,0.00912972,1.00003
app_32,30.871,19951,7966.1,33.9,82.304,2.56026e+10,1.00104,0.994438,97,0.312227,205,0.0102148,1.00003
app_33,65.3795,19926.1,7990,10,99.7072,9.62551e+07,1.00124,0.994438,81,0.000962551,246,0.0122508,1.00003
app_34,43.1034,19878.7,7963.2,36.8,82.0735,2.95572e+10,1.00091,0.994438,97,0.360454,204,0.0101853,1.00003
app_35,58.6522,20038.1,7956.6,43.4,73.9233,3.37605e+10,1.00121,0.994438,108,0.456223,184,0.00917049,1.00004
app_36,94.6026,20576.7,7947.2,52.8,8.48198,4.30249e+10,1.00122,0.994438,919,5.37811,22,0.0010814,1.00004
app_37,189.96,20963.8,7984.3,15.7,7.74028,1.16256e+10,1.00051,0.994438,1033,1.4532,20,0.000966433,1.00004
app_38,730.439,21521,7944,56,7.49747,4.71241e+10,1.00111,0.994438,1089,5.89051,19,0.000912957,1.00004
app_39,665.956,21039.4,7947.6,52.4,7.8609,3.70919e+10,1.00192,0.994438,1013,4.63649,20,0.000981849,1.00004
app_4,10.9035,19900.9,7928.1,71.9,719.269,1.40786e+10,1.00728,0.994438,11,0.0195809,1788,0.0893879,1
app_40,286.106,20553.1,7945.3,54.7,8.39548,4.83653e+10,1.00079,0.994438,960,5.37392,21,0.00103582,1.00004
app_41,26.136,20667.1,7996.7,3.3,7.82532,2.7948e+09,1.00006,0.994438,1039,0.34935,20,0.000961989,1.00004
app_42,1065.19,20760.5,7984.9,15.1,7.11547,1.35841e+10,1.00019,0.994438,1115,1.94059,18,0.000894921,1.00004
app_43,465.937,20806.8,7988.9,11.1,8.7834,8.17225e+09,1.00037,0.994438,939,0.908028,22,0.00106349,1.00004
app_44,434.765,20682.9,7940.4,59.6,8.90799,4.41998e+10,1.00193,0.994438,888,4.91109,23,0.00111916,1.00004
app_45,711.329,21556.3,7963.8,36.2,7.52969,3.1115e+10,1.00064,0.994438,1047,4.445,20,0.000950458,1.00004
app_46,52.5485,20890.4,7941.9,58.1,7.8756,4.60996e+10,1.0015,0.994438,1032,5.76245,20,0.000962854,1.00005
app_47,524.116,20687,7944.5,55.5,7.90311,4.51921e+10,1.00129,0.994438,1022,5.64901,20,0.000972906,1.00005
app_48,63.9302,20741.2,7980.7,19.3,8.71941,1.63065e+10,1.00037,0.994438,932,1.81183,22,0.00107012,1.00005
app_49,123.902,20696.4,7992,8,7.24604,6.7352e+09,1.00016,0.994438,1087,0.962171,19,0.000918628,1.00005
app_5,5.18548,18865.8,7911.7,88.3,881.578,2.73684e+10,1.00767,0.994438,9,0.03103,2074,0.10369,1.00001
app_50,102.646,20901.8,7970.2,29.8,8.34201,2.47355e+10,1.00063,0.994438,934,3.09193,22,0.00106617,1.00005
app_51,576.632,21633.6,7992.8,7.2,7.60216,5.27321e+09,1.00024,0.994438,1051,0.753315,20,0.000950171,1.00005
app_52,11.0853,20389.9,7947.6,52.4,9.14874,4.61956e+10,1.00078,0.994438,865,5.13284,23,0.00114866,1.00005
app_53,90.0373,20187.5,7993.6,6.4,9.94154,4.61721e+09,1.00022,0.994438,814,0.461721,25,0.00122669,1.00005
app_54,434.21,20656.7,7957.2,42.8,6.8224,3.58862e+10,1.00086,0.994438,1180,5.1266,17,0.000843373,1.00005
app_55,523.515,21170.7,7957.6,42.4,8.47105,3.60658e+10,1.00079,0.994438,923,4.00731,22,0.00107798,1.00005
app_56,705.449,21164.4,7938.6,61.4,7.35018,4.60632e+10,1.00192,0.994438,1054,5.7579,19,0.000942827,1.00006
app_57,309.504,21162.5,7989.9,10.1,8.3011,8.13721e+09,1.00025,0.994438,947,1.01715,22,0.00105473,1.00006
app_58,130,20225.5,7994,6,8.88201,4.36525e+09,1.0002,0.994438,912,0.485028,22,0.00109548,1.00006
app_59,939.225,21975.3,7968.6,31.4,7.95883,2.65782e+10,1.0006,0.994438,994,3.32228,21,0.00100206,1.00006
app_6,4.39337,18474,7900.9,99.1,984.138,5.36389e+10,1.00572,0.994438,8,0.0545111,2275,0.113717,1.00001
app_60,115.254,20568.6,7964.5,35.5,9.34217,2.36316e+10,1.00149,0.994438,863,2.62573,24,0.00115411,1.00006
app_7,3.43539,19459.8,7926.9,73.1,719.282,3.73519e+10,1.00449,0.994438,11,0.0518777,1753,0.0876215,1.00001
app_8,8.39038,19264.1,7925.4,74.6,720.938,4.42169e+10,1.00381,0.994438,11,0.0613272,1733,0.0866011,1.00001
app_9,9.62126,19766.8,7927.1,72.9,722.361,3.54117e+10,1.00471,0.994438,11,0.0490467,1783,0.0891171,1.00001
