app_id,start_app,end_app,effective_cpu,effective_io,effective_iter,total_bytes,stretch,utilization,Tcomp,Tio,iterations,priority,group_id
app_1,0.270003,20054.3,7910.8,89.2,878.468,4.84302e+10,1.00512,0.994631,9,0.0550969,2204,0.110153,1
app_10,7.88942,19552.6,7909.7,90.3,876.047,5.49851e+10,1.00443,0.994631,9,0.0627683,2147,0.107346,1.00001
app_11,0.172531,19060.7,7919.5,80.5,795.164,3.99367e+10,1.0051,0.994631,10,0.0501717,1888,0.0943667,1.00001
app_12,9.05423,19311.5,7918.5,81.5,793.163,4.94356e+10,1.00402,0.994631,10,0.06234,1913,0.0956197,1.00001
app_13,35.2703,20044.2,7982.3,17.7,84.0359,1.02707e+10,1.00093,0.994631,95,0.12227,209,0.0104342,1.00001
app_14,6.10774,20047.2,7940.4,59.6,80.1055,4.85719e+10,1.00138,0.994631,99,0.607149,201,0.0100288,1.00001
app_15,18.3848,19922.2,7967.4,32.6,104.24,2.62828e+10,1.00079,0.994631,76,0.252719,261,0.0130472,1.00002
app_16,69.5419,20168.1,7970.8,29.2,86.5729,2.2978e+10,1.00078,0.994631,92,0.267186,217,0.0108118,1.00002
app_17,47.5354,20256.2,7937.9,62.1,63.9041,5.27257e+10,1.00117,0.994631,123,0.823839,162,0.0080579,1.00002
app_18,31.2814,19815.9,7945.3,54.7,73.6701,4.43138e+10,1.0013,0.994631,109,0.598835,182,0.00906791,1.00002
app_19,23.4598,20007.6,7967.4,32.6,78.7179,2.61578e+10,1.00081,0.994631,100,0.331111,199,0.00993895,1.00002
app_2,9.71298,18539.1,7920.8,79.2,791.028,2.53916e+10,1.00677,0.994631,10,0.0321006,1833,0.0916182,1
app_20,70.137,20141.2,7992.2,7.8,65.4931,4.63933e+09,1.0004,0.994631,122,0.0713743,164,0.00816448,1.00002
app_21,66.5773,19913.1,7979.1,20.9,90.9406,1.53859e+10,1.00069,0.994631,89,0.169076,224,0.0111924,1.00002
app_22,91.2881,20011.6,7972.2,27.8,85.4513,2.1192e+10,1.00083,0.994631,92,0.246419,215,0.0107363,1.00002
app_23,4.53147,19913.8,7976.7,23.3,72.6772,1.48395e+10,1.00106,0.994631,110,0.203281,181,0.00903779,1.00002
app_24,56.6807,19878,7967,33,79.0184,2.53605e+10,1.00096,0.994631,101,0.32102,196,0.0097834,1.00002
app_25,3.20117,19809,7981.8,18.2,75.4215,1.41676e+10,1.0005,0.994631,107,0.188902,186,0.0092552,1.00003
app_26,20.202,20138.6,7984.8,15.2,72.4918,8.83019e+09,1.0008,0.994631,110,0.122642,181,0.00902751,1.00003
app_27,2.29528,20013.7,7991.6,8.4,83.3671,2.1561e+09,1.00078,0.994631,95,0.0259771,209,0.0104499,1.00003
app_28,77.0778,19899,7991.7,8.3,82.8634,1.04666e+09,1.00091,0.994631,98,0.0126104,203,0.0101033,1.00003
app_29,0.324444,19933,7935.5,64.5,84.0486,5.34485e+10,1.00138,0.994631,95,0.636292,208,0.0103752,1.00003
app_3,1.72181,18386,7901.1,98.9,988.364,2.67289e+10,1.0091,0.994631,8,0.0270262,2271,0.11351,1
app_30,60.9114,19989.7,7928.4,71.6,71.8624,5.77072e+10,1.00174,0.994631,110,0.801489,180,0.00896303,1.00003
app_31,37.5934,19960.4,7940.4,59.6,88.2702,5.06835e+10,1.00112,0.994631,90,0.575949,220,0.0109776,1.00003
app_32,56.5136,20254,7992.9,7.1,70.3,1.86881e+09,1.00065,0.994631,114,0.0266972,176,0.00875144,1.00003
app_33,837.003,21426.2,7977.1,22.9,7.85445,1.76255e+10,1.00066,0.994631,978,2.20318,21,0.00101998,1.00003
app_34,781.175,21128.5,7970.7,29.3,9.22388,2.49593e+10,1.00054,0.994631,848,2.77326,24,0.00117524,1.00003
app_35,402.308,21416.6,7989.2,10.8,8.09699,9.91104e+09,1.00011,0.994631,991,1.23888,21,0.0010077,1.00004
app_36,942.088,21650.1,7947.1,52.9,7.70515,4.2655e+10,1.00128,0.994631,1019,5.33187,20,0.000976128,1.00004
app_37,599.661,21427.3,7953.8,46.2,7.61063,3.04455e+10,1.00197,0.994631,1018,4.34935,20,0.000977187,1.00004
app_38,205.261,20638.4,7932.5,67.5,7.40379,5.03834e+10,1.00214,0.994631,1055,7.19763,19,0.000941305,1.00004
app_39,739.829,21086.3,7943.7,56.3,10.0419,4.96843e+10,1.00083,0.994631,773,4.96843,26,0.00128401,1.00004
app_4,7.45997,18670.9,7900.7,99.3,991.388,3.64359e+10,1.00792,0.994631,8,0.0367668,2310,0.115458,1
app_40,180.447,20564,7924.1,75.9,8.23286,6.1743e+10,1.00177,0.994631,952,6.86033,21,0.00104205,1.00004
app_41,183.216,20570.4,7965.1,34.9,7.34227,2.87123e+10,1.00077,0.994631,1060,4.10176,19,0.000939353,1.00004
app_42,1137.18,21846.6,7967.5,32.5,6.88844,2.63289e+10,1.00077,0.994631,1146,3.76127,18,0.000869066,1.00004
app_43,369.401,20544.9,7994.5,5.5,12.0459,3.73642e+09,1.00022,0.994631,669,0.311369,30,0.00149228,1.00004
app_44,687.502,21379.6,7964.5,35.5,8.70452,2.86943e+10,1.00085,0.994631,903,3.18826,23,0.001103,1.00004
app_45,145.059,20819.9,7979.5,20.5,9.40523,1.55242e+10,1.00062,0.994631,861,1.55242,24,0.00115924,1.00004
app_46,814.89,21429.3,7984.8,15.2,8.58477,1.23487e+10,1.00036,0.994631,933,1.37207,22,0.00106979,1.00005
app_47,288.563,20885.6,7934.2,65.8,8.8685,5.39102e+10,1.00149,0.994631,879,5.99002,23,0.00112868,1.00005
app_48,128.045,21226.4,7986.6,13.4,6.96485,8.81816e+09,1.00057,0.994631,1102,1.25974,19,0.000905683,1.00005
app_49,239.022,20933.4,7985.2,14.8,7.0298,1.03349e+10,1.00056,0.994631,1146,1.47641,18,0.000871384,1.00005
app_5,6.24847,19056.8,7920.4,79.6,793.03,3.29019e+10,1.00587,0.994631,10,0.0414904,1888,0.0943737,1.00001
app_50,661.339,20898.8,7961.3,38.7,7.75445,2.98697e+10,1.00111,0.994631,1021,3.73371,20,0.000975541,1.00005
app_51,273.36,21228.2,7987.3,12.7,7.67007,1.16216e+10,1.00013,0.994631,1043,1.45271,20,0.000957026,1.00005
app_52,549.851,21010,7967.1,32.9,7.11233,2.20211e+10,1.00136,0.994631,1121,3.14588,18,0.000889197,1.00005
app_53,236.44,20837.9,7993.7,6.3,7.39228,5.88531e+09,1.00005,0.994631,1101,0.840758,19,0.000907066,1.00005
app_54,193.043,20276.6,7966.8,33.2,6.65923,2.80906e+10,1.00064,0.994631,1180,4.68176,17,0.000843628,1.00005
app_55,583.647,21204.7,7941.8,58.2,8.00757,4.88167e+10,1.00117,0.994631,1017,6.10209,20,0.000977035,1.00005
app_56,162.45,20264.7,7999,1,10.1961,5.93659e+07,1.00012,0.994631,806,0.00593659,25,0.00123952,1.00006
app_57,661.506,21222.9,7977.8,22.2,7.23782,1.76394e+10,1.00057,0.994631,1087,2.51992,19,0.000917575,1.00006
app_58,379.159,21223.7,7962.1,37.9,7.61784,2.86536e+10,1.00116,0.994631,1043,3.5817,20,0.000954993,1.00006
app_59,551.753,21416.8,7995.2,4.8,7.64734,2.35534e+09,1.00031,0.994631,1046,0.336477,20,0.000955202,1.00006
app_6,1.38845,19638.7,7927.9,72.1,721.184,1.18404e+10,1.00759,0.994631,11,0.0164222,1774,0.0886619,1.00001
app_60,484.521,21435.9,7979.4,20.6,7.5669,1.57284e+10,1.00061,0.994631,1048,2.24691,20,0.000952097,1.00006
app_7,3.8628,18114.3,7887.2,112.8,1128.39,3.41835e+10,1.00992,0.994631,7,0.0303045,2553,0.12764,1.00001
app_8,6.28688,18207.3,7900.9,99.1,989.328,4.32077e+10,1.00704,0.994631,8,0.0436883,2249,0.112416,1.00001
app_9,0.0314227,18958.6,7927.9,72.1,720.47,2.28827e+10,1.00619,0.994631,11,0.0317375,1709,0.0854233,1.00001
