app_id,start_app,end_app,effective_cpu,effective_io,effective_iter,total_bytes,stretch,utilization,Tcomp,Tio,iterations,priority,group_id
app_1,2.54935,18990.8,7911.2,86.9863,877.148,3.25342e+10,1.00708,0.995107,9,0.0370971,2085,0.1,1
app_10,38.2027,19932,7969.3,27.7711,91.1932,2.20344e+10,1.00108,0.995107,88,0.239505,226,0.01,2
app_11,24.5126,20085.9,7946.3,52.0677,86.8227,4.49451e+10,1.0011,0.995107,91,0.51661,219,0.01,2
app_12,76.016,20383.7,7984.7,14.8105,73.8028,9.79507e+09,1.00069,0.995107,107,0.132366,187,0.01,2
app_13,89.4514,19981.3,7975,22.5172,73.2004,1.75722e+10,1.00093,0.995107,108,0.237462,184,0.01,2
app_14,62.1267,20168.6,7953,46.787,92.6456,3.97706e+10,1.0009,0.995107,86,0.427641,232,0.01,2
app_15,8.3484,19965.3,7968,29.5912,68.5929,2.65299e+10,1.00068,0.995107,115,0.390145,173,0.01,2
app_16,6.10826,20034.3,7939.1,60.1907,84.1509,5.30753e+10,1.00098,0.995107,95,0.631849,210,0.01,2
app_17,41.3265,20199.1,7933.4,65.3012,79.9797,5.81707e+10,1.00105,0.995107,98,0.727134,203,0.01,2
app_18,42.1851,19897.8,7951.5,46.269,93.1996,3.82055e+10,1.00129,0.995107,86,0.410812,230,0.01,2
app_19,71.7675,20216.3,7985.3,14.1728,70.5393,7.82943e+09,1.00086,0.995107,113,0.110274,177,0.01,2
app_2,4.9558,18593.6,7920.2,77.7668,791.784,9.64566e+09,1.00885,0.995107,10,0.0121789,1840,0.1,1
app_20,43.7336,20034.9,7989.3,7.94018,79.4286,2.12254e+09,1.00107,0.995107,100,0.0265317,200,0.01,2
app_21,91.382,19939.5,7989.7,7.98039,71.8828,6.27497e+09,1.0005,0.995107,111,0.0871524,179,0.01,2
app_22,6.76823,20004,7964,35.6384,82.4711,3.27397e+10,1.00041,0.995107,96,0.399264,206,0.01,2
app_23,109.57,20089.4,7942.8,55.5613,68.466,4.98917e+10,1.00091,0.995107,116,0.733702,171,0.01,2
app_24,36.9022,20207.9,7941.2,58.0494,72.0651,5.16388e+10,1.0009,0.995107,110,0.717205,181,0.01,2
app_25,89.7841,20130.9,7963.8,35.1029,85.6862,2.96754e+10,1.00082,0.995107,92,0.345063,215,0.01,2
app_26,50.225,20025.1,7954,43.484,79.638,3.98185e+10,1.00077,0.995107,100,0.497731,199,0.01,2
app_27,18.9661,19905.8,7980.9,17.115,83.2635,1.36609e+10,1.00068,0.995107,96,0.16263,207,0.01,2
app_28,6.19774,21220,7967.3,28.7326,7.39728,2.52099e+10,1.00094,0.995107,1046,3.15124,20,0.001,3
app_29,110.245,20955.3,7926.5,66.0107,8.99379,5.94889e+10,1.00175,0.995107,898,6.60988,23,0.001,3
app_3,8.389,19779.1,7919.8,78.757,791.498,3.13008e+10,1.00615,0.995107,10,0.0395212,1958,0.1,1
app_30,702.722,21274.4,7956.7,43.3,8.11494,3.96524e+10,1.00046,0.995107,984,4.95655,21,0.001,3
app_31,134.392,20784.2,7989.4,4.34652,10.2802,3.62143e+09,1.00087,0.995107,795,0.362143,26,0.001,3
app_32,187.534,20496.7,7994.8,0.909506,8.60368,1.40801e+08,1.00063,0.995107,944,0.0156445,22,0.001,3
app_33,840.016,21282.1,7941.6,58.4,7.93067,5.23732e+10,1.00075,0.995107,996,6.54665,20,0.001,3
app_34,267.418,20782.9,7989.8,6.24257,7.67816,5.7973e+09,1.00055,0.995107,1099,0.828186,19,0.001,3
app_35,391.307,21558.6,7952.5,47.5,6.21965,4.25298e+10,1.00062,0.995107,1213,7.0883,17,0.001,3
app_36,247.321,20738.9,7971.1,25.155,8.29533,2.2781e+10,1.00077,0.995107,980,2.53122,21,0.001,3
app_37,168.156,21046.5,7984,15.9069,7.23109,1.34353e+10,1.00032,0.995107,1082,1.91932,19,0.001,3
app_38,696.657,21234.8,7944.1,55.9,9.04848,5.00501e+10,1.00073,0.995107,887,5.56112,23,0.001,3
app_39,813.972,20916.8,7972.3,27.7,8.17425,2.4011e+10,1.00046,0.995107,1002,3.00137,20,0.001,3
app_4,9.96678,19521.5,7927.9,69.6594,721.159,8.07529e+08,1.00899,0.995107,11,0.00112001,1755,0.1,1
app_40,826.524,21253.3,7930,68.435,8.74293,5.97152e+10,1.00129,0.995107,923,6.63503,22,0.001,3
app_41,248.66,20745.1,7945.9,41.4899,7.96778,3.88004e+10,1.00192,0.995107,1005,4.85004,20,0.001,3
app_42,816.043,21344.7,7986.3,11.9679,7.32893,1.06043e+10,1.00039,0.995107,1056,1.32554,19,0.001,3
app_43,96.1285,20855.1,7929.8,60.9746,8.6268,5.45219e+10,1.00196,0.995107,895,6.05799,23,0.001,3
app_44,66.2192,21063,7984.1,10.7465,9.17599,9.90882e+09,1.00075,0.995107,823,1.10098,25,0.001,3
app_45,166.85,20318.7,7968.3,25.9527,8.92274,2.32996e+10,1.00105,0.995107,919,2.91245,22,0.001,3
app_46,46.0523,20453.6,7919.5,67.5066,7.85169,5.99213e+10,1.00258,0.995107,1008,7.49016,20,0.001,3
app_47,88.2871,19955.3,7976.1,23.9,7.74819,2.00914e+10,1.00048,0.995107,1057,2.51143,19,0.001,3
app_48,493,21006.5,7957.6,37.2801,7.79679,3.49424e+10,1.00093,0.995107,1005,4.3678,20,0.001,3
app_49,812.786,22124.7,7939.5,52.5282,8.2268,4.7826e+10,1.00159,0.995107,942,5.97825,22,0.001,3
app_5,2.39835,19767.4,7933.1,65.1683,659.152,2.22055e+10,1.00562,0.995107,12,0.0336958,1633,0.1,1
app_50,665.404,20731.4,7954.8,31.4303,6.69087,2.9369e+10,1.00198,0.995107,1203,4.19557,17,0.001,3
app_51,804.614,21659.3,7997.4,2.53862,7.54321,1.88223e+09,1.00009,0.995107,1038,0.268891,20,0.001,3
app_52,780.09,21775.4,7996.4,3.6,6.91349,3.07753e+09,1.00007,0.995107,1155,0.439648,18,0.001,3
app_53,157.649,21169.6,7964.6,29.4505,8.82774,2.48326e+10,1.00132,0.995107,905,2.75917,23,0.001,3
app_54,391.653,20816.4,7985.6,6.57239,7.88929,5.67818e+09,1.00109,0.995107,1003,0.709773,20,0.001,3
app_55,660.523,20396.9,7998.2,1.8,8.49479,9.99145e+08,1.0001,0.995107,970,0.111016,21,0.001,3
app_56,702.361,20887,7993.5,6.04774,7.6883,4.36127e+09,1.00027,0.995107,1073,0.545159,19,0.001,3
app_57,658.347,21796,7964.8,33.1467,9.44465,3.03e+10,1.00061,0.995107,827,3.36667,25,0.001,3
app_58,705.995,21635.4,7996,4,8.06169,3.35026e+09,1.00008,0.995107,997,0.418783,21,0.001,3
app_59,82.0114,20658.3,7948.7,45.0444,8.87342,4.09599e+10,1.00129,0.995107,881,4.5511,23,0.001,3
app_6,4.11709,20017.5,7930.8,67.063,661.03,4.88471e+10,1.00255,0.995107,12,0.0738987,1651,0.1,1
app_60,809.946,21265.8,7978.5,21.5,7.115,1.83483e+10,1.00039,0.995107,1074,2.62119,19,0.001,3
app_7,3.79731,19261.5,7919.4,78.7318,793.688,1.90635e+10,1.00775,0.995107,10,0.0240094,1907,0.1,1
app_8,58.4239,20011.7,7976.4,23.1575,77.3774,1.75936e+10,1.00075,0.995107,104,0.228488,192,0.01,2
app_9,88.9167,20061.5,7975.5,23.2187,78.1124,1.71223e+10,1.00092,0.995107,103,0.219516,193,0.01,2
