app_id,start_app,end_app,effective_cpu,effective_io,effective_iter,total_bytes,stretch,utilization,Tcomp,Tio,iterations,priority,group_id
app_1,6.64416,19872.2,7920.1,79.9,789.724,4.17296e+10,1.00479,0.993952,10,0.0528892,1967,0.0983315,1
app_10,4.4163,17841.9,7887.1,112.9,1128.79,3.82108e+09,1.01382,0.993952,7,0.00338448,2510,0.125478,1.00001
app_11,4.92106,19825,7927.9,72.1,721.001,1.83655e+10,1.00676,0.993952,11,0.0254723,1782,0.0890517,1.00001
app_12,4.5981,18150.5,7912.1,87.9,878.837,3.7633e+10,1.00632,0.993952,9,0.0428622,1995,0.099728,1.00001
app_13,4.80213,19381,7927.7,72.3,722.666,3.52384e+09,1.00867,0.993952,11,0.00487392,1750,0.0874726,1.00001
app_14,0.365723,19916.4,7928,72,720.145,2.06176e+10,1.00646,0.993952,11,0.0286356,1797,0.0898065,1.00001
app_15,0.623246,18831.9,7910.8,89.2,879.364,4.80625e+10,1.00517,0.993952,9,0.0546787,2070,0.103487,1.00002
app_16,5.06278,19602.2,7929.8,70.2,660.754,4.17008e+10,1.00358,0.993952,12,0.0631831,1620,0.0809807,1.00002
app_17,0.314365,18893.2,7928.1,71.9,718.606,6.2934e+09,1.00827,0.993952,11,0.00875299,1698,0.0848557,1.00002
app_18,8.48262,19924,7927.9,72.1,721.028,2.48123e+09,1.00878,0.993952,11,0.00344137,1793,0.0896441,1.00002
app_19,73.7709,20004.4,7940.5,59.5,79.6192,4.9244e+10,1.00128,0.993952,101,0.623341,197,0.00981127,1.00002
app_2,3.31413,18489.1,7909.2,90.8,880.224,5.27753e+10,1.00478,0.993952,9,0.0599719,2034,0.101689,1
app_20,7.57444,19831.9,7990,10,92.6687,4.15594e+09,1.00073,0.993952,86,0.0446875,231,0.011511,1.00002
app_21,3.96969,20077.4,7992.4,7.6,75.6139,2.26583e+09,1.00067,0.993952,105,0.0298136,190,0.00949624,1.00002
app_22,9.89196,20031,7946.1,53.9,84.4384,4.30103e+10,1.00136,0.993952,94,0.512028,211,0.0105341,1.00002
app_23,10.9981,19898.9,7947.4,52.6,79.266,4.22109e+10,1.0013,0.993952,101,0.534316,196,0.0097614,1.00002
app_24,103.244,20146.3,7982.3,17.7,74.1324,1.20274e+10,1.00071,0.993952,108,0.162532,185,0.00921979,1.00002
app_25,107.537,19976.6,7965.3,34.7,70.9719,2.61658e+10,1.00107,0.993952,113,0.368533,176,0.00878757,1.00003
app_26,68.507,20106.9,7962.4,37.6,86.5788,2.9268e+10,1.00104,0.993952,92,0.340325,217,0.0108083,1.00003
app_27,100.818,20062.2,7960,40,69.2474,3.11248e+10,1.00111,0.993952,114,0.44464,174,0.00866873,1.00003
app_28,24.8851,20202.6,7967.9,32.1,87.9345,2.60364e+10,1.00076,0.993952,90,0.295868,221,0.0110228,1.00003
app_29,29.5286,20011.9,7981.3,18.7,86.8832,1.18272e+10,1.00086,0.993952,92,0.135945,216,0.0107688,1.00003
app_3,10.8149,19487.7,7927.9,72.1,721.116,1.39165e+10,1.00733,0.993952,11,0.0193017,1757,0.0878426,1
app_30,65.4671,20089.1,7946.8,53.2,83.0904,4.16299e+10,1.00145,0.993952,96,0.501565,208,0.0103532,1.00003
app_31,69.7396,20223.1,7973.6,26.4,84.0481,1.70659e+10,1.00117,0.993952,94,0.203166,212,0.0105549,1.00003
app_32,60.9809,19976.1,7955.8,44.2,80.9008,3.34802e+10,1.00134,0.993952,99,0.413336,201,0.010022,1.00003
app_33,68.116,19988.7,7958.5,41.5,81.6792,3.22774e+10,1.00115,0.993952,96,0.393627,206,0.0102694,1.00003
app_34,96.1908,19982.3,7965.2,34.8,72.3175,2.56011e+10,1.00115,0.993952,111,0.35557,179,0.00891559,1.00003
app_35,27.0474,20095.4,7953.3,46.7,68.7146,3.71816e+10,1.00119,0.993952,115,0.538864,173,0.00861175,1.00004
app_36,62.4364,20033.8,7983.3,16.7,77.6595,9.81876e+09,1.00086,0.993952,103,0.127516,194,0.00966536,1.00004
app_37,73.8632,19981.9,7949.2,50.8,91.7607,3.81829e+10,1.00158,0.993952,86,0.415032,229,0.011449,1.00004
app_38,24.7918,19968.3,7969.5,30.5,83.8757,2.41313e+10,1.0008,0.993952,95,0.290738,209,0.0104313,1.00004
app_39,337.18,20420.5,7982.7,17.3,9.81219,1.30668e+10,1.00053,0.993952,845,1.30668,24,0.00118149,1.00004
app_4,0.866845,18905.7,7919,81,793.227,4.40447e+10,1.00464,0.993952,10,0.0555418,1871,0.0935196,1
app_40,806.844,21583.7,7989.8,10.2,7.55027,7.88306e+09,1.00029,0.993952,1036,1.12615,20,0.000963736,1.00004
app_41,243.512,20342.2,7952.4,47.6,9.23398,3.92167e+10,1.00105,0.993952,873,4.35741,23,0.00113915,1.00004
app_42,260.53,20342.4,7969,31,9.96175,2.79503e+10,1.00038,0.993952,804,2.79503,25,0.00123804,1.00004
app_43,224.07,20167.2,7987,13,8.49238,1.03579e+10,1.00033,0.993952,953,1.15088,21,0.00104794,1.00004
app_44,640.022,20748.8,7955.9,44.1,9.31275,3.62486e+10,1.00098,0.993952,880,3.62486,23,0.0011311,1.00004
app_45,413.367,21237.8,7971.4,28.6,8.95059,2.33011e+10,1.00066,0.993952,897,2.58901,23,0.00111044,1.00004
app_46,642.527,21000.9,7994.2,5.8,7.75295,4.92423e+09,1.00011,0.993952,1018,0.615529,20,0.000980819,1.00005
app_47,319.718,20920,7944.2,55.8,9.41045,4.19512e+10,1.00173,0.993952,863,4.19512,24,0.00115237,1.00005
app_48,408.159,21555.7,7936.4,63.6,8.1562,4.61865e+10,1.00218,0.993952,991,5.77331,21,0.00100319,1.00005
app_49,689.608,21886.9,7948.8,51.2,8.45838,3.99888e+10,1.0014,0.993952,936,4.9986,22,0.00106184,1.00005
app_5,3.08278,18304,7901.5,98.5,984.936,2.89708e+10,1.00877,0.993952,8,0.0294119,2255,0.112714,1.00001
app_50,111.538,20851.4,7956.3,43.7,7.68195,3.48687e+10,1.00111,0.993952,1033,4.35859,20,0.000963155,1.00005
app_51,776.53,21759.3,7978.5,21.5,8.29406,1.76534e+10,1.00048,0.993952,930,2.20667,22,0.00107189,1.00005
app_52,953.711,22384.3,7985.6,14.4,7.73539,9.03552e+09,1.00067,0.993952,994,1.12944,21,0.00100427,1.00005
app_53,271.696,20727.4,7994.4,5.6,8.63659,4.6988e+09,1.00011,0.993952,923,0.58735,22,0.00108202,1.00005
app_54,351.256,20665.7,7983.2,16.8,7.19186,1.26589e+10,1.00052,0.993952,1126,1.58237,18,0.00088624,1.00005
app_55,804.496,21658.5,7959.7,40.3,7.93497,3.33348e+10,1.00087,0.993952,981,4.16684,21,0.00101418,1.00005
app_56,93.9975,20493.3,7968.2,31.8,7.88064,2.70287e+10,1.0006,0.993952,1035,3.37859,20,0.000962532,1.00006
app_57,492.161,21374,7957.7,42.3,8.37327,3.67618e+10,1.00069,0.993952,935,4.08465,22,0.00106376,1.00006
app_58,219.6,20886.5,7954.5,45.5,7.78382,3.43766e+10,1.00139,0.993952,1039,4.29707,20,0.000957917,1.00006
app_59,417.042,21497.2,7941.8,58.2,8.05717,4.70398e+10,1.0014,0.993952,981,5.87998,21,0.0010126,1.00006
app_6,0.289561,18759.3,7912.1,87.9,876.612,3.63925e+10,1.00648,0.993952,9,0.0414966,2060,0.102956,1.00001
app_60,126.059,20261.7,7975.7,24.3,8.52052,2.17308e+10,1.00032,0.993952,957,2.71635,21,0.0010411,1.00006
app_7,9.89391,18390.7,7910.4,89.6,881.072,4.82268e+10,1.0052,0.993952,9,0.054741,2022,0.101053,1.00001
app_8,3.23723,19931.3,7920.6,79.4,791.684,3.50058e+10,1.00558,0.993952,10,0.0441992,1974,0.0986635,1.00001
app_9,1.60817,19216.7,7918.6,81.4,792.361,4.53307e+10,1.00453,0.993952,10,0.0572357,1902,0.0950981,1.00001
