app_id,start_app,end_app,effective_cpu,effective_io,effective_iter,total_bytes,stretch,utilization,Tcomp,Tio,iterations,priority,group_id
app_1,0.987519,18143,7900,100,988.895,3.05825e+10,1.00875,0.992121,8,0.0309227,2242,1,1
app_10,0.817854,19664.2,7917.2,82.8,792.506,3.59868e+10,1.00589,0.992121,10,0.0454379,1950,1.00001,1.00001
app_11,1.19814,18580.1,7899.3,100.7,987.531,3.40537e+10,1.0084,0.992121,8,0.0344673,2294,1.00001,1.00001
app_12,8.36537,18804.7,7920.7,79.3,791.209,2.17158e+10,1.00725,0.992121,10,0.0274536,1862,1.00001,1.00001
app_13,6.98903,20114.3,7912.3,87.7,876.692,1.74338e+10,1.00886,0.992121,9,0.0199016,2205,1.00001,1.00001
app_14,3.50943,18619.7,7908.6,91.4,790.495,4.66155e+10,1.00563,0.992121,10,0.0589323,1842,1.00001,1.00001
app_15,2.68083,20110.6,7900,100,878.154,4.74891e+10,1.00661,0.992121,9,0.0540878,2206,1.00002,1.00002
app_16,6.05119,19311.6,7911.6,88.4,877.42,2.43365e+10,1.00807,0.992121,9,0.0277181,2121,1.00002,1.00002
app_17,3.79152,18982.6,7912.6,87.4,874.583,1.15621e+10,1.00957,0.992121,9,0.013229,2078,1.00002,1.00002
app_18,0.0191619,20035.8,7927.9,72.1,721.131,6.80382e+09,1.00823,0.992121,11,0.00943664,1809,1.00002,1.00002
app_19,2.71118,18068.1,7896.5,103.5,987.452,4.42426e+10,1.00746,0.992121,8,0.04478,2231,1.00002,1.00002
app_2,1.87557,19925.5,7912.2,87.8,877.915,7.13384e+09,1.01019,0.992121,9,0.0081251,2185,1,1
app_20,8.16401,18248.7,7912,88,879.542,1.81035e+10,1.00881,0.992121,9,0.0205956,2005,1.00002,1.00002
app_21,8.6129,19520.4,7920.3,79.7,792.763,2.15249e+10,1.00733,0.992121,10,0.027178,1930,1.00002,1.00002
app_22,1.66325,19365.7,7906.3,93.7,719.515,5.39922e+10,1.00499,0.992121,11,0.0749891,1740,1.00002,1.00002
app_23,11.0111,19433.2,7915.5,84.5,720.301,4.32072e+10,1.00519,0.992121,11,0.0600099,1744,1.00002,1.00002
app_24,0.851723,19166.8,7920.7,79.3,792.511,2.42235e+09,1.0097,0.992121,10,0.00305467,1900,1.00002,1.00002
app_25,7.71298,19304.5,7920.4,79.6,791.273,2.11186e+10,1.00736,0.992121,10,0.0266986,1909,1.00003,1.00003
app_26,8.874,18728.1,7905.7,94.3,718.654,5.7052e+10,1.00468,0.992121,11,0.079349,1682,1.00003,1.00003
app_27,8.26758,19377.5,7912.2,87.8,878.184,1.56244e+10,1.0091,0.992121,9,0.0177955,2129,1.00003,1.00003
app_28,9.53825,19344.3,7921.8,78.2,719.669,3.49863e+10,1.00543,0.992121,11,0.0485921,1738,1.00003,1.00003
app_29,6.46707,18123.3,7894.4,105.6,985.015,4.63364e+10,1.00746,0.992121,8,0.047042,2235,1.00003,1.00003
app_3,6.04536,18351.4,7908.5,91.5,792.27,4.82053e+10,1.00544,0.992121,10,0.0608652,1813,1,1
app_30,7.01968,19717.3,7889.8,110.2,987.296,5.20481e+10,1.00732,0.992121,8,0.0527336,2432,1.00003,1.00003
app_31,3.03523,18963.9,7912,88,880.176,8.82822e+09,1.01,0.992121,9,0.0100321,2082,1.00003,1.00003
app_32,6.07538,18720.3,7909.7,90.3,794.194,4.43901e+10,1.00577,0.992121,10,0.0558366,1853,1.00003,1.00003
app_33,35.2564,19875.6,7937.6,62.4,82.2645,4.56801e+10,1.00209,0.992121,98,0.550363,202,1.00003,1.00003
app_34,37.1963,19867.4,7962.5,37.5,106.159,2.5228e+10,1.00154,0.992121,75,0.238,264,1.00003,1.00003
app_35,58.4238,19903.2,7936.2,63.8,71.263,4.78728e+10,1.00199,0.992121,112,0.674265,177,1.00004,1.00004
app_36,45.5769,20031.1,7987.2,12.8,110.693,5.97139e+09,1.00085,0.992121,72,0.0537963,276,1.00004,1.00004
app_37,10.9399,19963.5,7946.5,53.5,91.4544,3.89182e+10,1.00183,0.992121,87,0.423024,228,1.00004,1.00004
app_38,96.6759,20194.3,7960.1,39.9,79.6771,2.88042e+10,1.00139,0.992121,99,0.360053,201,1.00004,1.00004
app_39,68.031,20057.9,7971.6,28.4,89.4872,1.80727e+10,1.00129,0.992121,90,0.200807,222,1.00004,1.00004
app_4,8.97418,17915.4,7885.8,114.2,990.076,5.94371e+10,1.00689,0.992121,8,0.0600374,2210,1,1
app_40,85.9349,19849.8,7946.8,53.2,89.7617,3.97256e+10,1.00169,0.992121,88,0.446356,224,1.00004,1.00004
app_41,21.8489,19913.1,7982.3,17.7,70.062,1.06785e+10,1.00088,0.992121,113,0.15255,176,1.00004,1.00004
app_42,55.9539,20035.2,7977,23,102.24,1.47635e+10,1.00103,0.992121,78,0.143335,255,1.00004,1.00004
app_43,60.2196,20162.1,7976.3,23.7,87.7223,1.67157e+10,1.00087,0.992121,90,0.189952,222,1.00004,1.00004
app_44,13.7177,20029.7,7972.7,27.3,75.1354,1.83512e+10,1.00112,0.992121,106,0.244683,189,1.00004,1.00004
app_45,33.7073,19868.1,7954.8,45.2,88.281,3.33391e+10,1.00148,0.992121,91,0.378853,218,1.00004,1.00004
app_46,16.6318,19946.5,7948.9,51.1,79.5283,3.90968e+10,1.0015,0.992121,100,0.48871,198,1.00005,1.00005
app_47,94.0272,19957,7990.9,9.1,84.1463,3.50969e+09,1.0007,0.992121,95,0.041782,210,1.00005,1.00005
app_48,69.6944,20095.8,7964,36,78.9575,2.6713e+10,1.00116,0.992121,100,0.338139,199,1.00005,1.00005
app_49,56.9643,20070.1,7982,18,76.7071,1.17233e+10,1.00079,0.992121,103,0.15225,193,1.00005,1.00005
app_5,6.53378,20145.3,7927.9,72.1,721.849,1.38187e+10,1.00734,0.992121,11,0.019166,1813,1.00001,1.00001
app_50,20.9881,19901,7964.4,35.6,73.0538,2.54504e+10,1.00127,0.992121,109,0.348635,182,1.00005,1.00005
app_51,6.68447,19982.9,7941.6,58.4,82.0092,4.25843e+10,1.00198,0.992121,97,0.519321,204,1.00005,1.00005
app_52,23.3982,19901.8,7991.2,8.8,70.1597,4.00151e+09,1.0006,0.992121,115,0.0571644,173,1.00005,1.00005
app_53,331.716,20683.8,7939.3,60.7,8.55771,4.93851e+10,1.00142,0.992121,932,6.17314,22,1.00005,1.00005
app_54,368.473,21789.8,7983.2,16.8,7.75315,1.37619e+10,1.00038,0.992121,991,1.72024,21,1.00005,1.00005
app_55,580.796,20953.8,7979.7,20.3,6.91432,1.60703e+10,1.00053,0.992121,1134,2.29576,18,1.00005,1.00005
app_56,699.21,21087.3,7972.2,27.8,7.28507,2.30384e+10,1.0006,0.992121,1071,3.2912,19,1.00006,1.00006
app_57,727.762,20813.5,7988.8,11.2,7.21411,9.33325e+09,1.00023,0.992121,1121,1.33332,18,1.00006,1.00006
app_58,630.092,21368.8,7959.1,40.9,8.37177,3.22754e+10,1.00108,0.992121,938,3.58615,22,1.00006,1.00006
app_59,247.661,20614.5,7983.8,16.2,6.99209,1.20335e+10,1.00052,0.992121,1129,1.71908,18,1.00006,1.00006
app_6,5.19842,18603.3,7906.8,93.2,877.505,4.31284e+10,1.0063,0.992121,9,0.0491772,2040,1.00001,1.00001
app_60,422.876,21087.7,7992,8,7.56329,5.45559e+09,1.00032,0.992121,1063,0.77937,19,1.00006,1.00006
app_7,2.4615,19922.3,7920.5,79.5,792.704,1.69006e+10,1.00789,0.992121,10,0.0213391,1970,1.00001,1.00001
app_8,3.53997,18284.1,7896.1,103.9,986.735,4.46964e+10,1.00746,0.992121,8,0.0452851,2256,1.00001,1.00001
app_9,7.76169,19939.6,7920.1,79.9,793.434,2.0286e+10,1.00751,0.992121,10,0.0255814,1975,1.00001,1.00001
