app_id,start_app,end_app,effective_cpu,effective_io,effective_iter,total_bytes,stretch,utilization,Tcomp,Tio,iterations,priority,group_id
app_1,9.32431,19318,7910.2,70.9122,719.194,2.8663e+10,1.0077,0.991012,11,0.0398651,1739,1,1
app_10,1.53135,19094.8,7904,76.3298,877.432,6.04492e+09,1.01137,0.991012,9,0.00688487,2094,1,1
app_11,4.3366,19679.6,7917.5,65.8685,718.66,1.60053e+10,1.00838,0.991012,11,0.0222605,1769,1,1
app_12,5.39339,19129.8,7897.1,80.6207,875.377,1.97589e+10,1.0105,0.991012,9,0.0225815,2096,1,1
app_13,8.54886,18437.1,7886.4,88.4427,986.317,1.51707e+10,1.01246,0.991012,8,0.0153862,2274,1,1
app_14,7.37543,19485.8,7902.6,78.1733,793.474,3.05493e+10,1.00843,0.991012,10,0.0385236,1928,1,1
app_15,9.70579,20029.5,7918,65.4613,721.503,1.08373e+10,1.00898,0.991012,11,0.0150309,1804,1,1
app_16,10.8493,18324,7887.3,93.4861,791.175,5.78111e+10,1.00691,0.991012,10,0.0730861,1809,1,1
app_17,4.13913,19175.7,7893.7,86.202,878.516,3.55135e+10,1.00893,0.991012,9,0.0404022,2104,1,1
app_18,7.51351,19562.3,7903.3,75.0391,878.973,4.62486e+09,1.01164,0.991012,9,0.0052615,2145,1,1
app_19,1.77165,20111.8,7899.5,83.857,716.059,5.31217e+10,1.00596,0.991012,11,0.0741923,1803,1,1
app_2,2.35265,18237.5,7882.4,98.0171,878.098,5.53833e+10,1.00784,0.991012,9,0.0630789,1999,1,1
app_20,5.35808,18196.4,7891.6,88.0906,878.37,3.85554e+10,1.00881,0.991012,9,0.0439128,1992,1,1
app_21,11.6035,20078.8,7910.5,73.1117,661.053,3.54808e+10,1.0068,0.991012,12,0.0536775,1658,1,1
app_22,2.99428,19860.6,7911.7,68.8873,794.404,7.84321e+09,1.01016,0.991012,10,0.00986567,1968,1,1
app_23,0.719842,20152.6,7911.4,68.2899,792.95,7.78797e+09,1.0102,0.991012,10,0.0098209,1993,1,1
app_24,3.65543,19724.8,7890.6,86.3656,873.178,3.59706e+10,1.00926,0.991012,9,0.0411563,2159,1,1
app_25,7.59327,19149.8,7906.3,71.3667,877.223,8.78594e+08,1.01174,0.991012,9,0.00100182,2103,1,1
app_26,9.48141,19363.2,7898.5,80.8782,790.445,3.63655e+10,1.00821,0.991012,10,0.0460323,1909,1,1
app_27,3.19363,19320.7,7887.1,94.7804,877.627,4.42959e+10,1.00865,0.991012,9,0.0504509,2116,1,1
app_28,5.17085,18343.8,7885.7,92.2296,984.838,2.55793e+10,1.01121,0.991012,8,0.0259689,2258,1,1
app_29,1.07426,19607,7901.9,76.1582,876.065,8.44288e+09,1.01133,0.991012,9,0.00963799,2152,1,1
app_3,4.17764,19867.7,7919.2,65.513,661.167,2.56439e+10,1.00694,0.991012,12,0.0387956,1641,1,1
app_30,4.3582,19395.7,7890.3,89.6187,874.047,4.11879e+10,1.00864,0.991012,9,0.0471257,2120,1,1
app_31,7.96291,18388.6,7881.8,95.1289,873.371,4.53014e+10,1.0092,0.991012,9,0.0518322,2009,1,1
app_32,3.54688,20101.7,7902,75.562,875.994,6.33863e+09,1.01159,0.991012,9,0.00723588,2207,1,1
app_33,9.32053,20089.1,7901.7,79.8343,789.615,3.56185e+10,1.0079,0.991012,10,0.0451438,1983,1,1
app_34,63.618,20069.7,7965.2,32.7744,76.5451,2.49959e+10,1.00123,0.991012,104,0.324622,192,1,2
app_35,14.9224,19910.4,7980.1,16.7925,79.554,1.13035e+10,1.00108,0.991012,100,0.141294,199,1,2
app_36,0.0949635,20063.5,7930.3,66.1218,70.7425,5.56936e+10,1.00175,0.991012,113,0.784418,176,1,2
app_37,19.3586,20077.2,7952.8,46.788,75.56,3.74848e+10,1.00122,0.991012,104,0.499798,191,1,2
app_38,19.8916,19932.2,7927.3,70.0797,77.4315,5.64755e+10,1.00203,0.991012,103,0.724045,192,1,2
app_39,36.6207,19948.1,7971.7,26.6527,81.4771,1.9941e+10,1.00105,0.991012,98,0.246185,203,1,2
app_4,9.24334,18508.8,7889.1,92.7647,790.208,5.89002e+10,1.00654,0.991012,10,0.0745572,1826,1,1
app_40,69.2812,20232,7957.5,41.0248,83.8741,3.12391e+10,1.00141,0.991012,94,0.371894,212,1,2
app_41,26.3518,20003.2,7983.3,16.2492,75.7081,1.10064e+10,1.00071,0.991012,106,0.144821,188,1,2
app_42,29.5424,20027.1,7965.2,27.3349,82.7528,1.99634e+10,1.00186,0.991012,97,0.240523,206,1,2
app_43,38.9435,19913.2,7969.1,29.2691,80.1108,2.09928e+10,1.00124,0.991012,100,0.26241,199,1,2
app_44,41.3195,19844.2,7980.7,18.4832,83.6976,1.29473e+10,1.00079,0.991012,96,0.155992,207,1,2
app_45,65.1441,19979.2,7957.2,39.8847,78.3661,3.06317e+10,1.00152,0.991012,102,0.392714,195,1,2
app_46,86.0503,19855.4,7985.9,8.10336,87.8061,2.09422e+08,1.00174,0.991012,92,0.00237979,216,1,2
app_47,2.91977,19887.3,7933,65.1218,112.277,5.11203e+10,1.00199,0.991012,71,0.456432,277,1,2
app_48,72.4423,20023.4,7941.5,54.5889,88.9047,4.24138e+10,1.00201,0.991012,89,0.47656,222,1,2
app_49,48.311,19947.7,7960.1,36.0191,85.7171,2.60515e+10,1.00173,0.991012,93,0.302924,213,1,2
app_5,3.30867,19337.3,7893.1,84.8422,877.838,3.03894e+10,1.00966,0.991012,9,0.0346121,2116,1,1
app_50,8.31446,20014,7989.5,8.11328,80.3758,2.97511e+09,1.00094,0.991012,99,0.0371888,201,1,2
app_51,23.6606,20071,7977.2,18.2441,75.204,1.26625e+10,1.00127,0.991012,106,0.168833,188,1,2
app_52,60.7668,20022.1,7939.6,58.5686,102.374,4.60812e+10,1.00179,0.991012,78,0.44739,255,1,2
app_53,90.5138,19957.4,7990.2,8.30183,83.5486,4.01901e+09,1.00072,0.991012,96,0.0478453,207,1,2
app_54,140.02,20879.8,7972.6,27.4,8.35931,2.15533e+10,1.00073,0.991012,986,2.39481,21,1,3
app_55,355.915,20593.3,7966.6,33.4,10.0295,2.67904e+10,1.00083,0.991012,816,2.67904,25,1,3
app_56,315.084,21218.8,7997.2,2.8,7.20803,2.17626e+09,1.00008,0.991012,1100,0.310894,19,1,3
app_57,43.431,20925.6,7949.1,50.9,8.16998,4.01135e+10,1.00135,0.991012,981,5.01419,21,1,3
app_58,601.065,21294.1,7967.9,32.1,9.25279,2.40957e+10,1.001,0.991012,862,2.6773,24,1,3
app_59,995.126,21752.6,7975.6,24.4,7.74544,1.98712e+10,1.00057,0.991012,1019,2.4839,20,1,3
app_6,6.86279,20084.8,7889.1,87.5641,877.875,3.54727e+10,1.00952,0.991012,9,0.0404017,2205,1,1
app_60,679.809,20417.7,7964.2,35.8,8.55258,2.92205e+10,1.00082,0.991012,959,3.24672,21,1,3
app_7,6.71441,19791.1,7902,77.8067,788.832,2.93961e+10,1.00865,0.991012,10,0.0372574,1953,1,1
app_8,5.91211,18191.9,7879.6,96.3944,982.712,3.75851e+10,1.01046,0.991012,8,0.0382351,2235,1,1
app_9,7.96813,20091.5,7890.1,87.3157,788.742,4.33285e+10,1.00839,0.991012,10,0.0549157,1978,1,1
