app_id,start_app,end_app,effective_cpu,effective_io,effective_iter,total_bytes,stretch,utilization,Tcomp,Tio,iterations,priority,group_id
app_1,7.70384,19699.7,7901.4,83.8871,877.632,2.62306e+10,1.00913,0.992875,9,0.0298754,2162,0.1,1
app_10,4.39863,19007.3,7902.3,84.3593,876.741,2.87251e+10,1.0087,0.992875,9,0.0327913,2084,0.1,1
app_11,10.4208,20021.4,7916,73.5952,718.85,4.01184e+10,1.00552,0.992875,11,0.0557975,1801,0.1,1
app_12,8.81119,18460,7912.1,77.1779,791.476,2.70664e+10,1.00766,0.992875,10,0.034218,1824,0.1,1
app_13,4.13009,20075.7,7890.6,91.7678,988.216,2.4205e+10,1.01076,0.992875,8,0.024499,2473,0.1,1
app_14,3.006,19774.7,7900.2,87.1568,876.474,3.93783e+10,1.00761,0.992875,9,0.0449011,2169,0.1,1
app_15,2.57529,18347.9,7906,81.8557,876.028,1.87924e+10,1.00949,0.992875,9,0.0214525,2010,0.1,1
app_16,1.54886,19803.7,7919.2,69.1767,723.581,2.31862e+10,1.00725,0.992875,11,0.0320694,1784,0.1,1
app_17,2.902,17931.2,7887.7,98.0793,988.256,4.33742e+10,1.00869,0.992875,8,0.043901,2215,0.1,1
app_18,0.819541,18212.5,7905.7,82.6101,878.096,2.03077e+10,1.00934,0.992875,9,0.0231295,2001,0.1,1
app_19,3.37537,20035.2,7913.7,75.2825,789.358,2.38806e+10,1.00786,0.992875,10,0.030267,1983,0.1,1
app_2,2.66604,19870.7,7906.3,80.9501,791.835,4.55451e+10,1.00606,0.992875,10,0.0575791,1965,0.1,1
app_20,0.0639669,19943.7,7926.8,62.9382,662.504,2.14115e+10,1.00652,0.992875,12,0.0323437,1652,0.1,1
app_21,0.195771,19708.8,7899.3,88.7825,880.211,4.50904e+10,1.007,0.992875,9,0.0512391,2164,0.1,1
app_22,1.64886,19476.1,7901.9,84.6693,878.505,2.82164e+10,1.00881,0.992875,9,0.0321371,2141,0.1,1
app_23,2.20736,18284.6,7900.6,86.3949,877.981,3.48086e+10,1.00814,0.992875,9,0.0396454,2006,0.1,1
app_24,93.4399,19916.6,7964.1,34.3034,84.8984,2.63606e+10,1.00119,0.992875,95,0.310124,210,0.01,2
app_25,41.9005,20122.8,7956.1,42.493,82.6409,3.35477e+10,1.0013,0.992875,96,0.404189,207,0.01,2
app_26,24.5256,20119,7969.1,29.4648,86.3627,2.26359e+10,1.00103,0.992875,91,0.260183,219,0.01,2
app_27,46.4656,20155,7988.4,10.2548,79.7435,6.58501e+09,1.00063,0.992875,99,0.0823126,201,0.01,2
app_28,28.0214,19988.5,7972.2,26.8938,74.3414,2.16661e+10,1.00077,0.992875,107,0.288881,186,0.01,2
app_29,38.7671,19852.9,7949.4,49.6026,95.5602,3.99228e+10,1.00134,0.992875,84,0.415863,236,0.01,2
app_3,5.81124,18776.9,7895.7,91.1986,989.407,1.44194e+10,1.01136,0.992875,8,0.014565,2318,0.1,1
app_30,102.761,20366.3,7975.9,22.3978,74.416,1.52805e+10,1.0011,0.992875,106,0.206493,189,0.01,2
app_31,58.3861,20291.8,7963.1,35.4015,84.1586,2.81009e+10,1.0011,0.992875,94,0.334534,212,0.01,2
app_32,21.0223,19883.2,7974.6,22.1792,108.367,1.43521e+10,1.00138,0.992875,74,0.13289,268,0.01,2
app_33,52.9549,20057.2,7989.4,8.6572,89.9251,2.66806e+09,1.00099,0.992875,89,0.0296451,224,0.01,2
app_34,36.5363,19977.5,7968.5,29.0754,84.5719,2.36548e+10,1.00098,0.992875,94,0.281605,211,0.01,2
app_35,13.2538,19792.8,7982.2,16.5819,81.2754,1.05644e+10,1.00091,0.992875,98,0.130424,202,0.01,2
app_36,14.0164,19965.8,7982.8,14.9321,68.8085,9.98361e+09,1.0009,0.992875,117,0.14469,171,0.01,2
app_37,49.0131,19879.3,7952.5,46.7547,87.9797,3.86714e+10,1.0011,0.992875,91,0.439447,218,0.01,2
app_38,70.1673,20172.9,7991,8.03716,76.4884,4.35184e+09,1.00058,0.992875,105,0.0565174,191,0.01,2
app_39,30.6111,20126.5,7962.6,37.3442,70.6036,3.07771e+10,1.00083,0.992875,112,0.433481,178,0.01,2
app_4,8.52383,18226.8,7897.6,89.2481,881.764,4.26525e+10,1.00752,0.992875,9,0.0483589,2003,0.1,1
app_40,74.5112,20200.3,7991.3,7.5268,76.738,7.28808e+08,1.001,0.992875,104,0.00958957,193,0.01,2
app_41,1.37072,19920.3,7947.2,52.558,81.4445,4.41852e+10,1.00108,0.992875,97,0.545497,204,0.01,2
app_42,13.5055,19880.6,7972.8,26.4135,84.2707,2.0358e+10,1.00086,0.992875,96,0.242357,208,0.01,2
app_43,111.818,19902.9,7952.9,45.4847,71.7417,3.81445e+10,1.00112,0.992875,111,0.529785,178,0.01,2
app_44,636.728,21388.4,7974.7,25.3,7.42352,2.14327e+10,1.00048,0.992875,1043,3.06182,20,0.001,3
app_45,398.899,21232.5,7956.2,41.3996,8.08687,3.47338e+10,1.00113,0.992875,975,4.34173,21,0.001,3
app_46,538.38,21504,7974.9,25.1,9.85994,2.12566e+10,1.00048,0.992875,794,2.12566,26,0.001,3
app_47,428.297,20390.2,7981.7,18.3,10.3707,1.38851e+10,1.00055,0.992875,774,1.38851,26,0.001,3
app_48,1058.13,22307,7993.1,6.9,6.9191,6.14141e+09,1.00009,0.992875,1155,0.877345,18,0.001,3
app_49,581.674,21305.3,7997.4,2.6,7.3651,2.29461e+09,1.00004,0.992875,1093,0.286826,19,0.001,3
app_5,4.21832,19093.9,7903.9,85.4148,878.636,3.06304e+10,1.00825,0.992875,9,0.0348866,2097,0.1,1
app_50,319.606,20984.3,7943.8,50.8045,7.93511,4.38245e+10,1.00155,0.992875,976,5.47806,21,0.001,3
app_51,237.525,21163.2,7940.8,59.2,7.56214,5.00081e+10,1.00115,0.992875,1044,6.25101,20,0.001,3
app_52,898.626,21221.8,7964.3,35.7,7.63035,2.99227e+10,1.00072,0.992875,1010,4.27467,20,0.001,3
app_53,758.074,21282.8,7947.1,52.9,8.14483,4.65822e+10,1.00079,0.992875,972,5.82277,21,0.001,3
app_54,805.286,21501.6,7957.3,42.7,8.82445,3.54146e+10,1.00091,0.992875,897,3.93495,23,0.001,3
app_55,334.547,20005.6,7943.6,55.7292,8.06341,4.79874e+10,1.00105,0.992875,1005,5.99842,20,0.001,3
app_56,323.105,20908.5,7942.2,53.2965,8.09041,4.64562e+10,1.00142,0.992875,969,5.1618,21,0.001,3
app_57,880.735,20935.4,7974.6,25.4,8.80144,2.15203e+10,1.00049,0.992875,916,2.39115,22,0.001,3
app_58,596.246,20671.2,7958,37.4272,9.12247,3.07357e+10,1.00141,0.992875,869,3.41507,23,0.001,3
app_59,105.477,20910.9,7970.7,24.8665,9.45844,2.11088e+10,1.00102,0.992875,829,2.34543,25,0.001,3
app_6,1.86464,19038.6,7897.1,89.957,876.563,4.89143e+10,1.00679,0.992875,9,0.0557746,2088,0.1,1
app_60,676.376,21767.8,7954,46,7.53751,3.85454e+10,1.00093,0.992875,1041,5.50649,20,0.001,3
app_7,0.895545,18588.1,7906.8,82.4618,791.148,5.05632e+10,1.00536,0.992875,10,0.0639232,1839,0.1,1
app_8,6.35652,19385.1,7899.3,87.6059,986.698,7.93864e+07,1.01274,0.992875,8,8.0432e-05,2390,0.1,1
app_9,1.20578,19271.4,7909.4,80.4449,878.103,3.83319e+09,1.01096,0.992875,9,0.00436582,2116,0.1,1
