app_id,start_app,end_app,effective_cpu,effective_io,effective_iter,total_bytes,stretch,utilization,Tcomp,Tio,iterations,priority,group_id
app_1,6.29927,20201,7765.8,66.9614,774.682,1.60296e+10,1.02804,0.982787,10,0.0206834,1962,1,1
app_10,5.00719,18977.8,7752.9,83.5693,775.097,5.13283e+10,1.02509,0.982787,10,0.0662301,1838,1,1
app_11,2.01392,19573.2,7751.7,86.5231,862.803,4.32485e+10,1.02631,0.982787,9,0.0501723,2117,1,1
app_12,9.30195,19891.1,7755.9,80.0607,860.608,2.74498e+10,1.02784,0.982787,9,0.0318813,2148,1,1
app_13,7.44095,18218.3,7710.4,89.6804,1104.07,3.56972e+09,1.03708,0.982787,7,0.00323344,2514,1,1
app_14,7.49564,19980.1,7778.4,80.0873,781.097,4.45132e+10,1.02264,0.982787,10,0.0569952,1949,1,1
app_15,5.74061,20326.1,7746,77.5907,861.281,2.20246e+10,1.02986,0.982787,9,0.0255506,2194,1,1
app_16,5.42294,18925,7760.9,78.9025,774.232,4.28834e+10,1.02514,0.982787,10,0.0554049,1842,1,1
app_17,1.10985,18401.8,7754.8,88.9149,970.129,3.07055e+10,1.02755,0.982787,8,0.0316552,2229,1,1
app_18,6.11651,19741.7,7736.3,99.3125,970.265,5.12486e+10,1.02728,0.982787,8,0.0528336,2391,1,1
app_19,4.0646,20371.1,7757.4,80.5762,971.208,9.20245e+09,1.03005,0.982787,8,0.00947729,2468,1,1
app_2,2.92771,19514.3,7773.5,74.0486,776.71,2.85045e+10,1.02538,0.982787,10,0.0366853,1902,1,1
app_20,1.06711,19560.9,7785.2,79.1379,776.639,4.06149e+10,1.02226,0.982787,10,0.0522715,1899,1,1
app_21,6.00471,19358.8,7721.2,88.8765,1105.55,5.26013e+09,1.0354,0.982787,7,0.0047603,2675,1,1
app_22,2.79261,18858.9,7785.1,69.0248,866.157,3.7675e+09,1.02711,0.982787,9,0.00434544,2042,1,1
app_23,3.20267,20185.5,7800.8,70.5145,708.572,3.50309e+10,1.02095,0.982787,11,0.0494089,1789,1,1
app_24,0.99348,19384.5,7756.1,75.7877,865.528,1.72231e+10,1.02916,0.982787,9,0.0198881,2095,1,1
app_25,1.27515,18761.5,7764.6,78.9272,861.399,2.44585e+10,1.02708,0.982787,9,0.0283741,2026,1,1
app_26,0.659462,20294,7759.4,86.5831,862.862,4.28039e+10,1.02535,0.982787,9,0.0495989,2190,1,1
app_27,1.40094,20257.9,7772.8,68.145,863.734,4.54459e+08,1.02917,0.982787,9,0.000525994,2192,1,1
app_28,4.12244,19213.8,7781.7,76.5766,779.891,3.32699e+10,1.02368,0.982787,10,0.0426537,1870,1,1
app_29,2.3864,19614.3,7794.6,73.9823,779.296,2.78489e+10,1.0227,0.982787,10,0.0357495,1917,1,1
app_3,7.7761,19336.7,7767.3,71.5016,775.846,2.49963e+10,1.02666,0.982787,10,0.0322117,1880,1,1
app_30,6.15671,19960.2,7792.7,76.3502,708.981,4.85523e+10,1.02025,0.982787,11,0.06848,1768,1,1
app_31,24.3984,19950.1,7973.1,10.6249,87.6834,8.18033e+09,1.00235,0.982787,91,0.0929583,218,1,1
app_32,70.4867,19910.9,7954.8,23.7208,113.418,2.00786e+10,1.00315,0.982787,70,0.177687,283,1,1
app_33,22.6973,19961.1,7960.5,21.8593,71.953,1.86456e+10,1.00261,0.982787,110,0.258967,180,1,1
app_34,61.4272,20090,7947.9,41.7748,83.6601,3.80149e+10,1.00176,0.982787,95,0.45801,210,1,1
app_35,86.2863,20004.2,7956,30.523,74.5573,2.79755e+10,1.00201,0.982787,107,0.378047,185,1,1
app_36,82.8829,20036.6,7934.4,48.5238,84.0149,4.25919e+10,1.00288,0.982787,94,0.507046,211,1,1
app_37,56.6201,20038.1,7983.1,8.51151,74.9495,6.23418e+09,1.00134,0.982787,106,0.0831223,188,1,1
app_38,80.8099,20116.6,7959,27.9428,66.7574,2.6179e+10,1.00186,0.982787,119,0.390731,168,1,1
app_39,57.2611,20087.8,7973.8,7.75833,82.5073,4.14342e+09,1.00276,0.982787,96,0.0505295,207,1,1
app_4,1.23169,19088.6,7738.5,96.6084,966.327,4.60218e+10,1.02768,0.982787,8,0.0476416,2307,1,1
app_40,33.7179,19860.7,7963.3,19.1583,88.1906,1.71524e+10,1.00245,0.982787,91,0.194913,218,1,1
app_41,35.2042,20158.4,7942.5,47.7405,80.0613,4.33601e+10,1.00177,0.982787,99,0.542001,201,1,1
app_42,62.7925,20022.1,7987.8,9.05334,84.5175,6.67566e+09,1.00069,0.982787,94,0.0794722,211,1,1
app_43,20.1312,20023.7,7943.8,35.0803,86.169,3.18975e+10,1.00305,0.982787,93,0.370901,214,1,1
app_44,9.01416,19813.3,7934.8,50.2121,87.1268,4.37113e+10,1.00269,0.982787,92,0.502429,215,1,1
app_45,5.26863,19981.8,7952.1,26.2465,88.7024,2.03909e+10,1.00345,0.982787,91,0.229111,219,1,1
app_46,65.0262,20001.2,7965.2,19.8066,91.4065,1.72765e+10,1.0022,0.982787,86,0.187788,231,1,1
app_47,65.0397,19954.1,7933.3,53.5546,90.3788,4.75425e+10,1.0024,0.982787,88,0.522445,225,1,1
app_48,63.7191,20104.4,7952.1,40.2776,77.2991,3.82137e+10,1.00121,0.982787,102,0.48992,194,1,1
app_49,94.655,20190.1,7950.5,42.326,73.7824,3.6716e+10,1.0016,0.982787,107,0.502958,186,1,1
app_5,0.0982747,18657.5,7751.1,81.9777,861.786,3.21135e+10,1.02785,0.982787,9,0.0372547,2018,1,1
app_50,34.6179,20067.2,7961.8,28.7521,75.7309,2.36662e+10,1.00182,0.982787,105,0.315549,189,1,1
app_51,655.816,21121.1,7972.5,23.8517,9.10866,2.32593e+10,1.00053,0.982787,893,2.32593,23,1,1
app_52,914.227,20962.5,7947.6,52.0137,8.80939,5.14593e+10,1.00012,0.982787,919,5.7177,22,1,1
app_53,831.293,21764,7961.5,35.1781,7.98909,3.48397e+10,1.00046,0.982787,981,4.35497,21,1,1
app_54,792.302,22183.7,7967.4,29.9638,7.9715,2.95721e+10,1.00038,0.982787,988,3.69651,21,1,1
app_55,58.7992,20590.7,7955.2,43.8917,9.80526,4.3474e+10,1.00017,0.982787,821,4.3474,25,1,1
app_56,743.94,21538.8,7949.5,49.587,8.10962,4.91434e+10,1.00017,0.982787,983,6.14292,21,1,1
app_57,813.752,21880.8,7971,28.8994,7.8331,2.87605e+10,1.00003,0.982787,984,3.59507,21,1,1
app_58,752.574,21312.4,7972.4,27.191,7.5277,2.68307e+10,1.0001,0.982787,1060,3.35384,19,1,1
app_59,461.254,21368.3,7990.8,5.46141,7.45974,4.90161e+09,1.00054,0.982787,1041,0.700231,20,1,1
app_6,4.93541,20062,7796.1,73.9245,709.115,4.56833e+10,1.02018,0.982787,11,0.0643427,1778,1,1
app_60,724.689,21229,7993.8,5.42243,10.9778,4.62592e+09,1.0002,0.982787,739,0.420538,28,1,1
app_7,3.42713,19393.1,7764.2,78.6289,968.879,4.28409e+09,1.0298,0.982787,8,0.00442114,2349,1,1
app_8,1.07518,20069.7,7756.7,67.5879,858.754,4.20183e+09,1.03081,0.982787,9,0.00489153,2163,1,1
app_9,4.06569,19120.1,7794.3,62.8175,779.033,2.36971e+09,1.02608,0.982787,10,0.00304199,1866,1,1
