app_id,start_app,end_app,effective_cpu,effective_io,effective_iter,total_bytes,stretch,utilization,Tcomp,Tio,iterations,priority,group_id
app_1,0.924896,18745.1,7897.5,102.5,877.911,4.82997e+10,1.00682,0.993978,9,0.055011,2055,1,1
app_10,8.17789,19406.5,7901.5,98.5,985.428,1.10782e+10,1.01105,0.993978,8,0.0112469,2395,1.00001,1.00001
app_11,0.493042,19159.2,7904.6,95.4,785.904,5.28994e+10,1.00534,0.993978,10,0.0673021,1891,1.00001,1.00001
app_12,4.67245,19664.5,7915.4,84.6,720.706,3.99102e+10,1.00562,0.993978,11,0.055354,1768,1.00001,1.00001
app_13,1.97677,18343.8,7920.4,79.6,794.295,1.86284e+10,1.00768,0.993978,10,0.0234615,1817,1.00001,1.00001
app_14,7.94674,18831.2,7904.2,95.8,790.302,5.33611e+10,1.00533,0.993978,10,0.0675457,1863,1.00001,1.00001
app_15,3.25102,19486.7,7912,88,879.597,1.04544e+10,1.00979,0.993978,9,0.01188,2144,1.00002,1.00002
app_16,14.7135,20203.8,7952.9,47.1,80.1472,3.35334e+10,1.0017,0.993978,98,0.419167,203,1.00002,1.00002
app_17,64.3282,20124.9,7935.8,64.2,102.873,4.94954e+10,1.00184,0.993978,77,0.480538,259,1.00002,1.00002
app_18,3.94207,20065,7992.1,7.9,71.5297,4.25875e+09,1.00046,0.993978,112,0.0599824,178,1.00002,1.00002
app_19,6.71839,19951,7949.4,50.6,91.6492,3.79868e+10,1.00158,0.993978,86,0.412899,230,1.00002,1.00002
app_2,5.18703,18085.1,7900.3,99.7,985.578,3.11859e+10,1.00864,0.993978,8,0.0316287,2232,1,1
app_20,46.3238,20153.6,7932,68,94.1835,5.23079e+10,1.00197,0.993978,84,0.550609,235,1.00002,1.00002
app_21,55.3882,20131.1,7934.8,65.2,105.07,4.58528e+10,1.00242,0.993978,75,0.436693,265,1.00002,1.00002
app_22,86.3183,20269.8,7933.7,66.3,78.8707,5.1957e+10,1.0018,0.993978,101,0.657683,197,1.00002,1.00002
app_23,71.2979,20064.4,7976.9,23.1,98.8654,1.48905e+10,1.00103,0.993978,80,0.150409,248,1.00002,1.00002
app_24,21.4364,20022.1,7935.5,64.5,123.585,4.64128e+10,1.00227,0.993978,64,0.374296,309,1.00002,1.00002
app_25,97.5875,20092.7,7992,8,77.6465,3.04875e+09,1.00062,0.993978,103,0.0390866,194,1.00003,1.00003
app_26,82.4001,20282,7936.09,63.9124,88.7575,5.29184e+10,1.00138,0.993978,88,0.598312,226,1.00003,1.00003
app_27,86.501,20285.4,7948.4,51.6,85.5689,3.85027e+10,1.00164,0.993978,92,0.447706,217,1.00003,1.00003
app_28,104.616,20071.6,7981.1,18.9,75.3659,1.33606e+10,1.00069,0.993978,106,0.175797,188,1.00003,1.00003
app_29,68.3701,20080.8,7970.9,29.1,81.0298,1.63056e+10,1.0016,0.993978,98,0.201304,203,1.00003,1.00003
app_3,4.48373,19496.7,7900.87,99.1257,983.602,2.66994e+10,1.00914,0.993978,8,0.027154,2400,1,1
app_30,39.6938,19889.7,7981.88,18.1246,81.9476,1.14814e+10,1.00083,0.993978,97,0.141531,204,1.00003,1.00003
app_31,42.5403,19760,7990.2,9.8,83.4744,5.80387e+09,1.0005,0.993978,97,0.0690936,205,1.00003,1.00003
app_32,37.2703,20130.3,7991.8,8.2,81.649,2.61486e+09,1.0007,0.993978,98,0.0322822,204,1.00003,1.00003
app_33,5.88075,19892.3,7954.2,45.8,95.6084,3.02682e+10,1.00195,0.993978,83,0.315294,239,1.00003,1.00003
app_34,80.6909,20165.1,7988.2,11.8,82.2345,7.76767e+09,1.0005,0.993978,97,0.0947277,206,1.00003,1.00003
app_35,58.4145,19997.7,7931.9,68.1,99.3892,5.26681e+10,1.00193,0.993978,80,0.526681,248,1.00004,1.00004
app_36,29.4548,21289.3,7952.5,47.5,8.28141,4.2328e+10,1.00065,0.993978,942,5.291,22,1.00004,1.00004
app_37,113.956,20881.5,7989.7,10.3,7.3279,8.85785e+09,1.00018,0.993978,1062,1.26541,19,1.00004,1.00004
app_38,550.455,20586.4,7973,27,8.42212,2.11304e+10,1.00073,0.993978,915,2.34782,22,1.00004,1.00004
app_39,861.995,20994.2,7996.5,3.5,8.10886,2.4806e+09,1.00013,0.993978,1002,0.310075,20,1.00004,1.00004
app_4,2.28681,20024.7,7906.2,93.8,791.282,5.25974e+10,1.00518,0.993978,10,0.0664948,1981,1,1
app_40,188.358,21188.1,7974.5,25.5,9.23711,1.98269e+10,1.00071,0.993978,848,2.20298,24,1.00004,1.00004
app_41,660.865,20966.2,7995,5,7.86057,4.05739e+09,1.00012,0.993978,1026,0.507173,20,1.00004,1.00004
app_42,699.952,20679.8,7950.2,49.8,8.02791,4.33467e+10,1.00081,0.993978,995,5.41834,20,1.00004,1.00004
app_43,737.029,21425.8,7959.3,40.7,9.6156,2.94944e+10,1.0014,0.993978,810,2.94944,25,1.00004,1.00004
app_44,9.6796,20406.7,7995.1,4.9,7.34924,3.62869e+09,1.00016,0.993978,1093,0.518384,19,1.00004,1.00004
app_45,283.964,20484,7995.2,4.8,8.18233,4.2841e+09,1.00006,0.993978,970,0.535513,21,1.00004,1.00004
app_46,252.913,20164.4,7934.2,65.8,7.33037,4.11679e+10,1.00309,0.993978,1110,5.88113,18,1.00005,1.00005
app_47,501.335,20408.3,7945,55,8.12721,4.22178e+10,1.0016,0.993978,1019,5.27723,20,1.00005,1.00005
app_48,415.197,20940.1,7988.9,11.1,7.01319,8.36838e+09,1.00034,0.993978,1144,1.19548,18,1.00005,1.00005
app_49,59.8875,20923.8,7991.7,8.3,8.43718,4.59888e+09,1.00046,0.993978,946,0.57486,22,1.00005,1.00005
app_5,7.50204,18461.7,7901.3,98.7,987.074,1.47736e+10,1.0106,0.993978,8,0.0149682,2279,1.00001,1.00001
app_50,721.285,21082,7933.3,66.7,8.44875,5.55253e+10,1.0014,0.993978,923,6.16948,22,1.00005,1.00005
app_51,741.225,21442,7951.6,48.4,6.96536,3.24347e+10,1.002,0.993978,1139,4.63352,18,1.00005,1.00005
app_52,695.195,21211.6,7970.6,29.4,8.56509,2.58782e+10,1.00044,0.993978,939,2.87536,22,1.00005,1.00005
app_53,230.314,20807.4,7977.6,22.4,8.7931,1.82517e+10,1.00052,0.993978,895,2.02796,23,1.00005,1.00005
app_54,147.708,20363.4,7996.8,3.2,7.48631,2.36615e+09,1.0001,0.993978,1084,0.338022,19,1.00005,1.00005
app_55,233.933,20343,7941.9,58.1,7.58137,4.83098e+10,1.00123,0.993978,1053,6.03872,19,1.00005,1.00005
app_56,118.107,20840.5,7970.2,29.8,8.1737,2.36834e+10,1.00077,0.993978,990,2.63149,21,1.00006,1.00006
app_57,869.005,20972,7969.5,30.5,8.8372,2.64199e+10,1.00051,0.993978,908,2.93555,22,1.00006,1.00006
app_58,220.43,20269.9,7996.5,3.5,7.48078,2.58034e+09,1.00011,0.993978,1057,0.36862,19,1.00006,1.00006
app_59,137.224,20772.8,7964,36,9.73497,2.65346e+10,1.00118,0.993978,822,2.94829,25,1.00006,1.00006
app_6,9.72493,19036,7916.9,83.1,791.218,3.77951e+10,1.0057,0.993978,10,0.0477814,1883,1.00001,1.00001
app_60,490.545,21519.8,7969.3,30.7,8.56073,2.75412e+10,1.0004,0.993978,899,3.44265,23,1.00006,1.00006
app_7,8.67675,18036.8,7901.1,98.9,987.049,2.15984e+10,1.00976,0.993978,8,0.0218828,2224,1.00001,1.00001
app_8,0.373671,19566.6,7916.4,83.6,791.105,3.68776e+10,1.00587,0.993978,10,0.0466215,1935,1.00001,1.00001
app_9,3.38087,19901.7,7919.1,80.9,792.552,2.94139e+10,1.00648,0.993978,10,0.0371388,1973,1.00001,1.00001
