app_id,start_app,end_app,effective_cpu,effective_io,effective_iter,total_bytes,stretch,utilization,Tcomp,Tio,iterations,priority,group_id
app_1,7.70384,19681.9,7902.4,85.1998,877.314,2.62306e+10,1.009,0.992715,9,0.0298754,2162,1,1
app_10,4.39863,18955.6,7901,85.7415,879.762,2.88563e+10,1.00885,0.992715,9,0.0327913,2084,1,1
app_11,10.4208,20054.1,7909.6,80.2952,718.584,4.01184e+10,1.00632,0.992715,11,0.0557975,1801,1,1
app_12,8.81119,18436.5,7911.59,77.2488,793.656,2.71399e+10,1.00772,0.992715,10,0.034218,1824,1,1
app_13,4.13009,20085.8,7890.9,93.3781,984.534,2.41315e+10,1.01074,0.992715,8,0.024499,2473,1,1
app_14,3.006,19751,7897.4,88.2222,878.324,3.94232e+10,1.00796,0.992715,9,0.0449011,2169,1,1
app_15,2.57529,18328.5,7902.9,82.3134,878.023,1.88353e+10,1.00988,0.992715,9,0.0214525,2010,1,1
app_16,1.54886,19822,7918.1,70.6009,719.91,2.309e+10,1.00741,0.992715,11,0.0320694,1784,1,1
app_17,2.902,18024.8,7884.9,99.0619,984.261,4.31986e+10,1.00907,0.992715,8,0.043901,2215,1,1
app_18,0.819541,18270.4,7904,82.2294,876.122,2.02615e+10,1.00956,0.992715,9,0.0231295,2001,1,1
app_19,3.37537,20050.3,7912.4,76.7362,790.922,2.39412e+10,1.00802,0.992715,10,0.030267,1983,1,1
app_2,2.66604,19945.5,7900.2,88.8546,788.482,4.53724e+10,1.00685,0.992715,10,0.0575791,1965,1,1
app_20,0.0639669,20046.4,7926.2,64.2966,659.506,2.13145e+10,1.0066,0.992715,12,0.0323437,1652,1,1
app_21,0.195771,19709.7,7890.5,97.6949,878.275,4.49879e+10,1.00813,0.992715,9,0.0512391,2164,1,1
app_22,1.64886,19480.9,7900.9,85.7374,881.356,2.83128e+10,1.00893,0.992715,9,0.0321371,2141,1,1
app_23,2.20736,18267,7898,87.9634,880.155,3.48879e+10,1.00846,0.992715,9,0.0396454,2006,1,1
app_24,93.4399,20139.9,7962.2,36.0135,85.3199,2.63606e+10,1.00143,0.992715,95,0.310124,210,1,2
app_25,41.9005,20149.8,7955.7,43.5438,82.8508,3.31435e+10,1.0014,0.992715,96,0.404189,207,1,2
app_26,24.5256,20096.3,7968.6,30.4805,87.7177,2.28961e+10,1.00106,0.992715,91,0.260183,219,1,2
app_27,46.4656,19946.5,7987.2,10.4574,80.6524,6.58501e+09,1.00078,0.992715,99,0.0823126,201,1,2
app_28,28.0214,19954.4,7969.2,28.4795,74.7681,2.16661e+10,1.00114,0.992715,107,0.288881,186,1,2
app_29,38.7671,20040.3,7946.9,50.8897,93.9828,3.90911e+10,1.00175,0.992715,84,0.415863,236,1,2
app_3,5.81124,18796.4,7892.9,89.8504,985.202,1.43465e+10,1.01173,0.992715,8,0.014565,2318,1,1
app_30,102.761,20328.8,7975.7,23.6943,74.1421,1.52805e+10,1.00113,0.992715,106,0.206493,189,1,2
app_31,58.3861,19995.7,7959.9,37.6089,84.3124,2.81009e+10,1.0015,0.992715,94,0.334534,212,1,2
app_32,21.0223,19926.2,7976.7,22.6047,106.857,1.42193e+10,1.00114,0.992715,74,0.13289,268,1,2
app_33,52.9549,19878.5,7989.3,9.05219,90.3242,2.69771e+09,1.001,0.992715,89,0.0296451,224,1,2
app_34,36.5363,19843.5,7967,31.4273,85.6947,2.39364e+10,1.00113,0.992715,94,0.281605,211,1,2
app_35,13.2538,19991.9,7982.2,16.8922,80.0096,1.0434e+10,1.00092,0.992715,98,0.130424,202,1,2
app_36,14.0164,20013.9,7983.9,15.335,68.4732,9.98361e+09,1.00077,0.992715,117,0.14469,171,1,2
app_37,49.0131,19899.8,7951.1,46.9962,87.8985,3.86714e+10,1.00128,0.992715,91,0.439447,218,1,2
app_38,70.1673,20240.2,7989.5,8.71872,76.1131,4.29532e+09,1.00078,0.992715,105,0.0565174,191,1,2
app_39,30.6111,20008.6,7961.4,38.2957,71.2538,3.07771e+10,1.00098,0.992715,112,0.433481,178,1,2
app_4,8.52383,18281.6,7897.1,89.69,876.765,4.24107e+10,1.00762,0.992715,9,0.0483589,2003,1,1
app_40,74.5112,20344,7992.4,7.52247,76.2969,7.28808e+08,1.00086,0.992715,104,0.00958957,193,1,2
app_41,1.37072,19828.9,7943.1,55.9526,82.7434,4.52762e+10,1.00146,0.992715,97,0.545497,204,1,2
app_42,13.5055,20119.6,7970.9,27.9351,82.5119,2.01156e+10,1.00112,0.992715,96,0.242357,208,1,2
app_43,111.818,20028.7,7950.9,48.3526,71.609,3.76147e+10,1.00144,0.992715,111,0.529785,178,1,2
app_44,636.728,21647.3,7970.4,25.6474,7.42394,2.14327e+10,1.00102,0.992715,1043,3.06182,20,1,3
app_45,398.899,21299.9,7961.6,38.4,8.03762,3.47338e+10,1.00046,0.992715,975,4.34173,21,1,3
app_46,538.38,21171.4,7968.9,27.3788,10.0554,2.33823e+10,1.00097,0.992715,794,2.12566,26,1,3
app_47,428.297,20213,7983.8,16.2,10.3995,1.38851e+10,1.00029,0.992715,774,1.38851,26,1,3
app_48,1058.13,21800.2,7989.5,7.98948,7.06918,6.14141e+09,1.00055,0.992715,1155,0.877345,18,1,3
app_49,581.674,21847.2,7997.4,2.6,7.05072,2.00778e+09,1.00007,0.992715,1093,0.286826,19,1,3
app_5,4.21832,19122.4,7900.6,86.3756,878.778,3.06653e+10,1.00867,0.992715,9,0.0348866,2097,1,1
app_50,319.606,20874.6,7949.6,50.4,8.21401,4.38245e+10,1.00082,0.992715,976,5.47806,21,1,3
app_51,237.525,21226.3,7942.4,57.6,7.64122,5.00081e+10,1.00095,0.992715,1044,6.25101,20,1,3
app_52,898.626,21375.1,7960.6,39.4,7.92191,3.41973e+10,1.00065,0.992715,1010,4.27467,20,1,3
app_53,758.074,20970.3,7944.9,54.5761,8.2811,4.65822e+10,1.00107,0.992715,972,5.82277,21,1,3
app_54,805.286,21235.5,7955.3,44.7,9.11825,3.93495e+10,1.00067,0.992715,897,3.93495,23,1,3
app_55,334.547,20351.1,7943.5,56.5,8.14928,4.79874e+10,1.00107,0.992715,1005,5.99842,20,1,3
app_56,323.105,21231.5,7952.4,47.6,7.93908,4.12944e+10,1.00079,0.992715,969,5.1618,21,1,3
app_57,880.735,20928.1,7973.5,26.5,8.86684,2.15203e+10,1.00062,0.992715,916,2.39115,22,1,3
app_58,596.246,20137.5,7963.3,35.3605,9.72097,3.07357e+10,1.00075,0.992715,869,3.41507,23,1,3
app_59,105.477,20603.4,7974.1,25.9,9.44683,2.11088e+10,1.0006,0.992715,829,2.34543,25,1,3
app_6,1.86464,19051.2,7887.9,97.6011,875.233,4.88028e+10,1.00798,0.992715,9,0.0557746,2088,1,1
app_60,676.376,21846.8,7954,44.6387,7.54392,3.85454e+10,1.00093,0.992715,1041,5.50649,20,1,3
app_7,0.895545,18640,7899.1,89.6418,788.939,5.04354e+10,1.00635,0.992715,10,0.0639232,1839,1,1
app_8,6.35652,19346.9,7897.9,87.1016,988.785,7.95472e+07,1.01292,0.992715,8,8.0432e-05,2390,1,1
app_9,1.20578,19274.7,7907.6,77.6681,877.998,3.83319e+09,1.01119,0.992715,9,0.00436582,2116,1,1
