app_id,start_app,end_app,effective_cpu,effective_io,effective_iter,total_bytes,stretch,utilization,Tcomp,Tio,iterations,priority,group_id
app_1,5.95544,18473.4,7911.2,86.2353,881.559,2.35167e+09,1.01092,0.995074,9,0.00266629,2030,1,1
app_10,18.3712,19990.1,7944.2,54.1204,81.6273,4.63932e+10,1.00118,0.995074,97,0.572756,204,1,2
app_11,79.3615,20057.9,7966.7,30.5742,83.885,2.51767e+10,1.00102,0.995074,94,0.299723,211,1,2
app_12,19.0347,19931.2,7959.9,36.5938,108.258,2.93753e+10,1.00134,0.995074,74,0.271993,268,1,2
app_13,29.439,20168.9,7977.4,21.6804,66.9635,1.74336e+10,1.00065,0.995074,118,0.260203,169,1,2
app_14,3.76362,19973.8,7945.2,51.5759,73.3638,4.2106e+10,1.00159,0.995074,109,0.569,182,1,2
app_15,46.5824,19946.2,7951.8,46.8342,70.2607,3.90373e+10,1.00115,0.995074,114,0.54982,174,1,2
app_16,24.0264,20123.4,7960.5,36.2358,77.1171,2.96799e+10,1.00123,0.995074,104,0.385454,192,1,2
app_17,35.9084,19975.3,7940.2,58.0356,81.6646,4.80127e+10,1.00148,0.995074,97,0.59275,204,1,2
app_18,95.4551,20032.2,7943,55.5806,82.7973,4.79699e+10,1.00113,0.995074,96,0.584999,206,1,2
app_19,68.0875,19901.9,7976.6,20.1353,87.0968,1.49126e+10,1.00106,0.995074,92,0.171409,216,1,2
app_2,8.51143,20070.9,7909.2,88.848,876.242,2.95869e+10,1.00771,0.995074,9,0.033775,2205,1,1
app_20,1.93656,20059,7988.4,7.92366,84.6429,4.85634e+08,1.00139,0.995074,94,0.00578136,212,1,2
app_21,57.3144,20081.7,7936.2,61.1218,74.7843,4.66431e+10,1.00215,0.995074,106,0.621907,188,1,2
app_22,85.8674,20144.4,7980.1,17.9083,85.99,9.14314e+09,1.00135,0.995074,93,0.106316,214,1,2
app_23,95.1284,20143.9,7975.3,23.1083,66.9807,1.97927e+10,1.00061,0.995074,119,0.295414,168,1,2
app_24,97.489,19969,7991.3,8.1216,81.2143,2.26102e+09,1.00081,0.995074,99,0.0279138,201,1,2
app_25,22.405,20030.4,7982.4,17.2484,73.7277,1.32528e+10,1.00054,0.995074,108,0.179092,185,1,2
app_26,315.025,20748.5,7968,25.2991,7.94625,2.16744e+10,1.00129,0.995074,1008,2.7093,20,1,3
app_27,474.023,21099.1,7949.8,50.2,7.25497,4.42873e+10,1.00074,0.995074,1055,6.32676,19,1,3
app_28,740.353,22041.4,7974.2,19.9008,7.75253,1.82226e+10,1.00095,0.995074,993,2.60322,21,1,3
app_29,768.862,21472.5,7936.9,58.6812,7.98699,5.30476e+10,1.00126,0.995074,988,6.63095,21,1,3
app_3,9.29781,18602.8,7893.9,104.103,877.659,5.33694e+10,1.00664,0.995074,9,0.0608545,2039,1,1
app_30,83.8816,20786.7,7990.3,0.98699,7.62072,5.50975e+08,1.00114,0.995074,1029,0.0688719,20,1,3
app_31,129.361,21585.4,7972.3,26.6333,6.70605,2.28242e+10,1.00061,0.995074,1150,3.26061,18,1,3
app_32,359.948,20398.9,7939.7,54.9754,7.01645,5.12587e+10,1.00113,0.995074,1106,7.32266,18,1,3
app_33,129.687,20602.8,7978.9,21.1,8.75379,1.90917e+10,1.00025,0.995074,938,2.1213,22,1,3
app_34,435.775,20762.2,7992.9,2.22092,10.8004,1.31452e+09,1.00072,0.995074,756,0.119502,27,1,3
app_35,267.812,20417.1,7953.2,43.3765,9.1558,3.83617e+10,1.00106,0.995074,870,4.26241,23,1,3
app_36,907.693,21476.1,7950.7,29.3584,8.1963,2.78071e+10,1.00269,0.995074,972,3.47589,21,1,3
app_37,415.607,21575.6,7993,7,8.1499,5.44648e+09,1.00019,0.995074,946,0.680809,22,1,3
app_38,420.436,21207.7,7968.4,25.4272,7.43499,2.34466e+10,1.00102,0.995074,1105,3.34951,19,1,3
app_39,193.681,21141.4,7980.7,17.6277,8.38046,1.59333e+10,1.00042,0.995074,934,1.99166,22,1,3
app_4,3.94343,19539.8,7919.6,78.4631,792.679,1.73892e+10,1.00794,0.995074,10,0.0219283,1937,1,1
app_40,663.256,20669.2,7946.6,53.4,7.4907,4.84484e+10,1.00062,0.995074,1046,6.9212,19,1,3
app_41,507.924,20938.4,7999.3,0.7,7.28336,5.92967e+08,1.00001,0.995074,1066,0.0847095,19,1,3
app_42,426.085,21463.8,7953.2,46.8,8.76684,4.18253e+10,1.00062,0.995074,902,5.22816,23,1,3
app_43,364.488,21510,7945.4,54.6,8.20253,5.06649e+10,1.00049,0.995074,941,6.33311,22,1,3
app_44,555.451,21449.4,7973,27,7.66511,2.38181e+10,1.0004,0.995074,1012,3.40258,20,1,3
app_45,280.09,21237.2,7966.7,26.2144,8.95686,2.17819e+10,1.00144,0.995074,863,2.42021,24,1,3
app_46,81.7774,20248.8,7978,17.0551,8.58381,1.60469e+10,1.00074,0.995074,961,2.00586,21,1,3
app_47,987.024,21243.7,7943.9,56.1,7.56439,5.10037e+10,1.00064,0.995074,1097,6.37547,19,1,3
app_48,551.611,20480.9,7963.2,36.2496,7.77984,3.24322e+10,1.00055,0.995074,1068,4.63318,19,1,3
app_49,101.8,20926.1,7960.6,37.3039,9.22133,3.34011e+10,1.00075,0.995074,854,3.34011,24,1,3
app_5,0.43379,18886,7901,96.6431,988.513,4.69629e+09,1.01193,0.995074,8,0.00475333,2332,1,1
app_50,781.987,21745,7989.1,6.55931,8.21914,6.32346e+09,1.00057,0.995074,947,0.790432,22,1,3
app_51,120.254,20776.3,7951.4,43.2328,8.82022,3.90288e+10,1.0012,0.995074,899,4.33653,23,1,3
app_52,507.968,20632.2,7947.9,42.7055,7.99704,3.79846e+10,1.00177,0.995074,1004,4.74808,20,1,3
app_53,54.0534,21046.1,7976.8,18.2244,9.38962,1.62963e+10,1.00086,0.995074,822,1.8107,25,1,3
app_54,258.552,20743.9,7985.2,13.1316,7.61679,1.21937e+10,1.00033,0.995074,1066,1.74195,19,1,3
app_55,476.722,20896.3,7973.6,26.4,9.87551,2.35507e+10,1.00036,0.995074,784,2.61674,26,1,3
app_56,666.913,21171.8,7976.84,23.1554,8.95213,2.00934e+10,1.00038,0.995074,904,2.47102,23,1,3
app_57,499.542,21987.2,7964.3,35.7,7.09961,3.18816e+10,1.00048,0.995074,1078,4.55452,19,1,3
app_58,189.933,20957.6,7977.8,20.2254,9.7405,1.7026e+10,1.00065,0.995074,828,1.7026,25,1,3
app_59,247.81,20983.2,7967.8,31.1347,8.20133,2.9106e+10,1.00039,0.995074,987,3.63825,21,1,3
app_6,41.663,20076.6,7961.3,33.6459,77.2645,2.65577e+10,1.00152,0.995074,103,0.344905,193,1,2
app_60,472.953,20028.2,7984,8.22603,8.79463,6.95306e+09,1.00113,0.995074,951,0.772562,21,1,3
app_7,44.2671,19974.3,7949.4,47.7513,79.4222,3.69036e+10,1.00171,0.995074,101,0.467134,197,1,2
app_8,72.0905,20157.4,7928.8,68.8206,84.6826,5.30919e+10,1.00227,0.995074,94,0.62461,211,1,2
app_9,13.5161,19767.2,7968.2,29.9009,94.9159,2.03824e+10,1.00143,0.995074,84,0.216834,236,1,2
