app_id,start_app,end_app,effective_cpu,effective_io,effective_iter,total_bytes,stretch,utilization,Tcomp,Tio,iterations,priority,group_id
app_1,3.21808,19350.6,7637.1,79.2317,847.68,2.42927e+10,1.0442,0.988647,9,0.0286808,2056,1,1
app_10,63.0884,20015.1,7968.2,14.314,73.4826,8.85964e+09,1.00288,0.988647,108,0.121365,184,1,1
app_11,58.2521,20063.8,7956.6,16.2158,79.4022,1.26652e+10,1.00386,0.988647,100,0.158316,199,1,1
app_12,37.6821,20170.5,7975.7,9.21196,87.9696,7.47339e+09,1.00211,0.988647,90,0.0849248,222,1,1
app_13,58.8705,20233.4,7950.5,20.1923,70.3621,1.48399e+10,1.00435,0.988647,113,0.211998,177,1,1
app_14,3.25268,20030.7,7950.8,23.5803,76.3292,2.2228e+10,1.00338,0.988647,104,0.292474,191,1,1
app_15,96.6558,20146.6,7927.4,51.3781,72.4887,4.84213e+10,1.00303,0.988647,110,0.663305,181,1,1
app_16,35.1123,19990.2,7944.1,9.1433,84.8569,6.78923e+09,1.00618,0.988647,93,0.0798733,214,1,1
app_17,35.9711,20017.4,7913.4,32.5986,111.811,2.36705e+10,1.00793,0.988647,71,0.211344,279,1,1
app_18,87.3424,20155.1,7924.6,45.3323,90.3753,4.06689e+10,1.00436,0.988647,88,0.446911,226,1,1
app_19,70.9695,20019.5,7955.3,31.6287,104.093,2.76254e+10,1.00214,0.988647,77,0.265629,258,1,1
app_2,8.94096,19673.3,7632.4,74.3583,846.472,8.16147e+09,1.04704,0.988647,9,0.00963573,2087,1,1
app_20,29.439,20075.8,7963.3,22.4421,76.5894,1.62261e+10,1.00257,0.988647,103,0.210728,194,1,1
app_21,51.0476,19981.9,7933.6,35.0007,86.0905,3.23312e+10,1.00428,0.988647,92,0.375944,215,1,1
app_22,48.648,20108.3,7938.8,27.2993,87.3169,2.44982e+10,1.00461,0.988647,90,0.278389,220,1,1
app_23,88.8878,19983.7,7927.4,44.3437,88.7361,3.91872e+10,1.00419,0.988647,90,0.440306,220,1,1
app_24,6.05449,19991.2,7936.9,29.5937,75.5739,2.48787e+10,1.0048,0.988647,106,0.331716,188,1,1
app_25,92.3512,20237.1,7920.7,44.7963,73.2004,4.19301e+10,1.00469,0.988647,108,0.566622,184,1,1
app_26,73.15,20120.7,7940.1,8.28067,99.4946,5.14173e+08,1.00748,0.988647,80,0.00519367,250,1,1
app_27,74.4748,20126.7,7937.5,24.635,82.6743,1.95628e+10,1.0054,0.988647,97,0.235696,206,1,1
app_28,80.5902,19894.2,7957.4,18.6888,89.6576,1.61736e+10,1.00331,0.988647,89,0.179707,222,1,1
app_29,87.8565,20177.7,7921.7,42.4381,85.4635,3.84283e+10,1.00501,0.988647,93,0.452098,214,1,1
app_3,8.13838,19394.6,7599.6,95.7598,951.741,4.8156e+10,1.04606,0.988647,8,0.050584,2303,1,1
app_30,293.356,20607.6,7991.3,7.09146,8.05759,6.48072e+09,1.00028,0.988647,1027,0.81009,20,1,1
app_31,1093.41,22303.8,7961.3,37.1285,6.95633,3.66539e+10,1.00026,0.988647,1096,5.23627,19,1,1
app_32,900.456,21369.3,7979.2,20.6216,8.65673,1.99932e+10,1.0001,0.988647,926,2.22147,22,1,1
app_33,508.115,21670.2,7956.03,43.7576,8.79198,4.30538e+10,1.00011,0.988647,897,4.91831,23,1,1
app_34,785.228,21514.3,7963,34.2916,7.01594,3.37954e+10,1.0004,0.988647,1085,4.82791,19,1,1
app_35,1074.74,21648.6,7974.3,19.6581,7.24922,1.93013e+10,1.0008,0.988647,1100,2.75733,19,1,1
app_36,17.8729,20309.8,7958.6,41.4,9.00533,4.05524e+10,1.00011,0.988647,884,4.50582,23,1,1
app_37,424.785,20983.7,7993.7,6.27944,7.41575,5.82451e+09,1.00006,0.988647,1079,0.832073,19,1,1
app_38,549.136,21083.7,7983.6,12.9007,8.10013,1.2542e+10,1.00048,0.988647,986,1.56775,21,1,1
app_39,393.84,21625.2,7951.9,42.6272,7.35775,4.22466e+10,1.00073,0.988647,1039,6.03523,20,1,1
app_4,3.57016,20074.7,7614.04,82.2034,849.035,3.28039e+10,1.04618,0.988647,9,0.0385928,2133,1,1
app_40,141.786,20126.4,7965.6,34.3445,8.04082,3.38142e+10,1.00007,0.988647,1010,4.22677,20,1,1
app_41,359.423,20519.3,7965,30.5934,8.97193,3.04314e+10,1.00057,0.988647,879,3.38127,23,1,1
app_42,754.591,21633.4,7972.7,27.3,7.55317,2.6929e+10,1.00005,0.988647,1038,3.847,20,1,1
app_43,645.908,21177.3,7950.3,45.0507,8.51145,4.477e+10,1.00062,0.988647,933,4.97445,22,1,1
app_44,51.299,20099.8,7958.9,39.1794,8.10959,3.88536e+10,1.00028,0.988647,1009,4.8567,20,1,1
app_45,69.1973,20554.8,7967.9,30.2691,8.3646,2.97244e+10,1.0003,0.988647,986,3.71555,21,1,1
app_46,762.028,20982.8,7956.9,42.6207,6.58955,4.20044e+10,1.00014,0.988647,1200,6.00063,17,1,1
app_47,293.235,20551.1,7982.2,17.4414,6.83931,1.68956e+10,1.00011,0.988647,1118,2.41365,18,1,1
app_48,148.724,20822.3,7951.1,45.5068,7.64509,4.50755e+10,1.00048,0.988647,1025,5.63443,20,1,1
app_49,786.793,20816.6,7982.9,17.1,8.80994,1.65268e+10,1.00007,0.988647,909,1.83631,22,1,1
app_5,2.37414,19221,7624.7,80.2903,844.974,2.94528e+10,1.04518,0.988647,9,0.0348554,2036,1,1
app_50,736.258,21386,7995.6,2.75336,8.90961,2.52984e+09,1.00023,0.988647,899,0.281094,23,1,1
app_51,828.295,21755.3,7982.1,8.83289,7.34687,8.71386e+09,1.00115,0.988647,1067,1.08923,19,1,1
app_52,320.278,20461.9,7956.1,39.9856,7.95934,3.96114e+10,1.00054,0.988647,1003,4.95142,20,1,1
app_53,945.224,21969,7959.3,38.4482,7.02876,3.80089e+10,1.00034,0.988647,1148,5.42985,18,1,1
app_54,67.2377,20940.7,7957.7,40.4675,7.25973,4.0036e+10,1.00028,0.988647,1076,5.71943,19,1,1
app_55,384.199,20473.6,7964.3,31.9551,9.5474,3.15946e+10,1.00051,0.988647,840,3.15946,24,1,1
app_56,351.299,20724,7970.1,29.6325,7.87615,2.91905e+10,1.00009,0.988647,998,3.64882,20,1,1
app_57,1061.28,21584.4,7970.9,26.2351,7.51108,2.57493e+10,1.00042,0.988647,1073,3.21867,19,1,1
app_58,624.564,20690.8,7963.6,35.9848,9.11924,3.52777e+10,1.00014,0.988647,883,3.91975,23,1,1
app_59,1021.58,21854.3,7980.8,19.2,7.70585,1.87563e+10,1.00006,0.988647,1041,2.34454,20,1,1
app_6,2.28069,19879,7624,79.2833,845.295,2.21577e+10,1.04628,0.988647,9,0.0262221,2111,1,1
app_60,395.592,20241.6,7964,36,7.85964,3.56534e+10,1.00004,0.988647,996,4.45667,20,1,1
app_7,9.49689,19817.6,7643.6,74.4143,765.202,2.84325e+10,1.04275,0.988647,10,0.0371667,1893,1,1
app_8,3.26882,19486,7685.6,76.4984,769.033,3.77355e+10,1.03582,0.988647,10,0.0490709,1869,1,1
app_9,1.45675,19816.7,7614.7,77.0885,843.946,1.80433e+10,1.04812,0.988647,9,0.0213783,2098,1,1
