app_id,start_app,end_app,effective_cpu,effective_io,effective_iter,total_bytes,stretch,utilization,Tcomp,Tio,iterations,priority,group_id
app_1,5.0997,18415.5,7911,89,880.078,2.38264e+10,1.00821,0.99303,9,0.0270755,2023,1,1
app_10,5.15533,18447.8,7906.3,93.7,880.52,3.86271e+10,1.00693,0.99303,9,0.0438446,2028,1.00001,1.00001
app_11,8.62381,19073.6,7920.6,79.4,793.549,1.95341e+10,1.00754,0.99303,10,0.0246332,1889,1.00001,1.00001
app_12,9.93161,20181.8,7920.9,79.1,790.532,1.24919e+09,1.00983,0.99303,10,0.00157926,1995,1.00001,1.00001
app_13,1.33495,18093,7900.6,99.4,986.084,2.97712e+10,1.00878,0.99303,8,0.0301939,2230,1.00001,1.00001
app_14,3.06565,18808.5,7907.7,92.3,791.818,4.90718e+10,1.00543,0.99303,10,0.0619593,1860,1.00001,1.00001
app_15,3.47946,18734.3,7896.1,103.9,874.848,5.7752e+10,1.0058,0.99303,9,0.0660022,2051,1.00002,1.00002
app_16,7.86286,19223.3,7901.3,98.7,987.323,1.38509e+10,1.01072,0.99303,8,0.0140333,2372,1.00002,1.00002
app_17,9.07734,19093.7,7919.7,80.3,791.311,2.49022e+10,1.00697,0.99303,10,0.0314819,1886,1.00002,1.00002
app_18,7.68906,18896.8,7920.3,79.7,794.486,2.02871e+10,1.00748,0.99303,10,0.0255505,1872,1.00002,1.00002
app_19,5.33864,19409.6,7920.6,79.4,789.179,2.15086e+10,1.00729,0.99303,10,0.0272606,1916,1.00002,1.00002
app_2,5.19991,19687.5,7911,89,880.775,2.80136e+10,1.00768,0.99303,9,0.0317976,2166,1,1
app_20,2.62741,18734.5,7898.6,101.4,983.832,3.55577e+10,1.0083,0.99303,8,0.0361726,2307,1.00002,1.00002
app_21,69.6837,20059.5,7966.1,33.9,84.4025,2.40111e+10,1.00124,0.99303,95,0.285846,209,1.00002,1.00002
app_22,14.2696,20168.9,7989.6,10.4,79.4328,5.83642e+09,1.00057,0.99303,100,0.0738788,200,1.00002,1.00002
app_23,74.0756,20156,7960.7,39.3,81.0333,2.90302e+10,1.00129,0.99303,98,0.358398,204,1.00002,1.00002
app_24,93.1588,20082.4,7934.3,65.7,74.7846,5.11012e+10,1.00183,0.99303,106,0.681349,187,1.00002,1.00002
app_25,0.583653,19846.1,7975.7,24.3,106.281,1.38613e+10,1.00131,0.99303,76,0.130767,262,1.00003,1.00003
app_26,53.1363,20033.6,7929.8,70.2,81.4132,5.18576e+10,1.0023,0.99303,97,0.640218,204,1.00003,1.00003
app_27,22.4277,19964.2,7968.3,31.7,89.6536,1.96009e+10,1.00151,0.99303,88,0.217787,226,1.00003,1.00003
app_28,28.8986,20199.9,7940.2,59.8,82.4238,4.51156e+10,1.00184,0.99303,96,0.55019,208,1.00003,1.00003
app_29,29.9674,19843.3,7989.6,10.4,101.718,3.75504e+09,1.00083,0.99303,79,0.0368141,251,1.00003,1.00003
app_3,7.58124,19476.5,7915.9,84.1,792.539,3.80812e+10,1.00579,0.99303,10,0.0480823,1928,1,1
app_30,13.9739,19852.7,7990.5,9.5,79.1123,5.09535e+09,1.00055,0.99303,102,0.0644981,195,1.00003,1.00003
app_31,59.325,19991.8,7936.5,63.5,78.9112,4.71958e+10,1.00204,0.99303,102,0.597416,195,1.00003,1.00003
app_32,88.3357,20219.1,7927.9,72.1,79.7343,5.30737e+10,1.00238,0.99303,98,0.671819,202,1.00003,1.00003
app_33,46.1335,19955.8,7981.4,18.6,72.7426,1.28969e+10,1.00071,0.99303,109,0.17667,182,1.00003,1.00003
app_34,25.5614,20208.9,7956.4,43.6,80.9812,3.22566e+10,1.00142,0.99303,97,0.398229,206,1.00003,1.00003
app_35,81.2466,19941,7978.3,21.7,79.9986,1.47344e+10,1.00087,0.99303,100,0.18418,199,1.00004,1.00004
app_36,35.4443,19934.3,7990.7,9.3,89.7744,3.59705e+09,1.00071,0.99303,89,0.0399672,223,1.00004,1.00004
app_37,56.239,19819.1,7983.5,16.5,75.7592,7.74186e+09,1.0011,0.99303,105,0.101867,189,1.00004,1.00004
app_38,1.2143,19960.6,7934.1,65.9,81.6442,4.61334e+10,1.00248,0.99303,97,0.569549,204,1.00004,1.00004
app_39,45.2746,19902.2,7962.7,37.3,75.4633,2.56403e+10,1.00146,0.99303,106,0.337373,187,1.00004,1.00004
app_4,9.64423,18699.7,7917.4,82.6,794.496,3.76111e+10,1.00566,0.99303,10,0.0473691,1853,1,1
app_40,4.95554,19967.2,7949.8,50.2,82.8185,3.88052e+10,1.00143,0.99303,96,0.467533,206,1.00004,1.00004
app_41,341.294,20782.3,7998.4,1.6,8.16014,1.02293e+09,1.00007,0.99303,961,0.127867,21,1.00004,1.00004
app_42,983.591,21802.5,7951.3,48.7,7.45905,3.6788e+10,1.00149,0.99303,1097,5.25542,19,1.00004,1.00004
app_43,85.3878,20020,7968.7,31.3,8.85305,2.26435e+10,1.00108,0.99303,911,2.51595,22,1.00004,1.00004
app_44,241.304,20316.2,7949.6,50.4,9.44798,4.14848e+10,1.00112,0.99303,850,4.60942,24,1.00004,1.00004
app_45,593.692,21196,7960.1,39.9,8.52485,3.28207e+10,1.00089,0.99303,918,3.64675,22,1.00004,1.00004
app_46,208.048,21124.3,7982.5,17.5,7.46693,1.45502e+10,1.00037,0.99303,1084,2.0786,19,1.00005,1.00005
app_47,370.342,21611.4,7930.2,69.8,7.74857,4.75622e+10,1.00279,0.99303,1038,5.94527,20,1.00005,1.00005
app_48,583.649,21165,7945.3,54.7,8.35865,4.55124e+10,1.00115,0.99303,926,5.68905,22,1.00005,1.00005
app_49,828.091,21713.6,7965.5,34.5,7.91027,1.90997e+10,1.00193,0.99303,972,2.38747,21,1.00005,1.00005
app_5,0.839277,19093.6,7912.3,87.7,877.074,1.53433e+10,1.00913,0.99303,9,0.0174952,2098,1.00001,1.00001
app_50,598.107,21119.5,7991.8,8.2,7.78286,6.0299e+09,1.00027,0.99303,1030,0.753737,20,1.00005,1.00005
app_51,340.076,20759.5,7928.5,71.5,7.05632,5.05747e+10,1.00262,0.99303,1122,6.32184,18,1.00005,1.00005
app_52,522.76,21564.3,7958,42,7.1007,2.5701e+10,1.00204,0.99303,1090,3.21262,19,1.00005,1.00005
app_53,182.197,20967.8,7936.6,63.4,7.73005,5.26221e+10,1.00135,0.99303,1017,6.57777,20,1.00005,1.00005
app_54,6.13852,20235.1,7977.2,22.8,6.71547,1.7649e+10,1.00064,0.99303,1186,2.94151,17,1.00005,1.00005
app_55,266.483,20379.8,7932.2,67.8,7.95362,5.66816e+10,1.00139,0.99303,994,7.0852,20,1.00005,1.00005
app_56,832.857,21293.1,7985.6,14.4,8.30747,1.20852e+10,1.00029,0.99303,971,1.51065,21,1.00006,1.00006
app_57,243.582,20910.7,7972.8,27.2,8.99944,2.27727e+10,1.00055,0.99303,901,2.5303,23,1.00006,1.00006
app_58,1.40408,19723.3,7931.4,68.6,9.377,5.8628e+10,1.00125,0.99303,863,5.8628,23,1.00006,1.00006
app_59,243.592,20198.1,7986.8,13.2,8.3761,9.7773e+09,1.00043,0.99303,957,1.22216,21,1.00006,1.00006
app_6,0.59526,18693,7899.6,100.4,988.935,2.98643e+10,1.0089,0.99303,8,0.0301965,2309,1.00001,1.00001
app_60,541.136,20973.1,7972.2,27.8,7.13092,1.86267e+10,1.00115,0.99303,1145,2.66096,18,1.00006,1.00006
app_7,7.36456,19253.8,7901.2,98.8,988.168,1.28311e+10,1.01086,0.99303,8,0.0129869,2377,1.00001,1.00001
app_8,2.30768,19537.5,7901,99,990.378,8.6476e+09,1.01142,0.99303,8,0.00873495,2414,1.00001,1.00001
app_9,5.94305,18027.6,7901.4,98.6,986.773,6.55392e+09,1.01164,0.99303,8,0.00664697,2226,1.00001,1.00001
