app_id,start_app,end_app,effective_cpu,effective_io,effective_iter,total_bytes,stretch,utilization,Tcomp,Tio,iterations,priority,group_id
app_1,6.30672,18964.5,7911.8,88.2,882.528,5.25133e+10,1.00448,0.995567,9,0.0595389,2082,0.104088,1
app_10,0.719127,20180.6,7968.8,31.2,75.5979,2.29813e+10,1.00103,0.995567,105,0.306418,190,0.00945132,1.00001
app_11,3.69493,19926.6,7991.4,8.6,81.4627,5.57687e+09,1.00038,0.995567,97,0.0688503,204,0.0101989,1.00001
app_12,84.7196,20010,7990.2,9.8,80.7124,7.52755e+09,1.00028,0.995567,99,0.0940944,202,0.0100771,1.00001
app_13,48.1491,19998.4,7992.1,7.9,78.6592,2.19295e+09,1.00071,0.995567,103,0.0277589,194,0.00965257,1.00001
app_14,40.4189,19881.8,7967.8,32.2,103.064,2.36054e+10,1.00108,0.995567,77,0.229179,257,0.0128282,1.00001
app_15,21.0691,20164.5,7959.5,40.5,71.8657,3.22076e+10,1.00104,0.995567,110,0.447327,181,0.00902479,1.00002
app_16,5.22297,19844.9,7962.4,37.6,88.4515,2.8572e+10,1.00113,0.995567,90,0.324682,220,0.0109893,1.00002
app_17,5.8194,19954.2,7979.9,20.1,97.2835,1.37653e+10,1.00079,0.995567,82,0.14191,242,0.0120809,1.00002
app_18,57.2919,20178.9,7969.7,30.3,83.9315,2.41999e+10,1.00076,0.995567,94,0.288094,213,0.010603,1.00002
app_19,0.970653,19858,7970.9,29.1,84.6695,2.39954e+10,1.00064,0.995567,95,0.282299,209,0.0104037,1.00002
app_2,3.43006,19183.9,7912.1,87.9,878.691,4.73523e+10,1.00509,0.995567,9,0.0538706,2106,0.105292,1
app_20,98.6142,19964.5,7942.1,57.9,73.4115,4.81163e+10,1.00122,0.995567,109,0.659127,182,0.0090846,1.00002
app_21,81.6287,19768,7936,64,79.9675,5.5428e+10,1.00107,0.995567,100,0.692851,197,0.009836,1.00002
app_22,49.4619,20036.6,7973.4,26.6,75.1445,2.15694e+10,1.00063,0.995567,107,0.287592,187,0.00930703,1.00002
app_23,7.50657,19941.3,7952.9,47.1,73.5455,3.76004e+10,1.00119,0.995567,108,0.515074,185,0.00920072,1.00002
app_24,310.905,20595.3,7945,55,7.95838,4.85924e+10,1.0008,0.995567,994,6.07405,20,0.00099983,1.00002
app_25,787.883,21779.6,7957.7,42.3,7.11138,3.6204e+10,1.00076,0.995567,1075,5.172,19,0.000924989,1.00003
app_26,866.985,21801.7,7959.1,40.9,8.60292,3.48358e+10,1.00076,0.995567,897,3.87064,23,0.0011094,1.00003
app_27,800.117,21660.2,7955.7,44.3,6.9934,4.03529e+10,1.00049,0.995567,1151,5.76469,18,0.000864069,1.00003
app_28,893.546,21442.7,7948.5,51.5,7.40457,4.2435e+10,1.00113,0.995567,1078,5.30437,19,0.000922458,1.00003
app_29,310.633,20645.6,7959.9,40.1,8.55891,3.70977e+10,1.00038,0.995567,927,4.63721,22,0.00107256,1.00003
app_3,6.90754,19079.1,7912.2,87.8,877.921,1.8134e+10,1.00878,0.995567,9,0.0206537,2094,0.104681,1
app_30,216.383,20256.9,7965.5,34.5,8.96148,2.69175e+10,1.00095,0.995567,919,2.99083,22,0.0010842,1.00003
app_31,927.879,21574.6,7951.5,48.5,8.09623,3.66728e+10,1.00148,0.995567,979,4.5841,21,0.00101653,1.00003
app_32,981.882,21355,7978.5,21.5,7.71987,1.90573e+10,1.00031,0.995567,1014,2.38216,20,0.000983551,1.00003
app_33,905.19,21075.9,7994.7,5.3,7.85272,3.48017e+09,1.00023,0.995567,1009,0.497168,20,0.000990567,1.00003
app_34,64.295,20186.6,7990.4,9.6,8.87359,8.62552e+09,1.00012,0.995567,927,0.958391,22,0.00107761,1.00003
app_35,764.187,21053,7951.8,48.2,8.09943,3.59471e+10,1.00153,0.995567,999,4.49339,20,0.000995777,1.00004
app_36,19.6079,20709.9,7977.9,22.1,8.91707,1.79663e+10,1.00052,0.995567,902,1.99625,23,0.00110523,1.00004
app_37,364.345,20204.7,7965.9,34.1,8.03108,2.89644e+10,1.00064,0.995567,996,3.62055,20,0.000999491,1.00004
app_38,1099.79,21719.3,7996.9,3.1,7.36801,1.46442e+09,1.0002,0.995567,1108,0.209203,19,0.000901559,1.00004
app_39,954.29,21086.1,7948.6,51.4,7.41193,4.6323e+10,1.00064,0.995567,1125,6.61757,18,0.000883247,1.00004
app_4,72.8172,20057.1,7941.2,58.8,78.3693,4.92996e+10,1.00119,0.995567,100,0.624045,198,0.00986016,1
app_40,1041.68,22126.7,7962.2,37.8,6.67514,2.57152e+10,1.00151,0.995567,1140,3.6736,18,0.000873756,1.00004
app_41,749.606,20748,7946.6,53.4,8.25021,3.62382e+10,1.00215,0.995567,1005,4.02647,20,0.000990534,1.00004
app_42,265.149,20415.9,7980.4,19.6,7.93597,1.71232e+10,1.00031,0.995567,1024,2.1404,20,0.00097412,1.00004
app_43,350.149,20443.3,7941.8,58.2,7.14798,4.88865e+10,1.00117,0.995567,1111,6.98378,18,0.000894228,1.00004
app_44,100.287,20586.9,7952.5,47.5,7.84022,4.18626e+10,1.00071,0.995567,1033,5.23282,20,0.000962278,1.00004
app_45,837.165,20927.2,7921.2,78.8,8.15014,5.70174e+10,1.00273,0.995567,996,6.33527,20,0.000997225,1.00004
app_46,37.7454,20464.5,7975.3,24.7,6.94672,1.8127e+10,1.00082,0.995567,1145,2.58957,18,0.000870648,1.00005
app_47,666.65,21500.9,7981,19,6.45524,1.65182e+10,1.00031,0.995567,1232,2.75304,17,0.000809668,1.00005
app_48,482.288,20810.7,7961.1,38.9,10.4618,3.3241e+10,1.00071,0.995567,749,3.3241,27,0.00132761,1.00005
app_49,727.036,21304.1,7995.5,4.5,6.89632,3.94179e+09,1.00007,0.995567,1153,0.563113,18,0.000866329,1.00005
app_5,56.1572,19999.7,7990.8,9.2,78.745,7.24941e+09,1.00024,0.995567,102,0.0917647,196,0.00975855,1.00001
app_50,861.733,22148.3,7981.9,18.1,8.60856,1.32134e+10,1.00061,0.995567,907,1.46816,23,0.00110049,1.00005
app_51,332.15,21046.7,7995.7,4.3,7.94117,3.10762e+09,1.00015,0.995567,974,0.388453,21,0.00102627,1.00005
app_52,544.732,20790.8,7994.6,5.4,8.96623,3.09539e+09,1.00029,0.995567,877,0.343932,23,0.00113969,1.00005
app_53,378.08,20140.2,7942.3,57.7,8.48805,4.75877e+10,1.00127,0.995567,948,5.28752,21,0.00104799,1.00005
app_54,538.284,20636.7,7986.3,13.7,7.68361,1.27813e+10,1.00011,0.995567,1062,1.8259,19,0.000939958,1.00005
app_55,536.788,21268.2,7979.7,20.3,7.99587,1.65682e+10,1.00047,0.995567,993,2.07103,21,0.00100395,1.00005
app_56,131.06,20371.7,7986.1,13.9,7.47672,1.0964e+10,1.00037,0.995567,1077,1.56629,19,0.000926978,1.00006
app_57,193.373,20866.5,7971.9,28.1,8.12053,2.09007e+10,1.0009,0.995567,983,2.61258,21,0.00101407,1.00006
app_58,730.578,21795,7956.6,43.4,7.91655,3.61575e+10,1.00091,0.995567,985,4.51969,21,0.00101002,1.00006
app_59,896.323,21850.1,7989.3,10.7,7.60708,8.79766e+09,1.00024,0.995567,1019,1.09971,20,0.000979337,1.00006
app_6,65.5166,20057.5,7951.6,48.4,72.1914,4.03064e+10,1.00101,0.995567,109,0.552142,182,0.0090931,1.00001
app_60,953.188,21868.3,7931.9,68.1,6.96982,4.99445e+10,1.00227,0.995567,1162,7.13493,18,0.000855318,1.00006
app_7,57.459,20026.1,7969.9,30.1,94.0353,2.59347e+10,1.00052,0.995567,85,0.275901,234,0.0116822,1.00001
app_8,34.1029,20097.1,7971.4,28.6,87.3236,2.1861e+10,1.00084,0.995567,92,0.251275,217,0.0108064,1.00001
app_9,8.23315,20046.1,7972.6,27.4,86.122,2.18226e+10,1.0007,0.995567,93,0.253751,215,0.0107154,1.00001
