app_id,start_app,end_app,effective_cpu,effective_io,effective_iter,total_bytes,stretch,utilization,Tcomp,Tio,iterations,priority,group_id
app_1,2.15395,18761.9,7916.4,83.6,792.779,4.60151e+10,1.00472,0.992106,10,0.0580266,1858,0.0928806,1
app_10,7.3509,19486.5,7912.2,87.8,878.792,9.71988e+09,1.00986,0.992106,9,0.0110705,2140,0.106951,1.00001
app_11,4.58706,18422.6,7906.6,93.4,879.819,5.19465e+10,1.00521,0.992106,9,0.0590301,2026,0.101255,1.00001
app_12,0.142203,18991,7920.8,79.2,790.904,3.23287e+10,1.00589,0.992106,10,0.0408707,1879,0.0939169,1.00001
app_13,3.25748,18338.5,7899.8,100.2,987.392,4.86482e+10,1.00649,0.992106,8,0.049239,2262,0.113087,1.00001
app_14,5.42903,19157,7909.7,90.3,879.613,4.54583e+10,1.00564,0.992106,9,0.0517159,2102,0.105054,1.00001
app_15,5.26699,19468,7901.2,98.8,988.736,1.28814e+10,1.01086,0.992106,8,0.0130379,2404,0.120163,1.00002
app_16,2.90036,18743.8,7907.6,92.4,878.799,5.25731e+10,1.005,0.992106,9,0.0598101,2057,0.102808,1.00002
app_17,6.02519,18956.1,7920.8,79.2,791.912,4.40915e+08,1.00994,0.992106,10,0.000556711,1876,0.0937536,1.00002
app_18,4.05336,18769.6,7919.2,80.8,790.086,4.07268e+10,1.00503,0.992106,10,0.0515529,1854,0.0926718,1.00002
app_19,2.98744,18903.8,7900.5,99.5,985.45,4.67731e+10,1.00663,0.992106,8,0.0474854,2330,0.11647,1.00002
app_2,8.69063,18590.2,7912.2,87.8,878.246,1.8507e+10,1.00874,0.992106,9,0.0210786,2040,0.101994,1
app_20,3.51614,20177.5,7920.9,79.1,790.539,2.05049e+10,1.00738,0.992106,10,0.0259227,1993,0.099612,1.00002
app_21,10.5105,19059.1,7920.9,79.1,791.49,1.01058e+10,1.0087,0.992106,10,0.012776,1887,0.0943284,1.00002
app_22,6.82225,19302.7,7911.6,88.4,883.983,1.71403e+10,1.00899,0.992106,9,0.0193895,2123,0.106131,1.00002
app_23,4.68372,18317.1,7911.9,88.1,879.339,3.51643e+10,1.00666,0.992106,9,0.0400049,2012,0.100571,1.00002
app_24,4.23841,18100.6,7901.3,98.7,987.834,2.48885e+09,1.01217,0.992106,8,0.00252163,2233,0.111614,1.00002
app_25,6.3145,19500.7,7912.2,87.8,877.856,6.52008e+08,1.01101,0.992106,9,0.000742606,2142,0.107083,1.00003
app_26,6.93191,19900,7921,79,789.686,3.9317e+09,1.00947,0.992106,10,0.00497684,1966,0.0982513,1.00003
app_27,5.86506,19542.1,7925.7,74.3,722.586,3.81302e+10,1.00454,0.992106,11,0.0527388,1764,0.0881872,1.00003
app_28,3.82386,19298.1,7920.8,79.2,792.205,3.77273e+09,1.00952,0.992106,10,0.00476355,1909,0.0954476,1.00003
app_29,9.85282,18326.8,7919.9,80.1,791.971,3.5809e+10,1.00557,0.992106,10,0.0452134,1814,0.0906835,1.00003
app_3,0.0603231,18991.5,7927.9,72.1,720.989,1.77076e+10,1.00685,0.992106,11,0.0245598,1714,0.0856696,1
app_30,0.351107,18485.6,7911.3,88.7,881.613,3.63624e+10,1.00659,0.992106,9,0.0412272,2034,0.10169,1.00003
app_31,30.5666,20043.3,7940.52,59.4842,78.0615,4.62985e+10,1.00165,0.992106,102,0.588066,195,0.0097245,1.00003
app_32,41.2997,19836.2,7943,57,85.3145,4.26096e+10,1.0018,0.992106,94,0.50129,210,0.0104731,1.00003
app_33,58.7289,20255.1,7965.8,34.2,73.8327,2.39698e+10,1.00128,0.992106,107,0.323916,187,0.00930472,1.00003
app_34,36.364,20030.7,7959.8,40.2,79.3438,3.06428e+10,1.0012,0.992106,101,0.387884,198,0.00985902,1.00003
app_35,13.135,19957.7,7968.1,31.9,84.7884,2.28483e+10,1.00113,0.992106,94,0.268803,212,0.0105896,1.00004
app_36,46.7289,20096.4,7935.7,64.3,97.997,4.84411e+10,1.00199,0.992106,81,0.494297,245,0.0122085,1.00004
app_37,86.879,20178.4,7979.9,20.1,81.1184,1.3738e+10,1.0008,0.992106,98,0.169605,204,0.0101664,1.00004
app_38,2.00125,20075.3,7943,57,86.3148,4.17993e+10,1.0019,0.992106,92,0.486039,217,0.0108066,1.00004
app_39,29.2403,19981.1,7954.3,45.7,82.5665,3.42868e+10,1.00143,0.992106,96,0.413094,207,0.0103013,1.00004
app_4,8.80972,18713.9,7912.2,87.8,877.821,1.33568e+09,1.01093,0.992106,9,0.00152128,2052,0.102577,1
app_40,59.3214,19958.5,7949.7,50.3,73.7518,3.8932e+10,1.00142,0.992106,108,0.533316,183,0.00913361,1.00004
app_41,30.4911,20003.7,7969.3,30.7,76.6195,2.23979e+10,1.00104,0.992106,104,0.294709,191,0.0095055,1.00004
app_42,76.7855,19757.2,7958.3,41.7,83.0169,3.0256e+10,1.00143,0.992106,96,0.364531,206,0.0102903,1.00004
app_43,15.3165,19908.8,7953.2,46.8,76.9068,3.52679e+10,1.00144,0.992106,104,0.458025,191,0.00950952,1.00004
app_44,91.9837,20004.3,7974,26,79.4509,1.7588e+10,1.00105,0.992106,100,0.21985,198,0.00988692,1.00004
app_45,19.4424,19865.7,7987.5,12.5,85.9811,8.07029e+09,1.00055,0.992106,93,0.0938406,214,0.0106835,1.00004
app_46,6.80717,20125.1,7942.8,57.2,85.8884,4.50309e+10,1.00152,0.992106,92,0.523615,217,0.0108079,1.00005
app_47,2.81493,19977.1,7948.7,51.3,79.0685,3.64398e+10,1.00186,0.992106,100,0.461264,198,0.0098985,1.00005
app_48,15.2333,19938.7,7992.8,7.2,72.3652,9.36849e+08,1.00078,0.992106,111,0.0130118,180,0.00897906,1.00005
app_49,20.4941,20010.6,7957.3,42.7,77.0172,3.31553e+10,1.00119,0.992106,103,0.430588,193,0.00964369,1.00005
app_5,1.70622,17943.3,7898.8,101.2,986.668,5.4465e+10,1.00588,0.992106,8,0.0551824,2212,0.110585,1.00001
app_50,25.4652,19962,7972.7,27.3,84.8621,1.73735e+10,1.00124,0.992106,94,0.206827,212,0.0105686,1.00005
app_51,371.347,21326.3,7954.8,45.2,7.52882,3.41373e+10,1.00138,0.992106,1033,4.87676,20,0.000963194,1.00005
app_52,907.88,21719,7946.43,53.5696,6.60846,4.09224e+10,1.00158,0.992106,1217,6.52981,17,0.000816884,1.00005
app_53,289.949,20703.3,7986.1,13.9,7.77919,9.66601e+09,1.00053,0.992106,1006,1.20825,20,0.000992333,1.00005
app_54,887.211,21380.2,7950.7,49.3,7.99401,3.8753e+10,1.00132,0.992106,1029,4.84412,20,0.000966659,1.00005
app_55,344.885,19944.5,7950.4,49.6,8.49903,4.09962e+10,1.00108,0.992106,947,5.12452,21,0.00104959,1.00005
app_56,147.321,20878.7,7949.4,50.6,7.17114,3.95726e+10,1.00138,0.992106,1093,5.65323,19,0.000909878,1.00006
app_57,328.663,20919.2,7981.5,18.5,6.55177,1.3661e+10,1.00061,0.992106,1180,1.95158,17,0.000845994,1.00006
app_58,45.112,20029.9,7946.1,53.9,9.20807,3.79669e+10,1.002,0.992106,865,4.21854,23,0.00114983,1.00006
app_59,310.771,20626.9,7963.2,36.8,8.39772,2.88282e+10,1.001,0.992106,975,3.20313,21,0.00102182,1.00006
app_6,0.14237,19766.1,7901,99,990.334,2.48035e+10,1.00936,0.992106,8,0.025054,2442,0.122055,1.00001
app_60,230.339,20804.5,7993.7,6.3,9.35633,4.20852e+09,1.00026,0.992106,861,0.420852,24,0.0011606,1.00006
app_7,3.97864,19890.1,7920.4,79.6,795.305,6.10885e+09,1.00927,0.992106,10,0.00767444,1975,0.0987247,1.00001
app_8,5.69414,18476.2,7925.6,74.4,718.198,3.91833e+10,1.00442,0.992106,11,0.0545729,1662,0.083096,1.00001
app_9,4.31562,18498.3,7901.5,98.5,985.782,1.12285e+10,1.01103,0.992106,8,0.0113995,2282,0.114064,1.00001
