app_id,start_app,end_app,effective_cpu,effective_io,effective_iter,total_bytes,stretch,utilization,Tcomp,Tio,iterations,priority,group_id
app_1,7.10343,19182.1,7920.7,79.3,793.475,9.02252e+09,1.00886,0.994426,10,0.0113777,1901,0.0950365,1
app_10,0.262993,17702.8,7887.2,112.8,1127.43,5.83457e+10,1.00685,0.994426,7,0.0517249,2494,0.124665,1.00001
app_11,5.01683,18797.4,7912,88,880.123,1.44061e+09,1.01094,0.994426,9,0.00163706,2068,0.103398,1.00001
app_12,2.42554,19868.4,7952.3,47.7,85.0675,3.88773e+10,1.0011,0.994426,94,0.45738,211,0.0105401,1.00001
app_13,9.99516,19967.8,7989.3,10.7,96.2213,7.31143e+09,1.00042,0.994426,84,0.0753756,238,0.0118623,1.00001
app_14,36.5393,19938.4,7961.9,38.1,91.9472,2.81943e+10,1.00124,0.994426,87,0.306459,227,0.0113476,1.00001
app_15,22.6608,19886.6,7975.5,24.5,69.6491,1.96663e+10,1.0006,0.994426,115,0.285019,173,0.00863508,1.00002
app_16,15.2918,19896,7939.5,60.5,113.825,5.05205e+10,1.00125,0.994426,70,0.443162,282,0.0140505,1.00002
app_17,86.3724,20113.7,7964.6,35.4,82.8287,2.54862e+10,1.00124,0.994426,96,0.307063,207,0.0103261,1.00002
app_18,60.153,20190.3,7967.9,32.1,71.399,2.53153e+10,1.00085,0.994426,113,0.356553,177,0.00881007,1.00002
app_19,10.7419,20106,7939.7,60.3,82.1622,5.01478e+10,1.00127,0.994426,96,0.611559,207,0.0103093,1.00002
app_2,2.80032,19564.6,7920.6,79.4,793.691,3.03819e+10,1.00617,0.994426,10,0.0382644,1936,0.0967534,1
app_20,63.5452,19889.7,7981.4,18.6,88.4986,1.24978e+10,1.00076,0.994426,90,0.140424,220,0.0109855,1.00002
app_21,1.48071,19985.5,7967.3,32.7,70.7015,2.62574e+10,1.00081,0.994426,113,0.369822,177,0.00881035,1.00002
app_22,69.2677,20098.8,7981.7,18.3,89.4186,9.50123e+09,1.0011,0.994426,89,0.106755,225,0.0112077,1.00002
app_23,6.75542,19949,7990.7,9.3,83.7492,4.96704e+09,1.00054,0.994426,96,0.0591315,208,0.0103552,1.00002
app_24,65.1067,20088.5,7984.1,15.9,78.2164,8.21971e+09,1.00096,0.994426,102,0.105381,196,0.00975257,1.00002
app_25,5.2731,19995.5,7939.3,60.7,73.4965,5.18488e+10,1.00111,0.994426,108,0.710258,183,0.00914865,1.00003
app_26,32.47,19930.9,7941,59,87.2138,4.7547e+10,1.00143,0.994426,91,0.546517,217,0.0108479,1.00003
app_27,17.9616,19862.5,7981.8,18.2,85.7213,1.31381e+10,1.00063,0.994426,92,0.152769,215,0.0107434,1.00003
app_28,32.85,20061.1,7948.3,51.7,90.1404,4.37733e+10,1.00099,0.994426,88,0.48637,226,0.0112903,1.00003
app_29,85.463,20070.8,7980.9,19.1,88.5278,1.19154e+10,1.0009,0.994426,90,0.133881,222,0.0110706,1.00003
app_3,4.27392,19551.2,7920.9,79.1,790.477,2.60605e+10,1.00667,0.994426,10,0.0329462,1932,0.0965603,1
app_30,20.4076,20046.9,7983.6,16.4,68.9125,1.10339e+10,1.00067,0.994426,116,0.162263,172,0.00856292,1.00003
app_31,76.5613,20215.3,7985.1,14.9,69.7216,9.80751e+09,1.00064,0.994426,114,0.140107,175,0.00870982,1.00003
app_32,89.524,20896.6,7913.8,86.2,7.82216,5.34038e+10,1.00412,0.994426,1037,6.67548,20,0.000957678,1.00003
app_33,771.069,21187.9,7969.7,30.3,8.32917,1.96628e+10,1.00133,0.994426,960,2.45786,21,0.00103877,1.00003
app_34,141.087,20686.5,7982,18,7.51853,1.59542e+10,1.00026,0.994426,1068,2.27918,19,0.000933501,1.00003
app_35,867.618,21507.8,7961.6,38.4,7.92229,3.15845e+10,1.00085,0.994426,1039,3.94806,20,0.000958021,1.00004
app_36,912.635,21238.4,7981.9,18.1,6.88999,1.58639e+10,1.00028,0.994426,1176,2.26627,17,0.000848503,1.00004
app_37,229.734,20984.6,7959,41,8.55454,2.89996e+10,1.0015,0.994426,948,3.22218,22,0.00105082,1.00004
app_38,192.586,20233.5,7974.3,25.7,8.7066,2.26668e+10,1.00038,0.994426,914,2.51853,22,0.00109073,1.00004
app_39,625.267,21899,7975.8,24.2,8.05253,2.11405e+10,1.00038,0.994426,997,2.64257,21,0.00100007,1.00004
app_4,10.2676,19769.9,7925.3,74.7,720.149,5.12052e+10,1.00295,0.994426,11,0.0711183,1779,0.0889224,1
app_40,719.362,21437.3,7976.2,23.8,6.94494,1.61153e+10,1.00096,0.994426,1151,2.30219,18,0.000866546,1.00004
app_41,374.289,21233.4,7946.2,53.8,8.28913,4.4975e+10,1.0011,0.994426,929,4.99722,22,0.00107032,1.00004
app_42,77.7672,21495.7,7959.8,40.2,7.08321,3.67057e+10,1.00044,0.994426,1090,5.24367,19,0.000912315,1.00004
app_43,73.7139,20531.8,7956,44,7.82527,3.18677e+10,1.00152,0.994426,1011,3.98346,20,0.000984846,1.00004
app_44,803.101,20890.3,7943,57,6.74561,5.1859e+10,1.00064,0.994426,1178,7.40842,17,0.000843416,1.00004
app_45,518.141,21586.8,7964.9,35.1,6.66529,2.88797e+10,1.00078,0.994426,1164,4.12566,18,0.000855895,1.00004
app_46,450.784,21210,7951.7,48.3,7.60979,3.99219e+10,1.00105,0.994426,1021,5.70313,20,0.000973447,1.00005
app_47,435.909,21088.4,7980.1,19.9,8.93423,1.8436e+10,1.00018,0.994426,893,2.3045,23,0.0011166,1.00005
app_48,980.351,21885.1,7944.8,55.2,6.971,4.58345e+10,1.00117,0.994426,1085,6.54778,19,0.000916108,1.00005
app_49,20.7281,19950.7,7978.4,21.6,8.37478,1.52329e+10,1.0008,0.994426,955,1.90411,21,0.00104438,1.00005
app_5,2.04625,19830.8,7920.8,79.2,792.221,2.07184e+10,1.00736,0.994426,10,0.0261596,1966,0.0982894,1.00001
app_50,489.95,20773.2,7989.7,10.3,8.17584,8.17781e+09,1.00027,0.994426,984,1.02223,21,0.00101418,1.00005
app_51,43.6673,20425.6,7933.3,66.7,8.19744,4.78217e+10,1.00237,0.994426,976,5.97771,21,0.00101776,1.00005
app_52,542.851,21087.9,7916.4,83.6,7.30991,5.26564e+10,1.00388,0.994426,1079,6.58205,19,0.000921004,1.00005
app_53,128.217,20537.6,7934.6,65.4,7.64447,5.29684e+10,1.00156,0.994426,1075,6.62105,19,0.000924046,1.00005
app_54,300.436,21088.6,7972.6,27.4,8.94309,1.84624e+10,1.00112,0.994426,895,2.05138,23,0.0011137,1.00005
app_55,362.347,21057.1,7993.7,6.3,6.16923,5.43808e+09,1.00011,0.994426,1295,0.906346,16,0.000771171,1.00005
app_56,371.198,21419.8,7956.6,43.4,7.26202,3.63184e+10,1.00089,0.994426,1090,5.18834,19,0.000912557,1.00006
app_57,117.568,20559.8,7923.3,76.7,8.70194,5.26872e+10,1.00301,0.994426,911,5.85414,22,0.00108961,1.00006
app_58,177.316,21262.1,7996.2,3.8,8.04056,2.67437e+09,1.00014,0.994426,994,0.334297,21,0.00100516,1.00006
app_59,71.9246,20004.6,7981.7,18.3,8.55431,1.38409e+10,1.00056,0.994426,967,1.73011,21,0.00103142,1.00006
app_6,8.3552,19856.6,7928,72,719.886,1.45114e+10,1.00724,0.994426,11,0.0201547,1786,0.0892534,1.00001
app_60,559.801,21473.8,7971.1,28.9,6.83476,2.46075e+10,1.00054,0.994426,1136,3.51536,18,0.000877487,1.00006
app_7,3.71883,19863.7,7920.8,79.2,791.758,3.18611e+09,1.00959,0.994426,10,0.00402287,1966,0.0982921,1.00001
app_8,6.36561,18873,7911.6,88.4,884.047,3.00468e+10,1.00735,0.994426,9,0.0339895,2079,0.10394,1.00001
app_9,7.46591,19652.6,7912.1,87.9,878.778,2.37459e+10,1.00808,0.994426,9,0.0270147,2155,0.107723,1.00001
