app_id,start_app,end_app,effective_cpu,effective_io,effective_iter,total_bytes,stretch,utilization,Tcomp,Tio,iterations,priority,group_id
app_1,8.48918,18450.1,7906.9,87.9401,877.823,2.9355e+10,1.00803,0.994298,9,0.0334711,2025,1,1
app_10,8.12931,19247.4,7895.3,96.9156,984.301,3.12746e+10,1.00926,0.994298,8,0.0317831,2369,1,1
app_11,3.70138,19658.3,7927,67.4931,716.127,1.85188e+09,1.00897,0.994298,11,0.00258642,1762,1,1
app_12,4.68508,19745.7,7924.9,70.3957,719.318,1.59916e+10,1.00744,0.994298,11,0.0222415,1777,1,1
app_13,87.8486,20089.3,7977.1,18.9769,78.8692,1.48956e+10,1.001,0.994298,101,0.188552,198,1,2
app_14,43.6138,20003.9,7940,58.0158,78.71,4.98824e+10,1.00127,0.994298,101,0.631422,196,1,2
app_15,69.9732,20162.9,7937.1,60.0245,66.0918,4.99735e+10,1.00162,0.994298,120,0.757175,166,1,2
app_16,89.161,20129.4,7938.6,53.0927,82.2402,4.31329e+10,1.00229,0.994298,96,0.526011,207,1,2
app_17,55.4053,19842.2,7988.5,8.77301,69.3509,6.46597e+09,1.00063,0.994298,116,0.0937097,172,1,2
app_18,3.00184,20134.6,7953.4,43.9837,90.0621,3.49007e+10,1.00146,0.994298,87,0.387786,229,1,2
app_19,9.05635,19840.3,7980,11.2625,102.574,5.98129e+09,1.00176,0.994298,79,0.0586401,252,1,2
app_2,7.64923,18525.4,7919.1,75.316,791.743,7.63274e+09,1.00924,0.994298,10,0.00963729,1832,1,1
app_20,68.8236,20067,7926,72.1169,91.743,5.6263e+10,1.00222,0.994298,86,0.611554,229,1,2
app_21,66.1011,20098.7,7984.3,10.7982,91.7654,6.70336e+09,1.00113,0.994298,87,0.0736633,229,1,2
app_22,65.6798,19964.9,7986.2,8.66908,91.4672,9.16244e+08,1.00161,0.994298,87,0.00995917,228,1,2
app_23,30.3431,19954.5,7988.7,9.01669,91.776,1.80783e+09,1.00119,0.994298,87,0.0198662,228,1,2
app_24,14.1276,20088.6,7977.4,19.4328,87.8567,1.38956e+10,1.00109,0.994298,91,0.159719,220,1,2
app_25,41.3274,19973.8,7965.4,31.3721,84.4275,2.32968e+10,1.00141,0.994298,95,0.277343,210,1,2
app_26,10.5629,19924.5,7932.7,65.1051,72.9461,5.29117e+10,1.0018,0.994298,109,0.724818,181,1,2
app_27,74.5168,19971.5,7923.1,74.2395,85.0868,6.08912e+10,1.00201,0.994298,94,0.716368,211,1,2
app_28,38.9353,19882.4,7925.2,73.4625,83.3781,5.91829e+10,1.00196,0.994298,95,0.704558,207,1,2
app_29,104.783,20215.3,7961.6,33.3312,75.8485,2.54599e+10,1.00162,0.994298,105,0.334999,190,1,2
app_3,2.21762,19345.5,7918.5,75.1393,792.032,7.17209e+09,1.00938,0.994298,10,0.00905567,1915,1,1
app_30,87.1244,20116.1,7976.9,19.8003,87.4238,1.34324e+10,1.00121,0.994298,92,0.154396,217,1,2
app_31,0.518169,20115.2,7986.4,8.80517,80.8231,4.14041e+09,1.00118,0.994298,98,0.0511162,204,1,2
app_32,17.914,20111.4,7932.7,65.2718,70.6925,5.61322e+10,1.0014,0.994298,111,0.790595,178,1,2
app_33,709.592,20935.5,7972.9,24.6693,8.75122,2.15202e+10,1.0007,0.994298,919,2.39114,22,1,3
app_34,798.822,21525.6,7995.5,3.36361,8.20608,2.95918e+09,1.00019,0.994298,932,0.369897,22,1,3
app_35,586.435,20991,7990.3,9.7,6.69103,9.09532e+09,1.00008,0.994298,1195,1.29933,17,1,3
app_36,517.431,20912.7,7946.9,53.1,7.31448,4.6924e+10,1.00077,0.994298,1085,6.70343,19,1,3
app_37,337.211,21151.4,7984.1,15.9,8.00961,1.43906e+10,1.00019,0.994298,989,1.79882,21,1,3
app_38,336.983,20541.6,7948.1,51.9,7.58408,4.56454e+10,1.00078,0.994298,1082,6.52077,19,1,3
app_39,678.948,21553.2,7975.5,22.7962,7.46625,2.07672e+10,1.00047,0.994298,1097,2.5959,19,1,3
app_4,10.1055,19737,7916.7,77.6224,793.158,2.15871e+10,1.00777,0.994298,10,0.0272221,1955,1,1
app_40,485.967,21276.9,7961.6,38.4,8.96809,3.3809e+10,1.00057,0.994298,899,3.75655,23,1,3
app_41,543.917,21245.7,7970.2,29.8,8.60948,2.68405e+10,1.00037,0.994298,889,3.35506,23,1,3
app_42,422.004,20822.1,7995.8,4.2,7.04958,3.51509e+09,1.00009,0.994298,1152,0.502156,18,1,3
app_43,889.705,22008.9,7970.6,27.7793,7.78642,2.48222e+10,1.00057,0.994298,993,3.54603,21,1,3
app_44,325.94,20440.5,7987,9.14687,9.52912,7.46999e+09,1.00069,0.994298,845,0.746999,24,1,3
app_45,433.369,21748.8,7978.8,21.2,7.10685,1.85527e+10,1.00033,0.994298,1097,2.65038,19,1,3
app_46,288.334,21363.9,7980.9,16.5654,8.47267,1.5249e+10,1.00048,0.994298,946,1.69433,22,1,3
app_47,754.693,21546.3,7976.1,19.0978,9.57182,1.76146e+10,1.00079,0.994298,828,1.76146,25,1,3
app_48,812.35,20861.7,7960.5,39.5,8.90749,3.48793e+10,1.00058,0.994298,873,4.35991,23,1,3
app_49,540.676,21213.4,7993.7,5.68982,7.93586,4.93563e+09,1.00017,0.994298,980,0.616954,21,1,3
app_5,6.27691,19747.1,7912.9,82.7296,720.02,4.08953e+10,1.00581,0.994298,11,0.056799,1774,1,1
app_50,153.506,20749.7,7946.1,48.5661,7.74351,4.34134e+10,1.00131,0.994298,1002,5.42668,20,1,3
app_51,246.655,21148.5,7962.1,37.9,7.23623,3.39874e+10,1.00049,0.994298,1083,4.85535,19,1,3
app_52,620.478,20477.1,7955.14,39.4507,7.78231,3.46186e+10,1.00128,0.994298,1055,4.6274,19,1,3
app_53,819.116,21362.1,7942.4,57.6,9.0209,5.14796e+10,1.00077,0.994298,896,5.71996,23,1,3
app_54,463.917,21430.8,7936.3,63.7,7.09076,5.5788e+10,1.00099,0.994298,1097,6.9735,19,1,3
app_55,499.466,21924.4,7985.7,14.3,8.48448,1.20931e+10,1.00028,0.994298,904,1.34368,23,1,3
app_56,401.898,20964.3,7926.9,66.9834,9.32913,5.86579e+10,1.00181,0.994298,842,5.86579,24,1,3
app_57,198.984,20430.3,7981.4,18.6,7.05328,1.66831e+10,1.00024,0.994298,1119,2.3833,18,1,3
app_58,561.833,20933.1,7934.3,58.0729,7.97087,4.91676e+10,1.00207,0.994298,1009,6.14596,20,1,3
app_59,36.4513,21236.5,7980.4,14.7394,7.73778,1.34225e+10,1.00077,0.994298,1043,1.67782,20,1,3
app_6,3.38512,19305.9,7917.7,78.4579,794.099,2.29746e+10,1.00747,0.994298,10,0.0289353,1913,1,1
app_60,768.36,20864.3,7973.9,26.0737,8.93304,2.30026e+10,1.00039,0.994298,889,2.55584,23,1,3
app_7,4.16298,18862.9,7892.2,101.544,875.708,4.98633e+10,1.00729,0.994298,9,0.0569215,2068,1,1
app_8,0.377013,18995.5,7922.6,72.8627,721.806,2.68783e+10,1.00636,0.994298,11,0.0372276,1711,1,1
app_9,6.54636,19118.8,7914.9,80.2606,790.641,3.41705e+10,1.00641,0.994298,10,0.0432537,1890,1,1
