app_id,Tcomp,Tio,iter,witer,alpha_io,compute_size,io_size,mu,desyn_time
1,7.935006431317994,1.1411202661209392,2204,9.076126697438934,0.12572767042167185,7e9,1141120266.1209393,10,5.033626401275743
2,8.920307938735112,0.45119210044943897,2135,9.371500039184552,0.048145131362417284,8e9,451192100.449439,10,2.0385976855157635
3,9.08389946953429,0.8019583694858333,2024,9.885857839020122,0.08112177845815784,9e9,801958369.4858333,10,1.2143765674518945
4,9.188125208039532,0.36060106086679017,2095,9.548726268906321,0.03776431020344792,9e9,360601060.8667902,10,6.707599467304588
5,10.030551490436139,0.3682613400555102,1924,10.398812830491648,0.03541378675224209,10e9,368261340.0555102,10,0.8861194267759037
6,110.54782388735975,4.502497496343924,174,115.05032138370368,0.03913502754440529,110e9,4502497496.3439245,100,44.57470904524885
7,92.02182459422966,3.3669490450343527,210,95.388773639264,0.0352971205790662,92e9,3366949045.034353,100,93.82127149400175
8,88.26357413922041,4.30339567293375,217,92.56696981215416,0.04648953813294976,88e9,4303395672.93375,100,5.392159643335165
9,102.85944917511894,1.6880513183130288,192,104.54750049343197,0.01614626184601207,102e9,1688051318.3130288,100,97.09889093612192
10,92.81988414226642,8.96822893763471,197,101.78811307990112,0.08810683945575132,92e9,8968228937.634708,100,62.97544547478135
11,943.3800418566917,36.45598487741544,21,979.8360267341071,0.03720620989914704,943e9,36455984877.415436,1000,748.144406073565
12,875.6738373104841,68.72294479090216,22,944.3967821013863,0.07276914332340913,875e9,68722944790.90216,1000,522.3881537082005
13,1002.1741923309146,29.73887639069404,20,1031.9130687216086,0.02881916829247663,1002e9,29738876390.69404,1000,812.5748227575222
14,1033.6770223472627,64.73414599005488,19,1098.4111683373176,0.05893434795281988,1033e9,64734145990.054886,1000,965.0690162374674
15,898.6867306659396,46.22872809081542,22,944.915458756755,0.04892366577602564,898e9,46228728090.81542,1000,311.0401870592375
