app_id,Tcomp,Tio,iter,witer,alpha_io,compute_size,io_size,mu,desyn_time
1,8.527830675700486,0.8498478096507917,2133,9.377678485351277,0.09062454113545537,8e9,849847809.6507916,10,8.555466287860481
2,8.649198848554228,0.5685389579092188,2170,9.217737806463447,0.0616787947158316,8e9,568538957.9092188,10,8.534843275952817
3,8.245073660876518,0.6843019781683639,2240,8.929375639044881,0.07663491892716022,8e9,684301978.1683639,10,5.296869029466967
4,9.386296033455924,0.18409778082087236,2090,9.570393814276796,0.01923617610659254,9e9,184097780.82087237,10,1.2069882389786606
5,9.484955833896265,0.34063401954879935,2036,9.825589853445065,0.03466804788613945,9e9,340634019.54879934,10,1.9147922039465544
6,101.10080775403857,10.772072438579082,179,111.87288019261766,0.09628850548973278,101e9,10772072438.579082,100,68.24976871105984
7,98.46503139731487,5.425763339989035,193,103.8907947373039,0.05222564091177189,98e9,5425763339.989035,100,90.27189366776048
8,91.0738104315259,5.917977650955494,207,96.99178808248139,0.06101524436195436,91e9,5917977650.955495,100,80.0320985516419
9,90.07386547061633,6.4688870003598264,208,96.54275247097615,0.0670054129884538,90e9,6468887000.359826,100,94.2796391397355
10,81.63119595762228,8.263983106397067,223,89.89517906401935,0.0919291022326328,81e9,8263983106.397067,100,68.36818413211273
11,1020.4935360951109,3.7628079299800716,20,1024.256344025091,0.003673697460533273,1020e9,3762807929.9800715,1000,685.7117701486383
12,1013.233084007324,11.139290218033345,20,1024.3723742253574,0.010874258715203063,1013e9,11139290218.033344,1000,540.104075498314
13,1000.8895800567707,78.94173905648204,19,1079.8313191132527,0.07310562090503936,1000e9,78941739056.48204,1000,488.6163874721426
14,904.1858018434162,20.11688298467022,22,924.3026848280865,0.021764388781811028,904e9,20116882984.67022,1000,234.58304528795423
15,987.9891363628714,40.390268954598085,20,1028.3794053174695,0.03927564938168833,987e9,40390268954.59808,1000,659.3190566862689
