app_id,Tcomp,Tio,iter,witer,alpha_io,compute_size,io_size,mu,desyn_time
1,9.027740305599874,0.905814150255958,2014,9.933554455855832,0.09118731409601126,9e9,905814150.255958,10,2.0625122532102447
2,9.35827097517376,0.7201352696019746,1985,10.078406244775735,0.07145328855693484,9e9,720135269.6019746,10,3.2398206038627335
3,9.03881101169388,0.4664597860436771,2105,9.505270797737557,0.04907380294254255,9e9,466459786.0436771,10,5.760145846514485
4,11.193954499523304,0.06424180969317227,1777,11.258196309216476,0.005706225751329365,11e9,64241809.69317227,10,10.927805272395839
5,7.680862542154408,0.6199208034766936,2410,8.300783345631102,0.07468220499972121,7e9,619920803.4766936,10,1.5426696918579084
6,91.73102159813054,9.698254540781173,198,101.42927613891172,0.09561592973905286,91e9,9698254540.781174,100,38.1198212399544
7,110.2146917140672,9.51508867012255,168,119.72978038418975,0.07947136159099655,110e9,9515088670.12255,100,25.606689550900217
8,91.17359433485818,7.096305567771519,204,98.2698999026297,0.07221240252409804,91e9,7096305567.771519,100,18.23657793516974
9,109.49437344162062,1.3892914637531972,181,110.88366490537382,0.012529270789694716,109e9,1389291463.7531972,100,15.879446653685086
10,82.53697185223041,3.072131636168189,234,85.6091034883986,0.03588557187244125,82e9,3072131636.168189,100,35.559972569300385
11,967.9870742697119,103.44243918707322,19,1071.4295134567851,0.09654619168864761,967e9,103442439187.07323,1000,102.66722783163381
12,894.6746352557234,36.93037129121188,22,931.6050065469352,0.03964166254118481,894e9,36930371291.211876,1000,53.55694930063849
13,764.3429813494313,52.20717329543716,25,816.5501546448685,0.06393627262019556,764e9,52207173295.43716,1000,328.7904255033964
14,1040.3169333656047,1.9093490580180494,20,1042.2262824236227,0.0018319908931657286,1040e9,1909349058.0180495,1000,314.3725104016646
15,1009.7315785586342,10.432719780370771,20,1020.164298339005,0.010226509393983844,1009e9,10432719780.370771,1000,859.7822990039359
