app_id,start_app,end_app,effective_cpu,effective_io,effective_iter,total_bytes,stretch,utilization,Tcomp,Tio,iterations,priority,group_id
app_1,9.05416,26150.3,4603.46,559.996,511.417,5.31966e+11,1.55781,0.778352,9,1.039,1814,1,1
app_10,9.93184,22914.3,6159.4,678.645,69.7387,6.74713e+11,1.1706,0.778352,88,9.63876,203,1,1
app_11,7.31506,20857.1,7678.02,199.899,7.96348,1.9952e+11,1.01554,0.778352,950,24.94,21,1,1
app_12,712.827,21195.6,7109.9,740.096,7.64601,7.39775e+11,1.01915,0.778352,899,105.682,20,1,1
app_13,578.386,21726.3,7840.2,51.7918,9.97292,5.13208e+10,1.01375,0.778352,773,5.13208,26,1,1
app_14,263.114,21309.3,7232.13,743.594,8.54554,7.4322e+11,1.00309,0.778352,844,89.7097,22,1,1
app_15,326.166,21218,7759.2,43.8954,8.94377,4.33202e+10,1.02531,0.778352,878,4.81335,23,1,1
app_2,0.665939,27538,4835.89,278.849,480.804,2.47344e+11,1.5738,0.778352,10,0.514228,1841,1,1
app_3,8.71785,26882.6,4716.85,231.345,590.004,1.95891e+11,1.62842,0.778352,8,0.331915,2186,1,1
app_4,7.83728,27399.9,4791.72,255.766,530.694,2.20117e+11,1.59622,0.778352,9,0.414533,2020,1,1
app_5,2.3477,27944.1,4814.29,273.85,479.858,2.40414e+11,1.58268,0.778352,10,0.500861,1880,1,1
app_6,58.4109,23418.7,6668.7,92.5746,61.5358,8.88721e+10,1.18386,0.778352,107,1.43342,185,1,1
app_7,0.720011,23193.3,6408.9,359.366,63.1801,3.56041e+11,1.18257,0.778352,101,5.65144,186,1,1
app_8,49.7822,23121,6259.4,622.923,70.4361,6.18444e+11,1.16316,0.778352,89,8.71048,205,1,1
app_9,17.0213,23155,6524.2,293.693,66.3515,2.90095e+11,1.174,0.778352,98,4.32977,195,1,1
