app_id,start_app,end_app,effective_cpu,effective_io,effective_iter,total_bytes,stretch,utilization,Tcomp,Tio,iterations,priority,group_id
app_1,7.9007,25760.3,4999.14,120.698,623.998,8.67445e+10,1.57298,0.820107,8,0.139014,2219,1,1
app_10,15.5023,20700.1,7168.1,532.644,69.4734,5.30933e+11,1.03909,0.820107,103,7.69468,181,1,1
app_11,681.377,20706.6,7938,32.2355,9.10351,3.178e+10,1.00379,0.820107,881,3.53111,23,1,1
app_12,188.159,20445.1,7822.1,167.409,7.23332,1.67114e+11,1.00135,0.820107,1096,23.8735,18,1,1
app_13,433.904,20923.1,7812,117.576,8.13607,1.17141e+11,1.00894,0.820107,945,14.6427,21,1,1
app_14,251.922,20977.1,7851,83.0074,9.08441,8.24704e+10,1.00839,0.820107,887,9.16337,23,1,1
app_15,1034.2,21252.8,7827.3,142.936,7.01585,1.42678e+11,1.00377,0.820107,1095,20.3826,18,1,1
app_2,7.54563,26705.8,5141.9,108.283,514.12,8.60811e+10,1.53023,0.820107,10,0.167473,1909,1,1
app_3,4.66054,25254.6,4755.19,490.706,593.996,4.72325e+11,1.53036,0.820107,8,0.79516,2049,1,1
app_4,2.7556,25858.7,4871.94,430.421,540.005,4.02953e+11,1.51662,0.820107,9,0.74621,1917,1,1
app_5,9.31454,26936.3,4868.76,484.127,539.999,4.55184e+11,1.50264,0.820107,9,0.842934,2012,1,1
app_6,6.65241,20744.2,6856.16,823.319,70.1277,8.20781e+11,1.04208,0.820107,97,11.6807,184,1,1
app_7,81.7752,21042.1,6778.92,837.223,83.8562,8.32329e+11,1.05108,0.820107,81,9.92319,219,1,1
app_8,57.4122,21165.7,7092.4,496.078,74.0397,4.91941e+11,1.0548,0.820107,96,6.64785,194,1,1
app_9,56.3824,21176.9,6629.93,860.225,84.3673,8.56763e+11,1.06856,0.820107,79,10.0796,223,1,1
