app_id,start_app,end_app,effective_cpu,effective_io,effective_iter,total_bytes,stretch,utilization,Tcomp,Tio,iterations,priority,group_id
app_1,2.75541,19790.4,7170.37,666.997,1024.5,5.90267e+11,1.03084,0.878594,7,0.575871,2540,0.1,1
app_10,60.0543,21695.6,6640,946.201,68.7496,6.32531e+11,1.10003,0.878594,96,9.16712,190,0.01,2
app_11,143.767,23130.4,6332.79,345.59,7.03114,1.39303e+11,1.23608,0.878594,912,17.4129,22,0.001,3
app_12,514.612,23340.4,7141.42,292.574,7.99823,1.04931e+11,1.104,0.878594,922,13.1164,22,0.001,3
app_13,493.026,24274.9,6315.64,1684.36,7.12728,6.15764e+11,1.15417,0.878594,862,84.1779,22,0.001,3
app_14,482.885,22493.6,7535,465,6.91426,1.78952e+11,1.03708,0.878594,1070,25.5645,19,0.001,3
app_15,154.411,21404.1,7061.29,114.615,7.19031,2.69305e+10,1.12863,0.878594,1004,3.40577,20,0.001,3
app_2,0.953267,19557.7,7683.71,161.222,849.106,9.32565e+10,1.02868,0.878594,9,0.109714,2086,0.1,1
app_3,5.92553,19489.4,6985.89,911.969,872.762,8.15498e+11,1.02546,0.878594,8,0.93519,2128,0.1,1
app_4,6.38501,19485.4,7377.9,412.812,921.92,3.47237e+11,1.03558,0.878594,8,0.376613,2248,0.1,1
app_5,2.37341,18618.4,7216.9,687.618,803.947,6.29e+11,1.01964,0.878594,9,0.782338,1870,0.1,1
app_6,45.4626,21716,6886.2,794.605,69.3008,5.20158e+11,1.08015,0.878594,99,7.43083,188,0.01,2
app_7,102.174,21291.3,7369.6,207.539,67.5825,1.38185e+11,1.06556,0.878594,108,2.06247,181,0.01,2
app_8,82.0781,21252.4,6808.42,1078.93,66.4827,7.16616e+11,1.06312,0.878594,103,10.7226,176,0.01,2
app_9,38.3491,21114.1,6906.1,933.599,63.5418,6.22286e+11,1.06264,0.878594,108,9.87755,169,0.01,2
