app_id,start_app,end_app,effective_cpu,effective_io,effective_iter,total_bytes,stretch,utilization,Tcomp,Tio,iterations,priority,group_id
app_1,4.11526,19561.4,6735.6,1105.19,959.037,1.03827e+12,1.02909,0.892196,7,1.08266,2357,0.1,1
app_10,52.2886,21137.5,7328.8,425.943,77.2052,2.76772e+11,1.05186,0.892196,95,3.59444,203,0.01,2
app_11,680.463,23648.6,5828.12,1929.35,7.1424,1.03646e+12,1.1654,0.892196,854,136.11,21,0.001,3
app_12,914.638,22749.5,7345.7,264.051,7.34497,1.53674e+11,1.06676,0.892196,1014,21.9534,20,0.001,3
app_13,83.8009,23664,6772.2,263.379,8.30377,1.22824e+11,1.16026,0.892196,817,15.353,25,0.001,3
app_14,343.897,22682,6868.9,663.082,7.02524,3.73588e+11,1.10459,0.892196,947,53.3698,20,0.001,3
app_15,730.691,22492.4,6509.2,1461.14,6.91027,7.76627e+11,1.09802,0.892196,963,110.947,19,0.001,3
app_2,0.384075,18536.9,7755.2,85.0351,863.96,3.68834e+10,1.02668,0.892196,9,0.0426891,1998,0.1,1
app_3,6.87105,20295.8,7624.83,258.944,847.14,2.24335e+11,1.01922,0.892196,9,0.264546,2151,0.1,1
app_4,5.73469,18535.3,6897.77,1028.25,860.588,9.44628e+11,1.0201,0.892196,8,1.09763,1994,0.1,1
app_5,1.88062,19447.7,7791,73.9623,780.922,2.31904e+10,1.02378,0.892196,10,0.0296932,1896,0.1,1
app_6,81.4362,20595.6,7660.3,109.556,74.1251,6.58078e+10,1.03545,0.892196,103,0.889294,192,0.01,2
app_7,19.9145,20643.1,7636.4,48.6152,82.2545,2.48251e+10,1.04422,0.892196,93,0.299098,213,0.01,2
app_8,100.179,20482.4,7614.1,356.642,72.5777,2.43816e+11,1.01808,0.892196,105,3.33995,185,0.01,2
app_9,102.466,20992.2,6695.4,1289.74,74.2291,8.74184e+11,1.05686,0.892196,90,11.8133,195,0.01,2
