app_id,start_app,end_app,effective_cpu,effective_io,effective_iter,total_bytes,stretch,utilization,Tcomp,Tio,iterations,priority,group_id
app_1,3.68408,20117.3,7147.7,738.623,716.114,6.82994e+11,1.02162,0.892902,10,0.953902,1801,0.1,1
app_10,13.4299,20752.2,7044,849.564,80.963,5.22172e+11,1.05734,0.892902,88,6.44656,210,0.01,2
app_11,166.889,23166.3,6800.61,888.325,8.20608,4.04265e+11,1.11036,0.892902,835,45.535,23,0.001,3
app_12,594.234,22524.4,6808.5,390.357,6.83275,1.78899e+11,1.14492,0.892902,1029,25.5569,19,0.001,3
app_13,645.93,23120.7,6619.05,1264.08,7.42125,5.99481e+11,1.10826,0.892902,889,77.9728,21,0.001,3
app_14,274.179,22397.8,7373.35,482.231,6.41832,2.17539e+11,1.05389,0.892902,1126,36.2565,18,0.001,3
app_15,489.889,23337.7,6497.8,1284.55,6.67598,6.07589e+11,1.12591,0.892902,961,86.7984,20,0.001,3
app_2,7.06659,19680.2,7017.6,878.413,780.975,8.0143e+11,1.02314,0.892902,9,1.02616,1918,0.1,1
app_3,2.66054,18986,7305,479.291,811.61,4.14379e+11,1.03635,0.892902,9,0.510948,1923,0.1,1
app_4,8.00027,18570.4,7301.3,486.168,911.325,4.29802e+11,1.03478,0.892902,8,0.471792,2117,0.1,1
app_5,2.71232,19617.3,7213.41,572.212,801.539,5.08725e+11,1.03598,0.892902,9,0.634787,1968,0.1,1
app_6,97.143,20417.6,7668.7,162.794,73.1966,8.487e+10,1.03178,0.892902,105,1.1626,187,0.01,2
app_7,88.6105,20691.2,7571.8,267.312,85.6109,1.54098e+11,1.03548,0.892902,89,1.79184,220,0.01,2
app_8,37.5642,20798.1,7231,718.826,69.811,4.42187e+11,1.04259,0.892902,103,6.31696,182,0.01,2
app_9,33.577,20547.3,7548.4,352.01,76.2811,2.1852e+11,1.03001,0.892902,99,2.87527,196,0.01,2
