app_id,start_app,end_app,effective_cpu,effective_io,effective_iter,total_bytes,stretch,utilization,Tcomp,Tio,iterations,priority,group_id
app_1,4.14374,26011.5,4657.14,474.842,466.041,4.59797e+11,1.56344,0.784693,10,0.986688,1679,1,1
app_10,69.9219,22486.1,6854.94,219.631,73.0707,2.16425e+11,1.13132,0.784693,94,2.96472,206,1,1
app_11,760.96,21714.2,7701.7,290.297,7.52403,2.89846e+11,1.00106,0.784693,1007,36.2308,20,1,1
app_12,860.148,21348.7,7702.6,257.444,7.02685,2.57088e+11,1.00506,0.784693,1090,36.7269,18,1,1
app_13,1037.73,22274.6,7521.5,472.838,7.60292,4.72302e+11,1.00078,0.784693,990,59.0377,20,1,1
app_14,413.973,21276,7185.75,741.568,7.78924,7.41166e+11,1.00922,0.784693,950,94.1127,20,1,1
app_15,356.018,21089.7,7651.7,23.6498,8.31333,2.33053e+10,1.04234,0.784693,925,2.58948,22,1,1
app_2,4.24229,27076,4626.34,339.142,576.95,3.04735e+11,1.62236,0.784693,8,0.528898,2210,1,1
app_3,8.33015,27532.9,4706.08,363.745,524.038,3.33731e+11,1.58736,0.784693,9,0.636892,2036,1,1
app_4,0.909142,27655.9,4813.12,241.627,482.176,2.17614e+11,1.59023,0.784693,10,0.451482,1888,1,1
app_5,0.0229712,26625.9,4854.83,58.0107,540.002,3.26943e+10,1.63682,0.784693,9,0.060545,2027,1,1
app_6,15.5826,22764.1,6392.8,562.433,92.1591,5.58731e+11,1.15083,0.784693,69,6.07316,265,1,1
app_7,45.2435,22814.1,6453.36,503.116,80.5826,4.98718e+11,1.15074,0.784693,80,6.23397,230,1,1
app_8,75.1131,22483.1,6522.18,509.684,78.8074,5.06972e+11,1.13812,0.784693,84,6.49964,221,1,1
app_9,99.6347,22334.4,6519.15,532.824,64.0931,5.29976e+11,1.13489,0.784693,102,8.28087,181,1,1
