app_id,start_app,end_app,effective_cpu,effective_io,effective_iter,total_bytes,stretch,utilization,Tcomp,Tio,iterations,priority,group_id
app_1,6.11146,19933.7,6940.6,881.512,770.41,8.30902e+11,1.0294,0.892207,9,1.07769,1923,0.1,1
app_10,56.8876,20627.8,7578.7,141.381,84.8495,7.5791e+10,1.04514,0.892207,89,0.891659,222,0.01,2
app_11,926.079,23115.1,6829.9,1137.47,6.4631,5.33588e+11,1.08644,0.892207,1025,88.9313,18,0.001,3
app_12,316.071,21978.6,7176.8,285.761,8.16965,1.31074e+11,1.09471,0.892207,904,14.5638,22,0.001,3
app_13,474.515,22567.5,6857.1,843.402,7.26201,3.67254e+11,1.10737,0.892207,985,45.9067,20,0.001,3
app_14,621.254,22884,6984.8,951.817,7.48991,4.23656e+11,1.07985,0.892207,911,56.0641,21,0.001,3
app_15,472.747,22477.5,6846.1,801.876,6.6271,3.54599e+11,1.111,0.892207,1013,50.6571,19,0.001,3
app_2,1.43066,19440.9,7026.7,698.967,878.33,6.27093e+11,1.04523,0.892207,8,0.714229,2140,0.1,1
app_3,9.87689,20005.9,7733.7,79.3517,704.731,5.57553e+10,1.02703,0.892207,11,0.0791979,1763,0.1,1
app_4,3.43695,20159.1,7090.2,766.355,710.02,7.08344e+11,1.02583,0.892207,10,0.997668,1790,0.1,1
app_5,5.37449,19359.8,6898.1,892.678,863.348,8.29599e+11,1.03524,0.892207,8,0.961297,2088,0.1,1
app_6,77.5052,21254.6,6854.2,1098.38,73.8695,6.42843e+11,1.06709,0.892207,93,8.68707,197,0.01,2
app_7,39.3252,20743.6,7478.7,281.803,78.5791,1.61403e+11,1.04711,0.892207,95,2.04308,205,0.01,2
app_8,52.0893,20540.4,7710.6,63.3319,77.8366,2.71475e+10,1.03389,0.892207,100,0.352565,199,0.01,2
app_9,36.2063,21082.1,7058.6,734.03,80.1226,4.36087e+11,1.06742,0.892207,88,5.45109,214,0.01,2
