app_id,start_app,end_app,effective_cpu,effective_io,effective_iter,total_bytes,stretch,utilization,Tcomp,Tio,iterations,priority,group_id
app_1,7.47299,21056.9,6938.4,1061.6,772.251,3.97677e+11,1.0905,0.877673,9,0.515125,2031,1,1
app_10,26.0736,20783,7546.7,453.3,83.0238,1.61172e+11,1.0379,0.877673,91,1.94183,215,1.00001,1.00001
app_11,1047.61,24299.7,5977.1,2022.9,6.23387,7.50366e+11,1.18916,0.877673,927,125.061,19,1.00001,1.00001
app_12,348.175,23131.2,6901.8,1098.2,6.72521,5.37364e+11,1.07539,0.877673,1000,76.7663,19,1.00001,1.00001
app_13,222.557,22824.5,6946.8,1053.2,6.13391,5.32295e+11,1.06965,0.877673,1105,88.7159,17,1.00001,1.00001
app_14,165.346,23428.5,6675.8,1324.2,6.39111,3.97139e+11,1.13107,0.877673,983,66.1899,20,1.00001,1.00001
app_15,101.234,20715.6,7591.4,408.6,8.13643,1.46307e+11,1.0339,0.877673,944,18.2884,21,1.00002,1.00002
app_2,0.664823,22622.8,6101.83,1898.17,677.22,7.99847e+11,1.15914,0.877673,9,1.17991,1936,1,1
app_3,6.014,20448.4,7046.8,953.2,783.751,3.52222e+11,1.08122,0.877673,9,0.449263,2004,1,1
app_4,3.24675,19607.2,7300.9,699.1,731.649,2.5441e+11,1.05886,0.877673,10,0.347555,1791,1,1
app_5,0.7723,21052.5,7203.3,796.7,800.171,2.8514e+11,1.06831,0.877673,9,0.356425,2111,1.00001,1.00001
app_6,0.519139,21294.3,7108.16,891.844,64.4669,3.37161e+11,1.0745,0.877673,111,5.26275,171,1.00001,1.00001
app_7,46.7334,20339.9,7772.4,227.6,72.3595,7.69614e+10,1.01919,0.877673,107,1.06891,185,1.00001,1.00001
app_8,43.3871,22261.7,6503.52,1496.48,84.0843,6.13711e+11,1.12403,0.877673,78,7.24572,235,1.00001,1.00001
app_9,108.125,20576.6,7705.8,294.2,72.1218,1.00783e+11,1.02478,0.877673,107,1.39977,185,1.00001,1.00001
