app_id,start_app,end_app,effective_cpu,effective_io,effective_iter,total_bytes,stretch,utilization,Tcomp,Tio,iterations,priority,group_id
app_1,8.55547,21665,6309.5,1690.5,786.976,6.6883e+11,1.14641,0.871895,8,0.849848,2133,1,1
app_10,68.3682,22526.6,6362.56,1637.44,78.7434,6.50115e+11,1.14079,0.871895,81,8.26398,223,1.00001,1.00001
app_11,685.712,20956.2,7929,71,7.77724,3.01025e+10,1.00514,0.871895,1020,3.76281,20,1.00001,1.00001
app_12,540.104,21410.4,7788.4,211.6,7.65316,7.7975e+10,1.01699,0.871895,1013,11.1393,20,1.00001,1.00001
app_13,488.616,23370,6578,1422,6.63157,5.52592e+11,1.12193,0.871895,1000,78.9417,19,1.00001,1.00001
app_14,234.583,21653.7,7572.6,427.4,8.36753,1.81052e+11,1.03177,0.871895,904,20.1169,22,1.00001,1.00001
app_15,659.319,22188.2,7122.85,877.153,7.35592,3.17958e+11,1.07515,0.871895,987,40.3903,20,1.00002,1.00002
app_2,8.53484,20601.3,6725.8,1274.2,841.3,4.78141e+11,1.1105,0.871895,8,0.568539,2170,1,1
app_3,5.29687,21832.2,6524.2,1475.8,815.281,5.57706e+11,1.12964,0.871895,8,0.684302,2240,1,1
app_4,1.20699,19955.7,7534.73,465.265,835.89,1.53864e+11,1.0405,0.871895,9,0.184098,2090,1,1
app_5,1.91479,20289.9,7228.5,771.5,802.931,2.73529e+11,1.06638,0.871895,9,0.340634,2036,1.00001,1.00001
app_6,68.2498,22778.3,6319.6,1680.4,62.3409,6.67868e+11,1.14491,0.871895,101,10.7721,179,1.00001,1.00001
app_7,90.2719,21732,6933.4,1066.6,70.7293,3.85229e+11,1.0931,0.871895,98,5.42576,193,1.00001,1.00001
app_8,80.0321,21844.4,6906.8,1093.2,76.5037,4.49766e+11,1.08746,0.871895,91,5.91798,207,1.00001,1.00001
app_9,94.2796,22087.5,6791.4,1208.6,74.8239,4.85167e+11,1.09942,0.871895,90,6.46889,208,1.00001,1.00001
