app_id,start_app,end_app,effective_cpu,effective_io,effective_iter,total_bytes,stretch,utilization,Tcomp,Tio,iterations,priority,group_id
app_1,6.62653,29683,4308.79,76.7178,359.004,6.66e+10,1.82841,0.711595,12,0.185515,1634,1,1
app_10,93.2472,24519.7,5693.46,522.403,66.0887,5.18632e+11,1.28781,0.711595,86,7.74085,212,1,1
app_11,1022.43,21455.1,7303,688.651,7.49594,6.88091e+11,1.00111,0.711595,974,86.0114,19,1,1
app_12,757.76,22223.6,6965.6,723.845,8.45851,7.23298e+11,1.04046,0.711595,818,80.3664,23,1,1
app_13,497.537,21936.6,7479.63,512.572,7.60871,5.12173e+11,1.00103,0.711595,962,71.546,20,1,1
app_14,443.458,21217.9,6864.1,771.686,7.58233,7.71358e+11,1.04774,0.711595,926,96.4198,20,1,1
app_15,667.087,22515.1,7132.4,577.731,7.91736,5.77399e+11,1.03764,0.711595,875,72.1749,22,1,1
app_2,5.58002,28534.1,4156.09,82.1266,414.002,5.95118e+10,1.89771,0.711595,10,0.143748,1814,1,1
app_3,2.31769,30060.7,3961.29,300.376,440.984,2.6537e+11,1.89275,0.711595,9,0.601746,2069,1,1
app_4,5.25031,29690.5,3947.13,204.45,491.999,1.89953e+11,1.93373,0.711595,8,0.386083,2305,1,1
app_5,5.02477,29702.7,3846.54,216.781,551.012,1.82981e+11,1.98535,0.711595,7,0.332088,2592,1,1
app_6,85.8947,24528.8,5978.8,164.056,65.2119,1.60785e+11,1.30302,0.711595,92,2.43614,211,1,1
app_7,102.282,25085.3,5932.85,144.737,59.167,1.41738e+11,1.31696,0.711595,101,2.36229,194,1,1
app_8,94.2742,24764.3,5751,262.744,62.2646,2.58622e+11,1.3312,0.711595,92,4.10511,208,1,1
app_9,34.6952,24561.3,6070.72,248.058,56.4344,2.46176e+11,1.26645,0.711595,108,4.396,177,1,1
