app_id,start_app,end_app,effective_cpu,effective_io,effective_iter,total_bytes,stretch,utilization,Tcomp,Tio,iterations,priority,group_id
app_1,5.57913,19086.6,7630.3,329.051,766.225,2.93929e+11,1.00956,0.90651,10,0.383719,1825,0.1,1
app_10,15.5927,20236.1,7851.78,23.8315,99.5291,1.38794e+10,1.01708,0.90651,78,0.140196,253,0.01,2
app_11,910.028,22771.4,6793.9,1190.04,6.95373,7.12048e+11,1.06582,0.90651,996,101.721,19,0.001,3
app_12,440.569,22539.9,6515.77,1008.57,6.94214,5.86302e+11,1.12643,0.90651,947,88.1997,20,0.001,3
app_13,197.039,22353.2,6750.8,858.989,6.70474,5.1371e+11,1.10124,0.90651,989,85.6183,19,0.001,3
app_14,837.408,23089.9,6760.19,832.352,6.89776,4.93028e+11,1.10296,0.90651,948,70.4325,20,0.001,3
app_15,758.705,22669.7,6644.89,1088.52,6.19821,6.61e+11,1.09501,0.90651,1093,94.819,17,0.001,3
app_2,10.6494,19149,7516.22,449.963,751.202,3.95044e+11,1.01122,0.90651,10,0.52558,1797,0.1,1
app_3,7.18646,18697.2,7518.8,429.421,1074.69,3.58744e+11,1.01554,0.90651,7,0.333716,2505,0.1,1
app_4,5.0855,18129.1,7397.84,562.01,1056.36,5.19359e+11,1.01046,0.90651,7,0.491692,2395,0.1,1
app_5,9.79263,19431.8,7892.2,65.9463,716.05,7.67413e+09,1.01267,0.90651,11,0.0107181,1739,0.1,1
app_6,104.325,20405.6,7607.53,315.946,73.3099,2.37347e+11,1.01977,0.90651,104,3.2372,186,0.01,2
app_7,48.9855,20781.9,7129.83,766.092,91.507,5.77417e+11,1.03798,0.90651,78,6.3289,238,0.01,2
app_8,21.1712,20578.9,7216.6,715.635,79.2558,5.40678e+11,1.03129,0.90651,91,6.84402,204,0.01,2
app_9,72.6256,20566.4,7554.6,357.518,82.3465,2.64406e+11,1.02315,0.90651,92,3.18561,210,0.01,2
