app_id,start_app,end_app,effective_cpu,effective_io,effective_iter,total_bytes,stretch,utilization,Tcomp,Tio,iterations,priority,group_id
app_1,1.07146,18930,7684.7,169.614,854.77,1.17317e+11,1.02538,0.882654,9,0.137212,2016,0.1,1
app_10,23.9827,20961.1,7415.2,448.966,73.3301,2.99537e+11,1.03698,0.882654,101,4.0478,191,0.01,2
app_11,879.834,23970.8,7028.3,157.33,7.52994,8.16836e+10,1.12518,0.882654,935,10.2105,22,0.001,3
app_12,128.91,23448,6427.1,170.753,7.12366,7.69212e+10,1.23001,0.882654,886,10.9887,23,0.001,3
app_13,38.7931,23259.7,6169.04,1622.86,6.20336,6.51979e+11,1.17285,0.882654,1007,94.7102,19,0.001,3
app_14,399.038,23960.6,6146.7,1383.01,6.98172,5.96592e+11,1.18636,0.882654,885,85.2275,21,0.001,3
app_15,349.179,21053.3,7387.1,435.12,7.00918,1.81377e+11,1.05702,0.882654,1031,25.911,19,0.001,3
app_2,0.634311,18873.8,7392.3,491.101,820.344,4.27621e+11,1.02303,0.882654,9,0.521489,1936,0.1,1
app_3,6.48206,18811,7508.3,353.573,834.372,3.02704e+11,1.0242,0.882654,9,0.362955,1958,0.1,1
app_4,4.02629,19273.8,7064.5,832.694,883.21,7.51849e+11,1.0235,0.882654,8,0.850508,2128,0.1,1
app_5,2.87177,19059.6,7104.1,828.355,790.97,7.68692e+11,1.01616,0.882654,9,0.971798,1883,0.1,1
app_6,120.22,20956.6,7407.7,436.051,62.5311,2.95202e+11,1.03857,0.882654,117,4.68574,164,0.01,2
app_7,24.823,20829.2,7176.6,706.722,68.0319,4.73872e+11,1.04569,0.882654,106,6.96871,177,0.01,2
app_8,29.5876,20868.1,7069.1,819.143,72.5293,5.43748e+11,1.05086,0.882654,97,7.44861,190,0.01,2
app_9,90.994,21114.2,6937.7,984.023,72.2033,6.69774e+11,1.0516,0.882654,96,9.30241,190,0.01,2
