app_id,start_app,end_app,effective_cpu,effective_io,effective_iter,total_bytes,stretch,utilization,Tcomp,Tio,iterations,priority,group_id
app_1,4.06126,27231.4,4970.4,199.152,498.07,1.72061e+11,1.55568,0.795689,10,0.345504,1896,1,1
app_10,23.3854,22565,6827.7,28.0344,76.3093,2.31709e+10,1.16773,0.795689,90,0.304881,220,1,1
app_11,572.812,21255.3,7606.1,345.193,7.82493,3.44739e+11,1.00618,0.795689,975,49.2484,20,1,1
app_12,635.528,20967.8,7458.9,387.26,8.67464,3.86829e+11,1.01966,0.795689,869,42.981,22,1,1
app_13,315.841,21637.2,7817.4,153.764,7.90342,1.53579e+11,1.00364,0.795689,975,19.1974,21,1,1
app_14,401.499,20866.1,7227.5,716.318,9.09778,7.15916e+11,1.00712,0.795689,817,79.5462,23,1,1
app_15,519.916,21577.3,7837.3,120.676,8.19518,1.20307e+11,1.00533,0.795689,983,15.0384,21,1,1
app_2,2.03371,26166,4876.3,402.668,486.443,3.87841e+11,1.51972,0.795689,10,0.796387,1741,1,1
app_3,0.254179,26353.8,4832,364.348,534.411,3.30102e+11,1.54976,0.795689,9,0.618168,1949,1,1
app_4,8.55685,26267.4,4633.9,532.972,581.02,5.1424e+11,1.55396,0.795689,8,0.885095,2100,1,1
app_5,4.49897,26568.4,4806.9,417.639,533.064,3.82769e+11,1.54152,0.795689,9,0.718141,1955,1,1
app_6,93.7906,22035.5,6551.7,690.356,70.6591,6.88456e+11,1.10495,0.795689,93,9.69656,195,1,1
app_7,10.2126,22307.6,6909.3,195.252,82.3337,1.90109e+11,1.12685,0.795689,84,2.3184,230,1,1
app_8,26.0739,21960.5,6383.4,779.305,71.4566,7.76847e+11,1.11728,0.795689,89,10.7895,200,1,1
app_9,20.4668,22561.7,6743.9,174.039,66.4493,1.70778e+11,1.15696,0.795689,101,2.54893,193,1,1
