app_id,Tcomp,Tio,iter,witer,alpha_io,compute_size,io_size,mu,desyn_time
1,5.825265121432305,0.015465917267690222,3425,5.840731038699995,0.002647942041024467,5e9,15465917.26769022,10,2.240916409020815
2,10.403836896592189,0.04026829090179859,1915,10.444105187493987,0.0038555998985932063,10e9,40268290.90179859,10,2.8140604996274243
3,13.939856143650811,0.07375904740235037,1428,14.01361519105316,0.00526338467246061,13e9,73759047.40235037,10,6.716677549802579
4,19.400813613288566,0.05985133500952069,1028,19.46066494829809,0.0030755030811398312,19e9,59851335.00952069,10,5.232366192468378
5,12.968619111061205,0.0068891708974020945,1542,12.975508281958607,0.0005309364957194724,12e9,6889170.897402095,10,9.009856689384522
6,19.30739207521302,0.0501232064332392,1034,19.357515281646258,0.002589340920255571,19e9,50123206.4332392,10,9.0537393562398
7,21.961519296794606,0.04092936563914061,909,22.002448662433746,0.0018602186632536975,21e9,40929365.63914061,10,2.2626458660915905
8,21.191210559319618,0.11186894944424534,939,21.303079508763865,0.005251304131791069,21e9,111868949.44424534,10,8.14725622980957
9,15.587486496153847,0.04018931538820479,1280,15.627675811542051,0.002571675780382031,15e9,40189315.38820479,10,0.943984897846084
10,8.216678791328864,0.012565810376270085,2431,8.229244601705133,0.0015269700907500547,8e9,12565810.376270086,10,2.9062988269089085
11,22.112093838142016,0.011270208087402594,905,22.12336404622942,0.0005094256038029363,22e9,11270208.087402593,10,5.460309615516315
12,10.49597763183655,0.03670895417760161,1899,10.532686586014151,0.0034852412893729952,10e9,36708954.177601606,10,9.300636468532042
13,3.070706960759772,0.01742159210844763,6477,3.08812855286822,0.005641472435552155,3e9,17421592.10844763,10,2.353397543792001
14,28.075288465631722,0.09099483753545755,711,28.16628330316718,0.0032306299186171134,28e9,90994837.53545755,10,22.188395833288343
15,9.616444593021129,0.005922356447864142,2079,9.622366949468994,0.0006154781332872537,9e9,5922356.447864141,10,7.314594875670226
16,4.038066001040638,0.021563972806887596,4927,4.059629973847526,0.005311807466642157,4e9,21563972.806887597,10,3.2313316472528375
17,25.37458340575537,0.08147627227388576,786,25.456059678029256,0.00320066315464395,25e9,81476272.27388576,10,12.23031284459843
18,22.086814019321473,0.0011411872592418395,906,22.087955206580716,5.166559097792098e-05,22e9,1141187.2592418394,10,21.832109563577745
19,5.8696526748001405,0.030002263260677058,3391,5.899654938060817,0.0050854267877806815,5e9,30002263.26067706,10,0.8561836950074848
20,16.493812773166805,0.0662707320041336,1208,16.56008350517094,0.004001835617763663,16e9,66270732.0041336,10,16.135630854128284
21,137.45513710020597,0.7747466646808638,145,138.22988376488684,0.005604769703768391,137e9,774746664.6808639,100,115.01075464679407
22,110.84778156215974,0.09866409179415714,181,110.9464456539539,0.0008892947512883298,110e9,98664091.79415713,100,23.027253949490785
23,176.0829824548054,0.24837129139978945,114,176.3313537462052,0.0014085486563964783,176e9,248371291.39978945,100,1.6377344300080818
24,52.936232451650454,0.24806697005067357,377,53.18429942170113,0.004664289513033488,52e9,248066970.05067357,100,29.552308168910198
25,90.73300958945129,0.12277953252121716,221,90.8557891219725,0.0013513671908829885,90e9,122779532.52121717,100,29.891030253167397
26,93.30477418871267,0.10668181416887569,215,93.41145600288155,0.001142063497710439,93e9,106681814.1688757,100,73.5443906357608
27,134.918307699592,0.5700160604433185,148,135.4883237600353,0.004207123127841477,134e9,570016060.4433185,100,51.07929108366746
28,195.2890851918605,0.8360805623783993,102,196.1251657542389,0.004262994803155846,195e9,836080562.3783994,100,31.05952472811339
29,88.1868707047127,0.5229557629148233,226,88.70982646762752,0.005895127786160906,88e9,522955762.91482323,100,6.660918104913242
30,116.64463487192992,0.648190922727403,171,117.29282579465733,0.005526262312600265,116e9,648190922.7274029,100,113.38123909569167
31,78.49132827754558,0.39341784863823187,254,78.88474612618381,0.004987248713571592,78e9,393417848.6382319,100,38.33479427624928
32,77.19246810949889,0.055744742605646845,259,77.24821285210453,0.0007216314856678028,77e9,55744742.60564685,100,44.220013364505846
33,118.96911439353953,0.6043547908543144,168,119.57346918439384,0.005054254885942474,118e9,604354790.8543144,100,25.572466877212136
34,13.840536048648065,0.07779664740453687,1437,13.918332696052602,0.00558950911028308,13e9,77796647.40453687,100,4.302636023186782
35,104.6586806776192,0.49406475625267443,191,105.15274543387187,0.0046985435731050915,104e9,494064756.25267446,100,26.947941627866566
36,67.34741446656918,0.08594480757520932,297,67.43335927414438,0.0012745146986643254,67e9,85944807.57520932,100,20.606030536910144
37,194.04013059599163,1.1880835708990856,103,195.22821416689072,0.00608561408999753,194e9,1188083570.8990855,100,105.97864524174106
38,192.4192895032767,0.9416238849747911,104,193.3609133882515,0.004869773670773339,192e9,941623884.974791,100,151.27930924955243
39,26.617986569837374,0.003310484385434109,752,26.621297054222808,0.0001243547366866177,26e9,3310484.385434109,100,13.923784398584475
40,110.82316306238012,0.6684713705667188,180,111.49163443294684,0.005995708771932571,110e9,668471370.5667188,100,96.41750363575063
41,1320.3749952948335,2.852540787459938,16,1323.2275360822935,0.0021557447299695057,1320e9,2852540787.459938,1000,621.6515700871013
42,842.7321165741856,0.5512731983731883,24,843.2833897725588,0.0006537223489269387,842e9,551273198.3731884,1000,224.27033737716155
43,2013.191516982457,4.596474182961655,10,2017.7879911654186,0.002277976776096709,2013e9,4596474182.961656,1000,484.8252302527837
44,488.52926482931144,2.4173943223592396,41,490.9466591516707,0.0049239449485945505,488e9,2417394322.3592396,1000,111.27523936207179
45,2820.9717404274274,12.819097543551491,8,2833.790837970979,0.004523656923363506,2820e9,12819097543.55149,1000,2813.848208128186
46,1315.2665047737087,0.21964820976964838,16,1315.4861529834784,0.00016697113023310327,1315e9,219648209.76964837,1000,37.08381044820778
47,2019.1373608443832,3.0892996214472848,10,2022.2266604658305,0.001527672284142297,2019e9,3089299621.4472847,1000,600.4820448166154
48,548.3173954589456,2.118256156503074,37,550.4356516154487,0.0038483265941918914,548e9,2118256156.5030742,1000,94.88973504339393
49,1971.1995087899897,0.24783030081165924,11,1971.4473390908015,0.0001257098254148419,1971e9,247830300.81165925,1000,85.85691694209245
50,1493.7894684883654,7.447586067871042,14,1501.2370545562364,0.004960966054806407,1493e9,7447586067.871042,1000,843.0659551791786
51,1594.0573797215316,3.3979092539248086,13,1597.4552889754564,0.002127076280240739,1594e9,3397909253.9248085,1000,1128.5091407905297
52,1205.6080935852588,7.526090322072279,17,1213.1341839073311,0.006203839955965813,1205e9,7526090322.072279,1000,646.172933864575
53,1119.4102814134167,6.438450535731536,18,1125.8487319491483,0.005718752753387073,1119e9,6438450535.731536,1000,137.49061503011364
54,957.2126542770573,2.30393951926771,21,959.516593796325,0.0024011460918587964,957e9,2303939519.2677097,1000,810.492968278547
55,1719.9244402109475,6.881152401835275,12,1726.805592612783,0.003984902777285768,1719e9,6881152401.835276,1000,1232.3307669781495
56,2997.0197874742144,14.967646888842538,7,3011.9874343630568,0.004969359007969347,2997e9,14967646888.842537,1000,1268.818132897668
57,1622.221309361777,9.619186920703783,13,1631.8404962824807,0.005894685750609444,1622e9,9619186920.703783,1000,739.7456291481999
58,18.537141190450427,0.04231680477659127,1077,18.579457995227017,0.002277612446362121,18e9,42316804.77659127,1000,0.7925311300888375
59,900.1281266581806,5.217950020346628,23,905.3460766785272,0.005763486643129765,900e9,5217950020.346627,1000,156.70149361957306
60,1065.8156618436037,0.8906248924335096,19,1066.7062867360373,0.0008349298241774588,1065e9,890624892.4335096,1000,30.996414710050885
