app_id,Tcomp,Tio,iter,witer,alpha_io,compute_size,io_size,mu,desyn_time
1,6.519074601970996,0.008240302651279383,3065,6.527314904622275,0.0012624337528811527,6e9,8240302.651279382,10,6.476734788165018
2,7.497473853504783,0.03629154155451889,2655,7.5337653950593015,0.004817184986715827,7e9,36291541.55451889,10,2.321097055952536
3,14.06312421064316,0.012314488025838274,1421,14.075438698668998,0.0008748919511121708,14e9,12314488.025838275,10,5.013249165982101
4,8.268199943139498,0.02018886667022575,2414,8.288388809809724,0.002435801110866229,8e9,20188866.67022575,10,2.0689478883907557
5,9.896143412761528,0.02678560069126092,2016,9.922929013452789,0.002699364336371543,9e9,26785600.69126092,10,3.720147795292363
6,11.776104347736156,0.02049754503347595,1696,11.796601892769633,0.0017375804676463054,11e9,20497545.03347595,10,8.63535849346954
7,14.970596347175125,0.06739809712062257,1330,15.037994444295748,0.004481854104301002,14e9,67398097.12062258,10,2.494006178062877
8,9.273129329714523,0.03239701643527004,2150,9.305526346149794,0.0034814813509903677,9e9,32397016.43527004,10,5.1723994392665515
9,6.08330456598128,0.02904735588209769,3273,6.112351921863377,0.004752238786873135,6e9,29047355.88209769,10,5.239821213030093
10,25.770002507221566,0.006889508213295246,776,25.77689201543486,0.0002672745887739259,25e9,6889508.213295246,10,20.962803775323156
11,2.4709007800156484,0.0051965288500218495,8078,2.47609730886567,0.002098677152717573,2e9,5196528.850021849,10,0.16313263873973147
12,23.546272064147146,0.12185734422206532,846,23.66812940836921,0.005148583655241286,23e9,121857344.22206531,10,22.280270356630968
13,8.168465332560205,0.03123544845509272,2440,8.199700781015297,0.0038093400343841705,8e9,31235448.45509272,10,0.498281214573681
14,1.7689374523594126,0.010163939226645945,11242,1.7791013915860585,0.005712962327338102,1e9,10163939.226645945,10,1.7651014763073325
15,23.80393904377896,0.09242719742293612,837,23.896366241201896,0.0038678348201566307,23e9,92427197.42293613,10,1.8088809838855713
16,17.593699265991237,0.08830937259076882,1132,17.682008638582005,0.004994306608248028,17e9,88309372.59076881,10,15.773279734650584
17,13.770556796069686,0.07169729970424929,1445,13.842254095773935,0.005179597138455839,13e9,71697299.7042493,10,5.98099276791723
18,12.887820150479975,0.05878052248831142,1545,12.946600672968286,0.004540228278689523,12e9,58780522.48831142,10,3.48027874971948
19,2.4749097209644,0.008718883638957176,8053,2.483628604603357,0.003510542446965257,2e9,8718883.638957176,10,0.7450158481854812
20,16.700529369783915,0.057256930008024585,1194,16.75778629979194,0.003416735897195173,16e9,57256930.00802459,10,11.870451105319841
21,53.066660146133756,0.24140078701906328,376,53.30806093315282,0.004528410577938199,53e9,241400787.0190633,100,27.841288385911554
22,174.6850174423509,0.8341091514657181,114,175.51912659381662,0.004752240782259584,174e9,834109151.465718,100,27.156899014114778
23,185.71468784467186,0.16030491106097036,108,185.87499275573282,0.000862433986865757,185e9,160304911.06097037,100,90.4670708337507
24,117.51604797510248,0.27743321235911245,170,117.7934811874616,0.0023552509830114736,117e9,277433212.35911244,100,102.33583788907988
25,89.44951377269615,0.4456638982028449,223,89.89517767089899,0.0049575951652756555,89e9,445663898.2028449,100,47.766730536203106
26,197.38827213136582,1.0444808169014839,101,198.4327529482673,0.005263651294369669,197e9,1044480816.9014839,100,47.11042337578543
27,119.26800254905878,0.5781970441149094,167,119.8461995931737,0.004824492108032125,119e9,578197044.1149094,100,58.73854101837886
28,66.79018693031571,0.023834993805089574,300,66.81402192412081,0.0003567364023102582,66e9,23834993.805089574,100,51.40773293665763
29,107.52710441972162,0.22094139219094475,186,107.74804581191258,0.0020505373487387886,107e9,220941392.19094476,100,26.158276864924726
30,112.10506736017345,0.4739965927400242,178,112.57906395291347,0.004210344055962969,112e9,473996592.7400242,100,45.04887381759221
31,98.71631134198691,0.4184965074839378,202,99.13480784947085,0.004221489066881483,98e9,418496507.4839378,100,8.169972540599836
32,247.0338053038079,1.1725797227114791,81,248.20638502651937,0.004724212564419711,247e9,1172579722.7114792,100,241.29450512856872
33,106.04965822340189,0.4948722197317696,188,106.54453044313367,0.004644745419342753,106e9,494872219.73176956,100,86.54870942058723
34,170.66487712509223,0.45322834118654415,117,171.11810546627876,0.0026486287932626696,170e9,453228341.1865441,100,167.08765050407567
35,48.725419606065834,0.2490655445356201,409,48.97448515060145,0.005085618435185558,48e9,249065544.5356201,100,13.750107129254955
36,151.62405082862466,0.19878885300151755,132,151.8228396816262,0.0013093474830162544,151e9,198788853.00151756,100,64.49689396283486
37,79.21494649293574,0.3406468121453172,252,79.55559330508106,0.004281871305251906,79e9,340646812.1453172,100,71.43545050502699
38,110.90006604605966,0.1178298819860649,181,111.01789592804573,0.0010613593511305081,110e9,117829881.9860649,100,37.021085053148404
39,91.28535738787627,0.26720080506612315,219,91.5525581929424,0.002918550943197141,91e9,267200805.06612316,100,41.93414798805732
40,53.84202761976349,0.08918189237849863,371,53.93120951214199,0.0016536230725257583,53e9,89181892.37849863,100,45.40076210756748
41,1365.5653368447333,3.9091721898267067,15,1369.47450903456,0.002854505260256768,1365e9,3909172189.826707,1000,586.7035174932037
42,330.87437645739277,0.16954185156399734,61,331.0439183089568,0.0005121430788701795,330e9,169541851.56399733,1000,44.28651424965799
43,6.247751407582655,0.0046829253577698,3199,6.252434332940425,0.000748976336000556,6e9,4682925.3577698,1000,6.188056608946052
44,2390.5811696509436,3.6132016541706387,9,2394.194371305114,0.0015091513443835488,2390e9,3613201654.1706386,1000,1466.8117646824976
45,1634.5554232223728,2.369607820631042,13,1636.9250310430039,0.0014475970344965602,1634e9,2369607820.631042,1000,1355.9621796288843
46,1501.9110164522617,5.33152109148005,14,1507.2425375437417,0.003537268195846233,1501e9,5331521091.48005,1000,1067.021429388002
47,1994.1277062654783,9.943428732194452,10,2004.0711349976727,0.00496161466454433,1994e9,9943428732.194452,1000,1682.4114517255837
48,25.62016140846642,0.0835388788720884,779,25.703700287338506,0.003250072088384845,25e9,83538878.8720884,1000,4.545949539109507
49,2357.6073705321655,13.4622913061236,9,2371.069661838289,0.00567772913752618,2357e9,13462291306.1236,1000,1478.0247256944658
50,335.9548006121818,1.8723259453152323,60,337.8271265574971,0.0055422605176632216,335e9,1872325945.3152323,1000,110.25419456680895
51,1891.78525563153,9.211093981850226,11,1900.99634961338,0.004845403297972432,1891e9,9211093981.850225,1000,1601.2584592781798
52,342.90498714200527,1.3988375577018408,59,344.3038246997071,0.004062799938170512,342e9,1398837557.7018409,1000,174.99188334570394
53,658.4120882618449,0.9142659674991688,31,659.3263542293441,0.0013866668026152416,658e9,914265967.4991688,1000,282.69749103022303
54,418.69329202624493,2.4242459614445937,48,421.1175379876895,0.005756696747964606,418e9,2424245961.444594,1000,295.4571858610759
55,2084.199165618816,10.09449018721316,10,2094.293655806029,0.004819997500936945,2084e9,10094490187.21316,1000,1048.8649105945349
56,1148.11524721186,2.67785989315288,18,1150.7931071050127,0.002326969006522315,1148e9,2677859893.1528797,1000,101.38407854203568
57,824.8345669196835,3.4448448883172533,25,828.2794118080008,0.004159037203155528,824e9,3444844888.317253,1000,306.9331617955547
58,1499.781297539694,1.888238786813594,14,1501.6695363265076,0.001257426311938604,1499e9,1888238786.8135939,1000,1303.9958223666029
59,80.70423030779415,0.37576661659607946,247,81.07999692439023,0.004634516907375986,80e9,375766616.59607947,1000,5.911464519010128
60,1040.7092317589816,0.9469860116550638,20,1041.6562177706367,0.0009091156904739771,1040e9,946986011.6550637,1000,624.4269172107964
