app_id,Tcomp,Tio,iter,witer,alpha_io,compute_size,io_size,mu,desyn_time
1,21.09293849747889,0.07086441959377843,946,21.16380291707267,0.0033483783548472128,21e9,70864419.59377843,10,18.49445396590291
2,8.84539691988066,0.05791674462625503,2247,8.903313664506914,0.006505077413720726,8e9,57916744.626255035,10,8.87788557408865
3,21.740769245392446,0.050597736074215985,918,21.791366981466663,0.002321916569862223,21e9,50597736.074215986,10,18.696227185139694
4,6.373757879110463,0.0015071990276584527,3138,6.3752650781381215,0.00023641354660324586,6e9,1507199.0276584527,10,6.246272402129505
5,22.35773783340761,0.08857231149078515,892,22.446310144898398,0.003945963096786127,22e9,88572311.49078515,10,22.44321061150693
6,11.704974526277747,0.05421781015587149,1701,11.759192336433617,0.004610674662399043,11e9,54217810.15587149,10,1.3707554295747915
7,17.86052671473042,0.10302782316940873,1114,17.963554537899828,0.0057353806537586306,17e9,103027823.16940872,10,3.3203253031071918
8,19.390904819872066,0.000988425694462508,1032,19.39189324556653,5.0971077550072975e-05,19e9,988425.694462508,10,18.80261882458865
9,13.94105604490442,0.08132288970448186,1427,14.022378934608902,0.005799507350622745,13e9,81322889.70448186,10,4.9405498110457104
10,16.925666396737704,0.03561328810151407,1180,16.96127968483922,0.002099681672801309,16e9,35613288.10151407,10,15.339920233743392
11,4.045321193475831,0.0030800046156997875,4941,4.048401198091531,0.0007607953028844429,4e9,3080004.6156997876,10,3.2715049152591082
12,1.3800809113638068,0.005419454914156196,14436,1.385500366277963,0.003911550690322178,1e9,5419454.914156196,10,0.5680927789300877
13,11.703328073278866,0.06646394931736913,1700,11.769792022596235,0.005646994372523178,11e9,66463949.317369126,10,7.168144678191026
14,10.782982815050282,0.05429785431383645,1846,10.837280669364118,0.005010284034382437,10e9,54297854.31383645,10,2.13298948118118
15,14.20860438312272,0.05441919802075838,1403,14.263023581143479,0.00381540405589062,14e9,54419198.02075838,10,9.657891550224148
16,22.887147535715105,0.04518346446342251,873,22.93233100017853,0.0019702953207447927,22e9,45183464.46342251,10,22.87594253598443
17,16.96298643189735,0.04043420249096372,1177,17.003420634388313,0.0023780040122743404,16e9,40434202.49096372,10,5.866867623890559
18,8.682182719719863,0.003912292302910414,2303,8.686095012022774,0.0004504086470957609,8e9,3912292.302910414,10,4.635996770223784
19,10.736031043725246,0.004379785737641367,1863,10.740410829462888,0.00040778568037889415,10e9,4379785.737641367,10,8.01574794519245
20,2.094217460924299,0.007050820849240359,9519,2.1012682817735397,0.003355507200293926,2e9,7050820.849240359,10,0.10821843029152331
21,85.91302899048239,0.040968195276433576,233,85.95399718575882,0.000476629320541027,85e9,40968195.27643358,100,20.428187510766435
22,82.60961718860845,0.0010681328564152502,243,82.61068532146487,1.292971789616319e-05,82e9,1068132.85641525,100,71.29623445748749
23,78.18119897040687,0.10794483325263561,256,78.2891438036595,0.0013787969571279167,78e9,107944833.25263561,100,73.011665831166
24,69.82297555293385,0.31833649162565497,286,70.14131204455951,0.004538502094506324,69e9,318336491.625655,100,48.215812729817685
25,117.31736815658347,0.5370046167612551,170,117.85437277334472,0.004556509903913469,117e9,537004616.7612551,100,6.193967599700839
26,43.30470739207629,0.11153890822657266,461,43.41624630030286,0.002569059228544928,43e9,111538908.22657266,100,36.90523756629098
27,251.25438072095474,1.1728693854834251,80,252.42725010643818,0.004646365972726298,251e9,1172869385.4834251,100,213.00214724805463
28,94.00844838783314,0.42172342359630305,212,94.43017181142945,0.004465981746156892,94e9,421723423.59630305,100,63.32855809582106
29,190.46124088222746,0.6894192346943744,105,191.15066011692184,0.003606679852806549,190e9,689419234.6943744,100,149.7581984332075
30,158.5575118114287,0.44670591483707606,126,159.00421772626578,0.0028093966388118338,158e9,446705914.83707607,100,107.59020985210856
31,159.93426432784736,0.5314464509661794,125,160.46571077881353,0.003311900395335717,159e9,531446450.9661794,100,120.3050669342798
32,75.65142911125503,0.12277571456166826,264,75.7742048258167,0.0016202837739293292,75e9,122775714.56166826,100,36.69339372177401
33,27.503446197735983,0.1455224397876987,724,27.64896863752368,0.005263214035050969,27e9,145522439.7876987,100,13.909779221806572
34,165.14083095433696,0.38969097672979125,121,165.53052193106674,0.0023541940917220904,165e9,389690976.7297912,100,139.5792608527313
35,165.52549019435548,0.11525529855853377,121,165.64074549291402,0.0006958148987772112,165e9,115255298.55853377,100,147.03727541494254
36,135.87410519385722,0.48720105063699254,147,136.36130624449422,0.0035728687562104075,135e9,487201050.6369925,100,118.91259132661038
37,201.44880222845407,1.0167457910799835,99,202.46554801953405,0.005021821248234722,201e9,1016745791.0799835,100,94.77968610529301
38,93.23988260715672,0.6025663831940818,214,93.8424489903508,0.006421042818863772,93e9,602566383.1940819,100,11.915568412618569
39,3.6138617730871734,0.004833545379504184,5527,3.6186953184666777,0.0013357149342852841,3e9,4833545.379504184,100,2.2840662874180793
40,36.08016626501847,0.22478826699438326,551,36.30495453201285,0.006191669150726254,36e9,224788266.99438325,100,31.463903916961932
41,1531.8320777641509,6.068536872137396,14,1537.9006146362883,0.003945987675915324,1531e9,6068536872.137396,1000,952.4978776792892
42,1372.3088704293386,6.073151006979186,15,1378.382021436318,0.004405999869797177,1372e9,6073151006.979186,1000,1050.2408904623217
43,835.4297857397543,2.043515845579657,24,837.473301585334,0.002440096707215966,835e9,2043515845.579657,1000,511.16888280042997
44,616.2083738398775,1.1835391137436253,33,617.3919129536212,0.0019169980832459228,616e9,1183539113.7436254,1000,359.70168872686327
45,1463.7823573811702,3.506632296430582,14,1467.2889896776007,0.002389871607501856,1463e9,3506632296.430582,1000,483.8451364274397
46,1438.696436412639,3.253202487306646,14,1441.9496388999457,0.002256113805603151,1438e9,3253202487.306646,1000,1428.799887378642
47,1436.4635616750259,8.697163492183696,14,1445.1607251672096,0.006018128877102862,1436e9,8697163492.183697,1000,1397.857991692965
48,1897.12534715771,12.505894354752499,11,1909.6312415124623,0.006548853036593393,1897e9,12505894354.752499,1000,17.13752330867552
49,1795.971083193687,7.6203390244636,12,1803.5914222181507,0.004225091631391609,1795e9,7620339024.463599,1000,625.1922427978365
50,2858.3452369821343,0.7326855406211195,7,2859.0779225227557,0.0002562663769494684,2858e9,732685540.6211195,1000,2433.4211270005017
51,842.7099968649671,3.2087517068005873,24,845.9187485717678,0.00379321502475052,842e9,3208751706.800587,1000,116.66320726920787
52,1205.669608337269,3.944850279595445,17,1209.6144586168643,0.0032612459709734213,1205e9,3944850279.595445,1000,90.57736431313863
53,1281.6895559838206,6.721872225338543,16,1288.411428209159,0.005217178362568298,1281e9,6721872225.338543,1000,1118.6305016752772
54,531.4668821947713,0.2948364666837252,38,531.761718661455,0.000554452222371111,531e9,294836466.6837252,1000,454.66522996463067
55,1228.9862906454944,1.8264812286540375,17,1230.8127718741484,0.0014839634998854209,1228e9,1826481228.6540375,1000,548.8433886264195
56,706.2331930988347,4.508818827045031,29,710.7420119258798,0.006343819207798901,706e9,4508818827.045032,1000,564.3102098731398
57,575.2740427433974,2.1079501489168466,35,577.3819928923143,0.0036508761528175914,575e9,2107950148.9168465,1000,133.91979262606634
58,1353.1521222082329,6.437016591214111,15,1359.589138799447,0.004734530754561754,1353e9,6437016591.214111,1000,1102.9784310105592
59,683.1639140746988,2.3730705531348524,30,685.5369846278337,0.003461622941354728,683e9,2373070553.1348524,1000,458.0547388788098
60,339.8821307922434,2.0121569268860897,59,341.89428771912947,0.0058853189396925595,339e9,2012156926.8860898,1000,178.93644984449787
