app_id,Tcomp,Tio,iter,witer,alpha_io,compute_size,io_size,mu,desyn_time
1,5.455749948279114,0.036081679943416926,3642,5.49183162822253,0.006570063029243855,5e9,36081679.94341692,10,3.3355015746700367
2,10.414193885590755,0.016662207043131223,1918,10.430856092633887,0.001597395927540197,10e9,16662207.043131223,10,9.299042932090295
3,2.8981987608021633,0.01796609280111302,6859,2.9161648536032763,0.006160863223803595,2e9,17966092.80111302,10,1.6873060780288613
4,8.821685926826374,0.008415719437450698,2265,8.830101646263826,0.0009530716377440048,8e9,8415719.437450698,10,7.6597342328924665
5,14.753204096367861,0.003191898442855911,1356,14.756395994810717,0.00021630609831685085,14e9,3191898.4428559113,10,12.834161152409024
6,3.273396339525532,0.005748517337329982,6100,3.279144856862862,0.001753053795503732,3e9,5748517.337329983,10,2.6471348129077175
7,10.93602326952285,0.0628471384640131,1819,10.998870407986864,0.005713962991906556,10e9,62847138.4640131,10,4.198993654086542
8,8.204572557803738,0.036808990254153774,2427,8.241381548057891,0.004466361621472062,8e9,36808990.25415377,10,4.163871403524169
9,11.144567002176672,0.0010355895049263177,1795,11.145602591681598,9.291462676941477e-05,11e9,1035589.5049263177,10,6.036459798577782
10,11.251242900215951,0.043937010235496406,1771,11.295179910451447,0.003889890252641432,11e9,43937010.23549641,10,3.6921773208274073
11,32.27809481854337,0.1452073790624202,617,32.42330219760579,0.0044784882852907755,32e9,145207379.06242022,10,14.890093253535028
12,9.978548570028787,0.007014743920393622,2003,9.98556331394918,0.0007024885527083367,9e9,7014743.920393622,10,3.1080599580282486
13,2.5744957227094165,0.006848028908145739,7748,2.5813437516175624,0.0026528930538036706,2e9,6848028.908145739,10,0.5316385285701223
14,20.249487652501376,0.09408865151437294,984,20.34357630401575,0.004624980883808526,20e9,94088651.51437294,10,0.08054646356510628
15,14.081283158278275,0.08998170551157238,1412,14.171264863789848,0.0063495888600242,14e9,89981705.51157238,10,8.278877496663375
16,4.899973345126787,0.032961516428738805,4055,4.932934861555526,0.006681928173352139,4e9,32961516.428738806,10,1.565558437608495
17,4.711755445521346,0.027338386749808388,4221,4.739093832271155,0.005768694969415026,4e9,27338386.74980839,10,1.1871324402671406
18,20.35448680612945,0.040576348502035585,981,20.395063154631487,0.0019895181590953376,20e9,40576348.50203559,10,5.199076264049208
19,11.094371996179795,0.05118374832831827,1795,11.145555744508114,0.0045923011379256405,11e9,51183748.32831827,10,3.641940568683395
20,14.880878961852936,0.09545873653104604,1336,14.976337698383983,0.006373970623094756,14e9,95458736.53104605,10,9.886364587191887
21,116.93538889943433,0.5020353500953671,171,117.4374242495297,0.004274917925895991,116e9,502035350.09536713,100,66.62303691071216
22,106.81535250822043,0.5143688955224218,187,107.32972140374285,0.004792418062723906,106e9,514368895.52242184,100,68.75555946568689
23,185.49793476663984,0.8617259728920745,108,186.35966073953193,0.004623994106194888,185e9,861725972.8920746,100,171.94485990542753
24,151.17152246451397,0.9850965520390329,132,152.156619016553,0.006474227400727568,151e9,985096552.0390329,100,122.9461017089811
25,23.73139442051181,0.15599792183381336,838,23.88739234234562,0.006530554679142309,23e9,155997921.83381337,100,5.298813312518369
26,81.55624784177965,0.18959501579579208,245,81.74584285757544,0.002319323028158394,81e9,189595015.79579207,100,57.19368893504856
27,29.755150822998328,0.07132222140159018,671,29.82647304439992,0.0023912388600361625,29e9,71322221.40159018,100,29.82416210301545
28,55.05006288169452,0.3592441751287503,361,55.40930705682327,0.0064834626926544795,55e9,359244175.12875026,100,19.53641437811789
29,41.68606680950288,0.24442137088236898,477,41.930488180385254,0.005829204034803185,41e9,244421370.88236898,100,21.58308060569262
30,108.74859872039026,0.04820777025014252,184,108.7968064906404,0.00044309912951617515,108e9,48207770.25014252,100,88.51711323521958
31,336.9814538584209,0.7099077047129582,60,337.69136156313385,0.002102238272921399,336e9,709907704.7129582,100,68.66039700840993
32,129.24335781946345,0.4128322476084619,155,129.65619006707192,0.0031840535141045043,129e9,412832247.60846186,100,119.18947381142749
33,132.93907698635277,0.16677702216298243,151,133.10585400851576,0.0012529653440510023,132e9,166777022.16298243,100,57.504178600719364
34,197.55017082851765,0.08166967116903802,102,197.6318404996867,0.00041324146434373513,197e9,81669671.16903801,100,82.47921615583743
35,63.25709599012144,0.29224569356250535,315,63.54934168368395,0.004598721022432532,63e9,292245693.56250536,100,42.454646619322396
36,192.78812210126998,0.07552296431416078,104,192.86364506558414,0.00039158735327479087,192e9,75522964.31416078,100,172.06610833203302
37,37.82640521937913,0.059773798663953506,528,37.88617901804309,0.0015777204303312445,37e9,59773798.663953505,100,23.287865452977094
38,193.23081341677963,0.815774522841685,104,194.0465879396213,0.004204013744861713,193e9,815774522.8416849,100,156.87490154812448
39,129.44101175127668,0.2199418298666217,155,129.6609535811433,0.0016962842227516057,129e9,219941829.8666217,100,109.56183070602945
40,159.16496742736868,0.5005365144130421,126,159.6655039417817,0.003134907052907002,159e9,500536514.4130421,100,110.32413417758721
41,1506.3193663520549,6.519001818630171,14,1512.838368170685,0.004309119834469103,1506e9,6519001818.630171,1000,1467.256466518242
42,1548.0087026493077,7.275293982441002,13,1555.2839966317488,0.004677791321840242,1548e9,7275293982.441002,1000,153.10354182039381
43,1105.933292493874,1.8696513378514634,19,1107.8029438317255,0.0016877111116753469,1105e9,1869651337.8514633,1000,1002.2339012257231
44,1824.898948167424,4.816153860785536,11,1829.7151020282095,0.002632187850145035,1824e9,4816153860.785536,1000,126.92307881977044
45,1899.2147566610345,6.7111820572249306,11,1905.9259387182594,0.0035212187005221303,1899e9,6711182057.224931,1000,838.7871783979458
46,832.2189275393692,3.5686851225794602,24,835.7876126619487,0.004269846870801718,832e9,3568685122.57946,1000,395.56952990442886
47,733.7630125741566,3.56140911271222,28,737.3244216868688,0.00483017923719974,733e9,3561409112.7122197,1000,446.7240657282909
48,1725.8479110265357,0.15153286444680003,12,1725.9994438909825,8.779427188295846e-05,1725e9,151532864.44680002,1000,1550.1738834641626
49,2667.735743116554,16.98570304728343,8,2684.7214461638378,0.006326802756969097,2667e9,16985703047.28343,1000,715.6542565268077
50,1002.6111507494189,1.103950099796293,20,1003.7151008492152,0.0010998639941376509,1002e9,1103950099.796293,1000,770.3203665414084
51,16.757184348200656,0.020147201654377354,1193,16.777331549855035,0.0012008585271447078,16e9,20147201.654377356,1000,14.958247565651991
52,1759.7980204734884,11.20866234572647,12,1771.0066828192148,0.006328978006951234,1759e9,11208662345.72647,1000,1243.5554528166795
53,1126.246949688111,1.80834655990758,18,1128.0552962480185,0.0016030655287220868,1126e9,1808346559.9075801,1000,325.1758683193652
54,2275.382961197064,14.4752200679745,9,2289.8581812650386,0.006321448282870349,2275e9,14475220067.974499,1000,1103.6366716231125
55,244.69651133564534,1.071942731398538,82,245.76845406704388,0.00436159610259061,244e9,1071942731.3985379,1000,33.32176038773372
56,1189.7468718231007,0.6437210499609075,17,1190.3905928730617,0.000540764564013613,1189e9,643721049.9609075,1000,756.5418087239575
57,2273.838346184502,0.4855306532040398,9,2274.323876837706,0.00021348351400115337,2273e9,485530653.2040398,1000,1360.120109923844
58,2131.308300735726,2.300286297994333,10,2133.60858703372,0.0010781200975537595,2131e9,2300286297.9943333,1000,1255.2422351108903
59,327.57079163612303,0.31531575941307205,61,327.8861073955361,0.0009616624562647293,327e9,315315759.41307205,1000,257.5008633222595
60,2031.5951994584927,3.256981806798938,10,2034.8521812652916,0.0016005987249519589,2031e9,3256981806.798938,1000,1444.9457081633195
