app_id,Tcomp,Tio,iter,witer,alpha_io,compute_size,io_size,mu,desyn_time
1,13.570743632329261,0.06222874059022536,1468,13.632972372919486,0.00456457615316792,13e9,62228740.59022536,10,3.388053410955057
2,8.0741205302936,0.027888804919410794,2469,8.10200933521301,0.003442208440590197,8e9,27888804.919410795,10,2.461207229702832
3,8.42554544511901,0.002691135493505241,2373,8.428236580612515,0.00031929994700144796,8e9,2691135.493505241,10,2.122934785476728
4,18.41814271673267,0.05117188186867136,1083,18.469314598601343,0.0027706432523785444,18e9,51171881.86867136,10,6.570752555302689
5,12.230486612541977,0.051652972385285455,1629,12.282139584927263,0.004205535365244862,12e9,51652972.38528545,10,6.292595144389129
6,27.21260186153878,0.010141843930238719,735,27.222743705469018,0.00037255039535934924,27e9,10141843.930238718,10,20.04507072973104
7,26.78221668565416,0.04393286609208597,746,26.826149551746244,0.001637688107543789,26e9,43932866.09208597,10,24.759025236139323
8,15.1846952078056,0.09023503031327408,1310,15.274930238118873,0.005907393939390366,15e9,90235030.31327409,10,14.965589568163068
9,3.7715587478984602,0.004992059501809222,5296,3.7765508074002696,0.0013218568361445383,3e9,4992059.501809222,10,1.8531173927357594
10,2.4102932989275088,0.014894331521921966,8247,2.4251876304494306,0.006141517190223249,2e9,14894331.521921966,10,0.15071300329842807
11,13.908264131539399,0.08577707545146171,1430,13.994041206990861,0.0061295428663316305,13e9,85777075.4514617,10,1.036367555806629
12,8.270980114835195,0.04807100374356638,2405,8.319051118578761,0.005778423892144433,8e9,48071003.74356639,10,5.395349823105672
13,30.32585419493988,0.06359188062399716,659,30.389446075563875,0.0020925646510921874,30e9,63591880.62399716,10,16.891833146772758
14,23.804718673440814,0.09848417784493987,837,23.903202851285755,0.004120124757241158,23e9,98484177.84493987,10,17.140646131121983
15,2.853817537065629,0.0106142753722404,6983,2.8644318124378696,0.0037055430421318947,2e9,10614275.3722404,10,0.479895935173973
16,6.502848359779162,0.017145313635925294,3068,6.519993673415088,0.002629651882306935,6e9,17145313.635925293,10,6.349543943446899
17,13.515334620515432,0.03137114688666889,1477,13.5467057674021,0.0023157767966111987,13e9,31371146.886668887,10,6.728889760317188
18,15.457594554948162,0.00504677426689846,1294,15.46264132921506,0.00032638500495792415,15e9,5046774.266898461,10,6.4776541880897005
19,16.461682309610918,0.016467678540046795,1214,16.478149988150964,0.0009993645252584968,16e9,16467678.540046794,10,14.70678976260924
20,3.7554580679013227,0.0010545112501613308,5325,3.756512579151484,0.00028071548489251233,3e9,1054511.250161331,10,2.108671316961898
21,234.8017400162038,0.9996834444148394,85,235.80142346061865,0.004239514035765764,234e9,999683444.4148394,100,40.39807267346865
22,224.36153340306038,1.1818956696892802,89,225.54342907274966,0.005240213268674107,224e9,1181895669.6892803,100,97.55060523208546
23,196.7448312953296,1.1232436925804272,102,197.86807498791,0.005676730279248226,196e9,1123243692.5804272,100,144.24754470978348
24,262.6968191382969,0.46293130917445574,76,263.15975044747137,0.0017591265700294097,262e9,462931309.17445576,100,46.09328892594455
25,22.78395219623722,0.09296267344452237,875,22.87691486968174,0.00406360184378374,22e9,92962673.44452237,100,21.60350810951235
26,1.410890427097675,0.004065777145393787,14135,1.4149562042430688,0.002873429674502735,1e9,4065777.145393787,100,0.6503918378737396
27,103.43535677725822,0.20155952084289594,193,103.63691629810111,0.0019448621981681736,103e9,201559520.84289593,100,101.22969665949991
28,98.13910169686905,0.3482384786408696,204,98.48734017550991,0.003535870478584245,98e9,348238478.6408696,100,74.86685060044891
29,81.56775841846535,0.24190175382472368,245,81.80966017229007,0.0029568849609603776,81e9,241901753.82472366,100,68.72646801534087
30,43.48611899341652,0.12907206550581668,459,43.615191058922335,0.0029593373861745926,43e9,129072065.50581668,100,32.10053447051061
31,148.55810555512596,0.7797648002328118,134,149.33787035535877,0.0052214806490631805,148e9,779764800.2328118,100,98.97925310607074
32,108.25500102710774,0.20674912802133996,185,108.46175015512908,0.001906193913758849,108e9,206749128.02133995,100,87.06582289775186
33,120.95671042643944,0.7490734886126696,165,121.70578391505211,0.006154789563127962,120e9,749073488.6126697,100,59.34326335771438
34,124.65963348602835,0.5632448293717744,160,125.22287831540012,0.004497938690988431,124e9,563244829.3717744,100,24.037769285801815
35,69.93099414221373,0.2620041709026879,285,70.19299831311642,0.0037326254355732405,69e9,262004170.9026879,100,50.349444209982536
36,154.68488367538438,0.7672222847759753,129,155.45210596016037,0.004935425480646759,154e9,767222284.7759753,100,119.4004420728407
37,30.46604828439856,0.01255059317507219,657,30.47859887757363,0.0004117837970664395,30e9,12550593.17507219,100,17.892277668789728
38,96.5609496503853,0.06548470962472944,207,96.62643436001002,0.0006777100910165744,96e9,65484709.62472944,100,18.359605330839855
39,170.68701276030419,0.5285894088287454,117,171.21560216913292,0.0030872736020084533,170e9,528589408.82874537,100,94.28333150713482
40,216.83685183564344,0.4607893207134794,93,217.29764115635692,0.002120544513329151,216e9,460789320.7134794,100,104.24339124165624
41,1427.1115249122086,7.710779592344352,14,1434.822304504553,0.005374031033764073,1427e9,7710779592.344352,1000,888.3685897257981
42,2545.7376750824146,14.886124981244272,8,2560.623800063659,0.005813475990059216,2545e9,14886124981.244272,1000,199.78756774918693
43,439.6439223112534,0.32567532665379456,46,439.9695976379072,0.0007402223435488916,439e9,325675326.6537946,1000,114.307994568022
44,968.6065600885978,5.63372520159695,21,974.2402852901947,0.005782685531135519,968e9,5633725201.59695,1000,46.26777177100602
45,72.00266957708564,0.034496522752272094,278,72.03716609983792,0.0004788711802524629,72e9,34496522.75227209,1000,14.701991598771604
46,1585.1766233070882,6.804338340071965,13,1591.9809616471603,0.004274132985253657,1585e9,6804338340.071965,1000,421.3425418419029
47,2324.558591656922,6.4907049484302615,9,2331.0492966053525,0.0027844563209720656,2324e9,6490704948.430262,1000,1304.7257305850515
48,610.9344936008861,1.3056259776955466,33,612.2401195785816,0.0021325390740388555,610e9,1305625977.6955466,1000,410.60605047752045
49,807.673152915608,1.3862489958339803,25,809.0594019114419,0.0017134081781373532,807e9,1386248995.8339803,1000,402.2464954184981
50,588.0710488748023,3.6718701740111253,34,591.7429190488134,0.006205178052512073,588e9,3671870174.011125,1000,315.11037773403604
51,1969.817608178874,0.19941691313014556,11,1970.0170250920041,0.0001012259846438801,1969e9,199416913.13014555,1000,112.40557069878669
52,1385.095362863756,5.375091097641967,15,1390.4704539613979,0.0038656636552963316,1385e9,5375091097.641967,1000,976.1822532829896
53,1226.0471656575564,6.711060679973699,17,1232.7582263375302,0.005443939076287458,1226e9,6711060679.9737,1000,911.2775372985329
54,1681.4136883071878,0.12469974299889133,12,1681.5383880501868,7.415813036744635e-05,1681e9,124699742.99889134,1000,159.14599386749464
55,411.9210096604012,0.6363160914876487,49,412.5573257518888,0.0015423701186931,411e9,636316091.4876487,1000,113.55512876664227
56,1201.3763600807017,6.906090232111027,17,1208.2824503128127,0.005715625705167784,1201e9,6906090232.111027,1000,942.7131273138583
57,777.3435714288796,4.283424457870555,26,781.6269958867501,0.0054801388391288106,777e9,4283424457.870555,1000,29.68148560794359
58,1283.9513577568216,6.317815802987857,16,1290.2691735598094,0.004896509916265933,1283e9,6317815802.987857,1000,548.3036467478154
59,380.06109743393284,1.9778727466789001,53,382.0389701806117,0.005177149194344876,380e9,1977872746.6789,1000,28.143527365317734
60,610.2532693189303,3.280885999148762,33,613.534155318079,0.005347519727647156,610e9,3280885999.148762,1000,592.4375823973525
