app_id,Tcomp,Tio,iter,witer,alpha_io,compute_size,io_size,mu,desyn_time
1,13.02748003327084,0.051977115505378695,1530,13.079457148776218,0.003973950517529082,13e9,51977115.50537869,10,4.835409277993134
2,17.73697194546513,0.01994307578234656,1127,17.756915021247476,0.001123116023165239,17e9,19943075.78234656,10,8.348273994526146
3,22.06309449507684,0.03846825526293358,905,22.101562750339774,0.0017405219575408618,22e9,38468255.262933575,10,19.706815038482937
4,2.7310089222686296,0.013556933387069509,7288,2.744565855655699,0.004939554778448064,2e9,13556933.387069508,10,0.12122658516639827
5,20.665160839736295,0.0861616724290862,964,20.75132251216538,0.0041521051190146685,20e9,86161672.42908621,10,12.971168594055056
6,8.444817985481462,0.011854467591099553,2365,8.456672453072562,0.0014017886653269244,8e9,11854467.591099553,10,3.5180511153052785
7,18.775724529715752,0.01892571097197664,1065,18.79465024068773,0.0010069732998279042,18e9,18925710.97197664,10,15.311395295383361
8,3.425346599205821,0.02396575133984842,5799,3.4493123505456698,0.006947979453370501,3e9,23965751.33984842,10,3.113916662439509
9,17.046708469984143,0.057273767590100694,1170,17.103982237574243,0.003348563322539061,17e9,57273767.59010069,10,13.796121468816192
10,15.326751744702674,0.053257698099075025,1301,15.38000944280175,0.0034627870871692494,15e9,53257698.09907503,10,6.336343964469626
11,8.461810138129051,0.04035318524034942,2353,8.5021633233694,0.004746225602304413,8e9,40353185.24034942,10,2.8451159543898203
12,5.773201641733234,0.029880181725005648,3447,5.80308182345824,0.005149019544101328,5e9,29880181.72500565,10,5.477427747372441
13,11.42619606915277,0.05554026585646561,1742,11.481736335009236,0.0048372706214404575,11e9,55540265.856465615,10,6.913138118173516
14,8.70063016203215,0.05134557536717828,2286,8.751975737399327,0.005866741054567383,8e9,51345575.367178276,10,5.16931933722317
15,8.836089633541922,0.008625329268556407,2262,8.844714962810478,0.0009751958434865877,8e9,8625329.268556407,10,2.9483993170667793
16,14.419717630051435,0.016239408496093115,1386,14.435957038547528,0.001124927737920661,14e9,16239408.496093115,10,1.8517201058144404
17,21.533208620646352,0.0499627194333367,927,21.583171340079687,0.0023148924060365744,21e9,49962719.433336705,10,15.9517004432952
18,4.720717250471376,0.00864455498120244,4229,4.729361805452578,0.0018278480980744494,4e9,8644554.981202438,10,1.157880077768773
19,17.912051077508323,0.07624474670214533,1112,17.988295824210468,0.004238575318487227,17e9,76244746.70214532,10,16.88177412301003
20,5.922708480206583,0.029324976221789003,3361,5.952033456428372,0.004926883633376953,5e9,29324976.221789002,10,5.732410439656803
21,50.53031564715944,0.09796552285105976,396,50.6282811700105,0.0019349960256815773,50e9,97965522.85105976,100,34.927041460914815
22,114.56282205299742,0.06150769937161424,175,114.62432975236904,0.0005366024778901096,114e9,61507699.37161424,100,71.75272041767101
23,86.36505492662333,0.43087451746983324,231,86.79592944409316,0.004964224938075781,86e9,430874517.46983325,100,56.683909832307066
24,54.25824885273018,0.2660262933926992,367,54.52427514612288,0.00487904319094127,54e9,266026293.39269918,100,14.439655195239808
25,7.675650548236019,0.04249584977985602,2592,7.718146398015875,0.0055059657576306854,7e9,42495849.77985602,100,4.872055067833645
26,91.6537572750411,0.5259021599419497,217,92.17965943498305,0.0057051866232255225,91e9,525902159.94194967,100,83.67598587502631
27,133.28332914401602,0.06447830815294638,150,133.34780745216898,0.00048353482059368944,133e9,64478308.152946375,100,85.51730747162618
28,172.2300394018387,0.08241024756076472,117,172.31244964939947,0.0004782605535957682,172e9,82410247.56076472,100,61.910426462002896
29,17.05536379921481,0.04824656407664279,1170,17.103610363291452,0.00282084092491909,17e9,48246564.07664279,100,4.673152833491635
30,185.3754632954695,0.49756425765072243,108,185.8730275531202,0.0026769040360550686,185e9,497564257.65072244,100,133.78633969160063
31,144.26396520485434,0.6434572558338761,139,144.90742246068822,0.0044404713361625,144e9,643457255.8338761,100,92.36295660869303
32,73.00817023196791,0.5230562489004966,272,73.53122648086841,0.007113389425601204,73e9,523056248.9004966,100,9.591796105044024
33,157.79990753175326,0.5678395630494149,127,158.36774709480267,0.0035855758098869255,157e9,567839563.0494149,100,64.88431256874907
34,33.45641521420973,0.015476879883279162,598,33.47189209409301,0.0004623843743213567,33e9,15476879.883279162,100,20.68024934419699
35,167.9880133275275,0.525389029270538,119,168.51340235679805,0.0031177877956443927,167e9,525389029.270538,100,82.52584439605522
36,88.31463303603397,0.4322157242527879,226,88.74684876028675,0.004870209255770214,88e9,432215724.25278795,100,41.63988325840514
37,9.162312659279777,0.007037801299518587,2182,9.169350460579295,0.0007675354246492567,9e9,7037801.299518587,100,3.2473983324779385
38,158.77489010226802,0.12908070245198508,126,158.90397080472,0.0008123189231728812,158e9,129080702.45198508,100,122.67402522513581
39,69.38037262834614,0.037615844006137086,289,69.41798847235228,0.0005418745894822159,69e9,37615844.00613709,100,52.10161118149398
40,135.9408960258533,0.8630485484847654,147,136.80394457433806,0.0063086525112277915,135e9,863048548.4847654,100,10.360099513411344
41,1761.677914534529,0.014099627131680796,12,1761.6920141616606,8.003457481976729e-06,1761e9,14099627.131680796,1000,551.6240768108215
42,613.0756067754509,4.301504253349153,33,617.3771110288001,0.006967385373554108,613e9,4301504253.349153,1000,404.6638481051737
43,1712.8482384661443,10.409839505452071,12,1723.2580779715963,0.006040789617365514,1712e9,10409839505.45207,1000,385.65675566689106
44,248.41978828783735,0.99213420366042,81,249.41192249149776,0.003977894054740872,248e9,992134203.6604201,1000,22.708189838404532
45,1341.9653555372247,2.6704588685632316,15,1344.6358144057879,0.001986009029324674,1341e9,2670458868.5632315,1000,238.65121537921704
46,1422.196209055628,3.7045152975480047,15,1425.900724353176,0.0025980176840350966,1422e9,3704515297.5480046,1000,644.6910073132782
47,318.82628357532866,2.199022934480528,63,321.0253065098092,0.006849998706919185,318e9,2199022934.480528,1000,239.81416169961278
48,1371.3377900494559,4.810460940492219,15,1376.148250989948,0.0034955979030833043,1371e9,4810460940.492219,1000,47.16352140363467
49,203.1279856298297,0.5911503641007143,99,203.71913599393042,0.0029017910429304343,203e9,591150364.1007143,1000,40.04622006389387
50,493.1665084207053,2.756548006440658,41,495.923056427146,0.005558418731930063,493e9,2756548006.4406576,1000,300.22355290341966
51,951.5263679149183,2.5998127896587317,21,954.126180704577,0.0027248102423296813,951e9,2599812789.658732,1000,87.89124130669033
52,1408.8772465618333,8.535392579458914,15,1417.4126391412922,0.0060218120988605635,1408e9,8535392579.458915,1000,1165.4899200995305
53,743.0944443330724,1.1441607002951155,27,744.2386050333674,0.0015373573643681355,743e9,1144160700.2951155,1000,172.58560094533857
54,1401.4278956281935,5.290123985830231,15,1406.7180196140237,0.003760614360567969,1401e9,5290123985.830231,1000,1144.4974372006152
55,584.8322762885899,1.451671666210927,35,586.2839479548009,0.0024760556233459127,584e9,1451671666.210927,1000,403.62581773172656
56,1227.8509655511166,1.5407067392078806,17,1229.3916722903245,0.0012532269202194808,1227e9,1540706739.2078805,1000,777.3870473608621
57,1996.2964500539158,3.1910756018014257,11,1999.4875256557173,0.001595946741780715,1996e9,3191075601.8014255,1000,60.07579649802642
58,2561.474900526016,9.355589498081372,8,2570.8304900240973,0.003639131220197127,2561e9,9355589498.081371,1000,2317.190666124278
59,1719.7625592264817,8.913901210339768,12,1728.6764604368216,0.005156489033284633,1719e9,8913901210.339767,1000,441.36440050395265
60,1225.0234532305321,1.6436995342800444,17,1226.6671527648123,0.0013399719154256911,1225e9,1643699534.2800446,1000,323.71502925823074
