app_id,Tcomp,Tio,iter,witer,alpha_io,compute_size,io_size,mu,desyn_time
1,9.838059284874912,0.007264943907750746,2032,9.845324228782664,0.0007379080402971176,9e9,7264943.907750746,10,3.8354071363824467
2,14.28561825578037,0.05382652434002585,1395,14.339444780120397,0.003753738388438071,14e9,53826524.34002585,10,4.5195145683079145
3,14.558042648997311,0.05998677516899764,1369,14.61802942416631,0.004103615708272443,14e9,59986775.16899764,10,14.199373282963082
4,23.550146829435327,0.017088357685531772,849,23.567235187120858,0.0007250896233627907,23e9,17088357.685531773,10,22.454311407614863
5,11.593487748265362,0.002970369523471825,1725,11.596458117788835,0.00025614454804224335,11e9,2970369.523471825,10,2.9819392186635527
6,5.866583807810828,0.0059518194394533866,3406,5.872535627250282,0.001013500780111951,5e9,5951819.439453387,10,2.58163997713127
7,17.691265279257557,0.003383733245218654,1131,17.694649012502776,0.0001912291813659462,17e9,3383733.2452186537,10,3.049999750699346
8,5.399537174549223,0.007112082187482231,3700,5.406649256736705,0.0013154325072262734,5e9,7112082.18748223,10,4.399049980288245
9,15.08165716648792,0.015892633867268666,1325,15.09754980035519,0.0010526631193423699,15e9,15892633.867268667,10,6.038899796174286
10,12.785445940645438,0.05548074149651168,1558,12.84092668214195,0.004320618197568988,12e9,55480741.496511675,10,10.912924667953634
11,9.360342025152002,0.050030550945305896,2126,9.41037257609731,0.005316532426397795,9e9,50030550.9453059,10,1.2897190849694657
12,7.387208175673499,0.013471134092411723,2703,7.400679309765911,0.0018202564289787914,7e9,13471134.092411723,10,2.1194240985294996
13,26.914409274061324,0.1542361715038821,739,27.068645445565206,0.005697964156132216,26e9,154236171.5038821,10,26.202066885838494
14,8.771705336462574,0.03273782694693752,2272,8.80444316340951,0.0037183302043442158,8e9,32737826.94693752,10,1.047185812003769
15,9.594762845984208,0.06302676465817582,2071,9.657789610642384,0.006526003071005356,9e9,63026764.65817582,10,2.8514163481092667
16,14.191496752791725,0.04192434859461722,1406,14.233421101386343,0.002945486422131764,14e9,41924348.59461722,10,3.565175548899056
17,8.356589368752072,0.05182106456951418,2379,8.408410433321587,0.006163003694985335,8e9,51821064.56951418,10,8.183342031178844
18,20.334547377068166,0.12353552320078298,978,20.45808290026895,0.0060384701637492605,20e9,123535523.20078298,10,18.904680586726325
19,5.836023854556916,0.007693286346964952,3423,5.84371714090388,0.001316505601052242,5e9,7693286.346964953,10,1.3016857391450125
20,18.216212426158098,0.12232681340914607,1091,18.338539239567243,0.0066704775015675,18e9,122326813.40914607,10,15.622705711245915
21,54.170959269352764,0.16780598581841294,369,54.338765255171175,0.0030881449924452156,54e9,167805985.81841293,100,45.607108521883234
22,219.6400316217665,0.9693962728365888,91,220.60942789460307,0.004394174274817127,219e9,969396272.8365889,100,159.4256573648658
23,25.263006229442855,0.1577258486477241,787,25.42073207809058,0.006204614727978806,25e9,157725848.6477241,100,15.037569332534806
24,244.54900178507575,0.9089696852493984,82,245.45797147032513,0.003703158140697374,244e9,908969685.2493984,100,181.4767210669794
25,147.38905680966485,0.05647172801718045,136,147.44552853768204,0.000383000614377724,147e9,56471728.01718045,100,112.12070841761171
26,230.29938781915982,0.5283050583119009,87,230.82769287747172,0.0022887420990354763,230e9,528305058.3119009,100,113.93918110126532
27,129.25784717136375,0.04312034456003559,155,129.3009675159238,0.0003334881817858416,129e9,43120344.560035594,100,50.210979151916206
28,82.82924549924121,0.46233180104226906,241,83.29157730028348,0.0055507629465998305,82e9,462331801.04226905,100,62.2887835608586
29,7.150159591266296,0.03751041605085656,2783,7.187670007317152,0.005218717054715981,7e9,37510416.05085656,100,4.824336800714744
30,13.681936163464307,0.024683932524929814,1460,13.706620095989237,0.0018008766823669903,13e9,24683932.524929814,100,7.1137653795099505
31,225.53416760250926,1.1160285285216365,89,226.6501961310309,0.00492401307200475,225e9,1116028528.5216365,100,99.02311066214915
32,125.22621369868335,0.30009378128087266,160,125.52630747996423,0.0023906843697188485,125e9,300093781.28087264,100,29.943161626414888
33,163.68631481344664,0.008431490121912872,123,163.69474630356856,5.1507396005714474e-05,163e9,8431490.121912872,100,116.71679243218345
34,57.75886980443078,0.27931098182966463,345,58.03818078626045,0.004812538540074067,57e9,279310981.82966465,100,38.698507566395136
35,174.903401540468,0.9112712506166551,114,175.81467279108466,0.0051831353785783945,174e9,911271250.6166551,100,142.7544314106841
36,123.66431938028244,0.7921301632710624,161,124.4564495435535,0.00636471766771602,123e9,792130163.2710625,100,21.764525549496316
37,30.01137280245229,0.10166028624443617,665,30.113033088696724,0.003375956382241533,30e9,101660286.24443617,100,2.406886997255751
38,24.782365251673323,0.12283004006754358,804,24.905195291740867,0.004931904312682777,24e9,122830040.06754358,100,10.479111037949046
39,345.69677301185175,0.27543830203535796,58,345.9722113138871,0.000796128397102574,345e9,275438302.03535795,100,174.40722900951684
40,189.52942744287415,0.8003214796474032,106,190.32974892252156,0.004204920587444236,189e9,800321479.6474032,100,21.2378068658069
41,1106.3972930269408,2.3202021023901427,19,1108.717495129331,0.002092690078927178,1106e9,2320202102.390143,1000,883.7664840624111
42,613.5374977606564,2.4697908591956397,33,616.007288619852,0.004009353306077174,613e9,2469790859.1956396,1000,65.88505287228654
43,834.8786209351097,0.973210548053367,24,835.851831483163,0.001164333810606684,834e9,973210548.053367,1000,763.6630573009722
44,1923.6373282171533,2.868795080428517,11,1926.5061232975818,0.0014891180701351878,1923e9,2868795080.4285173,1000,1581.9237566419163
45,1536.1074097991373,2.355539452715223,13,1538.4629492518525,0.0015310992402259092,1536e9,2355539452.715223,1000,773.3426261703497
46,1407.5148503729763,0.8266411136665128,15,1408.3414914866428,0.0005869607042493024,1407e9,826641113.6665128,1000,113.68006006047038
47,1362.53416799546,8.450940149294045,15,1370.985108144754,0.006164137085872535,1362e9,8450940149.2940445,1000,725.9848346759002
48,1578.3113786111837,0.3541686382908181,13,1578.6655472494745,0.00022434684718868406,1578e9,354168638.29081815,1000,339.24761637642763
49,2200.7334037812293,14.165123140014297,10,2214.8985269212435,0.006395382437544045,2200e9,14165123140.014296,1000,1678.291469519287
50,864.2575719231628,1.2984914378641739,24,865.556063361027,0.001500181782358525,864e9,1298491437.864174,1000,414.04864330226934
51,1949.5011252627307,7.710503708223637,11,1957.2116289709543,0.003939534996671565,1949e9,7710503708.223638,1000,1803.1003751417459
52,1734.0030319390203,0.6361663085166662,12,1734.639198247537,0.000366742726187307,1734e9,636166308.5166662,1000,49.77514028178616
53,436.88350415386407,0.5951481740410713,46,437.47865232790514,0.0013604050640509597,436e9,595148174.0410713,1000,388.3614366677177
54,462.23511217707,2.4480600530683074,44,464.6831722301383,0.005268234787413143,462e9,2448060053.0683074,1000,184.7428329829343
55,2280.7738865508445,13.156904835268405,9,2293.930791386113,0.005735528240291118,2280e9,13156904835.268404,1000,1679.321461937624
56,2430.636102528541,10.060617945836087,9,2440.696720474377,0.004122027067697576,2430e9,10060617945.836088,1000,1027.765181838524
57,432.435558463723,1.758108792693927,47,434.1936672564169,0.004049135041059132,432e9,1758108792.693927,1000,40.606900787392064
58,1197.966920063595,5.656682411342686,17,1203.6236024749376,0.004699710440798266,1197e9,5656682411.342686,1000,1012.9144746335921
59,1504.668365368269,7.717064159848072,14,1512.3854295281171,0.005102577695591719,1504e9,7717064159.848072,1000,1189.9880154928783
60,660.7695935304923,4.332705834560835,31,665.1022993650531,0.006514344994292003,660e9,4332705834.560835,1000,264.40798015428027
