app_id,Tcomp,Tio,iter,witer,alpha_io,compute_size,io_size,mu,desyn_time
1,7.416303112871835,0.02284917288711306,2689,7.439152285758948,0.00307147535221911,7e9,22849172.88711306,10,3.1277130886326088
2,10.175681994852786,0.031101019964189645,1960,10.206783014816976,0.003047093282872864,10e9,31101019.964189645,10,10.065280298220955
3,4.850080474311179,0.013898594103225664,4112,4.863979068414404,0.00285745351855645,4e9,13898594.103225665,10,3.9654493317688595
4,15.436757227067583,0.0672050481345801,1290,15.503962275202163,0.004334701474478645,15e9,67205048.1345801,10,15.29731731341252
5,7.168710343211727,0.026465550118055327,2780,7.1951758933297825,0.0036782353218897616,7e9,26465550.118055325,10,7.077683174871671
6,3.2545386495037985,0.014308449626158489,6119,3.2688470991299567,0.004377215939517898,3e9,14308449.626158489,10,0.7149332941297158
7,8.279423057877569,0.008964864593578595,2414,8.288387922471147,0.0010816173998412179,8e9,8964864.593578596,10,6.323994740944465
8,14.692406506790332,0.09124761414965225,1353,14.783654120939985,0.006172196224504912,14e9,91247614.14965226,10,11.681249503992001
9,18.362572321910864,0.025865770161124353,1088,18.38843809207199,0.0014066322561825492,18e9,25865770.161124352,10,0.738317913684437
10,9.484702010753878,0.027333021460994446,2103,9.512035032214873,0.002873519848110774,9e9,27333021.460994445,10,1.3995587112267298
11,20.40710946612442,0.021029292624310386,980,20.42813875874873,0.0010294277355691155,20e9,21029292.624310385,10,7.211534701608486
12,8.194403954489934,0.027403222715544937,2433,8.221807177205479,0.003332992628618062,8e9,27403222.71554494,10,6.859703431278029
13,10.243519027391974,0.04471766322790495,1944,10.288236690619879,0.004346484686600912,10e9,44717663.22790495,10,7.606931368028231
14,15.852117592245007,0.07916215024811604,1256,15.931279742493123,0.004968976223358173,15e9,79162150.24811605,10,6.18859550483258
15,18.684614558894534,0.06732223256142715,1067,18.75193679145596,0.0035901482236278394,18e9,67322232.56142715,10,16.09285414396958
16,9.087214262933136,0.00027392955117067606,2201,9.087488192484306,3.0143593627689783e-05,9e9,273929.5511706761,10,8.67874926740919
17,22.106797426169184,0.12598166718293846,900,22.23277909335212,0.0056664831082952,22e9,125981667.18293846,10,22.131113101983104
18,11.891336662960999,0.03417067353824201,1678,11.92550733649924,0.002865343383225228,11e9,34170673.53824201,10,4.482401170498484
19,4.470608203505713,0.0235802954651054,4451,4.494188498970819,0.005246841664630968,4e9,23580295.4651054,10,3.5538263483503316
20,7.007259036088331,0.005548433934245435,2852,7.012807470022576,0.0007911858350543842,7e9,5548433.934245435,10,6.1221269441551325
21,128.7178214864632,0.19762152976593922,156,128.91544301622915,0.0015329546650284611,128e9,197621529.7659392,100,33.53714508529344
22,74.47429954023553,0.3632857284422717,268,74.83758526867781,0.004854321891039417,74e9,363285728.4422717,100,9.929729335592256
23,82.07811786929469,0.3771206538242658,243,82.45523852311895,0.004573640930267008,82e9,377120653.8242658,100,54.2176044034619
24,12.57340033699772,0.02516837544259235,1588,12.598568712440311,0.0019977170436622795,12e9,25168375.442592353,100,1.4990794070524283
25,72.41909458865125,0.2550536699490933,276,72.67414825860034,0.003509551553896746,72e9,255053669.94909328,100,59.52874112706284
26,160.44068897159403,0.700854435403379,125,161.1415434069974,0.004349309436817428,160e9,700854435.403379,100,118.14082968386316
27,32.12593678648736,0.146652143010218,620,32.27258892949757,0.004544170389632919,32e9,146652143.010218,100,6.252018561248195
28,95.04684268483678,0.08071194145335342,211,95.12755462629013,0.000848460172979652,95e9,80711941.45335342,100,29.888828046966832
29,124.50391973979661,0.5628290584118822,160,125.0667487982085,0.004500229388068529,124e9,562829058.4118823,100,65.54091818069722
30,31.713886962543995,0.060869306420472426,630,31.774756268964467,0.0019156498292301817,31e9,60869306.42047243,100,13.471924459494767
31,6.074098821118268,0.017330152061321526,3284,6.091428973179589,0.0028450060137983645,6e9,17330152.061321527,100,4.615666108797915
32,16.22869283357267,0.01945378759006414,1231,16.248146621162732,0.0011972927155104666,16e9,19453787.590064142,100,11.05690515666561
33,159.693091851367,0.5864658926106404,125,160.27955774397765,0.0036590186600553953,159e9,586465892.6106404,100,50.170022814501934
34,189.6926296826247,0.6494244591930509,106,190.34205414181775,0.0034118811111977683,189e9,649424459.1930509,100,56.75830938512271
35,55.50311408337572,0.22729696671124852,359,55.73041105008697,0.004078508706978105,55e9,227296966.71124852,100,20.69634540577638
36,57.7336422946955,0.20717541919147026,346,57.94081771388697,0.0035756385112565552,57e9,207175419.19147027,100,54.53699395074753
37,206.0910353752039,0.31341050110980967,97,206.4044458763137,0.001518429023072587,206e9,313410501.1098097,100,173.30188698905025
38,50.57542409291115,0.2827958611419378,394,50.858219954053084,0.005560475010675255,50e9,282795861.1419378,100,20.54411277798428
39,274.09685134536284,1.1323924584283849,73,275.22924380379123,0.004114360969707341,274e9,1132392458.4283848,100,235.69436547767722
40,4.966022320521089,0.0032655336039956622,4025,4.969287854125085,0.0006571431762168679,4e9,3265533.603995662,100,3.5436138812498497
41,685.2237989098765,0.39743937287243825,30,685.6212382827489,0.0005796777443299314,685e9,397439372.87243825,1000,164.87185940472767
42,1385.393582813114,5.273565251076342,15,1390.6671480641905,0.0037921117633483675,1385e9,5273565251.076343,1000,334.99979644927424
43,179.29555726839897,0.3333611814768029,112,179.62891844987575,0.0018558324815045027,179e9,333361181.4768029,1000,109.93915514358797
44,1336.1545795937034,8.128071868884042,15,1344.2826514625874,0.006046400926204509,1336e9,8128071868.884043,1000,1179.0415880522758
45,1687.3960289513705,10.255608187593706,12,1697.6516371389641,0.006041055752096103,1687e9,10255608187.593706,1000,476.48003127202674
46,1224.5367474826157,6.9534094202197405,17,1231.4901569028355,0.005646337797540646,1224e9,6953409420.219741,1000,336.35086801169376
47,2435.072243644724,6.648079878808837,9,2441.720323523533,0.0027227032575193964,2435e9,6648079878.808837,1000,2160.439053380191
48,1790.8697443313847,9.785785302297603,12,1800.6555296336824,0.0054345682121046115,1790e9,9785785302.297604,1000,1170.7549438039296
49,2194.4198300469416,10.178691421207022,10,2204.5985214681486,0.004617027237425769,2194e9,10178691421.207022,1000,94.19905828938707
50,710.5230886397346,3.909456210323333,28,714.432544850058,0.005472113831465828,710e9,3909456210.323333,1000,520.5064181707523
51,526.3780452381542,2.8151964701984182,38,529.1932417083526,0.005319789158890886,526e9,2815196470.198418,1000,23.422908312153975
52,1446.6921949493624,0.8064456086347237,14,1447.498640557997,0.0005571304773894962,1446e9,806445608.6347237,1000,508.0784905315521
53,1016.9111490591486,1.6086159855236004,20,1018.5197650446721,0.001579366489223748,1016e9,1608615985.5236003,1000,886.2300923585308
54,165.7839993000941,0.6853376935523975,121,166.4693369936465,0.004116900481069101,165e9,685337693.5523975,1000,20.62239208904613
55,552.8417965222461,2.6450607694718995,37,555.486857291718,0.0047616982017683026,552e9,2645060769.4718995,1000,281.7842860666287
56,1758.9192463713475,7.457673554879906,12,1766.3769199262274,0.004222017096550025,1758e9,7457673554.879907,1000,413.21653189702977
57,2068.6946147126196,3.080351962512936,10,2071.7749666751324,0.001486817831116286,2068e9,3080351962.5129356,1000,1836.096971726397
58,1165.248662217872,2.1460629387110397,18,1167.394725156583,0.0018383353055010485,1165e9,2146062938.7110398,1000,496.22871729831473
59,1600.0122863863457,1.5841075422003759,13,1601.5963939285461,0.0009890803626965768,1600e9,1584107542.2003758,1000,363.6242039488589
60,1858.9922152541217,9.171016359100557,11,1868.1632316132223,0.004909108692381807,1858e9,9171016359.100557,1000,694.8172009344192
