app_id,start_app,end_app,effective_cpu,effective_io,effective_iter,total_bytes,stretch,utilization,Tcomp,Tio,iterations,priority,group_id
app_1,1.01005,19781.4,7927.4,68.988,358.748,3.84675e+10,1.00428,0.986332,22,0.107152,889,0.1,1
app_10,24.1048,19944.7,7971,26.2253,263.921,1.26745e+10,1.00204,0.986332,30,0.0480094,659,0.1,1
app_11,5.10591,18848.4,7939.9,53.7409,569.511,9.92218e+09,1.00631,0.986332,14,0.0174379,1340,0.1,1
app_12,11.0039,19278.8,7956.9,38.0256,418.809,3.75627e+09,1.00494,0.986332,19,0.00896484,1010,0.1,1
app_13,2.8888,19828.5,7741,251.54,2579.26,2.28711e+10,1.03041,0.986332,3,0.0088682,6397,1,0
app_14,16.1227,19901.8,7949.4,45.1923,466.8,1.7154e+10,1.0042,0.986332,17,0.0367322,1160,0.1,1
app_15,5.34076,18795,7832.2,149.728,1561.09,4.16775e+10,1.01602,0.986332,5,0.0266992,3671,0.1,1
app_16,5.61471,19425.2,7878,109.641,1127.59,3.82392e+10,1.01058,0.986332,7,0.0339301,2735,0.1,1
app_17,15.6366,19930.3,7947.7,46.6703,440.101,3.30192e+10,1.00242,0.986332,18,0.0750436,1099,0.1,1
app_18,5.53759,19224.4,7922.4,69.4563,722.748,2.199e+10,1.007,0.986332,11,0.0304149,1731,0.1,1
app_19,12.9004,19872,7930.5,62.7697,610.386,3.81996e+10,1.00393,0.986332,13,0.0626223,1514,0.1,1
app_2,0.840877,11426.6,4932.27,487.346,4931.28,4.96859e+10,1.6058,0.986332,1,0.0100742,10385,1,0
app_20,0.330588,18051.8,7730.6,242.704,2576,4.05836e+10,1.02944,0.986332,3,0.0157545,5809,0.1,1
app_21,28.1953,19839.4,7970.5,28.5511,70.6892,2.20094e+10,1.00094,0.986332,112,0.31442,177,0.01,2
app_22,59.8252,20052.9,7956.1,41.6338,81.4518,3.43046e+10,1.0012,0.986332,98,0.418348,203,0.01,2
app_23,35.1753,20302.9,7976.1,22.5709,30.1456,1.97468e+10,1.00052,0.986332,259,0.636993,77,0.01,2
app_24,160.481,20001.5,7958.8,40.8378,42.6945,3.63407e+10,1.00061,0.986332,187,0.845132,106,0.01,2
app_25,32.6515,19931.8,7963.9,34.2022,77.5134,2.83684e+10,1.00097,0.986332,103,0.36842,192,0.01,2
app_26,1.33891,19977.8,7991.9,7.30958,71.6688,4.96932e+09,1.00039,0.986332,111,0.0690184,180,0.01,2
app_27,68.5201,19904.7,7948.5,48.3544,115.099,3.92945e+10,1.00153,0.986332,69,0.341691,286,0.01,2
app_28,62.1304,20299.9,7966.9,31.9681,54.9699,2.65968e+10,1.00081,0.986332,144,0.483578,139,0.01,2
app_29,18.1881,19437.6,7955.2,39.2493,418.554,8.92682e+09,1.0045,0.986332,19,0.021356,1016,0.1,1
app_3,2.98911,19367.4,7909.2,79.5484,879.116,4.0286e+09,1.01097,0.986332,9,0.00457796,2127,0.1,1
app_30,137.857,20191.1,7953.7,45.1112,47.3256,3.98066e+10,1.00081,0.986332,168,0.84695,119,0.01,2
app_31,16.8036,20028.5,7949.3,45.2518,214.682,3.33201e+10,1.00218,0.986332,37,0.155701,536,0.01,2
app_32,6.5456,19744.4,7960.1,37.1853,156.088,2.91959e+10,1.00134,0.986332,51,0.187153,384,0.01,2
app_33,11.0256,19897.4,7958.9,36.5645,185.267,2.14768e+10,1.00246,0.986332,43,0.116091,460,0.01,2
app_34,0.0796932,19915.5,7953.5,43.4705,81.1511,3.68855e+10,1.0012,0.986332,98,0.449823,203,0.01,2
app_35,53.1056,19979.6,7981.2,16.6377,81.2243,1.16514e+10,1.00089,0.986332,99,0.143844,201,0.01,2
app_36,10.6072,19961.4,7965.7,30.5813,331.551,2.75843e+09,1.00396,0.986332,24,0.00833362,825,0.1,1
app_37,97.0969,20233.5,7964.9,34.5836,37.2444,2.98975e+10,1.00065,0.986332,212,0.808041,94,0.01,2
app_38,90.803,20057.2,7969.2,30.7049,43.1213,2.58473e+10,1.00062,0.986332,184,0.6011,108,0.01,2
app_39,26.1434,19913.9,7948.7,48.8051,93.3611,4.07211e+10,1.00132,0.986332,85,0.437861,233,0.01,2
app_4,9.23158,19322.9,7945.1,49.5205,467.475,3.80117e+10,1.00212,0.986332,17,0.0812216,1131,0.1,1
app_40,52.4767,19672,7939.7,57.426,112.897,4.63227e+10,1.00175,0.986332,71,0.409935,277,0.01,2
app_41,1036.16,20980.8,7965.8,34.2,6.74882,3.01524e+10,1.00051,0.986332,1184,4.30749,17,0.001,3
app_42,1047.41,21867.8,7962.7,31.3896,6.25329,2.73415e+10,1.00125,0.986332,1315,3.90593,16,0.001,3
app_43,752.43,20796.4,7950.7,49.0414,7.1512,4.13298e+10,1.001,0.986332,1140,5.90426,18,0.001,3
app_44,206.881,20386,7937.4,47.1049,12.8874,4.11136e+10,1.00269,0.986332,637,3.42614,32,0.001,3
app_45,533.331,21216.1,7950.3,49.7,7.20968,4.37316e+10,1.00075,0.986332,1099,6.24736,19,0.001,3
app_46,1093.35,22364.3,7985.1,8.17922,6.35478,4.54228e+09,1.0013,0.986332,1225,0.648897,17,0.001,3
app_47,956.914,20926.6,7946.7,52.9285,5.52074,4.37175e+10,1.0012,0.986332,1439,7.28626,14,0.001,3
app_48,292.396,20591.8,7943.3,53.2128,19.7883,4.44139e+10,1.00154,0.986332,402,2.33757,50,0.001,3
app_49,14.2205,19918.2,7985.6,11.0335,100.448,7.01301e+09,1.00092,0.986332,79,0.0701301,251,0.01,2
app_5,8.3714,20073.9,7946.4,48.2768,496.05,1.51308e+10,1.00483,0.986332,16,0.0305056,1247,0.1,1
app_50,9.37923,20778.9,7965.6,31.6631,11.8555,2.81465e+10,1.00078,0.986332,662,2.34554,31,0.001,3
app_51,1271.22,22629.1,7999.6,0.4,4.20847,2.88579e+08,1.00001,0.986332,1946,0.0721447,11,0.001,3
app_52,1446.64,22231.5,7960.1,39.9,5.34481,3.23582e+10,1.00094,0.986332,1485,6.47163,14,0.001,3
app_53,776.856,22109.6,7951.5,48.5,4.08815,4.21144e+10,1.0008,0.986332,1897,10.5286,11,0.001,3
app_54,1015.5,21856.7,7971.3,24.1504,6.05484,1.97687e+10,1.00112,0.986332,1265,3.29478,16,0.001,3
app_55,560.175,21366,7977.1,22.9,12.6717,1.93437e+10,1.00044,0.986332,620,1.48798,33,0.001,3
app_56,560.925,21590.6,7972,28,4.84996,2.30838e+10,1.00061,0.986332,1641,4.61675,13,0.001,3
app_57,1648.95,22747,7981.3,18.7,3.81215,1.5732e+10,1.00037,0.986332,2127,5.24399,10,0.001,3
app_58,337.458,20600.8,7946.8,46.4109,13.761,3.8043e+10,1.0019,0.986332,576,2.71736,35,0.001,3
app_59,49.4955,20184.8,7957,38.7184,15.4119,3.51829e+10,1.00098,0.986332,518,2.19893,39,0.001,3
app_6,4.00333,19917.6,7918.1,73.2112,720.275,4.54474e+10,1.00458,0.986332,11,0.0631214,1790,0.1,1
app_60,219.727,21220.2,7976.1,23.9,9.37144,1.99583e+10,1.00049,0.986332,862,2.21758,24,0.001,3
app_7,5.98143,20032.8,7861,122.332,1312.63,2.19656e+10,1.01485,0.986332,6,0.0167293,3280,0.1,1
app_8,0.486144,19195.1,7798.1,181.766,1944.22,2.23632e+10,1.02296,0.986332,4,0.0114978,4668,0.1,1
app_9,3.8748,18302.1,7883.4,104.053,1127.96,1.00265e+10,1.0135,0.986332,7,0.00888878,2577,0.1,1
