app_id,start_app,end_app,effective_cpu,effective_io,effective_iter,total_bytes,stretch,utilization,Tcomp,Tio,iterations,priority,group_id
app_1,5.24294,20003.9,7875.6,107.983,1128.02,3.61876e+10,1.01115,0.991995,7,0.0320812,2815,0.1,1
app_10,0.922007,19178.9,7943.3,48.9525,495.528,1.89284e+10,1.00474,0.991995,16,0.0381621,1192,0.1,1
app_11,6.81404,20031.2,7934.8,56.2817,528.418,3.87556e+10,1.00332,0.991995,15,0.0734007,1322,0.1,1
app_12,0.420036,16886.6,7797.8,175.31,1951.05,8.96002e+09,1.02475,0.991995,4,0.00459253,4115,0.1,1
app_13,12.2616,19413.7,7922.7,68.235,660.398,4.17247e+10,1.00447,0.991995,12,0.0632192,1600,0.1,1
app_14,15.1485,19278.4,7944.4,48.0427,528.422,5.59943e+09,1.00629,0.991995,15,0.0105849,1274,0.1,1
app_15,3.94647,19619.9,7958.9,35.7951,396.233,1.15252e+09,1.00502,0.991995,20,0.00291041,975,0.1,1
app_16,5.85256,18901.2,7858.8,123.881,1310.82,3.46709e+10,1.0135,0.991995,6,0.0264462,3096,0.1,1
app_17,3.48759,17142.3,7789.8,182.721,1946.18,4.20752e+10,1.02147,0.991995,4,0.0216214,4168,0.1,1
app_18,6.67128,19938.7,7934.7,56.0614,609.878,8.98776e+09,1.00709,0.991995,13,0.014734,1520,0.1,1
app_19,0.818305,17559.7,7857.5,125.615,1311.77,3.84849e+10,1.01317,0.991995,6,0.029333,2877,0.1,1
app_2,6.49513,18684.3,7925.5,66.0603,658.596,3.72485e+10,1.00468,0.991995,12,0.0566087,1541,0.1,1
app_20,9.96791,19033.9,7948.6,46.2003,440.825,3.39511e+10,1.00219,0.991995,18,0.0771616,1049,0.1,1
app_21,0.961681,15559,7619.2,380.8,3808.01,2.68653e+10,1.04629,0.991995,2,0.00705496,7412,1,0
app_22,98.0917,20259.6,7971.8,27.0699,47.3342,2.29372e+10,1.00066,0.991995,166,0.488027,120,0.01,2
app_23,52.1431,20081.2,7967.1,29.3551,142.847,1.83162e+10,1.00183,0.991995,56,0.128085,357,0.01,2
app_24,105.486,20194.2,7987.3,11.7884,36.5915,8.98466e+09,1.00046,0.991995,221,0.242829,91,0.01,2
app_25,60.7836,19998.5,7950.2,48.9555,29.0642,4.37516e+10,1.00076,0.991995,276,1.50868,72,0.01,2
app_26,30.2229,20076.7,7986.9,10.5487,105.046,2.8321e+09,1.00129,0.991995,76,0.0269723,262,0.01,2
app_27,18.5607,20069.4,7955.4,42.7127,65.3464,3.53178e+10,1.00116,0.991995,122,0.54335,163,0.01,2
app_28,54.6708,20049.4,7969.1,29.4408,54.2536,2.47942e+10,1.00076,0.991995,146,0.459152,136,0.01,2
app_29,50.4438,19931.6,7958.7,36.5653,141.596,2.82403e+10,1.00164,0.991995,56,0.198875,352,0.01,2
app_3,0.486683,17608.3,7788.1,185.466,1952.04,5.09697e+10,1.02053,0.991995,4,0.0261115,4289,0.1,1
app_30,33.2256,19962.1,7980.9,16.2837,50.6351,1.37362e+10,1.00067,0.991995,158,0.269337,126,0.01,2
app_31,29.9642,20163.2,7963.9,34.8682,67.9306,2.84219e+10,1.00096,0.991995,117,0.417968,171,0.01,2
app_32,12.8488,20125.9,7953.6,44.9484,59.5603,3.79631e+10,1.00106,0.991995,132,0.632719,151,0.01,2
app_33,185.956,20473,7981.5,15.403,37.219,1.12954e+10,1.0009,0.991995,214,0.30528,94,0.01,2
app_34,24.2993,20175.1,7976.7,22.9303,50.326,1.89507e+10,1.00054,0.991995,158,0.379013,127,0.01,2
app_35,18.7833,19987.2,7953,44.1766,71.7448,3.60628e+10,1.00137,0.991995,111,0.500872,179,0.01,2
app_36,107.795,20024.3,7971.2,27.176,58.5266,2.2975e+10,1.00073,0.991995,137,0.389406,145,0.01,2
app_37,23.8947,19786.9,7939.7,57.4146,294.119,3.44435e+10,1.00324,0.991995,27,0.117155,725,0.1,1
app_38,168.916,20402.2,7948.8,49.5934,45.6101,4.37586e+10,1.00093,0.991995,172,0.972414,116,0.01,2
app_39,39.3756,20167.9,7970,27.3699,76.1997,2.17706e+10,1.00103,0.991995,105,0.286456,190,0.01,2
app_4,9.35255,19927.7,7925,69.0586,360.396,4.23661e+10,1.0041,0.991995,22,0.117358,899,0.1,1
app_40,65.7182,19980.2,7965.6,29.5536,71.7618,2.19455e+10,1.00156,0.991995,110,0.304799,180,0.01,2
app_41,621.218,20516.4,7962.3,37.7,9.94394,3.22346e+10,1.00068,0.991995,835,3.22346,24,0.001,3
app_42,1426.35,21924.5,7957.2,42.8,4.39164,3.60457e+10,1.00085,0.991995,1913,9.01142,11,0.001,3
app_43,245.207,21451.1,7950.5,45.1143,6.61814,3.96203e+10,1.00124,0.991995,1169,6.60339,18,0.001,3
app_44,879.919,21164.3,7957.8,42.2,6.53355,3.45303e+10,1.00096,0.991995,1185,4.9329,17,0.001,3
app_45,443.641,21086,7957.7,34.8554,11.1016,3.02734e+10,1.00151,0.991995,696,2.52278,29,0.001,3
app_46,135.579,20204.4,7991.7,7.83633,15.3909,6.25749e+09,1.00026,0.991995,532,0.417166,38,0.001,3
app_47,527.195,20895.1,7982.3,12.1123,14.952,1.04183e+10,1.00091,0.991995,534,0.694554,38,0.001,3
app_48,781.669,21060,7957.4,42.6,9.46317,3.62509e+10,1.00079,0.991995,843,4.02788,24,0.001,3
app_49,74.0765,20207.5,7982.5,15.446,28.9906,1.16609e+10,1.00073,0.991995,276,0.402099,73,0.01,2
app_5,2.65851,19213.1,7923.2,65.5238,659.447,3.35028e+10,1.00544,0.991995,12,0.0508389,1583,0.1,1
app_50,727.859,22073.9,7953.3,46.7,3.81519,4.13575e+10,1.00067,0.991995,2165,10.3394,10,0.001,3
app_51,87.2144,19960.6,7950.7,49.2877,29.125,4.33388e+10,1.00075,0.991995,276,1.49444,72,0.01,2
app_52,1510.2,22548.3,7971.6,28.4,4.05024,2.41094e+10,1.00054,0.991995,1860,6.02736,11,0.001,3
app_53,411.824,20370,7959.6,40.4,5.4509,3.46618e+10,1.00072,0.991995,1465,5.77697,14,0.001,3
app_54,1441.49,22384.6,7966,34,4.95086,2.88025e+10,1.00065,0.991995,1608,5.76049,13,0.001,3
app_55,65.8607,21241,7972.8,27.2,7.11232,2.21537e+10,1.00063,0.991995,1090,3.16481,19,0.001,3
app_56,56.0308,20838.8,7964.7,35.3,6.62985,3.16181e+10,1.00046,0.991995,1204,4.51687,17,0.001,3
app_57,76.0075,20293.4,7967.5,32.5,27.2806,2.79979e+10,1.00056,0.991995,286,1.03696,70,0.01,2
app_58,246.86,20753.8,7982.5,16.0826,30.5609,1.36648e+10,1.00048,0.991995,258,0.440801,78,0.01,2
app_59,969.069,21496.4,7945.6,54.4,5.10688,4.61581e+10,1.00103,0.991995,1611,9.23162,13,0.001,3
app_6,16.8657,19985.2,7950.6,43.2193,441.011,1.68308e+10,1.00409,0.991995,18,0.0381652,1105,0.1,1
app_60,681.35,20883,7969.6,30.4,5.50086,2.24435e+10,1.001,0.991995,1448,3.74058,14,0.001,3
app_7,2.98432,17777,7788.4,181.005,1944.64,3.86057e+10,1.0221,0.991995,4,0.0198487,4323,0.1,1
app_8,13.7031,19934.7,7951.1,42.9038,396.303,3.40117e+10,1.00186,0.991995,20,0.0856717,989,0.1,1
app_9,3.50156,19409.8,7865,118.456,1314.09,2.58142e+09,1.01683,0.991995,6,0.00196455,3184,0.1,1
