app_id,start_app,end_app,effective_cpu,effective_io,effective_iter,total_bytes,stretch,utilization,Tcomp,Tio,iterations,priority,group_id
app_1,1.71435,20746.2,7539.1,105.632,1255.97,9.37795e+09,1.05982,0.982156,6,0.00746652,3271,1,1
app_10,1.48128,20465.2,7556.8,104.049,1077.54,4.28512e+10,1.05268,0.982156,7,0.0397876,2771,1,1
app_11,4.84608,19904.3,7531.21,103.169,1252.13,7.40142e+09,1.0612,0.982156,6,0.00590735,3136,1,1
app_12,0.243223,19606.6,7777,51.3957,555.334,1.71648e+10,1.02641,0.982156,14,0.0308719,1359,1,1
app_13,5.10413,19393.3,7544,108.383,1259.63,1.47827e+10,1.05837,0.982156,6,0.0117323,3059,1,1
app_14,20.5851,20275,7820.9,62.2421,339.499,3.62409e+10,1.01818,0.982156,23,0.106591,861,1,1
app_15,8.79665,20348.3,7776.7,41.7655,486.169,6.02932e+09,1.02792,0.982156,16,0.012406,1241,1,1
app_16,0.238052,19683,7819.5,46.8794,461.461,2.45159e+10,1.01989,0.982156,17,0.0531798,1131,1,1
app_17,6.62935,20447.2,7682.2,70.225,769.087,1.94734e+10,1.03874,0.982156,10,0.0253231,1971,1,1
app_18,9.76584,19993.7,7844.1,65.4291,325.788,4.87079e+10,1.01358,0.982156,24,0.149411,815,1,1
app_19,1.00263,20288.8,7744.7,49.8574,482.25,2.55873e+10,1.02956,0.982156,16,0.0529758,1232,1,1
app_2,6.425,20513.3,7758.4,56.4557,554.404,2.79986e+10,1.02743,0.982156,14,0.050448,1422,1,1
app_20,6.13493,19558.7,7549.6,102.936,1077.81,4.22426e+10,1.05376,0.982156,7,0.0391861,2649,1,1
app_21,149.373,20028.9,7951.9,14.2772,49.2611,1.08511e+10,1.00468,0.982156,163,0.221452,122,1,1
app_22,13.6165,20254.1,7956,39.9264,50.9908,3.64177e+10,1.00095,0.982156,156,0.714073,128,1,1
app_23,112.794,20222,7941.1,46.5569,66.4863,4.38222e+10,1.00189,0.982156,119,0.663973,167,1,1
app_24,101.245,20191.9,7961.1,22.0825,73.0002,1.88234e+10,1.00252,0.982156,109,0.257855,183,1,1
app_25,69.3086,20071.8,7981.4,7.54767,38.3808,5.67446e+09,1.00162,0.982156,208,0.149328,96,1,1
app_26,77.7049,20155.3,7937.3,36.9333,91.6588,3.21984e+10,1.00383,0.982156,86,0.349982,232,1,1
app_27,61.3848,20236.9,7928.9,42.7176,41.6484,4.17e+10,1.00369,0.982156,190,0.992858,105,1,1
app_28,90.6465,20163.6,7972.2,5.11829,57.3065,1.63475e+09,1.00328,0.982156,140,0.0286799,143,1,1
app_29,16.3921,19702.3,7860.2,63.9031,223.953,4.71196e+10,1.01172,0.982156,35,0.210356,553,1,1
app_3,0.627158,19595,7796.8,54.6962,559.355,2.20906e+10,1.02316,0.982156,14,0.0395181,1365,1,1
app_30,6.8281,20182.9,7950.4,32.8111,107.032,2.79866e+10,1.00271,0.982156,74,0.261557,270,1,1
app_31,106.085,20281.7,7933.8,49.636,37.2807,4.76715e+10,1.00232,0.982156,215,1.25451,93,1,1
app_32,6.55635,20143.7,7957.7,19.2419,188.927,1.10248e+10,1.00392,0.982156,42,0.0583322,475,1,1
app_33,60.6527,20086,7960.4,31.9522,51.9494,3.021e+10,1.00118,0.982156,153,0.580962,130,1,1
app_34,39.5427,20019.7,7953.6,19.7173,61.4954,1.79742e+10,1.00357,0.982156,130,0.289906,153,1,1
app_35,16.6593,20208.6,7910.2,44.6829,111.689,3.92093e+10,1.00636,0.982156,71,0.353237,281,1,1
app_36,109.411,20220.5,7929.8,42.8868,71.9562,3.96838e+10,1.00383,0.982156,110,0.558926,181,1,1
app_37,25.3277,19948.9,7945.5,23.6802,115.118,1.96651e+10,1.00437,0.982156,69,0.171001,286,1,1
app_38,121.525,20222.9,7940.8,45.4798,45.8374,4.18136e+10,1.00218,0.982156,174,0.908991,115,1,1
app_39,25.8413,19941.8,7951.3,25.7138,88.8867,1.92673e+10,1.00369,0.982156,90,0.216487,220,1,1
app_4,3.74266,20001.6,7804.6,43.4171,435.755,1.9964e+10,1.02242,0.982156,18,0.045789,1087,1,1
app_40,126.276,20358.7,7946.5,42.7632,36.8481,4.02538e+10,1.00166,0.982156,215,1.11816,93,1,1
app_41,99.7826,20245,7959.8,39.0099,16.3597,3.83401e+10,1.00023,0.982156,492,2.2553,41,1,1
app_42,801.025,21116.1,7979,16.3136,8.8683,1.59281e+10,1.00063,0.982156,868,1.76979,23,1,1
app_43,176.363,20284.7,7989.1,9.99549,10.7161,9.72661e+09,1.00015,0.982156,741,0.884237,27,1,1
app_44,1634.49,21044.4,7993.6,6.35987,4.54459,6.00902e+09,1.00005,0.982156,1818,1.50226,11,1,1
app_45,548.383,20808.3,7979.3,20.0301,10.5318,1.93395e+10,1.00017,0.982156,759,1.93395,27,1,1
app_46,1781.8,22721.1,7958.2,41.2146,4.56154,4.1014e+10,1.0001,0.982156,1782,10.2535,12,1,1
app_47,562.893,21743,7954.4,45.5832,4.661,4.54379e+10,1.00002,0.982156,1609,9.08757,13,1,1
app_48,101.401,20444.4,7944.8,47.5346,5.97219,4.73649e+10,1.00098,0.982156,1380,7.89415,15,1,1
app_49,1022.41,21967,7994.9,4.95849,4.57769,4.64033e+09,1.00006,0.982156,1745,0.928066,12,1,1
app_5,8.0625,19642,7760.8,58.6896,553.584,3.67349e+10,1.02597,0.982156,14,0.0663085,1362,1,1
app_50,686.824,20654.8,7963,37,5.17838,3.6663e+10,1.00004,0.982156,1551,7.33259,13,1,1
app_51,441.753,20789.9,7968.7,26.5723,6.7795,2.6012e+10,1.00066,0.982156,1222,3.716,17,1,1
app_52,416.36,22318.6,7991.2,8.8,3.68124,8.7039e+09,1.00001,0.982156,2148,2.17597,10,1,1
app_53,893.338,21628,7952.4,47.5244,4.81603,4.7358e+10,1.00003,0.982156,1723,9.47161,12,1,1
app_54,1982.13,22705.5,7968.2,31.1141,3.60253,3.08607e+10,1.00012,0.982156,2282,7.71519,9,1,1
app_55,175.905,20093.4,7944.1,47.9845,16.8771,4.75075e+10,1.00105,0.982156,474,2.79456,42,1,1
app_56,399.072,20176.2,7975.6,23.4868,13.1952,2.32312e+10,1.00015,0.982156,610,1.78702,33,1,1
app_57,169.445,20018.9,7948.2,51.1197,7.61579,5.06868e+10,1.00014,0.982156,1050,6.33585,19,1,1
app_58,1444.4,22353,7983.2,16.3492,3.94281,1.61557e+10,1.00008,0.982156,2069,4.03894,10,1,1
app_59,73.1784,20436.3,7955.2,44.124,8.54355,4.39145e+10,1.00011,0.982156,962,4.87939,21,1,1
app_6,11.2062,19665.4,7724.5,64.384,702.358,1.90039e+10,1.03312,0.982156,11,0.0270326,1729,1,1
app_60,267.92,21098,7982.6,9.56566,7.10278,9.21564e+09,1.00102,0.982156,1138,1.31652,18,1,1
app_7,8.05476,19131.1,7705.3,60.9089,702.171,1.19966e+10,1.03663,0.982156,11,0.0170648,1679,1,1
app_8,2.25965,19735.2,7841.6,43.632,374.588,3.38237e+10,1.01582,0.982156,21,0.0901965,922,1,1
app_9,0.320724,19527.8,6601.3,571.344,6605.61,8.55558e+09,1.21031,0.982156,1,0.00129532,16204,1,1
