app_id,start_app,end_app,effective_cpu,effective_io,effective_iter,total_bytes,stretch,utilization,Tcomp,Tio,iterations,priority,group_id
app_1,18.2487,19377.4,7947.1,46.8026,442.625,3.31826e+10,1.00247,0.991163,18,0.0750738,1069,0.1,1
app_10,1.82768,17568.1,7862.7,119.389,1306.25,7.88604e+09,1.01644,0.991163,6,0.00603832,2873,0.1,1
app_11,3.08632,19659.8,7907.7,79.7759,880.624,2.33118e+09,1.01137,0.991163,9,0.00264606,2162,0.1,1
app_12,10.0915,18574.6,7918.1,72.4778,723.213,3.48641e+10,1.00591,0.991163,11,0.0482214,1668,0.1,1
app_13,2.04339,19992.2,7786.64,185.264,1947.42,4.90266e+10,1.02097,0.991163,4,0.025173,4862,0.1,1
app_14,4.42493,19482.7,7916.7,73.3046,718.483,4.05681e+10,1.00537,0.991163,11,0.0565016,1755,0.1,1
app_15,5.60352,19307.8,7907,83.2027,789.279,5.6822e+10,1.00454,0.991163,10,0.0720177,1906,0.1,1
app_16,1.17,15444.2,7271.2,710.504,7271.51,4.80615e+10,1.09301,0.991163,1,0.00660911,14032,1,0
app_17,14.9291,20058.6,7926.2,69.1852,358.871,4.01287e+10,1.00423,0.991163,22,0.111779,901,0.1,1
app_18,7.93483,19334.2,7887.8,98.0166,986.384,4.71881e+10,1.00819,0.991163,8,0.0478581,2381,0.1,1
app_19,2.98487,16719.3,7721.9,245.065,2575.99,5.23153e+10,1.02904,0.991163,3,0.0203087,5381,0.1,1
app_2,0.446695,19681.2,7616.4,366.305,3809.52,3.06943e+10,1.04615,0.991163,2,0.00805625,9377,1,0
app_20,7.04475,19570.4,7963.7,30.6428,318.035,1.0157e+10,1.00328,0.991163,25,0.0319403,779,0.1,1
app_21,9.44419,19927.2,7923,67.7114,660.452,4.03045e+10,1.00461,0.991163,12,0.0610675,1643,0.1,1
app_22,27.7343,19775.6,7926.6,69.4179,214.298,5.28699e+10,1.00257,0.991163,37,0.245907,529,0.01,2
app_23,0.459287,19886.6,7937.8,58.802,273.945,5.07564e+10,1.00143,0.991163,29,0.185921,679,0.1,1
app_24,54.0436,20090.8,7962.4,36.5373,47.7469,3.16418e+10,1.00075,0.991163,166,0.659205,120,0.01,2
app_25,0.450426,20196.9,7992.3,7.14968,71.9121,1.68816e+09,1.00075,0.991163,110,0.0234467,182,0.01,2
app_26,10.3913,19831.3,7973.8,23.3784,159.735,1.55977e+10,1.00133,0.991163,50,0.0980986,395,0.01,2
app_27,85.5211,20113.6,7937.6,61.0064,78.8301,4.98736e+10,1.00157,0.991163,100,0.631312,198,0.01,2
app_28,7.43229,19870.7,7967.6,27.96,305.714,2.67948e+09,1.00373,0.991163,26,0.00875645,760,0.1,1
app_29,156.331,20328,7977.2,21.4446,46.9641,1.80572e+10,1.00059,0.991163,168,0.384196,119,0.01,2
app_3,13.4313,19276.2,7938.5,54.9226,530.219,4.12309e+10,1.00254,0.991163,15,0.0777941,1274,0.1,1
app_30,34.471,19766.5,7939.4,59.0494,111.341,4.68526e+10,1.00172,0.991163,72,0.422095,273,0.01,2
app_31,35.5665,19964,7975.2,21.3878,215.389,4.2106e+09,1.00258,0.991163,37,0.0195842,537,0.01,2
app_32,44.3372,19823.4,7979.8,17.137,175.457,1.3134e+09,1.00237,0.991163,46,0.00746252,431,0.01,2
app_33,33.5985,19953.4,7949.2,49.4728,58.3651,4.18142e+10,1.00112,0.991163,136,0.708715,146,0.01,2
app_34,54.138,19926.4,7952.4,45.6465,139.754,3.61905e+10,1.00143,0.991163,57,0.258504,346,0.01,2
app_35,157.931,20233.4,7993,5.17274,46.2331,2.51592e+09,1.00056,0.991163,174,0.0546939,115,0.01,2
app_36,102.331,20258.6,7976.4,21.8717,69.6295,1.5778e+10,1.00098,0.991163,113,0.228667,177,0.01,2
app_37,23.8915,19870.2,7933.7,64.4676,77.2546,5.36669e+10,1.00158,0.991163,103,0.696972,192,0.01,2
app_38,11.4752,20110.9,7973.1,26.1593,63.839,1.93391e+10,1.00095,0.991163,124,0.302174,161,0.01,2
app_39,47.4772,19955.9,7956.2,40.6783,128.666,2.8863e+10,1.00187,0.991163,62,0.223744,320,0.01,2
app_4,2.92789,19654.7,7949.9,44.1214,470.28,7.22783e+09,1.00539,0.991163,17,0.0153784,1152,0.1,1
app_40,1.82328,19703.8,7969.6,25.5573,227.465,1.48112e+10,1.00195,0.991163,35,0.0652476,561,0.01,2
app_41,1702.33,22514,7968.7,27.5767,3.26695,2.42172e+10,1.00089,0.991163,2309,8.07241,9,0.001,3
app_42,819.537,22174.6,7987.1,7.91977,6.62309,6.57933e+09,1.00079,0.991163,1155,0.939905,18,0.001,3
app_43,611.047,21873.4,7933.1,66.9,4.92956,5.42693e+10,1.00158,0.991163,1630,10.8539,13,0.001,3
app_44,625.962,22301.2,7989.1,10.9,4.44709,9.56698e+09,1.00017,0.991163,1805,2.39175,12,0.001,3
app_45,136.431,20179.5,7994.2,5.73472,56.1682,3.271e+09,1.00032,0.991163,141,0.0584108,142,0.01,2
app_46,38.1119,20312.9,7961,37.5705,42.6344,3.21947e+10,1.00085,0.991163,184,0.748715,109,0.01,2
app_47,358.579,20541.7,7943.8,56.2,6.33741,4.8403e+10,1.00098,0.991163,1277,8.06717,16,0.001,3
app_48,185.929,20127,7966.6,33.4,6.873,2.86634e+10,1.00059,0.991163,1186,4.09477,17,0.001,3
app_49,1126.2,22034.3,7995.2,4.8,6.60089,3.50147e+09,1.00016,0.991163,1244,0.583579,17,0.001,3
app_5,0.404256,19432.5,7950.8,44.3174,419.613,3.15338e+10,1.00221,0.991163,19,0.0750804,1016,0.1,1
app_50,53.7081,19834.7,7984.2,14.7934,128.585,1.00654e+10,1.00072,0.991163,62,0.0786356,318,0.01,2
app_51,363.902,20367.8,7954,34.9837,9.43239,2.97579e+10,1.00203,0.991163,833,2.97579,24,0.001,3
app_52,483.601,21058,7954.3,45.7,4.4001,3.78618e+10,1.00098,0.991163,1874,7.57235,11,0.001,3
app_53,339.986,20591.3,7985.5,14.5,13.1529,1.26871e+10,1.00023,0.991163,605,0.97593,33,0.001,3
app_54,31.6878,21140.8,7955.4,36.9356,5.37071,3.06121e+10,1.00175,0.991163,1514,5.10201,14,0.001,3
app_55,301.139,20687.8,7993,7,11.6957,5.22762e+09,1.00022,0.991163,684,0.435635,30,0.001,3
app_56,225.061,20233.1,7995.3,3.29928,33.2642,8.3061e+08,1.00048,0.991163,239,0.02517,84,0.01,2
app_57,416.537,20780.3,7968.6,16.2221,13.8564,1.32765e+10,1.00227,0.991163,580,0.948319,35,0.001,3
app_58,260.204,21008.2,7956.6,43.4,7.86872,3.51419e+10,1.00103,0.991163,985,4.39273,21,0.001,3
app_59,1150.6,21504.7,7936.2,63.8,5.16036,5.49938e+10,1.0011,0.991163,1575,10.9988,13,0.001,3
app_6,2.45878,19958.4,7934.6,58.3555,611.334,1.26209e+10,1.00664,0.991163,13,0.0206561,1526,0.1,1
app_60,348.893,21184.3,7976,24,6.34213,1.94161e+10,1.00057,0.991163,1241,2.77373,17,0.001,3
app_7,3.35233,19144,7956.2,39.3939,360.786,3.08427e+10,1.00162,0.991163,22,0.0854369,867,0.1,1
app_8,7.79155,18715,7901.1,85.5649,876.787,3.16518e+10,1.00848,0.991163,9,0.0361322,2049,0.1,1
app_9,6.78704,19384,7899.7,93.767,493.327,5.07226e+10,1.00624,0.991163,16,0.102886,1192,0.1,1
