app_id,start_app,end_app,effective_cpu,effective_io,effective_iter,total_bytes,stretch,utilization,Tcomp,Tio,iterations,priority,group_id
app_1,1.75751,18195.4,7618.8,381.2,3812,2.36797e+10,1.04678,0.989588,2,0.00621189,8666,1,1
app_10,12.8287,19136.8,7943.4,56.6,566.217,2.70032e+09,1.00678,0.989588,14,0.00477088,1358,1.00001,1.00001
app_11,8.95113,19051,7938.6,61.4,613.173,1.52524e+10,1.0058,0.989588,13,0.0248816,1455,1.00001,1.00001
app_12,3.81129,17187.8,7804.9,195.1,1951.35,3.40105e+10,1.02055,0.989588,4,0.0174324,4190,1.00001,1.00001
app_13,3.00112,18364.7,7842.7,157.3,1569.3,3.88706e+10,1.01503,0.989588,5,0.0247741,3601,1.00001,1.00001
app_14,4.61233,19700.4,7898,102,986.795,4.16722e+10,1.0076,0.989588,8,0.0422639,2433,1.00001,1.00001
app_15,0.794797,19875.6,7898.2,101.8,984.03,3.91115e+10,1.0079,0.989588,8,0.0397475,2448,1.00002,1.00002
app_16,5.78589,19299.5,7911.9,88.1,879.718,1.99842e+10,1.00859,0.989588,9,0.0227093,2122,1.00002,1.00002
app_17,3.08065,17484.8,7804.4,195.6,1956.39,8.86374e+09,1.0239,0.989588,4,0.00453156,4264,1.00002,1.00002
app_18,5.7935,20134.3,7898.9,101.1,464.038,5.37093e+10,1.00596,0.989588,17,0.115753,1168,1.00002,1.00002
app_19,12.5118,18728.4,7916.8,83.2,659.046,5.17609e+10,1.00395,0.989588,12,0.0785447,1543,1.00002,1.00002
app_2,1.13283,19462,7868.9,131.1,1308.6,3.27218e+10,1.01245,0.989588,6,0.0249976,3188,1,1
app_20,0.170794,17709,7272.5,727.5,7274.51,7.44317e+09,1.09891,0.989588,1,0.00102312,16098,1.00002,1.00002
app_21,40.8414,19955.3,7991,9,87.0146,4.129e+09,1.00061,0.989588,92,0.0474598,216,1.00002,1.00002
app_22,13.6245,19963.2,7974.1,25.9,116.828,1.44798e+10,1.00143,0.989588,68,0.124826,292,1.00002,1.00002
app_23,64.7799,20161.7,7964.1,35.9,110.805,2.22415e+10,1.00171,0.989588,71,0.200374,280,1.00002,1.00002
app_24,51.536,19937.1,7979.2,20.8,72.2524,1.41658e+10,1.00083,0.989588,112,0.196747,178,1.00002,1.00002
app_25,91.9211,20103.4,7942,58,66.0293,4.14992e+10,1.00207,0.989588,120,0.628776,165,1.00003,1.00003
app_26,3.13554,20135,7925.2,74.8,82.3381,5.55634e+10,1.00241,0.989588,96,0.677603,207,1.00003,1.00003
app_27,58.583,19952.5,7974,26,94.1861,1.74086e+10,1.00108,0.989588,85,0.183249,234,1.00003,1.00003
app_28,19.745,20061.7,7983.4,16.6,122.905,9.99534e+09,1.00083,0.989588,65,0.0812629,307,1.00003,1.00003
app_29,56.5248,20102.6,7922,78,67.007,5.72453e+10,1.0026,0.989588,118,0.854407,168,1.00003,1.00003
app_3,13.8001,18939.1,7936.8,63.2,497.241,4.01907e+10,1.00288,0.989588,16,0.0808665,1178,1,1
app_30,136.709,20126.6,7964.5,35.5,57.1538,2.4776e+10,1.00134,0.989588,140,0.434667,142,1.00003,1.00003
app_31,86.7811,20216.1,7960.4,39.6,49.2443,3.16351e+10,1.001,0.989588,160,0.645615,125,1.00003,1.00003
app_32,35.6365,20282.5,7990.7,9.3,43.6541,4.90872e+09,1.00055,0.989588,182,0.114156,110,1.00003,1.00003
app_33,67.4656,20253.6,7961.9,38.1,46.6138,3.07995e+10,1.00091,0.989588,170,0.655309,118,1.00003,1.00003
app_34,123.399,19963.7,7936.4,63.6,60.192,5.16745e+10,1.00149,0.989588,133,0.861242,149,1.00003,1.00003
app_35,141.32,20301.8,7961.1,38.9,46.6972,2.65118e+10,1.00155,0.989588,169,0.564081,118,1.00004,1.00004
app_36,23.1687,19944.7,7968.7,31.3,125.02,2.28712e+10,1.00105,0.989588,64,0.181517,310,1.00004,1.00004
app_37,0.569646,20013,7992.1,7.9,70.9613,4.46732e+09,1.00043,0.989588,112,0.0638188,178,1.00004,1.00004
app_38,1.88008,20100.9,7935.7,64.3,58.4015,5.27835e+10,1.00144,0.989588,135,0.91006,147,1.00004,1.00004
app_39,136.082,19982.5,7957.2,42.8,33.9957,3.25268e+10,1.00129,0.989588,234,0.956669,85,1.00004,1.00004
app_4,0.919591,18081.6,7901.3,98.7,987.728,1.74432e+09,1.01227,0.989588,8,0.0017673,2230,1,1
app_40,72.1968,20171.9,7952.8,47.2,48.5591,3.77102e+10,1.00119,0.989588,162,0.769596,123,1.00004,1.00004
app_41,192.469,20459,7945,55,15.2476,4.18343e+10,1.00165,0.989588,526,2.78895,38,1.00004,1.00004
app_42,85.8895,20426.8,7981.3,18.7,19.517,1.43619e+10,1.00054,0.989588,406,0.718095,50,1.00004,1.00004
app_43,100.32,19898.6,7992.2,7.8,6.52793,5.81289e+09,1.00025,0.989588,1254,0.830412,16,1.00004,1.00004
app_44,309.923,20183.8,7989.1,10.9,10.2699,9.31397e+09,1.0002,0.989588,768,0.931397,26,1.00004,1.00004
app_45,1209.3,21488.6,7939.1,60.9,5.93841,5.2437e+10,1.00106,0.989588,1339,8.73949,15,1.00004,1.00004
app_46,142.679,19525.5,7977.8,22.2,7.5791,1.79898e+10,1.00053,0.989588,1118,2.56997,18,1.00005,1.00005
app_47,1155.6,22216.8,7936,64,4.25764,5.41395e+10,1.00123,0.989588,1906,13.5349,11,1.00005,1.00005
app_48,149.556,21286.5,7988.3,11.7,5.05651,8.92441e+09,1.00035,0.989588,1664,1.78488,13,1.00005,1.00005
app_49,301.587,20726.5,7965.4,34.6,13.1752,2.87643e+10,1.00073,0.989588,589,2.21264,34,1.00005,1.00005
app_5,0.251598,17724.8,7868.8,131.2,1312.01,1.65629e+10,1.01454,0.989588,6,0.0126242,2907,1.00001,1.00001
app_50,202.608,20523.7,7978.1,21.9,27.6762,1.80188e+10,1.00049,0.989588,279,0.667364,72,1.00005,1.00005
app_51,535.28,21025,7956,44,9.55064,3.67009e+10,1.00091,0.989588,814,3.67009,25,1.00005,1.00005
app_52,1139.1,21915.7,7987.7,12.3,6.6821,1.14051e+10,1.00011,0.989588,1242,1.6293,17,1.00005,1.00005
app_53,644.15,20950.6,7985.6,14.4,11.3708,1.11814e+10,1.0004,0.989588,691,0.931786,29,1.00005,1.00005
app_54,609.473,21458.1,7940,60,6.05274,4.93672e+10,1.00133,0.989588,1289,8.22787,16,1.00005,1.00005
app_55,141.01,20414.1,7973.4,26.6,6.39574,1.97432e+10,1.00086,0.989588,1271,3.29054,16,1.00005,1.00005
app_56,561.436,21581.1,7944.2,55.8,6.82512,3.91608e+10,1.00208,0.989588,1169,5.59441,18,1.00006,1.00006
app_57,130.141,20710.4,7959.6,40.4,9.74126,3.61738e+10,1.00053,0.989588,820,3.61738,25,1.00006,1.00006
app_58,556.982,22162.7,7983.8,16.2,3.77962,1.31323e+10,1.00038,0.989588,2162,3.28308,10,1.00006,1.00006
app_59,74.0537,21294.1,7942.8,57.2,8.57343,4.18804e+10,1.00192,0.989588,894,4.65338,23,1.00006,1.00006
app_6,1.97198,14721.2,7618.8,381.2,3811.68,5.67126e+10,1.04228,0.989588,2,0.0148774,7011,1.00001,1.00001
app_60,1019.31,21114.2,7964.2,35.8,7.15291,2.75653e+10,1.00103,0.989588,1119,3.9379,18,1.00006,1.00006
app_7,2.93751,19680.2,7934.9,65.1,608.889,2.83648e+10,1.00461,0.989588,13,0.046576,1498,1.00001,1.00001
app_8,2.74164,19639.4,7939,61,529.118,2.66758e+10,1.00431,0.989588,15,0.0504269,1299,1.00001,1.00001
app_9,1.96539,15229.2,7618.5,381.5,3814.84,2.64892e+09,1.04971,0.989588,2,0.000694343,7258,1.00001,1.00001
