app_id,start_app,end_app,effective_cpu,effective_io,effective_iter,total_bytes,stretch,utilization,Tcomp,Tio,iterations,priority,group_id
app_1,4.50714,19588.7,7714.3,57.7289,592.997,2.50841e+10,1.03367,0.981002,13,0.0423003,1459,1,1
app_10,4.07,19529.1,7405.9,156.43,1852.55,1.56304e+10,1.07794,0.981002,4,0.00843517,4539,1,1
app_11,3.77633,19780.6,7602.4,81.0464,953.812,8.4272e+09,1.05113,0.981002,8,0.00883355,2366,1,1
app_12,7.74606,19844.5,7757.7,64.5405,553.663,5.10798e+10,1.02449,0.981002,14,0.0922018,1376,1,1
app_13,5.04288,20165,7645,73.1993,765.361,3.0143e+10,1.04233,0.981002,10,0.0394026,1939,1,1
app_14,10.3706,20164.1,7778.9,51.8704,456.766,4.02528e+10,1.02313,0.981002,17,0.0882736,1158,1,1
app_15,0.242924,20577.1,7604.6,93.395,948.439,4.28072e+10,1.04611,0.981002,8,0.0451077,2457,1,1
app_16,6.21809,20366.4,7713,62.2587,700.32,1.63869e+10,1.03501,0.981002,11,0.0234098,1790,1,1
app_17,5.32938,19790.7,7757.4,52.8669,517.964,2.61978e+10,1.0278,0.981002,15,0.0505748,1286,1,1
app_18,20.4791,20249.3,7848,31.8,340.804,1.04525e+10,1.01801,0.981002,23,0.0306524,863,1,1
app_19,23.3546,19558.4,7829.9,65.238,327.075,4.65612e+10,1.01568,0.981002,24,0.142389,797,1,1
app_2,4.9189,19447.2,7787.9,47.2508,519.754,1.53327e+10,1.02522,0.981002,15,0.0295428,1261,1,1
app_20,0.505641,17094.2,6642.1,578.501,6642.09,2.91347e+10,1.19918,0.981002,1,0.00438644,14279,1,1
app_21,36.7158,19984.5,7949.9,40.7097,41.0416,3.82763e+10,1.00148,0.981002,194,0.933568,103,1,1
app_22,31.3918,19997,7952.6,9.54505,90.4968,5.46374e+09,1.00527,0.981002,88,0.0600411,226,1,1
app_23,78.3338,19936.9,7962.2,20.0983,63.5817,1.87829e+10,1.00238,0.981002,127,0.293483,157,1,1
app_24,20.0126,19938,7925,11.1353,138.958,3.92776e+08,1.00941,0.981002,57,0.00282573,347,1,1
app_25,134.417,20350.9,7984.4,7.21278,33.559,6.08685e+09,1.00119,0.981002,239,0.179025,84,1,1
app_26,60.8194,20123.1,7973.2,11.9282,58.2836,9.05118e+09,1.00222,0.981002,135,0.156055,148,1,1
app_27,4.93916,19998,7852.9,45.9127,230.979,3.38598e+10,1.01436,0.981002,34,0.146579,580,1,1
app_28,112.945,20480.6,7934.7,21.8007,57.221,1.77703e+10,1.00598,0.981002,137,0.31176,146,1,1
app_29,55.4179,20101.6,7928.6,40.2756,50.4785,3.84146e+10,1.00414,0.981002,158,0.768292,126,1,1
app_3,12.5119,19738.9,7785.5,46.9928,520.372,1.3042e+10,1.02583,0.981002,15,0.0250807,1281,1,1
app_30,161.852,20095.1,7932.5,54.066,41.9551,5.09433e+10,1.00207,0.981002,187,1.21294,106,1,1
app_31,51.1212,19907.8,7926.5,31.8748,155.945,2.39714e+10,1.00623,0.981002,51,0.153663,386,1,1
app_32,2.72363,19932.5,7925.7,46.7431,80.3999,4.10675e+10,1.00417,0.981002,99,0.513343,200,1,1
app_33,112.573,20156.5,7946.6,31.8189,63.505,2.81935e+10,1.00316,0.981002,124,0.440524,160,1,1
app_34,100.983,20176.5,7959.5,19.9444,49.2701,1.79318e+10,1.00283,0.981002,161,0.365956,124,1,1
app_35,102.558,20260.3,7966.4,13.8326,72.5896,8.19923e+09,1.00319,0.981002,109,0.112318,183,1,1
app_36,32.5318,19953.2,7904.3,53.8317,129.807,4.86471e+10,1.00592,0.981002,61,0.374209,324,1,1
app_37,33.2896,20099,7926.1,45.6843,73.6279,4.32869e+10,1.00384,0.981002,107,0.584959,186,1,1
app_38,47.1573,19989.6,7963.3,19.4044,90.7746,1.67445e+10,1.0025,0.981002,87,0.184006,228,1,1
app_39,50.7411,20095.4,7965.7,12.1755,58.7717,8.70674e+09,1.00321,0.981002,134,0.147572,149,1,1
app_4,6.0189,19262.7,7770.8,52.1606,519.246,2.64999e+10,1.026,0.981002,15,0.0510595,1248,1,1
app_40,5.42138,19924,7899.9,42.6805,218.932,3.01845e+10,1.00882,0.981002,36,0.138461,545,1,1
app_41,490.13,21134.1,7950.2,34.2672,5.39227,3.39985e+10,1.00198,0.981002,1496,5.66641,14,1,1
app_42,195.683,21361.9,7955.6,44.3566,4.0387,4.40242e+10,1.00005,0.981002,1917,11.006,11,1,1
app_43,545.058,20884.6,7957,42.8038,7.07403,4.23671e+10,1.00008,0.981002,1119,6.05244,18,1,1
app_44,166.349,20650.4,7988.6,6.85447,11.4161,6.38122e+09,1.00063,0.981002,703,0.580111,29,1,1
app_45,1021.26,21965.3,7956.9,42.6879,5.69432,4.24237e+10,1.00008,0.981002,1367,7.07062,15,1,1
app_46,474.927,20587.5,7980.5,15.185,9.17569,1.45849e+10,1.00061,0.981002,878,1.62055,23,1,1
app_47,525.04,20953.1,7984.7,15.0968,9.91022,1.49191e+10,1.00005,0.981002,784,1.49191,26,1,1
app_48,1612.04,21225.2,7994.1,5.42652,4.39593,5.01985e+09,1.00011,0.981002,1821,1.00397,11,1,1
app_49,540.402,20946,7965.5,32.9276,10.8504,3.23553e+10,1.00027,0.981002,717,2.94139,28,1,1
app_5,10.0875,19544.1,7735.7,60.124,594.929,2.95725e+10,1.03023,0.981002,13,0.0497017,1458,1,1
app_50,427.931,20558.8,7981.1,12.6066,5.82214,1.25884e+10,1.00079,0.981002,1341,2.09807,15,1,1
app_51,38.153,20266.1,7910.4,55.7076,50.7788,5.27094e+10,1.00463,0.981002,153,1.03352,130,1,1
app_52,865.806,22187,7945.5,50.4447,5.56903,5.02218e+10,1.00054,0.981002,1402,8.3703,15,1,1
app_53,1354.09,22070.2,7979.2,20.5507,5.21956,2.03031e+10,1.00006,0.981002,1448,4.06062,14,1,1
app_54,186.751,20231.3,7960.4,35.9974,32.324,3.49687e+10,1.00058,0.981002,247,1.09277,81,1,1
app_55,1968.71,21316.2,7968.7,31.2123,3.66499,3.11311e+10,1.00002,0.981002,2217,7.78279,9,1,1
app_56,135.755,20584.6,7943.6,45.4027,17.5545,4.48164e+10,1.00145,0.981002,446,2.4898,45,1,1
app_57,775.617,21143.7,7942.1,57.5951,5.64709,5.74259e+10,1.00006,0.981002,1462,9.57098,14,1,1
app_58,0.740553,19853.9,7395.7,167.446,1849.88,4.37429e+10,1.07535,0.981002,4,0.0236576,4608,1,1
app_59,245.222,20536.1,7997.6,2.02201,19.1145,6.46389e+08,1.00022,0.981002,412,0.0323194,49,1,1
app_6,15.3238,19289.3,7729.2,92.0046,516.728,5.31378e+10,1.02797,0.981002,15,0.102781,1248,1,1
app_60,1405.19,22178.5,7960.5,39.3587,5.08958,3.90009e+10,1.00006,0.981002,1652,7.80018,13,1,1
app_7,6.42655,20295.9,7820.8,39.8073,489.408,1.40753e+09,1.02273,0.981002,16,0.00287839,1241,1,1
app_8,7.73669,19790.8,7837.7,37.1054,434.81,4.75597e+09,1.02009,0.981002,18,0.0109333,1076,1,1
app_9,4.12996,19724.8,7616.3,86.7466,953.761,2.51971e+10,1.04692,0.981002,8,0.026412,2359,1,1
