app_id,start_app,end_app,effective_cpu,effective_io,effective_iter,total_bytes,stretch,utilization,Tcomp,Tio,iterations,priority,group_id
app_1,3.83541,18496,7906.4,80.769,879.704,6.39315e+09,1.01102,0.992772,9,0.00726494,2032,0.1,1
app_10,10.9129,18890.4,7921.4,67.7345,659.185,3.65618e+10,1.00528,0.992772,12,0.0554807,1558,0.1,1
app_11,1.28972,19379.1,7896.1,88.8739,878.735,4.39769e+10,1.00755,0.992772,9,0.0500306,2126,0.1,1
app_12,2.11942,19250,7877.8,103.185,1121.29,1.51011e+10,1.01357,0.992772,7,0.0134711,2703,0.1,1
app_13,26.2021,19443.4,7932.6,61.7542,305.219,4.71963e+10,1.00253,0.992772,26,0.154236,739,0.1,1
app_14,1.04719,18401.6,7889.5,94.6282,990.132,3.24104e+10,1.00986,0.992772,8,0.0327378,2272,0.1,1
app_15,2.85142,18897.5,7894,90.1854,875.437,5.52114e+10,1.00639,0.992772,9,0.0630268,2071,0.1,1
app_16,3.56518,19819.2,7935.2,55.468,567.145,2.37711e+10,1.00516,0.992772,14,0.0419243,1406,0.1,1
app_17,8.18334,19316.6,7884.4,99.1832,986.297,5.10956e+10,1.00813,0.992772,8,0.0518211,2379,0.1,1
app_18,18.9047,19758.2,7915.9,76.6633,396.549,4.90436e+10,1.0044,0.992772,20,0.123536,978,0.1,1
app_19,1.30169,17458.8,7831.8,142.698,1567.63,1.20631e+10,1.01991,0.992772,5,0.00769329,3423,0.1,1
app_2,4.51951,19738.7,7933.3,57.0317,565.715,3.04658e+10,1.00455,0.992772,14,0.0538265,1395,0.1,1
app_20,15.6227,19855.5,7907.2,84.5802,440.497,5.38238e+10,1.0049,0.992772,18,0.122327,1091,0.1,1
app_21,45.6071,20223.1,7962.7,34.1523,145.606,2.44997e+10,1.0016,0.992772,54,0.167806,369,0.01,2
app_22,159.426,20187.5,7958.6,40.2563,36.5624,3.48983e+10,1.00081,0.992772,219,0.969396,91,0.01,2
app_23,15.0376,19813.5,7930.3,64.3004,317.552,5.01568e+10,1.00245,0.992772,25,0.157726,787,0.1,1
app_24,181.477,20202.4,7965.2,33.8331,32.4179,2.9087e+10,1.00071,0.992772,244,0.90897,82,0.01,2
app_25,112.121,20011.1,7993.8,5.7716,54.6345,3.04947e+09,1.00039,0.992772,147,0.0564717,136,0.01,2
app_26,113.939,20324.9,7976.5,22.9359,34.7248,1.84907e+10,1.00063,0.992772,230,0.528305,87,0.01,2
app_27,50.211,20128.7,7993.2,6.37295,61.908,2.67346e+09,1.00052,0.992772,129,0.0431203,155,0.01,2
app_28,62.2888,19949.8,7945.1,54.8193,96.7851,4.48462e+10,1.00126,0.992772,82,0.462332,241,0.01,2
app_29,4.82434,19811.1,7871,108.773,1123.09,4.21242e+10,1.01098,0.992772,7,0.0375104,2783,0.1,1
app_3,14.1994,19356.6,7932.9,57.9259,565.701,3.39525e+10,1.00416,0.992772,14,0.0599868,1369,0.1,1
app_30,7.11377,19089.7,7931.3,57.7624,613.04,1.51313e+10,1.00674,0.992772,13,0.0246839,1460,0.1,1
app_31,99.0231,20114.2,7953.4,45.6455,35.6491,3.9061e+10,1.00094,0.992772,225,1.11603,89,0.01,2
app_32,29.9432,20039.5,7972.3,26.3639,63.5462,1.9206e+10,1.00106,0.992772,125,0.300094,160,0.01,2
app_33,116.717,20272.2,7994.1,4.62357,48.7954,4.13143e+08,1.00069,0.992772,163,0.00843149,123,0.01,2
app_34,38.6985,19871.2,7948.8,47.5929,140.101,3.91035e+10,1.00151,0.992772,57,0.279311,345,0.01,2
app_35,142.754,20125.7,7949.8,48.025,45.6439,4.19185e+10,1.00104,0.992772,174,0.911271,114,0.01,2
app_36,21.7645,20030.2,7937.6,60.9942,64.6913,5.06963e+10,1.00147,0.992772,123,0.79213,161,0.01,2
app_37,2.40689,20053.9,7944.5,50.221,265.764,2.70416e+10,1.00357,0.992772,30,0.10166,665,0.1,1
app_38,10.4791,19430.9,7929.9,63.7014,330.242,4.05339e+10,1.00371,0.992772,24,0.12283,804,0.1,1
app_39,174.407,20380.7,7985.3,8.06058,22.8855,6.33508e+09,1.00105,0.992772,345,0.275438,58,0.001,3
app_4,22.4543,19571.1,7962,32.4522,346.851,5.92966e+09,1.00402,0.992772,23,0.0170884,849,0.1,1
app_40,21.2378,20196.4,7957.9,40.5514,42.1557,3.36135e+10,1.00106,0.992772,189,0.800321,106,0.01,2
app_41,883.766,22504.7,7977.9,21.4442,7.07171,1.62414e+10,1.00073,0.992772,1106,2.3202,19,0.001,3
app_42,65.8851,20458.3,7947.2,37.1588,12.678,3.21073e+10,1.00259,0.992772,613,2.46979,33,0.001,3
app_43,763.663,20534.1,7990.3,9.7,9.57359,8.75889e+09,1.00012,0.992772,834,0.973211,24,0.001,3
app_44,1581.92,22664.4,7984.5,13.0004,4.21329,1.14752e+10,1.0005,0.992772,1923,2.8688,11,0.001,3
app_45,773.343,20985.4,7982.7,13.4975,5.23314,1.17777e+10,1.00069,0.992772,1536,2.35554,13,0.001,3
app_46,113.68,21227.2,7995.2,4.8,5.85745,4.13321e+09,1.00008,0.992772,1407,0.826641,15,0.001,3
app_47,725.985,21709.7,7939.9,60.1,5.84761,5.07056e+10,1.00118,0.992772,1362,8.45094,15,0.001,3
app_48,339.248,20911.3,7992.7,2.04368,5.15826,1.77084e+09,1.00069,0.992772,1578,0.354169,13,0.001,3
app_49,1678.29,23760.6,7933.7,66.3,3.65101,5.66605e+10,1.00121,0.992772,2200,14.1651,10,0.001,3
app_5,2.98194,19195.4,7923.5,64.2101,720.213,2.13867e+09,1.00938,0.992772,11,0.00297037,1725,0.1,1
app_50,414.049,21461.7,7985.6,14.4,9.19847,1.16864e+10,1.00034,0.992772,864,1.29849,24,0.001,3
app_51,1803.1,23618.6,7964.6,35.4,4.06768,3.0842e+10,1.00057,0.992772,1949,7.7105,11,0.001,3
app_52,49.7751,20813.3,7995,4.06237,4.72035,3.18083e+09,1.00023,0.992772,1734,0.636166,12,0.001,3
app_53,388.361,20416.7,7984.4,14.0999,18.1594,1.13078e+10,1.00054,0.992772,436,0.595148,46,0.001,3
app_54,184.743,20339.8,7944.7,55.3,17.5726,4.40651e+10,1.00141,0.992772,462,2.44806,44,0.001,3
app_55,1679.32,21951.9,7938.1,61.9,3.38852,5.26276e+10,1.00116,0.992772,2280,13.1569,9,0.001,3
app_56,1027.77,23038.9,7964.3,35.7,3.12973,3.01819e+10,1.00069,0.992772,2430,10.0606,9,0.001,3
app_57,40.6069,20424.8,7961.1,38.1312,18.3468,3.1646e+10,1.00091,0.992772,432,1.75811,47,0.001,3
app_58,1012.91,21226.4,7955.8,40.9711,6.52491,3.39401e+10,1.00128,0.992772,1197,5.65668,17,0.001,3
app_59,1189.99,22419.3,7955.6,44.4,5.2603,3.85853e+10,1.00073,0.992772,1504,7.71706,14,0.001,3
app_6,2.58164,17418,7832.6,139.715,1562.99,9.30269e+09,1.02016,0.992772,5,0.00595182,3406,0.1,1
app_60,264.408,20551.7,7931.2,61.4297,12.6424,5.19925e+10,1.00211,0.992772,660,4.33271,31,0.001,3
app_7,3.05,19348.2,7950.2,41.5864,467.269,1.58359e+09,1.00606,0.992772,17,0.00338373,1131,0.1,1
app_8,4.39905,18887.9,7834.9,140.964,1566.76,1.11446e+10,1.01962,0.992772,5,0.00711208,3700,0.1,1
app_9,6.0389,20019.7,7943.2,49.3224,529.331,8.4072e+09,1.00609,0.992772,15,0.0158926,1325,0.1,1
