app_id,start_app,end_app,effective_cpu,effective_io,effective_iter,total_bytes,stretch,utilization,Tcomp,Tio,iterations,priority,group_id
app_1,6.58574,18157.7,7883,117,986.388,6.57982e+10,1.00644,0.991731,8,0.0666648,2239,1,1
app_10,6.70932,19261.2,7871.1,128.9,1124.59,6.07437e+10,1.00859,0.991731,7,0.0540424,2707,1.00001,1.00001
app_11,5.91366,19508.3,7908.4,91.6,418.13,4.94574e+10,1.0053,0.991731,19,0.118319,1015,1.00001,1.00001
app_12,0.172857,18429.6,7869,131,1309.9,1.35859e+10,1.0149,0.991731,6,0.010371,3020,1.00001,1.00001
app_13,0.941195,20089.7,7884,116,1128.39,3.94711e+10,1.00966,0.991731,7,0.0349611,2830,1.00001,1.00001
app_14,5.47551,19584.7,7887.3,112.7,528.242,5.70062e+10,1.00701,0.991731,15,0.107966,1288,1.00001,1.00001
app_15,20.4499,19534.5,7963.9,36.1,361.23,2.17573e+09,1.00426,0.991731,22,0.00602694,881,1.00002,1.00002
app_16,4.56544,19185.1,7868.4,131.6,1314.4,2.3694e+10,1.01367,0.991731,6,0.018032,3144,1.00002,1.00002
app_17,0.15969,18562.6,7273.1,726.9,7268.97,2.65926e+09,1.09954,0.991731,1,0.000365836,16883,1.00002,1.00002
app_18,1.73978,18052.8,7868.1,131.9,1311.76,3.38789e+10,1.0124,0.991731,6,0.025842,2965,1.00002,1.00002
app_19,8.60661,19469.8,7911.6,88.4,878.25,2.41957e+10,1.00809,0.991731,9,0.0275577,2141,1.00002,1.00002
app_2,3.8341,19654.8,7912.3,87.7,877.636,1.83218e+10,1.00875,0.991731,9,0.0208914,2158,1,1
app_20,2.6842,17935.4,7887.1,112.9,1129.32,2.05281e+10,1.01168,0.991731,7,0.0181826,2529,1.00002,1.00002
app_21,3.0804,19817.3,7973.2,26.8,193.171,1.5815e+10,1.00138,0.991731,41,0.0819428,481,1.00002,1.00002
app_22,8.73574,19974.2,7938.9,61.1,168.707,4.26982e+10,1.00231,0.991731,47,0.254156,421,1.00002,1.00002
app_23,19.8556,19874.7,7970.6,29.4,274.855,1.36978e+10,1.00197,0.991731,29,0.0499919,682,1.00002,1.00002
app_24,50.8921,19948.7,7994.3,5.7,56.4301,2.50726e+09,1.0004,0.991731,141,0.0447724,141,1.00002,1.00002
app_25,57.7183,20328.6,7977.2,22.8,64.7195,1.54803e+10,1.00092,0.991731,123,0.24188,163,1.00003,1.00003
app_26,37.1701,20200.6,7953.4,46.6,95.7421,3.21984e+10,1.0018,0.991731,83,0.3354,240,1.00003,1.00003
app_27,146.547,20234.5,7961.4,38.6,21.4965,2.67454e+10,1.00148,0.991731,375,1.27359,54,1.00003,1.00003
app_28,203.141,20025.8,7965.9,34.1,33.0605,2.78488e+10,1.00078,0.991731,247,0.843902,81,1.00003,1.00003
app_29,207.303,20335.6,7975,25,23.8251,1.87471e+10,1.00078,0.991731,335,0.78113,60,1.00003,1.00003
app_3,6.59666,19421.9,7926.6,73.4,330.798,4.21779e+10,1.00392,0.991731,24,0.127426,803,1,1
app_30,14.4368,19874.9,7941.7,58.3,142.698,4.18063e+10,1.00207,0.991731,56,0.292352,353,1.00003,1.00003
app_31,86.2136,20013.3,7987.6,12.4,90.7341,8.008e+09,1.00055,0.991731,88,0.088,225,1.00003,1.00003
app_32,89.2327,20014.6,7962.1,37.9,64.5029,2.72725e+10,1.00133,0.991731,123,0.419577,162,1.00003,1.00003
app_33,66.2546,19810.4,7974.6,25.4,120.37,1.40294e+10,1.00142,0.991731,66,0.116912,299,1.00003,1.00003
app_34,162.617,20166.2,7986.8,13.2,39.7344,1.01068e+10,1.00039,0.991731,200,0.259149,100,1.00003,1.00003
app_35,30.0962,19738.7,7980.5,19.5,162.784,1.08202e+10,1.00109,0.991731,49,0.0663816,400,1.00004,1.00004
app_36,46.2173,19918.8,7952.7,47.3,137.146,3.21372e+10,1.0019,0.991731,58,0.232878,342,1.00004,1.00004
app_37,62.9747,20004.8,7988.3,11.7,46.1948,8.94085e+09,1.00035,0.991731,174,0.194366,115,1.00004,1.00004
app_38,3.13763,19772.5,7910.7,89.3,415.264,4.79291e+10,1.0052,0.991731,19,0.115492,1026,1.00004,1.00004
app_39,29.4714,19844.7,7917.8,82.2,132.411,5.79384e+10,1.00304,0.991731,60,0.438928,327,1.00004,1.00004
app_4,4.38033,19207.2,7938.5,61.5,441.888,4.17354e+10,1.00248,0.991731,18,0.0944241,1061,1,1
app_40,3.12943,20016.4,7943.5,56.5,110.554,4.16793e+10,1.00186,0.991731,72,0.378902,276,1.00004,1.00004
app_41,74.5977,20048.5,7988.1,11.9,101.161,7.34433e+09,1.00057,0.991731,79,0.0727161,252,1.00004,1.00004
app_42,277.887,20653.4,7932.6,67.4,18.2735,5.50512e+10,1.00155,0.991731,438,3.0584,46,1.00004,1.00004
app_43,230.882,20442.9,7942.1,57.9,10.0174,4.80781e+10,1.00123,0.991731,782,4.80781,26,1.00004,1.00004
app_44,1346.72,21338.4,7963.3,36.7,6.15165,3.01723e+10,1.00082,0.991731,1352,5.02871,15,1.00004,1.00004
app_45,886.047,20951.4,7992.5,7.5,8.0728,5.45875e+09,1.00026,0.991731,1014,0.682344,20,1.00004,1.00004
app_46,1429.22,21083.4,7945.5,54.5,4.89596,4.1163e+10,1.00167,0.991731,1661,8.23259,12,1.00005,1.00005
app_47,1939.54,23638.4,7999.1,0.9,3.34658,5.88684e+08,1.00004,0.991731,2384,0.147171,9,1.00005,1.00005
app_48,798.177,23033.2,7962.7,37.3,2.84603,2.20231e+10,1.00191,0.991731,2724,7.34105,8,1.00005,1.00005
app_49,207.76,20073.7,7989.7,10.3,4.94625,8.82606e+09,1.00018,0.991731,1680,1.76521,12,1.00005,1.00005
app_5,4.1098,19924.4,7920.8,79.2,791.954,1.77049e+09,1.00977,0.991731,10,0.00223546,1970,1.00001,1.00001
app_50,3.99426,20168.5,7946.8,53.2,37.1856,4.11675e+10,1.00151,0.991731,215,1.11263,93,1.00005,1.00005
app_51,26.3312,20216.3,7951.9,48.1,21.2014,3.31606e+10,1.00187,0.991731,369,1.57908,54,1.00005,1.00005
app_52,200.63,20331.7,7974.6,25.4,17.595,2.04629e+10,1.00062,0.991731,455,1.13683,44,1.00005,1.00005
app_53,229.062,20098.4,7996.8,3.2,9.65695,2.09438e+09,1.00014,0.991731,836,0.209438,24,1.00005,1.00005
app_54,629.387,20919.5,7988.3,11.7,9.26744,8.88938e+09,1.00035,0.991731,844,0.987708,24,1.00005,1.00005
app_55,190.685,20643.6,7955.8,44.2,14.0979,3.69273e+10,1.00091,0.991731,567,2.63766,36,1.00005,1.00005
app_56,163.082,20999.8,7988.3,11.7,11.3736,9.2245e+09,1.00031,0.991731,684,0.838591,30,1.00006,1.00006
app_57,440.741,20869.1,7974.9,25.1,7.14903,1.67566e+10,1.00104,0.991731,1118,2.3938,18,1.00006,1.00006
app_58,773.582,21721.9,7986.8,13.2,8.82285,1.1771e+10,1.00018,0.991731,899,1.30789,23,1.00006,1.00006
app_59,1434.89,21890.7,7958.5,41.5,5.16472,2.74891e+10,1.00175,0.991731,1583,5.49783,13,1.00006,1.00006
app_6,7.33251,20097.5,7921.2,78.8,330.432,5.38353e+10,1.00313,0.991731,24,0.163137,828,1.00001,1.00001
app_60,1054.7,21196,7977.8,22.2,6.90665,1.59481e+10,1.00078,0.991731,1114,2.2783,18,1.00006,1.00006
app_7,4.46959,19516.3,7916.6,83.4,792.34,3.61308e+10,1.00594,0.991731,10,0.0455621,1930,1.00001,1.00001
app_8,2.08578,17755.3,7862.4,137.6,1310.77,5.79134e+10,1.01006,0.991731,6,0.044175,2910,1.00001,1.00001
app_9,1.66891,18347.2,7885,115,988.197,5.34785e+10,1.00775,0.991731,8,0.054128,2261,1.00001,1.00001
