app_id,start_app,end_app,effective_cpu,effective_io,effective_iter,total_bytes,stretch,utilization,Tcomp,Tio,iterations,priority,group_id
app_1,3.5441,19043,7922,78,662.509,3.82901e+10,1.00499,0.985742,12,0.05784,1577,1,1
app_10,5.03671,19305.2,7928.1,71.9,718.506,1.555e+10,1.00709,0.985742,11,0.0216573,1738,1.00001,1.00001
app_11,7.77857,18500.3,7908,92,879.186,3.54481e+10,1.00712,0.985742,9,0.0402819,2035,1.00001,1.00001
app_12,6.7131,19709.5,7888.4,111.6,987.058,5.07495e+10,1.00766,0.985742,8,0.0514179,2431,1.00001,1.00001
app_13,2.16965,15503.7,7619.3,380.7,3807.33,4.41914e+10,1.04391,0.985742,2,0.0116079,7380,1.00001,1.00001
app_14,2.9764,19182.3,7912.8,87.2,720.143,5.16538e+10,1.00446,0.985742,11,0.0717414,1726,1.00001,1.00001
app_15,1.50367,19470.3,7958.1,41.9,418.815,1.00626e+10,1.004,0.985742,19,0.0240158,1020,1.00002,1.00002
app_16,0.600491,19536.3,7896.1,103.9,985.577,4.29589e+10,1.00768,0.985742,8,0.0436131,2404,1.00002,1.00002
app_17,1.24221,11018.6,4562.34,456.3,4562.86,5.7531e+10,1.73165,0.985742,1,0.0126082,10022,1.00002,1.00002
app_18,4.39322,19618.5,7962.2,37.8,318.06,1.95529e+10,1.00229,0.985742,25,0.061487,780,1.00002,1.00002
app_19,5.31808,19995.6,7927.5,72.5,721.609,1.81801e+10,1.00684,0.985742,11,0.0251802,1803,1.00002,1.00002
app_2,16.3111,20048.2,7952.1,47.9,444.73,2.18674e+10,1.00326,0.985742,18,0.0492509,1107,1,1
app_20,25.4662,19774.2,7934.3,65.7,293.418,3.73117e+10,1.00356,0.985742,27,0.127344,727,1.00002,1.00002
app_21,34.9268,20024,7951.1,48.9,78.9625,3.73642e+10,1.00144,0.985742,101,0.472964,197,1.00002,1.00002
app_22,8.03715,19851.5,7976.3,23.7,68.4937,1.64137e+10,1.00091,0.985742,118,0.241378,169,1.00002,1.00002
app_23,30.3204,20086.6,7985.6,14.4,144.337,3.79749e+09,1.00133,0.985742,55,0.0263715,362,1.00002,1.00002
app_24,41.6163,19735.9,7957.2,42.8,79.4826,2.98389e+10,1.00162,0.985742,101,0.372986,196,1.00002,1.00002
app_25,207.136,20520.3,7957.7,42.3,35.1888,3.42614e+10,1.00101,0.985742,226,0.978896,89,1.00003,1.00003
app_26,47.7015,19957.8,7963.7,36.3,73.0488,2.68917e+10,1.00118,0.985742,110,0.368379,181,1.00003,1.00003
app_27,99.5544,20260.3,7973.6,26.4,39.8012,1.95141e+10,1.00086,0.985742,201,0.487851,100,1.00003,1.00003
app_28,6.7677,19846.8,7980.7,19.3,81.7105,1.28916e+10,1.0008,0.985742,98,0.157214,203,1.00003,1.00003
app_29,14.7869,19811.4,7963.3,36.7,139.02,2.4785e+10,1.00149,0.985742,57,0.178309,345,1.00003,1.00003
app_3,14.1199,19393,7930.5,69.5,528.487,4.35449e+10,1.00325,0.985742,15,0.0823155,1283,1,1
app_30,78.5834,20113.8,7974.1,25.9,57.9686,2.0068e+10,1.00073,0.985742,139,0.346001,144,1.00003,1.00003
app_31,58.9651,19965.2,7974.7,25.3,112.382,1.57968e+10,1.00119,0.985742,71,0.139795,279,1.00003,1.00003
app_32,14.9091,19808.6,7979.2,20.8,194.061,8.92029e+09,1.00149,0.985742,41,0.0459809,483,1.00003,1.00003
app_33,135.913,19979,7970.3,29.7,51.6932,1.82464e+10,1.00143,0.985742,155,0.350892,128,1.00003,1.00003
app_34,24.6044,19813.3,7939.2,60.8,107.164,4.4444e+10,1.00205,0.985742,74,0.415365,266,1.00003,1.00003
app_35,63.3787,20116.3,7976.2,23.8,83.5691,1.64312e+10,1.00092,0.985742,96,0.197966,208,1.00004,1.00004
app_36,51.7562,20192.2,7961.6,38.4,47.9943,2.89444e+10,1.00118,0.985742,164,0.603008,122,1.00004,1.00004
app_37,157.906,20232.3,7959.9,40.1,41.9301,2.94792e+10,1.00133,0.985742,190,0.701885,105,1.00004,1.00004
app_38,10.8088,19930.8,7977.1,22.9,159.702,1.45423e+10,1.00105,0.985742,50,0.0908892,397,1.00004,1.00004
app_39,101.775,20025.9,7995.3,4.7,46.7539,2.60985e+08,1.00056,0.985742,172,0.00555288,117,1.00004,1.00004
app_4,4.55086,17512.6,7842.8,157.2,1571.43,1.4755e+10,1.01813,0.985742,5,0.00938612,3436,1,1
app_40,145.466,20089.9,7960.2,39.8,51.3203,2.8676e+10,1.00139,0.985742,155,0.551461,128,1.00004,1.00004
app_41,460.74,20725.6,7997,3,9.61186,1.77169e+09,1.00015,0.985742,837,0.177169,24,1.00004,1.00004
app_42,699.306,21706.8,7957.4,42.6,11.0128,2.66184e+10,1.002,0.985742,737,2.41985,28,1.00004,1.00004
app_43,658.564,20949.9,7943.2,56.8,5.11423,3.98137e+10,1.00213,0.985742,1536,7.96275,13,1.00004,1.00004
app_44,325.413,21258.5,7936.7,63.3,10.779,4.57202e+10,1.0022,0.985742,725,4.15638,28,1.00004,1.00004
app_45,590.725,21098.8,7985.8,14.2,9.48338,1.08987e+10,1.00041,0.985742,852,1.21097,24,1.00004,1.00004
app_46,1014.3,23251.1,7977.4,22.6,3.52011,1.41202e+10,1.00106,0.985742,2194,4.70672,10,1.00005,1.00005
app_47,601.013,21229.2,7945.31,54.6921,5.908,4.63429e+10,1.00104,0.985742,1378,8.52696,15,1.00005,1.00005
app_48,395.105,20414.5,7991.4,8.6,17.0346,6.7144e+09,1.00024,0.985742,475,0.394965,42,1.00005,1.00005
app_49,29.6202,19906.7,7987.6,12.4,49.1864,8.05653e+09,1.00054,0.985742,163,0.164419,122,1.00005,1.00005
app_5,7.20734,18887.4,7886.5,113.5,1127.53,3.58405e+10,1.0098,0.985742,7,0.0317735,2666,1.00001,1.00001
app_50,734.016,21313.3,7948.3,51.7,4.60078,3.83365e+10,1.00167,0.985742,1745,9.58413,12,1.00005,1.00005
app_51,1171.39,21445.3,7955.8,44.2,5.61867,3.78588e+10,1.00079,0.985742,1429,7.57175,14,1.00005,1.00005
app_52,1202.82,21858.9,7928.6,71.4,6.14093,4.3826e+10,1.00346,0.985742,1251,7.30433,16,1.00005,1.00005
app_53,726.003,21646.7,7960.4,39.6,5.80799,3.07368e+10,1.00111,0.985742,1388,5.12279,15,1.00005,1.00005
app_54,1637.4,22233.5,7986.2,13.8,4.50171,9.37838e+09,1.00055,0.985742,1667,1.87568,12,1.00005,1.00005
app_55,1192.1,22558.9,7968.4,31.6,5.46348,2.22904e+10,1.00117,0.985742,1376,4.45808,15,1.00005,1.00005
app_56,58.4426,20180.1,7993.2,6.8,68.7312,5.18085e+08,1.00079,0.985742,116,0.0076189,173,1.00006,1.00006
app_57,2725.65,22504.3,7974.1,25.9,2.81878,2.01755e+10,1.00072,0.985742,3012,10.0877,7,1.00006,1.00006
app_58,2086.81,22421.3,7981.4,18.6,3.16447,1.60712e+10,1.00032,0.985742,2536,5.35708,8,1.00006,1.00006
app_59,638.315,21454.2,7946.6,53.4,10.6599,4.18443e+10,1.00145,0.985742,733,3.80403,28,1.00006,1.00006
app_6,6.98129,19612.1,7888.41,111.587,982.479,5.32049e+10,1.00735,0.985742,8,0.0541561,2410,1.00001,1.00001
app_60,551.181,21456.1,7941.5,58.5,7.18825,4.68353e+10,1.00146,0.985742,1082,6.69076,19,1.00006,1.00006
app_7,7.71135,18904.9,7912,88,880.443,2.18451e+09,1.01084,0.985742,9,0.0024824,2079,1.00001,1.00001
app_8,3.3145,17642,7741.4,258.6,2585.59,2.42106e+10,1.03018,0.985742,3,0.00936217,5696,1.00001,1.00001
app_9,12.7012,19252.8,7899.9,100.1,462.907,5.47156e+10,1.00571,0.985742,17,0.118176,1117,1.00001,1.00001
