app_id,start_app,end_app,effective_cpu,effective_io,effective_iter,total_bytes,stretch,utilization,Tcomp,Tio,iterations,priority,group_id
app_1,1.33441,19319.8,7468.9,108.068,1245.84,2.31513e+10,1.0678,0.976937,6,0.0185805,3016,1,1
app_10,4.49638,20177.3,7463.7,111.557,1244.18,3.23377e+10,1.06723,0.976937,6,0.0259949,3148,1,1
app_11,9.98722,20170,7852.3,27.5187,312.72,6.82027e+09,1.01793,0.976937,25,0.02179,791,1,1
app_12,1.91178,17270.9,6965.8,293.421,3481.34,1.67401e+10,1.14571,0.976937,2,0.00480899,7575,1,1
app_13,0.142356,19695.6,7403,120.206,1483.38,2.49262e+09,1.08028,0.976937,5,0.00168079,3662,1,1
app_14,0.125297,17081.4,7175.1,195.94,2391.11,1.78469e+10,1.1122,0.976937,3,0.00746422,5132,1,1
app_15,7.06477,20518,7723.1,60.5317,515.906,4.70612e+10,1.02958,0.976937,15,0.0912039,1321,1,1
app_16,3.52362,16935.1,7192.5,199.999,2400.76,1.57438e+10,1.10984,0.976937,3,0.00655718,5103,1,1
app_17,15.069,20154.1,7856.9,26.3983,302.673,5.15431e+09,1.01755,0.976937,26,0.0170672,765,1,1
app_18,3.76945,20395.7,7683.6,59.012,698.035,1.01671e+10,1.0398,0.976937,11,0.0145661,1785,1,1
app_19,12.0271,19773.6,7750.9,47.949,456.002,2.76331e+10,1.02847,0.976937,17,0.0605989,1129,1,1
app_2,4.99731,18766,7574.4,75.8739,948.753,1.73189e+09,1.05595,0.976937,8,0.00182688,2236,1,1
app_20,4.47708,20463.7,7782.4,38.2939,432.97,9.52644e+09,1.0267,0.976937,18,0.022001,1108,1,1
app_21,3.8122,20333.7,7819.8,59.4538,324.728,3.5341e+10,1.01844,0.976937,24,0.109077,826,1,1
app_22,4.70831,20130.8,7841.5,34.1203,372.394,8.79417e+09,1.01907,0.976937,21,0.0235769,943,1,1
app_23,31.0405,19965.4,7900.4,17.7985,171.73,9.2362e+09,1.01142,0.976937,46,0.0536988,429,1,1
app_24,4.31622,20112.8,7951.9,16.721,79.8897,1.4717e+10,1.00419,0.976937,99,0.183962,201,1,1
app_25,119.637,20140.4,7979.2,12.5127,40.7267,1.07241e+10,1.00126,0.976937,196,0.261563,102,1,1
app_26,154.675,20180.5,7979.1,8.17418,47.141,4.95937e+09,1.002,0.976937,169,0.105518,118,1,1
app_27,63.3185,20110.7,7936.3,26.687,68.6833,2.22625e+10,1.00521,0.976937,116,0.322645,172,1,1
app_28,114.848,20103.5,7972.2,14.1665,47.6772,1.22085e+10,1.00195,0.976937,168,0.259756,119,1,1
app_29,24.173,19849.6,7860.1,52.1841,184.218,3.77506e+10,1.01293,0.976937,43,0.205166,454,1,1
app_3,14.0854,20518,7749.4,48.498,483.855,2.33852e+10,1.02923,0.976937,16,0.0484165,1244,1,1
app_30,73.3331,20276,7928.3,52.6092,64.4814,5.10758e+10,1.00258,0.976937,123,0.798059,162,1,1
app_31,171.795,20275.2,7940.5,54.4752,42.091,5.20036e+10,1.00094,0.976937,188,1.23818,106,1,1
app_32,74.683,20113.1,7941.7,5.98288,60.7802,2.87688e+09,1.00698,0.976937,131,0.047162,153,1,1
app_33,167.149,20352.7,7934.8,43.3009,42.3286,4.1737e+10,1.00294,0.976937,186,0.970629,107,1,1
app_34,24.9613,20236,7910,48.2275,78.5563,4.46574e+10,1.0057,0.976937,100,0.565283,199,1,1
app_35,158.85,20345.2,7944.4,46.7825,41.6662,4.61344e+10,1.00118,0.976937,188,1.09844,106,1,1
app_36,117.071,20451.6,7972.1,5.27696,64.0111,5.16615e+08,1.00343,0.976937,123,0.00807212,163,1,1
app_37,7.34396,20132.2,7960.5,25.3786,40.8112,2.40115e+10,1.00194,0.976937,194,0.585646,103,1,1
app_38,65.1386,20071.8,7958.1,25.2857,43.4299,2.23284e+10,1.00245,0.976937,183,0.519265,109,1,1
app_39,8.97795,20236.5,7926.3,31.4348,98.3943,2.85188e+10,1.00568,0.976937,80,0.288069,249,1,1
app_4,2.7222,19461.5,7739.9,47.5617,553.073,9.12518e+09,1.03239,0.976937,14,0.0165012,1346,1,1
app_40,23.6993,20063.9,7932.5,39.0692,79.4527,3.34089e+10,1.00428,0.976937,99,0.417611,200,1,1
app_41,1120.33,22259,7985.8,5.4308,6.0185,5.04745e+09,1.00115,0.976937,1303,0.841242,16,1,1
app_42,487.227,21882.1,7953.8,46.2,6.28605,4.58611e+10,1.00004,0.976937,1232,7.64352,17,1,1
app_43,940.149,21887.1,7974.8,25.0672,5.01259,2.47869e+10,1.00005,0.976937,1584,4.95738,13,1,1
app_44,883.292,20709.6,7935.6,56.6923,6.61795,5.62278e+10,1.00102,0.976937,1180,8.03255,17,1,1
app_45,1126.55,21582,7944.6,35.9767,6.30549,3.5815e+10,1.00245,0.976937,1253,5.96917,16,1,1
app_46,12.4849,19932.8,7980.2,19.7309,2.8312,1.952e+10,1.00003,0.976937,2867,6.50668,7,1,1
app_47,35.3246,20056,7875.5,61.4794,149.318,5.703e+10,1.00851,0.976937,53,0.382752,373,1,1
app_48,206.001,21072,7938.4,44.7935,7.71906,4.43981e+10,1.00215,0.976937,1037,5.54976,20,1,1
app_49,399.783,20857.9,7940.1,55.9955,6.75211,5.55822e+10,1.00054,0.976937,1174,7.94032,17,1,1
app_5,1.28932,18826.5,7540.3,88.4805,1073.27,6.87898e+09,1.06,0.976937,7,0.00641097,2537,1,1
app_50,745.611,21864.3,7980.7,16.1041,6.87054,1.57406e+10,1.00045,0.976937,1172,2.24865,18,1,1
app_51,582.834,20982.2,7942.7,49.4797,8.78636,4.89619e+10,1.00104,0.976937,921,5.44021,22,1,1
app_52,1783.1,23909.2,7968.5,31.5,3.22759,3.13238e+10,1.00002,0.976937,2452,10.4413,9,1,1
app_53,69.741,20081,7919,23.2778,105.082,2.08268e+10,1.00758,0.976937,76,0.19835,263,1,1
app_54,118.277,20217.1,7936.8,58.7971,12.2395,5.83253e+10,1.00061,0.976937,649,4.86044,31,1,1
app_55,102.634,20230.7,7919,57.8202,52.6411,5.45353e+10,1.00332,0.976937,151,1.02897,132,1,1
app_56,337.819,20351.5,7938.9,54.8116,20.6596,5.37791e+10,1.00092,0.976937,387,2.56091,52,1,1
app_57,445.288,20776.1,7952.9,36.6424,12.8926,3.58042e+10,1.00141,0.976937,614,2.75417,33,1,1
app_58,554.359,20893.9,7945.1,49.7429,6.61951,4.93664e+10,1.00069,0.976937,1189,7.05235,17,1,1
app_59,247.453,20575.5,7975.6,22.2594,28.8037,2.07229e+10,1.00046,0.976937,271,0.740104,74,1,1
app_6,0.845015,20097.4,7861.4,28.0986,303.367,9.31216e+09,1.01643,0.976937,26,0.0307332,759,1,1
app_60,3.54623,20462,7962.7,36.9254,9.42724,3.62936e+10,1.00013,0.976937,844,3.62936,24,1,1
app_7,0.103238,19863.5,7195,191.833,2396.71,5.44232e+09,1.11104,0.976937,3,0.00227142,5983,1,1
app_8,13.5199,20414.7,7738.8,60.4288,551.785,4.19723e+10,1.02818,0.976937,14,0.0760368,1411,1,1
app_9,0.00825696,20744,7652,71.0804,765.735,2.27097e+10,1.04238,0.976937,10,0.0296471,1989,1,1
