app_id,start_app,end_app,effective_cpu,effective_io,effective_iter,total_bytes,stretch,utilization,Tcomp,Tio,iterations,priority,group_id
app_1,2.04382,19986,7945.9,47.9355,442.934,3.69534e+10,1.00215,0.990027,18,0.0834162,1104,0.1,1
app_10,4.07045,17369.4,7835.7,144.876,1568.2,2.22669e+10,1.01808,0.990027,5,0.0141918,3404,0.1,1
app_11,3.1754,17947.5,7790,187.262,1947.25,6.35708e+10,1.01864,0.990027,4,0.0326506,4365,0.1,1
app_12,10.8097,18573.2,7922.6,69.3398,660.013,4.9646e+10,1.00348,0.990027,12,0.0752213,1532,0.1,1
app_13,3.98673,19359.4,7794,183.516,1947.9,4.05837e+10,1.02111,0.990027,4,0.0208442,4710,0.1,1
app_14,14.6469,20091.5,7959.3,36.4122,380.093,1.06074e+10,1.00378,0.990027,21,0.0279142,951,0.1,1
app_15,6.50995,20099.9,7913.9,81.4941,416.463,5.48634e+10,1.00392,0.990027,19,0.131883,1046,0.1,1
app_16,7.26668,19267.5,7929.2,61.544,659.674,1.55748e+10,1.00695,0.990027,12,0.0235982,1589,0.1,1
app_17,4.74198,18884.5,7933.6,58.7703,567.457,3.72922e+10,1.00365,0.990027,14,0.065771,1337,0.1,1
app_18,21.1135,19880.5,7964.9,25.8595,248.518,1.3842e+10,1.00266,0.990027,32,0.0558145,618,0.01,2
app_19,10.1931,19764.4,7951.6,43.0363,445.057,1.39924e+10,1.00432,0.990027,18,0.0314437,1094,0.1,1
app_2,0.843285,18744.3,7900.2,87.4598,986.49,1.70971e+09,1.01241,0.990027,8,0.00173398,2316,0.1,1
app_20,8.70525,19849.8,7945.3,47.8859,531.744,3.37708e+09,1.00646,0.990027,15,0.0063479,1317,0.1,1
app_21,22.4111,20134.4,7966.6,30.6702,73.8958,2.44531e+10,1.00112,0.990027,107,0.330447,187,0.01,2
app_22,95.2197,20102.5,7981.9,17.1411,40.1644,1.42819e+10,1.00048,0.990027,200,0.357048,100,0.01,2
app_23,58.9361,19944,7992.5,7.42877,72.8652,4.11388e+09,1.00042,0.990027,110,0.0563546,181,0.01,2
app_24,32.1522,19846.7,7972.8,21.8304,203.797,1.32769e+10,1.00174,0.990027,39,0.0650829,506,0.01,2
app_25,78.0259,19994.7,7954,42.9241,95.7687,3.58941e+10,1.00126,0.990027,82,0.373897,241,0.01,2
app_26,104.206,20210.4,7940.4,58.2646,55.0193,5.24158e+10,1.0009,0.990027,144,0.953014,138,0.01,2
app_27,69.3269,19993.2,7961.7,35.6564,57.0115,3.10582e+10,1.00091,0.990027,141,0.544882,141,0.01,2
app_28,61.661,20072.5,7951.3,46.2906,64.8563,3.94048e+10,1.00116,0.990027,123,0.606228,162,0.01,2
app_29,88.8026,20082.6,7962.3,37.4935,39.2533,3.30671e+10,1.00058,0.990027,203,0.847874,98,0.01,2
app_3,0.325399,13459.8,6781.74,678.1,6780.7,3.63229e+10,1.17335,0.990027,1,0.00535657,12230,1,0
app_30,104.254,20044.1,7965.6,30.4529,71.8079,2.55376e+10,1.00111,0.990027,110,0.354689,180,0.01,2
app_31,101.18,20280.5,7943.3,55.2247,51.346,4.95125e+10,1.0009,0.990027,155,0.970833,129,0.01,2
app_32,49.1813,20012.2,7989.5,6.89462,69.7804,1.32374e+09,1.00115,0.990027,114,0.0189105,175,0.01,2
app_33,7.54703,19993.5,7965.9,30.5226,76.2884,2.30841e+10,1.00138,0.990027,104,0.303739,191,0.01,2
app_34,49.3927,20046.7,7944.9,54.7042,40.2245,4.88415e+10,1.00078,0.990027,198,1.19126,101,0.01,2
app_35,20.7918,20124.8,7959.8,38.592,34.2686,3.44089e+10,1.00072,0.990027,229,0.983112,87,0.01,2
app_36,44.2747,20097.6,7992.4,5.60716,58.3039,1.92492e+09,1.00071,0.990027,137,0.0331883,146,0.01,2
app_37,35.2831,19910.1,7947.6,52.0643,120.44,4.37762e+10,1.00108,0.990027,66,0.361787,299,0.01,2
app_38,152.561,20229.4,7954.2,44.4528,51.5071,3.7825e+10,1.001,0.990027,154,0.727404,129,0.01,2
app_39,92.4268,20028.6,7990.8,8.09984,80.2807,2.28436e+09,1.00087,0.990027,100,0.028202,200,0.01,2
app_4,7.81949,19805.6,7920.24,70.8088,788.106,1.40823e+09,1.00989,0.990027,10,0.00178567,1956,0.1,1
app_40,65.2234,19936.4,7937.3,60.3288,115.576,4.94227e+10,1.00166,0.990027,69,0.426058,285,0.01,2
app_41,975.829,21831.5,7961.7,33.2581,5.51956,2.80383e+10,1.00128,0.990027,1501,5.60766,14,0.001,3
app_42,596.992,20648,7945.5,54.5,5.36476,4.86252e+10,1.00073,0.990027,1540,9.72505,13,0.001,3
app_43,211.327,21223.5,7981.3,18.7,6.722,1.40866e+10,1.00058,0.990027,1144,2.01238,18,0.001,3
app_44,460.456,20615,7931.2,68.8,5.55634,6.08108e+10,1.001,0.990027,1440,10.1351,14,0.001,3
app_45,409.855,20700.4,7938,61.8767,5.68518,5.05308e+10,1.00144,0.990027,1451,8.4218,14,0.001,3
app_46,786.071,22172.1,7980.2,19.0186,5.86485,1.70411e+10,1.00034,0.990027,1308,2.84019,16,0.001,3
app_47,797.208,21707.4,7991.1,8.9,6.96584,7.55894e+09,1.00017,0.990027,1159,1.07985,18,0.001,3
app_48,64.341,20650.5,7921.5,58.0837,20.0497,4.82773e+10,1.00379,0.990027,388,2.41386,52,0.001,3
app_49,406.243,21570.4,7967.4,29.5139,6.80052,2.49576e+10,1.00096,0.990027,1145,3.56538,18,0.001,3
app_5,5.7574,19027.2,7887.5,99.0571,989.312,5.25099e+10,1.00756,0.990027,8,0.053094,2348,0.1,1
app_50,9.44687,19264.7,7947.2,46.301,498.755,4.61857e+09,1.00606,0.990027,16,0.00925566,1197,0.1,1
app_51,527.477,20967.8,7928.9,71.1,5.12342,5.83878e+10,1.00159,0.990027,1572,11.6776,13,0.001,3
app_52,162.328,21330,7961.7,38.3,7.0927,3.33141e+10,1.00062,0.990027,1099,4.75916,19,0.001,3
app_53,13.751,20240.9,7993.7,5.92233,9.26023,5.30264e+09,1.00012,0.990027,877,0.589182,23,0.001,3
app_54,233.831,20925.7,7967.7,32.3,5.27633,2.5278e+10,1.00088,0.990027,1564,5.05559,13,0.001,3
app_55,74.1702,20564.4,7929.6,47.9699,10.8725,3.97044e+10,1.00385,0.990027,732,3.97044,28,0.001,3
app_56,20.8201,20316.7,7954.2,45.8,11.1268,3.84532e+10,1.00092,0.990027,728,3.49574,28,0.001,3
app_57,294.838,20310.8,7944.5,39.6963,22.2401,3.54812e+10,1.00251,0.990027,362,1.54266,55,0.001,3
app_58,1340.5,20746.1,7953.3,45.3595,3.97991,3.87174e+10,1.001,0.990027,2009,9.67936,10,0.001,3
app_59,1837.84,22736.6,7988.5,11.5,4.30751,1.0021e+10,1.00018,0.990027,1850,2.50524,11,0.001,3
app_6,2.84882,20009.3,7864.2,118.08,1309.91,6.2232e+09,1.01646,0.990027,6,0.00475053,3274,0.1,1
app_60,96.0502,20656.8,7995.4,1.47006,13.5412,2.41497e+08,1.00055,0.990027,582,0.0185767,35,0.001,3
app_7,14.5441,19170.1,7941.6,51.1042,566.387,3.78616e+09,1.00687,0.990027,14,0.00668933,1358,0.1,1
app_8,0.409524,16278.2,7736.5,232.208,2579.32,5.17477e+09,1.03337,0.990027,3,0.0020065,5249,0.1,1
app_9,0.0549122,19325.4,7837.5,143.118,1567.37,1.05406e+10,1.01936,0.990027,5,0.00672659,3785,0.1,1
