app_id,Tcomp,Tio,iter,witer,alpha_io,compute_size,io_size,mu,desyn_time
1,9.360145463947894,0.019323624178005726,2133,9.3794690881259,0.002060204473883154,9e9,19323624.178005725,10,2.831712579930004
2,9.367506263463012,0.03419446617460461,2128,9.401700729637616,0.00363705112063513,9e9,34194466.17460461,10,7.297048944480396
3,9.27241844158446,0.04170814094711423,2148,9.314126582531573,0.004477944397420675,9e9,41708140.94711423,10,7.6929035421174135
4,9.506484524172143,0.013054491969837245,2101,9.51953901614198,0.0013713365686827017,9e9,13054491.969837245,10,4.7462347843100865
5,9.302486096994304,0.030486228318678497,2143,9.332972325312983,0.003266507952240835,9e9,30486228.3186785,10,1.6869365573018789
6,10.197390819725554,0.07206391347606941,1948,10.269454733201623,0.0070173066972176665,10e9,72063913.47606942,10,0.9628599325183064
7,11.084418928312525,0.037685412163012154,1799,11.122104340475538,0.0033883347080163138,11e9,37685412.163012154,10,5.996670481664539
8,9.179219854444483,0.04054574415442831,2170,9.219765598598912,0.004397697937200256,9e9,40545744.15442831,10,5.555764178807859
9,9.233722597584649,0.05735577636925238,2153,9.291078373953901,0.006173209832137507,9e9,57355776.36925238,10,0.28027876222382947
10,10.409897005787698,0.06610934911749866,1910,10.476006354905197,0.006310548779549391,10e9,66109349.11749866,10,10.402797655969245
11,9.625854903032856,0.008431152044341994,2076,9.634286055077197,0.0008751195466008444,9e9,8431152.044341994,10,1.9475455291626789
12,11.322886182312393,7.5375754818789576e-06,1767,11.322893719887874,6.65693387957862e-07,11e9,7537.575481878957,10,7.63322893170553
13,8.98443285485631,0.03005431972283278,2219,9.014487174579143,0.0033340021612750163,8e9,30054319.72283278,10,2.916125706394396
14,8.52730387092955,0.042939404863389964,2334,8.57024327579294,0.005010290079474682,8e9,42939404.86338996,10,3.183450277576173
15,8.483197854831396,0.05542353994689204,2343,8.538621394778287,0.006490923696509811,8e9,55423539.94689204,10,1.1051554032699162
16,12.638224499968585,0.007836475814350102,1582,12.646060975782936,0.0006196772124819629,12e9,7836475.814350102,10,4.9004946261271085
17,10.352595788653634,0.03834245620027463,1925,10.390938244853908,0.003689989806191337,10e9,38342456.200274624,10,3.310961629968598
18,10.005432126290717,0.06384994571086956,1987,10.069282072001586,0.006341062377069488,10e9,63849945.710869566,10,3.2140536605609284
19,10.358038355494932,0.03775704529148185,1924,10.395795400786414,0.003631953480791439,10e9,37757045.291481845,10,4.589154980262092
20,11.008173564889853,0.018726872476366157,1814,11.02690043736622,0.001698289794374808,11e9,18726872.47636616,10,1.2296514627005295
21,101.41134031965338,0.6117993824777594,197,102.02313970213113,0.005996672757415441,101e9,611799382.4777595,100,63.61668491268031
22,95.59093671259635,0.6009134989912747,208,96.19185021158762,0.006247031299111932,95e9,600913498.9912747,100,4.488121287178506
23,93.08700118752417,0.4034416855653478,214,93.49044287308952,0.004315325429712723,93e9,403441685.5653478,100,64.8084766651319
24,96.79926617987343,0.5634325523317664,206,97.36269873220519,0.0057869446889663575,96e9,563432552.3317664,100,64.63086608204236
25,98.54251408346718,0.31749429225315146,203,98.86000837572034,0.0032115543733974325,98e9,317494292.2531515,100,19.496456584707023
26,116.6777976122141,0.23356132178656852,172,116.91135893400067,0.0019977641515433893,116e9,233561321.78656852,100,29.587482193389874
27,108.79295347557328,0.8286637184117958,183,109.62161719398507,0.007559309373674013,108e9,828663718.4117957,100,54.816287827955456
28,87.0817772542492,0.40793340461259897,229,87.4897106588618,0.004662644344581331,87e9,407933404.61259896,100,23.7078045105046
29,89.5228312412676,0.01960963338756493,224,89.54244087465516,0.0002189982001385826,89e9,19609633.38756493,100,45.91983987687448
30,100.42458793396011,0.3580213921197481,199,100.78260932607986,0.0035524124103730828,100e9,358021392.1197481,100,80.2543646627421
31,86.18395097753631,0.17752791798334852,232,86.36147889551967,0.0020556377710729368,86e9,177527917.98334852,100,42.26445739188877
32,95.03395437863371,0.008872194595959998,211,95.04282657322968,9.334943957210752e-05,95e9,8872194.595959999,100,93.01962248923293
33,104.7815981296877,0.015870073052273927,191,104.79746820273996,0.0001514356532122691,104e9,15870073.052273927,100,95.92403841452861
34,105.13437924742416,0.2357861472576194,190,105.37016539468178,0.002237693623944145,105e9,235786147.2576194,100,94.35428911385365
35,105.00064098901407,0.08933108534079409,191,105.08997207435486,0.0008500438583958249,105e9,89331085.34079409,100,72.09937120002361
36,101.07458148695615,0.08426038975091174,198,101.15884187670706,0.0008329513089286723,101e9,84260389.75091174,100,34.26678718828349
37,131.4527595445268,0.376475967504663,152,131.82923551203146,0.0028557851074718834,131e9,376475967.504663,100,49.736219188970104
38,110.6808425368825,0.6686938711232863,180,111.34953640800578,0.0060053583759259255,110e9,668693871.1232862,100,103.11867786660041
39,83.02114605617676,0.24972646111836783,241,83.27087251729513,0.0029989653472947617,83e9,249726461.11836782,100,59.40681616868548
40,109.17357004519324,0.6113138117931575,183,109.7848838569864,0.005568287639576122,109e9,611313811.7931575,100,5.966489843069496
41,1014.460895595581,1.3934420299174988,20,1015.8543376254985,0.0013716947187276769,1014e9,1393442029.9174988,1000,500.8715705732249
42,942.9528452345384,3.2107946797052698,22,946.1636399142436,0.003393487705780242,942e9,3210794679.70527,1000,488.4849689189674
43,1303.755049193566,0.6331675707091002,16,1304.388216764275,0.00048541343947415024,1303e9,633167570.7091002,1000,645.8056764283175
44,949.6474855973122,2.942285087291927,21,952.5897706846041,0.0030887221108593,949e9,2942285087.291927,1000,76.18727682225546
45,1005.7064098190916,4.810481479311473,20,1010.516891298403,0.0047604166944013515,1005e9,4810481479.311474,1000,861.8983536194046
46,1124.5989012862283,1.1838830695368148,18,1125.782784355765,0.0010516087881147498,1124e9,1183883069.5368147,1000,361.2177392761639
47,1041.529088387255,7.1459375447241475,20,1048.675025931979,0.006814253575242155,1041e9,7145937544.724148,1000,150.37699119642735
48,1008.6514179602482,1.2150752019079956,20,1009.8664931621562,0.0012032037998441528,1008e9,1215075201.9079955,1000,783.1868949009258
49,1021.8447979246956,1.0975344200680595,20,1022.9423323447637,0.0010729191522969995,1021e9,1097534420.0680594,1000,970.903003056094
50,825.1633139920331,0.1614394171764874,25,825.3247534092095,0.00019560714313925721,825e9,161439417.17648742,1000,123.6916822035646
51,1027.3349335939429,5.424719076968652,20,1032.7596526709115,0.0052526442749184716,1027e9,5424719076.968653,1000,925.4894152661271
52,891.4784670160237,5.116858193982987,23,896.5953252100068,0.005706987366663418,891e9,5116858193.982986,1000,9.060456737647016
53,1074.8421652277773,0.5550187810062852,19,1075.3971840087836,0.0005161058530368552,1074e9,555018781.0062852,1000,614.9066507081195
54,928.1740680294771,1.9767941512483784,22,930.1508621807254,0.002125240357906902,928e9,1976794151.2483785,1000,827.5289415323208
55,946.1332110963292,5.937538702756729,22,952.0707497990859,0.006236446927930218,946e9,5937538702.756729,1000,129.16540970856232
56,953.077809122969,3.2292292686815296,21,956.3070383916505,0.0033767703666727753,953e9,3229229268.6815295,1000,167.7810119200813
57,1006.1538690259217,5.017308780638698,20,1011.1711778065604,0.004961878750858266,1006e9,5017308780.638698,1000,184.01827001043276
58,956.7466389832446,5.8684182341045235,21,962.6150572173491,0.0060963291505832864,956e9,5868418234.104524,1000,574.0602195810586
59,906.8331731741047,0.5114551659782658,23,907.344628340083,0.0005636834671231079,906e9,511455165.97826576,1000,720.3271701917289
60,976.0303037278278,0.7191854222132172,21,976.749489150041,0.0007363048869767479,976e9,719185422.2132173,1000,649.8114350357031
