app_id,start_app,end_app,effective_cpu,effective_io,effective_iter,total_bytes,stretch,utilization,Tcomp,Tio,iterations,priority,group_id
app_1,3.20449,19497.8,7713.9,73.1953,860.94,6.05221e+09,1.03628,0.984403,9,0.00702928,2100,1,1
app_10,5.85748,20264.1,7713.2,87.0681,855.034,4.59942e+10,1.03103,0.984403,9,0.0537944,2164,1,1
app_11,8.66165,18945.3,7685.7,83.552,858.289,3.28572e+10,1.03646,0.984403,9,0.0382951,2034,1,1
app_12,2.97637,19238.9,7704.3,74.8528,700.676,5.05812e+10,1.03161,0.984403,11,0.0721558,1698,1,1
app_13,1.45476,19091.2,7723.4,87.5167,860.213,4.89185e+10,1.02929,0.984403,9,0.056882,2050,1,1
app_14,9.10728,19187.9,7702,71.2384,855.422,5.96984e+08,1.03861,0.984403,9,0.000697411,2051,1,1
app_15,0.9629,20190.2,7713.7,78.7135,847.388,2.25292e+10,1.0341,0.984403,9,0.0265989,2157,1,1
app_16,1.64902,19405.3,7749.8,77.2904,708.4,5.58675e+10,1.0249,0.984403,11,0.0789089,1717,1,1
app_17,2.31499,19440.6,7686.1,72.4849,856.709,2.73152e+09,1.04047,0.984403,9,0.0031873,2062,1,1
app_18,7.36587,18766.6,7696.3,76.886,848.057,1.76461e+10,1.03708,0.984403,9,0.020809,2008,1,1
app_19,1.59706,19092.9,7720.9,78.1049,764.475,4.18573e+10,1.03056,0.984403,10,0.0547154,1844,1,1
app_2,9.36983,20113.2,7736.8,81.1188,770.585,5.41563e+10,1.02683,0.984403,10,0.0702416,1926,1,1
app_20,4.84379,20441.5,7636.8,101.26,1092.16,2.99815e+10,1.04346,0.984403,7,0.0274556,2791,1,1
app_21,44.3726,20069.4,7949.4,25.8766,90.2414,2.06063e+10,1.00376,0.984403,89,0.228958,224,1,1
app_22,95.2617,20442,7918.1,48.7839,82.8559,4.35856e+10,1.00481,0.984403,95,0.531531,209,1,1
app_23,63.3681,19710.3,7950.7,30.3072,77.4467,2.53001e+10,1.00301,0.984403,104,0.328573,191,1,1
app_24,100.628,20389.1,7944.2,43.125,73.1859,3.89626e+10,1.00211,0.984403,108,0.533734,184,1,1
app_25,102.145,20352.2,7956.6,33.1977,67.6674,2.93823e+10,1.00176,0.984403,119,0.438542,167,1,1
app_26,66.0758,19708.2,7920.9,50.8871,105.435,4.2566e+10,1.00459,0.984403,78,0.40539,253,1,1
app_27,0.457483,20366.6,7906.3,34.8796,114.407,2.93349e+10,1.00811,0.984403,67,0.255086,298,1,1
app_28,73.595,20276.9,7986.4,7.12731,77.1197,1.56679e+09,1.00151,0.984403,106,0.0203479,189,1,1
app_29,37.6828,20162.9,7935.4,47.2238,77.0516,4.53057e+10,1.00242,0.984403,99,0.588386,200,1,1
app_3,4.73144,19782,7729.8,67.0611,769.833,5.7985e+09,1.03418,0.984403,10,0.00753051,1906,1,1
app_30,8.83056,20329.3,7967,8.38206,75.4205,6.53433e+09,1.00332,0.984403,105,0.085978,190,1,1
app_31,19.1374,19771.1,7949.6,33.7508,86.7118,2.73944e+10,1.00288,0.984403,92,0.314878,217,1,1
app_32,43.1138,20023.2,7940.7,41.2389,82.5876,3.77569e+10,1.0027,0.984403,98,0.46045,202,1,1
app_33,31.8007,19998,7935.7,29.0272,92.1212,2.6504e+10,1.00475,0.984403,83,0.284989,238,1,1
app_34,87.1469,19662.5,7962.4,31.4022,78.7348,2.7718e+10,1.00124,0.984403,106,0.350861,187,1,1
app_35,27.4021,19698.4,7953.2,28.4553,98.0321,2.15873e+10,1.00316,0.984403,84,0.220278,236,1,1
app_36,72.2593,19812,7951.8,34.1024,82.8365,3.31094e+10,1.00189,0.984403,95,0.398909,209,1,1
app_37,98.3794,19704.5,7950.6,23.7788,80.7456,1.84749e+10,1.00388,0.984403,99,0.228086,200,1,1
app_38,87.9524,20266.3,7942.2,16.9299,78.76,1.46775e+10,1.00542,0.984403,101,0.185791,196,1,1
app_39,34.93,19526.1,7926.5,47.3081,81.3659,4.12436e+10,1.00405,0.984403,103,0.509181,193,1,1
app_4,4.23015,19058,7723.6,74.7746,850.632,1.47979e+10,1.03381,0.984403,9,0.0174093,2039,1,1
app_40,49.452,19537.5,7939,38.6595,77.4877,3.50244e+10,1.00326,0.984403,105,0.454862,189,1,1
app_41,525.753,21559.1,7975.7,22.8411,6.28238,2.25876e+10,1.00021,0.984403,1115,3.76461,18,1,1
app_42,863.568,21962.7,7959.4,40.5868,7.54532,4.01594e+10,1.00006,0.984403,978,5.73706,21,1,1
app_43,498.041,22282.7,7983.7,13.8981,6.50823,1.35983e+10,1.00034,0.984403,1108,1.94261,19,1,1
app_44,471.879,20924.7,7990.2,9.8,7.27643,9.28529e+09,1.00006,0.984403,1164,1.32647,18,1,1
app_45,1035.14,21142,7935.7,58.9119,7.79623,5.84674e+10,1.00073,0.984403,1161,7.30842,18,1,1
app_46,473.425,22097.4,7970.3,29.5725,8.62084,2.93793e+10,1.00004,0.984403,871,3.67241,23,1,1
app_47,756.773,20480.3,7938.3,56.1381,8.10882,5.58855e+10,1.00073,0.984403,1014,6.98569,20,1,1
app_48,39.6617,20640.2,7958.1,41.3806,7.48901,4.12707e+10,1.00008,0.984403,1029,5.89582,20,1,1
app_49,44.5621,21708.6,7972.3,23.789,7.39084,2.34238e+10,1.00053,0.984403,1015,3.34625,20,1,1
app_5,0.805159,18514.3,7657.5,80.6928,958.239,5.87255e+09,1.04393,0.984403,8,0.00612362,2227,1,1
app_50,1059.16,22804.7,7989.8,1.42917,6.12006,1.17359e+09,1.00113,0.984403,1115,0.195599,18,1,1
app_51,354.036,20493.4,7968.6,30.8444,7.11539,3.05528e+10,1.00011,0.984403,1056,4.36469,19,1,1
app_52,208.796,20747.5,7996.3,3.13311,7.9437,2.78533e+09,1.00011,0.984403,950,0.348166,22,1,1
app_53,427.838,18726.8,7998.1,1.11168,9.87676,7.36277e+08,1.00015,0.984403,843,0.0736277,24,1,1
app_54,860.58,22920.1,7990.2,9.33241,7.43304,9.01427e+09,1.0001,0.984403,1104,1.28775,19,1,1
app_55,214.766,19728.6,7958.7,39.5227,9.13224,3.87246e+10,1.00032,0.984403,906,4.30274,22,1,1
app_56,987.447,22289.2,7980.2,19.8,6.24927,1.93295e+10,1.00006,0.984403,1155,3.22159,18,1,1
app_57,403.22,22167.5,7969,30.7031,6.96379,3.02551e+10,1.00009,0.984403,1074,4.32216,19,1,1
app_58,679.91,22293,7970.6,26.6593,7.15651,2.64225e+10,1.00037,0.984403,1162,3.77464,18,1,1
app_59,907.156,20421.6,7998.2,1.62837,8.35667,1.33703e+09,1.00006,0.984403,990,0.167128,21,1,1
app_6,4.06348,19937.9,7701.3,89.9749,853.265,5.63333e+10,1.03124,0.984403,9,0.0660414,2139,1,1
app_60,67.8146,19944.1,7953.2,46.6518,8.99511,4.59046e+10,1.00011,0.984403,997,5.10051,20,1,1
app_7,6.27059,19561.9,7747.3,73.8116,778.809,2.53097e+10,1.02926,0.984403,10,0.0324899,1896,1,1
app_8,0.935405,19218.8,7759,64.8986,773.109,2.95727e+09,1.03067,0.984403,10,0.00382571,1863,1,1
app_9,7.56427,19107.2,7668.6,85.4309,964.401,1.33119e+10,1.04141,0.984403,8,0.0137947,2305,1,1
