app_id,start_app,end_app,effective_cpu,effective_io,effective_iter,total_bytes,stretch,utilization,Tcomp,Tio,iterations,priority,group_id
app_1,9.14567,19553.2,7910.6,81.2168,783.912,5.57554e+10,1.00422,0.993535,10,0.0711166,1924,0.1,1
app_10,6.81923,18908.9,7900.9,88.4081,881.848,4.0123e+10,1.00743,0.993535,9,0.045491,2071,0.1,1
app_11,1.54691,20193.8,7923.4,66.6669,710.795,1.65752e+10,1.00756,0.993535,11,0.0233126,1805,0.1,1
app_12,5.16677,19141,7915.1,75.4267,802.619,1.51885e+10,1.00879,0.993535,10,0.0189147,1911,0.1,1
app_13,5.93846,19049.1,7892.1,95.7119,982.33,3.3896e+10,1.00934,0.993535,8,0.0345173,2343,0.1,1
app_14,7.57892,17953.1,7896.6,91.5657,990.32,1.38905e+10,1.01132,0.993535,8,0.0140308,2221,0.1,1
app_15,6.79294,19569.5,7916.5,75.5061,718.747,5.60626e+10,1.00344,0.993535,11,0.077973,1761,0.1,1
app_16,4.52421,19756.8,7909.8,81.5744,794.185,4.88922e+10,1.00519,0.993535,10,0.0615771,1976,0.1,1
app_17,4.29714,18119,7897.2,90.2724,995.019,6.75624e+09,1.01215,0.993535,8,0.00679019,2239,0.1,1
app_18,0.286709,19008.2,7903.5,86.7387,871.689,4.42762e+10,1.00657,0.993535,9,0.0507754,2077,0.1,1
app_19,10.2128,19315,7918.3,73.4533,792.317,6.38259e+09,1.0095,0.993535,10,0.00805883,1912,0.1,1
app_2,7.195,18247.1,7888.2,99.6525,985.951,5.28084e+10,1.00743,0.993535,8,0.0535582,2232,0.1,1
app_20,10.4438,19206.1,7908.5,81.0805,786.4,4.90327e+10,1.00534,0.993535,10,0.0623826,1877,0.1,1
app_21,72.1356,20009.9,7934.4,63.3654,72.1703,5.57752e+10,1.00123,0.993535,108,0.774655,183,0.01,2
app_22,21.2156,19077.8,7931.9,65.7645,86.8486,5.59318e+10,1.00152,0.993535,97,0.642894,203,0.01,2
app_23,87.0016,20061.7,7961.9,36.0644,67.8728,2.85205e+10,1.0012,0.993535,122,0.41942,163,0.01,2
app_24,26.004,19922,7949.9,49.5235,84.8085,4.13383e+10,1.0011,0.993535,95,0.486333,209,0.01,2
app_25,83.0561,19899.3,7980,18.5788,81.6883,1.46979e+10,1.00066,0.993535,101,0.179243,196,0.01,2
app_26,55.9549,20042.6,7970.8,26.0699,84.5355,1.95904e+10,1.0012,0.993535,93,0.233219,213,0.01,2
app_27,87.4636,20014.6,7966.6,32.2291,78.6802,2.66222e+10,1.00085,0.993535,101,0.33699,198,0.01,2
app_28,64.3999,20222.1,7966.5,32.6983,79.3745,2.40365e+10,1.00118,0.993535,99,0.30426,200,0.01,2
app_29,20.7019,20434.2,7961.1,38.198,62.5801,3.18045e+10,1.00089,0.993535,120,0.504833,166,0.01,2
app_3,1.16905,18558.4,7915.1,74.5029,799.999,9.24898e+09,1.00955,0.993535,10,0.0115612,1853,0.1,1
app_30,84.739,19901,7991.8,7.87288,78.6305,1.76425e+09,1.00081,0.993535,101,0.0223323,197,0.01,2
app_31,31.9344,20083.1,7956.2,41.8336,91.64,3.40953e+10,1.00121,0.993535,84,0.374674,236,0.01,2
app_32,73.3014,19993.6,7990.7,8.56562,77.9679,5.23218e+09,1.00051,0.993535,103,0.0670792,193,0.01,2
app_33,102.022,20119.4,7981.5,16.0068,77.6341,1.01967e+10,1.00104,0.993535,103,0.130727,194,0.01,2
app_34,51.6673,19495.5,7948.8,50.4447,74.5143,4.38861e+10,1.00092,0.993535,107,0.585149,186,0.01,2
app_35,63.3186,19872.4,7990.7,8.33182,77.3781,4.62545e+09,1.00058,0.993535,104,0.0600707,191,0.01,2
app_36,26.4044,20054.6,7982,15.2981,72.9068,9.48286e+09,1.00107,0.993535,106,0.129902,187,0.01,2
app_37,9.17391,20280.2,7976.2,20.7519,88.6274,1.6038e+10,1.00097,0.993535,88,0.180202,227,0.01,2
app_38,32.4092,19685.8,7934,63.2288,79.1888,5.50657e+10,1.00137,0.993535,98,0.697034,202,0.01,2
app_39,87.167,19902.3,7961.6,37.7519,92.483,2.85576e+10,1.00123,0.993535,88,0.310408,225,0.01,2
app_4,9.16895,18584,7909.3,81.0922,869.351,1.31812e+10,1.00978,0.993535,9,0.0151508,2038,0.1,1
app_40,85.5938,19930.2,7972.2,25.9949,84.5254,1.98826e+10,1.00099,0.993535,94,0.236697,211,0.01,2
app_41,32.038,21520.1,7982.4,17.6,9.518,1.46786e+10,1.00037,0.993535,828,1.63096,25,0.001,3
app_42,445.652,20494.7,7969.4,26.8665,9.31597,2.36391e+10,1.00087,0.993535,919,2.62656,22,0.001,3
app_43,947.515,22068.9,7994.9,5.1,8.4475,3.61827e+09,1.00019,0.993535,999,0.40203,21,0.001,3
app_44,264.31,21328.3,7995.8,4.2,6.64239,2.84243e+09,1.00017,0.993535,1091,0.406062,19,0.001,3
app_45,579.923,20400.7,7952.5,47.5,8.04363,4.15192e+10,1.00075,0.993535,1016,5.1899,20,0.001,3
app_46,923.599,20202,7960.3,39.7,9.25115,3.32237e+10,1.00081,0.993535,923,3.69153,22,0.001,3
app_47,190.253,21032.1,7956.5,42.3836,5.69255,3.64663e+10,1.00088,0.993535,1104,7.29327,18,0.001,3
app_48,780.962,21419.5,7992.7,1.80186,8.39634,1.12544e+09,1.00077,0.993535,988,0.125049,21,0.001,3
app_49,440.423,21778.1,7984.5,15.5,6.65848,1.35063e+10,1.00025,0.993535,1138,1.92948,18,0.001,3
app_5,0.321939,19753.6,7901.1,87.6207,881.624,4.30552e+10,1.00703,0.993535,9,0.0488708,2159,0.1,1
app_50,482.691,20212.7,7938.6,61.4,9.26161,5.26408e+10,1.0011,0.993535,943,5.84898,22,0.001,3
app_51,299.746,21415.4,7981.9,18.1,6.2114,1.57435e+10,1.00029,0.993535,1015,2.62391,20,0.001,3
app_52,367.14,19957.8,7955.1,44.9,8.89954,3.93084e+10,1.0007,0.993535,944,4.36759,22,0.001,3
app_53,408.684,20318.5,7999.3,0.7,7.24602,3.39984e+08,1.00005,0.993535,1117,0.0485691,18,0.001,3
app_54,380.036,21708.5,7951.7,39.6584,7.96721,3.17141e+10,1.00208,0.993535,967,3.96426,21,0.001,3
app_55,993.989,20802.2,7959.3,40.1642,8.0161,3.32969e+10,1.00093,0.993535,1072,4.16211,19,0.001,3
app_56,263.851,20572.7,7970.7,24.4642,7.74683,2.01383e+10,1.00115,0.993535,1031,2.8769,20,0.001,3
app_57,758.806,21838.8,7998.3,1.7,7.93412,1.1417e+09,1.00007,0.993535,952,0.142712,21,0.001,3
app_58,427.592,20710.3,7932.9,61.6725,7.94172,5.3035e+10,1.00176,0.993535,956,6.62938,21,0.001,3
app_59,255.572,22520.1,7994.2,5.8,7.89689,3.59032e+09,1.00028,0.993535,941,0.44879,22,0.001,3
app_6,9.98689,19868.7,7913.4,76.7944,792.388,2.44166e+10,1.00783,0.993535,10,0.0307902,1968,0.1,1
app_60,441.407,20841.2,7933.4,66.6,8.04496,5.65987e+10,1.00125,0.993535,1005,7.07484,20,0.001,3
app_7,2.67267,18962.1,7915.2,73.9444,797.437,1.34812e+10,1.009,0.993535,10,0.0168937,1879,0.1,1
app_8,1.58054,18456.1,7925.9,66.9675,721.397,6.9822e+09,1.00846,0.993535,11,0.00967064,1668,0.1,1
app_9,11.4841,19762.3,7923.1,69.9819,658.733,5.50207e+10,1.00274,0.993535,12,0.083618,1617,0.1,1
