app_id,start_app,end_app,effective_cpu,effective_io,effective_iter,total_bytes,stretch,utilization,Tcomp,Tio,iterations,priority,group_id
app_1,4.77709,20000.5,7702.1,75.6438,854.908,1.24179e+10,1.03701,0.984601,9,0.0145239,2124,1,1
app_10,4.70438,19084.9,7746.6,61.159,700.519,9.0024e+09,1.03151,0.984601,11,0.0128606,1683,1,1
app_11,1.54385,19724.1,7723.9,68.6571,771.802,1.20258e+10,1.03414,0.984601,10,0.0155977,1902,1,1
app_12,0.41756,20255.1,7690.8,83.8455,862.423,3.6833e+10,1.03525,0.984601,9,0.0427297,2177,1,1
app_13,9.22925,19557.3,7760.4,70.094,700.441,3.32973e+10,1.02647,0.984601,11,0.0474998,1716,1,1
app_14,2.97291,19757.1,7705.4,74.1575,855.591,1.01581e+10,1.03687,0.984601,9,0.011867,2120,1,1
app_15,10.408,19198.9,7751.8,71.4392,712.786,3.56006e+10,1.0273,0.984601,11,0.0500009,1713,1,1
app_16,5.23354,19268.1,7693.6,81.9214,844.718,3.33533e+10,1.03534,0.984601,9,0.0394714,2047,1,1
app_17,1.15575,18924.7,7689.7,80.5792,860.984,2.5571e+10,1.0369,0.984601,9,0.0296992,2034,1,1
app_18,8.0581,19440.2,7701.8,77.9934,766.063,3.99498e+10,1.03336,0.984601,10,0.0521538,1882,1,1
app_19,4.15366,19920.7,7695.9,79.8696,858.541,2.80864e+10,1.03573,0.984601,9,0.0327347,2127,1,1
app_2,0.266626,18933.6,7698.3,83.3074,851.306,3.58806e+10,1.03437,0.984601,9,0.0421134,2016,1,1
app_20,1.06737,20340,7722.7,75.1832,763.229,3.53729e+10,1.03118,0.984601,10,0.0463603,1969,1,1
app_21,15.1636,20293.6,7918.8,50.183,84.3026,4.5699e+10,1.00446,0.984601,91,0.544036,217,1,1
app_22,13.6111,19740.7,7918.6,43.8781,72.608,4.00346e+10,1.0052,0.984601,110,0.548419,180,1,1
app_23,67.9385,19940.7,7924.7,48.824,70.2764,4.55345e+10,1.00373,0.984601,113,0.650492,175,1,1
app_24,47.7721,19900.5,7938.7,40.4705,80.9922,3.60294e+10,1.00317,0.984601,101,0.444807,196,1,1
app_25,63.9898,20327,7954,32.3864,78.6799,2.95296e+10,1.00206,0.984601,103,0.373793,194,1,1
app_26,27.5325,19910.1,7982.8,7.27109,83.5644,8.33532e+08,1.00205,0.984601,97,0.0100426,206,1,1
app_27,3.15386,19955.5,7917,50.784,73.0183,4.64629e+10,1.00459,0.984601,110,0.636479,181,1,1
app_28,77.082,20664.2,7938.4,36.4441,90.1436,3.22334e+10,1.00368,0.984601,85,0.358149,235,1,1
app_29,87.4711,19748.2,7955.2,31.1407,78.5353,2.67166e+10,1.00227,0.984601,105,0.34252,189,1,1
app_3,5.55606,19651.4,7719.3,74.3207,762.819,3.06605e+10,1.03226,0.984601,10,0.0401841,1877,1,1
app_30,98.7931,20611.3,7957.9,13.9537,66.1159,1.21598e+10,1.00376,0.984601,113,0.184239,177,1,1
app_31,35.4573,19949.8,7961.1,19.1575,92.555,1.53431e+10,1.00295,0.984601,85,0.16498,233,1,1
app_32,88.3228,20027.6,7939,51.7396,75.8776,4.63893e+10,1.00183,0.984601,102,0.610385,194,1,1
app_33,91.2139,20519.6,7925.3,48.6204,82.9578,4.44842e+10,1.00379,0.984601,92,0.54249,215,1,1
app_34,58.5605,20088.2,7963.6,22.7083,75.5451,2.00112e+10,1.00205,0.984601,105,0.266816,189,1,1
app_35,81.9,20299.9,7963.4,15.4192,75.0433,1.26519e+10,1.003,0.984601,104,0.168692,191,1,1
app_36,34.9983,20016.7,7916.4,42.5301,87.7399,3.60073e+10,1.00598,0.984601,89,0.409174,223,1,1
app_37,14.5946,19593.1,7969.4,7.00705,80.8231,8.99036e+08,1.00373,0.984601,101,0.0110992,198,1,1
app_38,9.48826,19802.7,7915.7,46.6459,77.0627,4.34481e+10,1.00513,0.984601,103,0.564261,192,1,1
app_39,81.9123,19956.6,7973.9,6.91361,75.8549,1.84591e+09,1.00304,0.984601,104,0.0242883,192,1,1
app_4,2.00902,19596.5,7721.9,82.5937,873.162,3.00049e+10,1.032,0.984601,9,0.0343699,2110,1,1
app_40,26.1012,20444.4,7951.2,10.2427,93.7702,7.19259e+09,1.00523,0.984601,85,0.0773397,235,1,1
app_41,639.796,20530.5,7950.3,49.4819,7.77535,4.89981e+10,1.00009,0.984601,1006,6.12476,20,1,1
app_42,37.5465,19736.7,7980.9,15.4598,6.77861,1.50894e+10,1.0005,0.984601,1115,2.15562,18,1,1
app_43,457.286,21878.4,7949,50.4217,8.2207,5.01222e+10,1.00011,0.984601,1012,5.56913,20,1,1
app_44,235.203,18206.2,7972.2,23.2438,8.2854,2.29347e+10,1.00061,0.984601,1027,2.86684,20,1,1
app_45,621.065,21958.6,7958.2,41.2999,6.63823,4.08022e+10,1.00012,0.984601,1088,5.82889,19,1,1
app_46,369.452,22403.6,7968.2,31.4773,7.77341,3.1301e+10,1.00006,0.984601,986,4.47158,21,1,1
app_47,91.3218,20479,7954.5,44.7965,6.89593,4.44253e+10,1.00013,0.984601,1050,6.34648,19,1,1
app_48,266.262,19945.6,7998.1,1.7723,9.26261,1.05559e+09,1.00011,0.984601,917,0.117287,22,1,1
app_49,259.761,21156.7,7949.6,50.3826,7.86697,4.96704e+10,1.00009,0.984601,1041,6.2088,20,1,1
app_5,4.26838,19240.4,7694.5,72.9987,854.303,5.25711e+09,1.03899,0.984601,9,0.00615586,2064,1,1
app_50,726.539,19581.7,7994.7,2.35329,8.02262,1.85197e+09,1.00043,0.984601,1099,0.231496,19,1,1
app_51,926.375,22535.3,7964.5,33.6004,7.73437,3.34447e+10,1.00026,0.984601,993,4.18058,21,1,1
app_52,1056.67,23214.9,7995.8,4.2,6.44386,3.75339e+09,1.00006,0.984601,1062,0.625565,19,1,1
app_53,634.845,22296.8,7971.5,22.5255,8.18604,2.22284e+10,1.00078,0.984601,943,2.77855,22,1,1
app_54,977.583,21808.1,7996.3,3.59197,7.5225,3.49589e+09,1.00003,0.984601,1157,0.499413,18,1,1
app_55,480.252,20829.9,7953,45.0712,9.87705,4.4602e+10,1.0003,0.984601,931,4.4602,22,1,1
app_56,423.423,21159.4,7975.2,24.2919,9.29662,2.40491e+10,1.00009,0.984601,851,2.67212,24,1,1
app_57,329.637,21182.1,7962,37.8889,7.57082,3.77009e+10,1.00004,0.984601,1086,5.38584,19,1,1
app_58,22.9958,20901.3,7961.9,37.7751,8.13104,3.73546e+10,1.00009,0.984601,976,4.15051,21,1,1
app_59,229.653,21310.6,7994.3,4.82513,7.80839,4.43498e+09,1.00016,0.984601,959,0.554372,21,1,1
app_6,2.83513,18941.6,7699.3,86.6028,849.072,4.99328e+10,1.03236,0.984601,9,0.0587445,2029,1,1
app_60,401.849,20833,7977.6,21.7168,6.62139,2.14464e+10,1.00012,0.984601,1025,3.06377,20,1,1
app_7,2.27455,20169,7720.5,70.504,770.245,1.85453e+10,1.03372,0.984601,10,0.0240848,1945,1,1
app_8,4.88431,18831.8,7731.8,69.2105,783.287,1.18089e+10,1.03311,0.984601,10,0.0150816,1834,1,1
app_9,5.33742,20647.5,7725.3,75.1366,764.053,3.27131e+10,1.03119,0.984601,10,0.0428182,1978,1,1
