app_id,start_app,end_app,effective_cpu,effective_io,effective_iter,total_bytes,stretch,utilization,Tcomp,Tio,iterations,priority,group_id
app_1,8.28544,19420.6,7914.1,75.7721,797.883,2.24399e+10,1.008,0.99335,10,0.0281554,1926,0.1,1
app_10,4.59693,18582.5,7912.8,78.5305,805.591,2.71952e+10,1.00756,0.99335,10,0.033741,1844,0.1,1
app_11,6.96444,20139.5,7909.9,81.3809,873.606,1.03212e+10,1.01007,0.99335,9,0.0118092,2198,0.1,1
app_12,5.01576,18834.8,7906.7,83.2415,871.973,2.09345e+10,1.00913,0.99335,9,0.0240075,2058,0.1,1
app_13,7.592,19915.4,7908.81,80.7896,801.746,4.09712e+10,1.00632,0.99335,10,0.0511099,1977,0.1,1
app_14,11.121,18984.2,7922.5,68.9417,715.783,2.18203e+10,1.00701,0.99335,11,0.0304753,1689,0.1,1
app_15,0.364431,19115.1,7917.4,74.1998,800.615,7.86843e+09,1.00943,0.99335,10,0.00982326,1906,0.1,1
app_16,4.10458,18160.6,7905.8,84.3926,874.424,2.63385e+10,1.00856,0.99335,9,0.0301356,2004,0.1,1
app_17,6.30343,17949.7,7876.4,110.793,1130.98,4.21822e+10,1.01028,0.99335,7,0.0372964,2527,0.1,1
app_18,9.4165,19060,7921.1,70.0842,716.513,2.9615e+10,1.0062,0.99335,11,0.0413617,1714,0.1,1
app_19,3.74231,19895.2,7904.3,85.1587,874.138,3.08753e+10,1.00817,0.99335,9,0.0353264,2196,0.1,1
app_2,6.76374,19369.4,7911.3,79.3969,789.882,3.66692e+10,1.00655,0.99335,10,0.0464167,1912,0.1,1
app_20,1.21307,18795.3,7910.4,79.2815,878.538,2.48352e+09,1.01101,0.99335,9,0.0028254,2058,0.1,1
app_21,27.0172,19823.1,7947.6,50.3472,78.9062,4.3186e+10,1.00115,0.99335,100,0.546658,199,0.01,2
app_22,78.6345,20407.3,7958,41.1214,74.6983,3.43265e+10,1.00096,0.99335,110,0.463872,181,0.01,2
app_23,17.5388,20248.7,7981.9,15.5388,77.3085,1.08847e+10,1.0009,0.99335,103,0.141359,194,0.01,2
app_24,47.1195,19686.7,7970.4,28.8233,85.1617,2.3782e+10,1.00073,0.99335,97,0.279788,206,0.01,2
app_25,37.9078,19776.9,7976.6,21.7929,90.7641,1.77478e+10,1.00071,0.99335,88,0.195031,226,0.01,2
app_26,82.9859,20521.4,7967.7,29.4206,85.9872,2.37919e+10,1.00106,0.99335,93,0.27665,214,0.01,2
app_27,35.5718,20223.5,7969.3,28.3555,91.71,2.21341e+10,1.00107,0.99335,87,0.243232,228,0.01,2
app_28,71.0982,20170.4,7953.5,44.9696,82.0373,3.82593e+10,1.00103,0.99335,97,0.460956,204,0.01,2
app_29,56.3992,19986.1,7955.4,43.4217,83.609,3.65314e+10,1.00101,0.99335,97,0.440138,206,0.01,2
app_3,0.803684,18389.2,7901.1,88.039,874.895,4.76544e+10,1.00645,0.99335,9,0.0544622,2009,0.1,1
app_30,18.2734,19909,7975.9,22.2583,92.052,1.68251e+10,1.00091,0.99335,90,0.182882,222,0.01,2
app_31,38.6154,19855.1,7946.3,51.3671,75.9033,4.37996e+10,1.00124,0.99335,107,0.57631,185,0.01,2
app_32,97.8509,19993.4,7971,28.0738,81.6797,2.28766e+10,1.00077,0.99335,101,0.278983,198,0.01,2
app_33,30.4495,19797.1,7953.08,44.0214,82.0987,3.71927e+10,1.00122,0.99335,96,0.448816,206,0.01,2
app_34,27.2615,20009.8,7954.6,44.2941,76.7239,3.72861e+10,1.00102,0.99335,102,0.490607,196,0.01,2
app_35,82.1439,20011.4,7956.2,42.4053,81.9501,3.60004e+10,1.00098,0.99335,99,0.439029,200,0.01,2
app_36,74.258,20148.7,7955.7,43.1347,82.4164,3.70897e+10,1.0009,0.99335,96,0.452313,207,0.01,2
app_37,82.7996,20185,7955.5,42.6412,81.2006,3.66388e+10,1.00098,0.99335,98,0.45233,202,0.01,2
app_38,37.5423,19814.5,7957.8,37.1496,92.9074,2.81163e+10,1.00176,0.99335,85,0.302326,233,0.01,2
app_39,88.123,19971.7,7963.3,34.5801,85.7419,2.76298e+10,1.00114,0.99335,93,0.325057,213,0.01,2
app_4,2.84675,18834.2,7905.7,84.3039,877.936,2.27245e+10,1.00903,0.99335,9,0.0259117,2076,0.1,1
app_40,32.678,20405.9,7950.2,47.926,77.4872,4.1188e+10,1.00108,0.99335,100,0.528052,198,0.01,2
app_41,50.657,20978.2,7970.8,29.2,8.22967,2.58411e+10,1.00042,0.99335,856,3.23014,24,0.001,3
app_42,687.303,20479.1,7972.6,27.4,9.47048,2.34581e+10,1.00049,0.99335,994,2.60645,21,0.001,3
app_43,939.553,22296.5,7986.5,13.5,7.38274,1.03889e+10,1.00039,0.99335,1068,1.48412,19,0.001,3
app_44,454.995,22335.7,7971.9,26.83,6.96816,2.3297e+10,1.0006,0.99335,1136,3.32815,18,0.001,3
app_45,130.418,20292,7980.6,19.4,8.55224,1.60232e+10,1.00042,0.99335,948,2.00289,22,0.001,3
app_46,466.169,20545.3,7950.3,48.7683,9.37672,4.14644e+10,1.00103,0.99335,899,4.60715,23,0.001,3
app_47,379.78,21199.2,7949.1,50.9,8.52548,4.10423e+10,1.00123,0.99335,958,4.56025,21,0.001,3
app_48,850.461,22039.3,7998.5,1.5,6.31797,1.12687e+09,1.00005,0.99335,1204,0.187811,17,0.001,3
app_49,104.914,20678.6,7952.4,47.6,8.95882,4.09893e+10,1.00083,0.99335,881,4.55437,23,0.001,3
app_5,8.82261,18785.7,7907.9,82.8693,878.686,1.59457e+10,1.00961,0.99335,9,0.0181407,2056,0.1,1
app_50,1114.76,20289.9,7954.8,45.2,7.14768,3.71892e+10,1.001,0.99335,1122,5.31274,18,0.001,3
app_51,621.788,19594.5,7962.4,37.6,9.03121,3.08872e+10,1.00084,0.99335,942,3.43192,22,0.001,3
app_52,55.0407,19129,7973.3,26.7,9.47961,2.23118e+10,1.00055,0.99335,934,2.47908,22,0.001,3
app_53,309.552,20714.7,7966.5,31.7861,7.98819,2.75608e+10,1.00074,0.99335,1079,3.4451,19,0.001,3
app_54,997.435,22239.3,7987.3,12.7,7.84209,1.06938e+10,1.00025,0.99335,1038,1.33672,20,0.001,3
app_55,441.868,21249,7979.7,20.3,6.54076,1.69304e+10,1.00042,0.99335,1058,2.82173,19,0.001,3
app_56,199.715,22059.2,7962.9,37.1,6.26827,3.26127e+10,1.00056,0.99335,1143,5.43544,18,0.001,3
app_57,775.042,20679.3,7992.8,7.2,7.80875,5.53355e+09,1.00021,0.99335,1063,0.691694,19,0.001,3
app_58,847.318,20480.2,7984.1,13.3136,9.79427,1.14226e+10,1.00056,0.99335,936,1.14226,22,0.001,3
app_59,117.992,19705.6,7954.5,42.1935,8.65246,3.53358e+10,1.00127,0.99335,905,4.41697,22,0.001,3
app_6,6.39251,18635.7,7911,79.9373,785.26,4.54345e+10,1.00548,0.99335,10,0.0578048,1844,0.1,1
app_60,433.359,20550,7969.3,30.7,6.33492,2.78897e+10,1.00035,0.99335,1143,4.64828,18,0.001,3
app_7,6.8548,18227.5,7908.7,81.1743,879.056,1.2509e+10,1.00995,0.99335,9,0.0142309,2011,0.1,1
app_8,6.43579,19017.7,7906.6,84.3939,866.852,3.27712e+10,1.00764,0.99335,9,0.0377984,2070,0.1,1
app_9,7.69984,19651.3,7905.1,84.8193,879.169,2.82533e+10,1.0084,0.99335,9,0.0321426,2168,0.1,1
