app_id,start_app,end_app,effective_cpu,effective_io,effective_iter,total_bytes,stretch,utilization,Tcomp,Tio,iterations,priority,group_id
app_1,6.13413,18900.5,7911.5,79.8564,795.869,3.99511e+10,1.00611,0.993609,10,0.0501899,1866,0.1,1
app_10,5.3517,19822.2,7909.4,81.1163,797.254,4.5962e+10,1.00561,0.993609,10,0.0576687,1968,0.1,1
app_11,8.8628,19048.7,7914.3,76.0518,782.991,2.67794e+10,1.00742,0.993609,10,0.034201,1859,0.1,1
app_12,7.48588,19778.7,7915.2,76.6491,783.151,3.32928e+10,1.00648,0.993609,10,0.0425196,1960,0.1,1
app_13,8.38898,19980.3,7908,82.1059,872.06,1.98929e+10,1.0091,0.993609,9,0.022813,2185,0.1,1
app_14,4.35949,19456.3,7910.5,81.0527,797.716,4.66118e+10,1.00539,0.993609,10,0.0584108,1937,0.1,1
app_15,3.69089,19135.2,7911,79.2727,787.054,3.70544e+10,1.00654,0.993609,10,0.0470831,1874,0.1,1
app_16,2.08979,19831.6,7917.7,73.8171,719.012,4.5094e+10,1.00467,0.993609,11,0.0627177,1779,0.1,1
app_17,2.62065,20124.9,7916.8,72.8099,786.408,1.34044e+10,1.0088,0.993609,10,0.0170323,1986,0.1,1
app_18,0.0508303,19211.5,7915,76.1268,791.886,2.49215e+10,1.00757,0.993609,10,0.0314665,1882,0.1,1
app_19,7.21149,18868,7926.6,66.1418,712.077,6.63347e+09,1.00842,0.993609,11,0.00931668,1703,0.1,1
app_2,9.94055,20013.3,7918.9,71.721,791.146,3.72638e+09,1.00977,0.993609,10,0.00471097,1966,0.1,1
app_20,0.203005,18716.5,7901.4,88.1576,868.241,4.87217e+10,1.00627,0.993609,9,0.056131,2061,0.1,1
app_21,79.4118,19495.6,7991.3,7.73209,63.0254,5.41449e+09,1.00041,0.993609,128,0.0859443,156,0.01,2
app_22,77.207,20307.5,7952.5,47.0836,80.8348,3.96587e+10,1.00098,0.993609,94,0.489614,211,0.01,2
app_23,73.3898,19663.3,7954.4,43.608,81.6609,3.5365e+10,1.00128,0.993609,100,0.43128,198,0.01,2
app_24,22.1271,19742.7,7991.3,7.57341,76.5925,1.85576e+09,1.00086,0.993609,106,0.0244179,188,0.01,2
app_25,3.18062,19900.5,7981.4,16.4484,78.8448,1.09561e+10,1.00096,0.993609,100,0.138685,200,0.01,2
app_26,34.4846,20108.1,7990.7,8.29498,83.0024,2.63754e+09,1.00083,0.993609,97,0.0317776,205,0.01,2
app_27,44.533,19707.5,7950.3,49.4516,71.4067,4.09664e+10,1.00109,0.993609,112,0.576991,177,0.01,2
app_28,9.78989,20014.3,7965.9,32.8183,98.9225,2.54002e+10,1.00109,0.993609,82,0.256568,242,0.01,2
app_29,59.6589,19514.5,7985.7,11.8612,89.6715,8.76968e+09,1.00069,0.993609,89,0.0985357,222,0.01,2
app_3,5.65589,20081.7,7915.6,75.7187,792.38,2.0399e+10,1.00806,0.993609,10,0.0257238,1981,0.1,1
app_30,75.3517,19881.9,7985.1,13.435,68.591,7.45645e+09,1.00093,0.993609,118,0.109654,169,0.01,2
app_31,65.4821,19754.7,7956,43.0217,68.9938,3.61444e+10,1.00098,0.993609,118,0.523831,168,0.01,2
app_32,44.145,20281.7,7951.7,47.7285,76.5158,3.88944e+10,1.00118,0.993609,101,0.511768,197,0.01,2
app_33,82.1321,20099.1,7976,22.898,89.7699,1.78621e+10,1.00077,0.993609,88,0.198468,227,0.01,2
app_34,69.1321,20230.9,7982.2,15.8924,80.9195,8.96768e+09,1.00111,0.993609,98,0.112096,203,0.01,2
app_35,65.9634,19866.2,7989.4,8.59766,76.0286,6.0363e+09,1.00057,0.993609,105,0.079425,189,0.01,2
app_36,85.7832,20753.5,7941.1,56.6863,82.5356,4.67111e+10,1.00153,0.993609,91,0.569647,219,0.01,2
app_37,10.275,19688.8,7945.8,52.886,84.3339,4.38221e+10,1.0013,0.993609,94,0.515554,210,0.01,2
app_38,33.5432,19993.1,7963.5,33.8669,79.5739,2.70473e+10,1.00118,0.993609,99,0.338092,201,0.01,2
app_39,75.4607,20357.8,7971.8,26.4227,78.3601,2.02094e+10,1.001,0.993609,101,0.255816,197,0.01,2
app_4,4.88274,19961.4,7920.4,70.4033,715.617,2.57886e+10,1.00677,0.993609,11,0.036068,1794,0.1,1
app_40,76.7612,20446.1,7981.4,16.715,71.3529,1.28374e+10,1.00072,0.993609,111,0.180809,180,0.01,2
app_41,686.469,20522.7,7962.8,37.2,7.32254,3.14984e+10,1.00071,0.993609,1025,4.49977,20,0.001,3
app_42,402.985,22645.7,7963.5,32.9592,8.09631,2.62651e+10,1.00128,0.993609,900,3.28313,23,0.001,3
app_43,842.203,22664.4,7946.3,53.7,7.49806,4.68702e+10,1.00085,0.993609,1070,5.85878,19,0.001,3
app_44,867.679,21249.3,7950.8,49.2,6.59993,4.20717e+10,1.00089,0.993609,1045,6.01024,20,0.001,3
app_45,897.657,21770.4,7979.4,20.3973,8.50049,1.68725e+10,1.00047,0.993609,955,2.10906,21,0.001,3
app_46,283.95,21829,7951,44.5949,6.89788,3.91255e+10,1.00124,0.993609,1103,5.58936,19,0.001,3
app_47,680.834,22464.1,7984.8,8.59584,8.83207,6.47729e+09,1.00109,0.993609,899,0.719698,23,0.001,3
app_48,440.908,20026.3,7958,42,8.36712,3.63224e+10,1.00071,0.993609,921,4.03582,22,0.001,3
app_49,736.804,21381.6,7963.9,36.1,8.09197,3.00448e+10,1.00076,0.993609,1004,3.7556,20,0.001,3
app_5,8.04393,18036.2,7891.8,95.8445,980.071,3.88305e+10,1.00875,0.993609,8,0.039623,2221,0.1,1
app_50,642.456,20695.3,7993.8,6.2,7.91794,5.24559e+09,1.00012,0.993609,1093,0.655699,19,0.001,3
app_51,787.514,21310,7942,58,8.9323,5.10877e+10,1.00086,0.993609,852,5.67642,24,0.001,3
app_52,908.837,22081.6,7956.9,37.8746,7.35663,3.00083e+10,1.00164,0.993609,1013,4.2869,20,0.001,3
app_53,744.573,19070.8,7987.2,5.08549,8.37835,3.63207e+09,1.00115,0.993609,1131,0.403563,18,0.001,3
app_54,640.671,21449.8,7966.6,33.2842,8.56848,2.7485e+10,1.00074,0.993609,983,3.05389,21,0.001,3
app_55,979.918,22389.9,7993.7,6.3,6.00345,4.26584e+09,1.00025,0.993609,1260,0.710973,16,0.001,3
app_56,391.183,20327.3,7961.8,38.2,7.88064,3.21288e+10,1.00076,0.993609,1050,4.0161,19,0.001,3
app_57,789.615,21732.2,7939.4,58.3013,8.31783,4.9349e+10,1.00141,0.993609,936,6.16862,22,0.001,3
app_58,78.3172,21639.6,7980.3,14.1001,7.07111,1.19488e+10,1.00097,0.993609,1020,1.70697,20,0.001,3
app_59,283.179,21038.1,7997.8,2.2,10.087,1.5171e+09,1.00009,0.993609,847,0.15171,24,0.001,3
app_6,1.66684,19626.6,7889,99.7924,988.621,5.17935e+10,1.00746,0.993609,8,0.0523695,2424,0.1,1
app_60,386.481,21048.6,7943,50.8886,9.67059,4.34939e+10,1.00169,0.993609,813,4.83265,25,0.001,3
app_7,1.82005,19869.9,7895.8,92.1569,985.817,1.69158e+10,1.01103,0.993609,8,0.017156,2457,0.1,1
app_8,9.51054,18361.3,7899.1,90.6864,881.682,5.13693e+10,1.00623,0.993609,9,0.0583079,2019,0.1,1
app_9,10.2256,19052.6,7913.8,78.0206,787.33,3.50771e+10,1.00643,0.993609,10,0.0445707,1878,0.1,1
