app_id,Tcomp,Tio,iter,witer,alpha_io,compute_size,io_size,mu,desyn_time
1,15.45065269033734,1.090679811292386,1210,16.541332501629725,0.06593663546663651,15e9,1090679811.2923858,10,1.461852759470668
2,14.305456261820542,0.43273204626656553,1358,14.738188308087107,0.02936127814496153,14e9,432732046.2665655,10,2.1744105673163383
3,9.23025328749046,0.8146285181755634,1992,10.044881805666023,0.08109886546560013,9e9,814628518.1755633,10,8.924535673169215
4,6.566739632376288,0.15406674556517158,2976,6.72080637794146,0.02292384825589355,6e9,154066745.56517157,10,3.2467198005535627
5,6.442315391107912,0.10797602673603238,3054,6.550291417843945,0.016484156176912984,6e9,107976026.73603238,10,4.176715696568093
6,69.24928327987081,6.246380248507358,265,75.49566352837817,0.08273826543903938,69e9,6246380248.507358,100,13.552966228223926
7,91.41546884654093,5.039216042486958,208,96.45468488902789,0.052244388629589404,91e9,5039216042.486958,100,79.17487391423845
8,84.6493528600642,6.715807195891154,219,91.36516005595536,0.07350512155594265,84e9,6715807195.891154,100,56.25804167270247
9,36.351338662470496,2.982012295769313,509,39.33335095823981,0.07581383795485193,36e9,2982012295.7693133,100,13.213070708189953
10,173.41999817100088,15.585031493478548,106,189.00502966447942,0.0824582897140092,173e9,15585031493.478548,100,67.17005260148646
11,468.50446021265697,34.46988746251704,40,502.974347675174,0.0685320983502285,468e9,34469887462.517044,1000,226.04633057638824
12,202.89970848005143,9.07801137365758,95,211.977719853709,0.04282530909343933,202e9,9078011373.65758,1000,113.66252820543392
13,615.2215966630355,7.113532757436393,33,622.3351294204718,0.011430389224629864,615e9,7113532757.436393,1000,577.0250382581606
14,1082.0366109925064,43.10173019685448,18,1125.138341189361,0.03830793833875799,1082e9,43101730196.854485,1000,325.02170234987057
15,468.63188413198924,27.978838645680106,41,496.61072277766937,0.056339578189507036,468e9,27978838645.680107,1000,358.5056396074796
