app_id,Tcomp,Tio,iter,witer,alpha_io,compute_size,io_size,mu,desyn_time
1,17.464874577291212,0.2898445513302326,1127,17.754719128621446,0.016324930247023143,17e9,289844551.3302326,10,6.6454432103028545
2,9.656267622243416,0.24921210733844978,2020,9.905479729581865,0.02515901441847377,9e9,249212107.33844978,10,0.5673290161692268
3,9.503828377998762,0.5312062210107227,1994,10.035034599009483,0.052935165870096335,9e9,531206221.0107227,10,8.590782776159855
4,10.299029963538768,0.7269252500200851,1814,11.025955213558854,0.06592855094551532,10e9,726925250.0200851,10,2.8594199284903508
5,4.6856741417387715,0.6449223745301477,3752,5.330596516268919,0.12098502907917566,4e9,644922374.5301477,10,1.7835995850641526
6,154.1331812933332,5.294549480483049,126,159.42773077381625,0.0332097148644394,154e9,5294549480.483048,100,67.83825232812816
7,33.28457237792151,0.7299380295712401,588,34.01451040749275,0.02145960711551058,33e9,729938029.5712401,100,7.700321631087751
8,144.73255004006523,5.270405758981468,134,150.0029557990467,0.03513534603972759,144e9,5270405758.981468,100,32.872127510317874
9,124.43781248989876,7.886101634183145,152,132.3239141240819,0.059596949549030435,124e9,7886101634.1831455,100,38.5472349372237
10,30.730848088247054,3.6095244480600033,583,34.34037253630706,0.10511022978110561,30e9,3609524448.0600033,100,6.662260826767544
11,1655.7208651562814,104.64937795977353,12,1760.370243116055,0.059447368170988994,1655e9,104649377959.77353,1000,843.3023891984229
12,1720.0556733900912,56.45253674363911,12,1776.5082101337302,0.03177724505950329,1720e9,56452536743.63911,1000,389.62518335704686
13,861.2891851625052,6.861298240665504,24,868.1504834031707,0.007903351287404749,861e9,6861298240.665504,1000,177.19666463725747
14,786.6263107415899,78.29399009667442,24,864.9203008382643,0.0905216238083363,786e9,78293990096.67442,1000,289.7510032763066
15,1024.7289165164837,82.4946600217128,19,1107.2235765381965,0.07450587376366885,1024e9,82494660021.7128,1000,289.2569078224082
