app_id,Tcomp,Tio,iter,witer,alpha_io,compute_size,io_size,mu,desyn_time
1,10.301161837779853,0.23957193512798947,1898,10.540733772907842,0.0227282028262345,10e9,239571935.12798947,10,9.511958344760117
2,9.834111616915777,1.0914004839539784,1831,10.925512100869755,0.09989467531385504,9e9,1091400483.9539783,10,2.556673929659894
3,7.846031269364947,0.3632698877926447,2437,8.209301157157592,0.04425101245992346,7e9,363269887.7926447,10,5.995848965638794
4,7.4747588393829405,0.3387626554680238,2560,7.813521494850964,0.04335595105117009,7e9,338762655.46802384,10,1.3635953701223065
5,12.981268195642313,0.9909054226864206,1432,13.972173618328734,0.07091991910167422,12e9,990905422.6864206,10,7.119438815784215
6,50.95717732007415,3.1288268215989654,370,54.086004141673115,0.05784910294728564,50e9,3128826821.5989656,100,42.25036215039632
7,60.85732451865272,0.14493082929550932,328,61.00225534794823,0.0023758273930831637,60e9,144930829.2955093,100,54.34944886497251
8,63.88768222328722,3.5300081273932693,297,67.41769035068049,0.05236026492500034,63e9,3530008127.3932695,100,51.412285848499806
9,90.28458316966884,4.559377539165561,211,94.8439607088344,0.048072407616575524,90e9,4559377539.165561,100,86.19014879628111
10,133.63328046026925,1.6121646608671607,148,135.2454451211364,0.011920288032052981,133e9,1612164660.8671608,100,1.563526317318346
11,882.3137671187922,107.2535778524938,21,989.5673449712859,0.10838431401109538,882e9,107253577852.4938,1000,448.9754137371581
12,754.7528039495413,34.29908440321121,26,789.0518883527525,0.04346873115634381,754e9,34299084403.211212,1000,743.9373556366654
13,856.1806237393233,18.583290208682943,23,874.7639139480062,0.021243777792355856,856e9,18583290208.68294,1000,835.8471823813059
14,803.6166658518638,73.03831146024402,23,876.6549773121078,0.08331477417054671,803e9,73038311460.24402,1000,875.401553952301
15,962.298043262293,95.01054389514165,19,1057.3085871574347,0.08986075120280325,962e9,95010543895.14165,1000,1047.1098397822213
