app_id,Tcomp,Tio,iter,witer,alpha_io,compute_size,io_size,mu,desyn_time
1,14.706175278419199,1.3970043076372671,1242,16.103179586056466,0.08675332099301153,14e9,1397004307.637267,10,15.829605562372274
2,5.759309523218466,0.0868570617887845,3422,5.846166585007251,0.014857096616359379,5e9,86857061.78878449,10,4.714231815300427
3,11.519155825445083,0.3920149742027863,1680,11.911170799647868,0.03291153999860161,11e9,392014974.2027863,10,7.997002984744085
4,13.950897117448013,0.9153694198934251,1346,14.866266537341438,0.06157359129773293,13e9,915369419.8934251,10,14.055262286454212
5,8.516673512249733,0.767571911834503,2155,9.284245424084236,0.08267466840582938,8e9,767571911.834503,10,4.756238378452264
6,87.973666102977,9.954828210625497,205,97.9284943136025,0.1016540515648748,87e9,9954828210.625496,100,24.182721868226846
7,55.559412222061994,0.33250817870642035,358,55.89192040076841,0.005949127822450863,55e9,332508178.70642036,100,6.47214082823861
8,2.7619714227253525,0.14410182116210987,6883,2.9060732438874624,0.04958643814818117,2e9,144101821.16210988,100,2.0087784842605174
9,61.37495253660485,6.868979136900254,294,68.2439316735051,0.10065333236899442,61e9,6868979136.900254,100,11.360143425179942
10,110.82958412834664,7.236629947870101,170,118.06621407621674,0.06129297872800893,110e9,7236629947.870101,100,15.711914473136774
11,1160.4535767100708,47.67802764077832,17,1208.131604350849,0.039464266532781074,1160e9,47678027640.77832,1000,289.2962254603014
12,851.6591787580024,17.033210876434698,24,868.6923896344372,0.01960787394903115,851e9,17033210876.434698,1000,234.21751498327345
13,640.2954419568179,48.9389368703936,30,689.2343788272115,0.07100478207959851,640e9,48938936870.3936,1000,490.0705288966296
14,1347.9475471750088,73.71640755191686,15,1421.6639547269256,0.05185220270009333,1347e9,73716407551.91685,1000,228.5235368195462
15,1933.752413816169,39.796069937594275,11,1973.5484837537633,0.020164728794450824,1933e9,39796069937.59428,1000,1696.9772030472839
