app_id,Tcomp,Tio,iter,witer,alpha_io,compute_size,io_size,mu,desyn_time
1,3.3894159153261834,0.30469277943141276,5415,3.6941086947575963,0.08248072934719275,3e9,304692779.43141276,10,0.5390246955999705
2,16.28374683002413,1.5791672330124729,1120,17.8629140630366,0.08840479372177099,16e9,1579167233.0124729,10,8.280004204394567
3,16.660645523720593,1.2414918680802525,1118,17.902137391800846,0.06934880684408411,16e9,1241491868.0802524,10,0.06364917598183407
4,3.5164849849996904,0.2743125250389959,5276,3.7907975100386864,0.07236274802665375,3e9,274312525.03899586,10,2.149272984577852
5,10.202432703255127,0.03484238517793133,1954,10.237275088433059,0.0034034823599982398,10e9,34842385.17793133,10,0.40008077903596534
6,114.19792702156941,7.809919885120504,164,122.00784690668992,0.06401161960585562,114e9,7809919885.120503,100,54.78478413378242
7,187.97905383421002,10.933731176292088,101,198.91278501050212,0.05496746313071236,187e9,10933731176.292088,100,19.062218411873456
8,112.09318378726643,9.909670642227706,164,122.00285442949414,0.08122490812667452,112e9,9909670642.227705,100,63.349900558513255
9,111.73221481373045,10.996414145469053,163,122.7286289591995,0.08959942141229944,111e9,10996414145.469053,100,9.730145315518829
10,88.51953807655195,9.282969735529754,205,97.8025078120817,0.0949154571104261,88e9,9282969735.529755,100,2.3051486806681543
11,684.7246263259581,16.201627701347494,29,700.9262540273056,0.023114596732905848,684e9,16201627701.347494,1000,114.67066424386176
12,515.3623943265956,2.4730638995521503,39,517.8354582261477,0.004775771647665195,515e9,2473063899.5521502,1000,8.658855903591018
13,758.7658153512449,19.53365009397298,26,778.2994654452178,0.025097858807854846,758e9,19533650093.97298,1000,593.0936374023862
14,1313.8151735134184,27.64375581631345,15,1341.4589293297317,0.020607232328853947,1313e9,27643755816.31345,1000,384.58986643581204
15,1903.4939226354377,50.18033989442903,11,1953.6742625298666,0.025685110797052282,1903e9,50180339894.42903,1000,1754.3364436582744
