app_id,Tcomp,Tio,iter,witer,alpha_io,compute_size,io_size,mu,desyn_time
1,14.256141594233808,1.9049502620714183,1238,16.161091856305227,0.11787262141748206,14e9,1904950262.0714183,10,7.236044052918889
2,22.645586761065804,1.2005614775526792,839,23.846148238618483,0.05034613831714707,22e9,1200561477.552679,10,9.948142250537858
3,15.775060764631426,0.3848871565768488,1238,16.159947921208275,0.02381735129676525,15e9,384887156.5768488,10,0.4737778844654373
4,5.92149444613767,0.06577112283610272,3341,5.987265568973773,0.010985168785051236,5e9,65771122.83610272,10,0.5221033964655056
5,18.02957377663353,0.724311179483854,1067,18.753884956117385,0.03862192719954746,18e9,724311179.483854,10,12.493841923081654
6,74.21523924461971,1.5993978603605623,264,75.81463710498028,0.021096161921158856,74e9,1599397860.3605623,100,42.380502376680504
7,127.01350055619413,15.88551468006402,140,142.89901523625815,0.11116601926052563,127e9,15885514680.06402,100,121.729070306302
8,64.43533875690066,3.8257572335177534,293,68.26109599041841,0.05604593916943207,64e9,3825757233.5177536,100,4.543710268271956
9,161.61614864688548,2.1157312623765647,123,163.73187990926203,0.01292192616092281,161e9,2115731262.3765647,100,11.401079542627425
10,100.71990442878749,12.046711881377995,178,112.76661631016547,0.10682870760477035,100e9,12046711881.377995,100,28.589226539114367
11,965.0527260676441,79.8507890376999,20,1044.903515105344,0.07641929411027924,965e9,79850789037.69989,1000,113.29191595443291
12,836.2651861541996,14.785174184704804,24,851.0503603389044,0.01737285462028013,836e9,14785174184.704803,1000,59.86899339885273
13,826.3119304672398,89.90189572138935,22,916.2138261886291,0.09812326899210147,826e9,89901895721.38936,1000,122.17220013129194
14,465.24822176006785,25.00622046118814,41,490.254442221256,0.05100661678431589,465e9,25006220461.18814,1000,249.89697879457765
15,757.6970410854661,5.6303058391917435,27,763.3273469246578,0.007376004360220397,757e9,5630305839.191744,1000,738.0916065152539
