app_id,Tcomp,Tio,iter,witer,alpha_io,compute_size,io_size,mu,desyn_time
1,5.439532893377707,0.07321367287475838,3628,5.512746566252465,0.013280797873595818,5e9,73213672.87475838,10,1.4072964017550524
2,9.662267241634444,0.0449933543324952,2061,9.70726059596694,0.004635020754587398,9e9,44993354.3324952,10,4.081120535518148
3,8.340722996653929,1.0466881156517147,2131,9.387411112305644,0.11149912400018853,8e9,1046688115.6517147,10,7.587971992308933
4,11.983319857002154,1.1443711955359115,1524,13.127691052538065,0.08717231316276769,11e9,1144371195.5359116,10,4.953870316732715
5,1.898968653659431,0.047173071843138084,10277,1.946141725502569,0.024239278786829452,1e9,47173071.843138084,10,0.5689251279128537
6,137.72065592017285,14.839771554818892,132,152.56042747499174,0.09727143401752385,137e9,14839771554.818892,100,59.674475498516344
7,152.38897362398743,3.233665375085783,129,155.62263899907322,0.02077888792969923,152e9,3233665375.085783,100,29.88615329954984
8,83.16557424284497,8.345186799027822,219,91.51076104187278,0.0911935023161844,83e9,8345186799.027822,100,44.54441679126188
9,153.3444685035114,4.879726415609736,127,158.22419491912112,0.030840582997461848,153e9,4879726415.6097355,100,23.209707500714355
10,59.49411663091181,6.029933254469249,306,65.52404988538106,0.09202626005286915,59e9,6029933254.469249,100,57.90175764829083
11,978.2893204936867,55.01341791042371,20,1033.3027384041104,0.05324036786681652,978e9,55013417910.42371,1000,642.3090620982002
12,282.4413834475549,26.3486816354215,65,308.7900650829764,0.08532878681942446,282e9,26348681635.4215,1000,224.56063944815716
13,1258.660923689707,54.344946915534905,16,1313.0058706052419,0.04138972119788323,1258e9,54344946915.534904,1000,1215.3828611456756
14,953.2100815754214,4.866145140946079,21,958.0762267163675,0.005079079310446841,953e9,4866145140.946079,1000,630.0516857276425
15,1528.824266477095,67.06708328094922,13,1595.8913497580443,0.04202484291372177,1528e9,67067083280.94922,1000,574.4023333484812
