app_id,Tcomp,Tio,iter,witer,alpha_io,compute_size,io_size,mu,desyn_time
1,6.108269261423907,0.17578115399163816,3183,6.284050415415545,0.027972588119348225,6e9,175781153.99163815,10,0.09430842072071659
2,6.59175726695796,0.2103647008708295,2941,6.802121967828789,0.030926334732862354,6e9,210364700.8708295,10,6.797540719499195
3,7.879459794575293,0.5085026137523945,2385,8.387962408327688,0.06062290089039334,7e9,508502613.7523945,10,7.718024829915352
4,15.953281549302057,0.5441474316297018,1213,16.49742898093176,0.032983771729440045,15e9,544147431.6297019,10,9.929458795543642
5,7.334217150357928,0.1889840865376585,2659,7.523201236895586,0.02512016900609213,7e9,188984086.53765848,10,7.03445317047316
6,52.14955342076907,4.490856231650504,354,56.64040965241957,0.0792871425049565,52e9,4490856231.650504,100,2.829084589671646
7,144.4640586156789,12.426565313640042,128,156.89062392931896,0.07920527691468901,144e9,12426565313.640041,100,72.83952329485213
8,103.68740856185302,9.470725349142173,177,113.15813391099519,0.08369460525560977,103e9,9470725349.142172,100,2.073503862804207
9,36.50771251170215,0.4101131951033621,542,36.917825706805516,0.011108812267558891,36e9,410113195.1033621,100,32.348628230569474
10,109.34906942770836,6.2663473372892975,173,115.61541676499766,0.05419992863085386,109e9,6266347337.289297,100,40.0380502224207
11,1211.1289750771173,17.345476933791794,17,1228.474452010909,0.014119525974185877,1211e9,17345476933.791794,1000,413.0785123040974
12,1677.952943680905,152.53188285511516,11,1830.4848265360201,0.08332867918045736,1677e9,152531882855.11514,1000,1318.1470460198464
13,1079.996627558578,124.90329887120728,17,1204.8999264297852,0.10366279898556036,1079e9,124903298871.20729,1000,148.21988617012713
14,1292.3277923817545,16.844410084165222,16,1309.1722024659198,0.012866458707599785,1292e9,16844410084.165222,1000,1282.7243992227131
15,847.414793225784,95.10076948534619,22,942.5155627111302,0.10090100710039251,847e9,95100769485.34619,1000,427.3598318957389
