app_id,Tcomp,Tio,iter,witer,alpha_io,compute_size,io_size,mu,desyn_time
1,11.849629882353085,0.2059011108041138,1659,12.055530993157198,0.01707938961137296,11e9,205901110.8041138,10,8.821298206093015
2,16.999756785126227,1.00261945842117,1111,18.002376243547396,0.05569372869765121,16e9,1002619458.4211701,10,16.608346544006803
3,12.42644057472679,1.0129651012820708,1489,13.43940567600886,0.07537276020251024,12e9,1012965101.2820709,10,13.35615667010243
4,4.522379844656294,0.25169642725464514,4190,4.774076271910939,0.05272149268656271,4e9,251696427.25464514,10,2.6447869296816413
5,10.394691783786707,0.8737361495417719,1775,11.268427933328478,0.07753842458871607,10e9,873736149.5417719,10,0.5179921500710751
6,161.26066553270786,1.7282811947979124,123,162.98894672750578,0.01060367116604141,161e9,1728281194.7979124,100,161.21619605319302
7,155.59419282276076,8.546796389255627,122,164.1409892120164,0.052069848185305904,155e9,8546796389.255628,100,67.10401098010958
8,117.87056176073659,9.389920307024086,158,127.26048206776068,0.07378504430011794,117e9,9389920307.024086,100,124.03272714775197
9,73.81315412938412,5.27021089352672,253,79.08336502291084,0.06664120693397295,73e9,5270210893.52672,100,70.47253322750038
10,84.72071944139044,5.256039894668564,223,89.976759336059,0.05841552789245831,84e9,5256039894.668564,100,46.82903725424316
11,202.8242284820516,18.731737293737613,91,221.55596577578922,0.084546300652061,202e9,18731737293.737614,1000,48.49473297106361
12,489.9302826976639,47.41262583935106,38,537.342908537015,0.08823532438240976,489e9,47412625839.35106,1000,492.4896571773601
13,1531.592796111803,123.48593471715438,13,1655.0787308289573,0.07461030851100697,1531e9,123485934717.15437,1000,281.64306050757205
14,1213.8485653698992,1.1002837035665585,17,1214.9488490734657,0.0009056214213509052,1213e9,1100283703.5665584,1000,551.0421442095616
15,1643.4462605790732,19.592847068869933,13,1663.0391076479432,0.011781350768461686,1643e9,19592847068.869934,1000,812.370190353474
