app_id,start_app,end_app,effective_cpu,effective_io,effective_iter,total_bytes,stretch,utilization,Tcomp,Tio,iterations,priority,group_id
app_1,12.9748,25872.6,4850.76,572.673,440.46,5.51978e+11,1.48073,0.793571,11,1.2545,1527,1,1
app_10,41.7117,23996.5,6467.7,155.68,112.649,1.49775e+11,1.20892,0.793571,57,1.33727,343,1,1
app_11,704.657,21893.6,7394.4,592.072,7.24204,5.91574e+11,1.00176,0.793571,1016,84.5106,19,1,1
app_12,324.744,21088.8,7418.8,215.018,11.7712,2.14725e+11,1.04801,0.793571,633,17.8938,31,1,1
app_13,365.487,21038.6,7582.4,181.859,15.8612,1.80816e+11,1.0305,0.793571,485,11.301,41,1,1
app_14,1069.97,20985.4,7365.2,563.879,5.29094,5.63569e+11,1.00898,0.793571,1449,112.714,13,1,1
app_15,1717.14,22509.3,7747.7,238.215,3.76726,2.37976e+11,1.00179,0.793571,1955,79.3255,10,1,1
app_2,8.31504,27102.8,4970,103.145,552.673,6.97476e+10,1.58738,0.793571,9,0.126126,2073,1,1
app_3,3.78876,25949.2,4660.8,348.375,666.846,3.31356e+11,1.60251,0.793571,7,0.497532,2362,1,1
app_4,2.59119,27976.8,4172.5,293.026,1387.63,2.427e+11,1.81192,0.793571,3,0.174982,5640,1,1
app_5,8.43553,27524.2,4633.8,512.747,578.413,4.73836e+11,1.56628,0.793571,8,0.818369,2218,1,1
app_6,116.606,21907.1,6844.8,550.028,53.884,5.48302e+11,1.08209,0.793571,127,10.2959,146,1,1
app_7,171.86,21920.5,7201.7,504.305,42.7245,5.02371e+11,1.03841,0.793571,165,11.9612,113,1,1
app_8,107.373,22752.4,6689,456.982,64.9616,4.54629e+11,1.11988,0.793571,103,6.9943,182,1,1
app_9,15.5971,21566.1,7229,194.905,42.8167,1.9316e+11,1.07785,0.793571,169,4.4921,115,1,1
