app_id,start_app,end_app,effective_cpu,effective_io,effective_iter,total_bytes,stretch,utilization,Tcomp,Tio,iterations,priority,group_id
app_1,1.82504,19017.4,7770.38,229.619,970.951,6.69738e+10,1.02075,0.881125,8,0.0690168,2305,1,1
app_10,66.9877,21989.8,6756,1244,107.195,5.09588e+11,1.10108,0.881125,63,4.72435,293,1.00001,1.00001
app_11,137.554,22738.7,6338.7,1661.3,33.3483,6.96195e+11,1.13719,0.881125,189,21.0968,95,1.00001,1.00001
app_12,14.0097,21267.7,7149.3,850.7,76.1316,3.34204e+11,1.06902,0.881125,94,4.39742,203,1.00001,1.00001
app_13,127.117,22679.9,6241.6,1758.4,6.92961,7.68847e+11,1.14115,0.881125,902,109.835,20,1.00001,1.00001
app_14,829.333,23395.4,6810.7,1189.3,8.02736,5.15304e+11,1.092,0.881125,856,64.4129,22,1.00001,1.00001
app_15,1363.53,22825.5,7670.7,329.3,5.13861,1.64359e+11,1.02105,0.881125,1450,32.8719,14,1.00002,1.00002
app_2,5.93842,20043.1,7548.1,451.9,1258.66,1.3151e+11,1.04172,0.881125,6,0.104539,3154,1,1
app_3,12.9526,22357.4,6412.38,1587.62,402.024,6.61046e+11,1.13099,0.881125,16,1.64401,1124,1,1
app_4,0.0221926,20482.2,7086.47,913.534,643.501,3.49915e+11,1.07579,0.881125,11,0.543953,1646,1,1
app_5,5.95239,22292.7,6165.13,1834.87,880.548,7.68781e+11,1.15375,0.881125,7,0.873029,2465,1.00001,1.00001
app_6,15.6481,21686.4,6891.22,1108.78,68.2537,4.50125e+11,1.08972,0.881125,101,6.59172,186,1.00001,1.00001
app_7,15.9472,21127.9,7121.92,878.081,442.848,3.39509e+11,1.07218,0.881125,16,0.766892,1174,1.00001,1.00001
app_8,18.2321,20208.8,7989,11,64.0152,3.1032e+09,1.00099,0.881125,124,0.0484876,161,1.00001,1.00001
app_9,85.0676,20614.4,7783.4,216.6,47.2311,8.0881e+10,1.01726,0.881125,164,1.72087,121,1.00001,1.00001
