app_id,start_app,end_app,effective_cpu,effective_io,effective_iter,total_bytes,stretch,utilization,Tcomp,Tio,iterations,priority,group_id
app_1,4.52034,21524.5,6638.22,1361.78,1104.76,5.07159e+11,1.1196,0.87077,6,0.459203,2989,1,1
app_10,74.313,22136.4,6623.9,1376.1,46.3713,5.19191e+11,1.11996,0.87077,144,11.0466,129,1.00001,1.00001
app_11,814.725,22981.6,7479.3,520.7,4.95149,1.77962e+11,1.04476,0.87077,1482,35.5923,14,1.00001,1.00001
app_12,205.169,22426.9,6959.4,1040.6,7.73861,4.5883e+11,1.07842,0.87077,910,57.3537,21,1.00001,1.00001
app_13,983.137,22898.7,7165.9,834.1,5.6319,3.03914e+11,1.07098,0.87077,1253,50.6523,16,1.00001,1.00001
app_14,1391.13,23711.6,7549.9,450.1,5.23487,1.40394e+11,1.04027,0.87077,1389,28.0788,15,1.00001,1.00001
app_15,1333.95,24198.7,6180.1,1819.9,3.77804,7.24063e+11,1.15872,0.87077,1669,210.288,11,1.00002,1.00002
app_2,0.684711,21300.5,6611.5,1388.5,3306.96,4.86679e+11,1.12705,0.87077,2,0.147166,8834,1,1
app_3,3.31805,18895.9,7721,279,1104.43,8.1905e+10,1.02526,0.87077,7,0.0741222,2609,1,1
app_4,5.11603,21699.7,6385.53,1614.47,710.789,6.29898e+11,1.14034,0.87077,9,0.88698,1937,1,1
app_5,3.34072,21275.1,6210.6,1789.4,622.13,7.21567e+11,1.15404,0.87077,10,1.15979,1658,1.00001,1.00001
app_6,14.932,22090.1,6650.3,1349.7,93.3724,5.16774e+11,1.11622,0.87077,72,5.4976,259,1.00001,1.00001
app_7,181.894,21537.5,7292.3,707.7,36.9528,2.53826e+11,1.06015,0.87077,195,6.86016,99,1.00001,1.00001
app_8,58.2858,21091.6,7614.2,385.8,33.1813,1.26308e+11,1.03352,0.87077,226,3.71493,88,1.00001,1.00001
app_9,46.7015,21041,7410.3,589.7,52.6223,2.27747e+11,1.04739,0.87077,141,4.29711,138,1.00001,1.00001
