app_id,start_app,end_app,effective_cpu,effective_io,effective_iter,total_bytes,stretch,utilization,Tcomp,Tio,iterations,priority,group_id
app_1,1.4073,19199.2,7556.6,170.697,1508.06,1.10406e+11,1.04343,0.869919,5,0.0732137,3628,0.1,1
app_10,57.9018,22293.9,6387.3,889.774,107.523,6.45203e+11,1.13758,0.869919,59,6.02993,306,0.01,2
app_11,642.309,22960.2,6892.6,986.999,7.03001,3.85094e+11,1.09925,0.869919,978,55.0134,20,0.001,3
app_12,224.561,20950.4,7025.9,898.415,25.1054,6.58717e+11,1.04104,0.869919,282,26.3487,65,0.01,2
app_13,1215.38,23469.2,7150.5,757.921,5.91316,3.2607e+11,1.07001,0.869919,1258,54.3449,16,0.001,3
app_14,630.052,21720.8,7520.7,141.996,7.8086,3.89292e+10,1.05825,0.869919,953,4.86615,21,0.001,3
app_15,574.402,22905.2,7073.1,816.784,4.51965,2.68268e+11,1.08972,0.869919,1528,67.0671,13,0.001,3
app_2,4.08112,19071.5,7768.4,86.235,863.107,3.88293e+10,1.02469,0.869919,9,0.0449934,2061,0.1,1
app_3,7.58797,19735.6,6911.4,1017.81,862.068,9.02245e+11,1.02385,0.869919,8,1.04669,2131,0.1,1
app_4,4.95387,18881.9,7109.3,839.82,645.315,7.39264e+11,1.01929,0.869919,11,1.14437,1524,0.1,1
app_5,0.568925,11307.4,4824.63,482.8,4827.93,2.27752e+11,1.58341,0.869919,1,0.0471731,10277,1,0
app_6,59.6745,21276.2,6771.8,1030.12,49.335,7.41989e+11,1.06471,0.869919,137,14.8398,132,0.01,2
app_7,29.8862,21015,7461.3,222.054,49.1027,1.5845e+11,1.0499,0.869919,152,3.23367,129,0.01,2
app_8,44.5444,22074.9,6585.7,896.898,78.4024,6.50925e+11,1.10549,0.869919,83,8.34519,219,0.01,2
app_9,23.2097,21106.8,7351.1,329.8,48.2015,2.34227e+11,1.05467,0.869919,153,4.87973,127,0.01,2
