app_id,start_app,end_app,effective_cpu,effective_io,effective_iter,total_bytes,stretch,utilization,Tcomp,Tio,iterations,priority,group_id
app_1,11.8783,19025.8,7415.1,538.88,568.933,4.93868e+11,1.01151,0.896453,13,0.867958,1353,0.1,1
app_10,47.2434,20907.8,7260.8,413.303,107.814,2.9801e+11,1.05837,0.896453,67,2.75935,285,0.01,2
app_11,966.248,23802,7007.1,874.468,4.19113,4.16144e+11,1.0777,0.896453,1674,104.036,12,0.001,3
app_12,443.794,22772.1,7182.7,584.035,4.97404,2.50637e+11,1.07623,0.896453,1398,50.1274,14,0.001,3
app_13,82.3947,22058,7200.1,441.432,7.00914,2.37531e+11,1.07561,0.896453,1044,33.933,19,0.001,3
app_14,190.251,22904.1,6575.2,1127.91,4.51034,5.27412e+11,1.12635,0.896453,1504,131.853,13,0.001,3
app_15,426.401,22578.2,6679.1,945.794,7.00891,4.47434e+11,1.12257,0.896453,1006,63.9191,19,0.001,3
app_2,5.61721,18656.6,7701.1,199.769,963.59,1.67677e+11,1.01668,0.896453,8,0.17412,2251,0.1,1
app_3,4.41334,20204.4,7269.1,689.641,660.257,6.39102e+11,1.01161,0.896453,11,0.968336,1667,0.1,1
app_4,1.82959,16594.6,7085.1,706.54,2360.58,5.49951e+11,1.0478,0.896453,3,0.232931,4893,0.1,1
app_5,7.614,18688.5,7795.3,86.955,975.049,8.24273e+09,1.02518,0.896453,8,0.00845408,2274,0.1,1
app_6,33.609,20786.4,7089.6,869.746,53.357,6.34215e+11,1.03576,0.896453,132,11.9663,139,0.01,2
app_7,177.561,20726.7,7331.2,567.383,42.6768,4.11915e+11,1.03318,0.896453,172,9.57942,110,0.01,2
app_8,102.839,20763.8,7109.2,780.88,53.26,5.67292e+11,1.04214,0.896453,134,10.7036,139,0.01,2
app_9,40.7935,21290.9,6873.7,704.47,162.908,5.19642e+11,1.08205,0.896453,42,3.18799,436,0.01,2
