app_id,start_app,end_app,effective_cpu,effective_io,effective_iter,total_bytes,stretch,utilization,Tcomp,Tio,iterations,priority,group_id
app_1,9.44148,20979.2,6655.4,1344.6,556.535,5.00206e+11,1.118,0.865628,12,0.899651,1467,1,1
app_10,74.7006,21937.5,6766.9,1233.1,91.7635,4.36815e+11,1.11054,0.865628,74,4.74799,253,1.00001,1.00001
app_11,265.285,21228.1,7541.4,458.6,20.3205,1.53104e+11,1.0397,0.865628,370,7.65518,53,1.00001,1.00001
app_12,623.745,22992.2,6408.99,1591.01,4.15829,5.98663e+11,1.14161,0.865628,1579,128.853,12,1.00001,1.00001
app_13,341.822,21672.4,7194.4,805.6,9.85096,2.55444e+11,1.07385,0.865628,727,25.5444,27,1.00001,1.00001
app_14,50.6852,21257.2,7186.6,813.4,29.9236,3.08727e+11,1.06733,0.865628,242,10.2909,80,1.00001,1.00001
app_15,501.316,22565.4,7050.1,949.9,12.9907,3.79755e+11,1.07674,0.865628,537,29.2119,36,1.00002,1.00002
app_2,6.40005,19800.6,7624,376,634.325,1.25353e+11,1.03234,0.865628,12,0.197718,1577,1,1
app_3,2.33811,21142,7110.9,889.1,509.423,3.07292e+11,1.07843,0.865628,14,0.602533,1351,1,1
app_4,1.23236,18075.3,7690.52,309.477,1919.61,7.05447e+10,1.03079,0.865628,4,0.0367464,4344,1,1
app_5,8.72887,21038.9,6329.8,1670.2,633.256,6.34112e+11,1.14878,0.865628,10,1.00176,1681,1.00001,1.00001
app_6,57.8492,20601.4,7514.5,485.5,123.422,1.67544e+11,1.04139,0.865628,61,1.36214,318,1.00001,1.00001
app_7,5.1648,22395.5,6316.3,1683.7,154.216,6.60319e+11,1.14669,0.865628,41,4.28778,437,1.00001,1.00001
app_8,143.855,22855.7,6196.6,1803.4,42.6014,6.69422e+11,1.16516,0.865628,146,15.568,124,1.00001,1.00001
app_9,29.2183,22490.7,6288.9,1711.1,104.053,6.55484e+11,1.15201,0.865628,61,6.30273,295,1.00001,1.00001
