app_id,start_app,end_app,effective_cpu,effective_io,effective_iter,total_bytes,stretch,utilization,Tcomp,Tio,iterations,priority,group_id
app_1,1.57684,26963.8,5180.9,263.656,323.567,2.51385e+11,1.47268,0.77971,16,0.775881,1193,1,1
app_10,130.523,21697.1,6855.8,540.193,45.5266,5.37837e+11,1.08201,0.77971,150,11.9519,123,1,1
app_11,297.47,21241.2,7462.9,367.124,12.7351,3.66453e+11,1.0218,0.77971,589,28.1887,33,1,1
app_12,340.782,21137.8,7710.1,253.494,5.72044,2.5319e+11,1.00461,0.77971,1327,50.6381,15,1,1
app_13,489.001,21347.8,7477.47,390.328,14.0096,3.89859e+11,1.01686,0.77971,525,27.5812,37,1,1
app_14,12.9067,20697.7,7431.4,478.905,21.1203,4.77649e+11,1.0115,0.77971,360,22.7452,53,1,1
app_15,342.862,20524.9,7228.9,665.786,10.583,6.65401e+11,1.01339,0.77971,681,60.491,27,1,1
app_2,7.87927,27854.1,4274.11,435.713,534.489,4.14854e+11,1.70614,0.77971,8,0.775429,2167,1,1
app_3,0.808443,27913.9,4547.36,63.7446,505.723,4.66352e+10,1.7414,0.77971,9,0.0921645,2063,1,1
app_4,3.97114,27211.6,4457.7,212.98,557.646,1.78094e+11,1.7257,0.77971,8,0.319165,2175,1,1
app_5,1.72667,27398.7,4888.58,87.0474,406.477,7.26887e+10,1.61249,0.77971,12,0.178596,1593,1,1
app_6,26.0763,22141.1,6499,502.232,67.0564,4.98482e+11,1.14327,0.77971,98,7.44003,189,1,1
app_7,68.0208,22123,6755.57,534.816,62.0676,5.32041e+11,1.09775,0.77971,108,8.55999,171,1,1
app_8,31.8292,22727.5,6646.8,445.553,84.2016,4.41567e+11,1.12861,0.77971,79,5.25675,237,1,1
app_9,40.7051,23979.9,6148.6,396.22,133.131,3.8818e+11,1.22384,0.77971,46,2.91864,407,1,1
