app_id,start_app,end_app,effective_cpu,effective_io,effective_iter,total_bytes,stretch,utilization,Tcomp,Tio,iterations,priority,group_id
app_1,1.00366,20343.5,6889.8,1110.2,1378.05,4.05955e+11,1.09653,0.872252,5,0.294597,3499,1,1
app_10,43.7489,22402.6,6607.8,1392.2,57.2228,5.59483e+11,1.11618,0.872252,116,9.8155,159,1.00001,1.00001
app_11,572.687,22309.4,7341.8,658.2,7.11877,2.52867e+11,1.05337,0.872252,1063,36.1238,19,1.00001,1.00001
app_12,1109.27,22115.9,7206.9,793.1,4.65393,3.20233e+11,1.06282,0.872252,1604,64.0466,12,1.00001,1.00001
app_13,341.053,23566.5,6220.3,1779.7,11.3459,7.50689e+11,1.14761,0.872252,552,62.5574,33,1.00001,1.00001
app_14,1990.5,26715.6,6903.05,1096.95,3.15418,4.47638e+11,1.08833,0.872252,2059,148.985,10,1.00001,1.00001
app_15,455.742,22498.7,7181.5,818.5,5.58296,3.57231e+11,1.06119,0.872252,1207,71.4463,16,1.00002,1.00002
app_2,3.31674,20842.1,6340.2,1659.8,791.632,6.45051e+11,1.14527,0.872252,8,0.815488,2063,1,1
app_3,7.80863,19810.1,7668.91,331.094,588.777,1.11347e+11,1.02824,0.872252,13,0.189209,1458,1,1
app_4,2.85874,17321.9,7058.7,941.3,2351.97,3.11718e+11,1.08542,0.872252,3,0.132533,5081,1,1
app_5,5.95772,20207,7687.2,312.8,851.394,8.87196e+10,1.02882,0.872252,9,0.104253,2157,1.00001,1.00001
app_6,63.6172,22457.1,6604,1396,46.1516,5.2287e+11,1.12251,0.872252,142,11.3667,131,1.00001,1.00001
app_7,57.4995,21582.1,7037.7,962.3,77.4694,3.59938e+11,1.08143,0.872252,92,4.67452,207,1.00001,1.00001
app_8,68.7428,22375.9,6581.49,1418.51,92.9731,5.65199e+11,1.1194,0.872252,71,6.0836,259,1.00001,1.00001
app_9,66.7142,21203.4,7340.9,659.1,87.3714,2.30295e+11,1.05664,0.872252,84,2.64707,231,1.00001,1.00001
