app_id,start_app,end_app,effective_cpu,effective_io,effective_iter,total_bytes,stretch,utilization,Tcomp,Tio,iterations,priority,group_id
app_1,3.92843,25215,5472.78,310.138,390.438,2.88408e+11,1.3886,0.797068,14,0.737617,1282,1,1
app_10,7.27551,22285.9,6343.9,751.246,98.5154,7.45829e+11,1.12839,0.797068,64,7.53363,278,1,1
app_11,57.4856,21166.8,7929.4,69.9991,7.48083,6.96758e+10,1.00012,0.797068,1093,9.95369,19,1,1
app_12,885.685,21390.9,7317.3,555.998,8.0716,5.55572e+11,1.01615,0.797068,896,69.4465,21,1,1
app_13,381.985,20953.8,7780.6,104.02,7.7371,1.03659e+11,1.01468,0.797068,1011,12.9573,20,1,1
app_14,215.749,20774.4,7607.9,366.036,5.49514,3.65808e+11,1.0033,0.797068,1371,73.1616,14,1,1
app_15,215.73,21418.6,7698.1,119.764,9.71592,1.19296e+11,1.02336,0.797068,782,13.2551,26,1,1
app_2,8.24282,25941.7,5061.58,159.858,563.602,1.25515e+11,1.54229,0.797068,9,0.222545,1976,1,1
app_3,9.36709,25493.1,5390.38,105.213,449.022,8.94196e+10,1.45991,0.797068,12,0.19871,1520,1,1
app_4,1.47811,23502,2905.28,844.165,2904.01,6.3403e+11,2.26032,0.797068,1,0.218312,9139,1,1
app_5,7.37387,26704.8,5150.31,365.068,469.09,3.34524e+11,1.45857,0.797068,11,0.711754,1696,1,1
app_6,17.9797,22637.9,6521.7,440.518,122.135,4.32702e+11,1.15035,0.797068,53,3.5179,351,1,1
app_7,54.4661,22039.4,6883.5,323.544,81.2097,3.19165e+11,1.1107,0.797068,85,3.94031,224,1,1
app_8,34.8005,21220.1,6887.2,590.94,45.5516,5.89218e+11,1.07003,0.797068,151,12.9872,122,1,1
app_9,47.1749,21518.4,6698.2,797.562,66.3644,7.94073e+11,1.06777,0.797068,101,12.0314,176,1,1
