app_id,start_app,end_app,effective_cpu,effective_io,effective_iter,total_bytes,stretch,utilization,Tcomp,Tio,iterations,priority,group_id
app_1,0.0943084,30279.5,4000.9,140.685,669.031,1.17598e+11,1.94246,0.720521,6,0.175781,3183,1,1
app_10,40.0381,23962.6,6022.9,347.29,55.3578,3.44649e+11,1.25637,0.720521,109,6.26635,173,1,1
app_11,413.079,22175.2,7601.3,104.35,6.07413,1.04073e+11,1.03824,0.720521,1211,17.3455,17,1,1
app_12,1318.15,21445.4,7377.5,610.384,4.42267,6.10128e+11,1.00155,0.720521,1677,152.532,11,1,1
app_13,148.22,20983.3,6869.7,874.722,6.42169,8.74323e+11,1.03305,0.720521,1079,124.903,17,1,1
app_14,1282.72,23096.3,7809.1,101.346,6.0537,1.01066e+11,1.01136,0.720521,1292,16.8444,16,1,1
app_15,427.36,21566.1,6992.9,856.742,8.27728,8.55907e+11,1.01926,0.720521,847,95.1008,22,1,1
app_2,6.79754,28966.9,3970.5,187.746,661.047,1.39051e+11,1.94668,0.720521,6,0.210365,2941,1,1
app_3,7.71802,28125.6,3949.6,327.026,562.994,2.86287e+11,1.88862,0.720521,7,0.508503,2385,1,1
app_4,9.92946,27354.7,4646.8,185.35,309.991,1.68686e+11,1.66131,0.720521,15,0.544147,1213,1,1
app_5,7.03445,29372.7,4109.8,127.992,587.128,1.10934e+11,1.89541,0.720521,7,0.188984,2659,1,1
app_6,2.82908,25552,5470.4,474.678,104.512,4.7154e+11,1.34636,0.720521,52,4.49086,354,1,1
app_7,72.8395,23365.9,6345.4,549.602,43.9485,5.46769e+11,1.16074,0.720521,144,12.4266,128,1,1
app_8,2.0735,24002.4,5937.94,551.685,57.5464,5.49166e+11,1.23322,0.720521,103,9.47073,177,1,1
app_9,32.3486,26301.1,5357.8,71.5754,149.988,6.1517e+10,1.4762,0.720521,36,0.410113,542,1,1
