app_id,start_app,end_app,effective_cpu,effective_io,effective_iter,total_bytes,stretch,utilization,Tcomp,Tio,iterations,priority,group_id
app_1,5.28167,20318.2,7401.8,598.2,614.99,2.08374e+11,1.05122,0.87569,12,0.33882,1562,1,1
app_10,34.4742,20521.3,7695.9,304.1,65.1064,1.02871e+11,1.0258,0.87569,118,1.58263,167,1.00001,1.00001
app_11,67.0631,22568.8,6390.14,1609.86,90.5887,6.27561e+11,1.13997,0.87569,71,6.97154,255,1.00001,1.00001
app_12,85.934,21751.5,7799.8,200.2,4.51391,6.41562e+10,1.0173,0.87569,1778,16.0391,12,1.00001,1.00001
app_13,77.5173,21732.5,7333.8,666.2,13.0713,2.54391e+11,1.05427,0.87569,546,19.5685,36,1.00001,1.00001
app_14,1296.99,25158.1,6677.1,1322.9,3.6038,5.46879e+11,1.10742,0.87569,1739,182.293,11,1.00001,1.00001
app_15,45.7266,20028.2,7847.7,152.3,11.764,5.33145e+10,1.01253,0.87569,686,4.44288,29,1.00002,1.00002
app_2,9.68824,21182.5,6439,1561,644.242,6.13785e+11,1.1343,0.87569,10,0.953082,1707,1,1
app_3,10.0439,20400.7,6634.7,1365.3,737.343,5.32344e+11,1.11622,0.87569,9,0.722313,1877,1,1
app_4,7.36501,21753.9,6106.4,1893.6,510.01,7.71788e+11,1.1631,0.87569,12,1.51331,1390,1,1
app_5,6.10361,22031.6,6592.4,1407.6,941.634,5.47073e+11,1.12053,0.87569,7,0.580757,2597,1.00001,1.00001
app_6,76.0749,22411.3,6617.6,1382.4,89.1405,5.47124e+11,1.11658,0.87569,74,6.14746,249,1.00001,1.00001
app_7,0.829976,21636.4,6879.2,1120.8,85.2824,4.05735e+11,1.09816,0.87569,81,4.77336,233,1.00001,1.00001
app_8,32.9276,20825.9,7516.7,483.3,97.2746,1.69481e+11,1.04083,0.87569,77,1.74723,254,1.00001,1.00001
app_9,91.7092,21305.3,7150.58,849.418,68.2758,3.28153e+11,1.0697,0.87569,106,4.80694,181,1.00001,1.00001
