app_id,start_app,end_app,effective_cpu,effective_io,effective_iter,total_bytes,stretch,utilization,Tcomp,Tio,iterations,priority,group_id
app_1,3.92843,19232.3,7469.2,506.03,533.209,3.9315e+11,1.01751,0.870141,14,0.737617,1282,0.1,1
app_10,7.27551,21769.7,6423.61,1118.16,101.348,7.6843e+11,1.11234,0.870141,64,7.53363,278,0.01,2
app_11,57.4856,21569,7679.5,215.54,7.22959,6.96758e+10,1.03237,0.870141,1093,9.95369,19,0.001,3
app_12,885.685,23295.1,6533.1,1466.9,7.57045,5.55572e+11,1.12856,0.870141,896,69.4465,21,0.001,3
app_13,381.985,21644.2,7660.3,284.708,7.65138,9.07014e+10,1.03212,0.870141,1011,12.9573,20,0.001,3
app_14,215.749,22411.3,6726.5,1074.25,5.0487,3.65808e+11,1.12798,0.870141,1371,73.1616,14,0.001,3
app_15,215.73,22078.6,7186,348.265,9.30058,1.19296e+11,1.0951,0.870141,782,13.2551,26,0.001,3
app_2,8.24282,18568.3,7638.2,286.951,847.309,1.88718e+11,1.02211,0.870141,9,0.222545,1976,0.1,1
app_3,9.36709,18782.7,7763.71,197.188,648.787,1.28879e+11,1.01361,0.870141,12,0.19871,1520,0.1,1
app_4,1.47811,11877.3,4521.19,1356.1,4520.07,9.86844e+11,1.45242,0.870141,1,0.218312,9139,1,0
app_5,7.37387,20226.1,7355.37,619.658,668.347,4.75838e+11,1.02155,0.870141,11,0.711754,1696,0.1,1
app_6,17.9797,21679.9,6751.48,667.157,128.122,4.53809e+11,1.11029,0.870141,53,3.5179,351,0.01,2
app_7,54.4661,21248.7,7151.5,486.273,84.2745,3.30986e+11,1.06916,0.870141,85,3.94031,224,0.01,2
app_8,34.8005,21044.8,6958.3,852.842,45.7989,5.87311e+11,1.06022,0.870141,151,12.9872,122,0.01,2
app_9,47.1749,21068,6599,1124.01,65.7048,7.82041e+11,1.08386,0.870141,101,12.0314,176,0.01,2
