app_id,start_app,end_app,effective_cpu,effective_io,effective_iter,total_bytes,stretch,utilization,Tcomp,Tio,iterations,priority,group_id
app_1,1.14638,19058.4,7541.7,116.717,1508.69,1.14017e+10,1.05917,0.973651,5,0.0075558,3602,1,1
app_10,0.546779,17569.9,7467.1,162.63,1867.81,4.38793e+10,1.06511,0.973651,4,0.02349,4112,1,1
app_11,3.75894,17831.4,7483.3,149.157,1872.34,2.2485e+10,1.06584,0.973651,4,0.0120112,4177,1,1
app_12,2.47602,17298.3,7483.2,136.982,1871.47,2.62252e+09,1.06869,0.973651,4,0.00140167,4058,1,1
app_13,3.06251,18310,7546.9,119.827,1508.5,1.53946e+10,1.05788,0.973651,5,0.0102019,3456,1,1
app_14,2.4791,17426.7,7468.1,165.602,1864.22,5.45374e+10,1.06346,0.973651,4,0.0292583,4072,1,1
app_15,3.99103,19549.8,7528.9,121.099,1504.56,1.76996e+10,1.06008,0.973651,5,0.0117605,3693,1,1
app_16,6.33737,18969.6,7706.8,85.5187,856.636,3.99829e+10,1.03269,0.973651,9,0.0466544,2037,1,1
app_17,0.948594,19708.8,7761.6,79.0607,708.661,5.16157e+10,1.02391,0.973651,11,0.0728008,1742,1,1
app_18,3.78926,19103.7,7713.3,79.2317,856.676,3.09965e+10,1.03302,0.973651,9,0.0361686,2049,1,1
app_19,0.250892,20375.2,7763.2,54.6589,707.815,5.30206e+09,1.0298,0.973651,11,0.00748878,1802,1,1
app_2,1.68494,18030.9,7485.5,145.413,1870.12,1.80461e+10,1.06616,0.973651,4,0.00965034,4221,1,1
app_20,7.84513,19139.1,7673.7,97.6967,956.699,4.84776e+10,1.03598,0.973651,8,0.0507088,2297,1,1
app_21,4.96277,20530.6,7772.1,56.7497,704.222,7.64479e+09,1.02831,0.973651,11,0.0108591,1814,1,1
app_22,0.402739,18782.8,7723.7,70.4541,771.018,2.51067e+10,1.03242,0.973651,10,0.0325638,1814,1,1
app_23,10.1794,19161,7773.9,66.6854,708.292,2.67512e+10,1.02556,0.973651,11,0.0377309,1692,1,1
app_24,3.63972,20036.9,7762,66.2449,775.776,1.60111e+10,1.02854,0.973651,10,0.0206329,1943,1,1
app_25,10.2536,20091,7771.1,55.1514,705.664,7.23599e+09,1.0285,0.973651,11,0.0102493,1776,1,1
app_26,2.18789,19169.4,7706.9,84.9824,857.734,3.97977e+10,1.0327,0.973651,9,0.0463843,2057,1,1
app_27,5.3352,19464,7748.8,77.3332,704.89,4.84969e+10,1.026,0.973651,11,0.0687899,1714,1,1
app_28,8.42942,19129.8,7710.7,84.9325,771.42,5.2129e+10,1.03055,0.973651,10,0.0676122,1848,1,1
app_29,3.19381,20266.7,7734.8,76.8616,775.035,3.65098e+10,1.02943,0.973651,10,0.0471095,1961,1,1
app_3,2.39932,18556,7449.3,164.585,1862.29,4.70792e+10,1.06718,0.973651,4,0.0252842,4338,1,1
app_30,3.21085,20151.3,7756.6,83.6517,775.08,4.93674e+10,1.02486,0.973651,10,0.0636999,1951,1,1
app_31,91.854,20048.7,7943.6,49.6878,83.2397,4.50108e+10,1.00143,0.973651,95,0.542298,208,1,1
app_32,71.9266,19905,7967.1,21.9695,79.6156,1.63198e+10,1.00208,0.973651,101,0.20658,196,1,1
app_33,7.90717,19922.3,7952,23.2814,78.7714,1.84827e+10,1.0037,0.973651,101,0.233958,197,1,1
app_34,40.0097,20102.9,7967.8,16.8527,78.753,1.42524e+10,1.00225,0.973651,101,0.18041,198,1,1
app_35,12.1932,19965.9,7955.2,29.0456,72.8462,2.52319e+10,1.00245,0.973651,109,0.345642,183,1,1
app_36,96.6673,20181.1,7928.1,40.1066,66.5905,3.67873e+10,1.00441,0.973651,118,0.549065,168,1,1
app_37,85.0311,20060.8,7934.6,40.1086,80.3562,3.52839e+10,1.00378,0.973651,99,0.435603,201,1,1
app_38,81.5002,20022.3,7950.9,25.0981,81.1163,2.17299e+10,1.00343,0.973651,99,0.26827,201,1,1
app_39,18.7839,19897.5,7949.2,31.8046,80.8254,2.70053e+10,1.00298,0.973651,99,0.333399,200,1,1
app_4,2.37536,19739.1,7455.7,163.044,1865.53,4.37012e+10,1.06675,0.973651,4,0.0234197,4611,1,1
app_40,64.8209,20183.4,7958.3,9.4868,89.9576,5.55812e+09,1.00454,0.973651,88,0.0617569,227,1,1
app_41,88.1748,20233.8,7957.7,25.0447,83.9318,2.07196e+10,1.0027,0.973651,94,0.246662,213,1,1
app_42,31.318,20090.3,7950.8,33.0148,64.6811,3.05259e+10,1.00234,0.973651,124,0.46963,161,1,1
app_43,5.64359,20043.6,7955.8,32.9795,79.1541,2.993e+10,1.00179,0.973651,100,0.374125,199,1,1
app_44,62.712,19903.8,7911.1,51.8642,84.2425,4.87772e+10,1.00504,0.973651,95,0.580681,208,1,1
app_45,34.7614,20071.1,7946.1,17.8036,95.8238,1.11625e+10,1.00537,0.973651,83,0.116276,239,1,1
app_46,584.983,20930.4,7993,6.26106,8.6535,5.60159e+09,1.00017,0.973651,920,0.622399,22,1,1
app_47,407.748,21327.3,7990.1,1.34814,6.91105,9.51131e+08,1.00112,0.973651,1150,0.135876,18,1,1
app_48,262.983,20919.1,7960.8,38.37,7.05917,3.78852e+10,1.00016,0.973651,1149,5.41218,18,1,1
app_49,634.359,20419.6,7974.4,25.4139,7.60729,2.51901e+10,1.00005,0.973651,1060,3.59859,19,1,1
app_5,4.54671,21020.7,7547.19,122.438,1506.3,1.98552e+10,1.05722,0.973651,5,0.0131831,3974,1,1
app_50,191.975,21188,7952.7,41.9314,6.77405,4.14781e+10,1.00073,0.973651,1135,5.92544,18,1,1
app_51,462.404,20925.8,7981.5,18.4116,7.09644,1.7778e+10,1.00009,0.973651,1126,2.22225,18,1,1
app_52,543.795,20621.4,7992.7,7.09091,8.92449,6.36733e+09,1.00012,0.973651,897,0.707482,23,1,1
app_53,382.794,20276.8,7960.5,29.7758,8.79782,2.91582e+10,1.00129,0.973651,906,3.2398,22,1,1
app_54,63.1407,21849.6,7964.8,35.0014,6.90224,3.46371e+10,1.00007,0.973651,1105,4.94816,19,1,1
app_55,489.22,21375.2,7949.7,49.6049,9.3683,4.93499e+10,1.00012,0.973651,858,5.48332,24,1,1
app_56,945.22,21032,7991.2,1.68979,7.81952,1.35273e+09,1.00093,0.973651,1012,0.193247,20,1,1
app_57,713.615,20644.2,7943.7,51.9407,7.54103,5.14869e+10,1.0006,0.973651,1054,6.43586,19,1,1
app_58,514.769,21458.9,7966.6,32.6517,7.42171,3.20563e+10,1.00017,0.973651,1096,4.00703,19,1,1
app_59,168.517,20596.8,7958.6,41.2791,7.27851,4.06942e+10,1.00009,0.973651,1075,5.81345,19,1,1
app_6,0.850158,17055,7461.4,163.005,1869.26,4.42409e+10,1.06587,0.973651,4,0.0236583,3993,1,1
app_60,311.106,20599.6,7982.3,17.0823,9.06726,1.65249e+10,1.00015,0.973651,880,1.83609,23,1,1
app_7,3.251,20074.8,7539.2,117.38,1503.44,1.11093e+10,1.05956,0.973651,5,0.00738652,3789,1,1
app_8,3.66421,17346.7,7479.8,139.326,1868.3,7.32328e+09,1.0685,0.973651,4,0.00392038,4062,1,1
app_9,1.47891,19982.3,7545.3,124.099,1508.29,2.38078e+10,1.05693,0.973651,5,0.0157877,3777,1,1
