app_id,start_app,end_app,effective_cpu,effective_io,effective_iter,total_bytes,stretch,utilization,Tcomp,Tio,iterations,priority,group_id
app_1,3.34069,20626.3,7575,126.13,1516.4,2.59373e+10,1.0525,0.974789,5,0.017109,3912,1,1
app_10,1.52938,18222.4,7548.9,138.44,1504.99,5.22201e+10,1.05248,0.974789,5,0.0346977,3444,1,1
app_11,2.19545,17857.4,7481.2,166.364,1864.82,5.0576e+10,1.06217,0.974789,4,0.0271185,4178,1,1
app_12,0.751699,20573.9,7584.3,115.905,1516.99,1.08858e+10,1.0533,0.974789,5,0.00717586,3911,1,1
app_13,3.07395,18035.7,7555.7,134.11,1510.88,3.69647e+10,1.05365,0.974789,5,0.0244637,3416,1,1
app_14,0.674294,17072.6,7499.2,135.397,1880.06,2.46658e+09,1.06643,0.974789,4,0.00131201,4021,1,1
app_15,0.727186,20634.4,7575,112.533,1512.83,9.42961e+09,1.05479,0.974789,5,0.00623652,3918,1,1
app_16,2.79088,19993.7,7741.7,64.0085,860.156,3.47391e+09,1.0329,0.974789,9,0.00403943,2155,1,1
app_17,8.90671,20013.1,7749.7,65.1021,862.077,8.68667e+09,1.03114,0.974789,9,0.0100773,2158,1,1
app_18,5.40279,19048.3,7777,76.3867,707.027,4.30718e+10,1.02301,0.974789,11,0.060922,1687,1,1
app_19,1.52435,20468.9,7793.7,53.4977,707.137,2.07848e+09,1.0262,0.974789,11,0.00293986,1817,1,1
app_2,2.66171,19370.9,7566.2,126.434,1511.19,3.04656e+10,1.05309,0.974789,5,0.0201625,3673,1,1
app_20,5.32905,18566.8,7714.4,94.9141,963.049,4.20348e+10,1.0314,0.974789,8,0.0436499,2239,1,1
app_21,4.17635,18742.5,7710.08,87.9568,965.548,2.89537e+10,1.03372,0.974789,8,0.0299977,2259,1,1
app_22,9.73307,20341.1,7747.2,77.8578,775.506,3.82262e+10,1.02756,0.974789,10,0.0492606,1975,1,1
app_23,9.10934,18698.3,7719.7,73.8158,854.975,2.18564e+10,1.03338,0.974789,9,0.025563,2009,1,1
app_24,3.47479,19851.8,7754.6,74.899,775.866,3.17702e+10,1.02744,0.974789,10,0.040941,1930,1,1
app_25,6.80324,19098.8,7777.3,59.1911,778.15,7.10438e+09,1.0277,0.974789,10,0.00911987,1860,1,1
app_26,8.57128,18928.2,7731.8,71.0588,859.568,1.42394e+10,1.03279,0.974789,9,0.0165575,2032,1,1
app_27,7.9949,19497.2,7716.5,91.5509,855.141,5.23832e+10,1.02975,0.974789,9,0.0612668,2092,1,1
app_28,4.85933,20210.5,7741,70.3327,860.289,1.46663e+10,1.0315,0.974789,9,0.0170538,2174,1,1
app_29,1.64305,19779.3,7766.7,74.4448,777.048,3.00712e+10,1.02607,0.974789,10,0.0387017,1927,1,1
app_3,3.08225,20842,7561.3,113.373,1513.42,9.36332e+09,1.05671,0.974789,5,0.00618449,3960,1,1
app_30,4.23754,19450.6,7724.8,91.2789,859.881,5.37498e+10,1.02847,0.974789,9,0.0624997,2087,1,1
app_31,7.29449,20067.4,7934.2,55.8088,80.1122,5.09228e+10,1.00186,0.974789,100,0.628677,199,1,1
app_32,91.5511,19913.3,7948.8,40.2224,78.7739,3.6654e+10,1.00182,0.974789,102,0.463975,195,1,1
app_33,92.8736,20085.9,7970.7,13.8828,76.4143,9.08175e+09,1.00253,0.974789,105,0.119497,190,1,1
app_34,30.3353,20165.7,7912.6,61.6205,100.532,5.68499e+10,1.00383,0.974789,78,0.56287,254,1,1
app_35,7.85631,19956.6,7956.4,31.0628,76.5652,2.77468e+10,1.00199,0.974789,104,0.365089,191,1,1
app_36,90.0021,20069.9,7947.1,44.7401,89.0829,4.02428e+10,1.00158,0.974789,89,0.452166,222,1,1
app_37,32.1161,20111.5,7930.8,50.8814,83.2788,4.70097e+10,1.00278,0.974789,95,0.559639,209,1,1
app_38,66.0858,20014.2,7946.7,33.3841,87.6436,2.68357e+10,1.00332,0.974789,91,0.304951,218,1,1
app_39,94.1163,20092.3,7976.9,6.66842,83.9847,1.0508e+09,1.00276,0.974789,95,0.0125095,210,1,1
app_4,2.38284,18444.4,7479.8,152.429,1869.92,2.99712e+10,1.06528,0.974789,4,0.0160274,4327,1,1
app_40,93.1453,19933.2,7949.9,37.0608,76.7877,3.16164e+10,1.00232,0.974789,104,0.410603,191,1,1
app_41,64.7623,19917.6,7936,52.1641,84.5133,4.89736e+10,1.00188,0.974789,94,0.583019,211,1,1
app_42,41.3528,20236.1,7961.8,22.3442,79.0727,1.7168e+10,1.00264,0.974789,100,0.217316,200,1,1
app_43,34.3289,20188.4,7920.4,53.8022,86.969,5.17681e+10,1.00349,0.974789,91,0.595035,219,1,1
app_44,2.15361,20014.9,7947.6,33.3181,71.1185,2.85743e+10,1.00299,0.974789,111,0.402455,179,1,1
app_45,2.95515,20073.4,7927.8,52.601,85.2957,4.93236e+10,1.00287,0.974789,93,0.57353,214,1,1
app_46,787.846,20770.6,7948.7,50.9719,9.17117,5.02727e+10,1.00013,0.974789,871,5.02727,23,1,1
app_47,907.809,22029.7,7985.2,12.9979,8.43959,1.25261e+10,1.00028,0.974789,933,1.56576,22,1,1
app_48,475.403,20500.3,7986.8,12.9615,10.1693,1.24937e+10,1.00009,0.974789,805,1.24937,25,1,1
app_49,34.2218,20827.1,7954.5,45.0129,9.71136,4.45052e+10,1.00012,0.974789,817,4.45052,25,1,1
app_5,0.402675,18240.7,7510.7,135.552,1877.07,2.23001e+09,1.06483,0.974789,4,0.00118807,4286,1,1
app_50,934.183,21765.7,7955.1,38.6238,7.70587,3.8247e+10,1.00083,0.974789,1038,4.78088,20,1,1
app_51,475.671,20734,7990.3,9.3367,8.19002,8.80919e+09,1.00011,0.974789,966,1.10115,21,1,1
app_52,30.6864,19851.7,7963.4,36.0516,8.55792,3.58933e+10,1.00009,0.974789,958,3.98815,21,1,1
app_53,138.19,20809.8,7964.3,34.4559,8.39382,3.38322e+10,1.00023,0.974789,917,4.22903,22,1,1
app_54,539.277,21954,7997,1.65626,7.55577,1.30046e+09,1.00021,0.974789,1049,0.18578,20,1,1
app_55,67.0124,20888.7,7977.6,22.3633,8.58933,2.20305e+10,1.00005,0.974789,933,2.75381,22,1,1
app_56,296.405,20840,7998.5,0.882745,8.44776,6.78367e+08,1.0001,0.974789,945,0.0847959,22,1,1
app_57,72.9315,19788.2,7967.3,32.1768,8.85921,3.15001e+10,1.00015,0.974789,911,3.50001,22,1,1
app_58,388.408,20606.5,7994.9,4.17595,6.86421,3.87314e+09,1.00015,0.974789,1126,0.645523,18,1,1
app_59,31.2128,20927.2,7970.6,25.2338,8.10966,2.47256e+10,1.00058,0.974789,984,2.74729,21,1,1
app_6,1.49893,17680.9,7472.2,158.079,1869.59,3.88754e+10,1.06509,0.974789,4,0.0208001,4148,1,1
app_60,707.497,20989.8,7958.3,38.981,9.81237,3.83914e+10,1.00041,0.974789,800,3.83914,25,1,1
app_7,2.90396,17006.2,7470.9,163,1867.93,4.62956e+10,1.06423,0.974789,4,0.0247835,3985,1,1
app_8,2.16846,17695.7,7568.5,119.699,1513.07,1.84622e+10,1.05444,0.974789,5,0.0122024,3359,1,1
app_9,0.628054,18169.2,7503.6,141.504,1875.87,1.03694e+10,1.06468,0.974789,4,0.00552738,4272,1,1
