app_id,Tcomp,Tio,iter,witer,alpha_io,compute_size,io_size,mu,desyn_time
1,10.137424842223849,0.44045707304496456,1891,10.577881915268813,0.04163943940508352,10e9,440457073.04496455,10,3.281872699945919
2,9.976478651907529,0.5288877235547761,1904,10.505366375462305,0.050344529134187535,9e9,528887723.5547761,10,0.5476676057782836
3,8.963232288929671,0.16864453015695618,2191,9.131876819086628,0.018467674662942295,8e9,168644530.1569562,10,4.387932249795073
4,9.128621478505723,0.35899011033254064,2109,9.487611588838263,0.03783777476249933,9e9,358990110.33254063,10,0.8775271255036293
5,7.602802745545612,0.16205246904186116,2576,7.764855214587474,0.020869992364754036,7e9,162052469.04186115,10,7.755141423629257
6,85.05755325746514,6.381552604717673,219,91.43910586218281,0.06979019036270938,85e9,6381552604.717673,100,28.08053912383877
7,83.94663183459085,2.155111172228834,233,86.10174300681967,0.025029820500360123,83e9,2155111172.228834,100,63.70976017765388
8,94.16063555949664,3.6310294834527417,205,97.79166504294938,0.037130255240648787,94e9,3631029483.4527416,100,19.669187995421833
9,91.5845365608186,7.735224078571387,202,99.31976063939,0.07788202497443006,91e9,7735224078.571387,100,95.10560616071729
10,90.29567249251402,6.468114669334877,207,96.7637871618489,0.06684437286974092,90e9,6468114669.334877,100,88.628304488508
11,883.3146063919551,34.79650371599307,22,918.1111101079481,0.03790010090598057,883e9,34796503715.99307,1000,335.69718241886386
12,1123.2518002720321,122.92614070938673,17,1246.177940981419,0.09864252661427876,1123e9,122926140709.38673,1000,175.11508371067615
13,1030.6399357257774,48.42129186108228,19,1079.0612275868596,0.04487353509065322,1030e9,48421291861.08228,1000,565.6564331800168
14,888.4329831105692,75.78714116172402,21,964.2201242722932,0.07859941859118669,888e9,75787141161.72403,1000,111.17741087021464
15,993.5782076756905,103.26607324556333,19,1096.8442809212538,0.09414834452054471,993e9,103266073245.56334,1000,736.4983930768144
