app_id,Tcomp,Tio,iter,witer,alpha_io,compute_size,io_size,mu,desyn_time
1,8.662456043939162,0.6626885103999807,2145,9.325144554339143,0.07106469036896815,8e9,662688510.3999807,10,1.1654500446174956
2,10.818357367848513,0.4171338217798415,1781,11.235491189628355,0.03712644287104277,10e9,417133821.7798415,10,3.4716947978639445
3,8.554908142082867,0.09781805014115268,2312,8.65272619222402,0.011304882180261202,8e9,97818050.14115268,10,2.9641229029043727
4,9.460275603630313,0.404074837600673,2028,9.864350441230986,0.04096314704227478,9e9,404074837.60067296,10,2.898707061852134
5,8.45067275169345,0.5303326426992987,2227,8.981005394392747,0.0590504759111279,8e9,530332642.6992987,10,2.1212222413824615
6,96.65823328068907,4.526152309644673,198,101.18438559033375,0.04473172696793112,96e9,4526152309.644673,100,77.18988199584378
7,98.14650615991967,6.4527483768586755,192,104.59925453677835,0.06169019469053493,98e9,6452748376.858676,100,14.998250235396299
8,99.72958592674827,7.249912521176785,187,106.97949844792505,0.06776917658392147,99e9,7249912521.176785,100,44.096645707841994
9,104.3666415456917,6.035793948780176,182,110.40243549447189,0.054670840563860595,104e9,6035793948.780176,100,21.48336089099195
10,88.79400696616453,3.3511909566163745,218,92.14519792278091,0.036368590356979036,88e9,3351190956.6163745,100,70.91265964409762
11,918.7960446219196,93.83403432744778,20,1012.6300789493673,0.09266368467427244,918e9,93834034327.44778,1000,384.7918594900491
12,961.5225589874534,17.276269907427643,21,978.798828894881,0.017650480770326958,961e9,17276269907.427643,1000,901.6772786570835
13,888.6644277525303,9.184341037234205,23,897.8487687897644,0.010229273967389894,888e9,9184341037.234205,1000,491.71475117722326
14,1200.3757712330296,151.6210954017188,15,1351.9968666347484,0.11214604052975244,1200e9,151621095401.7188,1000,103.25380649186594
15,1048.901124550675,94.4030268176095,18,1143.3041513682845,0.08257035252135643,1048e9,94403026817.6095,1000,396.45633691167376
