app_id,start_app,end_app,effective_cpu,effective_io,effective_iter,total_bytes,stretch,utilization,Tcomp,Tio,iterations,priority,group_id
app_1,11.1679,19524.6,7080.5,822.271,712.634,7.66947e+11,1.01944,0.890067,10,1.07566,1736,0.1,1
app_10,13.8669,21273.6,7542.3,201.282,71.0901,1.19759e+11,1.04411,0.890067,105,1.68675,188,0.01,2
app_11,805.513,22596.5,7298.2,385.709,7.90681,1.74461e+11,1.07057,0.890067,937,21.8076,21,0.001,3
app_12,875.094,21763.7,7183.7,588.336,7.17452,2.13584e+11,1.08148,0.890067,1032,26.698,19,0.001,3
app_13,794.711,22264.2,7382.4,85.7554,8.4035,2.44044e+10,1.08009,0.890067,908,3.05055,22,0.001,3
app_14,875.857,22844.6,6918.8,1081.2,7.81143,4.40745e+11,1.08702,0.890067,890,55.0931,22,0.001,3
app_15,315.068,22451.4,6488,1435.42,7.79381,5.53087e+11,1.13619,0.890067,841,69.1359,22,0.001,3
app_2,3.28035,19517,7056.4,812.266,886.35,7.24841e+11,1.02811,0.890067,8,0.817182,2150,0.1,1
app_3,6.97717,20342.7,7665.52,157.673,764.825,1.24042e+11,1.02702,0.890067,10,0.16228,1948,0.1,1
app_4,4.96972,18823.9,7067.4,818.443,789.013,7.36679e+11,1.0251,0.890067,9,0.933687,1857,0.1,1
app_5,3.0145,20106,7375.5,412.074,917.465,3.57899e+11,1.03447,0.890067,8,0.390294,2308,0.1,1
app_6,25.4061,21249,7010,866.095,69.9732,5.34345e+11,1.0604,0.890067,101,7.6335,184,0.01,2
app_7,56.9421,21538.5,6782.2,873.825,79.0924,5.56401e+11,1.09013,0.890067,86,6.99917,214,0.01,2
app_8,45.4708,21122.3,7316.8,221.355,90.2186,1.42614e+11,1.07247,0.890067,82,1.5846,238,0.01,2
app_9,104.587,21353.1,6640.3,1257.96,61.4864,7.95129e+11,1.07593,0.890067,107,12.8247,166,0.01,2
