app_id,start_app,end_app,effective_cpu,effective_io,effective_iter,total_bytes,stretch,utilization,Tcomp,Tio,iterations,priority,group_id
app_1,3.51448,19229.3,7416.7,410.337,821.254,3.54098e+11,1.0295,0.896396,9,0.431301,1986,0.1,1
app_10,84.9571,21025.7,7464.8,447.809,74.5132,2.87768e+11,1.03192,0.896396,99,3.83691,194,0.01,2
app_11,264.868,24025.6,6338.4,1542.42,5.9447,7.06836e+11,1.13552,0.896396,1055,117.806,18,0.001,3
app_12,207.576,21534.5,7458.1,191.333,7.12904,8.47709e+10,1.0606,0.896396,1063,12.1101,19,0.001,3
app_13,594.175,24106.2,6872.5,1044.05,5.72112,4.83542e+11,1.08754,0.896396,1145,80.5903,17,0.001,3
app_14,1004.87,22755.2,7012.1,350.056,6.14359,1.50729e+11,1.11688,0.896396,1095,25.1216,18,0.001,3
app_15,978.521,23347.9,6782.1,922.21,6.92246,4.36517e+11,1.10825,0.896396,943,62.3596,20,0.001,3
app_2,9.22165,19390.5,7028,884.607,776.496,8.26533e+11,1.01852,0.896396,9,1.06512,1882,0.1,1
app_3,5.10491,19042.8,6953.3,940.112,867.844,8.61662e+11,1.02368,0.896396,8,0.992698,2071,0.1,1
app_4,8.78556,20077.3,7224.3,624.797,896.944,5.4771e+11,1.02933,0.896396,8,0.610602,2257,0.1,1
app_5,10.1186,19579.1,7775.4,74.8528,775.665,2.81931e+10,1.02517,0.896396,10,0.0363313,1902,0.1,1
app_6,85.9654,20861.1,7214.4,694.906,77.3189,4.47807e+11,1.04409,0.896396,95,5.74111,199,0.01,2
app_7,71.1302,20663.9,7609.4,185.787,83.6689,1.10554e+11,1.03628,0.896396,90,1.33197,218,0.01,2
app_8,50.1988,21196.5,6870.5,1065.54,81.7266,6.73646e+11,1.06042,0.896396,84,8.2152,216,0.01,2
app_9,34.8843,20560,7547.5,301.521,94.553,1.84899e+11,1.03461,0.896396,82,1.96701,237,0.01,2
