app_id,start_app,end_app,effective_cpu,effective_io,effective_iter,total_bytes,stretch,utilization,Tcomp,Tio,iterations,priority,group_id
app_1,1.16545,20836.6,6545.14,1454.86,814.387,5.39481e+11,1.12921,0.868296,8,0.662689,2145,1,1
app_10,70.9127,21167.9,7227.7,772.3,82.8534,2.78149e+11,1.06584,0.868296,88,3.35119,218,1.00001,1.00001
app_11,384.792,23263.5,6136.26,1863.74,7.25755,7.48306e+11,1.16202,0.868296,918,93.834,20,1.00001,1.00001
app_12,901.677,21603.9,7610.92,389.08,8.17018,1.4386e+11,1.03162,0.868296,961,17.2763,21,1.00001,1.00001
app_13,491.715,21202.7,7790.7,209.3,8.8806,8.26591e+10,1.01608,0.868296,888,9.18434,23,1.00001,1.00001
app_14,103.254,23279.1,5963.21,2036.79,5.29418,8.77491e+11,1.16947,0.868296,1200,151.621,15,1.00001,1.00001
app_15,396.456,23191.9,6717,1283,6.26095,5.66418e+11,1.09839,0.868296,1048,94.403,18,1.00002,1.00002
app_2,3.47169,19908,7140.6,859.4,711.973,2.96999e+11,1.07562,0.868296,10,0.417134,1781,1,1
app_3,2.96412,19163.4,7711.8,288.2,967.371,9.45901e+10,1.0248,0.868296,8,0.0978181,2312,1,1
app_4,2.89871,20560.7,7068.7,931.3,782.553,3.15987e+11,1.08332,0.868296,9,0.404075,2028,1,1
app_5,2.12122,20961.8,6774.2,1225.8,845.39,4.48661e+11,1.10759,0.868296,8,0.530333,2227,1.00001,1.00001
app_6,77.1899,21367.5,7090.7,909.3,74.8593,3.39461e+11,1.07669,0.868296,96,4.52615,198,1.00001,1.00001
app_7,14.9983,22097.7,6748.3,1251.7,69.2913,4.4524e+11,1.11211,0.868296,98,6.45275,192,1.00001,1.00001
app_8,44.0966,21675,6717.7,1282.3,69.3144,5.00244e+11,1.10835,0.868296,99,7.24991,187,1.00001,1.00001
app_9,21.4834,21753,6952.57,1047.43,66.6591,3.98711e+11,1.08825,0.868296,104,6.03579,182,1.00001,1.00001
