app_id,Tcomp,Tio,iter,witer,alpha_io,compute_size,io_size,mu,desyn_time
1,8.956906176853442,0.1730391477267403,2191,9.129945324580182,0.01895292267094678,8e9,173039147.7267403,10,8.559879610587826
2,10.41036607233691,0.756180341661398,1792,11.166546413998308,0.06771837178892262,10e9,756180341.661398,10,3.054323280153673
3,9.468699760234202,0.29521274732234354,2049,9.763912507556546,0.030235087327326084,9e9,295212747.3223435,10,1.5051132136665994
4,10.91388739432952,0.569022955549179,1742,11.482910349878699,0.0495538968964597,10e9,569022955.5491791,10,6.776499080973398
5,9.702762360973882,0.2751574170767918,2005,9.977919778050673,0.02757663152214155,9e9,275157417.0767918,10,8.892980843569754
6,39.488294552043214,2.842951258265535,473,42.33124581030875,0.06715964068256179,39e9,2842951258.265535,50,21.677424635193088
7,47.90970878873971,1.7001075187395662,404,49.60981630747927,0.034269578992237766,47e9,1700107518.7395663,50,33.5739025438936
8,47.40108769376988,5.119061014770143,381,52.52014870854002,0.09746851714335987,47e9,5119061014.770143,50,15.556029777446641
9,42.00832174829937,2.2251153395837457,453,44.23343708788312,0.05030392133360291,42e9,2225115339.583746,50,19.926169816730173
10,41.47500523200181,2.761783982360685,453,44.236789214362496,0.062431836293037474,41e9,2761783982.3606853,50,4.140873943446418
11,98.74208194392072,0.631144407554954,202,99.37322635147568,0.006351252049748727,98e9,631144407.554954,100,48.814132607414976
12,99.18304195205086,4.19563482166249,194,103.37867677371335,0.0405851085794642,99e9,4195634821.6624904,100,40.14027566585924
13,97.1594233864978,0.4930906445601329,205,97.65251403105793,0.005049441373350692,97e9,493090644.5601329,100,57.76407613184309
14,90.25096660727255,4.381091461197486,212,94.63205806847003,0.0462960602423715,90e9,4381091461.197486,100,75.65766035392372
15,107.26436207581031,2.1990408670064645,183,109.46340294281677,0.020089279228375848,107e9,2199040867.0064645,100,45.73527277766978
16,1015.9057276967637,36.85951315057949,19,1052.7652408473432,0.035012091699486804,1015e9,36859513150.57949,1000,552.7136701912266
17,1000.4612603863557,27.501018919498414,20,1027.962279305854,0.02675294558285627,1000e9,27501018919.498413,1000,833.1316093716723
18,976.5380032899809,66.03429683404539,20,1042.5723001240262,0.06333785851224882,976e9,66034296834.045395,1000,754.7304157321863
19,1100.3066154921569,41.69645050974564,18,1142.0030660019024,0.03651168000426032,1100e9,41696450509.745636,1000,896.958773719549
20,967.8522589391068,14.084785241248861,21,981.9370441803557,0.01434387807724042,967e9,14084785241.248861,1000,30.461873344038622
