app_id,Tcomp,Tio,iter,witer,alpha_io,compute_size,io_size,mu,desyn_time
1,9.731651292950051,0.22234460620058377,2010,9.953995899150636,0.022337220996801518,9e9,222344606.2005838,10,7.2419754563084915
2,9.2989937374902,0.4432261360830238,2053,9.742219873573223,0.045495394461925506,9e9,443226136.0830238,10,2.0350712105237228
3,9.889881606748187,0.497642950948882,1926,10.387524557697068,0.04790775205244957,9e9,497642950.948882,10,9.573259702721774
4,10.245105776973235,0.35904103195338133,1887,10.604146808926616,0.03385854971860056,10e9,359041031.9533813,10,0.8279721045117782
5,9.677372500963175,0.17592543222257354,2030,9.853297933185749,0.01785447201693349,9e9,175925432.22257355,10,4.9789104124257
6,56.11444011125696,2.988258062658474,339,59.102698173915435,0.05056043387165226,56e9,2988258062.658474,50,3.944683027412136
7,54.12593261585772,1.9258785438364359,357,56.051811159694154,0.03435889945374861,54e9,1925878543.8364358,50,40.885461237285085
8,53.96119195595793,2.7915663409271105,353,56.75275829688504,0.04918820555511801,53e9,2791566340.9271107,50,16.68032552621498
9,45.10248213372052,1.7514167476735338,427,46.85389888139405,0.03738038433273333,45e9,1751416747.673534,50,21.176344242197956
10,56.55808565714091,1.2173554709076844,347,57.77544112804859,0.021070466051650576,56e9,1217355470.9076843,50,26.40620771264956
11,99.884159611548,2.7556555428864526,195,102.63981515443446,0.0268478225407969,99e9,2755655542.8864527,100,82.92243410409351
12,82.42661540307107,4.495218302961946,231,86.92183370603301,0.05171564049332688,82e9,4495218302.961946,100,55.13026513462783
13,96.5364603274038,6.401388690762403,195,102.9378490181662,0.0621869288295766,96e9,6401388690.762403,100,64.70232356788563
14,87.96954341142863,2.1708717767811865,222,90.14041518820981,0.024083223626699384,87e9,2170871776.7811866,100,56.34192674716929
15,101.37655059513821,7.005890371465803,185,108.38244096660402,0.06464045567699046,101e9,7005890371.465803,100,42.83811534840167
16,857.9585487396007,25.638027769193137,23,883.5965765087939,0.0290155354273693,857e9,25638027769.19314,1000,88.79297819592439
17,1053.9873432963414,8.922520329844739,19,1062.909863626186,0.008394428008603646,1053e9,8922520329.844738,1000,767.9581237240601
18,1066.8229545172906,70.32549176114406,18,1137.1484462784347,0.06184372145193489,1066e9,70325491761.14406,1000,142.49837823161886
19,885.0950493197876,42.50842138143791,22,927.6034707012254,0.045826069785296845,885e9,42508421381.43791,1000,706.2650743156901
20,1011.7725912170455,70.84010767245954,19,1082.612698889505,0.06543439564779177,1011e9,70840107672.45953,1000,1011.7946266207699
