app_id,Tcomp,Tio,iter,witer,alpha_io,compute_size,io_size,mu,desyn_time
1,6.551026927260685,0.42265081310211167,2868,6.973677740362797,0.06060658792072657,6e9,422650813.10211164,10,4.5121634027906135
2,9.36323736859482,0.5530533900626311,2017,9.916290758657452,0.0557722038938588,9e9,553053390.0626311,10,4.264359406925035
3,9.08383977884082,0.5512375693607312,2076,9.635077348201552,0.05721153545940377,9e9,551237569.3607312,10,0.5349297873937019
4,9.974648325612197,0.6083128084230894,1890,10.582961134035287,0.057480397094791136,9e9,608312808.4230894,10,4.673685000795612
5,8.7132834231552,0.027916917446483436,2289,8.741200340601683,0.0031937166932112476,8e9,27916917.446483437,10,2.565922730726574
6,44.36910235679222,1.8519486497255473,433,46.22105100651777,0.04006721200399356,44e9,1851948649.7255473,50,44.69138653405512
7,48.499002127081454,3.409313779042466,386,51.90831590612392,0.06567952975411884,48e9,3409313779.042466,50,10.620219255107887
8,47.90275281881245,3.143476942191275,392,51.04622976100373,0.06158098172791409,47e9,3143476942.191275,50,8.410974745389566
9,46.403651568612176,1.4956859255643271,418,47.8993374941765,0.031225607781029736,46e9,1495685925.564327,50,5.430669653424724
10,39.63435333287283,1.4417279798802511,487,41.076081312753075,0.03509896596276898,39e9,1441727979.8802512,50,37.056625693437056
11,99.53395785694867,2.0501871661991236,197,101.5841450231478,0.02018215702590154,99e9,2050187166.1991236,100,49.7024930406276
12,98.98331487159835,3.452342225635369,196,102.43565709723372,0.03370254385500105,98e9,3452342225.635369,100,36.94843262302972
13,95.16776349492271,4.687600691596796,201,99.85536418651951,0.04694390461428633,95e9,4687600691.596796,100,82.9973648028175
14,116.76535683068222,2.5475107705309705,168,119.3128676012132,0.021351517415922595,116e9,2547510770.5309706,100,36.749168147639836
15,92.85985581416084,1.5073838169354838,212,94.36723963109633,0.01597359234866041,92e9,1507383816.935484,100,81.39253520165032
16,953.5211449726862,47.71677337005211,20,1001.2379183427383,0.04765777693381161,953e9,47716773370.05211,1000,836.6199161368706
17,878.1848973575947,57.695570476990675,22,935.8804678345854,0.06164843958169691,878e9,57695570476.99068,1000,499.6623909243385
18,998.4263879824334,22.626290967955303,20,1021.0526789503888,0.022159768476602445,998e9,22626290967.955303,1000,937.4152498467361
19,926.1142221720253,35.89218820302201,21,962.0064103750473,0.03730971833028545,926e9,35892188203.02201,1000,916.8729847130521
20,935.3054794862381,24.13357958074217,21,959.4390590669803,0.025153843126014902,935e9,24133579580.74217,1000,564.3773812135985
