app_id,Tcomp,Tio,iter,witer,alpha_io,compute_size,io_size,mu,desyn_time
1,10.902841454962168,0.019266980402268694,1832,10.922108435364436,0.0017640348945707767,10e9,19266980.402268693,10,0.9043021929862252
2,10.529842656510887,0.06691461234923023,1888,10.596757268860117,0.006314631037729542,10e9,66914612.34923023,10,0.550990576478805
3,13.449708946456859,0.030666852154223344,1484,13.480375798611082,0.002274925611301061,13e9,30666852.154223345,10,11.209749655160524
4,9.814794114187967,0.000821495168533189,2038,9.8156156093565,8.369267921923496e-05,9e9,821495.168533189,10,3.7876519308854353
5,9.92533740509861,0.05687778682189957,2004,9.98221519192051,0.005697912309878452,9e9,56877786.82189957,10,3.593068117927987
6,11.181686004163526,0.040320281145113365,1783,11.22200628530864,0.0035929654751574074,11e9,40320281.145113364,10,7.104658071427282
7,8.990689765596876,0.013607926239777492,2222,9.004297691836653,0.0015112701407145295,8e9,13607926.239777492,10,6.818575837317823
8,11.35064202634302,0.046085804591637386,1755,11.396727830934658,0.004043775132239675,11e9,46085804.59163739,10,7.512822485560849
9,10.02532602886252,0.02716717238459853,1990,10.052493201247117,0.00270253078920045,10e9,27167172.38459853,10,6.200502138189763
10,10.815189531280586,0.03502969281191205,1844,10.850219224092498,0.003228477884956458,10e9,35029692.81191205,10,1.9811416855905066
11,9.853221539621417,0.03460568887200056,2023,9.887827228493418,0.0034998274213649803,9e9,34605688.87200056,10,9.51249862525316
12,12.006841708231784,0.0198719668567516,1663,12.026713675088535,0.0016523189454417033,12e9,19871966.856751602,10,11.553488288241669
13,9.606328579224924,0.0007614149502558714,2082,9.60708999417518,7.925552385972449e-05,9e9,761414.9502558714,10,2.107212264288188
14,11.236930618051689,0.028669054766440542,1776,11.26559967281813,0.0025448316644531427,11e9,28669054.76644054,10,8.299491763797763
15,10.617624760528377,0.011320500065857641,1882,10.628945260594236,0.0010650633518480216,10e9,11320500.065857641,10,8.46191524481233
16,9.846354360972699,0.034874464275879945,2025,9.881228825248579,0.00352936511163151,9e9,34874464.27587994,10,3.998584565771612
17,8.674924866680193,0.030894109874298577,2298,8.705818976554491,0.0035486735891820213,8e9,30894109.874298576,10,7.957727150738984
18,12.217625844134052,0.06851331019288366,1628,12.286139154326936,0.005576471935754905,12e9,68513310.19288366,10,9.901403444429892
19,11.202611907276811,0.014080930853573334,1784,11.216692838130385,0.0012553549479135389,11e9,14080930.853573333,10,10.628459462505198
20,11.61916189519054,0.0748406230367597,1711,11.6940025182273,0.006399915077844949,11e9,74840623.0367597,10,5.947365352776482
21,106.44577966952995,0.28670499558531987,188,106.73248466511528,0.0026862018296012484,106e9,286704995.5853199,100,81.82248548623744
22,93.08047808014106,0.09414253229285818,215,93.17462061243393,0.0010103881472665218,93e9,94142532.29285818,100,91.33642053057854
23,90.66115035689012,0.6198276536833554,220,91.28097801057348,0.006790326606837604,90e9,619827653.6833553,100,57.57749136665178
24,111.06983963923543,0.04538480282778084,180,111.11522444206321,0.0004084481047099447,111e9,45384802.827780835,100,41.48803815422906
25,122.58780172391559,0.37324296662877254,163,122.96104469054436,0.0030354570227352235,122e9,373242966.62877256,100,7.6842150981550965
26,98.63645058553215,0.44448608420361213,202,99.08093666973576,0.004486090858075025,98e9,444486084.20361215,100,41.74538418713917
27,105.77452148549447,0.3943862733193782,189,106.16890775881386,0.0037147059496487785,105e9,394386273.3193782,100,48.67083331607358
28,101.4770365248863,0.19644886402830222,197,101.6734853889146,0.001932154320045774,101e9,196448864.02830222,100,76.58386520149026
29,105.98948883420059,0.523051370951603,188,106.51254020515219,0.004910702251060407,105e9,523051370.95160306,100,10.43681546547841
30,107.43356600401098,0.115139208529146,186,107.54870521254013,0.0010705773565716607,107e9,115139208.529146,100,43.05582972233533
31,86.45698771998127,0.16071557125630925,231,86.61770329123758,0.0018554587012764578,86e9,160715571.25630924,100,37.393168831280015
32,107.87951124728089,0.44176287643461665,185,108.32127412371551,0.004078265142358573,107e9,441762876.4346166,100,51.48110862714047
33,98.40319741533106,0.2650396618938902,203,98.66823707722496,0.0026861700355145786,98e9,265039661.89389023,100,49.56065504786778
34,88.33008080608651,0.3892839153931041,226,88.71936472147962,0.004387812250630956,88e9,389283915.3931041,100,60.350222633414894
35,102.84019142048373,0.41384443578928304,194,103.25403585627302,0.0040080218885133355,102e9,413844435.78928304,100,93.54523312230316
36,115.30286090065974,0.528710099928676,173,115.83157100058841,0.004564473186036562,115e9,528710099.928676,100,10.564603963166704
37,113.03128971899822,0.09768483436410175,177,113.12897455336233,0.0008634820102433116,113e9,97684834.36410175,100,29.72626927545331
38,100.88443654557335,0.7750118805242403,197,101.6594484260976,0.0076236089465667655,100e9,775011880.5242403,100,80.7284145791522
39,96.60652895532003,0.2172854664555995,207,96.82381442177562,0.0022441324766351296,96e9,217285466.45559952,100,20.02163920124321
40,101.50474390218622,0.3564797321931671,197,101.86122363437939,0.003499660807852802,101e9,356479732.1931671,100,12.517492275705374
41,876.9455346744573,1.3300423330601692,23,878.2755770075175,0.001514379276709393,876e9,1330042333.0601692,1000,489.9380086290284
42,1126.282210798819,5.218785020290743,18,1131.50099581911,0.004612267279988374,1126e9,5218785020.290743,1000,316.416702971533
43,978.6985582984207,0.32415227378551476,21,979.0227105722063,0.0003310978083399705,978e9,324152273.7855148,1000,158.39705133997217
44,811.5816569665122,0.944678256661749,25,812.526335223174,0.0011626432470059906,811e9,944678256.661749,1000,774.2331637692965
45,1045.1143031099973,7.449244307620731,20,1052.563547417618,0.007077239493897414,1045e9,7449244307.62073,1000,566.3235375784659
46,1051.5751301158869,6.968075892467985,19,1058.543206008355,0.006582703335033248,1051e9,6968075892.467984,1000,481.3783941441926
47,1124.8981085955372,3.1673473712473306,18,1128.0654559667846,0.002807769136528361,1124e9,3167347371.2473307,1000,235.69474451664328
48,1200.3539715033296,5.830244921371293,17,1206.184216424701,0.004833627270180135,1200e9,5830244921.371292,1000,855.3505005873429
49,1021.9775500371912,2.3830527323574024,20,1024.3606027695487,0.002326380696323519,1021e9,2383052732.3574023,1000,185.66590860751452
50,1080.3120692675573,1.360129440450785,19,1081.672198708008,0.0012574321888603381,1080e9,1360129440.4507852,1000,784.8251027182856
51,764.5595302934843,3.865020427026611,27,768.4245507205109,0.005029798206476597,764e9,3865020427.026611,1000,318.9983242608642
52,938.581565425936,2.940125311589779,22,941.5216907375258,0.003122737734578031,938e9,2940125311.589779,1000,871.9448025750088
53,907.7485121060073,6.586161807289359,22,914.3346739132967,0.007203228746757451,907e9,6586161807.289359,1000,286.17752484686844
54,987.2047957187115,4.313090196403951,21,991.5178859151155,0.004349987284821604,987e9,4313090196.403951,1000,775.4588419038676
55,973.2888637516755,3.0256111913964125,21,976.3144749430719,0.0030990129400394616,973e9,3025611191.3964124,1000,173.26948226770168
56,853.3302741212005,1.8375277780559016,24,855.1678018992565,0.0021487335865252475,853e9,1837527778.0559015,1000,810.4200980785791
57,863.7701334990794,5.188243633112404,24,868.9583771321918,0.005970646891321854,863e9,5188243633.112404,1000,430.2947943345373
58,1065.7092862488487,2.236356438407515,19,1067.9456426872562,0.0020940732833369716,1065e9,2236356438.407515,1000,153.37947193654847
59,1117.3045349573563,2.8049977544625055,18,1120.1095327118187,0.0025042173756628264,1117e9,2804997754.4625053,1000,780.5050871122895
60,991.8094247756472,5.736480300568321,21,997.5459050762156,0.005750592801170424,991e9,5736480300.56832,1000,314.6877378255388
