app_id,start_app,end_app,effective_cpu,effective_io,effective_iter,total_bytes,stretch,utilization,Tcomp,Tio,iterations,priority,group_id
app_1,3.51832,20144.4,7704.8,85.9618,855.948,4.15057e+10,1.03275,0.984113,9,0.0484879,2160,1,1
app_10,4.13325,18530.5,7670.4,82.7414,961.33,1.39193e+10,1.04108,0.984113,8,0.0144842,2236,1,1
app_11,5.25622,20144.3,7799.3,54.4039,649.179,8.96496e+08,1.02562,0.984113,12,0.00137922,1636,1,1
app_12,2.72133,19785.5,7680.9,93.5833,964.048,3.90839e+10,1.03627,0.984113,8,0.0405435,2381,1,1
app_13,4.31783,19208,7707.7,76.3601,852.391,1.85163e+10,1.03544,0.984113,9,0.0217073,2058,1,1
app_14,4.11213,19297.8,7724.8,73.5195,773.53,2.73128e+10,1.03198,0.984113,10,0.0352879,1867,1,1
app_15,0.757942,20664.1,7689.9,78.8815,961.435,9.31574e+08,1.0402,0.984113,8,0.00096938,2485,1,1
app_16,10.9947,20540.1,7726.1,64.8825,703.445,1.86981e+10,1.03295,0.984113,11,0.0265975,1808,1,1
app_17,6.81717,19544.5,7751.9,76.5785,707.266,5.26354e+10,1.02504,0.984113,11,0.0743438,1727,1,1
app_18,7.78723,19382.9,7705.9,87.8291,857.578,4.66837e+10,1.03191,0.984113,9,0.0544099,2081,1,1
app_19,0.611748,18619.3,7709.2,71.2725,856.55,1.13688e+09,1.03757,0.984113,9,0.00132658,2003,1,1
app_2,0.550662,19615.3,7691.7,81.7343,766.74,5.18258e+10,1.03312,0.984113,10,0.0676577,1893,1,1
app_20,6.00891,18782.4,7673.5,86.5838,957.222,1.9941e+10,1.03985,0.984113,8,0.0208153,2254,1,1
app_21,81.7052,19938.3,7969.6,8.04405,84.0393,3.49601e+09,1.00337,0.984113,95,0.0416192,209,1,1
app_22,20.8518,20126.4,7963.3,7.5434,68.6127,4.78684e+09,1.00401,0.984113,116,0.0693745,173,1,1
app_23,63.9725,20069.7,7954.4,33.4191,82.0806,3.12479e+10,1.0018,0.984113,97,0.381072,206,1,1
app_24,22.85,20007.7,7978.9,10.382,90.2073,8.88953e+09,1.00153,0.984113,89,0.0987726,224,1,1
app_25,109.198,20155.5,7934.5,43.0718,61.663,4.06113e+10,1.00312,0.984113,129,0.665758,154,1,1
app_26,52.0533,19929.6,7940.7,39.5247,77.7081,3.64201e+10,1.00287,0.984113,103,0.466924,192,1,1
app_27,63.6569,19924.7,7954.3,17.9928,83.1159,1.6388e+10,1.00368,0.984113,96,0.197446,206,1,1
app_28,64.9526,19882.4,7920.1,55.5587,93.6579,4.97297e+10,1.00379,0.984113,85,0.529039,232,1,1
app_29,2.66961,20038.2,7948.9,26.2919,89.7746,2.07374e+10,1.00381,0.984113,88,0.230416,226,1,1
app_3,5.66818,18901.8,7725,84.8252,858.244,3.77099e+10,1.03057,0.984113,9,0.0438998,2029,1,1
app_30,70.775,20041.7,7918.8,51.8866,87.6345,4.57785e+10,1.00445,0.984113,91,0.52021,218,1,1
app_31,17.3256,20074.4,7929.1,48.9075,96.9721,4.45844e+10,1.0033,0.984113,82,0.459633,243,1,1
app_32,56.6789,20054.1,7962.17,24.9727,84.1037,2.06004e+10,1.00216,0.984113,95,0.2441,209,1,1
app_33,66.1597,20002.6,7937.7,30.0536,75.011,2.63794e+10,1.00451,0.984113,106,0.351725,187,1,1
app_34,39.6461,20066.9,7920.6,54.7542,90.851,5.13615e+10,1.00352,0.984113,87,0.570683,227,1,1
app_35,36.5603,19995.3,7947.6,25.5808,83.0546,2.20443e+10,1.00381,0.984113,96,0.265594,207,1,1
app_36,64.6752,20065.4,7969.4,9.15559,80.93,7.45355e+09,1.0029,0.984113,98,0.0920191,203,1,1
app_37,100.211,20209.8,7923.7,50.9128,74.3463,4.49061e+10,1.00394,0.984113,107,0.606839,186,1,1
app_38,15.7909,20125.2,7971.9,8.96347,92.5103,2.51465e+09,1.00321,0.984113,86,0.0270392,232,1,1
app_39,5.64939,19881.7,7969.5,21.8706,75.855,1.67295e+10,1.00172,0.984113,105,0.220125,189,1,1
app_4,6.2688,18865.9,7657.5,109.21,1091.38,4.9924e+10,1.03796,0.984113,7,0.0457598,2580,1,1
app_40,29.2472,20108.5,7939.1,45.0922,75.6974,4.19916e+10,1.00237,0.984113,105,0.559888,190,1,1
app_41,622.409,21197.9,7983.7,15.3215,7.26285,1.50514e+10,1.00016,0.984113,1095,2.15019,19,1,1
app_42,521.062,21894.2,7982.9,16.1097,6.69019,1.57484e+10,1.00017,0.984113,1170,2.24977,18,1,1
app_43,771.424,21486,7981.1,15.9557,7.45497,1.54708e+10,1.00043,0.984113,1081,1.93385,19,1,1
app_44,242.544,21040.1,7976.5,17.6294,7.23912,1.74113e+10,1.00076,0.984113,1091,2.48732,19,1,1
app_45,61.6705,20655.2,7975.5,23.85,7.46946,2.32124e+10,1.00016,0.984113,1097,2.90155,19,1,1
app_46,463.859,21175.9,7944.9,54.9124,8.55197,5.42733e+10,1.0001,0.984113,930,6.03036,22,1,1
app_47,857.41,21584.2,7998.4,1.57444,7.90996,1.30691e+09,1.00004,0.984113,1050,0.163364,20,1,1
app_48,842.119,21002.9,7960.8,38.757,8.77845,3.86289e+10,1.00007,0.984113,927,4.29211,22,1,1
app_49,936.614,21123.1,7948,50.4881,8.2439,5.0348e+10,1.00021,0.984113,956,6.2935,21,1,1
app_5,4.35786,20030.3,7712.6,74.5282,770.304,3.05944e+10,1.03317,0.984113,10,0.039733,1933,1,1
app_50,162.926,21151,7979.6,20.1148,8.39346,1.97413e+10,1.00008,0.984113,941,2.46766,22,1,1
app_51,797.221,21099.5,7971.5,27.0909,7.74885,2.65493e+10,1.00024,0.984113,1008,3.31867,20,1,1
app_52,642.949,20880.1,7969.6,30.2859,7.49416,2.98663e+10,1.00007,0.984113,1069,3.73329,19,1,1
app_53,1034.73,21891.9,7949.1,50.4139,7.32009,4.99878e+10,1.00011,0.984113,1093,7.14111,19,1,1
app_54,626.148,21791.6,7953.7,45.6766,7.84639,4.54456e+10,1.00011,0.984113,993,5.6807,21,1,1
app_55,201.381,19898.6,7960.1,34.9134,10.1446,3.43946e+10,1.00069,0.984113,805,3.43946,25,1,1
app_56,957.131,21812.2,7982,17.6596,8.15139,1.72431e+10,1.00009,0.984113,986,2.15539,21,1,1
app_57,159.415,20605.6,7968.2,31.4281,8.28159,3.07992e+10,1.00013,0.984113,969,3.42213,21,1,1
app_58,885.154,21209.7,7986.2,7.94527,8.18995,7.62581e+09,1.00077,0.984113,978,0.953226,21,1,1
app_59,322.073,21037.6,7963.5,35.0182,10.3858,3.44972e+10,1.00025,0.984113,763,3.44972,27,1,1
app_6,6.5381,19973,7726.1,70.4458,772.553,2.0619e+10,1.0327,0.984113,10,0.0267086,1934,1,1
app_60,367.766,20724.2,7982,18,9.15111,1.77908e+10,1.00003,0.984113,877,1.97675,23,1,1
app_7,2.52053,18309.3,7628,108.751,1088.22,5.31789e+10,1.04151,0.984113,7,0.0488777,2497,1,1
app_8,3.21602,20419.7,7642.9,77.1153,956.381,5.97093e+08,1.04664,0.984113,8,0.000623922,2454,1,1
app_9,1.33949,18748.2,7674.4,83.0527,959.078,1.55733e+10,1.04032,0.984113,8,0.0162391,2247,1,1
