app_id,start_app,end_app,effective_cpu,effective_io,effective_iter,total_bytes,stretch,utilization,Tcomp,Tio,iterations,priority,group_id
app_1,8.75226,19503.1,7911.7,88.3,879.121,2.86522e+10,1.00751,0.99347,9,0.0325964,2146,1,1
app_10,11.9767,19973.3,7930.8,69.2,658.682,3.11615e+10,1.00478,0.99347,12,0.0472861,1647,1.00001,1.00001
app_11,2.25881,18693.6,7898.7,101.3,874.547,4.998e+10,1.00646,0.99347,9,0.0571854,2049,1.00001,1.00001
app_12,0.157946,19693.2,7920.8,79.2,791.785,5.82645e+09,1.00926,0.99347,10,0.00735663,1951,1.00001,1.00001
app_13,4.36553,18494.7,7900.4,99.6,789.201,5.95914e+10,1.00503,0.99347,10,0.0755277,1826,1.00001,1.00001
app_14,7.58751,19487.6,7918.1,81.9,791.297,3.13765e+10,1.00636,0.99347,10,0.0396669,1928,1.00001,1.00001
app_15,7.18119,19992.1,7920.98,79.022,790.309,1.41074e+10,1.00818,0.99347,10,0.0178525,1975,1.00002,1.00002
app_16,3.76998,19648.5,7912.2,87.8,878.199,1.50266e+10,1.00918,0.99347,9,0.0171146,2160,1.00002,1.00002
app_17,4.11709,19549.1,7912,88,879.58,1.68018e+09,1.01091,0.99347,9,0.0019093,2147,1.00002,1.00002
app_18,5.29296,18164.2,7883.4,116.6,1128.41,4.28683e+10,1.0093,0.99347,7,0.0379701,2560,1.00002,1.00002
app_19,2.04166,18793.1,7919.1,80.9,790.29,2.7409e+10,1.00673,0.99347,10,0.034695,1860,1.00002,1.00002
app_2,2.09115,19144.3,7927.5,72.5,723.394,1.57601e+10,1.00714,0.99347,11,0.0217682,1725,1,1
app_20,5.99977,18314.6,7887.3,112.7,1127.15,3.31787e+09,1.01386,0.99347,7,0.00294398,2576,1.00002,1.00002
app_21,80.7141,20398.8,7979.5,20.5,63.8403,1.31613e+10,1.00092,0.99347,123,0.205646,163,1.00002,1.00002
app_22,8.40431,20069.7,7946.8,53.2,74.9973,4.11711e+10,1.00151,0.99347,106,0.548948,188,1.00002,1.00002
app_23,15.5396,20025.5,7957.7,42.3,94.0434,3.13578e+10,1.00137,0.99347,85,0.333594,235,1.00002,1.00002
app_24,42.0278,20095.4,7990,10,80.6181,7.0939e+09,1.00036,0.99347,98,0.0886737,204,1.00002,1.00002
app_25,83.3418,20135.9,7974.6,25.4,78.3176,1.56198e+10,1.00122,0.99347,101,0.200253,197,1.00003,1.00003
app_26,65.1464,20115.2,7991,9,74.2404,5.47399e+09,1.00044,0.99347,107,0.0739728,186,1.00003,1.00003
app_27,105.546,20181,7945,55,70.9461,4.37652e+10,1.00141,0.99347,111,0.616412,179,1.00003,1.00003
app_28,24.0703,20119.2,7966.9,33.1,86.0271,2.25976e+10,1.00131,0.99347,92,0.262763,217,1.00003,1.00003
app_29,14.0088,20000,7938.7,61.3,70.8934,4.72913e+10,1.00175,0.99347,113,0.666075,176,1.00003,1.00003
app_3,6.62439,19528.5,7906.7,93.3,791.503,4.82131e+10,1.00567,0.99347,10,0.0609521,1930,1,1
app_30,31.6033,19924,7930.4,69.6,86.6435,5.42827e+10,1.00192,0.99347,92,0.631194,215,1.00003,1.00003
app_31,31.4873,19979.1,7979.6,20.4,82.4455,1.47857e+10,1.0007,0.99347,97,0.180314,205,1.00003,1.00003
app_32,76.0178,19849.9,7946.5,53.5,74.0035,3.93663e+10,1.00177,0.99347,109,0.531977,182,1.00003,1.00003
app_33,93.9854,20107.9,7960.8,39.2,81.5453,2.8985e+10,1.00128,0.99347,98,0.353476,203,1.00003,1.00003
app_34,23.4696,19914.5,7942.5,57.5,81.5751,4.27316e+10,1.00185,0.99347,99,0.527551,201,1.00003,1.00003
app_35,34.7926,19922.4,7987,13,91.4446,7.51769e+09,1.00069,0.99347,87,0.0817141,228,1.00004,1.00004
app_36,51.1849,20051.6,7978.3,21.7,76.8033,1.48549e+10,1.00086,0.99347,104,0.192921,192,1.00004,1.00004
app_37,28.3553,19801.3,7938,62,99.2026,4.93335e+10,1.00159,0.99347,80,0.498319,247,1.00004,1.00004
app_38,33.3618,20065.5,7940.7,59.3,88.8541,4.59733e+10,1.00167,0.99347,89,0.516554,223,1.00004,1.00004
app_39,75.6396,20176.6,7993.4,6.6,64.4241,2.9164e+09,1.00046,0.99347,123,0.0455688,163,1.00004,1.00004
app_4,7.00515,18907.6,7899.8,100.2,789.088,5.98883e+10,1.00506,0.99347,10,0.075904,1865,1,1
app_40,68.457,19973.1,7981.9,18.1,80.0505,1.11588e+10,1.00087,0.99347,99,0.139485,200,1.00004,1.00004
app_41,541.845,20932,7959,41,8.39793,3.52896e+10,1.00071,0.99347,987,4.4112,21,1.00004,1.00004
app_42,66.5814,20611.3,7976.8,23.2,7.95581,1.98748e+10,1.00042,0.99347,1023,2.48435,20,1.00004,1.00004
app_43,49.1396,20934.9,7996,4,8.24253,3.25038e+09,1.00009,0.99347,935,0.406298,22,1.00004,1.00004
app_44,141.44,20596.7,7924.9,75.1,8.17929,5.47651e+10,1.00255,0.99347,950,6.84564,21,1.00004,1.00004
app_45,1064.49,21511.2,7945.5,54.5,6.66588,4.255e+10,1.0015,0.99347,1216,7.09167,17,1.00004,1.00004
app_46,434.057,21196,7961,39,8.55376,3.34799e+10,1.00069,0.99347,942,3.71998,22,1.00005,1.00005
app_47,222.782,20475.3,7997.1,2.9,9.03678,1.72311e+09,1.00015,0.99347,878,0.191456,23,1.00005,1.00005
app_48,360.029,20912.2,7952.9,47.1,10.2715,3.88616e+10,1.00103,0.99347,795,3.88616,26,1.00005,1.00005
app_49,938.462,21004.7,7994.3,5.7,7.49241,4.78506e+09,1.00011,0.99347,1058,0.598132,19,1.00005,1.00005
app_5,7.39756,19053.5,7913.3,86.7,718.838,4.86227e+10,1.00478,0.99347,11,0.0676254,1715,1.00001,1.00001
app_50,463.533,21104.7,7935.7,64.3,8.47792,5.40264e+10,1.00129,0.99347,922,6.00293,22,1.00005,1.00005
app_51,645.979,21794.3,7975.6,24.4,7.68752,2.11303e+10,1.00041,0.99347,1045,3.01861,20,1.00005,1.00005
app_52,516.274,20655.9,7983.7,16.3,8.24814,1.34237e+10,1.00036,0.99347,969,1.67796,21,1.00005,1.00005
app_53,811.992,21090.3,7954.6,45.4,8.17678,3.59861e+10,1.00118,0.99347,962,4.49827,21,1.00005,1.00005
app_54,864.898,20743.9,7950.5,49.5,8.59909,3.93298e+10,1.00127,0.99347,913,4.36998,22,1.00005,1.00005
app_55,792.255,21165.4,7971.6,28.4,7.61411,2.4832e+10,1.00045,0.99347,1083,3.104,19,1.00005,1.00005
app_56,234.758,21288.5,7999.2,0.8,7.31655,4.61568e+08,1.00004,0.99347,1103,0.0659383,19,1.00006,1.00006
app_57,591.845,21256.9,7993.9,6.1,7.79139,4.4465e+09,1.00021,0.99347,1038,0.635215,20,1.00006,1.00006
app_58,860.768,21317.2,7976.9,23.1,7.53125,1.65013e+10,1.00083,0.99347,1082,2.06267,19,1.00006,1.00006
app_59,648.621,21387.4,7994.6,5.4,8.30245,3.75002e+09,1.00021,0.99347,925,0.416668,22,1.00006,1.00006
app_6,5.62881,20155.1,7920.9,79.1,791.631,5.03646e+09,1.00934,0.99347,10,0.00636721,1999,1.00001,1.00001
app_60,48.2878,20827.2,7940.9,59.1,7.16798,5.09722e+10,1.00102,0.99347,1098,7.28175,19,1.00006,1.00006
app_7,1.42389,18996.8,7883.5,116.5,1123.13,4.47062e+10,1.00906,0.99347,7,0.0398096,2671,1.00001,1.00001
app_8,2.33092,18815.2,7916.9,83.1,790.048,3.28255e+10,1.00632,0.99347,10,0.0415512,1860,1.00001,1.00001
app_9,7.77268,20089.8,7927.7,72.3,720.467,2.08255e+10,1.00648,0.99347,11,0.0288842,1810,1.00001,1.00001
