app_id,start_app,end_app,effective_cpu,effective_io,effective_iter,total_bytes,stretch,utilization,Tcomp,Tio,iterations,priority,group_id
app_1,6.44668,19612.7,7633.9,104.007,1090.8,3.45793e+10,1.04323,0.984733,7,0.031695,2675,1,1
app_10,5.82022,18660.6,7720.1,78.5526,965.892,5.55897e+09,1.03551,0.984733,8,0.00575463,2248,1,1
app_11,3.11087,18865.8,7689.6,83.7566,959.012,1.4657e+10,1.03839,0.984733,8,0.0152836,2270,1,1
app_12,7.48162,19437.4,7680.7,93.7292,958.406,4.05396e+10,1.0361,0.984733,8,0.0422728,2330,1,1
app_13,6.12657,19203.1,7731.2,72.1185,774.392,2.3558e+10,1.03162,0.984733,10,0.0304367,1861,1,1
app_14,1.93842,19340.4,7700.7,83.6777,960.482,1.8878e+10,1.03633,0.984733,8,0.0196441,2330,1,1
app_15,2.15036,20433.5,7715.8,75.7783,858.183,1.57158e+10,1.03473,0.984733,9,0.0183168,2196,1,1
app_16,0.609773,19148.2,7739.33,71.68,774.857,2.12721e+10,1.03085,0.984733,10,0.0274816,1856,1,1
app_17,1.95335,18822.2,7753.5,76.9805,703.003,5.19884e+10,1.02492,0.984733,11,0.0739522,1660,1,1
app_18,5.23803,18941.5,7695.4,81.6792,856.769,3.30244e+10,1.03514,0.984733,9,0.0385799,2030,1,1
app_19,1.93204,19192.5,7719.6,76.6483,771.783,3.85886e+10,1.03117,0.984733,10,0.0499852,1857,1,1
app_2,5.11147,20135,7719.6,81.521,860.657,3.03962e+10,1.03226,0.984733,9,0.0353444,2167,1,1
app_20,7.12795,20077.8,7736.3,74.6543,773.819,3.32811e+10,1.02966,0.984733,10,0.0430545,1946,1,1
app_21,14.3722,19949.6,7947.4,9.79207,92.3904,5.41393e+09,1.00593,0.984733,86,0.0582143,231,1,1
app_22,16.5184,19953.9,7935.5,39.1872,78.2372,3.50368e+10,1.0037,0.984733,102,0.449189,194,1,1
app_23,68.6419,19930.6,7926.2,46.1422,96.6962,3.85156e+10,1.00443,0.984733,82,0.401204,241,1,1
app_24,2.64723,20145.6,7952.3,28.0096,91.1074,2.40904e+10,1.00296,0.984733,88,0.264729,227,1,1
app_25,95.1673,20228.3,7936.8,38.5995,76.9921,3.54248e+10,1.00348,0.984733,102,0.460063,195,1,1
app_26,81.0272,20077.7,7930.3,51.345,73.5832,4.67645e+10,1.00288,0.984733,107,0.631953,185,1,1
app_27,95.1149,20119.6,7947.4,16.9862,82.7107,1.39571e+10,1.00485,0.984733,96,0.170209,207,1,1
app_28,75.4052,20026.3,7943.3,45.3808,75.1983,4.18263e+10,1.00186,0.984733,106,0.557684,187,1,1
app_29,63.209,20021.9,7935.4,51.0058,85.4555,4.59323e+10,1.00234,0.984733,93,0.534096,213,1,1
app_3,3.76537,20362.3,7696,81.8102,855.714,3.11356e+10,1.03531,0.984733,9,0.0363734,2184,1,1
app_30,21.5114,20045,7958.1,33.5545,84.662,2.79572e+10,1.00175,0.984733,95,0.328908,209,1,1
app_31,59.6741,19927.1,7948.6,28.9484,95.8273,2.39346e+10,1.00345,0.984733,83,0.249318,239,1,1
app_32,65.5202,20089.1,7960.7,7.84119,71.5114,5.86143e+09,1.0042,0.984733,111,0.0825553,180,1,1
app_33,10.2128,20071,7947.3,23.9182,81.0563,1.85267e+10,1.00429,0.984733,98,0.228724,203,1,1
app_34,26.0544,20051.6,7946.7,33.9393,83.0009,3.14774e+10,1.00274,0.984733,96,0.379246,207,1,1
app_35,88.7273,20002.7,7939.2,25.1463,81.1361,2.33255e+10,1.00471,0.984733,99,0.287969,201,1,1
app_36,67.3518,19993.8,7977.5,7.55493,79.0069,3.0252e+09,1.00244,0.984733,101,0.0382936,198,1,1
app_37,47.7363,19844.8,7946.9,29.6326,102.425,2.26877e+10,1.00382,0.984733,78,0.222429,253,1,1
app_38,94.2593,20307.1,7978.6,7.01254,71.6906,2.29304e+09,1.00239,0.984733,111,0.0318478,180,1,1
app_39,93.1642,20187.2,7979.4,8.44478,76.3162,5.57506e+09,1.00188,0.984733,104,0.073356,192,1,1
app_4,3.17297,20173.5,7801.3,70.4898,711.634,3.39747e+10,1.02102,0.984733,11,0.0477845,1788,1,1
app_40,12.4874,20105.3,7941,44.5201,76.2501,3.92455e+10,1.00248,0.984733,103,0.516388,192,1,1
app_41,460.76,21235.7,7950.5,48.049,7.85325,4.78104e+10,1.00021,0.984733,1044,5.9763,20,1,1
app_42,531.871,21505.9,7956.8,43.1665,7.2574,4.25392e+10,1.00008,0.984733,1101,5.31739,19,1,1
app_43,735.664,21476.8,7998,1.28482,7.23996,7.80185e+08,1.00015,0.984733,1075,0.111455,19,1,1
app_44,148.243,21025.2,7978.3,19.0877,7.78144,1.8679e+10,1.00038,0.984733,1048,2.33487,20,1,1
app_45,16.6001,20381.2,7985.1,14.3434,9.13857,1.37892e+10,1.00014,0.984733,884,1.53213,23,1,1
app_46,1032.93,21554.3,7986.6,13.2799,7.03779,1.29027e+10,1.00006,0.984733,1117,1.84324,18,1,1
app_47,716.118,20665.6,7981,15.5063,8.65644,1.52538e+10,1.00047,0.984733,966,1.69487,21,1,1
app_48,415.71,21012.7,7973.7,25.6564,7.78103,2.52288e+10,1.00013,0.984733,1021,3.15359,20,1,1
app_49,344.795,21372.2,7970.9,28.8993,8.42837,2.87049e+10,1.00005,0.984733,946,3.58811,22,1,1
app_5,6.70538,19298.6,7705.8,91.0425,962.084,3.35455e+10,1.03368,0.984733,8,0.0348706,2321,1,1
app_50,601.99,20417.1,7989.3,9.57963,8.84349,9.03887e+09,1.00021,0.984733,912,1.12986,22,1,1
app_51,671.529,20750.6,7995.3,4.25479,7.28978,3.95444e+09,1.00009,0.984733,1057,0.56492,19,1,1
app_52,111.471,20115.4,7955.3,44.0763,7.48972,4.37348e+10,1.00012,0.984733,1108,6.24783,18,1,1
app_53,15.7791,21194,7951.4,48.1748,6.37492,4.77004e+10,1.00011,0.984733,1208,6.81434,17,1,1
app_54,712.929,21700.9,7963.4,35.8826,7.68661,3.56906e+10,1.00011,0.984733,1033,5.09865,20,1,1
app_55,4.88501,20671,7955.7,40.5201,8.83433,3.99996e+10,1.00054,0.984733,889,4.4444,23,1,1
app_56,8.61738,20509.5,7952.3,46.8452,7.23827,4.64013e+10,1.00016,0.984733,1071,6.62876,19,1,1
app_57,520.287,21180.9,7997.2,2.78309,7.39326,2.27644e+09,1.00007,0.984733,1066,0.325206,19,1,1
app_58,730.193,21301,7988.4,10.5291,7.83029,1.03527e+10,1.00016,0.984733,977,1.29409,21,1,1
app_59,329.279,20718.3,7973.8,25.8589,7.30526,2.55782e+10,1.00008,0.984733,1079,3.65403,19,1,1
app_6,1.95644,19839.8,7688.6,95.7249,963.294,4.48082e+10,1.03447,0.984733,8,0.0465298,2384,1,1
app_60,232.643,20316.9,7981.8,16.0652,9.48276,1.57467e+10,1.00031,0.984733,844,1.57467,24,1,1
app_7,3.74698,20673.4,7702.6,90.4444,960.421,3.19038e+10,1.03433,0.984733,8,0.0332332,2490,1,1
app_8,4.74709,20315.3,7682.9,97.0231,958.856,4.70206e+10,1.03494,0.984733,8,0.0490308,2442,1,1
app_9,3.83953,18979.5,7695.7,89.9773,856.667,5.29258e+10,1.03244,0.984733,9,0.061757,2035,1,1
