app_id,Tcomp,Tio,iter,witer,alpha_io,compute_size,io_size,mu,desyn_time
1,10.18587062042769,0.21710252372917674,1923,10.402973144156865,0.020869276573218756,10e9,217102523.72917673,10,2.1883404703331464
2,10.349347620558536,0.11237531936830335,1912,10.461722939926839,0.010741569052591372,10e9,112375319.36830334,10,2.0945952142210826
3,10.115099696471813,0.206414188097702,1938,10.321513884569514,0.019998441159517082,10e9,206414188.09770203,10,6.770770882142838
4,9.842637256926487,0.1701907528523688,1998,10.012828009778856,0.016997271169159694,9e9,170190752.8523688,10,4.820327123591936
5,10.6807299503811,0.13013448065124555,1850,10.810864431032345,0.012037379756395562,10e9,130134480.65124555,10,8.743779114762932
6,11.545689562885014,0.27820048636536565,1692,11.82389004925038,0.023528676705091924,11e9,278200486.3653656,10,1.69354965904573
7,11.794829158912314,0.08381044279394102,1684,11.878639601706256,0.0070555590205718865,11e9,83810442.79394102,10,10.977645940235591
8,7.528079153563099,0.15011936306048257,2605,7.678198516623581,0.01955137819574066,7e9,150119363.06048256,10,2.9324076371798604
9,11.27436173832809,0.12889013473988303,1754,11.403251873067973,0.011302927987085315,11e9,128890134.73988304,10,9.042656976135344
10,8.87881248915905,0.2086498639204175,2201,9.087462353079466,0.022960190184415166,8e9,208649863.92041752,10,0.8676432944648165
11,10.047441042025682,0.0722790123150982,1977,10.11972005434078,0.0071423924700461106,10e9,72279012.3150982,10,1.7214812548035583
12,9.088019987831924,0.19216291263916568,2156,9.28018290047109,0.020706802301214442,9e9,192162912.63916567,10,5.895912426945495
13,9.02949095847533,0.12201292773400889,2186,9.151503886209339,0.01333255487307104,9e9,122012927.7340089,10,1.7616831993957902
14,9.541880571366507,0.1915185938570182,2055,9.733399165223526,0.019676434779464836,9e9,191518593.8570182,10,2.5822824802714988
15,10.49879505055331,0.047005271901622125,1897,10.545800322454932,0.00445725032376489,10e9,47005271.901622124,10,1.0183878069509091
16,10.383353631364534,0.23246995927974348,1884,10.615823590644277,0.021898438429649416,10e9,232469959.2797435,10,3.4526073658362444
17,10.249972303759616,0.0674645334785564,1939,10.317436837238173,0.006538885048955208,10e9,67464533.4785564,10,7.112474338588552
18,9.90398670509787,0.1219074481543784,1995,10.025894153252247,0.012159259442693545,9e9,121907448.1543784,10,7.785798301919962
19,8.951703575317257,0.12135107762541708,2205,9.073054652942675,0.013374886658051722,8e9,121351077.62541708,10,1.2910375385058515
20,9.419656651347902,0.022762314273111612,2119,9.442418965621012,0.002410644386357683,9e9,22762314.27311161,10,4.182498038465739
21,10.666524606873837,0.08974533669734291,1860,10.75626994357118,0.008343537041015042,10e9,89745336.69734292,10,8.414363948427935
22,10.861744310599608,0.17964524762730882,1812,11.041389558226918,0.01627016660176214,10e9,179645247.62730882,10,1.2772136194911317
23,9.852147020444733,0.20044444896338784,1990,10.05259146940812,0.019939579716670777,9e9,200444448.96338785,10,3.237815617539869
24,10.076739100340635,0.1657768221185849,1953,10.24251592245922,0.016185166161673103,10e9,165776822.1185849,10,3.8540934063061925
25,9.694869239629059,0.15377956661849335,2031,9.848648806247551,0.015614280663652289,9e9,153779566.61849335,10,5.209263219600834
26,12.618454274321708,0.18947317684478152,1562,12.80792745116649,0.014793429894664584,12e9,189473176.84478152,10,5.377143365905727
27,11.266739511560651,0.011520626850349951,1774,11.278260138411001,0.001021489725273627,11e9,11520626.850349952,10,1.1451960492471023
28,10.151251240620203,0.1497967864350544,1942,10.301048027055257,0.014541897682800781,10e9,149796786.4350544,10,8.601295187854742
29,10.455281267365692,0.2408300066260258,1870,10.696111273991717,0.02251566017376983,10e9,240830006.6260258,10,1.756549874383859
30,9.282440195312299,0.11175741879561113,2129,9.39419761410791,0.011896430476167263,9e9,111757418.79561113,10,1.7329302518793388
31,9.92711375836456,0.02631613721407955,2010,9.95342989557864,0.002643926514795598,9e9,26316137.214079548,10,4.782613204132085
32,108.28989047464484,2.563613298481306,181,110.85350377312614,0.023126136849296364,108e9,2563613298.481306,100,98.8893881606979
33,99.57322157944373,1.2335592722986226,199,100.80678085174235,0.012236868014988316,99e9,1233559272.2986226,100,70.15709639415768
34,89.21618992942048,0.5159593166734733,223,89.73214924609395,0.005749993965467545,89e9,515959316.6734733,100,74.27245836995732
35,95.605310237631,1.8221585804726552,206,97.42746881810366,0.018702719085051993,95e9,1822158580.4726553,100,21.709011454320063
36,111.16445644881742,1.1547262162351042,179,112.31918266505252,0.010280756936049096,111e9,1154726216.235104,100,96.14649208628302
37,97.22441013756278,0.44225307713014306,205,97.66666321469293,0.004528188663085304,97e9,442253077.13014305,100,34.446966424208675
38,110.65492050517834,1.6614900353643425,179,112.31641054054268,0.014792941008069316,110e9,1661490035.3643425,100,66.80991740068329
39,109.55355590745583,0.37188476378308327,182,109.92544067123892,0.0033830636612620273,109e9,371884763.78308326,100,6.995505379170593
40,119.64218387888988,1.3085559696951308,166,120.95073984858502,0.010818916621206922,119e9,1308555969.6951308,100,28.840433820917173
41,87.5695992436417,1.4245167456670706,225,88.99411598930878,0.016006864384586993,87e9,1424516745.6670706,100,3.9421416606719273
42,104.65825114464296,2.2240153518937276,188,106.88226649653669,0.02080808561414435,104e9,2224015351.893728,100,91.02259122538125
43,102.15263791496835,1.506247740601886,193,103.65888565557024,0.014530811623874965,102e9,1506247740.601886,100,49.02379569407991
44,96.76750355692138,2.0386645475612153,203,98.8061681044826,0.020632968433766496,96e9,2038664547.5612154,100,55.99081229517343
45,89.02424411406659,0.29989676686891764,224,89.3241408809355,0.003357398838782728,89e9,299896766.86891764,100,53.21499377249251
46,102.40537203938194,0.7337191219794091,194,103.13909116136135,0.007113880040221645,102e9,733719121.9794091,100,91.34659555339783
47,101.62064319444295,0.06915726887581387,197,101.68980046331876,0.0006800806822387273,101e9,69157268.87581387,100,95.92942730601716
48,97.46171303201793,1.4987111168759242,203,98.96042414889385,0.015144550255979035,97e9,1498711116.875924,100,21.83499412967958
49,114.26512749889021,0.12804515739296576,175,114.39317265628317,0.0011193426532342334,114e9,128045157.39296576,100,106.33633307272508
50,77.01634228231208,1.4402241533363456,255,78.45656643564843,0.01835696129421678,77e9,1440224153.3363457,100,47.43917311881783
51,86.03577937742844,1.551476108967162,229,87.5872554863956,0.017713491538824885,86e9,1551476108.9671621,100,77.5957984607758
52,893.5419706913008,12.016000792120487,23,905.5579714834213,0.01326916792796459,893e9,12016000792.120487,1000,610.6951278746214
53,988.2166127420418,12.99831242521247,20,1001.2149251672543,0.012982539611104064,988e9,12998312425.21247,1000,902.524196143845
54,863.7275603049877,3.2260309998805905,24,866.9535913048683,0.00372111152458003,863e9,3226030999.8805904,1000,598.3683839661823
55,984.8280684855446,13.735466762656685,21,998.5635352482012,0.013755225659469551,984e9,13735466762.656685,1000,470.318627093434
56,1202.2385702494396,21.834552833866876,17,1224.0731230833064,0.01783762131699128,1202e9,21834552833.866875,1000,485.3821424855271
57,996.102640723476,19.52195456792447,20,1015.6245952914005,0.019221624464818402,996e9,19521954567.924473,1000,5.81465005389169
58,1067.1615854039233,20.646650479589667,19,1087.808235883513,0.018980046113385555,1067e9,20646650479.58967,1000,336.23028017738585
59,999.4493962029882,6.901262633492954,20,1006.3506588364811,0.006857711646427529,999e9,6901262633.492954,1000,255.56646744963209
60,972.8719437341144,23.703699569404325,21,996.5756433035187,0.023785148401610178,972e9,23703699569.404324,1000,168.94327067762904
