app_id,Tcomp,Tio,iter,witer,alpha_io,compute_size,io_size,mu,desyn_time
1,9.761906759069104,0.1639032108107311,2015,9.925809969879836,0.01651282981520906,9e9,163903210.81073108,10,2.1893166478414847
2,9.90593998174643,0.19180322371660763,1981,10.097743205463038,0.01899466245218427,9e9,191803223.71660763,10,6.571906298017476
3,11.517640337064178,0.04180565701092291,1731,11.5594459940751,0.003616579638189476,11e9,41805657.01092291,10,1.7763035092845738
4,10.094004551276946,0.1051581417398768,1961,10.199162693016822,0.010310468114394981,10e9,105158141.73987679,10,0.9189527012584732
5,10.269897154293993,0.10179986980442746,1929,10.37169702409842,0.009815160389654421,10e9,101799869.80442746,10,0.663782124520734
6,11.655302694156685,0.26245387060534875,1679,11.917756564762033,0.022022086890192263,11e9,262453870.60534874,10,9.067093519809234
7,11.151249791658927,0.11416188864846069,1776,11.265411680307388,0.010133840811873967,11e9,114161888.64846069,10,0.5044949537723091
8,10.184664847482697,0.12470555798826916,1940,10.309370405470967,0.012096331112721542,10e9,124705557.98826915,10,2.649090137284506
9,9.844414207368033,0.17760347601184653,1996,10.022017683379879,0.017721329339338242,9e9,177603476.01184654,10,4.073624714190264
10,10.760796273289479,0.18812292148213403,1827,10.948919194771612,0.01718187139165001,10e9,188122921.482134,10,2.5942483655063677
11,9.457516563944317,0.24388225055979598,2062,9.701398814504113,0.025138874838871575,9e9,243882250.55979598,10,4.596490302548361
12,9.877577086364578,0.17070112592585848,1991,10.048278212290437,0.016988097096780952,9e9,170701125.92585847,10,5.4728243856726255
13,10.089890754582429,0.17922194782498466,1948,10.269112702407414,0.01745252516149416,10e9,179221947.82498467,10,8.02388315669825
14,9.677055533307811,0.23591990675358931,2018,9.9129754400614,0.023799101307178064,9e9,235919906.7535893,10,5.809695673310411
15,10.076755919783423,0.06908787788053335,1972,10.145843797663957,0.006809475806875774,10e9,69087877.88053335,10,5.595893851551723
16,7.508435697107067,0.20498401800821836,2593,7.713419715115285,0.026574985619741382,7e9,204984018.00821835,10,2.536308893347496
17,10.5058124351179,0.08973768624940591,1888,10.595550121367305,0.008469374899981662,10e9,89737686.2494059,10,1.275053387415142
18,9.773665592851996,0.10161040095641197,2026,9.875275993808408,0.010289373281325967,9e9,101610400.95641197,10,8.61640136252492
19,10.717103053416627,0.04980365019516317,1858,10.76690670361179,0.0046256228985857555,10e9,49803650.19516317,10,0.1818850553447285
20,9.663828955574713,0.05716959776394522,2058,9.720998553338658,0.0058810416903426485,9e9,57169597.76394522,10,5.615742539348226
21,10.046284027627584,0.2780045475750243,1938,10.324288575202608,0.0269272352811553,10e9,278004547.5750243,10,7.140648049674075
22,10.435264410729957,0.16998560628170842,1886,10.605250017011665,0.016028439311570965,10e9,169985606.28170842,10,3.8473679761066215
23,9.565854757018684,0.24837710083914777,2038,9.814231857857832,0.025307849298494303,9e9,248377100.83914778,10,3.756541378489876
24,10.563637993777604,0.28764499156683304,1844,10.851282985344437,0.026507924634840103,10e9,287644991.566833,10,2.2632689469005585
25,10.094889813448718,0.2063312131348735,1942,10.301221026583592,0.02002978215906735,10e9,206331213.13487348,10,5.1524490100167375
26,9.986907034045942,0.02269025822290387,1999,10.009597292268845,0.002266850259843045,9e9,22690258.22290387,10,6.826565856460411
27,9.598163897660111,0.20724296882162713,2040,9.805406866481738,0.021135580771263564,9e9,207242968.82162714,10,5.014009463216964
28,8.062361081486824,0.017425467273000938,2476,8.079786548759824,0.0021566742101219983,8e9,17425467.273000937,10,5.403240114042863
29,9.242347576126404,0.015828735372996762,2161,9.258176311499401,0.0017097033843842654,9e9,15828735.372996762,10,9.044095172431865
30,11.334956991794169,0.22807993441701335,1730,11.563036926211183,0.019724916202593798,11e9,228079934.41701335,10,1.6247488804799006
31,9.242059662345172,0.0800465225340282,2146,9.3221061848792,0.008586742196078674,9e9,80046522.5340282,10,4.201926980340815
32,9.19672117223263,0.1443154906779161,2142,9.341036662910547,0.015449622551095872,9e9,144315490.6779161,10,8.717753351252563
33,110.7875554639541,0.5468407197515531,180,111.33439618370566,0.004911696101977746,110e9,546840719.7515532,100,28.43479523299913
34,101.05476322470113,0.2888135808803221,198,101.34357680558145,0.0028498459397617772,101e9,288813580.8803221,100,52.22162753507656
35,87.38375415221574,0.7020478097319534,228,88.0858019619477,0.007970045048068381,87e9,702047809.7319534,100,31.509309387790946
36,100.61861622596315,0.30309296196184615,199,100.921709187925,0.0030032484031504133,100e9,303092961.9618462,100,80.44257440087135
37,104.52832827144857,1.7685065183790911,189,106.29683478982767,0.01663743348403383,104e9,1768506518.379091,100,102.69910056909194
38,101.86240514921549,0.23034724801179765,196,102.09275239722729,0.0022562546567022872,101e9,230347248.01179764,100,67.00218828950929
39,111.7956538013485,0.006822275677484195,179,111.80247607702597,6.102079235511751e-05,111e9,6822275.677484195,100,85.92051628723799
40,91.81154184426772,0.7112170580486212,217,92.52275890231634,0.0076869417480245035,91e9,711217058.0486212,100,83.31290812647649
41,98.66590013246244,2.055303759668947,199,100.72120389213138,0.020405869670403268,98e9,2055303759.6689472,100,36.15588420987464
42,83.34857916165558,1.7097181775008305,236,85.05829733915641,0.020100545519781587,83e9,1709718177.5008307,100,53.9724894947035
43,99.83323229473368,0.14013196098004357,201,99.97336425571372,0.0014016929611532472,99e9,140131960.98004356,100,43.797812190919785
44,108.33582002995657,1.6379351542919165,182,109.97375518424847,0.014893873102248288,108e9,1637935154.2919166,100,43.67234912003015
45,100.60265012326033,1.133132871288518,197,101.73578299454886,0.01113799725067465,100e9,1133132871.288518,100,29.25482869469631
46,112.53399570063951,2.8713060501828513,174,115.40530175082236,0.02488019186832888,112e9,2871306050.1828513,100,114.92095063650136
47,107.7567802612262,1.9759641005613424,183,109.73274436178754,0.018007059898607954,107e9,1975964100.5613425,100,32.77205892448055
48,107.62575116311926,2.445708462734929,182,110.07145962585419,0.02221927892160401,107e9,2445708462.7349286,100,88.76119364807897
49,102.65719917281055,1.6027847092650205,192,104.25998388207557,0.015372961414207277,102e9,1602784709.2650204,100,35.01381814850874
50,103.4744316382693,2.793382797915881,189,106.26781443618518,0.026286254335204512,103e9,2793382797.915881,100,7.112421813545405
51,110.84356984305636,0.5725876337887676,180,111.41615747684513,0.0051391795118025385,110e9,572587633.7887677,100,57.35631333474774
52,94.75530725185095,0.8770710341468018,210,95.63237828599775,0.009171277028412252,94e9,877071034.1468017,100,22.193713228118803
53,1121.233345648848,16.32739844100091,18,1137.5607440898489,0.01435299040146142,1121e9,16327398441.00091,1000,384.23035333878437
54,1051.3389218044485,0.44877736365981236,20,1051.7876991681082,0.00042668055921814296,1051e9,448777363.65981233,1000,888.3980684257698
55,949.5522891094387,5.410372330150581,21,954.9626614395893,0.005665532851299695,949e9,5410372330.150581,1000,113.33570493071703
56,1048.65129776004,23.15355415875389,19,1071.804851918794,0.02160239722492704,1048e9,23153554158.75389,1000,43.265646792440336
57,1001.5843729621859,23.231929235576484,20,1024.8163021977623,0.02266935955815166,1001e9,23231929235.576485,1000,459.3230699033485
58,1082.6262798946702,3.5300453072983045,19,1086.1563252019685,0.003250034295608323,1082e9,3530045307.2983046,1000,357.44013763297244
59,939.0117348022562,23.09217009568036,21,962.1039048979366,0.024001742408612362,939e9,23092170095.68036,1000,230.34072907653916
60,1048.8477352473901,3.550414838877701,20,1052.3981500862678,0.0033736422271235123,1048e9,3550414838.877701,1000,475.6082327049969
