app_id,start_app,end_app,effective_cpu,effective_io,effective_iter,total_bytes,stretch,utilization,Tcomp,Tio,iterations,priority,group_id
app_1,0.137204,18922.1,7777.1,222.9,970.465,1.71676e+11,1.00644,0.96373,8,0.176803,2296,0.114799,1
app_10,3.02421,18218.3,7795.2,204.8,865.869,1.49885e+11,1.00691,0.96373,9,0.173078,1970,0.0984577,1.00001
app_11,6.98967,18669.4,7900.4,99.6,988.163,4.33515e+10,1.00708,0.96373,8,0.043878,2303,0.115117,1.00001
app_12,5.65107,19867.1,7920.7,79.3,792.95,1.77658e+10,1.00775,0.96373,10,0.0224033,1967,0.0983265,1.00001
app_13,62.7493,19946.5,7933.9,66.1,86.1078,3.57048e+10,1.00381,0.96373,92,0.415172,215,0.0107368,1.00001
app_14,13.284,19944.2,7970.1,29.9,71.0772,1.42069e+10,1.00197,0.96373,113,0.200097,176,0.00877361,1.00001
app_15,38.8521,20418.7,7689.4,310.6,75.4486,1.86594e+11,1.01574,0.96373,101,2.48792,192,0.00957484,1.00002
app_16,13.8297,20078.7,7963.4,36.6,74.4477,1.9982e+10,1.00208,0.96373,108,0.266427,185,0.00923404,1.00002
app_17,32.9095,19955.2,7889.7,110.3,71.97,6.27669e+10,1.00598,0.96373,109,0.871763,182,0.00907129,1.00002
app_18,81.4936,20204.1,7981.1,18.9,81.7388,8.0891e+09,1.00135,0.96373,97,0.0998655,206,0.0102531,1.00002
app_19,33.0427,20219.8,7711.03,288.971,82.2435,1.65627e+11,1.01566,0.96373,93,2.0155,209,0.0104471,1.00002
app_2,3.63994,18990.5,7903.9,96.1,880.651,5.62806e+10,1.005,0.96373,9,0.0639552,2086,0.104251,1
app_20,51.1002,20157.4,7801.8,198.2,82.2681,1.06246e+11,1.01163,0.96373,95,1.28007,207,0.0103091,1.00002
app_21,89.3586,20194.8,7802.5,197.5,70.2628,1.09565e+11,1.01111,0.96373,111,1.56521,177,0.00883107,1.00002
app_22,83.6955,20209,7730.89,269.113,75.6147,1.56173e+11,1.01432,0.96373,103,2.06282,190,0.00946577,1.00002
app_23,61.3335,20250,7752.2,247.8,89.6565,1.52103e+11,1.01211,0.96373,86,1.69004,227,0.0113139,1.00002
app_24,10.7843,19964.6,7928.1,71.9,77.2702,3.61135e+10,1.00449,0.96373,103,0.462993,193,0.00961188,1.00002
app_25,52.6807,20298.7,7671.3,328.7,79.4792,1.95565e+11,1.01692,0.96373,97,2.4755,201,0.010006,1.00003
app_26,18.9991,20171.9,7905.7,94.3,77.0376,4.82102e+10,1.00579,0.96373,103,0.626107,193,0.00962796,1.00003
app_27,59.2942,20240.2,7757.1,242.9,78.589,1.42516e+11,1.01271,0.96373,98,1.82713,199,0.00994985,1.00003
app_28,37.4645,20352.8,7693.4,306.6,69.4728,1.78558e+11,1.01627,0.96373,111,2.5878,176,0.00879253,1.00003
app_29,45.8455,20257.2,7767.9,232.1,73.3541,1.41445e+11,1.01146,0.96373,105,1.9376,186,0.00928844,1.00003
app_3,4.09915,18375.2,7716.7,283.3,857.498,2.1201e+11,1.00899,0.96373,9,0.247098,1968,0.0983676,1
app_30,61.8034,20136.8,7921.7,78.3,101.539,5.01136e+10,1.00354,0.96373,79,0.496174,252,0.012557,1.00003
app_31,71.2938,20123.7,7895.8,104.2,80.685,5.6147e+10,1.00604,0.96373,98,0.693173,202,0.0100904,1.00003
app_32,79.9021,19895.9,7985.8,14.2,90.5991,6.21386e+09,1.001,0.96373,88,0.0682842,225,0.0112463,1.00003
app_33,1116.79,22746.7,7541.4,458.6,6.52813,1.0801e+11,1.04583,0.96373,1129,18.0016,18,0.000871732,1.00003
app_34,697.362,21989.4,7654.8,345.2,8.92037,8.04257e+10,1.03423,0.96373,846,8.93619,24,0.00116863,1.00003
app_35,436.228,22475.5,7300.4,699.6,6.82957,1.84059e+11,1.06888,0.96373,1053,26.2942,19,0.000925713,1.00004
app_36,797.932,22191,7545.8,454.2,8.39641,1.18982e+11,1.04373,0.96373,908,14.8728,22,0.00108256,1.00004
app_37,21.5415,22046.8,7526.2,473.8,8.30135,1.60754e+11,1.04072,0.96373,885,20.0942,23,0.00110386,1.00004
app_38,536.111,22454.7,7468.8,531.2,7.37938,1.55049e+11,1.04934,0.96373,965,22.1499,21,0.00101254,1.00004
app_39,916.795,22755.8,7549.2,450.8,7.30939,1.48915e+11,1.03922,0.96373,1018,21.2736,20,0.000961378,1.00004
app_4,1.21836,19586.6,7921,79,789.638,4.37154e+09,1.00942,0.96373,10,0.00553359,1936,0.0967668,1
app_40,926.925,22334,7389.9,610.1,7.46697,1.30933e+11,1.06371,0.96373,992,16.3666,20,0.000991572,1.00004
app_41,772.282,22360.8,7550.7,449.3,7.60011,1.05348e+11,1.04493,0.96373,1016,13.1685,20,0.000971332,1.00004
app_42,685.854,22403.8,7374.6,625.4,7.46238,1.80973e+11,1.05882,0.96373,996,22.6217,20,0.000981005,1.00004
app_43,131.172,21518.2,7467,533,8.02376,1.77634e+11,1.04649,0.96373,939,22.2042,21,0.00103992,1.00004
app_44,939.791,23321.7,7651.54,348.459,6.78417,9.13009e+10,1.03321,0.96373,1096,13.2336,19,0.000901481,1.00004
app_45,814.301,22848.1,7453.6,546.4,6.9616,1.79369e+11,1.04808,0.96373,1071,25.6241,19,0.000911121,1.00004
app_46,612.115,21904.8,7665.9,334.1,7.4993,7.29105e+10,1.03375,0.96373,1033,9.11381,20,0.000958836,1.00005
app_47,60.2078,20553.9,7948.3,51.7,8.87131,1.52062e+10,1.00458,0.96373,880,1.68957,23,0.00113356,1.00005
app_48,208.576,21203.8,7547.7,452.3,8.18746,1.81891e+11,1.03498,0.96373,910,20.2101,22,0.00107428,1.00005
app_49,576.215,21326.9,7794.1,205.9,7.29597,5.79882e+10,1.01884,0.96373,1047,7.24852,19,0.000947873,1.00005
app_5,7.11873,19378.2,7919.2,80.8,720.753,5.10882e+10,1.00373,0.96373,11,0.0708574,1744,0.0871975,1.00001
app_50,711.242,22252.2,7586.5,413.5,7.35475,1.19275e+11,1.03818,0.96373,1010,14.9093,20,0.000975172,1.00005
app_51,329.225,22001.1,7496.1,503.9,8.50096,1.5455e+11,1.04566,0.96373,877,19.3188,23,0.00111556,1.00005
app_52,351.322,21506.9,7552.6,447.4,7.8234,1.0005e+11,1.04539,0.96373,954,12.5063,21,0.00103359,1.00005
app_53,741.075,22200.9,7273.8,726.2,8.27721,1.78482e+11,1.0735,0.96373,892,22.3102,22,0.00109298,1.00005
app_54,787.502,22622.2,7588.8,411.2,7.29345,1.68351e+11,1.03131,0.96373,1043,24.0502,19,0.000936939,1.00005
app_55,691.532,21828.5,7929.7,70.3,8.06863,8.69272e+09,1.00776,0.96373,992,1.08659,21,0.00100627,1.00005
app_56,646.107,22150.6,7454,546,7.67801,1.5327e+11,1.05163,0.96373,986,19.1587,20,0.000994408,1.00006
app_57,857.579,22868.4,7194.6,805.4,5.74426,1.74718e+11,1.08558,0.96373,1257,29.1196,16,0.00077722,1.00006
app_58,459.33,21981.4,7587.8,412.2,8.52011,1.55857e+11,1.0331,0.96373,884,17.3175,23,0.00110899,1.00006
app_59,130.78,20283.5,7834.4,165.6,7.44835,3.4371e+10,1.01668,0.96373,1050,4.29637,19,0.000947798,1.00006
app_6,5.28974,19916.2,7920.8,79.2,791.434,6.63692e+09,1.00915,0.96373,10,0.00837994,1969,0.0984001,1.00001
app_60,721.02,21740.3,7421.4,578.6,8.46919,1.36884e+11,1.05844,0.96373,909,17.1105,22,0.00107877,1.00006
app_7,8.68434,18370.9,7896.5,103.5,877.919,6.77805e+10,1.00448,0.96373,9,0.0771987,2015,0.100734,1.00001
app_8,7.19373,18369.7,7910.2,89.8,876.296,3.99338e+10,1.00627,0.96373,9,0.0455865,2015,0.100737,1.00001
app_9,1.11223,19965.3,7906.2,93.8,658.828,5.8635e+10,1.00442,0.96373,12,0.0889757,1643,0.0821162,1.00001
