app_id,start_app,end_app,effective_cpu,effective_io,effective_iter,total_bytes,stretch,utilization,Tcomp,Tio,iterations,priority,group_id
app_1,4.59443,19401.1,7822.6,177.4,868.488,1.09103e+11,1.00861,0.960804,9,0.125695,2108,0.105371,1
app_10,56.3231,20203.1,7794.1,205.9,85.539,1.18547e+11,1.01104,0.960804,92,1.37846,214,0.0106637,1.00001
app_11,60.0273,20392.9,7896.4,103.6,76.6681,6.18791e+10,1.00524,0.960804,102,0.803624,195,0.00970397,1.00001
app_12,41.9154,20174.7,7789.2,210.8,88.7319,1.22241e+11,1.01119,0.960804,88,1.37349,223,0.0111128,1.00001
app_13,68.765,20233.8,7670.8,329.2,75.7206,1.7967e+11,1.01905,0.960804,102,2.36408,191,0.0095029,1.00001
app_14,2.92582,20220.9,7793.7,206.3,74.5727,1.14705e+11,1.01158,0.960804,103,1.55007,190,0.00947984,1.00001
app_15,30.7285,20054.8,7948.1,51.9,98.0896,2.89276e+10,1.00288,0.960804,81,0.295179,246,0.012285,1.00002
app_16,59.4521,20390.5,7698.3,301.7,70.52,1.81805e+11,1.01521,0.960804,108,2.56064,180,0.00899141,1.00002
app_17,89.5201,20341.4,7699.9,300.1,88.3644,1.86882e+11,1.01436,0.960804,87,2.0998,223,0.0111252,1.00002
app_18,75.6882,20160.3,7832.2,167.8,68.8469,8.93852e+10,1.0099,0.960804,114,1.29544,173,0.00861297,1.00002
app_19,10.5329,20040.2,7813.3,186.7,82.0655,1.11813e+11,1.00945,0.960804,95,1.36357,206,0.0102963,1.00002
app_2,2.83512,19081.5,7921,79,790.57,2.20965e+10,1.00716,0.960804,10,0.0279702,1887,0.0943354,1
app_20,74.4393,20472.1,7721.1,278.9,73.2655,1.60112e+11,1.01507,0.960804,105,2.19331,187,0.00930325,1.00002
app_21,46.9695,20297.5,7679.4,320.6,78.5242,1.87564e+11,1.01691,0.960804,98,2.40466,198,0.00989449,1.00002
app_22,59.2082,20103.2,7903.2,96.8,79.642,5.60744e+10,1.00512,0.960804,100,0.709802,198,0.00986887,1.00002
app_23,0.0522937,20118.9,7731.9,268.1,82.7744,1.59205e+11,1.0138,0.960804,94,1.91813,207,0.0103405,1.00002
app_24,27.4613,20296.3,7799.9,200.1,93.4821,1.20555e+11,1.01004,0.960804,83,1.29629,237,0.0118424,1.00002
app_25,824.126,22820.5,7327.88,672.12,7.66477,1.88357e+11,1.06436,0.960804,941,24.0814,21,0.00103597,1.00003
app_26,946.8,22228.4,7500.17,499.833,7.79718,1.071e+11,1.05163,0.960804,945,13.5054,21,0.0010428,1.00003
app_27,764.033,23135.7,7341.3,658.7,7.22335,1.16412e+11,1.07272,0.960804,1015,16.6303,20,0.000968418,1.00003
app_28,781.047,23224.9,7338.9,661.096,6.93175,1.71059e+11,1.06525,0.960804,1076,26.6751,19,0.000906786,1.00003
app_29,880.676,21035.5,7880.7,119.3,8.83455,3.5698e+10,1.01056,0.960804,930,3.96645,22,0.00106989,1.00003
app_3,5.5766,19241.3,7868.5,131.5,875.735,8.40636e+10,1.00596,0.960804,9,0.0960727,2105,0.105236,1
app_30,888.524,21707.5,7860.1,139.9,8.98775,3.4605e+10,1.01334,0.960804,902,3.845,23,0.00110362,1.00003
app_31,511.33,21807.9,7967.5,32.5,8.2461,6.47982e+09,1.00326,0.960804,947,0.809977,22,0.0010544,1.00003
app_32,451.233,21267.4,7777.3,222.7,8.00166,7.61694e+10,1.01866,0.960804,958,9.52117,21,0.00103295,1.00003
app_33,507.069,22417.1,7507.4,492.6,7.64521,1.02181e+11,1.05131,0.960804,983,14.5972,21,0.00100209,1.00003
app_34,429.581,21531.8,7947,53,7.32961,2.15508e+10,1.00395,0.960804,1092,3.07868,19,0.000912896,1.00003
app_35,47.6011,21059.5,7890.7,109.3,6.80566,2.91318e+10,1.01012,0.960804,1139,4.8553,18,0.000874019,1.00004
app_36,759.008,22436.6,7642.9,357.1,6.79162,1.38517e+11,1.02809,0.960804,1110,23.0861,18,0.000882132,1.00004
app_37,357.613,21724.5,7374.4,625.6,8.10055,1.62166e+11,1.06149,0.960804,900,20.2707,22,0.00108606,1.00004
app_38,264.635,21005.9,7879.5,120.5,10.3669,3.70441e+10,1.01054,0.960804,749,3.70441,27,0.00132853,1.00004
app_39,769.528,21750.7,7752,248,7.09176,8.02977e+10,1.02141,0.960804,1134,11.4711,18,0.000872841,1.00004
app_4,5.5279,19329.7,7787.92,212.081,861.834,1.64097e+11,1.00603,0.960804,9,0.1905,2088,0.104369,1
app_40,221.201,21413.6,7770.2,229.8,8.9434,5.517e+10,1.02232,0.960804,862,6.13001,24,0.00115156,1.00004
app_41,691.911,23585.5,7129.35,870.651,6.64961,1.64581e+11,1.0968,0.960804,1049,25.578,19,0.000930449,1.00004
app_42,262.868,21008.4,7634.3,365.7,7.7096,8.42154e+10,1.03647,0.960804,1000,10.5269,20,0.000989127,1.00004
app_43,58.9902,21433.1,7436.6,563.4,7.31876,9.76421e+10,1.06182,0.960804,1001,13.9489,20,0.000985056,1.00004
app_44,240.369,20883.5,7811.9,188.1,8.60184,5.68989e+10,1.01667,0.960804,881,6.3221,23,0.00112592,1.00004
app_45,461.516,22001.5,7635.7,364.3,7.85782,7.7961e+10,1.03712,0.960804,975,9.74512,21,0.00101505,1.00004
app_46,913.758,22500.4,7519.68,480.322,7.42939,1.91739e+11,1.03742,0.960804,1042,26.0839,19,0.000935393,1.00005
app_47,112.999,21462.2,7448.36,551.642,6.64802,6.70109e+10,1.06449,0.960804,1106,10.0294,18,0.000895649,1.00005
app_48,68.9931,22198.3,7655.6,344.4,7.83815,7.07362e+10,1.03542,0.960804,984,8.84203,21,0.00100697,1.00005
app_49,708.522,21168.4,7778.3,221.7,8.87428,5.98104e+10,1.02065,0.960804,930,6.6456,22,0.00106737,1.00005
app_5,40.2921,20079.3,7963.5,36.5,66.939,1.6397e+10,1.00252,0.960804,120,0.244731,167,0.0083013,1.00001
app_50,356.265,22060.9,7643,357,7.54058,1.35219e+11,1.02851,0.960804,1032,19.3171,20,0.00095097,1.00005
app_51,547.727,22762.9,7469.3,530.7,6.77771,1.27926e+11,1.05302,0.960804,1087,18.2752,19,0.000904503,1.00005
app_52,765.256,21712.2,7718.2,281.8,7.80936,1.1728e+11,1.021,0.960804,986,14.66,20,0.000998946,1.00005
app_53,148.199,21854.4,7283,717,8.04086,1.54456e+11,1.07564,0.960804,921,19.307,22,0.00106328,1.00005
app_54,571.175,20948.3,7772.8,227.2,8.87758,5.08498e+10,1.02254,0.960804,909,5.64998,22,0.00109256,1.00005
app_55,87.6684,22035.5,7043.3,956.7,7.36574,1.78537e+11,1.10775,0.960804,977,25.5053,20,0.000996729,1.00005
app_56,371.903,21853.7,7547.8,452.2,6.63982,7.44052e+10,1.04957,0.960804,1137,10.6293,18,0.000871103,1.00006
app_57,582.839,21431,7861.5,138.5,8.47751,3.10237e+10,1.01362,0.960804,935,3.44708,22,0.00106509,1.00006
app_58,156.349,22611,7253,747,7.48557,1.67816e+11,1.07805,0.960804,945,23.9737,21,0.0010311,1.00006
app_59,744.126,21380.8,7867.7,132.3,8.16365,4.23034e+10,1.01138,0.960804,961,5.28793,21,0.00103489,1.00006
app_6,97.2184,20207.8,7885.56,114.442,78.923,7.01479e+10,1.00557,0.960804,100,0.891882,198,0.00989661,1.00001
app_60,509.395,22092.6,7493.3,506.7,8.42518,1.63899e+11,1.04477,0.960804,883,18.211,23,0.00110937,1.00006
app_7,71.0728,20380,7790.1,209.9,71.4614,1.17758e+11,1.01165,0.960804,108,1.65856,182,0.00909683,1.00001
app_8,77.0457,20203.3,7897.1,102.9,71.9622,5.57927e+10,1.00592,0.960804,110,0.774898,181,0.00902021,1.00001
app_9,24.2265,20361.8,7717.3,282.7,79.1281,1.63827e+11,1.01508,0.960804,97,2.07376,201,0.0100212,1.00001
