app_id,start_app,end_app,effective_cpu,effective_io,effective_iter,total_bytes,stretch,utilization,Tcomp,Tio,iterations,priority,group_id
app_1,7.05226,20710.8,7048.6,209.887,783.063,1.06782e+11,1.11804,0.92266,9,0.136376,2037,1,1
app_10,4.96697,21068.7,6969.8,360.314,772.824,1.94455e+11,1.11665,0.92266,9,0.251559,2055,1,1
app_11,3.20557,20355.9,7125.34,68.8714,788.409,1.58461e+10,1.12026,0.92266,9,0.0200949,2021,1,1
app_12,7.28439,21035.6,7034.5,233.075,781.066,1.17888e+11,1.11851,0.92266,9,0.150945,2067,1,1
app_13,7.65388,20994.3,7023.7,386.636,701.971,2.12136e+11,1.10561,0.92266,10,0.302188,1852,1,1
app_14,5.98723,21533.6,7114.45,190.744,712.167,9.49789e+10,1.10966,0.92266,10,0.133397,1935,1,1
app_15,6.06406,21346.9,6870.58,336.993,858.433,1.73861e+11,1.13565,0.92266,8,0.202461,2310,1,1
app_16,3.811,20504.3,6996.6,337.467,780.238,1.82714e+11,1.11431,0.92266,9,0.234249,1999,1,1
app_17,9.83916,20229.6,6985.6,343.253,773.02,1.86619e+11,1.11541,0.92266,9,0.241421,1966,1,1
app_18,2.16471,20613.8,7094.37,83.2162,788.949,2.61891e+10,1.12351,0.92266,9,0.033235,2042,1,1
app_19,6.0107,20161.8,7176.9,115.978,716.754,5.05855e+10,1.10689,0.92266,10,0.0706501,1811,1,1
app_2,8.91591,21281,7097.7,150.658,790.872,7.26534e+10,1.11571,0.92266,9,0.0918501,2114,1,1
app_20,6.22643,20876,7186.77,78.0428,718.816,2.33599e+10,1.10955,0.92266,10,0.0325346,1889,1,1
app_21,1.80215,21668.6,7018.2,359.167,702.509,2.00905e+11,1.10817,0.92266,10,0.286189,1920,1,1
app_22,7.92877,21205.9,7005.55,267.232,776.35,1.46546e+11,1.11855,0.92266,9,0.188848,2079,1,1
app_23,2.6501,21490.5,7119.6,368.258,646.028,2.03039e+11,1.0925,0.92266,11,0.314302,1752,1,1
app_24,5.23631,21880.6,7125.8,169.123,711.893,8.0023e+10,1.11021,0.92266,10,0.11255,1973,1,1
app_25,0.535494,21830.4,6850.62,379.288,856.586,2.07034e+11,1.13352,0.92266,8,0.241863,2365,1,1
app_26,8.79461,21535.9,7196.3,165.992,651.749,7.95134e+10,1.09953,0.92266,11,0.12214,1773,1,1
app_27,3.23695,21023.7,7076.93,182.172,784.976,8.33881e+10,1.11727,0.92266,9,0.106227,2078,1,1
app_28,1.11036,20103,7145.5,52.9666,793.654,3.96368e+09,1.11897,0.92266,9,0.00499833,2003,1,1
app_29,10.4278,21713.5,7268.3,78.5602,661.147,2.83604e+10,1.09639,0.92266,11,0.0429054,1808,1,1
app_3,0.589119,20278.9,7104.9,99.939,789.817,3.73641e+10,1.12009,0.92266,9,0.0473563,2012,1,1
app_30,7.20597,20551.8,7199.5,73.8695,717.513,2.14292e+10,1.10789,0.92266,10,0.0298873,1857,1,1
app_31,10.2059,20641.4,7511.8,394.045,79.4504,1.97451e+11,1.03771,0.92266,95,2.49938,205,1,2
app_32,7.68209,20318.7,7846.1,20.8319,82.5297,8.42903e+09,1.01852,0.92266,95,0.102793,210,1,2
app_33,113.116,20527.5,7714.4,217.303,65.3254,1.13262e+11,1.02202,0.92266,118,1.71609,167,1,2
app_34,35.629,20578,7765.6,116.543,75.4121,5.88885e+10,1.02243,0.92266,103,0.78518,193,1,2
app_35,86.9315,20498.3,7746.5,85.6075,83.2125,4.24699e+10,1.02709,0.92266,93,0.511686,213,1,2
app_36,39.4596,20627.3,7500.4,384.482,69.2804,1.91237e+11,1.04009,0.92266,108,2.77156,180,1,2
app_37,44.7576,20658.7,7647.19,246.379,85.0453,1.26685e+11,1.02909,0.92266,89,1.48355,220,1,2
app_38,85.733,20372.1,7797,135.49,75.8649,6.92332e+10,1.01701,0.92266,104,0.910964,190,1,2
app_39,95.7871,20674.1,7594,311.265,81.2534,1.55354e+11,1.03234,0.92266,94,1.91795,208,1,2
app_4,7.57427,21696.7,7037.2,101.987,877.73,3.46683e+10,1.13124,0.92266,8,0.0394855,2409,1,1
app_40,12.8726,20612.9,7619.1,259.043,88.2451,1.31242e+11,1.03221,0.92266,86,1.49139,228,1,2
app_41,37.6586,20755.3,7579.6,272.958,87.851,1.39839e+11,1.03634,0.92266,86,1.58908,229,1,2
app_42,88.2778,20587.7,7682.8,182.96,81.5825,9.26379e+10,1.02888,0.92266,94,1.14368,209,1,2
app_43,73.6549,20528.1,7787.8,65.5554,75.2142,3.10429e+10,1.02317,0.92266,105,0.413906,190,1,2
app_44,8.47498,20563.4,7516,365.11,83.028,1.88436e+11,1.03836,0.92266,90,2.27032,216,1,2
app_45,37.8989,20391,7871,6.4743,73.0308,1.1417e+09,1.01624,0.92266,108,0.0156398,186,1,2
app_46,95.2993,20647.1,7719.3,157.694,74.6745,8.30328e+10,1.02533,0.92266,103,1.1071,192,1,2
app_47,6.61747,20269.3,7787.6,87.3645,71.7339,4.65397e+10,1.02117,0.92266,110,0.646384,181,1,2
app_48,73.2844,20298.6,7811.9,73.9828,88.197,3.71842e+10,1.01923,0.92266,89,0.422547,222,1,2
app_49,0.142469,20583.4,7617.9,225.052,83.8819,1.18565e+11,1.03406,0.92266,91,1.41149,216,1,2
app_5,10.3205,20659,7148.7,274.029,649.78,1.42895e+11,1.09715,0.92266,11,0.219839,1686,1,1
app_50,109.292,20811,7673.4,224.979,66.0263,1.13455e+11,1.02737,0.92266,115,1.71902,172,1,2
app_51,789.593,21663.8,7692.1,296.459,6.94419,1.30919e+11,1.02262,0.92266,1122,18.7028,18,1,3
app_52,290.679,20559.9,7838.9,46.8423,9.73895,2.09677e+10,1.01783,0.92266,803,2.09677,25,1,3
app_53,820.057,22164.4,7513.3,359.95,7.32927,1.56627e+11,1.04303,0.92266,1027,19.5784,20,1,3
app_54,823.897,21691.9,7539.3,387.173,7.96616,1.68934e+11,1.03785,0.92266,955,21.1168,21,1,3
app_55,800.389,21509.6,7954.9,34.9708,7.0929,1.60857e+10,1.00364,0.92266,1122,2.29796,18,1,3
app_56,182.731,20686,7808.8,168.929,7.14631,6.78169e+10,1.01566,0.92266,1119,8.47711,18,1,3
app_57,174.349,21823,7429.6,334.142,7.54837,1.43571e+11,1.05636,0.92266,964,17.9464,21,1,3
app_58,378.798,21101.7,7817.3,138.353,8.45857,5.74783e+10,1.0159,0.92266,914,6.38648,22,1,3
app_59,780.095,22238.4,7668.11,319.042,6.6846,1.37382e+11,1.02492,0.92266,1136,21.8376,18,1,3
app_6,3.33086,20472.8,7191.19,204.667,657.153,1.02901e+11,1.09678,0.92266,11,0.156623,1687,1,1
app_60,735.185,21272.6,7643.2,169.5,7.30494,7.24714e+10,1.03685,0.92266,1045,9.05893,19,1,3
app_7,4.44132,20219.5,6843.23,395.601,855.834,2.15716e+11,1.13331,0.92266,8,0.252299,2171,1,1
app_8,0.217443,20898,7101,143.218,791.129,6.71334e+10,1.11605,0.92266,9,0.0848715,2072,1,1
app_9,7.49513,20647.1,7024.4,247.798,782.089,1.26056e+11,1.11881,0.92266,9,0.161197,2027,1,1
