app_id,start_app,end_app,effective_cpu,effective_io,effective_iter,total_bytes,stretch,utilization,Tcomp,Tio,iterations,priority,group_id
app_1,6.24576,28326.5,4382.93,108.524,547.001,8.00017e+10,1.79254,0.903583,8,0.146255,2321,1,1
app_10,28.9814,21792.1,7061,162.258,64.6265,1.59742e+11,1.10792,0.903583,109,2.49597,178,1,1
app_11,31.7564,22316.1,6966.06,163.425,78.0808,1.59153e+11,1.12277,0.903583,90,2.04042,218,1,1
app_12,21.0167,22079.1,7164.6,40.3159,67.6526,3.67647e+10,1.1109,0.903583,106,0.548727,188,1,1
app_13,10.0522,22587.6,7009.7,9.50839,76.6245,5.68651e+09,1.14035,0.903583,92,0.0738508,217,1,1
app_14,12.4576,22296.7,7018.9,46.1956,79.076,4.19997e+10,1.133,0.903583,89,0.531642,222,1,1
app_15,61.9605,22169.4,6911.3,195.127,74.7404,1.91154e+11,1.12637,0.903583,93,2.54872,208,1,1
app_16,6.60355,22179.9,7038.72,127.888,68.1517,1.24424e+11,1.11683,0.903583,103,1.82976,191,1,1
app_17,35.6979,22317.2,7063.7,77.5814,67.6734,7.37632e+10,1.12085,0.903583,104,1.10094,190,1,1
app_18,66.1999,22397.1,7033.3,29.8125,77.1112,2.53033e+10,1.13337,0.903583,91,0.328615,218,1,1
app_19,44.6213,22256.7,6940.76,194.074,73.2243,1.90387e+11,1.12184,0.903583,95,2.5728,204,1,1
app_2,5.34284,27459.5,4587.27,57.4677,460.007,4.07855e+10,1.72859,0.903583,10,0.0886642,1846,1,1
app_20,61.6289,22121.8,7142.5,64.0482,66.6711,6.01135e+10,1.11071,0.903583,107,0.910811,185,1,1
app_21,23.423,22184.5,7026.9,179.611,68.9853,1.76552e+11,1.11058,0.903583,102,2.55872,191,1,1
app_22,1.39614,21817.8,7171.32,159.435,63.7581,1.56735e+11,1.09169,0.903583,113,2.48786,173,1,1
app_23,106.117,22231.8,7281.2,65.1564,65.634,6.22776e+10,1.0894,0.903583,110,0.958117,181,1,1
app_24,39.2115,21933.1,7210.1,139.393,60.3248,1.36987e+11,1.08887,0.903583,120,2.28311,163,1,1
app_25,71.045,22606.8,6926.6,23.9715,67.3838,2.05164e+10,1.15156,0.903583,103,0.306215,194,1,1
app_26,26.1712,22283.4,7108.7,56.9872,70.8277,5.32309e+10,1.11702,0.903583,101,0.749731,197,1,1
app_27,72.1667,21074.3,7844.59,102.38,8.79078,1.01988e+11,1.00672,0.903583,889,12.7485,23,1,1
app_28,165.779,21484.8,7787.3,118.057,6.77613,1.17623e+11,1.01203,0.903583,1151,16.8033,18,1,1
app_29,200.506,20455.4,7725,225.854,7.46233,2.25517e+11,1.00622,0.903583,1033,28.1897,19,1,1
app_3,2.17756,27579.6,4368.56,117.119,544.999,9.46764e+10,1.79242,0.903583,8,0.173718,2230,1,1
app_30,414.147,21963.5,7722.7,189.408,6.60127,1.89126e+11,1.01114,0.903583,1137,27.018,18,1,1
app_31,275.873,21126,7776,182.892,8.89833,1.82583e+11,1.0052,0.903583,875,20.287,23,1,1
app_32,966.753,21541.5,7777.4,153.129,7.17591,1.5276e+11,1.00881,0.903583,1048,21.8228,19,1,1
app_33,999,22385.3,7882.5,40.0702,7.47189,3.97877e+10,1.00981,0.903583,1027,4.97346,20,1,1
app_34,980.85,22113,7822.5,75.3242,7.2924,7.50097e+10,1.01298,0.903583,1091,10.7157,19,1,1
app_35,279.711,21308.8,7693.4,192.213,7.47878,1.91989e+11,1.01453,0.903583,1024,23.9986,20,1,1
app_36,686.794,21228.3,7924.8,25.399,8.78373,2.4946e+10,1.00632,0.903583,933,2.77178,22,1,1
app_37,789.713,21738.9,7892,54.5737,7.6785,5.41504e+10,1.00678,0.903583,1042,6.7688,20,1,1
app_38,716.113,21971.9,7919.1,14.5068,7.48241,1.41505e+10,1.00841,0.903583,1035,2.0215,20,1,1
app_39,344.196,20919.2,7735.4,163.661,8.83379,1.63349e+11,1.01282,0.903583,904,18.1499,22,1,1
app_4,7.45071,27866.4,4368.96,120.638,549.001,9.88627e+10,1.79058,0.903583,8,0.180078,2268,1,1
app_40,524.058,21785,7842.3,64.7403,7.0639,6.43488e+10,1.01181,0.903583,1068,9.19269,19,1,1
app_41,528.775,21451.9,7822.7,18.3236,6.81813,1.79896e+10,1.02032,0.903583,1124,2.56995,18,1,1
app_42,313.87,21768.1,7934.4,8.46681,7.00028,7.95245e+09,1.00726,0.903583,1096,1.13606,19,1,1
app_43,297.274,21061,7746.9,192.772,8.10883,1.92277e+11,1.00766,0.903583,935,24.0347,21,1,1
app_44,61.6077,21021.7,7703.6,132.004,8.20253,1.31793e+11,1.02101,0.903583,907,16.4742,22,1,1
app_45,903.5,21893.6,7835.4,100.681,7.23966,1.00161e+11,1.00812,0.903583,1089,12.5201,19,1,1
app_46,609.688,21441.9,7711.47,149.602,8.9844,1.49194e+11,1.01773,0.903583,865,17.8857,23,1,1
app_47,824.532,21519.7,7715.7,172.7,8.36003,1.72226e+11,1.01421,0.903583,967,21.5282,21,1,1
app_48,902.831,21333.6,7777.7,90.5406,8.39687,8.99862e+10,1.01682,0.903583,963,11.2483,21,1,1
app_49,105.248,20654.8,7783.4,175.855,7.7623,1.75494e+11,1.00516,0.903583,1000,21.9368,20,1,1
app_5,6.49563,27500.1,4441.54,148.715,493.992,1.23818e+11,1.75233,0.903583,9,0.250644,1987,1,1
app_50,767.853,21603.6,7892.5,15.8615,7.46423,1.54047e+10,1.01165,0.903583,1013,2.20067,20,1,1
app_51,22.1637,20560.7,7829.9,41.5791,8.24724,4.1003e+10,1.0164,0.903583,951,5.12538,21,1,1
app_52,85.1241,20956.5,7711.5,197.489,7.74471,1.96952e+11,1.01158,0.903583,1000,24.619,20,1,1
app_53,177.579,20859.4,7832.1,149.253,6.79777,1.48994e+11,1.00237,0.903583,1117,24.8324,18,1,1
app_54,218.495,20551.5,7943.9,15.3012,7.93733,1.49013e+10,1.00518,0.903583,1012,1.86266,20,1,1
app_55,898.039,21917.8,7734.62,98.1019,7.79836,9.78097e+10,1.02139,0.903583,973,13.0009,21,1,1
app_56,159.033,21593.6,7892.5,21.8559,7.30348,2.1539e+10,1.01086,0.903583,1047,3.07701,20,1,1
app_57,608.299,20628.9,7781.2,122.882,9.97061,1.22213e+11,1.01222,0.903583,790,12.2213,25,1,1
app_58,882.676,22145.7,7940.2,20.0994,6.79729,1.96704e+10,1.00504,0.903583,1158,2.81005,18,1,1
app_59,859.633,21157.6,7813.4,106.559,7.87582,1.06372e+11,1.01013,0.903583,990,15.196,20,1,1
app_6,9.20518,28422.8,4665.66,28.4613,425,4.36696e+07,1.71464,0.903583,11,0.000102752,1792,1,1
app_60,509.89,20356.1,7884.3,88.8725,8.18487,8.85265e+10,1.00341,0.903583,993,11.0658,20,1,1
app_7,87.4567,22047.7,7242.9,57.4305,64.0911,5.47273e+10,1.09625,0.903583,113,0.855114,176,1,1
app_8,57.3065,22386.8,6987.42,52.8268,77.0383,4.88825e+10,1.13696,0.903583,91,0.634837,218,1,1
app_9,63.2996,22349.1,6967,133.55,74.6871,1.29312e+11,1.12735,0.903583,94,1.72416,208,1,1
