app_id,start_app,end_app,effective_cpu,effective_io,effective_iter,total_bytes,stretch,utilization,Tcomp,Tio,iterations,priority,group_id
app_1,8.26568,23116.1,6072.4,166.406,762.666,1.29843e+11,1.28986,0.852937,8,0.170175,2275,1,1
app_10,1.57461,23434.5,5949.7,169.932,851.932,1.28683e+11,1.31614,0.852937,7,0.151036,2591,1,1
app_11,7.54754,23270.6,6279.5,100.533,628.842,6.73334e+10,1.26047,0.852937,10,0.107048,1887,1,1
app_12,0.584947,24216.3,6225.6,87.6474,691.093,5.70841e+10,1.27334,0.852937,9,0.0826109,2176,1,1
app_13,0.68468,23955.2,6225.4,128.837,694.921,9.05099e+10,1.26664,0.852937,9,0.13023,2155,1,1
app_14,4.58004,22979.6,6284.7,107.617,625.478,7.37516e+10,1.25817,0.852937,10,0.118003,1851,1,1
app_15,5.03324,23803.4,6208.2,113.446,689.831,7.53255e+10,1.27317,0.852937,9,0.109167,2128,1,1
app_16,6.84014,22912.6,6291.66,84.8315,630.78,5.60672e+10,1.26029,0.852937,10,0.0888545,1855,1,1
app_17,1.21503,23447.6,6374.05,139.471,582.848,1.1535e+11,1.23278,0.852937,11,0.197856,1755,1,1
app_18,4.1177,22705.6,6249.5,62.5941,694.76,2.51627e+10,1.27497,0.852937,9,0.0362053,2026,1,1
app_19,5.59489,23627.4,6421.9,106.395,538.945,7.77265e+10,1.23084,0.852937,12,0.144205,1635,1,1
app_2,1.83453,23322.4,6201.2,115.492,685.343,7.93941e+10,1.27376,0.852937,9,0.115904,2071,1,1
app_20,3.52672,24057.3,6252.9,48.4341,697.06,1.08514e+10,1.27719,0.852937,9,0.0155687,2172,1,1
app_21,0.615729,24396.7,6257.8,58.7403,694.039,2.10941e+10,1.27411,0.852937,9,0.030395,2202,1,1
app_22,7.75126,22675.9,6147.1,176.243,683.436,1.38244e+11,1.2728,0.852937,9,0.202408,1990,1,1
app_23,1.81507,23452.1,6166.91,185.12,684.719,1.47592e+11,1.26692,0.852937,9,0.215463,2077,1,1
app_24,3.07342,22973.4,6177.6,191.282,684.791,1.53364e+11,1.26363,0.852937,9,0.223889,2023,1,1
app_25,5.19323,23542.5,6244.2,87.6396,690.956,5.58753e+10,1.26983,0.852937,9,0.0808615,2100,1,1
app_26,5.75435,23557.8,6135.58,103.109,768.262,7.16129e+10,1.28883,0.852937,8,0.0931247,2342,1,1
app_27,6.57267,24076.3,6254.3,73.2284,696.933,3.83559e+10,1.27132,0.852937,9,0.05503,2171,1,1
app_28,1.33845,22460.9,6276.5,151.174,627.351,1.25218e+11,1.24966,0.852937,10,0.199392,1799,1,1
app_29,2.51808,23299.9,6203.37,142.291,692.849,1.07694e+11,1.26761,0.852937,9,0.15556,2073,1,1
app_3,0.242399,23514.4,6302,68.9302,629.602,3.7885e+10,1.26185,0.852937,10,0.060135,1915,1,1
app_30,9.70114,23214.5,6270.7,121.725,628.708,8.79409e+10,1.25813,0.852937,10,0.140033,1875,1,1
app_31,9.35116,24267,6311,70.4362,628.743,4.11761e+10,1.25941,0.852937,10,0.0654628,1984,1,1
app_32,1.37144,23878.6,6099.2,138.086,760.171,9.63146e+10,1.29126,0.852937,8,0.12673,2367,1,1
app_33,3.35639,23475.7,6168.06,185.395,684.13,1.48111e+11,1.26659,0.852937,9,0.21622,2073,1,1
app_34,0.311501,23129.1,5956.8,153.412,849.108,1.08404e+11,1.319,0.852937,7,0.127684,2552,1,1
app_35,1.46972,23885.1,6253.16,171.973,623.816,1.39063e+11,1.25152,0.852937,10,0.222857,1932,1,1
app_36,83.5649,20579.3,7562.1,163.764,79.0558,1.59479e+11,1.03606,0.852937,96,2.01872,203,1,1
app_37,11.3024,20657.2,7692.3,38.4013,78.9835,3.40075e+10,1.03542,0.852937,98,0.430475,203,1,1
app_38,52.4827,20647.4,7641.9,15.8019,75.4393,1.17729e+10,1.04525,0.852937,102,0.154907,195,1,1
app_39,92.0888,20486.5,7642.2,145.115,74.3091,1.40982e+11,1.02786,0.852937,102,1.90517,191,1,1
app_4,4.54097,23549.8,6359,90.5373,579.593,5.9264e+10,1.24644,0.852937,11,0.102179,1763,1,1
app_40,64.7093,20643.7,7571.85,131.081,81.2168,1.26615e+11,1.03917,0.852937,92,1.54811,212,1,1
app_41,110.104,20748.8,7538.2,179.435,69.7285,1.75778e+11,1.03708,0.852937,108,2.51112,181,1,1
app_42,11.0843,20672.6,7691.5,93.0205,73.1496,8.91911e+10,1.02819,0.852937,105,1.2218,189,1,1
app_43,75.0525,20931.8,7614.5,57.9258,81.6349,5.37773e+10,1.04326,0.852937,93,0.65582,213,1,1
app_44,44.9781,20546.8,7551.7,159.861,74.6143,1.56833e+11,1.03781,0.852937,101,2.09111,193,1,1
app_45,56.9534,20660.9,7675.1,63.7092,97.2853,5.83369e+10,1.03447,0.852937,78,0.601412,253,1,1
app_46,83.6225,20770.9,7614.6,86.3728,84.0508,8.27991e+10,1.03931,0.852937,90,0.985704,218,1,1
app_47,100.061,20627.8,7650,145.232,76.8359,1.41412e+11,1.02677,0.852937,100,1.83652,197,1,1
app_48,48.4705,20735.3,7481.6,185.232,78.625,1.81688e+11,1.04394,0.852937,95,2.29985,205,1,1
app_49,15.0071,20501.7,7582.8,179.862,71.2228,1.7676e+11,1.03099,0.852937,106,2.48958,184,1,1
app_5,0.988597,23482.2,6376.34,75.4449,581.017,4.89405e+10,1.24508,0.852937,11,0.0840902,1759,1,1
app_50,38.6472,20595.9,7637.6,105.055,75.5317,1.0148e+11,1.03371,0.852937,101,1.33526,194,1,1
app_51,32.291,20659.8,7718.2,54.5807,77.0688,5.02144e+10,1.02981,0.852937,101,0.652135,196,1,1
app_52,66.5143,20765.8,7684,65.8388,79.6493,6.23428e+10,1.03275,0.852937,97,0.78915,204,1,1
app_53,93.5914,20768.2,7573.6,186.165,79.4484,1.82149e+11,1.03149,0.852937,95,2.30568,206,1,1
app_54,62.191,20772,7682.7,44.2662,76.5611,4.05818e+10,1.03583,0.852937,101,0.527036,196,1,1
app_55,81.4324,20543.4,7555.7,164.123,75.4676,1.60014e+11,1.03685,0.852937,101,2.10545,193,1,1
app_56,692.95,20794,7926.1,39.6186,7.64672,3.92271e+10,1.00435,0.852937,1053,4.90339,19,1,1
app_57,40.3603,19724.7,7818.8,166.922,7.61883,1.66418e+11,1.00185,0.852937,1033,20.8022,19,1,1
app_58,249.806,20229.4,7805.7,178.874,8.26973,1.78388e+11,1.00199,0.852937,961,22.2985,21,1,1
app_59,690.359,21091.8,7829.3,151.816,7.32995,1.51439e+11,1.00241,0.852937,1039,18.9299,19,1,1
app_6,5.45656,23065.1,6091.3,142.365,761.062,1.00751e+11,1.29198,0.852937,8,0.132392,2265,1,1
app_60,450.707,21922.9,7920.7,62.7467,6.22463,6.22893e+10,1.00213,0.852937,1219,10.3816,17,1,1
app_7,9.5086,23032.6,6252.05,159.253,627.095,1.25734e+11,1.25435,0.852937,10,0.200213,1855,1,1
app_8,6.13737,23235.1,6099.9,137.138,761.558,9.56338e+10,1.29125,0.852937,8,0.125669,2293,1,1
app_9,9.82665,23617.2,6307.6,55.0203,627.975,2.13594e+10,1.26403,0.852937,10,0.0340118,1920,1,1
