app_id,start_app,end_app,effective_cpu,effective_io,effective_iter,total_bytes,stretch,utilization,Tcomp,Tio,iterations,priority,group_id
app_1,5.34228,19405.4,7840.2,136.012,714.939,7.66688e+10,1.0105,0.969584,11,0.107229,1728,0.1,1
app_10,5.32502,18720.7,7857.1,108.638,980.374,8.52083e+10,1.00726,0.969584,8,0.0868586,2298,0.1,1
app_11,4.29144,19763.8,7894.8,75.6648,790.155,2.77308e+10,1.00978,0.969584,10,0.0351023,1951,0.1,1
app_12,5.88821,18537.2,7743,235.814,774.693,2.01384e+11,1.007,0.969584,10,0.260186,1794,0.1,1
app_13,8.74631,19662.3,7887.1,83.129,877.36,2.53521e+10,1.01106,0.969584,9,0.0289078,2153,0.1,1
app_14,1.1517,18387.8,7746.6,214.078,1107.63,1.31713e+11,1.01545,0.969584,7,0.118874,2543,0.1,1
app_15,3.96034,19213.2,7768.6,201.425,862.506,1.61245e+11,1.00885,0.969584,9,0.187059,2073,0.1,1
app_16,0.0234096,19855.2,7889.7,77.7245,789.293,3.16792e+10,1.00993,0.969584,10,0.0401511,1961,0.1,1
app_17,83.4931,20431.3,7743.5,232.914,68.7409,1.73213e+11,1.01052,0.969584,111,2.51033,176,0.01,2
app_18,72.2648,20062.4,7912.1,36.8262,95.2832,2.43425e+10,1.00801,0.969584,83,0.256236,238,0.01,2
app_19,58.8397,20378.6,7772.1,187.66,69.3578,1.38224e+11,1.01134,0.969584,112,2.00325,176,0.01,2
app_2,2.20359,19723.7,7882.1,90.6533,877.298,5.44021e+10,1.008,0.969584,9,0.062032,2161,0.1,1
app_20,50.7918,20267,7798.5,164.938,79.0853,1.18192e+11,1.01052,0.969584,99,1.4961,199,0.01,2
app_21,12.0441,20013.5,7915.37,40.7727,85.652,2.6081e+10,1.00737,0.969584,93,0.303268,213,0.01,2
app_22,33.5201,20076.2,7889.2,51.253,78.055,3.58947e+10,1.00945,0.969584,101,0.460189,196,0.01,2
app_23,88.8596,19996.5,7907.6,49.2657,68.7396,3.25388e+10,1.00754,0.969584,116,0.478512,171,0.01,2
app_24,61.6795,20194.9,7858.15,103.312,76.1777,7.67889e+10,1.0082,0.969584,104,1.00727,190,0.01,2
app_25,13.2223,20197.1,7869.1,90.5425,83.5735,6.4597e+10,1.00836,0.969584,94,0.769012,211,0.01,2
app_26,79.8599,20195.8,7864.2,93.4007,82.6267,6.94669e+10,1.00836,0.969584,95,0.836951,207,0.01,2
app_27,4.4728,20248.5,7801.8,167.091,90.319,1.25307e+11,1.0092,0.969584,86,1.377,229,0.01,2
app_28,17.3469,19997.5,7871.5,101.329,76.1754,7.30526e+10,1.00698,0.969584,105,0.961219,188,0.01,2
app_29,48.7226,20239.2,7761.8,200.575,81.9964,1.48712e+11,1.01131,0.969584,94,1.81357,208,0.01,2
app_3,3.99015,19738.9,7743.7,231.6,773.348,1.82373e+11,1.00933,0.969584,10,0.235929,1910,0.1,1
app_30,78.9303,20221.4,7820.4,140.807,71.8912,1.05539e+11,1.00934,0.969584,109,1.46582,181,0.01,2
app_31,108.781,20028.5,7965.9,13.3098,67.7167,6.69518e+09,1.00344,0.969584,119,0.0984585,168,0.01,2
app_32,58.2454,20169.5,7772.9,198.429,84.6047,1.50947e+11,1.00961,0.969584,92,1.77584,213,0.01,2
app_33,90.1081,20326.5,7741.1,231.75,66.2767,1.71896e+11,1.011,0.969584,116,2.60449,169,0.01,2
app_34,29.5025,20207.1,7712.4,258.66,60.5092,1.96671e+11,1.0115,0.969584,127,3.27785,153,0.01,2
app_35,23.2065,20176.5,7795,165.167,82.3369,1.2222e+11,1.01046,0.969584,95,1.47253,207,0.01,2
app_36,78.7133,20276.7,7853.9,126.131,81.6314,9.12664e+10,1.0069,0.969584,96,1.113,206,0.01,2
app_37,152.844,21641.2,7664.4,223.204,8.57047,1.23729e+11,1.0272,0.969584,889,15.4662,23,0.001,3
app_38,338.796,20229.5,7760.1,147.826,10.431,9.65154e+10,1.01825,0.969584,760,9.65154,26,0.001,3
app_39,130.916,21100.1,7598.9,316.819,8.28972,1.84464e+11,1.02783,0.969584,908,23.058,22,0.001,3
app_4,2.845,19619.4,7820.5,153.467,782.491,1.00421e+11,1.00998,0.969584,10,0.128416,1917,0.1,1
app_40,772.547,22609,7637.8,154.588,6.99636,8.8966e+10,1.03536,0.969584,1088,12.7094,19,0.001,3
app_41,525.465,21767.8,7676.39,196.703,7.67255,1.03831e+11,1.02825,0.969584,1036,13.353,20,0.001,3
app_42,19.2665,20997.2,7618.7,193.585,6.85931,1.11969e+11,1.03484,0.969584,1109,18.6616,18,0.001,3
app_43,545.552,21368.9,7754.8,151.647,8.14215,9.78927e+10,1.01876,0.969584,940,12.2366,21,0.001,3
app_44,323.655,21058,7879.4,73.1483,7.79078,3.81158e+10,1.01042,0.969584,1019,4.76447,20,0.001,3
app_45,880.303,21588,7808.41,7.61736,7.36495,3.92648e+09,1.02402,0.969584,1079,0.53412,19,0.001,3
app_46,632.102,21313.4,7596.5,278.389,8.28325,1.64636e+11,1.03078,0.969584,891,18.2929,22,0.001,3
app_47,537.692,21943.9,7564.6,157.731,7.34546,9.16792e+10,1.04489,0.969584,1035,13.097,20,0.001,3
app_48,496.758,21427.7,7731.5,240.518,8.0865,1.35401e+11,1.01692,0.969584,944,16.9252,21,0.001,3
app_49,356.878,21245.9,7611.4,300.114,7.82092,1.65281e+11,1.02872,0.969584,1005,23.6115,20,0.001,3
app_5,1.09829,19156.1,7884.7,79.6222,788.939,3.68394e+10,1.0099,0.969584,10,0.0466913,1887,0.1,1
app_50,241.911,21053.2,7557.4,346.038,8.3726,1.91082e+11,1.03246,0.969584,908,21.2313,22,0.001,3
app_51,607.905,21404.6,7566.2,144.726,8.36438,7.27197e+10,1.04727,0.969584,906,8.07997,22,0.001,3
app_52,12.0143,21269.3,7676.1,119.342,7.64501,7.47385e+10,1.03215,0.969584,982,9.34231,21,0.001,3
app_53,455.819,21184,7880.8,73.3199,6.95074,4.55668e+10,1.00929,0.969584,1119,6.50954,18,0.001,3
app_54,1025.16,22133.8,7506.3,328.294,6.43972,1.77436e+11,1.04116,0.969584,1169,29.5726,17,0.001,3
app_55,922.121,22171.2,7425.84,286.627,7.87507,1.44392e+11,1.05677,0.969584,962,18.0489,21,0.001,3
app_56,842.282,22384.8,7588.8,293.652,7.14481,1.68463e+11,1.03129,0.969584,1065,24.0662,19,0.001,3
app_57,666.387,22190.3,7560.5,305.498,8.79851,1.70624e+11,1.03478,0.969584,868,18.9582,23,0.001,3
app_58,382.31,21788.8,7528.11,284.261,7.19859,1.67845e+11,1.03951,0.969584,1083,20.9807,19,0.001,3
app_59,132.86,21014.2,7559.5,269.391,8.2964,1.52523e+11,1.03734,0.969584,953,16.947,21,0.001,3
app_6,5.34494,19373.8,7816.2,155.443,779.469,1.06796e+11,1.00972,0.969584,10,0.136918,1893,0.1,1
app_60,754.131,21625.7,7776.6,208.367,7.34452,1.19457e+11,1.01316,0.969584,1067,14.9321,19,0.001,3
app_7,1.13465,19037.7,7795,182.508,779.817,1.44775e+11,1.00759,0.969584,10,0.185847,1852,0.1,1
app_8,1.29465,19636.7,7789.7,181.12,865.875,1.53573e+11,1.00714,0.969584,9,0.177336,2119,0.1,1
app_9,8.47166,19306.1,7885.9,79.5693,876.389,1.64015e+10,1.01236,0.969584,9,0.0187018,2117,0.1,1
