app_id,start_app,end_app,effective_cpu,effective_io,effective_iter,total_bytes,stretch,utilization,Tcomp,Tio,iterations,priority,group_id
app_1,5.25979,18718.6,7872.5,127.5,984.986,5.89577e+10,1.00864,0.964862,8,0.0598555,2303,0.115115,1
app_10,3.91523,19784.1,7765.3,234.7,970.483,1.24053e+11,1.01402,0.964862,8,0.12789,2400,0.119967,1.00001
app_11,7.82471,19938.1,7811.9,188.1,780.937,8.90599e+10,1.01254,0.964862,10,0.114033,1946,0.0972859,1.00001
app_12,3.7939,17867.4,7726.5,273.5,1104.34,1.55604e+11,1.01496,0.964862,7,0.140946,2466,0.123256,1.00001
app_13,8.09862,20178.9,7682.8,317.2,852.338,1.88552e+11,1.01634,0.964862,9,0.221305,2151,0.1075,1.00001
app_14,0.695205,19294.7,7898.4,101.6,990.077,3.44066e+10,1.00847,0.964862,8,0.034719,2384,0.119155,1.00001
app_15,3.28997,18898.6,7661.2,338.8,1093.9,2.08384e+11,1.01657,0.964862,7,0.190479,2585,0.129228,1.00002
app_16,5.60098,19203.5,7804.1,195.9,780.403,9.24045e+10,1.01311,0.964862,10,0.118316,1878,0.0938592,1.00002
app_17,0.503671,19885.8,7901.1,98.9,877.894,3.76688e+10,1.00771,0.964862,9,0.042903,2183,0.109127,1.00002
app_18,7.79098,18588.7,7797,203,867.931,9.32671e+10,1.01391,0.964862,9,0.107451,2013,0.100623,1.00002
app_19,3.9697,19312.7,7624.7,375.3,849.403,2.29518e+11,1.01856,0.964862,9,0.270021,2047,0.102308,1.00002
app_2,9.04895,18932.6,7761.2,238.8,774.948,1.38421e+11,1.01271,0.964862,10,0.178608,1833,0.0916178,1
app_20,6.93444,18672.2,7673.8,326.2,853.18,1.78536e+11,1.01881,0.964862,9,0.209303,1991,0.0995288,1.00002
app_21,1.52552,19836.6,7756.2,243.8,775.415,1.40039e+11,1.01314,0.964862,10,0.180462,1924,0.096158,1.00002
app_22,91.4891,20046.7,7906.4,93.6,75.943,4.40722e+10,1.00623,0.964862,104,0.579898,190,0.00948814,1.00002
app_23,21.7044,20473.9,7665.6,334.4,75.629,1.51287e+11,1.02343,0.964862,102,2.01717,192,0.00955255,1.00002
app_24,34.871,20168,7879,121,75.623,5.82612e+10,1.0079,0.964862,104,0.766595,191,0.00950149,1.00002
app_25,81.4007,20532.4,7599.1,400.9,76.2951,1.79017e+11,1.02853,0.964862,100,2.35549,195,0.0097418,1.00003
app_26,104.57,20720.8,7555.1,444.9,63.7133,2.04517e+11,1.03098,0.964862,118,3.19558,164,0.00818643,1.00003
app_27,63.2719,20150.4,7919.6,80.4,72.4801,2.71611e+10,1.0067,0.964862,109,0.37207,182,0.00906431,1.00003
app_28,14.6643,20188.5,7917.4,82.6,66.9018,3.30238e+10,1.00624,0.964862,118,0.492893,169,0.00842435,1.00003
app_29,80.7912,20207.2,7891.1,108.9,81.4334,4.06923e+10,1.0086,0.964862,97,0.502374,205,0.0102153,1.00003
app_3,6.57206,20118.9,7801.8,198.2,865.064,9.28094e+10,1.01335,0.964862,9,0.107294,2178,0.108871,1
app_30,53.9779,20504,7579.5,420.5,79.6699,1.94861e+11,1.02902,0.964862,94,2.46659,206,0.010271,1.00003
app_31,33.6097,20342.1,7817.6,182.4,79.4874,7.95746e+10,1.01302,0.964862,99,0.994683,200,0.00997827,1.00003
app_32,38.618,20007.2,7970.5,29.5,74.8902,1.1783e+10,1.00222,0.964862,107,0.159229,186,0.00926913,1.00003
app_33,17.111,20188.4,7879.9,120.1,84.1025,5.39699e+10,1.00834,0.964862,93,0.63494,214,0.0106504,1.00003
app_34,1.66191,19769.6,7986.2,13.8,76.9889,2.6436e+09,1.0014,0.964862,105,0.0343325,190,0.00945506,1.00003
app_35,45.6096,20395.6,7803.8,196.2,82.3125,8.83195e+10,1.01367,0.964862,94,1.06409,211,0.0105178,1.00004
app_36,18.5223,19995.3,7934.3,65.7,84.1473,2.51378e+10,1.0051,0.964862,95,0.299259,209,0.0104315,1.00004
app_37,11.6841,19985.2,7943.6,56.4,79.4365,2.08012e+10,1.00447,0.964862,100,0.260015,198,0.00988948,1.00004
app_38,22.6836,20362.8,7607.3,392.7,94.1739,1.9394e+11,1.02548,0.964862,81,2.06319,239,0.0119236,1.00004
app_39,113.68,20415.9,7751.6,248.4,66.5122,1.01586e+11,1.01869,0.964862,117,1.53918,168,0.00839214,1.00004
app_4,0.371883,18492,7752.2,247.8,860.543,1.43268e+11,1.01324,0.964862,9,0.166397,1988,0.0993828,1
app_40,75.9103,20212.2,7792.4,207.6,82.6083,8.99939e+10,1.01492,0.964862,94,1.08426,209,0.0104193,1.00004
app_41,17.9664,20003.5,7943.6,56.4,79.5062,2.11804e+10,1.00442,0.964862,100,0.264755,199,0.00993215,1.00004
app_42,674.547,21084.4,7886.4,113.6,8.3644,2.96416e+10,1.01061,0.964862,921,3.29351,22,0.00108175,1.00004
app_43,155.876,21721.8,7338.8,661.2,8.85804,1.74946e+11,1.06472,0.964862,828,19.4384,24,0.00117995,1.00004
app_44,483.329,21570.4,7572.2,427.8,6.63834,1.28813e+11,1.03882,0.964862,1118,18.4018,18,0.000879653,1.00004
app_45,402.985,22000,7189.67,810.332,7.6781,1.66853e+11,1.08747,0.964862,950,21.8992,21,0.00102866,1.00004
app_46,271.123,21983.3,7534.2,465.8,6.80084,1.21188e+11,1.04502,0.964862,1115,17.3126,18,0.000883051,1.00005
app_47,218.485,23450.3,7216.8,783.2,6.67931,2.07172e+11,1.07759,0.964862,1078,29.596,19,0.000902618,1.00005
app_48,50.3808,21523.9,7691.5,308.5,7.93214,8.29835e+10,1.02901,0.964862,986,10.3729,21,0.00100322,1.00005
app_49,299.847,20985.8,7855.2,144.8,8.12863,4.41691e+10,1.01274,0.964862,961,5.52113,21,0.00103391,1.00005
app_5,5.67498,19037,7778.4,221.6,862.98,1.19157e+11,1.01297,0.964862,9,0.138073,2059,0.102903,1.00001
app_50,317.376,21250.4,7979.3,20.7,7.63613,3.02924e+09,1.00221,0.964862,1048,0.378655,20,0.000953536,1.00005
app_51,311.097,20860.2,7682.3,317.7,7.61974,7.41108e+10,1.0314,0.964862,996,9.26385,20,0.000994489,1.00005
app_52,322.863,22280.3,7579.6,420.4,7.687,1.22337e+11,1.0387,0.964862,960,17.4767,21,0.00102295,1.00005
app_53,185.469,21706.9,7169.1,830.9,7.13671,1.92066e+11,1.08678,0.964862,984,27.4379,20,0.00098848,1.00005
app_54,663.161,20735.1,7680.5,319.5,9.70569,7.74563e+10,1.0312,0.964862,799,7.74563,25,0.00123816,1.00005
app_55,234.292,21602.3,7597.1,402.9,7.67031,8.93486e+10,1.04079,0.964862,1008,12.7641,20,0.000979421,1.00005
app_56,14.5017,21683.9,7249.3,750.7,7.94488,2.01356e+11,1.07373,0.964862,899,25.1696,22,0.0010815,1.00006
app_57,764.08,21622.4,7762.1,237.9,6.91566,5.9402e+10,1.02282,0.964862,1111,8.486,18,0.000892818,1.00006
app_58,349.993,22054.6,7616.27,383.735,7.19324,1.30048e+11,1.03275,0.964862,1049,17.3173,19,0.000937301,1.00006
app_59,272.933,21281.9,7430.5,569.5,7.43371,1.31214e+11,1.05796,0.964862,989,18.7449,20,0.000991827,1.00006
app_6,8.5663,18919.2,7730.6,269.4,859.252,1.56216e+11,1.01435,0.964862,9,0.181858,2030,0.101458,1.00001
app_60,315.118,21446.4,7461,539,7.92272,1.68532e+11,1.04856,0.964862,947,21.0665,21,0.00103233,1.00006
app_7,7.87733,18597.2,7912.25,87.7517,790.295,2.92425e+10,1.00737,0.964862,10,0.0369916,1836,0.0917677,1.00001
app_8,4.77682,18838.6,7759.7,240.3,775.819,1.32542e+11,1.01365,0.964862,10,0.170801,1825,0.0912394,1.00001
app_9,2.40505,19947.2,7826.7,173.3,709.19,8.62778e+10,1.011,0.964862,11,0.121689,1775,0.0887175,1.00001
