app_id,start_app,end_app,effective_cpu,effective_io,effective_iter,total_bytes,stretch,utilization,Tcomp,Tio,iterations,priority,group_id
app_1,7.02847,19608.1,7845.4,154.6,980.725,2.98965e+10,1.01583,0.955797,8,0.0304755,2402,1,1
app_10,89.2119,20151.8,7856.1,143.9,86.3891,4.12277e+10,1.013,0.955797,91,0.479392,218,1.00001,1.00001
app_11,45.8174,20838.4,7550.9,449.1,75.0248,1.24152e+11,1.04234,0.955797,101,1.65536,194,1.00001,1.00001
app_12,38.9784,20411.9,7823.1,176.9,74.6924,4.86312e+10,1.01629,0.955797,104,0.648416,191,1.00001,1.00001
app_13,35.887,20172.1,7909.5,90.5,84.2283,2.29563e+10,1.00851,0.955797,94,0.270074,212,1.00001,1.00001
app_14,61.3339,21122.8,7453.6,546.4,77.4837,1.58888e+11,1.0509,0.955797,97,2.06348,202,1.00001,1.00001
app_15,49.7631,20206.5,7850.1,149.9,79.9166,4.14646e+10,1.01374,0.955797,98,0.518308,203,1.00002,1.00002
app_16,9.65324,20545.5,7662.3,337.7,80.4137,9.7064e+10,1.03101,0.955797,95,1.2133,207,1.00002,1.00002
app_17,84.5576,20925.4,7532,468,81.4562,1.46393e+11,1.04188,0.955797,93,1.80732,210,1.00002,1.00002
app_18,53.9045,20586.5,7635.7,364.3,94.5826,1.02397e+11,1.03385,0.955797,81,1.08933,243,1.00002,1.00002
app_19,68.8069,20658.5,7600.9,399.1,86.3054,1.18403e+11,1.03636,0.955797,89,1.37677,220,1.00002,1.00002
app_2,7.26305,19184,7740.7,259.3,771.573,6.39023e+10,1.02504,0.955797,10,0.082775,1855,1,1
app_20,50.9959,20116,7982.2,17.8,85.6876,3.932e+09,1.00174,0.955797,93,0.0462588,215,1.00002,1.00002
app_21,85.9605,21156.3,7380.5,619.5,68.9909,1.78869e+11,1.05829,0.955797,107,2.59231,182,1.00002,1.00002
app_22,82.7107,20840.2,7607.9,392.1,72.7507,1.18435e+11,1.03542,0.955797,105,1.6224,188,1.00002,1.00002
app_23,62.3416,20680.5,7733.5,266.5,79.3127,7.87909e+10,1.02403,0.955797,97,0.984886,204,1.00002,1.00002
app_24,175.743,22175.2,7526.4,473.6,8.15838,1.98999e+11,1.03555,0.955797,924,24.8748,22,1.00002,1.00002
app_25,918.046,22180.1,7734,266,7.97104,9.2206e+10,1.02221,0.955797,963,11.5258,21,1.00003,1.00003
app_26,718.7,21904.2,7904.9,95.1,8.28722,2.14185e+10,1.0093,0.955797,948,2.67731,22,1.00003,1.00003
app_27,507.501,22197.5,7441.8,558.2,7.94767,1.29204e+11,1.05666,0.955797,935,16.1505,22,1.00003,1.00003
app_28,203.374,21167,7609.5,390.5,6.64448,1.33333e+11,1.03321,0.955797,1099,22.2222,18,1.00003,1.00003
app_29,371.591,21618.2,7533.6,466.4,7.69813,9.87968e+10,1.04816,0.955797,975,12.3496,21,1.00003,1.00003
app_3,5.38698,19878.1,7799.5,200.5,776.663,4.53539e+10,1.01978,0.955797,10,0.0584457,1932,1,1
app_30,426.194,21043.9,7938.6,61.4,6.96077,1.87266e+10,1.00536,0.955797,1119,2.67523,18,1.00003,1.00003
app_31,534.038,20892.1,7829.7,170.3,6.51079,5.03097e+10,1.01523,0.955797,1173,7.1871,17,1.00003,1.00003
app_32,484.234,21582.1,7699.5,300.5,9.37968,7.38288e+10,1.02916,0.955797,801,7.38288,25,1.00003,1.00003
app_33,595.052,21330.6,7923.6,76.4,8.26245,2.42636e+10,1.00656,0.955797,942,2.69596,22,1.00003,1.00003
app_34,576.674,22523.3,7318.7,681.3,7.99044,1.99898e+11,1.06403,0.955797,921,24.9873,22,1.00003,1.00003
app_35,810.081,22074.4,7880.9,119.1,6.70892,2.59076e+10,1.01179,0.955797,1158,3.70109,18,1.00004,1.00004
app_36,159.435,21199.1,7852.3,147.7,6.76715,3.70757e+10,1.01402,0.955797,1135,5.29653,18,1.00004,1.00004
app_37,393.412,21799.1,7427.8,572.2,9.09984,1.88326e+11,1.0504,0.955797,817,20.9252,24,1.00004,1.00004
app_38,147,20533.8,7948.7,51.3,8.22717,1.72229e+10,1.00428,0.955797,969,1.91366,21,1.00004,1.00004
app_39,221.617,21022.7,7842.2,157.8,8.65378,5.00877e+10,1.01365,0.955797,905,5.5653,22,1.00004,1.00004
app_4,58.2069,20915.5,7365.4,634.6,90.9861,1.97049e+11,1.05786,0.955797,81,2.16538,238,1,1
app_40,84.6576,21356.9,7525.8,474.2,7.17582,1.8322e+11,1.03775,0.955797,1035,26.1742,19,1.00004,1.00004
app_41,1070.99,22735.2,7480.7,519.3,7.00491,1.17843e+11,1.05283,0.955797,1088,16.8347,19,1.00004,1.00004
app_42,907.708,21727.5,7715.6,284.4,7.27167,7.24138e+10,1.02722,0.955797,1066,10.3448,19,1.00004,1.00004
app_43,885.165,22270.4,7535.6,464.4,7.60707,1.56399e+11,1.04004,0.955797,1006,19.5499,20,1.00004,1.00004
app_44,955.011,22209.5,7649.5,350.5,7.47542,1.07308e+11,1.03135,0.955797,1019,13.4135,20,1.00004,1.00004
app_45,81.1279,21343,7622.8,377.2,7.58676,1.18069e+11,1.03348,0.955797,999,14.7586,20,1.00004,1.00004
app_46,106.29,20945.5,7694.5,305.5,8.22354,9.844e+10,1.02657,0.955797,943,12.305,21,1.00005,1.00005
app_47,728.81,22686.4,7362.3,637.7,6.87094,1.94418e+11,1.05866,0.955797,1064,27.774,19,1.00005,1.00005
app_48,142.823,21459.9,7598.1,401.9,8.37662,1.07851e+11,1.03816,0.955797,896,11.9835,23,1.00005,1.00005
app_49,549.996,22061.3,7343.9,656.1,7.66681,1.40802e+11,1.06885,0.955797,946,17.6003,21,1.00005,1.00005
app_5,4.70199,20758.2,7501.1,498.9,78.8667,1.41414e+11,1.04678,0.955797,96,1.79005,204,1.00001,1.00001
app_50,164.408,22110.3,7538.3,461.7,8.01456,1.72333e+11,1.03753,0.955797,918,21.5416,22,1.00005,1.00005
app_51,639.2,22361.1,7306.4,693.6,6.63658,2.09756e+11,1.06437,0.955797,1138,29.9651,18,1.00005,1.00005
app_52,662.008,21478.6,7795.6,204.4,8.15281,3.91595e+10,1.02109,0.955797,968,4.89494,21,1.00005,1.00005
app_53,830.107,22834.8,7793.7,206.3,6.74195,6.55975e+10,1.0179,0.955797,1155,10.9329,18,1.00005,1.00005
app_54,499.563,21959.5,7270,730,7.90984,2.15954e+11,1.06867,0.955797,946,26.9943,21,1.00005,1.00005
app_55,97.5326,20424.7,7944.8,55.2,8.81349,1.37434e+10,1.00521,0.955797,910,1.52704,22,1.00005,1.00005
app_56,608.062,22090.7,7508.9,491.1,7.26644,1.4473e+11,1.04526,0.955797,1022,20.6757,20,1.00006,1.00006
app_57,33.793,21086.6,7645.9,354.1,7.94137,1.72027e+11,1.02329,0.955797,968,21.5034,21,1.00006,1.00006
app_58,123.776,21573.9,7536.4,463.6,6.98979,9.90463e+10,1.04774,0.955797,1063,14.1495,19,1.00006,1.00006
app_59,70.3822,20683.9,7849.4,150.6,9.52782,4.09141e+10,1.0139,0.955797,815,4.54601,25,1.00006,1.00006
app_6,11.0491,20833.5,7385.5,614.5,79.7925,1.75903e+11,1.058,0.955797,93,2.19879,209,1.00001,1.00001
app_60,611.461,21746.1,7682.4,317.6,9.87856,6.94041e+10,1.03202,0.955797,780,6.94041,26,1.00006,1.00006
app_7,82.4313,21164.1,7375.2,624.8,64.1585,1.78602e+11,1.05907,0.955797,114,2.74773,171,1.00001,1.00001
app_8,29.8848,20722.1,7585.1,414.9,105.15,1.18797e+11,1.03844,0.955797,73,1.1314,270,1.00001,1.00001
app_9,65.1067,20487.7,7793.5,206.5,83.093,5.63821e+10,1.01912,0.955797,94,0.679303,212,1.00001,1.00001
