app_id,start_app,end_app,effective_cpu,effective_io,effective_iter,total_bytes,stretch,utilization,Tcomp,Tio,iterations,priority,group_id
app_1,5.25979,19053.5,7733,267,966.354,5.78204e+10,1.02685,0.950537,8,0.0598555,2303,1,1
app_10,3.91523,20373.8,7509.8,490.2,940.325,1.20217e+11,1.04849,0.950537,8,0.12789,2400,1.00001,1.00001
app_11,7.82471,20379.2,7638.9,361.1,763.345,8.70073e+10,1.03548,0.950537,10,0.114033,1946,1.00001,1.00001
app_12,3.7939,18628.8,7402.7,597.3,1057.51,1.4898e+11,1.05937,0.950537,7,0.140946,2466,1.00001,1.00001
app_13,8.09862,21108.3,7306.32,693.677,815.034,1.80236e+11,1.06858,0.950537,9,0.221305,2151,1.00001,1.00001
app_14,0.695205,19520.9,7817.5,182.5,977.305,3.39552e+10,1.01892,0.950537,8,0.034719,2384,1.00001,1.00001
app_15,3.28997,19913.6,7246.5,753.5,1037.37,1.97717e+11,1.07466,0.950537,7,0.190479,2585,1.00002,1.00002
app_16,5.60098,19686.8,7619.1,380.9,764.74,9.05115e+10,1.03767,0.950537,10,0.118316,1878,1.00002,1.00002
app_17,0.503671,20135.4,7815.78,184.225,866.324,3.71888e+10,1.01872,0.950537,9,0.042903,2183,1.00002,1.00002
app_18,7.79098,19016,7615.8,384.2,846.463,9.10106e+10,1.03804,0.950537,9,0.107451,2013,1.00002,1.00002
app_19,3.9697,20411.4,7204.1,795.9,800.881,2.16287e+11,1.07811,0.950537,9,0.270021,2047,1.00002,1.00002
app_2,9.04895,19559.5,7485.5,514.5,748.848,1.33777e+11,1.04997,0.950537,10,0.178608,1833,1,1
app_20,6.93444,19535.9,7335.44,664.561,813.537,1.70228e+11,1.06586,0.950537,9,0.209303,1991,1.00002,1.00002
app_21,1.52552,20563.5,7484.4,515.6,745.779,1.34625e+11,1.05,0.950537,10,0.180462,1924,1.00002,1.00002
app_22,91.4891,20263.3,7830.5,169.5,75.4836,4.34923e+10,1.016,0.950537,104,0.579898,190,1.00002,1.00002
app_23,21.7044,21024.3,7442,558,72.2951,1.45236e+11,1.0544,0.950537,102,2.01717,192,1.00002,1.00002
app_24,34.871,20484.8,7774.6,225.4,74.6955,5.67281e+10,1.02154,0.950537,104,0.766595,191,1.00002,1.00002
app_25,81.4007,21059.8,7336.7,663.3,73.4197,1.71951e+11,1.06544,0.950537,100,2.35549,195,1.00003,1.00003
app_26,104.57,21201.7,7288.8,711.2,61.4626,1.98126e+11,1.06853,0.950537,118,3.19558,164,1.00003,1.00003
app_27,63.2719,20218.7,7896,104,71.5902,2.64169e+10,1.00979,0.950537,109,0.37207,182,1.00003,1.00003
app_28,14.6643,20194.9,7880,120,67.4121,3.35167e+10,1.01093,0.950537,118,0.492893,169,1.00003,1.00003
app_29,80.7912,20426.8,7844.4,155.6,80.4408,4.01899e+10,1.01464,0.950537,97,0.502374,205,1.00003,1.00003
app_3,6.57206,20610.3,7609.3,390.7,844.403,9.05562e+10,1.03898,0.950537,9,0.107294,2178,1,1
app_30,53.9779,21099.2,7328.94,671.055,77.1745,1.90388e+11,1.06392,0.950537,94,2.46659,206,1.00003,1.00003
app_31,33.6097,20556.6,7721.2,278.8,77.4296,7.65906e+10,1.02593,0.950537,99,0.994683,200,1.00003,1.00003
app_32,38.618,20088.9,7950.5,49.5,73.7222,1.1783e+10,1.00474,0.950537,107,0.159229,186,1.00003,1.00003
app_33,17.111,20461.9,7801.6,198.4,83.8914,5.33349e+10,1.01847,0.950537,93,0.63494,214,1.00003,1.00003
app_34,1.66191,20088.5,7985.8,14.2,75.1192,2.57494e+09,1.00146,0.950537,105,0.0343325,190,1.00003,1.00003
app_35,45.6096,20647.9,7669.1,330.9,82.0222,8.72554e+10,1.03141,0.950537,94,1.06409,211,1.00004,1.00004
app_36,18.5223,20067.5,7898.9,101.1,82.2247,2.48385e+10,1.00962,0.950537,95,0.299259,209,1.00004,1.00004
app_37,11.6841,19855.4,7917.5,82.5,79.9475,2.08012e+10,1.00777,0.950537,100,0.260015,198,1.00004,1.00004
app_38,22.6836,21058.6,7345.9,654.1,90.6889,1.8775e+11,1.0619,0.950537,81,2.06319,239,1.00004,1.00004
app_39,113.68,20524.9,7620.6,379.4,66.2531,1.01586e+11,1.03598,0.950537,117,1.53918,168,1.00004,1.00004
app_4,0.371883,19188.9,7453.88,546.125,828.483,1.37863e+11,1.05378,0.950537,9,0.166397,1988,1,1
app_40,75.9103,20503.6,7661.6,338.4,82.6528,8.99939e+10,1.03205,0.950537,94,1.08426,209,1.00004,1.00004
app_41,17.9664,20100.2,7915.5,84.5,79.2178,2.11804e+10,1.00798,0.950537,100,0.264755,199,1.00004,1.00004
app_42,674.547,20947.3,7913.3,86.7,8.68517,2.96416e+10,1.00718,0.950537,921,3.29351,22,1.00004,1.00004
app_43,155.876,21572.8,7479.3,520.7,8.90282,1.74946e+11,1.04517,0.950537,828,19.4384,24,1.00004,1.00004
app_44,483.329,21271.3,7592.2,407.8,6.74658,1.28813e+11,1.03613,0.950537,1118,18.4018,18,1.00004,1.00004
app_45,402.985,21794.8,7554.5,445.5,7.77597,1.75193e+11,1.03497,0.950537,950,21.8992,21,1.00004,1.00004
app_46,271.123,21154.3,7662.15,337.85,6.97192,1.17589e+11,1.02831,0.950537,1115,17.3126,18,1.00005,1.00005
app_47,218.485,22283.5,7457,543,6.91506,2.07172e+11,1.04382,0.950537,1078,29.596,19,1.00005,1.00005
app_48,50.3808,21478.3,7769.9,230.1,7.73355,8.29835e+10,1.01873,0.950537,986,10.3729,21,1.00005,1.00005
app_49,299.847,20655.6,7787.4,212.6,8.21202,4.41691e+10,1.02151,0.950537,961,5.52113,21,1.00005,1.00005
app_5,5.67498,19672.5,7526.63,473.368,836.984,1.15459e+11,1.04683,0.950537,9,0.138073,2059,1.00001,1.00001
app_50,317.376,21409.3,7983.5,16.5,7.6783,3.02924e+09,1.00169,0.950537,1048,0.378655,20,1.00005,1.00005
app_51,311.097,21032.3,7740.9,259.1,7.50321,7.41108e+10,1.02367,0.950537,996,9.26385,20,1.00005,1.00005
app_52,322.863,22237.4,7308.1,691.9,7.42737,1.22337e+11,1.07665,0.950537,960,17.4767,21,1.00005,1.00005
app_53,185.469,21684.1,7288.1,711.9,7.21279,1.92066e+11,1.0695,0.950537,984,27.4379,20,1.00005,1.00005
app_54,663.161,21384.7,7691.3,308.7,9.8423,7.74563e+10,1.02977,0.950537,799,7.74563,25,1.00005,1.00005
app_55,234.292,21436.4,7555.2,444.8,7.50718,8.93486e+10,1.0465,0.950537,1008,12.7641,20,1.00005,1.00005
app_56,14.5017,21642.2,7054.1,945.9,7.72044,2.01356e+11,1.10262,0.950537,899,25.1696,22,1.00006,1.00006
app_57,764.08,21355.9,7694.8,305.2,6.9443,5.9402e+10,1.0317,0.950537,1111,8.486,18,1.00006,1.00006
app_58,349.993,21334.8,7704.6,295.4,7.26667,1.21221e+11,1.02226,0.950537,1049,17.3173,19,1.00006,1.00006
app_59,272.933,21559.1,7381.6,618.4,7.58055,1.31214e+11,1.06485,0.950537,989,18.7449,20,1.00006,1.00006
app_6,8.5663,19726.4,7420.17,579.834,823.572,1.49713e+11,1.05682,0.950537,9,0.181858,2030,1.00001,1.00001
app_60,315.118,22278.9,7322.4,677.6,7.57706,1.68532e+11,1.06796,0.950537,947,21.0665,21,1.00006,1.00006
app_7,7.87733,18754.4,7845.1,154.9,783.907,2.90014e+10,1.01599,0.950537,10,0.0369916,1836,1.00001,1.00001
app_8,4.77682,19456.6,7493.8,506.2,748.125,1.27759e+11,1.04965,0.950537,10,0.170801,1825,1.00001,1.00001
app_9,2.40505,20394.7,7643.4,356.6,694.189,8.44524e+10,1.03522,0.950537,11,0.121689,1775,1.00001,1.00001
