app_id,start_app,end_app,effective_cpu,effective_io,effective_iter,total_bytes,stretch,utilization,Tcomp,Tio,iterations,priority,group_id
app_1,0.0138285,18926.8,7673.8,326.2,850.8,7.53788e+10,1.03237,0.94956,9,0.0885767,2017,1,1
app_10,6.22887,19770.2,7696.9,303.1,851.699,6.84859e+10,1.03021,0.94956,9,0.0803825,2112,1.00001,1.00001
app_11,0.803364,19190.7,7815.6,184.4,868.777,3.64839e+10,1.01884,0.94956,9,0.0419838,2086,1.00001,1.00001
app_12,0.788081,19936.3,7719.1,280.9,770.728,6.63356e+10,1.02756,0.94956,10,0.0860384,1927,1.00001,1.00001
app_13,6.86163,20564.6,7522.5,477.5,945.251,1.18089e+11,1.04704,0.94956,8,0.124829,2425,1.00001,1.00001
app_14,2.27035,19986,7461.69,538.315,678.745,1.37284e+11,1.05277,0.94956,11,0.202453,1697,1.00001,1.00001
app_15,1.18171,20114.4,7744.8,255.2,772.451,5.73296e+10,1.02536,0.94956,10,0.0742611,1948,1.00002,1.00002
app_16,8.83935,19277.7,7795.7,204.3,777.414,4.51546e+10,1.0203,0.94956,10,0.058114,1877,1.00002,1.00002
app_17,3.59953,20546.9,7309.8,690.2,728.986,1.78844e+11,1.06828,0.94956,10,0.245328,1880,1.00002,1.00002
app_18,0.783236,19417.2,7609.1,390.9,763.305,9.41035e+10,1.03853,0.94956,10,0.123334,1847,1.00002,1.00002
app_19,4.6392,20859.7,7427.4,572.6,676.425,1.51265e+11,1.05559,0.94956,11,0.223765,1766,1.00002,1.00002
app_2,2.29971,20150.7,7767.9,232.1,775.72,5.05021e+10,1.02323,0.94956,10,0.0650801,1958,1,1
app_20,7.83526,20306.8,7169.7,830.3,717.31,2.21874e+11,1.08231,0.94956,10,0.309448,1825,1.00002,1.00002
app_21,0.215714,20537.5,7446.6,553.4,746.365,1.42424e+11,1.05415,0.94956,10,0.190917,1922,1.00002,1.00002
app_22,6.76527,20400.9,7276.1,723.9,807.948,1.88829e+11,1.07168,0.94956,9,0.233699,2066,1.00002,1.00002
app_23,1.36163,19997.5,7719.71,280.293,967.435,6.2439e+10,1.02799,0.94956,8,0.0645386,2420,1.00002,1.00002
app_24,5.41879,20423.1,7771.3,228.7,864.074,4.81223e+10,1.02309,0.94956,9,0.0556971,2207,1.00002,1.00002
app_25,7.65224,19575.8,7426.7,573.3,823.213,1.45037e+11,1.05656,0.94956,9,0.17623,2018,1.00003,1.00003
app_26,7.75302,19271.8,7233.5,766.5,1033.16,1.99347e+11,1.0763,0.94956,7,0.192978,2492,1.00003,1.00003
app_27,0.283224,19608.6,7293.8,706.2,809.12,1.86356e+11,1.0695,0.94956,9,0.230354,1987,1.00003,1.00003
app_28,5.31394,20112,7244.2,755.8,805.091,1.92223e+11,1.07579,0.94956,9,0.238786,2033,1.00003,1.00003
app_29,17.1566,20710.4,7553.3,446.7,86.0898,1.06174e+11,1.04446,0.94956,88,1.23458,224,1.00003,1.00003
app_3,2.81621,18565.6,7777.1,222.9,972.743,4.83844e+10,1.0223,0.94956,8,0.049727,2255,1,1
app_30,28.8385,20305.5,7896.3,103.7,81.71,2.60892e+10,1.0098,0.94956,96,0.318161,207,1.00003,1.00003
app_31,33.5066,20840,7613.5,386.5,74.1646,1.10668e+11,1.03571,0.94956,102,1.47558,194,1.00003,1.00003
app_32,64.7327,20940,7447.9,552.1,86.7535,1.51075e+11,1.05277,0.94956,86,1.73649,227,1.00003,1.00003
app_33,86.278,20663.4,7699.19,300.81,78.3057,8.93974e+10,1.02714,0.94956,98,1.13932,202,1.00003,1.00003
app_34,68.5558,21191.5,7327.3,672.7,64.8686,1.83444e+11,1.06514,0.94956,113,2.82221,172,1.00003,1.00003
app_35,37.5973,20347.2,7831.9,168.1,87.0065,3.92072e+10,1.01638,0.94956,90,0.450657,221,1.00004,1.00004
app_36,21.8372,20309.2,7713.3,286.7,83.3698,7.69559e+10,1.02692,0.94956,93,0.927179,211,1.00004,1.00004
app_37,89.8839,21050.2,7441.7,558.3,80.6702,1.61307e+11,1.05222,0.94956,93,1.99145,210,1.00004,1.00004
app_38,26.5052,20804,7565.54,434.46,86.3423,1.16085e+11,1.04145,0.94956,87,1.34199,226,1.00004,1.00004
app_39,23.4339,20749.9,7456.3,543.7,92.5065,1.44923e+11,1.05246,0.94956,81,1.55831,240,1.00004,1.00004
app_4,3.17487,19888.1,7275.5,724.5,806.466,1.93123e+11,1.07115,0.94956,9,0.239607,2015,1,1
app_40,58.0913,20073,7881.9,118.1,83.463,3.08653e+10,1.01102,0.94956,95,0.367444,208,1.00004,1.00004
app_41,34.848,21060.5,7348.6,651.4,91,1.82034e+11,1.06233,0.94956,81,2.00037,240,1.00004,1.00004
app_42,25.8044,20074.8,7914.5,85.5,79.773,2.24383e+10,1.00795,0.94956,99,0.284029,200,1.00004,1.00004
app_43,64.8838,21080.9,7549.9,450.1,75.5468,1.26483e+11,1.04216,0.94956,100,1.66424,197,1.00004,1.00004
app_44,79.6563,20052.4,7906.3,93.7,77.6528,2.22403e+10,1.00901,0.94956,102,0.288835,194,1.00004,1.00004
app_45,49.8343,20674.3,7644.42,355.582,86.3823,8.46693e+10,1.03505,0.94956,88,0.978893,223,1.00004,1.00004
app_46,53.3201,20261,7862.8,137.2,92.2861,3.2326e+10,1.01328,0.94956,85,0.35137,234,1.00005,1.00005
app_47,63.0451,21289.3,7299.69,700.312,84.4089,1.87334e+11,1.06852,0.94956,85,2.22791,228,1.00005,1.00005
app_48,75.0509,20125.4,7958.4,41.6,91.5866,9.7517e+09,1.004,0.94956,87,0.105997,229,1.00005,1.00005
app_49,504.868,21031.1,7511.4,488.6,8.4976,1.54721e+11,1.04355,0.94956,892,17.1912,22,1.00005,1.00005
app_5,7.68525,20141.7,7480.56,519.442,832.399,1.26961e+11,1.05159,0.94956,9,0.152492,2099,1.00001,1.00001
app_50,695.175,21334.5,7754.2,245.8,8.42904,5.08018e+10,1.02498,0.94956,923,5.64464,22,1.00005,1.00005
app_51,844.592,21044,7688.4,311.6,7.47569,8.66457e+10,1.02893,0.94956,1058,10.8307,19,1.00005,1.00005
app_52,89.5879,20119.9,7863.2,136.8,10.6685,3.28039e+10,1.01317,0.94956,739,3.28039,27,1.00005,1.00005
app_53,102.079,20608.2,7612.8,387.2,7.42505,1.0022e+11,1.03721,0.94956,1043,14.3171,19,1.00005,1.00005
app_54,73.9353,20621.5,7947.7,52.3,7.80584,1.32837e+10,1.0049,0.94956,1034,1.66046,20,1.00005,1.00005
app_55,809.49,21911.9,7841.4,158.6,6.7711,5.26283e+10,1.01342,0.94956,1153,7.51832,18,1.00005,1.00005
app_56,383.266,21392.5,7846.7,153.3,7.16752,5.27209e+10,1.01273,0.94956,1074,7.53155,19,1.00006,1.00006
app_57,877.966,22478.2,7356,644,7.78007,1.80129e+11,1.06155,0.94956,956,25.7327,21,1.00006,1.00006
app_58,361.707,21281.8,7799.9,200.1,7.80196,5.88291e+10,1.01798,0.94956,971,7.35364,21,1.00006,1.00006
app_59,748.023,23149.6,7185.5,814.5,6.87554,2.09484e+11,1.08181,0.94956,1013,29.9263,20,1.00006,1.00006
app_6,10.8567,19867.4,7371.8,628.2,736.062,1.65473e+11,1.06139,0.94956,10,0.224827,1831,1.00001,1.00001
app_60,367.068,20308.5,7931.5,68.5,7.79905,1.76263e+10,1.0064,0.94956,1064,2.20328,19,1.00006,1.00006
app_7,0.766739,19712.3,7266.9,733.1,807.839,1.91265e+11,1.07265,0.94956,9,0.236714,1994,1.00001,1.00001
app_8,1.49933,18753.6,7625,375,848.905,8.59411e+10,1.03749,0.94956,9,0.101226,1992,1.00001,1.00001
app_9,10.2874,19027.4,7614.7,385.3,762.082,9.11292e+10,1.03818,0.94956,10,0.119592,1811,1.00001,1.00001
