app_id,start_app,end_app,effective_cpu,effective_io,effective_iter,total_bytes,stretch,utilization,Tcomp,Tio,iterations,priority,group_id
app_1,6.31219,19697,7824.2,119.302,654.571,7.09973e+10,1.01327,0.963702,12,0.108393,1609,0.1,1
app_10,5.78871,18973.4,7650.2,280.774,764.781,2.27993e+11,1.01546,0.963702,10,0.29803,1814,0.1,1
app_11,7.14729,18490.1,7696,210.975,962.345,1.7056e+11,1.01696,0.963702,8,0.177113,2223,0.1,1
app_12,7.25965,19958.3,7832.7,73.3678,870.328,1.57329e+10,1.01931,0.963702,9,0.0180838,2171,0.1,1
app_13,1.54229,18835.9,7748,168.924,862.043,1.13179e+11,1.01766,0.963702,9,0.131298,2026,0.1,1
app_14,5.83588,18531.6,7665,260.942,849.088,2.14113e+11,1.01534,0.963702,9,0.252195,1973,0.1,1
app_15,6.79038,19095.7,7674.7,256.06,854.194,2.01696e+11,1.01569,0.963702,9,0.236178,2034,0.1,1
app_16,4.55294,19193.2,7733.4,163.901,1106.83,1.08543e+11,1.02016,0.963702,7,0.0980512,2653,0.1,1
app_17,8.60907,19768.9,7795.3,127.114,864.361,8.18605e+10,1.01559,0.963702,9,0.0946364,2132,0.1,1
app_18,7.56045,18959.1,7710.1,217.582,772.538,1.57977e+11,1.01677,0.963702,10,0.204369,1824,0.1,1
app_19,0.418776,19525.2,7855.8,62.4837,786.237,8.76887e+09,1.01722,0.963702,10,0.0111563,1919,0.1,1
app_2,1.36749,19550.5,7704.6,188.933,961.88,1.30427e+11,1.02106,0.963702,8,0.135579,2355,0.1,1
app_20,5.70304,18919.9,7763.1,152.593,778.501,1.03926e+11,1.0169,0.963702,10,0.133409,1839,0.1,1
app_21,2.98928,18462.4,7759.6,153.893,862.249,8.94496e+10,1.01923,0.963702,9,0.10377,1986,0.1,1
app_22,5.18953,19821.4,7673.6,251.831,851.513,1.95324e+11,1.01666,0.963702,9,0.229523,2112,0.1,1
app_23,1.3135,19951.2,7679.2,246.021,853.102,1.8239e+11,1.01761,0.963702,9,0.213822,2127,0.1,1
app_24,6.99147,20259.1,7838.8,68.5177,870.643,8.39859e+09,1.01947,0.963702,9,0.00964247,2206,0.1,1
app_25,8.99988,20086.8,7749.4,174.404,860.811,1.25956e+11,1.01583,0.963702,9,0.14629,2157,0.1,1
app_26,7.08234,19080.8,7860.3,72.4901,655.636,4.52822e+10,1.01194,0.963702,12,0.0691331,1566,0.1,1
app_27,3.82055,19202,7810.7,98.2919,867.184,6.31148e+10,1.01603,0.963702,9,0.0727129,2083,0.1,1
app_28,86.7257,20578.4,7635.6,293.728,83.0969,1.81335e+11,1.02342,0.963702,92,2.18476,212,0.01,2
app_29,27.6316,20289.1,7861.3,31.6723,98.0566,1.56403e+10,1.01562,0.963702,80,0.159595,249,0.01,2
app_3,2.34666,19848.6,7871.3,57.7827,714.956,7.36371e+09,1.0154,0.963702,11,0.0102989,1776,0.1,1
app_30,64.3998,20375,7606.6,335.582,84.4147,2.1297e+11,1.02307,0.963702,91,2.53535,214,0.01,2
app_31,41.8986,20308.2,7734.1,151.344,87.6427,9.5035e+10,1.02182,0.963702,88,1.09236,223,0.01,2
app_32,68.5588,20530,7767.5,188.788,76.6205,1.19891e+11,1.01428,0.963702,101,1.55703,195,0.01,2
app_33,90.5136,20270.7,7734.5,186.24,85.8423,1.12771e+11,1.01946,0.963702,91,1.31129,216,0.01,2
app_34,73.0131,20275.5,7648.7,278.864,83.5959,1.77584e+11,1.0222,0.963702,91,2.1141,213,0.01,2
app_35,74.1797,20318.9,7836.2,89.4644,65.6199,5.29704e+10,1.01405,0.963702,119,0.802581,167,0.01,2
app_36,57.9099,20301.3,7735.4,184.387,85.5961,1.14667e+11,1.0191,0.963702,90,1.33333,217,0.01,2
app_37,33.873,20346,7824.3,51.4861,93.9985,2.71183e+10,1.01892,0.963702,83,0.288492,239,0.01,2
app_38,68.1564,20433.8,7661.7,282.49,81.2583,1.74419e+11,1.02091,0.963702,94,2.15333,207,0.01,2
app_39,28.895,20495.4,7742.7,183.576,77.574,1.14934e+11,1.01812,0.963702,100,1.47352,197,0.01,2
app_4,2.5688,20300,7863.5,60.9912,787.225,2.34258e+09,1.01706,0.963702,10,0.0029766,1996,0.1,1
app_40,76.5302,20589.9,7571.1,305.091,89.5027,1.93886e+11,1.03027,0.963702,84,2.15429,232,0.01,2
app_41,11.7582,20290.7,7662.8,224.221,100.376,1.41298e+11,1.0251,0.963702,77,1.41298,254,0.01,2
app_42,74.5312,20387.3,7724.8,213.22,70.0699,1.34783e+11,1.01787,0.963702,110,1.92546,178,0.01,2
app_43,46.986,20146.7,7878.5,42.2432,75.0603,2.52852e+10,1.01217,0.963702,105,0.337136,189,0.01,2
app_44,21.3625,20468.9,7727.7,200.888,87.9608,1.20917e+11,1.01929,0.963702,88,1.37406,224,0.01,2
app_45,39.8461,20296.5,7669.6,252.384,81.4294,1.62105e+11,1.02149,0.963702,94,2.00129,207,0.01,2
app_46,29.5367,20286.4,7788.6,149.097,78.8958,9.10499e+10,1.01527,0.963702,98,1.15253,200,0.01,2
app_47,76.6537,20401.8,7796.9,124.504,89.16,7.65298e+10,1.01608,0.963702,87,0.859885,227,0.01,2
app_48,90.5718,21144.7,7718.7,74.0666,9.00526,3.30939e+10,1.03202,0.963702,856,3.6771,24,0.001,3
app_49,185.708,21370.7,7583.12,260.323,7.50144,8.72646e+10,1.04297,0.963702,991,12.4664,20,0.001,3
app_5,8.51147,19223.3,7843.9,70.2167,870.048,9.63486e+09,1.01865,0.963702,9,0.0110745,2092,0.1,1
app_50,894.026,22084.1,7505.8,306.753,8.04947,1.15506e+11,1.04969,0.963702,905,14.4382,22,0.001,3
app_51,139.427,21548.5,7495.8,418.771,7.35635,1.5561e+11,1.04556,0.963702,999,19.477,20,0.001,3
app_52,228.157,21770.6,7575.4,316.171,7.8214,1.36853e+11,1.03731,0.963702,967,17.1067,21,0.001,3
app_53,680.386,21788.7,7393.3,342.288,7.88566,1.44302e+11,1.06135,0.963702,952,18.0377,21,0.001,3
app_54,772.586,21794.1,7671.8,92.578,7.93258,4.37296e+10,1.03687,0.963702,969,5.4662,21,0.001,3
app_55,326.603,21667.5,7668.9,117.721,7.27312,3.18032e+10,1.03887,0.963702,1097,4.54331,19,0.001,3
app_56,576.184,21952.4,7457.7,443.645,7.52794,1.68323e+11,1.04904,0.963702,1021,21.0404,20,0.001,3
app_57,650.384,22065.9,7479.67,356.84,8.8259,1.38613e+11,1.0501,0.963702,830,15.5491,24,0.001,3
app_58,707.06,21174.7,7526.1,389.685,9.9963,1.4411e+11,1.043,0.963702,790,14.411,25,0.001,3
app_59,58.4774,21487.5,7594.2,241.701,8.21904,8.10347e+10,1.04231,0.963702,917,10.1293,22,0.001,3
app_6,0.956987,19371.3,7886.82,52.8644,656.607,5.26997e+09,1.01367,0.963702,12,0.00802406,1591,0.1,1
app_60,499.607,22505.3,7472.6,433.078,7.08143,1.71225e+11,1.0466,0.963702,1021,24.4607,20,0.001,3
app_7,1.62267,19764.7,7848.7,79.7445,785.235,3.82506e+10,1.01433,0.963702,10,0.0486649,1941,0.1,1
app_8,6.14805,20210.6,7729.9,177.081,964.287,1.05899e+11,1.02096,0.963702,8,0.109853,2438,0.1,1
app_9,7.16983,18707.5,7756.6,167.206,774.868,1.33078e+11,1.01398,0.963702,10,0.171714,1813,0.1,1
