app_id,start_app,end_app,effective_cpu,effective_io,effective_iter,total_bytes,stretch,utilization,Tcomp,Tio,iterations,priority,group_id
app_1,3.98911,20546.6,7628.1,296.566,850.555,1.25493e+11,1.03178,0.962608,9,0.147465,2186,1,1
app_10,0.407328,20604.6,7518.2,425.538,832.33,1.7136e+11,1.04037,0.962608,9,0.205962,2151,1,1
app_11,62.0336,20456.6,7737.7,82.4699,81.3356,4.07657e+10,1.02848,0.962608,95,0.50328,209,1,2
app_12,81.3517,20508.8,7622.2,263.988,76.8839,1.37365e+11,1.03099,0.962608,100,1.80743,196,1,2
app_13,72.4853,20504.3,7727,113.886,81.2132,6.23442e+10,1.02704,0.962608,96,0.769681,207,1,2
app_14,0.0396534,20596.6,7584.3,305.838,74.8928,1.57335e+11,1.03337,0.962608,101,2.09779,194,1,2
app_15,8.12879,20645.9,7584.1,307.299,71.0786,1.67855e+11,1.032,0.962608,106,2.36415,184,1,2
app_16,41.3627,20797.9,7490.9,345.124,87.3571,1.84063e+11,1.04235,0.962608,86,2.09162,227,1,2
app_17,52.0056,20383.4,7782.4,53.6398,78.4304,2.51057e+10,1.02466,0.962608,100,0.321868,199,1,2
app_18,87.9442,20552.4,7585.73,287.873,80.1789,1.51162e+11,1.03401,0.962608,94,1.88399,207,1,2
app_19,82.4916,20673.9,7549,269.252,71.7354,1.43099e+11,1.04003,0.962608,105,2.01548,186,1,2
app_2,3.60491,20075,7789.5,135.195,773.238,4.3733e+10,1.02129,0.962608,10,0.0565756,1947,1,1
app_20,100.276,20439.4,7804.5,26.3245,70.0358,1.2845e+10,1.02337,0.962608,112,0.183499,178,1,2
app_21,69.9669,20399.9,7668.19,246.75,70.1305,1.3101e+11,1.02575,0.962608,110,1.84948,178,1,2
app_22,16.5728,20497.6,7599.3,331.25,63.7606,1.85515e+11,1.02764,0.962608,120,2.89867,162,1,2
app_23,36.9392,20491.6,7642.2,227.462,77.0301,1.21867e+11,1.03039,0.962608,100,1.58268,196,1,2
app_24,2.14516,20489.8,7813.3,56.3058,86.312,2.83038e+10,1.0202,0.962608,90,0.325332,221,1,2
app_25,78.1277,20353.5,7720.8,169.804,77.0949,8.41807e+10,1.02499,0.962608,101,1.09326,195,1,2
app_26,19.9527,20468.1,7727.7,142.039,74.6111,7.45043e+10,1.02535,0.962608,103,1.00682,192,1,2
app_27,72.3128,20709.3,7572.2,298.464,79.4077,1.5823e+11,1.03487,0.962608,95,2.00291,206,1,2
app_28,20.1264,20488.7,7640.1,244.357,78.1698,1.29195e+11,1.02969,0.962608,98,1.65634,200,1,2
app_29,73.4666,20489.4,7817.3,77.8497,71.2823,4.05524e+10,1.01809,0.962608,109,0.571161,182,1,2
app_3,1.67105,20289.7,7732,188.336,860.409,7.63253e+10,1.02455,0.962608,9,0.0887504,2183,1,1
app_30,37.1121,20401,7704.4,161.329,82.1436,8.72805e+10,1.02674,0.962608,94,1.0644,210,1,2
app_31,913.7,21431.8,7717.8,187.869,7.80793,1.14489e+11,1.02141,0.962608,993,14.3111,20,1,3
app_32,663.032,21592.2,7939.9,5.10837,7.58485,3.37296e+09,1.00714,0.962608,1029,0.42162,20,1,3
app_33,876.214,21663.2,7695.8,259.825,8.62893,1.63028e+11,1.01796,0.962608,916,18.1143,22,1,3
app_34,720.917,22397.1,7875.9,95.2766,7.2687,6.15682e+10,1.00788,0.962608,1043,8.79546,20,1,3
app_35,428.872,21357.3,7751.63,155.874,7.75989,9.43942e+10,1.01963,0.962608,1025,13.3163,20,1,3
app_36,294.947,21393.8,7601.1,208.78,8.46311,1.26882e+11,1.0352,0.962608,911,15.8603,22,1,3
app_37,1014.28,22120.6,7885.3,64.374,7.60466,3.35183e+10,1.01025,0.962608,1019,4.18979,20,1,3
app_38,243.619,21675,7794.79,122.764,7.45966,8.22486e+10,1.01561,0.962608,1036,11.7498,20,1,3
app_39,757.534,21905.1,7753.6,180.906,7.78455,1.14686e+11,1.01674,0.962608,1034,14.3357,20,1,3
app_4,3.23958,19968.4,7565.2,377.919,687.919,1.62628e+11,1.03522,0.962608,11,0.236378,1720,1,1
app_40,522.168,22039.3,7545.4,304.069,8.66664,1.76853e+11,1.03597,0.962608,839,19.6504,24,1,3
app_41,259.458,21141.1,7853.8,20.1777,8.3661,1.36626e+10,1.01685,0.962608,934,1.51806,22,1,3
app_42,524.094,21969.2,7618.5,266.622,8.48656,1.48598e+11,1.02999,0.962608,882,16.5109,23,1,3
app_43,188.468,20484.7,7563.4,301.704,9.46276,1.79985e+11,1.03314,0.962608,816,17.9985,24,1,3
app_44,1043.93,21177,7614.9,340.198,7.56848,2.03838e+11,1.02318,0.962608,1028,25.4797,19,1,3
app_45,915.491,22041.6,7814.2,35.9217,7.57535,1.86546e+10,1.02134,0.962608,1021,2.33183,20,1,3
app_46,871.398,21946.5,7756.5,91.3723,7.31128,5.40074e+10,1.02426,0.962608,1049,7.71534,19,1,3
app_47,935.832,21739.5,7728.9,200.734,7.21547,1.09005e+11,1.02068,0.962608,1051,15.5721,19,1,3
app_48,423.672,21723.9,7558.1,277.581,7.74433,1.77175e+11,1.03422,0.962608,959,22.1468,21,1,3
app_49,619.643,22116.4,7827.8,150.726,7.35695,9.35479e+10,1.00993,0.962608,1037,13.364,20,1,3
app_5,0.745214,18837.4,7543.2,385.744,939.405,1.57118e+11,1.03892,0.962608,8,0.167147,2222,1,1
app_50,802.745,21920.2,7698.6,180.055,8.10159,1.20133e+11,1.02318,0.962608,977,15.0166,21,1,3
app_51,696.39,21477.8,7689.5,246.019,7.56912,1.51481e+11,1.02028,0.962608,1001,21.6401,20,1,3
app_52,53.5399,21300.8,7854.8,101.46,6.66233,6.00185e+10,1.01076,0.962608,1159,10.0031,18,1,3
app_53,414.809,21112.6,7687.6,161.643,7.20328,9.1238e+10,1.02843,0.962608,1043,13.034,19,1,3
app_54,568.925,21768.7,7649,274.271,7.17549,1.59775e+11,1.02449,0.962608,1055,22.825,19,1,3
app_55,873.571,21938.7,7668.7,215.747,7.22172,1.28916e+11,1.02595,0.962608,1036,18.4166,19,1,3
app_56,299.962,21284.7,7635.1,279.542,7.86505,1.82061e+11,1.02339,0.962608,990,22.7576,20,1,3
app_57,248.12,20693.1,7680,213.999,8.46082,1.44601e+11,1.02242,0.962608,894,18.0752,22,1,3
app_58,684.95,21817.2,7851.5,10.3723,6.54763,5.76153e+09,1.01817,0.962608,1156,0.823075,18,1,3
app_59,579.563,21303.9,7880.5,47.0181,8.83039,2.73533e+10,1.01165,0.962608,913,3.03926,22,1,3
app_6,6.85276,18786.9,7764,166.254,778.254,6.43333e+10,1.02193,0.962608,10,0.0826907,1828,1,1
app_60,37.2039,20746.9,7836,38.8776,8.62369,2.4937e+10,1.01769,0.962608,943,3.11712,22,1,3
app_7,5.22377,19424.8,7750.6,173.511,775.906,7.63324e+10,1.02211,0.962608,10,0.0983665,1886,1,1
app_8,0.876953,19230.6,7790.5,135.05,777.582,4.59096e+10,1.02088,0.962608,10,0.0590857,1870,1,1
app_9,5.13412,19233.5,7568.5,358.999,839.662,1.53538e+11,1.036,0.962608,9,0.183001,2022,1,1
