app_id,start_app,end_app,effective_cpu,effective_io,effective_iter,total_bytes,stretch,utilization,Tcomp,Tio,iterations,priority,group_id
app_1,6.2463,27808.5,4507.01,82.7399,449.657,5.78604e+10,1.75251,0.901074,10,0.128865,1862,1,1
app_10,82.0783,22523.7,6930.4,122.263,75.8352,1.18541e+11,1.13492,0.901074,92,1.55975,214,1,1
app_11,62.3062,22128.9,6984.89,149.841,68.7603,1.46373e+11,1.12182,0.901074,103,2.15254,190,1,1
app_12,1.27247,22343.5,6934.8,139.308,76.6087,1.36185e+11,1.13138,0.901074,90,1.7919,217,1,1
app_13,88.5852,22347.4,6996.78,181.227,73.8078,1.77194e+11,1.11514,0.901074,94,2.42731,207,1,1
app_14,61.677,22463.5,7010.1,45.9162,78.2104,4.1603e+10,1.13448,0.901074,90,0.533371,221,1,1
app_15,86.9104,22196.3,6965.93,151.033,65.4242,1.48396e+11,1.12449,0.901074,106,2.28301,184,1,1
app_16,105.393,21961.4,7137.78,165.611,61.5934,1.62162e+11,1.0959,0.901074,117,2.63248,167,1,1
app_17,70.0909,22286.8,7064.12,50.6679,73.6878,4.68643e+10,1.12502,0.901074,96,0.641976,205,1,1
app_18,93.6938,22145.5,6993.02,148.418,68.7916,1.44661e+11,1.12081,0.901074,101,2.12737,193,1,1
app_19,31.577,22223.7,7032.6,8.28273,79.5385,4.68638e+09,1.1368,0.901074,89,0.0585797,223,1,1
app_2,7.63841,27605.4,4532.69,47.4072,452.434,2.50187e+10,1.75527,0.901074,10,0.0553511,1848,1,1
app_20,4.76562,22012.1,7157.79,51.1349,70.1843,4.81618e+10,1.11019,0.901074,102,0.688025,194,1,1
app_21,42.4852,22630.4,7061.25,39.1194,79.344,3.47018e+10,1.1274,0.901074,89,0.439263,224,1,1
app_22,10.2458,22290.6,7028.65,89.9779,68.4292,8.67582e+10,1.12432,0.901074,104,1.27586,190,1,1
app_23,52.8484,22113.4,7121.6,50.7099,65.7526,4.72003e+10,1.11595,0.901074,109,0.726159,182,1,1
app_24,89.5933,22381.5,7021.2,115.095,67.7207,1.12048e+11,1.12151,0.901074,104,1.67236,189,1,1
app_25,53.4963,22407.8,6910.7,53.9443,78.7603,4.98121e+10,1.14934,0.901074,88,0.630533,224,1,1
app_26,9.19372,22386,6934.88,110.142,70.8145,1.06618e+11,1.13612,0.901074,97,1.52312,202,1,1
app_27,411.431,21732.8,7812.2,75.4681,7.43485,7.50877e+10,1.01429,0.901074,1035,10.7268,20,1,1
app_28,218.813,20648.8,7852.7,63.1351,9.10464,6.26921e+10,1.01069,0.901074,836,6.96579,24,1,1
app_29,244.661,21327.3,7823.1,8.17984,9.79909,7.72936e+09,1.0216,0.901074,790,0.858818,26,1,1
app_3,3.26773,27933.8,4626.14,113.889,419.457,8.55687e+10,1.6979,0.901074,11,0.204221,1720,1,1
app_30,96.3858,21415.6,7790.2,120.593,7.60381,1.20056e+11,1.01135,0.901074,1023,15.0069,20,1,1
app_31,55.5945,20579,7780.28,19.4447,8.59063,1.91665e+10,1.02571,0.901074,911,2.39581,22,1,1
app_32,220.069,20668.1,7779.5,77.5202,8.19163,7.71537e+10,1.01825,0.901074,959,8.57264,21,1,1
app_33,173.787,20686.9,7796.6,126.541,7.3762,1.26036e+11,1.00976,0.901074,1044,18.0051,19,1,1
app_34,545.595,21320.9,7782.8,160.997,8.86812,1.60519e+11,1.00714,0.901074,858,17.8355,23,1,1
app_35,863.194,21335.8,7847.6,13.8555,8.0932,1.34365e+10,1.01768,0.901074,984,1.67956,21,1,1
app_36,810.546,22111.9,7841.8,97.2914,7.61872,9.69658e+10,1.00771,0.901074,1040,12.1207,20,1,1
app_37,85.3825,20391.9,7825.5,81.463,8.29828,8.09321e+10,1.01183,0.901074,954,10.1165,21,1,1
app_38,794.07,21680.6,7756.7,100.27,7.47163,1.00102e+11,1.01823,0.901074,1082,14.3002,19,1,1
app_39,217.043,21440.5,7782.3,114.68,7.7215,1.1422e+11,1.0131,0.901074,1029,14.2775,20,1,1
app_4,3.10072,27311.9,4357.21,133.414,484.436,1.02787e+11,1.79372,0.901074,9,0.21237,1966,1,1
app_40,340.517,21459.2,7831.7,127.266,7.21308,1.26768e+11,1.00522,0.901074,1085,18.1097,19,1,1
app_41,467.913,21288.1,7844.1,124.742,8.05513,1.24355e+11,1.00396,0.901074,963,15.5444,21,1,1
app_42,248.277,20465.6,7874.7,37.7329,8.82734,3.73139e+10,1.01112,0.901074,905,4.14598,22,1,1
app_43,607.18,21589.9,7731,125.499,7.10928,1.2517e+11,1.01831,0.901074,1058,17.8814,19,1,1
app_44,733.337,21272.1,7741.3,178.549,8.14015,1.78063e+11,1.01018,0.901074,952,22.2579,21,1,1
app_45,720.121,21541.2,7870.3,5.05454,9.00154,4.55166e+09,1.01589,0.901074,893,0.50574,23,1,1
app_46,563.138,21036.7,7658.8,158.965,8.4713,1.58434e+11,1.02338,0.901074,892,19.8043,22,1,1
app_47,13.7717,21151.7,7850.32,50.4564,6.94941,5.02828e+10,1.01258,0.901074,1135,8.38047,18,1,1
app_48,182.854,20611.9,7782.3,191.921,8.1602,1.91375e+11,1.0033,0.901074,987,23.9219,20,1,1
app_49,489.209,21121,7721.3,157.396,7.78166,1.57035e+11,1.01544,0.901074,1008,19.6294,20,1,1
app_5,1.56381,27716.1,4498.85,130.72,448.286,1.0556e+11,1.73746,0.901074,10,0.235626,1837,1,1
app_50,431.397,20999,7859.4,125.592,8.38579,1.25201e+11,1.00193,0.901074,950,15.6501,21,1,1
app_51,378.11,20505,7907.6,21.1252,9.64786,2.05712e+10,1.00906,0.901074,841,2.05712,24,1,1
app_52,446.836,21567.9,7668.7,182.648,8.17478,1.82282e+11,1.01898,0.901074,916,20.2536,22,1,1
app_53,513.237,20808.4,7796.1,130.08,10.2628,1.29775e+11,1.00935,0.901074,771,11.7977,26,1,1
app_54,283.51,20914.6,7714.5,182.752,7.61478,1.82332e+11,1.01306,0.901074,1006,23.1287,20,1,1
app_55,399.679,20760.9,7693.5,183.622,9.19718,1.83083e+11,1.01567,0.901074,858,20.3426,23,1,1
app_56,261.418,21611,7843.8,31.9593,6.33338,3.17432e+10,1.0158,0.901074,1210,5.29054,17,1,1
app_57,795.753,21390.7,7853.9,121.111,7.58663,1.20996e+11,1.00315,0.901074,1018,17.2851,20,1,1
app_58,287.855,21061,7754.2,141.876,8.89361,1.41302e+11,1.01324,0.901074,845,15.7002,24,1,1
app_59,943.757,21888.4,7738.25,86.0325,7.24249,8.56388e+10,1.02251,0.901074,1070,12.2341,19,1,1
app_6,7.32141,28788.3,4438.55,54.5803,494.547,3.34843e+10,1.78889,0.901074,9,0.0677821,2166,1,1
app_60,128.799,21247.1,7706.9,197.357,7.65314,1.96933e+11,1.01217,0.901074,1021,24.6166,20,1,1
app_7,100.227,22263.4,7136.57,148.442,65.7965,1.45136e+11,1.09864,0.901074,108,2.23286,182,1,1
app_8,16.4107,22028,7115.37,72.0593,70.8402,6.89536e+10,1.11354,0.901074,101,0.985051,196,1,1
app_9,17.2491,22336.7,7102.6,19.6686,65.2587,1.63084e+10,1.12377,0.901074,109,0.250898,183,1,1
