app_id,start_app,end_app,effective_cpu,effective_io,effective_iter,total_bytes,stretch,utilization,Tcomp,Tio,iterations,priority,group_id
app_1,11.0531,26676.1,4727.2,155.119,473.889,1.39303e+11,1.64389,0.889467,10,0.293888,1806,1,1
app_10,62.1442,22626.3,6912,78.3834,90.6705,7.28923e+10,1.14533,0.889467,76,0.801014,261,1,1
app_11,35.8185,22226.4,6846.5,175.769,75.9585,1.72254e+11,1.1398,0.889467,90,2.2665,216,1,1
app_12,22.7315,21876.9,7048.9,121.024,65.4946,1.1707e+11,1.11639,0.889467,108,1.80107,182,1,1
app_13,100.924,21848.1,7122,156.262,63.0005,1.52687e+11,1.0997,0.889467,113,2.4236,173,1,1
app_14,3.53276,21942.6,6962.02,176.224,67.3707,1.72413e+11,1.12132,0.889467,103,2.55002,189,1,1
app_15,21.5293,21922.4,7147.7,14.9382,74.771,1.0997e+10,1.11752,0.889467,96,0.146627,207,1,1
app_16,64.7665,22180.7,7097.1,21.4441,69.2316,1.81157e+10,1.12435,0.889467,103,0.258796,194,1,1
app_17,58.9074,22105.5,6869.1,133.428,74.9466,1.29036e+11,1.14316,0.889467,92,1.72048,212,1,1
app_18,67.706,22246.5,7109.9,7.4789,71.2198,4.14982e+09,1.12454,0.889467,100,0.0584481,199,1,1
app_19,52.6428,22235.1,6896.1,142.711,78.9147,1.38885e+11,1.13717,0.889467,87,1.75804,226,1,1
app_2,9.05075,27429,4792.36,46.2957,480.995,1.92443e+10,1.66265,0.889467,10,0.040009,1910,1,1
app_20,16.5926,22323.3,6882.32,66.6415,76.6672,6.30119e+10,1.15185,0.889467,89,0.829104,221,1,1
app_21,75.8383,22205.5,6962.3,133.434,78.7295,1.28748e+11,1.12818,0.889467,89,1.62972,220,1,1
app_22,0.561888,22282.7,6983.6,98.5735,82.2569,9.4269e+10,1.13028,0.889467,85,1.13577,231,1,1
app_23,61.0721,22071.9,6938.7,133.289,74.0435,1.29496e+11,1.13183,0.889467,94,1.74995,208,1,1
app_24,57.4989,22107.6,6973.1,159.438,72.8407,1.55738e+11,1.1222,0.889467,95,2.1334,205,1,1
app_25,15.6649,22099.5,7072.6,78.6857,65.1518,7.54011e+10,1.11919,0.889467,107,1.16002,185,1,1
app_26,67.7846,21972.7,6943.4,202.439,69.9639,1.98517e+11,1.12015,0.889467,100,2.83596,194,1,1
app_27,18.5121,22016.8,7015.4,96.5635,78.0827,9.32135e+10,1.1254,0.889467,90,1.19504,219,1,1
app_28,74.3887,21896.4,6966,186.642,65.8775,1.83793e+11,1.11891,0.889467,106,2.78475,183,1,1
app_29,141.3,21503.9,7695.5,200.154,7.83646,1.99845e+11,1.01326,0.889467,974,24.9807,21,1,1
app_3,5.12832,27675.3,4617.72,106.233,512.808,8.24682e+10,1.70206,0.889467,9,0.160757,2087,1,1
app_30,86.0541,20839.7,7794,120.375,8.29112,1.19843e+11,1.01089,0.889467,975,13.3159,21,1,1
app_31,899.473,22009.3,7756.8,213.378,8.19022,2.12836e+11,1.00381,0.889467,974,23.6485,21,1,1
app_32,611.455,21311.9,7753.5,92.0974,7.47695,9.16216e+10,1.01974,0.889467,1053,11.4527,19,1,1
app_33,557.116,21784.9,7872.3,36.9947,7.84111,3.66123e+10,1.01152,0.889467,974,4.57654,21,1,1
app_34,768.371,22141.3,7838,102.57,7.03279,1.02196e+11,1.00753,0.889467,1086,14.5994,19,1,1
app_35,24.3649,20736,7762.1,83.8891,7.6224,8.34599e+10,1.01969,0.889467,1021,10.4325,20,1,1
app_36,762.972,22031.1,7816.6,70.1475,8.53613,6.96562e+10,1.01442,0.889467,889,7.73958,23,1,1
app_37,933.547,21778.8,7769.2,65.8701,7.56278,6.53559e+10,1.02112,0.889467,1023,8.16949,20,1,1
app_38,168.306,21154.1,7691.9,154.007,8.66065,1.53646e+11,1.01969,0.889467,859,17.0718,23,1,1
app_39,722.477,20986.3,7863.9,61.3347,9.63481,6.0788e+10,1.0095,0.889467,828,6.75422,24,1,1
app_4,1.18542,28081.1,4735.21,84.6213,474.999,5.51977e+10,1.67,0.889467,10,0.116206,1960,1,1
app_40,924.16,21644.5,7748.6,106.803,8.26018,1.06364e+11,1.01846,0.889467,911,13.2955,22,1,1
app_41,118.491,21107.8,7841.4,38.1478,8.34188,3.78637e+10,1.01532,0.889467,941,4.73296,22,1,1
app_42,754.508,21130.3,7696.2,89.2749,7.3141,8.89584e+10,1.0276,0.889467,1042,11.1198,19,1,1
app_43,688.37,21516.3,7900.7,26.8224,7.69186,2.65087e+10,1.00918,0.889467,1039,3.78696,20,1,1
app_44,126.027,21273.4,7939.2,20.6035,8.01258,2.01835e+10,1.0051,0.889467,995,2.52294,21,1,1
app_45,470.785,21266,7782.5,175.173,7.67923,1.74839e+11,1.00536,0.889467,1011,24.9769,20,1,1
app_46,323.466,20440.6,7703.5,164.318,10.4535,1.63722e+11,1.01688,0.889467,755,16.3722,26,1,1
app_47,825.005,21389.7,7752.3,103.45,8.49707,1.03035e+11,1.01842,0.889467,907,12.8794,22,1,1
app_48,177.33,21726.1,7749.9,169.606,7.12736,1.69391e+11,1.01019,0.889467,1079,24.1987,19,1,1
app_49,473.316,21744.2,7900.9,24.2502,8.21432,2.38059e+10,1.0095,0.889467,944,2.6451,22,1,1
app_5,10.3317,27836.7,4751.67,84.8929,473.837,5.67153e+10,1.66376,0.889467,10,0.119653,1931,1,1
app_50,772.945,21675.5,7738.9,196.599,7.63836,1.9614e+11,1.00819,0.889467,998,24.5174,20,1,1
app_51,992.225,21361.7,7781.5,130.221,6.50368,1.30009e+11,1.01119,0.889467,1200,21.6681,17,1,1
app_52,853.745,21698.3,7712.9,159.295,8.78877,1.58784e+11,1.0163,0.889467,887,17.6427,23,1,1
app_53,1032.42,20825,7903.4,75.4993,7.64352,7.51185e+10,1.00269,0.889467,1042,10.1478,19,1,1
app_54,261.722,20878.9,7782,17.5944,8.07018,1.7324e+10,1.02573,0.889467,965,2.1655,21,1,1
app_55,214.528,20534.3,7860.6,19.1691,7.92931,1.87418e+10,1.01531,0.889467,1001,2.34273,20,1,1
app_56,315.307,20941.7,7821.8,34.1026,7.88192,3.37113e+10,1.01839,0.889467,1020,4.21391,20,1,1
app_57,468.498,21027.3,7745.4,181.575,8.24594,1.81095e+11,1.00927,0.889467,950,22.6369,21,1,1
app_58,424.343,20465.9,7829.9,22.4933,8.05101,2.18848e+10,1.01888,0.889467,1000,2.7356,20,1,1
app_59,326.481,20790.8,7852.5,57.0234,8.02218,5.67449e+10,1.01147,0.889467,1015,7.09311,20,1,1
app_6,0.945538,26748.3,4516.8,109.539,567.219,7.70653e+10,1.74145,0.889467,8,0.135918,2205,1,1
app_60,725.324,21760.4,7792.9,107.821,8.30449,1.07461e+11,1.01261,0.889467,926,13.4327,22,1,1
app_7,1.22078,28296.9,4678.86,55.4856,518.825,3.15992e+10,1.69835,0.889467,9,0.0608848,2186,1,1
app_8,11.2752,26949.3,4872.69,78.3083,442.665,4.92566e+10,1.62537,0.889467,11,0.111189,1707,1,1
app_9,37.687,22243.7,7052.12,82.6532,68.9195,8.00127e+10,1.12168,0.889467,102,1.17666,194,1,1
