app_id,start_app,end_app,effective_cpu,effective_io,effective_iter,total_bytes,stretch,utilization,Tcomp,Tio,iterations,priority,group_id
app_1,2.03062,19592,7747.1,252.9,646.237,1.77919e+11,1.00946,0.963768,12,0.275416,1582,0.0790691,1
app_10,0.68263,19118.2,7838.1,161.9,712.041,1.07934e+11,1.00679,0.963768,11,0.151592,1703,0.0851464,1.00001
app_11,9.13191,18466.2,7808.8,191.2,867.683,1.18094e+11,1.00922,0.963768,9,0.136053,2003,0.100112,1.00001
app_12,28.013,20156.4,7816.9,183.1,89.3839,1.05098e+11,1.00985,0.963768,87,1.18087,225,0.0112348,1.00001
app_13,76.6752,20392.6,7639.3,360.7,90.4092,2.04035e+11,1.01997,0.963768,85,2.24214,229,0.0114339,1.00001
app_14,55.1287,20050.3,7751.74,248.263,99.9456,1.32675e+11,1.01466,0.963768,78,1.33791,250,0.0124525,1.00001
app_15,29.7526,20006.8,7948.7,51.3,71.4783,2.22449e+10,1.00365,0.963768,110,0.313309,180,0.00898521,1.00002
app_16,59.5416,20119.2,7678.45,321.554,83.0538,1.86477e+11,1.01717,0.963768,92,2.23854,211,0.0105337,1.00002
app_17,15.7344,20013.2,7880.2,119.8,99.2566,6.59223e+10,1.00678,0.963768,80,0.665882,248,0.0123833,1.00002
app_18,89.5415,20043.6,7970.9,29.1,76.5093,1.38357e+10,1.00191,0.963768,104,0.179684,191,0.00953375,1.00002
app_19,93.7705,20594.1,7591.3,408.7,66.2003,2.16238e+11,1.02465,0.963768,115,3.27634,169,0.00842313,1.00002
app_2,4.84611,18047.2,7900.4,99.6,987.433,3.60268e+10,1.00801,0.963768,8,0.0365013,2227,0.111322,1
app_20,81.4675,20207,7874.3,125.7,89.6125,6.88867e+10,1.00715,0.963768,88,0.774008,225,0.0112422,1.00002
app_21,15.7703,20074.9,7839.3,160.7,88.7309,8.48235e+10,1.00958,0.963768,89,0.953073,222,0.0110561,1.00002
app_22,93.1357,20333.9,7648.2,351.8,62.7429,1.84982e+11,1.0213,0.963768,123,2.93623,158,0.00787978,1.00002
app_23,11.1866,20212.7,7921.4,78.6,94.1842,4.49446e+10,1.00422,0.963768,84,0.478134,237,0.0118,1.00002
app_24,80.1639,20195,7719.5,280.5,77.0602,1.46612e+11,1.01702,0.963768,101,1.90405,194,0.0096929,1.00002
app_25,30.0279,20135.6,7840.5,159.5,76.5711,8.17876e+10,1.00981,0.963768,103,1.06218,192,0.00959938,1.00003
app_26,64.9816,20024,7969.8,30.2,78.2085,1.38849e+10,1.00204,0.963768,102,0.178012,195,0.00974444,1.00003
app_27,65.3883,20615.7,7656.7,343.3,73.0623,1.84061e+11,1.02031,0.963768,103,2.52138,189,0.00940153,1.00003
app_28,68.8257,20023.8,7958.1,41.9,69.6389,1.7016e+10,1.00312,0.963768,114,0.243085,175,0.00873651,1.00003
app_29,37.8531,20016.9,7964.2,35.8,80.4183,1.66615e+10,1.0024,0.963768,99,0.208269,201,0.0100363,1.00003
app_3,6.49532,18240.7,7799.2,200.8,865.855,1.36892e+11,1.00805,0.963768,9,0.158074,1976,0.0987538,1
app_30,28.4083,20167.4,7871.7,128.3,74.2583,6.45409e+10,1.00803,0.963768,107,0.860545,186,0.00927087,1.00003
app_31,24.0859,20016.9,7952.5,47.5,82.2838,2.27188e+10,1.00311,0.963768,97,0.273721,204,0.0101839,1.00003
app_32,759.862,22181.1,7423.3,576.7,8.72311,2.18444e+11,1.04688,0.963768,862,24.2715,23,0.00112773,1.00003
app_33,475.587,22144.5,7367.67,632.331,6.38966,1.67013e+11,1.06176,0.963768,1110,24.1814,18,0.000881327,1.00003
app_34,372.643,21069.6,7911.9,88.1,8.17628,1.6963e+10,1.00897,0.963768,985,2.12037,21,0.00101243,1.00003
app_35,365.063,20783.6,7808.5,191.5,7.45148,4.8567e+10,1.01819,0.963768,1047,6.93814,19,0.000948132,1.00004
app_36,148.116,21109.3,7702.3,297.7,7.47614,1.0783e+11,1.02431,0.963768,1056,15.4043,19,0.00093252,1.00004
app_37,366.591,20697,7929.2,70.8,8.08758,1.72297e+10,1.00674,0.963768,952,2.15371,21,0.00104733,1.00004
app_38,2.87163,20683.9,7658.7,341.3,7.3518,1.07596e+11,1.03009,0.963768,1058,15.3709,19,0.000930873,1.00004
app_39,378.301,20870.9,7771.4,228.6,8.04893,8.34252e+10,1.01848,0.963768,992,10.4281,20,0.000996997,1.00004
app_4,4.64735,19031.2,7819.5,180.5,869.69,8.9301e+10,1.01153,0.963768,9,0.102645,2067,0.103336,1
app_40,314.316,21100.8,7536,464,8.237,1.11479e+11,1.0461,0.963768,901,13.9349,22,0.0010922,1.00004
app_41,221.764,20964.9,7748.31,251.688,8.201,5.34388e+10,1.02541,0.963768,972,6.1709,21,0.00102153,1.00004
app_42,659.645,22135.4,7425.7,574.3,7.33936,1.05599e+11,1.06223,0.963768,1030,15.0856,20,0.000956367,1.00004
app_43,575.929,21313.1,7955.7,44.3,9.80397,1.37158e+10,1.00384,0.963768,827,1.37158,25,0.00120705,1.00004
app_44,342.23,22134.8,7336.1,663.9,9.16482,1.72013e+11,1.06551,0.963768,812,19.1126,25,0.00120274,1.00004
app_45,639.509,21263.5,7724.1,275.9,7.84023,8.65835e+10,1.02424,0.963768,999,10.8229,20,0.000990124,1.00004
app_46,144.413,21911.3,7370.3,629.7,7.71229,1.55078e+11,1.06307,0.963768,966,19.3848,21,0.001014,1.00005
app_47,568.6,22429.2,7419,581,8.12551,1.86488e+11,1.05187,0.963768,914,23.311,22,0.00106596,1.00005
app_48,564.407,22456.8,7230.4,769.6,8.68733,2.10493e+11,1.07514,0.963768,837,23.3881,24,0.00116185,1.00005
app_49,761,21472.2,7690.6,309.4,10.0672,7.0415e+10,1.03079,0.963768,771,7.0415,26,0.00128451,1.00005
app_5,6.52274,19619.3,7778.6,221.4,973.296,1.56967e+11,1.00812,0.963768,8,0.161323,2384,0.119164,1.00001
app_50,626.418,22157.9,7607.3,392.7,7.0327,9.45928e+10,1.03871,0.963768,1052,13.5133,19,0.000938203,1.00005
app_51,35.7034,20809.7,7630.2,369.8,7.6994,9.99055e+10,1.03491,0.963768,1030,12.4882,20,0.000959211,1.00005
app_52,331.884,20907.3,7781,219,7.92846,5.9556e+10,1.02034,0.963768,998,7.4445,20,0.000994263,1.00005
app_53,49.6591,21749.1,7749.1,250.9,8.21098,6.57754e+10,1.02369,0.963768,899,8.22193,23,0.00110173,1.00005
app_54,230.92,21605,7129.8,870.2,7.86627,1.86944e+11,1.09338,0.963768,952,23.368,21,0.00102515,1.00005
app_55,780.144,22352.7,7411.9,588.1,7.33052,1.83393e+11,1.05328,0.963768,1012,22.9241,20,0.000965769,1.00005
app_56,478.387,22043.2,7419.3,580.7,7.48173,1.37717e+11,1.05862,0.963768,1008,17.2146,20,0.000974716,1.00006
app_57,484.018,20933,7851.2,148.8,9.7521,3.00231e+10,1.01507,0.963768,805,3.00231,25,0.0012373,1.00006
app_58,512.203,21835.5,7578.7,421.3,9.01845,1.14583e+11,1.03987,0.963768,856,12.7314,24,0.00115032,1.00006
app_59,397.572,23050.6,7482.1,517.9,6.83506,1.90764e+11,1.04264,0.963768,1078,27.252,19,0.000904673,1.00006
app_6,7.17514,18696.8,7789.6,210.4,973.8,1.27793e+11,1.01043,0.963768,8,0.131205,2276,0.113781,1.00001
app_60,771.9,22789.4,7466.5,533.5,9.22517,1.34123e+11,1.05255,0.963768,778,14.9025,26,0.00126012,1.00006
app_7,0.424417,19601.6,7920.8,79.2,792.148,2.22992e+10,1.00716,0.963768,10,0.0281556,1939,0.0969163,1.00001
app_8,9.47997,18669.8,7677.25,322.748,853.553,2.37673e+11,1.01075,0.963768,9,0.27834,1989,0.0994081,1.00001
app_9,9.69666,18936.4,7919.1,80.9,792.352,3.1332e+10,1.00623,0.963768,10,0.0395606,1875,0.0937385,1.00001
