app_id,start_app,end_app,effective_cpu,effective_io,effective_iter,total_bytes,stretch,utilization,Tcomp,Tio,iterations,priority,group_id
app_1,5.32041,19356.4,7837,139.954,711.823,9.10349e+10,1.00908,0.968869,11,0.127858,1720,0.1,1
app_10,6.24955,18919.6,7866.9,102.537,982.915,6.50028e+10,1.00859,0.968869,8,0.066127,2323,0.1,1
app_11,7.01663,18599,7786.9,189.653,971.666,1.10943e+11,1.01293,0.968869,8,0.114139,2259,0.1,1
app_12,44.7561,20375.3,7746.5,171.587,92.2633,1.33767e+11,1.01519,0.968869,83,1.43835,236,0.01,2
app_13,40.5431,20198.3,7780,171.649,83.4574,1.3243e+11,1.01107,0.968869,93,1.59554,210,0.01,2
app_14,37.9016,20039.4,7922.2,21.9104,78.365,1.39636e+10,1.00804,0.968869,102,0.176755,195,0.01,2
app_15,23.8414,20246.8,7875.8,48.5701,91.6713,3.40215e+10,1.0114,0.968869,86,0.369798,231,0.01,2
app_16,30.0831,20281.7,7647.6,295.591,76.6357,2.3357e+11,1.01508,0.968869,99,3.03338,195,0.01,2
app_17,17.4356,20348.9,7924.5,10.9262,84.3657,4.19517e+09,1.00899,0.968869,93,0.049355,215,0.01,2
app_18,43.918,20130.1,7671.2,285.199,73.5311,2.26004e+11,1.01302,0.968869,105,3.09595,184,0.01,2
app_19,85.5843,20154,7901.9,29.1552,84.4644,2.1296e+10,1.00969,0.968869,94,0.253524,211,0.01,2
app_2,4.29545,19785.9,7907.3,76.0789,790.663,2.32271e+10,1.00876,0.968869,10,0.0294013,1953,0.1,1
app_20,26.5709,20021.2,7841.7,73.6573,85.8915,5.52113e+10,1.01305,0.968869,92,0.641992,214,0.01,2
app_21,1.65335,20277.4,7700.65,231.076,66.8205,1.81146e+11,1.015,0.968869,114,2.70428,171,0.01,2
app_22,41.918,20540.8,7736.85,187.255,67.8307,1.44847e+11,1.01501,0.968869,113,2.16189,174,0.01,2
app_23,69.026,20148,7769.4,160.46,90.1564,1.2543e+11,1.01332,0.968869,86,1.39367,227,0.01,2
app_24,17.8535,20153.7,7824.6,97.0456,90.6186,7.20357e+10,1.01309,0.968869,85,0.800396,231,0.01,2
app_25,13.3616,20588.1,7719.8,198.937,70.9583,1.57175e+11,1.01562,0.968869,108,2.21373,182,0.01,2
app_26,50.67,20286,7727.4,217.16,82.8816,1.68871e+11,1.01314,0.968869,94,2.03459,208,0.01,2
app_27,74.4173,20114.7,7700.1,249.887,79.7335,1.99476e+11,1.01271,0.968869,97,2.49346,200,0.01,2
app_28,15.1454,20225.6,7884,44.5418,91.6456,3.05829e+10,1.01079,0.968869,86,0.332423,231,0.01,2
app_29,27.1839,20146.3,7639.7,322.016,70.2633,2.55035e+11,1.01333,0.968869,109,3.59204,177,0.01,2
app_3,2.14027,19754.1,7892.3,77.1856,875.42,1.61348e+08,1.01363,0.968869,9,0.000184398,2163,0.1,1
app_30,41.7288,20096.9,7736.2,196.855,82.3121,1.57662e+11,1.01345,0.968869,95,1.89954,205,0.01,2
app_31,94.9184,20274.6,7787.1,141.81,80.5955,1.10476e+11,1.01297,0.968869,96,1.38095,204,0.01,2
app_32,930.71,21972,7820.5,133.391,7.69179,7.61544e+10,1.01309,0.968869,1039,9.5193,20,0.001,3
app_33,608.001,21727.8,7770.1,150.428,7.1233,7.88361e+10,1.01925,0.968869,1093,9.85451,19,0.001,3
app_34,276.466,21459.9,7626.3,190.475,8.21738,1.0205e+11,1.03515,0.968869,911,11.3389,22,0.001,3
app_35,935.424,21340.6,7714.52,151.086,7.22272,6.71665e+10,1.02806,0.968869,1052,8.5039,19,0.001,3
app_36,166.303,21000.2,7529.4,172.514,8.50147,9.5228e+10,1.04923,0.968869,875,10.5809,23,0.001,3
app_37,889.22,21244.4,7759.9,67.5106,7.20282,4.11929e+10,1.0255,0.968869,1052,5.14911,19,0.001,3
app_38,461.303,21883.5,7621.17,217.768,7.19373,1.36351e+11,1.03126,0.968869,1084,17.0439,19,0.001,3
app_39,642.447,21204.5,7729.2,158.913,6.95002,9.61526e+10,1.02232,0.968869,1098,13.7361,18,0.001,3
app_4,4.02548,19373,7688.2,293.973,855.662,2.48143e+11,1.00802,0.968869,9,0.289887,2070,0.1,1
app_40,578.003,21733.9,7835.8,81.2404,7.14143,4.25742e+10,1.01544,0.968869,1096,6.08203,19,0.001,3
app_41,598.467,21539,7525.6,275.524,8.33107,1.43556e+11,1.04314,0.968869,898,15.9507,22,0.001,3
app_42,6.75472,20711.7,7800.2,13.8619,7.88755,1.0015e+10,1.0243,0.968869,957,1.25187,21,0.001,3
app_43,398.943,21102.2,7639.3,335.749,7.46172,1.67143e+11,1.02479,0.968869,1035,23.8776,19,0.001,3
app_44,258.662,21717.9,7659.11,227.377,8.16596,1.29276e+11,1.02717,0.968869,933,14.364,22,0.001,3
app_45,434.532,21004.8,7847.1,69.9369,9.19558,4.08952e+10,1.0142,0.968869,856,4.54391,24,0.001,3
app_46,322.105,22230.9,7659.2,249.645,6.71696,1.40541e+11,1.02568,0.968869,1079,23.4235,19,0.001,3
app_47,109.22,20599.9,7589.1,326.285,8.60212,1.79861e+11,1.02974,0.968869,893,19.9845,22,0.001,3
app_48,1083.45,21629.8,7698.6,90.4696,7.26534,4.12637e+10,1.03361,0.968869,1078,5.89481,19,0.001,3
app_49,86.3679,20989.5,7567.7,406.958,7.363,2.17502e+11,1.02759,0.968869,1030,31.0718,19,0.001,3
app_5,11.054,20054.7,7857.42,123.271,714.229,7.13592e+10,1.00898,0.968869,11,0.0998185,1793,0.1,1
app_50,915.34,21655.8,7740.6,208.103,7.71422,1.1972e+11,1.01777,0.968869,1013,14.965,20,0.001,3
app_51,422.266,21617.7,7707.3,109.716,8.93737,6.75338e+10,1.02896,0.968869,872,8.44173,23,0.001,3
app_52,767.447,22608.8,7770.2,51.1933,8.07906,2.86137e+10,1.0258,0.968869,947,3.57671,22,0.001,3
app_53,569.366,21837.7,7752.7,205.281,8.13445,1.24496e+11,1.01559,0.968869,954,15.562,21,0.001,3
app_54,874.022,22152.6,7783.7,150.952,7.57728,7.92138e+10,1.01743,0.968869,1042,9.90172,20,0.001,3
app_55,786.214,21809.8,7741.8,161.094,8.01697,7.60875e+10,1.02329,0.968869,980,9.51093,21,0.001,3
app_56,21.8257,21431.2,7710.8,266.985,7.31961,1.3846e+11,1.0192,0.968869,1054,19.78,19,0.001,3
app_57,802.864,22142.7,7648.5,175.579,7.63925,9.39456e+10,1.03327,0.968869,1032,13.4208,20,0.001,3
app_58,102.116,20577.7,7681.9,171.024,7.15181,8.80412e+10,1.02961,0.968869,1050,12.5773,19,0.001,3
app_59,721.736,21983.4,7722.6,179.024,8.37129,9.07022e+10,1.02389,0.968869,882,11.3378,23,0.001,3
app_6,7.68994,18919.5,7745.9,229.355,968.22,1.76992e+11,1.00973,0.968869,8,0.182843,2290,0.1,1
app_60,102.678,21215.1,7873.6,90.3451,7.7206,5.28973e+10,1.00927,0.968869,1031,6.61216,20,0.001,3
app_7,2.08228,18798.3,7894.1,80.7474,877.473,1.32881e+10,1.01171,0.968869,9,0.0151518,2062,0.1,1
app_8,1.67639,19072,7790.4,180.303,866.036,1.51615e+11,1.0073,0.968869,9,0.175075,2066,0.1,1
app_9,5.95924,18228.4,7726.9,257.856,857.63,2.06172e+11,1.00844,0.968869,9,0.240574,1955,0.1,1
