app_id,start_app,end_app,effective_cpu,effective_io,effective_iter,total_bytes,stretch,utilization,Tcomp,Tio,iterations,priority,group_id
app_1,4.90424,20304,7661.6,338.4,957.402,8.51154e+10,1.0327,0.952319,8,0.0889399,2434,1,1
app_10,4.19627,19546.8,7401.3,598.7,737.213,1.53584e+11,1.05892,0.952319,10,0.208109,1808,1.00001,1.00001
app_11,4.47488,19402.7,7666.5,333.5,698.152,8.0332e+10,1.03268,0.952319,11,0.115089,1691,1.00001,1.00001
app_12,5.47443,19770,7838.7,161.3,981.461,3.1099e+10,1.01654,0.952319,8,0.0316691,2420,1.00001,1.00001
app_13,8.82073,19122.1,7459.2,540.8,829.485,1.39377e+11,1.05283,0.952319,9,0.167924,1982,1.00001,1.00001
app_14,2.4985,20699.1,7410.4,589.6,925.934,1.53252e+11,1.05769,0.952319,8,0.165499,2402,1.00001,1.00001
app_15,7.49198,18969.1,7585,415,951.17,9.75565e+10,1.04132,0.952319,8,0.102583,2251,1.00002,1.00002
app_16,0.662062,19726.1,7847.5,152.5,783.478,3.22679e+10,1.01526,0.952319,10,0.0412106,1933,1.00002,1.00002
app_17,1.12043,20611.5,7381.42,618.576,671.224,1.66494e+11,1.05989,0.952319,11,0.247851,1731,1.00002,1.00002
app_18,0.621419,21041.8,7399.82,600.182,671.37,1.62901e+11,1.05782,0.952319,11,0.242687,1771,1.00002,1.00002
app_19,2.9228,19516.6,7904.4,95.6,877.885,1.12148e+10,1.01066,0.952319,9,0.0127731,2145,1.00002,1.00002
app_2,0.310136,19066.4,7350.8,649.2,918.584,1.70003e+11,1.06372,0.952319,8,0.184987,2192,1,1
app_20,5.59249,19462.7,7311.35,688.653,914.236,1.81372e+11,1.0677,0.952319,8,0.198401,2226,1.00002,1.00002
app_21,11.0568,20443.2,7444.7,555.3,677.049,1.44482e+11,1.05413,0.952319,11,0.213415,1730,1.00002,1.00002
app_22,10.2539,19511.1,7879.8,120.2,718.103,2.32369e+10,1.01227,0.952319,11,0.0323634,1751,1.00002,1.00002
app_23,4.59054,20737.3,7535.7,464.3,79.3931,1.15126e+11,1.04564,0.952319,95,1.43907,207,1.00002,1.00002
app_24,25.0947,20457.7,7704.5,295.5,70.7672,7.76889e+10,1.02799,0.952319,110,1.09421,180,1.00002,1.00002
app_25,53.5607,20512.9,7717.9,282.1,78.2629,7.35719e+10,1.02676,0.952319,99,0.93129,200,1.00003,1.00003
app_26,41.0627,20987.1,7356.5,643.5,80.2961,1.80704e+11,1.0614,0.952319,92,2.2588,211,1.00003,1.00003
app_27,97.1141,20735.6,7617.5,382.5,77.8242,1.07011e+11,1.03566,0.952319,98,1.37194,200,1.00003,1.00003
app_28,29.4759,20663.6,7646.1,353.9,76.0708,1.02891e+11,1.03239,0.952319,100,1.35383,196,1.00003,1.00003
app_29,91.0159,20804.2,7677.3,322.7,71.2153,9.25329e+10,1.02962,0.952319,106,1.30328,187,1.00003,1.00003
app_3,6.77993,20106.7,7493,507,748.186,1.36289e+11,1.04859,0.952319,10,0.182204,1880,1,1
app_30,114.6,20324.3,7855.3,144.7,64.4278,3.84727e+10,1.01346,0.952319,121,0.591888,164,1.00003,1.00003
app_31,38.5004,20531.3,7872.3,127.7,77.8163,3.06411e+10,1.01228,0.952319,100,0.392834,199,1.00003,1.00003
app_32,55.8242,20816.1,7644.5,355.5,69.0998,1.0096e+11,1.03286,0.952319,111,1.46319,178,1.00003,1.00003
app_33,30.1522,21230.8,7439.59,560.412,76.778,1.52334e+11,1.05375,0.952319,96,1.99577,204,1.00003,1.00003
app_34,97.6469,21119.4,7446.4,553.6,76.617,1.53898e+11,1.05259,0.952319,96,2.02497,204,1.00003,1.00003
app_35,43.3729,20686.6,7470.5,529.5,95.3576,1.56622e+11,1.04889,0.952319,79,1.64865,246,1.00004,1.00004
app_36,63.341,20884.6,7412,588,85.2522,1.61672e+11,1.05629,0.952319,88,1.90203,221,1.00004,1.00004
app_37,22.7613,20671.3,7598.1,401.9,70.246,1.17432e+11,1.03687,0.952319,108,1.6776,182,1.00004,1.00004
app_38,27.6552,20145.2,7905.7,94.3,72.99,2.72321e+10,1.00845,0.952319,108,0.373042,184,1.00004,1.00004
app_39,42.6543,20069.9,7900.5,99.5,81.7277,2.54555e+10,1.00934,0.952319,97,0.310433,204,1.00004,1.00004
app_4,3.64946,20187.7,7578.3,421.7,691.635,1.06283e+11,1.04105,0.952319,11,0.153811,1744,1,1
app_40,3.56051,20071.5,7823.8,176.2,77.9944,4.66636e+10,1.01646,0.952319,102,0.598252,194,1.00004,1.00004
app_41,111.529,21374.9,7411.2,588.8,63.3357,1.67112e+11,1.05564,0.952319,115,2.63338,170,1.00004,1.00004
app_42,68.9675,20208.7,7956.6,43.4,77.9583,1.11495e+10,1.00405,0.952319,103,0.142942,194,1.00004,1.00004
app_43,189.664,20659.2,7753.5,246.5,7.8466,8.50457e+10,1.0206,0.952319,993,10.6307,20,1.00004,1.00004
app_44,64.2004,20325.4,7648.6,351.4,8.4734,8.0055e+10,1.03511,0.952319,902,8.895,22,1.00004,1.00004
app_45,327.893,20910,7862.8,137.2,7.58966,3.84504e+10,1.0125,0.952319,1070,5.49292,19,1.00004,1.00004
app_46,217.223,21816.8,7528.29,471.709,7.6164,1.60618e+11,1.04046,0.952319,1011,22.7937,20,1.00005,1.00005
app_47,695.934,21703.8,7824.4,175.6,10.6227,5.94268e+10,1.01474,0.952319,718,5.94268,28,1.00005,1.00005
app_48,718.986,22689.2,7429.2,570.8,6.98833,1.49633e+11,1.05557,0.952319,1054,21.3761,19,1.00005,1.00005
app_49,1121.07,22320.7,7569.11,430.89,6.57197,1.63851e+11,1.03453,0.952319,1172,24.7899,17,1.00005,1.00005
app_5,5.22106,19064,7485.2,514.8,934.409,1.31307e+11,1.05035,0.952319,8,0.140585,2227,1.00001,1.00001
app_50,462.377,22478.7,7454.3,545.7,7.17077,1.56443e+11,1.05115,0.952319,1022,22.349,20,1.00005,1.00005
app_51,202.039,21352.4,7494.46,505.535,8.52465,1.67864e+11,1.04407,0.952319,864,19.8726,23,1.00005,1.00005
app_52,913.242,21584,7564.5,435.5,7.82152,1.0404e+11,1.04322,0.952319,993,14.8629,20,1.00005,1.00005
app_53,378.78,21551.7,7678.8,321.2,8.4442,7.86216e+10,1.03127,0.952319,936,8.73574,22,1.00005,1.00005
app_54,983.722,21345.3,7824.7,175.3,7.10568,3.6013e+10,1.01772,0.952319,1112,5.14472,18,1.00005,1.00005
app_55,598.552,21000.9,7989.3,10.7,7.57654,2.7643e+09,1.00099,0.952319,1064,0.345538,19,1.00005,1.00005
app_56,603.221,22573.8,7486.5,513.5,7.31764,1.73361e+11,1.04441,0.952319,1019,24.7659,20,1.00006,1.00006
app_57,790.383,21467.7,7911.8,88.2,6.57751,3.15365e+10,1.00713,0.952319,1191,5.25609,17,1.00006,1.00006
app_58,664.997,22296.1,7469.1,530.9,6.82021,1.70968e+11,1.04711,0.952319,1073,24.4241,19,1.00006,1.00006
app_59,1012.24,21277.2,7965,35,7.56972,7.96268e+09,1.00339,0.952319,1069,0.995335,19,1.00006,1.00006
app_6,1.92103,18712,7754,246,968.156,5.22625e+10,1.02482,0.952319,8,0.0539902,2266,1.00001,1.00001
app_60,261.327,20974.8,7402,598,8.60239,1.70861e+11,1.0564,0.952319,890,18.9846,22,1.00006,1.00006
app_7,6.86939,19868.3,7562.92,437.082,839.01,1.06532e+11,1.0431,0.952319,9,0.126963,2087,1.00001,1.00001
app_8,7.49579,20721,7496.88,503.119,750.761,1.3266e+11,1.04856,0.952319,10,0.176859,1948,1.00001,1.00001
app_9,4.7685,19696,7351.9,648.096,919.04,1.70518e+11,1.06349,0.952319,8,0.185519,2263,1.00001,1.00001
