app_id,start_app,end_app,effective_cpu,effective_io,effective_iter,total_bytes,stretch,utilization,Tcomp,Tio,iterations,priority,group_id
app_1,6.10776,27621,5004.71,48.0766,454.001,2.47666e+10,1.59062,0.889461,11,0.0545519,1802,1,1
app_10,5.87229,27714.3,4855.33,144.125,484.993,1.19936e+11,1.60795,0.889461,10,0.24729,1939,1,1
app_11,74.2011,21520.7,7251.4,182.756,67.0307,1.8083e+11,1.07639,0.889461,110,2.69895,178,1,1
app_12,59.0209,21671.2,7346.18,19.1592,74.0003,1.48526e+10,1.0868,0.889461,100,0.200711,200,1,1
app_13,51.529,22202.7,7150.27,55.1482,77.3362,5.1325e+10,1.11087,0.889461,91,0.658012,218,1,1
app_14,37.0524,21458.4,7257,143.781,66.4865,1.39739e+11,1.08156,0.889461,109,2.11726,180,1,1
app_15,28.7604,21808.4,7247.23,42.0586,72.0796,3.77968e+10,1.09814,0.889461,100,0.524956,198,1,1
app_16,18.9858,21727.5,7192.52,97.7116,66.4423,9.40058e+10,1.09792,0.889461,108,1.41768,182,1,1
app_17,31.6268,21327.4,7273.72,171.005,69.2839,1.66483e+11,1.07524,0.889461,105,2.4128,185,1,1
app_18,42.9635,21820.4,7144.87,103.603,81.5215,9.8448e+10,1.10447,0.889461,87,1.20059,225,1,1
app_19,13.6533,21746.9,7152.6,93.5621,74.0756,8.89068e+10,1.10474,0.889461,96,1.20144,206,1,1
app_2,5.7419,27378.7,4804.46,89.2392,533.992,5.60952e+10,1.6459,0.889461,9,0.105047,2104,1,1
app_20,28.9938,22326.8,7070.2,84.447,84.5725,7.97035e+10,1.1189,0.889461,83,0.937688,238,1,1
app_21,81.8249,21725.2,7336.7,24.0242,65.2055,2.04507e+10,1.08738,0.889461,112,0.314626,177,1,1
app_22,45.9013,21666.5,7139.41,155.226,63.0082,1.51792e+11,1.09721,0.889461,112,2.40939,174,1,1
app_23,58.4967,21868.3,7308.82,85.3652,65.8077,8.19623e+10,1.08243,0.889461,111,1.24185,178,1,1
app_24,65.5989,21748.6,7197.82,113.412,71.2322,1.09678e+11,1.09477,0.889461,100,1.54477,196,1,1
app_25,61.8402,21888.5,7093.6,153.758,72.4808,1.50335e+11,1.10437,0.889461,98,2.05939,200,1,1
app_26,96.1859,21882.3,7291.2,39.559,66.4873,3.59782e+10,1.09183,0.889461,110,0.545124,181,1,1
app_27,28.1939,21717.2,7095.5,104.436,80.4304,9.99947e+10,1.11181,0.889461,88,1.2345,222,1,1
app_28,12.8276,21834,7276.72,21.1884,78.3265,1.66746e+10,1.09688,0.889461,94,0.211071,213,1,1
app_29,78.0177,21686.5,7249.43,155.917,63.3851,1.53475e+11,1.08066,0.889461,114,2.39804,172,1,1
app_3,9.45463,27080.2,4970.18,92.1916,452.003,7.14625e+10,1.58678,0.889461,11,0.158103,1735,1,1
app_30,75.8415,21921.7,7147.97,104.673,81.3707,9.97271e+10,1.1038,0.889461,88,1.21618,224,1,1
app_31,186.507,20759.2,7860.6,68.5575,8.87691,6.80521e+10,1.009,0.889461,876,7.56134,23,1,1
app_32,193.523,20650.3,7862.4,60.6184,8.15406,6.01434e+10,1.00978,0.889461,1000,7.51793,20,1,1
app_33,775.478,21542.3,7754.2,97.8151,8.77094,9.73457e+10,1.01891,0.889461,879,10.8162,23,1,1
app_34,188.023,21188.2,7941.8,21.6635,7.67939,2.12095e+10,1.00465,0.889461,1034,2.65118,20,1,1
app_35,937.848,21446.6,7819.9,83.4306,8.21799,8.28639e+10,1.0123,0.889461,947,10.358,21,1,1
app_36,951.113,22295,7845.1,75.167,7.39441,7.48541e+10,1.01011,0.889461,1025,9.35677,20,1,1
app_37,371.79,20740,7805,114.402,8.68057,1.13887e+11,1.01024,0.889461,903,14.2359,22,1,1
app_38,282.538,21511.5,7847.2,111.947,7.43749,1.11575e+11,1.00518,0.889461,1023,15.9393,20,1,1
app_39,755.523,22412,7841.46,99.3782,7.80436,9.91143e+10,1.00748,0.889461,977,14.154,21,1,1
app_4,3.40334,27157.3,4860.27,141.078,488.004,1.13338e+11,1.60849,0.889461,10,0.23225,1884,1,1
app_40,356.156,21584.8,7775.6,118.439,8.13479,1.18167e+11,1.01346,0.889461,970,14.7709,21,1,1
app_41,710.419,20551.4,7761.7,135.603,8.77731,1.35015e+11,1.01308,0.889461,894,15.0017,22,1,1
app_42,432.736,21252,7838.8,145.683,6.61045,1.45332e+11,1.00199,0.889461,1183,20.7617,17,1,1
app_43,40.2249,20618.4,7664.6,177.29,8.8714,1.76803e+11,1.02023,0.889461,875,19.6448,23,1,1
app_44,598.881,21531.1,7768.3,74.8159,9.39544,7.43531e+10,1.02006,0.889461,809,7.43531,25,1,1
app_45,443.968,20840.3,7789.6,113.081,7.06409,1.12785e+11,1.01235,0.889461,1097,16.1122,18,1,1
app_46,140.218,20217.4,7921.09,41.3953,7.58597,4.09695e+10,1.00477,0.889461,1055,5.85278,19,1,1
app_47,280.714,21434.5,7767.1,183.632,8.03149,1.83235e+11,1.00625,0.889461,962,22.9044,21,1,1
app_48,42.194,21804.8,7720.2,167.475,6.68427,1.67135e+11,1.01428,0.889461,1133,23.8764,18,1,1
app_49,692.599,21162.6,7769.3,167.705,8.86472,1.67333e+11,1.00798,0.889461,852,18.5925,23,1,1
app_5,9.38092,26963,4944.7,35.6885,492.996,6.2721e+09,1.61585,0.889461,10,0.0127223,1889,1,1
app_50,652.195,21318.3,7806.3,158.204,9.15012,1.57551e+11,1.00454,0.889461,876,15.7551,23,1,1
app_51,278.59,21227.1,7860.8,91.6122,7.35863,9.11549e+10,1.00604,0.889461,1061,13.0221,19,1,1
app_52,522.524,21518,7880,34.7959,7.3494,3.4322e+10,1.01083,0.889461,1087,4.29025,19,1,1
app_53,886.795,21114,7857.3,88.69,7.8663,8.83015e+10,1.00685,0.889461,991,11.0377,20,1,1
app_54,261.368,21180.3,7841,71.8615,8.25277,7.13782e+10,1.01107,0.889461,932,8.92227,22,1,1
app_55,542.205,20973,7747.3,112.58,7.93761,1.12073e+11,1.01789,0.889461,998,14.0091,20,1,1
app_56,394.678,20442.9,7706.8,134.691,9.51428,1.34015e+11,1.0203,0.889461,822,13.4015,24,1,1
app_57,689.578,21709.3,7823.1,97.3855,9.52002,9.7083e+10,1.01008,0.889461,818,10.787,25,1,1
app_58,823.837,22231.9,7742.2,176.477,7.41118,1.76127e+11,1.01031,0.889461,1030,22.0159,20,1,1
app_59,960.169,22284.6,7794.1,140.476,7.45121,1.40048e+11,1.0083,0.889461,1026,17.5061,20,1,1
app_6,10.027,27519.3,4965.97,56.0619,451.003,3.88551e+10,1.59846,0.889461,11,0.0861531,1785,1,1
app_60,122.088,21133.4,7869.8,47.4914,7.66882,4.70631e+10,1.0105,0.889461,1022,5.88288,20,1,1
app_7,6.71241,26663.3,4488.39,142.812,640.001,1.22033e+11,1.7352,0.889461,7,0.190677,2489,1,1
app_8,6.77076,26899.2,4780.36,103.133,532.004,7.37276e+10,1.6481,0.889461,9,0.138586,2052,1,1
app_9,1.48328,26472.6,4760.95,147.553,529.002,1.15713e+11,1.64047,0.889461,9,0.218739,1996,1,1
