app_id,start_app,end_app,effective_cpu,effective_io,effective_iter,total_bytes,stretch,utilization,Tcomp,Tio,iterations,priority,group_id
app_1,7.9313,18786.7,7858.1,141.9,872.999,2.85283e+10,1.01438,0.954671,9,0.0326785,2049,1,1
app_10,1.85711,19096.9,7427,573,826.453,1.54409e+11,1.05521,0.954671,9,0.186935,1970,1.00001,1.00001
app_11,30.909,20107,7991.3,8.7,71.3759,1.25394e+09,1.00093,0.954671,112,0.0176612,179,1.00001,1.00001
app_12,108.204,19960.8,7964.4,35.6,72.6449,8.79629e+09,1.00336,0.954671,111,0.120497,179,1.00001,1.00001
app_13,25.4095,20117.8,7947.5,52.5,80.4345,1.21696e+10,1.00507,0.954671,99,0.15212,202,1.00001,1.00001
app_14,69.1759,20219.7,7897.4,102.6,84.698,2.86061e+10,1.00934,0.954671,93,0.336542,213,1.00001,1.00001
app_15,91.6457,20808.4,7643.6,356.4,74.235,9.94435e+10,1.03319,0.954671,103,1.34383,192,1.00002,1.00002
app_16,0.189734,20955.8,7527,473,63.9449,1.4532e+11,1.04271,0.954671,118,2.27063,166,1.00002,1.00002
app_17,37.6946,20614.3,7624.9,375.1,83.1404,1.09071e+11,1.0344,0.954671,91,1.31411,215,1.00002,1.00002
app_18,103.678,21443,7235,765,66.9373,2.15462e+11,1.07376,0.954671,108,3.21584,179,1.00002,1.00002
app_19,30.0645,21095.9,7438,562,99.0517,1.63614e+11,1.05241,0.954671,75,1.65267,260,1.00002,1.00002
app_2,9.53331,20582.7,7238.8,761.2,805.049,2.12022e+11,1.07371,0.954671,9,0.263381,2065,1,1
app_20,65.2237,20793,7628.4,371.6,97.1751,1.03946e+11,1.03461,0.954671,78,1.07161,253,1.00002,1.00002
app_21,79.9528,20461.1,7622,378,86.3105,1.05211e+11,1.0353,0.954671,89,1.22339,220,1.00002,1.00002
app_22,25.458,19983.2,7953.2,46.8,93.9587,1.18351e+10,1.00439,0.954671,85,0.125905,234,1.00002,1.00002
app_23,5.85922,20989.2,7418.7,581.3,70.2184,1.61489e+11,1.05538,0.954671,106,2.30699,184,1.00002,1.00002
app_24,0.286339,20810.8,7482.69,517.307,72.8002,1.51159e+11,1.04796,0.954671,103,2.07669,189,1.00002,1.00002
app_25,37.1674,20689.6,7664.5,335.5,82.0453,9.47017e+10,1.03103,0.954671,93,1.1549,212,1.00003,1.00003
app_26,63.5021,20914.3,7449.6,550.4,91.3694,1.63959e+11,1.05076,0.954671,81,1.78216,240,1.00003,1.00003
app_27,5.37684,20861,7494.6,505.4,65.5479,1.47744e+11,1.0468,0.954671,115,2.27299,170,1.00003,1.00003
app_28,16.6916,20796.4,7635.8,364.2,81.0154,1.02232e+11,1.03385,0.954671,95,1.26213,208,1.00003,1.00003
app_29,48.1841,21330.1,7298.2,701.799,80.2782,1.93974e+11,1.06778,0.954671,91,2.40114,214,1.00003,1.00003
app_3,4.11507,20184.7,7558.1,441.9,757.791,1.15873e+11,1.04248,0.954671,10,0.152867,1910,1,1
app_30,77.7843,21145,7333.2,666.8,64.007,2.04145e+11,1.06138,0.954671,115,3.18976,169,1.00003,1.00003
app_31,82.7948,21755.9,7313,687,8.12042,1.89605e+11,1.0663,0.954671,898,23.7006,22,1.00003,1.00003
app_32,66.7078,21021,7433,567,7.71264,1.69719e+11,1.05226,0.954671,992,21.2149,20,1.00003,1.00003
app_33,91.3063,21164.8,7422.3,577.7,8.16964,1.08795e+11,1.06226,0.954671,937,13.5993,22,1.00003,1.00003
app_34,267.641,22342.3,7179.4,820.6,8.24886,2.05595e+11,1.08328,0.954671,853,22.8439,23,1.00003,1.00003
app_35,330.249,21040.7,7656.2,343.8,7.35262,8.72963e+10,1.03313,0.954671,1046,12.4709,19,1.00004,1.00004
app_36,814.584,21601.8,7695.5,304.5,7.25642,8.92389e+10,1.02765,0.954671,1076,12.7484,19,1.00004,1.00004
app_37,438.798,20196,7984.6,15.4,8.90648,4.23422e+09,1.0014,0.954671,917,0.470469,22,1.00004,1.00004
app_38,1325.11,21593.2,7803.2,196.8,5.81716,6.12695e+10,1.01723,0.954671,1335,10.2116,15,1.00004,1.00004
app_39,650.808,23085,7214.2,785.8,8.26242,1.70168e+11,1.08337,0.954671,847,21.271,24,1.00004,1.00004
app_4,10.4166,19716.7,7784.5,215.5,778.656,5.00573e+10,1.02112,0.954671,10,0.0642584,1915,1,1
app_40,357.04,21087.7,7901.2,98.8,7.83199,4.49427e+10,1.00678,0.954671,981,5.61783,21,1.00004,1.00004
app_41,271.984,22208.2,7291.6,708.4,7.29794,1.93421e+11,1.0688,0.954671,1016,27.6315,20,1.00004,1.00004
app_42,677.638,21498.7,7764.5,235.5,7.62389,6.83167e+10,1.02134,0.954671,999,9.75952,20,1.00004,1.00004
app_43,872.451,22351.5,7727.5,272.5,6.80533,7.26448e+10,1.02562,0.954671,1151,10.3778,18,1.00004,1.00004
app_44,783.224,21971.4,7734.5,265.5,9.64042,9.13869e+10,1.02225,0.954671,782,9.13869,26,1.00004,1.00004
app_45,274.136,20419.2,7894.1,105.9,8.75009,2.94583e+10,1.00965,0.954671,925,3.27315,22,1.00004,1.00004
app_46,82.561,20683.2,7822.7,177.3,7.35685,6.34498e+10,1.01444,0.954671,1064,9.06426,19,1.00005,1.00005
app_47,130.498,22008.6,7837.4,162.6,6.25661,6.44402e+10,1.01242,0.954671,1226,10.74,17,1.00005,1.00005
app_48,385.166,21962.1,7388.9,611.1,7.31563,1.85931e+11,1.05613,0.954671,990,26.5616,20,1.00005,1.00005
app_49,937.103,23126.4,7549.8,450.2,7.4241,1.46853e+11,1.03941,0.954671,1020,20.979,20,1.00005,1.00005
app_5,9.18383,20017.5,7477.2,522.8,829.398,1.40818e+11,1.05014,0.954671,9,0.16966,2072,1.00001,1.00001
app_50,871.23,21564.2,7862.3,137.7,8.14207,4.01439e+10,1.01235,0.954671,970,5.01799,21,1.00005,1.00005
app_51,738.032,22705,7449.5,550.5,6.92258,1.76589e+11,1.04903,0.954671,1073,25.2271,19,1.00005,1.00005
app_52,809.913,21725.7,7664.5,335.5,6.76992,9.63676e+10,1.03081,0.954671,1115,13.7668,18,1.00005,1.00005
app_53,415.487,21695.8,7890.8,109.2,7.88646,3.12909e+10,1.00983,0.954671,983,3.91136,21,1.00005,1.00005
app_54,934.588,21895.2,7704.4,295.6,8.05356,1.08694e+11,1.02392,0.954671,953,13.5867,21,1.00005,1.00005
app_55,349.187,21204,7677.8,322.2,7.01643,7.43398e+10,1.03197,0.954671,1106,10.62,18,1.00005,1.00005
app_56,643.554,21524.9,7904.8,95.2,7.92336,3.20629e+10,1.00795,0.954671,982,4.00786,21,1.00006,1.00006
app_57,221.026,21292.1,7698.4,301.6,10.5086,9.23296e+10,1.02686,0.954671,714,8.3936,28,1.00006,1.00006
app_58,553.398,20976.6,7951.5,48.5,8.23681,1.62672e+10,1.00405,0.954671,975,2.0334,21,1.00006,1.00006
app_59,20.336,21345.1,7836.6,163.4,7.93339,8.91668e+10,1.00937,0.954671,964,11.1458,21,1.00006,1.00006
app_6,5.13674,19269,7909,91,789.124,1.21848e+10,1.00995,0.954671,10,0.0154434,1903,1.00001,1.00001
app_60,673.578,22289.4,7776.1,223.9,6.85153,6.63739e+10,1.02009,0.954671,1073,9.48199,19,1.00006,1.00006
app_7,9.42021,19245.5,7867.9,132.1,872.937,2.43834e+10,1.01365,0.954671,9,0.0279306,2100,1.00001,1.00001
app_8,8.61573,20717.4,7475.2,524.8,750.477,1.39901e+11,1.05054,0.954671,10,0.186535,1941,1.00001,1.00001
app_9,8.88496,20617.8,7366,634,734.817,1.71869e+11,1.06131,0.954671,10,0.234154,1892,1.00001,1.00001
