app_id,start_app,end_app,effective_cpu,effective_io,effective_iter,total_bytes,stretch,utilization,Tcomp,Tio,iterations,priority,group_id
app_1,9.10245,21817.4,7133.8,167.097,713.353,9.60831e+10,1.10652,0.915523,10,0.134759,1958,1,1
app_10,6.44882,21507.9,6987.5,129.273,870.398,6.42899e+10,1.13446,0.915523,8,0.0738116,2367,1,1
app_11,7.62663,20259.8,6980.49,276.723,774.855,1.7306e+11,1.11833,0.915523,9,0.223483,1972,1,1
app_12,1.087,21141.5,7207.4,75.3475,653.318,3.24932e+10,1.10499,0.915523,11,0.0497599,1745,1,1
app_13,10.484,20267,7144,111.873,714.233,5.80933e+10,1.11079,0.915523,10,0.0813631,1811,1,1
app_14,9.00021,20148.8,7122.1,291.433,595.414,1.94339e+11,1.09343,0.915523,12,0.326072,1504,1,1
app_15,8.90636,21716,6969.4,304.543,774.295,1.952e+11,1.1166,0.915523,9,0.252196,2121,1,1
app_16,3.53378,21086.9,6996.7,234.948,779.099,1.45709e+11,1.12007,0.915523,9,0.187047,2069,1,1
app_17,9.5635,20735.6,7031.4,199.21,777.864,1.17843e+11,1.119,0.915523,9,0.151469,2033,1,1
app_18,0.767464,20811.6,7148.9,101.416,714.309,5.1337e+10,1.11107,0.915523,10,0.0717999,1871,1,1
app_19,6.75081,21608.9,7039.5,176.389,782.414,9.81403e+10,1.12082,0.915523,9,0.125499,2131,1,1
app_2,8.13742,21603.9,7163.8,185.912,651.817,1.13318e+11,1.09934,0.915523,11,0.173801,1774,1,1
app_20,3.28953,21818.4,7114.3,176.274,710.773,1.05046e+11,1.10813,0.915523,10,0.147744,1959,1,1
app_21,4.08129,21462.8,7149.3,112.811,714.105,5.972e+10,1.10972,0.915523,10,0.0835245,1935,1,1
app_22,3.00181,20486.1,6985.66,114.862,870.659,5.25243e+10,1.13666,0.915523,8,0.0603035,2247,1,1
app_23,1.77318,21289.2,6838.36,201.793,976.219,1.10761e+11,1.15122,0.915523,7,0.113485,2626,1,1
app_24,2.81999,20388.8,7108.5,260.592,647.016,1.677e+11,1.09947,0.915523,11,0.259196,1659,1,1
app_25,6.72799,21814.4,7085.4,239.365,708.034,1.47412e+11,1.10607,0.915523,10,0.208209,1948,1,1
app_26,5.96337,21259,6722,231.001,1121.92,1.27007e+11,1.16805,0.915523,6,0.113197,3004,1,1
app_27,7.39189,21409,7046.6,182.761,781.987,1.0312e+11,1.11892,0.915523,9,0.131867,2110,1,1
app_28,6.44652,20494.9,7132,118.181,713.126,6.40577e+10,1.11172,0.915523,10,0.0897166,1835,1,1
app_29,4.07226,21790.5,6970.05,145.294,870.694,8.07399e+10,1.13462,0.915523,8,0.0926979,2400,1,1
app_3,1.2773,20443.9,7008.8,237.115,778.683,1.51015e+11,1.11735,0.915523,9,0.193858,1998,1,1
app_30,1.00711,21822.9,7108.2,171.471,712.192,9.89413e+10,1.11001,0.915523,10,0.138963,1960,1,1
app_31,0.132205,22071.9,6963,261.889,774.119,1.61682e+11,1.12286,0.915523,9,0.208892,2165,1,1
app_32,8.93551,21971.2,7083.3,75.7049,785.515,2.53194e+10,1.12539,0.915523,9,0.032254,2187,1,1
app_33,1.09999,20637.6,7125.1,170.646,714.984,9.96098e+10,1.10731,0.915523,10,0.139314,1844,1,1
app_34,1.62317,20312.5,7018.8,215.931,778.136,1.32697e+11,1.11865,0.915523,9,0.170562,1986,1,1
app_35,7.73313,20263.1,7160.6,45.4869,714.722,4.84582e+09,1.11647,0.915523,10,0.00677737,1825,1,1
app_36,7.07093,21084,6945.1,313.55,773.438,2.01998e+11,1.11934,0.915523,9,0.261316,2056,1,1
app_37,3.92839,22028.2,7097.6,57.2895,786.491,1.12852e+10,1.12535,0.915523,9,0.0143395,2195,1,1
app_38,83.2232,20362.6,7813.7,72.8305,87.4374,3.91469e+10,1.01874,0.915523,89,0.449965,223,1,2
app_39,44.0775,20232.3,7835.9,60.3256,82.0439,3.12456e+10,1.01689,0.915523,96,0.381044,206,1,2
app_4,3.17309,20817.1,6985.2,292.301,775.186,1.85992e+11,1.11557,0.915523,9,0.23999,2031,1,1
app_40,78.0607,20294.5,7713.2,228.328,79.5976,1.26893e+11,1.0204,0.915523,96,1.60624,203,1,2
app_41,2.34632,20351.1,7808.4,120.682,83.2864,6.62937e+10,1.01591,0.915523,93,0.79872,212,1,2
app_42,18.3193,20505.7,7727.5,239.859,80.6523,1.31752e+11,1.01791,0.915523,95,1.62657,207,1,2
app_43,12.4164,20585.2,7654.03,253.266,85.6471,1.34459e+11,1.02716,0.915523,89,1.56348,221,1,2
app_44,34.0736,20314.9,7787.6,135.86,78.6093,7.15806e+10,1.01792,0.915523,100,0.906083,198,1,2
app_45,29.0325,20264.9,7807.6,72.4954,84.2928,3.77938e+10,1.01971,0.915523,93,0.444633,214,1,2
app_46,45.6913,20189.3,7894,50.3383,74.7546,2.60889e+10,1.01009,0.915523,106,0.347852,188,1,2
app_47,9.15988,20309.9,7762.7,160.527,82.8424,8.96931e+10,1.0188,0.915523,94,1.08064,210,1,2
app_48,27.8858,19977.5,7840.39,97.2961,84.472,5.34343e+10,1.01345,0.915523,94,0.630779,210,1,2
app_49,32.6883,20384.5,7699.2,249.588,88.7003,1.40008e+11,1.02051,0.915523,87,1.57313,225,1,2
app_5,6.75346,21418.3,7088.3,245.775,708.537,1.53929e+11,1.10463,0.915523,10,0.217414,1911,1,1
app_50,60.0516,20573.5,7635.4,327.425,78.8717,1.81005e+11,1.02349,0.915523,96,2.32058,203,1,2
app_51,0.553177,20164.9,7827.2,127.752,80.7949,7.09808e+10,1.01289,0.915523,97,0.887259,203,1,2
app_52,55.9821,20287,7686.6,256.934,81.1145,1.38407e+11,1.02236,0.915523,94,1.70872,207,1,2
app_53,16.5993,20361.2,7685,243.077,76.9431,1.3503e+11,1.02301,0.915523,101,1.75364,195,1,2
app_54,99.2717,20181.4,7910.4,18.4484,73.5767,8.48405e+09,1.01024,0.915523,108,0.11622,185,1,2
app_55,88.1256,20473.6,7756.5,178.276,71.5043,9.7478e+10,1.01859,0.915523,109,1.35386,181,1,2
app_56,23.206,20050.1,7920.8,25.939,86.3139,1.2261e+10,1.00844,0.915523,92,0.14257,216,1,2
app_57,21.2161,20224.6,7736,205.419,73.121,1.0748e+11,1.01996,0.915523,106,1.47233,185,1,2
app_58,655.038,20896.3,7742.4,234.015,9.75638,1.00127e+11,1.02008,0.915523,798,10.0127,25,1,3
app_59,348.39,20678.5,7946.2,53.8,7.43942,2.44956e+10,1.00368,0.915523,1085,3.49937,19,1,3
app_6,6.95366,21094.6,7103.3,219.099,710.005,1.37906e+11,1.10479,0.915523,10,0.194234,1882,1,1
app_60,571.613,21352.3,7538.2,461.8,8.37302,2.06655e+11,1.03294,0.915523,913,22.9617,22,1,3
app_7,0.494927,20457.4,6883.69,286.09,859.307,1.80374e+11,1.13249,0.915523,8,0.209921,2209,1,1
app_8,6.84454,20665.1,6966.1,306.424,773.299,1.96922e+11,1.11685,0.915523,9,0.254421,2012,1,1
app_9,5.07122,22150.4,7108,46.5473,789.965,3.44963e+09,1.12495,0.915523,9,0.00436662,2216,1,1
