app_id,start_app,end_app,effective_cpu,effective_io,effective_iter,total_bytes,stretch,utilization,Tcomp,Tio,iterations,priority,group_id
app_1,9.20769,20055.3,7621,77.2751,765.701,1.77669e+10,1.04729,0.950911,10,0.0231944,1923,1,1
app_10,3.2453,19861.5,7469.8,348.917,747.11,1.49972e+11,1.0499,0.950911,10,0.200766,1855,1,1
app_11,4.07394,20861.2,7558.1,155.823,838.611,5.7889e+10,1.05042,0.950911,9,0.0689976,2195,1,1
app_12,5.23811,20691.1,7508.6,190.124,834.693,8.28536e+10,1.05382,0.950911,9,0.0992258,2162,1,1
app_13,0.405495,20720.4,7465.7,360.918,749.138,1.56885e+11,1.04951,0.950911,10,0.209459,1939,1,1
app_14,1.68682,19199.8,7336,427.894,814.096,1.9813e+11,1.06183,0.950911,9,0.243403,1963,1,1
app_15,1.73629,20894.3,7446.6,350.064,743.722,1.52547e+11,1.05275,0.950911,10,0.205036,1949,1,1
app_16,1.52558,19655.4,7401.5,305.283,926.157,1.34221e+11,1.06161,0.950911,8,0.144947,2277,1,1
app_17,5.43914,19529.8,7605,149.546,762.885,5.74881e+10,1.04405,0.950911,10,0.0753448,1860,1,1
app_18,4.41305,19968.7,7538.2,150.568,836.639,5.55186e+10,1.0535,0.950911,9,0.0663304,2094,1,1
app_19,2.25805,19367.3,7339.4,460.149,816.569,2.15274e+11,1.05895,0.950911,9,0.263493,1974,1,1
app_2,9.47911,19888.5,7606.5,155.196,759.061,6.19976e+10,1.04323,0.950911,10,0.0816833,1889,1,1
app_20,25.9836,20423,7858,21.1531,68.0766,8.76014e+09,1.01694,0.950911,115,0.128826,174,1,2
app_21,22.2898,20647.9,7529,350.797,72.8869,1.6652e+11,1.03957,0.950911,102,2.2811,191,1,2
app_22,72.0452,20358.7,7799.3,14.8887,78.8246,5.96998e+09,1.02495,0.950911,99,0.0755693,201,1,2
app_23,59.4108,20634.3,7471.3,421.145,71.6381,2.05307e+11,1.04213,0.950911,105,2.85149,185,1,2
app_24,1.53307,20606.3,7592.8,227.17,81.7445,1.13364e+11,1.03813,0.950911,92,1.39955,214,1,2
app_25,29.7208,20489.9,7618.4,161.113,81.923,7.61272e+10,1.0397,0.950911,94,0.92838,209,1,2
app_26,36.2221,20663.9,7526,302.724,85.8395,1.50411e+11,1.04215,0.950911,88,1.76954,221,1,2
app_27,58.3393,20722.1,7664.1,105.504,88.8048,5.08271e+10,1.03695,0.950911,86,0.577581,231,1,2
app_28,57.1687,20515,7790.7,14.9951,88.3101,5.78212e+09,1.0261,0.950911,88,0.0649676,227,1,2
app_29,10.2598,20569.8,7668.1,173.002,83.1727,8.237e+10,1.0322,0.950911,92,0.980595,215,1,2
app_3,8.2809,20490.6,7413,420.092,743.109,1.96703e+11,1.05129,0.950911,10,0.264742,1906,1,1
app_30,14.0627,20505.8,7728.9,102.425,82.2689,5.06618e+10,1.02834,0.950911,94,0.617826,210,1,2
app_31,15.0318,20657.7,7462.2,394.778,81.6456,1.97411e+11,1.04444,0.950911,92,2.43717,211,1,2
app_32,91.0395,20498.4,7794.5,62.608,77.3286,2.96655e+10,1.02247,0.950911,101,0.385266,197,1,2
app_33,26.9838,20530.4,7701.5,117.689,83.8496,5.73354e+10,1.03108,0.950911,92,0.682565,215,1,2
app_34,30.3085,20312.1,7921.2,12.9534,60.1997,5.92309e+09,1.00919,0.950911,132,0.0987181,152,1,2
app_35,60.692,20672.8,7518.7,328.929,70.0811,1.64991e+11,1.04117,0.950911,108,2.35701,180,1,2
app_36,75.972,20857.2,7486.6,350.709,82.8811,1.6441e+11,1.04561,0.950911,89,1.98084,218,1,2
app_37,68.8265,20699.6,7526,353.056,78.154,1.74296e+11,1.03892,0.950911,96,2.23456,202,1,2
app_38,78.0273,20759.6,7609.1,198.248,90.9926,9.61495e+10,1.03825,0.950911,84,1.05659,235,1,2
app_39,61.4488,20753.1,7644.5,206.826,71.5547,9.62655e+10,1.03349,0.950911,106,1.35585,186,1,2
app_4,3.50365,19840.2,7378.8,391.577,820.822,1.71807e+11,1.05952,0.950911,9,0.209265,2038,1,1
app_40,813.779,22598.9,7628.1,347.544,7.67177,1.72947e+11,1.0255,0.950911,973,24.7068,21,1,3
app_41,617.938,22446.2,7682.2,173.731,9.28608,8.8641e+10,1.02949,0.950911,815,9.849,25,1,3
app_42,560.018,20897.2,7788.5,62.0708,6.61075,3.39429e+10,1.0227,0.950911,1174,4.84899,17,1,3
app_43,623.759,21635,7509.8,255.5,8.67594,1.28221e+11,1.04739,0.950911,855,14.2467,23,1,3
app_44,183.355,21708.4,7734.9,86.9851,9.54465,5.09601e+10,1.0275,0.950911,824,5.09601,25,1,3
app_45,269.214,20498.8,7911.4,9.7003,7.43895,7.0091e+09,1.0103,0.950911,1058,1.0013,19,1,3
app_46,192.505,21195.8,7585.8,332.643,8.45278,1.70834e+11,1.03138,0.950911,887,21.3542,22,1,3
app_47,35.3218,21409.7,7562,379.077,7.37322,1.76126e+11,1.03384,0.950911,1013,22.0158,20,1,3
app_48,433.293,20910.9,7788.7,65.814,7.84157,3.50707e+10,1.02252,0.950911,1006,4.38384,20,1,3
app_49,553.397,20819.3,7667.9,66.4914,8.30894,3.62134e+10,1.03841,0.950911,950,4.02372,21,1,3
app_5,8.67894,19200.2,7459.4,202.135,935.029,8.44211e+10,1.06047,0.950911,8,0.09029,2247,1,1
app_50,523.185,21387.7,7471.8,369.665,9.83297,1.93554e+11,1.04366,0.950911,755,19.3554,26,1,3
app_51,710.617,21341.1,7528.3,226.657,8.37375,1.0352e+11,1.04824,0.950911,899,11.5023,22,1,3
app_52,483.559,21440,7890.9,58.0842,8.00185,2.76532e+10,1.01029,0.950911,967,3.45665,21,1,3
app_53,514.002,21821.7,7586.2,329.248,7.39307,1.74069e+11,1.03089,0.950911,1006,24.867,20,1,3
app_54,932.787,21237.3,7894.8,42.5834,7.70814,2.28881e+10,1.0104,0.950911,1000,3.26973,20,1,3
app_55,913.439,22238.2,7428.7,420.145,7.84516,2.0635e+11,1.0478,0.950911,961,25.7937,21,1,3
app_56,73.3697,20783.1,7815.5,173.079,6.49479,8.33173e+10,1.01281,0.950911,1188,11.9025,17,1,3
app_57,519.72,21425.9,7635.8,221.487,7.13807,1.29382e+11,1.03024,0.950911,1067,16.1728,19,1,3
app_58,762.674,21297.3,7701.9,260.54,8.12218,1.38508e+11,1.02036,0.950911,940,17.3135,21,1,3
app_59,88.5251,21019,7499,385.718,6.94097,1.95713e+11,1.03967,0.950911,1112,27.9589,18,1,3
app_6,5.74998,20601.5,7513.9,176.517,833.75,7.3658e+10,1.05436,0.950911,9,0.088425,2155,1,1
app_60,401.369,20573.6,7865.8,19.5775,7.87862,1.16604e+10,1.01556,0.950911,1001,1.45755,20,1,3
app_7,1.5998,20306.4,7748.8,49.8119,646.366,3.68491e+09,1.03193,0.950911,12,0.0057042,1642,1,1
app_8,6.25181,20424.4,7443.9,386.932,744.254,1.7594e+11,1.04989,0.950911,10,0.236479,1903,1,1
app_9,9.13456,19756.4,7494.2,291.184,750.607,1.30127e+11,1.04927,0.950911,10,0.173272,1853,1,1
