app_id,start_app,end_app,effective_cpu,effective_io,effective_iter,total_bytes,stretch,utilization,Tcomp,Tio,iterations,priority,group_id
app_1,4.12377,27160.5,4745.2,138.811,475.955,1.13714e+11,1.64646,0.889416,10,0.238895,1850,1,1
app_10,41.8177,22034.7,7241.8,58.7641,65.2483,5.55328e+10,1.09629,0.889416,111,0.854351,179,1,1
app_11,53.3063,21962,7093.1,187.075,64.2703,1.84417e+11,1.09928,0.889416,110,2.88151,177,1,1
app_12,58.9744,22006,7212.5,56.5828,78.072,5.37094e+10,1.10099,0.889416,92,0.688582,215,1,1
app_13,75.8415,22145.6,7034.6,167.408,82.9941,1.63607e+11,1.11139,0.889416,85,1.97117,229,1,1
app_14,37.427,21871,7018.1,170.102,77.3603,1.65572e+11,1.11364,0.889416,91,2.12272,213,1,1
app_15,32.9199,21710.1,7286.8,167.454,61.5901,1.64106e+11,1.07369,0.889416,119,2.64686,165,1,1
app_16,93.4426,21873.5,7132.1,90.8323,74.9348,8.82324e+10,1.10798,0.889416,96,1.19233,204,1,1
app_17,51.813,21894.4,7095.5,66.7952,72.306,6.31904e+10,1.11752,0.889416,99,0.865622,200,1,1
app_18,65.2416,22215.2,7016.9,107.006,67.1715,1.0398e+11,1.12346,0.889416,104,1.55195,189,1,1
app_19,25.7177,22049.8,7157.01,99.1563,69.645,9.60187e+10,1.10299,0.889416,102,1.3717,194,1,1
app_2,7.89962,27063.8,4634.73,113.789,514.52,9.81502e+10,1.6903,0.889416,9,0.190583,2026,1,1
app_20,5.78521,22093.6,7157,40.6071,83.5211,3.608e+10,1.11218,0.889416,86,0.434699,231,1,1
app_21,78.416,22253.2,7062.02,79.4145,72.0843,7.5902e+10,1.12077,0.889416,98,1.03975,202,1,1
app_22,6.15533,22066.3,7288.1,15.175,77.7426,1.1623e+10,1.09593,0.889416,94,0.149013,212,1,1
app_23,63.6856,22055.9,7112.8,100.489,70.2486,9.75276e+10,1.10952,0.889416,101,1.39325,196,1,1
app_24,2.86934,22097.5,7140,16.1367,69.1296,1.32011e+10,1.11838,0.889416,103,0.188588,194,1,1
app_25,27.3072,21963.9,7082.4,119.895,69.4933,1.17022e+11,1.1112,0.889416,103,1.69597,191,1,1
app_26,70.597,22135.3,7112.8,8.53556,70.9364,5.51972e+09,1.12386,0.889416,100,0.0788531,200,1,1
app_27,12.4867,22539.9,7104.1,33.2838,78.5311,3.0439e+10,1.12131,0.889416,89,0.385304,224,1,1
app_28,8.27933,22270,7026.2,124.487,78.2235,1.20598e+11,1.11938,0.889416,90,1.52656,219,1,1
app_29,70.9413,21678.1,7123.3,165.186,66.9762,1.61088e+11,1.09824,0.889416,107,2.4043,182,1,1
app_3,7.46492,27166.9,4866.5,50.0494,444.65,3.15335e+10,1.63331,0.889416,11,0.0708618,1729,1,1
app_30,302.313,21529.7,7878.2,79.9598,8.44282,7.95531e+10,1.00531,0.889416,941,8.83923,22,1,1
app_31,651.675,21183.7,7871.1,107.013,9.81629,1.06461e+11,1.00281,0.889416,820,10.6461,25,1,1
app_32,252.446,20112.7,7785.8,111.24,7.77788,1.11035e+11,1.01306,0.889416,987,15.8621,20,1,1
app_33,672.184,21312.2,7720.8,130.886,7.39284,1.30449e+11,1.01895,0.889416,1074,16.3061,19,1,1
app_34,606.049,21052.7,7817.8,107.964,7.15047,1.0756e+11,1.00942,0.889416,1113,15.3657,18,1,1
app_35,1176.47,21173,7900.9,16.8791,6.93118,1.66805e+10,1.01041,0.889416,1181,2.38294,17,1,1
app_36,840.991,22376.9,7785.45,56.847,7.34645,5.64082e+10,1.02017,0.889416,1030,7.05102,20,1,1
app_37,786.733,20803.7,7712.18,114.818,8.64205,1.14355e+11,1.02216,0.889416,913,13.0731,22,1,1
app_38,695.766,21868.9,7854.4,20.1277,8.10879,1.96528e+10,1.016,0.889416,943,2.4566,22,1,1
app_39,560.512,20909.8,7749.6,183.114,7.29677,1.82759e+11,1.00853,0.889416,1027,26.1084,19,1,1
app_4,8.36508,27331.8,4862.6,87.0079,441.655,6.47781e+10,1.62358,0.889416,11,0.146557,1735,1,1
app_40,58.2762,20275.1,7818.6,133.267,10.4207,1.32907e+11,1.0061,0.889416,769,13.2907,26,1,1
app_41,390.513,20851.7,7748.9,171.298,7.87576,1.70839e+11,1.01013,0.889416,995,21.3549,20,1,1
app_42,883.552,21421.6,7736.1,212.199,8.67546,2.11773e+11,1.00656,0.889416,909,23.5303,22,1,1
app_43,947.227,21755.3,7850.5,48.7453,7.78984,4.82171e+10,1.01282,0.889416,1026,6.02714,20,1,1
app_44,293.315,21627.4,7799.3,120.769,8.67008,1.2037e+11,1.01014,0.889416,893,15.0462,23,1,1
app_45,933.984,21116.5,7805.3,76.1351,8.02206,7.58362e+10,1.01508,0.889416,1021,9.47953,20,1,1
app_46,345.912,21145.9,7809,169.373,6.37501,1.69077e+11,1.00275,0.889416,1281,28.1795,16,1,1
app_47,408.762,20521.6,7772.9,173.634,7.63863,1.73139e+11,1.00679,0.889416,1060,21.6424,19,1,1
app_48,375.86,21189,7872,4.02835,8.64883,3.70411e+09,1.01578,0.889416,901,0.411567,23,1,1
app_49,109.072,20935.9,7781.8,146.964,8.53135,1.46463e+11,1.00905,0.889416,914,18.3079,22,1,1
app_5,9.70929,27306.9,4781.09,108.067,478.449,9.29556e+10,1.64135,0.889416,10,0.194062,1880,1,1
app_50,432.559,20592.8,7774.1,101.805,8.88154,1.01432e+11,1.0158,0.889416,917,11.2702,22,1,1
app_51,195.684,20072.6,7798.1,150.998,10.0959,1.50606e+11,1.00645,0.889416,820,13.6915,24,1,1
app_52,657.43,21279.6,7959.7,6.26764,7.63723,5.92598e+09,1.00432,0.889416,1018,0.846568,20,1,1
app_53,1075.38,21674.4,7770.3,153.277,7.3351,1.5293e+11,1.00969,0.889416,1055,21.8471,19,1,1
app_54,179.949,21186.1,7872.5,19.212,8.36673,1.90535e+10,1.01374,0.889416,926,2.38169,22,1,1
app_55,863.89,20947.9,7832.7,55.9277,8.40917,5.55403e+10,1.01417,0.889416,947,6.94254,21,1,1
app_56,1030.8,21997.9,7792.9,135.09,6.37686,1.34836e+11,1.00912,0.889416,1215,22.4726,17,1,1
app_57,138.088,20861.9,7898.2,44.9025,9.65721,4.43584e+10,1.00723,0.889416,815,4.92872,25,1,1
app_58,587.375,20882.3,7701.1,203.398,9.91709,2.02993e+11,1.01213,0.889416,796,20.2993,25,1,1
app_59,555.125,21166.6,7757.1,137.802,8.91282,1.37449e+11,1.01336,0.889416,886,17.1812,23,1,1
app_6,0.526329,28697.2,4573.2,100.835,573.055,6.48589e+10,1.72486,0.889416,8,0.113192,2441,1,1
app_60,118.386,20386.5,7841.5,117.428,7.83162,1.16997e+11,1.00521,0.889416,1004,14.6246,20,1,1
app_7,7.32841,28017.9,4661.57,102.536,518.542,7.46585e+10,1.68911,0.889416,9,0.143851,2134,1,1
app_8,2.36888,27175.2,4450.9,76.903,634.996,5.54298e+10,1.77528,0.889416,7,0.0872911,2549,1,1
app_9,1.09591,27675.3,4778,106.987,475.872,9.08893e+10,1.64309,0.889416,10,0.190944,1910,1,1
