app_id,start_app,end_app,effective_cpu,effective_io,effective_iter,total_bytes,stretch,utilization,Tcomp,Tio,iterations,priority,group_id
app_1,0.820147,19766.6,7871.4,96.4527,982.628,1.47246e+10,1.01444,0.96359,8,0.0149792,2431,1,1
app_10,8.4577,20523,7653.7,256.713,91.0564,1.53944e+11,1.02464,0.96359,84,1.6917,232,1,2
app_11,70.3666,20591.5,7718.9,229.946,77.8432,1.3076e+11,1.01915,0.96359,99,1.67641,199,1,2
app_12,86.6726,20560.6,7809.6,73.5548,84.2315,4.13281e+10,1.01899,0.96359,92,0.492002,216,1,2
app_13,6.4847,20409.4,7631.8,312.8,76.2798,1.77581e+11,1.02441,0.96359,100,2.33659,195,1,2
app_14,43.1868,20453.3,7824.7,49.2848,69.802,2.55771e+10,1.01907,0.96359,111,0.365388,179,1,2
app_15,19.4359,20471.6,7665.3,289.751,78.7266,1.70875e+11,1.02091,0.96359,98,2.16297,200,1,2
app_16,21.0927,20302.9,7691.67,200.085,69.8628,1.18532e+11,1.0243,0.96359,111,1.70452,176,1,2
app_17,71.7014,20419.6,7703.8,173.065,94.2431,9.3704e+10,1.02597,0.96359,82,0.996852,239,1,2
app_18,11.1514,20219.2,7685.1,205.401,85.9228,1.14686e+11,1.02567,0.96359,90,1.33356,218,1,2
app_19,27.0178,20619.9,7586.1,319.67,81.011,1.80038e+11,1.03011,0.96359,93,2.22269,210,1,2
app_2,3.755,18943.1,7738.7,238.645,772.307,8.82338e+10,1.02211,0.96359,10,0.114293,1832,1,1
app_20,3.32864,20410.8,7712.3,182.196,80.0358,9.78928e+10,1.0243,0.96359,97,1.22366,204,1,2
app_21,34.2114,20144,7779.01,143.666,70.1339,8.04809e+10,1.01788,0.96359,112,1.13626,176,1,2
app_22,6.47354,20603.8,7643.51,272.878,59.0986,1.56736e+11,1.02561,0.96359,128,2.65655,153,1,2
app_23,61.4519,20559.6,7684.7,216.582,81.3419,1.25274e+11,1.02433,0.96359,94,1.5466,209,1,2
app_24,53.7064,20496.9,7806.4,51.4724,80.092,2.70226e+10,1.02126,0.96359,97,0.337782,205,1,2
app_25,48.0774,20506.4,7681,239.836,62.9481,1.39959e+11,1.02289,0.96359,122,2.22157,161,1,2
app_26,55.5192,20246,7881.53,28.072,79.3724,1.39658e+10,1.01324,0.96359,99,0.174573,201,1,2
app_27,726.956,21138.6,7760,11.9187,9.00188,1.00058e+10,1.0296,0.96359,869,1.11175,23,1,3
app_28,515.104,21575.9,7513.9,290.48,7.21569,2.03399e+11,1.03663,0.96359,1045,25.4248,19,1,3
app_29,454.734,22136.9,7698.5,187.944,6.98227,1.31942e+11,1.02165,0.96359,1089,18.8488,19,1,3
app_3,6.58977,18840.9,7705.7,265.551,857.678,9.97987e+10,1.02492,0.96359,9,0.116451,2018,1,1
app_30,615.587,21446.5,7735.4,205.497,7.05409,1.39249e+11,1.01592,0.96359,1146,19.8927,18,1,3
app_31,553.665,21670.1,7612.9,104.508,6.70241,7.01743e+10,1.04125,0.96359,1153,10.0249,18,1,3
app_32,887.907,21939.2,7649.9,251.952,7.19873,1.61676e+11,1.02412,0.96359,1056,23.0965,19,1,3
app_33,881.97,21255.8,7618.3,219.037,7.8373,1.38717e+11,1.03132,0.96359,988,19.8168,20,1,3
app_34,819.971,21303.9,7798.2,120.852,8.73142,7.63335e+10,1.01593,0.96359,905,8.4815,22,1,3
app_35,169.609,20747.2,7542.8,282.308,7.69956,1.89234e+11,1.03466,0.96359,979,23.6543,20,1,3
app_36,251.177,21486.1,7732.5,113.841,8.10324,8.07787e+10,1.0239,0.96359,965,10.0973,21,1,3
app_37,118.78,21260.6,7859.3,56.4006,8.47543,4.20527e+10,1.01248,0.96359,933,4.67252,22,1,3
app_38,44.3317,21106.6,7754.9,76.4043,7.94657,5.0913e+10,1.02488,0.96359,967,6.36413,21,1,3
app_39,282.81,20542.4,7693.2,167.204,9.29457,1.21136e+11,1.02376,0.96359,856,13.4595,23,1,3
app_4,5.99306,20092.3,7823.7,152.739,867.328,5.56829e+10,1.01531,0.96359,9,0.0641508,2179,1,1
app_40,552.329,21604.5,7629.3,253.375,8.71859,1.77916e+11,1.02469,0.96359,849,22.2395,23,1,3
app_41,151.259,21688.9,7537.2,249.79,9.29413,1.86621e+11,1.03576,0.96359,813,18.6621,25,1,3
app_42,300.902,21361.1,7685.7,160.205,7.2032,1.08212e+11,1.02644,0.96359,1061,15.4588,19,1,3
app_43,137.933,21476,7767.3,107.032,7.66643,7.65218e+10,1.01991,0.96359,1039,10.9317,20,1,3
app_44,126.373,21279,7761.1,63.8218,8.0667,4.70322e+10,1.02457,0.96359,974,5.87903,21,1,3
app_45,791.446,22424.3,7673.2,101.274,8.05853,6.85277e+10,1.03336,0.96359,933,8.56597,22,1,3
app_46,248.31,20568.8,7646.2,161.1,7.76793,1.13185e+11,1.03101,0.96359,993,14.1482,20,1,3
app_47,752.516,21959.7,7783.1,113.459,9.05114,8.08832e+10,1.0173,0.96359,859,8.98703,24,1,3
app_48,706.331,22513,7769.3,87.0734,6.64607,6.44512e+10,1.02122,0.96359,1155,9.20731,18,1,3
app_49,209.782,21295.4,7649.7,180.032,8.01919,1.30739e+11,1.02822,0.96359,958,16.3424,21,1,3
app_5,1.31935,18759,7550.3,437.565,837.815,1.8895e+11,1.03369,0.96359,9,0.225477,1968,1,1
app_50,737.492,21465.1,7763.35,9.43332,8.02237,4.97136e+09,1.02982,0.96359,1012,0.62142,20,1,3
app_51,604.779,21709,7734.3,58.2024,6.82365,3.94304e+10,1.02911,0.96359,1091,5.63291,19,1,3
app_52,188.834,21215.2,7827.2,90.9321,8.26549,7.66513e+10,1.01216,0.96359,910,9.58141,22,1,3
app_53,85.6364,21235.9,7569.93,241.046,8.04386,1.69244e+11,1.0337,0.96359,949,20.6497,21,1,3
app_54,894.21,21808.5,7633.1,163.144,7.9416,1.11402e+11,1.03299,0.96359,959,13.9252,21,1,3
app_55,928.796,21743.5,7865.1,49.4402,7.11974,4.1206e+10,1.01185,0.96359,1066,5.88658,19,1,3
app_56,141.044,20756.9,7704.6,109.347,7.71169,7.75513e+10,1.02799,0.96359,998,9.69391,20,1,3
app_57,514.033,20960.1,7710.4,256.175,9.19194,1.65212e+11,1.01579,0.96359,851,18.3569,23,1,3
app_58,121.498,21426.6,7613.7,291.468,8.97238,1.79775e+11,1.0265,0.96359,833,19.975,24,1,3
app_59,791.535,21703.3,7733.3,175.714,8.18162,1.15334e+11,1.01929,0.96359,963,14.4167,21,1,3
app_6,3.09524,19448.6,7810.5,153.71,868.654,5.17997e+10,1.01751,0.96359,9,0.0596084,2114,1,1
app_60,731.488,21205.5,7634.9,295.833,8.37538,2.03359e+11,1.02063,0.96359,940,25.4198,21,1,3
app_7,48.4529,20496.2,7685.9,211.729,69.9091,1.29632e+11,1.0236,0.96359,109,1.85189,180,1,2
app_8,55.0218,20438.7,7735.39,171.927,75.7555,9.43115e+10,1.02175,0.96359,102,1.25749,193,1,2
app_9,38.0571,20402.2,7780.9,113.082,78.9543,6.32041e+10,1.01987,0.96359,99,0.800052,201,1,2
