app_id,start_app,end_app,effective_cpu,effective_io,effective_iter,total_bytes,stretch,utilization,Tcomp,Tio,iterations,priority,group_id
app_1,9.99066,19804.6,7702.5,224.652,770.834,1.70622e+11,1.01612,0.964816,10,0.221299,1904,0.1,1
app_10,10.0869,19731.5,7765.2,153.901,778.769,1.06846e+11,1.01625,0.964816,10,0.137158,1916,0.1,1
app_11,7.34586,20060.5,7704.1,218.626,767.52,1.60696e+11,1.01719,0.964816,10,0.209512,1929,0.1,1
app_12,5.60828,19755.6,7719.4,208.374,701.258,1.6126e+11,1.01514,0.964816,11,0.229715,1734,0.1,1
app_13,9.46477,19592.1,7822.9,88.8377,784.602,5.89736e+10,1.01499,0.964816,10,0.0751257,1919,0.1,1
app_14,0.172494,19916,7720.6,185.374,860.483,1.49974e+11,1.01644,0.964816,9,0.174388,2139,0.1,1
app_15,6.9238,19239.2,7757.1,170.822,705.28,1.35776e+11,1.01357,0.964816,11,0.192591,1694,0.1,1
app_16,4.60928,18298.3,7799.9,91.6106,977.016,3.55405e+10,1.021,0.964816,8,0.0363772,2233,0.1,1
app_17,2.66979,19461.1,7708.3,190.809,964.827,1.35143e+11,1.01996,0.964816,8,0.140044,2345,0.1,1
app_18,0.468937,19354.8,7680.1,233.956,768.681,1.9123e+11,1.01635,0.964816,10,0.248997,1862,0.1,1
app_19,4.14784,19799,7699,220.316,770.151,1.61541e+11,1.01774,0.964816,10,0.209794,1906,0.1,1
app_2,3.94933,19956.1,7830.81,84.3982,780.219,4.97393e+10,1.01516,0.964816,10,0.0636895,1949,0.1,1
app_20,4.95939,18640.8,7672.08,231.92,959.674,1.83829e+11,1.01834,0.964816,8,0.191688,2231,0.1,1
app_21,2.89157,18481.6,7676.4,255.881,768.184,2.13211e+11,1.01399,0.964816,10,0.277518,1775,0.1,1
app_22,7.32649,18660.6,7671.4,241.352,852.431,1.74908e+11,1.01959,0.964816,9,0.205051,1987,0.1,1
app_23,24.9533,20415,7771.4,154.076,72.545,8.93752e+10,1.01771,0.964816,107,1.22432,185,0.01,2
app_24,29.9157,20261.7,7804.6,118.363,84.5239,6.43824e+10,1.01665,0.964816,92,0.75744,214,0.01,2
app_25,46.2994,20607.3,7659.12,301.65,68.4604,1.80792e+11,1.02042,0.964816,111,2.64868,176,0.01,2
app_26,0.874558,20404.3,7810.6,121.33,90.096,6.76193e+10,1.01546,0.964816,86,0.751326,231,0.01,2
app_27,64.9179,20301,7902.8,16.587,89.5356,5.89147e+09,1.01155,0.964816,88,0.0654608,226,0.01,2
app_28,43.7134,20222.8,7724.7,231.497,87.7186,1.35932e+11,1.01773,0.964816,89,1.54468,220,0.01,2
app_29,29.2404,20279.4,7814.6,132.337,92.1328,7.23697e+10,1.01433,0.964816,85,0.786627,233,0.01,2
app_3,3.41982,18270.8,7681,207.156,960.155,1.64347e+11,1.01971,0.964816,8,0.171016,2195,0.1,1
app_30,54.8648,20181,7823.4,116.952,77.8673,6.62594e+10,1.01399,0.964816,102,0.849479,194,0.01,2
app_31,43.4383,20439.4,7772.9,131.752,87.9359,7.44943e+10,1.01945,0.964816,88,0.846527,225,0.01,2
app_32,78.9184,20248.8,7892.9,25.9152,84.5999,1.24053e+10,1.01198,0.964816,94,0.145945,212,0.01,2
app_33,35.3173,20300.9,7702.5,224.562,86.6071,1.31708e+11,1.02116,0.964816,89,1.53149,219,0.01,2
app_34,62.532,20395.5,7819.6,132.662,81.7428,7.57526e+10,1.01325,0.964816,95,0.935218,208,0.01,2
app_35,92.2837,20582.6,7649.1,312.377,71.9035,1.8495e+11,1.02118,0.964816,105,2.56875,186,0.01,2
app_36,22.9482,20408.2,7742,187.865,73.1783,1.0871e+11,1.01902,0.964816,106,1.48918,186,0.01,2
app_37,52.6916,20258.3,7673.8,257.431,92.7031,1.52585e+11,1.02218,0.964816,83,1.6407,234,0.01,2
app_38,34.0442,20150.3,7906.1,20.1731,79.5109,8.37535e+09,1.01081,0.964816,100,0.104692,199,0.01,2
app_39,14.9427,20563.3,7677.6,256.424,79.7834,1.44179e+11,1.02279,0.964816,96,1.82505,204,0.01,2
app_4,2.43467,18849.6,7824.4,75.7706,780.901,3.27454e+10,1.01818,0.964816,10,0.0419276,1848,0.1,1
app_40,67.3454,20309.9,7869.71,46.5746,72.7881,2.41204e+10,1.01345,0.964816,108,0.330416,184,0.01,2
app_41,67.9009,20513.4,7645.3,298.911,72.74,1.7763e+11,1.02263,0.964816,105,2.43329,186,0.01,2
app_42,94.4568,20143.6,7890.4,49.431,80.7267,2.56114e+10,1.01061,0.964816,98,0.320143,202,0.01,2
app_43,189.403,21828.9,7781.2,133.184,7.59913,6.08915e+10,1.02014,0.964816,1042,8.69878,20,0.001,3
app_44,484.353,21727.8,7617.6,147.359,9.14296,5.87517e+10,1.04216,0.964816,799,6.52796,25,0.001,3
app_45,631.935,21371.1,7933.8,47.4074,8.1812,1.5688e+10,1.00635,0.964816,971,1.961,21,0.001,3
app_46,1022.25,22908.4,7722.3,217.186,6.50423,9.46891e+10,1.02341,0.964816,1152,15.7815,18,0.001,3
app_47,71.8608,21225.1,7700.8,31.1449,8.0296,8.56595e+09,1.0377,0.964816,944,1.07074,22,0.001,3
app_48,348.754,21632.4,7718.2,24.039,8.22317,8.93282e+09,1.03531,0.964816,936,1.1166,22,0.001,3
app_49,587.75,21721.2,7780.3,95.0557,7.16387,4.2007e+10,1.02272,0.964816,1084,6.001,19,0.001,3
app_5,6.25974,19194.4,7821.5,80.7981,781.902,3.98715e+10,1.01763,0.964816,10,0.0509866,1878,0.1,1
app_50,420.062,21475.5,7442.7,420.822,8.30119,1.68033e+11,1.05115,0.964816,899,18.6704,22,0.001,3
app_51,461.502,21506.3,7753,134.87,7.72408,4.80448e+10,1.0255,0.964816,1010,6.86354,20,0.001,3
app_52,257.321,21400.2,7444.7,275.268,7.35463,1.1583e+11,1.05813,0.964816,1001,16.5471,20,0.001,3
app_53,99.3484,22561.5,7483.2,378.66,6.15152,1.43648e+11,1.04893,0.964816,1145,23.9414,18,0.001,3
app_54,238.535,21224,7498.8,420.95,7.44703,1.66368e+11,1.04368,0.964816,985,23.7668,20,0.001,3
app_55,772.626,22364.1,7750,233.49,6.61279,9.34971e+10,1.01995,0.964816,1155,15.5829,18,0.001,3
app_56,5.3223,20579.5,7880,9.44154,7.86148,3.44767e+09,1.01478,0.964816,1050,0.430958,20,0.001,3
app_57,710.518,22047.3,7515.1,399.413,7.43144,1.5019e+11,1.04367,0.964816,995,18.7737,20,0.001,3
app_58,12.6213,20991.8,7612.5,167.984,8.29789,6.79628e+10,1.0416,0.964816,915,8.49535,22,0.001,3
app_59,491.95,21949.3,7431.94,406.914,7.66636,1.60012e+11,1.05375,0.964816,969,20.8958,21,0.001,3
app_6,1.52488,19255.9,7691.4,234.772,768.167,1.93539e+11,1.01459,0.964816,10,0.252004,1851,0.1,1
app_60,332.493,21851.4,7444.2,398.113,6.72848,1.56593e+11,1.05252,0.964816,1152,22.3704,18,0.001,3
app_7,6.68909,20040.6,7677.3,236.027,770.546,1.92987e+11,1.01648,0.964816,10,0.250308,1929,0.1,1
app_8,5.13842,20003.7,7768.9,126.362,864.262,8.48021e+10,1.01863,0.964816,9,0.0981505,2160,0.1,1
app_9,8.39383,18609.8,7653.76,257.891,852.528,2.07484e+11,1.01765,0.964816,9,0.24324,1983,0.1,1
