app_id,start_app,end_app,effective_cpu,effective_io,effective_iter,total_bytes,stretch,utilization,Tcomp,Tio,iterations,priority,group_id
app_1,5.34228,19457.4,7844,156,713.065,7.64543e+10,1.01004,0.960222,11,0.107229,1728,0.0863986,1
app_10,5.32502,18721.9,7864,136,981.592,8.52083e+10,1.00639,0.960222,8,0.0868586,2298,0.114886,1.00001
app_11,4.29144,19712.6,7918.6,81.4,793.591,2.78712e+10,1.00674,0.960222,10,0.0351023,1951,0.0975252,1.00001
app_12,5.88821,18611.6,7705,295,773.207,2.01124e+11,1.01187,0.960222,10,0.260186,1794,0.0896819,1.00001
app_13,8.74631,19592.6,7911.5,88.5,880.807,2.54678e+10,1.00794,0.960222,9,0.0289078,2153,0.107632,1.00001
app_14,1.1517,18321.3,7760.7,239.3,1109.87,1.31832e+11,1.01362,0.960222,7,0.118874,2543,0.127106,1.00001
app_15,3.96034,19239.6,7755,245,861.422,1.61245e+11,1.01058,0.960222,9,0.187059,2073,0.103642,1.00002
app_16,0.0234096,19799.8,7917.8,82.2,793.066,3.18398e+10,1.00633,0.960222,10,0.0401511,1961,0.0980324,1.00002
app_17,83.4931,20645.4,7662.7,337.3,69.047,1.73213e+11,1.02094,0.960222,111,2.51033,176,0.00878465,1.00002
app_18,72.2648,19984.2,7947.5,52.5,95.8025,2.45987e+10,1.0035,0.960222,83,0.256236,238,0.0118816,1.00002
app_19,58.8397,20611.5,7721.3,278.7,68.9583,1.38224e+11,1.01787,0.960222,112,2.00325,176,0.00876499,1.00002
app_2,2.20359,19685,7898.3,101.7,879.866,5.45882e+10,1.00592,0.960222,9,0.062032,2161,0.108032,1
app_20,50.7918,20331.6,7765,235,77.7529,1.16696e+11,1.01501,0.960222,99,1.4961,199,0.00993953,1.00002
app_21,12.0441,19960.5,7944.3,55.7,85.5852,2.57777e+10,1.00375,0.960222,93,0.303268,213,0.0106045,1.00002
app_22,33.5201,19912.1,7918.5,81.5,78.9603,3.63549e+10,1.00568,0.960222,101,0.460189,196,0.0097854,1.00002
app_23,88.8596,20100.6,7929.9,70.1,68.5052,3.30173e+10,1.00466,0.960222,116,0.478512,171,0.00854502,1.00002
app_24,61.6795,20253.9,7850.7,149.3,75.0808,7.5545e+10,1.00931,0.960222,104,1.00727,190,0.0094604,1.00002
app_25,13.2223,20203.3,7857.1,142.9,83.3892,6.3828e+10,1.00998,0.960222,94,0.769012,211,0.0105106,1.00003
app_26,79.8599,20355.9,7861.2,138.8,81.7943,6.7793e+10,1.00896,0.960222,95,0.836951,207,0.0103455,1.00003
app_27,4.4728,20256.2,7756.79,243.206,90.236,1.23987e+11,1.01513,0.960222,86,1.377,229,0.0114135,1.00003
app_28,17.3469,20118.3,7852.6,147.4,74.4498,7.11302e+10,1.00963,0.960222,105,0.961219,188,0.00937963,1.00003
app_29,48.7226,20458.9,7700.6,299.4,80.7056,1.46899e+11,1.01943,0.960222,94,1.81357,208,0.0103696,1.00003
app_3,3.99015,19795.5,7726.4,273.6,770.87,1.81665e+11,1.01163,0.960222,10,0.235929,1910,0.0954938,1
app_30,78.9303,20366.8,7801.8,198.2,70.6274,1.02607e+11,1.01209,0.960222,109,1.46582,181,0.00903821,1.00003
app_31,108.781,20085.2,7980.6,19.4,67.9183,6.69518e+09,1.00159,0.960222,119,0.0984585,168,0.00835551,1.00003
app_32,58.2454,20405.1,7726.9,273.1,84.0485,1.49171e+11,1.01573,0.960222,92,1.77584,213,0.0106207,1.00003
app_33,90.1081,20552.6,7640.2,359.8,66.0704,1.71896e+11,1.02405,0.960222,116,2.60449,169,0.00841479,1.00003
app_34,29.5025,20441.2,7608.2,391.8,60.203,1.96671e+11,1.025,0.960222,127,3.27785,153,0.007637,1.00003
app_35,23.2065,20171.6,7772.7,227.3,81.7309,1.19275e+11,1.01369,0.960222,95,1.47253,207,0.0103111,1.00004
app_36,78.7133,20372.2,7821,179,81.2041,9.12664e+10,1.01109,0.960222,96,1.113,206,0.0102704,1.00004
app_37,152.844,21661.9,7530.2,469.8,8.53412,1.23729e+11,1.04521,0.960222,889,15.4662,23,0.00110522,1.00004
app_38,338.796,20543.6,7728.6,271.4,10.3667,9.65154e+10,1.02235,0.960222,760,9.65154,26,0.00129811,1.00004
app_39,130.916,21880.2,7025.9,974.1,7.98183,1.84464e+11,1.10951,0.960222,908,23.058,22,0.00107307,1.00004
app_4,2.845,19601.1,7823.6,176.4,782.167,1.00421e+11,1.00959,0.960222,10,0.128416,1917,0.095832,1
app_40,772.547,22006.3,7681.2,318.8,6.98613,8.8966e+10,1.02958,0.960222,1088,12.7094,19,0.000908083,1.00004
app_41,525.465,21972.1,7556.3,443.7,7.41042,9.34709e+10,1.04578,0.960222,1036,13.353,20,0.000952137,1.00004
app_42,19.2665,20855.7,7548.03,451.972,6.79874,1.19384e+11,1.04338,0.960222,1109,18.6616,18,0.000886112,1.00004
app_43,545.552,21872.3,7495.2,504.8,8.05917,9.78927e+10,1.05359,0.960222,940,12.2366,21,0.0010498,1.00004
app_44,323.655,21004.4,7744.6,255.4,7.65738,3.81158e+10,1.02792,0.960222,1019,4.76447,20,0.000976683,1.00004
app_45,880.303,21343.8,7965.2,34.8,7.47912,4.27296e+09,1.00383,0.960222,1079,0.53412,19,0.000925826,1.00004
app_46,632.102,21912.6,7368,632,8.31409,1.46343e+11,1.06463,0.960222,891,18.2929,22,0.00109858,1.00005
app_47,537.692,22503.1,7389.1,610.9,7.30237,1.04776e+11,1.06754,0.960222,1035,13.097,20,0.000953502,1.00005
app_48,496.758,21548.9,7370.4,629.6,7.92031,1.35401e+11,1.06584,0.960222,944,16.9252,21,0.00104032,1.00005
app_49,356.878,22256.1,7413.1,586.9,7.44321,1.65281e+11,1.05563,0.960222,1005,23.6115,20,0.000971998,1.00005
app_5,1.09829,19037.7,7911.1,88.9,793.923,3.70729e+10,1.00652,0.960222,10,0.0466913,1887,0.0943045,1.00001
app_50,241.911,22394.3,7018.5,981.5,7.55035,1.69851e+11,1.11291,0.960222,908,21.2313,22,0.00107521,1.00005
app_51,607.905,21289.4,7669.5,330.5,8.54502,7.27197e+10,1.0333,0.960222,906,8.07997,22,0.00109388,1.00005
app_52,12.0143,21506.6,7739.59,260.406,8.12375,7.8639e+10,1.02325,0.960222,982,9.34231,21,0.00100824,1.00005
app_53,455.819,21380.4,7817,183,6.99801,4.55668e+10,1.01748,0.960222,1119,6.50954,18,0.000887754,1.00005
app_54,1025.16,22475.1,7309.44,690.563,6.18831,1.79179e+11,1.06829,0.960222,1169,29.5726,17,0.000833837,1.00005
app_55,922.121,22974.4,7304.9,695.1,7.6724,1.44392e+11,1.07393,0.960222,962,18.0489,21,0.00102032,1.00005
app_56,842.282,22937,7158.6,841.4,6.74686,1.68463e+11,1.09184,0.960222,1065,24.0662,19,0.000917856,1.00006
app_57,666.387,22535.9,7370.7,629.3,8.29288,1.51665e+11,1.0635,0.960222,868,18.9582,23,0.00112683,1.00006
app_58,382.31,22770.4,7398.7,601.3,6.67414,1.46865e+11,1.06023,0.960222,1083,20.9807,19,0.000905759,1.00006
app_59,132.86,21928.4,7248.9,751.1,7.44375,1.35576e+11,1.08335,0.960222,953,16.947,21,0.00103075,1.00006
app_6,5.34494,19414.5,7821.9,178.1,780.211,1.06796e+11,1.00899,0.960222,10,0.136918,1893,0.0946391,1.00001
app_60,754.131,22064,7620.7,379.3,7.02511,1.04525e+11,1.03557,0.960222,1067,14.9321,19,0.000923736,1.00006
app_7,1.13465,19056.8,7774.01,225.987,776.761,1.44391e+11,1.0103,0.960222,10,0.185847,1852,0.0925708,1.00001
app_8,1.29465,19664,7770.7,229.3,861.641,1.52686e+11,1.00967,0.960222,9,0.177336,2119,0.10594,1.00001
app_9,8.47166,19282.6,7912.1,87.9,878.673,1.64389e+10,1.00901,0.960222,9,0.0187018,2117,0.105801,1.00001
