app_id,start_app,end_app,effective_cpu,effective_io,effective_iter,total_bytes,stretch,utilization,Tcomp,Tio,iterations,priority,group_id
app_1,1.85442,18156.8,7862.9,137.1,986.997,2.10406e+10,1.01472,0.946907,8,0.0213178,2234,1,1
app_10,1.16747,20426.1,7233.7,766.3,722.443,1.95599e+11,1.07682,0.946907,10,0.270913,1856,1.00001,1.00001
app_11,8.90349,18434.3,7900.6,99.4,787.857,1.3274e+10,1.01088,0.946907,10,0.0168452,1816,1.00001,1.00001
app_12,3.15043,20997.8,7427.93,572.069,743.864,1.43526e+11,1.0566,0.946907,10,0.193031,1960,1.00001,1.00001
app_13,5.04886,20097.2,7580.2,419.8,758.647,9.76624e+10,1.04196,0.946907,10,0.128842,1911,1.00001,1.00001
app_14,0.80649,19003.1,7321,679,915.84,1.69351e+11,1.06804,0.946907,8,0.184881,2181,1.00001,1.00001
app_15,7.01228,18754.2,7774,226,860.818,4.44527e+10,1.02322,0.946907,9,0.0516292,2023,1.00002,1.00002
app_16,5.01574,19008,7912,88,879.912,4.08495e+09,1.0106,0.946907,9,0.00464199,2087,1.00002,1.00002
app_17,10.8325,20341.4,7623.13,376.871,693.699,8.74595e+10,1.03753,0.946907,11,0.126036,1768,1.00002,1.00002
app_18,2.99173,19473.2,7437.5,562.5,826.359,1.40155e+11,1.05574,0.946907,9,0.16968,2017,1.00002,1.00002
app_19,6.89121,19132.9,7587.4,412.6,691.445,9.87023e+10,1.04084,0.946907,11,0.14284,1655,1.00002,1.00002
app_2,1.06888,21201.5,7242.8,757.2,1036.23,1.89947e+11,1.07632,0.946907,7,0.183347,2763,1,1
app_20,2.01861,18763.1,7886.3,113.7,789.385,1.79156e+10,1.01212,0.946907,10,0.022678,1852,1.00002,1.00002
app_21,6.00164,18722.1,7911.1,88.9,878.48,6.97559e+09,1.01035,0.946907,9,0.00793582,2051,1.00002,1.00002
app_22,0.62406,20118.8,7134.9,865.1,713.098,2.19574e+11,1.08777,0.946907,10,0.307958,1802,1.00002,1.00002
app_23,8.21995,19691.6,7378.31,621.693,736.523,1.54674e+11,1.062,0.946907,10,0.210086,1820,1.00002,1.00002
app_24,2.53243,18871.4,7614.3,385.7,844.289,8.57365e+10,1.03896,0.946907,9,0.101584,1999,1.00002,1.00002
app_25,0.614277,20226.3,7913.7,86.3,720.584,1.04095e+10,1.00958,0.946907,11,0.0144576,1816,1.00003,1.00003
app_26,3.44767,19637.6,7222,778,902.216,1.98042e+11,1.07816,0.946907,8,0.219315,2224,1.00003,1.00003
app_27,5.06799,20008,7912.1,87.9,878.526,7.90696e+08,1.01101,0.946907,9,0.00089954,2196,1.00003,1.00003
app_28,28.1511,20528.2,7663,337,66.2431,8.65565e+10,1.03232,0.946907,115,1.31146,171,1.00003,1.00003
app_29,77.2128,19973.7,7941.2,58.8,81.113,1.37604e+10,1.00566,0.946907,98,0.169881,202,1.00003,1.00003
app_3,5.67444,19683,7407.2,592.8,925.319,1.43929e+11,1.05944,0.946907,8,0.155599,2285,1,1
app_30,14.0688,20308.3,7837.7,162.3,75.6444,3.70392e+10,1.01591,0.946907,104,0.487358,192,1.00003,1.00003
app_31,5.55771,20783.7,7453.4,546.6,84.7452,1.44503e+11,1.05292,0.946907,88,1.70004,221,1.00003,1.00003
app_32,10.5176,20146.6,7864.5,135.5,94.9766,3.02043e+10,1.01334,0.946907,83,0.31794,240,1.00003,1.00003
app_33,92.912,20874.8,7504.6,495.4,79.6477,1.38254e+11,1.04673,0.946907,95,1.72818,206,1.00003,1.00003
app_34,86.6284,21046.5,7302.27,697.731,73.9209,1.81748e+11,1.06894,0.946907,100,2.48565,194,1.00003,1.00003
app_35,32.0409,20403.6,7683.9,316.1,82.9927,8.42408e+10,1.02985,0.946907,93,1.01495,212,1.00004,1.00004
app_36,32.1208,20122.3,7928.2,71.8,82.008,1.66288e+10,1.00694,0.946907,96,0.20279,207,1.00004,1.00004
app_37,27.2498,20855.2,7561.2,438.8,76.2341,1.14539e+11,1.04224,0.946907,99,1.50709,199,1.00004,1.00004
app_38,31.5917,20056.8,7933,67,77.6409,1.50278e+10,1.00654,0.946907,102,0.192664,195,1.00004,1.00004
app_39,59.209,21287.3,7187.2,812.8,76.3263,2.22083e+11,1.07973,0.946907,95,2.92214,204,1.00004,1.00004
app_4,1.67122,20679,7305.5,694.5,912.175,1.77572e+11,1.06908,0.946907,8,0.194706,2367,1,1
app_40,18.0241,20326,7762.5,237.5,86.9609,5.53828e+10,1.02329,0.946907,90,0.636584,220,1.00004,1.00004
app_41,0.172069,20575,7623.4,376.6,65.6163,1.00048e+11,1.03581,0.946907,117,1.5392,169,1.00004,1.00004
app_42,24.2835,20082.3,7824.3,175.7,79.0378,4.12501e+10,1.01709,0.946907,99,0.522153,200,1.00004,1.00004
app_43,11.5998,19771.8,7977.8,22.2,79.019,4.64673e+09,1.0022,0.946907,101,0.0588194,196,1.00004,1.00004
app_44,42.9231,21386.3,7228.4,771.6,64.6724,1.94637e+11,1.07773,0.946907,110,2.99442,177,1.00004,1.00004
app_45,87.0302,20176.7,7879.5,120.5,76.677,2.81881e+10,1.01167,0.946907,103,0.366079,192,1.00004,1.00004
app_46,79.9365,20857.7,7602.1,397.9,64.6174,9.66357e+10,1.03913,0.946907,118,1.4867,168,1.00005,1.00005
app_47,41.5034,20925.7,7393.5,606.5,84.1351,1.53983e+11,1.05996,0.946907,88,1.83313,221,1.00005,1.00005
app_48,771.792,21821.6,7448.4,551.6,7.19305,9.98481e+10,1.05985,0.946907,1016,14.264,20,1.00005,1.00005
app_49,289.516,21774,7430.4,569.6,9.15443,1.34768e+11,1.05748,0.946907,810,14.9743,25,1.00005,1.00005
app_5,5.54475,21109.7,7401.39,598.612,673.366,1.50846e+11,1.05929,0.946907,11,0.223855,1782,1.00001,1.00001
app_50,182.211,22085.2,7641.7,358.303,6.98532,7.19752e+10,1.03712,0.946907,1083,10.6721,19,1.00005,1.00005
app_51,119.234,21671.6,7369.4,630.6,8.34546,1.63614e+11,1.06199,0.946907,866,20.4518,23,1.00005,1.00005
app_52,178.022,20676.2,7721.4,278.6,7.43299,6.48682e+10,1.02745,0.946907,1048,8.10853,19,1.00005,1.00005
app_53,154.614,22427.7,7525.8,474.2,6.68471,1.48304e+11,1.04247,0.946907,1084,24.7174,19,1.00005,1.00005
app_54,500.021,21572.7,7432.7,567.3,7.06489,1.28855e+11,1.05798,0.946907,1039,18.4078,19,1.00005,1.00005
app_55,502.312,21317.7,7566.4,433.6,7.5674,1.2306e+11,1.04039,0.946907,982,17.58,20,1.00005,1.00005
app_56,1048.18,21536.1,7871.2,128.8,7.39886,2.3045e+10,1.0134,0.946907,1062,2.88062,19,1.00006,1.00006
app_57,784.591,22460.7,7272.1,727.9,7.17723,1.93341e+11,1.0716,0.946907,985,24.1676,20,1.00006,1.00006
app_58,541.281,22582.7,7276.4,723.6,7.29526,1.92139e+11,1.07116,0.946907,1006,24.0174,20,1.00006,1.00006
app_59,586.444,21657.9,7208.4,791.6,7.89021,1.70232e+11,1.08421,0.946907,936,21.2791,21,1.00006,1.00006
app_6,3.7643,18624.7,7642.8,357.2,1092.2,7.97601e+10,1.03593,0.946907,7,0.0730404,2540,1.00001,1.00001
app_60,558.839,22268.6,7522.5,477.5,7.17246,9.80031e+10,1.0498,0.946907,1019,14.0004,20,1.00006,1.00006
app_7,2.84243,19725.6,7218.8,781.2,723.088,1.9876e+11,1.07852,0.946907,10,0.274911,1789,1.00001,1.00001
app_8,1.33337,19891.1,7755,245,706.599,5.4789e+10,1.02436,0.946907,11,0.0776049,1754,1.00001,1.00001
app_9,3.71897,20325.9,7470.3,529.7,826.179,1.26411e+11,1.05309,0.946907,9,0.15304,2110,1.00001,1.00001
