app_id,start_app,end_app,effective_cpu,effective_io,effective_iter,total_bytes,stretch,utilization,Tcomp,Tio,iterations,priority,group_id
app_1,1.34809,18279.2,7844.6,155.4,873.859,5.19727e+10,1.0131,0.958097,9,0.0594653,1996,0.0997757,1
app_10,10.0602,18925.8,7620.3,379.7,762.258,1.58362e+11,1.02845,0.958097,10,0.207552,1802,0.0900934,1.00001
app_11,7.01258,20160.6,7875.73,124.268,788.728,3.93981e+10,1.01072,0.958097,10,0.0499547,1986,0.0992671,1.00001
app_12,5.67872,19400.3,7520.2,479.8,942.31,2.22055e+11,1.03329,0.958097,8,0.235727,2283,0.114122,1.00001
app_13,3.01297,18703.5,7699,301,769.014,1.22318e+11,1.02285,0.958097,10,0.159062,1799,0.0899105,1.00001
app_14,4.78386,18501.2,7725.5,274.5,859.62,1.05162e+11,1.02163,0.958097,9,0.122281,1985,0.0992182,1.00001
app_15,0.174532,18993.7,7911.5,88.5,718.386,2.12458e+10,1.00848,0.958097,11,0.0295902,1706,0.085273,1.00002
app_16,3.67426,18690.1,7881.4,118.6,788.727,3.55506e+10,1.01049,0.958097,10,0.045115,1842,0.0920963,1.00002
app_17,8.51967,18839.1,7722.6,277.4,964.625,1.12146e+11,1.02109,0.958097,8,0.116213,2271,0.113541,1.00002
app_18,1.0116,20033,7498.5,501.5,834.665,2.31029e+11,1.03499,0.958097,9,0.276681,2088,0.104394,1.00002
app_19,9.26471,18821.3,7905.7,94.3,879.038,2.03805e+10,1.00933,0.958097,9,0.023186,2068,0.103392,1.00002
app_2,4.78547,18412.2,7910.3,89.7,880.201,1.52114e+10,1.0094,0.958097,9,0.0172856,2025,0.101217,1
app_20,2.53669,18489,7667.6,332.4,854.13,1.38236e+11,1.02487,0.958097,9,0.161869,1969,0.0984198,1.00002
app_21,4.52383,18745.7,7665,335,851.218,1.40404e+11,1.02493,0.958097,9,0.164987,1995,0.0997344,1.00002
app_22,8.44443,19071.9,7920.8,79.2,792.121,3.10871e+09,1.0096,0.958097,10,0.00392514,1883,0.0941493,1.00002
app_23,7.26436,20288.7,7767.5,232.5,973.84,9.39063e+10,1.01763,0.958097,8,0.096413,2468,0.123398,1.00002
app_24,2.75688,18781.9,7733.7,266.3,857.416,1.06149e+11,1.02043,0.958097,9,0.123861,2015,0.100745,1.00002
app_25,4.03524,18879.2,7493.4,506.6,829.936,2.30963e+11,1.03568,0.958097,9,0.278268,1958,0.0978556,1.00003
app_26,8.92976,18624.5,7835.9,164.1,783.42,5.96366e+10,1.01323,0.958097,10,0.0760671,1821,0.0910289,1.00003
app_27,9.09488,20280.2,7503.2,496.8,751.646,2.24171e+11,1.03528,0.958097,10,0.2981,1903,0.0951246,1.00003
app_28,6.40051,18298,7855.3,144.7,870.906,4.69296e+10,1.01237,0.958097,9,0.0538802,1992,0.0995917,1.00003
app_29,10.0696,19162.7,7657.9,342.1,767.401,1.44838e+11,1.02528,0.958097,10,0.188837,1837,0.0918202,1.00003
app_3,4.22997,19314.7,7811.4,188.6,778.603,7.03084e+10,1.01501,0.958097,10,0.0902547,1882,0.0940955,1
app_30,9.07626,18713.7,7761.1,238.9,859.315,9.09507e+10,1.01884,0.958097,9,0.10588,2015,0.100738,1.00003
app_31,7.06187,19184.4,7857,143,784.14,4.98055e+10,1.01179,0.958097,10,0.0635274,1886,0.0942772,1.00003
app_32,8.62372,18628.7,7919.2,80.8,721.009,1.76198e+10,1.00796,0.958097,11,0.024438,1677,0.0838439,1.00003
app_33,0.537813,18254.6,7886.7,113.3,987.085,3.07498e+10,1.01043,0.958097,8,0.0311548,2251,0.112524,1.00003
app_34,9.45274,20356.2,7773.3,226.7,775.987,8.39802e+10,1.01816,0.958097,10,0.108222,1975,0.0987405,1.00003
app_35,7.15284,18134.3,7792.8,207.2,973.441,8.17385e+10,1.01593,0.958097,8,0.0839205,2205,0.110232,1.00004
app_36,1.2814,18807.6,7641.9,358.1,951.327,1.52761e+11,1.02634,0.958097,8,0.160632,2243,0.112137,1.00004
app_37,0.326958,18950.2,7635.8,364.2,955.79,1.58048e+11,1.02645,0.958097,8,0.165495,2259,0.112926,1.00004
app_38,4.55456,18333.1,7882.5,117.5,875.751,3.71796e+10,1.01014,0.958097,9,0.0424425,2007,0.100346,1.00004
app_39,1.91223,20365.8,7757.4,242.6,773.787,9.2478e+10,1.01912,0.958097,10,0.119481,1974,0.0986755,1.00004
app_4,4.92161,18480.6,7723.6,276.4,965.076,1.08592e+11,1.02143,0.958097,8,0.11253,2228,0.111371,1
app_40,0.220796,19936.3,7885.8,114.2,873.834,3.57425e+10,1.0099,0.958097,9,0.0408953,2181,0.109003,1.00004
app_41,34.3345,21404.9,7267.1,732.9,76.9425,1.96429e+11,1.07188,0.958097,94,2.55102,207,0.0103032,1.00004
app_42,77.1287,20477.3,7795.03,204.973,78.627,4.58209e+10,1.0203,0.958097,99,0.581733,201,0.0100097,1.00004
app_43,88.4981,20645.9,7682.7,317.3,81.4096,7.81833e+10,1.03081,0.958097,94,0.965225,210,0.0104913,1.00004
app_44,58.9281,21355.7,7174.2,825.8,85.8731,2.20646e+11,1.08183,0.958097,84,2.56565,230,0.0114598,1.00004
app_45,71.9571,20161.8,7936.2,63.8,95.6089,1.28002e+10,1.00642,0.958097,84,0.133336,238,0.011864,1.00004
app_46,94.7314,21392.1,7211.7,788.3,67.2684,1.88796e+11,1.08101,0.958097,108,2.81785,180,0.0089697,1.00005
app_47,88.1666,20476.9,7793.9,206.1,70.6736,4.88013e+10,1.02006,0.958097,109,0.697162,182,0.00907792,1.00005
app_48,64.772,21569.9,7148.8,851.2,71.2779,1.88222e+11,1.09036,0.958097,100,2.65102,195,0.00973795,1.00005
app_49,26.3085,21360.1,7251.9,748.1,65.7549,1.73017e+11,1.07745,0.958097,110,2.62147,177,0.00881633,1.00005
app_5,3.71358,19517.8,7920.6,79.4,793.89,1.32211e+09,1.00986,0.958097,10,0.00166513,1933,0.0966298,1.00001
app_50,4.63968,20318.3,7751.7,248.3,95.98,5.86544e+10,1.02428,0.958097,81,0.610984,243,0.012138,1.00005
app_51,27.2934,20846.5,7440.6,559.4,86.2991,1.46658e+11,1.0544,0.958097,86,1.70533,226,0.0112836,1.00005
app_52,65.7092,21325.9,7274.8,725.2,67.4257,1.61053e+11,1.07587,0.958097,108,2.40377,180,0.00897744,1.00005
app_53,33.3511,20908.9,7531.5,468.5,77.488,1.05089e+11,1.04759,0.958097,96,1.3648,205,0.0102169,1.00005
app_54,37.4071,21343.9,7174.6,825.4,78.9119,2.2578e+11,1.08103,0.958097,92,2.85798,209,0.0104393,1.00005
app_55,23.1979,20587.3,7761.2,238.8,78.863,5.55826e+10,1.02344,0.958097,98,0.703577,203,0.0101086,1.00005
app_56,31.5205,20270.6,7928.6,71.4,78.4416,1.17078e+10,1.00752,0.958097,100,0.1482,199,0.00990115,1.00006
app_57,13.4648,20755.6,7506.6,493.4,94.5163,1.19877e+11,1.04898,0.958097,80,1.27528,246,0.0122593,1.00006
app_58,69.5202,21567.1,7174.9,825.1,64.2271,2.013e+11,1.08457,0.958097,112,3.14532,174,0.0086577,1.00006
app_59,28.5208,21004.6,7418,582,72.3028,1.31377e+11,1.05969,0.958097,102,1.82469,192,0.00957079,1.00006
app_6,6.58987,19362,7643.5,356.5,953.72,1.58012e+11,1.02544,0.958097,8,0.165631,2310,0.115483,1.00001
app_60,70.9934,20543.1,7614.2,385.8,84.1691,9.12769e+10,1.03822,0.958097,91,1.08663,216,0.0107688,1.00006
app_7,2.1819,20342,7498.2,501.8,832.668,2.28933e+11,1.03531,0.958097,9,0.275159,2119,0.105914,1.00001
app_8,3.9532,19242.5,7914.5,85.5,790.53,1.80287e+10,1.00851,0.958097,10,0.0227922,1904,0.0951761,1.00001
app_9,8.18461,18200.9,7527.5,472.5,1075.41,2.15313e+11,1.03322,0.958097,7,0.200291,2443,0.122148,1.00001
