app_id,start_app,end_app,effective_cpu,effective_io,effective_iter,total_bytes,stretch,utilization,Tcomp,Tio,iterations,priority,group_id
app_1,6.68279,18332.6,7719.4,210.393,857.84,1.63406e+11,1.01487,0.965271,9,0.19045,1965,0.1,1
app_10,2.06933,18362.3,7679.8,233.334,1096.63,1.88227e+11,1.01677,0.965271,7,0.171583,2515,0.1,1
app_11,7.48729,20203.5,7827.3,97.3512,872.297,6.37539e+10,1.01381,0.965271,9,0.0731123,2200,0.1,1
app_12,7.67704,19341.7,7713,225.069,770.671,1.71414e+11,1.01466,0.965271,10,0.222327,1864,0.1,1
app_13,0.874871,18538.7,7746.6,176.32,859.253,1.31392e+11,1.01549,0.965271,9,0.15296,1993,0.1,1
app_14,0.968553,18999.2,7843.4,78.2006,872.253,2.09775e+10,1.01725,0.965271,9,0.0240568,2072,0.1,1
app_15,4.2043,19551.5,7747.6,180.144,858.438,1.38989e+11,1.01438,0.965271,9,0.161804,2102,0.1,1
app_16,0.372673,19409.8,7854.6,82.6025,713.754,5.66142e+10,1.01122,0.965271,11,0.0792916,1733,0.1,1
app_17,4.3278,19107.5,7706.77,231.083,768.744,1.8529e+11,1.01368,0.965271,10,0.241221,1838,0.1,1
app_18,0.30542,19600.1,7686.5,245.921,854.037,1.82214e+11,1.01668,0.965271,9,0.213365,2096,0.1,1
app_19,3.07215,19294.9,7849.99,73.175,784.588,2.59088e+10,1.01576,0.965271,10,0.0330048,1896,0.1,1
app_2,2.41175,18884.8,7732.3,199.085,859.765,1.56165e+11,1.01414,0.965271,9,0.181587,2026,0.1,1
app_20,1.34332,18912.5,7713.5,230.302,770.47,1.83959e+11,1.01298,0.965271,10,0.238908,1825,0.1,1
app_21,1.30416,18276.7,7816.2,104.648,975.52,6.45562e+10,1.01513,0.965271,8,0.0662115,2229,0.1,1
app_22,5.48232,20108,7751.7,173.367,861.455,1.22613e+11,1.01596,0.965271,9,0.142242,2168,0.1,1
app_23,72.6259,20213.9,7721.9,207.993,84.7432,1.28952e+11,1.019,0.965271,92,1.53514,212,0.01,2
app_24,4.81756,20388.4,7688.8,241.486,73.8234,1.48132e+11,1.02081,0.965271,104,2.00178,189,0.01,2
app_25,16.4822,20143,7827,76.551,77.5855,4.54968e+10,1.0162,0.965271,101,0.583293,196,0.01,2
app_26,71.8383,20568.4,7637.6,285.424,82.3975,1.77539e+11,1.02365,0.965271,92,2.16511,212,0.01,2
app_27,46.5097,20378.5,7661.5,255.148,77.4757,1.63722e+11,1.02234,0.965271,99,2.099,197,0.01,2
app_28,79.0993,20381,7685.8,247.932,81.4916,1.5347e+11,1.0205,0.965271,94,1.87159,208,0.01,2
app_29,56.0006,20108.4,7878.1,37.2819,92.7204,2.02218e+10,1.01287,0.965271,85,0.217438,233,0.01,2
app_3,6.88521,19951,7750,189.018,777.808,1.44968e+11,1.0133,0.965271,10,0.186334,1940,0.1,1
app_30,57.9929,20514.3,7603,299.563,93.0278,1.88188e+11,1.0268,0.965271,81,2.02353,239,0.01,2
app_31,30.4787,20472.2,7653.9,265.801,79.4097,1.64257e+11,1.02326,0.965271,96,2.05321,204,0.01,2
app_32,66.1166,20265.3,7770.9,175.047,79.2765,1.07408e+11,1.01545,0.965271,98,1.3596,200,0.01,2
app_33,17.8171,20055.6,7878,42.4328,81.8804,2.61108e+10,1.01213,0.965271,97,0.318425,204,0.01,2
app_34,42.8223,20424.9,7788.9,146.141,88.7157,8.7291e+10,1.01572,0.965271,88,0.991943,225,0.01,2
app_35,9.162,20390.3,7787.8,122.118,101.851,7.37443e+10,1.01761,0.965271,76,0.730142,260,0.01,2
app_36,51.3636,20310.4,7812.2,128.779,77.834,7.60284e+10,1.01417,0.965271,100,0.974723,198,0.01,2
app_37,9.65546,20198.5,7792.2,126.536,77.3361,7.91958e+10,1.01634,0.965271,101,1.01533,196,0.01,2
app_38,43.4143,20493.1,7628.9,291.722,106.41,1.82032e+11,1.02421,0.965271,71,1.71729,273,0.01,2
app_39,51.297,20220.5,7887.6,60.0728,73.5437,3.54704e+10,1.00971,0.965271,107,0.47933,186,0.01,2
app_4,3.61181,19953.2,7704.7,234.953,767.783,1.93089e+11,1.01294,0.965271,10,0.251418,1920,0.1,1
app_40,114.289,20336.9,7729.7,194.203,68.8087,1.2128e+11,1.01898,0.965271,114,1.75768,172,0.01,2
app_41,67.8307,20161.6,7792.5,131.043,78.875,7.76741e+10,1.0165,0.965271,99,0.983217,199,0.01,2
app_42,89.191,20339,7799.3,131.847,82.3913,7.96002e+10,1.01537,0.965271,95,0.970734,208,0.01,2
app_43,497.55,21545.9,7861.8,60.3304,7.29456,2.14134e+10,1.01481,0.965271,1080,3.05906,19,0.001,3
app_44,263.606,21998.7,7628.1,133.767,8.03886,5.60333e+10,1.04111,0.965271,942,7.00416,22,0.001,3
app_45,341.575,21020,7678.6,282.286,6.81922,1.17769e+11,1.02612,0.965271,1102,19.6281,18,0.001,3
app_46,475.876,20958.7,7545.4,414.535,8.08764,1.55609e+11,1.03882,0.965271,945,19.4511,21,0.001,3
app_47,1043.5,22168.8,7649.4,215.93,7.01491,8.32673e+10,1.03457,0.965271,1084,11.8953,19,0.001,3
app_48,693.441,21445,7644.9,278.064,7.16283,1.03258e+11,1.0325,0.965271,1054,12.9073,19,0.001,3
app_49,168.519,21340,7507.3,410.961,7.28791,1.57413e+11,1.04374,0.965271,1054,22.4876,19,0.001,3
app_5,0.21346,19966,7788,142.866,777.155,8.5315e+10,1.01609,0.965271,10,0.109801,1944,0.1,1
app_50,364.257,21708.2,7430.5,430.152,8.186,1.73391e+11,1.05209,0.965271,897,19.2657,22,0.001,3
app_51,694.409,22046.8,7495.1,337.104,9.01753,1.46832e+11,1.04686,0.965271,848,16.3147,24,0.001,3
app_52,100.291,21085.6,7473.2,186.939,8.99178,7.25119e+10,1.0602,0.965271,860,8.05688,24,0.001,3
app_53,110.333,21345.4,7840.7,87.9411,7.5098,3.70956e+10,1.01551,0.965271,1039,5.29937,20,0.001,3
app_54,71.6676,20655.2,7705.5,144.174,7.86323,5.89572e+10,1.03034,0.965271,977,7.36965,21,0.001,3
app_55,578.046,20808.7,7837.5,36.2948,7.11836,9.67608e+09,1.01948,0.965271,1125,1.3823,18,0.001,3
app_56,703.045,21793.8,7688.4,177.206,8.50123,7.24178e+10,1.03082,0.965271,884,8.04642,23,0.001,3
app_57,533.149,20827,7742.2,185.882,9.03157,6.14162e+10,1.02517,0.965271,869,6.82402,23,0.001,3
app_58,646.948,21237.4,7512.1,347.753,7.5602,1.45319e+11,1.04474,0.965271,1042,18.1648,19,0.001,3
app_59,596.206,21776.2,7598.9,290.609,8.28695,1.08147e+11,1.03801,0.965271,910,13.5184,22,0.001,3
app_6,8.50052,18861.9,7833.3,88.744,869.066,4.62487e+10,1.01529,0.965271,9,0.0532206,2049,0.1,1
app_60,703.354,21599.2,7703.3,137.877,7.10018,5.14906e+10,1.03162,0.965271,1076,7.3558,19,0.001,3
app_7,1.29547,18938.6,7747.9,180.074,862.225,1.37481e+11,1.01454,0.965271,9,0.15949,2041,0.1,1
app_8,2.14793,18282.1,7826,97.253,872.769,6.03322e+10,1.01441,0.965271,9,0.069109,1994,0.1,1
app_9,8.89689,18588.1,7723.2,194.245,964.29,1.39396e+11,1.01748,0.965271,8,0.144601,2242,0.1,1
