app_id,start_app,end_app,effective_cpu,effective_io,effective_iter,total_bytes,stretch,utilization,Tcomp,Tio,iterations,priority,group_id
app_1,3.76467,19789.3,7921.5,78.5,717.988,5.8506e+10,1.00251,0.964962,11,0.0814847,1778,0.08888,1
app_10,0.643431,20132.1,7811.6,188.4,98.6164,1.30427e+11,1.0073,0.964962,79,1.31745,249,0.0124114,1.00001
app_11,26.8112,19879.9,7817.7,182.3,74.8247,1.05604e+11,1.00968,0.964962,106,1.40806,185,0.00922749,1.00001
app_12,6.99414,20221.1,7840.5,159.5,68.658,1.03243e+11,1.00708,0.964962,113,1.49627,174,0.00865968,1.00001
app_13,56.4977,20219.2,7689.3,310.7,81.2604,1.96101e+11,1.01453,0.964962,94,2.421,206,0.0102743,1.00001
app_14,30.3923,19902.1,7928.7,71.3,79.5597,4.45602e+10,1.00335,0.964962,100,0.557003,198,0.00988409,1.00001
app_15,60.6801,19872.4,7847.1,152.9,93.7983,9.65974e+10,1.00709,0.964962,84,1.02763,233,0.0116315,1.00002
app_16,0.761938,19936.9,7988,12,87.4656,4.69532e+09,1.00091,0.964962,91,0.0539692,219,0.0109234,1.00002
app_17,44.0445,20083.4,7765.2,234.8,78.8791,1.46475e+11,1.01116,0.964962,99,1.85411,198,0.00986189,1.00002
app_18,89.964,20213.6,7984.9,15.1,86.1558,7.10558e+09,1.001,0.964962,91,0.082623,219,0.0109438,1.00002
app_19,98.5981,20376.2,7838.6,161.4,71.0999,1.04176e+11,1.0072,0.964962,109,1.46727,181,0.00903996,1.00002
app_2,6.47268,19577.8,7920.7,79.3,793.149,4.10156e+09,1.00949,0.964962,10,0.0051722,1938,0.0968802,1
app_20,29.0134,20176.6,7911.5,88.5,82.152,4.9854e+10,1.00485,0.964962,97,0.607976,205,0.0102128,1.00002
app_21,69.9892,20154.1,7918.9,81.1,77.5926,4.97203e+10,1.00394,0.964962,102,0.63744,195,0.0097259,1.00002
app_22,52.0174,20133.7,7770,230,92.6578,1.55318e+11,1.00942,0.964962,84,1.67009,232,0.0115995,1.00002
app_23,9.79108,19977.4,7789.5,210.5,80.1743,1.36983e+11,1.00927,0.964962,98,1.71228,200,0.00998747,1.00002
app_24,61.5355,20188.8,7949.3,50.7,87.9127,3.09954e+10,1.00247,0.964962,90,0.35222,221,0.011012,1.00002
app_25,714.624,21664.9,7992.4,7.6,9.06581,2.61601e+09,1.00062,0.964962,864,0.290668,24,0.0011569,1.00003
app_26,564.91,21319.6,7924.1,75.9,9.7086,2.5047e+10,1.0064,0.964962,820,2.5047,25,0.00121538,1.00003
app_27,808.652,21451.1,7509.9,490.1,7.44043,1.42089e+11,1.04548,0.964962,1050,17.7612,19,0.000936279,1.00003
app_28,904.731,22344.2,7406.23,593.774,6.75053,1.71877e+11,1.05567,0.964962,1095,28.174,18,0.000889868,1.00003
app_29,490.229,21371.1,7453.6,546.4,9.62433,1.803e+11,1.04796,0.964962,788,18.03,25,0.00124048,1.00003
app_3,7.73135,19071.9,7912,88,879.881,3.73887e+10,1.00637,0.964962,9,0.0424872,2093,0.104627,1
app_30,445.504,21970,7474,526,7.63227,1.52797e+11,1.04893,0.964962,955,19.0997,21,0.00102597,1.00003
app_31,217.871,20352.8,7671.4,328.6,7.92679,1.08612e+11,1.02828,0.964962,990,13.5765,20,0.000995529,1.00003
app_32,321.462,22193,7728.1,271.9,8.02568,7.77054e+10,1.02488,0.964962,939,9.71318,22,0.0010535,1.00003
app_33,196.303,21482.2,7605.9,394.1,8.50712,8.90043e+10,1.03965,0.964962,892,11.1255,23,0.00110719,1.00003
app_34,152.406,21072.5,7684.3,315.7,7.07706,1.06151e+11,1.0269,0.964962,1054,15.1644,19,0.000935227,1.00003
app_35,506.404,21107.1,7867.2,132.8,8.88535,2.72695e+10,1.01337,0.964962,881,3.40868,23,0.00112943,1.00004
app_36,111.911,20660.5,7703.2,296.8,8.01437,1.1038e+11,1.02386,0.964962,964,13.7975,21,0.00102204,1.00004
app_37,780.145,22525.8,7437.3,562.7,7.52258,1.79009e+11,1.05038,0.964962,962,25.5727,21,0.00101205,1.00004
app_38,171.634,21528.9,7828.5,171.5,8.06288,5.52539e+10,1.01475,0.964962,992,6.13932,21,0.00100119,1.00004
app_39,850.21,21257.6,7676.4,323.6,8.55922,1.12027e+11,1.02716,0.964962,911,12.4475,22,0.00108199,1.00004
app_4,1.47376,19507.3,7737.4,262.6,859.5,2.07642e+11,1.00692,0.964962,9,0.241444,2099,0.104904,1
app_40,832.553,22551.9,7403.7,596.3,7.37392,1.78924e+11,1.05504,0.964962,1003,22.3655,20,0.00097475,1.00004
app_41,653.177,21400.9,7709.5,290.5,7.38326,1.02843e+11,1.02402,0.964962,1043,14.6919,19,0.000945101,1.00004
app_42,794.046,21783.1,7895,105,8.164,4.15231e+10,1.008,0.964962,971,5.19039,21,0.0010241,1.00004
app_43,985.502,22341.7,7566.8,433.2,7.6434,1.26984e+11,1.0398,0.964962,975,15.873,21,0.00100848,1.00004
app_44,438.422,21832.6,7448.28,551.721,8.29808,1.94875e+11,1.04669,0.964962,918,22.8956,22,0.00106221,1.00004
app_45,264.642,20643.7,7892.4,107.6,10.2426,3.41244e+10,1.00927,0.964962,775,3.41244,26,0.00128393,1.00004
app_46,264.212,21855.8,7521.6,478.4,7.11463,1.397e+11,1.04421,0.964962,1063,19.9571,19,0.000923384,1.00005
app_47,595.772,21385.4,7656.4,343.6,7.40103,1.16302e+11,1.02924,0.964962,1039,16.6146,19,0.000947287,1.00005
app_48,917.311,21614,7790.4,209.6,8.39066,4.70102e+10,1.02075,0.964962,912,5.87628,22,0.00108928,1.00005
app_49,1036.15,21691.4,7521.1,478.9,7.41403,1.55907e+11,1.04207,0.964962,1036,22.2724,19,0.000944111,1.00005
app_5,97.0202,20208.1,7733,267,76.7615,1.6808e+11,1.01252,0.964962,101,2.18285,193,0.00962721,1.00001
app_50,465.411,21880.9,7422.5,577.5,8.10161,1.75812e+11,1.05287,0.964962,908,21.9765,22,0.00107516,1.00005
app_51,869.467,21886.8,7716.1,283.9,8.40117,7.68632e+10,1.02657,0.964962,906,9.6079,22,0.00109151,1.00005
app_52,776.714,22011.8,7426.5,573.5,8.32927,1.56398e+11,1.05501,0.964962,902,19.5497,22,0.00108463,1.00005
app_53,174.213,21305.6,7788.2,211.8,8.38587,7.36324e+10,1.01757,0.964962,938,8.18138,22,0.00105652,1.00005
app_54,755.499,21595.1,7568.6,431.4,8.73113,1.61872e+11,1.03487,0.964962,852,20.234,23,0.00114612,1.00005
app_55,26.788,21105.8,7742,258,9.01508,9.60051e+10,1.02067,0.964962,840,10.6672,24,0.00117526,1.00005
app_56,518.779,20999.7,7771.9,228.1,7.90179,1.26637e+11,1.01285,0.964962,998,15.8296,20,0.00098618,1.00006
app_57,384.298,21551.3,7585,415,6.65561,7.83447e+10,1.04393,0.964962,1116,11.1921,18,0.000886737,1.00006
app_58,443.133,21690.5,7525.3,474.7,8.96099,1.38057e+11,1.04393,0.964962,835,15.3396,24,0.00117546,1.00006
app_59,737.517,22581.5,7145.3,854.7,6.94192,1.86648e+11,1.09112,0.964962,1081,26.664,19,0.000902723,1.00006
app_6,66.0585,20046.4,7894.8,105.2,79.7168,6.71252e+10,1.00478,0.964962,99,0.839065,200,0.00997862,1.00001
app_60,212.212,21064.2,7562.3,437.7,7.82182,1.20459e+11,1.04129,0.964962,945,17.2084,21,0.00103839,1.00006
app_7,42.5854,20063.8,7943.7,56.3,75.782,3.02578e+10,1.00327,0.964962,104,0.403438,191,0.0095459,1.00001
app_8,89.7061,20175.4,7942.6,57.4,76.4036,3.16084e+10,1.00323,0.964962,103,0.4159,192,0.00959238,1.00001
app_9,8.89198,20408.9,7703.9,296.1,74.746,1.70569e+11,1.01594,0.964962,103,2.27425,190,0.00948715,1.00001
