app_id,start_app,end_app,effective_cpu,effective_io,effective_iter,total_bytes,stretch,utilization,Tcomp,Tio,iterations,priority,group_id
app_1,6.12133,24941.9,5950.3,48.2175,660.78,9.65353e+09,1.34229,0.873787,9,0.0146044,2181,1,1
app_10,3.40792,25079.7,5961.1,73.2433,661.036,4.13814e+10,1.33278,0.873787,9,0.0626042,2196,1,1
app_11,6.37626,23389.9,5909.5,170.983,657.106,1.33382e+11,1.32387,0.873787,9,0.203017,1988,1,1
app_12,2.3977,23995.5,5883.6,181.782,655.232,1.44746e+11,1.32706,0.873787,9,0.220986,2054,1,1
app_13,5.22858,24642.7,5958.8,182.957,597.455,1.54633e+11,1.30859,0.873787,10,0.259017,1928,1,1
app_14,2.04258,23207.1,5862.2,176.501,655.096,1.38636e+11,1.33315,0.873787,9,0.211658,1965,1,1
app_15,3.20494,23431.6,5873.9,188.507,649.881,1.54409e+11,1.32707,0.873787,9,0.237552,1982,1,1
app_16,5.92773,24173.9,6024.5,157.413,546.686,1.27113e+11,1.30047,0.873787,11,0.232382,1735,1,1
app_17,5.96215,24694.8,5960.7,131.543,594.562,1.05179e+11,1.31885,0.873787,10,0.176771,1938,1,1
app_18,2.0761,24880.7,5878.6,152.988,655.323,1.25116e+11,1.33251,0.873787,9,0.190725,2154,1,1
app_19,2.48578,24775.9,5957.9,170.616,593.512,1.39139e+11,1.31211,0.873787,10,0.234636,1939,1,1
app_2,2.05679,25519.1,5708,166.753,815.557,1.27451e+11,1.37093,0.873787,7,0.15619,2777,1,1
app_20,4.3667,24852.4,6001,68.1941,599.983,3.9345e+10,1.32443,0.873787,10,0.0655749,1973,1,1
app_21,7.14652,23518.8,6045.7,158.912,549.477,1.29835e+11,1.29543,0.873787,11,0.236494,1672,1,1
app_22,3.94509,23876.6,6020.2,64.1271,600.958,3.3902e+10,1.32142,0.873787,10,0.0565033,1874,1,1
app_23,1.55302,24438.8,6135.1,41.578,555.484,9.44034e+09,1.30197,0.873787,11,0.0170096,1778,1,1
app_24,7.55907,24250,5829.4,156.934,730.65,1.22891e+11,1.34402,0.873787,8,0.168114,2322,1,1
app_25,97.9647,20821,7689.2,8.68185,76.6997,4.69736e+09,1.03979,0.873787,101,0.0618074,197,1,1
app_26,100.675,20559,7657.9,158.969,71.9403,1.55804e+11,1.02384,0.873787,106,2.16394,184,1,1
app_27,8.13504,20820.8,7560.2,153.683,81.773,1.4886e+11,1.03774,0.873787,92,1.81537,213,1,1
app_28,27.5972,20931.4,7564.5,43.0406,81.0137,4.00883e+10,1.052,0.873787,94,0.494918,211,1,1
app_29,73.5197,20881.6,7535.2,135.916,89.7293,1.31559e+11,1.04347,0.873787,84,1.46177,232,1,1
app_3,8.50889,23983.5,5925.9,84.2444,659.037,5.77529e+10,1.33698,0.873787,9,0.0876371,2070,1,1
app_30,14.8245,20884.6,7453.8,208.23,67.3515,2.0457e+11,1.04461,0.873787,111,3.00839,175,1,1
app_31,84.4617,20811,7564,122.025,79.9013,1.18173e+11,1.04137,0.873787,94,1.47717,208,1,1
app_32,41.9238,21091.4,7536.7,99.2655,79.9383,9.5605e+10,1.04818,0.873787,94,1.19506,210,1,1
app_33,26.7176,21036.1,7496.1,21.8524,94.2261,1.81911e+10,1.06464,0.873787,81,0.191486,245,1,1
app_34,106.01,20743.9,7633.8,27.9842,68.8246,2.41878e+10,1.04466,0.873787,112,0.350547,178,1,1
app_35,51.921,21171,7446.5,119.42,87.2177,1.14985e+11,1.05799,0.873787,84,1.32167,234,1,1
app_36,40.4128,20752.2,7517.7,97.3411,81.3488,9.30748e+10,1.05114,0.873787,92,1.14907,213,1,1
app_37,84.1844,20939,7521.2,178.038,84.24,1.73459e+11,1.03968,0.873787,89,2.0407,219,1,1
app_38,103.957,21091.8,7559.5,29.1152,71.0968,2.54883e+10,1.05471,0.873787,106,0.358991,188,1,1
app_39,1.84392,20932.5,7514.1,55.3862,76.7163,5.20803e+10,1.05734,0.873787,98,0.676368,202,1,1
app_4,5.64589,23569.5,5911.2,84.4411,658.043,5.57032e+10,1.34073,0.873787,9,0.0846553,2028,1,1
app_40,64.3991,20718.7,7501.4,167.482,86.9484,1.64045e+11,1.04364,0.873787,86,1.88558,226,1,1
app_41,18.7701,20968,7556,55.4115,92.6634,5.08713e+10,1.05168,0.873787,81,0.547003,244,1,1
app_42,35.9645,20747.5,7582.7,124.327,59.3973,1.21386e+11,1.03841,0.873787,127,2.05738,155,1,1
app_43,101.351,20885.4,7570.7,55.2367,70.7176,5.17545e+10,1.04953,0.873787,108,0.739349,183,1,1
app_44,78.8361,20749.1,7637.3,87.2487,72.7637,8.447e+10,1.03603,0.873787,105,1.17319,188,1,1
app_45,433.062,20764.5,7897.8,96.3395,8.19904,9.58787e+10,1.00079,0.873787,944,10.6532,21,1,1
app_46,383.395,20534.6,7948.2,26.2646,8.47965,2.58474e+10,1.00325,0.873787,917,3.23092,22,1,1
app_47,936.615,21379.8,7782,159.019,7.25141,1.5861e+11,1.00748,0.873787,1033,19.8263,19,1,1
app_48,135.747,20478.1,7944.3,15.9194,8.60316,1.53983e+10,1.00506,0.873787,912,1.71092,22,1,1
app_49,723.798,21085.1,7762,209.6,8.54287,2.09094e+11,1.00363,0.873787,916,23.2327,22,1,1
app_5,1.34548,24220.8,5900.6,151.933,654.36,1.2477e+11,1.32772,0.873787,9,0.190488,2086,1,1
app_50,494.022,20841.9,7836.9,126.224,8.08011,1.25785e+11,1.00469,0.873787,953,15.7231,21,1,1
app_51,398.595,21096.6,7947.8,27.4778,8.24568,2.71021e+10,1.00315,0.873787,976,3.38776,21,1,1
app_52,200.692,20632.5,7932.9,43.4,7.93765,4.29575e+10,1.00303,0.873787,1019,5.36969,20,1,1
app_53,684.766,21439.4,7908.8,38.8393,8.37502,3.83307e+10,1.00665,0.873787,924,4.25897,22,1,1
app_54,867.821,21807.5,7969.9,16.7142,7.56512,1.63832e+10,1.00172,0.873787,1050,2.0479,20,1,1
app_55,485.227,20930.6,7813.5,157.836,9.22747,1.57459e+11,1.00364,0.873787,818,17.4955,24,1,1
app_56,492.212,21555.9,7856.3,124.803,8.65096,1.24411e+11,1.00242,0.873787,891,15.5514,23,1,1
app_57,330.047,20874,7776.4,202.342,8.34256,2.01774e+11,1.00274,0.873787,965,25.2217,21,1,1
app_58,823.876,21060.4,7852.1,102.877,8.55568,1.02498e+11,1.00571,0.873787,961,12.8123,21,1,1
app_59,50.4031,19830,7881.5,75.9807,9.41676,7.54283e+10,1.00541,0.873787,867,7.54283,23,1,1
app_6,3.75488,25040.1,5944.4,61.9233,663.073,2.73774e+10,1.33963,0.873787,9,0.0412933,2192,1,1
app_60,836.77,21774.3,7946.4,31.2936,7.38947,3.09985e+10,1.00283,0.873787,1084,4.42835,19,1,1
app_7,0.644386,24633.5,5957.7,137.709,597.539,1.13777e+11,1.31764,0.873787,10,0.190263,1934,1,1
app_8,3.22801,23574,5762.3,191.125,720.76,1.47984e+11,1.35357,0.873787,8,0.205249,2228,1,1
app_9,3.08562,23972.1,5900.1,142.462,658.865,1.10378e+11,1.33101,0.873787,9,0.167494,2063,1,1
