app_id,start_app,end_app,effective_cpu,effective_io,effective_iter,total_bytes,stretch,utilization,Tcomp,Tio,iterations,priority,group_id
app_1,2.02451,23639.7,5868.5,110.835,653.3,7.20667e+10,1.34667,0.856626,9,0.110194,1999,1,1
app_10,6.43948,24804.5,5987.6,91.4856,544.875,6.04645e+10,1.32274,0.856626,11,0.110944,1771,1,1
app_11,11.6364,24882,6053.7,93.2441,505.486,6.61255e+10,1.30723,0.856626,12,0.130683,1648,1,1
app_12,10.3952,24729.5,6029.9,40.0863,549.799,8.30397e+09,1.3249,0.856626,11,0.0150981,1777,1,1
app_13,0.294819,25154.2,5900.2,107.903,588.251,7.59655e+10,1.33865,0.856626,10,0.129193,1954,1,1
app_14,4.04929,23828,5593,139.459,798.027,9.43886e+10,1.40662,0.856626,7,0.118281,2494,1,1
app_15,0.829494,24495.9,5821.1,148.78,648.03,1.1965e+11,1.34663,0.856626,9,0.184645,2083,1,1
app_16,6.62214,23758.7,5872.19,46.3901,655.982,9.55747e+09,1.36014,0.856626,9,0.0145693,2020,1,1
app_17,4.07539,23635.5,5831.1,103.36,645.432,6.63767e+10,1.35651,0.856626,9,0.10291,1993,1,1
app_18,7.47286,24337.5,5984.4,109.009,544.837,8.0382e+10,1.31909,0.856626,11,0.14749,1725,1,1
app_19,0.774032,24440.8,5943.9,59.3205,594.683,2.80209e+10,1.3396,0.856626,10,0.047094,1900,1,1
app_2,1.66002,24119.1,5856.2,67.72,650.94,3.49889e+10,1.35796,0.856626,9,0.0537465,2055,1,1
app_20,6.28823,23819,5890.3,103.096,590.402,7.13169e+10,1.34192,0.856626,10,0.120876,1831,1,1
app_21,2.39218,25214.3,5950.5,77.764,595.486,5.16727e+10,1.33285,0.856626,10,0.0866992,1976,1,1
app_22,4.57976,24877,5926.14,51.4883,591.176,1.8907e+10,1.34566,0.856626,10,0.0319705,1940,1,1
app_23,1.59437,25116.5,5943.2,56.2814,594.903,2.24473e+10,1.34101,0.856626,10,0.0377266,1971,1,1
app_24,6.37805,23692.5,5827.26,178.61,648.434,1.42621e+11,1.34006,0.856626,9,0.219935,1988,1,1
app_25,8.64747,23884.5,5793,198.121,644.085,1.65799e+11,1.34255,0.856626,9,0.257052,1997,1,1
app_26,4.65336,24489.1,5919.8,121.694,591.15,9.12243e+10,1.33089,0.856626,10,0.154356,1891,1,1
app_27,6.66968,24665.3,5895.8,130.068,589.622,1.04801e+11,1.3332,0.856626,10,0.177628,1900,1,1
app_28,67.5379,20798.6,7641.1,53.2844,74.7459,4.99871e+10,1.04017,0.856626,103,0.666495,192,1,1
app_29,89.1661,20791.9,7481.1,157.043,81.5449,1.53645e+11,1.04784,0.856626,92,1.89685,211,1,1
app_3,6.09566,24704.8,5785.5,171.583,644.482,1.34554e+11,1.35134,0.856626,9,0.208935,2095,1,1
app_30,13.117,21027.8,7523.5,123.32,85.6476,1.20333e+11,1.0466,0.856626,89,1.39922,221,1,1
app_31,14.4674,20888,7484.5,135.996,71.189,1.32723e+11,1.05025,0.856626,106,1.86934,186,1,1
app_32,12.5015,20968.8,7536.4,100.691,85.9106,9.60306e+10,1.04816,0.856626,87,1.12977,227,1,1
app_33,62.5986,20840.8,7489.5,168.581,76.2811,1.65187e+11,1.04511,0.856626,98,2.17351,198,1,1
app_34,18.7295,20786.9,7515.2,132.532,82.7622,1.28322e+11,1.04664,0.856626,91,1.54605,214,1,1
app_35,54.2406,21105.7,7498.9,142.932,71.3781,1.39637e+11,1.04732,0.856626,105,1.96671,187,1,1
app_36,48.8289,21135.2,7471.7,113.322,83.1277,1.09611e+11,1.05523,0.856626,90,1.32062,218,1,1
app_37,93.155,21156.7,7461.1,69.4528,81.4595,6.48844e+10,1.06298,0.856626,92,0.801041,215,1,1
app_38,9.77872,20835.4,7413.5,199.511,83.3189,1.95649e+11,1.05137,0.856626,89,2.35722,217,1,1
app_39,75.7052,21093.3,7396.9,162.27,77.0791,1.58517e+11,1.05884,0.856626,96,2.05866,203,1,1
app_4,1.90926,23639,6029.8,88.7702,547.072,5.8662e+10,1.31396,0.856626,11,0.107243,1670,1,1
app_40,92.6838,20880.2,7558.7,85.4591,68.4198,8.16183e+10,1.04708,0.856626,111,1.20027,177,1,1
app_41,45.9644,21109,7432.9,172.229,113.484,1.6708e+11,1.05263,0.856626,66,1.46561,295,1,1
app_42,87.6011,21114.8,7435.4,126.955,82.8558,1.23828e+11,1.05831,0.856626,90,1.4919,219,1,1
app_43,70.5575,21034.2,7583.9,113.168,69.8353,1.09683e+11,1.03983,0.856626,109,1.5669,181,1,1
app_44,103.468,21041.8,7631.6,70.9867,71.7211,6.7112e+10,1.03913,0.856626,106,0.932112,187,1,1
app_45,75.456,20951.3,7350.4,155.493,74.9123,1.51336e+11,1.06642,0.856626,98,2.01781,199,1,1
app_46,87.5381,21036.5,7508.5,131.951,79.6288,1.27636e+11,1.04765,0.856626,94,1.61565,208,1,1
app_47,46.5946,20797.2,7508.7,125.506,71.6421,1.21482e+11,1.04847,0.856626,105,1.71101,187,1,1
app_48,40.8513,19783.2,7773.7,191.019,8.73821,1.90671e+11,1.00447,0.856626,890,21.1857,22,1,1
app_49,7.09575,20408.2,7909,55.4677,6.48842,5.5204e+10,1.00449,0.856626,1197,9.20067,17,1,1
app_5,0.747896,24574.8,5906.9,104.224,591.858,7.22079e+10,1.33799,0.856626,10,0.121973,1899,1,1
app_50,709.012,21102.2,7890.3,61.9052,8.15743,6.15676e+10,1.00605,0.856626,947,7.69595,21,1,1
app_51,181.865,21012.7,7864.8,93.817,7.74994,9.35262e+10,1.00524,0.856626,1017,11.6908,20,1,1
app_52,324.692,21617.3,7901.2,57.9575,7.5205,5.74639e+10,1.00519,0.856626,1035,8.20914,20,1,1
app_53,359.573,20925.3,7813.9,165.435,9.37719,1.64853e+11,1.00266,0.856626,850,18.317,24,1,1
app_54,861.248,21376.9,7907.2,79.0415,7.81092,7.86433e+10,1.00177,0.856626,1016,9.83042,20,1,1
app_55,908.039,21686.2,7916.8,62.8771,7.88281,6.25019e+10,1.00259,0.856626,1032,8.92885,20,1,1
app_56,761.722,20534.2,7795.8,182.277,8.18893,1.81846e+11,1.0028,0.856626,984,22.7308,20,1,1
app_57,14.0262,20722.8,7830.2,142.689,7.39676,1.4243e+11,1.00343,0.856626,1059,20.3472,19,1,1
app_58,533.758,20825.2,7983.9,1.95194,7.11073,1.49285e+09,1.00183,0.856626,1112,0.213265,18,1,1
app_59,793.082,21645,7926.2,42.5947,9.45876,4.22664e+10,1.00396,0.856626,820,4.69627,25,1,1
app_6,6.11063,24451.4,5836.6,145.251,649.594,1.17376e+11,1.34364,0.856626,9,0.180856,2077,1,1
app_60,448.629,20288.6,7836.6,123.696,7.47922,1.23429e+11,1.00502,0.856626,1036,17.6327,19,1,1
app_7,5.64551,24784.4,5826.9,114.052,648.562,7.76305e+10,1.35489,0.856626,9,0.1198,2109,1,1
app_8,7.6314,23636.8,5913.9,78.5872,593.899,5.23068e+10,1.34089,0.856626,10,0.0880587,1817,1,1
app_9,3.78775,24930.1,5719.8,134.412,717.019,9.58179e+10,1.37561,0.856626,8,0.133637,2365,1,1
