app_id,start_app,end_app,effective_cpu,effective_io,effective_iter,total_bytes,stretch,utilization,Tcomp,Tio,iterations,priority,group_id
app_1,2.12378,24184.8,6001.47,121.56,598.993,9.11112e+10,1.31307,0.887519,10,0.152106,1892,1,1
app_10,3.94429,24238.1,5943.75,180.472,659.994,1.43144e+11,1.3143,0.887519,9,0.216885,2079,1,1
app_11,3.03992,24613.4,6137.32,59.9119,557.002,3.20129e+10,1.29674,0.887519,11,0.0574737,1794,1,1
app_12,3.18432,23405,6052.53,66.3222,673.999,3.10552e+10,1.31501,0.887519,9,0.0460759,2031,1,1
app_13,3.45844,24591.2,5967.65,155.614,664.001,1.2878e+11,1.31224,0.887519,9,0.193946,2136,1,1
app_14,4.98521,23627.1,6066.36,77.3347,607.008,5.06793e+10,1.30782,0.887519,10,0.0834915,1850,1,1
app_15,4.07937,23787.1,6033.98,107.123,601.989,7.39248e+10,1.30978,0.887519,10,0.122799,1862,1,1
app_16,1.12871,23619.3,5934.12,186.01,659.006,1.50306e+11,1.31483,0.887519,9,0.228081,2009,1,1
app_17,3.28602,23215.3,5951.06,145.627,659.993,1.16162e+11,1.31856,0.887519,9,0.176003,1981,1,1
app_18,3.21811,23774.4,6038.22,127.897,602.358,9.89355e+10,1.30354,0.887519,10,0.164345,1856,1,1
app_19,2.60243,24647.2,5895.33,164.296,735.711,1.3272e+11,1.32713,0.887519,8,0.180572,2377,1,1
app_2,7.12669,24790.3,6050.29,63.9156,604.461,3.70363e+10,1.31421,0.887519,10,0.0613184,1964,1,1
app_20,9.80803,24068,6198.73,110.59,515.994,8.80395e+10,1.27251,0.887519,12,0.170619,1615,1,1
app_21,0.372452,24384.1,6121.21,118.833,554.466,9.32685e+10,1.28732,0.887519,11,0.168355,1768,1,1
app_22,10.6479,23979.2,5983.88,167.38,598.002,1.35065e+11,1.30741,0.887519,10,0.225862,1867,1,1
app_23,86.634,20736,7521.7,175.376,75.8128,1.71688e+11,1.03985,0.887519,99,2.26067,196,1,1
app_24,67.2834,20911.4,7556,35.1899,81.6856,3.19642e+10,1.0543,0.887519,93,0.389807,214,1,1
app_25,95.8901,20658.8,7551.6,120.281,80.6389,1.15658e+11,1.0434,0.887519,94,1.42787,209,1,1
app_26,107.75,20814.2,7650.1,93.8494,63.8213,9.01457e+10,1.03356,0.887519,119,1.40853,166,1,1
app_27,72.5771,20508.8,7534.5,163.918,71.0197,1.60184e+11,1.03968,0.887519,106,2.25612,184,1,1
app_28,63.9872,20732.3,7530.3,182.902,89.3951,1.79404e+11,1.03765,0.887519,84,1.99337,231,1,1
app_29,45.7691,20851.1,7631.3,119.006,82.4601,1.16099e+11,1.0326,0.887519,93,1.39879,212,1,1
app_3,9.36327,23435.8,5984.1,126.582,665.993,9.06353e+10,1.31693,0.887519,9,0.136089,2015,1,1
app_30,38.0837,20738.3,7593.6,53.8928,77.8072,4.98102e+10,1.04665,0.887519,98,0.638592,203,1,1
app_31,18.5625,20958.7,7449.51,146.582,104.449,1.41882e+11,1.05383,0.887519,71,1.35126,275,1,1
app_32,5.45849,20728.9,7564.3,136.724,72.353,1.32688e+11,1.03937,0.887519,105,1.84289,187,1,1
app_33,9.24436,20583.7,7613.4,176.519,79.7099,1.72906e+11,1.02744,0.887519,95,2.18869,204,1,1
app_34,70.6073,20822.7,7596.2,13.986,77.0822,1.00547e+10,1.05177,0.887519,98,0.130581,202,1,1
app_35,58.3909,20726.7,7624.7,4.03889,76.7393,1.18115e+08,1.04921,0.887519,100,0.00155415,199,1,1
app_36,26.1045,20817.3,7661.6,50.1202,80.3601,4.65307e+10,1.03787,0.887519,95,0.574453,209,1,1
app_37,2.0952,20606.9,7595.5,146.977,66.3746,1.43864e+11,1.03368,0.887519,115,2.17976,171,1,1
app_38,65.707,20717.7,7619.1,65.9259,72.8136,6.25023e+10,1.04145,0.887519,105,0.856196,188,1,1
app_39,33.7164,20614.8,7566.2,182.521,70.841,1.78426e+11,1.03297,0.887519,108,2.51304,181,1,1
app_4,9.20135,23086.5,6007.63,174.014,600.997,1.41284e+11,1.30104,0.887519,10,0.235081,1783,1,1
app_40,78.3481,20629.4,7637,112.596,80.7515,1.08868e+11,1.03281,0.887519,95,1.36085,206,1,1
app_41,88.1288,20933.4,7647.51,71.4629,70.8654,6.82586e+10,1.03684,0.887519,108,0.961389,184,1,1
app_42,52.3438,20895.9,7576.5,122.161,82.8281,1.17645e+11,1.03975,0.887519,91,1.41741,217,1,1
app_43,440.188,21618.7,7879.6,95.4977,8.10249,9.50481e+10,1.00318,0.887519,986,11.881,21,1,1
app_44,997.551,21952.8,7935.9,54.6209,7.14197,5.41642e+10,1.00124,0.887519,1075,7.73775,19,1,1
app_45,392.693,20330.6,7957.6,28.4198,7.21106,2.80325e+10,1.0018,0.887519,1175,4.00464,17,1,1
app_46,796.943,21139.3,7942.3,32.0009,7.94814,3.17723e+10,1.00325,0.887519,1009,3.97154,20,1,1
app_47,1025.8,21446.3,7912.6,43.164,7.03359,4.27748e+10,1.00561,0.887519,1133,6.11069,18,1,1
app_48,764.493,22036.9,7909,80.3314,7.37401,7.99179e+10,1.00139,0.887519,1034,11.4168,20,1,1
app_49,1217.27,22000.7,7936.5,44.8455,6.01118,4.44146e+10,1.00239,0.887519,1273,7.40244,16,1,1
app_5,3.22993,24120.9,5938.31,181.464,659.205,1.44112e+11,1.31526,0.887519,9,0.218684,2069,1,1
app_50,747.543,21339.4,7962.7,8.10719,8.71081,7.82809e+09,1.0037,0.887519,923,0.869788,22,1,1
app_51,32.1862,20650.4,7869.2,113.666,9.83193,1.13068e+11,1.00222,0.887519,813,11.3068,25,1,1
app_52,232.608,21152.9,7890.2,75.0161,7.85058,7.46627e+10,1.00441,0.887519,1005,9.33284,20,1,1
app_53,920.849,21883.1,7801.8,160.343,8.21818,1.60062e+11,1.00479,0.887519,914,20.0078,22,1,1
app_54,524.133,20712.1,7834.7,134.044,9.32972,1.33634e+11,1.00397,0.887519,872,14.8483,23,1,1
app_55,488.621,21802.3,7781.9,178.869,8.89467,1.78333e+11,1.005,0.887519,886,19.8148,23,1,1
app_56,199.424,20520.7,7917.6,70.6775,8.33719,7.02944e+10,1.00152,0.887519,971,7.81049,21,1,1
app_57,517.135,21210.9,7893.7,67.4468,7.3206,6.7083e+10,1.00493,0.887519,1075,8.38538,19,1,1
app_58,417.076,21408,7929,23.5214,7.73078,2.31311e+10,1.00602,0.887519,1038,2.89138,20,1,1
app_59,550.011,21081,7887.41,102.366,7.50865,1.01976e+11,1.00133,0.887519,1007,13.0213,20,1,1
app_6,9.08334,24320.6,6046.06,140.705,603.998,1.16475e+11,1.29817,0.887519,10,0.19284,1905,1,1
app_60,529.652,20675.5,7898.3,79.336,7.61277,7.88978e+10,1.00286,0.887519,1051,11.2711,19,1,1
app_7,4.43177,24046.9,5967.69,143.215,662.991,1.13619e+11,1.31551,0.887519,9,0.171372,2072,1,1
app_8,8.16011,24787,5884.49,163.414,734,1.31778e+11,1.32973,0.887519,8,0.179534,2390,1,1
app_9,5.86983,23424.5,5944.41,178.545,662.323,1.40541e+11,1.31472,0.887519,9,0.212298,1999,1,1
