app_id,start_app,end_app,effective_cpu,effective_io,effective_iter,total_bytes,stretch,utilization,Tcomp,Tio,iterations,priority,group_id
app_1,6.51625,19760.8,7584.1,257.023,842.024,2.073e+11,1.02677,0.956677,9,0.246199,2079,0.1,1
app_10,0.901333,20266.3,7734.1,92.6289,771.224,5.6732e+10,1.02685,0.956677,10,0.0735823,1958,0.1,1
app_11,9.53615,19462.6,7755.7,87.0692,705.176,5.49721e+10,1.02424,0.956677,11,0.0779746,1714,0.1,1
app_12,6.0568,20163,7701,107.474,853.63,7.11871e+10,1.02931,0.956677,9,0.0833573,2152,0.1,1
app_13,3.72913,19167.3,7730.3,67.6589,859.602,1.58437e+10,1.03277,0.956677,9,0.0184443,2055,0.1,1
app_14,6.20165,19050.4,7729.8,89.3906,772.928,5.3569e+10,1.02783,0.956677,10,0.0693899,1843,0.1,1
app_15,8.17507,18750.2,7685.6,110.346,850,7.23488e+10,1.0312,0.956677,9,0.0851163,1996,0.1,1
app_16,8.44706,18971.5,7654.6,166.505,851.004,1.14706e+11,1.02969,0.956677,9,0.13479,2017,0.1,1
app_17,3.63453,18579.2,7564.3,229.704,946.456,1.72918e+11,1.03396,0.956677,8,0.182789,2197,0.1,1
app_18,1.81478,19766,7705.4,94.4955,855.836,5.13769e+10,1.03136,0.956677,9,0.0600198,2117,0.1,1
app_19,5.16242,18805,7698.8,102.094,853.547,6.27051e+10,1.03073,0.956677,9,0.0734252,2003,0.1,1
app_2,0.829494,20401.8,7637.8,123.399,952.783,8.02085e+10,1.03654,0.956677,8,0.0841642,2443,0.1,1
app_20,0.344285,20267.7,7615.3,125.219,1087.43,7.23016e+10,1.04064,0.956677,7,0.0665148,2763,0.1,1
app_21,2.07897,19264.2,7646.1,208.101,693.738,1.63441e+11,1.02439,0.956677,11,0.235506,1676,0.1,1
app_22,9.61384,19310.1,7641.8,193.701,762.942,1.48475e+11,1.02692,0.956677,10,0.194593,1842,0.1,1
app_23,6.15896,20304.7,7584.79,205.134,948.726,1.56705e+11,1.03339,0.956677,8,0.1652,2409,0.1,1
app_24,3.29045,19299.1,7685.8,100.951,852.477,5.83208e+10,1.03304,0.956677,9,0.0684517,2059,0.1,1
app_25,9.19813,20395.7,7660,155.283,851.717,1.01478e+11,1.03073,0.956677,9,0.119106,2171,0.1,1
app_26,3.80577,20078.8,7642.3,186.194,765.459,1.39311e+11,1.02806,0.956677,10,0.182106,1922,0.1,1
app_27,8.73806,19072.5,7662,147.454,850.59,9.14159e+10,1.0318,0.956677,9,0.107422,2030,0.1,1
app_28,10.8295,20186.8,7661.1,190.719,693.725,1.40764e+11,1.0254,0.956677,11,0.20283,1756,0.1,1
app_29,7.73675,19052.5,7569.3,255.888,840.175,2.04184e+11,1.02914,0.956677,9,0.243077,2002,0.1,1
app_3,3.9448,19746.5,7642.3,172.126,850.103,1.2149e+11,1.03042,0.956677,9,0.14293,2096,0.1,1
app_30,0.552749,19795.8,7781.5,43.6013,707.773,1.48928e+09,1.02788,0.956677,11,0.0021035,1757,0.1,1
app_31,9.58312,19517.9,7643.4,212,763.499,1.57807e+11,1.02548,0.956677,10,0.206824,1862,0.1,1
app_32,5.01906,20126.8,7580.6,232.533,945.82,1.76401e+11,1.03133,0.956677,8,0.186471,2379,0.1,1
app_33,9.70574,18833.4,7677.8,129.819,856.831,8.39822e+10,1.03069,0.956677,9,0.0979955,2010,0.1,1
app_34,2.52158,20366.4,7686.4,159.437,766.571,1.16241e+11,1.02529,0.956677,10,0.151552,1955,0.1,1
app_35,5.48082,19392.3,7578.1,247.426,842.059,1.90994e+11,1.02972,0.956677,9,0.226834,2044,0.1,1
app_36,4.38874,19085,7612.9,225.969,762.022,1.75319e+11,1.02719,0.956677,10,0.230077,1817,0.1,1
app_37,39.5176,20439.1,7644.5,224.822,77.6031,1.02255e+11,1.03269,0.956677,99,1.31097,198,0.01,2
app_38,57.1649,20554.2,7665.8,197.173,78.8551,8.63493e+10,1.03197,0.956677,98,1.09303,201,0.01,2
app_39,46.9288,20351.1,7722.2,124.933,76.2122,5.96882e+10,1.02803,0.956677,101,0.785371,195,0.01,2
app_4,5.66624,20027.2,7642.2,192.486,764.334,1.47952e+11,1.02694,0.956677,10,0.193654,1918,0.1,1
app_40,13.5624,20677.7,7789,53.0412,77.4886,2.18928e+10,1.02421,0.956677,100,0.280677,200,0.01,2
app_41,73.0795,20738.1,7508.4,408.237,70.4659,1.96467e+11,1.0383,0.956677,106,2.76714,183,0.01,2
app_42,65.6433,20559.4,7797.7,63.2001,78.5426,2.53056e+10,1.02262,0.956677,98,0.320324,202,0.01,2
app_43,4.10659,20661.5,7728.2,185.247,71.0649,8.34959e+10,1.02411,0.956677,107,1.176,185,0.01,2
app_44,44.7938,20730.7,7565.4,221.139,111.301,1.06224e+11,1.0428,0.956677,68,0.95697,288,0.01,2
app_45,52.401,20692,7451.2,418.029,90.6559,1.94175e+11,1.04638,0.956677,83,2.1575,233,0.01,2
app_46,47.2372,20478.4,7720.3,137.037,76.689,6.17395e+10,1.02801,0.956677,100,0.801812,197,0.01,2
app_47,28.3076,20527.9,7735.46,104.08,84.0317,4.64698e+10,1.02802,0.956677,92,0.546704,215,0.01,2
app_48,80.4846,20805.2,7578,324.478,74.4763,1.50897e+11,1.03508,0.956677,101,2.03915,194,0.01,2
app_49,52.7185,20462.1,7667.1,255.737,81.706,1.16554e+11,1.02779,0.956677,94,1.43894,208,0.01,2
app_5,2.22992,18773.5,7588.7,202.791,947.556,1.52522e+11,1.03343,0.956677,8,0.160888,2226,0.1,1
app_50,61.7443,20617.9,7710.9,117.723,71.3013,5.7426e+10,1.02982,0.956677,108,0.808816,183,0.01,2
app_51,85.1327,20620.1,7700,188.082,75.9609,8.69033e+10,1.02737,0.956677,101,1.14346,196,0.01,2
app_52,8.01835,20485.4,7637.2,220.355,79.8222,1.02772e+11,1.0336,0.956677,96,1.28465,205,0.01,2
app_53,69.2987,20517.5,7846.6,16.6822,81.3236,6.4556e+09,1.01871,0.956677,96,0.0787268,207,0.01,2
app_54,29.939,20724.1,7584.05,322.998,67.6163,1.53605e+11,1.0339,0.956677,113,2.27291,174,0.01,2
app_55,57.0471,20836.5,7443.3,433.69,93.3568,2.0642e+11,1.04579,0.956677,80,2.21957,242,0.01,2
app_56,51.2,20689.8,7611.3,243.424,80.3712,1.1614e+11,1.03527,0.956677,94,1.43382,209,0.01,2
app_57,930.203,22445,7583.5,416.5,6.88852,9.41595e+10,1.04198,0.956677,1071,13.4514,19,0.001,3
app_58,702.939,22690.2,7350.2,649.8,7.22496,1.51106e+11,1.06648,0.956677,1030,18.8882,20,0.001,3
app_59,916.402,21694.7,7748.2,175.765,7.26687,3.55804e+10,1.02778,0.956677,1072,5.08291,19,0.001,3
app_6,10.072,19977.8,7726.2,96.7533,773.015,6.40418e+10,1.02693,0.956677,10,0.0828483,1930,0.1,1
app_60,33.4361,20812.4,7864.1,103.536,8.43883,1.38656e+10,1.01549,0.956677,937,1.7332,22,0.001,3
app_7,6.9416,19128.5,7585.5,210.243,947.586,1.62737e+11,1.03249,0.956677,8,0.171664,2265,0.1,1
app_8,1.37401,20144.3,7615.5,230.556,762.099,1.82758e+11,1.02587,0.956677,10,0.23984,1923,0.1,1
app_9,1.44896,19017.3,7641.5,178.512,847.159,1.31435e+11,1.02921,0.956677,9,0.155178,2015,0.1,1
