app_id,start_app,end_app,effective_cpu,effective_io,effective_iter,total_bytes,stretch,utilization,Tcomp,Tio,iterations,priority,group_id
app_1,7.09891,18165.1,7770.3,225.501,973.028,1.85246e+11,1.00559,0.965645,8,0.190387,2209,0.1,1
app_10,51.422,20123.1,7755.3,201.787,81.9129,1.74959e+11,1.00879,0.965645,95,2.15999,205,0.01,2
app_11,31.9104,19952.2,7857.4,111.403,88.7838,9.50707e+10,1.00598,0.965645,89,1.06821,221,0.01,2
app_12,93.3807,20044.5,7859,112.021,79.547,9.54912e+10,1.00572,0.965645,98,1.19364,200,0.01,2
app_13,90.8763,20159.7,7775.98,192.221,75.0353,1.66181e+11,1.00728,0.965645,104,2.21344,188,0.01,2
app_14,58.8712,20212.3,7746.3,199.878,80.81,1.73322e+11,1.01015,0.965645,96,2.13978,203,0.01,2
app_15,75.4796,20066.7,7931.7,27.5871,87.5315,2.1276e+10,1.00591,0.965645,90,0.244552,220,0.01,2
app_16,11.0412,20065,7814.5,158.692,70.6448,1.3979e+11,1.00575,0.965645,110,1.96887,178,0.01,2
app_17,81.4002,20128.4,7849.1,96.2663,75.5108,8.18449e+10,1.00871,0.965645,104,1.07691,190,0.01,2
app_18,96.4803,20170.4,7857.7,96.407,73.2926,8.12847e+10,1.00769,0.965645,106,1.11349,186,0.01,2
app_19,58.8978,20113.6,7926.3,35.0147,71.1893,2.73848e+10,1.00582,0.965645,110,0.385701,180,0.01,2
app_2,4.76278,19612.9,7797.92,195.554,974.712,1.49262e+11,1.00665,0.965645,8,0.153104,2387,0.1,1
app_20,54.0658,20096.7,7867.2,91.3771,75.2909,7.69474e+10,1.00703,0.965645,105,1.02597,188,0.01,2
app_21,52.9916,20167,7742,214.196,101.954,1.82108e+11,1.00958,0.965645,76,1.78537,256,0.01,2
app_22,90.5398,19982.9,7913.1,24.5479,82.0055,1.65934e+10,1.00887,0.965645,97,0.202358,204,0.01,2
app_23,45.3407,20227.1,7790.5,166.682,67.8467,1.43273e+11,1.00835,0.965645,116,2.1384,170,0.01,2
app_24,42.2261,20081,7889.9,89.8548,72.9585,7.64573e+10,1.00422,0.965645,108,1.04736,183,0.01,2
app_25,498.175,21489.6,7658.5,69.3352,8.13959,4.12685e+10,1.03899,0.965645,968,5.15856,21,0.001,3
app_26,1041.19,22002.5,7625.5,145.783,7.20247,9.31721e+10,1.03645,0.965645,1073,13.3103,19,0.001,3
app_27,431.129,21258.4,7524.7,273.298,7.08279,1.8337e+11,1.03787,0.965645,1040,26.1958,19,0.001,3
app_28,855.104,22120.4,7625.7,124.965,8.49014,9.16161e+10,1.03663,0.965645,915,11.452,22,0.001,3
app_29,71.0546,20987.1,7703.6,49.453,7.62683,3.43012e+10,1.03387,0.965645,1036,4.28765,20,0.001,3
app_3,0.808673,18311.6,7907.1,85.9597,880.408,1.22494e+10,1.01018,0.965645,9,0.013904,2010,0.1,1
app_30,680.678,22127.2,7707.6,6.46293,8.08186,3.53744e+09,1.03746,0.965645,939,0.44218,22,0.001,3
app_31,798.557,21105.9,7665.5,64.7128,8.22325,4.28312e+10,1.03784,0.965645,954,5.3539,21,0.001,3
app_32,398.216,20951.4,7525.2,221.555,7.49417,1.62379e+11,1.04064,0.965645,1034,23.1969,19,0.001,3
app_33,147.052,21232.1,7663.2,146.351,8.77718,9.14987e+10,1.03163,0.965645,869,10.1665,23,0.001,3
app_34,740.075,21336.1,7738.8,151.062,7.21995,9.1478e+10,1.02168,0.965645,1048,13.0683,19,0.001,3
app_35,78.4596,21286.5,7734,25.283,8.64137,1.90923e+10,1.03185,0.965645,900,2.12136,23,0.001,3
app_36,277.005,21323.1,7596.2,273.032,7.27296,1.92424e+11,1.02714,0.965645,1044,27.4891,19,0.001,3
app_37,167.962,21284.3,7880.2,69.3211,6.99191,4.5569e+10,1.00937,0.965645,1150,6.50986,18,0.001,3
app_38,143.212,21957.9,7560.3,313.608,7.69417,1.98329e+11,1.03111,0.965645,960,24.7911,21,0.001,3
app_39,360.208,21807.2,7580.9,114.506,9.21612,7.20111e+10,1.04535,0.965645,824,8.00124,25,0.001,3
app_4,5.0321,19104.5,7840.5,153.482,782.036,7.83843e+10,1.01024,0.965645,10,0.100236,1872,0.1,1
app_40,857.672,22195.3,7751,109.352,7.19313,7.56981e+10,1.02214,0.965645,1082,10.814,19,0.001,3
app_41,753.553,22021.6,7643.7,193.598,8.4462,1.24035e+11,1.0299,0.965645,875,14.2672,23,0.001,3
app_42,236.606,21619.7,7716.6,111.003,7.48666,8.04554e+10,1.02603,0.965645,1012,11.4936,20,0.001,3
app_43,79.6392,21747.4,7536.2,235.436,8.21317,1.5819e+11,1.03972,0.965645,922,19.7738,22,0.001,3
app_44,228.639,21890.3,7829.8,89.5002,7.91221,5.20954e+10,1.01498,0.965645,943,6.51193,22,0.001,3
app_45,757.502,21295.5,7608,97.264,7.86835,7.19313e+10,1.04168,0.965645,948,8.99141,21,0.001,3
app_46,520.982,21129.6,7667.5,238.799,8.15542,1.55616e+11,1.02261,0.965645,940,19.452,21,0.001,3
app_47,473.154,21460.5,7908,1.66662,7.09521,6.97461e+08,1.01154,0.965645,1095,0.0871826,19,0.001,3
app_48,857.927,21397.5,7659.9,241.23,8.94366,1.6081e+11,1.02292,0.965645,868,17.8678,23,0.001,3
app_49,654,21766.4,7437.6,224.573,7.9261,1.5158e+11,1.05413,0.965645,941,18.9474,21,0.001,3
app_5,70.2957,20177.8,7930.2,21.2179,91.365,1.62671e+10,1.00674,0.965645,87,0.176816,229,0.01,2
app_50,487.892,21455.5,7614.9,199.154,9.18111,1.29571e+11,1.033,0.965645,832,14.3968,24,0.001,3
app_51,802.307,22410.8,7443.9,268.034,6.71631,1.80049e+11,1.04932,0.965645,1083,25.7213,19,0.001,3
app_52,17.141,21709.1,7656.8,219.844,6.71205,1.52164e+11,1.02446,0.965645,1136,21.7377,18,0.001,3
app_53,737.91,21277.7,7669.4,209.364,6.92167,1.35209e+11,1.02504,0.965645,1095,19.3156,18,0.001,3
app_54,294.777,21536.4,7660.8,77.5953,6.13012,4.95056e+10,1.03757,0.965645,1187,8.25093,17,0.001,3
app_55,236.459,21640.8,7535.8,245.522,8.74187,1.65331e+11,1.03881,0.965645,838,18.3701,24,0.001,3
app_56,964.061,22032,7793,107.797,7.52974,8.24644e+10,1.01581,0.965645,1022,10.308,20,0.001,3
app_57,304.925,21727.6,7513.2,207.91,7.87041,1.47285e+11,1.04432,0.965645,968,18.4106,21,0.001,3
app_58,763.295,21526.7,7596.4,146.733,8.47093,1.03683e+11,1.03895,0.965645,925,12.9604,22,0.001,3
app_59,121.692,21378.8,7664.7,158.443,7.37649,1.17592e+11,1.02797,0.965645,1015,16.7988,20,0.001,3
app_6,8.20746,20089.6,7742.2,226.389,82.1185,1.97061e+11,1.00765,0.965645,95,2.40319,204,0.01,2
app_60,844.358,22007.3,7776.4,68.5717,9.32226,4.79805e+10,1.02245,0.965645,846,4.79805,24,0.001,3
app_7,75.9509,20269.3,7884,71.3568,75.0304,5.96308e+10,1.0071,0.965645,103,0.795077,192,0.01,2
app_8,18.3841,20165,7760.7,217.261,75.4839,1.87902e+11,1.00647,0.965645,101,2.50537,192,0.01,2
app_9,27.0365,20127.1,7827.1,140.142,73.0574,1.19598e+11,1.00671,0.965645,108,1.63833,183,0.01,2
