app_id,start_app,end_app,effective_cpu,effective_io,effective_iter,total_bytes,stretch,utilization,Tcomp,Tio,iterations,priority,group_id
app_1,6.76936,19177.3,7902.4,97.6,787.801,1.36421e+10,1.01061,0.951987,10,0.0173124,1893,1,1
app_10,0.974027,19927.6,7358.9,641.1,916.626,1.66694e+11,1.06304,0.951987,8,0.181782,2292,1.00001,1.00001
app_11,0.942154,18711.2,7745.42,254.578,968.764,5.49555e+10,1.02559,0.951987,8,0.0567169,2264,1.00001,1.00001
app_12,3.48606,19915.4,7258.9,741.1,909.876,1.95905e+11,1.07313,0.951987,8,0.21528,2265,1.00001,1.00001
app_13,7.11434,20252.5,7767.19,232.807,704.897,5.53777e+10,1.02268,0.951987,11,0.0786017,1784,1.00001,1.00001
app_14,10.8305,19770.9,7521.2,478.8,683.541,1.23736e+11,1.04644,0.951987,11,0.181166,1691,1.00001,1.00001
app_15,1.40342,21132.9,7313.6,686.4,732.359,1.84572e+11,1.06693,0.951987,10,0.252148,1941,1.00002,1.00002
app_16,2.42197,21076.7,7389.3,610.7,741.562,1.61683e+11,1.05946,0.951987,10,0.217901,1954,1.00002,1.00002
app_17,6.54039,18469.1,7920.6,79.4,793.22,7.21284e+08,1.00993,0.951987,10,0.000908418,1831,1.00002,1.00002
app_18,6.03775,18508.6,7866.9,133.1,872.849,2.30915e+10,1.01394,0.951987,9,0.0264508,2020,1.00002,1.00002
app_19,1.71308,20715.2,7563.1,436.9,686.489,1.12036e+11,1.04233,0.951987,11,0.163318,1782,1.00002,1.00002
app_2,2.72252,19845.1,7551.1,448.9,752.849,1.17023e+11,1.04328,0.951987,10,0.155409,1870,1,1
app_20,4.07611,19663.9,7702.3,297.7,858.727,7.09636e+10,1.02917,0.951987,9,0.0826118,2109,1.00002,1.00002
app_21,69.9917,20292.7,7849,151,80.1098,4.12378e+10,1.01391,0.951987,98,0.515472,202,1.00002,1.00002
app_22,0.977811,20673.4,7603.7,396.3,99.4574,1.07869e+11,1.0374,0.951987,76,1.07869,259,1.00002,1.00002
app_23,79.9631,21234,7334.8,665.2,76.6508,1.79385e+11,1.06465,0.951987,96,2.36033,203,1.00002,1.00002
app_24,10.4223,19978.2,7914.6,85.4,95.7186,2.1485e+10,1.00805,0.951987,83,0.223802,240,1.00002,1.00002
app_25,23.4379,20912.7,7484.6,515.4,68.5865,1.42066e+11,1.04895,0.951987,109,2.05892,180,1.00003,1.00003
app_26,35.4459,21058.7,7428.08,571.917,85.9887,1.6371e+11,1.05377,0.951987,86,1.90108,227,1.00003,1.00003
app_27,51.8311,20721.3,7650.2,349.8,71.5288,9.44776e+10,1.03297,0.951987,107,1.31219,184,1.00003,1.00003
app_28,71.7721,20238.5,7947.7,52.3,80.1631,1.2211e+10,1.00504,0.951987,98,0.152637,203,1.00003,1.00003
app_29,36.9084,20925.6,7511.3,488.7,80.4926,1.37093e+11,1.04597,0.951987,93,1.69251,210,1.00003,1.00003
app_3,5.99918,19800.6,7362.36,637.643,735.52,1.70914e+11,1.06196,0.951987,10,0.232428,1825,1,1
app_30,12.8043,20447.4,7693.8,306.2,63.8095,8.40054e+10,1.02857,0.951987,121,1.33342,163,1.00003,1.00003
app_31,28.1246,21053.8,7542.13,457.87,69.2317,1.26292e+11,1.04324,0.951987,108,1.80552,183,1.00003,1.00003
app_32,88.7618,20448.1,7636.3,363.7,87.0461,1.01146e+11,1.03393,0.951987,88,1.1626,222,1.00003,1.00003
app_33,9.34478,21149.2,7385,615,71.6086,1.68194e+11,1.05915,0.951987,103,2.33603,190,1.00003,1.00003
app_34,4.90714,20635.9,7594.3,405.7,80.8608,1.21162e+11,1.03688,0.951987,94,1.49583,209,1.00003,1.00003
app_35,21.1935,20003.8,7893.8,106.2,82.6086,2.90322e+10,1.00974,0.951987,95,0.349786,208,1.00004,1.00004
app_36,24.9723,20979.7,7531.4,468.6,78.7157,1.26087e+11,1.04473,0.951987,95,1.6165,207,1.00004,1.00004
app_37,69.1936,20831.2,7644,356,63.6693,9.15072e+10,1.03419,0.951987,119,1.4525,166,1.00004,1.00004
app_38,19.7355,20910.2,7503.5,496.5,76.2787,1.28985e+11,1.04815,0.951987,98,1.69717,201,1.00004,1.00004
app_39,92.2596,20624,7552.6,447.4,76.5862,1.31651e+11,1.04109,0.951987,100,1.70976,195,1.00004,1.00004
app_4,6.15069,20849.5,7390.85,609.148,671.454,1.61428e+11,1.05928,0.951987,11,0.240266,1756,1,1
app_40,62.1718,21107.2,7402.8,597.2,66.6792,1.72438e+11,1.05607,0.951987,110,2.5737,177,1.00004,1.00004
app_41,35.3464,20965.7,7726.1,273.9,8.29646,9.42362e+10,1.02297,0.951987,904,11.7795,22,1.00004,1.00004
app_42,392.525,20761.9,7866.1,133.9,7.50963,3.00135e+10,1.01316,0.951987,1064,4.28765,19,1.00004,1.00004
app_43,252.617,22655.3,7356.5,643.5,7.04285,1.68798e+11,1.06308,0.951987,1003,24.1139,20,1.00004,1.00004
app_44,37.7885,22047.5,7507.8,492.2,7.67623,1.40734e+11,1.04595,0.951987,977,17.5918,21,1.00004,1.00004
app_45,357.301,21413.8,7847.04,152.962,7.43906,5.91962e+10,1.01186,0.951987,1014,7.68768,20,1.00004,1.00004
app_46,291.799,21554.1,7754.2,245.8,8.60338,9.86996e+10,1.01873,0.951987,885,12.3375,23,1.00005,1.00005
app_47,561.674,20702.9,7902.1,97.9,7.35952,3.42681e+10,1.00802,0.951987,1054,4.89544,19,1.00005,1.00005
app_48,310.923,21693.9,7327.4,672.6,8.34202,1.55125e+11,1.06916,0.951987,863,19.3906,23,1.00005,1.00005
app_49,136.387,21036.3,7608.7,391.3,7.60526,1.09359e+11,1.03653,0.951987,1001,13.6699,20,1.00005,1.00005
app_5,1.6989,20075.4,7805,195,866.735,4.21285e+10,1.01948,0.951987,9,0.0485911,2177,1.00001,1.00001
app_50,190.6,20664.3,7899.4,100.6,8.25636,2.80469e+10,1.00915,0.951987,961,3.11632,21,1.00005,1.00005
app_51,742.425,22255.1,7484.1,515.9,7.5201,1.56925e+11,1.04698,0.951987,993,19.6156,20,1.00005,1.00005
app_52,798.207,21975.4,7677.4,322.6,7.586,8.67916e+10,1.03037,0.951987,1020,10.849,20,1.00005,1.00005
app_53,73.7328,20147.6,7873.6,126.4,8.26015,2.52151e+10,1.01281,0.951987,953,3.15189,21,1.00005,1.00005
app_54,615.304,21872.9,7662.7,337.3,8.31315,1.10664e+11,1.02916,0.951987,916,12.296,22,1.00005,1.00005
app_55,536.148,21888.9,7636.7,363.3,7.63195,6.34438e+10,1.03894,0.951987,987,9.0634,21,1.00005,1.00005
app_56,374.163,20880.9,7832.5,167.5,6.97856,5.32618e+10,1.01449,0.951987,1133,7.60883,18,1.00006,1.00006
app_57,539.79,21603.8,7389.2,610.8,7.54735,1.74805e+11,1.05764,0.951987,987,24.9722,20,1.00006,1.00006
app_58,732.44,22238.1,7541.4,458.6,8.94294,1.26827e+11,1.04327,0.951987,847,14.0919,24,1.00006,1.00006
app_59,501.448,21557.5,7713.7,286.3,6.65727,9.54507e+10,1.02444,0.951987,1137,13.6358,18,1.00006,1.00006
app_6,5.00116,19095.3,7399,601,925.023,1.55654e+11,1.05895,0.951987,8,0.168275,2212,1.00001,1.00001
app_60,56.5685,21557.1,7778.2,221.8,7.98723,6.43577e+10,1.02008,0.951987,989,8.04471,21,1.00006,1.00006
app_7,0.918359,20591,7494.86,505.138,750.584,1.30543e+11,1.04912,0.951987,10,0.173867,1938,1.00001,1.00001
app_8,8.79247,19610.3,7488,512,747.724,1.32573e+11,1.04979,0.951987,10,0.177237,1837,1.00001,1.00001
app_9,1.34344,18747.3,7664.5,335.5,958.796,8.08448e+10,1.03288,0.951987,8,0.0843012,2247,1.00001,1.00001
