app_id,start_app,end_app,effective_cpu,effective_io,effective_iter,total_bytes,stretch,utilization,Tcomp,Tio,iterations,priority,group_id
app_1,11.8594,19339.2,7622.2,358.816,694.356,1.4954e+11,1.02937,0.963155,11,0.215475,1676,1,1
app_10,24.1802,20461.7,7623.9,281.979,83.887,1.59077e+11,1.02788,0.963155,91,1.89377,214,1,2
app_11,88.6727,20603.1,7600.5,310.198,72.9266,1.64778e+11,1.03023,0.963155,104,2.25724,188,1,2
app_12,61.9292,20306.1,7809.6,125.88,78.1093,6.65447e+10,1.01573,0.963155,100,0.853137,198,1,2
app_13,32.9309,20345.5,7863.4,38.1621,84.2668,1.94033e+10,1.01487,0.963155,94,0.230992,212,1,2
app_14,71.6734,20340.5,7842,18.8573,88.1688,8.69371e+09,1.01902,0.963155,88,0.0987921,226,1,2
app_15,65.9052,20631.9,7558.2,337.11,84.9403,1.92934e+11,1.03211,0.963155,89,2.26981,219,1,2
app_16,56.1034,20611.5,7572.5,360.106,83.155,1.94852e+11,1.02995,0.963155,91,2.34762,213,1,2
app_17,70.2963,20388.9,7604.6,293.915,91.3951,1.61389e+11,1.03013,0.963155,84,1.7735,231,1,2
app_18,20.1178,20623.2,7619.6,285.269,64.9777,1.60953e+11,1.0282,0.963155,117,2.4762,167,1,2
app_19,31.6855,20261.5,7636.9,286.207,71.0634,1.68025e+11,1.02499,0.963155,108,2.36655,180,1,2
app_2,4.39813,19690.5,7549.14,434.191,837.326,1.80303e+11,1.035,0.963155,9,0.21518,2067,1,1
app_20,50.5956,20265.1,7670.3,264.384,83.7858,1.49583e+11,1.02303,0.963155,92,1.78075,212,1,2
app_21,0.936354,20327.2,7826.7,107.891,72.8293,5.80773e+10,1.01461,0.963155,106,0.806629,187,1,2
app_22,65.1906,20546.7,7581.2,314.726,91.7118,1.75785e+11,1.03133,0.963155,83,1.93171,234,1,2
app_23,74.1936,20307.2,7824.6,70.6614,77.8304,3.83398e+10,1.01743,0.963155,101,0.497919,196,1,2
app_24,127.684,21489.4,7513.7,272.418,9.19074,1.85867e+11,1.03902,0.963155,813,18.5867,25,1,3
app_25,333.504,21318.5,7681.2,59.4625,7.68829,4.03817e+10,1.03606,0.963155,1026,5.04771,20,1,3
app_26,546.707,21445.2,7811.1,130.602,6.6696,9.12522e+10,1.01236,0.963155,1105,13.036,18,1,3
app_27,51.7419,20295.4,7627.9,281.492,7.14298,1.88655e+11,1.02347,0.963155,1085,26.9507,18,1,3
app_28,562.705,21405.4,7842.1,9.07912,9.26359,6.31122e+09,1.01931,0.963155,860,0.701246,24,1,3
app_29,718.318,22166.2,7487.1,300.674,8.83775,2.00882e+11,1.04059,0.963155,878,22.3202,23,1,3
app_3,6.22151,19376.4,7681.3,295.117,852.659,1.16537e+11,1.02593,0.963155,9,0.13662,2068,1,1
app_30,393.427,21532.9,7733.6,122.685,9.5116,9.16957e+10,1.02233,0.963155,797,9.16957,25,1,3
app_31,388.276,21102.1,7678.7,140.145,7.69113,8.74132e+10,1.03012,0.963155,1018,10.9267,20,1,3
app_32,781.967,21710.2,7712,123.659,8.26006,8.79102e+10,1.02565,0.963155,921,10.9888,22,1,3
app_33,442.887,21005.2,7666.6,264.834,7.49902,1.80771e+11,1.01945,0.963155,1049,25.8245,19,1,3
app_34,1085.9,22007.4,7780.6,143.9,6.91714,9.72822e+10,1.0155,0.963155,1125,13.8975,18,1,3
app_35,255.81,21199.4,7502.63,173.245,7.50566,1.19226e+11,1.04961,0.963155,997,16.4362,20,1,3
app_36,395.238,20855.4,7804.1,84.843,6.99936,6.12641e+10,1.01712,0.963155,1109,8.75202,18,1,3
app_37,699.065,22472.8,7656,190.385,8.49943,1.43606e+11,1.02569,0.963155,888,17.9507,23,1,3
app_38,512.569,21963.6,7688.55,19.9759,7.77872,1.22159e+10,1.03886,0.963155,984,1.74513,21,1,3
app_39,353.47,21993.4,7571.88,290.199,6.84991,2.08163e+11,1.02827,0.963155,1064,29.7649,19,1,3
app_4,66.6879,20308.6,7861.3,38.2352,83.4565,1.92437e+10,1.01516,0.963155,94,0.231852,211,1,2
app_40,707.009,21826.4,7509.8,298.86,7.06829,2.04815e+11,1.03699,0.963155,1037,29.2593,19,1,3
app_41,736.398,21428.3,7592.2,268.536,8.07756,1.82659e+11,1.02896,0.963155,929,22.8324,21,1,3
app_42,572.124,21491.9,7946,34.6393,8.64116,2.26771e+10,1.00393,0.963155,894,2.51968,23,1,3
app_43,667.086,21229.3,7675.8,210.745,8.17646,1.42539e+11,1.02324,0.963155,946,17.8174,21,1,3
app_44,584.128,21509.9,7657.9,212.091,8.62935,1.40528e+11,1.02585,0.963155,866,15.6142,23,1,3
app_45,632.117,21591.9,7786.6,59.9336,10.2936,4.70198e+10,1.02124,0.963155,740,4.27453,27,1,3
app_46,705.197,21470.7,7765.7,108.802,7.45673,8.22965e+10,1.01937,0.963155,1073,10.2871,19,1,3
app_47,87.8354,20963.3,7743.3,120.533,7.89001,8.51382e+10,1.02192,0.963155,964,12.1626,21,1,3
app_48,417.942,20951.1,7704.6,238.489,7.14516,1.65806e+11,1.01647,0.963155,1092,20.7257,18,1,3
app_49,360.771,21052.7,7774.2,136.861,8.08021,9.95512e+10,1.01603,0.963155,984,12.4439,21,1,3
app_5,93.0557,20149.2,7812.6,95.3613,82.7694,5.37122e+10,1.01699,0.963155,95,0.647135,208,1,2
app_50,945.502,22063.9,7741.4,104.209,7.58454,7.31897e+10,1.02373,0.963155,1001,9.14872,20,1,3
app_51,107.498,21112.9,7841,20.5699,6.36255,1.54632e+10,1.01827,0.963155,1206,2.20903,17,1,3
app_52,286.556,20979.3,7596.5,108.604,7.22572,7.47755e+10,1.04285,0.963155,1057,10.6822,19,1,3
app_53,546.848,20930.4,7702.4,189.55,7.88789,1.42891e+11,1.01972,0.963155,1004,17.8614,20,1,3
app_54,193.325,20791.1,7709.4,95.7541,7.45037,7.0545e+10,1.02828,0.963155,1049,10.0779,19,1,3
app_55,409.304,22092.6,7737.1,151.007,7.25965,1.04375e+11,1.02022,0.963155,1033,14.9107,20,1,3
app_56,680.048,21342.1,7777.7,46.5972,7.81055,3.31666e+10,1.02421,0.963155,1003,4.73809,20,1,3
app_57,246.631,21066,7812,126.609,9.75678,9.02669e+10,1.01237,0.963155,813,9.02669,25,1,3
app_58,484.873,21330.8,7763.67,9.40196,8.72135,5.25303e+09,1.02974,0.963155,900,0.656629,23,1,3
app_59,347.473,20857.1,7846.7,16.1266,7.68354,1.18281e+10,1.018,0.963155,1053,1.68972,19,1,3
app_6,7.59907,20180.7,7812,71.2998,74.728,3.76696e+10,1.01915,0.963155,105,0.509049,189,1,2
app_60,872.486,21961.8,7517.3,329.216,8.68911,2.24819e+11,1.03331,0.963155,868,24.9799,23,1,3
app_7,57.9479,20527.4,7717.7,197.91,72.4316,1.0628e+11,1.0225,0.963155,106,1.45589,186,1,2
app_8,51.9796,20198.5,7858.1,45.697,72.2998,2.55414e+10,1.01476,0.963155,109,0.349882,183,1,2
app_9,20.4362,20394.3,7806.8,96.8775,67.9033,5.56718e+10,1.01749,0.963155,115,0.818703,172,1,2
