app_id,start_app,end_app,effective_cpu,effective_io,effective_iter,total_bytes,stretch,utilization,Tcomp,Tio,iterations,priority,group_id
app_1,3.37836,28819.7,4410.2,73.9389,399.336,5.12668e+10,1.79313,0.91428,11,0.128167,1761,1,1
app_10,74.3956,22528.6,7185.7,21.854,63.9265,1.90045e+10,1.11039,0.91428,112,0.296946,178,1,1
app_11,15.7506,22602.5,6909.9,130.244,71.8034,1.26766e+11,1.1369,0.91428,96,1.76064,205,1,1
app_12,83.4858,22855,6980.66,40.4761,75.69,3.74924e+10,1.1399,0.91428,92,0.49332,217,1,1
app_13,38.2699,22850.2,6829.6,120.501,83.9182,1.17122e+11,1.15162,0.91428,81,1.39431,242,1,1
app_14,68.49,22725.3,6778.83,183.512,69.5868,1.80909e+11,1.14947,0.91428,97,2.58442,200,1,1
app_15,26.2559,22709.1,6894.3,121.97,71.156,1.18244e+11,1.14081,0.91428,97,1.64228,203,1,1
app_16,10.8533,22513.7,6933.6,10.2535,65.7181,6.68603e+09,1.15269,0.91428,106,0.101304,188,1,1
app_17,40.7446,22505,6866.3,156.211,67.186,1.52866e+11,1.13974,0.91428,102,2.24803,192,1,1
app_18,9.21875,23054.8,6808.6,70.4534,81.0632,6.59455e+10,1.16371,0.91428,84,0.814142,235,1,1
app_19,32.3623,22604.1,6945.9,108.192,66.4842,1.04923e+11,1.13462,0.91428,104,1.56601,189,1,1
app_2,2.0011,29533.2,4071.96,94.1804,508.888,6.43599e+10,1.93409,0.91428,8,0.126444,2385,1,1
app_20,11.4708,22843.4,6872.1,68.511,81.8746,6.55146e+10,1.15313,0.91428,84,0.798959,236,1,1
app_21,36.7438,22514.8,6966.6,62.2549,62.6944,5.91411e+10,1.13867,0.91428,110,0.953889,180,1,1
app_22,27.578,22864.4,6879.2,63.4525,76.818,6.02585e+10,1.15283,0.91428,89,0.782578,221,1,1
app_23,58.5008,22836.6,7010.6,7.5516,67.6537,3.72161e+09,1.14052,0.91428,104,0.0547295,192,1,1
app_24,593.84,21395.7,7838.4,15.277,8.96417,1.49833e+10,1.01867,0.91428,880,1.66481,23,1,1
app_25,87.1962,20713.3,7742.6,146.925,6.76906,1.46513e+11,1.01406,0.91428,1174,20.9305,17,1,1
app_26,273.189,20656.6,7816,134.638,8.65782,1.34144e+11,1.00627,0.91428,896,14.9048,22,1,1
app_27,210.532,20456.4,7804.1,128.566,7.94389,1.28088e+11,1.00855,0.91428,990,16.0109,20,1,1
app_28,525.182,21158,7749.01,123.258,7.19899,1.22823e+11,1.01628,0.91428,1063,15.3528,19,1,1
app_29,0.294739,20393.1,7772.2,64.3636,7.01373,6.39731e+10,1.02091,0.91428,1103,9.13901,18,1,1
app_3,5.66569,28543.5,4301.83,87.6559,431.406,6.70224e+10,1.83115,0.91428,10,0.155144,1878,1,1
app_30,563.991,21647,7776,93.6692,7.35567,9.33739e+10,1.0166,0.91428,1074,13.3391,19,1,1
app_31,819.361,21741.6,7693.4,150.77,8.76389,1.50358e+11,1.01992,0.91428,858,16.7065,23,1,1
app_32,59.1811,20756,7890.8,14.6931,9.0914,1.40954e+10,1.01203,0.91428,865,1.40954,24,1,1
app_33,416.77,21483.7,7829.9,72.6646,10.9024,7.21637e+10,1.01239,0.91428,731,6.56034,28,1,1
app_34,350.327,21265.5,7754.5,180.131,8.46737,1.79745e+11,1.00829,0.91428,927,22.4681,22,1,1
app_35,255.68,21515.9,7926,42.5572,8.60571,4.22481e+10,1.00398,0.91428,895,5.28101,23,1,1
app_36,25.6195,20929.1,7652,202.515,7.43463,2.02145e+11,1.01857,0.91428,998,25.2682,20,1,1
app_37,307.822,21228.4,7674.1,199.912,9.58439,1.99465e+11,1.01606,0.91428,797,19.9465,25,1,1
app_38,227.158,21230.6,7917.5,21.0701,9.48426,2.07688e+10,1.00778,0.91428,803,2.07688,25,1,1
app_39,556.577,21022.6,7697.3,201.645,8.5932,2.01129e+11,1.01286,0.91428,893,22.3477,22,1,1
app_4,101.266,22819.1,6789.8,107.176,66.4494,1.03617e+11,1.16053,0.91428,103,1.54652,191,1,1
app_40,807.731,21904.1,7759.7,90.2715,8.51782,8.96853e+10,1.01919,0.91428,878,11.2107,23,1,1
app_41,155.842,21241.9,7883.9,56.7447,7.1551,5.64736e+10,1.00751,0.91428,1094,8.06766,19,1,1
app_42,119.958,20967.3,7659.7,137.002,9.07576,1.36637e+11,1.02612,0.91428,841,15.1819,24,1,1
app_43,684.042,21701.2,7722.6,211.384,8.35691,2.10992e+11,1.00837,0.91428,924,26.374,22,1,1
app_44,1066.16,22254.8,7817.9,51.6609,7.20851,5.13842e+10,1.01661,0.91428,1081,7.34061,19,1,1
app_45,965.155,21702.7,7906.2,3.48223,7.90189,2.98442e+09,1.01148,0.91428,1040,0.373053,20,1,1
app_46,700.19,20945.7,7872.6,7.5921,7.04784,7.24759e+09,1.01525,0.91428,1116,1.03537,18,1,1
app_47,248.119,21179.3,7773,170.099,8.34986,1.69662e+11,1.00722,0.91428,920,21.2078,22,1,1
app_48,264.527,20362.2,7868.7,26.6643,9.31314,2.62303e+10,1.01331,0.91428,879,2.91448,23,1,1
app_49,804.938,20995.2,7735.7,162.916,9.13927,1.62435e+11,1.0129,0.91428,855,18.0483,23,1,1
app_5,66.6767,23147.6,6864.3,50.6863,73.6632,4.59351e+10,1.1577,0.91428,93,0.620745,214,1,1
app_50,699.476,21618.5,7807.4,115.255,8.33236,1.14942e+11,1.0098,0.91428,926,14.3678,22,1,1
app_51,756.685,20951.8,7765.1,42.2984,8.67698,4.17978e+10,1.02473,0.91428,905,4.6442,22,1,1
app_52,340.46,22393.3,7574.4,231.741,6.3971,2.31396e+11,1.02488,0.91428,1142,33.0566,18,1,1
app_53,1041.51,22056.9,7872.1,33.3952,7.08702,3.30623e+10,1.012,0.91428,1057,4.72318,19,1,1
app_54,339.752,20577.9,7835.2,37.5655,8.35632,3.73089e+10,1.01619,0.91428,970,4.66361,21,1,1
app_55,324.658,21050.3,7648.4,218.436,8.3293,2.18006e+11,1.01698,0.91428,953,24.2229,21,1,1
app_56,239.927,20812.9,7868.5,82.4585,9.09257,8.19765e+10,1.00623,0.91428,865,9.1085,23,1,1
app_57,320.262,21288.6,7835.16,140.492,7.59913,1.39925e+11,1.00312,0.91428,1064,19.1116,19,1,1
app_58,816.135,21088.6,7792.7,81.3771,8.60388,8.09583e+10,1.01605,0.91428,914,8.99537,22,1,1
app_59,116.019,20536,7725.3,167.09,8.11351,1.66534e+11,1.01371,0.91428,936,18.5037,21,1,1
app_6,11.2015,22614.9,6862.4,152.34,72.6331,1.48014e+11,1.14116,0.91428,95,2.02759,206,1,1
app_60,187.511,20764.6,7843.6,38.3975,8.00537,3.78965e+10,1.01504,0.91428,951,4.73706,21,1,1
app_7,35.8223,22434.4,6913,146.864,61.67,1.42687e+11,1.13384,0.91428,112,2.3014,175,1,1
app_8,80.4527,22759.3,6774.68,192.537,76.7593,1.88733e+11,1.14886,0.91428,88,2.45108,219,1,1
app_9,0.279238,22312.6,6902.8,181.895,67.1256,1.78166e+11,1.12979,0.91428,103,2.65919,188,1,1
