app_id,start_app,end_app,effective_cpu,effective_io,effective_iter,total_bytes,stretch,utilization,Tcomp,Tio,iterations,priority,group_id
app_1,7.80333,19012.5,7640,182.751,955.936,1.21752e+11,1.0307,0.957753,8,0.127356,2270,0.1,1
app_10,2.86217,18508.2,7660,180.415,851.29,1.34269e+11,1.0264,0.957753,9,0.157593,1970,0.1,1
app_11,4.13561,20366,7692.8,170.144,770.831,1.33028e+11,1.02226,0.957753,10,0.17254,1962,0.1,1
app_12,2.97398,19704.4,7650.2,191.223,849.403,1.50654e+11,1.02553,0.957753,9,0.177449,2097,0.1,1
app_13,0.145412,19102.2,7705.1,133.198,770.43,8.25687e+10,1.02727,0.957753,10,0.107093,1842,0.1,1
app_14,1.62746,18724,7601.3,238.653,950.955,1.81682e+11,1.02788,0.957753,8,0.191043,2227,0.1,1
app_15,6.54399,19188.4,7765.2,72.9439,776.25,2.84821e+10,1.02647,0.957753,10,0.0367038,1867,0.1,1
app_16,1.43631,18312.4,7617.8,208.443,953.143,1.60663e+11,1.02848,0.957753,8,0.168586,2183,0.1,1
app_17,4.01841,18537.3,7656.3,130.309,1093.86,7.96349e+10,1.03413,0.957753,7,0.072859,2535,0.1,1
app_18,5.75315,19028.9,7727.1,132.106,772.463,7.88684e+10,1.02486,0.957753,10,0.102029,1836,0.1,1
app_19,5.37061,20120.2,7716.1,157.102,700.851,1.21188e+11,1.02076,0.957753,11,0.172879,1764,0.1,1
app_2,8.82364,19099.6,7654.2,230.149,765.355,1.82e+11,1.0209,0.957753,10,0.237597,1827,0.1,1
app_20,6.78524,19272.3,7626.08,210.681,952.435,1.6359e+11,1.027,0.957753,8,0.171727,2294,0.1,1
app_21,7.90953,18382.4,7684,121.556,959.736,8.0571e+10,1.03032,0.957753,8,0.0839281,2210,0.1,1
app_22,7.81462,19861.3,7760.1,121.858,705.118,7.36889e+10,1.02122,0.957753,11,0.104523,1748,0.1,1
app_23,3.53313,18773.3,7642.2,241.767,765.237,1.98402e+11,1.02033,0.957753,10,0.259349,1795,0.1,1
app_24,6.59385,19691.6,7724,157.223,699.937,1.23955e+11,1.01937,0.957753,11,0.177078,1726,0.1,1
app_25,3.82187,18779,7652.5,140.779,1098.62,9.60755e+10,1.03245,0.957753,7,0.0875004,2569,0.1,1
app_26,6.36851,18638.1,7600.1,245.452,843.477,1.86957e+11,1.02735,0.957753,9,0.221513,1969,0.1,1
app_27,6.55733,18837.1,7716.3,93.1151,964.648,3.87542e+10,1.03159,0.957753,8,0.0401598,2267,0.1,1
app_28,7.92201,18890.6,7601,249.502,843.281,1.92727e+11,1.02647,0.957753,9,0.22862,1996,0.1,1
app_29,1.978,20175,7816.7,52.8928,712.335,7.96801e+09,1.02241,0.957753,11,0.0111753,1797,0.1,1
app_3,8.30831,18615.6,7738,92.2168,861.266,4.77879e+10,1.02751,0.957753,9,0.0555028,2003,0.1,1
app_30,1.84035,19800.5,7788.3,66.8136,781.228,2.03495e+10,1.0245,0.957753,10,0.0260223,1930,0.1,1
app_31,7.13184,18485.5,7729.3,108.062,860.241,7.39609e+10,1.02521,0.957753,9,0.0860011,1985,0.1,1
app_32,9.96169,19199.5,7655.1,227.74,765.148,1.75937e+11,1.02158,0.957753,10,0.229983,1839,0.1,1
app_33,8.84537,18720,7686.1,162.777,854.424,1.09589e+11,1.02621,0.957753,9,0.128174,1996,0.1,1
app_34,7.1411,20150.8,7639.3,175.205,953.009,1.14702e+11,1.03173,0.957753,8,0.120359,2410,0.1,1
app_35,2.85156,19912.2,7736.6,88.0292,859.199,4.29451e+10,1.02834,0.957753,9,0.0499943,2142,0.1,1
app_36,8.62458,19868.7,7791.5,65.9363,779.798,2.05036e+10,1.02407,0.957753,10,0.0262867,1933,0.1,1
app_37,56.6766,20498.3,7650.4,202.926,70.358,1.02336e+11,1.03189,0.957753,109,1.46194,180,0.01,2
app_38,8.21034,20638.4,7531.3,337.763,81.0389,1.68334e+11,1.03901,0.957753,94,2.0782,208,0.01,2
app_39,30.4754,20446.9,7718.9,142.476,90.5773,6.76102e+10,1.02742,0.957753,85,0.74297,232,0.01,2
app_4,2.91773,19995.4,7709.8,159.583,772.551,1.15166e+11,1.02237,0.957753,10,0.148986,1927,0.1,1
app_40,0.896962,20618.7,7586.7,195.902,96.5086,9.77837e+10,1.04106,0.957753,78,1.01858,252,0.01,2
app_41,13.4696,20495.6,7699.39,167.3,67.0985,8.16563e+10,1.02814,0.957753,115,1.21487,172,0.01,2
app_42,9.71263,20527.7,7676.9,161.133,82.2136,8.17259e+10,1.03111,0.957753,94,0.996658,210,0.01,2
app_43,78.2115,20499.6,7648.4,144.081,97.8097,7.1354e+10,1.0363,0.957753,78,0.728102,253,0.01,2
app_44,77.8964,20888,7488.7,335.886,94.5591,1.76349e+11,1.0437,0.957753,79,1.87605,247,0.01,2
app_45,40.8735,20493.1,7541.4,329.889,78.7474,1.65524e+11,1.03803,0.957753,96,2.09524,202,0.01,2
app_46,18.9089,20720.8,7589.4,253.474,76.3578,1.30815e+11,1.03624,0.957753,99,1.72126,199,0.01,2
app_47,63.5382,20615.8,7623.5,260.409,74.3091,1.30401e+11,1.03174,0.957753,102,1.73868,192,0.01,2
app_48,33.5303,20543.9,7678.3,143.281,88.542,7.03405e+10,1.03244,0.957753,86,0.799324,230,0.01,2
app_49,58.3791,20635.6,7552.1,317.15,69.1098,1.5932e+11,1.03742,0.957753,110,2.30898,177,0.01,2
app_5,6.28272,19779.3,7695.2,161.065,770.603,1.17489e+11,1.02398,0.957753,10,0.152385,1906,0.1,1
app_50,80.8206,20533.3,7673,188.001,78.1879,9.32547e+10,1.0301,0.957753,99,1.19557,199,0.01,2
app_51,7.08925,20685.7,7543.3,335.11,76.4703,1.70538e+11,1.0371,0.957753,98,2.24392,200,0.01,2
app_52,64.1076,20415,7670.1,151.274,88.6605,7.10267e+10,1.03344,0.957753,87,0.807122,226,0.01,2
app_53,62.9624,20747,7515.5,354.251,74.1957,1.83572e+11,1.03909,0.957753,100,2.4807,194,0.01,2
app_54,44.2474,20387.9,7833.7,8.83123,83.4628,1.16418e+09,1.02108,0.957753,94,0.0138593,212,0.01,2
app_55,81.6111,20640.6,7613.2,270.082,63.4062,1.33716e+11,1.03267,0.957753,120,2.12247,164,0.01,2
app_56,25.876,20658.8,7575.2,269.712,76.4462,1.44911e+11,1.03625,0.957753,100,1.90673,196,0.01,2
app_57,703.809,22932.5,7390.8,609.2,7.81932,1.52112e+11,1.0606,0.957753,921,19.0139,22,0.001,3
app_58,478.494,22400.6,7329.9,653.151,7.62082,1.51436e+11,1.06933,0.957753,973,21.6336,21,0.001,3
app_59,759.546,20918.8,7902.5,52.0502,7.58532,8.96214e+09,1.01119,0.957753,1070,1.28031,19,0.001,3
app_6,1.21925,20150.3,7737.5,70.1231,966.177,1.00455e+10,1.03259,0.957753,8,0.0103991,2438,0.1,1
app_60,286.004,20908.2,7738.8,261.2,9.80195,6.16667e+10,1.02558,0.957753,799,6.16667,25,0.001,3
app_7,5.11631,19513.9,7790.3,78.1612,706.721,4.12632e+10,1.02151,0.957753,11,0.0584465,1730,0.1,1
app_8,8.88791,18677.1,7691.1,156.85,852.582,1.00729e+11,1.02672,0.957753,9,0.118226,1988,0.1,1
app_9,10.4734,18660.3,7653,225.566,766.804,1.73031e+11,1.02223,0.957753,10,0.225594,1783,0.1,1
