app_id,start_app,end_app,effective_cpu,effective_io,effective_iter,total_bytes,stretch,utilization,Tcomp,Tio,iterations,priority,group_id
app_1,4.84337,20202.7,7690,220.491,700.802,8.77211e+10,1.02858,0.958943,11,0.125137,1768,1,1
app_10,5.47253,20313.3,7632.9,247.508,847.167,8.76561e+10,1.03619,0.958943,9,0.10349,2154,1,1
app_11,6.68066,20475,7727.1,171.824,773.155,7.14752e+10,1.02583,0.958943,10,0.0924647,1979,1,1
app_12,7.45607,19813.3,7688.7,213.334,698.721,8.08541e+10,1.02966,0.958943,11,0.115837,1732,1,1
app_13,3.71217,20515,7583.04,325.789,757.957,1.37159e+11,1.03624,0.958943,10,0.181163,1947,1,1
app_14,6.67527,20252.3,7799.7,97.8702,710.071,2.92421e+10,1.02185,0.958943,11,0.0411861,1797,1,1
app_15,4.21621,18799,7646.5,221.731,1092.69,7.59977e+10,1.03593,0.958943,7,0.0695313,2569,1,1
app_16,41.9872,20498.1,7597.9,323.685,69.1178,1.6858e+11,1.03007,0.958943,111,2.44319,175,1,2
app_17,89.8763,20842,7490.2,349.85,80.5854,1.78283e+11,1.04323,0.958943,93,2.20103,209,1,2
app_18,95.1277,20903.6,7563.1,339.742,62.7955,1.86058e+11,1.03237,0.958943,121,3.00093,162,1,2
app_19,101.554,20596.5,7701.72,120.381,69.7929,6.28582e+10,1.03032,0.958943,111,0.897975,179,1,2
app_2,4.27788,19977.2,7555.1,330.624,941.9,1.37026e+11,1.04002,0.958943,8,0.145463,2360,1,1
app_20,78.5518,20844.8,7604.8,219.975,87.8267,1.16146e+11,1.03614,0.958943,87,1.31984,227,1,2
app_21,94.7326,20855.4,7654,229.996,76.3209,1.23118e+11,1.02866,0.958943,99,1.61997,199,1,2
app_22,45.6359,20772.1,7529.65,278.181,73.5054,1.44704e+11,1.04243,0.958943,103,1.97869,191,1,2
app_23,7.86918,20547.3,7500.8,345.88,75.6521,1.84281e+11,1.04098,0.958943,99,2.42476,196,1,2
app_24,1.48244,20529.7,7611.2,198.495,85.6923,1.00093e+11,1.03744,0.958943,89,1.16387,220,1,2
app_25,55.3506,20905.3,7652.84,237.156,74.876,1.20215e+11,1.0292,0.958943,102,1.60286,193,1,2
app_26,36.7148,20860.7,7549.2,343.443,72.6084,1.84715e+11,1.0344,0.958943,104,2.53034,188,1,2
app_27,87.1251,20345.4,7818.8,6.26805,78.8012,5.15585e+08,1.02311,0.958943,100,0.00652639,199,1,2
app_28,19.4087,20682,7738,121.501,82.8129,6.1785e+10,1.02567,0.958943,94,0.753476,212,1,2
app_29,46.9473,20679.5,7647,227.196,66.2182,1.19404e+11,1.03008,0.958943,115,1.80916,171,1,2
app_3,1.58491,20589.7,7546.5,373.856,686.153,1.61235e+11,1.03792,0.958943,11,0.235036,1766,1,1
app_30,44.1119,20694.4,7535.9,338.822,76.425,1.8254e+11,1.03648,0.958943,98,2.40184,198,1,2
app_31,42.4253,20739.8,7642.1,129.56,80.6361,6.58718e+10,1.03789,0.958943,95,0.813232,208,1,2
app_32,28.1258,20576.8,7810.8,26.6934,87.7693,1.26008e+10,1.02257,0.958943,89,0.144837,224,1,2
app_33,36.0955,20555.7,7735.27,138.22,68.4414,7.41538e+10,1.0244,0.958943,113,1.07469,175,1,2
app_34,76.1537,20691.9,7589.8,238.41,95.5645,1.24899e+11,1.03698,0.958943,80,1.31472,244,1,2
app_35,59.6366,20382.8,7657,246.991,68.6563,1.36035e+11,1.02656,0.958943,111,1.97152,176,1,2
app_36,644.86,21559.8,7709.5,205.154,9.64698,1.07724e+11,1.02338,0.958943,802,10.7724,25,1,3
app_37,932.937,22219,7710.3,136.715,7.7519,7.50038e+10,1.02758,0.958943,975,10.7148,21,1,3
app_38,356.163,21024.8,7669,228.141,7.74103,1.24087e+11,1.02655,0.958943,1001,15.5109,20,1,3
app_39,631.435,21939.4,7866.1,38.2313,7.55148,2.30696e+10,1.01405,0.958943,1034,2.8837,20,1,3
app_4,0.172456,19964.1,7709.7,169.977,856.436,5.88284e+10,1.0298,0.958943,9,0.0686446,2141,1,1
app_40,922.401,21608,7693,264.287,6.63116,1.4125e+11,1.02116,0.958943,1176,23.5417,17,1,3
app_41,650.46,21009.3,7771.7,165.127,7.59717,9.47511e+10,1.01698,0.958943,1056,11.8439,19,1,3
app_42,961.034,21908.8,7588,334.805,7.04872,1.80966e+11,1.02974,0.958943,1040,25.8523,19,1,3
app_43,799.228,21581.2,7681.7,304.786,7.37359,1.70764e+11,1.01879,0.958943,1044,21.3455,19,1,3
app_44,371.614,21372.8,7810.7,19.2975,8.65457,1.17595e+10,1.0227,0.958943,890,1.46993,23,1,3
app_45,656.024,21919.2,7825.4,127.43,7.15857,7.24552e+10,1.01293,0.958943,1088,10.3507,19,1,3
app_46,779.804,21996.6,7596.1,304.256,7.45441,1.69694e+11,1.03016,0.958943,1019,24.242,20,1,3
app_47,668.134,21172.8,7716.1,106.76,8.88772,5.79396e+10,1.02907,0.958943,875,7.24245,23,1,3
app_48,445.803,21369.1,7546.6,272.889,7.68628,1.42195e+11,1.04048,0.958943,988,17.7743,20,1,3
app_49,198.148,20833.4,7865.9,51.5652,7.74069,2.79517e+10,1.01345,0.958943,1010,3.49396,20,1,3
app_5,10.1069,19251.7,7754.2,142.193,775.174,5.13952e+10,1.02491,0.958943,10,0.0662309,1867,1,1
app_50,567.026,21384.3,7754.84,131.915,7.19968,7.09053e+10,1.02227,0.958943,1068,9.41707,19,1,3
app_51,312.86,21667.3,7737.6,143.446,8.68025,7.32384e+10,1.02422,0.958943,880,9.1548,23,1,3
app_52,82.4617,20946.5,7754.5,148.418,8.55689,8.2778e+10,1.02076,0.958943,924,10.3473,22,1,3
app_53,172.069,20532.8,7617.4,328.066,7.10616,1.77937e+11,1.02625,0.958943,1109,25.4195,18,1,3
app_54,763.096,21732.1,7713.6,117.112,8.11883,6.4494e+10,1.02853,0.958943,966,8.06175,21,1,3
app_55,730.741,21498.3,7742.2,196.211,8.63507,1.01552e+11,1.01992,0.958943,901,11.2836,22,1,3
app_56,607.114,22001.1,7775.2,56.4978,7.11445,3.08912e+10,1.02484,0.958943,1096,4.41303,19,1,3
app_57,1034.46,21460.5,7742.5,255.478,7.01676,1.41746e+11,1.01468,0.958943,1109,20.2494,18,1,3
app_58,907.754,21337.8,7561.4,203.852,8.41582,1.11471e+11,1.04263,0.958943,940,13.9339,21,1,3
app_59,1033.12,21658.1,7613.2,232.039,7.1337,1.31227e+11,1.033,0.958943,1096,18.7467,18,1,3
app_6,7.75547,19779.8,7592.8,321.778,760.496,1.38773e+11,1.03472,0.958943,10,0.182596,1878,1,1
app_60,620.249,21432.3,7614.5,249.187,9.12371,1.39648e+11,1.03171,0.958943,837,15.5164,24,1,3
app_7,0.372551,19964.9,7749.63,158.211,704.86,6.45875e+10,1.02378,0.958943,11,0.0917193,1759,1,1
app_8,5.64775,19062.5,7705.3,188.86,856.13,7.55681e+10,1.02816,0.958943,9,0.0882805,2040,1,1
app_9,6.78198,20232,7604.2,296.76,845.938,1.22563e+11,1.03536,0.958943,9,0.144874,2140,1,1
