app_id,start_app,end_app,effective_cpu,effective_io,effective_iter,total_bytes,stretch,utilization,Tcomp,Tio,iterations,priority,group_id
app_1,0.307774,23457.8,6321.4,112.931,631.494,7.95616e+10,1.24981,0.870893,10,0.126088,1910,1,1
app_10,2.80785,23352.4,6028.1,101.871,859.634,6.30248e+10,1.31339,0.870893,7,0.0732846,2593,1,1
app_11,1.43089,23014.8,6302.1,204.847,629.855,1.76519e+11,1.23483,0.870893,10,0.280189,1852,1,1
app_12,8.01971,22513.5,5967.6,192.852,851.965,1.56477e+11,1.30632,0.870893,7,0.183659,2456,1,1
app_13,5.41796,23442.5,6281.6,76.9988,697.492,4.09792e+10,1.26531,0.870893,9,0.0587095,2106,1,1
app_14,4.6206,22838.4,6246.8,147.617,692.192,1.15568e+11,1.25739,0.870893,9,0.166764,2024,1,1
app_15,2.8899,22758.5,6187.3,230.148,686.852,1.99223e+11,1.25264,0.870893,9,0.28999,2000,1,1
app_16,6.30749,22632,6245.5,132.054,691.845,9.58174e+10,1.26157,0.870893,9,0.138465,2001,1,1
app_17,0.354774,23316.3,6381,123.912,579.554,9.59823e+10,1.23514,0.870893,11,0.165487,1733,1,1
app_18,9.7216,23347.5,6358.1,148.545,577.372,1.17716e+11,1.23537,0.870893,11,0.204013,1730,1,1
app_19,0.772364,22835.2,6281,229.984,628.319,1.96056e+11,1.23513,0.870893,10,0.312192,1829,1,1
app_2,0.0467948,23246.4,6275.5,109.745,699.322,7.19811e+10,1.26034,0.870893,9,0.102977,2078,1,1
app_20,9.65985,24028,6358.9,88.4309,639.812,6.1746e+10,1.24598,0.870893,10,0.0964781,1976,1,1
app_21,0.411246,24089.2,6382.2,73.9286,638.641,4.30354e+10,1.24509,0.870893,10,0.0674536,1978,1,1
app_22,4.67193,24515.4,6186.1,135.322,773.028,9.19891e+10,1.27427,0.870893,8,0.119003,2459,1,1
app_23,6.0261,23287.9,6268.5,111.5,695.294,7.27037e+10,1.26159,0.870893,9,0.10461,2082,1,1
app_24,4.41175,23490.1,6370.9,48.4427,638.639,1.36027e+10,1.25303,0.870893,10,0.0213209,1924,1,1
app_25,8.26419,22901.3,6227.3,180.318,692.367,1.42307e+11,1.25596,0.870893,9,0.205646,2029,1,1
app_26,6.38178,22871.7,6394.4,41.1795,639.763,5.78897e+09,1.24996,0.870893,10,0.00904527,1863,1,1
app_27,4.38893,22991.9,6249.2,155.356,694.357,1.23328e+11,1.25539,0.870893,9,0.177579,2045,1,1
app_28,0.096485,22206.7,6280,239.022,626.285,2.06102e+11,1.23341,0.870893,10,0.329236,1768,1,1
app_29,7.41364,24236.6,6319.3,50.4229,701.541,1.43614e+10,1.26309,0.870893,9,0.0204579,2196,1,1
app_3,7.92431,22353.2,6381.8,59.3368,638.902,2.60325e+10,1.24847,0.870893,10,0.0407395,1813,1,1
app_30,8.76166,22920.3,6352.7,87.8188,636.337,6.0329e+10,1.24746,0.870893,10,0.0948569,1862,1,1
app_31,2.43653,22741,6354.1,127.539,631.023,9.48318e+10,1.24052,0.870893,10,0.150288,1835,1,1
app_32,4.49125,22362.1,6540.3,73.0383,543.407,4.79381e+10,1.21429,0.870893,12,0.0881214,1537,1,1
app_33,69.4177,20780.4,7638.6,107.493,82.8918,1.02956e+11,1.03338,0.870893,92,1.24043,214,1,1
app_34,51.4639,20667.5,7636.3,97.3079,84.6867,9.31428e+10,1.035,0.870893,90,1.10884,219,1,1
app_35,65.7035,20718.3,7748.7,28.523,77.6179,2.35357e+10,1.0293,0.870893,99,0.305659,201,1,1
app_36,91.1258,20670.8,7652.3,100.727,78.7936,9.65402e+10,1.03241,0.870893,96,1.23769,205,1,1
app_37,41.5733,20590.6,7774.5,28.0274,82.7871,2.44329e+10,1.02578,0.870893,94,0.294373,212,1,1
app_38,75.3737,20451.9,7602.2,209.35,90.7141,2.05588e+11,1.02462,0.870893,85,2.28431,227,1,1
app_39,60.0681,20665.9,7734.4,70.8384,86.8253,6.70772e+10,1.02545,0.870893,89,0.771002,223,1,1
app_4,8.46487,23302.1,6388,53.7394,642.171,2.01012e+10,1.24842,0.870893,10,0.0313103,1908,1,1
app_40,3.44792,20533.6,7683.9,146.502,89.7051,1.42438e+11,1.02219,0.870893,86,1.58265,228,1,1
app_41,70.8234,20650.5,7602.6,164.599,85.6624,1.60731e+11,1.03049,0.870893,89,1.86896,220,1,1
app_42,32.5668,20569.4,7768.3,75.813,70.0509,7.19488e+10,1.02038,0.870893,111,1.02784,178,1,1
app_43,56.7248,20740.8,7644.4,131.639,83.2599,1.27631e+11,1.02933,0.870893,91,1.53772,216,1,1
app_44,80.9196,20807.3,7605.6,80.9736,86.3643,7.70359e+10,1.04131,0.870893,88,0.895767,225,1,1
app_45,22.8225,20448.4,7624.5,226.1,63.3149,2.23108e+11,1.01942,0.870893,120,3.54139,161,1,1
app_46,92.4687,20691.6,7722.5,77.3416,79.408,7.29093e+10,1.02625,0.870893,98,0.922903,202,1,1
app_47,79.698,20826.5,7738.7,28.7945,77.6823,2.46592e+10,1.03048,0.870893,99,0.316144,201,1,1
app_48,18.7074,20623.8,7615.2,163.525,90.6849,1.58626e+11,1.02909,0.870893,84,1.74314,232,1,1
app_49,85.4988,20561.6,7638.6,183.368,76.225,1.79798e+11,1.02323,0.870893,100,2.36576,195,1,1
app_5,2.70923,22989.5,6311.22,139.981,632.892,1.1056e+11,1.24576,0.870893,10,0.174829,1859,1,1
app_50,23.8207,20495.3,7675.9,151.943,76.0112,1.48077e+11,1.0225,0.870893,101,1.94838,194,1,1
app_51,75.5255,20509.8,7613.3,170.123,77.5063,1.65954e+11,1.02838,0.870893,98,2.12762,199,1,1
app_52,59.7231,20675.6,7568.5,199.074,77.9287,1.95332e+11,1.03042,0.870893,96,2.50426,202,1,1
app_53,288.21,21632.3,7869.3,109.655,8.07527,1.09277e+11,1.00269,0.870893,983,13.6597,21,1,1
app_54,23.3013,20502.6,7962.6,25.4327,8.55157,2.4994e+10,1.00155,0.870893,931,2.77711,22,1,1
app_55,227.371,21203.5,7927.1,52.9632,8.29698,5.2461e+10,1.00256,0.870893,939,5.829,22,1,1
app_56,774.179,21125.4,7840.7,141.325,8.83299,1.40882e+11,1.00231,0.870893,908,15.6535,22,1,1
app_57,446.47,21587.4,7983.3,9.12555,8.0753,8.75693e+09,1.00099,0.870893,994,1.09462,21,1,1
app_58,794.672,22099.7,7880.1,88.8955,8.13005,8.85542e+10,1.00393,0.870893,939,11.0693,22,1,1
app_59,175.162,21013,7868.7,126.525,8.47722,1.2612e+11,1.00065,0.870893,931,15.765,22,1,1
app_6,1.44932,23902.1,6289.4,61.2006,697.484,2.53558e+10,1.26687,0.870893,9,0.0363784,2158,1,1
app_60,74.44,20949.4,7958.2,33.1685,7.48549,3.28645e+10,1.00112,0.870893,1075,4.69493,19,1,1
app_7,3.04636,22821.1,6198.3,217.066,689.269,1.84383e+11,1.25339,0.870893,9,0.26761,2007,1,1
app_8,2.46964,23868.8,6363,114.445,636.986,8.11847e+10,1.24143,0.870893,10,0.127448,1952,1,1
app_9,2.06439,23858,6358.2,73.1804,635.671,4.26819e+10,1.24983,0.870893,10,0.06711,1955,1,1
