app_id,start_app,end_app,effective_cpu,effective_io,effective_iter,total_bytes,stretch,utilization,Tcomp,Tio,iterations,priority,group_id
app_1,2.78186,20026.3,7694,306,698.166,1.6166e+11,1.01837,0.962978,11,0.231605,1751,0.087503,1
app_10,1.8201,18658.3,7683.1,316.9,960.623,1.71655e+11,1.01849,0.962978,8,0.178621,2238,0.111884,1.00001
app_11,8.75107,20177,7671.1,328.9,850.004,1.71228e+11,1.02011,0.962978,9,0.201445,2149,0.107407,1.00001
app_12,4.28113,18237,7878,122,877.2,4.94224e+10,1.00916,0.962978,9,0.0563539,1995,0.0997123,1.00001
app_13,5.34775,19863.2,7757.68,242.317,776.606,1.2676e+11,1.01466,0.962978,10,0.163183,1927,0.0963483,1.00001
app_14,4.10819,19038,7891.4,108.6,876.469,4.1551e+10,1.00845,0.962978,9,0.0473786,2089,0.104449,1.00001
app_15,2.66678,19505.5,7799.4,200.6,779.61,9.74095e+10,1.01307,0.962978,10,0.124884,1901,0.0950368,1.00002
app_16,4.82551,19591.9,7900.6,99.4,789.866,3.68179e+10,1.00788,0.962978,10,0.046605,1935,0.0967131,1.00002
app_17,3.93315,18678.5,7889.4,110.6,875.393,4.19335e+10,1.00866,0.962978,9,0.047924,2045,0.102223,1.00002
app_18,5.55796,19647,7603.3,396.7,846.151,2.27676e+11,1.02158,0.962978,9,0.269121,2071,0.103538,1.00002
app_19,2.40458,19305.9,7901,99,988.993,1.97472e+10,1.01001,0.962978,8,0.0199668,2385,0.119245,1.00002
app_2,1.07588,20104.8,7886.6,113.4,788.293,4.35076e+10,1.00881,0.962978,10,0.0552127,1980,0.0989938,1
app_20,0.294817,18781,7896.4,103.6,788.622,3.682e+10,1.00842,0.962978,10,0.0467258,1847,0.092342,1.00002
app_21,7.04926,19835,7921.1,78.9,788.223,1.2257e+10,1.0084,0.962978,10,0.0155545,1960,0.0979534,1.00002
app_22,0.1088,19933.5,7653.9,346.1,852.975,1.81201e+11,1.02105,0.962978,9,0.212428,2125,0.106229,1.00002
app_23,0.537025,19925.4,7633.14,366.861,848.65,1.98862e+11,1.02145,0.962978,9,0.234308,2115,0.105738,1.00002
app_24,5.80011,19687.8,7809.7,190.3,710.004,8.67415e+10,1.01311,0.962978,11,0.122171,1746,0.087284,1.00002
app_25,9.84938,20106.9,7660.9,339.1,696.442,1.80823e+11,1.02018,0.962978,11,0.25943,1755,0.0877048,1.00003
app_26,5.26266,19949.6,7869.7,130.3,875.057,6.14019e+10,1.00869,0.962978,9,0.0701736,2180,0.108956,1.00003
app_27,9.16734,19546.3,7897.8,102.2,791.319,3.84889e+10,1.00803,0.962978,10,0.0486585,1929,0.0964264,1.00003
app_28,7.73786,19418.5,7711.5,288.5,859.85,1.52822e+11,1.01725,0.962978,9,0.1777,2082,0.104063,1.00003
app_29,6.32483,18706.7,7704.1,295.9,769.631,1.53035e+11,1.01818,0.962978,10,0.199005,1799,0.0899399,1.00003
app_3,6.8448,19596.3,7881.4,118.6,876.07,4.64691e+10,1.0091,0.962978,9,0.0530469,2147,0.107347,1
app_30,0.540331,19539.2,7891.5,108.5,788.646,4.1299e+10,1.00847,0.962978,10,0.0524099,1925,0.0962495,1.00003
app_31,49.291,20927.6,7602.6,397.4,69.2617,1.487e+11,1.03208,0.962978,108,2.15507,181,0.00903178,1.00003
app_32,44.1937,20401.1,7733.4,266.6,69.2331,8.62492e+10,1.02306,0.962978,112,1.24999,176,0.0087639,1.00003
app_33,105.576,20763.5,7516.5,483.5,72.4922,1.69625e+11,1.04084,0.962978,104,2.35591,187,0.00932311,1.00003
app_34,82.7969,20845.4,7476.5,523.5,79.4052,1.89809e+11,1.04353,0.962978,95,2.37261,206,0.0102628,1.00003
app_35,55.6818,20049.7,7917.1,82.9,71.7891,2.47154e+10,1.00733,0.962978,111,0.348105,180,0.00896547,1.00004
app_36,27.7763,20625.9,7595.1,404.9,79.4582,1.67552e+11,1.03058,0.962978,95,2.0944,205,0.0102025,1.00004
app_37,83.5566,20060,7824.5,175.5,73.2382,5.37256e+10,1.01546,0.962978,107,0.726022,184,0.0091984,1.00004
app_38,77.406,20300,7802.6,197.4,90.369,7.40298e+10,1.01566,0.962978,86,0.822553,230,0.0114971,1.00004
app_39,23.8456,20688.1,7603.2,396.8,75.2557,1.33599e+11,1.03402,0.962978,100,1.78132,197,0.00981225,1.00004
app_4,5.44943,18484.8,7884.5,115.5,876.649,4.4247e+10,1.00899,0.962978,9,0.0504527,2022,0.101069,1
app_40,40.8777,20068.9,7926.1,73.9,77.4996,2.26046e+10,1.00645,0.962978,103,0.289803,193,0.00961189,1.00004
app_41,24.882,20046.8,7951.5,48.5,73.0446,1.61139e+10,1.00406,0.962978,109,0.220738,182,0.00907628,1.00004
app_42,50.0028,20867.5,7574.9,425.1,75.3553,1.4321e+11,1.03652,0.962978,99,1.90947,198,0.00986793,1.00004
app_43,50.8857,20786.1,7467.2,532.8,78.6828,1.95367e+11,1.04404,0.962978,95,2.47299,205,0.010214,1.00004
app_44,105.676,20001.3,7975.4,24.6,73.4889,6.5718e+09,1.00226,0.962978,108,0.0900246,184,0.00918898,1.00004
app_45,67.4978,20431.1,7614.8,385.2,74.8111,1.21871e+11,1.03404,0.962978,103,1.62495,190,0.00948219,1.00004
app_46,41.2036,21281.9,7364,636,67.0666,2.16892e+11,1.05528,0.962978,110,3.23719,177,0.00882195,1.00005
app_47,64.4845,20806.4,7489.8,510.201,65.8759,1.6306e+11,1.04536,0.962978,114,2.49291,171,0.00851643,1.00005
app_48,86.539,20433.8,7746.5,253.5,76.2903,8.56355e+10,1.02143,0.962978,102,1.12678,194,0.00966713,1.00005
app_49,91.8698,20966.3,7423.9,576.1,75.7358,1.94879e+11,1.05004,0.962978,97,2.56419,200,0.00997394,1.00005
app_5,9.61473,18769.5,7762.5,237.5,863.667,1.22231e+11,1.01462,0.962978,9,0.141471,2026,0.101298,1.00001
app_50,35.6457,20126.9,7965.9,34.1,78.5897,7.69454e+09,1.00331,0.962978,102,0.0973992,196,0.0097544,1.00005
app_51,588.144,22349.5,7084.34,915.664,8.16974,1.75269e+11,1.10199,0.962978,878,20.8306,23,0.00111219,1.00005
app_52,1021.27,22365.6,7652.8,347.2,6.61078,6.59479e+10,1.03644,0.962978,1123,10.9913,18,0.000881626,1.00005
app_53,433.011,21725.6,7425.6,574.4,8.2494,1.04142e+11,1.06245,0.962978,931,11.5713,22,0.00106068,1.00005
app_54,430.444,22103.7,7941.9,58.1,8.92126,1.36706e+10,1.00558,0.962978,867,1.70882,24,0.00115033,1.00005
app_55,851.908,22095.6,7284.9,715.1,8.2483,2.06547e+11,1.06788,0.962978,910,25.8184,22,0.0010679,1.00005
app_56,360.968,21619.6,7365.8,634.2,7.66171,1.58157e+11,1.06327,0.962978,954,19.7696,21,0.00102655,1.00006
app_57,526.045,23251,7126.1,873.9,8.52334,1.87748e+11,1.09382,0.962978,846,20.8609,24,0.0011533,1.00006
app_58,780.71,21683.9,7721.1,278.9,9.32156,6.09687e+10,1.028,0.962978,863,6.09687,24,0.00115,1.00006
app_59,557.195,22271.7,7666.32,333.679,7.4938,6.29441e+10,1.03503,0.962978,990,8.85835,21,0.00100088,1.00006
app_6,1.27398,19795.5,7859.2,140.8,785.938,6.4785e+10,1.00959,0.962978,10,0.0824237,1950,0.0974922,1.00001
app_60,377.499,22544.9,7514.4,485.6,6.72558,1.29217e+11,1.04662,0.962978,1089,18.4596,19,0.000902463,1.00006
app_7,9.73735,19030.6,7847.8,152.2,785.708,7.02282e+10,1.01035,0.962978,10,0.0894626,1866,0.0932752,1.00001
app_8,1.43552,19951.1,7793.8,206.2,779.801,9.64077e+10,1.01392,0.962978,10,0.1236,1946,0.0972947,1.00001
app_9,4.23671,18635,7640.1,359.9,846.811,1.90454e+11,1.02164,0.962978,9,0.224857,1976,0.09877,1.00001
