app_id,start_app,end_app,effective_cpu,effective_io,effective_iter,total_bytes,stretch,utilization,Tcomp,Tio,iterations,priority,group_id
app_1,0.258144,20142.5,7321,87.4497,733.111,2.83785e+10,1.08853,0.929906,10,0.0386628,1846,1,1
app_10,1.42232,20499.7,7159.6,234.098,795.593,1.12192e+11,1.10014,0.929906,9,0.141122,2052,1,1
app_11,2.71767,19688.1,6962.5,330.837,994.807,1.6247e+11,1.12281,0.929906,7,0.163287,2463,1,1
app_12,1.06472,21372.3,7205.6,337.353,720.314,1.72563e+11,1.08428,0.929906,10,0.239339,1935,1,1
app_13,1.03127,20074.6,7166.85,220.547,794.383,1.01349e+11,1.10068,0.929906,9,0.127644,2003,1,1
app_14,7.79831,21370.6,7185.3,331.695,720.052,1.69722e+11,1.08769,0.929906,10,0.235725,1934,1,1
app_15,3.71534,20924.8,7054.8,148.811,1008.33,5.49829e+10,1.12521,0.929906,7,0.0545465,2665,1,1
app_16,5.45199,20073.9,7144.52,266.271,792.125,1.29363e+11,1.09983,0.929906,9,0.163338,2002,1,1
app_17,7.3332,20611.2,7150.6,269.424,793.315,1.30663e+11,1.09871,0.929906,9,0.164563,2059,1,1
app_18,2.08661,19846.3,7094.2,210.957,888.568,8.96531e+10,1.11361,0.929906,8,0.100847,2213,1,1
app_19,0.596804,20702,7181.2,221.767,798.225,1.00884e+11,1.09859,0.929906,9,0.126421,2077,1,1
app_2,4.56622,21634.8,7109.7,332.562,788.131,1.63622e+11,1.09991,0.929906,9,0.207642,2151,1,1
app_20,3.80894,21706,7261.5,81.9561,806.92,2.19748e+10,1.09838,0.929906,9,0.027264,2210,1,1
app_21,6.92628,19956.6,7185.1,331.27,717.597,1.66394e+11,1.08821,0.929906,10,0.232069,1801,1,1
app_22,0.538271,21166.6,7246.8,216.482,724.145,1.02487e+11,1.08854,0.929906,10,0.141557,1928,1,1
app_23,5.80809,20697,7220.5,269.147,719.549,1.32095e+11,1.08805,0.929906,10,0.183466,1880,1,1
app_24,5.22675,19859.5,7176.6,196.342,798.389,8.46551e+10,1.10174,0.929906,9,0.106084,1990,1,1
app_25,8.30053,19785.7,7144.01,302.772,792.895,1.54269e+11,1.09615,0.929906,9,0.194785,1967,1,1
app_26,2.63095,21334.4,7257.4,66.3134,806.768,1.08043e+10,1.10068,0.929906,9,0.0133882,2175,1,1
app_27,2.80746,20620.8,7268.91,327.23,605.242,1.67309e+11,1.07582,0.929906,12,0.276093,1565,1,1
app_28,10.282,20486.5,7297.2,142.911,732.348,6.4677e+10,1.08668,0.929906,10,0.0883566,1879,1,1
app_29,14.7954,20649.1,7511.5,336.551,76.2352,1.7351e+11,1.04099,0.929906,99,2.28303,197,1,2
app_3,1.59304,19749.2,7031.5,212.484,1000.9,9.98423e+10,1.12181,0.929906,7,0.0997426,2483,1,1
app_30,68.1227,20483.4,7708.1,92.0776,71.6797,4.63113e+10,1.03167,0.929906,108,0.643212,183,1,2
app_31,14.0174,20589.7,7614.8,206.094,85.6318,1.01844e+11,1.03672,0.929906,88,1.19816,222,1,2
app_32,63.0311,20488.3,7777.5,29.3951,80.0122,1.33564e+10,1.02684,0.929906,97,0.166955,205,1,2
app_33,88.3834,20773.5,7656.1,219.878,71.7838,1.07479e+11,1.03045,0.929906,106,1.51378,186,1,2
app_34,66.6672,20710,7585,320.813,69.6095,1.59004e+11,1.03306,0.929906,109,2.27148,180,1,2
app_35,45.9752,20550.3,7559.9,373.835,70.5951,1.82246e+11,1.03331,0.929906,108,2.56685,181,1,2
app_36,71.6767,20670,7643.33,235.604,70.9121,1.20513e+11,1.03042,0.929906,107,1.70319,184,1,2
app_37,15.8805,20414.3,7751.9,48.2609,81.157,2.29363e+10,1.02896,0.929906,95,0.283164,208,1,2
app_38,48.4509,20592,7579,273.424,71.8478,1.39668e+11,1.03645,0.929906,106,1.93983,184,1,2
app_39,87.6454,20543.9,7794.1,46.4641,80.5618,2.24382e+10,1.02347,0.929906,97,0.277015,205,1,2
app_4,6.74898,20932.3,7085.9,240.356,882.553,1.11015e+11,1.11159,0.929906,8,0.125867,2332,1,1
app_40,74.528,20508.5,7760.9,149.74,72.1666,7.63734e+10,1.02076,0.929906,107,1.04621,185,1,2
app_41,25.6422,20600.9,7542.6,369.556,71.1266,1.81888e+11,1.03567,0.929906,106,2.5618,183,1,2
app_42,15.1137,20456.9,7705.7,177.796,73.7565,9.08431e+10,1.0261,0.929906,105,1.22761,188,1,2
app_43,7.7255,20787.8,7517.1,355.682,71.3996,1.7577e+11,1.03992,0.929906,106,2.47563,184,1,2
app_44,98.2416,20734.5,7654.1,200.217,77.6145,1.01257e+11,1.03154,0.929906,98,1.29817,202,1,2
app_45,36.327,20640.8,7588.4,320.445,74.5391,1.63375e+11,1.03202,0.929906,102,2.17833,192,1,2
app_46,9.34845,20298,7765.2,37.5476,73.6407,1.7196e+10,1.02796,0.929906,106,0.232379,189,1,2
app_47,35.3242,20440.1,7794.2,50.4164,78.5163,2.36137e+10,1.0233,0.929906,99,0.298907,201,1,2
app_48,72.4339,20481.8,7636.2,204.933,80.0259,1.02591e+11,1.03375,0.929906,96,1.28239,205,1,2
app_49,909.135,22310.7,7686.6,255.481,8.07645,1.09866e+11,1.02611,0.929906,931,13.7333,22,1,3
app_5,4.22562,21169.4,7273.6,53.5315,806.482,3.17215e+09,1.09939,0.929906,9,0.0039308,2160,1,1
app_50,647.869,21572.8,7774.7,139.859,8.04052,6.16391e+10,1.02088,0.929906,974,7.70488,21,1,3
app_51,461.681,22639,7465.4,372.557,6.87554,1.63919e+11,1.04859,0.929906,1086,23.417,19,1,3
app_52,811.055,21873.4,7619.5,373.993,8.02859,1.67007e+11,1.02742,0.929906,967,20.8758,21,1,3
app_53,974.76,22892.1,7563.8,397.97,6.25869,1.72836e+11,1.03404,0.929906,1209,24.6908,17,1,3
app_54,479.336,21682.2,7561.5,363.06,7.97319,1.49467e+11,1.03748,0.929906,952,18.6834,21,1,3
app_55,965.785,22148.4,7689,233.079,7.90334,1.15761e+11,1.02502,0.929906,962,16.5373,21,1,3
app_56,78.4361,21459.7,7830.4,169.6,10.3713,7.81449e+10,1.01156,0.929906,746,7.81449,27,1,3
app_57,277.957,21198.5,7694.2,182.05,7.98631,8.16956e+10,1.02882,0.929906,966,10.2119,21,1,3
app_58,440.684,21489.3,7801.8,2.62603,7.15259,9.70295e+08,1.02528,0.929906,1088,0.138614,19,1,3
app_59,985.683,22700,7683,309.286,6.56386,1.25599e+11,1.02451,0.929906,1121,20.9331,18,1,3
app_6,11.0024,19902.7,7275.3,186.843,724.243,8.29984e+10,1.08721,0.929906,10,0.114639,1808,1,1
app_60,356.656,21451.6,7891,80.3166,7.33234,3.56556e+10,1.00925,0.929906,1087,5.09366,19,1,3
app_7,5.11612,20324.7,7161.3,239.207,795.422,1.15591e+11,1.09937,0.929906,9,0.145215,2033,1,1
app_8,1.8457,20990.9,7164.9,194.386,797.359,8.41988e+10,1.10359,0.929906,9,0.105512,2106,1,1
app_9,1.8112,19794.1,7161.8,217.014,795.489,9.74606e+10,1.10204,0.929906,9,0.122438,1980,1,1
