app_id,start_app,end_app,effective_cpu,effective_io,effective_iter,total_bytes,stretch,utilization,Tcomp,Tio,iterations,priority,group_id
app_1,6.80773,18053.8,7849.2,145.316,1122.11,1.0811e+11,1.00536,0.967675,7,0.0963549,2530,0.1,1
app_10,72.2221,20108.4,7922.7,53.8833,79.0871,4.37703e+10,1.00421,0.967675,101,0.554054,196,0.01,2
app_11,72.4803,20131.2,7874.5,95.0134,90.1113,8.12255e+10,1.00557,0.967675,87,0.902505,227,0.01,2
app_12,26.6665,20084.1,7839.3,121.73,89.5451,1.05693e+11,1.00692,0.967675,87,1.17436,226,0.01,2
app_13,83.6195,20027.3,7835.7,127.077,90.3956,1.10003e+11,1.00683,0.967675,87,1.22226,226,0.01,2
app_14,58.7641,20139,7834.6,139.711,80.4422,1.23724e+11,1.00524,0.967675,97,1.52746,203,0.01,2
app_15,99.0752,20130,7761.8,214.523,78.6179,1.89267e+11,1.00615,0.967675,98,2.39579,198,0.01,2
app_16,88.5695,20150.9,7802,182.423,78.4849,1.60273e+11,1.00474,0.967675,100,2.05478,196,0.01,2
app_17,31.5374,20221.9,7759.4,213.62,75.8766,1.87435e+11,1.00669,0.967675,103,2.46625,190,0.01,2
app_18,92.961,20148.5,7772.5,208.461,71.4619,1.83219e+11,1.00557,0.967675,108,2.58054,181,0.01,2
app_19,18.4769,20180.8,7935.5,24.5402,89.5195,1.79258e+10,1.00586,0.967675,88,0.199175,227,0.01,2
app_2,3.52945,17871.3,7884.3,110.08,1125.42,2.11293e+10,1.01196,0.967675,7,0.018765,2515,0.1,1
app_20,17.9744,20142.1,7852,116.829,88.1411,9.96485e+10,1.00608,0.967675,89,1.13237,222,0.01,2
app_21,48.1348,20204.7,7921.8,42.37,81.3276,3.53047e+10,1.00539,0.967675,97,0.43586,205,0.01,2
app_22,33.9532,20119.8,7943.2,40.8225,78.8344,3.26705e+10,1.00303,0.967675,100,0.41355,199,0.01,2
app_23,86.6719,20136.1,7943.9,32.3772,79.9499,2.43928e+10,1.00398,0.967675,98,0.304911,203,0.01,2
app_24,81.4656,20166.5,7873.1,106.283,73.7012,9.15717e+10,1.00444,0.967675,106,1.23745,186,0.01,2
app_25,103.728,20040.9,7821.6,163.518,72.9962,1.41507e+11,1.00463,0.967675,107,1.93845,183,0.01,2
app_26,803.92,21655.3,7593.41,95.5979,7.8269,6.95359e+10,1.04398,0.967675,955,9.9337,21,0.001,3
app_27,249.823,21158.3,7729,169.916,7.0705,1.16656e+11,1.01967,0.967675,1124,16.6651,18,0.001,3
app_28,561.531,21431.2,7579.1,107.756,8.115,7.35777e+10,1.04539,0.967675,901,9.19721,22,0.001,3
app_29,663.184,21862,7707.1,257.066,7.82978,1.90266e+11,1.013,0.967675,957,23.7833,21,0.001,3
app_3,7.14627,19442,7916.4,80.0574,791.59,5.15486e+10,1.00402,0.967675,10,0.0651689,1924,0.1,1
app_30,215.636,20660.3,7749.1,189.78,6.45149,1.37273e+11,1.01441,0.967675,1172,19.6105,17,0.001,3
app_31,494.925,21539.8,7579.9,282.159,8.1027,1.95435e+11,1.02889,0.967675,970,24.4293,21,0.001,3
app_32,904.101,21745.5,7876.3,14.3285,7.86716,1.21534e+10,1.01414,0.967675,1013,1.51918,20,0.001,3
app_33,76.9808,21134.1,7647.4,208.298,7.17809,1.49215e+11,1.02609,0.967675,1072,21.3165,19,0.001,3
app_34,450.475,21466.9,7608.8,217.179,7.93494,1.56142e+11,1.03027,0.967675,957,19.5177,21,0.001,3
app_35,387.906,21678.5,7565.2,263.857,7.98266,1.8569e+11,1.03214,0.967675,929,23.2112,21,0.001,3
app_36,657.287,21564.9,7490.38,253.559,7.72319,1.81319e+11,1.04279,0.967675,1009,25.1159,20,0.001,3
app_37,820.075,22154.6,7696.4,87.414,8.31726,6.72634e+10,1.03044,0.967675,906,8.40792,22,0.001,3
app_38,66.8055,21689.7,7816.2,121.283,8.34213,8.93978e+10,1.01194,0.967675,927,11.1747,22,0.001,3
app_39,350.784,21112.7,7685.3,143.322,7.07185,9.16272e+10,1.02868,0.967675,1113,13.0896,18,0.001,3
app_4,7.1326,18550.6,7842.7,154.991,782.37,8.53298e+10,1.00908,0.967675,10,0.109117,1818,0.1,1
app_40,713.351,21580.1,7564.5,181.372,8.93555,1.35966e+11,1.0389,0.967675,857,15.1074,23,0.001,3
app_41,820.198,22614.9,7682.7,225.023,7.69502,1.65741e+11,1.01931,0.967675,970,20.7176,21,0.001,3
app_42,199.799,21099.6,7585.4,240.928,8.5927,1.7162e+11,1.03132,0.967675,908,21.4524,22,0.001,3
app_43,500.099,22067.7,7602.3,196.182,8.54616,1.25954e+11,1.03516,0.967675,892,13.9948,23,0.001,3
app_44,67.7591,21376.2,7641.3,144.28,6.65735,1.05224e+11,1.03272,0.967675,1141,17.5373,18,0.001,3
app_45,13.3582,21064.1,7563,131.57,8.63899,9.53225e+10,1.04462,0.967675,884,10.5914,23,0.001,3
app_46,459.994,21421.9,7653.5,236.791,7.6324,1.73155e+11,1.02215,0.967675,985,24.7364,20,0.001,3
app_47,153.507,21053.5,7624.1,80.4685,7.89617,5.61042e+10,1.04164,0.967675,955,8.01488,21,0.001,3
app_48,533.356,21624.6,7608.09,266.832,7.16775,1.98607e+11,1.02476,0.967675,1049,24.9448,19,0.001,3
app_49,538.985,21488.8,7573.1,242.888,7.26472,1.7511e+11,1.0325,0.967675,1087,21.8887,19,0.001,3
app_5,2.60202,19142.1,7898.6,97.6992,987.172,2.99414e+10,1.00901,0.967675,8,0.0303358,2360,0.1,1
app_50,779.608,21898.6,7663.4,92.8619,8.48078,7.03825e+10,1.03442,0.967675,930,8.79781,22,0.001,3
app_51,664.958,21994.1,7656.3,151.483,7.09401,1.07691e+11,1.0304,0.967675,1062,15.3844,19,0.001,3
app_52,1017.58,21940.5,7801.1,37.3554,7.44665,3.03723e+10,1.02152,0.967675,1077,4.3389,19,0.001,3
app_53,986.766,21696.6,7779.7,29.6787,7.57054,2.10439e+10,1.02554,0.967675,1003,2.63049,20,0.001,3
app_54,26.5986,20978,7705.2,52.9776,9.25255,3.78193e+10,1.03319,0.967675,857,4.20215,24,0.001,3
app_55,586.106,21300.1,7513.2,235.327,8.25934,1.68778e+11,1.0414,0.967675,893,18.7532,22,0.001,3
app_56,722.631,21867.1,7748.8,61.7643,8.7397,4.57469e+10,1.02636,0.967675,885,5.08299,23,0.001,3
app_57,172.617,20750.9,7752.58,60.0833,8.22213,3.73678e+10,1.02696,0.967675,972,4.67097,21,0.001,3
app_58,1013.13,21977.4,7654.5,193.952,7.41136,1.46209e+11,1.02555,0.967675,1012,18.2761,20,0.001,3
app_59,683.541,21882.1,7572.2,159.597,7.01492,1.0512e+11,1.04203,0.967675,1053,15.0171,19,0.001,3
app_6,11.1533,19955.6,7959.8,15.5197,76.3699,1.01663e+10,1.00377,0.967675,105,0.13203,190,0.01,2
app_60,825.59,21728.7,7573.1,295.349,7.29277,2.14813e+11,1.02723,0.967675,1057,26.8516,19,0.001,3
app_7,67.3165,20174.1,7789.41,183.761,82.12,1.61411e+11,1.00619,0.967675,94,1.95336,208,0.01,2
app_8,59.1901,20102.9,7952.5,17.1155,82.4325,1.15228e+10,1.00452,0.967675,96,0.138829,207,0.01,2
app_9,64.9866,20155.2,7855.9,125.727,69.8573,1.10061e+11,1.00427,0.967675,114,1.58661,174,0.01,2
