app_id,start_app,end_app,effective_cpu,effective_io,effective_iter,total_bytes,stretch,utilization,Tcomp,Tio,iterations,priority,group_id
app_1,6.36377,19816.1,7689.6,241.224,771.984,1.00674e+11,1.02692,0.961615,10,0.130407,1910,1,1
app_10,27.4123,20328.3,7743.6,146.948,80.4095,7.97896e+10,1.02257,0.961615,96,0.985057,205,1,2
app_11,11.1392,20249.8,7639.7,252.534,95.2245,1.37612e+11,1.02863,0.961615,81,1.44854,240,1,2
app_12,10.972,20441.3,7799.8,105.835,76.4623,5.73775e+10,1.01818,0.961615,101,0.754967,197,1,2
app_13,16.7685,20209.9,7795.3,78.0522,74.9715,4.17084e+10,1.0208,0.961615,105,0.556112,189,1,2
app_14,86.6664,20492,7884.4,50.2382,76.403,2.47794e+10,1.01148,0.961615,103,0.326044,193,1,2
app_15,84.736,20558.8,7639.8,252.519,86.9635,1.37682e+11,1.02861,0.961615,88,1.58256,223,1,2
app_16,87.7964,20275.3,7750.7,155.95,90.1059,8.6101e+10,1.02082,0.961615,87,0.956678,226,1,2
app_17,0.936727,20619.9,7598.3,313.848,83.0192,1.74535e+11,1.02923,0.961615,91,2.10284,214,1,2
app_18,27.127,20422.9,7711,213.46,70.6801,1.15996e+11,1.0221,0.961615,110,1.65709,179,1,2
app_19,7.79583,20241.5,7860.19,39.3059,86.9888,1.9019e+10,1.01533,0.961615,90,0.218609,220,1,2
app_2,3.69015,18946.4,7864.9,72.8396,716.581,1.8004e+10,1.01485,0.961615,11,0.0251101,1696,1,1
app_20,84.9082,20656.1,7706.9,210.079,74.9542,1.08247e+11,1.02365,0.961615,103,1.45625,192,1,2
app_21,18.2338,20037.2,7836,100.132,71.618,5.41034e+10,1.01393,0.961615,111,0.751436,178,1,2
app_22,9.67198,20515.6,7682.7,215.479,79.5791,1.22661e+11,1.02494,0.961615,96,1.53326,205,1,2
app_23,8.83915,20564.2,7584.5,352.676,75.3383,1.92656e+11,1.02865,0.961615,100,2.53495,194,1,2
app_24,58.9268,20667.2,7660.4,246.362,78.6761,1.39774e+11,1.02562,0.961615,97,1.76929,203,1,2
app_25,55.5273,20455.7,7744.8,176.267,67.8463,1.01947e+11,1.01953,0.961615,115,1.5216,172,1,2
app_26,34.6426,20742.1,7633.3,233.302,94.4349,1.26119e+11,1.031,0.961615,80,1.34169,245,1,2
app_27,84.5563,20552.6,7651.9,224.183,89.3774,1.1846e+11,1.02955,0.961615,86,1.33101,227,1,2
app_28,83.8481,20402.5,7862.7,31.059,73.0729,1.42484e+10,1.01562,0.961615,107,0.195184,186,1,2
app_29,74.5105,20524.6,7589.65,336.892,73.2181,1.88138e+11,1.02857,0.961615,104,2.57378,187,1,2
app_3,7.61318,20376,7480.6,465.58,747.926,2.06606e+11,1.04069,0.961615,10,0.276211,1907,1,1
app_30,805.411,22059.7,7688.8,101.035,6.96526,6.4091e+10,1.03187,0.961615,1091,9.15586,19,1,3
app_31,696.979,21768.4,7681.2,265.897,7.90895,1.6413e+11,1.01971,0.961615,964,20.5162,21,1,3
app_32,583.171,21618.9,7576.7,147.729,8.04098,9.38079e+10,1.04296,0.961615,920,11.726,22,1,3
app_33,198.815,20581.6,7626.5,251.108,7.37049,1.5403e+11,1.02821,0.961615,1043,22.0042,19,1,3
app_34,276.872,21011.9,7817.8,86.217,7.62776,5.66462e+10,1.01594,0.961615,999,7.08078,20,1,3
app_35,162.175,21204.5,7605.7,288.303,7.69737,1.95e+11,1.02555,0.961615,992,24.375,20,1,3
app_36,222.559,21627.5,7707.7,55.0006,8.59826,3.43293e+10,1.03332,0.961615,899,4.29116,23,1,3
app_37,414.21,20856.6,7567.6,191.947,7.4391,1.34853e+11,1.03863,0.961615,1040,19.2648,19,1,3
app_38,948.862,22128.9,7916.8,42.7184,7.57871,3.03879e+10,1.00665,0.961615,1027,3.79848,20,1,3
app_39,466.38,21901.9,7603.7,146.806,8.29588,9.34914e+10,1.03934,0.961615,939,11.6864,22,1,3
app_4,1.48626,19626.4,7675.4,252.802,851.708,9.01435e+10,1.03019,0.961615,9,0.105802,2090,1,1
app_40,507.545,21356.7,7848,80.5009,7.76728,5.21801e+10,1.01264,0.961615,1014,7.45431,20,1,3
app_41,373.07,20689.3,7816.1,66.8998,7.87683,4.36061e+10,1.01785,0.961615,1007,5.45076,20,1,3
app_42,900.947,22416.6,7582.2,91.7383,7.61914,5.96582e+10,1.04687,0.961615,981,8.52261,21,1,3
app_43,164.566,20633.3,7489.2,305.65,7.90851,1.90389e+11,1.04172,0.961615,982,23.7987,20,1,3
app_44,527.599,21327.1,7698.4,51.8819,9.89271,3.42894e+10,1.03457,0.961615,778,3.80993,26,1,3
app_45,370.92,21640.6,7747.5,163.06,7.26715,1.01336e+11,1.01926,0.961615,1067,12.667,19,1,3
app_46,473.118,21830.1,7832.9,55.8038,6.62268,3.2243e+10,1.01715,0.961615,1159,4.60614,18,1,3
app_47,93.776,21004.7,7638.7,197.881,8.65418,1.25479e+11,1.03037,0.961615,863,13.9421,23,1,3
app_48,300.666,20803.9,7694.2,80.4515,7.78975,5.20482e+10,1.03276,0.961615,995,6.50602,20,1,3
app_49,69.1757,21522,7753.2,114.7,8.21917,7.79325e+10,1.02156,0.961615,931,9.74157,22,1,3
app_5,8.83134,19366.4,7850,68.7271,784.84,2.58167e+09,1.01877,0.961615,10,0.00328875,1903,1,1
app_50,812.521,21747.9,7505.7,158.49,7.50465,9.66625e+10,1.0523,0.961615,993,13.8089,20,1,3
app_51,627.073,21927,7560,285.922,8.15734,1.84599e+11,1.03298,0.961615,906,23.0749,22,1,3
app_52,398.664,21412.6,7712.6,99.1797,6.80358,6.34569e+10,1.0288,0.961615,1138,9.06527,18,1,3
app_53,455.413,21534.6,7615.7,162.074,9.18588,1.12613e+11,1.03515,0.961615,798,12.5125,25,1,3
app_54,818.267,22125,7632.3,270.66,8.33236,1.74143e+11,1.02479,0.961615,907,21.7679,22,1,3
app_55,457.551,21856.9,7918.5,2.11958,8.76875,1.68298e+09,1.01008,0.961615,901,0.186998,23,1,3
app_56,727.029,22043.4,7703,263.51,7.82643,1.78071e+11,1.01509,0.961615,954,25.4387,21,1,3
app_57,250.109,21791.5,7530.9,274.693,7.40737,1.61617e+11,1.03997,0.961615,1009,23.0881,20,1,3
app_58,683.747,21447.2,7665.5,272.448,8.2275,1.83768e+11,1.0192,0.961615,939,22.971,21,1,3
app_59,301.538,21734,7640.3,285.363,7.59951,1.80236e+11,1.02295,0.961615,1024,25.748,20,1,3
app_6,0.0872349,18691.6,7805.9,112.807,867.944,3.04823e+10,1.02088,0.961615,9,0.0351178,2027,1,1
app_60,387.138,21707.8,7801.8,161.803,7.61289,1.02202e+11,1.01215,0.961615,984,12.7752,21,1,3
app_7,4.12251,19129.6,7579.3,372.655,688.806,1.65395e+11,1.03297,0.961615,11,0.24005,1650,1,1
app_8,7.22572,18555,7606.2,322.665,952.869,1.33179e+11,1.03367,0.961615,8,0.139747,2206,1,1
app_9,6.55074,18725.6,7468.5,468.272,933.753,1.96873e+11,1.04365,0.961615,8,0.210784,2187,1,1
