app_id,start_app,end_app,effective_cpu,effective_io,effective_iter,total_bytes,stretch,utilization,Tcomp,Tio,iterations,priority,group_id
app_1,3.7153,27499.2,4444.66,43.4823,494.999,1.46707e+10,1.79399,0.885001,9,0.0296379,2027,1,1
app_10,85.241,22341.6,6951,140.732,69.2681,1.37926e+11,1.12852,0.885001,100,1.99893,195,1,1
app_11,53.5999,22292.6,7120.58,19.7014,66.6734,1.56335e+10,1.12104,0.885001,105,0.233335,189,1,1
app_12,82.3361,22383.3,7003.9,48.4226,80.9224,4.41536e+10,1.13507,0.885001,86,0.545107,229,1,1
app_13,37.622,22705.3,6877.7,104.179,84.4418,1.0075e+11,1.14639,0.885001,81,1.1853,242,1,1
app_14,78.1077,22471.8,6964.83,61.3889,67.1044,5.81113e+10,1.13912,0.885001,103,0.854579,192,1,1
app_15,95.2167,22196.8,7030.7,108.169,71.9225,1.04613e+11,1.12118,0.885001,98,1.45296,200,1,1
app_16,59.2556,22362.5,6955.3,83.4304,84.9617,7.87234e+10,1.13733,0.885001,82,0.926158,240,1,1
app_17,0.259437,22181,6909.8,169.664,70.847,1.66489e+11,1.13054,0.885001,98,2.34491,199,1,1
app_18,59.9449,22205.6,6965.5,156.899,67.3691,1.53544e+11,1.12375,0.885001,103,2.258,190,1,1
app_19,38.5918,21959,7045.26,146.841,65.4191,1.44314e+11,1.11272,0.885001,108,2.18658,181,1,1
app_2,4.58719,28174,4553.49,50.7365,453.926,3.089e+10,1.74506,0.885001,10,0.0680397,1919,1,1
app_20,32.6234,22470.3,6975.7,53.2373,84.1879,4.97023e+10,1.13872,0.885001,83,0.584733,237,1,1
app_21,48.2143,22361.2,6929.6,78.2259,77.4302,7.45783e+10,1.14218,0.885001,90,0.956132,219,1,1
app_22,21.6753,22395.9,6896.36,191.467,85.6688,1.8813e+11,1.12923,0.885001,80,2.18756,242,1,1
app_23,41.2832,22288.8,6945.1,177.172,70.7375,1.73607e+11,1.1238,0.885001,98,2.44517,198,1,1
app_24,21.9223,22000.8,7109.67,117.709,64.6113,1.1446e+11,1.1074,0.885001,110,1.76093,178,1,1
app_25,53.9492,22386,7042.2,68.0095,70.622,6.40596e+10,1.12577,0.885001,100,0.902248,199,1,1
app_26,62.6679,22382.2,7082.82,14.5142,73.2074,1.09366e+10,1.12775,0.885001,97,0.149817,204,1,1
app_27,8.55992,22070.6,6901.5,140.046,76.9023,1.36864e+11,1.13663,0.885001,91,1.77745,214,1,1
app_28,35.5899,22334.2,7061.88,41.6182,81.9863,3.75502e+10,1.12685,0.885001,87,0.457929,227,1,1
app_29,378.038,21561.4,7721.8,215.104,6.69004,2.14831e+11,1.00798,0.885001,1131,30.6901,18,1,1
app_3,5.36051,28013.1,4502.3,77.3398,448.975,4.76536e+10,1.75826,0.885001,10,0.106133,1883,1,1
app_30,754.972,21374.2,7769.46,188.835,7.7567,1.8847e+11,1.00529,0.885001,989,24.4819,20,1,1
app_31,221.313,21601.1,7694.4,123.132,9.24584,1.22697e+11,1.0234,0.885001,817,13.633,25,1,1
app_32,486.135,21163,7816.9,85.8839,7.79872,8.55684e+10,1.01234,0.885001,1010,10.6961,20,1,1
app_33,326.243,20701,7779.2,101.069,9.70695,1.00654e+11,1.01525,0.885001,789,11.1837,25,1,1
app_34,643.404,21575.1,7877.7,4.2385,7.3913,3.85466e+09,1.01503,0.885001,1070,0.481833,19,1,1
app_35,690.782,21586.8,7822.7,89.6811,8.58466,8.92363e+10,1.01113,0.885001,921,9.91515,22,1,1
app_36,1072.13,20728.1,7888.6,97.2766,7.20311,9.68892e+10,1.00182,0.885001,1101,13.8413,18,1,1
app_37,579.552,21238.9,7681.7,168.553,9.04253,1.68234e+11,1.01912,0.885001,874,18.6926,23,1,1
app_38,709.572,22274.2,7765.3,138.499,7.42271,1.37998e+11,1.01224,0.885001,1015,17.2498,20,1,1
app_39,41.2562,20443.3,7864.5,26.9277,8.67893,2.64583e+10,1.01382,0.885001,918,2.93981,22,1,1
app_4,2.4674,27831.7,4553.72,53.0947,458.25,3.42394e+10,1.7437,0.885001,10,0.0747586,1886,1,1
app_40,837.746,21766.9,7778.8,140.441,6.83137,1.40089e+11,1.01024,0.885001,1128,20.0128,18,1,1
app_41,75.5379,21431.9,7847.8,42.2556,7.84661,4.18635e+10,1.01398,0.885001,975,5.23294,21,1,1
app_42,468.946,20741.8,7789.9,66.3602,7.88271,6.61009e+10,1.01833,0.885001,1006,8.26261,20,1,1
app_43,80.167,21176.4,7811.9,111.875,10.3435,1.11491e+11,1.00967,0.885001,754,11.1491,27,1,1
app_44,998.364,22030.1,7756.6,137.603,7.5378,1.37243e+11,1.01345,0.885001,1019,17.1554,20,1,1
app_45,147.006,21419.4,7866.1,14.783,8.94164,1.41971e+10,1.01519,0.885001,907,1.57746,23,1,1
app_46,586.742,21779.2,7892.3,26.1244,9.05461,2.56156e+10,1.01037,0.885001,857,2.84618,24,1,1
app_47,346.885,20926.9,7729.2,134.502,10.7129,1.34063e+11,1.01739,0.885001,736,13.0945,27,1,1
app_48,217.465,21014,7718.3,219.03,7.60247,2.18731e+11,1.00793,0.885001,1000,27.3414,20,1,1
app_49,508.005,21105.7,7789.6,112.166,7.86608,1.11814e+11,1.01248,0.885001,1003,13.9767,20,1,1
app_5,4.79295,27591.6,4347.1,59.1315,540.999,3.46672e+10,1.82575,0.885001,8,0.0640798,2255,1,1
app_50,289.257,20733.5,7784.9,48.0146,8.08003,4.76535e+10,1.02138,0.885001,949,5.29483,21,1,1
app_51,610.371,20507.5,7799.9,140.057,7.86901,1.39742e+11,1.0076,0.885001,987,17.4678,20,1,1
app_52,133.129,21334,7732.4,208.998,7.62855,2.0869e+11,1.00742,0.885001,1020,26.0863,20,1,1
app_53,170.355,20400.2,7771.7,153.54,7.65977,1.53065e+11,1.00949,0.885001,989,21.8664,20,1,1
app_54,594.788,21216.7,7837,87.2309,7.8762,8.68117e+10,1.00962,0.885001,996,10.8515,20,1,1
app_55,987.587,21394.6,7850.6,12.2209,7.34573,1.18515e+10,1.01749,0.885001,1068,1.48144,19,1,1
app_56,766.229,21138.2,7776.6,202.946,7.39219,2.02564e+11,1.00261,0.885001,1054,28.9378,19,1,1
app_57,382.671,21275.6,7720.5,173.513,7.93338,1.73117e+11,1.01348,0.885001,945,21.6396,21,1,1
app_58,749.088,21493.8,7763.6,104.547,8.81557,1.04083e+11,1.01682,0.885001,872,11.5647,23,1,1
app_59,122.972,21627.8,7929.4,17.4467,7.67902,1.69309e+10,1.00675,0.885001,996,2.11636,21,1,1
app_6,0.738369,28613,4408.14,144.458,488.003,1.18011e+11,1.76751,0.885001,9,0.241826,2108,1,1
app_60,311.734,21621.5,7775.1,135.077,7.05393,1.3466e+11,1.01141,0.885001,1088,16.8325,19,1,1
app_7,7.77307,28132.6,4436.35,86.035,493.992,5.50804e+10,1.78117,0.885001,9,0.111499,2084,1,1
app_8,9.38876,27666.7,4469.82,56.3589,495.997,3.57039e+10,1.7756,0.885001,9,0.0719837,2044,1,1
app_9,96.2419,22076.4,6910.97,155.958,65.6739,1.52374e+11,1.13261,0.885001,105,2.3087,186,1,1
