app_id,start_app,end_app,effective_cpu,effective_io,effective_iter,total_bytes,stretch,utilization,Tcomp,Tio,iterations,priority,group_id
app_1,1.73005,25128.2,5735.37,53.9173,717.723,1.19095e+10,1.39196,0.852294,8,0.016587,2391,1,1
app_10,9.72084,23907.1,5798.3,195.11,581.044,1.72007e+11,1.33996,0.852294,10,0.296053,1800,1,1
app_11,4.58908,24418.2,5537.4,160.156,793.732,1.2102e+11,1.41382,0.852294,7,0.152611,2554,1,1
app_12,7.05506,24375.1,5715.09,61.4533,711.817,2.13889e+10,1.39458,0.852294,8,0.0300406,2286,1,1
app_13,7.22254,24013.8,5547.83,160.039,793.825,1.21607e+11,1.41107,0.852294,7,0.153158,2501,1,1
app_14,1.68797,25150.4,5898.34,64.5546,590.001,3.61282e+10,1.34806,0.852294,10,0.0612342,1954,1,1
app_15,1.23992,25478.5,5540.69,182.589,789.993,1.53031e+11,1.40506,0.852294,7,0.19371,2693,1,1
app_16,9.80798,24233.5,5738.73,149.277,635.008,1.25862e+11,1.36412,0.852294,9,0.198209,2022,1,1
app_17,0.189509,24513.4,5817.07,55.925,648.308,2.05469e+10,1.37042,0.852294,9,0.0316592,2080,1,1
app_18,3.38661,24883.4,5765.86,118.198,641.088,8.2579e+10,1.36789,0.852294,9,0.128628,2108,1,1
app_19,6.74524,24542.8,5706.61,197.392,633.002,1.66842e+11,1.36206,0.852294,9,0.263574,2047,1,1
app_2,4.403,23859.3,5814.9,135.535,579.526,1.13457e+11,1.34945,0.852294,10,0.195953,1808,1,1
app_20,2.01991,24712.9,5861.39,144.668,535.004,1.14504e+11,1.33871,0.852294,11,0.214025,1730,1,1
app_21,2.79177,24362.7,5796.61,170.089,581.528,1.3861e+11,1.34789,0.852294,10,0.238161,1849,1,1
app_22,9.22399,25343.2,5779.38,66.1986,640.007,3.47418e+10,1.37596,0.852294,9,0.054284,2163,1,1
app_23,3.90189,23904.7,5538,169.853,791.658,1.3238e+11,1.41084,0.852294,7,0.167357,2477,1,1
app_24,1.40449,23879.8,5777.55,208.273,575.316,1.7301e+11,1.34441,0.852294,10,0.300365,1787,1,1
app_25,3.4742,24147.9,5918.04,62.8709,538.555,3.85342e+10,1.34305,0.852294,11,0.0714921,1694,1,1
app_26,0.329079,24598.4,5914.99,66.8616,535.006,4.23801e+10,1.34287,0.852294,11,0.0792151,1730,1,1
app_27,69.3144,21204,7426.6,124.069,80.6292,1.20947e+11,1.05995,0.852294,94,1.49317,210,1,1
app_28,64.7876,21055.9,7495.51,14.449,71.0968,1.07269e+10,1.06578,0.852294,106,0.148984,188,1,1
app_29,44.5928,21359.6,7407.4,124.156,84.3762,1.1876e+11,1.06296,0.852294,87,1.41381,226,1,1
app_3,7.95817,24117.7,5841.43,118.653,581.856,8.89248e+10,1.34899,0.852294,10,0.153055,1829,1,1
app_30,74.7389,21506.1,7402.3,57.607,95.1288,5.31061e+10,1.07305,0.852294,78,0.559011,255,1,1
app_31,82.0905,21246.9,7405.1,175.336,75.0647,1.72078e+11,1.0558,0.852294,97,2.29438,201,1,1
app_32,73.3092,21007.5,7528.55,91.7752,75.9992,8.80915e+10,1.05033,0.852294,99,1.1591,198,1,1
app_33,40.3886,21114,7425.77,195.395,79.1392,1.91943e+11,1.05018,0.852294,95,2.39928,205,1,1
app_34,8.6833,21019.7,7596.5,10.9673,58.2044,7.65023e+09,1.05206,0.852294,130,0.131901,154,1,1
app_35,116.188,20893,7653.3,39.7942,62.8711,3.72499e+10,1.04024,0.852294,122,0.591268,163,1,1
app_36,36.7599,21265.3,7403.41,58.8214,76.7475,5.49354e+10,1.07262,0.852294,96,0.722834,207,1,1
app_37,0.305067,21279.4,7340.9,73.5742,92.7991,6.88634e+10,1.07966,0.852294,79,0.740467,248,1,1
app_38,0.909437,21100.9,7654.7,52.2015,70.4943,4.92435e+10,1.03843,0.852294,107,0.69357,185,1,1
app_39,26.8683,21016.5,7503.34,58.5138,67.2498,5.48512e+10,1.05845,0.852294,111,0.809893,178,1,1
app_4,4.2627,24743.6,5781.24,183.958,579.551,1.57769e+11,1.34703,0.852294,10,0.272015,1883,1,1
app_40,76.7643,20914.1,7493,65.1436,73.0318,6.15708e+10,1.05896,0.852294,103,0.843436,192,1,1
app_41,37.9294,20906.8,7532.12,100.475,70.0222,9.73886e+10,1.04856,0.852294,108,1.37167,182,1,1
app_42,47.1607,21382.6,7339.6,149.106,67.8291,1.45256e+11,1.06882,0.852294,109,2.13611,180,1,1
app_43,33.8825,20885,7566.6,90.5599,66.2873,8.66704e+10,1.0453,0.852294,114,1.31319,173,1,1
app_44,45.224,21139.9,7423.8,77.1681,77.7702,7.28667e+10,1.06714,0.852294,95,0.934188,207,1,1
app_45,23.2044,21158.7,7442.5,117.805,92.6049,1.12961e+11,1.05884,0.852294,80,1.21463,246,1,1
app_46,52.0413,21244.6,7381.73,99.2511,78.1508,9.48281e+10,1.07001,0.852294,94,1.2112,210,1,1
app_47,685.486,20973,7865.6,127.311,7.10087,1.26945e+11,1.00093,0.852294,1116,18.135,18,1,1
app_48,564.609,22008.4,7873.4,85.3306,7.80614,8.48219e+10,1.00525,0.852294,988,10.6027,21,1,1
app_49,112.051,20594.5,7942.5,52.5584,7.34422,5.22336e+10,1.00066,0.852294,1070,7.46195,19,1,1
app_5,1.3948,25006.9,5814.39,79.9509,647.127,5.17142e+10,1.36377,0.852294,9,0.0798059,2130,1,1
app_50,642.549,21238.5,7721.4,215.222,8.36222,2.14747e+11,1.00805,0.852294,915,23.8608,22,1,1
app_51,117.388,20841.2,7746.4,204.168,8.61133,2.03793e+11,1.00626,0.852294,922,25.4742,22,1,1
app_52,740.471,22153.9,7728.6,160.966,6.89321,1.60711e+11,1.01403,0.852294,1085,22.9587,19,1,1
app_53,237.538,20431.9,7822.1,159.532,7.2643,1.59018e+11,1.00237,0.852294,1043,22.7169,19,1,1
app_54,240.319,20247.9,7771.7,191.235,7.19247,1.90904e+11,1.0047,0.852294,1092,27.272,18,1,1
app_55,76.1299,20404.7,7812.5,144.847,7.49723,1.44368e+11,1.00542,0.852294,1059,18.046,19,1,1
app_56,729.963,21430.3,7880.6,22.0475,8.26474,2.16161e+10,1.01237,0.852294,984,2.70202,21,1,1
app_57,786.862,21004.8,7819.2,108.716,7.84709,1.08344e+11,1.00914,0.852294,1012,13.543,20,1,1
app_58,876.581,21375.3,7903.9,82.2424,7.87772,8.17595e+10,1.0018,0.852294,1025,11.6799,20,1,1
app_59,1019.19,21315,7887.5,78.2494,7.55901,7.77546e+10,1.00436,0.852294,1064,9.71932,19,1,1
app_6,1.9726,25128.7,5896.32,52.7119,591.09,2.08543e+10,1.352,0.852294,10,0.0352268,1951,1,1
app_60,235.942,20450.3,7927.8,42.0958,6.90061,4.18868e+10,1.0038,0.852294,1107,5.98383,18,1,1
app_7,2.42791,24208.3,5857,119.291,584.83,8.94063e+10,1.34535,0.852294,10,0.153093,1846,1,1
app_8,6.03834,24562.3,5725.32,63.9006,715.815,2.3586e+10,1.39157,0.852294,8,0.0329413,2318,1,1
app_9,0.420502,24601.4,5857.56,60.8354,585.505,3.25461e+10,1.35821,0.852294,10,0.0555394,1892,1,1
