app_id,start_app,end_app,effective_cpu,effective_io,effective_iter,total_bytes,stretch,utilization,Tcomp,Tio,iterations,priority,group_id
app_1,6.10776,20065.6,7909,73.2613,721.522,3.93865e+10,1.00649,0.967975,11,0.0545519,1802,0.1,1
app_10,5.87229,19991.1,7750,234.381,776.315,1.91897e+11,1.00732,0.967975,10,0.24729,1939,0.1,1
app_11,74.2011,20226.1,7726.5,240.062,70.4787,1.88926e+11,1.01068,0.967975,110,2.69895,178,0.01,2
app_12,59.0209,20273,7918.3,26.3656,79.1561,1.58562e+10,1.0083,0.967975,100,0.200711,200,0.01,2
app_13,51.529,20221.9,7886,73.8935,86.6253,5.65891e+10,1.00723,0.967975,91,0.658012,218,0.01,2
app_14,37.0524,20267.9,7777.3,194.664,71.1895,1.52442e+11,1.00886,0.967975,109,2.11726,180,0.01,2
app_15,28.7604,20207.5,7901.8,54.5096,78.0408,4.09466e+10,1.00721,0.967975,100,0.524956,198,0.01,2
app_16,18.9858,19903.5,7835.1,131.784,73.0791,1.03491e+11,1.00774,0.967975,108,1.41768,182,0.01,2
app_17,31.6268,20349.1,7738.9,224.577,72.975,1.76134e+11,1.01073,0.967975,105,2.4128,185,0.01,2
app_18,42.9635,20243.9,7811.4,143.013,89.7735,1.08053e+11,1.01017,0.967975,87,1.20059,225,0.01,2
app_19,13.6533,20213.7,7817.9,124.749,81.0297,9.7317e+10,1.01071,0.967975,96,1.20144,206,0.01,2
app_2,5.7419,19398.8,7811.4,167.391,868.651,9.12859e+10,1.01231,0.967975,9,0.105047,2104,0.1,1
app_20,28.9938,20054.4,7838.5,115.087,95.1203,8.90804e+10,1.00914,0.967975,83,0.937688,238,0.01,2
app_21,81.8249,20105.8,7937.4,32.1129,70.2451,2.23385e+10,1.00506,0.967975,112,0.314626,177,0.01,2
app_22,45.9013,20189.4,7749.2,214.982,69.3967,1.66248e+11,1.01068,0.967975,112,2.40939,174,0.01,2
app_23,58.4967,20350.5,7842.9,115.036,69.7128,8.69297e+10,1.00885,0.967975,111,1.24185,178,0.01,2
app_24,65.5989,20191.2,7810.5,156.856,78.5195,1.22037e+11,1.0085,0.967975,100,1.54477,196,0.01,2
app_25,61.8402,20108.7,7762.7,204.98,79.2696,1.62692e+11,1.00941,0.967975,98,2.05939,200,0.01,2
app_26,96.1859,20174.2,7918.4,56.1289,72.465,3.97941e+10,1.00525,0.967975,110,0.545124,181,0.01,2
app_27,28.1939,20143.5,7808.9,141.8,88.298,1.09871e+11,1.01026,0.967975,88,1.2345,222,0.01,2
app_28,12.8276,20222.2,7922.2,30.3804,85.8115,1.7941e+10,1.00754,0.967975,94,0.211071,213,0.01,2
app_29,78.0177,20346.3,7770.8,208.846,67.9924,1.63067e+11,1.00834,0.967975,114,2.39804,172,0.01,2
app_3,9.45463,19509,7837.3,143.966,711.017,1.12411e+11,1.00633,0.967975,11,0.158103,1735,0.1,1
app_30,75.8415,20270.5,7834.2,138.686,88.592,1.0824e+11,1.00725,0.967975,88,1.21618,224,0.01,2
app_31,186.507,20868,7550.2,121.163,8.56437,6.80521e+10,1.05011,0.967975,876,7.56134,23,0.001,3
app_32,193.523,20772.4,7652.6,114.633,7.66608,6.01434e+10,1.03724,0.967975,1000,7.51793,20,0.001,3
app_33,775.478,21619.7,7666.2,148.938,8.84384,9.73457e+10,1.03046,0.967975,879,10.8162,23,0.001,3
app_34,188.023,21094.8,7727.9,30.6603,7.59224,2.12095e+10,1.03238,0.967975,1034,2.65118,20,0.001,3
app_35,937.848,21599.1,7758.9,126.566,8.16685,8.28639e+10,1.02018,0.967975,947,10.358,21,0.001,3
app_36,951.113,22149.3,7726.3,123.105,7.61194,7.48541e+10,1.02549,0.967975,1025,9.35677,20,0.001,3
app_37,371.79,21044.7,7629.5,221.733,8.45785,1.28123e+11,1.03124,0.967975,903,14.2359,22,0.001,3
app_38,282.538,21540.1,7577.9,216.511,7.51973,1.11575e+11,1.04038,0.967975,1023,15.9393,20,0.001,3
app_39,755.523,21875.9,7662.6,180.862,7.91014,1.13232e+11,1.02883,0.967975,977,14.154,21,0.001,3
app_4,3.40334,19429.3,7753.5,230.626,772.848,1.79529e+11,1.00844,0.967975,10,0.23225,1884,0.1,1
app_40,356.156,21667.8,7724.3,189.976,7.99367,1.18167e+11,1.02009,0.967975,970,14.7709,21,0.001,3
app_41,710.419,21267.5,7571.7,221.593,8.64471,1.35015e+11,1.03806,0.967975,894,15.0017,22,0.001,3
app_42,432.736,21560.9,7706.2,217.246,6.48737,1.2457e+11,1.02161,0.967975,1183,20.7617,17,0.001,3
app_43,40.2249,21009.5,7432.6,271.62,8.49017,1.76803e+11,1.05133,0.967975,875,19.6448,23,0.001,3
app_44,598.881,21883.5,7688.7,119.76,9.52872,6.69177e+10,1.03151,0.967975,809,7.43531,25,0.001,3
app_45,443.968,20722.8,7727.06,180.757,6.92543,1.10597e+11,1.02071,0.967975,1097,16.1122,18,0.001,3
app_46,140.218,20706.6,7728.9,86.3174,7.36724,4.09695e+10,1.02962,0.967975,1055,5.85278,19,0.001,3
app_47,280.714,21861.7,7524.7,286.336,7.85777,1.83235e+11,1.03789,0.967975,962,22.9044,21,0.001,3
app_48,42.194,21730.8,7651,284.016,6.8749,1.67135e+11,1.02326,0.967975,1133,23.8764,18,0.001,3
app_49,692.599,21163,7675.4,269.722,9.02957,1.67333e+11,1.02005,0.967975,852,18.5925,23,0.001,3
app_5,9.38092,19148.4,7901.9,72.035,789.184,1.00506e+10,1.01113,0.967975,10,0.0127223,1889,0.1,1
app_50,652.195,21339.7,7755.9,217.396,8.94018,1.26041e+11,1.01498,0.967975,876,15.7551,23,0.001,3
app_51,278.59,20785.5,7767.5,170.814,7.32882,9.11549e+10,1.01799,0.967975,1061,13.0221,19,0.001,3
app_52,522.524,21565.3,7782.2,50.9687,7.18936,3.4322e+10,1.02347,0.967975,1087,4.29025,19,0.001,3
app_53,886.795,21144.4,7616.3,145.938,7.91417,8.83015e+10,1.03834,0.967975,991,11.0377,20,0.001,3
app_54,261.368,21647.1,7714.3,140.922,8.21815,8.03004e+10,1.02635,0.967975,932,8.92227,22,0.001,3
app_55,542.205,21177.1,7623.2,195.765,7.718,1.12073e+11,1.03422,0.967975,998,14.0091,20,0.001,3
app_56,394.678,21022.9,7627.9,204.022,9.17612,1.20614e+11,1.03246,0.967975,822,13.4015,24,0.001,3
app_57,689.578,21965.3,7713.3,154.017,9.36116,9.7083e+10,1.02428,0.967975,818,10.787,25,0.001,3
app_58,823.837,21821.5,7638.4,296.511,7.587,1.76127e+11,1.02373,0.967975,1030,22.0159,20,0.001,3
app_59,960.169,22676.7,7593.4,190.521,7.1431,1.22542e+11,1.03681,0.967975,1026,17.5061,20,0.001,3
app_6,10.027,19873.1,7901.9,77.8047,719.813,6.20302e+10,1.00453,0.967975,11,0.0861531,1785,0.1,1
app_60,122.088,21588.7,7688.9,67.5671,7.24354,4.11802e+10,1.03492,0.967975,1022,5.88288,20,0.001,3
app_7,6.71241,18071.3,7720.9,257.924,1101.56,2.10126e+11,1.0087,0.967975,7,0.190677,2489,0.1,1
app_8,6.77076,18883.6,7804.1,173.352,870.26,1.2057e+11,1.00951,0.967975,9,0.138586,2052,0.1,1
app_9,1.48328,18614.2,7725.3,254.619,857.839,1.87678e+11,1.011,0.967975,9,0.218739,1996,0.1,1
