app_id,start_app,end_app,effective_cpu,effective_io,effective_iter,total_bytes,stretch,utilization,Tcomp,Tio,iterations,priority,group_id
app_1,5.9143,19965.9,7697.9,302.1,853.427,1.72063e+11,1.01652,0.961592,9,0.201715,2131,0.106522,1
app_10,6.7305,20094.8,7725.8,274.2,966.276,1.68682e+11,1.01337,0.961592,8,0.174619,2424,0.121195,1.00001
app_11,5.43638,18731.3,7805.5,194.5,868.317,9.13837e+10,1.01306,0.961592,9,0.10516,2031,0.101537,1.00001
app_12,4.44392,18727.6,7784.2,215.8,863.278,1.20773e+11,1.01202,0.961592,9,0.139945,2021,0.101011,1.00001
app_13,5.07616,18615,7830.7,169.3,977.857,9.07935e+10,1.00991,0.961592,8,0.0928359,2278,0.113875,1.00001
app_14,9.51186,20218.5,7813.2,186.8,781.893,9.26978e+10,1.0119,0.961592,10,0.118539,1976,0.0987587,1.00001
app_15,9.1046,19908.3,7689.9,310.1,697.536,1.8678e+11,1.01566,0.961592,11,0.267593,1743,0.087112,1.00002
app_16,2.75526,19079.6,7911.8,88.2,880.664,1.72928e+10,1.00894,0.961592,9,0.019651,2098,0.104886,1.00002
app_17,5.58319,19512.4,7799.9,200.1,779.552,1.09854e+11,1.01141,0.961592,10,0.140839,1900,0.0949839,1.00002
app_18,4.2184,19892.7,7700.4,299.6,768.284,1.80019e+11,1.01517,0.961592,10,0.234399,1913,0.0956241,1.00002
app_19,2.74926,19117.8,7912.3,87.7,877.494,3.50289e+09,1.01064,0.961592,9,0.00399418,2099,0.104933,1.00002
app_2,1.99824,19971.2,7720.5,279.5,771.425,1.58727e+11,1.01533,0.961592,10,0.205872,1926,0.0962751,1
app_20,3.2229,19705.9,7877.7,122.3,872.863,6.45866e+10,1.00727,0.961592,9,0.0739823,2153,0.107606,1.00002
app_21,6.54016,19431.8,7919.9,80.1,791.031,1.8979e+10,1.0077,0.961592,10,0.0239937,1923,0.0961489,1.00002
app_22,7.39779,19292.9,7868.5,131.5,871.533,7.13449e+10,1.00758,0.961592,9,0.0818175,2104,0.105157,1.00002
app_23,0.685165,19884.4,7966.3,33.7,75.2026,1.05201e+10,1.00291,0.961592,106,0.140268,187,0.0093426,1.00002
app_24,31.492,20223.5,7750.9,249.1,70.6404,9.6042e+10,1.01951,0.961592,110,1.37203,179,0.0089334,1.00002
app_25,9.45772,20590.5,7699.5,300.5,71.5693,1.37019e+11,1.02086,0.961592,107,1.90304,184,0.00916523,1.00003
app_26,65.7635,20020.7,7956.2,43.8,72.7391,1.46344e+10,1.00366,0.961592,110,0.200471,181,0.00903413,1.00003
app_27,58.0611,20372.2,7719.5,280.5,83.301,1.2288e+11,1.0201,0.961592,92,1.46286,213,0.0106486,1.00003
app_28,2.27098,20610.9,7672.5,327.5,78.7056,1.38519e+11,1.02419,0.961592,97,1.7534,203,0.0101007,1.00003
app_29,26.764,20532,7611.8,388.2,83.3142,1.65501e+11,1.02863,0.961592,91,1.99398,215,0.0107209,1.00003
app_3,1.61832,19365.7,7716.5,283.5,771.81,1.64598e+11,1.01509,0.961592,10,0.21321,1867,0.0933124,1
app_30,110.352,20632.4,7578.7,421.3,68.9414,1.82632e+11,1.03075,0.961592,110,2.64684,178,0.00885274,1.00003
app_31,20.7532,20472.6,7606,394,85.3635,1.8697e+11,1.02657,0.961592,89,2.17407,219,0.0109323,1.00003
app_32,99.1668,20559.3,7644.9,355.1,79.1453,1.56349e+11,1.02548,0.961592,97,1.9791,202,0.0100711,1.00003
app_33,14.1139,20080.8,7895.3,104.7,81.7378,4.5134e+10,1.0075,0.961592,97,0.550414,205,0.0102307,1.00003
app_34,5.93113,20365.8,7681.2,318.8,89.7329,1.45337e+11,1.02216,0.961592,86,1.633,228,0.0113791,1.00003
app_35,59.067,20408.4,7840.3,159.7,72.5439,6.36847e+10,1.01215,0.961592,107,0.872393,185,0.00921938,1.00004
app_36,10.445,20019.6,7972.1,27.9,70.6777,8.20898e+09,1.00247,0.961592,113,0.115619,176,0.00876906,1.00004
app_37,23.9193,20298.5,7833.93,166.069,73.6401,5.86764e+10,1.01361,0.961592,105,0.79632,188,0.00939023,1.00004
app_38,70.1377,20278.9,7779.6,220.4,79.5189,1.00031e+11,1.01528,0.961592,98,1.25039,200,0.00998113,1.00004
app_39,33.5205,20195.4,7845.4,154.6,89.0816,6.64728e+10,1.01114,0.961592,88,0.746886,225,0.0112418,1.00004
app_4,5.81884,18842.8,7903.3,96.7,789.845,3.79569e+10,1.0074,0.961592,10,0.0480468,1860,0.0929822,1
app_40,18.6929,20272.2,7588.8,411.2,77.003,1.8343e+11,1.02931,0.961592,99,2.38221,196,0.0097926,1.00004
app_41,47.5442,20354.6,7737.4,262.6,96.9386,1.19299e+11,1.01824,0.961592,80,1.22989,246,0.0122788,1.00004
app_42,7.85289,20551.6,7759,241,73.7845,1.02392e+11,1.01763,0.961592,103,1.38368,191,0.00952864,1.00004
app_43,157.046,20083.5,7963.02,36.9801,9.13878,6.53025e+09,1.00382,0.961592,881,0.689423,23,0.00113416,1.00004
app_44,460.05,21091.2,7812.2,187.8,7.71869,5.7924e+10,1.0165,0.961592,1005,7.2405,20,0.000987578,1.00004
app_45,203.846,21596.3,7293.5,706.5,7.45462,1.61151e+11,1.07316,0.961592,981,23.0216,20,0.00099515,1.00004
app_46,242.442,21497.4,7602.5,397.5,9.21338,9.49592e+10,1.0393,0.961592,822,9.49592,25,0.00120166,1.00005
app_47,46.6923,20720.3,7570.1,429.9,7.7559,1.01035e+11,1.04287,0.961592,989,12.6294,20,0.000997423,1.00005
app_48,595.558,21946.4,6948.4,1051.6,6.92791,1.41726e+11,1.12833,0.961592,994,20.2466,20,0.000985715,1.00005
app_49,172.844,20908.2,7665.1,334.9,7.54128,5.33865e+10,1.03647,0.961592,993,6.67332,20,0.000999691,1.00005
app_5,8.45696,18537.8,7764.6,235.4,774.896,1.36426e+11,1.01253,0.961592,10,0.176261,1795,0.0897206,1.00001
app_50,404.56,21255.6,7646.9,353.1,9.49729,1.02191e+11,1.03238,0.961592,842,11.3546,24,0.00117065,1.00005
app_51,13.7848,21421.6,7535.8,464.2,7.7122,1.50894e+11,1.04076,0.961592,997,18.8617,20,0.000983701,1.00005
app_52,12.7146,21642.4,7315,685,7.63235,1.52832e+11,1.07126,0.961592,969,19.1039,21,0.00101152,1.00005
app_53,625.893,22790.1,7016.1,983.9,7.10307,1.74504e+11,1.11256,0.961592,1012,24.9291,20,0.000964208,1.00005
app_54,997.593,21749.6,7540.2,459.8,7.64876,9.70838e+10,1.04749,0.961592,988,12.1355,20,0.000999282,1.00005
app_55,431.03,22186.6,6786.5,1213.5,6.85461,1.68684e+11,1.15022,0.961592,1002,24.0977,20,0.000974022,1.00005
app_56,302.239,21527.8,7695.1,304.9,9.57754,8.00224e+10,1.02892,0.961592,821,8.00224,25,0.001206,1.00006
app_57,285.925,21830.4,7681.1,318.9,8.49985,6.86745e+10,1.03229,0.961592,895,8.58431,23,0.0011059,1.00006
app_58,7.79845,22081.2,7560.1,439.9,6.73426,1.16855e+11,1.04208,0.961592,1146,16.6936,18,0.000859706,1.00006
app_59,547.778,22290.3,7512.3,487.7,7.05129,1.60235e+11,1.04268,0.961592,1082,22.8906,19,0.000904493,1.00006
app_6,0.87436,19162.6,7884.8,115.2,877.716,5.66611e+10,1.00737,0.961592,9,0.0646079,2099,0.104934,1.00001
app_60,841.449,22357.5,7443.6,556.4,7.68373,1.62049e+11,1.05185,0.961592,952,23.1499,21,0.00102519,1.00006
app_7,6.20819,18421.5,7920.6,79.4,791.384,1.22512e+10,1.00846,0.961592,10,0.0154687,1822,0.0910533,1.00001
app_8,1.29332,18562,7801.9,198.1,865.986,9.40529e+10,1.01318,0.961592,9,0.108606,2011,0.100516,1.00001
app_9,4.89726,19148.8,7787.5,212.5,972.328,1.05428e+11,1.01357,0.961592,8,0.108353,2331,0.116549,1.00001
