app_id,Tcomp,Tio,iter,witer,alpha_io,compute_size,io_size,mu,desyn_time
1,10.609752489080346,0.09046423511986644,1870,10.700216724200212,0.008454430171985904,10e9,90464235.11986645,10,1.3498359724526596
2,8.141217975891841,0.07787570142761961,2434,8.21909367731946,0.009474974307996653,8e9,77875701.4276196,10,2.5929900824029093
3,10.400446000809461,0.15335723035333437,1896,10.553803231162796,0.014530992003006844,10e9,153357230.35333437,10,10.147172709426394
4,9.262283861467994,0.11749109156401862,2133,9.379774953032012,0.012526003251926597,9e9,117491091.56401862,10,2.7191287050556827
5,9.98028539080277,0.000326074106259493,2004,9.98061146490903,3.267075443282623e-05,9e9,326074.106259493,10,8.751533189731333
6,9.985315597363483,0.1289369631015913,1978,10.114252560465074,0.012748046613507003,9e9,128936963.1015913,10,3.0685202433844454
7,8.272045781272546,0.23096886089591162,2353,8.503014642168457,0.027163173370357674,8e9,230968860.89591163,10,4.560621896894785
8,9.648044233181531,0.11041176373256273,2050,9.758455996914094,0.01131447062603737,9e9,110411763.73256274,10,8.32324135202524
9,8.4718730619267,0.2338946338801398,2298,8.705767695806841,0.02686662934881617,8e9,233894633.8801398,10,6.464564466992124
10,10.229591606808022,0.16262173000558286,1925,10.392213336813604,0.015648421056706763,10e9,162621730.00558287,10,9.402355640592802
11,10.471935984042,0.04376584142724402,1902,10.515701825469245,0.004161951541954361,10e9,43765841.427244015,10,10.104921064171775
12,9.479547010647806,0.15800022532490576,2076,9.637547235972711,0.016394236153277737,9e9,158000225.32490575,10,2.417595055279827
13,10.205062468613912,0.21094184003347807,1921,10.41600430864739,0.020251704375578425,10e9,210941840.03347808,10,4.964300867865536
14,9.668711761874174,0.16098192284826773,2035,9.829693684722443,0.016377104720818502,9e9,160981922.84826773,10,8.75791077532739
15,10.578147992457433,0.13742747864840416,1867,10.715575471105836,0.012825020832429618,10e9,137427478.64840415,10,3.2349109903401083
16,8.819268007418536,0.11729566435781541,2238,8.936563671776351,0.013125365483408473,8e9,117295664.35781541,10,5.830662364890526
17,9.121107936468759,0.16211862063231855,2155,9.283226557101077,0.017463607037394573,9e9,162118620.63231856,10,3.527066418121004
18,10.999363223029908,0.12082510325311578,1799,11.120188326283024,0.01086538282517578,10e9,120825103.25311579,10,1.6859975939713328
19,12.294522353524576,0.11802138257465071,1612,12.412543736099225,0.009508234982601576,12e9,118021382.5746507,10,8.328816096877365
20,9.5515341601751,0.1787463584200965,2056,9.730280518595196,0.018370113593179627,9e9,178746358.42009652,10,6.420910888703695
21,102.80263855090217,0.3109077519323339,194,103.11354630283451,0.003015197935480057,102e9,310907751.9323339,100,39.66230911833802
22,115.27542602049725,0.36184761243877406,173,115.63727363293603,0.003129160702866242,115e9,361847612.43877405,100,83.4356866225891
23,107.33135601732299,2.219198124811664,183,109.55055414213466,0.020257297119030543,107e9,2219198124.811664,100,23.509236460167145
24,91.2207802741251,2.379435916913749,214,93.60021619103885,0.025421265182307907,91e9,2379435916.9137487,100,4.381953545716825
25,91.07942796901268,0.7859613591942757,218,91.86538932820696,0.008555576424830421,91e9,785961359.1942756,100,57.08324605190257
26,97.29451140774131,0.2654217411480168,206,97.55993314888933,0.0027206019170077558,97e9,265421741.1480168,100,73.96274984932194
27,95.87645548153543,1.6755033115361517,206,97.55195879307158,0.01717549634334099,95e9,1675503311.5361516,100,10.69186102414502
28,94.92586569449968,1.880566443004383,207,96.80643213750406,0.019426048470965466,94e9,1880566443.0043828,100,66.86350113235058
29,90.2799103110028,2.2549512637743305,217,92.53486157477712,0.024368667390852597,90e9,2254951263.7743306,100,60.51889596965949
30,87.54131090192996,0.9385648734062968,227,88.47987577533625,0.010607664908904874,87e9,938564873.4062968,100,31.484722797448775
31,106.48613746042666,0.07261756515154967,188,106.55875502557821,0.0006814791063776849,106e9,72617565.15154967,100,103.22334527167291
32,98.50583352198464,0.6487698207298989,202,99.15460334271454,0.006543012617250994,98e9,648769820.7298988,100,32.37993926117552
33,105.52284388864621,0.8114854485131976,189,106.3343293371594,0.007631453111818493,105e9,811485448.5131975,100,57.317103044587206
34,96.04049384008627,2.590820611974188,203,98.63131445206047,0.026267728726594743,96e9,2590820611.9741883,100,41.7902587673542
35,100.7214721609539,0.13844520046873798,199,100.85991736142263,0.001372648363101784,100e9,138445200.468738,100,15.054027760443804
36,106.77697061827205,1.4643159437517184,185,108.24128656202376,0.013528257010439774,106e9,1464315943.7517183,100,9.203616712735704
37,93.63286361151886,0.6857839860989259,213,94.31864759761778,0.00727092683754985,93e9,685783986.0989258,100,8.356288834130702
38,115.62112795624309,0.5601416592858908,173,116.18126961552898,0.004821273352748947,115e9,560141659.2858908,100,39.88339728393733
39,81.40355998824572,0.459698459147344,245,81.86325844739306,0.005615442969971141,81e9,459698459.147344,100,13.791486185866383
40,98.36154180592133,2.6556874256425194,198,101.01722923156386,0.026289450283325758,98e9,2655687425.6425195,100,23.016788556731555
41,1087.288805353864,16.79700313958381,19,1104.085808493448,0.015213494286738214,1087e9,16797003139.58381,1000,930.4577167477056
42,1027.5535765275563,1.2456609510997556,20,1028.799237478656,0.0012107910909348808,1027e9,1245660951.0997555,1000,348.9176720342621
43,948.9767907680455,24.53865730258878,21,973.5154480706343,0.025206233091853675,948e9,24538657302.58878,1000,350.4506314542598
44,996.3271781275787,13.10864317324327,20,1009.435821300822,0.012986108573352046,996e9,13108643173.243269,1000,872.7580805066515
45,879.838936059262,21.57278779365037,23,901.4117238529124,0.02393222455709984,879e9,21572787793.65037,1000,314.41561565503395
46,917.3464729646671,12.025601991301293,22,929.3720749559684,0.012939491421528929,917e9,12025601991.301294,1000,863.7104038347658
47,1007.6674343513708,21.71242537744423,20,1029.379859728815,0.02109272410202805,1007e9,21712425377.44423,1000,380.8627397574737
48,893.9985347062818,5.750414572748596,23,899.7489492790304,0.006391132301245151,893e9,5750414572.748596,1000,479.9019042259449
49,904.0757840689648,2.8139492789518012,23,906.8897333479166,0.003102857134090265,904e9,2813949278.9518013,1000,537.7430075404167
50,1084.5422225417344,26.84762736453774,18,1111.389849906272,0.024156804533352456,1084e9,26847627364.53774,1000,962.5213832762382
51,963.2214136941263,4.770144403131286,21,967.9915580972577,0.004927878103098097,963e9,4770144403.131286,1000,524.7187928791122
52,937.8749825441424,20.672982581952144,21,958.5479651260946,0.021566977693424725,937e9,20672982581.952145,1000,111.31561775614529
53,894.5035119679478,25.34580266704823,22,919.8493146349961,0.02755429858324747,894e9,25345802667.04823,1000,765.6844110275157
54,815.8450980826234,9.682274532893736,25,825.5273726155172,0.011728592962602076,815e9,9682274532.893736,1000,3.27870652719125
55,1113.0946752309992,18.075368324295574,18,1131.1700435552948,0.01597935555956225,1113e9,18075368324.295574,1000,479.77497622732136
56,904.2838301301824,25.16523941881401,22,929.4490695489965,0.027075436668116876,904e9,25165239418.81401,1000,148.4532213487058
57,979.8163483503486,0.4853195278371965,21,980.3016678781858,0.0004950716128920259,979e9,485319527.8371965,1000,298.05371611444417
58,869.7459306923766,21.85157893158238,23,891.597509623959,0.024508344511637907,869e9,21851578931.582382,1000,545.2989818058505
59,965.582484108168,3.127739990588427,21,968.7102240987565,0.0032287673989384517,965e9,3127739990.588427,1000,334.62836813684874
60,1015.5797600458885,3.9785551110692663,20,1019.5583151569577,0.003902233988898203,1015e9,3978555111.0692663,1000,690.8536936151687
