app_id,Tcomp,Tio,iter,witer,alpha_io,compute_size,io_size,mu,desyn_time
1,8.40492144020351,0.1692312941485649,2333,8.574152734352076,0.01973737807008557,8e9,169231294.14856488,10,7.266458128248428
2,8.426017976128787,0.16015063070388588,2330,8.586168606832672,0.018652164665907186,8e9,160150630.70388588,10,2.6078864182837855
3,11.526590850083844,0.2787060894331281,1695,11.805296939516971,0.02360856239881516,11e9,278706089.43312806,10,5.068845779217095
4,9.000210742591708,0.1882294393474553,2177,9.188440181939164,0.02048546169103216,9e9,188229439.34745532,10,4.1343106143361465
5,10.83620298852382,0.10099948277613936,1829,10.937202471299958,0.009234489627596234,10e9,100999482.77613936,10,3.369663455179551
6,9.419372041655922,0.12047895970613898,2097,9.539851001362061,0.012629019016013718,9e9,120478959.70613898,10,9.212016689136927
7,10.700104876398145,0.00533253436812177,1869,10.705437410766267,0.0004981145714568314,10e9,5332534.36812177,10,0.7771833400167996
8,11.056741689718354,0.19140433004028753,1779,11.248146019758641,0.017016522518827917,11e9,191404330.04028752,10,6.94749362876532
9,10.434455792581442,0.06939049314274026,1905,10.503846285724183,0.006606198458658819,10e9,69390493.14274026,10,2.6190982827224016
10,10.294846699620972,0.13343017329809925,1918,10.428276872919072,0.012795035548451987,10e9,133430173.29809925,10,4.644736276758324
11,9.315621860254279,0.12125310609359773,2120,9.436874966347876,0.012848862205548895,9e9,121253106.09359773,10,3.636587356310037
12,7.688804449890399,0.012690972110529804,2597,7.701495422000929,0.0016478581645683246,7e9,12690972.110529805,10,1.2705394813177273
13,9.61421862561846,0.0461485490182982,2071,9.660367174636757,0.004777100930434711,9e9,46148549.0182982,10,4.182388450904139
14,9.962669904334886,0.009795644318516665,2006,9.972465548653403,0.0009822690558042976,9e9,9795644.318516666,10,2.72948645293845
15,8.399501474525325,0.11773620390725531,2349,8.51723767843258,0.013823285007695384,8e9,117736203.9072553,10,2.771619157698459
16,12.337000457943859,0.31728741436165314,1581,12.654287872305511,0.02507351006737022,12e9,317287414.36165315,10,1.2812715344476961
17,8.788628260767704,0.05022267026044035,2263,8.838850931028144,0.005682036121249348,8e9,50222670.26044035,10,6.473059808094617
18,9.3487142494371,0.20904278945354782,2093,9.557757038890648,0.021871532055371335,9e9,209042789.4535478,10,5.153014165251533
19,9.996736694099278,0.0882856714285061,1984,10.085022365527784,0.008754137395895185,9e9,88285671.4285061,10,6.822185112503933
20,10.028413512859636,0.11592177627620384,1972,10.14433528913584,0.01142724219696792,10e9,115921776.27620384,10,6.365420541685852
21,112.06225336619146,2.7029066582519135,175,114.76516002444338,0.023551630631423615,112e9,2702906658.2519135,100,19.928330626237226
22,100.51301590523622,0.7598845136266613,198,101.27290041886287,0.00750333515169204,100e9,759884513.6266613,100,26.76054034213996
23,83.13432226119684,0.0011148351534376903,241,83.13543709635029,1.3409866987836315e-05,83e9,1114835.1534376903,100,76.09073330082377
24,118.23224108138525,0.06082527747089797,170,118.29306635885615,0.0005141914005879028,118e9,60825277.47089797,100,0.43089037604528235
25,104.46424475569356,2.5373298534918076,187,107.00157460918537,0.023713014156653306,104e9,2537329853.4918075,100,70.39023047797056
26,106.74232905791304,1.937260394661044,185,108.67958945257408,0.017825429820071518,106e9,1937260394.6610441,100,7.445442413798257
27,93.35756542080077,1.725901833205813,211,95.08346725400658,0.018151439814402516,93e9,1725901833.205813,100,45.05711005457615
28,106.93194218992299,2.425648297431653,183,109.35759048735464,0.022180886453530065,106e9,2425648297.431653,100,40.200757737691305
29,91.58022427267119,1.8070421972648634,215,93.38726646993605,0.019349984913056645,91e9,1807042197.2648633,100,48.15172951280104
30,98.26206114309609,2.2694280687170365,199,100.53148921181312,0.02257430071423197,98e9,2269428068.7170367,100,74.30550770953961
31,84.497724113102,0.10813035663490216,237,84.6058544697369,0.0012780481600546906,84e9,108130356.63490215,100,15.274924789123368
32,96.19749073011047,0.8899295038108858,206,97.08742023392136,0.009166269962336,96e9,889929503.8108858,100,85.9135306473297
33,100.7623785791734,1.6884874732676738,196,102.45086605244107,0.01648094875453171,100e9,1688487473.2676737,100,2.7115472167319514
34,84.48550418191887,2.1277698741768996,231,86.61327405609578,0.02456632539717679,84e9,2127769874.1768997,100,31.63599457381668
35,85.29741738779978,2.135691313659058,229,87.43310870145883,0.024426574159125417,85e9,2135691313.6590579,100,4.359192024623034
36,101.64115782015318,1.1906234782985667,195,102.83178129845174,0.011578360923681608,101e9,1190623478.2985668,100,86.02133817975172
37,82.62596019047764,1.7215179326093293,238,84.34747812308697,0.0204098328831734,82e9,1721517932.6093292,100,43.51668412957736
38,114.10708176357122,1.1901721196069939,174,115.29725388317821,0.01032264064860472,114e9,1190172119.606994,100,47.00418712849984
39,115.1204816151002,0.2940815337844567,174,115.41456314888465,0.0025480452878818404,115e9,294081533.7844567,100,67.61029873606124
40,103.02341333586705,0.30361347682084466,194,103.32702681268789,0.0029383742684403157,103e9,303613476.82084465,100,86.60727954400082
41,1055.08259067829,4.330003888017952,19,1059.412594566308,0.004087174260742603,1055e9,4330003888.017952,1000,634.4612362186973
42,976.4589659734505,15.175936329658406,21,991.6349023031089,0.015303955411827205,976e9,15175936329.658405,1000,537.0971929398253
43,1079.3692746088373,20.030358364351294,19,1099.3996329731885,0.018219360607008482,1079e9,20030358364.351295,1000,544.1253155054843
44,1050.827511460124,11.51691934768388,19,1062.3444308078078,0.010841040827903999,1050e9,11516919347.68388,1000,419.4659500024165
45,920.8915237659767,22.72257213279925,22,943.6140958987759,0.02408036530140682,920e9,22722572132.79925,1000,3.7084037833925034
46,1075.8219602062409,1.4060572102857436,19,1077.2280174165267,0.0013052549576809513,1075e9,1406057210.2857437,1000,949.2187037577128
47,969.6683715669376,9.477435185498575,21,979.1458067524362,0.009679288947713194,969e9,9477435185.498575,1000,151.47982733660206
48,1103.2815337697991,4.77838788050517,19,1108.0599216503042,0.004312391222839657,1103e9,4778387880.50517,1000,528.3456075374509
49,1001.1592637179392,14.140209878696057,20,1015.2994735966353,0.013927132089023195,1001e9,14140209878.696056,1000,684.1188062969931
50,1015.0308815274803,5.205641008482715,20,1020.2365225359631,0.005102386450098112,1015e9,5205641008.482715,1000,252.47299396250455
51,1071.8619406560058,10.204048047054822,19,1082.0659887030606,0.009430153200993925,1071e9,10204048047.054823,1000,580.9637017755456
52,996.8074315956626,13.675086612525375,20,1010.4825182081879,0.013533224341945439,996e9,13675086612.525375,1000,462.7620039465997
53,1001.9352825180506,25.652370149066417,20,1027.587652667117,0.02496368079402799,1001e9,25652370149.066418,1000,977.0757877022546
54,991.8606286518046,20.429397149568775,20,1012.2900258013734,0.020181367620802113,991e9,20429397149.568775,1000,266.62594100150403
55,857.3091898141921,1.908240639918119,24,859.2174304541102,0.0022209054102982797,857e9,1908240639.9181192,1000,707.9653038003086
56,957.8416758265188,23.74503637007847,21,981.5867121965972,0.024190462314777846,957e9,23745036370.07847,1000,975.2720586692295
57,1009.5582861006836,22.22223998124733,20,1031.780526081931,0.021537758679778304,1009e9,22222239981.24733,1000,1001.6765037086606
58,932.3120316429373,19.59684749853882,22,951.9088791414762,0.0205868943214535,932e9,19596847498.538822,1000,411.2700819094804
59,1196.1045474103707,9.282786845063768,17,1205.3873342554346,0.007701082117971422,1196e9,9282786845.063768,1000,808.6613598290816
60,970.1611747681047,21.369770392756312,21,991.530945160861,0.02155229798631185,970e9,21369770392.756313,1000,285.4829771357909
