app_id,Tcomp,Tio,iter,witer,alpha_io,compute_size,io_size,mu,desyn_time
1,9.523886140341268,0.14238475670599443,2070,9.666270897047262,0.014730060663775565,9e9,142384756.70599443,10,6.496920476502128
2,9.546724915773027,0.12643390756033393,2068,9.67315882333336,0.013070591506815036,9e9,126433907.56033394,10,5.113135819186586
3,8.569678637830213,0.16337569228369025,2291,8.733054330113903,0.018707737992689138,8e9,163375692.28369024,10,1.6196548515511533
4,9.351543107418953,0.15332715260135787,2105,9.504870260020311,0.01613143035168901,9e9,153327152.60135788,10,1.4279958922590248
5,9.255900422423704,0.06513622452346138,2146,9.321036646947165,0.006988088019672667,9e9,65136224.52346138,10,8.310996392426313
6,10.981600256303077,0.2504540910349418,1781,11.23205434733802,0.02229815519850107,10e9,250454091.03494182,10,9.683194315705443
7,11.383742961180063,0.17229519278921165,1731,11.556038153969276,0.014909538242570755,11e9,172295192.78921166,10,11.369250958509275
8,10.168530547556175,0.19037117433790676,1931,10.358901721894082,0.018377544207755857,10e9,190371174.33790675,10,9.835224088160356
9,9.489171702558664,0.19008455188498521,2067,9.679256254443649,0.019638342749497856,9e9,190084551.8849852,10,2.355897668640242
10,12.072613088880395,0.06578043283215454,1648,12.13839352171255,0.005419204173475659,12e9,65780432.83215454,10,11.497744768888296
11,8.034389224373994,0.09549963955879748,2461,8.129888863932791,0.011746733707820948,8e9,95499639.55879748,10,7.9897641407298075
12,10.781454604560146,0.14331613808174382,1831,10.92477074264189,0.013118457261748113,10e9,143316138.0817438,10,4.371877770767693
13,11.320921282844667,0.10432151881037209,1751,11.425242801655038,0.009130792283491803,11e9,104321518.81037208,10,2.75554165868108
14,9.09025000405398,0.16515592897886375,2161,9.255405933032844,0.017844266385920134,9e9,165155928.97886375,10,0.9291347076590215
15,9.41430592426667,0.059198553423909187,2112,9.473504477690579,0.006248854746764254,9e9,59198553.42390919,10,2.659771366965977
16,10.814773883967547,0.074674333381705,1837,10.889448217349251,0.006857494694977529,10e9,74674333.381705,10,3.6390532660701345
17,9.597914306588825,0.09020545252885483,2065,9.68811975911768,0.009310934915308072,9e9,90205452.52885483,10,2.9003860809037163
18,9.141047920260423,0.07239798513063242,2171,9.213445905391055,0.00785786185473453,9e9,72397985.13063242,10,8.808476518518647
19,9.611261798957534,0.17604316056862704,2044,9.78730495952616,0.01798688824928062,9e9,176043160.56862703,10,6.0388212240804595
20,8.84150693004471,0.12465956609382012,2231,8.96616649613853,0.013903329382463218,8e9,124659566.09382012,10,5.246655189675039
21,113.74445347425208,2.2354348975623863,173,115.97988837181447,0.019274332204872544,113e9,2235434897.5623865,100,111.14148362864377
22,103.0960664382279,0.0583386613482129,194,103.15440509957611,0.0005655469709887613,103e9,58338661.348212905,100,32.37698193367908
23,91.21673109449739,2.0858787256587332,215,93.30260982015612,0.022356059810967065,91e9,2085878725.6587331,100,72.22636905722192
24,92.00034686146269,1.1954041423663488,215,93.19575100382903,0.012826809478870283,92e9,1195404142.3663487,100,42.7740202977675
25,104.62759251713767,1.1904506083967434,190,105.81804312553442,0.01124997753912803,104e9,1190450608.3967435,100,85.7223781371064
26,104.41678826616561,2.466029869443717,188,106.88281813560933,0.023072275904204742,104e9,2466029869.443717,100,4.901027356246397
27,91.55218783424172,2.207103771307121,214,93.75929160554884,0.023540107156446357,91e9,2207103771.307121,100,46.15696194283692
28,96.38783784085338,0.3203676521437372,207,96.70820549299711,0.0033127246081195855,96e9,320367652.1437372,100,6.478114085084723
29,99.40422048530789,1.4200881453013339,199,100.82430863060922,0.014084779400810191,99e9,1420088145.301334,100,71.2123078955993
30,100.08607446120577,0.776058067355175,199,100.86213252856095,0.007694246075308987,100e9,776058067.355175,100,46.98680558171695
31,90.74402818096695,1.731085282427933,217,92.47511346339488,0.01871947184053104,90e9,1731085282.427933,100,46.20348409141041
32,96.29851414341145,0.7512544926152527,207,97.0497686360267,0.007740919975118549,96e9,751254492.6152527,100,48.17608622155363
33,102.05704260426835,0.05761298440586357,196,102.11465558867421,0.000564198978821739,102e9,57612984.40586357,100,99.01177067414105
34,90.25287388646987,1.151744125393428,219,91.4046180118633,0.012600502583402782,90e9,1151744125.3934278,100,81.74875449823604
35,102.81581597991381,2.369056145698655,191,105.18487212561246,0.022522783912020283,102e9,2369056145.698655,100,54.25410872383065
36,103.64769522240628,0.21011377147923313,193,103.85780899388551,0.002023090738334402,103e9,210113771.47923312,100,12.62352809840996
37,100.00255517665907,1.119472074536049,198,101.12202725119512,0.011070506643969781,100e9,1119472074.536049,100,92.98899261779519
38,104.55190353002686,2.2018924926500927,188,106.75379602267695,0.0206258941104292,104e9,2201892492.6500926,100,105.5849306650752
39,98.68434044542673,2.181622856553144,199,100.86596330197987,0.021628929969385632,98e9,2181622856.553144,100,58.64245049077353
40,95.59299774749891,0.9926495975980502,208,96.58564734509696,0.010277402749617132,95e9,992649597.5980501,100,34.87859162068514
41,880.726929183072,15.742202628552228,23,896.4691318116243,0.017560228311196496,880e9,15742202628.552227,1000,758.2299461553345
42,1079.659536829418,1.1171294480722973,19,1080.7766662774902,0.001033635794451426,1079e9,1117129448.0722973,1000,153.21164140470339
43,1017.6035744598572,10.555449882225888,20,1028.159024342083,0.010266359222961935,1017e9,10555449882.225887,1000,493.90058366542127
44,1122.4074452078307,10.026857071285509,18,1132.4343022791163,0.008854250574276709,1122e9,10026857071.28551,1000,997.369689509628
45,1090.5251764486745,24.948247699292885,18,1115.4734241479673,0.022365613701957193,1090e9,24948247699.292885,1000,881.7694885246618
46,906.8790191272924,9.562131302711652,22,916.4411504300041,0.010433982911204932,906e9,9562131302.711653,1000,51.91205506200156
47,986.4534276482826,2.6970758470315044,21,989.1505034953142,0.0027266587212976946,986e9,2697075847.031504,1000,695.5257754274487
48,968.0754499275794,15.924825631445788,21,984.0002755590251,0.016183761353520617,968e9,15924825631.445787,1000,886.0411698184741
49,978.9908655925593,6.747070388928257,21,985.7379359814876,0.006844689792942055,978e9,6747070388.928257,1000,870.6216390861932
50,1141.2499664538725,18.137242199946503,18,1159.387208653819,0.015643817755248406,1141e9,18137242199.946503,1000,376.98307859716044
51,925.9736154343934,21.959306400364078,22,947.9329218347575,0.023165464448540375,925e9,21959306400.36408,1000,640.3863817754824
52,964.7085847792492,13.8789209026611,21,978.5875056819103,0.014182605870274048,964e9,13878920902.6611,1000,453.67373241991777
53,1038.6329966273263,24.447420103660164,19,1063.0804167309864,0.022996774015306323,1038e9,24447420103.660164,1000,80.09736268146168
54,929.9424410915142,8.235057826815451,22,938.1774989183297,0.008777718327619293,929e9,8235057826.815451,1000,50.44928119390094
55,991.8960060867037,23.102583799911216,20,1014.9985898866149,0.022761197926877905,991e9,23102583799.911217,1000,74.19004834370658
56,797.6606660632019,10.902816391778803,25,808.5634824549808,0.013484181054869555,797e9,10902816391.778803,1000,513.5415954247777
57,1023.8811664656973,12.458053332089804,20,1036.339219797787,0.012021211871650141,1023e9,12458053332.089804,1000,149.55675065503502
58,1058.4402069553457,10.904706963858485,19,1069.3449139192041,0.010197558170349522,1058e9,10904706963.858486,1000,598.0597710556707
59,992.1653171553894,12.581069717128727,20,1004.7463868725181,0.012521637182781938,992e9,12581069717.128727,1000,882.0330190195991
60,978.6761169833695,17.890144005314053,21,996.5662609886836,0.017951785752374775,978e9,17890144005.314053,1000,443.1501656492436
