app_id,start_app,end_app,effective_cpu,effective_io,effective_iter,total_bytes,stretch,utilization,Tcomp,Tio,iterations,priority,group_id
app_1,11.2745,26425.2,5396.8,125.734,478.053,9.57873e+10,1.45651,0.85012,11,0.200392,1771,1,1
app_10,5.12403,25169.9,5279.7,135.773,587.853,1.14458e+11,1.48309,0.85012,9,0.194656,2008,1,1
app_11,9.56824,24760.1,5235.6,171.622,544.416,1.47408e+11,1.48616,0.85012,10,0.270971,1796,1,1
app_12,8.79839,25729.7,5392.1,59.4784,534.173,3.4917e+10,1.47411,0.85012,10,0.0652702,1902,1,1
app_13,5.35809,25473,5240.9,102.149,594.63,6.6393e+10,1.50736,0.85012,9,0.111585,2063,1,1
app_14,7.87867,26444.1,5238.7,72.733,585.704,5.07173e+10,1.51245,0.85012,9,0.0865483,2176,1,1
app_15,2.03666,24860.8,5341.7,164.434,536.15,1.38047e+11,1.45992,0.85012,10,0.257549,1809,1,1
app_16,3.63577,25567.3,5253.21,102.84,579.846,6.84006e+10,1.5033,0.85012,9,0.117932,2041,1,1
app_17,2.66472,25068.1,5302.8,153.299,529.378,1.23506e+11,1.4743,0.85012,10,0.23303,1797,1,1
app_18,0.848676,25826.4,5426.1,51.5034,537.467,2.2623e+10,1.46823,0.85012,10,0.0421285,1906,1,1
app_19,5.20534,26657.6,5182.3,45.027,631.65,8.55207e+09,1.54117,0.85012,8,0.0135318,2426,1,1
app_2,10.3436,25614.8,5355.3,90.3064,547.116,5.5901e+10,1.47841,0.85012,10,0.102196,1891,1,1
app_20,4.54527,26901,5469.3,59.4528,528.218,3.65889e+10,1.45299,0.85012,10,0.0692971,1984,1,1
app_21,8.2719,21204.7,7340.2,31.7776,80.0748,2.732e+10,1.08585,0.85012,97,0.337284,204,1,1
app_22,62.1037,21677.5,7069,124.174,88.6487,1.19986e+11,1.11281,0.85012,82,1.34816,240,1,1
app_23,55.5887,21746.4,7307.4,25.0134,75.7591,2.2259e+10,1.09146,0.85012,94,0.292882,211,1,1
app_24,37.7057,21299.3,7101.5,142.691,79.2522,1.38698e+11,1.10494,0.85012,92,1.75567,212,1,1
app_25,7.71687,20803.2,7390.3,42.9165,69.8495,3.98547e+10,1.07669,0.85012,113,0.569352,176,1,1
app_26,115.712,21006.7,7354.4,115.509,66.8916,1.12121e+11,1.07145,0.85012,117,1.67345,169,1,1
app_27,29.6317,21036.7,7155.9,190.422,80.0227,1.85969e+11,1.08964,0.85012,91,2.32461,214,1,1
app_28,45.2888,21313.9,7362.8,67.1606,72.8969,6.40253e+10,1.07718,0.85012,109,0.877059,182,1,1
app_29,21.9742,22017.5,7350.85,113.298,65.531,1.10924e+11,1.07213,0.85012,107,1.6965,183,1,1
app_3,6.49861,25090.1,5252.4,97.8029,591.39,6.03579e+10,1.50581,0.85012,9,0.102128,1998,1,1
app_30,58.9278,22313.1,7399.8,39.1355,77.2704,3.57741e+10,1.07591,0.85012,92,0.464599,216,1,1
app_31,69.5006,20880.5,7400.8,25.2746,75.2948,2.2459e+10,1.07769,0.85012,99,0.299453,200,1,1
app_32,49.4692,21893.4,7388.8,26.1178,71.0378,2.16099e+10,1.07956,0.85012,97,0.304365,205,1,1
app_33,46.8559,22194.5,7162.9,134.546,71.072,1.30766e+11,1.09684,0.85012,93,1.84177,210,1,1
app_34,22.579,20733.4,7294.7,68.9626,77.4919,6.45839e+10,1.08706,0.85012,101,0.827998,195,1,1
app_35,21.4026,20596.9,7126,202.278,83.4322,1.99099e+11,1.09214,0.85012,92,2.39878,212,1,1
app_36,17.6984,21502.2,7368.1,26.8572,62.4546,2.41929e+10,1.08221,0.85012,110,0.384014,181,1,1
app_37,81.9831,22653.9,7394.8,177.498,70.6354,1.74226e+11,1.05694,0.85012,98,2.45389,199,1,1
app_38,66.1885,21534.7,7323.7,110.926,70.0365,1.06899e+11,1.07663,0.85012,105,1.52713,188,1,1
app_39,37.712,20016.9,7126.1,147.321,84.8461,1.43818e+11,1.10042,0.85012,91,1.69198,214,1,1
app_4,2.44699,25822.9,5235.5,167.354,573.411,1.36044e+11,1.48933,0.85012,9,0.237423,2059,1,1
app_40,26.9795,22181.4,7423.3,11.1369,91.9926,7.30323e+09,1.07663,0.85012,80,0.079383,248,1,1
app_41,736.977,20867.2,7704.2,223.956,8.86144,2.23225e+11,1.00915,0.85012,945,24.8028,21,1,1
app_42,829.351,23776.6,7742.8,111.387,8.15541,1.10839e+11,1.01864,0.85012,868,13.8549,23,1,1
app_43,336.534,21351.8,7723.5,177.328,9.36909,1.76891e+11,1.01261,0.85012,934,19.6546,21,1,1
app_44,497.952,25227.3,7804.7,140.519,8.86614,1.40017e+11,1.00696,0.85012,867,15.5574,23,1,1
app_45,776.345,19761,7880.7,68.1335,10.019,6.75856e+10,1.00651,0.85012,1027,6.75856,20,1,1
app_46,618.847,19685.7,7774.8,142.635,7.55083,1.42284e+11,1.01047,0.85012,1011,17.7855,20,1,1
app_47,604.906,20450,7897.8,64.5441,8.68571,6.4112e+10,1.00478,0.85012,966,8.014,21,1,1
app_48,276.038,20716.1,7736.7,141.267,8.37638,1.40856e+11,1.01554,0.85012,954,17.607,21,1,1
app_49,498.593,19109.8,7770.5,129.022,6.24396,1.28679e+11,1.01276,0.85012,980,21.4465,20,1,1
app_5,7.31918,25856.7,5201.89,70.8588,655.612,3.9641e+10,1.52627,0.85012,8,0.0605206,2319,1,1
app_50,289.819,19011.2,7706.4,196.117,9.61655,1.95694e+11,1.01239,0.85012,906,19.5694,22,1,1
app_51,40.06,19220.8,7829.9,127.69,10.5719,1.27154e+11,1.0054,0.85012,894,11.5595,23,1,1
app_52,803.141,23748.4,7934.2,7.29156,7.47304,6.92586e+09,1.00741,0.85012,966,0.989408,21,1,1
app_53,1002.81,22635.9,7814.5,43.4339,6.15105,4.29763e+10,1.01814,0.85012,1056,6.13947,19,1,1
app_54,1021.37,23549.7,7813.1,157.992,6.44257,1.57637e+11,1.00367,0.85012,1047,22.5195,19,1,1
app_55,10.1878,22067,7889,85.3733,7.5371,8.51687e+10,1.00324,0.85012,911,12.167,22,1,1
app_56,250.694,21216,7877.4,62.6252,7.55637,6.23554e+10,1.00759,0.85012,958,7.79443,21,1,1
app_57,888.181,18857,7770.8,175.86,7.13752,1.75503e+11,1.00676,0.85012,1040,25.0718,19,1,1
app_58,688.711,22052.7,7786.8,122.513,7.67362,1.22163e+11,1.01151,0.85012,1000,15.2703,20,1,1
app_59,261.561,15352.8,7878.7,84.1357,12.1693,8.34365e+10,1.00476,0.85012,950,6.95304,21,1,1
app_6,4.87769,25469.2,5335,101.769,514.871,7.46672e+10,1.47883,0.85012,10,0.144985,1864,1,1
app_60,294.458,19662.2,7822.5,151.922,7.82753,1.51378e+11,1.00328,0.85012,1143,18.9222,18,1,1
app_7,2.47765,25382.2,5310.3,132.433,581.645,1.12054e+11,1.47537,0.85012,9,0.192533,2009,1,1
app_8,5.82622,24980.6,5366.2,71.1819,586.243,4.63736e+10,1.47804,0.85012,9,0.079001,2014,1,1
app_9,9.9705,24823.8,5241.45,156.567,578.61,1.20329e+11,1.49204,0.85012,9,0.208181,1988,1,1
