app_id,start_app,end_app,effective_cpu,effective_io,effective_iter,total_bytes,stretch,utilization,Tcomp,Tio,iterations,priority,group_id
app_1,9.09335,25432.3,5362.99,107.802,594.594,7.31032e+10,1.47164,0.857878,9,0.122863,2027,1,1
app_10,0.367061,25990.5,5395.05,118.543,557.578,9.30757e+10,1.45769,0.857878,10,0.166802,1915,1,1
app_11,0.311319,26122.9,5472.56,63.184,557.637,3.81679e+10,1.45171,0.857878,10,0.0684012,1961,1,1
app_12,6.12377,25673.4,5471.54,97.5295,547.142,6.56e+10,1.44479,0.857878,10,0.119708,1889,1,1
app_13,6.60815,26596.7,5206.01,72.6002,658.963,4.14365e+10,1.52455,0.857878,8,0.0628779,2436,1,1
app_14,2.50451,25329.9,5501.44,112.535,545.082,8.58434e+10,1.43182,0.857878,10,0.157222,1829,1,1
app_15,6.60544,26956.2,5249.28,112.954,644.95,7.70031e+10,1.50198,0.857878,8,0.119385,2435,1,1
app_16,9.50549,24599,5564.86,50.511,570.65,1.83762e+10,1.43286,0.857878,10,0.0321825,1836,1,1
app_17,7.58666,26433.6,5530.16,140.768,500.067,1.11983e+11,1.4179,0.857878,11,0.223518,1774,1,1
app_18,6.02977,26621.4,5585.42,39.2416,486.504,1.16426e+10,1.42932,0.857878,11,0.0239068,1799,1,1
app_19,9.00482,24879.5,5450,108.448,558.25,7.87307e+10,1.44699,0.857878,10,0.140842,1841,1,1
app_2,6.01092,25222.2,5352.45,68.0842,608.639,3.99359e+10,1.48357,0.857878,9,0.0655761,2041,1,1
app_20,10.5369,24947.6,5497.72,35.8815,544.488,2.64659e+09,1.45445,0.857878,10,0.00485613,1832,1,1
app_21,47.2929,22080.4,7405.5,5.40122,76.7904,3.61892e+08,1.08023,0.857878,95,0.0046999,209,1,1
app_22,29.7878,22088.6,7127.78,149.476,86.3505,1.45894e+11,1.09986,0.857878,85,1.67694,231,1,1
app_23,37.4818,21895.8,7417.82,66.6837,68.6958,6.2192e+10,1.06952,0.857878,101,0.901333,197,1,1
app_24,95.6307,21103.9,7343.37,25.4655,76.8947,2.2438e+10,1.0861,0.857878,97,0.291402,205,1,1
app_25,34.1892,20652.8,7397.2,95.2771,72.1835,9.20103e+10,1.0682,0.857878,101,1.27792,195,1,1
app_26,5.17489,20228.4,7326.36,135.771,85.8363,1.30751e+11,1.0728,0.857878,92,1.52036,213,1,1
app_27,68.4951,20776.8,7318.32,158.786,72.4706,1.54553e+11,1.07054,0.857878,104,2.11716,188,1,1
app_28,19.7421,22355.6,7308.27,69.0299,82.0853,6.55816e+10,1.08491,0.857878,90,0.79764,221,1,1
app_29,1.12728,21642.5,7456.5,61.4831,70.401,5.78361e+10,1.06463,0.857878,99,0.82623,200,1,1
app_3,6.40586,26186.5,5502.09,127.025,550.662,1.08518e+11,1.42587,0.857878,10,0.196948,1921,1,1
app_30,47.3301,20900.4,7120.26,210.969,84.2836,2.06034e+11,1.09196,0.857878,85,2.42393,228,1,1
app_31,34.3397,22474.5,7367.57,121.51,80.0286,1.17261e+11,1.06883,0.857878,83,1.44767,235,1,1
app_32,80.5772,21781.8,7402.5,109.908,69.3459,1.06538e+11,1.06538,0.857878,100,1.54402,196,1,1
app_33,42.4378,22084.9,7173.13,146.27,85.8667,1.4148e+11,1.0937,0.857878,79,1.64511,246,1,1
app_34,33.2639,21696.4,7374,78.8134,69.2058,7.63645e+10,1.07377,0.857878,99,1.09092,199,1,1
app_35,51.3904,20857.3,7382.8,107.4,78.1444,1.02895e+11,1.06871,0.857878,93,1.31917,212,1,1
app_36,17.9857,20904.1,7344.4,108.678,72.5923,1.04858e+11,1.07393,0.857878,107,1.43641,184,1,1
app_37,33.7311,22140.4,7483,24.3415,75.6351,2.04537e+10,1.06618,0.857878,93,0.269128,214,1,1
app_38,40.4595,19696.4,7266.8,122.859,87.761,1.18453e+11,1.08324,0.857878,92,1.34605,213,1,1
app_39,90.0956,21538.7,7300.5,186.952,74.989,1.83041e+11,1.06901,0.857878,95,2.44054,204,1,1
app_4,2.65781,25316.3,5425.85,162.538,546.234,1.35314e+11,1.43855,0.857878,10,0.247375,1840,1,1
app_40,87.9041,21936.4,7380.3,116.533,65.5408,1.1282e+11,1.06765,0.857878,110,1.7094,178,1,1
app_41,397.337,21835.4,7951,0.839168,6.67143,5.84517e+08,1.00609,0.857878,1015,0.0835024,20,1,1
app_42,208.242,21369.7,7870.4,104.137,6.32968,1.03819e+11,1.00323,0.857878,993,17.3032,20,1,1
app_43,261.141,17038,7836.4,106.512,12.063,1.05916e+11,1.00726,0.857878,762,8.82637,26,1,1
app_44,808.219,23517.7,7875.4,82.7957,7.02969,8.25862e+10,1.00528,0.857878,1044,11.798,19,1,1
app_45,1013.38,20287.5,7804.8,103.126,6.89632,1.02861e+11,1.01168,0.857878,1060,14.6945,19,1,1
app_46,875.178,23816.7,7903.3,69.8837,7.65947,6.94543e+10,1.00342,0.857878,930,9.92204,22,1,1
app_47,150.245,19298.3,7719.8,198.342,11.8027,1.97727e+11,1.01042,0.857878,823,16.4773,24,1,1
app_48,794.307,22218.9,7889.7,67.1308,8.13994,6.67026e+10,1.00548,0.857878,903,8.33783,22,1,1
app_49,68.6719,18480.4,7815.6,91.0111,10.2649,9.03507e+10,1.0119,0.857878,820,9.03507,25,1,1
app_5,5.51916,26461.8,5500.88,45.71,537.904,1.6502e+10,1.44996,0.857878,10,0.0306728,1942,1,1
app_50,270.828,20936.6,7805.47,182.214,7.78451,1.81877e+11,1.00158,0.857878,914,25.7926,22,1,1
app_51,760.978,18497.6,7790.2,137.625,10.5889,1.37128e+11,1.00917,0.857878,902,12.4662,22,1,1
app_52,725.698,23157,7879.4,65.7397,9.37832,6.50345e+10,1.00699,0.857878,804,6.50345,25,1,1
app_53,252.429,18749.7,7881.4,64.6073,6.73513,6.42719e+10,1.00684,0.857878,1020,9.1817,20,1,1
app_54,682.936,21531.4,7926.4,54.0944,7.23444,5.38544e+10,1.00247,0.857878,964,7.69348,21,1,1
app_55,762.48,22609.7,7716.7,184.565,7.2054,1.84212e+11,1.01254,0.857878,916,23.0265,22,1,1
app_56,497.283,20774,7802.7,100.982,10.1063,1.00368e+11,1.01227,0.857878,871,9.12437,23,1,1
app_57,228.117,21453.6,7775.2,184.991,8.08719,1.84799e+11,1.00503,0.857878,881,23.0998,23,1,1
app_58,859.101,21093.6,7768.5,195.367,7.63731,1.95097e+11,1.00457,0.857878,1033,27.8709,19,1,1
app_59,1011.19,20702.6,7771.7,109.224,6.46179,1.08824e+11,1.01516,0.857878,1176,15.5463,17,1,1
app_6,2.72966,26070.6,5338.4,164.674,581.772,1.31287e+11,1.46261,0.857878,9,0.225578,2093,1,1
app_60,983.775,21962.2,7803.5,143.003,7.08603,1.42626e+11,1.00678,0.857878,975,20.3752,21,1,1
app_7,3.42528,25944.6,5403.89,63.2071,592.094,3.45112e+10,1.47102,0.857878,9,0.0581976,2089,1,1
app_8,4.8569,25548,5242.78,138.522,641.652,1.11864e+11,1.49403,0.857878,8,0.174242,2270,1,1
app_9,1.32495,25591.4,5444.26,122.416,559.025,9.88061e+10,1.44324,0.857878,10,0.17644,1882,1,1
