app_id,start_app,end_app,effective_cpu,effective_io,effective_iter,total_bytes,stretch,utilization,Tcomp,Tio,iterations,priority,group_id
app_1,3.6064,26132.4,5253.62,48.0269,609.664,1.25014e+10,1.51915,0.848852,9,0.0205278,2168,1,1
app_10,4.20125,26340.8,5248.55,172.144,580.694,1.4176e+11,1.48414,0.848852,9,0.243993,2145,1,1
app_11,8.94404,25866.6,5457.1,89.8434,463.471,6.45576e+10,1.44884,0.848852,12,0.139433,1635,1,1
app_12,0.699135,24935.2,5325,119.574,536.114,9.98964e+10,1.47468,0.848852,10,0.186374,1855,1,1
app_13,0.389641,24526.2,5329,91.8258,550.01,5.70102e+10,1.48533,0.848852,10,0.103655,1803,1,1
app_14,2.86773,24808.2,5346,55.2701,585.218,2.49766e+10,1.48949,0.848852,9,0.042695,2000,1,1
app_15,8.01473,25410.6,5204.3,162.558,575.106,1.29562e+11,1.49985,0.848852,9,0.225325,2025,1,1
app_16,2.78013,26328.7,5163.7,163.46,563.098,1.32656e+11,1.51047,0.848852,9,0.235623,2111,1,1
app_17,6.77838,25242.6,5253.67,114.999,571.767,8.5368e+10,1.4984,0.848852,9,0.149245,2034,1,1
app_18,7.19814,25561.4,5179.54,49.4341,661.537,9.60567e+09,1.54168,0.848852,8,0.014532,2306,1,1
app_19,10.0907,25398.8,5440.1,105.842,489.043,8.47963e+10,1.44799,0.848852,11,0.173408,1725,1,1
app_2,6.76358,26567.9,5249.2,64.4827,588.645,3.66502e+10,1.51347,0.848852,9,0.0622245,2200,1,1
app_20,3.43043,25460.8,5304.48,176.913,534.379,1.60283e+11,1.46393,0.848852,10,0.299594,1878,1,1
app_21,69.5429,21590.4,7429.8,8.2171,78.1211,4.10934e+09,1.07615,0.848852,95,0.0526839,210,1,1
app_22,79.5788,21375.4,7148.8,129.561,67.1681,1.26018e+11,1.09968,0.848852,112,1.8532,176,1,1
app_23,84.258,21692.1,7094.3,146.749,79.8647,1.4347e+11,1.10531,0.848852,84,1.79338,232,1,1
app_24,54.3168,21397.9,7118.5,51.9088,91.0231,4.64275e+10,1.11655,0.848852,78,0.510193,254,1,1
app_25,40.3275,22274.1,7162.4,114.703,78.1177,1.10661e+11,1.09995,0.848852,91,1.41873,217,1,1
app_26,8.70162,21174.4,7267.5,208.014,69.82,2.04296e+11,1.07069,0.848852,101,2.91851,193,1,1
app_27,89.6205,21280.5,7245.57,32.1567,79.8143,2.87849e+10,1.09975,0.848852,99,0.364366,200,1,1
app_28,56.3515,21212.5,7217.5,15.3453,81.4047,1.12139e+10,1.1067,0.848852,92,0.138443,217,1,1
app_29,35.128,19854.6,7337.3,150.907,69.2927,1.47329e+11,1.06886,0.848852,110,2.13521,177,1,1
app_3,0.977041,26630.7,5210.2,57.3202,592.49,2.56681e+10,1.52792,0.848852,9,0.0432852,2197,1,1
app_30,8.95486,20735.7,7449.2,31.6493,65.8601,2.83049e+10,1.06988,0.848852,110,0.428862,180,1,1
app_31,29.5734,21750.3,7317,50.3412,72.1444,4.65119e+10,1.08644,0.848852,100,0.637149,197,1,1
app_32,72.0757,21571.5,7439.4,17.447,64.1773,1.3794e+10,1.07337,0.848852,105,0.215532,189,1,1
app_33,52.5252,21923.9,7238.6,86.2257,66.8568,8.26889e+10,1.0927,0.848852,98,1.23416,202,1,1
app_34,55.4837,21080.1,7370.95,152.033,75.9011,1.49151e+11,1.06382,0.848852,98,1.96252,199,1,1
app_35,54.1115,20952,7418.7,45.099,65.3274,4.1762e+10,1.07232,0.848852,111,0.642492,179,1,1
app_36,17.3879,20638.7,7012.48,183.523,82.9902,1.79525e+11,1.11235,0.848852,92,2.16296,213,1,1
app_37,39.138,20688.1,7336.91,31.2635,61.1279,2.87647e+10,1.08612,0.848852,118,0.469525,168,1,1
app_38,37.045,19987.5,7231.4,169.185,74.1096,1.65489e+11,1.08154,0.848852,104,2.23633,188,1,1
app_39,112.015,21051.7,7346.81,103.659,67.2226,1.00832e+11,1.07417,0.848852,111,1.48283,177,1,1
app_4,6.60355,25519.5,5323.1,63.8179,541.505,4.15213e+10,1.49125,0.848852,10,0.0767491,1903,1,1
app_40,49.8399,21204.3,7261.3,40.0523,76.8432,3.65921e+10,1.09621,0.848852,96,0.475222,206,1,1
app_41,50.3092,16516.2,7797.48,71.8981,10.5881,7.13886e+10,1.01666,0.848852,886,6.68802,23,1,1
app_42,646.22,23811.2,7854.5,103.281,8.16083,1.02973e+11,1.00534,0.848852,923,12.8716,22,1,1
app_43,233.971,21809.1,7863,62.9636,7.9422,6.24893e+10,1.0094,0.848852,1012,7.81116,20,1,1
app_44,855.171,21849.4,7858.1,100.286,7.90784,9.98415e+10,1.00529,0.848852,1083,12.4802,19,1,1
app_45,675.09,17491.2,7822.1,65.2712,12.6806,6.47374e+10,1.01435,0.848852,900,5.39478,23,1,1
app_46,701.623,23221.3,7819,91.4247,6.3825,9.09571e+10,1.01138,0.848852,1102,12.9939,18,1,1
app_47,132.39,21018.5,7720.4,164.645,9.57329,1.64311e+11,1.01462,0.848852,966,18.2568,21,1,1
app_48,200.172,21870.7,7877.1,85.6147,6.95999,8.52548e+10,1.00473,0.848852,934,12.1793,22,1,1
app_49,253.082,20317.3,7815.8,137.99,6.96004,1.37584e+11,1.00586,0.848852,1014,19.6549,20,1,1
app_5,8.25117,25962.5,5284.8,105.07,600.925,6.9545e+10,1.49411,0.848852,9,0.115716,2123,1,1
app_50,529.23,23176.7,7836.5,150.761,5.84578,1.5057e+11,1.00162,0.848852,1022,25.095,20,1,1
app_51,436.251,17474.7,7778.9,153.861,7.63396,1.53429e+11,1.00853,0.848852,1125,19.1786,18,1,1
app_52,877.556,20900.3,7770.5,137.957,7.67409,1.37553e+11,1.01163,0.848852,1080,17.1942,19,1,1
app_53,824.869,20967.5,7863.9,46.2078,8.09064,4.57431e+10,1.01142,0.848852,920,5.71789,22,1,1
app_54,102.155,18171.6,7816,73.2458,8.612,7.28125e+10,1.01409,0.848852,1084,8.09027,19,1,1
app_55,695.522,21166.4,7702.3,229.518,7.84753,2.29151e+11,1.00864,0.848852,1107,28.6439,18,1,1
app_56,531.598,21044.2,7796.2,171.545,7.42118,1.71155e+11,1.0041,0.848852,981,24.4507,20,1,1
app_57,537.562,21437.8,7744.4,228.381,9.10991,2.27815e+11,1.00349,0.848852,915,25.3128,22,1,1
app_58,216.063,18848.9,7610.4,284.621,11.4827,2.84023e+11,1.01337,0.848852,857,23.6686,23,1,1
app_59,344.168,21468.6,7882.3,25.4286,7.05354,2.51298e+10,1.01171,0.848852,1014,3.58998,20,1,1
app_6,5.47714,25935.7,5213.9,178.617,548.916,1.56516e+11,1.48964,0.848852,10,0.285093,1936,1,1
app_60,822.083,22576.2,7920.8,2.97544,6.23594,2.7022e+09,1.00965,0.848852,1039,0.386028,20,1,1
app_7,10.1734,25871.7,5373.3,110.968,520.098,8.74705e+10,1.46499,0.848852,10,0.168213,1906,1,1
app_8,3.46787,24649.6,5258.2,166.75,536.591,1.40386e+11,1.48187,0.848852,10,0.261426,1793,1,1
app_9,1.30869,25868.6,5437,92.1436,502.893,6.22218e+10,1.45475,0.848852,11,0.123701,1788,1,1
