app_id,Tcomp,Tio,iter,witer,alpha_io,compute_size,io_size,mu,desyn_time
1,11.959534253615903,0.25805909249975245,1637,12.217593346115656,0.021121925177006916,11e9,258059092.49975246,10,5.866041754136696
2,8.920891088184746,0.14261461828371824,2207,9.063505706468463,0.015735039277565272,8e9,142614618.28371823,10,8.085549924583338
3,10.044632127656016,0.07435427350209609,1977,10.11898640115811,0.007347996187996289,10e9,74354273.50209609,10,5.142152993829531
4,9.617904782677414,0.24274819518757562,2029,9.860652977864989,0.024617862096201162,9e9,242748195.1875756,10,0.16189677140546102
5,10.328053391964776,0.26350433818209956,1889,10.591557730146876,0.02487871424541114,10e9,263504338.18209955,10,2.1611321694671966
6,9.595091443039587,0.2281589562102027,2036,9.82325039924979,0.02322642169720395,9e9,228158956.21020272,10,8.874764633374836
7,8.823208012829852,0.17597866890266864,2223,8.999186681732521,0.019554952589203235,8e9,175978668.90266863,10,4.808140959609253
8,10.497392417285878,0.28543982546825075,1855,10.782832242754129,0.026471693061909708,10e9,285439825.46825075,10,4.407472998828108
9,8.705389772210303,0.027902183566952586,2291,8.733291955777256,0.0031949216524811935,8e9,27902183.566952586,10,0.773909863773701
10,11.523438066315478,0.08044518516379214,1724,11.603883251479271,0.006932608974115362,11e9,80445185.16379213,10,8.990908784927127
11,11.25887547355879,0.23463639350527268,1741,11.493511867064063,0.02041468231982684,11e9,234636393.5052727,10,2.019121737923913
12,10.394325912574057,0.22599729060561463,1884,10.620323203179671,0.021279699900088933,10e9,225997290.60561463,10,5.279781080702676
13,9.460360632382779,0.1413135672202155,2083,9.601674199602995,0.014717596565196773,9e9,141313567.2202155,10,9.372046545027613
14,10.388110119298126,0.11252006432392979,1905,10.500630183622055,0.010715553481678512,10e9,112520064.32392979,10,3.5061533031353176
15,9.593462486925896,0.1441271730606169,2054,9.737589659986513,0.01480111383753015,9e9,144127173.0606169,10,4.07488174803771
16,19.272121050352293,0.27055300287959577,1024,19.542674053231888,0.013844216105873842,19e9,270553002.87959576,20,1.928679566597553
17,21.521067304271842,0.4456961096711703,911,21.966763413943013,0.02028956661809689,21e9,445696109.6711703,20,16.722420655071964
18,19.071479879215588,0.4380615577673522,1026,19.50954143698294,0.02245370857035871,19e9,438061557.7673522,20,0.20758376030578962
19,24.06322108151947,0.15715572844819986,826,24.220376809967668,0.0064885748756610545,24e9,157155728.44819987,20,19.836867350794492
20,20.577357392230418,0.48586917228207666,950,21.063226564512494,0.023067176854123253,20e9,485869172.28207666,20,14.845602518100673
21,19.812446290162537,0.08717716465513108,1006,19.899623454817668,0.004380844936743043,19e9,87177164.65513107,20,15.944647431723302
22,17.50173159366961,0.025962217216750797,1142,17.527693810886362,0.0014812112475758674,17e9,25962217.216750797,20,7.457616869775604
23,18.870807468288977,0.5204199373990792,1032,19.391227405688056,0.026837905951555375,18e9,520419937.3990792,20,10.383674120072977
24,17.96048810270386,0.1775802046421095,1103,18.138068307345968,0.009790469504968676,17e9,177580204.64210948,20,1.4683824506477026
25,18.19258411225999,0.26318369348083337,1084,18.455767805740823,0.014260240822869903,18e9,263183693.48083338,20,11.618113054599498
26,22.10177390387333,0.08866787140489957,902,22.19044177527823,0.003995768642320679,22e9,88667871.40489957,20,16.070964585225887
27,21.432470445380467,0.2739497200622351,922,21.7064201654427,0.012620677107244594,21e9,273949720.0622351,20,20.780465575222514
28,19.82798097171949,0.09347805822900562,1004,19.921459029948497,0.004692329918630829,19e9,93478058.22900562,20,15.882879460265801
29,18.070365688016313,0.1292933188935721,1099,18.199659006909886,0.007104161613384247,18e9,129293318.89357209,20,16.21559943219679
30,21.73272015794995,0.16072216364660424,914,21.893442321596552,0.007341109784643668,21e9,160722163.64660424,20,12.14610707758448
31,117.6062854371974,0.05353563325503099,170,117.65982107045244,0.0004550035242954762,117e9,53535633.25503099,100,116.34869364951645
32,93.6550506569388,0.4912900221123462,213,94.14634067905115,0.005218365563322048,93e9,491290022.1123462,100,15.367877995554187
33,93.98062767763903,0.6320911006171795,212,94.61271877825621,0.006680825884505139,93e9,632091100.6171795,100,30.64557857000801
34,91.44793106978915,2.5623416043535316,213,94.01027267414268,0.027255974602212785,91e9,2562341604.353532,100,55.96943674494122
35,111.90958112015144,0.5449405394134226,178,112.45452165956486,0.0048458748600890295,111e9,544940539.4134226,100,44.46309387045475
36,85.54501194921424,1.843404922243676,229,87.38841687145792,0.021094385139797098,85e9,1843404922.243676,100,46.080532130951106
37,92.8426699551768,2.034762696620796,211,94.8774326517976,0.021446224246902026,92e9,2034762696.620796,100,0.8993948297833423
38,97.9437120950385,1.705023958381701,201,99.64873605342021,0.01711034204656307,97e9,1705023958.381701,100,96.24376092926539
39,105.09021453957449,1.486834311031684,188,106.57704885060618,0.013950792661897086,105e9,1486834311.031684,100,0.4313733680634642
40,93.06583767845602,1.4361441860338096,212,94.50198186448984,0.015196974261271621,93e9,1436144186.0338097,100,80.2224075340095
41,81.4262111214098,0.1480212547638269,246,81.57423237617364,0.001814558966135748,81e9,148021254.7638269,100,17.98842617641096
42,89.43239436928987,0.13118227117619657,224,89.56357664046607,0.0014646832573781629,89e9,131182271.17619658,100,18.645537701436293
43,110.00361658113792,0.3687279241225559,182,110.37234450526047,0.0033407637191668234,110e9,368727924.1225559,100,51.52039797703303
44,103.08073013735874,1.009951055614045,193,104.09068119297278,0.009702607803494972,103e9,1009951055.614045,100,10.974274211489668
45,102.80717663287531,1.4993887964474022,192,104.30656542932272,0.014374826649463171,102e9,1499388796.4474022,100,87.78343102396384
46,903.7496671346358,24.056591375281663,22,927.8062585099175,0.025928464218291883,903e9,24056591375.281662,1000,304.5983595056094
47,1095.6314762198351,26.331337576583497,18,1121.9628137964187,0.02346899313666678,1095e9,26331337576.583496,1000,765.8460898782913
48,862.2642262276412,20.115246917735245,23,882.3794731453764,0.02279659435642964,862e9,20115246917.735245,1000,662.8913955841076
49,1092.4860113100358,1.2722438475973545,19,1093.7582551576331,0.0011631855957183134,1092e9,1272243847.5973547,1000,485.6063850400834
50,1086.061384535437,19.203965642711886,19,1105.2653501781488,0.017374982070700536,1086e9,19203965642.711887,1000,775.450603370973
51,1062.465009764294,21.990442971008548,19,1084.4554527353027,0.020277866569385072,1062e9,21990442971.00855,1000,495.09561039626817
52,1096.4269361095755,15.51829248068061,18,1111.9452285902562,0.013955986393641867,1096e9,15518292480.68061,1000,14.649239678038713
53,1081.8238444604892,24.6041418175577,19,1106.427986278047,0.02223745433295163,1081e9,24604141817.5577,1000,83.62559931454713
54,998.1003059029308,0.029510604948239656,21,998.129816507879,2.956589860373809e-05,998e9,29510604.948239658,1000,528.4011445638632
55,1012.5056594466367,7.939950018470044,20,1020.4456094651068,0.0077808654815340675,1012e9,7939950018.470044,1000,618.409661220427
56,1184.09565750508,3.866401839886159,17,1187.962059344966,0.003254650945685981,1184e9,3866401839.886159,1000,38.103814551410416
57,1044.9264060965627,12.304816759120621,19,1057.2312228556832,0.011638718657858144,1044e9,12304816759.12062,1000,1015.899937477933
58,878.5883049798329,16.20596820354841,23,894.7942731833813,0.018111390170047634,878e9,16205968203.548409,1000,728.0944583377078
59,1036.416373195184,0.8555563174832005,20,1037.2719295126672,0.0008248139115122487,1036e9,855556317.4832004,1000,205.6994016112512
60,969.2149559613382,13.308796571964123,21,982.5237525333023,0.013545521457012334,969e9,13308796571.964123,1000,261.357136329535
