app_id,Tcomp,Tio,iter,witer,alpha_io,compute_size,io_size,mu,desyn_time
1,8.903056064299216,0.10966458673964774,2220,9.012720651038864,0.012167756106698714,8e9,109664586.73964775,10,0.6637133028023944
2,10.244790231493596,0.14773536588896014,1925,10.392525597382557,0.014215540246171585,10e9,147735365.88896012,10,1.4487118274938466
3,11.393456570365258,0.27304992663972055,1715,11.666506497004978,0.023404600744003173,11e9,273049926.63972056,10,9.908385067116296
4,9.884876045588436,0.10046570715483308,2003,9.985341752743269,0.010061318845419805,9e9,100465707.15483308,10,8.915953202512403
5,10.097718175288176,0.064723538699351,1969,10.162441713987526,0.0063688964247899105,10e9,64723538.699351005,10,7.789367325084298
6,9.194583357350668,0.03196749163754907,2168,9.226550848988216,0.0034647282782877225,9e9,31967491.63754907,10,7.412786206575565
7,10.354634389433526,0.1980526202030065,1896,10.552687009636532,0.0187679801383428,10e9,198052620.2030065,10,1.6894969378369349
8,9.064379514627495,0.08572408201191738,2186,9.150103596639413,0.009368646060291768,9e9,85724082.01191738,10,1.543635730609123
9,10.49173741589572,0.20296683913476246,1871,10.694704255030482,0.018978256368266815,10e9,202966839.13476247,10,1.323072318972392
10,9.23050071728938,0.19906701848998223,2121,9.429567735779361,0.021110937857166702,9e9,199067018.48998225,10,6.1544316185484735
11,10.030766622813735,0.04616388305083479,1985,10.076930505864569,0.004581145322374541,10e9,46163883.05083479,10,5.742267529916286
12,10.225736392386946,0.11074874926135804,1935,10.336485141648303,0.010714352871763286,10e9,110748749.26135804,10,2.958769884745775
13,10.340972018277197,0.023758066249039974,1930,10.364730084526236,0.0022922030825008152,10e9,23758066.249039974,10,2.096593040065678
14,10.40659044409299,0.1447629415894926,1896,10.551353385682482,0.01371984581484369,10e9,144762941.5894926,10,2.12536805879555
15,9.298639908155375,0.047163688270834246,2140,9.345803596426208,0.005046509675087696,9e9,47163688.270834245,10,2.582377947400913
16,18.32487436220368,0.42351882160662724,1067,18.748393183810308,0.02258960634409705,18e9,423518821.6066272,20,1.9962031973708343
17,19.660310399484903,0.24640835198182368,1005,19.906718751466727,0.012378150063714961,19e9,246408351.98182368,20,17.60521520028887
18,17.38354149385177,0.38817505084797527,1126,17.771716544699746,0.021842293617030762,17e9,388175050.84797525,20,11.73275403146178
19,18.273811812136223,0.2104945343642206,1082,18.484306346500443,0.011387743224893731,18e9,210494534.36422062,20,13.751185498220677
20,17.183910313982373,0.26969114796175997,1146,17.45360146194413,0.015451891035199531,17e9,269691147.96176,20,5.524578839884051
21,19.57867645450984,0.14248904194049494,1015,19.721165496450332,0.0072251836214316,19e9,142489041.94049495,20,9.630857459922783
22,17.507690671960898,0.26086647448327477,1126,17.768557146444174,0.014681353828185148,17e9,260866474.48327476,20,6.6016614880079665
23,19.764342234143662,0.3303319787309872,996,20.09467421287465,0.016438782496873902,19e9,330331978.7309872,20,6.142940270869863
24,22.174612499379474,0.1122021797660454,898,22.286814679145518,0.005034464609742394,22e9,112202179.7660454,20,12.640054072055118
25,19.547115291959045,0.0409962169604294,1022,19.588111508919475,0.0020929131908281056,19e9,40996216.9604294,20,6.492915848212018
26,17.315426405625153,0.12649453475390435,1147,17.441920940379056,0.007252328180267243,17e9,126494534.75390434,20,10.300932045461018
27,18.477342882457876,0.43576863933266236,1058,18.913111521790537,0.023040557807243733,18e9,435768639.33266234,20,3.736580228492441
28,20.54204558708848,0.24023556936087326,963,20.782281156449354,0.01155963426499603,20e9,240235569.36087325,20,9.94277007947394
29,19.232823568405067,0.34010905073078934,1022,19.572932619135855,0.017376499339617362,19e9,340109050.73078936,20,15.30997348080244
30,23.231405232067633,0.3799607037093843,848,23.611365935777016,0.016092279656453528,23e9,379960703.70938426,20,3.8679411790400655
31,106.22185352380373,0.9948259942544813,187,107.21667951805821,0.009278649541528895,106e9,994825994.2544813,100,96.63885812885358
32,103.60657165741547,2.0306812661852978,190,105.63725292360077,0.019223154805567806,103e9,2030681266.1852977,100,88.24101388691784
33,99.47845866573718,0.9166869302019035,200,100.39514559593908,0.009130789389870489,99e9,916686930.2019035,100,7.465066649656406
34,93.30559477344691,1.0825160736232993,212,94.38811084707021,0.011468775716649492,93e9,1082516073.6232994,100,72.65293153952823
35,98.8674524923334,0.04601896709489125,203,98.9134714594283,0.0004652446872594803,98e9,46018967.09489125,100,94.78415430914703
36,107.83590024173994,1.511718324474799,183,109.34761856621473,0.013824885665519893,107e9,1511718324.474799,100,84.19214062642426
37,94.99755055264937,2.475437343743733,206,97.47298789639311,0.02539613689050907,94e9,2475437343.743733,100,65.51091768845859
38,103.8904880662958,1.1553535681874967,191,105.0458416344833,0.01099856548541594,103e9,1155353568.1874967,100,100.47596135012242
39,112.91147298962812,3.1190724656373234,173,116.03054545526544,0.026881477229975227,112e9,3119072465.6373234,100,78.6496212395375
40,90.68437157478365,1.1949512930964599,218,91.87932286788012,0.013005660640476924,90e9,1194951293.0964599,100,0.9166641210571821
41,93.59453255392508,2.342656933957898,209,95.93718948788297,0.024418652938064018,93e9,2342656933.957898,100,39.218521091569144
42,98.07104776293447,0.04265576992449463,204,98.11370353285896,0.0004347585341145431,98e9,42655769.92449463,100,43.51946054505501
43,103.38704442799784,0.9308449858641968,192,104.31788941386203,0.008923157773747133,103e9,930844985.8641969,100,75.19829624962944
44,100.49765449718913,2.311116408653101,195,102.80877090584224,0.02247975915177261,100e9,2311116408.653101,100,12.894731759102163
45,95.45919724015928,1.4236633430143744,207,96.88286058317365,0.014694687320799777,95e9,1423663343.0143743,100,63.93414615932682
46,1109.898309561243,11.619291569125316,18,1121.5176011303683,0.010360329215889549,1109e9,11619291569.125317,1000,588.390531959691
47,1088.711489715824,4.438572727278983,19,1093.150062443103,0.004060350796997741,1088e9,4438572727.278983,1000,235.8674856948091
48,974.8656663061154,1.6523791031740585,21,976.5180454092895,0.0016921132291841,974e9,1652379103.1740584,1000,811.2746157069234
49,917.6724272353752,11.863519134833473,22,929.5359463702086,0.01276284062080646,917e9,11863519134.833473,1000,788.424087032127
50,1054.5186239320713,17.981886450119458,19,1072.5005103821907,0.016766319713648926,1054e9,17981886450.119457,1000,310.67714111037066
51,1070.9535959741734,27.712272166526173,19,1098.6658681406996,0.02522356702809414,1070e9,27712272166.526173,1000,668.8778580738583
52,899.2947600436465,13.322764418691518,22,912.617524462338,0.014598409587346603,899e9,13322764418.691519,1000,2.8785309535162154
53,1039.1401912979627,12.4009725553193,20,1051.5411638532821,0.011793140374911242,1039e9,12400972555.3193,1000,267.99665968205466
54,1156.8909055651236,17.307814066326536,18,1174.19871963145,0.014740106403589845,1156e9,17307814066.326534,1000,837.828576855154
55,988.5836497365162,10.173092663003477,21,998.7567423995197,0.01018575618179313,988e9,10173092663.003477,1000,42.00470728765501
56,797.8064755754754,20.52155748154515,25,818.3280330570205,0.025077422075940565,797e9,20521557481.545147,1000,810.725638030226
57,1007.5255833477173,22.43639717269698,20,1029.9619805204143,0.021783713959383652,1007e9,22436397172.696983,1000,1027.8751047442368
58,1009.4498291004221,14.526612339871663,20,1023.9764414402938,0.014186471242872518,1009e9,14526612339.871664,1000,783.2551824105608
59,998.1393223491358,20.4474055313349,20,1018.5867278804707,0.02007429016268742,998e9,20447405531.3349,1000,633.5030627841982
60,782.5038455129776,5.805436320596512,26,788.3092818335741,0.007364414518998575,782e9,5805436320.596512,1000,426.801122408507
