app_id,start_app,end_app,effective_cpu,effective_io,effective_iter,total_bytes,stretch,utilization,Tcomp,Tio,iterations,priority,group_id
app_1,2.21501,18606.6,7759.2,93.1204,860.265,5.33729e+10,1.02399,0.964273,9,0.0620615,2003,0.1,1
app_10,7.2329,19545.4,7690.4,171.797,853.763,1.24472e+11,1.02369,0.964273,9,0.145752,2089,0.1,1
app_11,3.40255,20033.2,7704,174.945,769.755,1.39266e+11,1.01998,0.964273,10,0.180865,1928,0.1,1
app_12,5.18745,20431.1,7780.7,76.0089,777.875,3.2948e+10,1.02385,0.964273,10,0.0424041,1989,0.1,1
app_13,0.500659,18974,7773.1,71.8838,971.848,1.50306e+09,1.02899,0.964273,8,0.00154636,2303,0.1,1
app_14,7.77473,18974.5,7801.7,62.5075,780.105,1.02086e+10,1.02408,0.964273,10,0.013088,1851,0.1,1
app_15,7.36752,18772.5,7657.6,184.098,954.871,1.21851e+11,1.02835,0.964273,8,0.127727,2242,0.1,1
app_16,18.3295,19428.6,7806.8,129.277,373.041,1.10746e+11,1.01041,0.964273,21,0.296905,902,0.1,1
app_17,5.60836,19853.4,7755.3,184.844,369.751,1.58667e+11,1.01087,0.964273,21,0.42883,918,0.1,1
app_18,20.7711,19952.4,7790.13,162.881,370.391,1.437e+11,1.00834,0.964273,21,0.387931,921,0.1,1
app_19,8.7831,19939.3,7905,34.4072,393.991,9.88363e+09,1.01075,0.964273,20,0.0250854,983,0.1,1
app_2,9.03227,18697.9,7769.9,96.0231,862.214,6.00843e+10,1.02171,0.964273,9,0.0696226,2012,0.1,1
app_20,9.81489,19873.7,7884,43.3612,376.368,2.78047e+10,1.01115,0.964273,21,0.0737524,932,0.1,1
app_21,17.4135,20236.5,7825.5,117.744,388.96,9.58796e+10,1.00993,0.964273,20,0.246477,985,0.1,1
app_22,2.38222,19955.8,7856.7,56.9474,462.977,4.06731e+10,1.013,0.964273,17,0.0878468,1156,0.1,1
app_23,1.72157,20171.5,7827.6,112.254,371.313,8.91227e+10,1.01052,0.964273,21,0.239577,941,0.1,1
app_24,13.1982,20087.7,7729.8,204.006,406.896,1.77855e+11,1.01168,0.964273,19,0.43699,1020,0.1,1
app_25,15.1493,19170,7693.3,224.68,513.767,1.91062e+11,1.01467,0.964273,15,0.371716,1228,0.1,1
app_26,13.6067,19756.5,7716.5,226.224,385.85,1.93612e+11,1.01136,0.964273,20,0.501584,950,0.1,1
app_27,9.99899,20168.4,7801.1,129.147,433.526,1.01179e+11,1.01237,0.964273,18,0.23367,1095,0.1,1
app_28,14.9136,19022.6,7690.1,223.533,551.373,1.89867e+11,1.01523,0.964273,14,0.344586,1308,0.1,1
app_29,2.78225,19475.3,7752.6,167.548,515.188,1.40231e+11,1.01358,0.964273,15,0.271766,1258,0.1,1
app_3,3.41167,19277.5,7799.54,65.1764,782.631,1.59183e+10,1.02361,0.964273,10,0.0203558,1881,0.1,1
app_30,1.96469,19774.3,7744.3,192.961,431.881,1.68022e+11,1.01108,0.964273,18,0.388939,1064,0.1,1
app_31,15.1249,20492,7616.3,303.736,105.945,1.59792e+11,1.02879,0.964273,72,1.50748,273,0.01,2
app_32,11.4819,20060.4,7832.7,137.925,75.3032,7.70577e+10,1.01141,0.964273,103,1.02744,191,0.01,2
app_33,33.658,20382.5,7738.9,218.926,75.0544,1.16559e+11,1.0184,0.964273,103,1.55412,191,0.01,2
app_34,46.8522,20296.9,7857.9,55.5681,74.9605,2.67723e+10,1.01463,0.964273,106,0.356964,188,0.01,2
app_35,29.2988,20335.7,7760.4,166.477,77.1272,9.44359e+10,1.01848,0.964273,101,1.22644,195,0.01,2
app_36,97.4825,20434.7,7789.7,154.721,79.8482,8.82808e+10,1.01549,0.964273,97,1.10351,203,0.01,2
app_37,17.0187,20369.9,7734.45,197.558,86.0518,1.07875e+11,1.02011,0.964273,90,1.25084,218,0.01,2
app_38,54.1394,20330.7,7759.4,188.368,100.089,9.72e+10,1.01825,0.964273,77,0.972,255,0.01,2
app_39,15.8311,20243.4,7752.2,202.218,69.0262,1.11888e+11,1.01728,0.964273,113,1.62157,174,0.01,2
app_4,6.03563,19915.2,7691.5,167.153,855.662,1.17019e+11,1.02452,0.964273,9,0.136704,2129,0.1,1
app_40,63.7687,20292,7749.5,194.796,79.9266,1.08871e+11,1.01802,0.964273,97,1.36089,202,0.01,2
app_41,64.1393,20329.7,7707.5,264.08,69.9184,1.51174e+11,1.01798,0.964273,111,2.15963,177,0.01,2
app_42,75.8346,20337.8,7876.5,94.0301,77.7849,4.65653e+10,1.00971,0.964273,101,0.596992,197,0.01,2
app_43,102.229,20727.6,7628.8,332.036,73.6492,1.84914e+11,1.02384,0.964273,103,2.49884,190,0.01,2
app_44,87.7624,20351.3,7784.5,163.927,72.0059,8.57079e+10,1.01649,0.964273,108,1.19039,183,0.01,2
app_45,100.309,20299.8,7814.8,137.592,75.3892,7.32673e+10,1.01419,0.964273,103,0.976898,191,0.01,2
app_46,360.613,21621.5,7424.2,322.978,7.80019,1.37175e+11,1.05801,0.964273,956,17.1468,21,0.001,3
app_47,140.112,21771.3,7585.2,85.902,8.22672,4.29363e+10,1.04875,0.964273,900,5.36704,23,0.001,3
app_48,362.548,21318.3,7635.8,220.029,7.21311,9.33404e+10,1.03504,0.964273,1064,13.3343,19,0.001,3
app_49,423.46,21543.8,7807.1,24.2665,9.67303,1.05695e+10,1.02332,0.964273,828,1.05695,25,0.001,3
app_5,0.696411,19650.9,7656.6,218.778,766.343,1.6303e+11,1.02307,0.964273,10,0.212555,1883,0.1,1
app_50,572.787,21304.9,7563.6,289.287,9.96721,1.29399e+11,1.03991,0.964273,765,12.9399,26,0.001,3
app_51,27.8701,21096.9,7874.3,95.7382,7.96313,3.16903e+10,1.01189,0.964273,981,3.96128,21,0.001,3
app_52,758.391,22431.1,7590.9,298.975,6.72822,1.17306e+11,1.03785,0.964273,1121,16.758,18,0.001,3
app_53,1018.97,22760.6,7463.67,399.243,7.26436,1.43921e+11,1.05158,0.964273,1021,20.496,20,0.001,3
app_54,788.412,22781.2,7203,398.477,8.44285,1.58859e+11,1.08668,0.964273,850,17.651,24,0.001,3
app_55,336.946,22219.2,7432.3,444.594,7.59782,1.81788e+11,1.05068,0.964273,974,22.7235,21,0.001,3
app_56,461.333,21047.7,7611,253.513,8.98508,1.00946e+11,1.03735,0.964273,860,11.2162,23,0.001,3
app_57,700.86,22400,7594.7,405.3,6.94877,1.57343e+11,1.03199,0.964273,1070,22.4776,19,0.001,3
app_58,893.575,22547,7695.3,279.667,7.70574,1.11817e+11,1.02471,0.964273,979,13.9772,21,0.001,3
app_59,927.126,22024,7745.8,189.103,7.3182,7.06537e+10,1.02348,0.964273,1050,10.0934,19,0.001,3
app_6,0.902206,20353.9,7630.3,240.699,848.125,1.77656e+11,1.0246,0.964273,9,0.2095,2158,0.1,1
app_60,419.921,21291.9,7655.6,273.44,7.25268,1.07709e+11,1.03049,0.964273,1057,15.387,19,0.001,3
app_7,2.17281,19644.3,7682.39,182.802,854.208,1.47537e+11,1.02172,0.964273,9,0.172712,2095,0.1,1
app_8,4.95576,18391.4,7619.3,232.592,952.035,1.86111e+11,1.02493,0.964273,8,0.195495,2190,0.1,1
app_9,3.6088,19823.4,7769.9,104.015,863.086,7.09958e+10,1.02029,0.964273,9,0.0822663,2137,0.1,1
