app_id,start_app,end_app,effective_cpu,effective_io,effective_iter,total_bytes,stretch,utilization,Tcomp,Tio,iterations,priority,group_id
app_1,3.87637,18917.4,7876.8,76.2615,716.96,4.12209e+10,1.01035,0.96731,11,0.0574908,1694,0.1,1
app_10,5.94935,18582.1,7805.3,149.706,866.394,8.59829e+10,1.01378,0.96731,9,0.0992874,2013,0.1,1
app_11,6.9965,20101.3,7787.8,167.526,865.285,9.4123e+10,1.01498,0.96731,9,0.108687,2174,0.1,1
app_12,5.74603,19334.2,7708.6,251.625,768.513,1.82726e+11,1.01377,0.96731,10,0.237615,1862,0.1,1
app_13,8.25245,19506.8,7681.8,276.694,854.686,1.97294e+11,1.01535,0.96731,9,0.230753,2080,0.1,1
app_14,8.47935,19095.8,7789.1,169.259,864.794,9.95391e+10,1.01412,0.96731,9,0.115074,2065,0.1,1
app_15,8.04998,20202.8,7858.1,97.1807,786.473,5.72425e+10,1.0107,0.96731,10,0.0728276,1985,0.1,1
app_16,10.4695,19657.9,7733.2,234.255,452.771,1.52498e+11,1.01449,0.96731,17,0.33664,1114,0.05,1.30103
app_17,14.2996,19691.6,7865.7,101.562,375.788,6.28496e+10,1.00901,0.96731,21,0.167153,922,0.05,1.30103
app_18,14.1465,19733.9,7722.1,245.935,367.305,1.67565e+11,1.01398,0.96731,21,0.456581,906,0.05,1.30103
app_19,12.2837,19457.6,7785.32,169.422,410.586,1.12914e+11,1.01288,0.96731,19,0.27473,999,0.05,1.30103
app_2,8.93569,19188.5,7872.9,80.6363,788.408,3.83779e+10,1.01121,0.96731,10,0.048703,1890,0.1,1
app_20,8.3687,19757.5,7868.7,93.6539,414.803,4.75105e+10,1.01058,0.96731,19,0.114483,1024,0.05,1.30103
app_21,15.3429,20122,7835.1,116.428,391.654,7.37867e+10,1.01152,0.96731,20,0.188713,985,0.05,1.30103
app_22,13.9302,19480.6,7654.71,320.639,382.982,2.21589e+11,1.01571,0.96731,20,0.579512,934,0.05,1.30103
app_23,11.1691,19455.3,7915.7,42.8528,440.221,1.18696e+10,1.00914,0.96731,18,0.0269764,1069,0.05,1.30103
app_24,0.0350594,19835.8,7854.1,101.882,392.817,5.90129e+10,1.01098,0.96731,20,0.150543,974,0.05,1.30103
app_25,8.54754,20150.1,7896.1,62.5527,439.739,3.3276e+10,1.00891,0.96731,18,0.0756272,1107,0.05,1.30103
app_26,12.6823,20019.5,7878.4,81.3234,414.214,4.13751e+10,1.01013,0.96731,19,0.0999399,1038,0.05,1.30103
app_27,4.56113,19967.2,7826.2,140.495,372.174,9.13272e+10,1.01042,0.96731,21,0.245503,930,0.05,1.30103
app_28,9.50637,19108.8,7813.7,135.878,558.842,7.66759e+10,1.01389,0.96731,14,0.137166,1334,0.05,1.30103
app_29,15.6281,19654.9,7911.5,44.9532,439.989,1.43918e+10,1.00935,0.96731,18,0.0327087,1078,0.05,1.30103
app_3,0.153998,19865.6,7697.8,262.262,855.363,1.71653e+11,1.01659,0.96731,9,0.200764,2127,0.1,1
app_30,4.41493,19384,7708,256.515,383.57,1.74177e+11,1.01495,0.96731,20,0.453585,934,0.05,1.30103
app_31,44.9935,20285.4,7716.3,254.746,77.5563,1.52398e+11,1.01669,0.96731,99,1.95382,197,0.01,2
app_32,39.9706,20297.5,7885.9,60.2911,76.8442,3.25866e+10,1.01029,0.96731,102,0.423203,195,0.01,2
app_33,90.3683,20388,7831.5,122.942,87.0714,6.63061e+10,1.01294,0.96731,90,0.762139,220,0.01,2
app_34,10.4613,20353.2,7874.9,76.855,72.2443,3.96719e+10,1.01079,0.96731,108,0.550998,185,0.01,2
app_35,27.3294,20078.6,7778.7,178.345,80.5316,1.0117e+11,1.01525,0.96731,98,1.24902,201,0.01,2
app_36,47.7311,20334.3,7729.1,218.707,90.6117,1.23608e+11,1.01876,0.96731,84,1.35833,232,0.01,2
app_37,9.14306,20159,7887.1,70.8929,78.056,4.00815e+10,1.00919,0.96731,102,0.513865,195,0.01,2
app_38,61.5535,20250.5,7778.1,191.029,76.3721,1.09788e+11,1.01421,0.96731,102,1.44458,193,0.01,2
app_39,57.9452,20179.8,7916.5,42.9679,77.6866,2.23208e+10,1.00771,0.96731,102,0.286165,195,0.01,2
app_4,7.82746,20217.7,7791,169.258,779.236,1.1264e+11,1.01219,0.96731,10,0.144595,1969,0.1,1
app_40,45.4863,20339.8,7679.4,276.954,78.4816,1.7001e+11,1.01918,0.96731,98,2.17961,200,0.01,2
app_41,45.8797,20431.7,7802.11,153.56,93.2838,8.29727e+10,1.01457,0.96731,83,0.891634,239,0.01,2
app_42,89.6131,20537.9,7601.5,381.29,70.8616,2.22005e+11,1.02256,0.96731,108,3.12683,180,0.01,2
app_43,9.23017,20365.7,7718.9,218.684,87.85,1.25808e+11,1.0198,0.96731,87,1.44607,226,0.01,2
app_44,24.5001,20083.5,7884.9,78.0164,72.3263,4.05176e+10,1.00941,0.96731,109,0.555036,181,0.01,2
app_45,13.9429,20160.5,7923,41.7546,77.8748,2.10227e+10,1.00705,0.96731,101,0.269522,197,0.01,2
app_46,913.891,22633.5,7440.4,491.651,7.08189,2.14981e+11,1.04502,0.96731,1057,30.7116,19,0.001,3
app_47,173.972,21397.7,7381.5,399.881,8.11661,1.92357e+11,1.05627,0.96731,889,24.0446,22,0.001,3
app_48,166.571,20983.1,7646.2,169.827,8.64085,7.55212e+10,1.03604,0.96731,901,9.44015,22,0.001,3
app_49,86.7148,21577.1,7586.7,165.227,8.68872,7.88101e+10,1.04364,0.96731,879,9.85126,23,0.001,3
app_5,9.3877,20282.6,7661.6,302.545,697.052,2.23873e+11,1.01452,0.96731,11,0.321194,1767,0.1,1
app_50,895.849,22121.4,7556.5,300.365,6.83289,1.37477e+11,1.03977,0.96731,1114,19.6396,18,0.001,3
app_51,780.943,22298.7,7364.09,434.995,8.50198,1.91625e+11,1.0588,0.96731,859,23.9531,23,0.001,3
app_52,185.541,21730.2,7900.7,25.9634,7.46248,1.48077e+10,1.01067,0.96731,1036,2.11539,20,0.001,3
app_53,687.707,22171.2,7369.4,448.734,8.64243,2.09801e+11,1.05552,0.96731,854,23.3112,23,0.001,3
app_54,558.048,21728.1,7491.13,367.001,7.13131,1.6551e+11,1.04484,0.96731,1045,22.8171,19,0.001,3
app_55,215.545,20909.2,7780.4,92.4995,6.98926,3.71094e+10,1.02334,0.96731,1115,5.30134,18,0.001,3
app_56,182.391,20884.4,7390.5,444.696,7.79883,1.95202e+11,1.05462,0.96731,976,24.4003,20,0.001,3
app_57,915.869,21704.6,7486.7,391.783,6.31445,1.83057e+11,1.04306,0.96731,1151,30.5095,17,0.001,3
app_58,438.051,21422.4,7865.7,9.00978,6.76254,3.72103e+09,1.01659,0.96731,1166,0.531576,18,0.001,3
app_59,623.397,21771.9,7550.6,271.953,10.2571,1.30387e+11,1.04153,0.96731,733,13.0387,27,0.001,3
app_6,4.23731,20190.3,7878,78.9792,787.217,3.35267e+10,1.01118,0.96731,10,0.0426007,1991,0.1,1
app_60,227.006,21791.5,7431.1,340.105,7.9121,1.55467e+11,1.0545,0.96731,956,19.4334,21,0.001,3
app_7,2.87461,20076.3,7786.9,166.048,867.004,8.75917e+10,1.01594,0.96731,9,0.101028,2174,0.1,1
app_8,1.45121,20184.6,7833.5,133.801,651.509,8.21142e+10,1.01066,0.96731,12,0.126135,1644,0.1,1
app_9,7.67473,18523.8,7761.7,191.675,860.093,1.3181e+11,1.01349,0.96731,9,0.153267,1992,0.1,1
