app_id,start_app,end_app,effective_cpu,effective_io,effective_iter,total_bytes,stretch,utilization,Tcomp,Tio,iterations,priority,group_id
app_1,4.53607,20571.4,7223.8,776.2,802.165,2.12186e+11,1.07585,0.952059,9,0.264571,2067,1,1
app_10,0.557284,19799.7,7708.2,291.8,769.236,7.25427e+10,1.02818,0.952059,10,0.0942112,1907,1.00001,1.00001
app_11,8.87045,19414.6,7618.9,381.1,762.597,9.29943e+10,1.03736,0.952059,10,0.12188,1852,1.00001,1.00001
app_12,0.650873,19708.2,7741.2,258.8,861.934,6.02634e+10,1.02545,0.952059,9,0.0699111,2118,1.00001,1.00001
app_13,9.15887,20250.1,7807.8,192.2,706.875,4.27089e+10,1.01904,0.952059,11,0.0604086,1793,1.00001,1.00001
app_14,0.483989,19541.2,7638.9,361.1,766.671,8.56594e+10,1.03566,0.952059,10,0.111827,1870,1.00001,1.00001
app_15,6.43684,19741.5,7741.1,258.9,859.448,5.74896e+10,1.02583,0.952059,9,0.0669262,2120,1.00002,1.00002
app_16,7.99394,20846.1,7288.6,711.4,404.741,1.97455e+11,1.06865,0.952059,18,0.488749,1059,1.00002,1.00002
app_17,8.82435,21266,7283.8,716.2,457.35,2.01139e+11,1.06881,0.952059,16,0.440128,1215,1.00002,1.00002
app_18,10.5797,21017.1,7391.7,608.3,335.711,1.73155e+11,1.05752,0.952059,22,0.515343,884,1.00002,1.00002
app_19,6.76964,19648.1,7942.3,57.7,499.797,7.71779e+09,1.00629,0.952059,16,0.0154665,1221,1.00002,1.00002
app_2,6.20051,20657.8,7413,587,821.594,1.58281e+11,1.05662,0.952059,9,0.192556,2128,1,1
app_20,14.4781,19468.9,7802,198,409.457,4.91068e+10,1.01896,0.952059,19,0.120066,999,1.00002,1.00002
app_21,9.51665,20791.9,7549.6,450.4,444.705,1.19996e+11,1.04308,0.952059,17,0.269655,1158,1.00002,1.00002
app_22,8.90185,19193.8,7948.9,51.1,418.671,7.0097e+09,1.00554,0.952059,19,0.0167296,1002,1.00002,1.00002
app_23,4.93161,20363.9,7613.5,386.5,400.24,1.00604e+11,1.03706,0.952059,19,0.250882,1021,1.00002,1.00002
app_24,7.25584,20855.5,7475.5,524.5,373.788,1.44708e+11,1.04984,0.952059,20,0.386919,975,1.00002,1.00002
app_25,8.23732,20725.4,7453.6,546.4,438.507,1.50649e+11,1.05204,0.952059,17,0.343948,1137,1.00003,1.00003
app_26,20.6338,20352.5,7664.8,335.2,364.445,8.4807e+10,1.03231,0.952059,21,0.232348,928,1.00003,1.00003
app_27,4.55914,20262.9,7792.8,207.2,389.765,5.13842e+10,1.01986,0.952059,20,0.131754,988,1.00003,1.00003
app_28,17.2771,20015.5,7755.1,244.9,431.672,6.0976e+10,1.02353,0.952059,18,0.141148,1075,1.00003,1.00003
app_29,16.2912,19819.3,7695,305,453.666,7.89744e+10,1.02907,0.952059,17,0.174336,1122,1.00003,1.00003
app_3,6.32472,21240,7253.6,746.4,803.971,2.02484e+11,1.07295,0.952059,9,0.251845,2142,1,1
app_30,1.11542,21348.3,7269.5,730.5,343.595,2.05695e+11,1.07021,0.952059,21,0.599693,926,1.00003,1.00003
app_31,77.6203,20685.2,7722.9,277.1,73.8983,7.62788e+10,1.02575,0.952059,104,1.0308,190,1.00003,1.00003
app_32,86.8454,20372.9,7745.8,254.2,80.4158,6.88169e+10,1.02372,0.952059,97,0.860211,203,1.00003,1.00003
app_33,6.19795,21146.5,7315.94,684.058,76.9105,1.90344e+11,1.06577,0.952059,96,2.48484,202,1.00003,1.00003
app_34,39.6999,20472.8,7743.4,256.6,81.5514,7.17867e+10,1.02365,0.952059,95,0.886256,207,1.00003,1.00003
app_35,15.8789,21301.8,7251.8,748.2,80.7581,2.07921e+11,1.07243,0.952059,90,2.56693,216,1.00004,1.00004
app_36,88.9978,21394.6,7380.9,619.1,69.8474,1.81233e+11,1.0579,0.952059,105,2.58905,186,1.00004,1.00004
app_37,82.0742,20577,7628.06,371.943,79.4,1.05455e+11,1.03446,0.952059,96,1.32367,204,1.00004,1.00004
app_38,29.7717,20023.8,7991.1,8.9,88.8065,3.66465e+08,1.00107,0.952059,90,0.00411758,222,1.00004,1.00004
app_39,63.0524,20985.3,7488.21,511.787,72.4563,1.50262e+11,1.04733,0.952059,103,2.0682,190,1.00004,1.00004
app_4,8.46743,19384.5,7294.8,705.2,809.184,1.90511e+11,1.06876,0.952059,9,0.23549,1961,1,1
app_40,18.1885,20512.1,7672.1,327.9,70.5826,9.40496e+10,1.03011,0.952059,110,1.34357,179,1.00004,1.00004
app_41,6.20147,21039.4,7440.8,559.2,82.4329,1.56551e+11,1.053,0.952059,89,1.90916,219,1.00004,1.00004
app_42,90.0542,19907.1,7975.1,24.9,77.5655,5.48064e+09,1.00243,0.952059,104,0.0702646,191,1.00004,1.00004
app_43,78.9477,21304.2,7286.8,713.2,68.8371,1.83916e+11,1.07085,0.952059,106,2.66545,183,1.00004,1.00004
app_44,31.2238,20990.6,7472.8,527.2,83.8971,1.49808e+11,1.04951,0.952059,89,1.78343,220,1.00004,1.00004
app_45,72.42,20073.7,7972.7,27.3,84.1802,6.8879e+09,1.00256,0.952059,95,0.0819988,211,1.00004,1.00004
app_46,354.074,22023.6,7420.1,579.9,7.79198,1.48026e+11,1.05706,0.952059,966,18.5033,21,1.00005,1.00005
app_47,710.035,21144.2,7868.7,131.3,8.80243,3.6343e+10,1.01201,0.952059,869,4.54288,23,1.00005,1.00005
app_48,1044.77,22074.2,7705.6,294.4,6.70624,6.3098e+10,1.02977,0.952059,1115,9.014,18,1.00005,1.00005
app_49,679.374,22786.6,7557.8,442.2,7.18632,1.4308e+11,1.03884,0.952059,1026,17.885,20,1.00005,1.00005
app_5,7.55272,20794.9,7527.4,472.6,941.569,1.17693e+11,1.04642,0.952059,8,0.12494,2448,1.00001,1.00001
app_50,1089.14,22553.7,7732.6,267.4,6.71604,8.51713e+10,1.02331,0.952059,1120,14.1952,18,1.00005,1.00005
app_51,312.066,22584.2,7582.1,417.9,7.10669,1.44247e+11,1.03542,0.952059,1018,20.6067,20,1.00005,1.00005
app_52,845.074,22011.5,7718.3,281.7,6.95668,9.89807e+10,1.02337,0.952059,1137,14.1401,18,1.00005,1.00005
app_53,359.022,20575,7936.9,63.1,7.99837,1.8319e+10,1.00563,0.952059,1004,2.28988,20,1.00005,1.00005
app_54,1041.6,21115.7,7898.4,101.6,7.1934,3.39965e+10,1.00852,0.952059,1116,4.85664,18,1.00005,1.00005
app_55,429.509,21122.5,7809.3,190.7,7.68113,5.5147e+10,1.01724,0.952059,1012,6.89337,20,1.00005,1.00005
app_56,584.841,21710.2,7551.7,448.3,6.93526,1.17935e+11,1.04307,0.952059,1060,16.8479,19,1.00006,1.00006
app_57,520.781,21534.3,7781,219,7.88243,5.84672e+10,1.02048,0.952059,978,7.30839,21,1.00006,1.00006
app_58,185.071,20731.3,7726.6,273.4,8.55648,5.89312e+10,1.02755,0.952059,924,7.3664,22,1.00006,1.00006
app_59,279.706,21706.3,7675.9,324.1,9.39849,8.17829e+10,1.03124,0.952059,814,8.17829,25,1.00006,1.00006
app_6,1.74324,19125.8,7849.6,150.4,786.98,2.99155e+10,1.01529,0.952059,10,0.0380121,1878,1.00001,1.00001
app_60,345.789,21462.4,7590.2,409.8,8.08087,1.0801e+11,1.0392,0.952059,952,13.5012,21,1.00006,1.00006
app_7,0.786136,19325.1,7284.1,715.9,810.174,1.8821e+11,1.07062,0.952059,9,0.232358,1958,1.00001,1.00001
app_8,0.57022,18457.3,7899.8,100.2,984.132,8.78451e+09,1.01156,0.952059,8,0.00892735,2276,1.00001,1.00001
app_9,4.18614,19809.7,7415.99,584.005,826.825,1.52232e+11,1.05705,0.952059,9,0.184298,2047,1.00001,1.00001
