app_id,start_app,end_app,effective_cpu,effective_io,effective_iter,total_bytes,stretch,utilization,Tcomp,Tio,iterations,priority,group_id
app_1,2.21501,18369.3,7862,94.6208,870.56,5.39935e+10,1.01061,0.966438,9,0.0620615,2003,0.1,1
app_10,7.2329,19371,7774.7,195.106,863.353,1.25784e+11,1.0126,0.966438,9,0.145752,2089,0.1,1
app_11,3.40255,19828.4,7771,196.51,777.061,1.40532e+11,1.01118,0.966438,10,0.180865,1928,0.1,1
app_12,5.18745,20185.4,7886.8,80.6064,788.351,3.34145e+10,1.01007,0.966438,10,0.0424041,1989,0.1,1
app_13,0.500659,18761.3,7862.8,83.3203,983.696,1.52007e+09,1.01725,0.966438,8,0.00154636,2303,0.1,1
app_14,7.77473,18776.7,7893.1,71.7278,787.745,1.03133e+10,1.01222,0.966438,10,0.013088,1851,0.1,1
app_15,7.36752,18518.1,7761.18,200.908,969.621,1.23779e+11,1.01459,0.966438,8,0.127727,2242,0.1,1
app_16,18.3295,19462.1,7803.5,159.697,370.792,1.10152e+11,1.01091,0.966438,21,0.296905,902,0.05,1.30103
app_17,5.60836,20017.7,7729,234.745,366.099,1.56952e+11,1.01446,0.966438,21,0.42883,918,0.05,1.30103
app_18,20.7711,19950,7752,204.717,368.697,1.43147e+11,1.01328,0.966438,21,0.387931,921,0.05,1.30103
app_19,8.7831,19923.9,7899.7,37.0298,394.971,9.90872e+09,1.01143,0.966438,20,0.0250854,983,0.05,1.30103
app_2,9.03227,18472.2,7853.2,112.758,872.228,6.07109e+10,1.01088,0.966438,9,0.0696226,2012,0.1,1
app_20,9.81489,19793.8,7905.51,52.2255,376.36,2.77628e+10,1.00841,0.966438,21,0.0737524,932,0.05,1.30103
app_21,17.4135,20231.4,7798.5,148.929,391.806,9.6619e+10,1.01328,0.966438,20,0.246477,985,0.05,1.30103
app_22,2.38222,20042.6,7851.6,75.4626,460.595,4.04095e+10,1.01368,0.966438,17,0.0878468,1156,0.05,1.30103
app_23,1.72157,20197,7818.6,135.137,373.063,8.93623e+10,1.01164,0.966438,21,0.239577,941,0.05,1.30103
app_24,13.1982,20140.9,7699.7,255.984,405.992,1.77418e+11,1.0156,0.966438,19,0.43699,1020,0.05,1.30103
app_25,15.1493,19235.1,7676.1,270.091,510.275,1.89947e+11,1.01703,0.966438,15,0.371716,1228,0.05,1.30103
app_26,13.6067,19846.7,7681.6,277.913,384.07,1.92608e+11,1.01598,0.966438,20,0.501584,950,0.05,1.30103
app_27,9.99899,20248.6,7788.5,159.663,432.846,1.01179e+11,1.01398,0.966438,18,0.23367,1095,0.05,1.30103
app_28,14.9136,19182,7650.5,278.903,545.515,1.87799e+11,1.02063,0.966438,14,0.344586,1308,0.05,1.30103
app_29,2.78225,19552.4,7731.3,208.021,513.982,1.39688e+11,1.01639,0.966438,15,0.271766,1258,0.05,1.30103
app_3,3.41167,19078.6,7890.5,72.8845,787.402,1.60404e+10,1.01182,0.966438,10,0.0203558,1881,0.1,1
app_30,1.96469,19841.7,7714.1,239.931,428.452,1.66466e+11,1.01516,0.966438,18,0.388939,1064,0.05,1.30103
app_31,15.1249,20562.5,7634.6,284.009,106.028,1.59792e+11,1.02638,0.966438,72,1.50748,273,0.01,2
app_32,11.4819,20227.6,7794.7,143.761,74.9259,7.70577e+10,1.01629,0.966438,103,1.02744,191,0.01,2
app_33,33.658,20379.5,7707.1,213.178,74.585,1.16559e+11,1.02254,0.966438,103,1.55412,191,0.01,2
app_34,46.8522,20145.2,7884.2,54.2942,74.8632,2.67723e+10,1.01125,0.966438,106,0.356964,188,0.01,2
app_35,29.2988,20330.5,7776,176.52,77.0419,9.44359e+10,1.01646,0.966438,101,1.22644,195,0.01,2
app_36,97.4825,20288.2,7756.3,175.52,79.2289,8.82808e+10,1.01981,0.966438,97,1.10351,203,0.01,2
app_37,17.0187,20114,7750,199.411,86.4815,1.07572e+11,1.01813,0.966438,90,1.25084,218,0.01,2
app_38,54.1394,20346.3,7765.4,176.614,101.389,9.9144e+10,1.01722,0.966438,77,0.972,255,0.01,2
app_39,15.8311,20214.5,7761.6,208.936,69.2582,1.11888e+11,1.01607,0.966438,113,1.62157,174,0.01,2
app_4,6.03563,19725.9,7774,192.925,865.079,1.18249e+11,1.01365,0.966438,9,0.136704,2129,0.1,1
app_40,63.7687,20116.8,7748.4,202.418,80.6047,1.10232e+11,1.01799,0.966438,97,1.36089,202,0.01,2
app_41,64.1393,20368.5,7695.1,269.219,69.5818,1.51174e+11,1.01959,0.966438,111,2.15963,177,0.01,2
app_42,75.8346,20332.8,7860.2,92.9739,77.2604,4.59684e+10,1.01187,0.966438,101,0.596992,197,0.01,2
app_43,102.229,20569.3,7650.1,328.161,74.3116,1.84914e+11,1.02106,0.966438,103,2.49884,190,0.01,2
app_44,87.7624,20572.5,7811.2,152.748,71.9296,8.57079e+10,1.01305,0.966438,108,1.19039,183,0.01,2
app_45,100.309,20090.7,7806,142.018,76.4654,7.42442e+10,1.0152,0.966438,103,0.976898,191,0.01,2
app_46,360.613,21212.7,7608.7,317.301,7.90462,1.37175e+11,1.03281,0.966438,956,17.1468,21,0.001,3
app_47,140.112,21827,7700.3,122.595,8.61248,4.29363e+10,1.03316,0.966438,900,5.36704,23,0.001,3
app_48,362.548,21302.6,7737.6,239.256,7.19066,9.33404e+10,1.02159,0.966438,1064,13.3343,19,0.001,3
app_49,423.46,22240.9,7806.8,18.1864,9.20439,9.51251e+09,1.0235,0.966438,828,1.05695,25,0.001,3
app_5,0.696411,19490.6,7722.9,248.547,772.948,1.64305e+11,1.0143,0.966438,10,0.212555,1883,0.1,1
app_50,572.787,21496.8,7436.5,297.976,9.77789,1.29399e+11,1.05738,0.966438,765,12.9399,26,0.001,3
app_51,27.8701,21182.3,7854.88,77.9262,7.97604,2.7729e+10,1.01489,0.966438,981,3.96128,21,0.001,3
app_52,758.391,21844.2,7688.7,257.775,6.73598,1.17306e+11,1.02485,0.966438,1121,16.758,18,0.001,3
app_53,1018.97,22218.1,7559.9,409.049,7.61119,1.63968e+11,1.03575,0.966438,1021,20.496,20,0.001,3
app_54,788.412,22430.2,7565.4,405.326,8.91729,1.58859e+11,1.0357,0.966438,850,17.651,24,0.001,3
app_55,336.946,21947.7,7277.9,471.585,7.56296,1.81788e+11,1.07243,0.966438,974,22.7235,21,0.001,3
app_56,461.333,21178.3,7561.78,252.458,8.73856,9.69278e+10,1.04456,0.966438,860,11.2162,23,0.001,3
app_57,700.86,21618,7427.1,469.496,7.27717,1.79821e+11,1.05167,0.966438,1070,22.4776,19,0.001,3
app_58,893.575,22031.9,7469.7,312.25,7.76683,1.11817e+11,1.0552,0.966438,979,13.9772,21,0.001,3
app_59,927.126,21784.9,7718.7,171.735,7.30946,7.06537e+10,1.02704,0.966438,1050,10.0934,19,0.001,3
app_6,0.902206,20145.8,7694.5,274.053,853.665,1.78913e+11,1.01608,0.966438,9,0.2095,2158,0.1,1
app_60,419.921,21700.7,7526,263.814,7.0237,1.07709e+11,1.04798,0.966438,1057,15.387,19,0.001,3
app_7,2.17281,19440.5,7755.3,207.135,864.363,1.49223e+11,1.01208,0.966438,9,0.172712,2095,0.1,1
app_8,4.95576,18202.2,7701,262.409,962.187,1.88066e+11,1.01406,0.966438,8,0.195495,2190,0.1,1
app_9,3.6088,19590.6,7846.1,119.987,873.009,7.18185e+10,1.01037,0.966438,9,0.0822663,2137,0.1,1
