app_id,start_app,end_app,effective_cpu,effective_io,effective_iter,total_bytes,stretch,utilization,Tcomp,Tio,iterations,priority,group_id
app_1,2.07067,27877.1,4747.4,204.72,525.547,1.73727e+11,1.62564,0.819237,9,0.33028,2076,1,1
app_10,23.7235,22465.8,6570.93,386.256,71.6869,3.8305e+11,1.15042,0.819237,92,5.39269,204,1,1
app_11,56.4548,21583,7369.2,114.899,38.7648,1.13428e+11,1.06914,0.819237,192,2.98494,103,1,1
app_12,157.044,21703.6,7398.5,273.718,29.8778,2.72784e+11,1.04285,0.819237,247,9.0928,79,1,1
app_13,217.62,21505.3,7228.2,235.603,29.5677,2.34034e+11,1.07207,0.819237,243,8.07014,80,1,1
app_14,165.503,21410.7,7080.5,390.39,27.8499,3.89028e+11,1.07102,0.819237,249,13.8938,76,1,1
app_15,72.7773,21885.3,7429.4,91.8208,31.4334,9.00701e+10,1.0639,0.819237,235,2.90549,85,1,1
app_16,622.143,21089.7,7380,551.587,9.07473,5.51093e+11,1.00869,0.819237,817,61.2326,23,1,1
app_17,472.275,21300.3,7573,256.86,10.0177,2.56358e+11,1.0218,0.819237,766,25.6358,26,1,1
app_18,767.888,21271.7,7709.5,250.091,8.50537,2.49469e+11,1.00516,0.819237,910,27.7188,22,1,1
app_19,209.021,21373.2,7411.6,510.909,7.40602,5.1046e+11,1.00984,0.819237,968,72.9229,20,1,1
app_2,3.80933,26665.9,4651.04,408.608,464.389,3.76847e+11,1.59112,0.819237,10,0.810423,1719,1,1
app_20,131.106,20478.6,7653.3,327.064,9.03888,3.26657e+11,1.00251,0.819237,868,36.2953,23,1,1
app_3,5.9251,26748.3,4700.79,200.159,522.07,1.68199e+11,1.64305,0.819237,9,0.321604,1950,1,1
app_4,4.43894,26453.6,4806.4,230.346,434.886,2.16861e+11,1.59259,0.819237,11,0.498532,1603,1,1
app_5,5.36895,26576.1,4625.38,358.903,512.877,3.33405e+11,1.6133,0.819237,9,0.649912,1892,1,1
app_6,82.7968,23150.2,6686.7,232.406,66.3463,2.29665e+11,1.15668,0.819237,100,3.47977,194,1,1
app_7,6.53648,23012.4,6804.8,43.0956,68.4696,4.06972e+10,1.16865,0.819237,99,0.598488,200,1,1
app_8,6.73099,22636.6,6543.6,446.997,70.6502,4.43584e+11,1.14495,0.819237,93,6.24766,201,1,1
app_9,84.1006,22797.6,6707.6,118.495,69.1705,1.15137e+11,1.17255,0.819237,97,1.66866,201,1,1
