app_id,start_app,end_app,effective_cpu,effective_io,effective_iter,total_bytes,stretch,utilization,Tcomp,Tio,iterations,priority,group_id
app_1,9.69747,26991.5,4830.07,336.85,536.707,3.16667e+11,1.55438,0.83991,9,0.589697,2012,1,1
app_10,78.8293,22008.6,6837.6,476.832,69.8063,4.74317e+11,1.0941,0.83991,98,6.77596,191,1,1
app_11,114.592,21078.9,7303.8,360.903,30.2822,3.59996e+11,1.04387,0.83991,236,11.9999,81,1,1
app_12,189.8,21176.3,7522,98.7388,30.6371,9.72102e+10,1.04998,0.83991,245,3.13581,81,1,1
app_13,70.5887,20880.3,7270.67,327.166,27.9656,3.25839e+11,1.05312,0.83991,265,11.8602,73,1,1
app_14,120.39,21229.4,7508.3,60.9407,29.9297,5.96151e+10,1.05709,0.83991,248,2.05569,80,1,1
app_15,205.278,21241.4,7553.28,40.8907,31.5422,3.96094e+10,1.05362,0.83991,238,1.27772,84,1,1
app_16,209.858,20446.9,7539.8,285.023,8.27777,2.84698e+11,1.02243,0.83991,923,35.5872,21,1,1
app_17,286.394,21456.6,7711,188.75,7.71674,1.88275e+11,1.01275,0.83991,1021,23.5343,20,1,1
app_18,480.359,21588.5,7561.8,423.341,7.14925,4.22854e+11,1.00192,0.83991,1050,60.4078,19,1,1
app_19,232.978,21733.1,7496.5,284.834,8.68694,2.84316e+11,1.02817,0.83991,872,31.5907,23,1,1
app_2,2.33555,28013.4,4790.25,255.268,599.804,2.35627e+11,1.59176,0.83991,8,0.392712,2383,1,1
app_20,696.067,21653.9,7872.5,28.9218,7.21454,2.87995e+10,1.01249,0.83991,1106,3.59994,19,1,1
app_3,8.63411,25787.4,4817.68,371.337,536.01,3.41806e+11,1.55054,0.83991,9,0.637698,1881,1,1
app_4,1.95898,27298.7,4754.92,463.792,530.829,4.28713e+11,1.54332,0.83991,9,0.807369,2005,1,1
app_5,4.72707,27878.6,5057.52,37.8035,506.648,5.97604e+09,1.57994,0.83991,10,0.0117871,1987,1,1
app_6,42.2375,21743,6904.91,503.108,69.7267,4.98918e+11,1.08052,0.83991,99,7.12739,189,1,1
app_7,0.699353,21512.5,6939.06,472.794,65.8316,4.69584e+11,1.07982,0.83991,106,7.15819,176,1,1
app_8,85.0227,21497.9,6934.6,513.987,65.6069,5.09886e+11,1.07462,0.83991,105,7.72555,176,1,1
app_9,87.5019,21950.1,7179.37,151.109,68.7642,1.47042e+11,1.09194,0.83991,104,2.13105,188,1,1
