app_id,start_app,end_app,effective_cpu,effective_io,effective_iter,total_bytes,stretch,utilization,Tcomp,Tio,iterations,priority,group_id
app_1,9.69747,19640.7,7374.2,538.228,816.873,4.81782e+11,1.01833,0.914321,9,0.589697,2012,0.1,1
app_10,78.8293,21061.9,7097.7,766.759,72.7301,4.94645e+11,1.05369,0.914321,98,6.77596,191,0.01,2
app_11,114.592,21576.7,7064.91,858.435,29.5342,3.51747e+11,1.07865,0.914321,236,11.9999,81,0.004,2.39794
app_12,189.8,21095.7,7705.4,211.397,31.0788,9.72102e+10,1.0253,0.914321,245,3.13581,81,0.004,2.39794
app_13,70.5887,21344.1,7178.7,768.482,26.7232,3.20226e+11,1.06682,0.914321,265,11.8602,73,0.004,2.39794
app_14,120.39,20608.8,7756.1,154.721,31.1919,6.37265e+10,1.02304,0.914321,248,2.05569,80,0.004,2.39794
app_15,205.278,20704.9,7837.5,119.894,33.3643,4.21649e+10,1.01527,0.914321,238,1.27772,84,0.004,2.39794
app_16,209.858,22682.1,7019.9,757.168,7.3303,2.4911e+11,1.10056,0.914321,923,35.5872,21,0.001,3
app_17,286.394,22263.5,6920.4,439.301,6.89457,1.6474e+11,1.12912,0.914321,1021,23.5343,20,0.001,3
app_18,480.359,23189.1,6661.3,1172.54,6.58686,4.22854e+11,1.12928,0.914321,1050,60.4078,19,0.001,3
app_19,232.978,22935.8,6972.92,693.537,7.78416,2.36211e+11,1.1097,0.914321,872,31.5907,23,0.001,3
app_2,2.33555,20406.2,7459.7,426.314,932.333,3.66401e+11,1.02222,0.914321,8,0.392712,2383,0.1,1
app_20,696.067,22304.5,7897.8,68.3189,7.05413,2.87995e+10,1.00926,0.914321,1106,3.59994,19,0.001,3
app_3,8.63411,18504.2,7323.5,599.298,813.387,5.18448e+11,1.02015,0.914321,9,0.637698,1881,0.1,1
app_4,1.95898,19990.7,7228.7,732.291,801.568,6.4751e+11,1.01572,0.914321,9,0.807369,2005,0.1,1
app_5,4.72707,20264,7848.3,71.9483,784.06,9.24105e+09,1.01813,0.914321,10,0.0117871,1987,0.1,1
app_6,42.2375,21142.7,7081.79,792.887,71.4295,5.10923e+11,1.05364,0.914321,99,7.12739,189,0.01,2
app_7,0.699353,20903.2,7198.6,756.716,67.7191,4.86757e+11,1.04094,0.914321,106,7.15819,176,0.01,2
app_8,85.0227,20721.4,7129,802.374,68.519,5.25338e+11,1.04516,0.914321,105,7.72555,176,0.01,2
app_9,87.5019,20843.3,7534.9,240.301,72.9807,1.55567e+11,1.04025,0.914321,104,2.13105,188,0.01,2
