app_id,start_app,end_app,effective_cpu,effective_io,effective_iter,total_bytes,stretch,utilization,Tcomp,Tio,iterations,priority,group_id
app_1,7.1052,19032.9,7321.7,647.86,916.181,5.6452e+11,1.01443,0.915354,8,0.615616,2175,0.1,1
app_10,78.8246,20762,7463.9,288.391,85.2131,1.99053e+11,1.04398,0.915354,88,2.3418,220,0.01,2
app_11,204.247,20565.4,7967.9,8.92729,32.9411,3.18296e+09,1.00363,0.915354,240,0.0964533,84,0.004,2.39794
app_12,222.585,20922.7,7611.32,339.118,33.8325,1.69531e+11,1.02817,0.915354,227,5.09244,87,0.004,2.39794
app_13,207.813,21061.7,7578.5,376.964,28.8491,1.78422e+11,1.03134,0.915354,260,6.15249,76,0.004,2.39794
app_14,14.2996,20607.8,7588.8,355.034,31.0683,1.73177e+11,1.03067,0.915354,244,5.58637,80,0.004,2.39794
app_15,126.075,20711.6,7432.8,523.742,37.0108,2.72461e+11,1.03825,0.915354,201,7.36382,96,0.004,2.39794
app_16,306.197,22305,7566,325.682,7.36947,1.79911e+11,1.0328,0.915354,997,25.7016,20,0.001,3
app_17,11.7027,22568.3,6479.96,894.164,7.2957,3.96169e+11,1.16344,0.915354,863,55.247,22,0.001,3
app_18,107.751,23120.1,6799.91,867.807,9.012,3.81151e+11,1.11404,0.915354,768,42.1431,25,0.001,3
app_19,740.421,23190.3,6771.4,1085.39,7.30268,4.91841e+11,1.10144,0.915354,915,70.263,21,0.001,3
app_2,2.76427,19830,7854.9,91.8133,872.962,6.50782e+10,1.0101,0.915354,9,0.0745455,2160,0.1,1
app_20,103.161,23684.9,6217.03,741.475,8.86248,3.45486e+11,1.21905,0.915354,723,38.3873,27,0.001,3
app_3,4.9789,19746.6,7484.85,488.931,677.512,4.30912e+11,1.01064,0.915354,11,0.635635,1678,0.1,1
app_4,0.709087,19472.2,7645.7,305.862,762.667,2.57856e+11,1.0122,0.915354,10,0.33795,1861,0.1,1
app_5,6.72745,19887.7,7738.9,191.158,967.841,1.24652e+11,1.01735,0.915354,8,0.128773,2403,0.1,1
app_6,47.1485,20666.9,7113.8,745.928,76.8915,5.42264e+11,1.04492,0.915354,93,7.04239,199,0.01,2
app_7,73.8538,21030.5,7103.3,772.281,86.0968,5.52021e+11,1.04502,0.915354,82,6.41885,227,0.01,2
app_8,79.0365,20813.2,7554,275.493,86.6637,1.96967e+11,1.03213,0.915354,87,2.26399,224,0.01,2
app_9,49.5836,20773.7,7161.9,738.136,73.2273,5.3624e+11,1.03921,0.915354,98,7.34576,190,0.01,2
