app_id,start_app,end_app,effective_cpu,effective_io,effective_iter,total_bytes,stretch,utilization,Tcomp,Tio,iterations,priority,group_id
app_1,5.28732,27714.6,4504.27,100.209,451.774,8.47128e+10,1.74331,0.806843,10,0.187833,1822,1,1
app_10,6.46466,22876,6409.3,460.254,71.5959,4.56217e+11,1.16524,0.806843,90,6.33635,208,1,1
app_11,49.453,21301.4,7251.1,348.49,29.182,3.47471e+11,1.05283,0.806843,247,11.9818,77,1,1
app_12,169.251,21624.4,7033,447.058,31.4186,4.45785e+11,1.06969,0.806843,225,14.3802,84,1,1
app_13,41.7659,21790,7321.5,44.3921,32.2204,4.27364e+10,1.08633,0.806843,226,1.33551,88,1,1
app_14,94.9322,21555.2,7549.7,14.6211,28.2551,1.32772e+10,1.05778,0.806843,265,0.474187,76,1,1
app_15,244.88,21348.2,7240.68,428.228,27.8385,4.26255e+11,1.04344,0.806843,259,15.3048,73,1,1
app_16,62.1533,20627.6,7569.9,360.161,7.91682,3.59787e+11,1.00887,0.806843,994,44.9734,20,1,1
app_17,789.428,21468,7384.3,509.552,7.79635,5.09139e+11,1.0135,0.806843,949,63.6424,20,1,1
app_18,500.574,21850.8,7757.2,152.88,8.55702,1.5233e+11,1.01144,0.806843,889,16.9255,23,1,1
app_19,2.97708,21221.3,7400.6,533.101,7.20429,5.32863e+11,1.00839,0.806843,1029,76.1233,19,1,1
app_2,3.36434,27768.9,4358.67,244.859,484.87,2.23979e+11,1.74572,0.806843,9,0.462767,1961,1,1
app_20,460.554,21262.7,7554,355.634,8.80312,3.55242e+11,1.01147,0.806843,880,39.4713,22,1,1
app_3,4.92432,28218.1,4509.71,159.349,411.357,1.34714e+11,1.72249,0.806843,11,0.327772,1695,1,1
app_4,9.47599,28504,4460.58,127.6,445.848,1.01353e+11,1.75364,0.806843,10,0.227758,1883,1,1
app_5,3.4662,28697.6,4231.87,257.818,528.233,2.25848e+11,1.79464,0.806843,8,0.427742,2265,1,1
app_6,32.1269,22931.3,6521.6,254.807,68.8446,2.51666e+11,1.18111,0.806843,95,3.64733,203,1,1
app_7,49.0309,22690.8,6780.6,128.034,65.0902,1.24225e+11,1.15861,0.806843,104,1.91116,188,1,1
app_8,37.9345,22488.5,6654.9,364.552,63.7925,3.60567e+11,1.14034,0.806843,105,5.63386,180,1,1
app_9,107.159,22545.4,6601.4,448.751,64.0561,4.46468e+11,1.13509,0.806843,103,6.97607,181,1,1
