app_id,start_app,end_app,effective_cpu,effective_io,effective_iter,total_bytes,stretch,utilization,Tcomp,Tio,iterations,priority,group_id
app_1,2.65831,18721,7849.2,87.1211,872.376,4.0982e+10,1.01392,0.910438,9,0.0469439,2041,0.1,1
app_10,76.8042,20741.6,7151.6,712.809,86.3313,4.93999e+11,1.04635,0.910438,84,5.74417,221,0.01,2
app_11,95.164,21323.8,7515.5,271.953,27.224,1.40978e+11,1.04487,0.910438,276,5.03493,72,0.004,2.39794
app_12,38.5625,21066.7,7667.6,247.991,33.0778,1.33235e+11,1.02553,0.910438,229,4.03741,86,0.004,2.39794
app_13,141.763,21269.5,7039.2,879.002,30.3674,4.74697e+11,1.06469,0.910438,232,15.3128,81,0.004,2.39794
app_14,179.314,21651.4,7106.5,517.026,33.9139,2.92783e+11,1.08119,0.910438,210,8.61125,92,0.004,2.39794
app_15,37.1128,21618.9,6738.6,1092.23,33.6628,6.35386e+11,1.08489,0.910438,202,18.6878,91,0.004,2.39794
app_16,209.034,22941.2,6374.2,1143.91,7.35219,4.20513e+11,1.17739,0.910438,883,52.5641,22,0.001,3
app_17,45.6709,21698.5,6917.7,953.152,6.94723,3.75382e+11,1.09693,0.910438,1012,53.626,19,0.001,3
app_18,348.954,22157.6,6955.94,470.844,7.43472,2.33297e+11,1.11277,0.910438,932,32.6815,21,0.001,3
app_19,452.963,22549.5,7332.53,323.468,8.33544,1.18723e+11,1.07365,0.910438,877,14.8404,23,0.001,3
app_2,2.19131,18324.3,7407.7,561.886,928.341,4.84859e+11,1.01361,0.910438,8,0.521915,2123,0.1,1
app_20,732.605,22803,7054.4,604.528,7.23609,2.60914e+11,1.0936,0.910438,956,37.2734,21,0.001,3
app_3,6.28796,19155.4,7807.1,150.437,780.857,7.9713e+10,1.01435,0.910438,10,0.102065,1869,0.1,1
app_4,4.40446,19183.4,7451.74,520.129,827.548,4.53058e+11,1.01204,0.910438,9,0.54744,1984,0.1,1
app_5,9.11802,18958.9,7616.9,334.675,848.07,2.57261e+11,1.01598,0.910438,9,0.303374,2006,0.1,1
app_6,29.027,20901.8,7282,560.148,93.1091,3.93555e+11,1.04227,0.910438,78,4.18676,244,0.01,2
app_7,36.8993,20655.1,7570.7,286.72,92.2751,2.04973e+11,1.02885,0.910438,82,2.22797,236,0.01,2
app_8,72.9407,20700.3,6998.13,929.586,75.3342,6.58583e+11,1.04483,0.910438,93,8.77533,195,0.01,2
app_9,22.7294,20319.5,7832.9,62.1567,64.6658,3.5806e+10,1.01669,0.910438,122,0.550862,163,0.01,2
