app_id,start_app,end_app,effective_cpu,effective_io,effective_iter,total_bytes,stretch,utilization,Tcomp,Tio,iterations,priority,group_id
app_1,8.39585,20891.8,7200.3,799.7,719.11,2.65282e+11,1.07158,0.895081,10,0.368959,1887,1,1
app_10,8.13433,22177.6,6685.8,1314.2,74.6935,4.91242e+11,1.11467,0.895081,89,6.63841,209,1.00001,1.00001
app_11,43.7443,22513.9,6471.2,1528.8,26.5021,5.35266e+11,1.1418,0.895081,242,19.8247,77,1.00001,1.00001
app_12,176.69,22394.5,6605.3,1394.7,30.5689,5.19164e+11,1.12289,0.895081,214,17.3055,87,1.00001,1.00001
app_13,246.349,21431.5,7283.9,716.1,27.3096,2.20769e+11,1.066,0.895081,266,7.8846,73,1.00001,1.00001
app_14,110.882,20617.4,7759.1,240.9,33.6919,7.89051e+10,1.02067,0.895081,232,2.32074,86,1.00001,1.00001
app_15,175.872,20912.4,7411.4,588.6,37.5932,1.99006e+11,1.05119,0.895081,199,5.237,98,1.00002,1.00002
app_16,778.65,23141.8,7207.8,792.2,6.9086,2.33674e+11,1.07506,0.895081,1014,33.3819,20,1.00002,1.00002
app_17,72.0588,20992.6,7170.9,829.1,8.51102,2.63917e+11,1.07602,0.895081,853,29.3241,23,1.00002,1.00002
app_18,917.626,22782.9,6936.07,1063.93,7.24639,4.01451e+11,1.09029,0.895081,992,52.6418,20,1.00002,1.00002
app_19,367.809,21924.2,7444.4,555.6,7.6743,2.00948e+11,1.04639,0.895081,968,25.1185,21,1.00002,1.00002
app_2,7.88041,18541.5,7893.3,106.7,878.478,1.8032e+10,1.01121,0.895081,9,0.0205376,2033,1,1
app_20,440.277,23019.5,6986.5,1013.5,7.42686,4.46889e+11,1.07623,0.895081,920,63.8413,21,1.00002,1.00002
app_3,2.38291,19671.1,7112.6,887.4,889.501,2.95795e+11,1.07986,0.895081,8,0.332353,2199,1,1
app_4,5.32843,18614.6,7756.4,243.6,776.892,7.76862e+10,1.02118,0.895081,10,0.0999823,1807,1,1
app_5,3.692,21365.7,6808,1192,755.559,4.19988e+11,1.10681,0.895081,9,0.55554,2032,1.00001,1.00001
app_6,63.7435,21897.7,6780.5,1219.5,81.5632,4.50339e+11,1.10637,0.895081,83,5.49193,225,1.00001,1.00001
app_7,1.58428,20089.9,7923.1,76.9,78.1082,2.46422e+10,1.00658,0.895081,102,0.315926,195,1.00001,1.00001
app_8,73.8665,21789.8,6775.31,1224.69,88.2795,4.47401e+11,1.10762,0.895081,77,5.07332,241,1.00001,1.00001
app_9,97.1364,21529.9,7001.1,998.9,68.5805,3.4619e+11,1.08884,0.895081,103,5.01725,184,1.00001,1.00001
