app_id,start_app,end_app,effective_cpu,effective_io,effective_iter,total_bytes,stretch,utilization,Tcomp,Tio,iterations,priority,group_id
app_1,8.11656,19625.3,7906.6,86.4993,879.595,3.49966e+10,1.00735,0.994054,9,0.0397688,2156,0.1,1
app_10,1.58637,19023.8,7908.6,84.8552,880.528,2.11385e+10,1.00886,0.994054,9,0.0239937,2091,0.1,1
app_11,6.63659,18233.5,7894.5,97.9723,984.675,4.16643e+10,1.00804,0.994054,8,0.0423418,2247,0.1,1
app_12,7.73785,19015.4,7905.6,88.5191,879.144,4.71943e+10,1.00594,0.994054,9,0.0536909,2090,0.1,1
app_13,6.83682,19236.4,7925.1,69.3504,720.357,1.3589e+10,1.00772,0.994054,11,0.0188475,1732,0.1,1
app_14,2.70258,18618.7,7907.1,85.91,878.284,3.06605e+10,1.00784,0.994054,9,0.0349209,2044,0.1,1
app_15,7.31395,19807,7918.1,75.0528,790.629,1.63869e+10,1.00826,0.994054,10,0.0207167,1960,0.1,1
app_16,85.2492,20016.5,7964.9,34.3319,75.8304,2.91178e+10,1.00075,0.994054,105,0.383128,189,0.01,2
app_17,9.78954,19978.9,7957,42.6608,70.3846,3.67659e+10,1.00078,0.994054,114,0.525227,174,0.01,2
app_18,69.0729,19916.9,7949.6,48.9911,76.2259,4.30962e+10,1.00091,0.994054,104,0.55969,190,0.01,2
app_19,50.138,20136.3,7983.7,15.9511,80.1298,9.30528e+09,1.00088,0.994054,99,0.116316,202,0.01,2
app_2,7.52837,19570.7,7916.3,76.5894,790.516,2.35618e+10,1.00757,0.994054,10,0.0297874,1937,0.1,1
app_20,41.3172,20027.6,7982.8,14.6669,72.775,9.25626e+09,1.00099,0.994054,109,0.126798,183,0.01,2
app_21,43.4874,20073.3,7966.9,31.0127,71.3867,2.60164e+10,1.00089,0.994054,112,0.361338,178,0.01,2
app_22,30.4853,19876.7,7945.3,53.1566,83.4615,4.6388e+10,1.00104,0.994054,95,0.552238,208,0.01,2
app_23,66.0715,19917.9,7983.9,14.8219,74.2913,1.04705e+10,1.0007,0.994054,108,0.139606,184,0.01,2
app_24,89.4614,20002.4,7948.9,50.8994,84.2686,4.25127e+10,1.00107,0.994054,95,0.506104,209,0.01,2
app_25,44.6692,20120.7,7963.1,35.1758,69.3373,2.9904e+10,1.00088,0.994054,113,0.433392,176,0.01,2
app_26,16.2059,19814.7,7955.8,43.1554,85.9397,3.47601e+10,1.00118,0.994054,94,0.404187,211,0.01,2
app_27,10.0368,19947,7963.3,35.9405,88.3302,2.96763e+10,1.00088,0.994054,90,0.333442,221,0.01,2
app_28,0.26088,19692.4,7946,50.4806,81.253,4.32168e+10,1.00135,0.994054,98,0.533541,201,0.01,2
app_29,66.9047,20151.1,7947.2,50.6809,83.6454,4.25159e+10,1.00129,0.994054,94,0.506142,211,0.01,2
app_3,1.51401,19875.3,7915.2,77.8611,790.575,3.15462e+10,1.0067,0.994054,10,0.0399319,1965,0.1,1
app_30,82.7881,20089,7990.8,8.49229,83.5223,4.60902e+09,1.00057,0.994054,96,0.0555304,208,0.01,2
app_31,838.168,21551.9,7974.8,25.2,7.24714,2.18835e+10,1.00041,0.994054,1071,3.12621,19,0.001,3
app_32,656.422,20133.9,7949,47.2235,6.84603,4.33989e+10,1.00095,0.994054,1181,6.19985,17,0.001,3
app_33,219.051,21469.9,7957.9,40.2436,7.54318,3.71252e+10,1.00062,0.994054,1041,5.3036,20,0.001,3
app_34,1013.75,21392.8,7951.7,39.7033,7.67014,3.5812e+10,1.00156,0.994054,1051,4.4765,19,0.001,3
app_35,109.699,20790.9,7959,41,7.52263,3.63288e+10,1.00058,0.994054,1028,5.18982,20,0.001,3
app_36,507.267,20998.2,7950.4,49.6,11.0842,4.40371e+10,1.0007,0.994054,719,4.00337,28,0.001,3
app_37,749.649,21732.1,7953.3,42.7768,8.87255,3.7539e+10,1.00115,0.994054,896,4.171,23,0.001,3
app_38,21.2667,20253.2,7968.3,31.7,7.41713,2.61575e+10,1.00069,0.994054,1061,3.26969,19,0.001,3
app_39,155.943,20700.9,7970.2,29.8,9.8361,2.72701e+10,1.00032,0.994054,800,2.72701,25,0.001,3
app_4,3.58654,18524,7917.6,75.7466,790.215,1.7856e+10,1.00813,0.994054,10,0.0226025,1833,0.1,1
app_40,506.434,21156.7,7974.1,12.6615,8.18551,1.05617e+10,1.00192,0.994054,961,1.32021,21,0.001,3
app_41,606.65,20449.2,7954.9,38.6323,7.8147,3.39037e+10,1.0014,0.994054,1003,4.23796,20,0.001,3
app_42,41.7088,20153.4,7972.3,20.7614,8.06491,1.91877e+10,1.00107,0.994054,984,2.39846,21,0.001,3
app_43,1049.29,21928.2,7976.1,23.9,7.13788,2.03278e+10,1.00045,0.994054,1070,2.90397,19,0.001,3
app_44,861.663,21432.5,7977.6,19.8651,7.98591,1.84022e+10,1.0005,0.994054,962,2.30027,21,0.001,3
app_45,80.5815,20620.5,7982,13.4776,9.48889,1.0987e+10,1.00088,0.994054,809,1.22078,25,0.001,3
app_46,1583.21,23109.7,7956.2,43.8,4.21647,3.82103e+10,1.0007,0.994054,1929,9.55258,11,0.001,3
app_47,1835.93,23765.7,7945.4,54.6,3.57796,4.89498e+10,1.00071,0.994054,2183,12.2374,10,0.001,3
app_48,196.712,20942.1,7998.5,1.5,4.27771,1.17677e+09,1.00004,0.994054,1897,0.235354,11,0.001,3
app_49,1040.31,21036.8,7976.9,19.3211,4.12517,1.74357e+10,1.00071,0.994054,2005,4.35893,10,0.001,3
app_5,0.1689,18160.5,7897.8,94.4142,987.075,2.05057e+10,1.01032,0.994054,8,0.0207758,2239,0.1,1
app_50,835.596,20672.6,7975,25,3.82323,2.11705e+10,1.00048,0.994054,2011,5.29262,10,0.001,3
app_51,1553.01,22316,7993.8,0.750889,3.43144,4.22223e+08,1.00072,0.994054,2352,0.105556,9,0.001,3
app_52,1834.61,23048.8,7976.4,23.6,3.70985,2.16723e+10,1.00024,0.994054,2138,5.41806,10,0.001,3
app_53,1318.93,22987.1,7952.3,47.6246,3.22519,4.25833e+10,1.00064,0.994054,2380,10.6458,9,0.001,3
app_54,1561.5,22800.1,7966,34,4.58708,3.164e+10,1.0003,0.994054,1742,6.32801,12,0.001,3
app_55,644.782,22155.6,7949.8,49.5596,4.05667,4.4858e+10,1.00067,0.994054,1951,11.2145,11,0.001,3
app_56,1826.85,22516.1,7985.4,14.6,4.35636,1.23909e+10,1.00028,0.994054,1929,3.09773,11,0.001,3
app_57,117.581,21265.4,7958.4,41.6,4.28558,3.82247e+10,1.00042,0.994054,1955,9.55617,11,0.001,3
app_58,1434.99,22932.6,7980.3,19.7,3.59766,1.7417e+10,1.00029,0.994054,2108,5.80566,10,0.001,3
app_59,847.71,21480.2,7963.5,36.5,3.41829,3.07801e+10,1.00072,0.994054,2316,10.26,9,0.001,3
app_6,6.18399,18664,7908.7,83.4944,877.757,1.77005e+10,1.00929,0.994054,9,0.020183,2048,0.1,1
app_60,1492.14,23151.5,7974.1,25.9,4.25507,2.37183e+10,1.00027,0.994054,1804,5.92958,12,0.001,3
app_7,5.72607,19918.1,7921.5,72.7478,720.513,3.56383e+10,1.00539,0.994054,11,0.049429,1791,0.1,1
app_8,6.18833,18455.9,7919.1,75.0398,790.525,1.07613e+10,1.00884,0.994054,10,0.013622,1825,0.1,1
app_9,6.86821,19504.6,7911.3,81.5189,879.408,2.84582e+08,1.01118,0.994054,9,0.000323389,2141,0.1,1
