app_id,start_app,end_app,effective_cpu,effective_io,effective_iter,total_bytes,stretch,utilization,Tcomp,Tio,iterations,priority,group_id
app_1,7.61544,19633.4,7546,85.5633,840.299,4.62028e+10,1.05371,0.982796,9,0.0550033,2065,1,1
app_10,6.66902,19732.8,7525.1,82.4496,834.138,3.6364e+10,1.058,0.982796,9,0.0436019,2074,1,1
app_11,5.36208,20122.9,7577.7,64.7465,755.14,4.11266e+09,1.05516,0.982796,10,0.00544724,1912,1,1
app_12,0.977359,20105.8,7647.6,70.2713,695.915,3.82591e+10,1.04087,0.982796,11,0.0549699,1743,1,1
app_13,5.26169,18883.9,7585.2,72.1496,847.724,3.3939e+09,1.05421,0.982796,9,0.00400224,2003,1,1
app_14,4.70257,20496.8,7563.7,78.5214,839.745,2.62867e+10,1.05402,0.982796,9,0.0312937,2155,1,1
app_15,6.58012,19683.9,7553.9,85.3866,838.473,4.67209e+10,1.05255,0.982796,9,0.0557529,2071,1,1
app_16,49.906,20173.5,7949.5,23.1823,80.4043,1.6445e+10,1.00428,0.982796,99,0.205563,201,1,1
app_17,16.5318,20215.1,7926.9,52.3446,75.2838,4.75941e+10,1.0032,0.982796,104,0.634588,190,1,1
app_18,17.3739,20029.3,7968.3,14.0216,68.0185,1.17235e+10,1.0025,0.982796,118,0.172404,169,1,1
app_19,65.5608,20018.9,7901.5,32.7497,79.6817,3.00464e+10,1.00863,0.982796,100,0.37558,198,1,1
app_2,0.190719,19559,7613.3,64.9485,758.899,2.13823e+09,1.0505,0.982796,10,0.00281717,1864,1,1
app_20,27.6793,20122.3,7910.4,39.3816,98.2448,3.47218e+10,1.00691,0.982796,80,0.354304,249,1,1
app_21,85.4147,20259.7,7931.8,24.4321,84.9917,1.86159e+10,1.00624,0.982796,93,0.219011,215,1,1
app_22,44.8839,19886.4,7914.5,45.4346,94.2641,3.82242e+10,1.00594,0.982796,84,0.406641,235,1,1
app_23,60.6378,20045.1,7927.2,42.2255,85.8006,3.56173e+10,1.00467,0.982796,93,0.414155,214,1,1
app_24,70.7506,20102.3,7973.1,6.72826,71.5709,1.65291e+09,1.00317,0.982796,110,0.022957,181,1,1
app_25,4.08972,20024.9,7938.2,33.225,81.4884,3.10383e+10,1.00386,0.982796,97,0.378516,205,1,1
app_26,94.3321,20218.3,7937.8,21.7654,74.2774,1.78527e+10,1.00557,0.982796,106,0.241252,188,1,1
app_27,28.1703,20037.1,7958.9,23.5141,81.7141,1.77021e+10,1.00293,0.982796,97,0.218545,205,1,1
app_28,73.596,19999.8,7952.4,8.52207,83.7086,5.30354e+09,1.00532,0.982796,96,0.063898,208,1,1
app_29,1.24814,19925.2,7961.5,16.2426,81.4424,1.17332e+10,1.00336,0.982796,97,0.143088,205,1,1
app_3,4.09144,19141.3,7524.2,74.8457,835.024,1.62003e+10,1.06095,0.982796,9,0.0194016,2007,1,1
app_30,93.2205,20370.2,7946.6,7.01101,82.7244,1.02741e+09,1.00659,0.982796,96,0.0123784,209,1,1
app_31,406.768,21682.9,7950.6,42.6363,8.56209,4.22907e+10,1.00089,0.982796,943,4.69896,22,1,1
app_32,536.067,21031.2,7969.2,24.0301,7.90851,2.38748e+10,1.00087,0.982796,1026,2.98435,20,1,1
app_33,744.98,21307.9,7954.7,44.7628,8.45981,4.43583e+10,1.00012,0.982796,942,5.54478,22,1,1
app_34,482.87,21284.8,7969,17.4553,7.69388,1.69075e+10,1.00176,0.982796,1028,2.11344,20,1,1
app_35,249.551,21018.2,7972.4,25.5574,7.89338,2.50282e+10,1.00032,0.982796,975,3.12852,21,1,1
app_36,737.479,21291.3,7954.9,44.9489,7.18001,4.47689e+10,1.00004,0.982796,1109,6.39556,18,1,1
app_37,114.553,21615.9,7950.7,38.2916,7.45994,3.76841e+10,1.00145,0.982796,1038,4.71052,20,1,1
app_38,190.816,20760.7,7957.1,41.9876,7.29816,4.17749e+10,1.00014,0.982796,1088,5.96784,19,1,1
app_39,356.407,21331.3,7964.3,35.6362,7.4414,3.50233e+10,1.00008,0.982796,1043,5.00332,20,1,1
app_4,0.197156,20604.2,7547.9,74.086,751.851,3.32105e+10,1.05525,0.982796,10,0.0441629,1951,1,1
app_40,371.194,21114.8,7962.9,36.8151,8.47719,3.63459e+10,1.00009,0.982796,944,4.54323,22,1,1
app_41,152.315,20169.6,7984.4,6.25709,8.21317,5.74595e+09,1.00123,0.982796,1011,0.638439,20,1,1
app_42,127.022,20153,7993.7,6.3,8.69706,5.8492e+09,1.00006,0.982796,915,0.649911,22,1,1
app_43,620.938,20386.6,7980.3,19.0654,8.65567,1.88158e+10,1.00011,0.982796,952,2.09065,21,1,1
app_44,550.774,21122,7961.1,35.6139,6.84624,3.5234e+10,1.00046,0.982796,1127,5.03343,18,1,1
app_45,702.152,21085.5,7959.1,40.4485,8.6596,3.9761e+10,1.00014,0.982796,924,4.41789,22,1,1
app_46,1656.58,22795.1,7952,43.231,3.30645,4.31581e+10,1.00061,0.982796,2315,10.7895,9,1,1
app_47,1584.09,22818.5,7987.2,12.5305,4.55567,1.24286e+10,1.00005,0.982796,1746,2.48571,12,1,1
app_48,332.201,21070.2,7974.8,25.1937,3.52943,2.50296e+10,1.00002,0.982796,2249,8.3432,9,1,1
app_49,1403.14,22221,7999,1,4.55351,7.87829e+08,1.00003,0.982796,1783,0.157566,12,1,1
app_5,10.3073,19039.3,7595.7,78.6666,759.703,4.66615e+10,1.0468,0.982796,10,0.0613967,1812,1,1
app_50,1258.49,21869.9,7958.4,41.472,4.50703,4.12029e+10,1.00005,0.982796,1721,8.24058,12,1,1
app_51,692.377,20487.8,7950,49.8463,3.65373,4.96501e+10,1.00004,0.982796,2217,12.4125,9,1,1
app_52,1799.94,23754.7,7986.5,13.5,3.29461,1.32114e+10,1.00004,0.982796,2445,4.40381,9,1,1
app_53,306.116,22199.3,7996,3.96461,5.04409,3.75428e+09,1.00003,0.982796,1525,0.750855,14,1,1
app_54,1323.69,21955.1,7984.1,15.5771,4.58159,1.54859e+10,1.00005,0.982796,1757,3.09717,12,1,1
app_55,1336.47,24255.1,7958.8,41.2,3.05129,4.10603e+10,1.00002,0.982796,2425,10.2651,9,1,1
app_56,1436.49,22016.7,7979.6,20.4,4.21601,2.01892e+10,1.00003,0.982796,1883,5.04731,11,1,1
app_57,1073.9,21542.3,7991.4,8.38779,3.8468,8.03964e+09,1.00007,0.982796,2002,2.00991,10,1,1
app_58,945.572,21890.5,7972.4,27.6,3.83308,2.74865e+10,1.00001,0.982796,2031,6.87161,10,1,1
app_59,8.82967,21396.3,7942,57.9633,4.3134,5.77388e+10,1.00003,0.982796,1925,11.5478,11,1,1
app_6,7.78705,20933.8,7577.6,78.2829,757.971,4.53296e+10,1.04947,0.982796,10,0.0598015,1988,1,1
app_60,47.579,20343.4,7964.7,34.8172,4.38388,3.47031e+10,1.00007,0.982796,1882,8.67578,11,1,1
app_7,3.31652,20111.5,7565.9,78.4066,755.784,4.73589e+10,1.0508,0.982796,10,0.0626441,1909,1,1
app_8,2.20866,19291.8,7564.1,79.1565,838.199,2.49864e+10,1.05415,0.982796,9,0.0298167,2032,1,1
app_9,3.86482,19303.2,7574.3,83.268,840.037,4.10849e+10,1.05051,0.982796,9,0.0489107,2031,1,1
