app_id,start_app,end_app,effective_cpu,effective_io,effective_iter,total_bytes,stretch,utilization,Tcomp,Tio,iterations,priority,group_id
app_1,1.23112,19241.8,7912.2,81.0534,792.249,5.21072e+10,1.00448,0.993977,10,0.0657089,1904,0.1,1
app_10,9.52118,18633.2,7910.2,82.9428,879.565,1.0914e+10,1.00996,0.993977,9,0.0124023,2045,0.1,1
app_11,3.40226,18655.3,7899.12,91.7608,985.521,7.49201e+09,1.01181,0.993977,8,0.00760004,2300,0.1,1
app_12,4.7491,19074.5,7911.1,81.4713,878.633,4.4003e+09,1.01068,0.993977,9,0.00500603,2095,0.1,1
app_13,1.52122,18678.3,7910.4,83.2306,877.666,7.14845e+09,1.01041,0.993977,9,0.00814174,2051,0.1,1
app_14,2.67282,18649.5,7902.4,90.047,878.149,5.9126e+10,1.00483,0.993977,9,0.0673417,2048,0.1,1
app_15,2.84557,18120.8,7903.3,89.5566,880.795,5.61782e+10,1.00509,0.993977,9,0.0637664,1990,0.1,1
app_16,47.317,20138,7966.6,32.3503,74.5246,2.8372e+10,1.00063,0.993977,106,0.383406,188,0.01,2
app_17,3.37914,19848.4,7986.5,10.1878,93.2444,5.40675e+09,1.00101,0.993977,86,0.0581371,232,0.01,2
app_18,32.1416,19801.5,7941.8,56.4237,93.2349,4.6648e+10,1.00145,0.993977,85,0.501591,232,0.01,2
app_19,33.2862,19998.1,7941.6,57.3062,88.565,5.03594e+10,1.00101,0.993977,90,0.565835,220,0.01,2
app_2,5.26676,18744.8,7910.3,81.5327,878.855,5.15382e+09,1.01068,0.993977,9,0.00586995,2058,0.1,1
app_20,64.8272,20281.4,7955.1,43.8508,71.6397,3.78077e+10,1.00089,0.993977,111,0.525107,180,0.01,2
app_21,24.2281,20085.1,7969.7,29.1619,94.9089,2.19897e+10,1.00104,0.993977,84,0.23147,238,0.01,2
app_22,78.4666,20154.7,7935.8,63.5397,81.0226,5.5323e+10,1.00111,0.993977,97,0.683,205,0.01,2
app_23,3.49449,19834.4,7959.1,38.8654,75.8987,3.27241e+10,1.00102,0.993977,105,0.43058,189,0.01,2
app_24,53.6106,19980.5,7975.8,23.5302,77.7404,1.65865e+10,1.00095,0.993977,104,0.212648,191,0.01,2
app_25,35.9016,20034.1,7983.4,15.6155,74.6414,1.23895e+10,1.00053,0.993977,106,0.167426,188,0.01,2
app_26,43.6416,19783.2,7972.4,25.2789,81.7216,2.04117e+10,1.0009,0.993977,98,0.248923,202,0.01,2
app_27,85.2298,20197.5,7972,26.3974,84.0046,2.23207e+10,1.00071,0.993977,95,0.265722,210,0.01,2
app_28,44.0722,20136.4,7991.3,8.29047,84.4661,1.26721e+09,1.00093,0.993977,94,0.0150858,213,0.01,2
app_29,61.7411,20122.5,7973.8,24.6944,81.3584,1.64256e+10,1.00122,0.993977,97,0.200312,205,0.01,2
app_3,3.18197,18909.2,7904,89.2055,878.854,5.2659e+10,1.00545,0.993977,9,0.0599079,2075,0.1,1
app_30,96.4561,19999.3,7945.9,53.4487,82.77,4.7132e+10,1.00087,0.993977,96,0.567856,207,0.01,2
app_31,920.068,20980,7994,3.64357,7.33931,1.68979e+09,1.00054,0.993977,1065,0.211224,19,0.001,3
app_32,549.229,21279.8,7928,69.1488,7.53053,5.94392e+10,1.00157,0.993977,1034,7.4299,20,0.001,3
app_33,744.633,20979.8,7941,59,10.5653,5.23526e+10,1.00083,0.993977,742,5.23526,27,0.001,3
app_34,325.828,21309,7941.4,58.6,6.97548,5.11695e+10,1.00093,0.993977,1147,7.30992,18,0.001,3
app_35,811.464,20993.1,7943.2,56.8,6.7324,5.26714e+10,1.00052,0.993977,1184,7.52449,17,0.001,3
app_36,827.359,21710.3,7939.8,60.2,7.72231,5.06253e+10,1.0012,0.993977,1028,7.23219,20,0.001,3
app_37,802.066,21144.8,7977.3,19.2855,7.52286,1.51286e+10,1.00095,0.993977,1074,1.89107,19,0.001,3
app_38,409.863,19951.6,7952.4,40.3739,8.3447,3.34059e+10,1.00178,0.993977,1007,4.17573,20,0.001,3
app_39,890.796,21285.1,7971.1,27.4451,7.37208,2.45256e+10,1.00055,0.993977,1065,3.0657,19,0.001,3
app_4,8.48673,17994.2,7895.8,96.0296,987.853,2.94515e+10,1.00943,0.993977,8,0.0298092,2218,0.1,1
app_40,644.01,21511.3,7986.7,13.3,7.66517,1.15418e+10,1.00022,0.993977,1023,1.64883,20,0.001,3
app_41,570.463,21196.7,7968.6,29.8095,7.8312,2.52219e+10,1.00077,0.993977,1042,3.15273,20,0.001,3
app_42,412.336,20875.6,7999.1,0.9,8.63495,2.42249e+08,1.00008,0.993977,930,0.0302811,22,0.001,3
app_43,45.4586,20450.9,7968.5,31.5,9.34357,2.85536e+10,1.00037,0.993977,854,3.17263,24,0.001,3
app_44,342.312,20198.8,7990.5,9.5,8.74536,7.76914e+09,1.00022,0.993977,917,0.863238,22,0.001,3
app_45,950.308,21499.6,7963.9,36.1,7.72253,2.94482e+10,1.00083,0.993977,1018,3.68103,20,0.001,3
app_46,395.057,22302.4,7994,6,3.54501,4.86424e+09,1.00014,0.993977,2178,1.21606,10,0.0005,3.30103
app_47,137.742,20801.4,7967.56,32.439,3.42827,2.33606e+10,1.00114,0.993977,2262,6.18112,9,0.0005,3.30103
app_48,1413.72,21897.8,7949.2,46.0219,3.9704,4.04412e+10,1.0013,0.993977,1997,10.1103,10,0.0005,3.30103
app_49,1258.91,21511.9,7942.7,57.3,3.95874,4.91864e+10,1.00102,0.993977,2061,12.2966,10,0.0005,3.30103
app_5,5.90552,19178.5,7917.5,76.128,795.538,1.45939e+10,1.00856,0.993977,10,0.018334,1901,0.1,1
app_50,1313.09,23130.7,7971.7,28.3,4.04711,2.26502e+10,1.00071,0.993977,1948,5.66255,11,0.0005,3.30103
app_51,607.322,20909.1,7930.5,69.5,3.8927,5.50017e+10,1.00182,0.993977,2001,13.7504,10,0.0005,3.30103
app_52,1481.47,23202.4,7990.4,9.6,3.61052,8.23689e+09,1.00017,0.993977,2182,2.74563,10,0.0005,3.30103
app_53,531.405,22276.2,7971.2,28.8,3.96405,2.62542e+10,1.00032,0.993977,1971,6.56355,11,0.0005,3.30103
app_54,601.979,22654.7,7955.3,36.7431,3.68915,3.4039e+10,1.00133,0.993977,2188,8.50975,10,0.0005,3.30103
app_55,948.341,21737.1,7995.4,4.6,4.15527,4.27577e+09,1.00004,0.993977,1923,1.06894,11,0.0005,3.30103
app_56,173.431,20452.2,7990.2,9.8,4.3123,8.65463e+09,1.00014,0.993977,1860,2.16366,11,0.0005,3.30103
app_57,996.919,22232.7,7962,38,4.87246,3.22299e+10,1.00072,0.993977,1624,6.44598,13,0.0005,3.30103
app_58,224.34,21524.2,7973.3,26.7,4.20016,2.3211e+10,1.00044,0.993977,1920,5.80275,11,0.0005,3.30103
app_59,974.836,20976.9,7980.5,19.5,5.16419,1.79445e+10,1.00019,0.993977,1559,3.58889,13,0.0005,3.30103
app_6,0.91754,19960.4,7913.7,79.5206,792.038,4.10956e+10,1.00568,0.993977,10,0.0518884,1976,0.1,1
app_60,1562.01,22225.6,7987.9,12.1,4.74882,1.05315e+10,1.0002,0.993977,1701,2.10631,12,0.0005,3.30103
app_7,6.93779,19454.4,7907.1,85.5021,878.111,2.90569e+10,1.00804,0.993977,9,0.0330944,2137,0.1,1
app_8,3.88142,20165.7,7916.7,75.3862,792.964,1.36533e+10,1.00878,0.993977,10,0.0172173,1997,0.1,1
app_9,6.94673,18796.3,7897,95.2057,990.29,2.39975e+10,1.00997,0.993977,8,0.0242399,2323,0.1,1
