app_id,start_app,end_app,effective_cpu,effective_io,effective_iter,total_bytes,stretch,utilization,Tcomp,Tio,iterations,priority,group_id
app_1,4.55996,19281,7561.2,64.1766,755.178,4.83986e+09,1.05736,0.98132,10,0.00641042,1835,1,1
app_10,1.22673,19161.5,7555.74,74.4422,755.636,3.3831e+10,1.05408,0.98132,10,0.0448093,1822,1,1
app_11,5.43919,19000.9,7537,77.8616,836.666,2.33274e+10,1.05816,0.98132,9,0.0278702,2001,1,1
app_12,0.371054,20478.8,7588.3,67.4197,759.272,1.0049e+10,1.05286,0.98132,10,0.0132397,1951,1,1
app_13,7.56101,19979,7572.4,61.051,754.956,1.15317e+09,1.05631,0.98132,10,0.00152738,1895,1,1
app_14,6.00342,20303,7586.5,75.3001,758.129,3.87026e+10,1.04915,0.98132,10,0.0510588,1932,1,1
app_15,1.76146,18801.3,7504.1,87.1263,938.682,2.01053e+10,1.06324,0.98132,8,0.0214114,2218,1,1
app_16,30.296,19956.8,7905.5,41.6465,84.2767,3.63899e+10,1.00732,0.98132,94,0.433213,211,1,1
app_17,57.1776,20055.9,7916.4,41.9978,84.8936,3.58251e+10,1.00601,0.98132,93,0.421472,213,1,1
app_18,90.1878,20090.8,7951.5,23.0333,74.1558,2.12106e+10,1.00342,0.98132,108,0.28663,185,1,1
app_19,60.1872,20335.6,7927.7,13.6966,74.1062,7.57699e+09,1.00816,0.98132,106,0.102392,189,1,1
app_2,8.51694,19453.2,7490.46,83.8431,834.555,4.5131e+10,1.06163,0.98132,9,0.0541139,2036,1,1
app_20,26.061,19987.3,7919.8,41.0378,83.8839,3.38074e+10,1.00583,0.98132,95,0.402468,209,1,1
app_21,32.9958,20043,7929.9,44.076,87.7205,4.03123e+10,1.00374,0.98132,91,0.458095,219,1,1
app_22,105.958,20261,7902.5,43.112,70.5449,3.90787e+10,1.00736,0.98132,112,0.550404,178,1,1
app_23,11.5478,20114.7,7937.2,27.1342,89.3368,2.49118e+10,1.00476,0.98132,89,0.279908,224,1,1
app_24,23.7163,19911.1,7912.6,55.3224,78.9083,5.15498e+10,1.0045,0.98132,102,0.652529,194,1,1
app_25,79.0857,20180.4,7919.8,23.5384,82.7315,1.79719e+10,1.00784,0.98132,97,0.21917,206,1,1
app_26,71.9761,20180.9,7915.7,39.2437,77.0634,3.63695e+10,1.00603,0.98132,103,0.472331,193,1,1
app_27,8.69539,19993.6,7924.3,45.1968,90.2261,3.9542e+10,1.00454,0.98132,88,0.434528,226,1,1
app_28,40.5839,19966.8,7878.6,50.3198,86.3609,4.30129e+10,1.0099,0.98132,92,0.500149,216,1,1
app_29,38.1245,19950.7,7919.3,50.061,83.7964,4.49553e+10,1.00449,0.98132,95,0.535182,208,1,1
app_3,6.18976,20812.2,7555.5,68.944,754.46,1.92709e+10,1.05614,0.98132,10,0.0255254,1977,1,1
app_30,56.3626,20130.2,7965,9.04227,86.5764,5.7966e+09,1.00366,0.98132,92,0.0674024,217,1,1
app_31,281.234,21005.1,7960.7,39.1061,7.79195,3.85934e+10,1.00009,0.98132,1020,4.82417,20,1,1
app_32,1060.91,22048.5,7961.3,38.4564,7.3764,3.79622e+10,1.00009,0.98132,1084,5.42317,19,1,1
app_33,27.7708,19700.8,7965.1,34.4677,7.64646,3.42258e+10,1.00008,0.98132,1051,4.27822,19,1,1
app_34,475.441,20804.1,7985.8,11.1731,7.48674,1.05753e+10,1.00045,0.98132,1065,1.32191,19,1,1
app_35,621.402,20750.9,7996.7,3.11633,7.97866,2.83239e+09,1.00006,0.98132,1010,0.354049,20,1,1
app_36,873.758,22006.1,7952,47.7571,8.69442,4.73178e+10,1.00009,0.98132,900,5.25753,23,1,1
app_37,713.981,20694.7,7965.7,34.2545,8.56013,3.3982e+10,1.00004,0.98132,949,3.77577,21,1,1
app_38,56.2972,20720.9,7948.3,49.5405,8.25495,4.89939e+10,1.00034,0.98132,978,6.12424,21,1,1
app_39,93.5923,20199.5,7958.4,39.074,7.58828,3.84323e+10,1.0004,0.98132,1061,4.80403,19,1,1
app_4,3.99522,19201.7,7540.97,73.7692,839.742,6.50556e+09,1.05996,0.98132,9,0.00775394,2022,1,1
app_40,315.427,20961.5,7961.5,33.9724,9.5568,3.35791e+10,1.00062,0.98132,850,3.35791,24,1,1
app_41,171.159,20013.8,7958.5,21.4485,8.66213,2.09578e+10,1.00257,0.98132,919,2.32864,22,1,1
app_42,429.541,20260.1,7965.7,33.4461,7.97224,3.29732e+10,1.00017,0.98132,1010,4.12166,20,1,1
app_43,963.864,21183.4,7962.7,32.07,7.92055,3.19664e+10,1.00067,0.98132,1011,3.9958,20,1,1
app_44,778.039,21311.9,7976.9,23.1,7.20829,2.24625e+10,1.00008,0.98132,1145,3.20893,18,1,1
app_45,721.526,21048.6,7967.5,30.6004,8.34918,3.03564e+10,1.00027,0.98132,961,3.79455,21,1,1
app_46,1718.06,21866.2,7980.1,15.5028,4.07684,1.53334e+10,1.00057,0.98132,1997,3.06669,10,1,1
app_47,714.376,22409.8,7975.8,15.5975,4.35222,1.54919e+10,1.00109,0.98132,1801,3.09837,12,1,1
app_48,819.163,21044.8,7953.6,43.9983,3.85215,4.37911e+10,1.00033,0.98132,2012,10.9478,10,1,1
app_49,1572.62,23774.7,7955.4,44.0343,3.93707,4.39177e+10,1.00009,0.98132,1978,10.9794,11,1,1
app_5,5.71876,20382.9,7563.1,65.1981,753.736,7.63291e+09,1.0567,0.98132,10,0.0101232,1934,1,1
app_50,975.143,22722.6,7970.1,17.1414,3.63772,1.69907e+10,1.00162,0.98132,2166,5.66357,10,1,1
app_51,1023.25,22527,7977,10.557,3.7454,1.0378e+10,1.00158,0.98132,2140,3.45934,10,1,1
app_52,865.134,21160.6,7969.2,30.8,3.74785,3.06164e+10,1.00002,0.98132,2030,7.6541,10,1,1
app_53,771.745,21376.7,7946.9,47.7788,4.32541,4.75323e+10,1.0007,0.98132,1879,9.50646,11,1,1
app_54,806.047,22504.8,7980.8,19.2,3.93277,1.88512e+10,1.00004,0.98132,1975,4.71281,11,1,1
app_55,1190.98,23280.8,7971.5,28.4258,4.16564,2.83182e+10,1.00002,0.98132,1970,7.07954,11,1,1
app_56,72.1936,20870.8,7943,53.2906,3.87147,5.31817e+10,1.00048,0.98132,2092,13.2954,10,1,1
app_57,287.542,22018.2,7953.2,37.8995,3.98314,3.77549e+10,1.00113,0.98132,1969,9.43871,11,1,1
app_58,114.182,20334,7996.6,3.14498,3.58149,2.90231e+09,1.00006,0.98132,2279,0.725577,9,1,1
app_59,1727.96,22665.5,7980.5,19.4889,4.61985,1.92193e+10,1.00004,0.98132,1755,3.84385,12,1,1
app_6,7.49075,20141,7574.14,72.0381,755.291,2.52223e+10,1.05272,0.98132,10,0.033407,1913,1,1
app_60,1394.33,22402.2,7971.9,27.2499,4.24264,2.70858e+10,1.00013,0.98132,1883,6.77144,11,1,1
app_7,1.68723,20639.3,7518.74,72.8191,837.653,9.23329e+09,1.0627,0.98132,9,0.0110314,2173,1,1
app_8,1.87083,19073.1,7525.4,83.8081,942.822,1.01259e+10,1.06164,0.98132,8,0.010738,2249,1,1
app_9,8.52394,19191.8,7522,83.4809,943.12,1.33955e+10,1.06166,0.98132,8,0.0142052,2256,1,1
