app_id,Tcomp,Tio,iter,witer,alpha_io,compute_size,io_size,mu,desyn_time
1,7.750100380186017,0.286937324557754,2489,8.03703770474377,0.035701876126373336,7e9,286937324.557754,10,3.1740432049880165
2,8.988642840590693,0.5649502855835649,2094,9.553593126174258,0.05913484885971897,8e9,564950285.5835649,10,1.5021492457171477
3,9.56531728577875,0.2748516164559413,2033,9.84016890223469,0.02793159540112394,9e9,274851616.4559413,10,0.6608088434838366
4,9.792582271342862,0.3151219274807415,1979,10.107704198823605,0.03117640972491234,9e9,315121927.4807415,10,0.26962333364359303
5,8.389570351077342,0.199107978677186,2329,8.588678329754527,0.023182609830362185,8e9,199107978.67718598,10,6.57233275255385
6,103.80260624394307,0.41313983207502375,192,104.21574607601809,0.003964274571077456,103e9,413139832.0750238,100,54.69826222510942
7,82.4995504711696,0.585809417496276,241,83.08535988866588,0.007050693627388253,82e9,585809417.496276,100,21.577523706205344
8,105.3156646112068,5.8330869497449545,180,111.14875156095175,0.05248000420901,105e9,5833086949.744954,100,81.83672288500367
9,95.57370360442538,4.070439318350862,201,99.64414292277624,0.04084975994530289,95e9,4070439318.3508615,100,14.872770674917417
10,93.19571639801278,3.374425874178025,208,96.57014227219081,0.034942745187916686,93e9,3374425874.1780252,100,87.4937765307591
11,928.3971231190749,66.85839553045612,21,995.255518649531,0.06717711610499455,928e9,66858395530.45612,1000,888.080659579302
12,1154.0708559421516,9.215940637848234,18,1163.2867965799999,0.007922328926058991,1154e9,9215940637.848234,1000,785.8424964597449
13,910.7806940859854,60.75705713263868,21,971.5377512186241,0.06253700080766762,910e9,60757057132.63868,1000,303.91848442095204
14,1037.870778300212,46.37195030319945,19,1084.2427286034113,0.042768975138002645,1037e9,46371950303.19945,1000,36.3425346633984
15,900.2907772248764,69.42955770251689,21,969.7203349273933,0.07159750621060798,900e9,69429557702.51689,1000,948.6392769765959
16,940.8106997607134,69.12149012007343,20,1009.9321898807868,0.06844171402065378,940e9,69121490120.07343,1000,691.1170033369867
17,845.8475877194684,30.91398986948831,23,876.7615775889567,0.035259289024160916,845e9,30913989869.48831,1000,455.98793632988964
18,920.193797142296,56.171408846155224,21,976.3652059884513,0.057531145622183956,920e9,56171408846.15522,1000,323.26371950248716
19,921.1253323634203,20.869011963721526,22,941.9943443271418,0.022154073524324688,921e9,20869011963.721527,1000,557.7050267492784
20,1117.9595791524382,56.60957381970428,18,1174.5691529721425,0.048196033138158616,1117e9,56609573819.70428,1000,363.8547444717973
