app_id,start_app,end_app,effective_cpu,effective_io,effective_iter,total_bytes,stretch,utilization,Tcomp,Tio,iterations,priority,group_id
app_1,1.76555,28253.3,4386.16,215.81,438.285,1.89994e+11,1.74819,0.807601,10,0.432789,1822,1,1
app_10,64.9223,23459,6320.8,236.126,65.3868,2.32302e+11,1.2208,0.807601,97,3.51973,198,1,1
app_11,776.883,21189.3,7776.4,167.548,8.80797,1.67208e+11,1.0071,0.807601,892,18.5787,22,1,1
app_12,1048.29,22515.6,7890.9,86.4702,6.77604,8.6141e+10,1.00288,0.807601,1138,14.3568,18,1,1
app_13,676.182,22096.9,7495.1,276.968,9.50093,2.76581e+11,1.02938,0.807601,768,27.6581,26,1,1
app_14,426.903,21711.2,7355.7,571.493,7.85213,5.70988e+11,1.00925,0.807601,926,71.3735,21,1,1
app_15,1000.74,22058.2,7387.5,493.834,7.72202,4.93359e+11,1.01512,0.807601,964,61.6699,20,1,1
app_16,462.303,21149.3,7379.6,469.564,9.26047,4.69069e+11,1.01928,0.807601,796,52.1187,24,1,1
app_17,873.371,21017,7385.3,502.969,7.89398,5.02443e+11,1.01423,0.807601,948,62.8053,20,1,1
app_18,299.211,21242.8,7506.8,357.565,7.24765,3.57153e+11,1.0173,0.807601,1037,51.0218,19,1,1
app_19,428.369,21502.5,7757.7,126.786,7.0641,1.26509e+11,1.01469,0.807601,1075,18.0727,19,1,1
app_2,0.84125,27990.5,4250.03,370.419,470.101,3.3971e+11,1.74302,0.807601,9,0.722265,1929,1,1
app_20,858.914,21308.1,7677.3,11.5336,6.9537,1.11647e+10,1.04052,0.807601,1134,1.59495,18,1,1
app_3,8.68128,28224.8,4353.5,258.291,435.559,2.32196e+11,1.74456,0.807601,10,0.532561,1808,1,1
app_4,3.09833,28628.3,4386,55.3821,546.571,2.76214e+10,1.81257,0.807601,8,0.0504962,2347,1,1
app_5,0.0937119,28322.5,4162.7,303.688,520.877,2.67177e+11,1.80592,0.807601,8,0.512815,2203,1,1
app_6,14.682,23477.1,6419.2,254.54,64.2569,2.51337e+11,1.1993,0.807601,100,3.86672,192,1,1
app_7,21.3044,23320.9,6396.5,453.732,70.2595,4.49963e+11,1.16849,0.807601,91,6.33751,204,1,1
app_8,58.4996,23251.3,6443.6,336.205,68.9838,3.32211e+11,1.18067,0.807601,93,4.81466,203,1,1
app_9,101.875,23849.7,6485.4,56.1497,64.2296,5.24477e+10,1.22364,0.807601,101,0.806888,196,1,1
