app_id,start_app,end_app,effective_cpu,effective_io,effective_iter,total_bytes,stretch,utilization,Tcomp,Tio,iterations,priority,group_id
app_1,1.64449,19254,7534.7,457.258,750.631,4.07375e+11,1.00729,0.925469,10,0.543166,1814,0.1,1
app_10,89.1218,20213.9,7935,34.2572,76.7288,2.32852e+10,1.00524,0.925469,102,0.302406,194,0.01,2
app_11,356.328,22160.4,6991.9,459.33,7.47545,3.60525e+11,1.08808,0.925469,921,51.5036,21,0.001,3
app_12,220.489,21856.5,7099.4,698.465,7.82915,5.3858e+11,1.0474,0.925469,916,67.3225,21,0.001,3
app_13,273.751,21503.3,7076.2,461.364,7.24819,3.54949e+11,1.07655,0.925469,949,50.707,20,0.001,3
app_14,713.846,22254.9,7101.1,518.106,6.9551,3.87966e+11,1.06822,0.925469,1027,55.4237,19,0.001,3
app_15,4.20878,21061.9,7342.9,465.312,7.15411,3.6189e+11,1.03832,0.925469,1019,51.6985,19,0.001,3
app_16,971.204,22444.3,6721.4,1220.37,7.25214,9.24114e+11,1.04637,0.925469,896,115.514,20,0.001,3
app_17,890.246,23292.1,6874.01,498.927,7.32406,3.88676e+11,1.10152,0.925469,926,55.5252,21,0.001,3
app_18,791.926,21946.9,6789.02,764.532,7.7789,5.91029e+11,1.084,0.925469,886,78.5927,21,0.001,3
app_19,1044.58,21789.1,7458.2,414.176,7.47765,3.13667e+11,1.02935,0.925469,1014,44.8096,19,0.001,3
app_2,1.13095,20045.5,7819.1,153.458,781.686,9.78244e+10,1.01049,0.925469,10,0.125255,1958,0.1,1
app_20,302.828,22101.1,7193.76,44.8212,7.44529,3.65465e+10,1.10645,0.925469,952,5.22093,21,0.001,3
app_3,3.32209,19550,7811.1,165.506,974.305,9.73414e+10,1.01158,0.925469,8,0.0999398,2383,0.1,1
app_4,8.90246,19537.6,7806.5,169.873,866.949,1.01429e+11,1.01164,0.925469,9,0.116989,2114,0.1,1
app_5,1.93437,19742,7746.8,234.859,774.569,2.07201e+11,1.00578,0.925469,10,0.267701,1909,0.1,1
app_6,7.48702,20021.1,7816.7,162.524,81.7712,1.30284e+11,1.00667,0.925469,95,1.58883,206,0.01,2
app_7,45.2974,19948.5,7871.9,95.4658,85.2247,7.4012e+10,1.00681,0.925469,93,0.870729,212,0.01,2
app_8,47.7155,20183.3,7384.2,611.391,87.7156,5.02409e+11,1.01438,0.925469,85,5.70919,220,0.01,2
app_9,73.3761,20161.5,7701.2,257.619,80.1359,2.09554e+11,1.01128,0.925469,96,2.61943,201,0.01,2
