app_id,start_app,end_app,effective_cpu,effective_io,effective_iter,total_bytes,stretch,utilization,Tcomp,Tio,iterations,priority,group_id
app_1,0.54426,27204.1,4815,318.293,400.856,2.96027e+11,1.56524,0.82758,12,0.740068,1536,1,1
app_10,20.8559,23020.2,6562.29,304.588,74.7509,2.99585e+11,1.16586,0.82758,88,4.00141,218,1,1
app_11,102.534,21601.6,7769.8,35.9262,7.73042,3.5518e+10,1.02494,0.82758,994,4.43975,21,1,1
app_12,762.209,21674.8,7706,143.189,7.23607,1.42711e+11,1.01928,0.82758,1087,17.8389,19,1,1
app_13,925.629,22265.3,7701.2,30.882,8.18818,3.04414e+10,1.03471,0.82758,973,3.38238,21,1,1
app_14,96.5124,21345.5,7368.6,475.92,8.08628,4.75668e+11,1.01985,0.82758,870,59.4585,22,1,1
app_15,318.501,21206.3,7534.3,305.064,9.14373,3.04612e+11,1.02055,0.82758,813,33.8457,24,1,1
app_16,916.058,21165.9,7504.3,468.991,7.98268,4.6855e+11,1.00341,0.82758,950,58.5688,20,1,1
app_17,910.299,21437,7605.7,292.427,7.73004,2.91985e+11,1.01296,0.82758,964,41.7122,20,1,1
app_18,13.0083,21005.9,7728,156.058,8.02189,1.55668e+11,1.01476,0.82758,966,19.4585,21,1,1
app_19,71.4104,21227.7,7756.7,42.6701,8.16091,4.22588e+10,1.02578,0.82758,963,5.28235,21,1,1
app_2,7.06512,27397.7,4649.7,246.596,516.255,2.10945e+11,1.64587,0.82758,9,0.408809,2009,1,1
app_20,120.61,21097.8,7332.1,600.942,7.57674,6.00523e+11,1.00849,0.82758,953,75.0654,20,1,1
app_3,3.3521,27469.8,4561.8,404.303,507.176,3.7852e+11,1.61933,0.82758,9,0.746588,1972,1,1
app_4,0.713663,26885.3,4771.3,94.614,530.25,5.99289e+10,1.65589,0.82758,9,0.113073,2007,1,1
app_5,4.28898,26486.2,4527.7,445.449,503.415,4.14146e+11,1.61883,0.82758,9,0.823352,1859,1,1
app_6,47.2617,22803,6357.21,534.354,80.6913,5.31003e+11,1.1614,0.82758,79,6.5556,232,1,1
app_7,31.8201,22974.4,6712.93,195.776,83.8439,1.92821e+11,1.15846,0.82758,81,2.29549,239,1,1
app_8,47.1823,22896.5,6488.65,372.125,67.7692,3.6777e+11,1.16679,0.82758,95,5.40838,198,1,1
app_9,5.69532,22790.7,6959.5,111.981,66.0061,1.08265e+11,1.1319,0.82758,106,1.64037,185,1,1
