app_id,start_app,end_app,effective_cpu,effective_io,effective_iter,total_bytes,stretch,utilization,Tcomp,Tio,iterations,priority,group_id
app_1,8.18491,18837.8,7900.8,99.2,875.58,4.47029e+10,1.00686,0.993933,9,0.0510307,2062,1,1
app_10,5.62224,18689.1,7900.9,99.1,989.13,2.48736e+10,1.00937,0.993933,8,0.0251502,2309,1.00001,1.00001
app_11,1.42581,19698.6,7917.7,82.3,791.894,3.46692e+10,1.00599,0.993933,10,0.0437743,1950,1.00001,1.00001
app_12,6.54646,19180.4,7908.7,91.3,790.626,4.08544e+10,1.00635,0.993933,10,0.051649,1895,1.00001,1.00001
app_13,9.29261,18634.7,7899.5,100.5,789.78,6.36248e+10,1.00463,0.993933,10,0.0806398,1841,1.00001,1.00001
app_14,3.73742,18586.2,7908.6,91.4,876.498,3.41391e+10,1.00721,0.993933,9,0.0389716,2042,1.00001,1.00001
app_15,4.48145,19206.2,7917.9,82.1,791.645,3.05184e+10,1.00649,0.993933,10,0.0385821,1904,1.00002,1.00002
app_16,8.67083,19770.9,7959.5,40.5,163.583,2.56242e+10,1.00186,0.993933,49,0.156245,403,1.00002,1.00002
app_17,47.2706,20066.6,7937.7,62.3,165.822,4.82734e+10,1.00176,0.993933,48,0.290803,414,1.00002,1.00002
app_18,46.2355,19979.7,7944.6,55.4,162.952,3.5294e+10,1.00252,0.993933,49,0.216528,405,1.00002,1.00002
app_19,10.418,19987.8,7978.4,21.6,181.873,1.07418e+10,1.00136,0.993933,44,0.059021,452,1.00002,1.00002
app_2,6.94044,18946.5,7899.1,100.9,880.447,4.75784e+10,1.00671,0.993933,9,0.0540664,2080,1,1
app_20,5.27346,19912.5,7959.2,40.8,158.564,2.81615e+10,1.00158,0.993933,50,0.177116,396,1.00002,1.00002
app_21,40.1671,19712.5,7914.3,85.7,191.371,6.28496e+10,1.00286,0.993933,41,0.329055,473,1.00002,1.00002
app_22,45.509,20006.9,7916.5,83.5,171.433,6.00637e+10,1.00294,0.993933,46,0.349208,428,1.00002,1.00002
app_23,13.3153,19601.8,7962,38,177.016,2.10119e+10,1.00213,0.993933,45,0.118712,434,1.00002,1.00002
app_24,47.1523,20009.8,7983.7,16.3,162.647,1.81935e+09,1.00181,0.993933,49,0.0111617,407,1.00002,1.00002
app_25,17.7801,19733.6,7979,21,159.155,1.11122e+10,1.00124,0.993933,50,0.0698878,394,1.00003,1.00003
app_26,33.7299,19768.9,7978.9,21.1,155.753,1.45724e+10,1.00082,0.993933,51,0.0934131,387,1.00003,1.00003
app_27,9.18549,19843.5,7984.3,15.7,156.556,2.05869e+09,1.00171,0.993933,51,0.0131127,389,1.00003,1.00003
app_28,54.6018,19890.5,7983.4,16.6,146.717,7.91603e+09,1.00109,0.993933,55,0.0538505,363,1.00003,1.00003
app_29,30.0317,19794.5,7950.8,49.2,209.691,3.13865e+10,1.00223,0.993933,38,0.149459,517,1.00003,1.00003
app_3,2.41348,19880.5,7910.7,89.3,717.7,5.02285e+10,1.00491,0.993933,11,0.0699561,1785,1,1
app_30,3.49918,20058.8,7946.8,53.2,144.736,3.79013e+10,1.00192,0.993933,55,0.261389,362,1.00003,1.00003
app_31,93.9745,20144.5,7981,19,75.5933,1.29094e+10,1.00076,0.993933,105,0.172126,190,1.00003,1.00003
app_32,86.9456,20122,7955.1,44.9,67.482,3.33287e+10,1.00145,0.993933,118,0.490128,168,1.00003,1.00003
app_33,46.8251,20199.9,7924.7,75.3,84.2925,5.8453e+10,1.00211,0.993933,94,0.695869,211,1.00003,1.00003
app_34,76.0174,19891.6,7975.6,24.4,99.7757,1.75209e+10,1.00086,0.993933,80,0.175209,247,1.00003,1.00003
app_35,44.809,19878.5,7954.1,45.9,75.5852,3.56225e+10,1.00129,0.993933,105,0.474966,189,1.00004,1.00004
app_36,27.527,19955.9,7967.1,32.9,84.9611,2.39908e+10,1.00111,0.993933,94,0.282245,211,1.00004,1.00004
app_37,30.0584,20140.4,7971.3,28.7,71.8282,2.13799e+10,1.00092,0.993933,110,0.296943,181,1.00004,1.00004
app_38,81.3242,20134.7,7992.2,7.8,78.1572,7.20891e+08,1.00089,0.993933,103,0.00924219,194,1.00004,1.00004
app_39,72.499,20044.5,7976.8,23.2,92.0128,1.52855e+10,1.00099,0.993933,87,0.166147,229,1.00004,1.00004
app_4,11.4985,18702.4,7909.9,90.1,718.821,5.02823e+10,1.005,0.993933,11,0.0699336,1682,1,1
app_40,29.0611,19912.7,7973.4,26.6,75.4489,1.66955e+10,1.00124,0.993933,106,0.222607,188,1.00004,1.00004
app_41,48.6297,20015.8,7969.9,30.1,86.235,2.33989e+10,1.00084,0.993933,92,0.27208,215,1.00004,1.00004
app_42,35.6728,20147.7,7992.2,7.8,77.1701,3.08959e+09,1.00059,0.993933,103,0.0401246,194,1.00004,1.00004
app_43,47.3133,20074.7,7942.9,57.1,74.0593,4.33997e+10,1.00172,0.993933,107,0.586483,185,1.00004,1.00004
app_44,25.3534,19961.1,7978.3,21.7,95.6283,1.27119e+10,1.00112,0.993933,84,0.132416,237,1.00004,1.00004
app_45,11.5888,19951.7,7990.2,9.8,78.7334,5.06533e+09,1.00059,0.993933,101,0.0649401,197,1.00004,1.00004
app_46,182.13,19926,7988.6,11.4,7.90532,9.56159e+09,1.00023,0.993933,1012,1.1952,20,1.00005,1.00005
app_47,274.358,20261.7,7985.4,14.6,7.86903,1.22859e+10,1.00029,0.993933,1056,1.53574,19,1.00005,1.00005
app_48,341.315,21344.3,7975.2,24.8,6.74229,2.0816e+10,1.0005,0.993933,1165,2.97371,18,1.00005,1.00005
app_49,1021.31,21933.7,7918.3,81.7,7.84432,6.41781e+10,1.0022,0.993933,1043,8.02226,20,1.00005,1.00005
app_5,10.1738,18755.5,7916.4,83.6,795.46,3.97894e+10,1.00551,0.993933,10,0.0499867,1856,1.00001,1.00001
app_50,634.892,21432,7994.3,5.7,6.2837,3.72579e+09,1.00025,0.993933,1310,0.620964,16,1.00005,1.00005
app_51,321.454,21068.6,7996.6,3.4,7.74347,2.39623e+09,1.00013,0.993933,1029,0.299528,20,1.00005,1.00005
app_52,895.12,21156.8,7995.9,4.1,8.18753,2.84154e+09,1.00016,0.993933,957,0.355192,21,1.00005,1.00005
app_53,1083.32,22434,7963.8,36.2,6.56039,2.78398e+10,1.00105,0.993933,1165,4.63997,18,1.00005,1.00005
app_54,304.746,20879.3,7961.1,38.9,8.65261,3.1493e+10,1.00093,0.993933,920,3.93662,22,1.00005,1.00005
app_55,843.787,21099.4,7951.6,48.4,8.51198,3.99049e+10,1.00106,0.993933,920,4.43388,22,1.00005,1.00005
app_56,274.853,20302.6,7955.6,44.4,9.19632,3.64788e+10,1.00099,0.993933,868,4.0532,23,1.00006,1.00006
app_57,340.335,21258.5,7989.6,10.4,7.7599,8.45785e+09,1.00024,0.993933,1038,1.05723,20,1.00006,1.00006
app_58,750.773,21640.2,7988,12,7.96132,1.03676e+10,1.0002,0.993933,997,1.29595,21,1.00006,1.00006
app_59,589.219,21358,7923.9,76.1,8.47706,5.84608e+10,1.00221,0.993933,931,6.49564,22,1.00006,1.00006
app_6,1.95759,19077.6,7920.9,79.1,790.96,2.05099e+09,1.00972,0.993933,10,0.00259291,1890,1.00001,1.00001
app_60,529.052,20899.3,7932,68,7.34674,5.27075e+10,1.00192,0.993933,1048,6.58843,19,1.00006,1.00006
app_7,3.00919,18318.2,7900,100,876.365,4.44634e+10,1.00699,0.993933,9,0.0507573,2011,1.00001,1.00001
app_8,8.51924,18220.7,7912.2,87.8,878.317,1.17653e+10,1.0096,0.993933,9,0.0134001,2000,1.00001,1.00001
app_9,8.47499,20063.9,7920.6,79.4,793.383,1.34943e+10,1.00831,0.993933,10,0.0169953,1984,1.00001,1.00001
