app_id,start_app,end_app,effective_cpu,effective_io,effective_iter,total_bytes,stretch,utilization,Tcomp,Tio,iterations,priority,group_id
app_1,7.29264,20023.7,7900.7,99.3,794.167,5.8261e+10,1.00516,0.993812,10,0.0733766,1982,1,1
app_10,7.94507,18956.9,7906.7,93.3,876.706,4.20508e+10,1.00645,0.993812,9,0.0479485,2076,1.00001,1.00001
app_11,9.42505,18676.5,7909.8,90.2,877.96,3.02066e+10,1.00756,0.993812,9,0.0344038,2049,1.00001,1.00001
app_12,7.12894,20039.4,7920.7,79.3,792.49,4.33218e+09,1.00946,0.993812,10,0.00546303,1983,1.00001,1.00001
app_13,8.59006,18736.9,7912.2,87.8,878.214,2.69827e+09,1.01075,0.993812,9,0.0030732,2057,1.00001,1.00001
app_14,3.30861,17966.4,7886.9,113.1,1127.5,2.60791e+10,1.011,0.993812,7,0.0231198,2533,1.00001,1.00001
app_15,4.25929,19504.4,7899,101,876.742,4.80148e+10,1.00667,0.993812,9,0.0547489,2136,1.00002,1.00002
app_16,32.9786,20012.7,7952.9,47.1,203.09,2.87649e+10,1.0023,0.993812,39,0.141699,508,1.00002,1.00002
app_17,38.0381,19836.5,7962.1,37.9,179.873,1.96115e+10,1.00229,0.993812,44,0.108953,448,1.00002,1.00002
app_18,28.1266,19940.4,7928.4,71.6,188.289,5.04825e+10,1.00265,0.993812,42,0.268524,469,1.00002,1.00002
app_19,43.5886,19883.5,7927.6,72.4,184.35,5.29368e+10,1.00244,0.993812,43,0.2877,455,1.00002,1.00002
app_2,5.03476,19493.1,7911.7,88.3,881.775,1.57652e+10,1.00915,0.993812,9,0.0178743,2143,1,1
app_20,10.5688,19673,7940.9,59.1,146.755,4.39387e+10,1.0019,0.993812,54,0.298902,363,1.00002,1.00002
app_21,48.5478,19750.1,7979.1,20.9,150.485,1.49227e+10,1.00075,0.993812,53,0.0994849,370,1.00002,1.00002
app_22,2.54895,19874.9,7965.9,34.1,159.972,1.74125e+10,1.00209,0.993812,50,0.108828,396,1.00002,1.00002
app_23,32.1287,19667.5,7981.9,18.1,173.862,7.35198e+09,1.00135,0.993812,46,0.0422528,426,1.00002,1.00002
app_24,16.1431,20086.6,7917.9,82.1,188.741,5.79979e+10,1.00302,0.993812,42,0.306867,472,1.00002,1.00002
app_25,32.2731,19982.6,7979.6,20.4,164.863,1.14835e+10,1.00112,0.993812,48,0.0700212,413,1.00003,1.00003
app_26,24.5901,19598,7979.9,20.1,200.805,2.91767e+09,1.00215,0.993812,40,0.0145158,488,1.00003,1.00003
app_27,32.0703,20018.5,7983.7,16.3,163.306,3.79461e+09,1.00157,0.993812,49,0.0232798,408,1.00003,1.00003
app_28,44.8533,19961,7979.3,20.7,162.485,1.25785e+10,1.00102,0.993812,49,0.0776452,405,1.00003,1.00003
app_29,39.4412,20051.1,7958.6,41.4,165.649,2.78959e+10,1.00169,0.993812,48,0.168047,414,1.00003,1.00003
app_3,6.65292,19535.2,7904.2,95.8,787.577,5.23216e+10,1.00546,0.993812,10,0.066398,1927,1,1
app_30,9.28182,19739.1,7961.1,38.9,165.812,2.58973e+10,1.00163,0.993812,48,0.156008,409,1.00003,1.00003
app_31,98.8113,19986.9,7955.6,44.4,79.1055,3.22312e+10,1.00152,0.993812,100,0.40799,198,1.00003,1.00003
app_32,28.6258,20053.5,7933.1,66.9,79.2441,5.06507e+10,1.00204,0.993812,100,0.641148,199,1.00003,1.00003
app_33,17.8705,19900.8,7963.8,36.2,80.4068,2.53945e+10,1.00135,0.993812,99,0.317431,200,1.00003,1.00003
app_34,76.1046,19993.7,7982.3,17.7,75.7595,1.02562e+10,1.00093,0.993812,105,0.13495,190,1.00003,1.00003
app_35,48.82,20253.7,7975.3,24.7,76.2576,1.65472e+10,1.00102,0.993812,104,0.217727,192,1.00004,1.00004
app_36,59.0595,20081.8,7992.4,7.6,76.0167,1.8286e+09,1.00072,0.993812,104,0.0240605,192,1.00004,1.00004
app_37,2.63582,19880.7,7991.6,8.4,81.7986,2.86053e+09,1.00069,0.993812,97,0.0348845,205,1.00004,1.00004
app_38,20.3418,20055.7,7947.1,52.9,83.2906,4.03352e+10,1.00157,0.993812,95,0.485966,209,1.00004,1.00004
app_39,20.5478,19988.8,7928.6,71.4,65.4791,5.44826e+10,1.00212,0.993812,121,0.825493,164,1.00004,1.00004
app_4,7.1868,19320,7915.3,84.7,720.063,4.37874e+10,1.00514,0.993812,11,0.0608158,1738,1,1
app_40,40.653,19891.1,7980.5,19.5,75.6554,1.34943e+10,1.00075,0.993812,105,0.179923,189,1.00004,1.00004
app_41,69.1216,19863.1,7957.3,42.7,83.2108,3.02893e+10,1.00155,0.993812,96,0.364931,206,1.00004,1.00004
app_42,0.888825,19866.9,7975.8,24.2,94.756,1.89904e+10,1.00065,0.993812,84,0.199899,236,1.00004,1.00004
app_43,45.907,20155.7,7924.7,75.3,74.7193,5.71524e+10,1.00227,0.993812,105,0.762031,189,1.00004,1.00004
app_44,66.7225,20000.6,7957.8,42.2,70.1877,2.84761e+10,1.00172,0.993812,114,0.406801,174,1.00004,1.00004
app_45,8.84048,19951.1,7971.2,28.8,80.4867,1.87374e+10,1.00126,0.993812,99,0.231326,201,1.00004,1.00004
app_46,805.913,21175.8,7999.1,0.9,7.7275,5.54784e+08,1.00004,0.993812,1024,0.0792548,20,1.00005,1.00005
app_47,779.038,21419.5,7993.8,6.2,8.86828,3.97734e+09,1.00028,0.993812,892,0.441927,23,1.00005,1.00005
app_48,531.382,21948.3,7957.4,42.6,7.55819,3.47602e+10,1.00098,0.993812,989,4.96574,21,1.00005,1.00005
app_49,594.44,20544,7980.2,19.8,8.48973,1.53639e+10,1.00055,0.993812,951,1.7071,21,1.00005,1.00005
app_5,8.94411,18542.2,7891.6,108.4,877.207,6.09105e+10,1.00597,0.993812,9,0.0694533,2029,1.00001,1.00001
app_50,786.16,20969.9,7981,19,8.70897,1.50335e+10,1.0005,0.993812,922,1.67039,22,1.00005,1.00005
app_51,413.265,20596.1,7946.1,53.9,8.53478,4.4128e+10,1.00122,0.993812,921,5.516,22,1.00005,1.00005
app_52,893.882,21001.3,7980.6,19.4,8.14466,1.45706e+10,1.0006,0.993812,977,1.82133,21,1.00005,1.00005
app_53,803.901,20724.4,7988.7,11.3,8.54347,7.38462e+09,1.00049,0.993812,974,0.820513,21,1.00005,1.00005
app_54,152.595,20671.7,7954,46,8.35453,3.96682e+10,1.00079,0.993812,931,4.95852,22,1.00005,1.00005
app_55,421.096,21197.6,7964.8,35.2,8.24979,3.0731e+10,1.00056,0.993812,955,3.84137,21,1.00005,1.00005
app_56,102,20204.7,7976.3,23.7,8.62642,1.85967e+10,1.00064,0.993812,910,2.0663,22,1.00006,1.00006
app_57,15.1968,20348.5,7927.4,72.6,8.02561,6.12197e+10,1.00142,0.993812,1012,7.65246,20,1.00006,1.00006
app_58,570.681,20835.6,7983.1,16.9,6.68226,1.39833e+10,1.00036,0.993812,1186,1.99761,17,1.00006,1.00006
app_59,111.957,20932.4,7965.2,34.8,8.67606,2.75691e+10,1.0009,0.993812,885,3.06323,23,1.00006,1.00006
app_6,3.18227,18436.7,7906.7,93.3,791.949,4.2631e+10,1.00637,0.993812,10,0.053827,1828,1.00001,1.00001
app_60,868.842,21518.7,7994.1,5.9,8.58139,4.8508e+09,1.00013,0.993812,937,0.538978,22,1.00006,1.00006
app_7,0.853111,18172,7907.2,92.8,879.561,3.78054e+10,1.00692,0.993812,9,0.0430095,1996,1.00001,1.00001
app_8,10.1414,18793.5,7920.6,79.4,794.08,5.216e+09,1.00936,0.993812,10,0.00656927,1861,1.00001,1.00001
app_9,6.70952,18532.7,7908.6,91.4,880.614,3.87641e+10,1.00662,0.993812,9,0.0440001,2038,1.00001,1.00001
