app_id,start_app,end_app,effective_cpu,effective_io,effective_iter,total_bytes,stretch,utilization,Tcomp,Tio,iterations,priority,group_id
app_1,4.76501,18054.1,7896.2,96.1109,986.978,3.21903e+10,1.00903,0.993512,8,0.0326143,2228,0.1,1
app_10,4.82971,19070,7907.9,84.6174,878.353,2.02433e+10,1.00906,0.993512,9,0.0230561,2093,0.1,1
app_11,4.48801,19265.1,7908.9,83.0975,877.86,1.11702e+10,1.01009,0.993512,9,0.0127224,2117,0.1,1
app_12,8.48675,19346.2,7912.1,80.5576,787.904,4.43445e+10,1.00547,0.993512,10,0.0562747,1907,0.1,1
app_13,10.3629,19358.6,7912.2,80.3972,792.764,4.33447e+10,1.00559,0.993512,10,0.0546591,1918,0.1,1
app_14,6.03285,18657.1,7908.8,84.3772,881.817,1.79991e+10,1.00923,0.993512,9,0.0204071,2053,0.1,1
app_15,2.97523,19039.4,7898.6,93.7312,987.803,1.45292e+10,1.01098,0.993512,8,0.0147206,2350,0.1,1
app_16,9.30834,19914.1,7933.1,65.8952,157.854,5.40848e+10,1.0016,0.993512,50,0.342309,394,0.02,1.69897
app_17,31.1145,19793.6,7957.1,41.2946,204.874,2.63206e+10,1.00208,0.993512,39,0.128393,504,0.02,1.69897
app_18,11.4819,20124.7,7959.1,37.3487,188.488,2.00421e+10,1.00261,0.993512,42,0.106043,475,0.02,1.69897
app_19,46.8894,19781.4,7948.2,49.9979,161.62,3.62907e+10,1.00194,0.993512,49,0.224017,400,0.02,1.69897
app_2,7.19272,19315.1,7899.6,91.1813,989.661,2.82466e+09,1.01235,0.993512,8,0.00285319,2386,0.1,1
app_20,13.079,19749.8,7963.3,35.3758,163.93,2.84435e+10,1.00103,0.993512,49,0.173436,401,0.02,1.69897
app_21,33.5135,19632.4,7942.8,55.1671,172.51,4.50273e+10,1.00152,0.993512,46,0.260273,424,0.02,1.69897
app_22,25.2033,19658,7979.2,18.8606,185.552,8.1177e+09,1.00159,0.993512,43,0.0438795,456,0.02,1.69897
app_23,22.54,19891.3,7980.1,18.2688,150.222,1.40045e+10,1.00074,0.993512,53,0.0933633,375,0.02,1.69897
app_24,46.7277,19964.5,7961.9,36.1704,146.22,2.84759e+10,1.0012,0.993512,55,0.195041,361,0.02,1.69897
app_25,25.2991,19835.2,7954.9,40.4307,195.355,2.66485e+10,1.00231,0.993512,41,0.135962,482,0.02,1.69897
app_26,12.1194,19665.1,7936.3,62.1889,202.757,4.22896e+10,1.00268,0.993512,39,0.208323,499,0.02,1.69897
app_27,32.8688,19961.3,7937.1,61.4746,150.278,4.67328e+10,1.00202,0.993512,52,0.311552,377,0.02,1.69897
app_28,34.3019,19891.2,7964.8,33.5959,169.078,1.93599e+10,1.00198,0.993512,47,0.114555,421,0.02,1.69897
app_29,2.16616,19719.8,7961.7,35.8331,177.007,2.34249e+10,1.00186,0.993512,45,0.132344,436,0.02,1.69897
app_3,6.70172,19854.1,7897.5,94.871,987.151,2.30797e+10,1.01003,0.993512,8,0.02336,2447,0.1,1
app_30,37.4057,19852.6,7982.7,15.5132,156.978,5.40411e+09,1.00149,0.993512,51,0.0344211,389,0.02,1.69897
app_31,14.5192,20084.2,7974.3,24.1664,75.4256,1.68564e+10,1.00111,0.993512,105,0.221794,190,0.01,2
app_32,14.4097,19902,7983.1,16.8156,80.2435,8.59279e+09,1.00104,0.993512,100,0.10741,200,0.01,2
app_33,25.8299,20077.1,7964.2,33.7647,73.2935,2.78233e+10,1.001,0.993512,107,0.381142,185,0.01,2
app_34,6.1015,20191.8,7961.4,38.6,80.2743,3.15832e+10,1.00088,0.993512,99,0.39479,202,0.01,2
app_35,81.334,20058.3,7958.2,39.9183,76.4623,3.27535e+10,1.00113,0.993512,104,0.430967,190,0.01,2
app_36,84.714,20088,7971.3,27.1441,86.1641,2.00926e+10,1.00108,0.993512,92,0.233635,216,0.01,2
app_37,19.9128,19934.2,7972,26.1936,76.5007,2.00067e+10,1.001,0.993512,105,0.263246,190,0.01,2
app_38,10.0585,19745.1,7968.7,30.0744,89.4811,2.19217e+10,1.00117,0.993512,90,0.246311,220,0.01,2
app_39,65.8332,19894.6,7932.2,66.3486,84.4561,5.69532e+10,1.00136,0.993512,94,0.670037,210,0.01,2
app_4,1.0972,18420.8,7908.6,84.4087,877.947,1.97812e+10,1.00903,0.993512,9,0.0225298,2021,0.1,1
app_40,72.3582,20007.8,7982.3,16.4261,80.6297,8.4956e+09,1.00115,0.993512,99,0.104884,201,0.01,2
app_41,58.0672,20050.7,7955.7,43.7904,81.0784,3.43845e+10,1.00124,0.993512,97,0.4245,204,0.01,2
app_42,69.0996,20115.4,7975.2,22.9549,72.8823,1.63514e+10,1.00106,0.993512,109,0.223992,182,0.01,2
app_43,60.4595,20049.8,7973.8,24.3904,79.6373,1.63714e+10,1.00123,0.993512,100,0.207232,199,0.01,2
app_44,31.4481,19860.2,7964.2,35.2591,78.1809,2.69189e+10,1.00111,0.993512,102,0.345115,194,0.01,2
app_45,53.5017,20018.3,7952,47.712,78.2056,3.8441e+10,1.0012,0.993512,102,0.492834,195,0.01,2
app_46,278.101,21167.1,7938.9,61.1,7.0048,5.3294e+10,1.00098,0.993512,1081,7.61343,19,0.001,3
app_47,994.18,21365.4,7965,35,7.78619,2.94582e+10,1.00069,0.993512,1004,4.20832,20,0.001,3
app_48,710.168,20696.2,7933.3,60.303,7.80987,5.01225e+10,1.00208,0.993512,994,6.26531,20,0.001,3
app_49,859.571,21062.1,7976.2,17.038,7.85727,1.4248e+10,1.0012,0.993512,1000,1.781,20,0.001,3
app_5,2.91463,19947.6,7916.1,75.9194,792.332,1.71756e+10,1.00841,0.993512,10,0.0216864,1973,0.1,1
app_50,99.5135,21217.9,7943.7,55.5307,9.09533,4.90416e+10,1.00091,0.993512,862,5.44907,24,0.001,3
app_51,797.725,20886.3,7963.9,36.1,7.76862,3.2946e+10,1.00039,0.993512,1002,4.70657,20,0.001,3
app_52,461.546,20748.6,7941.6,58.4,7.5017,5.13987e+10,1.00088,0.993512,1084,7.34267,19,0.001,3
app_53,819.073,21552.7,7996.6,3.25905,7.13071,2.10498e+09,1.00016,0.993512,1151,0.300711,18,0.001,3
app_54,421.189,20812.9,7945.9,54.1,8.06795,4.49446e+10,1.00115,0.993512,1008,5.61807,20,0.001,3
app_55,732.811,21829.6,7954.5,45.5,7.81604,3.90441e+10,1.00081,0.993512,976,4.88051,21,0.001,3
app_56,678.848,21614.5,7993.5,6.5,8.13384,5.0089e+09,1.00019,0.993512,989,0.626113,21,0.001,3
app_57,592.622,20988.4,7955,44.5316,6.71929,3.73118e+10,1.00096,0.993512,1118,5.33026,18,0.001,3
app_58,743.438,20818,7946.9,53.1,8.83465,4.49276e+10,1.00102,0.993512,924,4.99196,22,0.001,3
app_59,442.978,20847.3,7995.7,1.79704,8.20347,1.56414e+09,1.00034,0.993512,980,0.195517,21,0.001,3
app_6,3.99249,19980.4,7904,88.7984,877.489,5.18727e+10,1.00555,0.993512,9,0.0591479,2191,0.1,1
app_60,747.052,21659.8,7977.1,19.2031,10.1428,1.57556e+10,1.00089,0.993512,796,1.57556,26,0.001,3
app_7,0.910887,18386.7,7916.7,76.7708,791.98,1.98091e+10,1.008,0.993512,10,0.0250115,1821,0.1,1
app_8,9.02736,18995.6,7909.3,83.6462,877.986,1.2423e+10,1.00988,0.993512,9,0.0141492,2089,0.1,1
app_9,3.00479,18373,7910.8,81.0713,878.702,1.57698e+09,1.01107,0.993512,9,0.00179406,2018,0.1,1
