app_id,Tcomp,Tio,iter,witer,alpha_io,compute_size,io_size,mu,desyn_time
1,8.267112729217812,0.19032388578512324,2365,8.457436615002935,0.02250373185741661,8e9,190323885.78512323,10,3.756455171310371
2,9.563870523861878,0.1008158555394206,2070,9.6646863794013,0.010431363376083587,9e9,100815855.5394206,10,3.7630023405060617
3,9.765080274260615,0.24226843897345138,1999,10.007348713234066,0.02420905335826533,9e9,242268438.97345138,10,9.2052411965278
4,9.920933684565691,0.18494366353614433,1980,10.105877348101835,0.018300604407284034,9e9,184943663.53614435,10,8.933628667585706
5,10.311457371654845,0.05470400006775243,1930,10.366161371722598,0.005277170411120273,10e9,54704000.06775243,10,0.9690790365268483
6,11.278694133962722,0.27026930809145727,1732,11.548963442054179,0.023402040317081936,11e9,270269308.09145725,10,6.392882073046012
7,9.494984171530556,0.17236928565354434,2069,9.6673534571841,0.017830038636422418,9e9,172369285.65354434,10,4.9030925435290715
8,7.82456830380826,0.18853071526244844,2496,8.013099019070708,0.023527815494823707,7e9,188530715.26244843,10,0.20915334858896423
9,10.401096880708732,0.18240148469397263,1890,10.583498365402704,0.01723451720748976,10e9,182401484.69397262,10,3.7555716172835263
10,8.707337918950287,0.20088590742785414,2246,8.90822382637814,0.02255061293285098,8e9,200885907.42785415,10,7.998621415835688
11,9.363495261201226,0.11153235221875314,2111,9.475027613419979,0.011771190203264845,9e9,111532352.21875314,10,8.701165993964972
12,9.292319551732803,0.20471518445493925,2106,9.497034736187741,0.021555695029195517,9e9,204715184.45493925,10,4.153321169255847
13,9.087892910277777,0.2184306370032593,2150,9.306323547281036,0.023471205991658937,9e9,218430637.0032593,10,4.935289918161752
14,9.554778422862778,0.1781120081994478,2055,9.732890431062225,0.018300011642071786,9e9,178112008.1994478,10,8.87863147697491
15,9.45330476038731,0.12033284807054803,2090,9.573637608457858,0.01256918769979758,9e9,120332848.07054803,10,7.882391950369032
16,99.50137326740494,2.5143727118623893,197,102.01574597926734,0.024646908060383006,99e9,2514372711.862389,100,24.216575074236033
17,97.36444887030004,0.19661965977618195,205,97.56106853007621,0.002015349593219839,97e9,196619659.77618197,100,8.779381288634426
18,95.64262277908706,1.4699214401046397,206,97.1125442191917,0.015136267429951123,95e9,1469921440.1046398,100,36.87123944658717
19,101.08913662880721,0.5292776659541892,197,101.6184142947614,0.00520848184482519,101e9,529277665.95418924,100,18.788443258518345
20,113.04510955953137,2.1890212202870005,174,115.23413077981837,0.018996292205038064,113e9,2189021220.2870007,100,22.18345166335141
21,100.02625329979826,2.564032945229396,195,102.59028624502766,0.02499294074592437,100e9,2564032945.2293963,100,29.76601736648023
22,109.38335829689399,2.2522984873241674,180,111.63565678421816,0.02017543992845996,109e9,2252298487.3241673,100,54.036745090556835
23,82.62300463939891,0.19974636041070332,242,82.82275099980961,0.0024117329839860365,82e9,199746360.41070333,100,39.309733863716524
24,110.21749351091087,0.8241701508520114,181,111.04166366176288,0.0074221704149035886,110e9,824170150.8520114,100,78.3557659710795
25,108.72440183368273,1.8598233597691003,181,110.58422519345183,0.016818161510067067,108e9,1859823359.7691002,100,15.423757827222051
26,93.63891228794772,1.0671902246311051,212,94.70610251257882,0.011268442015015468,93e9,1067190224.6311052,100,39.46449331264967
27,107.07666741206684,1.4715594396429132,185,108.54822685170976,0.013556734018817688,107e9,1471559439.6429133,100,54.50281894479204
28,109.99744048461243,0.40861576672083927,182,110.40605625133327,0.0037010267425063,109e9,408615766.72083926,100,101.21670403156445
29,113.71631089754028,1.5105793908293739,174,115.22689028836966,0.01310960824377852,113e9,1510579390.8293738,100,115.04916561066545
30,99.29027558646693,0.9333993543307529,200,100.2236749407977,0.00931316233297286,99e9,933399354.330753,100,80.74750882748964
31,1096.3201140917458,9.57612153974521,19,1105.896235631491,0.008659150136519848,1096e9,9576121539.74521,1000,635.2095604167802
32,1001.9074420543008,25.937359789759853,20,1027.8448018440606,0.025234704444898226,1001e9,25937359789.759853,1000,491.760544123784
33,909.7727454893438,11.668144527901994,22,921.4408900172458,0.012662933297526671,909e9,11668144527.901995,1000,147.64872168098182
34,1191.3901274374596,12.393955406605944,17,1203.7840828440656,0.010295829279719275,1191e9,12393955406.605944,1000,122.68685475483572
35,832.0140445924527,6.498464653705749,24,838.5125092461584,0.0077499913025126065,832e9,6498464653.7057495,1000,418.6175442676536
36,1131.9620658172346,12.228217764016966,18,1144.1902835812516,0.010687223916762629,1131e9,12228217764.016966,1000,709.5457806767839
37,924.2620163189895,15.45793384191189,22,939.7199501609014,0.016449511196676352,924e9,15457933841.91189,1000,48.97059654870426
38,963.5196335625789,21.09542016131487,21,984.6150537238938,0.021425043301471255,963e9,21095420161.31487,1000,381.0403658016534
39,930.7712633697099,9.605378853137527,22,940.3766422228474,0.010214395404837455,930e9,9605378853.137527,1000,650.1760277230543
40,1014.2093109698428,8.49522090922502,20,1022.7045318790679,0.008306622924234345,1014e9,8495220909.22502,1000,784.5520240242602
41,1094.8862032074903,15.252147959859949,19,1110.1383511673503,0.013738961404064429,1094e9,15252147959.85995,1000,755.8953942081951
42,1025.524992285125,4.490601359348776,20,1030.015593644474,0.004359741140869347,1025e9,4490601359.348777,1000,923.1768495496561
43,1032.932653583089,11.592132896469701,20,1044.5247864795585,0.011097996951838308,1032e9,11592132896.469702,1000,225.5467646321711
44,1093.7807106876344,8.490083419562515,19,1102.270794107197,0.007702357229231682,1093e9,8490083419.562514,1000,115.26737908422002
45,1048.3445204465213,12.9940523178721,19,1061.3385727643933,0.012243079306942942,1048e9,12994052317.8721,1000,288.7152108569327
46,1649.8082275151964,26.87371568100923,12,1676.6819431962056,0.016027915008007255,1649e9,26873715681.00923,1500,1098.5332362909783
47,1431.6204336251785,29.354739530622503,14,1460.975173155801,0.02009256561643985,1431e9,29354739530.6225,1500,1046.9468305573002
48,1379.8386734065612,6.760412665032684,15,1386.5990860715938,0.004875535209089,1379e9,6760412665.032683,1500,503.240043158219
49,1683.6001987896823,0.6768498528709003,12,1684.2770486425532,0.00040186372747666953,1683e9,676849852.8709003,1500,39.152287898062454
50,1664.872502250512,20.741569556886887,12,1685.614071807399,0.012305052445751564,1664e9,20741569556.886887,1500,528.5863868429121
51,1207.534411077786,13.03392992779668,17,1220.5683410055826,0.010678574472166377,1207e9,13033929927.796679,1500,579.0888744236629
52,1448.5449525402412,18.37804328012964,14,1466.9229958203707,0.012528294486140899,1448e9,18378043280.12964,1500,904.8021681484535
53,1734.9293814415776,43.6483464396637,12,1778.5777278812413,0.02454115204268327,1734e9,43648346439.6637,1500,22.69632584204775
54,1426.172773394094,6.399386974798691,14,1432.5721603688928,0.004467060823763897,1426e9,6399386974.798692,1500,1026.0563853721517
55,1387.8394907227146,7.831849536137917,15,1395.6713402588525,0.00561152852410465,1387e9,7831849536.1379175,1500,666.0855768846858
56,1437.6185529795953,0.545364507556952,14,1438.1639174871523,0.00037920886550251245,1437e9,545364507.556952,1500,584.275001411367
57,1448.5531017521378,7.544173622193708,14,1456.0972753743315,0.005181091778538122,1448e9,7544173622.193707,1500,669.5173857872505
58,1676.4274096495571,8.186225416884854,12,1684.613635066442,0.004859408262216746,1676e9,8186225416.884854,1500,1652.1379416197155
59,1262.2675166657912,26.968439610400775,16,1289.235956276192,0.02091815658655377,1262e9,26968439610.400776,1500,382.36488614637955
60,1303.0850710626214,19.30436567070091,16,1322.3894367333223,0.014598094278783849,1303e9,19304365670.700912,1500,901.0171069671044
