app_id,Tcomp,Tio,iter,witer,alpha_io,compute_size,io_size,mu,desyn_time
1,11.476451855581821,0.07637603087384685,1732,11.552827886455669,0.006611024731303127,11e9,76376030.87384686,10,2.04905904935055
2,10.294669571111688,0.11237839912679501,1922,10.407047970238484,0.010798297408464793,10e9,112378399.12679501,10,0.7960924849488721
3,9.2965327927099,0.03564191018260903,2144,9.332174702892509,0.0038192502088030796,9e9,35641910.18260903,10,7.575571073569337
4,10.667443326404648,0.026500123404904458,1871,10.693943449809552,0.0024780497044218424,10e9,26500123.40490446,10,4.111448423086394
5,10.133151382285925,0.04992150437907052,1965,10.183072886664997,0.0049024007718185,10e9,49921504.37907052,10,3.6549827927289997
6,8.425438920411608,0.13074999798304726,2338,8.556188918394655,0.015281336028234763,8e9,130749997.98304726,10,3.4421674225823042
7,9.703143081445827,0.2519914370798138,2010,9.955134518525641,0.02531271040194179,9e9,251991437.0798138,10,6.636435853916868
8,9.86363881593724,0.07697086016992118,2012,9.94060967610716,0.007743072374617542,9e9,76970860.16992117,10,9.824271755745976
9,10.91828637416588,0.23531412601182694,1794,11.153600500177708,0.021097593194957784,10e9,235314126.01182693,10,8.135231208668356
10,10.047664710935226,0.2630764325493339,1940,10.31074114348456,0.0255147936397932,10e9,263076432.54933387,10,0.5494995554674564
11,9.567542722656768,0.1359674035792255,2062,9.703510126235994,0.014012187529088244,9e9,135967403.57922548,10,9.104376424011956
12,9.513823306664936,0.07525923628174383,2086,9.589082542946679,0.007848429288691578,9e9,75259236.28174382,10,8.875141095756153
13,8.724254087797691,0.09257837491887819,2269,8.816832462716569,0.010500185334173143,8e9,92578374.91887818,10,7.70604123922141
14,10.338354733643197,0.028000160872802486,1930,10.366354894515998,0.002701061381529115,10e9,28000160.872802485,10,3.0464198395477484
15,10.190547397234775,0.1795432392547874,1929,10.370090636489563,0.01731356509296293,10e9,179543239.25478742,10,0.6585776586016724
16,93.02299374871718,2.2971219138286716,210,95.32011566254586,0.024099025665904432,93e9,2297121913.8286715,100,78.1511237579975
17,98.65577319854137,1.0274139824328057,201,99.68318718097417,0.010306793065991584,98e9,1027413982.4328057,100,45.899702499803524
18,113.44793622074135,2.4198918178159197,173,115.86782803855728,0.020884932934193377,113e9,2419891817.81592,100,7.065646939603643
19,102.84408275680485,0.7630753457284934,194,103.60715810253335,0.0073650832597234915,102e9,763075345.7284935,100,48.78855108572989
20,89.93571559769973,1.2984488622708439,220,91.23416445997057,0.014232046404508309,89e9,1298448862.270844,100,33.10889540129795
21,96.67509657199334,0.08631054958891761,207,96.76140712158225,0.0008919935349892858,96e9,86310549.58891761,100,19.08971922760466
22,94.74072820992426,2.240705831502806,207,96.98143404142706,0.02310448235427881,94e9,2240705831.5028057,100,94.51188990865539
23,91.31588026386011,0.25896028574788266,219,91.574840549608,0.002827854072075599,91e9,258960285.74788266,100,28.379525015640233
24,94.34447993613045,1.4003535629934056,209,95.74483349912386,0.014625891672851674,94e9,1400353562.9934056,100,59.968199420176326
25,103.91926685375563,0.4581952393007437,192,104.37746209305638,0.0043897909578625854,103e9,458195239.3007437,100,91.52738136421615
26,101.42004796357055,0.14577225623913212,197,101.56582021980968,0.0014352491411347879,101e9,145772256.2391321,100,58.672285455224255
27,102.26416080059825,2.0440132483446343,192,104.30817404894289,0.019595906715666925,102e9,2044013248.3446343,100,33.84816982950123
28,109.77830652505338,1.2055545980580937,181,110.98386112311148,0.01086243158111794,109e9,1205554598.0580938,100,82.70220545140425
29,96.25492693207929,1.4688961018476983,205,97.72382303392699,0.015031095348549128,96e9,1468896101.8476982,100,30.407775286459167
30,114.1033565900259,0.9203774502049813,174,115.02373404023088,0.00800163077546299,114e9,920377450.2049813,100,59.023345551899
31,1050.4087664231117,20.08579049027974,19,1070.4945569133915,0.018763094459998065,1050e9,20085790490.279743,1000,986.1092518929996
32,929.3489860716601,11.993716851849102,22,941.3427029235091,0.012741073802984244,929e9,11993716851.849102,1000,400.4820883112402
33,1036.816797465396,6.4922325873095685,20,1043.3090300527056,0.0062227320959558794,1036e9,6492232587.309568,1000,261.88610954186487
34,871.3335721716286,20.290842845570396,23,891.624415017199,0.022757163783114882,871e9,20290842845.570396,1000,185.9780227785601
35,906.307942398759,19.66984863964226,22,925.9777910384013,0.021242246660780367,906e9,19669848639.64226,1000,495.26751492185014
36,1060.5821945005146,7.967570101694891,19,1068.5497646022095,0.007456433350730267,1060e9,7967570101.694891,1000,84.75224349347373
37,923.2073105006311,25.014742880794312,22,948.2220533814254,0.026380680339156855,923e9,25014742880.79431,1000,78.81305992500235
38,967.9236744331484,17.511566293985418,21,985.4352407271339,0.017770387713213875,967e9,17511566293.985416,1000,521.7977862418403
39,1017.517689034657,12.356185475407113,20,1029.873874510064,0.011997765727657914,1017e9,12356185475.407112,1000,555.8825373532121
40,876.3319668666012,1.8829379271349325,23,878.2149047937361,0.0021440514353114662,876e9,1882937927.1349325,1000,288.6303238519061
41,845.9681391702178,22.197336634870712,24,868.1654758050885,0.025568094163484368,845e9,22197336634.870712,1000,845.9513490978587
42,1014.7269016408844,12.475930214526782,20,1027.2028318554112,0.012145537208062225,1014e9,12475930214.526783,1000,321.2886328342896
43,1013.4382613581122,11.035297398107103,20,1024.4735587562193,0.010771676148972264,1013e9,11035297398.107103,1000,1023.4641850373688
44,1179.4316999634293,1.9356103250621228,17,1181.3673102884914,0.001638449200519561,1179e9,1935610325.0621228,1000,367.31483146617586
45,1084.0732251288864,28.740678512752197,18,1112.8139036416387,0.02582703039447969,1084e9,28740678512.752197,1000,284.66991436478503
46,1468.224431358379,13.362940122564957,14,1481.5873714809438,0.009019339918649429,1468e9,13362940122.564957,1500,207.2398893479272
47,1507.6432775554192,32.98853452047304,13,1540.6318120758922,0.02141234152241951,1507e9,32988534520.473038,1500,1496.346084042156
48,1551.6610645138503,29.551628226105713,13,1581.212692739956,0.018689217688290925,1551e9,29551628226.105713,1500,719.6012092157093
49,1449.7288520604943,16.32211320076526,14,1466.0509652612595,0.011133387302027767,1449e9,16322113200.765259,1500,615.8247791294941
50,1765.5429501796666,20.36407183270143,12,1785.907022012368,0.011402649511817868,1765e9,20364071832.70143,1500,310.0730573852208
51,1623.7025173925617,39.140351012275005,13,1662.8428684048367,0.02353821383605674,1623e9,39140351012.275,1500,1413.4622053390415
52,1532.2691743059106,23.575506002050712,13,1555.8446803079614,0.015152866028621967,1532e9,23575506002.050713,1500,26.77050917240964
53,1644.1915610391088,20.802328738716398,13,1664.9938897778252,0.01249393698465298,1644e9,20802328738.716396,1500,1373.2018014961764
54,1427.8834975362195,15.82985085992714,14,1443.7133483961466,0.010964677217615862,1427e9,15829850859.92714,1500,1288.2410516385125
55,1532.9982300037957,29.639494263469068,13,1562.6377242672647,0.018967604456987815,1532e9,29639494263.469067,1500,104.03613467606507
56,1524.1026126271297,32.372647145449356,13,1556.475259772579,0.02079869046564827,1524e9,32372647145.449356,1500,1456.4093651532032
57,1382.6451049644743,16.511443699098912,15,1399.1565486635732,0.011800998047623822,1382e9,16511443699.098911,1500,76.35369430245522
58,1515.59102023729,19.638414551753993,14,1535.229434789044,0.012791843425313499,1515e9,19638414551.753994,1500,1362.228917063852
59,1496.6139036242585,24.84873221543044,14,1521.4626358396888,0.016332134375233297,1496e9,24848732215.430443,1500,502.7876738257757
60,1547.0663834712645,13.24315554686696,13,1560.3095390181315,0.008487518159506085,1547e9,13243155546.86696,1500,541.003684505662
