app_id,start_app,end_app,effective_cpu,effective_io,effective_iter,total_bytes,stretch,utilization,Tcomp,Tio,iterations,priority,group_id
app_1,1.48065,28045.8,4634.5,54.8839,515.239,2.99987e+10,1.71508,0.849236,9,0.0582498,2122,1,1
app_10,3.36301,27899.6,4677.2,128.197,467.507,9.71563e+10,1.67562,0.849236,10,0.207599,1895,1,1
app_11,3.08287,28570.2,4701.2,101.875,468.049,8.15092e+10,1.67269,0.849236,10,0.174165,1963,1,1
app_12,7.52559,28143.1,4569.3,41.865,570.558,4.18513e+09,1.74921,0.849236,8,0.00732947,2372,1,1
app_13,8.0025,27369.3,4655.4,40.5271,517.901,7.65463e+09,1.71561,0.849236,9,0.0147773,2061,1,1
app_14,1.15652,28299.6,4709.4,101.197,470.384,8.26467e+10,1.66943,0.849236,10,0.175471,1940,1,1
app_15,10.3589,26872.6,4699.8,83.0121,469.308,5.33823e+10,1.68308,0.849236,10,0.113822,1802,1,1
app_16,37.69,22712.3,6944.5,6.98644,76.6894,3.19024e+09,1.15146,0.849236,90,0.0419768,222,1,1
app_17,58.4654,22378.3,7019.2,61.6894,71.0426,5.74065e+10,1.13049,0.849236,99,0.808543,201,1,1
app_18,13.8801,22031.1,7028.5,164.29,68.913,1.60358e+11,1.11283,0.849236,101,2.32404,194,1,1
app_19,70.4548,22442.1,6944.5,110.896,79.6024,1.07741e+11,1.13439,0.849236,87,1.36381,225,1,1
app_2,6.45673,26989.7,4524.8,152.758,564.297,1.151e+11,1.72417,0.849236,8,0.204079,2195,1,1
app_20,76.1685,22346.5,6941.8,95.641,74.09,9.20981e+10,1.13735,0.849236,94,1.24457,209,1,1
app_21,6.43867,22375.2,7013.8,16.2839,69.8047,1.27724e+10,1.13854,0.849236,100,0.182462,199,1,1
app_22,89.5546,22444.6,6930.5,186.522,78.0447,1.82357e+11,1.12472,0.849236,89,2.33791,219,1,1
app_23,56.8308,22269.7,6891.4,132.793,70.9442,1.28534e+11,1.13961,0.849236,98,1.81034,200,1,1
app_24,79.4167,22037.3,6933.9,69.6005,68.1657,6.64135e+10,1.14281,0.849236,103,0.97667,191,1,1
app_25,39.1859,22328,6900.6,118.915,77.4672,1.14997e+11,1.14032,0.849236,89,1.47432,220,1,1
app_26,1.46892,22322.7,6934.4,163.952,78.0827,1.60406e+11,1.12759,0.849236,89,2.05649,218,1,1
app_27,19.6801,22804.8,6778.3,124.34,82.5857,1.21235e+11,1.1595,0.849236,81,1.47847,242,1,1
app_28,75.3557,22169.1,7102.9,36.1616,61.3597,3.2862e+10,1.12111,0.849236,116,0.538721,171,1,1
app_29,5.14256,22447,6889.4,178.406,73.8548,1.74063e+11,1.13259,0.849236,92,2.3522,211,1,1
app_3,4.57274,28092.3,4750.4,61.6853,474.788,4.57706e+10,1.668,0.849236,10,0.0963592,1935,1,1
app_30,4.08454,22281.8,6951.1,164.289,64.7761,1.60656e+11,1.1249,0.849236,107,2.51025,182,1,1
app_31,34.1831,20940.9,7681.3,137.075,8.08427,1.36763e+11,1.02327,0.849236,973,17.0953,21,1,1
app_32,228.556,20737.8,7846.3,100.889,7.14589,1.00533e+11,1.00669,0.849236,1063,14.3619,19,1,1
app_33,424.22,21180.3,7807.8,11.904,10.7215,1.15347e+10,1.0231,0.849236,727,1.04861,28,1,1
app_34,129.907,20522.8,7795.3,58.2864,9.03493,5.77426e+10,1.01871,0.849236,865,6.41584,23,1,1
app_35,225.622,21501.2,7745,178.47,8.47405,1.78184e+11,1.0097,0.849236,921,19.7983,22,1,1
app_36,440,21178.2,7715.8,167.25,8.0488,1.66852e+11,1.01489,0.849236,932,20.8565,21,1,1
app_37,702.416,21418.5,7851,106.994,9.10466,1.0642e+11,1.00535,0.849236,888,11.8244,23,1,1
app_38,31.4677,20129.1,7675.7,115.418,8.5998,1.14986e+11,1.02687,0.849236,910,12.7762,22,1,1
app_39,55.7766,21028,7725.5,195.215,7.16695,1.94665e+11,1.01008,0.849236,1061,27.8093,19,1,1
app_4,6.82686,27353.4,4807.9,52.5339,436.307,3.6536e+10,1.65138,0.849236,11,0.0836063,1710,1,1
app_40,578.805,21572.8,7756.6,5.57089,7.22651,4.97538e+09,1.03072,0.849236,1066,0.710769,19,1,1
app_41,507.727,21679.7,7707.8,163.782,9.80473,1.63246e+11,1.01638,0.849236,772,16.3246,26,1,1
app_42,313.564,20641.9,7666.9,144.167,8.34886,1.43721e+11,1.02425,0.849236,939,15.969,21,1,1
app_43,627.701,21270,7854.5,34.0951,7.18689,3.37785e+10,1.01416,0.849236,1069,4.8255,19,1,1
app_44,892.021,20990.7,7740.7,161.407,8.04312,1.60822e+11,1.01246,0.849236,983,20.1027,20,1,1
app_45,801.776,22235.3,7672.8,125.251,8.58319,1.24844e+11,1.02595,0.849236,895,13.8716,23,1,1
app_46,943.39,21905.8,7866.4,108.547,6.63863,1.08039e+11,1.00321,0.849236,1214,18.0065,17,1,1
app_47,1526.37,22542.3,7903.8,65.6357,4.96646,6.53739e+10,1.00387,0.849236,1605,13.0748,13,1,1
app_48,1028.02,22145.6,7765.2,113.707,4.84795,1.13528e+11,1.01539,0.849236,1557,28.3819,13,1,1
app_49,1188.28,22098.5,7702.1,97.412,4.88428,9.7175e+10,1.02574,0.849236,1574,19.435,13,1,1
app_5,7.02938,27663.3,4669.5,54.2737,519.877,2.92931e+10,1.70256,0.849236,9,0.0563329,2084,1,1
app_50,113.275,20507.3,7785.7,162.491,5.4972,1.62183e+11,1.00656,0.849236,1412,27.0305,14,1,1
app_51,192.11,21781.5,7719.9,186.107,5.28998,1.85904e+11,1.01191,0.849236,1497,30.9841,14,1,1
app_52,543.793,22803.3,7772,118.762,4.56569,1.18611e+11,1.01386,0.849236,1620,29.6527,13,1,1
app_53,102.209,20226.6,7973,9.14232,4.99277,8.99465e+09,1.00226,0.849236,1675,1.79893,12,1,1
app_54,1353.65,21406.3,7724.2,99.9972,5.07318,9.97968e+10,1.0225,0.849236,1544,19.9594,13,1,1
app_55,45.9193,20625.8,7908.6,88.3025,5.35565,8.80053e+10,1.00042,0.849236,1448,17.6011,14,1,1
app_56,436.524,22019.4,7777.3,126.767,5.72331,1.26536e+11,1.01217,0.849236,1384,21.0894,15,1,1
app_57,1025.92,21189.4,7853.4,44.2073,5.47621,4.39402e+10,1.013,0.849236,1423,8.78805,14,1,1
app_58,1347.56,22117.1,7803.2,80.1818,5.11359,8.00299e+10,1.01481,0.849236,1589,16.006,13,1,1
app_59,561.942,22437,7777.69,154.241,4.6971,1.53998e+11,1.00861,0.849236,1617,37.8707,13,1,1
app_6,11.4174,26893.7,4809.3,52.2275,437.31,3.53997e+10,1.65129,0.849236,11,0.0808213,1670,1,1
app_60,308.231,20861.5,7797.2,93.9342,6.71829,9.36258e+10,1.01384,0.849236,1189,13.3751,17,1,1
app_7,2.41147,27900.2,4636.4,101.159,513.865,7.52424e+10,1.69792,0.849236,9,0.146386,2096,1,1
app_8,6.07185,27130.4,4657,43.5528,518.858,1.31072e+10,1.71302,0.849236,9,0.0252546,2026,1,1
app_9,6.88033,28713.6,4553.9,124.612,568.604,1.03964e+11,1.71753,0.849236,8,0.182714,2416,1,1
