app_id,start_app,end_app,effective_cpu,effective_io,effective_iter,total_bytes,stretch,utilization,Tcomp,Tio,iterations,priority,group_id
app_1,9.54504,20470.2,7662.3,337.7,768.534,6.88961e+10,1.03477,0.937495,10,0.0895918,1973,1,1
app_10,7.92406,19091.8,7846,154,872.328,2.25546e+10,1.01671,0.937495,9,0.0258654,2085,1.00001,1.00001
app_11,3.72344,20560.8,7447.6,552.4,826.652,1.15762e+11,1.05773,0.937495,9,0.139979,2147,1.00001,1.00001
app_12,7.7188,18804.2,7920.8,79.2,791.974,9.01949e+08,1.00988,0.937495,10,0.00113882,1861,1.00001,1.00001
app_13,9.79377,20208.3,7531.6,468.4,686.214,9.83945e+10,1.04849,0.937495,11,0.143432,1747,1.00001,1.00001
app_14,1.11038,19112.9,7717.51,282.488,699.758,5.55114e+10,1.0292,0.937495,11,0.0793085,1686,1.00001,1.00001
app_15,7.07946,20413.5,7520.2,479.8,750.919,9.95055e+10,1.04991,0.937495,10,0.132497,1932,1.00002,1.00002
app_16,57.646,21217,7221.5,778.5,88.9368,1.79855e+11,1.08088,0.937495,81,2.02085,239,1.00002,1.00002
app_17,18.5265,20614.9,7440.4,559.6,72.9187,1.22928e+11,1.05774,0.937495,104,1.68394,188,1.00002,1.00002
app_18,75.6229,21113.3,7265.4,734.6,84.5781,1.77421e+11,1.07486,0.937495,86,2.11215,225,1.00002,1.00002
app_19,73.1865,20621.6,7543.4,456.6,82.1956,9.52849e+10,1.0473,0.937495,92,1.16201,213,1.00002,1.00002
app_2,5.79877,19961.6,7928,72,720.233,1.97137e+09,1.00883,0.937495,11,0.00273801,1792,1,1
app_20,55.893,20919,7474.2,525.8,79.8128,1.13969e+11,1.05427,0.937495,93,1.42461,211,1.00002,1.00002
app_21,7.17753,21320.5,7254,746,78.6983,1.63018e+11,1.0786,0.937495,91,2.06351,214,1.00002,1.00002
app_22,12.7662,20860.9,7356.6,643.4,82.2736,1.46412e+11,1.06624,0.937495,89,1.78551,219,1.00002,1.00002
app_23,94.4444,21152.6,7342.9,657.1,65.3412,1.55673e+11,1.06687,0.937495,113,2.35868,173,1.00002,1.00002
app_24,32.6452,20265.1,7604.6,395.4,83.6674,8.69027e+10,1.04011,0.937495,92,1.03456,213,1.00002,1.00002
app_25,61.413,20574.8,7669.4,330.6,74.1489,6.80784e+10,1.03393,0.937495,104,0.919978,190,1.00003,1.00003
app_26,78.1327,20900.9,7499.4,500.6,81.8158,1.07867e+11,1.05163,0.937495,91,1.31545,216,1.00003,1.00003
app_27,88.1442,20186.7,7879.8,120.2,72.8537,2.57443e+10,1.01195,0.937495,109,0.352662,183,1.00003,1.00003
app_28,85.0228,20869.2,7391.9,608.1,74.2378,1.30374e+11,1.06351,0.937495,100,1.76182,196,1.00003,1.00003
app_29,12.1118,21183.8,7351,649,68.4805,1.48993e+11,1.06667,0.937495,107,2.19107,183,1.00003,1.00003
app_3,0.0451968,20111,7859.6,140.4,786.485,2.11815e+10,1.01513,0.937495,10,0.0269142,1981,1,1
app_30,7.68143,20662.5,7497.5,502.5,87.0338,1.13688e+11,1.05108,0.937495,87,1.30676,225,1.00003,1.00003
app_31,274.4,22045.5,7408.8,591.2,8.01304,1.78339e+11,1.05442,0.937495,916,22.2924,22,1.00003,1.00003
app_32,823.225,21936.5,7847.4,152.6,8.01414,2.36941e+10,1.01638,0.937495,977,2.96176,21,1.00003,1.00003
app_33,33.6421,21323.6,7426.4,573.6,8.99132,1.39747e+11,1.05734,0.937495,825,15.5275,24,1.00003,1.00003
app_34,381.94,21042.5,7961.5,38.5,9.40251,1.47864e+10,1.00297,0.937495,863,1.64293,24,1.00003,1.00003
app_35,229.496,21111,7500.7,499.3,8.17071,8.93806e+10,1.05401,0.937495,927,11.1726,22,1.00004,1.00004
app_36,247.745,22196.9,7587,413,8.27809,7.47927e+10,1.04414,0.937495,897,9.34909,23,1.00004,1.00004
app_37,5.72804,21485.9,7348.9,651.1,7.90811,1.0795e+11,1.07284,0.937495,921,13.4938,22,1.00004,1.00004
app_38,26.2047,21479.6,7231.8,768.2,7.47162,1.57631e+11,1.08263,0.937495,998,19.7039,20,1.00004,1.00004
app_39,433.782,21845.6,7325.58,674.415,7.18092,1.77484e+11,1.06623,0.937495,1045,22.5888,19,1.00004,1.00004
app_4,1.8814,20670.7,7280.7,719.3,809.945,1.61353e+11,1.07497,0.937495,9,0.199202,2123,1,1
app_40,274.654,22456.1,6967.4,1032.6,7.62257,1.6961e+11,1.12092,0.937495,916,21.2013,22,1.00004,1.00004
app_41,300.197,20385.5,7909.5,90.5,7.77486,1.72031e+10,1.00925,0.937495,1011,2.15039,20,1.00004,1.00004
app_42,653.175,22940,7174.8,825.2,7.08922,1.61517e+11,1.09047,0.937495,1026,23.0739,20,1.00004,1.00004
app_43,821.781,22296.6,7510.4,489.6,7.06575,1.68961e+11,1.04175,0.937495,1056,24.1373,19,1.00004,1.00004
app_44,387.056,20994.6,7775,225,8.77386,9.22867e+10,1.01687,0.937495,906,10.2541,22,1.00004,1.00004
app_45,494.125,21804.2,7577.6,422.4,8.16091,1.07179e+11,1.04102,0.937495,924,13.3973,22,1.00004,1.00004
app_46,266.745,21459.7,7509.4,490.6,5.22451,1.1091e+11,1.04983,0.937495,1446,18.4849,14,1.00005,1.00005
app_47,485.184,21863.6,7957.5,42.5,5.74648,8.50496e+09,1.00427,0.937495,1417,1.41749,15,1.00005,1.00005
app_48,67.017,21243.8,7285.4,714.6,5.17749,1.16866e+11,1.08075,0.937495,1417,19.4776,14,1.00005,1.00005
app_49,226.517,22232.7,7744.8,255.2,5.12903,6.52417e+10,1.02432,0.937495,1489,13.0483,14,1.00005,1.00005
app_5,3.6207,19849.9,7629.5,370.5,847.861,7.75323e+10,1.03801,0.937495,9,0.0914296,2114,1.00001,1.00001
app_50,884.931,21776.1,7250.5,749.5,4.89874,1.08342e+11,1.08713,0.937495,1534,21.6684,13,1.00005,1.00005
app_51,1597.29,22446.1,7627.9,372.1,4.69422,6.12478e+10,1.04043,0.937495,1668,12.2496,12,1.00005,1.00005
app_52,493.95,23362.3,7011.3,988.7,4.69471,1.43727e+11,1.11809,0.937495,1471,28.7455,14,1.00005,1.00005
app_53,421.964,21609.6,7697.7,302.3,4.75819,5.66132e+10,1.03168,0.937495,1596,11.3226,13,1.00005,1.00005
app_54,189.436,21105.2,7843.6,156.4,4.96506,6.26823e+10,1.01185,0.937495,1570,12.5365,13,1.00005,1.00005
app_55,935.733,22213.3,7748.8,251.2,4.81672,5.00149e+10,1.0258,0.937495,1579,10.003,13,1.00005,1.00005
app_56,181.289,22448.8,7251.5,748.5,5.17621,1.18715e+11,1.08545,0.937495,1387,19.7858,15,1.00006,1.00006
app_57,1474.31,22564.2,7081.7,918.3,4.43128,1.91139e+11,1.09998,0.937495,1636,38.2279,12,1.00006,1.00006
app_58,816.484,22639.9,6982.3,1017.7,4.2213,1.71118e+11,1.11835,0.937495,1680,34.2236,12,1.00006,1.00006
app_59,157.212,21945.5,7175,825,5.52768,1.56929e+11,1.09112,0.937495,1357,26.1548,15,1.00006,1.00006
app_6,11.1732,20026,7408.3,591.7,671.146,1.30125e+11,1.06123,0.937495,11,0.193926,1700,1.00001,1.00001
app_60,945.334,22513.5,7670.8,329.2,4.99756,4.62616e+10,1.03666,0.937495,1455,9.25232,14,1.00006,1.00006
app_7,8.63974,19248.2,7139.1,860.9,892.021,1.89725e+11,1.09158,0.937495,8,0.212696,2181,1.00001,1.00001
app_8,3.90973,20104.4,7589.2,410.8,688.598,8.44479e+10,1.04253,0.937495,11,0.122744,1744,1.00001,1.00001
app_9,4.1512,19180.1,7334.1,665.9,916.93,1.42048e+11,1.07007,0.937495,8,0.154905,2224,1.00001,1.00001
