app_id,start_app,end_app,effective_cpu,effective_io,effective_iter,total_bytes,stretch,utilization,Tcomp,Tio,iterations,priority,group_id
app_1,7.66697,18862.7,7673.2,282.693,958.499,2.14299e+11,1.01426,0.962308,8,0.223461,2262,0.1,1
app_10,9.45355,18449,7878.6,72.0982,785.892,1.96178e+10,1.01289,0.962308,10,0.024959,1815,0.1,1
app_11,6.50748,19676,7727.3,231.945,771.551,1.87184e+11,1.01081,0.962308,10,0.24278,1904,0.1,1
app_12,0.917148,18899.3,7785.8,164.664,778.411,1.37156e+11,1.00972,0.962308,10,0.176067,1838,0.1,1
app_13,7.26084,19344.4,7739.2,222.116,774.093,1.55074e+11,1.01339,0.962308,10,0.200353,1871,0.1,1
app_14,5.38533,19475.3,7868.9,80.8572,870.696,2.42109e+10,1.01354,0.962308,9,0.0277966,2124,0.1,1
app_15,0.889303,19492.1,7701.4,259.003,700.813,2.09277e+11,1.01129,0.962308,11,0.298541,1707,0.1,1
app_16,70.693,20111.1,7962.1,8.14707,70.6836,3.4238e+09,1.00433,0.962308,113,0.0489115,177,0.01,2
app_17,34.1096,20055.2,7772.4,182.609,96.6864,1.31262e+11,1.01219,0.962308,81,1.35321,241,0.01,2
app_18,83.6874,20309.6,7693,273.442,76.9199,1.90532e+11,1.01477,0.962308,101,2.47444,194,0.01,2
app_19,66.5809,20267.7,7725.2,257.756,78.3955,1.77448e+11,1.01232,0.962308,99,2.27497,197,0.01,2
app_2,7.53185,19531.3,7773.1,172.794,863.5,1.23761e+11,1.01306,0.962308,9,0.143407,2113,0.1,1
app_20,74.9327,20201,7819.1,143.009,91.4001,1.01173e+11,1.01007,0.962308,85,1.11179,230,0.01,2
app_21,7.74583,20191.9,7729.1,228.122,91.3741,1.58695e+11,1.01423,0.962308,85,1.74391,230,0.01,2
app_22,37.4798,20181.3,7961,10.645,76.3336,5.13286e+09,1.00425,0.962308,103,0.0666605,194,0.01,2
app_23,45.2186,20087.3,7912,50.6805,85.5859,3.00135e+10,1.0073,0.962308,92,0.3531,216,0.01,2
app_24,61.6197,20319.3,7730.7,208.272,86.0893,1.45974e+11,1.01566,0.962308,89,1.69737,220,0.01,2
app_25,18.6843,20208.4,7870.3,82.539,110.277,5.35631e+10,1.00961,0.962308,71,0.486937,278,0.01,2
app_26,91.8777,19977.1,7954,23.4878,74.6281,1.31284e+10,1.00413,0.962308,107,0.175045,185,0.01,2
app_27,47.5061,20099.8,7696.4,279.455,80.8694,1.94888e+11,1.01378,0.962308,97,2.40603,200,0.01,2
app_28,72.8472,20086.7,7837.3,105.006,105.584,7.07809e+10,1.01162,0.962308,75,0.667744,263,0.01,2
app_29,84.9899,20272,7750.1,166.467,87.6752,1.15016e+11,1.01715,0.962308,88,1.32202,222,0.01,2
app_3,6.72744,19904.9,7819,138.989,712.807,9.20491e+10,1.01124,0.962308,11,0.129101,1770,0.1,1
app_30,28.14,20053.2,7798.4,156.931,67.8026,1.09832e+11,1.0116,0.962308,116,1.63929,169,0.01,2
app_31,337.897,21160,7600.2,347.243,6.66443,1.55482e+11,1.0315,0.962308,1191,22.2117,17,0.001,3
app_32,357.638,21188.7,7555.2,306.93,7.39877,1.42061e+11,1.03933,0.962308,1034,20.2944,19,0.001,3
app_33,894.886,22115.6,7306.46,424.93,7.77585,1.94685e+11,1.0665,0.962308,942,26.4209,21,0.001,3
app_34,139.843,20667.9,7640.9,82.0566,8.14932,3.54322e+10,1.04216,0.962308,954,4.42902,21,0.001,3
app_35,775.904,21813.4,7585.7,323.108,8.74865,1.63909e+11,1.03231,0.962308,886,18.2122,23,0.001,3
app_36,388.169,22064.9,7451.45,459.297,6.86294,1.89691e+11,1.04696,0.962308,1060,28.6902,19,0.001,3
app_37,883.488,22292.5,7743.6,8.09626,7.83758,4.97885e+09,1.03245,0.962308,986,0.622357,21,0.001,3
app_38,670.09,21726.5,7788.9,54.3959,7.14484,2.16232e+10,1.02426,0.962308,1058,3.08902,19,0.001,3
app_39,787.385,21795.1,7448,233.85,7.88138,1.03954e+11,1.05933,0.962308,962,12.9943,21,0.001,3
app_4,4.65507,18767,7869.7,78.4046,874.752,1.40764e+10,1.01474,0.962308,9,0.0160873,2050,0.1,1
app_40,101.844,21339.1,7633,236.969,7.78984,9.77877e+10,1.03482,0.962308,955,12.2235,21,0.001,3
app_41,226.331,21207.5,7557,356.685,8.00946,1.50782e+11,1.03791,0.962308,953,18.8478,21,0.001,3
app_42,53.5838,21234.8,7557.8,270.576,8.37413,1.10827e+11,1.04321,0.962308,907,13.8534,22,0.001,3
app_43,628.761,21828.4,7698,262.393,6.72227,1.04734e+11,1.02528,0.962308,1160,14.962,18,0.001,3
app_44,1078.19,21899.7,7703.1,216.513,6.45409,9.40384e+10,1.02602,0.962308,1178,15.6731,17,0.001,3
app_45,779.183,21277.4,7929.4,13.962,7.01467,6.81745e+09,1.00804,0.962308,1119,0.973921,18,0.001,3
app_46,725.151,21555.2,7626.1,223.33,6.07415,8.97318e+10,1.03683,0.962308,1279,14.9553,16,0.000666667,3.17609
app_47,775.619,22874.1,7232,598.419,4.37531,2.30335e+11,1.07205,0.962308,1715,46.0669,12,0.000666667,3.17609
app_48,645.649,20778,7746.4,122.502,5.26626,3.99286e+10,1.02744,0.962308,1543,7.98572,13,0.000666667,3.17609
app_49,612.994,21759.1,7734,266,4.65242,1.38354e+11,1.01621,0.962308,1687,34.5885,12,0.000666667,3.17609
app_5,0.491793,20050.7,7730.6,229.755,773.771,1.7666e+11,1.01173,0.962308,10,0.228242,1938,0.1,1
app_50,929.933,21180.7,7517.3,297.353,5.04417,1.15015e+11,1.04817,0.962308,1518,23.003,13,0.000666667,3.17609
app_51,787.863,22893.1,7609,226.576,5.33395,1.13306e+11,1.03596,0.962308,1368,18.8843,15,0.000666667,3.17609
app_52,717.565,21459.3,7468.4,531.6,5.64103,1.66153e+11,1.04787,0.962308,1326,27.6921,15,0.000666667,3.17609
app_53,937.575,21643.1,7485.7,165.577,4.78748,6.93923e+10,1.05889,0.962308,1530,13.8785,13,0.000666667,3.17609
app_54,1425.13,22385.4,7443.7,229.637,5.3129,8.13619e+10,1.06311,0.962308,1413,15.8533,14,0.000666667,3.17609
app_55,115.605,21946.8,7569.8,230.382,5.03249,9.42203e+10,1.04384,0.962308,1495,18.8441,14,0.000666667,3.17609
app_56,1092.42,22344.1,7576.6,287.303,5.18733,1.14326e+11,1.04019,0.962308,1422,22.8652,14,0.000666667,3.17609
app_57,716.261,21629.2,7587.4,286.457,6.03067,9.24221e+10,1.04169,0.962308,1262,15.4037,16,0.000666667,3.17609
app_58,112.886,21465.6,7631,147.819,5.10971,3.74748e+10,1.04323,0.962308,1483,6.24581,14,0.000666667,3.17609
app_59,604.896,20381,7872.91,47.0459,4.71758,1.98039e+10,1.01359,0.962308,1667,4.43178,12,0.000666667,3.17609
app_6,4.72136,19388.1,7729.2,236.599,771.442,2.01048e+11,1.0088,0.962308,10,0.260763,1874,0.1,1
app_60,1460.2,22112.9,7706.8,47.9693,5.03593,1.41706e+10,1.03614,0.962308,1556,2.83413,13,0.000666667,3.17609
app_7,1.88814,18577.7,7735,231.752,774.666,1.8383e+11,1.01025,0.962308,10,0.237199,1797,0.1,1
app_8,1.81598,18679.6,7806.8,149.501,779.03,9.30249e+10,1.01268,0.962308,10,0.119416,1817,0.1,1
app_9,2.8808,18707.3,7853.1,90.2741,978.803,2.60446e+10,1.01534,0.962308,8,0.0266033,2296,0.1,1
