app_id,start_app,end_app,effective_cpu,effective_io,effective_iter,total_bytes,stretch,utilization,Tcomp,Tio,iterations,priority,group_id
app_1,5.3306,20003.1,7716.5,255.172,769.808,2.12819e+11,1.00891,0.961324,10,0.276388,1929,0.1,1
app_10,5.49557,18705.7,7870.3,89.719,982.14,1.59722e+10,1.01442,0.961324,8,0.0162649,2298,0.1,1
app_11,2.17543,19606.6,7764.1,199.539,972.832,1.59441e+11,1.00965,0.961324,8,0.163866,2376,0.1,1
app_12,0.484145,19032.8,7864.9,91.5607,980.679,2.56196e+10,1.01387,0.961324,8,0.0261158,2338,0.1,1
app_13,2.44694,19121.1,7714.8,256.676,772.726,2.11916e+11,1.00925,0.961324,10,0.274502,1844,0.1,1
app_14,1.73794,18899.9,7885,75.649,786.005,2.82836e+10,1.01096,0.961324,10,0.0359843,1861,0.1,1
app_15,7.29176,17991.2,7857,104.255,982.389,6.67909e+10,1.00962,0.961324,8,0.067946,2209,0.1,1
app_16,92.0096,20351.4,7761.6,202.096,70.1497,1.51416e+11,1.01099,0.961324,110,2.16309,178,0.01,2
app_17,55.949,20259.9,7729.7,221.682,85.6098,1.64264e+11,1.01343,0.961324,90,1.93251,216,0.01,2
app_18,41.1158,20170.9,7863.2,92.8791,92.4555,6.31049e+10,1.0093,0.961324,85,0.685923,233,0.01,2
app_19,80.0993,20024,7819.5,141.699,80.6799,1.0179e+11,1.00994,0.961324,99,1.27237,199,0.01,2
app_2,4.04837,19089.8,7869,93.0366,876.114,5.71483e+10,1.00932,0.961324,9,0.0652378,2089,0.1,1
app_20,38.9459,20120.7,7806.2,162.756,80.7892,1.20029e+11,1.00931,0.961324,97,1.48184,202,0.01,2
app_21,32.0691,20398.9,7780.4,191.943,68.5145,1.38876e+11,1.01019,0.961324,112,2.0127,175,0.01,2
app_22,103.789,20200.9,7699.2,257.349,76.5594,1.88454e+11,1.01424,0.961324,101,2.47965,192,0.01,2
app_23,44.8135,20219,7839.5,108.534,88.0281,7.75745e+10,1.01047,0.961324,89,0.881529,221,0.01,2
app_24,71.4171,20480,7714,256.72,77.2472,1.89299e+11,1.01224,0.961324,99,2.45843,197,0.01,2
app_25,88.9131,20263.9,7741.4,229.039,80.4154,1.65816e+11,1.01173,0.961324,96,2.0727,203,0.01,2
app_26,111.008,20179.8,7811.73,170.027,69.7404,1.26989e+11,1.00772,0.961324,112,1.827,175,0.01,2
app_27,50.8199,20458.3,7683.9,255.631,76.2792,1.87676e+11,1.01631,0.961324,101,2.46942,193,0.01,2
app_28,89.9286,20301.3,7931,26.9127,76.8346,1.58145e+10,1.00669,0.961324,102,0.208085,195,0.01,2
app_29,36.1198,20144,7820.2,139.056,67.2633,1.01057e+11,1.00994,0.961324,117,1.50831,169,0.01,2
app_3,4.74806,19145.4,7719.4,250.665,854.088,1.80265e+11,1.0127,0.961324,9,0.211083,2048,0.1,1
app_30,29.5806,20186.1,7924.4,35.1257,63.8151,2.42728e+10,1.00646,0.961324,124,0.379263,160,0.01,2
app_31,644.257,21507.6,7553.9,261.518,8.22434,1.67835e+11,1.03604,0.961324,895,20.9794,22,0.001,3
app_32,138.496,21745.7,7400.6,297.455,7.47822,1.70904e+11,1.05659,0.961324,1013,24.4148,20,0.001,3
app_33,282.248,21902,7327.1,391.855,6.54966,2.20329e+11,1.05996,0.961324,1138,31.4756,18,0.001,3
app_34,383.866,21300.9,7578.8,273.931,7.7745,1.53664e+11,1.0346,0.961324,989,19.2081,20,0.001,3
app_35,367.341,21708,7431.88,351.627,8.52812,2.0412e+11,1.04767,0.961324,883,24.2261,23,0.001,3
app_36,265.444,22184,7587.4,1.88063,8.05553,9.91743e+08,1.05424,0.961324,952,0.123968,22,0.001,3
app_37,848.196,21939.9,7510.5,195.583,8.03405,1.11941e+11,1.04953,0.961324,897,13.9926,22,0.001,3
app_38,756.873,22020,7561.85,70.0746,6.26522,3.89429e+10,1.05252,0.961324,1194,5.56327,17,0.001,3
app_39,285.945,20953.4,7545.1,126.598,8.7933,7.83206e+10,1.0494,0.961324,864,8.70229,23,0.001,3
app_4,7.93924,19957,7734.7,237.383,769.532,2.06433e+11,1.00741,0.961324,10,0.268094,1924,0.1,1
app_40,155.233,21411,7605.8,143.948,7.73384,7.77687e+10,1.04118,0.961324,1008,9.72108,20,0.001,3
app_41,253.423,21990.4,7600.4,14.4206,7.42148,8.97991e+09,1.05133,0.961324,1040,1.12249,20,0.001,3
app_42,859.073,21747.9,7766.7,38.8068,7.93622,1.67047e+10,1.02783,0.961324,979,2.08808,21,0.001,3
app_43,792.936,21837.9,7491.8,220.048,7.15008,1.32236e+11,1.04931,0.961324,1057,16.5294,19,0.001,3
app_44,601.726,20998.8,7459.6,157.395,7.25002,7.99529e+10,1.06107,0.961324,1046,9.99411,19,0.001,3
app_45,511.518,22329.2,7736.4,80.1934,7.67675,5.08189e+10,1.02732,0.961324,991,7.25985,21,0.001,3
app_46,264.457,22594.7,7386.9,219.22,4.94393,1.3001e+11,1.06427,0.961324,1497,26.0021,14,0.001,3
app_47,164.617,21174.1,7377.9,123.497,5.38575,7.48956e+10,1.07342,0.961324,1349,14.9791,15,0.001,3
app_48,854.822,23217.7,7711.5,222.268,4.14654,1.15748e+11,1.02207,0.961324,1765,28.937,12,0.001,3
app_49,1033.71,22655.5,7466,211.824,6.549,1.16529e+11,1.05506,0.961324,1123,19.4215,18,0.001,3
app_5,1.52155,18253.3,7856.9,101.072,981.746,5.69063e+10,1.01089,0.961324,8,0.0579494,2236,0.1,1
app_50,1432.05,22752,7481.1,335.533,4.96424,1.86651e+11,1.04333,0.961324,1566,37.3302,13,0.001,3
app_51,1505.36,23251.4,7681.9,111.968,4.93888,6.60207e+10,1.03254,0.961324,1495,13.2041,14,0.001,3
app_52,672.136,21844.7,7635.9,51.7355,5.40094,3.35475e+10,1.0431,0.961324,1450,6.7095,14,0.001,3
app_53,847.712,21821.4,7716,171.703,4.56483,9.26652e+10,1.0245,0.961324,1689,23.1663,12,0.001,3
app_54,1383.93,22682,7734.3,148.721,4.95427,6.51427e+10,1.02571,0.961324,1541,13.0285,13,0.001,3
app_55,1478.84,22454.8,7645.1,222.437,4.98092,1.22038e+11,1.02998,0.961324,1521,24.4076,13,0.001,3
app_56,145.319,20975.7,7657.5,24.4578,4.94359,1.22061e+10,1.04306,0.961324,1555,2.44122,13,0.001,3
app_57,712.535,22201.9,7827.8,104.65,4.79681,5.46678e+10,1.01491,0.961324,1578,13.667,13,0.001,3
app_58,961.228,22243,7544.36,266.915,4.99379,1.41961e+11,1.04081,0.961324,1549,28.3564,13,0.001,3
app_59,57.4791,20702.8,7653.5,94.0923,6.12099,5.59883e+10,1.03768,0.961324,1257,9.33139,16,0.001,3
app_6,6.51602,19819.2,7864.9,97.5702,873.967,7.5061e+10,1.00756,0.961324,9,0.0858822,2166,0.1,1
app_60,877.007,21798.2,7719.6,117.932,4.32081,6.71589e+10,1.02739,0.961324,1696,16.7897,12,0.001,3
app_7,5.83034,19899.8,7886,76.3532,787.447,2.75362e+10,1.01093,0.961324,10,0.0349445,1964,0.1,1
app_8,5.90099,19960.4,7787.1,169.442,865.895,1.12132e+11,1.01276,0.961324,9,0.129483,2159,0.1,1
app_9,2.16938,19100.9,7721.8,249.635,854.801,1.80066e+11,1.01242,0.961324,9,0.210604,2043,0.1,1
