app_id,Tcomp,Tio,iter,witer,alpha_io,compute_size,io_size,mu,desyn_time
1,10.107839700028787,0.04451633899805701,1970,10.152356039026845,0.00438482839125529,10e9,44516338.99805701,10,5.33094189387696
2,9.316075269249996,0.03211657837655069,2140,9.348191847626547,0.0034355925616465508,9e9,32116578.376550693,10,4.047644577128364
3,9.72111560447882,0.04343758949593062,2049,9.76455319397475,0.0044484974000381225,9e9,43437589.49593062,10,4.996594863330381
4,9.023776265045576,0.005951391747504218,2215,9.02972765679308,0.0006590887315440766,9e9,5951391.747504218,10,4.647764260224403
5,9.211209046391735,0.039255458499861236,2163,9.250464504891596,0.004243620250540193,9e9,39255458.49986123,10,6.935318379637104
6,10.591142913869385,0.06520374887651338,1877,10.656346662745898,0.006118771370723394,10e9,65203748.876513384,10,6.869126510616605
7,9.87176059760293,0.05031361581296969,2016,9.9220742134159,0.005070876787530909,9e9,50313615.81296969,10,1.0323089462055286
8,9.373484119508468,0.05708561869032596,2121,9.430569738198795,0.006053252377647876,9e9,57085618.69032596,10,6.520898131202398
9,9.68705829665071,0.018927171214626247,2061,9.705985467865336,0.0019500514684768996,9e9,18927171.214626245,10,6.091927152341228
10,9.847713438450015,0.04346214443079214,2023,9.891175582880807,0.0043940322428422385,9e9,43462144.43079214,10,5.95120208946944
11,11.835249156795342,0.04985840653797196,1683,11.885107563333314,0.004195031998851225,11e9,49858406.53797196,10,6.144573968291014
12,11.785468506146785,0.05683422350514098,1689,11.842302729651927,0.0047992544020035765,11e9,56834223.50514098,10,7.9642441585431545
13,8.498621356548021,0.04006787841288555,2343,8.538689234960907,0.004692509272832084,8e9,40067878.412885554,10,1.662820333113869
14,8.625133288205294,0.03825120088599849,2309,8.663384489091293,0.0044152722223241275,8e9,38251200.88599849,10,3.8629612302160763
15,10.841839947708358,0.007608570579216431,1844,10.849448518287575,0.0007012863894779171,10e9,7608570.579216431,10,4.443512696874285
16,102.80790328561703,0.20465040854624228,195,103.01255369416327,0.001986655035791408,102e9,204650408.54624227,100,10.4091431476805
17,113.19067023339336,0.05076394187007443,177,113.24143417526344,0.000448280633672541,113e9,50763941.87007443,100,14.813714136963627
18,116.86706447454547,0.41911508764120237,171,117.28617956218667,0.003573439677255256,116e9,419115087.6412024,100,32.82647092617579
19,102.57256681117154,0.4977164820250547,195,103.0702832931966,0.004828903793824225,102e9,497716482.0250547,100,3.154652300541686
20,81.94649219747411,0.18634586675962478,244,82.13283806423374,0.0022688351109198127,81e9,186345866.75962478,100,77.0750452724599
21,110.40377753405039,0.22839020004848656,181,110.63216773409887,0.0020644104217266684,110e9,228390200.04848656,100,68.00547135557659
22,109.81708773061317,0.0800127326548245,182,109.89710046326799,0.0007280695515853756,109e9,80012732.65482451,100,49.16610639354384
23,105.29632141101771,0.13264747274963823,190,105.42896888376735,0.0012581691175968775,105e9,132647472.74963823,100,74.04352934576451
24,94.05978289665332,0.5810179874257829,212,94.6408008840791,0.006139191363537208,94e9,581017987.4257829,100,58.6124876319349
25,103.11936271194396,0.6313844036219673,193,103.75074711556593,0.006085588982975521,103e9,631384403.6219673,100,30.076036375012734
26,94.64992682016063,0.1365316372677276,212,94.78645845742835,0.0014404128974715132,94e9,136531637.2677276,100,88.49665787417884
27,83.03325188624048,0.20838125696241824,241,83.24163314320289,0.0025033297533210838,83e9,208381256.96241823,100,80.65434969303797
28,91.32329321006658,0.015399566689034964,219,91.33869277675562,0.0001685985010391339,91e9,15399566.689034965,100,80.04039036983062
29,100.50129176442694,0.4091155809399023,199,100.91040734536683,0.004054245659119186,100e9,409115580.9399023,100,44.13472276250045
30,96.54347656243243,0.159484613482937,207,96.70296117591536,0.0016492216116610284,96e9,159484613.482937,100,0.26996123538426386
31,1052.8988734066302,4.3624563558048886,19,1057.261329762435,0.004126185487920121,1052e9,4362456355.804889,1000,67.29938913888782
32,988.2810996580638,2.3745484270205153,21,990.6556480850843,0.0023969463371156926,988e9,2374548427.0205154,1000,167.65795332520324
33,992.0137759195238,0.5969290359498276,21,992.6107049554737,0.0006013727566806813,992e9,596929035.9498276,1000,245.41279753988795
34,1073.6096532968968,3.8345893666236583,19,1077.4442426635205,0.003558967800639293,1073e9,3834589366.623658,1000,839.8977393875554
35,1078.0326490546827,0.25018785248431874,19,1078.282836907167,0.00023202432972218242,1078e9,250187852.48431873,1000,515.0159567238682
36,888.4078096625975,3.2320383744330083,23,891.6398480370306,0.0036248249576871523,888e9,3232038374.433008,1000,347.6123195772543
37,785.0970714979064,4.437629048629658,26,789.5347005465361,0.005620562396507485,785e9,4437629048.629658,1000,356.93826952550484
38,983.7710780430281,3.9130634327587677,21,987.6841414757869,0.00396185710434908,983e9,3913063432.7587676,1000,383.3792081112384
39,992.097793763725,0.8555766202041288,21,992.9533703839292,0.0008616483368935209,992e9,855576620.2041289,1000,137.09741884773175
40,916.511629007203,4.871037052727423,22,921.3826660599304,0.00528666018165637,916e9,4871037052.727423,1000,613.6541496694732
41,1045.822512629492,2.710765616433679,20,1048.5332782459257,0.0025852928778459707,1045e9,2710765616.433679,1000,461.98978623489563
42,956.9202809506018,5.387190927109273,21,962.307471877711,0.005598201286536276,956e9,5387190927.109273,1000,772.3778096519115
43,1124.9488339367017,4.195837474381106,18,1129.1446714110828,0.0037159432095956336,1124e9,4195837474.381106,1000,215.95906000871358
44,856.0635956896606,3.0624325199771207,24,859.1260282096378,0.0035645905483262207,856e9,3062432519.977121,1000,432.53189964539484
45,1068.075204082801,4.4236094945991935,19,1072.4988135774004,0.0041245821800435485,1068e9,4423609494.599194,1000,419.38841358809583
46,3014.079151948289,16.87411784533259,7,3030.9532697936215,0.005567264270782226,3014e9,16874117845.332592,3000,212.33184661804762
47,3502.7784863303314,17.515198014878905,6,3520.2936843452103,0.004975493406351069,3502e9,17515198014.878906,3000,374.65131715712704
48,3294.8335715412454,0.7243277836457502,7,3295.557899324891,0.00021978912395808064,3294e9,724327783.6457503,3000,932.4709405994834
49,3466.8274020689187,3.6105097941922826,6,3470.437911863111,0.0010403614431050213,3466e9,3610509794.1922827,3000,3331.509549702825
50,2711.4734534235313,5.093286781267295,8,2716.5667402047984,0.001874898453951961,2711e9,5093286781.267295,3000,798.724039238695
51,2844.762306272399,14.401930104704007,7,2859.1642363771034,0.005037111866981431,2844e9,14401930104.704008,3000,2507.685554408228
52,2905.719975783274,7.689968938079086,7,2913.409944721353,0.002639508028045321,2905e9,7689968938.079086,3000,2053.814175273254
53,3079.6922480872386,7.4967392129473565,7,3087.188987300186,0.0024283382856659574,3079e9,7496739212.947356,3000,1810.5214157189343
54,2728.2772077085224,10.417534828243141,8,2738.6947425367657,0.0038038320468654022,2728e9,10417534828.243141,3000,1684.2032288545277
55,2842.2552111824425,14.847109381687504,8,2857.10232056413,0.005196562011386407,2842e9,14847109381.687504,3000,1387.8895086184032
56,2694.529004023041,15.015465864517283,8,2709.5444698875585,0.005541693827649339,2694e9,15015465864.517282,3000,50.12624199718144
57,2597.9324727186704,3.547329262920065,8,2601.4798019815903,0.0013635813202232073,2597e9,3547329262.920065,3000,1335.6256524381372
58,2474.3071116891074,13.685668648929914,9,2487.9927803380374,0.005500686640686504,2474e9,13685668648.929914,3000,503.2073822541343
59,3117.736978817649,11.761533491279106,7,3129.4985123089277,0.0037582805823420913,3117e9,11761533491.279106,3000,761.4795285574729
60,3506.498086444589,8.554305039224104,6,3515.0523914838127,0.0024336209212554773,3506e9,8554305039.224104,3000,2111.343963142679
