app_id,start_app,end_app,effective_cpu,effective_io,effective_iter,total_bytes,stretch,utilization,Tcomp,Tio,iterations,priority,group_id
app_1,5.52675,19696.3,7932.9,67.1,663.97,1.94873e+10,1.00599,0.993991,12,0.0293483,1633,1,1
app_10,7.0422,19185.3,7900.8,99.2,987.702,2.68813e+10,1.00912,0.993991,8,0.0272354,2367,1.00001,1.00001
app_11,5.71971,19508.9,7920.9,79.1,791.514,9.45816e+08,1.00987,0.993991,10,0.00119572,1929,1.00001,1.00001
app_12,9.24305,18503.2,7899.2,100.8,790.077,5.90277e+10,1.00525,0.993991,10,0.0747186,1825,1.00001,1.00001
app_13,6.67512,18067.7,7886.8,113.2,1131.44,9.26899e+09,1.01316,0.993991,7,0.00818816,2550,1.00001,1.00001
app_14,6.58443,19083,7899.7,100.3,791.205,5.81612e+10,1.0053,0.993991,10,0.0735287,1884,1.00001,1.00001
app_15,3.11717,18293.6,7890.7,109.3,877.434,5.90481e+10,1.00632,0.993991,9,0.0673296,2006,1.00002,1.00002
app_16,23.7695,19823.2,7975.1,24.9,97.3924,1.67978e+10,1.00101,0.993991,82,0.171406,242,1.00002,1.00002
app_17,18.5748,19888.3,7987.3,12.7,93.0905,7.4641e+09,1.00065,0.993991,86,0.0802591,232,1.00002,1.00002
app_18,20.5686,20142,7950.4,49.6,74.5976,3.60308e+10,1.0017,0.993991,106,0.480411,188,1.00002,1.00002
app_19,69.686,19899.1,7992.4,7.6,74.6426,2.60435e+09,1.00062,0.993991,107,0.0351939,186,1.00002,1.00002
app_2,5.10892,19025.6,7897.3,102.7,876.798,4.60906e+10,1.00713,0.993991,9,0.0525549,2085,1,1
app_20,66.509,20010.1,7961.7,38.3,75.5193,2.96518e+10,1.00108,0.993991,105,0.395358,190,1.00002,1.00002
app_21,49.52,20197.8,7947.6,52.4,83.8336,4.11279e+10,1.00141,0.993991,95,0.495516,210,1.00002,1.00002
app_22,16.5691,19793.5,7983.4,16.6,74.5634,8.45702e+09,1.00102,0.993991,108,0.11276,184,1.00002,1.00002
app_23,112.637,20255.2,7993,7,64.7622,2.60647e+09,1.00055,0.993991,121,0.0407262,165,1.00002,1.00002
app_24,64.8714,19801.6,7964,36,72.3373,2.75454e+10,1.00106,0.993991,112,0.377334,177,1.00002,1.00002
app_25,5.43714,19914.2,7944.1,55.9,76.3029,4.05442e+10,1.00192,0.993991,105,0.533477,189,1.00003,1.00003
app_26,52.6516,19909.5,7987.5,12.5,86.7268,8.69334e+09,1.00048,0.993991,92,0.0999235,216,1.00003,1.00003
app_27,68.4816,20056.3,7947.5,52.5,77.7722,3.88567e+10,1.00171,0.993991,104,0.498163,192,1.00003,1.00003
app_28,82.4495,20024.2,7936.8,63.2,76.0783,4.98978e+10,1.00167,0.993991,104,0.65655,190,1.00003,1.00003
app_29,6.9132,20179.1,7965.1,34.9,94.6383,2.35907e+10,1.00142,0.993991,84,0.250965,238,1.00003,1.00003
app_3,7.18868,19702.9,7897.1,102.9,985.727,4.43714e+10,1.00737,0.993991,8,0.0450014,2432,1,1
app_30,37.1304,19974.6,7975.6,24.4,73.7915,1.72864e+10,1.00089,0.993991,108,0.2336,184,1.00003,1.00003
app_31,93.1913,20153.9,7988.5,11.5,9.59257,7.66256e+09,1.00048,0.993991,846,0.851395,24,1.00003,1.00003
app_32,493.225,20519.8,7978.2,21.8,7.50081,1.85546e+10,1.00041,0.993991,1050,2.65066,19,1.00003,1.00003
app_33,21.2456,20987.7,7967.2,32.8,8.89029,2.88314e+10,1.0005,0.993991,861,3.20349,24,1.00003,1.00003
app_34,148.234,20359.5,7954.7,45.3,8.58859,3.66029e+10,1.00109,0.993991,923,4.06699,22,1.00003,1.00003
app_35,492.457,21401.3,7968.9,31.1,8.79521,2.2576e+10,1.00107,0.993991,893,2.50844,23,1.00004,1.00004
app_36,483.88,21109.8,7977.5,22.5,8.07905,1.70232e+10,1.00069,0.993991,971,2.1279,21,1.00004,1.00004
app_37,721.999,20965.9,7970.1,29.9,8.24267,2.6456e+10,1.00043,0.993991,985,3.307,21,1.00004,1.00004
app_38,203.478,20838.7,7970.9,29.1,8.75372,1.99988e+10,1.00114,0.993991,893,2.22209,23,1.00004,1.00004
app_39,194.359,21100.7,7963.3,36.7,8.44213,2.62084e+10,1.00131,0.993991,935,3.27605,22,1.00004,1.00004
app_4,0.772607,19391.6,7897.7,102.3,987.179,3.88376e+10,1.008,0.993991,8,0.0393492,2394,1,1
app_40,492.803,21641.1,7935.1,64.9,7.85082,5.09183e+10,1.00175,0.993991,974,6.36479,21,1.00004,1.00004
app_41,573.276,21273.9,7943.7,56.3,7.55945,4.47441e+10,1.00145,0.993991,1027,6.39201,20,1.00004,1.00004
app_42,1000.24,21548,7983.6,16.4,7.76611,1.37509e+10,1.00033,0.993991,1004,1.71886,20,1.00004,1.00004
app_43,820.598,21414.1,7975.5,24.5,8.97088,2.03933e+10,1.00051,0.993991,898,2.26592,23,1.00004,1.00004
app_44,997.161,21507.4,7998.1,1.9,7.37997,1.21725e+09,1.00009,0.993991,1078,0.152156,19,1.00004,1.00004
app_45,982.801,21864.7,7958.1,41.9,7.76416,3.64789e+10,1.00068,0.993991,1025,4.55987,20,1.00004,1.00004
app_46,1891.25,23037.5,7949.8,50.2,2.97999,3.30859e+10,1.00214,0.993991,2661,11.0286,8,1.00005,1.00005
app_47,2999.47,25373.2,7987.7,12.3,2.6253,7.85906e+09,1.00056,0.993991,3173,2.61969,7,1.00005,1.00005
app_48,1802.42,23354.8,7959.7,40.3,2.92019,3.59756e+10,1.00054,0.993991,2579,11.9919,8,1.00005,1.00005
app_49,1980.06,22884.9,7972.3,27.7,3.08551,1.91015e+10,1.00108,0.993991,2654,6.36716,8,1.00005,1.00005
app_5,2.72395,18230.8,7911.6,88.4,881.059,1.80575e+10,1.00887,0.993991,9,0.0204966,2001,1.00001,1.00001
app_50,142.193,21768.1,7990.3,9.7,3.06872,8.09867e+09,1.0002,0.993991,2771,2.02467,8,1.00005,1.00005
app_51,1059.08,23908.4,7979.2,20.8,2.79372,1.30896e+10,1.00096,0.993991,2837,4.36319,8,1.00005,1.00005
app_52,835.186,23232.7,7958.4,41.6,2.59833,3.75841e+10,1.0005,0.993991,3144,12.528,7,1.00005,1.00005
app_53,132.124,22393.8,7984.1,15.9,3.21216,1.32637e+10,1.00033,0.993991,2481,4.42122,9,1.00005,1.00005
app_54,1233.97,21805.2,7929.1,70.9,2.67525,6.01918e+10,1.00134,0.993991,3114,20.0639,7,1.00005,1.00005
app_55,175.753,19655,7978,22,2.98746,1.80421e+10,1.00049,0.993991,2871,6.01403,7,1.00005,1.00005
app_56,496.617,23256.8,7932.9,67.1,2.43764,5.91847e+10,1.00099,0.993991,3211,19.7282,7,1.00006,1.00006
app_57,1026.83,24313.3,7975.6,24.4,2.35367,2.18158e+10,1.00032,0.993991,3159,10.9079,7,1.00006,1.00006
app_58,910.822,22043.3,7959.2,40.8,2.7365,3.82494e+10,1.00032,0.993991,3002,12.7498,7,1.00006,1.00006
app_59,544.025,20502.2,7958.7,41.3,2.8199,3.6015e+10,1.00066,0.993991,2874,12.005,7,1.00006,1.00006
app_6,7.41586,18170.1,7895.6,104.4,879.441,5.21081e+10,1.00658,0.993991,9,0.0592811,1994,1.00001,1.00001
app_60,2240.94,23906.4,7996.2,3.8,2.56736,3.11807e+09,1.00009,0.993991,3063,1.55904,7,1.00006,1.00006
app_7,5.90381,19699.8,7909.8,90.2,881.12,3.16128e+10,1.00738,0.993991,9,0.0358828,2169,1.00001,1.00001
app_8,8.54114,19414.6,7908.2,91.8,878.758,3.62875e+10,1.00699,0.993991,9,0.0412827,2134,1.00001,1.00001
app_9,7.90726,19626.8,7911.5,88.5,879.285,2.33589e+10,1.00821,0.993991,9,0.0265744,2152,1.00001,1.00001
