app_id,start_app,end_app,effective_cpu,effective_io,effective_iter,total_bytes,stretch,utilization,Tcomp,Tio,iterations,priority,group_id
app_1,0.39654,19961.5,7909,91,876.095,3.27337e+10,1.00734,0.994079,9,0.0373672,2187,1,1
app_10,10.4505,18808.9,7906.89,93.1073,789.42,4.85908e+10,1.0056,0.994079,10,0.0615435,1857,1.00001,1.00001
app_11,9.78423,19853.4,7916.7,83.3,790.716,3.24181e+10,1.0064,0.994079,10,0.0409836,1963,1.00001,1.00001
app_12,9.54777,18331.9,7898.8,101.2,875.141,4.79338e+10,1.0067,0.994079,9,0.0547814,2004,1.00001,1.00001
app_13,7.0006,18586.7,7912.1,87.9,878.726,1.92807e+10,1.00865,0.994079,9,0.0219348,2040,1.00001,1.00001
app_14,0.668119,17938.1,7897.8,102.2,987.746,3.70035e+10,1.00822,0.994079,8,0.0374908,2215,1.00001,1.00001
app_15,3.1337,17975.8,7897.6,102.4,990.251,3.7352e+10,1.0082,0.994079,8,0.0376912,2220,1.00002,1.00002
app_16,71.9038,20137.4,7958.3,41.7,85.9648,2.98567e+10,1.00148,0.994079,92,0.34717,216,1.00002,1.00002
app_17,3.9416,19932,7991.3,8.7,81.2517,3.51279e+09,1.00065,0.994079,98,0.0433678,203,1.00002,1.00002
app_18,21.3415,19858,7939.8,60.2,80.5693,4.30257e+10,1.00215,0.994079,99,0.537822,200,1.00002,1.00002
app_19,45.4318,20032.5,7936.6,63.4,81.0122,4.43904e+10,1.00238,0.994079,98,0.54803,202,1.00002,1.00002
app_2,8.41168,19056.1,7907.2,92.8,791.114,4.71981e+10,1.00573,0.994079,10,0.0596688,1881,1,1
app_20,54.3072,19905,7981.2,18.8,77.7527,1.23543e+10,1.00081,0.994079,104,0.158389,192,1.00002,1.00002
app_21,73.623,20141.1,7935.79,64.2145,82.9292,4.79716e+10,1.00203,0.994079,96,0.579821,207,1.00002,1.00002
app_22,20.0492,19894,7942.8,57.2,75.2488,4.24867e+10,1.00184,0.994079,107,0.559036,186,1.00002,1.00002
app_23,49.6854,19962.1,7944.4,55.6,83.1386,4.08237e+10,1.00185,0.994079,96,0.491852,206,1.00002,1.00002
app_24,45.9602,19810.2,7991.5,8.5,75.9584,5.6959e+09,1.00035,0.994079,106,0.074946,188,1.00002,1.00002
app_25,49.2696,20020.4,7977.6,22.4,95.4357,1.30606e+10,1.00117,0.994079,83,0.13748,239,1.00003,1.00003
app_26,52.9783,20032.4,7965.2,34.8,93.3531,2.5562e+10,1.00116,0.994079,86,0.274861,231,1.00003,1.00003
app_27,71.3248,19895.5,7986.9,13.1,95.9405,9.5684e+09,1.00044,0.994079,83,0.0996708,239,1.00003,1.00003
app_28,63.2819,20062.7,7975.3,24.7,96.8146,1.50216e+10,1.00121,0.994079,82,0.154862,242,1.00003,1.00003
app_29,18.4855,19915.2,7977.5,22.5,91.5583,1.39683e+10,1.00107,0.994079,87,0.153497,228,1.00003,1.00003
app_3,0.744633,18591.7,7911.8,88.2,879.572,2.04853e+10,1.00854,0.994079,9,0.0232787,2042,1,1
app_30,4.0248,19939.2,7978.5,21.5,75.3569,1.4189e+10,1.00091,0.994079,106,0.189187,188,1.00003,1.00003
app_31,198.504,19634.4,7992.8,7.2,8.86316,5.92586e+09,1.00016,0.994079,911,0.658429,22,1.00003,1.00003
app_32,736.406,21072.7,7998.8,1.2,8.31097,6.88129e+08,1.00006,0.994079,977,0.0860161,21,1.00003,1.00003
app_33,142.281,20387.4,7974.7,25.3,9.03311,2.02022e+10,1.00064,0.994079,870,2.24469,23,1.00003,1.00003
app_34,482.938,20848,7997,3,7.86158,2.23322e+09,1.0001,0.994079,1036,0.279152,20,1.00003,1.00003
app_35,459.003,21126,7939.4,60.6,10.0075,5.15972e+10,1.00113,0.994079,791,5.15972,26,1.00004,1.00004
app_36,367.991,21096.7,7947,53,8.13927,4.27556e+10,1.00128,0.994079,976,5.34445,21,1.00004,1.00004
app_37,569.879,21446.1,7942.2,57.8,7.87804,4.23668e+10,1.00193,0.994079,1031,5.29585,20,1.00004,1.00004
app_38,99.8367,20156.2,7989.4,10.6,9.41903,8.68128e+09,1.00024,0.994079,876,0.964586,23,1.00004,1.00004
app_39,495.269,21229.7,7987.5,12.5,7.18288,1.16959e+10,1.0001,0.994079,1138,1.46199,18,1.00004,1.00004
app_4,5.55221,18978.3,7911,89,878.158,2.75103e+10,1.00775,0.994079,9,0.0312973,2085,1,1
app_40,278.947,21280.5,7986.6,13.4,7.21368,1.2146e+10,1.00016,0.994079,1077,1.73515,19,1.00004,1.00004
app_41,707.372,20961,7967,33,7.99513,2.56314e+10,1.00092,0.994079,1009,3.20392,20,1.00004,1.00004
app_42,222.091,21120.3,7994.9,5.1,8.55839,3.76017e+09,1.00017,0.994079,943,0.470021,22,1.00004,1.00004
app_43,878.006,21624.3,7931.7,68.3,8.86493,5.15641e+10,1.0021,0.994079,901,5.72934,23,1.00004,1.00004
app_44,86.8053,20351.8,7984.1,15.9,9.16822,1.22543e+10,1.00046,0.994079,898,1.36159,23,1.00004,1.00004
app_45,651.799,21301.1,7979.2,20.8,8.21812,1.76959e+10,1.00039,0.994079,991,2.21198,21,1.00004,1.00004
app_46,3264.67,23476.6,7978.4,21.6,2.24351,1.88774e+10,1.00034,0.994079,3359,6.29246,6,1.00005,1.00005
app_47,2219.52,24999.3,7946.7,53.3,2.17753,4.57546e+10,1.00094,0.994079,3697,15.2515,6,1.00005,1.00005
app_48,1577.26,23704.3,7933.9,66.1,3.26158,5.34497e+10,1.00158,0.994079,2440,13.3624,9,1.00005,1.00005
app_49,267.164,22820.3,7956.2,43.8,2.47929,3.85192e+10,1.00066,0.994079,3258,12.8397,7,1.00005,1.00005
app_5,10.8513,19086.7,7915,85,719.587,4.40654e+10,1.00514,0.994079,11,0.061287,1718,1.00001,1.00001
app_50,1211.8,21303.4,7957.2,42.8,2.82774,3.23116e+10,1.00131,0.994079,2930,10.7705,7,1.00005,1.00005
app_51,2308.97,23275.4,7979.5,20.5,2.2375,1.86751e+10,1.00023,0.994079,3363,9.33755,6,1.00005,1.00005
app_52,693.527,21498.2,7983.8,16.2,3.03593,1.35766e+10,1.00033,0.994079,2720,4.52555,8,1.00005,1.00005
app_53,1618.38,23371.2,7956.8,43.2,2.98797,3.87905e+10,1.00055,0.994079,2742,12.9302,8,1.00005,1.00005
app_54,719.166,21650.1,7958,42,2.62534,3.14002e+10,1.00133,0.994079,2922,10.4667,7,1.00005,1.00005
app_55,451.53,24099.8,7990.2,9.8,3.05813,6.66558e+09,1.00039,0.994079,2489,2.22186,9,1.00005,1.00005
app_56,338.195,20537,7976.6,23.4,2.38814,1.81042e+10,1.00066,0.994079,3441,6.03472,6,1.00006,1.00006
app_57,2104.1,23062.8,7945,55,2.2606,4.75424e+10,1.00093,0.994079,3396,23.7712,6,1.00006,1.00006
app_58,2351.01,24243,7970.1,29.9,2.98617,2.65446e+10,1.00042,0.994079,2792,8.84819,8,1.00006,1.00006
app_59,516.524,22623.4,7931.3,68.7,2.90229,5.78433e+10,1.00136,0.994079,2770,19.2811,8,1.00006,1.00006
app_6,7.96126,18795.1,7897.2,102.8,877.371,4.78386e+10,1.00692,0.994079,9,0.054548,2059,1.00001,1.00001
app_60,2069.44,22549.5,7954,46,2.66543,4.03965e+10,1.0007,0.994079,2890,20.1982,7,1.00006,1.00006
app_7,10.4881,18980.2,7927.9,72.1,720.771,2.52657e+09,1.00877,0.994079,11,0.00350426,1708,1.00001,1.00001
app_8,8.76197,19952.9,7927.9,72.1,720.443,1.64374e+10,1.00701,0.994079,11,0.0228297,1796,1.00001,1.00001
app_9,7.29805,18646.1,7908.5,91.5012,878.353,3.51067e+10,1.0071,0.994079,9,0.0399618,2050,1.00001,1.00001
