app_id,start_app,end_app,effective_cpu,effective_io,effective_iter,total_bytes,stretch,utilization,Tcomp,Tio,iterations,priority,group_id
app_1,8.36004,19142.6,7906.1,85.9029,880.775,2.82379e+10,1.00828,0.994149,9,0.0320521,2105,0.1,1
app_10,4.3554,18847.3,7895.7,97.1051,989.93,3.64898e+10,1.00855,0.994149,8,0.0368584,2328,0.1,1
app_11,6.2684,20018.8,7913.7,79.839,792.816,4.34329e+10,1.00539,0.994149,10,0.0547703,1981,0.1,1
app_12,1.90949,20124,7908.1,84.3197,880.799,1.87315e+10,1.00923,0.994149,9,0.0212617,2213,0.1,1
app_13,0.6108,19946.2,7879.2,112.267,1127.01,5.21893e+10,1.00865,0.994149,7,0.0463081,2806,0.1,1
app_14,1.68347,18733,7921.4,71.8061,718.146,3.4615e+10,1.00553,0.994149,11,0.0481433,1685,0.1,1
app_15,3.60493,20062.7,7910.8,81.6932,874.953,3.08531e+09,1.01088,0.994149,9,0.0035301,2200,0.1,1
app_16,10.7067,20013.3,7987.9,10.1348,103.883,1.39082e+09,1.00134,0.994149,77,0.0133732,260,0.01,2
app_17,80.6172,19895,7972.4,26.8365,88.7667,1.88109e+10,1.0011,0.994149,90,0.21376,220,0.01,2
app_18,59.296,20108.6,7933.9,63.2527,87.6867,5.37589e+10,1.00155,0.994149,91,0.610896,219,0.01,2
app_19,34.4929,20145.1,7943.3,55.0988,86.8468,4.76363e+10,1.00113,0.994149,91,0.547543,218,0.01,2
app_2,3.57813,19210.2,7906.7,85.9444,879.308,3.03349e+10,1.00793,0.994149,9,0.0344714,2109,0.1,1
app_20,20.5237,20096,7976.6,22.0947,74.0201,1.51715e+10,1.00103,0.994149,107,0.205021,187,0.01,2
app_21,88.0319,20082.7,7945.3,53.9233,88.9274,4.52435e+10,1.00118,0.994149,89,0.508353,223,0.01,2
app_22,82.9546,20153.9,7960.5,36.8085,90.6276,2.94696e+10,1.00126,0.994149,88,0.32744,227,0.01,2
app_23,85.5294,20207.8,7941.2,58.5744,63.4287,5.14785e+10,1.00092,0.994149,125,0.81712,159,0.01,2
app_24,49.3799,19906.6,7990.4,9.21239,91.7158,2.65195e+09,1.00087,0.994149,87,0.0288255,228,0.01,2
app_25,40.5721,19845.5,7981.9,16.9318,75.3007,1.29262e+10,1.00065,0.994149,107,0.170082,186,0.01,2
app_26,56.2079,20049.7,7966.3,33.3581,82.3656,2.55293e+10,1.00102,0.994149,96,0.311334,206,0.01,2
app_27,43.484,20087.6,7982.3,17.2462,72.2769,1.41777e+10,1.00044,0.994149,110,0.194215,181,0.01,2
app_28,51.0277,20248.6,7968,30.1859,95.0304,2.33975e+10,1.00108,0.994149,83,0.246289,241,0.01,2
app_29,4.83394,19942.5,7954.5,45.2159,74.5407,3.72445e+10,1.00103,0.994149,107,0.503305,186,0.01,2
app_3,3.29181,18976.9,7910.6,82.637,877.063,9.86608e+09,1.01004,0.994149,9,0.0112498,2082,0.1,1
app_30,13.8511,20070,7965.2,34.3087,68.1179,2.85068e+10,1.00079,0.994149,117,0.419218,171,0.01,2
app_31,765.369,21348.8,7947.4,52.4355,8.33001,4.34971e+10,1.00114,0.994149,923,4.83302,22,0.001,3
app_32,619.163,20749.9,7977.3,9.9932,9.12598,8.33273e+09,1.0018,0.994149,868,0.925859,23,0.001,3
app_33,766.108,20773.1,7969.3,30.7,7.25947,2.55719e+10,1.00064,0.994149,1117,3.65313,18,0.001,3
app_34,484.495,20598.1,7964,36,6.9726,3.15284e+10,1.00056,0.994149,1107,4.50406,18,0.001,3
app_35,14.3023,20670.1,7989.7,10.3,7.03407,7.72471e+09,1.00032,0.994149,1152,1.10353,18,0.001,3
app_36,905.427,21646.9,7968.8,31.2,8.39082,2.6315e+10,1.00061,0.994149,921,3.28937,22,0.001,3
app_37,558.492,21292.2,7955.3,44.7,8.37969,3.78515e+10,1.00086,0.994149,929,4.20572,22,0.001,3
app_38,950.269,21246.8,7948.4,51.6,8.15725,4.57892e+10,1.00073,0.994149,954,5.72365,21,0.001,3
app_39,163.376,21529.8,7949.8,50.2,8.33131,4.5115e+10,1.00064,0.994149,946,5.63938,22,0.001,3
app_4,7.01732,19177.7,7915.4,77.7988,791.86,2.64025e+10,1.00733,0.994149,10,0.0333365,1899,0.1,1
app_40,927.584,22025.5,7956.7,41.3053,7.48463,3.67029e+10,1.00083,0.994149,1025,4.58786,20,0.001,3
app_41,901.17,20873.1,7947.8,51.9222,7.27959,4.71094e+10,1.00064,0.994149,1105,5.88868,18,0.001,3
app_42,387.175,20855.5,7957.7,38.4928,8.38245,3.34828e+10,1.0011,0.994149,985,3.72031,21,0.001,3
app_43,914.546,20399.6,7996.8,3.2,7.79114,2.56239e+09,1.00008,0.994149,1058,0.320298,19,0.001,3
app_44,772.644,20883.8,7990.3,9.56261,9.70029,8.39658e+09,1.00016,0.994149,841,0.839658,24,0.001,3
app_45,546.979,20556.9,7978,22,8.86274,1.95315e+10,1.00031,0.994149,919,2.44144,22,0.001,3
app_46,2246.27,24578.9,7987.7,12.3,2.52446,1.0937e+10,1.00017,0.994149,3162,5.46848,7,0.000333333,3.47712
app_47,917.975,20916.2,7983.5,16.5,2.91204,1.4808e+10,1.00021,0.994149,2861,4.93599,7,0.000333333,3.47712
app_48,132.188,20403,7974.4,14.2306,2.73429,9.16346e+09,1.00206,0.994149,2881,4.58173,7,0.000333333,3.47712
app_49,1632.86,22280.4,7988.2,11.8,2.66966,9.85676e+09,1.00024,0.994149,2963,3.28559,7,0.000333333,3.47712
app_5,0.439698,19481.4,7919.8,73.0417,720.638,3.96281e+10,1.0051,0.994149,11,0.0549627,1754,0.1,1
app_50,1301.11,23665.9,7954.6,45.4,2.84565,4.1151e+10,1.00053,0.994149,2790,13.717,8,0.000333333,3.47712
app_51,3102.24,23083.5,7955.5,44.5,2.43301,4.03866e+10,1.00051,0.994149,3457,13.4622,6,0.000333333,3.47712
app_52,897.056,21317.9,7977.1,22.9,2.78259,2.09103e+10,1.00025,0.994149,2995,6.9701,7,0.000333333,3.47712
app_53,281.581,20480.2,7950.2,49.8,3.5516,3.83973e+10,1.00143,0.994149,2221,9.59932,9,0.000333333,3.47712
app_54,1795.13,25900.6,7998.6,1.4,2.43422,1.38294e+09,1,0.994149,3302,0.691471,7,0.000333333,3.47712
app_55,2229.36,22782.9,7971.9,23.6448,3.23334,1.97228e+10,1.00105,0.994149,2595,6.57427,8,0.000333333,3.47712
app_56,231.929,20911.2,7961.5,38.5,2.41,3.41823e+10,1.00054,0.994149,3471,11.3941,6,0.000333333,3.47712
app_57,678.819,23517.5,7968.9,31.1,2.81671,2.66693e+10,1.00055,0.994149,2841,8.88976,8,0.000333333,3.47712
app_58,2793.91,22908,7975.7,24.3,2.70725,2.13176e+10,1.00037,0.994149,2976,10.6588,7,0.000333333,3.47712
app_59,63.4516,22444,7978.5,21.5,2.82669,1.99951e+10,1.00019,0.994149,2756,9.99754,8,0.000333333,3.47712
app_6,6.73887,19848.3,7912.5,81.4707,791.537,5.57342e+10,1.00399,0.994149,10,0.0704605,1966,0.1,1
app_60,1909.85,24192.7,7948.2,46.5556,3.17428,2.88393e+10,1.00288,0.994149,2447,9.61308,9,0.000333333,3.47712
app_7,2.11283,19693.6,7917.3,75.3313,791.947,1.44304e+10,1.00861,0.994149,10,0.0182202,1950,0.1,1
app_8,9.24645,19215.3,7915.7,78.2628,790.048,3.11354e+10,1.00669,0.994149,10,0.039362,1899,0.1,1
app_9,9.99101,19845.9,7917,77.6104,789.072,3.04689e+10,1.00661,0.994149,10,0.0386171,1959,0.1,1
