app_id,start_app,end_app,effective_cpu,effective_io,effective_iter,total_bytes,stretch,utilization,Tcomp,Tio,iterations,priority,group_id
app_1,6.05008,18270.9,7895.5,98.2546,987.915,4.53254e+10,1.00745,0.994153,8,0.0458759,2255,0.1,1
app_10,5.72332,19825.1,7913.9,80.6734,792.685,5.04056e+10,1.00448,0.994153,10,0.0635631,1960,0.1,1
app_11,1.32838,19944.9,7910.1,84.1464,878.856,8.63562e+09,1.01026,0.994153,9,0.00982437,2191,0.1,1
app_12,5.59398,19965.9,7910.5,84.0772,877.712,1.28684e+10,1.00967,0.994153,9,0.0146564,2191,0.1,1
app_13,3.24873,20180,7919.52,73.9767,791.877,2.27484e+09,1.00987,0.994153,10,0.0028731,1993,0.1,1
app_14,3.29629,19186.3,7925.6,68.1809,720.482,1.00274e+10,1.00811,0.994153,11,0.0139076,1729,0.1,1
app_15,4.46179,18989.2,7926,68.053,719.86,9.14939e+09,1.00817,0.994153,11,0.0127075,1710,0.1,1
app_16,80.5893,20024.7,7970,28.6786,95.5888,1.92637e+10,1.00134,0.994153,84,0.200663,238,0.01,2
app_17,87.5232,20112.2,7968.7,30.933,75.6236,2.48724e+10,1.0008,0.994153,105,0.327268,190,0.01,2
app_18,34.9906,20094.2,7971.3,26.5602,89.7905,1.82305e+10,1.00131,0.994153,88,0.202561,227,0.01,2
app_19,2.33605,19892.4,7969.4,26.2872,84.0548,2.08178e+10,1.00122,0.994153,95,0.247831,209,0.01,2
app_2,1.63768,19533.7,7920,74.5787,788.723,9.12168e+09,1.00894,0.994153,10,0.0115611,1928,0.1,1
app_20,63.8426,20090.3,7949.9,48.819,74.0216,4.3797e+10,1.00079,0.994153,107,0.591852,186,0.01,2
app_21,58.7387,19883.2,7948.9,49.8786,80.9824,4.34082e+10,1.00096,0.994153,98,0.535904,201,0.01,2
app_22,92.0522,20005.5,7981.3,16.0764,82.5842,8.87173e+09,1.00123,0.994153,97,0.108192,205,0.01,2
app_23,15.4456,19875,7950.7,47.4459,90.9175,4.13538e+10,1.00099,0.994153,88,0.454438,225,0.01,2
app_24,82.8978,20141.1,7957.8,40.3394,81.7893,3.28686e+10,1.00117,0.994153,97,0.405785,206,0.01,2
app_25,6.31459,20118.9,7982,16.8219,83.6522,1.13921e+10,1.00083,0.994153,95,0.13562,210,0.01,2
app_26,14.7963,19930.8,7939.1,59.2998,88.212,5.25161e+10,1.00105,0.994153,90,0.590068,220,0.01,2
app_27,15.7994,19943.4,7928.4,70.773,87.3709,6.10351e+10,1.00132,0.994153,90,0.701553,219,0.01,2
app_28,33.0501,19864.7,7969.8,28.7903,91.5544,2.3596e+10,1.00083,0.994153,88,0.259297,226,0.01,2
app_29,102.671,20074.1,7967.6,31.4616,76.2512,2.626e+10,1.00077,0.994153,103,0.345526,192,0.01,2
app_3,9.86993,19111.7,7919.2,76.6158,791.803,2.41634e+10,1.00713,0.994153,10,0.0305479,1889,0.1,1
app_30,68.0897,19785,7962.3,36.9751,73.7584,2.96727e+10,1.001,0.994153,109,0.406475,182,0.01,2
app_31,788.151,21757.7,7931,69,7.62311,6.19888e+10,1.00088,0.994153,1030,7.74861,20,0.001,3
app_32,555.082,20619.4,7976.84,21.0846,7.66559,1.8045e+10,1.00064,0.994153,1054,2.27165,19,0.001,3
app_33,780.624,22033,7946.7,46.4469,7.86682,4.07656e+10,1.00157,0.994153,990,5.0957,21,0.001,3
app_34,819.1,21377.5,7991.7,1.59914,8.11631,1.15891e+09,1.00089,0.994153,978,0.144864,21,0.001,3
app_35,1297.15,21843.3,7941.5,58.5,6.2305,5.39227e+10,1.00057,0.994153,1291,8.98712,16,0.001,3
app_36,370.082,20736.4,7939.4,60.6,8.22205,5.31978e+10,1.00093,0.994153,959,5.91086,21,0.001,3
app_37,112.922,20739.9,7971,26.8281,7.47586,2.38093e+10,1.00065,0.994153,1076,3.40133,19,0.001,3
app_38,253.08,20621.5,7982.5,17.5,7.88317,1.63074e+10,1.00015,0.994153,1039,2.03842,20,0.001,3
app_39,508.059,20241.3,7960.7,39.3,8.16232,3.49589e+10,1.00054,0.994153,1004,4.36986,20,0.001,3
app_4,3.39435,18439.2,7918,75.3478,790.805,1.51979e+10,1.00842,0.994153,10,0.0192379,1824,0.1,1
app_40,175.504,20950.1,7962.7,27.346,8.76073,2.50502e+10,1.00153,0.994153,947,2.78336,22,0.001,3
app_41,44.7048,20424.5,7983.7,16.3,7.92458,1.40187e+10,1.00029,0.994153,1036,1.75234,20,0.001,3
app_42,252.155,20040.8,7958.2,41.8,9.33112,3.74048e+10,1.00055,0.994153,866,4.15609,23,0.001,3
app_43,1015.95,21693.2,7960.2,39.8,7.3944,3.51683e+10,1.00058,0.994153,1074,5.02405,19,0.001,3
app_44,5.00333,20885,7957.2,39.1509,7.99567,3.50253e+10,1.00097,0.994153,986,4.37816,21,0.001,3
app_45,757.336,21237.3,7966.4,18.8171,8.09508,1.58446e+10,1.00222,0.994153,1026,1.98058,20,0.001,3
app_46,648.023,21908.6,7946.9,53.1,3.02006,4.74582e+10,1.00071,0.994153,2733,15.8194,8,0.001,3
app_47,1035.12,23862.6,7981.3,18.7,2.36693,1.71591e+10,1.00019,0.994153,3188,8.57954,7,0.0001,4
app_48,2390.42,24401.5,7984.2,15.8,2.59514,1.46502e+10,1.00014,0.994153,3070,7.32512,7,0.001,3
app_49,714.192,23052.9,7990.2,8.32549,2.46291,7.5748e+09,1.00028,0.994153,3149,2.52493,7,0.001,3
app_5,1.9151,20060.1,7914.2,81.156,790.613,5.42838e+10,1.00396,0.994153,10,0.0686268,1983,0.1,1
app_50,922.232,22027.9,7961.7,38.3,2.66037,3.50247e+10,1.00041,0.994153,2894,11.6749,7,0.001,3
app_51,2681.19,23863.4,7988.6,11.4,2.17024,2.283e+09,1.00114,0.994153,3693,0.760999,6,0.0001,4
app_52,2661.93,25094.4,7959.9,40.1,2.42671,3.68074e+10,1.00041,0.994153,3208,18.4037,7,0.0001,4
app_53,364.354,21398.9,7974.4,25.6,2.5348,2.18203e+10,1.00047,0.994153,2949,7.27344,7,0.001,3
app_54,1604.95,21320.3,7949.8,50.2,2.83117,4.48321e+10,1.00067,0.994153,2857,14.944,7,0.001,3
app_55,2516.34,25828.9,7977.5,22.5,2.49237,1.98348e+10,1.00033,0.994153,3243,9.91741,7,0.0001,4
app_56,67.2947,22373.9,7998,2,3.07647,1.70895e+09,1.00004,0.994153,2445,0.569651,9,0.001,3
app_57,1544.16,24047.8,7996.8,3.2,2.88407,2.92008e+09,1.00003,0.994153,2784,0.973358,8,0.001,3
app_58,571.846,21016.7,7929.5,69.5994,2.73771,6.1399e+10,1.00114,0.994153,2917,20.4663,7,0.001,3
app_59,2526.31,24424.1,7966.5,33.5,2.98073,3.09371e+10,1.00032,0.994153,2626,10.3124,8,0.001,3
app_6,1.98234,19584.4,7926,68.413,722.584,1.05913e+10,1.00799,0.994153,11,0.0146491,1766,0.1,1
app_60,590.826,22033.2,7994.5,0.566178,2.69492,3.33302e+08,1.00065,0.994153,3126,0.111101,7,0.001,3
app_7,3.56153,19565.6,7924.9,70.0894,720.539,2.19066e+10,1.00669,0.994153,11,0.0303836,1762,0.1,1
app_8,9.52432,19985,7912.9,81.5728,793.031,5.91454e+10,1.00351,0.994153,10,0.0745843,1974,0.1,1
app_9,1.83781,18719.1,7910.2,83.0697,877.808,7.52382e+09,1.01039,0.994153,9,0.00857904,2052,0.1,1
