app_id,start_app,end_app,effective_cpu,effective_io,effective_iter,total_bytes,stretch,utilization,Tcomp,Tio,iterations,priority,group_id
app_1,0.834369,19074.9,7922.5,72.0226,719.327,3.51155e+10,1.00533,0.994318,11,0.0488394,1713,0.1,1
app_10,0.0370247,19807.1,7898.4,93.5491,989.782,1.02171e+10,1.01155,0.994318,8,0.0103203,2449,0.1,1
app_11,7.90573,19186.5,7926.3,67.0057,722.654,3.34808e+09,1.00887,0.994318,11,0.00463081,1729,0.1,1
app_12,7.9341,19575.7,7916,77.8823,791.954,3.38206e+10,1.00631,0.994318,10,0.0427028,1934,0.1,1
app_13,6.49516,18197.7,7897.1,96.5404,987.758,2.8148e+10,1.00943,0.994318,8,0.0284899,2246,0.1,1
app_14,1.14188,19589.7,7921.4,73.0441,719.844,4.24235e+10,1.00454,0.994318,11,0.0589215,1763,0.1,1
app_15,5.70185,19608.8,7913.1,79.861,788.42,4.33252e+10,1.00548,0.994318,10,0.0549813,1939,0.1,1
app_16,47.5022,20250.1,7969.4,30.5919,100.481,2.15653e+10,1.00113,0.994318,79,0.213518,253,0.01,2
app_17,22.3139,20014.5,7979.8,18.6345,89.3943,1.20451e+10,1.00102,0.994318,90,0.133835,222,0.01,2
app_18,65.0017,20255.7,7981,17.7644,86.4137,1.256e+10,1.00081,0.994318,91,0.146047,220,0.01,2
app_19,30.0927,20048.4,7978.5,19.7876,98.3619,1.27894e+10,1.00109,0.994318,81,0.129185,246,0.01,2
app_2,11.1594,19441.2,7930.5,65.0078,658.062,2.52747e+10,1.00556,0.994318,12,0.0384114,1603,0.1,1
app_20,72.9607,20041.4,7964.5,33.2397,102.785,2.67557e+10,1.00109,0.994318,78,0.259764,255,0.01,2
app_21,32.6781,19956.2,7944.5,55.2061,78.3119,4.75902e+10,1.00099,0.994318,101,0.610131,196,0.01,2
app_22,4.58784,20000.7,7948.5,51.0379,67.9141,4.56712e+10,1.00073,0.994318,117,0.671635,170,0.01,2
app_23,52.7997,19945.2,7965.35,33.9543,74.5502,2.92311e+10,1.00068,0.994318,106,0.392359,187,0.01,2
app_24,23.1348,20112.3,7991.4,8.48143,79.6261,5.01186e+09,1.00045,0.994318,100,0.0626483,200,0.01,2
app_25,42.9366,19995.6,7962.2,36.9377,88.3367,3.0713e+10,1.00089,0.994318,89,0.34509,223,0.01,2
app_26,15.2626,19932.1,7978.5,20.3734,89.6137,1.59704e+10,1.00069,0.994318,90,0.177449,221,0.01,2
app_27,29.8508,19949,7962,37.6557,73.9911,3.17441e+10,1.00078,0.994318,108,0.428975,184,0.01,2
app_28,36.7776,19903.8,7942.4,56.3988,77.6477,4.92454e+10,1.00105,0.994318,104,0.639551,191,0.01,2
app_29,69.4482,20137.2,7964.5,34.4029,97.8034,2.76634e+10,1.00098,0.994318,81,0.282279,246,0.01,2
app_3,7.82246,19924.5,7918,76.4434,790.428,2.12825e+10,1.00765,0.994318,10,0.0269399,1970,0.1,1
app_30,56.2166,20141.3,7973,26.0341,86.6826,1.84334e+10,1.00107,0.994318,91,0.211878,220,0.01,2
app_31,367.82,20970,7977.4,19.5372,8.24547,1.7547e+10,1.00063,0.994318,970,2.19337,21,0.001,3
app_32,507.964,21685.8,7950.8,49.2,7.48419,4.40218e+10,1.00065,0.994318,1030,6.28882,20,0.001,3
app_33,684.433,21211.9,7982.1,12.701,7.88417,1.10838e+10,1.00085,0.994318,1018,1.38548,20,0.001,3
app_34,51.4611,20110.8,7958.6,41.4,9.50929,3.69754e+10,1.00055,0.994318,832,4.10837,24,0.001,3
app_35,206.637,20230.6,7975.7,24.3,7.14316,2.05708e+10,1.00047,0.994318,1110,2.93868,18,0.001,3
app_36,577.524,20738.9,7980.1,19.9,8.66164,1.7334e+10,1.00032,0.994318,914,2.16675,22,0.001,3
app_37,712.669,21711.2,7946.2,47.6263,7.19411,4.01098e+10,1.00171,0.994318,1084,5.72997,19,0.001,3
app_38,833.04,21822.7,7953.3,46.7,7.73183,3.91608e+10,1.00094,0.994318,1046,5.5944,20,0.001,3
app_39,268.257,20646.1,7996.7,3.3,8.20851,2.6216e+09,1.00008,0.994318,992,0.291289,21,0.001,3
app_4,8.84902,19687.3,7922.1,72.0287,720.917,3.15229e+10,1.00583,0.994318,11,0.043721,1774,0.1,1
app_40,309.998,20880.1,7964.6,35.4,7.78268,3.07146e+10,1.00059,0.994318,1031,3.83932,20,0.001,3
app_41,21.8819,21487.2,7959.9,40.1,7.61649,3.46665e+10,1.00068,0.994318,1042,4.33331,20,0.001,3
app_42,733.637,20769.1,7997.4,2.6,9.02536,1.22159e+09,1.00017,0.994318,876,0.135732,23,0.001,3
app_43,782.219,21526.7,7943.8,56.2,8.87608,5.02187e+10,1.00075,0.994318,897,5.57986,23,0.001,3
app_44,607.799,20624.5,7979.7,20.3,7.01348,1.80787e+10,1.00028,0.994318,1124,2.58267,18,0.001,3
app_45,708.423,20945.5,7956.9,43.1,8.27183,3.96434e+10,1.00043,0.994318,964,4.95542,21,0.001,3
app_46,1894.28,22691,7948.5,51.5,2.74674,3.81984e+10,1.00167,0.994318,3026,12.7328,7,0.000333333,3.47712
app_47,2178.15,22363.3,7941.2,38.7375,2.92791,3.45207e+10,1.00304,0.994318,2902,11.5069,7,0.000333333,3.47712
app_48,2209.3,21981.3,7953.8,46.2,2.4919,3.8201e+10,1.001,0.994318,3327,19.1005,6,0.000333333,3.47712
app_49,2440.18,25108.3,7982.3,17.7,2.85665,1.58416e+10,1.00023,0.994318,2804,5.28052,8,0.000333333,3.47712
app_5,8.81338,18786.3,7905.7,87.0534,877.151,3.51208e+10,1.00745,0.994318,9,0.040001,2061,0.1,1
app_50,1156.52,22995.9,7978.7,21.3,2.88314,1.83393e+10,1.00037,0.994318,2773,6.11309,8,0.000333333,3.47712
app_51,1027.01,23266.9,7967.1,32.9,3.21206,2.98869e+10,1.00038,0.994318,2444,9.96231,9,0.000333333,3.47712
app_52,1963.33,22351.7,7954.7,35.3946,2.72243,3.10155e+10,1.00179,0.994318,2908,10.3385,7,0.000333333,3.47712
app_53,311.49,23386.8,7986.3,13.7,2.54244,1.27314e+10,1.00012,0.994318,3196,4.24381,7,0.000333333,3.47712
app_54,2070.23,23899.5,7997,3,2.66879,2.75366e+09,1.00003,0.994318,3158,0.917887,7,0.000333333,3.47712
app_55,1523.63,23721.9,7988.4,11.6,2.8154,9.99602e+09,1.0002,0.994318,2800,3.33201,8,0.000333333,3.47712
app_56,85.428,20494.8,7959.7,40.3,2.2584,3.15481e+10,1.0011,0.994318,3458,15.774,6,0.000333333,3.47712
app_57,1562.52,22885.8,7959.7,40.3,2.23764,3.62464e+10,1.00051,0.994318,3371,18.1232,6,0.000333333,3.47712
app_58,1693.56,22500.6,7970.4,29.6,2.30693,2.70442e+10,1.00032,0.994318,3328,13.5221,6,0.000333333,3.47712
app_59,2021.67,22706.6,7963.8,36.2,2.30646,3.10375e+10,1.00065,0.994318,3365,15.5188,6,0.000333333,3.47712
app_6,9.65458,19892.3,7917.8,76.255,791.681,1.66374e+10,1.00826,0.994318,10,0.0210068,1970,0.1,1
app_60,1433.37,21725.5,7960.8,39.2,2.71941,3.05975e+10,1.00108,0.994318,2874,10.1992,7,0.000333333,3.47712
app_7,4.89224,19203.8,7909.5,84.7755,879.955,1.83291e+10,1.0091,0.994318,9,0.0208285,2112,0.1,1
app_8,10.0889,19802.7,7918.7,75.3527,792.468,1.40434e+10,1.00848,0.994318,10,0.0177315,1961,0.1,1
app_9,9.28025,19638.4,7914.3,80.4377,791.846,4.8313e+10,1.0047,0.994318,10,0.0610013,1940,0.1,1
