app_id,start_app,end_app,effective_cpu,effective_io,effective_iter,total_bytes,stretch,utilization,Tcomp,Tio,iterations,priority,group_id
app_1,1.13973,18873,7915.7,76.4551,794.999,2.33267e+10,1.00768,0.993916,10,0.0293417,1869,0.1,1
app_10,1.91481,19838.9,7916.1,76.794,791.64,2.34188e+10,1.00762,0.993916,10,0.0296066,1965,0.1,1
app_11,8.32902,19375.5,7893.6,97.9826,982.351,4.7977e+10,1.00736,0.993916,8,0.0488564,2386,0.1,1
app_12,8.05463,18633.1,7896.5,95.9423,986.901,2.91065e+10,1.00939,0.993916,8,0.0294899,2295,0.1,1
app_13,2.08816,19752.2,7919.9,74.3132,792.017,6.60859e+08,1.01003,0.993916,10,0.000834418,1956,0.1,1
app_14,6.36244,18587,7903.8,88.0967,880.459,4.46048e+10,1.00649,0.993916,9,0.0506873,2044,0.1,1
app_15,3.47681,20003,7894.6,96.5095,986.2,3.33273e+10,1.00909,0.993916,8,0.0338005,2472,0.1,1
app_16,26.725,20057.1,7944.6,53.5452,84.3881,4.55774e+10,1.00123,0.993916,94,0.542588,211,0.01,2
app_17,66.9497,20008,7973.9,24.9376,80.9243,2.00268e+10,1.00076,0.993916,99,0.247244,201,0.01,2
app_18,10.9468,20082.9,7956.9,42.0078,68.7728,3.55324e+10,1.00095,0.993916,115,0.514963,172,0.01,2
app_19,32.2239,20052.2,7982.5,15.9943,80.9219,8.78974e+09,1.00109,0.993916,99,0.108515,202,0.01,2
app_2,8.48447,18794.5,7895.2,97.192,983.793,4.03545e+10,1.00812,0.993916,8,0.0410107,2312,0.1,1
app_20,65.8752,20205.9,7957,42.3942,69.4072,3.53312e+10,1.00096,0.993916,114,0.504731,174,0.01,2
app_21,95.149,20040.7,7941.4,57.073,84.3042,4.82442e+10,1.0013,0.993916,94,0.574336,210,0.01,2
app_22,96.0431,20144.4,7966.1,33.1303,82.0356,2.55434e+10,1.00105,0.993916,96,0.311505,208,0.01,2
app_23,45.1737,20025.1,7980.8,17.896,74.3257,1.4053e+10,1.00064,0.993916,107,0.189905,187,0.01,2
app_24,63.1637,19990.9,7965,34.4825,84.3271,2.83026e+10,1.00084,0.993916,95,0.336936,210,0.01,2
app_25,55.5091,19961,7991.5,8.38712,80.0364,4.33686e+09,1.00052,0.993916,101,0.0542107,198,0.01,2
app_26,71.8769,19742.5,7975.3,23.2412,95.5476,1.87806e+10,1.00074,0.993916,84,0.195631,235,0.01,2
app_27,2.16604,19921.7,7979.8,19.3701,78.3051,1.57679e+10,1.00055,0.993916,102,0.199593,195,0.01,2
app_28,70.1883,20007.8,7981.8,16.6942,78.3507,1.26602e+10,1.00069,0.993916,102,0.162311,195,0.01,2
app_29,24.3129,20036.9,7990.3,8.96882,72.0602,7.09737e+09,1.00033,0.993916,110,0.0985745,181,0.01,2
app_3,10.2173,19423.4,7919.4,73.6191,790.397,7.00253e+09,1.00929,0.993916,10,0.00886397,1921,0.1,1
app_30,104.254,19914.8,7956.4,42.2944,74.9839,3.64669e+10,1.00089,0.993916,107,0.486225,185,0.01,2
app_31,730.9,21215.9,7995.3,2.76498,9.53421,2.12469e+09,1.00032,0.993916,859,0.236077,24,0.001,3
app_32,166.147,20621.8,7982.1,17.9,9.10366,1.53609e+10,1.00032,0.993916,904,1.70677,23,0.001,3
app_33,539.151,21035.3,7952.3,27.7629,7.84245,2.54778e+10,1.00279,0.993916,1005,3.18472,20,0.001,3
app_34,775.393,22106.8,7947.2,47.8441,7.92309,4.24459e+10,1.0013,0.993916,980,5.30573,21,0.001,3
app_35,474.072,20961.6,7955.9,44.1,7.86167,3.91473e+10,1.00062,0.993916,1009,4.89341,20,0.001,3
app_36,538.606,20674.9,7958.8,38.8405,8.88567,3.47137e+10,1.00081,0.993916,907,3.85708,22,0.001,3
app_37,464.119,21109.5,7952.9,43.9919,7.74093,4.00211e+10,1.00089,0.993916,1025,5.00264,20,0.001,3
app_38,640.306,20612.3,7949.3,48.9058,8.79731,4.40919e+10,1.00083,0.993916,906,4.8991,22,0.001,3
app_39,660.425,20641.9,7930.2,52.1422,9.17788,4.7434e+10,1.0028,0.993916,866,5.27045,23,0.001,3
app_4,9.60785,19805.4,7914.5,79.3624,792.86,3.98759e+10,1.00574,0.993916,10,0.0503483,1961,0.1,1
app_40,857.116,20681.3,7972.9,22.0638,7.95025,1.87424e+10,1.00105,0.993916,1059,2.34279,19,0.001,3
app_41,740.327,20678.9,7963.6,36.4,8.40608,3.09058e+10,1.00069,0.993916,951,3.86322,21,0.001,3
app_42,464.556,20935.7,7979.6,9.5253,8.03177,7.5886e+09,1.0016,0.993916,1015,0.948575,20,0.001,3
app_43,532.383,21023.3,7971.2,28.8,7.32967,2.49962e+10,1.00048,0.993916,1080,3.57089,19,0.001,3
app_44,598.685,20783.7,7971.1,28.9,7.77647,2.55096e+10,1.00042,0.993916,1025,3.1887,20,0.001,3
app_45,283.264,20928.6,7950.4,49.6,7.68937,4.58129e+10,1.00047,0.993916,1040,5.72661,20,0.001,3
app_46,1744.56,24224.5,7978.1,21.9,2.44109,1.70898e+10,1.0006,0.993916,3239,8.5449,7,0.0001,4
app_47,2527.6,22834,7950.9,49.1,2.74158,4.38687e+10,1.00065,0.993916,2853,14.6229,7,0.001,3
app_48,922.061,23127.9,7963.7,36.3,2.95365,3.23702e+10,1.00049,0.993916,2667,10.7901,8,0.001,3
app_49,2949.8,25408.1,7931.8,68.2,2.38782,3.01503e+10,1.00478,0.993916,3217,10.0501,7,0.0001,4
app_5,6.64091,19355.7,7906.2,86.5169,879.362,3.2592e+10,1.00771,0.993916,9,0.0370363,2131,0.1,1
app_50,2102.74,22027.6,7971.7,20.6395,2.7857,1.73786e+10,1.00137,0.993916,2885,5.79287,7,0.001,3
app_51,2335.55,24772.8,7973.4,26.6,2.44144,2.30411e+10,1.00045,0.993916,3250,11.5206,7,0.0001,4
app_52,715.075,22268.4,7937.3,58.7111,2.64485,5.38454e+10,1.00111,0.993916,3003,17.9485,7,0.001,3
app_53,949.386,22143.9,7946.8,53.2,2.66006,4.55364e+10,1.00096,0.993916,3081,15.1788,7,0.001,3
app_54,1788.59,24216.1,7975.4,24.6,2.95542,2.23117e+10,1.00029,0.993916,2803,7.43724,8,0.001,3
app_55,467.502,23295.6,7974.6,25.4,2.50899,1.83497e+10,1.00088,0.993916,3263,6.11657,7,0.0001,4
app_56,435.412,19579.4,7982.1,9.70166,3.38157,8.88879e+09,1.00113,0.993916,2534,2.96293,8,0.001,3
app_57,3085.3,25278.7,7959.4,40.6,2.65517,3.24471e+10,1.00102,0.993916,3204,10.8157,7,0.0001,4
app_58,109.06,23037.6,7986,14,2.86446,1.23626e+10,1.0002,0.993916,2831,6.18128,8,0.001,3
app_59,1919.95,21777.7,7981,19,2.71058,1.67633e+10,1.00028,0.993916,2902,5.58776,7,0.001,3
app_6,1.55004,18799.1,7895.2,96.3032,984.282,3.28416e+10,1.00908,0.993916,8,0.0333756,2317,0.1,1
app_60,1636.13,24167.2,7974.2,18.4454,2.79775,1.46539e+10,1.0014,0.993916,2810,4.88465,8,0.001,3
app_7,7.98712,19219,7905.2,87.5009,877.277,4.4832e+10,1.00629,0.993916,9,0.0511197,2110,0.1,1
app_8,6.63402,19877.5,7925.5,69.8395,718.603,2.37861e+10,1.00638,0.993916,11,0.0331283,1788,0.1,1
app_9,6.09399,18918.7,7915.6,77.3955,790.55,2.91091e+10,1.00696,0.993916,10,0.036847,1867,0.1,1
