app_id,start_app,end_app,effective_cpu,effective_io,effective_iter,total_bytes,stretch,utilization,Tcomp,Tio,iterations,priority,group_id
app_1,5.33094,20764,7541.4,74.6134,751.405,3.34763e+10,1.05612,0.98092,10,0.0445163,1970,1,1
app_10,5.9512,19344.1,7498.7,81.7892,831.539,3.6117e+10,1.06174,0.98092,9,0.0434621,2023,1,1
app_11,6.14457,19524.3,7561.7,68.5616,685.413,3.4153e+10,1.05321,0.98092,11,0.0498584,1683,1,1
app_12,7.96424,19494.5,7601.2,71.2925,693.282,3.93861e+10,1.04704,0.98092,11,0.0568342,1689,1,1
app_13,1.66282,19926.8,7511.9,91.7124,937.54,3.75837e+10,1.05968,0.98092,8,0.0400679,2343,1,1
app_14,3.86296,19705.7,7462.2,90.5557,931.656,3.56501e+10,1.06697,0.98092,8,0.0382512,2309,1,1
app_15,4.44351,19439.2,7521.7,65.7205,753.046,5.72925e+09,1.06278,0.98092,10,0.00760857,1844,1,1
app_16,10.4091,20055.5,7939.8,22.097,77.8039,1.57581e+10,1.00559,0.98092,102,0.20465,195,1,1
app_17,14.8137,20131.7,7964.3,7.00219,70.4513,3.55348e+09,1.00403,0.98092,113,0.0507639,177,1,1
app_18,32.8265,19966.9,7927.6,34.404,69.3432,2.93381e+10,1.00541,0.98092,116,0.419115,171,1,1
app_19,3.15465,20156.2,7926.5,40.1547,77.953,3.88219e+10,1.00435,0.98092,102,0.497716,195,1,1
app_2,4.04764,20393.7,7509.5,78.2768,833.064,2.67531e+10,1.06154,0.98092,9,0.0321166,2140,1,1
app_20,77.075,19963.5,7911.7,20.7108,98.4577,1.84482e+10,1.00881,0.98092,81,0.186346,244,1,1
app_21,68.0055,20124,7937.7,21.3746,72.3148,1.66725e+10,1.00574,0.98092,110,0.22839,181,1,1
app_22,49.1661,19975.7,7946.7,8.26701,73.0292,5.84093e+09,1.00597,0.98092,109,0.0800127,182,1,1
app_23,74.0435,20063.4,7945.6,14.696,76.2025,1.00812e+10,1.00557,0.98092,105,0.132647,190,1,1
app_24,58.6125,20168.7,7902.3,51.3192,84.0426,4.88055e+10,1.00615,0.98092,94,0.581018,212,1,1
app_25,30.076,20214.3,7887.9,53.2458,76.5952,4.86166e+10,1.008,0.98092,103,0.631384,193,1,1
app_26,88.4967,20269.9,7924.1,16.5378,83.3509,1.14687e+10,1.00812,0.98092,94,0.136532,212,1,1
app_27,80.6544,20215.2,7928.9,27.5476,96.1741,2.00046e+10,1.00643,0.98092,83,0.208381,241,1,1
app_28,80.0404,20261.3,7952.5,7.91057,87.4515,1.33976e+09,1.0058,0.98092,91,0.0153996,219,1,1
app_29,44.1347,20259.5,7899.3,38.5657,79.1625,3.23201e+10,1.00862,0.98092,100,0.409116,199,1,1
app_3,4.99659,19502.4,7514.2,82.0167,834.991,3.62704e+10,1.05954,0.98092,9,0.0434376,2049,1,1
app_30,0.269961,20057.3,7937,16.6293,82.3938,1.30777e+10,1.00628,0.98092,96,0.159485,207,1,1
app_31,67.2994,19500.7,7964.8,30.739,7.53749,3.05372e+10,1.00058,0.98092,1052,4.36246,19,1,1
app_32,167.658,20785.5,7968.1,21.7314,8.30952,2.13709e+10,1.00132,0.98092,988,2.37455,21,1,1
app_33,245.413,20916.1,7995.1,4.86685,8.36529,4.77543e+09,1.00002,0.98092,992,0.596929,21,1,1
app_34,839.898,20989.5,7951.8,31.206,7.69323,3.06767e+10,1.0022,0.98092,1073,3.83459,19,1,1
app_35,515.016,20660.4,7994.4,2.35274,7.90106,2.0015e+09,1.00045,0.98092,1078,0.250188,19,1,1
app_36,347.612,21172.4,7966.1,29.6561,8.79475,2.90883e+10,1.0006,0.98092,888,3.23204,23,1,1
app_37,356.938,20915.5,7955,45,10.1154,4.43763e+10,1.00008,0.98092,785,4.43763,26,1,1
app_38,383.379,21592.7,7967.9,31.8409,8.05637,3.13045e+10,1.0001,0.98092,983,3.91306,21,1,1
app_39,137.097,21511,7988.8,7.16504,7.90279,6.84461e+09,1.00054,0.98092,992,0.855577,21,1,1
app_4,4.64776,21067.8,7510,71.307,832.893,4.95751e+09,1.06454,0.98092,9,0.00595139,2215,1,1
app_40,613.654,20632.8,7955.9,44.1,8.84001,4.38393e+10,1.00003,0.98092,916,4.87104,22,1,1
app_41,461.99,21320.3,7977.2,19.462,7.69604,1.89754e+10,1.00048,0.98092,1045,2.71077,20,1,1
app_42,772.378,20928.1,7951.3,43.3438,8.27298,4.30975e+10,1.0007,0.98092,956,5.38719,21,1,1
app_43,215.959,20310.9,7969.6,29.5797,7.0788,2.93709e+10,1.00013,0.98092,1124,4.19584,18,1,1
app_44,432.532,21763.7,7967.2,27.92,9.16299,2.75619e+10,1.00066,0.98092,856,3.06243,24,1,1
app_45,419.388,20238.7,7963,35.9921,7.80155,3.53889e+10,1.0002,0.98092,1068,4.42361,19,1,1
app_46,212.332,21931.9,7949.3,50.7,2.51457,5.06224e+10,1.00001,0.98092,3014,16.8741,7,1,1
app_47,374.651,21460.9,7964.8,35.1287,2.2847,3.50304e+10,1.00002,0.98092,3502,17.5152,6,1,1
app_48,932.471,23520.6,7997.4,2.34112,2.4736,2.17298e+09,1.00005,0.98092,3294,0.724328,7,1,1
app_49,3331.51,23766.7,7988.9,11.1,2.31572,1.08315e+10,1.00003,0.98092,3466,3.61051,6,1,1
app_5,6.93532,20621.9,7490.4,80.2288,833.961,3.27391e+10,1.06339,0.98092,9,0.0392555,2163,1,1
app_50,798.724,22837.4,7989.8,10.2,2.90554,1.01866e+10,1,0.98092,2711,5.09329,8,1,1
app_51,2507.69,22550.3,7971,29,2.78388,2.88039e+10,1.00002,0.98092,2844,14.4019,7,1,1
app_52,2053.81,22021.4,7976.8,23.1349,2.82221,2.30699e+10,1.00002,0.98092,2905,7.68997,7,1,1
app_53,1810.52,23219.2,7980.3,15.0526,2.61721,1.49935e+10,1.00059,0.98092,3079,7.49674,7,1,1
app_54,1684.2,23435,7957.6,31.4463,2.97103,3.12526e+10,1.0014,0.98092,2728,10.4175,8,1,1
app_55,1387.89,24708.2,7950.8,44.7438,2.74593,4.45413e+10,1.00058,0.98092,2842,14.8471,8,1,1
app_56,50.1262,21805,7954.7,45.3,3.00343,4.50464e+10,1.00003,0.98092,2694,15.0155,8,1,1
app_57,1335.63,22394.1,7988.7,10.7885,2.99566,1.0642e+10,1.00008,0.98092,2597,3.54733,8,1,1
app_58,503.207,23232.9,7956.8,41.1727,3.21709,4.1057e+10,1.00027,0.98092,2474,13.6857,9,1,1
app_59,761.48,23079.4,7964.6,35.4,2.51177,3.52846e+10,1.00001,0.98092,3117,11.7615,7,1,1
app_6,6.86913,19761.9,7553.6,78.9096,755.62,4.9294e+10,1.05223,0.98092,10,0.0652037,1877,1,1
app_60,2111.34,24095,7982.8,17.1941,2.17739,1.71086e+10,1.00001,0.98092,3506,8.55431,6,1,1
app_7,1.03231,19254.2,7504.6,82.7641,831.119,4.18106e+10,1.06011,0.98092,9,0.0503136,2016,1,1
app_8,6.5209,20224,7510.1,86.0717,833.173,4.75523e+10,1.05853,0.98092,9,0.0570856,2121,1,1
app_9,6.09193,19661,7507.9,75.3374,835.771,1.58231e+10,1.0633,0.98092,9,0.0189272,2061,1,1
