app_id,start_app,end_app,effective_cpu,effective_io,effective_iter,total_bytes,stretch,utilization,Tcomp,Tio,iterations,priority,group_id
app_1,0.59756,26020.5,5208.08,36.8042,530.85,5.05717e+09,1.53458,0.840538,10,0.00954183,1874,1,1
app_10,8.7297,26233.1,5124.44,44.5964,568.377,8.81378e+09,1.55846,0.840538,9,0.0155172,2073,1,1
app_11,8.47146,25966.3,5104.19,39.1544,563.114,3.63979e+09,1.56622,0.840538,9,0.006465,2045,1,1
app_12,10.6428,25851.1,5171.96,146.62,506.797,1.18136e+11,1.51226,0.840538,10,0.233471,1819,1,1
app_13,4.94667,26537.8,5275.34,94.3586,509.698,6.55445e+10,1.49788,0.840538,10,0.128771,1924,1,1
app_14,2.65502,27710,4990.7,55.4381,607.715,2.1905e+10,1.59598,0.840538,8,0.0360873,2411,1,1
app_15,4.26582,25808.2,5107.26,74.3428,573.646,5.43692e+10,1.5499,0.840538,9,0.0948852,2024,1,1
app_16,8.38511,26883.3,5098.72,49.179,562.579,1.90046e+10,1.56319,0.840538,9,0.0338159,2133,1,1
app_17,2.52534,27483.6,4951.95,126.854,614.361,9.83762e+10,1.58406,0.840538,8,0.160222,2418,1,1
app_18,0.903326,26400.7,5085.91,108.741,560.389,7.95931e+10,1.54874,0.840538,9,0.142131,2075,1,1
app_19,3.26567,26015.4,5257.7,55.7685,526.818,2.99151e+10,1.51297,0.840538,10,0.0568728,1863,1,1
app_2,8.94461,26368.7,5152.64,62.3287,581.498,3.43244e+10,1.54233,0.840538,9,0.0590782,2076,1,1
app_20,9.02364,26929.1,5193.17,60.4455,540.237,3.63623e+10,1.52977,0.840538,10,0.0673375,1965,1,1
app_21,64.5649,21894,7213.7,136.882,79.3944,1.33416e+11,1.08886,0.840538,91,1.68882,215,1,1
app_22,76.0247,21642.2,7200.77,86.2392,73.7227,8.24201e+10,1.09842,0.840538,97,1.12904,203,1,1
app_23,78.6751,20447.6,7285.2,6.91236,77.2199,2.80062e+09,1.09769,0.840538,98,0.0363717,202,1,1
app_24,21.9352,20640.6,7111.2,166.367,68.669,1.62963e+11,1.09978,0.840538,107,2.36178,182,1,1
app_25,13.8566,22537.9,7122.6,125.122,77.5418,1.21453e+11,1.10435,0.840538,91,1.5571,214,1,1
app_26,88.6847,22290.6,7312,23.633,86.7018,1.91679e+10,1.09123,0.840538,90,0.222882,222,1,1
app_27,27.3035,22208.6,6990.77,109.155,80.759,1.04953e+11,1.12744,0.840538,88,1.31192,224,1,1
app_28,94.6886,21455.8,7223.53,187.538,67.2021,1.84541e+11,1.0799,0.840538,104,2.75435,187,1,1
app_29,18.6948,21363.1,7170.3,190.491,68.8161,1.86454e+11,1.08744,0.840538,114,2.70223,172,1,1
app_3,1.00477,27135.5,5153.62,139.166,521.004,1.05984e+11,1.52103,0.840538,10,0.203622,1950,1,1
app_30,17.196,22899.5,7507.6,7.6682,58.3703,4.64533e+09,1.06493,0.840538,116,0.080092,173,1,1
app_31,42.7132,22949.9,7272.4,143.154,65.9048,1.39179e+11,1.07939,0.840538,107,2.10877,183,1,1
app_32,5.64374,20862.2,7427.72,17.8603,77.5575,1.48235e+10,1.0749,0.840538,105,0.192512,189,1,1
app_33,68.8207,21902.2,7306.2,4.79016,75.885,1.85228e+08,1.09493,0.840538,99,0.00243721,201,1,1
app_34,89.7515,22997.8,7219,63.0946,70.6121,5.95944e+10,1.09911,0.840538,96,0.851348,206,1,1
app_35,41.1023,21420,7030.4,74.0988,85.6822,6.92224e+10,1.12682,0.840538,92,0.804911,215,1,1
app_36,107.68,21656,7278.2,188.963,70.0655,1.85323e+11,1.07188,0.840538,106,2.64746,184,1,1
app_37,5.60074,20859.6,7200.1,146.507,71.4456,1.42134e+11,1.08959,0.840538,104,2.00189,188,1,1
app_38,43.6667,21906.7,7196.7,162.529,81.3078,1.57667e+11,1.08779,0.840538,90,1.92277,216,1,1
app_39,88.005,22084.7,7171.4,167.09,65.8265,1.64187e+11,1.09057,0.840538,104,2.48769,187,1,1
app_4,6.39654,25766.8,5267.24,45.3553,513.151,1.69771e+10,1.51394,0.840538,10,0.0330938,1819,1,1
app_40,12.256,21826.1,7360.8,78.1689,67.2108,7.42797e+10,1.07598,0.840538,104,1.10865,190,1,1
app_41,57.9551,20929.5,7749.7,183.7,8.66131,1.83516e+11,1.00842,0.840538,787,20.3907,25,1,1
app_42,45.5911,19518.4,7890.3,55.0064,8.057,5.46142e+10,1.00693,0.840538,1067,6.82678,19,1,1
app_43,723.975,25359.2,7857.8,141.969,5.01694,1.41595e+11,1.00008,0.840538,1159,28.3191,17,1,1
app_44,468.278,24796,7756.5,157.053,6.4861,1.56722e+11,1.01097,0.840538,910,22.3889,22,1,1
app_45,692.604,19764.8,7812.4,125.487,11.0927,1.24988e+11,1.00789,0.840538,849,11.3626,24,1,1
app_46,793.34,23451.7,7875.5,31.5573,6.62357,3.12811e+10,1.01179,0.840538,922,5.21352,22,1,1
app_47,267.697,21392,7679.89,238.598,8.75302,2.3813e+11,1.01035,0.840538,991,27.9219,20,1,1
app_48,262.225,19260,7760.6,170.507,8.36588,1.70153e+11,1.00873,0.840538,1048,21.2691,19,1,1
app_49,872.899,21789.7,7904.1,55.8172,8.13652,5.54542e+10,1.00508,0.840538,1042,6.93178,20,1,1
app_5,2.38698,25758.9,5071.02,102.586,553.843,7.05227e+10,1.55595,0.840538,9,0.127528,1985,1,1
app_50,86.7175,23295.8,7803.8,119.706,9.20047,1.19321e+11,1.0097,0.840538,869,13.2579,23,1,1
app_51,888.547,22599.2,7830.7,64.2691,8.96758,6.40089e+10,1.01334,0.840538,897,7.1121,23,1,1
app_52,329.599,22772.8,7807,159.876,9.28435,1.59531e+11,1.0042,0.840538,842,17.7256,24,1,1
app_53,1099.66,20635.2,7858,87.3727,6.3504,8.70266e+10,1.00692,0.840538,1102,14.5044,18,1,1
app_54,724.921,19414.3,7848.2,108.175,8.03529,1.07932e+11,1.00551,0.840538,1060,13.4915,19,1,1
app_55,377.116,20569.5,7863.5,18.6841,6.79882,1.82871e+10,1.015,0.840538,1038,2.61244,20,1,1
app_56,837.423,20506,7678.6,220.665,7.84692,2.20089e+11,1.01283,0.840538,968,27.5112,21,1,1
app_57,286.657,19598.2,7710,227.418,9.84059,2.26861e+11,1.00796,0.840538,875,22.6861,23,1,1
app_58,259.886,20173.1,7740.5,201.374,6.83908,2.0104e+11,1.00736,0.840538,1010,28.72,20,1,1
app_59,424.771,20757.6,7913,34.0571,7.16318,3.36792e+10,1.00671,0.840538,1016,4.81131,20,1,1
app_6,7.43055,27165.6,5219.69,48.5412,533.116,1.95006e+10,1.52695,0.840538,10,0.0365866,1963,1,1
app_60,469.653,21120.3,7915.7,60.5101,6.10085,6.01984e+10,1.00302,0.840538,1067,10.0331,19,1,1
app_7,0.133013,25674,5093.83,127.346,562.041,1.06405e+11,1.53839,0.840538,9,0.189333,1982,1,1
app_8,5.27799,25838.7,4911.87,187.423,621.708,1.5624e+11,1.5785,0.840538,8,0.251594,2196,1,1
app_9,8.12287,25224.2,5162.38,141.771,516.18,1.10609e+11,1.51717,0.840538,10,0.214359,1802,1,1
