app_id,start_app,end_app,effective_cpu,effective_io,effective_iter,total_bytes,stretch,utilization,Tcomp,Tio,iterations,priority,group_id
app_1,6.06551,24569.2,5340.5,112.566,578.847,8.13199e+10,1.47552,0.852362,9,0.140449,1991,1,1
app_10,1.34596,24726.5,5258.7,174.363,595.243,1.43496e+11,1.48088,0.852362,9,0.241169,1994,1,1
app_11,10.5424,24418.8,5382.31,87.5506,541.709,5.53822e+10,1.47121,0.852362,10,0.10237,1802,1,1
app_12,2.66142,24570.1,5363.5,39.1062,602.622,2.31884e+09,1.49092,0.852362,9,0.00385189,2033,1,1
app_13,5.36444,24960.1,5366.3,72.428,600.919,4.76324e+10,1.47767,0.852362,9,0.0792552,2074,1,1
app_14,7.38877,25147.2,5238.8,47.9788,636.225,1.07963e+10,1.52393,0.852362,8,0.0169754,2316,1,1
app_15,0.488249,25624.3,5248.28,129.515,593.413,1.04324e+11,1.4946,0.852362,9,0.175926,2106,1,1
app_16,8.02314,25119.1,5135.95,145.894,647.084,1.20846e+11,1.52184,0.852362,8,0.186559,2263,1,1
app_17,7.74126,25951,5382,60.7868,541.463,3.60788e+10,1.47654,0.852362,10,0.0666891,1983,1,1
app_18,3.27446,25588.8,5318.9,118.618,595.658,8.75206e+10,1.47972,0.852362,9,0.147093,2091,1,1
app_19,2.42072,25597.7,5182.8,78.2944,653.778,4.94758e+10,1.52897,0.852362,8,0.075651,2325,1,1
app_2,1.99618,26102.8,5290.4,97.9584,590.427,6.21053e+10,1.49463,0.852362,9,0.105085,2175,1,1
app_20,8.51076,25198.4,5189.3,154.703,663.514,1.29539e+11,1.50409,0.852362,8,0.195384,2311,1,1
app_21,58.2823,20151.9,7195.9,132.749,99.8951,1.28687e+11,1.09221,0.852362,82,1.28687,240,1,1
app_22,36.9622,21244.1,7368.5,14.2071,74.534,9.66956e+09,1.08428,0.852362,102,0.128927,196,1,1
app_23,21.9938,21426.5,7270.7,171.486,71.8894,1.67799e+11,1.07549,0.852362,100,2.33055,194,1,1
app_24,65.165,20531.3,7294.3,186.876,73.9564,1.8392e+11,1.06977,0.852362,98,2.48541,198,1,1
app_25,78.0486,21118.2,7496.9,53.1267,61.604,4.98193e+10,1.06006,0.852362,115,0.803537,173,1,1
app_26,50.712,21352.3,7324.7,38.4716,99.1186,3.32119e+10,1.08726,0.852362,77,0.335474,257,1,1
app_27,98.7098,21277.9,7298.2,99.4913,67.6286,9.61128e+10,1.08191,0.852362,113,1.43452,175,1,1
app_28,62.1348,21952.5,7356.8,170.244,69.8887,1.67324e+11,1.06325,0.852362,98,2.39034,199,1,1
app_29,79.7532,21639.2,7342.4,174.223,75.7328,1.71597e+11,1.06468,0.852362,100,2.28796,195,1,1
app_3,9.11906,25475.8,5545.8,106.242,488.006,8.43409e+10,1.42092,0.852362,11,0.17283,1741,1,1
app_30,59.8536,21081.5,7151.1,137.053,94.9217,1.32451e+11,1.09837,0.852362,81,1.39422,243,1,1
app_31,100.042,20905.2,7391.6,32.4937,72.3125,2.89923e+10,1.07808,0.852362,111,0.397155,179,1,1
app_32,24.6953,20912.9,7268.3,56.9107,76.6492,5.35126e+10,1.09263,0.852362,98,0.694969,202,1,1
app_33,113.217,21111.5,7252.9,167.195,68.828,1.64094e+11,1.0786,0.852362,110,2.37818,177,1,1
app_34,68.6419,21528.7,7402.2,111.186,68.013,1.08347e+11,1.06517,0.852362,103,1.59334,190,1,1
app_35,9.4416,21701.3,7421.2,30.4686,61.3168,2.73613e+10,1.07403,0.852362,112,0.448546,178,1,1
app_36,80.8342,20966.2,7406.1,68.394,70.7598,6.45272e+10,1.07086,0.852362,104,0.908834,189,1,1
app_37,15.0676,20208.5,7201.2,158.194,81.7545,1.55092e+11,1.0875,0.852362,98,1.89137,200,1,1
app_38,36.9234,21545.9,7401.7,38.8796,68.1176,3.50776e+10,1.07573,0.852362,100,0.515848,198,1,1
app_39,60.0506,21144,7185,149.952,95.0947,1.44217e+11,1.09152,0.852362,82,1.51808,240,1,1
app_4,3.99085,24356.5,5322.9,136.116,607.677,1.12961e+11,1.47171,0.852362,9,0.185791,1987,1,1
app_40,82.5964,20965.3,7235.5,140.798,72.4275,1.37393e+11,1.08506,0.852362,96,1.88209,204,1,1
app_41,218.063,19143,7809.3,102.991,8.3471,1.02532e+11,1.01114,0.852362,899,12.8165,22,1,1
app_42,936.331,21928.8,7870.9,40.2883,8.48203,3.9695e+10,1.0113,0.852362,1025,4.41056,20,1,1
app_43,586.182,22006.4,7908.4,44.2912,8.7074,4.39374e+10,1.00599,0.852362,1017,4.88193,20,1,1
app_44,885.577,25447.1,7828.1,114.154,7.01375,1.13798e+11,1.00732,0.852362,1155,16.2568,18,1,1
app_45,875.19,23444.9,7768.9,102.854,6.35963,1.02594e+11,1.01633,0.852362,1030,17.099,20,1,1
app_46,1153.76,29696,7899.2,35.5367,5.327,3.54412e+10,1.00824,0.852362,1150,7.08823,18,1,1
app_47,891.439,21270.4,7687.8,143.842,8.67037,1.43382e+11,1.02156,0.852362,903,17.9227,22,1,1
app_48,773.365,19463.2,7736.6,98.083,9.68779,9.74239e+10,1.02119,0.852362,836,10.8249,24,1,1
app_49,353.985,16929.9,7838.7,122.355,11.7125,1.21735e+11,1.00497,0.852362,801,11.0668,25,1,1
app_5,0.684874,25301.7,5468.9,139.614,492.004,1.11424e+11,1.43361,0.852362,11,0.226471,1754,1,1
app_50,700.453,20312.7,7677.3,226.254,8.65783,2.25864e+11,1.01225,0.852362,1028,25.096,19,1,1
app_51,312.533,20205.9,7910.2,47.5951,8.92532,4.72219e+10,1.00535,0.852362,828,5.24688,24,1,1
app_52,217.935,16050.8,7935.3,6.60337,11.2452,6.02941e+09,1.00739,0.852362,910,0.548129,22,1,1
app_53,1096.16,24827.8,7958.2,16.8118,5.64384,1.64372e+10,1.00318,0.852362,1192,2.73953,17,1,1
app_54,886.119,20342.7,7698.8,236.523,8.80191,2.35965e+11,1.00822,0.852362,1049,26.2184,19,1,1
app_55,136.078,18839,7756.5,203.091,11.8425,2.0254e+11,1.00515,0.852362,878,16.8784,23,1,1
app_56,226.368,20254.7,7842.5,112.57,9.41572,1.12101e+11,1.00571,0.852362,906,12.4556,22,1,1
app_57,882.263,18495.9,7762.3,218.188,9.60732,2.17728e+11,1.0025,0.852362,874,21.7728,23,1,1
app_58,352.319,20181.6,7849,41.0519,7.94078,4.07151e+10,1.01398,0.852362,1032,5.08939,20,1,1
app_59,220.038,22236.3,7686.4,220.688,9.93079,2.2022e+11,1.01181,0.852362,908,22.022,22,1,1
app_6,8.93582,24961.8,5433.49,158.714,505.106,1.36462e+11,1.43628,0.852362,11,0.270223,1731,1,1
app_60,945.399,20197,7822.1,81.5518,8.05349,8.10486e+10,1.01225,0.852362,1109,10.1311,18,1,1
app_7,5.61156,24882.7,5453.5,34.6455,545.249,1.60584e+09,1.46652,0.852362,10,0.00294649,1880,1,1
app_8,3.76423,24302.2,5320.97,122.81,530.633,1.04362e+11,1.47456,0.852362,10,0.196909,1799,1,1
app_9,5.48578,25863,5378.7,115.661,560.584,8.84635e+10,1.46328,0.852362,10,0.157689,1943,1,1
