app_id,start_app,end_app,effective_cpu,effective_io,effective_iter,total_bytes,stretch,utilization,Tcomp,Tio,iterations,priority,group_id
app_1,3.87404,20165.2,7397.8,529.571,725.46,4.73943e+11,1.01629,0.896371,10,0.652814,1839,0.1,1
app_10,1.66353,20209.4,7364.7,574.68,79.4224,3.89753e+11,1.03167,0.896371,93,4.93358,204,0.01,2
app_11,495.61,24396.6,6252.6,1574.01,7.55233,7.93598e+11,1.13536,0.896371,931,113.371,20,0.001,3
app_12,320.466,22973.7,6277.2,1338.49,8.59034,7.15834e+11,1.144,0.896371,865,79.5371,22,0.001,3
app_13,146.301,19593.5,6634.3,852.643,9.21787,4.53612e+11,1.12868,0.896371,885,50.4013,22,0.001,3
app_14,893.089,22537.5,6877.1,688.638,6.60183,3.51674e+11,1.10669,0.896371,954,50.2391,20,0.001,3
app_15,357.832,21447,7294.6,137.982,7.653,5.73787e+10,1.08814,0.896371,875,8.19696,23,0.001,3
app_2,6.56282,18675.4,7554.2,362.521,839.604,3.16012e+11,1.01649,0.896371,9,0.376653,1951,0.1,1
app_3,9.49452,19692.2,7272.3,669.282,744.454,6.03293e+11,1.0158,0.896371,10,0.809789,1817,0.1,1
app_4,7.43001,19957.8,7538.2,369.091,749.67,3.03636e+11,1.02017,0.896371,10,0.404848,1886,0.1,1
app_5,2.26059,19864.1,7384.09,536.908,837.586,4.9536e+11,1.0153,0.896371,9,0.591581,2058,0.1,1
app_6,54.4359,20755.2,7367.02,579.235,87.7963,3.89906e+11,1.03134,0.896371,85,4.465,222,0.01,2
app_7,11.3065,21239.1,6911.4,1040.35,82.9488,7.03011e+11,1.05064,0.896371,74,8.47001,241,0.01,2
app_8,73.4533,20737.6,7681.9,192.403,69.8579,1.29772e+11,1.02411,0.896371,104,1.85389,188,0.01,2
app_9,25.1573,20165.8,7757.1,73.2942,84.4048,4.50098e+10,1.02536,0.896371,89,0.529527,223,0.01,2
