app_id,start_app,end_app,effective_cpu,effective_io,effective_iter,total_bytes,stretch,utilization,Tcomp,Tio,iterations,priority,group_id
app_1,3.2832,19870.1,7726.5,154.443,787.31,1.02695e+11,1.02182,0.899478,10,0.13049,1947,0.1,1
app_10,114.04,21456.9,7009,859.499,62.9953,5.8031e+11,1.05411,0.899478,110,9.21127,167,0.01,2
app_11,87.0431,22586.3,7051.6,508.402,9.24111,2.23186e+11,1.09969,0.899478,834,24.7985,24,0.001,3
app_12,490.699,21993.6,7091.9,475.138,7.68983,2.19721e+11,1.09415,0.899478,950,31.3887,21,0.001,3
app_13,314.582,25921.3,7322.6,676.047,7.21906,2.99027e+11,1.04964,0.899478,918,42.7182,21,0.001,3
app_14,435.787,24015.7,7553.7,315.878,7.53284,1.19875e+11,1.04254,0.899478,935,17.125,21,0.001,3
app_15,537.27,21228,6154.9,1829.57,7.62527,7.69034e+11,1.15541,0.899478,789,96.1292,23,0.001,3
app_2,9.15064,18387.2,7158.4,738.222,921.817,6.64235e+11,1.02267,0.899478,8,0.720429,2081,0.1,1
app_3,3.95276,19789.4,7796.6,69.8108,790.662,9.38605e+09,1.02485,0.899478,10,0.0118661,1947,0.1,1
app_4,1.79568,19961.6,7114.84,767.893,1033.91,6.79531e+11,1.02638,0.899478,7,0.657216,2578,0.1,1
app_5,9.75585,19874.1,7109.1,820.049,785.201,7.59076e+11,1.01675,0.899478,9,0.966976,1944,0.1,1
app_6,14.6802,20977.4,7054.8,812.118,78.1089,5.67941e+11,1.04949,0.899478,96,7.28129,193,0.01,2
app_7,94.0679,21227.8,7591.2,155.419,78.3469,9.73663e+10,1.04051,0.899478,98,1.23249,200,0.01,2
app_8,51.1967,20876,7168.09,695.082,70.4779,4.74755e+11,1.04673,0.899478,100,6.7738,188,0.01,2
app_9,18.5248,21304.9,7034.09,808.383,67.4167,5.62618e+11,1.05309,0.899478,98,8.29921,189,0.01,2
