execution_id,priority,max_stretch,mean_stretch,utilization,noise,noise_seed,x
0,Exclusive-FCFS,1.03845,1.01121,0.985776,0.7,1665488691,0.3333333333333333
0,FairShare,1.01109,1.00344,0.993207,0.7,1665488695,0.3333333333333333
0,Set-10,1.01148,1.00344,0.993197,0.7,1665488698,0.3333333333333333
1,Exclusive-FCFS,1.04899,1.01478,0.982435,0.7,1665488701,0.3333333333333333
1,FairShare,1.01212,1.00353,0.993114,0.7,1665488706,0.3333333333333333
1,Set-10,1.01211,1.00351,0.993125,0.7,1665488709,0.3333333333333333
2,Exclusive-FCFS,1.04084,1.01221,0.984819,0.7,1665488712,0.3333333333333333
2,FairShare,1.01062,1.0033,0.993259,0.7,1665488716,0.3333333333333333
2,Set-10,1.01066,1.00311,0.993526,0.7,1665488719,0.3333333333333333
3,Exclusive-FCFS,1.0444,1.01335,0.983728,0.7,1665488722,0.3333333333333333
3,FairShare,1.01182,1.00316,0.993473,0.7,1665488726,0.3333333333333333
3,Set-10,1.01216,1.00323,0.993267,0.7,1665488730,0.3333333333333333
4,Exclusive-FCFS,1.03783,1.01062,0.986304,0.7,1665488733,0.3333333333333333
4,FairShare,1.01233,1.00331,0.993334,0.7,1665488737,0.3333333333333333
4,Set-10,1.01231,1.00332,0.993299,0.7,1665488740,0.3333333333333333
5,Exclusive-FCFS,1.03669,1.01062,0.986233,0.7,1665488743,0.3333333333333333
5,FairShare,1.0113,1.003,0.993696,0.7,1665488747,0.3333333333333333
5,Set-10,1.01191,1.00311,0.993481,0.7,1665488750,0.3333333333333333
6,Exclusive-FCFS,1.04249,1.01214,0.984889,0.7,1665488753,0.3333333333333333
6,FairShare,1.01075,1.00332,0.993285,0.7,1665488757,0.3333333333333333
6,Set-10,1.01114,1.0035,0.99307,0.7,1665488760,0.3333333333333333
7,Exclusive-FCFS,1.03893,1.01094,0.985987,0.7,1665488763,0.3333333333333333
7,FairShare,1.01198,1.00332,0.993324,0.7,1665488767,0.3333333333333333
7,Set-10,1.01266,1.00323,0.993414,0.7,1665488771,0.3333333333333333
8,Exclusive-FCFS,1.04313,1.0124,0.984571,0.7,1665488774,0.3333333333333333
8,FairShare,1.01029,1.00316,0.993421,0.7,1665488778,0.3333333333333333
8,Set-10,1.01107,1.00322,0.99326,0.7,1665488781,0.3333333333333333
9,Exclusive-FCFS,1.04342,1.01249,0.984501,0.7,1665488784,0.3333333333333333
9,FairShare,1.01345,1.00349,0.993146,0.7,1665488788,0.3333333333333333
9,Set-10,1.01412,1.00349,0.993185,0.7,1665488791,0.3333333333333333
10,Exclusive-FCFS,1.03624,1.01086,0.98612,0.7,1665488794,0.3333333333333333
10,FairShare,1.00995,1.0032,0.993456,0.7,1665488798,0.3333333333333333
10,Set-10,1.01048,1.00337,0.993232,0.7,1665488801,0.3333333333333333
11,Exclusive-FCFS,1.04128,1.01073,0.986225,0.7,1665488805,0.3333333333333333
11,FairShare,1.0143,1.0033,0.993325,0.7,1665488809,0.3333333333333333
11,Set-10,1.01439,1.00337,0.993242,0.7,1665488812,0.3333333333333333
12,Exclusive-FCFS,1.04997,1.01385,0.983196,0.7,1665488815,0.3333333333333333
12,FairShare,1.0135,1.0032,0.993379,0.7,1665488819,0.3333333333333333
12,Set-10,1.01385,1.00327,0.99332,0.7,1665488822,0.3333333333333333
13,Exclusive-FCFS,1.04363,1.0125,0.984543,0.7,1665488825,0.3333333333333333
13,FairShare,1.01062,1.00316,0.993512,0.7,1665488830,0.3333333333333333
13,Set-10,1.01094,1.00324,0.993398,0.7,1665488833,0.3333333333333333
14,Exclusive-FCFS,1.03918,1.01106,0.98577,0.7,1665488836,0.3333333333333333
14,FairShare,1.01035,1.00312,0.993576,0.7,1665488840,0.3333333333333333
14,Set-10,1.01114,1.00313,0.993546,0.7,1665488843,0.3333333333333333
15,Exclusive-FCFS,1.03347,1.01021,0.986668,0.7,1665488846,0.3333333333333333
15,FairShare,1.0123,1.00338,0.993262,0.7,1665488850,0.3333333333333333
15,Set-10,1.0126,1.00335,0.993286,0.7,1665488853,0.3333333333333333
16,Exclusive-FCFS,1.03828,1.01042,0.986554,0.7,1665488856,0.3333333333333333
16,FairShare,1.01169,1.00323,0.993411,0.7,1665488860,0.3333333333333333
16,Set-10,1.01176,1.00329,0.993319,0.7,1665488863,0.3333333333333333
17,Exclusive-FCFS,1.03793,1.01065,0.986238,0.7,1665488866,0.3333333333333333
17,FairShare,1.01043,1.00346,0.993158,0.7,1665488870,0.3333333333333333
17,Set-10,1.01092,1.00329,0.993453,0.7,1665488874,0.3333333333333333
18,Exclusive-FCFS,1.04852,1.01451,0.982562,0.7,1665488877,0.3333333333333333
18,FairShare,1.01183,1.00334,0.993337,0.7,1665488881,0.3333333333333333
18,Set-10,1.01222,1.00335,0.993233,0.7,1665488884,0.3333333333333333
19,Exclusive-FCFS,1.04721,1.01363,0.983413,0.7,1665488887,0.3333333333333333
19,FairShare,1.01375,1.00344,0.993224,0.7,1665488891,0.3333333333333333
19,Set-10,1.0139,1.00345,0.993132,0.7,1665488895,0.3333333333333333
20,Exclusive-FCFS,1.03948,1.01223,0.984774,0.7,1665488898,0.3333333333333333
20,FairShare,1.00933,1.00322,0.993371,0.7,1665488902,0.3333333333333333
20,Set-10,1.01032,1.00326,0.993424,0.7,1665488905,0.3333333333333333
21,Exclusive-FCFS,1.04814,1.01332,0.983785,0.7,1665488908,0.3333333333333333
21,FairShare,1.0122,1.00335,0.993133,0.7,1665488912,0.3333333333333333
21,Set-10,1.0132,1.00337,0.993205,0.7,1665488915,0.3333333333333333
22,Exclusive-FCFS,1.04183,1.01161,0.98537,0.7,1665488918,0.3333333333333333
22,FairShare,1.01134,1.00316,0.993437,0.7,1665488923,0.3333333333333333
22,Set-10,1.01173,1.00317,0.993501,0.7,1665488926,0.3333333333333333
23,Exclusive-FCFS,1.03477,1.0094,0.987464,0.7,1665488929,0.3333333333333333
23,FairShare,1.01232,1.00317,0.993381,0.7,1665488932,0.3333333333333333
23,Set-10,1.01273,1.00306,0.993633,0.7,1665488936,0.3333333333333333
24,Exclusive-FCFS,1.03878,1.01178,0.985205,0.7,1665488939,0.3333333333333333
24,FairShare,1.00962,1.00316,0.993439,0.7,1665488943,0.3333333333333333
24,Set-10,1.00998,1.00303,0.993691,0.7,1665488946,0.3333333333333333
25,Exclusive-FCFS,1.04322,1.01211,0.984903,0.7,1665488949,0.3333333333333333
25,FairShare,1.01141,1.00308,0.993513,0.7,1665488953,0.3333333333333333
25,Set-10,1.01209,1.00311,0.993396,0.7,1665488956,0.3333333333333333
26,Exclusive-FCFS,1.0575,1.01632,0.981027,0.7,1665488959,0.3333333333333333
26,FairShare,1.01305,1.00364,0.993023,0.7,1665488964,0.3333333333333333
26,Set-10,1.01389,1.00374,0.993008,0.7,1665488967,0.3333333333333333
27,Exclusive-FCFS,1.04458,1.01318,0.983835,0.7,1665488970,0.3333333333333333
27,FairShare,1.01061,1.00336,0.993291,0.7,1665488974,0.3333333333333333
27,Set-10,1.01092,1.00339,0.993173,0.7,1665488977,0.3333333333333333
28,Exclusive-FCFS,1.03662,1.01075,0.986139,0.7,1665488981,0.3333333333333333
28,FairShare,1.0111,1.00325,0.993403,0.7,1665488984,0.3333333333333333
28,Set-10,1.01175,1.00323,0.993363,0.7,1665488988,0.3333333333333333
29,Exclusive-FCFS,1.03974,1.01074,0.986162,0.7,1665488991,0.3333333333333333
29,FairShare,1.01187,1.00311,0.993551,0.7,1665488995,0.3333333333333333
29,Set-10,1.01167,1.00309,0.993549,0.7,1665488998,0.3333333333333333
