app_id,start_app,end_app,effective_cpu,effective_io,effective_iter,total_bytes,stretch,utilization,Tcomp,Tio,iterations,priority,group_id
app_1,6.58026,19096.5,7645.8,71.3547,851.851,4.14419e+09,1.04576,0.982562,9,0.00486407,2022,1,1
app_10,0.202349,20280.4,7717.2,75.1288,721.985,4.22492e+10,1.031,0.982562,11,0.0585169,1795,1,1
app_11,8.56133,18538.6,7635,86.7233,953.883,2.20125e+10,1.04479,0.982562,8,0.0230739,2242,1,1
app_12,3.75996,19963.4,7666.9,75.3559,822.335,1.77226e+10,1.04104,0.982562,9,0.0215603,2125,1,1
app_13,8.35797,19137.2,7604.9,96.1769,940.049,5.22299e+10,1.04478,0.982562,8,0.0555637,2265,1,1
app_14,4.53951,20449.8,7665.3,72.6467,869.499,3.84299e+09,1.04314,0.982562,9,0.00441723,2166,1,1
app_15,3.62814,19161.3,7646.8,71.7694,842.128,6.30799e+09,1.04533,0.982562,9,0.00749167,2067,1,1
app_16,4.20163,19519.9,7670.9,87.6285,837.581,5.39135e+10,1.03562,0.982562,9,0.0644128,2085,1,1
app_17,5.64359,20098.7,7704.2,78.4013,782.376,3.69664e+10,1.03344,0.982562,10,0.0472112,1944,1,1
app_18,3.81493,19889.7,7676.7,63.3168,758.342,5.12911e+09,1.04142,0.982562,10,0.00675772,1917,1,1
app_19,6.77379,20498.9,7706.5,68.4354,778.953,7.32168e+09,1.0371,0.982562,10,0.00941089,1972,1,1
app_2,8.72367,19179,7665.8,86.4182,851.438,4.73358e+10,1.03719,0.982562,9,0.0555584,2028,1,1
app_20,7.21916,19270.1,7625.4,80.9774,955.703,4.43822e+09,1.04852,0.982562,8,0.00464249,2301,1,1
app_21,61.3201,20478.2,7975.5,13.0895,68.9395,8.25537e+09,1.00203,0.982562,112,0.119643,178,1,1
app_22,54.8769,20059.2,7943.7,31.8334,81.7168,2.58578e+10,1.00382,0.982562,97,0.315339,205,1,1
app_23,54.706,19398.5,7907.7,56.2707,91.9559,5.34119e+10,1.00488,0.982562,87,0.580565,226,1,1
app_24,39.8114,19847.4,7947.5,24.1071,84.2244,1.72464e+10,1.00443,0.982562,92,0.202899,216,1,1
app_25,19.0325,20165.2,7949.8,26.9088,66.5073,2.48545e+10,1.00318,0.982562,115,0.376583,174,1,1
app_26,27.3168,20646.2,7949.4,37.8591,94.7177,3.18169e+10,1.00235,0.982562,82,0.334915,242,1,1
app_27,83.0708,19802,7968.1,15.5865,76.031,1.23394e+10,1.00245,0.982562,105,0.162361,189,1,1
app_28,49.4884,19143.2,7936.1,46.7929,78.4532,4.25077e+10,1.00268,0.982562,105,0.54497,190,1,1
app_29,3.12059,20859.5,7940.2,25.1178,82.9378,2.09967e+10,1.00487,0.982562,94,0.252972,211,1,1
app_3,3.1651,20018.7,7689.6,83.5752,868,3.34895e+10,1.03585,0.982562,9,0.0385823,2148,1,1
app_30,75.3716,19317.6,7947.9,31.8725,76.5883,3.02913e+10,1.00273,0.982562,105,0.393394,189,1,1
app_31,77.7455,20878.6,7959.6,7.61466,79.6894,2.80066e+09,1.00472,0.982562,94,0.0354514,211,1,1
app_32,35.4777,19582.5,7948.7,24.0021,80.1855,1.99219e+10,1.00394,0.982562,104,0.249023,191,1,1
app_33,27.0701,19385.4,7964.6,10.6813,97.3128,7.56165e+09,1.00349,0.982562,83,0.0771597,240,1,1
app_34,13.3042,19912,7957.7,27.7295,71.8228,2.25159e+10,1.00248,0.982562,107,0.312721,186,1,1
app_35,28.1024,19741.3,7964.9,8.58668,86.3058,3.1094e+09,1.00401,0.982562,88,0.0357402,225,1,1
app_36,92.3134,19707.9,7952.3,22.934,79.1093,1.72486e+10,1.00382,0.982562,104,0.218336,192,1,1
app_37,28.343,18994.5,7920,37.9949,92.0316,3.51225e+10,1.00564,0.982562,91,0.381767,218,1,1
app_38,48.0474,20474.1,7955.6,32.7958,81.1095,2.92746e+10,1.00189,0.982562,97,0.361414,205,1,1
app_39,71.5885,19561,7946.5,19.8651,95.1985,1.63366e+10,1.00467,0.982562,84,0.170173,236,1,1
app_4,0.978881,18531.3,7645.5,87.7603,961.79,2.0228e+10,1.04361,0.982562,8,0.021027,2219,1,1
app_40,12.615,20430.2,7916.4,54.842,78.5104,5.09735e+10,1.0041,0.982562,100,0.653507,199,1,1
app_41,1014.87,20478.1,7975.4,24.3645,7.22778,2.40471e+10,1.00007,0.982562,1078,3.4353,19,1,1
app_42,25.5352,20455.3,7956.8,42.2507,9.44833,4.16199e+10,1.0002,0.982562,970,4.62444,21,1,1
app_43,581.776,18746.6,7972.1,27.1699,9.17139,2.69363e+10,1.00012,0.982562,1085,2.99292,19,1,1
app_44,788.253,21132,7947.8,46.0244,9.26435,4.58357e+10,1.0008,0.982562,924,4.58357,22,1,1
app_45,869.867,20407.5,7977.3,22.4496,8.7969,2.19841e+10,1.00009,0.982562,870,2.44268,23,1,1
app_46,653.482,17804.4,7939.4,50.0273,9.84331,4.97093e+10,1.00136,0.982562,881,4.97093,23,1,1
app_47,394.056,19344.3,7952.6,44.1108,8.77652,4.3748e+10,1.00046,0.982562,956,4.86089,21,1,1
app_48,623.181,23546.6,7975.4,19.349,7.97428,1.91259e+10,1.00068,0.982562,968,2.39074,21,1,1
app_49,79.868,21038.3,7946.5,50.712,12.57,4.98848e+10,1.00045,0.982562,745,3.8373,27,1,1
app_5,9.50336,19617.5,7739.8,60.5817,695.952,9.87504e+09,1.0323,0.982562,11,0.0141883,1719,1,1
app_50,803.069,23143.5,7998.1,1.81166,6.41869,1.53415e+09,1.00005,0.982562,965,0.255692,21,1,1
app_51,832.254,22148,7991.2,7.16984,8.13501,6.96935e+09,1.00023,0.982562,882,0.871168,23,1,1
app_52,498.331,17927.6,7988.9,7.22885,12.1026,7.03867e+09,1.00051,0.982562,911,0.586556,22,1,1
app_53,404.289,20178.9,7983.1,16.375,10.8451,1.54477e+10,1.00018,0.982562,889,1.40434,23,1,1
app_54,904.831,22386.6,7976.2,23.8,6.62483,2.34971e+10,1.00004,0.982562,955,3.35672,21,1,1
app_55,577.289,25055.9,7958.3,37.7082,6.01128,3.72248e+10,1.00056,0.982562,1195,6.20413,17,1,1
app_56,665.265,19906.5,7943.6,56.1356,8.0234,5.57145e+10,1.00009,0.982562,1035,6.96431,20,1,1
app_57,718.135,22193.5,7980.4,16.2428,6.98392,1.60821e+10,1.00044,0.982562,1052,2.29745,19,1,1
app_58,241.545,20617.9,7943.2,56.7145,7.90558,5.61715e+10,1.00008,0.982562,1050,7.02144,19,1,1
app_59,480.118,21136.1,7953.6,45.1197,10.7258,4.48389e+10,1.0002,0.982562,740,4.07627,27,1,1
app_6,8.56838,19485.3,7615.5,84.0787,854.495,4.04142e+10,1.04494,0.982562,9,0.0472681,2074,1,1
app_60,429.794,18992.9,7940.5,59.3935,8.81551,5.88812e+10,1.00008,0.982562,1101,6.54236,19,1,1
app_7,6.07304,19836.8,7683.9,81.2543,761.494,5.10939e+10,1.03426,0.982562,10,0.0670524,1887,1,1
app_8,1.56803,19305.8,7670.6,73.2966,764.534,2.642e+10,1.03936,0.982562,10,0.034536,1850,1,1
app_9,4.45597,19337.7,7700.9,81.6426,764.278,5.11465e+10,1.03199,0.982562,10,0.0669457,1865,1,1
