app_id,start_app,end_app,effective_cpu,effective_io,effective_iter,total_bytes,stretch,utilization,Tcomp,Tio,iterations,priority,group_id
app_1,0.0415765,18862.3,7913.1,86.9,727.935,4.89873e+10,1.00476,0.993381,11,0.0672902,1695,1,1
app_10,2.76519,18055.9,7898.5,101.5,1005.1,2.79475e+10,1.00928,0.993381,8,0.0278085,2247,1.00001,1.00001
app_11,6.97033,18703,7917.6,82.4,784.411,3.79682e+10,1.00558,0.993381,10,0.0483671,1838,1.00001,1.00001
app_12,4.33369,18798.4,7901.5,98.5,985.2,1.12989e+09,1.01232,0.993381,8,0.00114709,2328,1.00001,1.00001
app_13,6.3848,18651.2,7902,98,790.118,5.58617e+10,1.0053,0.993381,10,0.070711,1829,1.00001,1.00001
app_14,0.183592,19670.4,7906.4,93.6,781.168,4.8268e+10,1.0057,0.993381,10,0.0618028,1934,1.00001,1.00001
app_15,9.02542,19274.8,7898.3,101.7,870.951,4.72056e+10,1.00686,0.993381,9,0.0541971,2095,1.00002,1.00002
app_16,3.44808,19734.5,7909.5,90.5,785.526,4.00784e+10,1.00634,0.993381,10,0.0510553,1966,1.00002,1.00002
app_17,0.474658,19087.1,7921.6,78.4,780.413,2.05003e+10,1.00729,0.993381,10,0.0262824,1880,1.00002,1.00002
app_18,4.89261,19699.6,7901.5,98.5,984.53,1.61815e+10,1.0104,0.993381,8,0.0164279,2407,1.00002,1.00002
app_19,6.82065,19749.9,7920.9,79.1,790.474,3.00665e+09,1.0096,0.993381,10,0.00380107,1948,1.00002,1.00002
app_2,11.5514,19634.1,7929,71,663.364,3.0812e+10,1.00505,0.993381,12,0.0464036,1616,1,1
app_20,2.53361,19734.7,7892.8,107.2,1006.91,4.88512e+10,1.00735,0.993381,8,0.0485116,2474,1.00002,1.00002
app_21,7.50559,19462.7,7973.3,26.7,70.0809,1.65991e+10,1.00126,0.993381,114,0.237129,174,1.00002,1.00002
app_22,92.5349,20897.3,7961.8,38.2,79.1657,2.70358e+10,1.0014,0.993381,99,0.337948,202,1.00002,1.00002
app_23,37.0613,19675.1,7968,32,87.655,2.22664e+10,1.00122,0.993381,93,0.253028,214,1.00002,1.00002
app_24,57.9264,20023.2,7955.7,44.3,86.9561,3.38525e+10,1.00131,0.993381,94,0.389109,211,1.00002,1.00002
app_25,19.4387,20241.2,7938.1,61.9,73.6066,4.69549e+10,1.00187,0.993381,106,0.643217,187,1.00003,1.00003
app_26,7.6835,19956.1,7977.2,22.8,68.2921,1.41334e+10,1.00108,0.993381,111,0.204832,179,1.00003,1.00003
app_27,59.3393,19525.7,7941.8,58.2,97.2956,4.2796e+10,1.00193,0.993381,86,0.441196,230,1.00003,1.00003
app_28,16.7194,19891.6,7977.63,22.365,86.208,1.43234e+10,1.00101,0.993381,98,0.164968,204,1.00003,1.00003
app_29,78.1221,20050.9,7938.7,61.3,87.8433,4.53136e+10,1.002,0.993381,90,0.520845,221,1.00003,1.00003
app_3,10.5738,19059.4,7922.5,77.5,733.43,3.40343e+10,1.00546,0.993381,11,0.0464315,1739,1,1
app_30,60.771,19975.5,7959.4,40.6,84.6671,2.93251e+10,1.00141,0.993381,94,0.345002,211,1.00003,1.00003
app_31,15.7454,20431,7948.7,51.3,82.9469,3.71651e+10,1.00177,0.993381,98,0.453233,202,1.00003,1.00003
app_32,81.1156,20227.1,7991.1,8.9,74.9258,5.23188e+09,1.00046,0.993381,104,0.0697584,192,1.00003,1.00003
app_33,86.9869,20316.2,7992,8,79.3712,1.26976e+08,1.00099,0.993381,94,0.0015872,213,1.00003,1.00003
app_34,21.3951,19607.6,7966.8,33.2,78.4132,2.29169e+10,1.00129,0.993381,103,0.290088,194,1.00003,1.00003
app_35,24.4619,21504.8,7940.6,59.4,58.8583,4.43157e+10,1.00189,0.993381,123,0.751113,161,1.00004,1.00004
app_36,11.0189,18929.6,7932.7,67.3,86.81,4.75694e+10,1.00247,0.993381,98,0.546775,202,1.00004,1.00004
app_37,59.5298,20122.3,7979.3,20.7,90.4841,1.13976e+10,1.00116,0.993381,91,0.125248,219,1.00004,1.00004
app_38,48.0258,19291.1,7981.2,18.8,79.6486,1.3011e+10,1.00072,0.993381,104,0.162637,192,1.00004,1.00004
app_39,79.8838,19524.9,7934,66,82.5863,4.81578e+10,1.00224,0.993381,97,0.58729,203,1.00004,1.00004
app_4,7.53108,19915.7,7907.8,92.2,895.854,3.09124e+10,1.00772,0.993381,9,0.0345005,2214,1,1
app_40,86.2868,19977.5,7953.3,46.7,78.4129,3.36111e+10,1.00164,0.993381,96,0.425457,206,1.00004,1.00004
app_41,711.237,20104.6,7989.9,10.1,10.5186,7.54718e+09,1.00032,0.993381,868,0.754718,24,1.00004,1.00004
app_42,248.446,23354.6,7957.7,42.3,6.8885,2.87868e+10,1.00169,0.993381,1088,4.1124,19,1.00004,1.00004
app_43,800.568,19447.4,7998.4,1.6,7.64943,8.36386e+08,1.0001,0.993381,1052,0.104548,19,1.00004,1.00004
app_44,381.259,16145.8,7971.2,28.8,11.0995,2.48835e+10,1.00049,0.993381,959,2.07362,21,1.00004,1.00004
app_45,581.385,22421.8,7987.4,12.6,6.96263,9.89355e+09,1.00034,0.993381,986,1.41336,21,1.00004,1.00004
app_46,795.451,22457.7,7954.8,45.2,8.96288,3.8413e+10,1.00085,0.993381,896,4.26811,23,1.00005,1.00005
app_47,926.756,22036.4,7965.5,34.5,8.17157,2.73504e+10,1.00089,0.993381,1016,3.03894,20,1.00005,1.00005
app_48,620.723,22149.6,7961.1,38.9,9.23221,3.23344e+10,1.00082,0.993381,927,3.59271,22,1.00005,1.00005
app_49,916.876,21978.6,7974,26,7.79408,1.97586e+10,1.00078,0.993381,1125,2.46982,18,1.00005,1.00005
app_5,8.32586,18667.1,7911.3,88.7,887.447,2.16518e+10,1.00845,0.993381,9,0.0244101,2072,1.00001,1.00001
app_50,992.127,19281.6,7983.9,16.1,7.38105,1.25737e+10,1.00044,0.993381,1053,1.79625,19,1.00005,1.00005
app_51,107.488,24107.7,7966.9,33.1,6.2606,2.76056e+10,1.00069,0.993381,930,4.60093,22,1.00005,1.00005
app_52,87.1662,19535.9,7932.6,67.4,10.388,4.93368e+10,1.00226,0.993381,840,4.48516,24,1.00005,1.00005
app_53,72.9388,16719,7914.1,85.9,12.7667,6.79498e+10,1.00225,0.993381,871,5.22691,23,1.00005,1.00005
app_54,441.967,19178,7986.9,13.1,10.3334,1.01328e+10,1.00037,0.993381,841,0.921164,24,1.00005,1.00005
app_55,219.493,16227.5,7961.2,38.8,8.43058,3.13305e+10,1.00093,0.993381,1077,3.91631,19,1.00005,1.00005
app_56,287.871,18552.8,7994.2,5.8,7.58511,4.59531e+09,1.00015,0.993381,1087,0.656473,19,1.00006,1.00006
app_57,435.243,21065.3,7994.5,5.5,10.2748,3.74573e+09,1.00022,0.993381,788,0.340521,26,1.00006,1.00006
app_58,71.1935,18218.8,7975.8,24.2,10.4629,1.74112e+10,1.00085,0.993381,909,1.58284,22,1.00006,1.00006
app_59,949.432,20101.9,7947.9,52.1,7.90241,3.68957e+10,1.0019,0.993381,1058,4.61196,19,1.00006,1.00006
app_6,8.70854,19476,7925.1,74.9,738.002,2.28037e+10,1.00655,0.993381,11,0.0308993,1788,1.00001,1.00001
app_60,143.831,21239.7,7942.4,57.6,9.14796,4.19491e+10,1.00196,0.993381,910,4.66101,22,1.00006,1.00006
app_7,5.12248,19923.8,7917.1,82.9,782.691,3.58224e+10,1.00592,0.993381,10,0.0458087,1978,1.00001,1.00001
app_8,4.80544,19831.3,7926.9,73.1,698.709,2.70064e+10,1.0058,0.993381,11,0.0386357,1738,1.00001,1.00001
app_9,2.80463,20224.4,7927.6,72.4,720.352,1.51531e+10,1.00721,0.993381,11,0.021046,1811,1.00001,1.00001
