app_id,start_app,end_app,effective_cpu,effective_io,effective_iter,total_bytes,stretch,utilization,Tcomp,Tio,iterations,priority,group_id
app_1,5.24571,18777.4,7890,110,1100.8,6.9688e+09,1.01305,0.993023,7,0.00633527,2627,1,1
app_10,2.89346,18666.6,7912.8,87.2,870.444,1.7646e+10,1.00877,0.993023,9,0.0202595,2034,1.00001,1.00001
app_11,10.3884,19023.7,7915.1,84.9,714.714,4.72414e+10,1.00473,0.993023,11,0.0661644,1724,1.00001,1.00001
app_12,3.92209,19261.8,7911,89,889.812,1.57833e+10,1.00924,0.993023,9,0.017754,2119,1.00001,1.00001
app_13,10.2623,18351.4,7919.3,80.7,799.704,2.47657e+10,1.00704,0.993023,10,0.0309572,1825,1.00001,1.00001
app_14,5.53477,18210.7,7900,100,999.343,2.38281e+09,1.01235,0.993023,8,0.00238281,2261,1.00001,1.00001
app_15,3.41408,18001.9,7897.9,102.1,991.617,3.90072e+10,1.00795,0.993023,8,0.0393218,2229,1.00002,1.00002
app_16,10.0065,19211.6,7919.7,80.3,803.084,1.03938e+10,1.00882,0.993023,10,0.0129437,1920,1.00002,1.00002
app_17,1.56041,19525.7,7912.5,87.5,873.88,1.87854e+10,1.00866,0.993023,9,0.0214936,2152,1.00002,1.00002
app_18,7.46017,19030,7920.7,79.3,793.063,1.50421e+10,1.0081,0.993023,10,0.0189686,1924,1.00002,1.00002
app_19,3.40147,19787.6,7912.4,87.6,876.334,1.58908e+10,1.00904,0.993023,9,0.0181402,2169,1.00002,1.00002
app_2,1.46827,18864.9,7909.1,90.9,883.183,3.147e+10,1.00748,0.993023,9,0.0355995,2083,1,1
app_20,0.442071,18567.7,7926,74,723.298,2.72788e+10,1.00587,0.993023,11,0.03773,1667,1.00002,1.00002
app_21,8.58182,19331.7,7955.1,44.9,71.0872,3.65324e+10,1.00105,0.993023,112,0.514541,177,1.00002,1.00002
app_22,27.1267,19841.1,7983.1,16.9,74.5473,7.67265e+09,1.00115,0.993023,107,0.102302,187,1.00002,1.00002
app_23,20.8711,20857.6,7962.1,37.9,81.9901,2.73112e+10,1.00133,0.993023,87,0.333063,227,1.00002,1.00002
app_24,68.8021,20019.8,7980.4,19.6,80.1943,1.31698e+10,1.0008,0.993023,99,0.164623,202,1.00002,1.00002
app_25,38.4072,19047.8,7992.3,7.7,74.4542,2.58422e+09,1.00064,0.993023,111,0.034922,180,1.00003,1.00003
app_26,89.776,19919.1,7980,20,89.5801,1.11345e+10,1.00111,0.993023,91,0.125107,219,1.00003,1.00003
app_27,67.0631,19545.3,7986.3,13.7,91.4239,9.06503e+09,1.00058,0.993023,92,0.0985329,217,1.00003,1.00003
app_28,6.16818,18945,7956.4,43.6,96.5864,3.11437e+10,1.00156,0.993023,89,0.321069,223,1.00003,1.00003
app_29,47.1911,19069.2,7949.7,50.3,85.607,3.71183e+10,1.00165,0.993023,92,0.436685,215,1.00003,1.00003
app_3,3.47289,20322,7901.5,98.5,984.983,6.38604e+09,1.01165,0.993023,8,0.00648329,2487,1,1
app_30,79.5073,19358.6,7960.4,39.6,80.724,3.18929e+10,1.00096,0.993023,104,0.393739,191,1.00003,1.00003
app_31,81.3983,19623.9,7962.2,37.8,84.9812,2.6626e+10,1.0014,0.993023,93,0.316976,213,1.00003,1.00003
app_32,8.86059,20104.7,7975.1,24.9,71.2825,1.85647e+10,1.00079,0.993023,102,0.257843,195,1.00003,1.00003
app_33,85.299,20962.5,7974,26,92.8494,1.75646e+10,1.00106,0.993023,87,0.188867,229,1.00003,1.00003
app_34,86.8733,19288,7952.2,47.8,81.7411,3.46305e+10,1.00165,0.993023,103,0.422323,194,1.00003,1.00003
app_35,84.4057,20792,7981.9,18.1,79.552,1.34062e+10,1.00059,0.993023,95,0.169699,209,1.00004,1.00004
app_36,66.6503,19439.2,7944.2,55.8,71.1765,4.28162e+10,1.00163,0.993023,114,0.603045,174,1.00004,1.00004
app_37,93.8501,18799.6,7954.8,45.2,83.4815,3.24181e+10,1.0016,0.993023,102,0.39058,196,1.00004,1.00004
app_38,8.14791,19714,7968.3,31.7,81.9077,2.17143e+10,1.00125,0.993023,101,0.264809,197,1.00004,1.00004
app_39,72.3112,20000.7,7955.3,44.7,92.2278,3.13928e+10,1.00167,0.993023,85,0.341226,232,1.00004,1.00004
app_4,2.74297,18457.2,7885.8,114.2,1113.52,3.96559e+10,1.00941,0.993023,7,0.0356298,2574,1,1
app_40,0.311257,19655.6,7966.6,33.4,86.1409,2.37205e+10,1.00121,0.993023,92,0.27265,216,1.00004,1.00004
app_41,510.679,23462.8,7999.3,0.7,6.70683,4.57398e+08,1.00003,0.993023,965,0.076233,21,1.00004,1.00004
app_42,962.358,19717.7,7947.9,52.1,8.17884,4.68042e+10,1.00066,0.993023,1009,5.85052,20,1.00004,1.00004
app_43,810.03,19706.1,7929.2,70.8,7.57162,5.66552e+10,1.00177,0.993023,1117,7.0819,18,1.00004,1.00004
app_44,812.696,23522.6,7959.3,40.7,6.66422,3.54555e+10,1.00066,0.993023,1121,5.90925,18,1.00004,1.00004
app_45,7.21799,21100.9,7958,42,8.04075,3.16897e+10,1.00129,0.993023,1008,3.96121,20,1.00004,1.00004
app_46,880.271,18584.5,7961.4,38.6,6.49347,3.35049e+10,1.00064,0.993023,1133,5.58415,18,1.00005,1.00005
app_47,395.562,22662.3,7941.4,58.6,7.37613,4.47598e+10,1.00173,0.993023,922,5.59497,22,1.00005,1.00005
app_48,647.473,19789.6,7971.8,28.2,8.32622,2.44888e+10,1.00046,0.993023,1006,3.0611,20,1.00005,1.00005
app_49,561.043,23537.8,7953.1,46.9,7.20085,3.59439e+10,1.00137,0.993023,993,5.13485,21,1.00005,1.00005
app_5,4.24111,19455.3,7924,76,712.962,3.46512e+10,1.0052,0.993023,11,0.0485991,1758,1.00001,1.00001
app_50,667.228,25129,7954.9,45.1,5.63667,3.47473e+10,1.0013,0.993023,1008,5.79122,20,1.00005,1.00005
app_51,383.695,18822.4,7926.9,73.1,12.0021,5.37857e+10,1.00242,0.993023,783,4.48214,26,1.00005,1.00005
app_52,850.374,22501.8,7953.3,46.7,7.45602,3.6582e+10,1.00127,0.993023,935,5.226,22,1.00005,1.00005
app_53,936.444,21699.9,7933.1,66.9,8.33661,5.36446e+10,1.00166,0.993023,968,5.96051,21,1.00005,1.00005
app_54,780.783,22739.4,7983.9,16.1,5.90352,1.35406e+10,1.00032,0.993023,1015,2.25677,20,1.00005,1.00005
app_55,160.381,21723.6,7947.5,52.5,7.95877,4.04482e+10,1.00151,0.993023,1096,5.05603,19,1.00005,1.00005
app_56,570.664,22616.4,7950,50,7.55021,4.44594e+10,1.00069,0.993023,980,6.35134,21,1.00006,1.00006
app_57,529.133,22913.6,7942.1,57.9,8.03818,4.28843e+10,1.00188,0.993023,1006,5.36053,20,1.00006,1.00006
app_58,236.247,19629.7,7978.7,21.3,8.63131,1.83454e+10,1.00037,0.993023,951,2.03838,21,1.00006,1.00006
app_59,907.679,19722,7946.1,53.9,9.24409,4.3376e+10,1.00132,0.993023,932,4.3376,22,1.00006,1.00006
app_6,1.89509,18977.7,7897.8,102.2,982.8,4.35135e+10,1.00739,0.993023,8,0.044266,2342,1.00001,1.00001
app_60,337.447,20397.6,7972.7,27.3,10.1596,1.92231e+10,1.00101,0.993023,982,1.74755,21,1.00006,1.00006
app_7,7.54239,19811.5,7921.5,78.5,784.97,1.21025e+10,1.00837,0.993023,10,0.0154172,1951,1.00001,1.00001
app_8,3.99107,18760.9,7900,100,1000.04,1.52472e+10,1.01071,0.993023,8,0.0152472,2316,1.00001,1.00001
app_9,1.63037,18985.6,7923,77,770.055,9.027e+09,1.00857,0.993023,10,0.0117234,1880,1.00001,1.00001
