app_id,start_app,end_app,effective_cpu,effective_io,effective_iter,total_bytes,stretch,utilization,Tcomp,Tio,iterations,priority,group_id
app_1,6.58479,18295.5,7907.9,82.0448,864.656,2.01602e+10,1.00907,0.993526,9,0.0233066,2005,0.1,1
app_10,0.420708,19154.5,7917.8,74.7087,785.458,1.66051e+10,1.00827,0.993526,10,0.021153,1922,0.1,1
app_11,9.54113,19464.3,7922.2,69.1194,725.911,1.81809e+10,1.00751,0.993526,11,0.0250426,1765,0.1,1
app_12,2.42662,18711.5,7915.6,76.5992,787.79,2.91999e+10,1.00695,0.993526,10,0.0370557,1850,0.1,1
app_13,9.77316,19827.7,7918.2,72.8416,791.468,8.21609e+09,1.00928,0.993526,10,0.010387,1973,0.1,1
app_14,2.73187,19817.7,7907.9,83.5209,809.546,5.37e+10,1.00482,0.993526,10,0.0662963,1972,0.1,1
app_15,2.96722,18533.7,7911.5,79.3892,776.645,4.84304e+10,1.00503,0.993526,10,0.0624103,1829,0.1,1
app_16,5.69138,19438.9,7922.6,69.0999,722.549,2.21915e+10,1.00695,0.993526,11,0.0306936,1751,0.1,1
app_17,4.21366,19191.1,7906.1,85.369,887.157,2.39557e+10,1.00882,0.993526,9,0.0270076,2144,0.1,1
app_18,5.39924,20052.6,7915.9,74.883,785.827,1.88005e+10,1.00823,0.993526,10,0.0239192,1973,0.1,1
app_19,0.53614,18984.1,7909.4,80.5928,875.301,7.65146e+09,1.01048,0.993526,9,0.00874453,2107,0.1,1
app_2,11.0952,18706.1,7919.7,72.2135,717.674,3.71902e+10,1.00542,0.993526,11,0.0517969,1672,0.1,1
app_20,9.83947,18534.1,7911.3,78.8395,795.278,3.50755e+10,1.00675,0.993526,10,0.0441201,1842,0.1,1
app_21,79.2078,20182.2,7980.8,18.2615,73.7151,1.42937e+10,1.00061,0.993526,106,0.193158,188,0.01,2
app_22,41.8504,19531.3,7977.3,22.0458,67.8441,1.84824e+10,1.00053,0.993526,119,0.271799,168,0.01,2
app_23,17.558,19319.7,7987,11.2598,95.2827,8.12744e+09,1.00061,0.993526,93,0.0846608,213,0.01,2
app_24,66.9794,20138.4,7956,43.1094,67.7813,3.6307e+10,1.00096,0.993526,114,0.533926,174,0.01,2
app_25,35.1097,20930.8,7962.3,37.3226,83.6588,3.12958e+10,1.0008,0.993526,92,0.372568,216,0.01,2
app_26,0.265429,20191.2,7965,31.7761,78.9577,2.45152e+10,1.00131,0.993526,101,0.310319,198,0.01,2
app_27,85.2195,21495.1,7946.5,52.8557,78.4499,4.56163e+10,1.00099,0.993526,101,0.577422,196,0.01,2
app_28,79.339,19403.5,7957.5,39.9257,95.2469,3.29443e+10,1.0012,0.993526,86,0.346782,230,0.01,2
app_29,39.5816,18761.1,7976.8,21.986,98.6874,1.74594e+10,1.00072,0.993526,88,0.176357,225,0.01,2
app_3,1.515,19709.1,7919.8,71.4629,774.491,7.71629e+09,1.00914,0.993526,10,0.0099565,1943,0.1,1
app_30,0.014247,19002.3,7950.7,47.9777,94.6822,3.88858e+10,1.0013,0.993526,85,0.409324,232,0.01,2
app_31,31.4296,20089,7947,52.7231,79.0715,4.54259e+10,1.00095,0.993526,96,0.575011,206,0.01,2
app_32,3.35014,19711.8,7988.2,9.85636,94.2018,6.09644e+09,1.00071,0.993526,89,0.064173,225,0.01,2
app_33,79.7749,20774.4,7982.6,16.1936,77.5102,1.14294e+10,1.00075,0.993526,98,0.146531,203,0.01,2
app_34,56.144,19931.7,7944,55.7021,67.5116,4.76048e+10,1.00105,0.993526,114,0.710519,174,0.01,2
app_35,88.8088,20101.3,7982.2,17.4755,72.4197,1.43732e+10,1.00043,0.993526,110,0.199628,182,0.01,2
app_36,5.88284,19093.6,7936,62.3441,82.8673,5.43613e+10,1.00121,0.993526,103,0.654955,192,0.01,2
app_37,93.2702,20384.2,7973.4,23.1418,76.1869,1.70563e+10,1.00119,0.993526,102,0.224425,195,0.01,2
app_38,83.6627,20415,7989.6,8.67837,88.1829,1.46248e+09,1.00112,0.993526,86,0.0166191,231,0.01,2
app_39,6.36134,19534.5,7962.6,36.2447,72.1546,2.89908e+10,1.00105,0.993526,112,0.402651,178,0.01,2
app_4,8.73583,18684.4,7911.1,80.4841,872.42,4.52847e+09,1.01066,0.993526,9,0.0051932,2055,0.1,1
app_40,78.452,20073.8,7981.4,16.173,80.8591,1.01527e+10,1.00106,0.993526,95,0.125343,210,0.01,2
app_41,463.235,16937.4,7993.9,6.1,7.0491,4.85124e+09,1.00016,0.993526,1078,0.693035,19,0.001,3
app_42,774.6,22954.5,7988.3,11.7,6.92623,1.04251e+10,1.00016,0.993526,1113,1.48929,18,0.001,3
app_43,205.159,20616.1,7942.7,57.3,8.36395,5.07566e+10,1.00082,0.993526,998,6.34458,20,0.001,3
app_44,919.97,19844.9,7951.9,45.6907,7.92362,4.10053e+10,1.00089,0.993526,1047,5.12566,20,0.001,3
app_45,95.0813,17848.4,7939.2,60.8,8.94572,5.14454e+10,1.00117,0.993526,1002,5.71616,20,0.001,3
app_46,346.622,18482.5,7958.2,41.8,8.80099,3.5951e+10,1.00073,0.993526,891,4.49388,23,0.001,3
app_47,281.847,23872.5,7979.6,20.4,7.14334,1.85336e+10,1.00023,0.993526,1025,2.64765,20,0.001,3
app_48,180.035,20200.1,7990.6,5.8411,11.6905,4.48099e+09,1.00062,0.993526,780,0.407363,26,0.001,3
app_49,489.236,19292.4,7959.3,37.0392,8.048,3.36428e+10,1.00088,0.993526,887,4.20535,23,0.001,3
app_5,6.25251,18445.2,7907.7,82.843,863.491,2.27375e+10,1.00877,0.993526,9,0.0263166,2012,0.1,1
app_50,1019.8,22480.1,7978.8,19.5064,6.3405,1.73385e+10,1.00048,0.993526,1056,2.47693,19,0.001,3
app_51,110.357,18581.9,7971.6,28.4,8.83367,2.5006e+10,1.00042,0.993526,1014,2.77845,20,0.001,3
app_52,880.78,23681.1,7978.8,21.2,8.6277,1.87389e+10,1.00031,0.993526,932,2.0821,22,0.001,3
app_53,684.787,20446.7,7944.3,55.7,9.09242,4.83331e+10,1.00092,0.993526,989,5.37035,21,0.001,3
app_54,365.7,20281,7985.1,12.6584,7.74813,1.0268e+10,1.00058,0.993526,869,1.46686,23,0.001,3
app_55,432.132,19911.3,7976.7,23.3,7.81717,2.07758e+10,1.00032,0.993526,955,2.59697,21,0.001,3
app_56,803.846,18819.5,7946.9,48.4536,10.8987,4.04337e+10,1.00159,0.993526,834,4.04337,24,0.001,3
app_57,135.519,21072.5,7946.2,50.7402,9.54949,4.42379e+10,1.0012,0.993526,813,4.42379,25,0.001,3
app_58,406.926,19748.2,7940.8,59.2,8.20175,5.28426e+10,1.0008,0.993526,1028,6.60532,20,0.001,3
app_59,732.234,25377.7,7956,41.1661,5.97931,3.6173e+10,1.00098,0.993526,1087,6.02884,19,0.001,3
app_6,3.34823,18558.1,7901.7,89.0988,882.732,4.51503e+10,1.00669,0.993526,9,0.0511329,2038,0.1,1
app_60,43.5702,22958.9,7964.3,35.7,6.7156,2.99199e+10,1.00072,0.993526,1018,4.27427,20,0.001,3
app_7,4.60209,18090.2,7901.5,88.1311,893.049,3.55959e+10,1.00793,0.993526,9,0.039861,1995,0.1,1
app_8,4.73648,19894,7913.6,76.7187,803.877,2.09565e+10,1.00825,0.993526,10,0.0260653,1979,0.1,1
app_9,6.28823,19854.2,7910.7,81.2168,797.829,4.77682e+10,1.00522,0.993526,10,0.0598599,1952,0.1,1
