app_id,start_app,end_app,effective_cpu,effective_io,effective_iter,total_bytes,stretch,utilization,Tcomp,Tio,iterations,priority,group_id
app_1,6.3441,20209.1,7764.3,76.8229,858.106,1.29799e+10,1.02864,0.985987,9,0.0151281,2165,1,1
app_10,6.46274,19046.1,7725.2,78.0406,867.079,1.4383e+10,1.03365,0.985987,9,0.0165894,2077,1,1
app_11,3.73829,20263.6,7790.5,61.2087,703.398,1.04084e+10,1.02552,0.985987,11,0.0148057,1784,1,1
app_12,5.83572,19745.1,7720.8,81.0675,880.748,2.18774e+10,1.03323,0.985987,9,0.0248325,2135,1,1
app_13,2.48852,20036.7,7699.3,71.1793,860.008,9.03804e+08,1.03893,0.985987,9,0.00105094,2145,1,1
app_14,3.9999,19382.3,7715,82.0661,973.517,3.09314e+09,1.03653,0.985987,8,0.00317897,2336,1,1
app_15,2.33888,19097.6,7708.2,86.17,866.2,3.93341e+10,1.03259,0.985987,9,0.0454204,2072,1,1
app_16,0.471615,19646.4,7739.8,76.2929,845.679,1.85373e+10,1.03115,0.985987,9,0.0219117,2123,1,1
app_17,6.54743,19780.8,7753.7,81.2492,760.569,5.56305e+10,1.02442,0.985987,10,0.073198,1916,1,1
app_18,1.60479,18814.3,7736.4,76.5936,861.455,1.68882e+10,1.03182,0.985987,9,0.0196146,2053,1,1
app_19,6.74558,19534.7,7753,75.8495,775.58,3.38973e+10,1.02737,0.985987,10,0.0437385,1899,1,1
app_2,5.14626,19415.6,7735.3,79.8876,789.883,4.25535e+10,1.02856,0.985987,10,0.0538652,1909,1,1
app_20,10.4525,18923.6,7772.7,73.434,695.55,4.74883e+10,1.02299,0.985987,11,0.0683286,1676,1,1
app_21,33.522,19576.5,7917.6,61.0851,76.1859,5.74326e+10,1.00313,0.985987,106,0.755692,186,1,1
app_22,30.7971,20528.3,7936.4,55.1707,78.3263,5.23804e+10,1.0014,0.985987,92,0.671543,215,1,1
app_23,89.3955,20190.1,7983.5,6.80428,73.6695,2.26389e+09,1.00178,0.985987,109,0.030593,183,1,1
app_24,27.5065,19711.8,7949.1,26.8388,91.4337,2.10029e+10,1.00375,0.985987,89,0.230801,224,1,1
app_25,61.7323,20127,7981.2,7.59173,78.4294,3.07235e+09,1.00197,0.985987,104,0.038898,193,1,1
app_26,31.8912,20645.2,7959,24.737,80.6279,2.13637e+10,1.00246,0.985987,97,0.263749,206,1,1
app_27,32.9882,19598,7963.8,16.2599,77.3483,1.37938e+10,1.00281,0.985987,107,0.17914,185,1,1
app_28,6.07627,20155.8,7922.6,57.9854,70.6408,5.56092e+10,1.00273,0.985987,108,0.783229,183,1,1
app_29,26.6121,20584.6,7962.9,20.8646,72.8736,1.46127e+10,1.00282,0.985987,112,0.200173,178,1,1
app_3,9.20059,20112.3,7722.8,75.1977,840.949,1.47724e+10,1.03392,0.985987,9,0.0175653,2127,1,1
app_30,23.8713,20156.8,7938,48.0389,78.9282,4.64742e+10,1.00194,0.985987,99,0.588281,199,1,1
app_31,31.6056,20044.2,7936.8,55.3468,79.5763,5.18714e+10,1.00142,0.985987,95,0.6566,209,1,1
app_32,94.8808,20399.7,7970.5,9.64458,86.0262,8.10039e+09,1.00268,0.985987,95,0.0941906,211,1,1
app_33,7.39962,20296.9,7963.5,7.71194,77.4696,4.0143e+09,1.00408,0.985987,103,0.0514654,195,1,1
app_34,80.6592,20515.4,7940.7,51.6715,63.7447,4.98728e+10,1.00118,0.985987,117,0.791631,170,1,1
app_35,55.822,20037.1,7971.5,8.3927,76.5163,6.57363e+09,1.00275,0.985987,100,0.0864951,200,1,1
app_36,66.765,20483.5,7926.9,59.2958,85.4113,5.40446e+10,1.00239,0.985987,89,0.635819,223,1,1
app_37,68.224,20351.2,7955.9,29.954,78.63,2.38143e+10,1.00254,0.985987,103,0.305311,194,1,1
app_38,57.3128,19455.3,7953.2,38.3416,78.4872,3.35395e+10,1.00166,0.985987,109,0.429994,182,1,1
app_39,32.9769,20256.9,7945,39.6263,100.737,3.26649e+10,1.0028,0.985987,77,0.323415,258,1,1
app_4,1.93884,20310.5,7722.5,79.7808,857.101,2.51666e+10,1.03257,0.985987,9,0.0293317,2204,1,1
app_40,41.37,19801.7,7956.3,19.1869,93.306,1.51861e+10,1.00358,0.985987,85,0.163291,233,1,1
app_41,224.841,21607.4,7959,31.9799,7.94048,3.16814e+10,1.00117,0.985987,892,3.96018,23,1,1
app_42,345.223,23524.6,7960.2,34.3739,7.34567,3.39528e+10,1.00073,0.985987,913,4.2441,22,1,1
app_43,719.067,20175.8,7977,21.046,6.81319,2.06775e+10,1.00029,0.985987,1028,2.95393,20,1,1
app_44,922.567,22827.5,7977.5,21.5878,7.4931,2.10897e+10,1.00018,0.985987,947,2.63621,22,1,1
app_45,661.621,20975.3,7968.8,27.1272,9.14334,2.68378e+10,1.00055,0.985987,997,2.68378,21,1,1
app_46,615.089,23434.2,7938.8,61.0481,8.56667,6.0433e+10,1.0001,0.985987,986,6.71478,21,1,1
app_47,937.2,19948.5,7980.9,18.8715,8.94785,1.83668e+10,1.00009,0.985987,965,2.04075,21,1,1
app_48,884.361,23038.1,7990.4,9.05696,6.58646,8.6694e+09,1.00012,0.985987,1126,1.23849,18,1,1
app_49,465.649,18416.5,7989.2,9.93643,8.25401,9.83808e+09,1.00012,0.985987,981,1.09312,21,1,1
app_5,1.33939,19094.9,7702.2,90.5318,967.263,3.08207e+10,1.03452,0.985987,8,0.0318725,2315,1,1
app_50,608.929,22243.9,7994.7,2.01181,10.6297,1.19031e+09,1.00051,0.985987,756,0.10821,27,1,1
app_51,752.393,22769.5,7953.1,46.3696,8.33464,4.58272e+10,1.00013,0.985987,894,5.72841,23,1,1
app_52,712.243,21101,7982.5,14.7001,6.81915,1.44433e+10,1.00038,0.985987,1122,2.06333,18,1,1
app_53,580.133,18954.6,7995.6,3.95577,10.3648,3.30314e+09,1.00014,0.985987,909,0.330314,22,1,1
app_54,932.25,17965.2,7983.7,15.9307,7.59844,1.53832e+10,1.00011,0.985987,1068,1.9229,19,1,1
app_55,620.257,21002.1,7974.1,24.2042,9.39023,2.36071e+10,1.00029,0.985987,987,2.62301,21,1,1
app_56,543.919,20888.3,7962.1,37.8189,8.35013,3.71484e+10,1.00009,0.985987,1061,4.12761,19,1,1
app_57,787.93,20576.6,7972.7,25.73,6.80977,2.52923e+10,1.00025,0.985987,1142,4.21539,18,1,1
app_58,225.806,20340.8,7978,22,9.40698,2.16793e+10,1.00004,0.985987,897,2.16793,23,1,1
app_59,729.52,18334.9,7949.5,50.0231,9.59583,4.95158e+10,1.00012,0.985987,1055,4.95158,19,1,1
app_6,2.42407,19592.5,7770.4,71.4037,704.486,3.56898e+10,1.02484,0.985987,11,0.0506238,1719,1,1
app_60,997.147,20208.9,7995.5,4.48274,9.30645,3.76897e+09,1.00009,0.985987,1052,0.418775,19,1,1
app_7,6.69573,19708,7745.2,87.8808,854.503,5.2288e+10,1.02597,0.985987,9,0.0611555,2113,1,1
app_8,0.149147,19175.2,7759.8,80.0887,768.028,4.85313e+10,1.02455,0.985987,10,0.0631919,1864,1,1
app_9,0.335674,19756.2,7719,88.5644,848.693,5.23619e+10,1.02942,0.985987,9,0.0616748,2102,1,1
