app_id,start_app,end_app,effective_cpu,effective_io,effective_iter,total_bytes,stretch,utilization,Tcomp,Tio,iterations,priority,group_id
app_1,0.108944,18709.7,7838.1,80.8844,850.474,3.06305e+10,1.01668,0.967754,9,0.0359935,2008,0.1,1
app_10,3.08745,19521.7,7677.8,260.631,839.431,2.22645e+11,1.0126,0.967754,9,0.265369,2057,0.1,1
app_11,3.86334,19420.1,7700.5,237.412,768.426,2.00214e+11,1.01257,0.967754,10,0.260356,1862,0.1,1
app_12,4.38624,18919.1,7840.2,80.883,906.565,2.33848e+10,1.01735,0.967754,9,0.0257826,2081,0.1,1
app_13,2.59717,18798.5,7867.7,65.2896,777.26,9.72629e+09,1.01556,0.967754,10,0.0125017,1828,0.1,1
app_14,1.44798,19733.5,7747.6,178.454,856.861,1.38944e+11,1.01439,0.967754,9,0.162129,2114,0.1,1
app_15,2.42689,19345.5,7692.2,248.478,749.176,2.10308e+11,1.01234,0.967754,10,0.280785,1835,0.1,1
app_16,3.91213,19572.2,7792.8,146.477,712.913,1.1165e+11,1.01209,0.967754,11,0.156592,1726,0.1,1
app_17,3.43777,19884.1,7730.6,192.96,858.564,1.54948e+11,1.01451,0.967754,9,0.180382,2163,0.1,1
app_18,7.09161,19699.7,7785.5,153.741,785.211,1.05053e+11,1.01387,0.967754,10,0.133825,1922,0.1,1
app_19,3.7357,19569.9,7673.2,270.894,694.536,2.16657e+11,1.01396,0.967754,11,0.311737,1705,0.1,1
app_2,5.31423,20366.5,7874.5,64.2198,690.731,2.18839e+10,1.01312,0.967754,11,0.0316699,1808,0.1,1
app_20,9.30328,18534.6,7689.9,247.593,821.322,1.98546e+11,1.01414,0.967754,9,0.241834,1959,0.1,1
app_21,73.8708,20739.5,7952.3,9.6254,77.9059,2.25652e+09,1.00571,0.967754,94,0.0289298,212,0.01,2
app_22,29.4551,19364.8,7937.8,15.0751,73.4765,7.22178e+09,1.00692,0.967754,107,0.0989285,186,0.01,2
app_23,18.3135,19922.5,7946,20.4131,98.5913,8.51872e+09,1.00572,0.967754,85,0.0869257,234,0.01,2
app_24,60.0699,19629.7,7724.5,243.474,75.4325,1.52271e+11,1.01564,0.967754,99,2.03027,197,0.01,2
app_25,20.8457,19503.3,7719.4,233.321,90.0228,1.44015e+11,1.01737,0.967754,93,1.60016,210,0.01,2
app_26,7.43577,20598.6,7900.7,50.3055,79.8625,2.80944e+10,1.00898,0.967754,96,0.35118,207,0.01,2
app_27,84.3414,20922.8,7951.2,11.0731,74.7144,3.7323e+09,1.00567,0.967754,101,0.049764,198,0.01,2
app_28,50.9278,20378.5,7836.7,124.263,90.323,8.07247e+10,1.01043,0.967754,90,0.887085,219,0.01,2
app_29,57.5287,21245.9,7764.2,195.449,80.4762,1.21145e+11,1.01454,0.967754,86,1.49562,228,0.01,2
app_3,1.62358,18990,7850.9,75.4729,795.212,2.88999e+10,1.01525,0.967754,10,0.0363521,1844,0.1,1
app_30,53.2945,19922.4,7712.8,264.475,81.1118,1.6713e+11,1.01524,0.967754,98,2.06333,200,0.01,2
app_31,68.9382,20516.2,7942.2,19.6442,64.294,8.87504e+09,1.00615,0.967754,117,0.136539,170,0.01,2
app_32,60.7473,20880.5,7835.4,122.006,72.9665,7.22682e+10,1.01168,0.967754,99,0.989976,199,0.01,2
app_33,49.8744,19576.5,7651.76,311.615,82.6855,2.0153e+11,1.01868,0.967754,101,2.44869,193,0.01,2
app_34,22.2762,20739.3,7733.3,226.29,88.3074,1.47056e+11,1.01518,0.967754,86,1.67109,226,0.01,2
app_35,78.3876,19509.3,7780.3,170.458,98.1603,1.07747e+11,1.01419,0.967754,81,1.08835,244,0.01,2
app_36,78.766,20960.3,7856.8,95.6778,81.2157,5.61587e+10,1.011,0.967754,100,0.693317,198,0.01,2
app_37,68.9508,22110.3,7858.5,101.449,75.7152,6.05479e+10,1.01022,0.967754,105,0.796683,188,0.01,2
app_38,105.484,19808.3,7910.7,37.6091,75.2828,1.93921e+10,1.00882,0.967754,113,0.255159,176,0.01,2
app_39,16.1807,19904.8,7814,152.771,78.8681,9.09776e+10,1.01202,0.967754,105,1.15162,188,0.01,2
app_4,7.77648,20075.7,7780.9,158.293,786.813,1.15795e+11,1.01308,0.967754,10,0.147135,1944,0.1,1
app_40,0.227579,19871.5,7950.5,12.2996,82.6454,4.15306e+09,1.0057,0.967754,94,0.0500368,211,0.01,2
app_41,575.942,25494,7619.6,258.847,7.55624,1.28679e+11,1.03249,0.967754,973,16.0849,21,0.001,3
app_42,132.844,16531.1,7554,233.888,6.52326,1.29331e+11,1.04122,0.967754,1017,21.5551,20,0.001,3
app_43,263.324,19926.9,7776.3,83.7294,7.40879,3.91615e+10,1.02361,0.967754,1027,5.5945,20,0.001,3
app_44,276.252,24039.8,7634.4,310.114,6.6633,1.56813e+11,1.0268,0.967754,1132,22.4018,18,0.001,3
app_45,27.8711,22465.1,7830.5,31.1877,6.16633,1.6464e+10,1.0195,0.967754,981,2.74399,21,0.001,3
app_46,893.458,15584.4,7723.64,218.192,8.7063,1.09247e+11,1.02133,0.967754,1191,13.639,17,0.001,3
app_47,139.397,23858.9,7598,323.269,6.60566,1.67766e+11,1.03016,0.967754,1026,27.961,19,0.001,3
app_48,21.3184,25865.7,7670.68,295.489,5.30673,1.43058e+11,1.02384,0.967754,1000,23.843,20,0.001,3
app_49,628.144,21278.4,7625.8,208.925,7.29197,1.02345e+11,1.03518,0.967754,866,14.6208,23,0.001,3
app_5,1.57835,19193.1,7650.3,274.316,937.567,2.10234e+11,1.01774,0.967754,8,0.22413,2272,0.1,1
app_50,411.5,20278.1,7550.4,285.141,9.90665,1.36453e+11,1.04074,0.967754,836,13.6453,24,0.001,3
app_51,510.731,23625.1,7852.1,30.7059,6.46108,1.64521e+10,1.01671,0.967754,964,2.3503,21,0.001,3
app_52,669.579,22674.7,7952.3,37.5795,8.07322,1.57672e+10,1.00401,0.967754,1092,1.9709,19,0.001,3
app_53,90.141,23517.7,7746.9,127.865,7.09568,6.8976e+10,1.02356,0.967754,842,9.85372,24,0.001,3
app_54,171.001,21342.8,7647.6,195.512,8.61587,9.69934e+10,1.03298,0.967754,964,12.1242,21,0.001,3
app_55,403.732,22150.2,7262.5,468.13,8.54339,2.24094e+11,1.06858,0.967754,904,24.8993,22,0.001,3
app_56,932.875,20629.5,7597.5,292.91,6.85797,1.32867e+11,1.03488,0.967754,1100,18.9809,18,0.001,3
app_57,54.7375,24338.2,7258,391.206,7.42769,1.96956e+11,1.07311,0.967754,978,28.1366,20,0.001,3
app_58,204.372,20433,7711.1,278.844,7.24606,1.45658e+11,1.01823,0.967754,1094,20.8083,18,0.001,3
app_59,742.073,22696.7,7650.7,101.494,7.02142,4.68199e+10,1.0393,0.967754,1003,6.68856,20,0.001,3
app_6,5.90208,19654.3,7714,205.161,975.521,1.65465e+11,1.0153,0.967754,8,0.169534,2354,0.1,1
app_60,60.0599,21996.6,7302.8,465.652,8.14343,2.28623e+11,1.06222,0.967754,1046,25.4025,19,0.001,3
app_7,4.54849,19493,7765.77,168.007,859.946,1.11742e+11,1.01555,0.967754,9,0.130061,2104,0.1,1
app_8,2.14524,19358.8,7840,81.6982,855.274,2.99713e+10,1.01652,0.967754,9,0.0350541,2078,0.1,1
app_9,7.21373,18374.2,7665.6,270.046,863.145,2.33173e+11,1.01282,0.967754,9,0.270189,1973,0.1,1
