app_id,start_app,end_app,effective_cpu,effective_io,effective_iter,total_bytes,stretch,utilization,Tcomp,Tio,iterations,priority,group_id
app_1,3.95158,25436.3,5678.93,50.7418,597.123,1.75889e+10,1.40437,0.876225,9,0.0294128,2071,1,1
app_10,5.49949,25586.6,5767.1,70.9922,557.554,4.87694e+10,1.37555,0.876225,10,0.0874004,1932,1,1
app_11,7.64345,24623.5,5647.43,135.245,621.258,1.08245e+11,1.38993,0.876225,9,0.174027,2043,1,1
app_12,9.30495,25526,5881.4,88.3923,492.189,5.87236e+10,1.34677,0.876225,12,0.119115,1629,1,1
app_13,2.45412,25290.8,5576,125.049,685.297,8.58748e+10,1.41296,0.876225,8,0.125365,2315,1,1
app_14,5.3554,25617.7,5655.3,62.9399,631.981,3.03485e+10,1.40705,0.876225,9,0.0480197,2147,1,1
app_15,3.52493,24483.3,5984.9,39.862,530.993,7.86637e+09,1.33494,0.876225,11,0.0148143,1718,1,1
app_16,9.56652,25051,5640.9,135.52,633.137,1.05923e+11,1.39207,0.876225,9,0.167071,2085,1,1
app_17,8.8664,24955.2,5604.47,174.59,609.702,1.40033e+11,1.39263,0.876225,9,0.229562,2035,1,1
app_18,0.224647,24645.7,5446.58,144.868,707.662,1.09047e+11,1.43998,0.876225,8,0.154021,2296,1,1
app_19,4.46887,24797.2,5701.3,185.115,588.001,1.58471e+11,1.36524,0.876225,10,0.269509,1880,1,1
app_2,8.74363,25319.2,5795,120.99,550.751,9.8279e+10,1.35748,0.876225,11,0.178365,1785,1,1
app_20,1.06937,25177.8,5862,117.474,573.043,8.95516e+10,1.34419,0.876225,10,0.156286,1948,1,1
app_21,45.7126,20611.6,7540.2,156.189,71.5942,1.52851e+11,1.0399,0.876225,104,2.15283,188,1,1
app_22,97.5868,21937.7,7539.2,94.9358,66.0861,9.17928e+10,1.04836,0.876225,109,1.37004,181,1,1
app_23,77.7393,21114.7,7534.5,64.5517,68.7704,6.18936e+10,1.05313,0.876225,107,0.897009,185,1,1
app_24,0.843045,21459.1,7490.9,91.9108,58.3912,8.8556e+10,1.05548,0.876225,112,1.52683,176,1,1
app_25,35.9832,20587.8,7490.1,192.431,63.8322,1.89105e+11,1.04177,0.876225,110,2.95477,177,1,1
app_26,56.4396,21587.7,7445,70.7839,81.8015,6.60756e+10,1.06509,0.876225,90,0.805799,219,1,1
app_27,83.5562,22089.8,7381.7,67.187,72.0474,6.42155e+10,1.07441,0.876225,94,0.891882,210,1,1
app_28,72.2906,22061.8,7487.9,63.8335,83.3046,5.85969e+10,1.06009,0.876225,84,0.705986,235,1,1
app_29,35.8762,20561.3,7516.7,43.7562,71.1532,4.02305e+10,1.05863,0.876225,98,0.558756,201,1,1
app_3,6.84122,25442.9,5689.5,149.84,565.556,1.15136e+11,1.37821,0.876225,10,0.203421,1896,1,1
app_30,27.8613,22464.5,7497.6,95.7118,73.0897,9.23823e+10,1.05402,0.876225,98,1.26551,201,1,1
app_31,86.4722,20281.1,7452.1,62.8422,77.0989,5.97769e+10,1.06498,0.876225,97,0.776324,203,1,1
app_32,81.4278,21626.8,7307.53,139.727,78.158,1.35391e+11,1.07485,0.876225,92,1.71381,212,1,1
app_33,75.8414,20253.4,7566.82,28.6803,78.4695,2.4154e+10,1.05388,0.876225,97,0.305747,205,1,1
app_34,112.693,20961.9,7497.9,126.104,68.6345,1.23173e+11,1.04972,0.876225,111,1.78512,178,1,1
app_35,86.8167,20813.2,7430.4,56.0017,92.2149,5.12086e+10,1.06929,0.876225,89,0.55063,222,1,1
app_36,30.2326,22311.6,7590.4,119.207,62.0972,1.15834e+11,1.03812,0.876225,104,1.83864,189,1,1
app_37,75.9292,21239.1,7328.8,125.78,86.5175,1.20869e+11,1.07387,0.876225,80,1.40545,246,1,1
app_38,99.119,19642,7635,20.4715,65.3958,1.73613e+10,1.04543,0.876225,114,0.267097,175,1,1
app_39,21.3964,20625.2,7404.5,216.008,70.4271,2.12038e+11,1.05035,0.876225,110,3.02912,176,1,1
app_4,3.91705,25199.3,5699,80.1773,635.486,5.68954e+10,1.38988,0.876225,9,0.0894581,2124,1,1
app_40,54.9403,19889.4,7230.3,221.664,97.2541,2.15889e+11,1.07438,0.876225,84,2.22566,230,1,1
app_41,916.349,23199.9,7928,56.0279,6.12373,5.57131e+10,1.00204,0.876225,970,9.28552,21,1,1
app_42,856.248,26942.9,7851.72,131.63,5.73965,1.31222e+11,1.00214,0.876225,1056,22.2822,19,1,1
app_43,78.0659,16910.5,7791.2,141.547,11.0703,1.40929e+11,1.00856,0.876225,913,12.8118,22,1,1
app_44,601.751,22649.9,7838.1,108.802,10.0649,1.08248e+11,1.00675,0.876225,931,10.8248,22,1,1
app_45,719.729,22505.7,7887.1,62.2908,7.12523,6.20112e+10,1.0064,0.876225,1054,8.85874,19,1,1
app_46,281.663,20505.6,7867.6,109.122,9.25496,1.08836e+11,1.00295,0.876225,832,10.8836,24,1,1
app_47,472.115,23278.3,7966,14.3105,8.50372,1.36892e+10,1.00255,0.876225,1022,1.52102,20,1,1
app_48,784.432,21365.8,7915.87,49.6288,6.33964,4.92596e+10,1.00438,0.876225,843,7.03708,24,1,1
app_49,677.058,19370.3,7790.5,179.284,7.26947,1.78988e+11,1.00383,0.876225,988,25.5697,20,1,1
app_5,6.81268,25628.6,5586.35,124.46,614.308,9.28174e+10,1.40866,0.876225,9,0.151108,2147,1,1
app_50,835.155,22990,7787,174.45,7.68057,1.74159e+11,1.00488,0.876225,999,21.7699,20,1,1
app_51,392.824,18220.6,7900,42.4875,7.42278,4.2042e+10,1.0073,0.876225,894,5.25525,23,1,1
app_52,274.534,22933.1,7878.7,95.3366,5.80677,9.50249e+10,1.0033,0.876225,1119,15.8375,18,1,1
app_53,264.836,14390.3,7682.8,186.099,12.7113,1.8547e+11,1.01674,0.876225,970,14.267,21,1,1
app_54,753.992,22377.3,7944.4,30.0665,7.05047,2.96886e+10,1.00325,0.876225,952,4.24122,21,1,1
app_55,715.758,22116.3,7914.7,44.0465,7.55766,4.36421e+10,1.00523,0.876225,830,6.23459,24,1,1
app_56,758.575,22559,7864.6,113.37,6.52346,1.13056e+11,1.0028,0.876225,1023,16.1509,20,1,1
app_57,802.352,20952.9,7852.9,95.5243,9.1978,9.50858e+10,1.00654,0.876225,894,10.5651,23,1,1
app_58,550.422,20572.8,7845.3,100.747,8.98381,1.00361e+11,1.00684,0.876225,907,11.1512,22,1,1
app_59,445.446,23709.7,7860.9,85.0331,5.77411,8.46013e+10,1.00686,0.876225,893,14.1002,23,1,1
app_6,1.73318,25319.6,5701.1,133.308,570.043,1.13806e+11,1.37577,0.876225,10,0.19966,1922,1,1
app_60,921.522,21620.3,7799.4,135.056,6.1508,1.34764e+11,1.0083,0.876225,956,22.4607,21,1,1
app_7,1.48248,24339.3,5648.82,111.322,623.389,7.62654e+10,1.39736,0.876225,9,0.12222,2022,1,1
app_8,7.59965,24306.1,5654.92,175.954,619.523,1.40011e+11,1.38052,0.876225,9,0.225824,1996,1,1
app_9,8.63101,24001.9,5832.7,56.764,586.53,2.63046e+10,1.36542,0.876225,10,0.0448119,1819,1,1
