app_id,start_app,end_app,effective_cpu,effective_io,effective_iter,total_bytes,stretch,utilization,Tcomp,Tio,iterations,priority,group_id
app_1,1.53465,26207.7,5492.3,128.014,678.732,9.00891e+10,1.43308,0.872994,8,0.132875,2451,1,1
app_10,2.20267,24143.5,5378.1,85.7841,768.591,4.96601e+10,1.4739,0.872994,7,0.0646616,2488,1,1
app_11,5.86068,23811.5,5551.4,107.862,644.545,6.67483e+10,1.42396,0.872994,9,0.103646,1993,1,1
app_12,4.08377,25946.4,5572.7,111.326,619.967,7.57566e+10,1.41632,0.872994,9,0.122188,2123,1,1
app_13,0.071262,25082.5,5600.8,143.129,626.821,1.19391e+11,1.39855,0.872994,9,0.19072,2072,1,1
app_14,7.76977,25464,5699.89,116.076,571.063,8.78554e+10,1.38223,0.872994,10,0.153862,1913,1,1
app_15,3.7971,25897.3,5608.3,145.206,623.429,1.2354e+11,1.39571,0.872994,9,0.198298,2157,1,1
app_16,4.22429,24839.1,5646.5,170.624,570.025,1.41942e+11,1.38206,0.872994,10,0.249022,1853,1,1
app_17,4.58334,25986.1,5818.57,73.8526,565.443,5.46406e+10,1.36212,0.872994,10,0.096709,1976,1,1
app_18,3.32665,26142.5,5693.6,118.808,559.771,9.30072e+10,1.3825,0.872994,10,0.166084,1945,1,1
app_19,7.60618,25221,5715.23,52.5904,577.359,2.18708e+10,1.39443,0.872994,10,0.0379043,1942,1,1
app_2,4.59848,25812.1,5570.8,136.434,641.661,1.0689e+11,1.40902,0.872994,9,0.166496,2142,1,1
app_20,3.83348,24883.5,5430.16,158.959,702.392,1.31714e+11,1.43836,0.872994,8,0.187626,2294,1,1
app_21,29.474,21541.4,7401.7,52.2243,74.2301,4.80481e+10,1.07386,0.872994,107,0.640641,186,1,1
app_22,57.2049,21830.6,7474.9,36.8238,87.2438,3.26276e+10,1.0656,0.872994,85,0.370768,234,1,1
app_23,35.2941,20158.2,7354.7,117.823,88.8029,1.13475e+11,1.07121,0.872994,82,1.275,238,1,1
app_24,53.6258,20832.2,7519.9,165.228,63.5784,1.61963e+11,1.04141,0.872994,115,2.53067,171,1,1
app_25,59.4381,20144.7,7520.4,100.617,82.1991,9.69989e+10,1.05023,0.872994,93,1.18291,212,1,1
app_26,18.6109,22099,7445.4,14.2271,87.0076,9.13397e+09,1.07317,0.872994,91,0.104988,219,1,1
app_27,103.167,21920.4,7502.1,144.957,73.9116,1.40824e+11,1.04672,0.872994,105,1.90303,187,1,1
app_28,83.2906,20716.7,7440.9,160.269,74.7153,1.57251e+11,1.05289,0.872994,101,2.09668,194,1,1
app_29,22.2053,19840.7,7415.3,172.506,80.8777,1.69362e+11,1.05476,0.872994,96,2.09088,204,1,1
app_3,7.70206,25971.4,5547.2,168.976,613.931,1.3201e+11,1.40865,0.872994,9,0.215,2104,1,1
app_30,42.4176,21068.3,7456.1,177.354,75.1923,1.72904e+11,1.04863,0.872994,106,2.30539,185,1,1
app_31,5.82145,21329.1,7414.7,128.379,85.2792,1.23974e+11,1.06119,0.872994,83,1.45852,235,1,1
app_32,6.97758,21215.3,7420.12,149.492,74.6577,1.45589e+11,1.0574,0.872994,97,1.94411,202,1,1
app_33,21.2714,22302.8,7609.2,102.545,73.7868,9.88549e+10,1.03788,0.872994,90,1.35418,217,1,1
app_34,39.643,21798.9,7353.2,71.257,73.9187,6.68088e+10,1.07817,0.872994,94,0.902822,211,1,1
app_35,6.85065,21814.4,7550.4,109.895,80.3631,1.05394e+11,1.04496,0.872994,87,1.31743,226,1,1
app_36,94.1835,22372.6,7574.2,50.2135,70.0296,4.71896e+10,1.04968,0.872994,106,0.674137,186,1,1
app_37,69.2747,20989.6,7599.6,96.4172,78.2819,9.3084e+10,1.03995,0.872994,97,1.19338,203,1,1
app_38,54.9174,22337.5,7545.6,109.995,64.888,1.06657e+11,1.04544,0.872994,101,1.64088,194,1,1
app_39,8.94386,20102.2,7484.7,29.2582,97.054,2.46639e+10,1.06534,0.872994,87,0.254267,227,1,1
app_4,6.67139,25451,5753.5,49.1701,587.24,1.68115e+10,1.38641,0.872994,10,0.0286397,1977,1,1
app_40,37.4714,19480.1,7436.6,45.2077,85.6636,4.12735e+10,1.06982,0.872994,96,0.479925,206,1,1
app_41,587.703,18240,7799.5,187.729,9.15056,1.87222e+11,1.00166,0.872994,952,20.8024,21,1,1
app_42,99.2072,19003.5,7755.7,190.184,8.7544,1.89611e+11,1.00688,0.872994,938,21.0679,21,1,1
app_43,757.098,21786.8,7914.9,51.4139,7.77839,5.11736e+10,1.00426,0.872994,1060,6.3967,19,1,1
app_44,845.124,25208.1,7837.9,133.84,7.46389,1.33462e+11,1.00359,0.872994,1084,19.066,19,1,1
app_45,125.042,24327.4,7888.1,48.2323,7.75555,4.78478e+10,1.00807,0.872994,936,5.98097,22,1,1
app_46,405.046,19491.5,7855.2,70.82,7.14966,7.06526e+10,1.00936,0.872994,1082,10.0932,19,1,1
app_47,515.609,20805,7962.2,31.2622,7.94902,3.08434e+10,1.00087,0.872994,954,3.85543,21,1,1
app_48,863.218,17927.9,7804.5,143.382,7.18218,1.43103e+11,1.00659,0.872994,1042,17.8879,19,1,1
app_49,336.299,16901.5,7797.8,158.269,8.81855,1.57803e+11,1.00558,0.872994,978,19.7253,21,1,1
app_5,5.7888,26464.1,5530.5,138.25,693.446,1.03237e+11,1.42002,0.872994,8,0.148971,2442,1,1
app_50,90.701,17736.1,7886.1,100.207,6.58642,9.99154e+10,1.00175,0.872994,1051,14.2736,19,1,1
app_51,784.833,21168.1,7949.8,15.3331,11.5488,1.45386e+10,1.00448,0.872994,934,1.21155,22,1,1
app_52,480.716,17825.7,7828.9,120.737,8.8377,1.20292e+11,1.00639,0.872994,1004,13.3657,20,1,1
app_53,872.747,23784.1,7938,13.422,6.29402,1.31299e+10,1.00615,0.872994,1003,1.8757,20,1,1
app_54,187.713,20492.4,7846.4,116.439,5.47466,1.16067e+11,1.00471,0.872994,995,23.2134,20,1,1
app_55,861.722,19704.8,7889.5,22.1943,10.2302,2.17996e+10,1.01121,0.872994,996,2.17996,21,1,1
app_56,1039.52,23225.4,7869.4,105.129,8.72815,1.0466e+11,1.00325,0.872994,1072,11.6289,19,1,1
app_57,141.014,18788.9,7828.8,143.099,7.22336,1.42714e+11,1.00357,0.872994,1075,20.3877,19,1,1
app_58,272.665,24813.9,7782.1,178.969,7.30831,1.78576e+11,1.00494,0.872994,879,22.322,23,1,1
app_59,559.479,20251.7,7846.5,129.272,10.2092,1.2881e+11,1.0031,0.872994,861,12.881,23,1,1
app_6,8.61394,24304,5755.7,37.0573,570.376,1.63558e+09,1.38953,0.872994,10,0.00286944,1825,1,1
app_60,293.899,24782,7897,96.1323,6.66466,9.59299e+10,1.00088,0.872994,940,15.9883,21,1,1
app_7,9.12849,25319.6,5609.9,63.6884,627.867,3.19378e+10,1.41798,0.872994,9,0.0508564,2097,1,1
app_8,7.58439,24054.8,5794.8,117.736,539.435,9.47819e+10,1.35833,0.872994,11,0.17569,1668,1,1
app_9,5.79662,25407.1,5569.16,141.948,636.643,1.14486e+11,1.40755,0.872994,9,0.18001,2102,1,1
