app_id,start_app,end_app,effective_cpu,effective_io,effective_iter,total_bytes,stretch,utilization,Tcomp,Tio,iterations,priority,group_id
app_1,2.58436,26156.2,5609.7,39.1837,557.892,4.46473e+09,1.42497,0.864068,10,0.00800132,1975,1,1
app_10,5.86937,24627.4,5303.4,200.13,656.149,1.68041e+11,1.46214,0.864068,8,0.25616,2185,1,1
app_11,4.16942,25710,5558.9,54.2729,571.882,2.41607e+10,1.43291,0.864068,10,0.042239,1922,1,1
app_12,11.8635,24724.6,5785.4,78.4354,487.466,4.9448e+10,1.37107,0.864068,12,0.101536,1608,1,1
app_13,2.68561,25397.6,5518,178.152,568.128,1.51896e+11,1.41096,0.864068,10,0.267422,1912,1,1
app_14,0.96621,24733.2,5454.5,159.096,601.776,1.21539e+11,1.43471,0.864068,9,0.201892,1979,1,1
app_15,9.96085,25116.9,5671.2,75.5476,571.594,5.48008e+10,1.39714,0.864068,10,0.0958056,1911,1,1
app_16,2.09924,24899.1,5415.7,182.512,597.768,1.53034e+11,1.43659,0.864068,9,0.255909,1959,1,1
app_17,7.49429,26538,5412.6,63.993,660.925,2.94414e+10,1.47004,0.864068,8,0.0445406,2436,1,1
app_18,2.98609,24900.3,5405.9,71.1133,662.043,3.94356e+10,1.46915,0.864068,8,0.0595704,2247,1,1
app_19,4.71321,25223.8,5370.81,126.682,681.024,8.78256e+10,1.46557,0.864068,8,0.128966,2254,1,1
app_2,3.57541,25735.7,5726.4,50.1703,560.213,1.85484e+10,1.39253,0.864068,10,0.0331222,1924,1,1
app_20,4.22712,25098.8,5377.4,91.9972,694.59,6.81117e+10,1.4691,0.864068,8,0.0980024,2293,1,1
app_21,98.6929,22161.2,7418.8,177.114,65.9686,1.73808e+11,1.05366,0.864068,101,2.63346,193,1,1
app_22,28.2959,20557.5,7528.4,97.2917,69.9851,9.34543e+10,1.04961,0.864068,102,1.33506,193,1,1
app_23,36.1766,21785.5,7472.6,26.4039,81.6333,2.24878e+10,1.06737,0.864068,98,0.274242,203,1,1
app_24,86.6903,23269.1,7462.9,163.676,59.0731,1.60156e+11,1.04945,0.864068,113,2.71451,173,1,1
app_25,95.7759,20398.7,7403.4,122.008,77.4174,1.18157e+11,1.06361,0.864068,95,1.5345,206,1,1
app_26,2.07552,21923.1,7275.7,166.689,91.1215,1.62959e+11,1.07546,0.864068,74,1.79076,263,1,1
app_27,88.4122,21599.7,7416.49,113.58,82.7804,1.09182e+11,1.06303,0.864068,98,1.3291,200,1,1
app_28,12.7246,20420.4,7424.2,159.226,76.1821,1.55774e+11,1.05541,0.864068,92,2.04966,212,1,1
app_29,57.5552,21621.2,7407.1,90.0833,81.2635,8.59385e+10,1.06766,0.864068,85,1.04803,233,1,1
app_3,3.10152,25407.8,5421.4,172.799,560.638,1.43972e+11,1.43746,0.864068,10,0.256634,1868,1,1
app_30,27.9862,19990,7402.4,43.6245,81.8277,4.01252e+10,1.0749,0.864068,91,0.489332,218,1,1
app_31,33.9546,20799.8,7377.6,119.566,75.6663,1.15237e+11,1.06769,0.864068,100,1.53649,197,1,1
app_32,74.2604,21120.7,7367.1,133.207,75.7752,1.28665e+11,1.06727,0.864068,99,1.71553,197,1,1
app_33,21.9549,20731.2,7436.3,67.3122,83.5598,6.35871e+10,1.06668,0.864068,103,0.76611,192,1,1
app_34,100.418,19524.7,7347.08,212.9,65.0772,2.10321e+11,1.05857,0.864068,118,3.18669,165,1,1
app_35,11.1287,20268.3,7554.1,5.85245,77.0485,1.18118e+09,1.05886,0.864068,98,0.01534,205,1,1
app_36,12.8465,20784.6,7297.4,207.332,78.973,2.0447e+11,1.0664,0.864068,97,2.58823,201,1,1
app_37,4.47848,21502.2,7387.1,77.3455,76.0542,7.38223e+10,1.07225,0.864068,93,0.971347,213,1,1
app_38,18.8003,22318.4,7497.9,45.8849,77.2945,4.18551e+10,1.06104,0.864068,93,0.543572,214,1,1
app_39,54.4066,20788.1,7664.8,58.3759,71.5272,5.55826e+10,1.03622,0.864068,102,0.782853,194,1,1
app_4,9.54367,25178.8,5412.9,121.637,613.633,8.98421e+10,1.45382,0.864068,9,0.146323,2062,1,1
app_40,82.119,21685.7,7354.3,114.206,80.9788,1.10552e+11,1.07169,0.864068,89,1.36483,220,1,1
app_41,381.331,20674.9,7883.8,47.2649,11.1655,4.64633e+10,1.00879,0.864068,801,4.22394,25,1,1
app_42,484.81,27070.3,7803.4,156.191,5.49241,1.56011e+11,1.0051,0.864068,1132,31.2022,18,1,1
app_43,403.8,19740,7867.3,101.189,8.31776,1.00754e+11,1.00401,0.864068,947,12.5943,21,1,1
app_44,931.268,22056.1,7761.1,191.186,7.85336,1.90715e+11,1.00606,0.864068,1132,23.8394,18,1,1
app_45,980.234,17098.1,7813.6,94.1233,9.82885,9.37382e+10,1.01172,0.864068,1138,9.37382,18,1,1
app_46,32.4503,21698.5,7880.2,73.6535,7.64026,7.32284e+10,1.00586,0.864068,1088,9.15355,19,1,1
app_47,519.621,19392.8,7829.5,169.901,9.64392,1.6931e+11,1.00015,0.864068,811,16.931,25,1,1
app_48,160.442,21357.8,7857.4,101.836,10.2197,1.01207e+11,1.0052,0.864068,818,9.20064,25,1,1
app_49,297.876,18251.7,7886,73.3389,6.91548,7.28724e+10,1.00517,0.864068,1090,10.4103,19,1,1
app_5,3.9949,25718.7,5340.8,75.0213,662.191,4.41907e+10,1.48561,0.864068,8,0.0667533,2330,1,1
app_50,445.284,17523.3,7759,100.38,9.39547,9.99172e+10,1.01795,0.864068,893,11.1019,23,1,1
app_51,316.594,18265.4,7772.7,139.249,14.7625,1.38364e+11,1.01124,0.864068,747,9.22426,27,1,1
app_52,1049.53,24947.3,7898.2,53.0213,7.20619,5.26814e+10,1.00618,0.864068,1042,6.58517,20,1,1
app_53,749.491,19599.3,7825.7,131.097,7.31313,1.30662e+11,1.00548,0.864068,1140,18.666,18,1,1
app_54,106.015,22275.2,7979,5.33271,5.79309,4.87676e+09,1.00202,0.864068,957,0.812794,21,1,1
app_55,656.905,22621.9,7867.2,88.0679,8.06547,8.77641e+10,1.00566,0.864068,1022,10.9705,20,1,1
app_56,792.122,19195.3,7817.3,168.009,7.3825,1.67513e+11,1.0019,0.864068,1084,23.9304,19,1,1
app_57,188.398,18830.5,7932.7,5.57537,7.79421,5.16424e+09,1.00783,0.864068,913,0.64553,22,1,1
app_58,649.076,23840.1,7776.9,138.393,6.95848,1.38012e+11,1.01075,0.864068,971,19.716,21,1,1
app_59,425.382,22073.4,7877.9,104.316,7.38971,1.03876e+11,1.00228,0.864068,925,14.8394,22,1,1
app_6,5.43003,24922,5427.7,100.773,603.991,6.45066e+10,1.45661,0.864068,9,0.106799,2037,1,1
app_60,919.573,21650,7790.5,162.187,6.95168,1.61842e+11,1.00599,0.864068,1079,26.9736,19,1,1
app_7,3.74495,25180.4,5245.83,79.2201,742.588,4.34562e+10,1.51249,0.864068,7,0.0584875,2531,1,1
app_8,7.29729,25613.9,5419.9,76.3764,603.286,5.21838e+10,1.46197,0.864068,9,0.0865402,2087,1,1
app_9,7.7362,25526.4,5499.2,110.362,563.957,8.01645e+10,1.43386,0.864068,10,0.142136,1934,1,1
