app_id,start_app,end_app,effective_cpu,effective_io,effective_iter,total_bytes,stretch,utilization,Tcomp,Tio,iterations,priority,group_id
app_1,3.95158,18694.4,7845.8,154.2,889.907,2.61774e+10,1.01626,0.944453,9,0.0294128,2071,1,1
app_10,5.49949,20233.6,7700.7,299.3,763.251,6.67739e+10,1.02994,0.944453,10,0.0874004,1932,1.00001,1.00001
app_11,7.64345,19739.6,7386.5,613.5,828.805,1.44268e+11,1.06231,0.944453,9,0.174027,2043,1.00001,1.00001
app_12,9.30495,20759.3,7658.9,341.1,621.873,7.40894e+10,1.03453,0.944453,12,0.119115,1629,1.00001,1.00001
app_13,2.45412,19562.7,7468.3,531.7,945.339,1.1847e+11,1.05447,0.944453,8,0.125365,2315,1.00001,1.00001
app_14,5.3554,19999.6,7787.6,212.4,878.172,4.21613e+10,1.02174,0.944453,9,0.0480197,2147,1.00001,1.00001
app_15,3.52493,19270.2,7912.6,87.4,721.035,1.06811e+10,1.00968,0.944453,11,0.0148143,1718,1.00002,1.00002
app_16,9.56652,19620.6,7380.6,619.4,834.034,1.39337e+11,1.06384,0.944453,9,0.167071,2085,1.00002,1.00002
app_17,8.8664,20244.9,7237.06,762.937,787.417,1.80725e+11,1.07849,0.944453,9,0.229562,2035,1.00002,1.00002
app_18,0.224647,19713.8,7375.6,624.4,930.282,1.4324e+11,1.06399,0.944453,8,0.154021,2296,1.00002,1.00002
app_19,4.46887,21069.2,7226,774,698.482,1.88387e+11,1.07898,0.944453,10,0.269509,1880,1.00002,1.00002
app_2,8.74363,21036.1,7457.2,542.8,688.346,1.22893e+11,1.0554,0.944453,11,0.178365,1785,1,1
app_20,1.06937,20466.2,7478.4,521.6,764.201,1.19402e+11,1.05294,0.944453,10,0.156286,1948,1.00002,1.00002
app_21,45.7126,19016.8,7336.5,663.5,85.0468,1.82991e+11,1.0639,0.944453,104,2.15283,188,1.00002,1.00002
app_22,97.5868,19764.3,7549.2,450.8,77.4704,1.06863e+11,1.04492,0.944453,109,1.37004,181,1.00002,1.00002
app_23,77.7393,20795.5,7756.4,243.6,68.2261,6.09966e+10,1.02336,0.944453,107,0.897009,185,1.00002,1.00002
app_24,0.843045,20236.9,7585.6,414.4,64.917,9.92438e+10,1.04101,0.944453,112,1.52683,176,1.00002,1.00002
app_25,35.9832,20811.4,7193.6,806.4,66.9001,1.97969e+11,1.08231,0.944453,110,2.95477,177,1.00003,1.00003
app_26,56.4396,19528.1,7696.6,303.4,88.3418,7.17161e+10,1.02982,0.944453,90,0.805799,219,1.00003,1.00003
app_27,83.5562,21080.1,7713.01,286.995,80.7202,7.15546e+10,1.02768,0.944453,94,0.891882,210,1.00003,1.00003
app_28,72.2906,21257.7,7750.8,249.2,84.8866,6.00088e+10,1.02422,0.944453,84,0.705986,235,1.00003,1.00003
app_29,35.8762,19719.6,7796.62,203.38,80.5147,4.50505e+10,1.02019,0.944453,98,0.558756,201,1.00003,1.00003
app_3,6.84122,20652.4,7364.33,635.671,740.986,1.50668e+11,1.06454,0.944453,10,0.203421,1896,1,1
app_30,27.8613,18043.7,7579.1,420.9,86.5116,1.08834e+11,1.04059,0.944453,98,1.26551,201,1.00003,1.00003
app_31,86.4722,20082.9,7754.5,245.5,71.5965,5.5119e+10,1.02438,0.944453,97,0.776324,203,1.00003,1.00003
app_32,81.4278,20412,7387.9,612.1,89.2885,1.52529e+11,1.06095,0.944453,92,1.71381,212,1.00003,1.00003
app_33,75.8414,20103.7,7873.5,126.5,86.8416,2.66e+10,1.01265,0.944453,97,0.305747,205,1.00003,1.00003
app_34,112.693,20693.7,7487.27,512.729,69.1888,1.24108e+11,1.05106,0.944453,111,1.78512,178,1.00003,1.00003
app_35,86.8167,20703,7807.3,192.7,79.8438,4.40504e+10,1.01893,0.944453,89,0.55063,222,1.00004,1.00004
app_36,30.2326,19274.6,7407,593,79.6971,1.45253e+11,1.05929,0.944453,104,1.83864,189,1.00004,1.00004
app_37,75.9292,21403.7,7503.9,496.1,91.3506,1.27896e+11,1.04825,0.944453,80,1.40545,246,1.00004,1.00004
app_38,99.119,20100.4,7926.5,73.5,71.1022,1.89639e+10,1.00686,0.944453,114,0.267097,175,1.00004,1.00004
app_39,21.3964,21693.3,7292.5,707.5,63.7275,1.93863e+11,1.06861,0.944453,110,3.02912,176,1.00004,1.00004
app_4,3.91705,19929,7667.83,332.174,848.363,7.59123e+10,1.03309,0.944453,9,0.0894581,2124,1,1
app_40,54.9403,21188.1,7232.7,767.3,83.6202,1.8473e+11,1.07854,0.944453,84,2.22566,230,1.00004,1.00004
app_41,916.349,23052.3,7674,326,6.92784,6.49986e+10,1.03373,0.944453,970,9.28552,21,1.00004,1.00004
app_42,856.248,24239.9,7462.5,537.5,5.65916,1.33693e+11,1.05316,0.944453,1056,22.2822,19,1.00004,1.00004
app_43,78.0659,21382.5,7619.3,380.7,7.56555,1.02494e+11,1.03603,0.944453,913,12.8118,22,1.00004,1.00004
app_44,601.751,20853.6,7732.3,267.7,7.07581,8.65981e+10,1.02316,0.944453,931,10.8248,22,1.00004,1.00004
app_45,719.729,20612.6,7784.17,215.829,8.25006,7.73842e+10,1.01761,0.944453,1054,8.85874,19,1.00004,1.00004
app_46,281.663,24581.7,7603.7,396.3,7.74298,8.70685e+10,1.04021,0.944453,832,10.8836,24,1.00005,1.00005
app_47,472.115,20402.7,7953.9,46.1,10.2471,1.52102e+10,1.00388,0.944453,1022,1.52102,20,1.00005,1.00005
app_48,784.432,22274.3,7798.4,201.6,8.02161,5.62966e+10,1.0185,0.944453,843,7.03708,24,1.00005,1.00005
app_49,677.058,18790,7056.4,943.6,7.90027,2.04558e+11,1.10178,0.944453,988,25.5697,20,1.00005,1.00005
app_5,6.81268,20397.2,7453.5,546.5,820.381,1.2406e+11,1.05575,0.944453,9,0.151108,2147,1.00001,1.00001
app_50,835.155,18967.4,6978.1,1021.9,10.3826,2.17699e+11,1.11176,0.944453,999,21.7699,20,1.00005,1.00005
app_51,392.824,21605.8,7770.5,229.5,9.6906,5.25525e+10,1.02262,0.944453,894,5.25525,23,1.00005,1.00005
app_52,274.534,22411.3,7606.6,393.4,7.16302,1.10862e+11,1.03661,0.944453,1119,15.8375,18,1.00005,1.00005
app_53,264.836,21476.4,7476.6,523.4,7.57459,1.14136e+11,1.05392,0.944453,970,14.267,21,1.00005,1.00005
app_54,753.992,19730.1,7898.7,101.3,7.17497,2.96886e+10,1.00903,0.944453,952,4.24122,21,1.00005,1.00005
app_55,715.758,21829.8,7811.1,188.9,6.84808,4.36421e+10,1.01849,0.944453,830,6.23459,24,1.00005,1.00005
app_56,758.575,18367.6,7481.5,518.5,10.7514,1.7766e+11,1.0445,0.944453,1023,16.1509,20,1.00006,1.00006
app_57,802.352,25378.4,7627.8,372.2,8.06353,8.45208e+10,1.0373,0.944453,894,10.5651,23,1.00006,1.00006
app_58,550.422,21202.5,7579.69,420.313,10.1662,1.13238e+11,1.03992,0.944453,907,11.1512,22,1.00006,1.00006
app_59,445.446,16663.3,7323.13,676.867,12.4904,1.76267e+11,1.06675,0.944453,893,14.1002,23,1.00006,1.00006
app_6,1.73318,20258.9,7383.6,616.4,743.013,1.48347e+11,1.06214,0.944453,10,0.19966,1922,1.00001,1.00001
app_60,921.522,20786.7,7099.6,900.4,8.39934,2.02147e+11,1.09563,0.944453,956,22.4607,21,1.00006,1.00006
app_7,1.48248,19679.6,7543.8,456.2,832.089,1.01687e+11,1.04637,0.944453,9,0.12222,2022,1.00001,1.00001
app_8,7.59965,19609,7227.2,772.8,826.545,1.8653e+11,1.07908,0.944453,9,0.225824,1996,1.00001,1.00001
app_9,8.63101,18319.7,7813.3,186.7,789.407,3.53566e+10,1.01928,0.944453,10,0.0448119,1819,1.00001,1.00001
