app_id,start_app,end_app,effective_cpu,effective_io,effective_iter,total_bytes,stretch,utilization,Tcomp,Tio,iterations,priority,group_id
app_1,5.8186,18808.3,7892.19,107.807,771.969,1.86006e+10,1.01128,0.950517,10,0.0241086,1839,1,1
app_10,6.57176,19808.7,7652.3,347.7,740.675,8.02265e+10,1.03459,0.950517,10,0.108414,1865,1.00001,1.00001
app_11,8.98967,20040.7,7828.7,171.3,865.518,3.39431e+10,1.01747,0.950517,9,0.0391953,2172,1.00001,1.00001
app_12,7.78902,18753.6,7823.54,176.455,805.174,3.63944e+10,1.01782,0.950517,10,0.0451626,1841,1.00001,1.00001
app_13,2.68735,19502.7,7767.4,232.6,794.103,5.18904e+10,1.02311,0.950517,10,0.0653531,1875,1.00001,1.00001
app_14,8.35363,19033.3,7323.51,676.486,938.937,1.77958e+11,1.06646,0.950517,8,0.189692,2245,1.00001,1.00001
app_15,0.232654,20984.9,7329.68,670.321,911.865,1.75053e+11,1.06599,0.950517,8,0.192096,2399,1.00002,1.00002
app_16,6.67871,20326.1,7538.2,461.8,674.888,1.1345e+11,1.04553,0.950517,11,0.168074,1730,1.00002,1.00002
app_17,0.827256,19691.7,7234.81,765.189,893.801,2.00563e+11,1.07594,0.950517,8,0.224436,2213,1.00002,1.00002
app_18,7.06337,19673,7810.8,189.2,859.996,3.93584e+10,1.01909,0.950517,9,0.0457656,2120,1.00002,1.00002
app_19,5.94493,19626.8,7813.1,186.9,681.663,4.11518e+10,1.01856,0.950517,11,0.0604285,1707,1.00002,1.00002
app_2,7.46147,20345.9,7465.86,534.139,768.244,1.39006e+11,1.05196,0.950517,10,0.180955,1936,1,1
app_20,5.41391,19805.3,7654.3,345.7,706.444,8.32453e+10,1.03392,0.950517,11,0.117744,1733,1.00002,1.00002
app_21,45.6644,20371.5,7466.1,533.9,84.1104,1.53622e+11,1.04991,0.950517,93,1.82883,211,1.00002,1.00002
app_22,57.1692,23100,7431.6,568.4,60.6429,1.60767e+11,1.05369,0.950517,115,2.63553,170,1.00002,1.00002
app_23,35.8771,22537.5,7489.2,510.8,63.1935,1.35738e+11,1.04919,0.950517,111,2.15457,177,1.00002,1.00002
app_24,48.9514,21397.5,7725.5,274.499,71.6361,6.91819e+10,1.02634,0.950517,98,0.963977,201,1.00002,1.00002
app_25,45.1546,18901.2,7954.9,45.1,78.382,9.7119e+09,1.00444,0.950517,101,0.124512,198,1.00003,1.00003
app_26,36.9499,20756.8,7787.4,212.6,73.2128,5.3748e+10,1.02026,0.950517,107,0.736275,186,1.00003,1.00003
app_27,29.1898,20505.7,7328.8,671.2,87.3249,1.89155e+11,1.06412,0.950517,86,2.14949,225,1.00003,1.00003
app_28,79.6194,20482.8,7573.6,426.4,59.4696,1.09743e+11,1.04121,0.950517,116,1.82905,170,1.00003,1.00003
app_29,23.3895,20918.8,7942.9,57.1,93.1096,1.29676e+10,1.00555,0.950517,87,0.139437,229,1.00003,1.00003
app_3,3.69899,19534.3,7558.9,441.1,673.757,1.14993e+11,1.0425,0.950517,11,0.170613,1666,1,1
app_30,2.723,21340.2,7377.1,622.9,77.0316,1.55062e+11,1.06211,0.950517,93,2.01379,210,1.00003,1.00003
app_31,73.6181,20621.8,7474.1,525.9,82.9542,1.34224e+11,1.05148,0.950517,86,1.61716,227,1.00003,1.00003
app_32,103.546,20609.9,7545.6,454.4,66.8256,1.03848e+11,1.04583,0.950517,115,1.54996,171,1.00003,1.00003
app_33,6.43314,21796.1,7772.2,227.8,63.1873,6.32469e+10,1.021,0.950517,122,1.00392,162,1.00003,1.00003
app_34,11.0638,20099.8,7689.5,310.5,90.0219,7.5853e+10,1.03022,0.950517,90,0.842811,219,1.00003,1.00003
app_35,44.3941,21881.7,7515.6,484.4,83.5629,1.29222e+11,1.04646,0.950517,83,1.55689,235,1.00004,1.00004
app_36,40.1498,21826.4,7626.4,373.6,69.9429,9.10933e+10,1.03661,0.950517,98,1.30133,201,1.00004,1.00004
app_37,14.6923,21237,7761.1,238.9,77.5782,5.7353e+10,1.02322,0.950517,102,0.744844,193,1.00004,1.00004
app_38,78.9709,20525.8,7325.11,674.894,76.7257,1.79769e+11,1.06597,0.950517,97,2.34975,200,1.00004,1.00004
app_39,53.5982,20825.5,7461.6,538.4,90.8401,1.38252e+11,1.05265,0.950517,86,1.51925,228,1.00004,1.00004
app_4,8.35885,18997.4,7403.5,596.5,848.925,1.52446e+11,1.05877,0.950517,9,0.17956,1993,1,1
app_40,24.1523,20981.9,7371.02,628.977,58.5601,1.52282e+11,1.06336,0.950517,114,2.59356,171,1.00004,1.00004
app_41,484.744,22701.3,7542.5,457.5,8.13217,1.20402e+11,1.04399,0.950517,963,15.0503,21,1.00004,1.00004
app_42,422.965,21357,7233.4,766.6,9.93364,1.99643e+11,1.07628,0.950517,825,19.9643,24,1.00004,1.00004
app_43,183.208,23113.4,7377.2,622.8,7.86432,2.0031e+11,1.05576,0.950517,1072,25.0387,19,1.00004,1.00004
app_44,415.899,22835.5,7490.6,509.4,8.22053,1.13426e+11,1.05207,0.950517,896,14.1782,22,1.00004,1.00004
app_45,179.168,13777.2,7536.01,241.2,9.97815,8.56415e+10,1.04964,0.950517,1144,8.56415,18,1.00004,1.00004
app_46,723.235,20441.1,7795.7,204.3,8.70313,4.1387e+10,1.02079,0.950517,877,4.59856,23,1.00005,1.00005
app_47,613.396,23255,7290,710,7.30515,1.68941e+11,1.07254,0.950517,1014,24.1345,20,1.00005,1.00005
app_48,190.931,22044.4,7823.7,176.3,5.99089,7.29624e+10,1.01309,0.950517,1073,12.1604,19,1.00005,1.00005
app_49,409.813,24076.9,7506.5,493.5,5.93694,1.27765e+11,1.04791,0.950517,949,21.2942,21,1.00005,1.00005
app_5,5.1194,20429.7,7803.64,196.356,766.015,4.20543e+10,1.01967,0.950517,10,0.0548671,1958,1.00001,1.00001
app_50,498.496,24888,7714.2,285.8,5.23083,7.10979e+10,1.02758,0.950517,1096,14.2196,19,1.00005,1.00005
app_51,269.804,23137.4,7404.62,595.38,8.65825,1.54353e+11,1.05834,0.950517,874,17.2786,23,1.00005,1.00005
app_52,518.395,18715.4,7226.75,773.249,9.71132,2.18469e+11,1.07451,0.950517,914,22.1634,22,1.00005,1.00005
app_53,785.912,19327.7,7691.5,308.5,6.38088,7.70412e+10,1.02979,0.950517,1168,11.0059,17,1.00005,1.00005
app_54,469.492,18373.5,7962.2,37.8,13.1742,9.56736e+09,1.00354,0.950517,731,0.735951,28,1.00005,1.00005
app_55,737.243,20921.8,7758,242,7.05971,5.14638e+10,1.0244,0.950517,952,7.35198,21,1.00005,1.00005
app_56,620.077,19711.4,7917,83,7.48805,2.54526e+10,1.00725,0.950517,1034,3.18157,20,1.00006,1.00006
app_57,106.195,21597.4,7767.1,232.9,6.40135,6.40678e+10,1.02156,0.950517,824,10.678,24,1.00006,1.00006
app_58,262.813,24881,7593.8,406.2,5.61538,1.18535e+11,1.0373,0.950517,968,23.707,21,1.00006,1.00006
app_59,482.014,21783.1,7792.5,207.5,11.0219,5.2717e+10,1.01973,0.950517,698,4.79245,29,1.00006,1.00006
app_6,6.0248,18901.4,7816.8,183.2,883.218,3.69179e+10,1.01863,0.950517,9,0.0418096,2052,1.00001,1.00001
app_60,755.69,24218.8,7618.6,381.4,7.17394,1.41595e+11,1.0309,0.950517,1105,20.2278,18,1.00006,1.00006
app_7,6.11003,18762.8,7678.7,321.3,837.139,7.84637e+10,1.0313,0.950517,9,0.093744,1993,1.00001,1.00001
app_8,3.65142,19252.6,7891.7,108.3,976.533,1.33336e+10,1.01201,0.950517,8,0.0136475,2382,1.00001,1.00001
app_9,1.47152,20065.1,7299.09,700.908,595.889,1.82111e+11,1.06935,0.950517,12,0.305617,1533,1.00001,1.00001
