app_id,start_app,end_app,effective_cpu,effective_io,effective_iter,total_bytes,stretch,utilization,Tcomp,Tio,iterations,priority,group_id
app_1,0.108944,24906.8,5384.2,53.218,592.787,2.13441e+10,1.47996,0.85475,9,0.0359935,2008,1,1
app_10,3.08745,25704.2,5336.4,180.064,580.604,1.5418e+11,1.45704,0.85475,9,0.265369,2057,1,1
app_11,3.86334,25031,5430.3,170.835,554.936,1.44498e+11,1.43503,0.85475,10,0.260356,1862,1,1
app_12,4.38624,25077.3,5266.7,52.3862,629.502,1.62431e+10,1.51431,0.85475,9,0.0257826,2081,1,1
app_13,2.59717,24434.5,5453.8,40.3064,551.519,6.90091e+09,1.46501,0.85475,10,0.0125017,1828,1,1
app_14,1.44798,26190.7,5304.1,122.863,586.293,9.50074e+10,1.48173,0.85475,9,0.162129,2114,1,1
app_15,2.42689,25408.1,5348.8,171.094,533.901,1.49939e+11,1.45488,0.85475,10,0.280785,1835,1,1
app_16,3.91213,25609.4,5479.2,99.2828,481.175,7.53208e+10,1.44027,0.85475,11,0.156592,1726,1,1
app_17,3.43777,26804,5334.1,127.049,576.879,1.04081e+11,1.47108,0.85475,9,0.180382,2163,1,1
app_18,7.09161,25932.7,5398.1,104.087,549.735,7.34701e+10,1.4621,0.85475,10,0.133825,1922,1,1
app_19,3.7357,25028.1,5426.1,183,492.018,1.53375e+11,1.43383,0.85475,11,0.311737,1705,1,1
app_2,5.31423,25749.2,5514,43.0951,503.431,1.59299e+10,1.44667,0.85475,11,0.0316699,1808,1,1
app_20,9.30328,24803.7,5223.9,169.112,571.989,1.38329e+11,1.49192,0.85475,9,0.241834,1959,1,1
app_21,73.8708,21414.3,7325.2,6.1587,77.6762,2.2276e+09,1.09179,0.85475,94,0.0289298,212,1,1
app_22,29.4551,21027.1,7442.5,9.20734,67.987,6.72713e+09,1.07394,0.85475,107,0.0989285,186,1,1
app_23,18.3135,21205.8,7374.5,11,87.9281,7.56253e+09,1.08371,0.85475,85,0.0869257,234,1,1
app_24,60.0699,20858,7255,150.093,71.4066,1.4618e+11,1.08091,0.85475,99,2.03027,197,1,1
app_25,20.8457,20680.9,7350.6,139.418,83.2706,1.34414e+11,1.0688,0.85475,93,1.60016,210,1,1
app_26,7.43577,21749.1,7450.7,27.7253,69.1664,2.42315e+10,1.07024,0.85475,96,0.35118,207,1,1
app_27,84.3414,22023.9,7321.8,8.28449,74.8499,3.68254e+09,1.09208,0.85475,101,0.049764,198,1,1
app_28,50.9278,20861.5,7232.2,79.1327,85.1231,7.54022e+10,1.09475,0.85475,90,0.887085,219,1,1
app_29,57.5287,21213.3,7204.5,136.529,88.9026,1.3311e+11,1.09027,0.85475,86,1.49562,228,1,1
app_3,1.62358,25049.2,5446,48.8488,535.858,1.94847e+10,1.46373,0.85475,10,0.0363521,1844,1,1
app_30,53.2945,21599.9,7153.3,159.765,76.4868,1.56813e+11,1.09437,0.85475,98,2.06333,200,1,1
app_31,68.9382,21393.1,7486.9,12.1094,65.2217,8.87504e+09,1.06727,0.85475,117,0.136539,170,1,1
app_32,60.7473,21125.9,7224.4,88.1933,85.5892,8.51379e+10,1.09446,0.85475,99,0.989976,199,1,1
app_33,49.8744,22520,7406.1,179.82,71.7432,1.76305e+11,1.05507,0.85475,101,2.44869,193,1,1
app_34,22.2762,21965.1,7315.4,146.029,84.8512,1.42043e+11,1.07275,0.85475,86,1.67109,226,1,1
app_35,78.3876,22172.9,7369.7,92.6818,82.3652,8.92448e+10,1.07254,0.85475,81,1.08835,244,1,1
app_36,78.766,20526.2,7291.1,59.3369,81.0235,5.61587e+10,1.08884,0.85475,100,0.693317,198,1,1
app_37,68.9508,21351.9,7442.5,56.8257,67.3502,5.41744e+10,1.06714,0.85475,105,0.796683,188,1,1
app_38,105.484,20642.8,7511.3,20.1588,66.4702,1.70956e+10,1.06264,0.85475,113,0.255159,176,1,1
app_39,16.1807,21024.3,7349.5,83.5656,69.1935,7.94615e+10,1.07687,0.85475,105,1.15162,188,1,1
app_4,7.77648,26046.2,5437.3,105.618,538.829,7.93057e+10,1.45017,0.85475,10,0.147135,1944,1,1
app_40,0.227579,22034.3,7353.2,7.95236,77.0618,3.85284e+09,1.08739,0.85475,94,0.0500368,211,1,1
app_41,575.942,18129.3,7770.1,145.11,8.9304,1.44764e+11,1.01076,0.85475,973,16.0849,21,1,1
app_42,132.844,22357.8,7804.2,151.299,7.37428,1.50886e+11,1.00565,0.85475,1017,21.5551,20,1,1
app_43,263.324,22237.6,7851.2,56.5364,9.92669,5.5945e+10,1.01174,0.85475,1027,5.5945,20,1,1
app_44,276.252,21257.2,7745.8,179.802,8.37573,1.79215e+11,1.00946,0.85475,1132,22.4018,18,1,1
app_45,27.8711,18781.8,7915.1,22.4078,8.01818,2.1952e+10,1.00793,0.85475,981,2.74399,21,1,1
app_46,893.458,21901.7,7867.5,95.8085,7.17542,9.54729e+10,1.00465,0.85475,1191,13.639,17,1,1
app_47,139.397,23271.1,7804.2,168.117,5.31862,1.67766e+11,1.00352,0.85475,1026,27.961,19,1,1
app_48,21.3184,21178.2,7748.6,191.135,8.24016,1.90744e+11,1.00764,0.85475,1000,23.843,20,1,1
app_49,628.144,16666.6,7775.3,161.422,11.1847,1.60828e+11,1.00805,0.85475,866,14.6208,23,1,1
app_5,1.57835,25706.2,5144,185.232,658.774,1.47702e+11,1.5118,0.85475,8,0.22413,2272,1,1
app_50,411.5,21928.9,7761.9,164.365,11.3525,1.63744e+11,1.00938,0.85475,836,13.6453,24,1,1
app_51,510.731,23733.8,7977.6,14.4534,5.37047,1.41018e+10,1.00104,0.85475,964,2.3503,21,1,1
app_52,669.579,28136.5,7928.2,10.0729,5.6409,9.85448e+09,1.0078,0.85475,1092,1.9709,19,1,1
app_53,90.141,19689.9,7791.5,109.074,11.1112,1.08391e+11,1.01267,0.85475,842,9.85372,24,1,1
app_54,171.001,21301.5,7870,85.1947,7.20612,8.48692e+10,1.00567,0.85475,964,12.1242,21,1,1
app_55,403.732,22329.8,7694.9,249.37,9.28139,2.48993e+11,1.00706,0.85475,904,24.8993,22,1,1
app_56,932.875,20439.3,7831.9,133.153,7.09189,1.32867e+11,1.00442,0.85475,1100,18.9809,18,1,1
app_57,54.7375,23775.5,7755.92,169.585,6.07111,1.69362e+11,1.00943,0.85475,978,28.1366,20,1,1
app_58,204.372,16559.6,7747.7,187.899,8.64634,1.87275e+11,1.00819,0.85475,1094,20.8083,18,1,1
app_59,742.073,21347,7948.1,33.5412,5.91616,3.34428e+10,1.00231,0.85475,1003,6.68856,20,1,1
app_6,5.90208,25759.3,5187.9,138.321,646.628,1.09689e+11,1.51012,0.85475,8,0.169534,2354,1,1
app_60,60.0599,21015.8,7730.8,203.814,8.08954,2.0322e+11,1.00832,0.85475,1046,25.4025,19,1,1
app_7,4.54849,25618.3,5302.6,116.924,625.333,8.12883e+10,1.48591,0.85475,9,0.130061,2104,1,1
app_8,2.14524,25311.5,5401.1,52.7459,587.65,2.05768e+10,1.47556,0.85475,9,0.0350541,2078,1,1
app_9,7.21373,25005.6,5280.7,183.394,584.945,1.58061e+11,1.47092,0.85475,9,0.270189,1973,1,1
