app_id,start_app,end_app,effective_cpu,effective_io,effective_iter,total_bytes,stretch,utilization,Tcomp,Tio,iterations,priority,group_id
app_1,7.03109,25791,5288.48,128.783,658.418,9.43219e+10,1.48622,0.862093,8,0.143346,2373,1,1
app_10,7.65771,25204.8,5482.4,95.9909,549.931,6.30409e+10,1.44263,0.862093,10,0.11462,1914,1,1
app_11,7.57927,25274.3,5534.5,155.012,537.289,1.25839e+11,1.41334,0.862093,10,0.234337,1902,1,1
app_12,9.47224,25103.4,5596.6,70.7481,552.703,4.90193e+10,1.41703,0.862093,10,0.088803,1890,1,1
app_13,0.963563,25524.8,5594.3,100.755,556.992,6.84899e+10,1.41273,0.862093,10,0.122962,1959,1,1
app_14,8.54873,24643,5570.8,124.466,558.682,9.96611e+10,1.41082,0.862093,10,0.178285,1864,1,1
app_15,0.44777,24332.9,5341.4,52.8712,673.107,1.31338e+10,1.49406,0.862093,8,0.0195154,2262,1,1
app_16,6.72681,24967.6,5480.7,104.773,536.878,7.68566e+10,1.43948,0.862093,11,0.143122,1784,1,1
app_17,6.795,25283.2,5544.5,120.886,546.075,9.82154e+10,1.41776,0.862093,10,0.179882,1906,1,1
app_18,8.72377,24392.1,5330.9,56.6255,655.297,2.07742e+10,1.49486,0.862093,8,0.0317163,2274,1,1
app_19,9.94191,24790.1,5339.8,169.736,591.805,1.38413e+11,1.46033,0.862093,9,0.233805,2012,1,1
app_2,3.7049,24392.6,5284,142.65,611.29,1.21941e+11,1.47985,0.862093,9,0.199577,2006,1,1
app_20,9.35331,25752.8,5578.2,96.6509,552.047,6.50395e+10,1.41763,0.862093,10,0.117825,1953,1,1
app_21,29.9528,21916.1,7321.7,193.589,64.5323,1.90089e+11,1.06499,0.862093,110,2.92445,176,1,1
app_22,28.1166,19478.8,7479.5,124.975,73.9281,1.20719e+11,1.0526,0.862093,106,1.63133,185,1,1
app_23,71.1355,20873.7,7334.4,181.777,73.1406,1.77604e+11,1.06496,0.862093,95,2.40005,205,1,1
app_24,59.0537,21853.5,7472,95.2059,61.473,9.27539e+10,1.05754,0.862093,115,1.49603,172,1,1
app_25,92.2653,19314.9,7250.1,171.21,72.1155,1.67379e+11,1.07853,0.862093,102,2.3247,191,1,1
app_26,4.42767,22171.5,7554.5,56.5626,61.3453,5.35568e+10,1.05152,0.862093,113,0.863819,175,1,1
app_27,27.4359,21055.5,7278.9,173.571,78.4884,1.70087e+11,1.07397,0.862093,99,2.18061,196,1,1
app_28,25.2753,20755.7,7447.1,123.44,82.4564,1.19468e+11,1.05728,0.862093,94,1.43938,209,1,1
app_29,67.9872,22562.1,7620.3,33.8752,68.0569,3.01536e+10,1.04569,0.862093,102,0.443436,194,1,1
app_3,1.75525,24585.8,5595.4,34.394,521.039,4.32199e+09,1.42864,0.862093,11,0.00829557,1737,1,1
app_30,108.503,21311.8,7448,85.1786,65.1056,8.24242e+10,1.06236,0.862093,109,1.26806,182,1,1
app_31,32.0043,21437.4,7388.8,103.398,77.9751,9.97008e+10,1.0683,0.862093,93,1.27822,212,1,1
app_32,92.861,21840.1,7439.93,117.647,66.6313,1.13826e+11,1.05908,0.862093,101,1.70817,195,1,1
app_33,51.5411,21333.4,7193.8,164.538,80.4232,1.61315e+11,1.08768,0.862093,93,1.99154,209,1,1
app_34,46.4305,21374.6,7317.9,46.1898,77.9858,4.20494e+10,1.08696,0.862093,95,0.539094,209,1,1
app_35,61.9999,22405.1,7396.1,176.858,71.0088,1.72997e+11,1.05693,0.862093,97,2.43657,201,1,1
app_36,71.1879,21948.3,7307.6,198.178,78.2771,1.94936e+11,1.06631,0.862093,100,2.49918,194,1,1
app_37,66.354,20810.4,7291.7,111.147,70.3167,1.07107e+11,1.08126,0.862093,104,1.50855,189,1,1
app_38,46.2624,21591.3,7407.5,160.571,79.827,1.57317e+11,1.05753,0.862093,88,1.99135,221,1,1
app_39,30.9003,19823.7,7408.5,44.3142,83.3513,4.09054e+10,1.07391,0.862093,96,0.492837,208,1,1
app_4,1.99652,26286.7,5311.21,80.3437,663.195,5.4643e+10,1.49091,0.862093,8,0.0824177,2458,1,1
app_40,91.7754,21198.2,7432.6,41.0952,75.6587,3.76427e+10,1.07092,0.862093,99,0.495299,200,1,1
app_41,676.835,15313,7624.4,323.846,13.2873,3.23315e+11,1.00658,0.862093,979,24.8704,20,1,1
app_42,92.2734,20991.8,7946.9,42.4463,7.03624,4.2093e+10,1.00138,0.862093,1024,6.01329,20,1,1
app_43,134.819,20087.8,7794.7,157.027,5.95883,1.56694e+11,1.00611,0.862093,1078,26.1156,19,1,1
app_44,695.829,20203.7,7724.6,158.887,10.2374,1.58462e+11,1.01483,0.862093,867,15.8462,23,1,1
app_45,755.755,24770.8,7931.8,17.5817,8.66811,1.71394e+10,1.00642,0.862093,797,2.14242,26,1,1
app_46,704.094,20885.6,7827.5,114.504,10.0005,1.13947e+11,1.00737,0.862093,852,11.3947,24,1,1
app_47,351.856,23986.1,7965.5,13.6,8.23074,1.31518e+10,1.00268,0.862093,901,1.64397,23,1,1
app_48,168.245,22875,7908.5,55.2459,5.65097,5.49317e+10,1.00459,0.862093,1063,9.15528,19,1,1
app_49,15.1639,25142.7,7911.4,24.7473,7.3203,2.44573e+10,1.00808,0.862093,936,3.05717,22,1,1
app_5,5.48465,25467.9,5483.1,127.849,552.409,1.06334e+11,1.43127,0.862093,10,0.192635,1937,1,1
app_50,1109.33,20981.9,7930.5,27.539,6.90375,2.71683e+10,1.00532,0.862093,1154,3.88119,18,1,1
app_51,133.493,21383.1,7878.6,49.5145,9.16733,4.89947e+10,1.00913,0.862093,1091,4.89947,19,1,1
app_52,311.225,20748.2,7816.1,114.912,9.58136,1.14385e+11,1.00877,0.862093,890,11.4385,23,1,1
app_53,589.105,21279.4,7919.8,52.1147,8.88457,5.17093e+10,1.00357,0.862093,987,5.74547,21,1,1
app_54,925.163,18000.9,7836.3,109.589,9.35673,1.08999e+11,1.00688,0.862093,991,12.111,20,1,1
app_55,114.448,17681.5,7898.6,88.65,8.24039,8.80586e+10,1.00167,0.862093,985,11.0073,21,1,1
app_56,715.274,21880.4,7763,120.53,7.97807,1.20108e+11,1.01483,0.862093,880,15.0135,23,1,1
app_57,590.56,18747.9,7963.2,7.06441,6.50595,6.56314e+09,1.00379,0.862093,1020,0.937591,20,1,1
app_58,115.253,20866.4,7772.7,174.273,6.67192,1.73798e+11,1.00673,0.862093,1041,24.8283,19,1,1
app_59,105.643,20731.9,7720.2,267.464,12.2055,2.66946e+11,1.00161,0.862093,879,22.2455,23,1,1
app_6,1.47161,25906.1,5429.6,49.5442,608.442,1.5719e+10,1.46915,0.862093,9,0.0258536,2168,1,1
app_60,21.6496,19919.7,7837.7,99.6492,7.15118,9.93451e+10,1.00793,0.862093,986,14.1922,20,1,1
app_7,0.178847,24683.6,5607.5,167.51,528.576,1.44916e+11,1.39072,0.862093,11,0.274461,1757,1,1
app_8,5.82656,25226.7,5409.1,156.638,592.351,1.19692e+11,1.44697,0.862093,9,0.202182,2096,1,1
app_9,1.07387,24554.2,5239.1,57.7181,751.71,1.39007e+10,1.52294,0.862093,7,0.0185096,2529,1,1
