app_id,start_app,end_app,effective_cpu,effective_io,effective_iter,total_bytes,stretch,utilization,Tcomp,Tio,iterations,priority,group_id
app_1,6.90827,20852.8,7531.2,468.8,761.118,1.14735e+11,1.04631,0.95146,10,0.150769,1956,1,1
app_10,5.28231,20855.4,7337.5,662.5,682.557,1.75641e+11,1.0648,0.95146,11,0.257538,1755,1.00001,1.00001
app_11,6.72804,19747.2,7604.6,395.4,772.172,9.40668e+10,1.03914,0.95146,10,0.121848,1878,1.00001,1.00001
app_12,5.86047,19738.8,7781.7,218.3,689.877,4.71228e+10,1.02187,0.95146,11,0.068393,1749,1.00001,1.00001
app_13,0.628291,18682.9,7742.7,257.3,849.211,5.73099e+10,1.02564,0.95146,9,0.0675028,2002,1.00001,1.00001
app_14,4.67799,20285.7,7715.9,284.1,781.104,6.82858e+10,1.02772,0.95146,10,0.0874338,1940,1.00001,1.00001
app_15,2.09463,19959.6,7519.4,480.6,953.922,1.15878e+11,1.04777,0.95146,8,0.121593,2408,1.00002,1.00002
app_16,4.33234,20134.5,7250.7,749.3,895.981,1.94945e+11,1.07445,0.95146,8,0.217572,2293,1.00002,1.00002
app_17,0.789214,18923.1,7369.2,630.8,920.846,1.63024e+11,1.0621,0.95146,8,0.177007,2210,1.00002,1.00002
app_18,2.62568,19761.3,7345.4,654.6,797.359,1.69966e+11,1.06449,0.95146,9,0.21299,2002,1.00002,1.00002
app_19,9.63096,19148.6,7797.4,202.6,778.097,4.36728e+10,1.02027,0.95146,10,0.0561347,1875,1.00002,1.00002
app_2,3.21731,21329.9,7313.4,686.6,809.878,1.82945e+11,1.06719,0.95146,9,0.225858,2151,1,1
app_20,2.73023,19013.5,7819.7,180.3,964.545,3.56182e+10,1.01842,0.95146,8,0.0369483,2314,1.00002,1.00002
app_21,82.1328,21150.6,7455,545,89.7463,1.58253e+11,1.0508,0.95146,84,1.77812,233,1.00002,1.00002
app_22,78.5143,20100.8,7732.4,267.6,91.3589,6.29542e+10,1.02625,0.95146,87,0.691804,228,1.00002,1.00002
app_23,29.0575,20895.1,7681.1,318.9,66.8165,8.4729e+10,1.03015,0.95146,108,1.26461,183,1.00002,1.00002
app_24,5.83473,21176.1,7647.5,352.5,84.7718,1.00382e+11,1.03254,0.95146,86,1.18096,230,1.00002,1.00002
app_25,44.422,20309.1,7626.2,373.8,91.3919,9.77566e+10,1.03574,0.95146,89,1.07425,221,1.00003,1.00003
app_26,69.2044,20166,7792.7,207.3,86.5882,5.59708e+10,1.01928,0.95146,94,0.650823,212,1.00003,1.00003
app_27,3.17324,21762.6,7843.8,156.2,93.9663,4.1165e+10,1.01459,0.95146,78,0.437925,254,1.00003,1.00003
app_28,58.859,22804.2,7509.8,490.2,78.6766,1.40526e+11,1.04571,0.95146,89,1.77881,221,1.00003,1.00003
app_29,6.21902,19443.3,7894.6,105.4,93.6585,3.16741e+10,1.0093,0.95146,81,0.336958,245,1.00003,1.00003
app_3,10.4912,20606.5,7383.4,616.6,739.09,1.61279e+11,1.06035,0.95146,10,0.21824,1904,1,1
app_30,12.2702,19705.6,7507.9,492.1,79.4267,1.34673e+11,1.04677,0.95146,99,1.68342,198,1.00003,1.00003
app_31,93.3004,20242.6,7864.1,135.9,78.4172,3.79417e+10,1.0124,0.95146,109,0.486432,183,1.00003,1.00003
app_32,19.8229,20249.1,7666.9,333.1,61.7522,9.03785e+10,1.03129,0.95146,118,1.45772,168,1.00003,1.00003
app_33,94.0799,19642.7,7727.39,272.607,81.684,7.29091e+10,1.0256,0.95146,95,0.898222,207,1.00003,1.00003
app_34,99.3922,20458.2,7324.6,675.4,76.4085,1.94612e+11,1.06394,0.95146,98,2.52742,199,1.00003,1.00003
app_35,96.7709,21059.2,7769.42,230.579,75.363,6.10483e+10,1.02165,0.95146,104,0.809902,191,1.00004,1.00004
app_36,2.02577,20617.4,7421.8,578.2,76.48,1.54102e+11,1.05598,0.95146,101,2.00132,194,1.00004,1.00004
app_37,30.2826,21708,7473.1,526.9,67.1248,1.43271e+11,1.05037,0.95146,105,2.13837,185,1.00004,1.00004
app_38,18.3977,18535.8,7934.3,65.7,88.1681,1.67284e+10,1.00616,0.95146,94,0.190096,212,1.00004,1.00004
app_39,68.8116,18735.1,7253.3,746.7,89.7393,2.01581e+11,1.07312,0.95146,92,2.26495,211,1.00004,1.00004
app_4,6.79459,19852.2,7248.9,751.1,811.372,2.03987e+11,1.07341,0.95146,9,0.251216,2011,1,1
app_40,90.9814,19797.5,7915.8,84.2,77.0102,2.1584e+10,1.00789,0.95146,104,0.280311,191,1.00004,1.00004
app_41,837.441,21835.7,7438.8,561.2,7.13679,1.5115e+11,1.05403,0.95146,965,21.5928,21,1.00004,1.00004
app_42,442.73,22444,7588.8,411.2,5.3781,1.03191e+11,1.04004,0.95146,989,20.6383,20,1.00004,1.00004
app_43,535.812,22304.9,7555.6,444.4,7.02806,1.44567e+11,1.03894,0.95146,1052,20.6524,19,1.00004,1.00004
app_44,543.836,23003.7,7346.4,653.6,7.40304,1.93934e+11,1.06096,0.95146,1049,27.7048,19,1.00004,1.00004
app_45,798.746,22372.2,7825,175,5.98272,4.1535e+10,1.01697,0.95146,941,6.9225,22,1.00004,1.00004
app_46,422.284,22953.2,7774.7,225.3,6.27705,5.68197e+10,1.02151,0.95146,947,8.1171,21,1.00005,1.00005
app_47,169.553,15597.1,7864.6,135.4,10.0561,3.54981e+10,1.01265,0.95146,1078,3.54981,19,1.00005,1.00005
app_48,328.314,20718.7,7969.7,30.3,8.87853,8.99626e+09,1.00267,0.95146,999,0.999584,20,1.00005,1.00005
app_49,1072.17,28909.5,7476.6,523.4,5.53466,1.41734e+11,1.0501,0.95146,1077,28.3467,19,1.00005,1.00005
app_5,5.0676,18305.2,7725.7,274.3,1089.63,5.69842e+10,1.02792,0.95146,7,0.0522791,2517,1.00001,1.00001
app_50,892.364,16457.5,7614.3,385.7,7.29867,1.3789e+11,1.03197,0.95146,1182,19.6985,17,1.00005,1.00005
app_51,54.8788,19895.1,7615.7,384.3,7.89672,1.07594e+11,1.03583,0.95146,1099,13.4492,18,1.00005,1.00005
app_52,273.424,19579.7,7713.7,286.3,4.94844,7.43299e+10,1.02722,0.95146,1043,14.866,19,1.00005,1.00005
app_53,844.935,22872.1,7781.8,218.2,7.54088,4.18761e+10,1.02254,0.95146,884,5.9823,23,1.00005,1.00005
app_54,286.557,24753.8,7751.6,248.4,6.36207,7.56056e+10,1.02208,0.95146,1023,12.6009,20,1.00005,1.00005
app_55,136.679,21925.2,7656,344,5.74677,9.19399e+10,1.03253,0.95146,1177,15.3233,17,1.00005,1.00005
app_56,845.199,20012.1,7866.6,133.4,11.1259,2.72816e+10,1.01344,0.95146,863,2.48015,24,1.00006,1.00006
app_57,208.38,19812.8,7837.2,162.8,14.0548,4.90225e+10,1.01443,0.95146,705,3.5016,29,1.00006,1.00006
app_58,8.33557,18508.7,7046.5,953.5,13.9731,2.59178e+11,1.09504,0.95146,779,18.5127,26,1.00006,1.00006
app_59,904.545,22869.7,7799.1,200.9,9.30728,5.39882e+10,1.01871,0.95146,951,5.39882,21,1.00006,1.00006
app_6,3.58819,20364.9,7595.4,404.6,848.069,1.00326e+11,1.03954,0.95146,9,0.118309,2120,1.00001,1.00001
app_60,709.752,21664,7733,267,8.12082,5.53332e+10,1.02718,0.95146,924,6.91665,22,1.00006,1.00006
app_7,1.89673,19940.6,7332.4,667.6,931.526,1.78024e+11,1.06519,0.95146,8,0.191013,2288,1.00001,1.00001
app_8,8.29306,20412.8,7250.5,749.5,839.092,1.94587e+11,1.07453,0.95146,9,0.231651,2145,1.00001,1.00001
app_9,4.31071,19679.7,7738.2,261.8,679.539,6.65075e+10,1.02502,0.95146,11,0.0978052,1669,1.00001,1.00001
