app_id,start_app,end_app,effective_cpu,effective_io,effective_iter,total_bytes,stretch,utilization,Tcomp,Tio,iterations,priority,group_id
app_1,6.59311,20608.5,7357.7,642.3,744.679,1.60001e+11,1.06416,0.947715,10,0.214766,1945,1,1
app_10,7.91752,19031.2,7719.6,280.4,978.366,5.87542e+10,1.0285,0.947715,8,0.0600758,2339,1.00001,1.00001
app_11,6.1575,20015.1,7697.8,302.2,763.649,6.96963e+10,1.02993,0.947715,10,0.0913451,1950,1.00001,1.00001
app_12,1.71628,20769.5,7556.1,443.9,602.84,1.05993e+11,1.0441,0.947715,12,0.175776,1616,1.00001,1.00001
app_13,5.19639,19374.8,7538.9,461.1,853.786,1.09567e+11,1.04596,0.947715,9,0.128298,2024,1.00001,1.00001
app_14,8.05114,19369.9,7707,293,844.205,6.43152e+10,1.02943,0.947715,9,0.0762029,2050,1.00001,1.00001
app_15,4.8189,20752.6,7542.6,457.4,689.919,1.1153e+11,1.04519,0.947715,11,0.161872,1773,1.00002,1.00002
app_16,8.66888,19700,7429.1,570.9,837.833,1.40017e+11,1.05693,0.947715,9,0.167285,2047,1.00002,1.00002
app_17,5.12789,20597.3,7409.3,590.7,821.802,1.44182e+11,1.05911,0.947715,9,0.175404,2139,1.00002,1.00002
app_18,6.69497,20366.7,7525.2,474.8,624.22,1.14629e+11,1.04714,0.947715,12,0.1837,1612,1.00002,1.00002
app_19,6.68792,20334.1,7614.6,385.4,938.893,8.9897e+10,1.03835,0.947715,8,0.095737,2419,1.00002,1.00002
app_2,5.94492,19905.7,7682,318,856.545,7.18384e+10,1.03175,0.947715,9,0.0839234,2123,1,1
app_20,5.20836,20277.6,7499.85,500.153,751.237,1.19521e+11,1.04996,0.947715,10,0.159087,1902,1.00002,1.00002
app_21,6.3621,21283,7708.81,291.189,85.8802,7.0348e+10,1.02839,0.947715,86,0.820982,230,1.00002,1.00002
app_22,57.1194,19972,7669.2,330.8,82.8149,7.92409e+10,1.03247,0.947715,94,0.966352,210,1.00002,1.00002
app_23,26.6688,21183.3,7777,223,72.227,4.99441e+10,1.02211,0.947715,103,0.693668,192,1.00002,1.00002
app_24,77.3833,21789.6,7512.8,487.2,80.8696,1.18333e+11,1.04834,0.947715,88,1.4609,222,1.00002,1.00002
app_25,29.1261,21371.9,7326.5,673.5,82.2206,1.71047e+11,1.06702,0.947715,97,2.08593,202,1.00003,1.00003
app_26,80.1335,20702.7,7633.7,366.3,68.6896,9.39069e+10,1.03525,0.947715,109,1.38098,181,1.00003,1.00003
app_27,30.9256,20807.4,7544.8,455.2,79.4128,1.13935e+11,1.04456,0.947715,87,1.42419,226,1.00003,1.00003
app_28,110.091,20566.7,7524.5,475.5,68.4088,1.21649e+11,1.04628,0.947715,113,1.76302,174,1.00003,1.00003
app_29,59.7408,20669.2,7907.3,92.7,70.201,2.13623e+10,1.009,0.947715,111,0.300877,179,1.00003,1.00003
app_3,9.68309,18960.1,7919.1,80.9,786.92,6.90885e+09,1.00934,0.947715,10,0.00877872,1868,1,1
app_30,21.2047,19687.5,7376.85,623.15,72.4165,1.77179e+11,1.05904,0.947715,108,2.44306,181,1.00003,1.00003
app_31,85.3124,19670.1,7571.6,428.4,95.6501,1.10347e+11,1.0414,0.947715,90,1.16155,218,1.00003,1.00003
app_32,24.6502,17790.6,7688.8,311.2,92.495,8.91318e+10,1.02855,0.947715,95,0.958407,207,1.00003,1.00003
app_33,28.6224,19535.9,7296.56,703.44,73.8837,1.61748e+11,1.07263,0.947715,105,2.20462,186,1.00003,1.00003
app_34,79.5347,20905.2,7849.1,150.9,76.1775,4.3418e+10,1.01362,0.947715,100,0.571289,199,1.00003,1.00003
app_35,5.22418,20759.2,7940.5,59.5,63.2469,1.4835e+10,1.00561,0.947715,125,0.235476,159,1.00004,1.00004
app_36,46.3714,21058.5,7382.95,617.047,74.4507,1.65948e+11,1.05976,0.947715,99,2.23962,197,1.00004,1.00004
app_37,31.0812,19515.1,7321.8,678.2,89.4904,1.84592e+11,1.06576,0.947715,82,2.07406,236,1.00004,1.00004
app_38,69.184,21978.3,7820.4,179.6,64.6201,4.95839e+10,1.01652,0.947715,114,0.774749,175,1.00004,1.00004
app_39,35.1726,20784.9,7782.89,217.111,75.5893,4.9409e+10,1.02141,0.947715,101,0.654881,196,1.00004,1.00004
app_4,9.01055,19021.6,7355.16,644.843,927.939,1.56007e+11,1.06508,0.947715,8,0.168192,2214,1,1
app_40,1.78378,21447.2,7809.9,190.1,73.0793,4.84613e+10,1.01802,0.947715,104,0.663853,191,1.00004,1.00004
app_41,953.198,20948,7455.1,544.9,6.77408,1.30576e+11,1.05462,0.947715,1041,18.6538,19,1.00004,1.00004
app_42,17.866,23540.5,7474.11,525.887,6.62808,1.00494e+11,1.05616,0.947715,861,16.1313,23,1.00004,1.00004
app_43,1123.02,23988.3,7769.3,230.7,4.88099,8.44525e+10,1.01862,0.947715,1111,16.8905,18,1.00004,1.00004
app_44,272.455,22655,7666.4,333.6,9.51209,1.02723e+11,1.02972,0.947715,965,10.2723,21,1.00004,1.00004
app_45,619.121,23359.8,7853.91,146.093,6.10656,2.50201e+10,1.01537,0.947715,976,3.70255,21,1.00004,1.00004
app_46,386.616,26434.4,7686.9,313.1,5.847,8.08568e+10,1.0299,0.947715,1217,13.4761,17,1.00005,1.00005
app_47,754.036,22595.5,7381.5,618.5,10.6207,1.38185e+11,1.06387,0.947715,930,12.5623,22,1.00005,1.00005
app_48,945.005,20420.5,7093.1,906.9,8.66507,2.03395e+11,1.09642,0.947715,1021,22.5995,20,1.00005,1.00005
app_49,193.383,25026.9,7574.5,425.5,6.59326,1.04382e+11,1.04182,0.947715,933,17.397,22,1.00005,1.00005
app_5,6.78048,19809.4,7528.9,471.1,746.964,1.13818e+11,1.04675,0.947715,10,0.152367,1865,1.00001,1.00001
app_50,633.861,25330.5,7688.8,311.2,7.33824,1.11574e+11,1.02559,0.947715,977,15.9392,21,1.00005,1.00005
app_51,239.453,23481.4,7496.32,503.675,5.30404,1.02936e+11,1.05273,0.947715,1046,18.8704,19,1.00005,1.00005
app_52,965.856,24465.9,7438,562,9.90322,1.39135e+11,1.05581,0.947715,968,13.9135,21,1.00005,1.00005
app_53,617.161,18045.5,7912.7,87.3,12.1925,2.60063e+10,1.00772,0.947715,687,2.1672,29,1.00005,1.00005
app_54,417.712,15970.2,7779.3,220.7,7.84557,5.73148e+10,1.02085,0.947715,1064,7.16435,19,1.00005,1.00005
app_55,531.342,21107.9,7442,558,7.9071,1.37992e+11,1.05541,0.947715,932,17.249,22,1.00005,1.00005
app_56,201.252,16607.5,7383.5,616.5,10.3463,1.86275e+11,1.05683,0.947715,990,18.6275,20,1.00006,1.00006
app_57,407.172,22944.8,7597,403,7.22448,1.36377e+11,1.03448,0.947715,1062,19.4825,19,1.00006,1.00006
app_58,720.295,23529.6,7443.6,556.4,7.43116,1.77577e+11,1.04971,0.947715,952,22.1972,21,1.00006,1.00006
app_59,64.5569,19818.6,7343.36,656.642,8.88462,1.51494e+11,1.0674,0.947715,962,17.6765,21,1.00006,1.00006
app_6,3.37006,20352.4,7322,678,727.936,1.72974e+11,1.06738,0.947715,10,0.237601,1863,1.00001,1.00001
app_60,496.738,17866.8,7943.8,56.2,8.24757,1.40745e+10,1.00529,0.947715,1115,1.75931,18,1.00006,1.00006
app_7,9.74599,18565.2,7385.4,614.6,849.492,1.50256e+11,1.06162,0.947715,9,0.176772,1970,1.00001,1.00001
app_8,5.15749,19636.1,7332.1,667.9,910.189,1.71479e+11,1.06616,0.947715,8,0.188439,2257,1.00001,1.00001
app_9,8.11297,18346.1,7911.7,88.3,882.346,4.47846e+09,1.01059,0.947715,9,0.00507762,2048,1.00001,1.00001
