app_id,start_app,end_app,effective_cpu,effective_io,effective_iter,total_bytes,stretch,utilization,Tcomp,Tio,iterations,priority,group_id
app_1,2.11699,25275.7,5314.2,65.7927,656.274,3.26417e+10,1.49621,0.859051,8,0.0497586,2281,1,1
app_10,10.3284,25736,5562,105.718,494.751,8.26236e+10,1.41728,0.859051,11,0.167254,1741,1,1
app_11,0.109241,25318.6,5296.1,63.4529,649.902,2.92084e+10,1.50226,0.859051,8,0.0450053,2255,1,1
app_12,9.09933,24904.9,5366.1,134.026,595.689,1.09925e+11,1.46091,0.859051,9,0.184437,2036,1,1
app_13,7.6335,25998,5513.6,47.47,540.246,1.75007e+10,1.44637,0.859051,10,0.0324087,1941,1,1
app_14,10.8868,25054.8,5447.7,128.619,549.028,1.09023e+11,1.4397,0.859051,10,0.198585,1833,1,1
app_15,0.652056,25232.7,5156.6,129.41,664.221,9.30168e+10,1.52392,0.859051,8,0.140086,2282,1,1
app_16,1.91336,24942.9,5425.1,159.858,526.007,1.34329e+11,1.439,0.859051,10,0.255379,1798,1,1
app_17,6.67894,24885.6,5419.6,72.2793,591.197,4.73755e+10,1.46333,0.859051,9,0.0801615,2014,1,1
app_18,2.14842,26831.3,5295.7,115.013,634.294,7.8856e+10,1.4885,0.859051,8,0.124379,2435,1,1
app_19,8.1259,24736.3,5279.2,169.119,611.341,1.31967e+11,1.47842,0.859051,9,0.215632,2008,1,1
app_2,5.36795,25118.5,5397.5,121.616,559.096,9.7325e+10,1.45592,0.859051,10,0.174106,1913,1,1
app_20,9.10844,26347,5467.7,143.073,518.352,1.12131e+11,1.43374,0.859051,10,0.216469,1941,1,1
app_21,7.22033,20616.2,7364.8,5.89169,75.2003,1.99743e+09,1.08595,0.859051,100,0.0266324,199,1,1
app_22,82.4829,21095.4,7389.9,90.8213,81.9277,8.73023e+10,1.06992,0.859051,91,1.07781,216,1,1
app_23,27.8969,20918.3,7400.1,126.619,66.9832,1.23406e+11,1.06333,0.859051,103,1.84188,190,1,1
app_24,27.2312,19426.7,7352.1,54.025,76.8956,5.01398e+10,1.08075,0.859051,103,0.651166,192,1,1
app_25,60.874,21498,7411.5,29.7526,80.506,2.46444e+10,1.07583,0.859051,87,0.308055,229,1,1
app_26,93.4926,21652.6,7351.4,178.321,69.3769,1.74425e+11,1.06301,0.859051,110,2.5279,177,1,1
app_27,75.7925,21466.2,7471.3,118.434,77.0881,1.14888e+11,1.05455,0.859051,88,1.49205,224,1,1
app_28,7.31871,22050.6,7484.4,84.9433,84.9382,8.04384e+10,1.05752,0.859051,85,0.946334,233,1,1
app_29,5.82921,20569.1,7344.9,52.3305,93.2888,4.72665e+10,1.08223,0.859051,85,0.508242,234,1,1
app_3,6.20237,26173.6,5311.29,125.721,651.256,9.13567e+10,1.48076,0.859051,8,0.140293,2350,1,1
app_30,50.0733,20670.3,7429.5,124.761,67.7493,1.2164e+11,1.05944,0.859051,108,1.78882,182,1,1
app_31,41.4847,21188.6,7371.3,101.131,73.5018,9.65575e+10,1.07126,0.859051,97,1.30483,204,1,1
app_32,21.7386,21575.4,7303.9,160.337,78.7256,1.57118e+11,1.07224,0.859051,94,1.98884,209,1,1
app_33,32.3811,20618.8,7390.3,182.042,79.3286,1.78069e+11,1.05703,0.859051,94,2.25403,208,1,1
app_34,12.6649,21678,7456.8,55.245,69.8224,5.13563e+10,1.06551,0.859051,99,0.744295,201,1,1
app_35,86.3757,22334.7,7458.2,40.3155,70.3963,3.63744e+10,1.06744,0.859051,96,0.519635,206,1,1
app_36,97.4433,22422.7,7355.4,118.828,68.7763,1.15956e+11,1.07076,0.859051,105,1.68052,188,1,1
app_37,8.98133,20328.5,7372.7,197.545,70.8067,1.92874e+11,1.05742,0.859051,116,2.71654,168,1,1
app_38,72.0914,20546.4,7346.7,99.7189,82.5918,9.55402e+10,1.07495,0.859051,96,1.15109,205,1,1
app_39,80.6117,21882.8,7401.8,119.577,80.9185,1.14403e+11,1.06437,0.859051,89,1.41238,220,1,1
app_4,9.67089,25079.4,5469.2,39.3355,540.166,5.87433e+09,1.46117,0.859051,10,0.0108784,1853,1,1
app_40,90.9758,22234.5,7439.8,41.9544,68.3687,3.91077e+10,1.06967,0.859051,100,0.575113,198,1,1
app_41,951.964,27572.4,7939.6,8.03185,5.32216,7.9224e+09,1.0066,0.859051,1312,1.58448,16,1,1
app_42,398.142,24345.3,7828.8,137.609,6.29624,1.37395e+11,1.00424,0.859051,1037,22.8991,19,1,1
app_43,920.573,17993.2,7835,91.5787,10.0014,9.10281e+10,1.00933,0.859051,913,9.10281,22,1,1
app_44,37.9318,22372.9,7764.8,152.8,7.95055,1.52442e+11,1.01045,0.859051,902,19.0552,22,1,1
app_45,809.086,20806.2,7883.6,72.8245,6.59195,7.25262e+10,1.00551,0.859051,1042,10.3609,20,1,1
app_46,677.953,19533.9,7841.8,108.426,6.61634,1.0805e+11,1.00631,0.859051,1050,15.4357,19,1,1
app_47,940.072,20195.8,7832,156.86,6.9325,1.56515e+11,1.00144,0.859051,1053,22.3593,19,1,1
app_48,766.521,20881.7,7779.8,165.518,8.3948,1.65089e+11,1.00694,0.859051,1013,20.6361,20,1,1
app_49,278.718,16673.3,7667.2,293.959,13.714,2.9313e+11,1.00498,0.859051,880,20.9378,23,1,1
app_5,2.69066,24292.7,5403.2,165.042,542.953,1.38312e+11,1.44365,0.859051,10,0.254718,1809,1,1
app_50,12.1526,21181.9,7809.7,142.414,8.18479,1.42096e+11,1.00606,0.859051,978,17.762,21,1,1
app_51,324.556,20733.6,7732.4,191.322,6.41498,1.90937e+11,1.00968,0.859051,1280,27.2767,16,1,1
app_52,975.337,24290.5,7915.7,49.4378,7.28435,4.88978e+10,1.00444,0.859051,1056,6.11223,19,1,1
app_53,350.57,21070.7,7836.6,86.8573,7.08242,8.65504e+10,1.0097,0.859051,1049,12.3643,19,1,1
app_54,416.064,22211.8,7894.9,28.7873,9.59478,2.81537e+10,1.00971,0.859051,899,2.81537,23,1,1
app_55,259.322,24102.3,7853.3,81.2829,8.29679,8.08153e+10,1.0083,0.859051,797,10.1019,25,1,1
app_56,552.434,18501.6,7917,65.4909,6.6287,6.53836e+10,1.00221,0.859051,914,10.8973,22,1,1
app_57,280.182,19404.5,7915.8,44.1831,6.04689,4.38491e+10,1.00507,0.859051,962,7.30819,21,1,1
app_58,303.529,22620.2,7928.3,48.4327,8.71177,4.80896e+10,1.00296,0.859051,940,5.34329,22,1,1
app_59,908.207,20948.6,7816.8,151.899,7.65086,1.51479e+11,1.00398,0.859051,1076,18.9349,19,1,1
app_6,0.0864384,25460.5,5485.7,39.0399,549.391,4.23918e+09,1.45721,0.859051,10,0.0077076,1919,1,1
app_60,915.552,21779.2,7802,193.563,7.78167,1.92978e+11,1.00063,0.859051,1036,24.1223,19,1,1
app_7,1.37676,25541,5287.7,56.0958,659.625,1.91038e+10,1.5075,0.859051,8,0.0289451,2333,1,1
app_8,4.42174,24916.7,5368.7,136.671,588.708,1.14848e+11,1.45891,0.859051,9,0.194988,1994,1,1
app_9,1.99194,24797.5,5385.7,131.397,593.734,1.06496e+11,1.45661,0.859051,9,0.179285,2008,1,1
