app_id,start_app,end_app,effective_cpu,effective_io,effective_iter,total_bytes,stretch,utilization,Tcomp,Tio,iterations,priority,group_id
app_1,2.75856,18293.5,7868,132,1123.89,6.184e+10,1.00885,0.993433,7,0.0550178,2570,1,1
app_10,6.84741,19872.8,7921,79,790.332,4.18111e+09,1.00944,0.993433,10,0.00529255,1965,1.00001,1.00001
app_11,5.94836,19288.1,7912.1,87.9,877.908,1.66629e+10,1.00898,0.993433,9,0.0189782,2119,1.00001,1.00001
app_12,5.99085,18306.9,7911.5,88.5,880.44,2.44339e+10,1.00807,0.993433,9,0.0277658,2011,1.00001,1.00001
app_13,5.7305,18831.3,7908.6,91.4,877.928,3.47787e+10,1.00713,0.993433,9,0.0396113,2068,1.00001,1.00001
app_14,7.39209,18945.3,7912.1,87.9,879.123,5.52575e+09,1.0104,0.993433,9,0.00628641,2079,1.00001,1.00001
app_15,3.38848,19006.5,7901.4,98.6,985.654,1.50183e+10,1.01056,0.993433,8,0.0152316,2343,1.00002,1.00002
app_16,89.1833,20213.3,7978,22,86.866,1.70904e+10,1.00061,0.993433,92,0.196441,217,1.00002,1.00002
app_17,93.9307,20081.6,7983.9,16.1,73.3778,8.50511e+09,1.00095,0.993433,109,0.114934,183,1.00002,1.00002
app_18,35.1092,20141.6,7973.8,26.2,80.0895,1.62334e+10,1.00125,0.993433,100,0.202918,200,1.00002,1.00002
app_19,86.0822,19978.7,7958,42,71.6453,2.97371e+10,1.00154,0.993433,110,0.418832,180,1.00002,1.00002
app_2,6.58023,19701.2,7912.1,87.9,877.184,1.54732e+10,1.00914,0.993433,9,0.0176233,2161,1,1
app_20,33.0433,20005.4,7989.9,10.1,84.9666,5.67159e+09,1.00055,0.993433,94,0.0667246,212,1.00002,1.00002
app_21,8.16079,19832.5,7970.2,29.8,80.9985,1.79465e+10,1.00148,0.993433,99,0.221562,200,1.00002,1.00002
app_22,22.2991,19910.7,7983.4,16.6,74.4775,9.71877e+09,1.00086,0.993433,108,0.129584,184,1.00002,1.00002
app_23,78.5446,19950.7,7970.9,29.1,79.1444,2.01239e+10,1.00112,0.993433,101,0.251549,197,1.00002,1.00002
app_24,62.5142,19912.5,7974.4,25.6,97.8922,1.59209e+10,1.00121,0.993433,82,0.162458,242,1.00002,1.00002
app_25,39.1894,19890.8,7963.6,36.4,103.954,2.37382e+10,1.00159,0.993433,77,0.228252,257,1.00003,1.00003
app_26,35.323,19881,7968.7,31.3,83.7682,2.17342e+10,1.0012,0.993433,96,0.25874,207,1.00003,1.00003
app_27,5.47921,20118.8,7978.2,21.8,98.5869,1.13646e+10,1.00131,0.993433,80,0.115966,249,1.00003,1.00003
app_28,36.7592,20134.4,7981.2,18.8,71.0858,1.39035e+10,1.00061,0.993433,111,0.195824,180,1.00003,1.00003
app_29,22.708,20169.5,7929.2,70.8,78.8536,5.48407e+10,1.002,0.993433,101,0.694186,197,1.00003,1.00003
app_3,3.14812,17904.9,7885.9,114.1,1127.91,3.43462e+10,1.01007,0.993433,7,0.0304488,2526,1,1
app_30,40.4979,19970.7,7969.7,30.3,79.0564,2.26631e+10,1.00096,0.993433,101,0.286874,196,1.00003,1.00003
app_31,106.806,20144.5,7903.8,96.2,7.49437,5.38756e+10,1.00532,0.993433,1050,6.73445,19,1.00003,1.00003
app_32,65.1043,20724.4,7959.1,40.9,8.13761,3.65792e+10,1.00054,0.993433,966,4.06435,21,1.00003,1.00003
app_33,881.751,21858.6,7985.7,14.3,7.32195,9.91601e+09,1.00055,0.993433,1097,1.2395,19,1.00003,1.00003
app_34,15.8532,20389.7,7993.3,6.7,7.28849,4.73277e+09,1.00025,0.993433,1075,0.67611,19,1.00003,1.00003
app_35,599.209,20648.1,7950,50,8.25412,4.13858e+10,1.00108,0.993433,969,5.17323,21,1.00004,1.00004
app_36,188.432,21189.2,7943.1,56.9,8.10911,4.21976e+10,1.00184,0.993433,992,5.27469,21,1.00004,1.00004
app_37,433.281,20664.2,7926.5,73.5,7.62187,4.99496e+10,1.00295,0.993433,1077,7.13566,19,1.00004,1.00004
app_38,264.675,21056.6,7919.9,80.1,7.36058,5.74638e+10,1.00284,0.993433,1071,8.20912,19,1.00004,1.00004
app_39,494,20897.2,7997.1,2.9,9.32714,2.00949e+09,1.00011,0.993433,845,0.223277,24,1.00004,1.00004
app_4,2.24095,18491.7,7927.7,72.3,719.641,1.78095e+10,1.00686,0.993433,11,0.0247354,1665,1,1
app_40,472.072,21088.4,7964,36,6.71034,3.33511e+10,1.00033,0.993433,1205,4.76445,17,1.00004,1.00004
app_41,346.321,21021.8,7955.9,44.1,9.46777,3.45989e+10,1.00119,0.993433,859,3.45989,24,1.00004,1.00004
app_42,985.297,20749.9,7908.6,91.4,7.45188,5.42313e+10,1.00467,0.993433,1105,6.77891,18,1.00004,1.00004
app_43,753.703,22116,7945.4,54.6,7.08157,3.67369e+10,1.00224,0.993433,1098,5.24813,19,1.00004,1.00004
app_44,847.874,21269.6,7977.5,22.5,7.2587,1.58076e+10,1.00084,0.993433,1148,2.25823,18,1.00004,1.00004
app_45,301.909,21200,7995.1,4.9,7.85458,4.02801e+09,1.00011,0.993433,1023,0.503501,20,1.00004,1.00004
app_46,1046.32,21503.5,7936.5,63.5,5.13256,4.69433e+10,1.00207,0.993433,1577,9.38866,13,1.00005,1.00005
app_47,1257.76,22268.1,7923.7,76.3,5.63977,5.29897e+10,1.00292,0.993433,1407,10.5979,15,1.00005,1.00005
app_48,54.5545,21825.2,7989.5,10.5,3.9915,7.98726e+09,1.00031,0.993433,1946,1.99682,11,1.00005,1.00005
app_49,546.949,21356.8,7974.1,25.9,5.75609,2.03024e+10,1.0007,0.993433,1395,3.38373,15,1.00005,1.00005
app_5,6.31049,18374.1,7920.7,79.3,792.612,4.69334e+09,1.00941,0.993433,10,0.00591846,1819,1.00001,1.00001
app_50,573.381,21415.2,7982.9,17.1,5.75038,1.197e+10,1.00064,0.993433,1367,1.995,15,1.00005,1.00005
app_51,577.487,21478.9,7928.1,71.9,6.95065,6.18115e+10,1.00126,0.993433,1153,8.83021,18,1.00005,1.00005
app_52,772.93,21008.8,7955.2,44.8,6.25931,3.95267e+10,1.00066,0.993433,1348,6.58778,15,1.00005,1.00005
app_53,1336.36,21697.8,7960.7,39.3,5.12958,3.31084e+10,1.00077,0.993433,1543,5.51806,13,1.00005,1.00005
app_54,417.057,22458.2,7974.9,25.1,5.37592,2.24085e+10,1.00034,0.993433,1420,3.73474,15,1.00005,1.00005
app_55,784.825,22191,7958.9,41.1,5.99686,3.63648e+10,1.00059,0.993433,1307,6.0608,16,1.00005,1.00005
app_56,781.207,21445.9,7907.6,92.4,5.95696,6.29881e+10,1.00369,0.993433,1388,10.498,15,1.00006,1.00006
app_57,1010.55,22514.4,7950.4,49.6,4.79249,4.5788e+10,1.00048,0.993433,1641,11.447,13,1.00006,1.00006
app_58,479.242,21568.2,7929.6,70.4,5.84274,6.38904e+10,1.00081,0.993433,1395,10.6484,15,1.00006,1.00006
app_59,1178.9,21881.7,7987.8,12.2,5.33196,1.05951e+10,1.0002,0.993433,1475,2.11902,14,1.00006,1.00006
app_6,3.04268,19426.1,7921,79,789.857,5.54807e+09,1.00927,0.993433,10,0.00702287,1920,1.00001,1.00001
app_60,1384.09,22711.5,7982.4,17.6,4.3786,1.01284e+10,1.00093,0.993433,1791,2.02568,12,1.00006,1.00006
app_7,5.18636,19064.9,7897.6,102.4,879.998,4.80307e+10,1.00684,0.993433,9,0.0545803,2094,1.00001,1.00001
app_8,7.39689,18795.6,7895.7,104.3,985.385,4.42863e+10,1.00756,0.993433,8,0.0449151,2317,1.00001,1.00001
app_9,7.72703,19273.5,7912,88,879.943,4.17974e+09,1.01059,0.993433,9,0.0047497,2120,1.00001,1.00001
