app_id,start_app,end_app,effective_cpu,effective_io,effective_iter,total_bytes,stretch,utilization,Tcomp,Tio,iterations,priority,group_id
app_1,10.5091,19899.5,7927.8,72.2,722.198,9.68832e+08,1.00898,0.994082,11,0.00134187,1795,1,1
app_10,10.6127,18768.9,7918.7,81.3,791.343,3.01715e+10,1.00643,0.994082,10,0.0381435,1854,1.00001,1.00001
app_11,2.13062,19050.5,7908.4,91.6,877.679,4.11418e+10,1.00635,0.994082,9,0.0468586,2093,1.00001,1.00001
app_12,2.47358,18850.8,7912,88,880.084,8.06883e+08,1.01102,0.994082,9,0.000916912,2074,1.00001,1.00001
app_13,5.749,19795.2,7917.5,82.5,792.103,3.50093e+10,1.00597,0.994082,10,0.0442036,1956,1.00001,1.00001
app_14,7.05198,18334.5,7907.5,92.5,878.663,3.98845e+10,1.00662,0.994082,9,0.0453749,2012,1.00001,1.00001
app_15,2.57256,19008.7,7920.9,79.1,790.497,9.27186e+09,1.00881,0.994082,10,0.0117217,1878,1.00002,1.00002
app_16,76.748,20122.8,7982.4,17.6,76.7462,8.66939e+09,1.00112,0.994082,104,0.112589,192,1.00002,1.00002
app_17,83.7727,20062.7,7966.1,33.9,85.1579,2.42479e+10,1.00121,0.994082,93,0.28527,214,1.00002,1.00002
app_18,29.5182,20143.4,7938.8,61.2,75.2344,4.81348e+10,1.00164,0.994082,104,0.641798,191,1.00002,1.00002
app_19,32.4174,20029.4,7956.2,43.8,72.796,3.04295e+10,1.00167,0.994082,109,0.416843,182,1.00002,1.00002
app_2,7.34764,18480.4,7898.4,101.6,879.028,4.73523e+10,1.00683,0.994082,9,0.0538707,2033,1,1
app_20,7.16038,20057.4,7962,38,84.1139,2.88946e+10,1.00114,0.994082,94,0.343983,211,1.00002,1.00002
app_21,59.7032,20059.1,7964.4,35.6,77.4643,2.463e+10,1.00137,0.994082,103,0.315769,193,1.00002,1.00002
app_22,33.4479,19798,7962.6,37.4,80.4296,2.44595e+10,1.00162,0.994082,100,0.305744,198,1.00002,1.00002
app_23,26.6122,19935.4,7980.3,19.7,86.3898,1.18673e+10,1.00098,0.994082,92,0.137991,215,1.00002,1.00002
app_24,121.2,19998.7,7992.3,7.7,66.8363,4.2979e+09,1.00043,0.994082,121,0.0651198,165,1.00002,1.00002
app_25,10.6302,19985.1,7935.1,64.9,77.358,4.73966e+10,1.00219,0.994082,101,0.607649,195,1.00003,1.00003
app_26,106.429,20000.7,7993,7,70.227,1.2821e+09,1.00072,0.994082,114,0.0183157,175,1.00003,1.00003
app_27,53.6291,20106.2,7930.3,69.7,79.3036,5.37361e+10,1.002,0.994082,99,0.671701,201,1.00003,1.00003
app_28,72.4323,19877.3,7970.2,29.8,85.8976,1.84241e+10,1.00142,0.994082,93,0.214234,213,1.00003,1.00003
app_29,30.1329,19851.5,7991.7,8.3,83.6022,7.67781e+08,1.00094,0.994082,96,0.00925037,208,1.00003,1.00003
app_3,3.921,19692.1,7897.6,102.4,875.376,4.39022e+10,1.00737,0.994082,9,0.0501739,2155,1,1
app_30,25.5527,19986.5,7988.8,11.2,94.9414,5.43308e+09,1.00072,0.994082,84,0.0571903,236,1.00003,1.00003
app_31,410.973,21150.2,7974.7,25.3,7.77209,2.30872e+10,1.00028,0.994082,1046,2.8859,20,1.00003,1.00003
app_32,863.912,21257.5,7947.5,52.5,7.77544,4.33346e+10,1.00115,0.994082,1042,6.19066,20,1.00003,1.00003
app_33,670.435,21036.8,7951.1,48.9,9.1384,4.02906e+10,1.00108,0.994082,877,4.02906,23,1.00003,1.00003
app_34,881.625,21828.6,7943.6,56.4,7.22091,4.72784e+10,1.00114,0.994082,1102,6.75405,19,1.00003,1.00003
app_35,818.492,21619.6,7947.1,52.9,7.41933,4.87185e+10,1.00052,0.994082,1070,6.08981,19,1.00004,1.00004
app_36,993.27,20854.6,7957.9,42.1,7.34655,3.56234e+10,1.00081,0.994082,1106,5.08906,18,1.00004,1.00004
app_37,527.23,21579.2,7993.9,6.1,6.92092,4.67825e+09,1.00018,0.994082,1168,0.668321,18,1.00004,1.00004
app_38,487.487,21450.1,7948.1,51.9,8.23766,4.80625e+10,1.00048,0.994082,932,5.34028,22,1.00004,1.00004
app_39,378.553,20912.2,7963.6,36.4,9.43149,3.16743e+10,1.00059,0.994082,848,3.51937,24,1.00004,1.00004
app_4,6.0901,19525.6,7907.1,92.9,790.824,4.19159e+10,1.00641,0.994082,10,0.052991,1931,1,1
app_40,1038.37,21685.7,7991,9,7.61441,5.58263e+09,1.00043,0.994082,1045,0.697828,20,1.00004,1.00004
app_41,363.31,20855.2,7994.2,5.8,8.12458,3.86781e+09,1.00024,0.994082,972,0.483476,21,1.00004,1.00004
app_42,335.122,20807.4,7928.7,71.3,8.70934,4.9877e+10,1.00269,0.994082,915,6.23463,22,1.00004,1.00004
app_43,697.509,20889.2,7989.8,10.2,7.95861,9.04124e+09,1.00014,0.994082,1004,1.13015,20,1.00004,1.00004
app_44,29.9328,20182.3,7981,19.002,8.22682,1.28112e+10,1.00077,0.994082,1005,1.47446,20,1.00004,1.00004
app_45,231.054,20418.6,7969,31,8.47063,2.79752e+10,1.00038,0.994082,952,3.10836,21,1.00004,1.00004
app_46,98.275,21638,7969.7,30.3,5.51431,2.82458e+10,1.00026,0.994082,1415,5.64915,15,1.00005,1.00005
app_47,821.063,22523.6,7981.7,18.3,5.22709,1.63262e+10,1.00025,0.994082,1501,3.26523,14,1.00005,1.00005
app_48,1097.03,21062.2,7983.5,16.5,7.02451,1.55286e+10,1.00012,0.994082,1132,2.21837,18,1.00005,1.00005
app_49,1120.66,21576.2,7939.9,60.1,5.82585,4.88598e+10,1.00141,0.994082,1347,8.14331,15,1.00005,1.00005
app_5,6.41481,19434.8,7924.8,75.2,720.793,2.51472e+10,1.0063,0.994082,11,0.0348782,1748,1.00001,1.00001
app_50,1138.23,22205.9,7927.9,72.1,5.5854,5.10178e+10,1.00264,0.994082,1401,8.50296,15,1.00005,1.00005
app_51,1241.26,21623.2,7980.9,19.1,5.54284,1.66051e+10,1.00031,0.994082,1467,3.32102,14,1.00005,1.00005
app_52,988.188,21833.4,7968.6,31.4,6.66131,2.36699e+10,1.00097,0.994082,1228,3.38141,17,1.00005,1.00005
app_53,105.582,21214.2,7956.2,43.8,6.09498,3.33291e+10,1.00131,0.994082,1297,5.55486,16,1.00005,1.00005
app_54,1487.89,21108.5,7973.9,26.1,4.88996,1.94907e+10,1.00083,0.994082,1668,3.89814,12,1.00005,1.00005
app_55,1496.68,21283.2,7958.6,41.4,5.27681,3.16024e+10,1.00123,0.994082,1542,5.26706,13,1.00005,1.00005
app_56,1142.27,23156.4,7978.3,21.7,4.63728,1.7642e+10,1.00051,0.994082,1636,3.5284,13,1.00006,1.00006
app_57,526.516,20840.3,7986.4,13.6,5.0281,1.24543e+10,1.00014,0.994082,1556,2.49087,13,1.00006,1.00006
app_58,736.031,21085.3,7950,50,4.57133,4.33537e+10,1.00083,0.994082,1671,10.8384,12,1.00006,1.00006
app_59,827.774,21663.1,7942.2,57.8,5.54348,4.2618e+10,1.0019,0.994082,1360,7.103,15,1.00006,1.00006
app_6,1.81801,19636.9,7908,92,792.532,4.22779e+10,1.00625,0.994082,10,0.0533812,1942,1.00001,1.00001
app_60,512.624,21852.3,7956.5,43.5,5.5772,3.8429e+10,1.00063,0.994082,1402,6.40483,15,1.00006,1.00006
app_7,9.57211,18684.3,7906.5,93.5,790.455,4.78081e+10,1.00574,0.994082,10,0.0605166,1845,1.00001,1.00001
app_8,3.97849,20145.6,7920.8,79.2,791.989,6.14793e+09,1.00922,0.994082,10,0.00776254,1994,1.00001,1.00001
app_9,6.05277,19927.7,7933.9,66.1,661.325,3.38316e+09,1.0079,0.994082,12,0.00511824,1649,1.00001,1.00001
