app_id,start_app,end_app,effective_cpu,effective_io,effective_iter,total_bytes,stretch,utilization,Tcomp,Tio,iterations,priority,group_id
app_1,3.74159,19745.9,7597,77.7212,757.44,4.09163e+10,1.04741,0.984258,10,0.0539792,1884,1,1
app_10,7.78804,20324.9,7577.2,87.3379,951.746,2.10733e+10,1.05287,0.984258,8,0.0221359,2416,1,1
app_11,2.38065,18965.3,7597.87,87.4651,845.908,5.07822e+10,1.04594,0.984258,9,0.0600973,2015,1,1
app_12,7.58547,20674.5,7638.5,76.9148,764.932,3.46694e+10,1.04259,0.984258,10,0.0453194,1977,1,1
app_13,7.61498,20712.1,7607.9,83.1862,844.617,3.76042e+10,1.04637,0.984258,9,0.0445548,2192,1,1
app_14,9.18865,19591.2,7600.5,77.9029,844.027,1.65281e+10,1.05028,0.984258,9,0.0195831,2076,1,1
app_15,8.3504,19554.2,7663.8,69.9636,698.694,3.49104e+10,1.03914,0.984258,11,0.0500148,1707,1,1
app_16,22.9766,20059.3,7930.6,51.097,83.7317,4.9114e+10,1.00254,0.984258,95,0.584691,209,1,1
app_17,78.2538,19924.4,7900.2,52.6098,87.5597,4.77339e+10,1.00655,0.984258,91,0.54243,217,1,1
app_18,60.3777,19854.3,7956.8,9.83692,93.6876,6.2358e+09,1.00464,0.984258,86,0.0663383,231,1,1
app_19,43.0714,20039,7955.9,15.2521,80.6066,8.90394e+09,1.00442,0.984258,98,0.109925,203,1,1
app_2,10.0152,19242.3,7608.9,77.5863,761.614,4.17208e+10,1.04567,0.984258,10,0.0547517,1838,1,1
app_20,38.8334,20021.6,7963.6,8.63434,81.3588,6.1191e+09,1.0038,0.984258,99,0.0755444,202,1,1
app_21,84.6291,20112.2,7959.5,22.429,77.0224,1.60457e+10,1.00307,0.984258,103,0.208385,194,1,1
app_22,42.2057,20152.2,7920.8,51.1746,74.0935,4.64588e+10,1.00411,0.984258,105,0.627822,188,1,1
app_23,79.1057,20091.9,7916,43.1725,74.385,3.7048e+10,1.0059,0.984258,106,0.500649,187,1,1
app_24,31.9825,20123.2,7924.4,54.7189,78.3077,5.05724e+10,1.00314,0.984258,101,0.648364,197,1,1
app_25,2.44555,20153.8,7923.2,47.2512,80.1163,4.16868e+10,1.00441,0.984258,98,0.521085,202,1,1
app_26,51.311,20119.8,7907.4,43.0259,89.1544,3.56486e+10,1.00717,0.984258,89,0.400547,223,1,1
app_27,21.7437,19966.1,7918,38.106,74.9882,3.51851e+10,1.00589,0.984258,104,0.469134,190,1,1
app_28,58.4276,19941,7952.66,15.3624,76.7574,1.19432e+10,1.00444,0.984258,104,0.157147,191,1,1
app_29,96.472,20134.3,7943.1,22.4747,75.5526,1.89291e+10,1.00477,0.984258,105,0.252388,189,1,1
app_3,5.36654,20567.9,7643.3,68.2961,765.636,1.51175e+10,1.0446,0.984258,10,0.0197356,1972,1,1
app_30,4.00114,19947.4,7938.2,28.6311,97.7057,1.96289e+10,1.0053,0.984258,81,0.200295,245,1,1
app_31,703.31,21197.1,7952.1,39.0885,9.86801,3.87659e+10,1.00114,0.984258,804,3.87659,25,1,1
app_32,895.364,20580.5,7968.5,30.739,8.95168,3.02458e+10,1.00016,0.984258,908,3.36065,22,1,1
app_33,461.708,21136.8,7957.4,42.4028,8.19769,4.21985e+10,1.00005,0.984258,964,5.27481,21,1,1
app_34,344.286,20826.4,7987.4,12.6,8.99224,1.24844e+10,1.00001,0.984258,897,1.38715,23,1,1
app_35,802.744,21166.1,7987,12.8095,8.16585,1.22284e+10,1.0001,0.984258,973,1.52855,21,1,1
app_36,64.6691,20111.4,7983.3,14.3979,8.36874,1.40409e+10,1.00033,0.984258,955,1.75512,21,1,1
app_37,437.844,21322.4,7965,35,7.68435,3.49017e+10,1.00001,0.984258,1018,4.98596,20,1,1
app_38,391.132,20631.6,7980.3,15.9137,8.13891,1.5566e+10,1.00052,0.984258,978,1.94575,21,1,1
app_39,91.4353,20929,7956.8,43.2,7.87189,4.24318e+10,1.0001,0.984258,1020,5.30398,20,1,1
app_4,8.0632,19425.6,7647.2,68.2663,766.039,1.0536e+10,1.0447,0.984258,10,0.0137546,1860,1,1
app_40,702.72,20768.9,7964.3,29.3911,7.57887,2.88906e+10,1.00085,0.984258,1048,4.12723,19,1,1
app_41,404.322,20910.9,7945.9,47.7734,9.79785,4.71341e+10,1.00087,0.984258,801,4.71341,25,1,1
app_42,910.307,21325.8,7972.8,27.1733,8.22305,2.68932e+10,1.00004,0.984258,970,3.36165,21,1,1
app_43,553.096,21005.6,7970.3,28.5749,10.2971,2.81064e+10,1.0002,0.984258,793,2.55513,26,1,1
app_44,307.472,20282.7,7993.4,4.14802,7.7808,3.96092e+09,1.00033,0.984258,1001,0.495115,20,1,1
app_45,482.713,20639.3,7946.3,31.7385,9.71892,3.10859e+10,1.00283,0.984258,845,3.10859,24,1,1
app_46,602.024,21893.2,7961.6,38.4,4.69011,3.83977e+10,1,0.984258,1612,9.59942,13,1,1
app_47,668.684,21367.5,7979.3,20.3892,6.59276,2.02758e+10,1.00005,0.984258,1205,3.3793,17,1,1
app_48,24.7261,20722.7,7967.1,31.5645,4.65837,3.14408e+10,1.00018,0.984258,1671,6.28817,12,1,1
app_49,1180.87,22824.9,7969,31,4.86169,3.05486e+10,1.00006,0.984258,1626,6.10972,13,1,1
app_5,10.5992,20790.6,7652.6,66.0081,693.754,2.16576e+10,1.04245,0.984258,11,0.0312069,1811,1,1
app_50,1120.02,21128.3,7974.9,16.0518,4.84237,1.59765e+10,1.00114,0.984258,1715,3.19531,12,1,1
app_51,459.53,21237.5,7974.8,25.1654,6.18216,2.46793e+10,1.00007,0.984258,1303,4.11322,16,1,1
app_52,265.211,21125.1,7955.97,33.6421,4.63838,3.35473e+10,1.00131,0.984258,1716,8.09371,12,1,1
app_53,29.3684,20602.1,7956.6,38.3746,6.05907,3.78591e+10,1.00069,0.984258,1277,6.30985,16,1,1
app_54,559.325,21416.9,7974.9,24.6047,5.40588,2.42968e+10,1.0001,0.984258,1466,4.04946,14,1,1
app_55,1023.97,21591,7997,3,5.47321,2.73485e+09,1.00003,0.984258,1449,0.546969,14,1,1
app_56,909.728,22082.1,7977,21.6368,6.67958,2.12642e+10,1.00022,0.984258,1168,3.03775,18,1,1
app_57,1501.61,22426.5,7989.2,10.4871,4.91255,1.01649e+10,1.00008,0.984258,1565,2.03298,13,1,1
app_58,1175.36,22462.3,7980.2,19.7781,5.83896,1.9335e+10,1.00006,0.984258,1323,3.22249,16,1,1
app_59,646.703,21992.1,7965.7,33.5731,4.92137,3.31886e+10,1.00014,0.984258,1629,6.63771,13,1,1
app_6,7.48241,19071,7635.4,67.4204,764.639,7.51947e+09,1.04672,0.984258,10,0.00982938,1827,1,1
app_60,70.2937,19964.6,7956.3,43.4479,5.03308,4.30083e+10,1.00009,0.984258,1536,8.60166,13,1,1
app_7,2.62386,20546.6,7628.6,75.2032,846.479,1.35534e+10,1.04683,0.984258,9,0.0160206,2180,1,1
app_8,6.10801,18783.3,7614.2,82.9023,950.602,5.42185e+09,1.04992,0.984258,8,0.00570721,2227,1,1
app_9,4.09671,19464.6,7610.2,64.4062,764.59,6.32044e+09,1.05035,0.984258,10,0.00827282,1860,1,1
