app_id,Tcomp,Tio,iter,witer,alpha_io,compute_size,io_size,mu,desyn_time
1,9.899597410525205,0.31246401780707417,1959,10.212061428332278,0.03059754585300241,9e9,312464017.8070742,10,9.980699327324997
2,10.638920605613233,0.9587215096320058,1725,11.59764211524524,0.08266520902311297,10e9,958721509.6320058,10,7.605171043009028
3,7.806126281855866,0.5744680441606252,2387,8.38059432601649,0.06854741105618992,7e9,574468044.1606252,10,0.8528555306694131
4,10.21551959663347,0.24078289014190488,1913,10.456302486775375,0.023027536784292098,10e9,240782890.1419049,10,10.0593649887136
5,8.650981958478623,0.18505940701664023,2264,8.836041365495262,0.020943700845414456,8e9,185059407.01664022,10,5.549422864133458
6,99.76087396712262,6.246297886914208,189,106.00717185403683,0.0589233518607104,99e9,6246297886.914208,100,53.617928354742084
7,95.32451534158734,3.1469366849517666,204,98.47145202653911,0.031957858040964335,95e9,3146936684.9517665,100,28.502180999640473
8,102.23498191770757,3.096604264205559,190,105.33158618191312,0.029398629380341452,102e9,3096604264.205559,100,0.7085140394122766
9,102.22870343828727,1.7874153325925817,193,104.01611877087986,0.017184022569903683,102e9,1787415332.5925817,100,11.80524878982162
10,92.59692310657137,7.445272086437618,200,100.04219519300898,0.07442131864533395,92e9,7445272086.437618,100,32.79828687293976
11,387.707959148154,27.294097000645074,49,415.00205614879906,0.06576858257988671,387e9,27294097000.645073,500,187.8175216842182
12,434.52092715457894,17.41427794186324,45,451.9352050964422,0.03853268730889656,434e9,17414277941.86324,500,206.2344241708527
13,412.5981087185122,30.098928628209936,46,442.69703734672214,0.06798990300139807,412e9,30098928628.209938,500,251.22046579128752
14,504.373765330682,1.2338394955246783,40,505.6076048262067,0.0024403103983152864,504e9,1233839495.5246782,500,392.2509415762859
15,428.2220027054645,35.88926117569735,44,464.11126388116185,0.07732900269554109,428e9,35889261175.69735,500,62.66364394398151
16,980.8768430015891,50.192789254190096,20,1031.0696322557792,0.04868030992667107,980e9,50192789254.190094,1000,107.64775065293931
17,953.4444800488501,13.976272968007521,21,967.4207530168576,0.01444694350872994,953e9,13976272968.00752,1000,703.6832362583672
18,893.1440864735728,19.044916206646224,22,912.189002680219,0.02087825675456284,893e9,19044916206.646225,1000,73.73715212881628
19,849.7097587219838,10.719054315889089,24,860.4288130378729,0.012457804938033003,849e9,10719054315.88909,1000,465.5180154326529
20,1101.079474090629,15.418405676646143,18,1116.4978797672752,0.013809614828699884,1101e9,15418405676.646143,1000,293.01086633976354
