app_id,start_app,end_app,effective_cpu,effective_io,effective_iter,total_bytes,stretch,utilization,Tcomp,Tio,iterations,priority,group_id
app_1,2.88015,18766.6,7337.8,563.79,812.7,4.94137e+11,1.02146,0.91659,9,0.608543,1910,0.1,1
app_10,62.831,20746.4,7498.3,443.265,75.4222,2.82271e+11,1.0282,0.91659,99,3.7141,195,0.01,2
app_11,430.627,22105.6,6972.56,591.696,14.3455,3.37631e+11,1.09436,0.91659,500,22.5087,39,0.001,3
app_12,351.258,22338,7304.42,258.198,17.3,1.48508e+11,1.0734,0.91659,422,8.72781,47,0.001,3
app_13,318.306,21343.5,7532.72,202.928,14.0335,9.07913e+10,1.04938,0.91659,534,6.48509,37,0.001,3
app_14,37.3304,21678.1,6783.95,759.995,15.1565,4.05549e+11,1.11273,0.91659,450,25.616,42,0.001,3
app_15,244.838,21639.1,7322.1,344.223,14.0959,1.58148e+11,1.06948,0.91659,516,11.2963,38,0.001,3
app_16,749.761,21245.7,7519,195.417,8.41026,9.89521e+10,1.05015,0.91659,901,10.9947,22,0.001,3
app_17,78.1164,21209,7236.6,624.415,8.70983,3.24224e+11,1.05809,0.91659,842,36.0249,23,0.001,3
app_18,414.035,21815,7328.1,432.263,8.48052,2.26928e+11,1.0589,0.91659,866,28.366,23,0.001,3
app_19,278.08,22200.9,7436.7,468.451,7.2852,2.26353e+11,1.04397,0.91659,1013,32.3362,20,0.001,3
app_2,10.5338,19884.1,7303.7,608.539,729.5,5.61128e+11,1.01719,0.91659,10,0.769723,1817,0.1,1
app_20,71.0311,22660.9,7077.3,760.786,7.21432,3.8877e+11,1.07151,0.91659,989,55.5386,20,0.001,3
app_3,7.9455,18934.6,7446.9,436.752,824.086,3.89196e+11,1.02092,0.91659,9,0.472325,1959,0.1,1
app_4,4.11912,19682.9,7253.2,628.906,906.915,5.4893e+11,1.02536,0.91659,8,0.605215,2234,0.1,1
app_5,4.1929,19043.5,7356.7,546.247,815.713,4.87655e+11,1.01984,0.91659,9,0.598248,1946,0.1,1
app_6,70.129,20271.9,7711.2,190.799,74.9578,1.11539e+11,1.02266,0.91659,103,1.48718,191,0.01,2
app_7,33.4529,20679.7,7321.7,626.479,75.8327,4.03942e+11,1.03551,0.91659,96,5.31503,197,0.01,2
app_8,87.395,20602.3,7507.7,418.377,80.2136,2.67917e+11,1.02886,0.91659,93,3.34896,207,0.01,2
app_9,85.6311,20647.7,7403.7,526.002,69.0601,3.39837e+11,1.03312,0.91659,107,4.92517,178,0.01,2
