app_id,start_app,end_app,effective_cpu,effective_io,effective_iter,total_bytes,stretch,utilization,Tcomp,Tio,iterations,priority,group_id
app_1,2.58144,19854.6,7482.11,517.889,838.743,1.33874e+11,1.05042,0.952086,9,0.15967,2073,1,1
app_10,0.451415,20584.6,7443.8,556.2,831.423,1.46859e+11,1.05393,0.952086,9,0.176725,2149,1.00001,1.00001
app_11,4.73748,19693.2,7882.28,117.718,876.065,1.86825e+10,1.01253,0.952086,9,0.0213227,2160,1.00001,1.00001
app_12,5.04889,20488.2,7243.2,756.8,913.132,1.99714e+11,1.07485,0.952086,8,0.218745,2322,1.00001,1.00001
app_13,3.05029,19844.1,7829.8,170.2,779.552,3.75909e+10,1.01686,0.952086,10,0.0482553,1942,1.00001,1.00001
app_14,0.199108,20226.2,7534.2,465.8,760.248,1.18766e+11,1.04535,0.952086,10,0.156066,1926,1.00001,1.00001
app_15,0.816084,20180.6,7708.9,291.1,859.263,6.94186e+10,1.0285,0.952086,9,0.0807193,2167,1.00002,1.00002
app_16,1.61234,19175.2,7437.7,562.3,824.682,1.50332e+11,1.05429,0.952086,9,0.18222,1982,1.00002,1.00002
app_17,10.7336,19750.9,7387.2,612.8,738.843,1.60707e+11,1.0599,0.952086,10,0.217465,1818,1.00002,1.00002
app_18,9.65993,19278,7645.2,354.8,752.212,8.41349e+10,1.03502,0.952086,10,0.111733,1840,1.00002,1.00002
app_19,7.65142,19404.5,7635.1,364.9,950.08,9.17532e+10,1.03535,0.952086,8,0.0965823,2314,1.00002,1.00002
app_2,4.66523,20397,7419.4,580.6,672.443,1.5389e+11,1.05634,0.952086,11,0.229003,1712,1,1
app_20,5.89329,19337.3,7314.4,685.6,811.212,1.81399e+11,1.06726,0.952086,9,0.223673,1959,1.00002,1.00002
app_21,42.8202,20820.3,7326.5,673.5,87.5585,1.85292e+11,1.06499,0.952086,84,2.12979,230,1.00002,1.00002
app_22,79.8823,20288.2,7779.7,220.3,78.6783,5.87977e+10,1.0206,0.952086,98,0.744274,201,1.00002,1.00002
app_23,11.7216,20226.7,7875.3,124.7,70.0901,3.13667e+10,1.0118,0.952086,111,0.448095,179,1.00002,1.00002
app_24,82.8808,20787.4,7532.1,467.9,76.4032,1.16524e+11,1.04594,0.952086,102,1.53321,193,1.00002,1.00002
app_25,40.8287,20104.9,7825.7,174.3,70.9749,4.27395e+10,1.01672,0.952086,110,0.601965,180,1.00003,1.00003
app_26,66.3571,19814.5,7942.1,57.9,83.1486,1.42797e+10,1.00548,0.952086,99,0.172045,201,1.00003,1.00003
app_27,96.5766,20995.5,7583.7,416.3,65.393,1.14412e+11,1.03922,0.952086,115,1.76019,171,1.00003,1.00003
app_28,20.5531,20428.7,7884.4,115.6,98.5184,3.21831e+10,1.01054,0.952086,80,0.325082,248,1.00003,1.00003
app_29,80.0905,21181.3,7605.8,394.2,77.2207,1.18726e+11,1.03566,0.952086,95,1.54189,206,1.00003,1.00003
app_3,3.2334,19814.9,7390.1,609.9,919.652,1.59562e+11,1.05965,0.952086,8,0.173625,2290,1,1
app_30,18.8515,20555.8,7455.3,544.7,92.9667,1.44171e+11,1.0527,0.952086,83,1.55022,235,1.00003,1.00003
app_31,96.5747,20506.7,7580.2,419.8,77.6371,1.16588e+11,1.03939,0.952086,102,1.49471,192,1.00003,1.00003
app_32,100.341,20732.8,7558,442,68.5102,1.30989e+11,1.04045,0.952086,109,1.92631,180,1.00003,1.00003
app_33,61.1975,21030.5,7554.3,445.7,61.1481,1.22399e+11,1.04211,0.952086,118,2.00654,166,1.00003,1.00003
app_34,63.955,20265.3,7949.4,50.6,93.3301,1.32026e+10,1.0047,0.952086,85,0.141964,235,1.00003,1.00003
app_35,6.60996,21024.7,7454.6,545.4,74.8515,1.56073e+11,1.05116,0.952086,94,2.10909,207,1.00004,1.00004
app_36,99.4794,20156.5,7823.4,176.6,70.9203,4.78316e+10,1.01636,0.952086,109,0.673684,181,1.00004,1.00004
app_37,70.5588,20172.7,7634.6,365.4,75.2876,9.90065e+10,1.03445,0.952086,106,1.32009,186,1.00004,1.00004
app_38,25.1552,20816.8,7585.3,414.7,85.3414,1.22522e+11,1.03791,0.952086,90,1.42467,217,1.00004,1.00004
app_39,66.7259,21166.2,7483.7,516.3,84.0028,1.44382e+11,1.04876,0.952086,86,1.71883,228,1.00004,1.00004
app_4,4.63283,18324.9,7911.4,88.6,880.195,7.0841e+09,1.01029,0.952086,9,0.00805011,2014,1,1
app_40,9.51788,20427.6,7766.6,233.4,79.0952,6.41731e+10,1.02161,0.952086,98,0.812318,202,1.00004,1.00004
app_41,725.529,22492.7,7757.3,242.7,7.05273,9.754e+10,1.01848,0.952086,1017,13.9343,20,1.00004,1.00004
app_42,977.147,22254.6,7557.8,442.2,7.30499,1.16456e+11,1.04245,0.952086,1039,16.6365,19,1.00004,1.00004
app_43,328.084,22865.7,7583.6,416.4,7.11379,1.51173e+11,1.03429,0.952086,996,21.5961,20,1.00004,1.00004
app_44,668.067,21572,7250.3,749.7,8.38421,2.08449e+11,1.07257,0.952086,1012,23.161,20,1.00004,1.00004
app_45,256.553,22520.6,7562.9,437.1,8.64774,1.13348e+11,1.04218,0.952086,832,12.5942,24,1.00004,1.00004
app_46,317.858,22602.2,7662.6,337.4,8.21736,8.37541e+10,1.03274,0.952086,901,10.4693,22,1.00005,1.00005
app_47,510.648,20637.5,7784.4,215.6,7.88977,5.76003e+10,1.02015,0.952086,990,7.20004,21,1.00005,1.00005
app_48,105.608,22615.1,7733.3,266.7,7.24053,8.68358e+10,1.023,0.952086,999,12.4051,20,1.00005,1.00005
app_49,943.606,24754.9,7565.1,434.9,7.12169,1.56554e+11,1.03605,0.952086,971,22.3649,21,1.00005,1.00005
app_5,3.01773,20111.9,7607.5,392.5,843.928,9.28954e+10,1.03891,0.952086,9,0.110066,2133,1.00001,1.00001
app_50,514.535,20476.5,7397.5,602.5,9.08006,1.2469e+11,1.06352,0.952086,830,13.8544,24,1.00005,1.00005
app_51,424.751,19953.6,7902.3,97.7,10.4434,2.731e+10,1.00888,0.952086,791,2.731,26,1.00005,1.00005
app_52,613.235,23018.7,7539.5,460.5,9.07224,1.41938e+11,1.04147,0.952086,834,15.7709,24,1.00005,1.00005
app_53,865.721,20721,7412.3,587.7,7.7871,1.47696e+11,1.0582,0.952086,1075,18.4621,19,1.00005,1.00005
app_54,195.064,21624.1,7636.7,363.3,9.05353,1.24467e+11,1.03077,0.952086,860,13.8297,23,1.00005,1.00005
app_55,943.071,21258.1,7872.4,127.6,7.35978,3.72757e+10,1.01142,0.952086,1010,4.65946,20,1.00005,1.00005
app_56,513.333,19855.9,7933.8,66.2,8.80482,1.87938e+10,1.00596,0.952086,990,2.0882,21,1.00006,1.00006
app_57,893.105,20164.9,7826.8,173.2,7.84155,6.35456e+10,1.0139,0.952086,1009,7.9432,20,1.00006,1.00006
app_58,692.979,22795.6,7570,430,6.02656,1.16155e+11,1.04083,0.952086,1064,19.3591,19,1.00006,1.00006
app_59,177.676,18647.4,7694.9,305.1,9.56184,6.34469e+10,1.03115,0.952086,910,6.34469,22,1.00006,1.00006
app_6,6.04581,20063,7333.5,666.5,817.918,1.77078e+11,1.06516,0.952086,9,0.216477,2062,1.00001,1.00001
app_60,52.4006,22383.9,7884.9,115.1,7.8076,4.33269e+10,1.00905,0.952086,980,5.41586,21,1.00006,1.00006
app_7,4.02732,20499.2,7567.4,432.6,682.799,1.08256e+11,1.04226,0.952086,11,0.158501,1771,1.00001,1.00001
app_8,7.24022,19987.7,7564.1,435.9,842.818,1.10396e+11,1.04241,0.952086,9,0.130956,2107,1.00001,1.00001
app_9,4.29241,21129.2,7334.9,665.1,805.159,1.77259e+11,1.06494,0.952086,9,0.220198,2152,1.00001,1.00001
