app_id,start_app,end_app,effective_cpu,effective_io,effective_iter,total_bytes,stretch,utilization,Tcomp,Tio,iterations,priority,group_id
app_1,6.82816,19712.8,7927.7,72.3,723.199,1.44456e+09,1.00894,0.951689,11,0.00199801,1775,1,1
app_10,3.14083,19429.7,7653.6,346.4,748.456,7.92895e+10,1.03454,0.951689,10,0.10586,1845,1.00001,1.00001
app_11,5.82897,19633,7504.9,495.1,675.745,1.2746e+11,1.04817,0.951689,11,0.18855,1667,1.00001,1.00001
app_12,2.59919,18323.6,7854.3,145.7,871.064,2.83444e+10,1.01489,0.951689,9,0.0325423,2006,1.00001,1.00001
app_13,7.05819,20729.6,7382.7,617.3,927.009,1.60881e+11,1.0605,0.951689,8,0.17355,2385,1.00001,1.00001
app_14,5.3613,20282.9,7281.7,718.3,710.415,1.96091e+11,1.06983,0.951689,10,0.276184,1831,1.00001,1.00001
app_15,3.02275,18798.6,7838.5,161.5,874.738,2.95843e+10,1.01677,0.951689,9,0.0338106,2056,1.00002,1.00002
app_16,7.11859,19671.4,7136.5,863.5,1023.25,2.33407e+11,1.0855,0.951689,7,0.228159,2515,1.00002,1.00002
app_17,5.78601,20547,7650.1,349.9,760.765,8.35668e+10,1.03444,0.951689,10,0.109812,1967,1.00002,1.00002
app_18,1.98281,19623.8,7200.11,799.89,810.711,2.18188e+11,1.07841,0.951689,9,0.269041,1990,1.00002,1.00002
app_19,7.79912,18284,7733.7,266.3,975.287,5.83153e+10,1.02669,0.951689,8,0.0598106,2216,1.00002,1.00002
app_2,0.996225,19370.6,7878,122,881.712,2.03453e+10,1.01287,0.951689,9,0.0230672,2121,1,1
app_20,8.77651,19422.8,7140.7,859.3,899.576,2.36258e+11,1.08446,0.951689,8,0.262509,2170,1.00002,1.00002
app_21,19.559,21001.2,7249.61,750.387,92.7384,1.94477e+11,1.07468,0.951689,78,2.10282,249,1.00002,1.00002
app_22,68.9531,20227.6,7941.8,58.2,84.7719,1.51923e+10,1.00541,0.951689,92,0.180861,216,1.00002,1.00002
app_23,89.6751,21641.8,7520.5,479.5,65.7435,1.29564e+11,1.04574,0.951689,110,1.9631,179,1.00002,1.00002
app_24,56.3825,21040.9,7510.2,489.8,75.8292,1.35005e+11,1.04641,0.951689,102,1.77638,192,1.00002,1.00002
app_25,46.8417,20998.3,7613.2,386.8,81.1354,1.05022e+11,1.03651,0.951689,93,1.28075,212,1.00003,1.00003
app_26,18.886,19987.4,7948.3,51.7,86.755,1.31258e+10,1.00485,0.951689,88,0.150872,225,1.00003,1.00003
app_27,86.0545,20013.7,7853.8,146.2,75.7339,3.61054e+10,1.01395,0.951689,105,0.475071,190,1.00003,1.00003
app_28,61.8927,19960.6,7708.99,291.014,93.9592,7.60006e+10,1.02762,0.951689,86,0.812826,230,1.00003,1.00003
app_29,62.9582,20526.4,7520.48,479.521,73.0853,1.33888e+11,1.04516,0.951689,109,1.8269,180,1.00003,1.00003
app_3,5.41941,19524.6,7685.4,314.6,857.57,7.65866e+10,1.03066,0.951689,9,0.0892618,2100,1,1
app_30,25.3922,19291.5,7910.3,89.7,70.5386,2.14299e+10,1.00861,0.951689,114,0.30183,175,1.00003,1.00003
app_31,18.3377,19820.4,7863,137,79.9439,3.51615e+10,1.01289,0.951689,99,0.439518,200,1.00003,1.00003
app_32,7.93743,20069.5,7988.3,11.7,84.9683,1.70295e+09,1.00125,0.951689,93,0.0200347,215,1.00003,1.00003
app_33,23.9645,20291.9,7826.2,173.8,78.6985,4.6108e+10,1.01622,0.951689,96,0.583645,206,1.00003,1.00003
app_34,89.4292,20208.4,7869.53,130.471,74.1029,3.45283e+10,1.01214,0.951689,104,0.465613,190,1.00003,1.00003
app_35,101.673,21077.1,7405.8,594.2,72.5983,1.7564e+11,1.05521,0.951689,103,2.43945,189,1.00004,1.00004
app_36,19.665,20945.1,7219.49,780.514,89.0619,2.11045e+11,1.07664,0.951689,80,2.36247,242,1.00004,1.00004
app_37,60.1411,21208.1,7313.7,686.3,68.6141,2.04054e+11,1.06415,0.951689,106,2.9573,183,1.00004,1.00004
app_38,2.96095,20290.3,7804.4,195.6,74.9914,5.7646e+10,1.01755,0.951689,103,0.768614,192,1.00004,1.00004
app_39,28.9918,21003.4,7679,321,78.065,8.13223e+10,1.03089,0.951689,97,1.04259,203,1.00004,1.00004
app_4,8.17998,20086.2,7406.23,593.773,740.71,1.52234e+11,1.05842,0.951689,10,0.20564,1859,1,1
app_40,4.29324,20534.5,7522.2,477.8,77.8113,1.26684e+11,1.0459,0.951689,98,1.62416,200,1.00004,1.00004
app_41,672.857,21657.5,7670.7,329.3,6.84954,1.06323e+11,1.02867,0.951689,1168,15.189,17,1.00004,1.00004
app_42,121.103,20470.3,7491.68,508.322,8.78689,1.46273e+11,1.0474,0.951689,830,16.6669,24,1.00004,1.00004
app_43,1063.66,23816.7,7663.2,336.8,6.8378,1.01028e+11,1.03037,0.951689,1140,14.4326,18,1.00004,1.00004
app_44,678.24,22439.8,7899.9,100.1,8.11089,2.82183e+10,1.00907,0.951689,926,3.52728,22,1.00004,1.00004
app_45,820.69,22447.4,7399,601,8.10855,1.8307e+11,1.05512,0.951689,903,22.8838,22,1.00004,1.00004
app_46,606.447,20836.5,7809.77,190.234,7.5384,5.19879e+10,1.01758,0.951689,988,7.22158,21,1.00005,1.00005
app_47,954.345,20771.2,7940.2,59.8,7.56022,1.37523e+10,1.00579,0.951689,1091,1.96462,19,1.00005,1.00005
app_48,933.345,22355.1,7520.8,479.2,6.42259,1.62e+11,1.04129,0.951689,1108,27,18,1.00005,1.00005
app_49,327.253,21563.4,7931.8,68.2,6.827,2.36492e+10,1.0056,0.951689,1089,3.94153,19,1.00005,1.00005
app_5,7.12715,19612.9,7561.7,438.3,756.378,1.1131e+11,1.04262,0.951689,10,0.147236,1855,1.00001,1.00001
app_50,707.33,21981.1,7914,86,7.96972,2.3797e+10,1.00784,0.951689,985,2.97463,21,1.00005,1.00005
app_51,86.827,21434.8,7499.8,500.2,8.36625,1.61704e+11,1.04418,0.951689,903,17.9671,22,1.00005,1.00005
app_52,976.603,22314.9,7384.37,615.633,7.4225,1.62179e+11,1.06009,0.951689,1110,20.796,18,1.00005,1.00005
app_53,192.884,20747.4,7524.3,475.7,9.01583,1.19025e+11,1.04666,0.951689,979,13.225,21,1.00005,1.00005
app_54,71.0634,21031.2,7713.5,286.5,8.0147,6.90228e+10,1.02794,0.951689,972,8.62785,21,1.00005,1.00005
app_55,589.516,20530,7710.1,289.9,8.39433,7.74306e+10,1.02728,0.951689,1086,9.67882,19,1.00005,1.00005
app_56,380.835,22351.4,7357.9,642.1,7.36086,1.35934e+11,1.06754,0.951689,1008,19.4191,20,1.00006,1.00006
app_57,303.294,22533.3,7532.18,467.823,6.50784,1.56269e+11,1.04052,0.951689,989,23.7506,20,1.00006,1.00006
app_58,761.101,23523.4,7671.3,328.7,6.12246,9.32218e+10,1.03033,0.951689,1052,15.537,19,1.00006,1.00006
app_59,346.101,22251.1,7514.6,485.4,8.06118,1.4355e+11,1.04464,0.951689,849,17.9438,24,1.00006,1.00006
app_6,8.39394,19566.3,7282.3,717.7,730.933,1.88347e+11,1.07086,0.951689,10,0.257656,1787,1.00001,1.00001
app_60,527.499,21534.1,7608.2,391.8,6.92068,1.10291e+11,1.03647,0.951689,1103,15.7559,18,1.00006,1.00006
app_7,1.0679,19745.7,7272.45,727.553,731.71,1.95284e+11,1.07128,0.951689,10,0.26706,1807,1.00001,1.00001
app_8,2.43018,19764.5,7787.7,212.3,776.538,4.73096e+10,1.02106,0.951689,10,0.0609659,1931,1.00001,1.00001
app_9,8.78431,18782.4,7606.2,393.8,845.834,9.31304e+10,1.03905,0.951689,9,0.110083,1993,1.00001,1.00001
