app_id,Tcomp,Tio,iter,witer,alpha_io,compute_size,io_size,mu,desyn_time
1,16.869702115971325,0.07043210971110316,1181,16.940134225682428,0.00415770670838742,16e9,70432109.71110316,10,1.4725337233935512
2,6.613878953253969,0.003909516522198993,3023,6.617788469776168,0.0005907587617908893,6e9,3909516.5221989932,10,0.2549560266619865
3,15.393467806235446,0.22723493777216672,1281,15.620702744007612,0.01454703680724852,15e9,227234937.77216673,10,4.328313647372649
4,2.743809987874793,0.048141230224754715,7164,2.7919512180995474,0.01724286223651284,2e9,48141230.22475471,10,2.662328916954078
5,9.44002805903015,0.22364311832181072,2070,9.66367117735196,0.023142666406732335,9e9,223643118.32181072,10,3.6325391267158045
6,5.652329618565125,0.04751325032065852,3509,5.699842868885784,0.008335887745261037,5e9,47513250.32065852,10,2.1475659531568905
7,12.26694574871764,0.010992354826201423,1629,12.277938103543843,0.0008952932270467012,12e9,10992354.826201422,10,6.740984891126195
8,5.773211263271435,0.01470185677794474,3456,5.78791312004938,0.002540096313301142,5e9,14701856.77794474,10,4.27459283909414
9,7.69330370921916,0.1275434959748301,2558,7.82084720519399,0.0163081431753488,7e9,127543495.9748301,10,3.805044923550172
10,10.558763478642929,0.2499406595436544,1851,10.808704138186583,0.023124017120667334,10e9,249940659.5436544,10,8.412326804353846
11,15.305316164455327,0.3129079569447026,1281,15.61822412140003,0.020034797459203914,15e9,312907956.94470257,10,0.4035458739995334
12,9.327955498556006,0.04833900800062826,2134,9.376294506556635,0.0051554489853988545,9e9,48339008.000628255,10,4.010425178574024
13,11.435726895221368,0.19845828296634302,1720,11.63418517818771,0.01705820217976429,11e9,198458282.96634302,10,6.338613497406487
14,7.38167188901095,0.18192980386824392,2645,7.563601692879194,0.024053329518861764,7e9,181929803.86824393,10,0.477344900205709
15,12.362682188147415,0.28510696751359177,1582,12.647789155661007,0.022542039877853366,12e9,285106967.51359177,10,4.355861705045771
16,11.968777370125991,0.3036880270342412,1630,12.272465397160232,0.02474547837018246,11e9,303688027.0342412,10,7.709479588294575
17,5.064577201637026,0.04844397170157303,3912,5.113021173338599,0.009474627633888918,5e9,48443971.70157303,10,4.950264995951621
18,4.087759766909152,0.060758991520110696,4821,4.148518758429263,0.014645948363293802,4e9,60758991.5201107,10,3.8450404383525205
19,13.413136467732569,0.24394750550839664,1465,13.657083973240965,0.017862342062652296,13e9,243947505.50839663,10,9.964871461605464
20,6.170459232751965,0.16731627942868849,3156,6.337775512180654,0.026399843147981675,6e9,167316279.4286885,10,0.42734716059629635
21,114.14011161268961,2.623869787982035,172,116.76398140067164,0.022471568342452414,114e9,2623869787.982035,100,75.12315300904513
22,171.12889597929734,4.359884531171484,114,175.4887805104688,0.02484423516129793,171e9,4359884531.171484,100,146.03342526090952
23,30.022488462388342,0.5991801210956259,654,30.621668583483967,0.019567193716504342,30e9,599180121.0956259,100,11.685712906683984
24,37.754369112632205,0.9169055356578246,518,38.67127464829003,0.023710248601758164,37e9,916905535.6578246,100,32.237908769682406
25,68.80234054686977,0.9036656325694089,287,69.70600617943919,0.012963956509617939,68e9,903665632.5694089,100,11.39599534615692
26,120.23854953075303,2.502281176244667,163,122.7408307069977,0.020386705563513893,120e9,2502281176.244667,100,77.74571716180934
27,124.10963107621092,0.4443503292914337,161,124.55398140550236,0.003567532119626036,124e9,444350329.2914337,100,23.42786387767917
28,103.98816768140793,1.341299342092901,190,105.32946702350083,0.012734321932851268,103e9,1341299342.092901,100,73.91378221582154
29,104.47627278726412,1.6567309994676718,189,106.13300378673179,0.015609951102456103,104e9,1656730999.4676719,100,32.17519203638286
30,75.36701277805209,0.022059701542023538,266,75.3890724795941,0.000292611393355377,75e9,22059701.54202354,100,40.09350351657929
31,62.01830579160952,0.4871935145753078,320,62.50549930618483,0.0077944104116147855,62e9,487193514.5753078,100,2.0204534453564387
32,153.89767524118156,0.3887695586904642,130,154.28644479987202,0.00251979076447542,153e9,388769558.6904642,100,132.75676045301572
33,163.66254993098204,4.019958009754687,120,167.6825079407367,0.02397362765575669,163e9,4019958009.754687,100,115.38368099675156
34,79.08292565284486,2.190079547805105,247,81.27300520064998,0.0269471953497739,79e9,2190079547.805105,100,8.43995380176179
35,122.99575383420489,1.5808044749943115,161,124.5765583091992,0.012689421641194746,122e9,1580804474.9943116,100,80.23871602023941
36,54.5664193102198,1.2941201158804938,359,55.860539426100296,0.023166982080302444,54e9,1294120115.8804939,100,54.88649036893231
37,91.25037926807013,0.9294124792030758,217,92.17979174727321,0.010082605542776884,91e9,929412479.2030758,100,40.62298338934973
38,138.1350391290801,1.1907765326229092,144,139.32581566170302,0.008546704190946447,138e9,1190776532.622909,100,64.54856914011046
39,85.52133773948292,1.505171283363458,230,87.02650902284637,0.01729554937069023,85e9,1505171283.3634582,100,47.680062050877666
40,164.37510263433504,0.16486486159188576,122,164.53996749592693,0.0010019745603509183,164e9,164864861.59188578,100,132.08176856992253
41,523.0403628776148,7.803019138447144,38,530.8433820160619,0.014699286838261922,523e9,7803019138.4471445,1000,430.2972236505768
42,1440.211546455158,18.941822470284297,14,1459.1533689254422,0.012981378704716651,1440e9,18941822470.284298,1000,1175.9126630121455
43,611.1526060062312,12.71413416710072,33,623.8667401733319,0.02037956721906395,611e9,12714134167.100721,1000,449.2240947485505
44,1349.5781545080781,7.58760202545043,15,1357.1657565335286,0.005590770315949229,1349e9,7587602025.45043,1000,494.250512623164
45,252.0570337658808,1.4699836219412787,79,253.52701738782207,0.005798134009885954,252e9,1469983621.9412787,1000,96.14841905588399
46,1171.743412815079,12.12974685254666,17,1183.8731596676257,0.010245816246017525,1171e9,12129746852.54666,1000,616.7714196422336
47,1586.2146562865469,11.441110366309035,13,1597.6557666528558,0.007161186161070577,1586e9,11441110366.309034,1000,925.2726255723845
48,1271.0803713391442,8.591794947798743,16,1279.672166286943,0.006714059408456487,1271e9,8591794947.798742,1000,165.06476738069966
49,1258.7224786498064,7.3380030325495085,16,1266.0604816823559,0.00579593403215515,1258e9,7338003032.549508,1000,1046.3759481140503
50,1575.6672486702444,30.70308623761882,13,1606.3703349078633,0.019113329952884034,1575e9,30703086237.61882,1000,1406.636297770884
51,769.436902514758,12.155218556273683,26,781.5921210710317,0.01555186935561369,769e9,12155218556.273684,1000,338.18307246090654
52,574.2188734718852,2.960010202034094,35,577.1788836739194,0.005128410421380504,574e9,2960010202.034094,1000,354.01275227054373
53,1280.8106007380954,31.668564841217776,16,1312.4791655793133,0.02412881337224095,1280e9,31668564841.217777,1000,943.4228710988922
54,1003.3623737794051,0.7027583788286098,20,1004.0651321582337,0.0006999131394175931,1003e9,702758378.8286098,1000,125.95096581333853
55,1121.9866448014611,1.8751684125395298,18,1123.8618132140007,0.0016685044286512017,1121e9,1875168412.5395298,1000,696.1865423435164
56,1307.4706068833868,20.77685365964574,16,1328.2474605430325,0.015642306329839668,1307e9,20776853659.64574,1000,1065.1375108049842
57,410.0212495497506,5.300852262748852,49,415.32210181249945,0.012763231813610451,410e9,5300852262.748852,1000,41.95387520860771
58,1003.2828541334699,8.587683244767481,20,1011.8705373782374,0.008486938721447726,1003e9,8587683244.767481,1000,546.889752562592
59,507.92968839215024,6.6564927373500895,39,514.5861811295003,0.012935622800323357,507e9,6656492737.350089,1000,423.21614964016266
60,605.8807105226027,7.043612696264173,33,612.9243232188669,0.011491814616319273,605e9,7043612696.264173,1000,486.0951554833063
