app_id,Tcomp,Tio,iter,witer,alpha_io,compute_size,io_size,mu,desyn_time
1,14.894152973737754,0.36753037188539833,1311,15.261683345623151,0.024081902602886934,14e9,367530371.8853983,10,8.60419496191398
2,15.106842708752646,0.289393317934765,1300,15.396236026687411,0.018796367984560552,15e9,289393317.93476504,10,7.27155940651101
3,8.728861492615495,0.0348646807676324,2283,8.763726173383128,0.003978294172805415,8e9,34864680.767632395,10,3.4300568984733464
4,11.993902354555646,0.015701497745349305,1666,12.009603852300994,0.0013074117962967578,11e9,15701497.745349305,10,0.9100302974945489
5,12.147402884119076,0.07040549599104873,1637,12.217808380110124,0.005762530709326294,12e9,70405495.99104872,10,6.784499653784137
6,14.695766355146464,0.31554701071944247,1333,15.011313365865906,0.021020613122164383,14e9,315547010.7194425,10,12.762075336260846
7,8.401871670196432,0.1179146809448825,2348,8.519786351141313,0.01384009834109122,8e9,117914680.9448825,10,2.0006039864854057
8,10.683069437731284,0.16246654813613,1845,10.845535985867414,0.014980038639661212,10e9,162466548.13613,10,9.405715415123126
9,4.089488092041373,0.08476031457543967,4792,4.174248406616813,0.020305527203671396,4e9,84760314.57543968,10,0.012352736240869666
10,10.889703700516428,0.19538687928303303,1805,11.085090579799461,0.01762609677173858,10e9,195386879.283033,10,10.044743586826154
11,6.6489971734859905,0.12282451601085853,2954,6.771821689496849,0.018137588619818557,6e9,122824516.01085854,10,1.8953646492098077
12,12.492679293899249,0.26673706731021507,1568,12.759416361209464,0.02090511507416089,12e9,266737067.31021506,10,11.903625208757287
13,12.296887839707061,0.08994373029182684,1615,12.386831569998888,0.007261237854373676,12e9,89943730.29182684,10,5.464646031400766
14,11.702803578281213,0.1894612582561805,1682,11.892264836537393,0.01593146981339384,11e9,189461258.2561805,10,4.121605714161976
15,10.087182158498486,0.1490309433337969,1954,10.236213101832282,0.014559187255208703,10e9,149030943.33379692,10,4.48442398288814
16,7.230909003390087,0.117578722491794,2722,7.348487725881881,0.01600039720794166,7e9,117578722.491794,10,4.964763686942069
17,9.997939062648078,0.25615284089829793,1951,10.254091903546376,0.02498054857590144,9e9,256152840.89829794,10,2.228101198016279
18,13.274173951872024,0.28981110536041177,1475,13.563985057232436,0.021366221220207104,13e9,289811105.36041176,10,11.459125837540315
19,17.007047393567383,0.24137916419800481,1160,17.248426557765388,0.013994271500047862,17e9,241379164.1980048,10,12.996304776998285
20,8.944612032663851,0.08543918264290157,2215,9.030051215306752,0.009461649840709036,8e9,85439182.64290157,10,3.530534841122862
21,92.27484873152987,1.6670317943326605,213,93.94188052586253,0.017745352605260237,92e9,1667031794.3326604,100,68.67369299625742
22,91.59983953932061,0.1652197131662939,218,91.7650592524869,0.0018004642999434048,91e9,165219713.16629392,100,3.7882047517753956
23,128.81464108462714,1.0425286905356026,155,129.85716977516273,0.00802827208032223,128e9,1042528690.5356026,100,68.39836765384554
24,117.27816046497036,2.9578040625112174,167,120.23596452748157,0.024599994470333134,117e9,2957804062.5112176,100,28.282303249059765
25,82.47882377516923,0.2488410548601421,242,82.72766483002937,0.003007954538199598,82e9,248841054.8601421,100,66.69398297865014
26,127.48092100137495,0.44659723516977523,157,127.92751823654473,0.0034910177366529803,127e9,446597235.16977525,100,120.45382169286853
27,136.3240605831894,1.1711808028123405,146,137.49524138600174,0.00851797335679704,136e9,1171180802.8123405,100,30.803661231939763
28,162.60260207503805,1.626287385641209,122,164.22888946067926,0.009902565809108666,162e9,1626287385.641209,100,35.28804303514067
29,104.23801681850443,0.102748665235783,192,104.34076548374021,0.000984741340160042,104e9,102748665.235783,100,83.08760879793137
30,167.86973597178846,0.7310635996955854,119,168.60079957148403,0.004336062471552077,167e9,731063599.6955855,100,160.39437133039092
31,119.1057125394882,1.376239683131964,166,120.48195222262017,0.011422787046055009,119e9,1376239683.1319642,100,24.183693118072863
32,186.6242643447469,4.476934282293424,105,191.10119862704033,0.023427034024159958,186e9,4476934282.293425,100,20.940049193667225
33,42.85223617235896,0.1307006010463425,466,42.9829367734053,0.0030407554917748314,42e9,130700601.0463425,100,27.003817865462395
34,128.8211885060732,1.3173327586631864,154,130.1385212647364,0.010122542855572954,128e9,1317332758.6631866,100,103.71161719187965
35,59.65245969929427,1.0444105461123223,330,60.69687024540659,0.017206991759041498,59e9,1044410546.1123223,100,53.34774983061139
36,123.12485177680956,2.4763481776719343,160,125.6011999544815,0.0197159595495057,123e9,2476348177.671934,100,103.58803099974854
37,87.6206601656531,1.792328153721057,224,89.41298831937416,0.02004550107775217,87e9,1792328153.721057,100,9.137416219896586
38,30.541035751461653,0.5554952632834294,644,31.096531014745082,0.01786357658415434,30e9,555495263.2834294,100,12.080723563996472
39,78.99564785156753,1.66462859808822,248,80.66027644965574,0.02063752656646548,78e9,1664628598.0882201,100,38.29053618038798
40,78.25391207775525,1.3893718942799802,252,79.64328397203522,0.017444934776519563,78e9,1389371894.2799802,100,14.130334112882055
41,936.7842012664266,4.453080040690565,22,941.2372813071172,0.004731091860818,936e9,4453080040.690564,1000,802.2412645034153
42,406.08107980806386,7.74299619910487,49,413.82407600716874,0.018710840301545763,406e9,7742996199.10487,1000,160.6469960257876
43,1229.0508026741857,28.23343944402523,16,1257.2842421182108,0.02245589223043066,1229e9,28233439444.02523,1000,855.1539902678569
44,1862.8245458704384,22.018292894677856,11,1884.8428387651163,0.011681765949835625,1862e9,22018292894.677856,1000,459.9414105985525
45,887.9086632717101,21.700403159575682,22,909.6090664312858,0.023856845715834768,887e9,21700403159.575684,1000,456.38447712209427
46,863.373350985836,1.4148159317619744,24,864.788166917598,0.0016360260071606487,863e9,1414815931.7619743,1000,486.26030931239933
47,1353.6167629107592,15.16628455507589,15,1368.7830474658351,0.011080123021069518,1353e9,15166284555.07589,1000,879.3893667887943
48,442.9410865154871,8.714906836147659,45,451.6559933516347,0.019295452655186417,442e9,8714906836.14766,1000,194.01776740063877
49,1421.2921709693715,36.22935524979255,14,1457.521526219164,0.024856823448619742,1421e9,36229355249.79255,1000,1158.416958874522
50,1016.0522132369122,4.901803208730338,20,1020.9540164456425,0.004801198809908712,1016e9,4901803208.730338,1000,739.0052256280023
51,858.6575706877211,10.719498377060743,24,869.3770690647818,0.012330091002506045,858e9,10719498377.060743,1000,274.8660926303474
52,959.9459456284762,6.752839199686512,21,966.6987848281627,0.006985463627004429,959e9,6752839199.686512,1000,115.72432609016677
53,941.2263570251308,16.946484468688666,21,958.1728414938195,0.01768625005303699,941e9,16946484468.688667,1000,56.175822772706475
54,745.4411738916226,1.1657325002381729,27,746.6069063918608,0.0015613738504935979,745e9,1165732500.2381728,1000,655.8759194039937
55,832.8562365627348,15.171614368190307,24,848.0278509309251,0.017890467101446754,832e9,15171614368.190306,1000,83.53095318653337
56,473.8697529787888,7.0039964537647705,42,480.8737494325536,0.014565146178242647,473e9,7003996453.7647705,1000,67.60508690648592
57,858.6291151351958,0.8344504862948059,24,859.4635656214906,0.0009708968706444265,858e9,834450486.2948059,1000,669.2400980574043
58,816.9898988409476,14.982999868325177,25,831.9728987092727,0.01800899992243724,816e9,14982999868.325176,1000,7.711827869207597
59,484.7464731426342,8.023461927924163,41,492.7699350705584,0.01628236902638004,484e9,8023461927.924164,1000,337.98997181154505
60,1127.0950126198854,3.3623256166627393,18,1130.4573382365481,0.0029743056221013912,1127e9,3362325616.6627393,1000,1105.4419447622663
