app_id,Tcomp,Tio,iter,witer,alpha_io,compute_size,io_size,mu,desyn_time
1,9.754758318311957,0.2687598358395833,1996,10.02351815415154,0.02681292453471223,9e9,268759835.8395833,10,5.498330741724214
2,2.726388495444697,0.015756727758725914,7294,2.7421452232034227,0.005746131760417351,2e9,15756727.758725913,10,2.6228281406590077
3,10.074199687696312,0.2874950655308722,1931,10.361694753227185,0.027745950095792084,10e9,287495065.53087217,10,6.600286447938616
4,11.726630515717833,0.053970851609554664,1698,11.780601367327387,0.004581332474184108,11e9,53970851.60955466,10,8.767820178480122
5,11.19446612743501,0.16003749944267712,1762,11.354503626877687,0.01409462753297697,11e9,160037499.4426771,10,4.380970250644627
6,9.72806696689172,0.1341309434904541,2028,9.862197910382175,0.013600512249835425,9e9,134130943.4904541,10,1.288122022160364
7,10.277452792650642,0.04212115914310589,1939,10.319573951793748,0.004081676175767352,10e9,42121159.14310589,10,7.414618812732853
8,8.06076556342419,0.21342945578712091,2418,8.274195019211312,0.025794588511821755,8e9,213429455.7871209,10,1.3733638262958237
9,8.238235655559173,0.1576250397678414,2383,8.395860695327015,0.01877413710015135,8e9,157625039.7678414,10,7.190561387307963
10,6.0467569224589655,0.11838375751276203,3245,6.165140679971728,0.01920211778740869,6e9,118383757.51276204,10,0.39269420717426845
11,7.976286479945681,0.22688329937631865,2439,8.203169779322,0.02765800361077871,7e9,226883299.37631866,10,1.4103933782076192
12,4.080522716478815,0.013217797896767195,4886,4.0937405143755825,0.0032287825401613917,4e9,13217797.896767195,10,2.7022241273882504
13,15.592430408192365,0.41799367082160377,1250,16.01042407901397,0.026107595199148945,15e9,417993670.8216038,10,12.985117748865674
14,7.339350434785348,0.016253308955662585,2720,7.3556037437410104,0.00220964988353169,7e9,16253308.955662584,10,6.960097939570855
15,5.25935196038131,0.029629134915013323,3782,5.288981095296323,0.00560204969183262,5e9,29629134.915013324,10,2.2778195394730303
16,5.832466633029597,0.05417372523743866,3398,5.8866403582670355,0.009202825710485026,5e9,54173725.23743866,10,3.196827746767154
17,15.486768155890122,0.05837300944191508,1287,15.545141165332037,0.0037550646096476447,15e9,58373009.44191508,10,10.77542792855096
18,14.356445622637285,0.08844429451916233,1385,14.444889917156447,0.006122877711523126,14e9,88444294.51916233,10,3.577807197330867
19,9.0160389042324,0.1770130238909063,2176,9.193051928123305,0.019255088002863293,9e9,177013023.8909063,10,8.158621624782421
20,5.938001083905587,0.09613230222685051,3315,6.034133386132438,0.01593141816317492,5e9,96132302.22685051,10,4.148430860390557
21,74.40510146308067,0.34118349058037145,268,74.74628495366105,0.004564554489790203,74e9,341183490.58037144,100,49.75923663648762
22,94.0470141118675,1.3263108762934093,210,95.3733249881609,0.013906518163837214,94e9,1326310876.2934093,100,74.67971895164952
23,139.52404815188396,2.7430477864636003,141,142.26709593834755,0.019280971248983106,139e9,2743047786.4636,100,18.9598986318629
24,153.21877054670946,0.29669949795668393,131,153.51547004466616,0.0019327009705950651,153e9,296699497.95668393,100,128.8063512303323
25,156.17371134485387,2.505034925921346,127,158.6787462707752,0.01578683336485822,156e9,2505034925.921346,100,131.20084038710883
26,51.776613937312824,1.19379959007728,378,52.97041352739011,0.02253710157388117,51e9,1193799590.07728,100,24.833469249722786
27,88.67982232593015,2.4045386633037453,220,91.08436098923389,0.026399028737633237,88e9,2404538663.3037453,100,77.96176730859126
28,86.42757418537356,1.279808926659245,229,87.7073831120328,0.014591803805438867,86e9,1279808926.659245,100,55.02664923020526
29,106.98516167750324,2.3213203412124463,183,109.30648201871568,0.02123680406085144,106e9,2321320341.212446,100,24.945845892282136
30,141.5119587119298,1.9962355206892584,140,143.50819423261905,0.013910254612036078,141e9,1996235520.6892583,100,107.686168976325
31,121.88732285511965,2.8361512670725415,161,124.72347412219219,0.02273951465057773,121e9,2836151267.0725417,100,115.87020416385741
32,133.35053955401725,1.6046298162113777,149,134.95516937022862,0.011890095234583599,133e9,1604629816.2113776,100,47.798379158970484
33,58.71366502412554,0.921128163060656,336,59.6347931871862,0.015446153391852124,58e9,921128163.0606561,100,39.254039781960145
34,105.22099267347055,2.4001145033876754,186,107.62110717685822,0.022301522130258964,105e9,2400114503.3876753,100,41.850469957634274
35,136.53890073582414,0.9487995459241663,146,137.48770028174832,0.006900977643671597,136e9,948799545.9241663,100,10.354160372420651
36,79.08655450437726,1.3308371007429416,249,80.4173916051202,0.01654912045988578,79e9,1330837100.7429416,100,10.698510344146998
37,98.66199196948253,2.783533241292621,198,101.44552521077514,0.027438699099928018,98e9,2783533241.2926207,100,0.164313044286759
38,93.64798564467097,0.4341992511882422,213,94.08218489585921,0.004615105948792143,93e9,434199251.1882422,100,23.1947014896273
39,110.02066192691323,0.5129015924642489,181,110.53356351937748,0.004640233935589464,110e9,512901592.46424896,100,97.2387048151579
40,69.1965174694641,0.26214776619222935,288,69.45866523565633,0.0037741549640037835,69e9,262147766.19222936,100,68.09182401023705
41,419.26944015112326,0.18369972954282512,48,419.4531398806661,0.00043795054101892643,419e9,183699729.54282513,1000,71.32968914181004
42,1131.0946540051193,20.3220012765367,18,1151.416655281656,0.017649563416785554,1131e9,20322001276.5367,1000,324.3091194841851
43,1777.7635671489732,5.323925539150531,12,1783.0874926881236,0.002985790411845892,1777e9,5323925539.150532,1000,127.21579104180802
44,1208.9871116213487,11.045696274521937,17,1220.0328078958707,0.009053605938328735,1208e9,11045696274.521936,1000,428.8427219368467
45,734.5156427978122,5.289277410059158,28,739.8049202078714,0.0071495569515446986,734e9,5289277410.059158,1000,365.028604280506
46,557.8489156888481,15.978062750255702,35,573.8269784391039,0.02784473953057845,557e9,15978062750.255703,1000,525.566521728866
47,879.483115078399,7.290876825000474,23,886.7739919033995,0.008221798216421647,879e9,7290876825.000474,1000,507.94907505555096
48,760.9947082468758,8.386663240799393,26,769.3813714876752,0.01090052807567065,760e9,8386663240.799394,1000,359.2424447758888
49,1454.5559337444154,27.714797100470996,14,1482.2707308448864,0.01869752706017052,1454e9,27714797100.470997,1000,83.26387574006675
50,1150.0043574220695,25.3871527499084,18,1175.3915101719779,0.02159889069319028,1150e9,25387152749.908398,1000,1057.233908070221
51,1277.6469779989504,18.607414897369598,16,1296.25439289632,0.01435475551661864,1277e9,18607414897.3696,1000,337.8706910565067
52,1354.758852964637,1.2372500254769025,15,1355.996102990114,0.0009124288947059922,1354e9,1237250025.4769025,1000,134.93520488318634
53,2030.791477802887,23.59940658467742,10,2054.3908843875643,0.011487301060388347,2030e9,23599406584.67742,1000,1736.8857459191308
54,708.701123105364,12.895251039578236,28,721.5963741449423,0.01787044877388485,708e9,12895251039.578236,1000,66.25993941529973
55,1398.0860686674532,13.713970713972355,15,1411.8000393814257,0.009713819472608227,1398e9,13713970713.972355,1000,1067.7464133554868
56,1092.740887630122,20.15648620859354,18,1112.8973738387156,0.018111720525557356,1092e9,20156486208.59354,1000,622.2756794518191
57,650.9384106624713,4.473686021266601,31,655.4120966837379,0.006825760531278888,650e9,4473686021.266601,1000,360.09363569019723
58,1327.7211351775427,2.8072756859345556,16,1330.5284108634773,0.002109895334074609,1327e9,2807275685.9345555,1000,1326.4483373182354
59,550.9592339841938,7.430705526552386,36,558.3899395107462,0.01330737715844786,550e9,7430705526.552386,1000,530.141062399496
60,1271.3104092823812,13.902196244247714,16,1285.212605526629,0.010817040063617448,1271e9,13902196244.247713,1000,692.3005954026734
