app_id,Tcomp,Tio,iter,witer,alpha_io,compute_size,io_size,mu,desyn_time
1,13.93505077514212,0.06485094551037619,1429,13.999901720652495,0.004632242911727646,13e9,64850945.51037619,10,9.646974937055251
2,12.739108882424555,0.32498531060677494,1531,13.06409419303133,0.024876222247396922,12e9,324985310.6067749,10,4.4223357917083534
3,6.745624333041705,0.13789782519815216,2906,6.883522158239857,0.020033032803284122,6e9,137897825.19815215,10,2.1082403939434564
4,5.84646378535036,0.023494662176843213,3408,5.869958447527203,0.004002526148501212,5e9,23494662.176843215,10,3.2835394658345685
5,9.243499895112702,0.09256659631746403,2143,9.336066491430167,0.009914946128804189,9e9,92566596.31746402,10,1.175625800096894
6,11.239279301326768,0.26286560532155756,1739,11.502144906648326,0.022853616212887326,11e9,262865605.32155755,10,7.65308039039494
7,9.436564923002138,0.19918506178950263,2076,9.63574998479164,0.020671464297421754,9e9,199185061.78950262,10,7.909729386172512
8,11.961528078514274,0.17034712683151584,1649,12.13187520534579,0.01404128578213977,11e9,170347126.83151585,10,11.271370556909748
9,15.825274606712485,0.14427641828162932,1253,15.969551024994114,0.00903446928819857,15e9,144276418.28162932,10,3.987547344385853
10,7.085939646581379,0.03648372380650583,2809,7.122423370387885,0.005122375055404624,7e9,36483723.80650583,10,1.8697572821708799
11,6.007525789189078,0.0529974987131451,3301,6.060523287902223,0.008744706718467136,6e9,52997498.7131451,10,3.1375189759639417
12,15.614727531928262,0.027561357947301468,1279,15.642288889875562,0.0017619773002108725,15e9,27561357.94730147,10,9.52446877157441
13,10.116227750349095,0.14159185931091076,1950,10.257819609660006,0.013803309543245497,10e9,141591859.31091076,10,6.626708403701143
14,9.770450286963213,0.007936465012024545,2046,9.778386751975237,0.0008116333719794195,9e9,7936465.012024545,10,0.62286055982178
15,13.1886377447585,0.08666703018671537,1507,13.275304774945216,0.0065284399609630075,13e9,86667030.18671536,10,3.8771187690165854
16,9.51175683442847,0.03566342148312296,2095,9.547420255911593,0.0037353987283675716,9e9,35663421.48312296,10,1.2867350913008322
17,10.227129143385094,0.21308975250986545,1916,10.44021889589496,0.020410467887186853,10e9,213089752.50986546,10,8.62861691304293
18,10.477842392162833,0.19023421409229443,1875,10.668076606255127,0.01783210049136246,10e9,190234214.09229442,10,7.056377987019459
19,11.330024372498709,0.20015789858241015,1735,11.530182271081118,0.017359473933419658,11e9,200157898.58241016,10,5.470576064386499
20,15.53591835271117,0.33569870827219395,1261,15.871617060983363,0.021150882546015444,15e9,335698708.27219397,10,3.480871741342471
21,145.8836413028384,3.4430178664796696,134,149.32665916931808,0.023056953698908582,145e9,3443017866.4796696,100,48.201570146848866
22,66.3395253816684,1.383377774498763,296,67.72290315616716,0.020427030000600116,66e9,1383377774.498763,100,21.328592739400182
23,84.75596802354939,0.21378054702123683,236,84.96974857057062,0.00251596068739316,84e9,213780547.02123684,100,67.08801739005774
24,76.9370428817178,1.2224890840521878,256,78.15953196576999,0.015640946834067245,76e9,1222489084.052188,100,62.71347672994169
25,125.40913048089212,0.8657155048678085,159,126.27484598575992,0.006855803292489746,125e9,865715504.8678085,100,36.04588576062229
26,54.259590877313656,0.783615015411191,364,55.04320589272485,0.014236362194062588,54e9,783615015.4111911,100,37.00510639813351
27,61.46403188605583,0.07120014083714209,326,61.53523202689297,0.001157063010764715,61e9,71200140.83714208,100,1.9097556220782046
28,94.06700754943994,0.0982129677161616,213,94.1652205171561,0.001042985586151397,94e9,98212967.7161616,100,36.1862122943348
29,61.05736771931915,1.212258363453649,322,62.2696260827728,0.019467892128374707,61e9,1212258363.453649,100,12.66904691461411
30,142.02354594933746,1.389376340263303,140,143.41292228960077,0.009687943862252992,142e9,1389376340.263303,100,92.5240927846543
31,119.47051425462087,0.4577604995442642,167,119.92827475416513,0.003816952261529686,119e9,457760499.5442642,100,107.22011944716022
32,192.75209671222328,3.4439485592994608,102,196.19604527152273,0.01755360845593629,192e9,3443948559.299461,100,144.5922810355056
33,123.53044598336565,0.8619556488888569,161,124.3924016322545,0.0069293271741555865,123e9,861955648.8888569,100,92.98172723052234
34,96.97311335917045,0.5814904788632561,206,97.55460383803371,0.005960666703425737,96e9,581490478.8632561,100,87.63212692440159
35,86.95963908722678,1.8704452892001138,226,88.8300843764269,0.021056439407103382,86e9,1870445289.2001138,100,41.977881560245265
36,163.08534257509686,3.9378658937046285,120,167.0232084688015,0.02357675876188301,163e9,3937865893.7046285,100,66.9411411672801
37,83.67783550373721,1.3881584600483143,236,85.06599396378553,0.016318606241634982,83e9,1388158460.0483143,100,26.804368244667835
38,87.40049621850038,1.92564372354007,224,89.32613994204046,0.021557449194485847,87e9,1925643723.54007,100,21.857043351500806
39,96.00849154037685,0.6276016140061669,207,96.63609315438302,0.006494484550441508,96e9,627601614.0061668,100,80.94807555804285
40,55.86448020770691,0.8647161053055948,353,56.72919631301251,0.015242876005758728,55e9,864716105.3055948,100,54.282237253076765
41,1351.5661773128093,30.228974817316836,15,1381.795152130126,0.02187659637589329,1351e9,30228974817.316837,1000,723.9055435617278
42,1548.182032171154,35.58849809426533,13,1583.7705302654194,0.02247074144529079,1548e9,35588498094.265335,1000,424.5607643398335
43,1162.0790342204464,2.635663252696714,18,1164.7146974731431,0.0022629260697188797,1162e9,2635663252.696714,1000,1018.0842175700647
44,1232.750972647681,21.661531715502022,16,1254.412504363183,0.01726826832493889,1232e9,21661531715.50202,1000,754.1659028641885
45,4.648612336111829,0.05403224392531577,4253,4.702644580037145,0.01148975709427077,4e9,54032243.92531577,1000,1.3633772211684767
46,961.138866326703,24.185258618871014,21,985.324124945574,0.024545485091220034,961e9,24185258618.871014,1000,369.3424798291599
47,497.9474012752246,0.9448382059868057,41,498.8922394812114,0.0018938723259542484,497e9,944838205.9868057,1000,214.0393143604165
48,860.8142637502419,7.93829647913495,24,868.7525602293769,0.009137580529303994,860e9,7938296479.13495,1000,691.3300724945587
49,1468.3200551359475,4.278491547939327,14,1472.598546683887,0.0029054025332117634,1468e9,4278491547.939327,1000,1443.0755742535425
50,1462.0724969819053,22.90725940069942,14,1484.9797563826046,0.015425974194086839,1462e9,22907259400.69942,1000,250.51685164477428
51,712.8640084750195,16.102625810190176,28,728.9666342852097,0.022089660970532145,712e9,16102625810.190176,1000,386.06265641145603
52,1340.1624902176452,25.6895883363783,15,1365.8520785540236,0.018808470360549515,1340e9,25689588336.3783,1000,311.08468775500126
53,1249.1246734802469,18.944278581311202,16,1268.068952061558,0.01493947040538499,1249e9,18944278581.311203,1000,841.1120388422007
54,490.5717071902619,7.433238725262807,41,498.00494591552473,0.014926033940481562,490e9,7433238725.262808,1000,369.00771937259896
55,1350.7759827789241,21.561557408623017,15,1372.3375401875471,0.01571155548632471,1350e9,21561557408.623016,1000,220.51529977693298
56,1051.662694408139,23.826157051590318,19,1075.4888514597294,0.02215379268622987,1051e9,23826157051.590317,1000,763.2605590198134
57,1314.1094920624955,21.095226152194613,15,1335.20471821469,0.01579924476330578,1314e9,21095226152.194614,1000,507.0769841097933
58,653.2665524830646,9.632058363065841,31,662.8986108461305,0.014530213528085967,653e9,9632058363.065842,1000,436.9746445487593
59,1569.4153116765858,15.12340952906861,13,1584.5387212056544,0.00954436097185521,1569e9,15123409529.06861,1000,50.28372184468859
60,1181.4512351775393,26.952121517944548,17,1208.4033566954838,0.022303911494956606,1181e9,26952121517.94455,1000,379.3792323960566
