app_id,start_app,end_app,effective_cpu,effective_io,effective_iter,total_bytes,stretch,utilization,Tcomp,Tio,iterations,priority,group_id
app_1,6.65301,19371.3,7606.1,393.9,634.002,8.9783e+10,1.03952,0.943943,12,0.141614,1541,1,1
app_10,1.2151,19411.1,7224.8,775.2,805.307,1.86866e+11,1.07938,0.943943,9,0.232131,1963,1.00001,1.00001
app_11,8.88951,21224.3,7304.9,695.1,810.696,1.68245e+11,1.0705,0.943943,9,0.207454,2168,1.00001,1.00001
app_12,6.37119,18823.6,7391.6,608.4,1234.08,1.32887e+11,1.0632,0.943943,6,0.107688,2917,1.00001,1.00001
app_13,2.77412,18826.5,7707.4,292.6,768.706,6.25205e+10,1.02961,0.943943,10,0.081301,1815,1.00001,1.00001
app_14,9.33452,19546.8,7427.17,572.832,823.498,1.32878e+11,1.05819,0.943943,9,0.161425,2025,1.00001,1.00001
app_15,13.0128,20439.2,7424.7,575.3,571.485,1.35531e+11,1.05817,0.943943,13,0.236942,1469,1.00002,1.00002
app_16,6.15087,20057.3,7471.56,528.439,467.234,1.24306e+11,1.0532,0.943943,16,0.265971,1178,1.00002,1.00002
app_17,4.03078,20845,7354.4,645.6,670.124,1.51321e+11,1.06585,0.943943,11,0.225852,1759,1.00002,1.00002
app_18,0.0173842,19911.7,7462.5,537.5,533.772,1.25977e+11,1.05423,0.943943,14,0.235911,1335,1.00002,1.00002
app_19,4.14789,19782.5,7847.4,152.6,560.928,2.90803e+10,1.01568,0.943943,14,0.0518366,1389,1.00002,1.00002
app_2,1.69865,18274.8,7577.6,422.4,1516.06,8.55464e+10,1.04396,0.943943,5,0.056429,3474,1,1
app_20,0.859702,17399.1,7290.9,709.1,2426.8,1.46335e+11,1.07567,0.943943,3,0.0602947,5314,1.00002,1.00002
app_21,54.748,21100.9,7381.75,618.25,105.127,1.45295e+11,1.06283,0.943943,70,1.38291,278,1.00002,1.00002
app_22,126.381,21287.6,7438.36,561.638,51.1625,1.38357e+11,1.05587,0.943943,145,2.68223,136,1.00002,1.00002
app_23,7.7229,20535.2,7714.6,285.4,51.3261,6.14546e+10,1.0288,0.943943,148,1.20499,134,1.00002,1.00002
app_24,77.0887,20124.9,7900.4,99.6,60.4306,2.35572e+10,1.0096,0.943943,132,0.386184,151,1.00002,1.00002
app_25,37.2045,21436.9,7295.99,704.008,75.1127,1.74067e+11,1.07094,0.943943,96,2.30244,204,1.00003,1.00003
app_26,70.3183,20115.3,7865.4,134.6,75.8418,2.96071e+10,1.0133,0.943943,104,0.389568,191,1.00003,1.00003
app_27,72.2111,20689.2,7618.7,381.3,65.0096,9.56164e+10,1.03703,0.943943,117,1.47102,169,1.00003,1.00003
app_28,10.3611,20682.8,7430.6,569.4,180.897,1.39257e+11,1.05682,0.943943,41,0.769373,471,1.00003,1.00003
app_29,59.8738,20814.6,7522.7,477.3,62.4682,1.10128e+11,1.0481,0.943943,121,1.77625,163,1.00003,1.00003
app_3,8.53432,20080.1,7424.8,575.2,674.411,1.34909e+11,1.05824,0.943943,11,0.200161,1703,1,1
app_30,112.121,20496.1,7790.4,209.6,41.0504,4.2449e+10,1.02134,0.943943,190,1.03534,105,1.00003,1.00003
app_31,6.88703,19999.3,7970.2,29.8,136.565,5.87102e+09,1.003,0.943943,58,0.0428541,342,1.00003,1.00003
app_32,50.0735,20238.8,7919.1,80.9,84.4908,1.91295e+10,1.00778,0.943943,93,0.225052,215,1.00003,1.00003
app_33,16.8699,20793.3,7572.7,427.3,78.1906,9.6027e+10,1.0432,0.943943,96,1.23112,205,1.00003,1.00003
app_34,106.963,20204.6,7897.2,102.8,73.8761,2.12879e+10,1.01029,0.943943,108,0.287675,185,1.00003,1.00003
app_35,14.6165,20642.4,7633.4,366.6,75.5721,8.48191e+10,1.03651,0.943943,101,1.13092,196,1.00004,1.00004
app_36,63.1274,20218.4,7886.7,113.3,81.8014,2.74239e+10,1.01085,0.943943,96,0.334437,207,1.00004,1.00004
app_37,56.6106,20775.6,7460.4,539.6,80.5424,1.22637e+11,1.05499,0.943943,94,1.53296,208,1.00004,1.00004
app_38,6.36302,20141.9,7858.8,141.2,392.972,2.86798e+10,1.01427,0.943943,20,0.0729765,990,1.00004,1.00004
app_39,81.9644,20996.3,7497.9,502.1,52.1362,1.31422e+11,1.04859,0.943943,145,2.47966,136,1.00004,1.00004
app_4,1.8669,19144,7206.2,793.8,1026.45,1.8757e+11,1.08199,0.943943,7,0.182817,2477,1,1
app_40,36.491,20139.5,7762.8,237.2,134.568,5.49473e+10,1.02331,0.943943,58,0.407017,339,1.00004,1.00004
app_41,195.768,21199.2,7610.9,389.1,6.19391,1.09432e+11,1.03622,0.943943,1256,18.2387,16,1.00004,1.00004
app_42,999.443,21200.2,7882.4,117.6,4.31764,2.03365e+10,1.01231,0.943943,1815,4.0673,11,1.00004,1.00004
app_43,620.555,21558.9,7391.3,608.7,11.0818,1.70779e+11,1.05791,0.943943,674,15.5254,29,1.00004,1.00004
app_44,58.8279,20163.1,7913.1,86.9,40.9135,1.96179e+10,1.00848,0.943943,197,0.478485,102,1.00004,1.00004
app_45,190.123,21198.4,7472.2,527.8,6.93807,1.19917e+11,1.05372,0.943943,1100,17.131,18,1.00004,1.00004
app_46,1336.95,23479.4,7182.1,817.9,5.2278,1.73172e+11,1.08766,0.943943,1487,28.862,14,1.00005,1.00005
app_47,356.038,21629.3,7640.5,359.5,11.0066,7.71499e+10,1.03658,0.943943,707,7.01363,29,1.00005,1.00005
app_48,756.467,21465.6,7481.3,518.7,3.82335,1.70952e+11,1.04544,0.943943,2014,42.738,10,1.00005,1.00005
app_49,357.238,21700.7,7723.5,276.5,7.33974,7.01737e+10,1.02647,0.943943,1075,8.77171,19,1.00005,1.00005
app_5,1.54686,19430.9,7384.5,615.5,1234.6,1.33093e+11,1.06417,0.943943,6,0.107768,3007,1.00001,1.00001
app_50,671.556,22420,7271.8,728.2,8.26892,1.63624e+11,1.07593,0.943943,886,20.4531,23,1.00005,1.00005
app_51,101.442,20292.3,7916.7,83.3,73.0072,1.90545e+10,1.0081,0.943943,108,0.26102,184,1.00005,1.00005
app_52,384.649,21450,7859.7,140.3,9.05861,3.93222e+10,1.01278,0.943943,858,4.36913,24,1.00005,1.00005
app_53,192.927,21788.8,7782.7,217.3,6.37204,4.61354e+10,1.02186,0.943943,1221,7.68923,17,1.00005,1.00005
app_54,38.5403,21194.7,7291.9,708.1,27.0689,1.73432e+11,1.07162,0.943943,268,6.42342,73,1.00005,1.00005
app_55,486.437,21645.7,7523.5,476.5,9.76713,1.07338e+11,1.04838,0.943943,783,10.7338,26,1.00005,1.00005
app_56,408.846,21436.6,7396,604,11.423,1.64341e+11,1.05815,0.943943,658,13.6951,30,1.00006,1.00006
app_57,568.926,21898.9,7513.9,486.1,10.298,1.00578e+11,1.05063,0.943943,718,10.0578,28,1.00006,1.00006
app_58,581.647,20901.9,7910.9,89.1,7.11938,2.5491e+10,1.00801,0.943943,1137,3.64157,18,1.00006,1.00006
app_59,130.663,22802.6,7160.3,839.7,4.57968,2.00463e+11,1.08684,0.943943,1600,40.0926,13,1.00006,1.00006
app_6,7.47,20893.1,7449.3,550.7,826.431,1.27562e+11,1.05585,0.943943,9,0.154247,2172,1.00001,1.00001
app_60,12.0623,22766.2,7108.5,891.5,4.54262,1.92714e+11,1.09571,0.943943,1593,38.5428,13,1.00006,1.00006
app_7,14.3783,20219,7258.4,741.6,519.278,1.81911e+11,1.07522,0.943943,14,0.350504,1321,1.00001,1.00001
app_8,3.34553,20447.8,7202.4,797.6,722.48,1.93837e+11,1.08163,0.943943,10,0.268101,1862,1.00001,1.00001
app_9,17.6704,19646.2,7624.9,375.1,448.699,8.75672e+10,1.03728,0.943943,17,0.195027,1105,1.00001,1.00001
