app_id,start_app,end_app,effective_cpu,effective_io,effective_iter,total_bytes,stretch,utilization,Tcomp,Tio,iterations,priority,group_id
app_1,1.17448,16707.6,7542.7,351.086,1884.67,1.94395e+11,1.03398,0.959691,4,0.103127,3943,0.1,1
app_10,2.00606,19584.4,7660.5,278.352,1096.09,2.03092e+11,1.01735,0.959691,7,0.185303,2683,0.1,1
app_11,3.33272,19421.7,7830.5,128.837,651.075,8.33286e+10,1.01089,0.959691,12,0.128001,1584,0.1,1
app_12,5.8664,18992,7812.7,120.202,973.249,7.88084e+10,1.01375,0.959691,8,0.0809953,2316,0.1,1
app_13,1.34298,15698.6,7609.2,245.022,2538.27,9.01498e+10,1.03905,0.959691,3,0.03552,4978,0.1,1
app_14,0.976939,17033.6,7268.3,718.87,7260.51,1.49229e+11,1.07853,0.959691,1,0.020555,15469,1,0
app_15,0.572447,20151.6,7859,107.109,559.169,6.65019e+10,1.0094,0.959691,14,0.118966,1411,0.1,1
app_16,0.909823,18736.8,7882.1,66.4929,789.554,9.08942e+09,1.01379,0.959691,10,0.0115056,1848,0.1,1
app_17,8.24872,19261.2,7873.2,83.223,654.677,5.54953e+10,1.00899,0.959691,12,0.0847257,1578,0.1,1
app_18,0.352447,19808.5,7725.5,262.51,2575.68,1.64006e+11,1.01401,0.959691,3,0.0636669,6382,1,0
app_19,10.734,19057.6,7904.2,56.7111,609.115,1.93968e+10,1.00964,0.959691,13,0.0318502,1450,0.1,1
app_2,8.03073,18656.9,7703.3,248.299,856.883,1.74304e+11,1.01554,0.959691,9,0.203388,1994,0.1,1
app_20,0.548862,19564.3,7732.2,217.54,859.133,1.6153e+11,1.01346,0.959691,9,0.188044,2100,0.1,1
app_21,74.7251,20388.1,7712.8,245.962,71.527,1.62386e+11,1.01585,0.959691,107,2.28712,183,0.01,2
app_22,46.6551,20305.1,7830.5,97.1535,78.8032,6.24508e+10,1.01356,0.959691,99,0.790517,200,0.01,2
app_23,30.4839,20274.4,7847.9,71.9517,84.3346,4.41767e+10,1.01367,0.959691,93,0.525913,214,0.01,2
app_24,46.0487,20380.5,7815.4,131.884,51.007,8.53331e+10,1.01256,0.959691,154,1.6732,129,0.01,2
app_25,85.608,20384.1,7723,226.656,52.7551,1.51237e+11,1.01597,0.959691,148,2.85353,133,0.01,2
app_26,34.4763,20136,7784.4,149.073,86.7607,9.59757e+10,1.01518,0.959691,90,1.10317,218,0.01,2
app_27,63.8699,20283,7633.74,255.201,109.203,1.69714e+11,1.02519,0.959691,70,1.55701,277,0.01,2
app_28,72.8475,20443.7,7698.9,225.146,79.7211,1.50742e+11,1.01915,0.959691,97,1.88428,203,0.01,2
app_29,120.771,20314.1,7773.7,181.919,51.5518,1.2059e+11,1.01339,0.959691,151,2.36452,130,0.01,2
app_3,11.564,19171.2,7731.5,231.142,643.714,1.82698e+11,1.01084,0.959691,12,0.284134,1544,0.1,1
app_30,18.9336,19978.9,7933.4,51.3105,254.737,3.33347e+10,1.00418,0.959691,31,0.130724,637,0.1,1
app_31,29.2986,20168.7,7889.2,41.2008,63.8994,2.53117e+10,1.0108,0.959691,124,0.395495,161,0.01,2
app_32,48.1532,20391,7687.46,246.162,79.2073,1.67235e+11,1.0185,0.959691,97,2.09634,202,0.01,2
app_33,94.0466,20201.1,7892,80.1584,51.1492,4.94897e+10,1.00737,0.959691,154,0.970386,129,0.01,2
app_34,19.9333,20181.8,7858.9,74.8733,71.3824,4.73709e+10,1.01186,0.959691,110,0.657929,181,0.01,2
app_35,19.4717,20214.9,7749.9,165.758,79.6706,1.10154e+11,1.0178,0.959691,98,1.39435,201,0.01,2
app_36,72.4352,20235.6,7695.58,198.285,103.135,1.33374e+11,1.02185,0.959691,74,1.29225,264,0.01,2
app_37,15.3549,20181.1,7665.7,270.824,57.7097,1.79711e+11,1.0197,0.959691,134,3.09846,146,0.01,2
app_38,104.333,20405,7786.8,159.795,52.2791,1.08442e+11,1.01327,0.959691,149,2.04608,133,0.01,2
app_39,8.11751,20299.9,7747.7,206.591,46.2546,1.38841e+11,1.01439,0.959691,167,2.95406,118,0.01,2
app_4,15.8545,20049.6,7829.6,143.904,461.926,1.12649e+11,1.00727,0.959691,17,0.243828,1152,0.1,1
app_40,3.18194,20329.3,7909.9,63.0364,36.4965,4.27519e+10,1.00595,0.959691,216,1.15546,93,0.01,2
app_41,97.1418,21956.2,7573.5,362.33,6.26354,1.75358e+11,1.03241,0.959691,1209,29.2263,17,0.001,3
app_42,708.647,22137.2,7552,261.467,5.06306,1.1576e+11,1.04333,0.959691,1450,23.152,14,0.001,3
app_43,311.137,21354.2,7400.6,117.061,10.257,5.5265e+10,1.07298,0.959691,734,5.02409,28,0.001,3
app_44,96.3389,21216.2,7625.4,232.355,10.8724,1.03559e+11,1.03507,0.959691,688,10.3559,29,0.001,3
app_45,601.061,21264.1,7462.4,282.888,9.00471,1.30163e+11,1.05366,0.959691,825,14.4626,24,0.001,3
app_46,197.547,21860.1,7267.4,272.658,16.2524,1.16236e+11,1.08348,0.959691,442,7.26477,45,0.001,3
app_47,239.826,21157.3,7563.3,278.107,9.41844,1.20197e+11,1.04119,0.959691,806,12.0197,25,0.001,3
app_48,778.336,21602.6,7579.8,225.698,9.18612,1.16758e+11,1.03943,0.959691,829,11.6758,24,0.001,3
app_49,15.3246,21173.5,7359.5,419.184,11.3877,1.77143e+11,1.06148,0.959691,657,16.1039,30,0.001,3
app_5,0.605301,19207.5,7631.8,218.525,2542.37,3.06183e+10,1.04406,0.959691,3,0.012045,6118,0.1,1
app_50,227.918,21589.6,7277.5,373.078,12.111,1.76392e+11,1.07326,0.959691,604,14.6994,33,0.001,3
app_51,268.632,21072.2,7662.1,3.68567,15.3204,9.65621e+08,1.04397,0.959691,505,0.0643747,40,0.001,3
app_52,627.434,21998.2,7623.7,215.666,9.93313,1.02835e+11,1.03539,0.959691,754,10.2835,27,0.001,3
app_53,945.628,22080.3,7206.6,446.409,7.03989,1.89334e+11,1.08168,0.959691,1033,27.0478,19,0.001,3
app_54,241.252,20815.6,7638.1,217.645,5.84085,9.89565e+10,1.03398,0.959691,1322,16.4927,15,0.001,3
app_55,1438.76,22616.2,7758.6,124.68,5.08785,5.46295e+10,1.0239,0.959691,1582,10.9259,13,0.001,3
app_56,130.187,21574.8,7533.68,305.823,6.5968,1.33427e+11,1.04342,0.959691,1143,19.3158,18,0.001,3
app_57,1256.97,22936.9,7678.2,250.862,5.28649,1.21537e+11,1.02568,0.959691,1482,20.2561,14,0.001,3
app_58,202.35,21174.8,7497.9,57.5651,20.0942,2.35619e+10,1.06362,0.959691,372,1.1781,54,0.001,3
app_59,239.114,22164.1,7326.3,238.661,11.3971,1.15596e+11,1.07499,0.959691,631,10.5087,32,0.001,3
app_6,7.44974,19407.8,7897.4,60.5824,657.001,1.7069e+10,1.01081,0.959691,12,0.0259802,1592,0.1,1
app_60,11.3952,21238.2,7877.8,8.54856,9.04217,4.0733e+09,1.01499,0.959691,865,0.452589,24,0.001,3
app_7,3.40323,18059.7,7656.1,267.12,1276.95,1.90809e+11,1.01951,0.959691,6,0.14942,2882,0.1,1
app_8,8.54846,19747.9,7867.9,79.3647,787.418,3.52321e+10,1.01226,0.959691,10,0.0447108,1943,0.1,1
app_9,0.461131,17345.4,7532.9,358.495,1884.24,2.13099e+11,1.03279,0.959691,4,0.11311,4089,0.1,1
