app_id,start_app,end_app,effective_cpu,effective_io,effective_iter,total_bytes,stretch,utilization,Tcomp,Tio,iterations,priority,group_id
app_1,1.84666,25627.4,4853.95,213.043,1616.01,1.50347e+11,1.59863,0.87757,3,0.0930365,5710,1,1
app_10,5.42829,23978.3,5907.03,50.6132,738.49,7.17326e+09,1.35268,0.87757,8,0.00970672,2305,1,1
app_11,0.205528,24328.7,6032.1,44.3183,670.919,4.90434e+09,1.32516,0.87757,9,0.007309,2127,1,1
app_12,8.97101,23462.5,5992.4,155.112,596.719,1.21217e+11,1.30855,0.87757,10,0.203044,1813,1,1
app_13,0.256812,24957.2,5763.96,83.0475,825.166,4.04969e+10,1.37825,0.87757,7,0.0490277,2724,1,1
app_14,1.58928,23454.4,5175.09,92.7135,1297.89,1.81617e+10,1.54046,0.87757,4,0.0139921,4003,1,1
app_15,7.29153,23540.9,6079.2,179.765,554.841,1.54553e+11,1.28334,0.87757,11,0.278475,1673,1,1
app_16,3.46414,26291.5,5172.37,139.692,1289.37,7.74352e+10,1.52386,0.87757,4,0.0600273,4673,1,1
app_17,5.4322,23454.9,5962.8,231.147,594.191,1.98417e+11,1.29844,0.87757,10,0.334035,1804,1,1
app_18,4.34317,24639.4,5342.35,206.933,1066.35,1.50925e+11,1.45633,0.87757,5,0.141448,3502,1,1
app_19,5.19284,24730.8,6021.2,54.2021,669.137,1.64223e+10,1.32502,0.87757,9,0.0245476,2169,1,1
app_2,2.18795,23688.5,4811.97,278.158,1605,1.80454e+11,1.60243,0.87757,3,0.112432,5040,1,1
app_20,3.90721,24246.6,6202.8,55.1639,515.534,3.07054e+10,1.28339,0.87757,12,0.0596222,1627,1,1
app_21,6.82717,21864.7,6931.24,175.089,218.018,1.64188e+11,1.12749,0.87757,32,0.75016,595,1,1
app_22,56.9445,20870.6,7626.3,25.5173,76.4884,2.17642e+10,1.04602,0.87757,100,0.28637,199,1,1
app_23,47.8346,21074.1,7517.4,31.9276,74.0228,2.91982e+10,1.06008,0.87757,101,0.394571,197,1,1
app_24,42.0594,21323.2,7191.3,165.459,138.261,1.5841e+11,1.08848,0.87757,52,1.1479,370,1,1
app_25,36.2648,21491.5,7184.3,218.274,130.234,2.11343e+11,1.08172,0.87757,55,1.62571,350,1,1
app_26,12.0682,21266.2,7343.94,156.649,91.3494,1.51788e+11,1.06727,0.87757,80,1.64987,244,1,1
app_27,18.2211,20740.5,7711.5,44.3923,61.1017,4.18075e+10,1.03182,0.87757,127,0.685369,157,1,1
app_28,13.7818,22090.5,6886.35,121.725,237.578,1.10045e+11,1.14345,0.87757,29,0.462373,664,1,1
app_29,50.643,20853,7677.2,72.1915,55.9821,6.9142e+10,1.03275,0.87757,136,1.23468,146,1,1
app_3,14.9514,23018,6456.1,35.7662,428.831,1.18429e+10,1.23687,0.87757,15,0.0276059,1259,1,1
app_30,48.9526,21334.7,7335.1,190.333,100.724,1.8503e+11,1.06381,0.87757,73,1.83198,267,1,1
app_31,121.921,20926.9,7669,100.678,57.7313,9.83647e+10,1.02995,0.87757,132,1.69594,150,1,1
app_32,24.6387,21712.3,7155.5,236.909,131.466,2.30694e+11,1.0831,0.87757,54,1.76102,358,1,1
app_33,20.809,21115.5,7416.5,48.5213,78.8698,4.45795e+10,1.07223,0.87757,94,0.564298,210,1,1
app_34,11.8421,21497.4,7341.3,142.113,126.995,1.36441e+11,1.06984,0.87757,58,1.07434,338,1,1
app_35,157.043,20720.1,7626.9,76.9568,44.9367,7.51816e+10,1.03868,0.87757,169,1.6707,117,1,1
app_36,83.4881,20868.8,7652.9,19.3225,58.7824,1.66966e+10,1.04308,0.87757,131,0.287872,152,1,1
app_37,11.0981,20883.6,7548.1,70.124,63.4871,6.68386e+10,1.05057,0.87757,118,1.04435,167,1,1
app_38,91.5186,21041.2,7547.56,163.459,59.6939,1.60712e+11,1.03785,0.87757,126,2.67853,156,1,1
app_39,17.6907,20610.4,7713.2,75.8763,56.3137,7.35874e+10,1.02738,0.87757,136,1.29101,145,1,1
app_4,6.78125,24088.8,6071.2,216.285,550.75,1.87401e+11,1.27824,0.87757,11,0.34011,1720,1,1
app_40,29.1812,21316.3,7518.2,9.66483,105.397,3.72172e+09,1.06356,0.87757,72,0.035445,277,1,1
app_41,466.072,20552.8,7949.1,34.3897,11.1446,3.38646e+10,1.00213,0.87757,714,3.0786,28,1,1
app_42,640.798,21759,7846.8,140.863,8.00681,1.40481e+11,1.00159,0.87757,964,17.5601,21,1,1
app_43,533.993,20862.9,7864.6,48.2983,8.65761,4.78959e+10,1.01106,0.87757,911,5.32176,22,1,1
app_44,269.252,20878.4,7839.3,40.1404,19.0727,3.92109e+10,1.01542,0.87757,403,2.06373,50,1,1
app_45,212.35,21465.6,7920,60.1975,7.80925,5.99407e+10,1.00251,0.87757,982,7.49259,21,1,1
app_46,32.2649,20676.5,7835.1,5.0901,12.4525,4.58051e+09,1.02045,0.87757,617,0.352347,33,1,1
app_47,1088.51,21863.9,7961.2,7.12706,7.25465,6.79211e+09,1.00402,0.87757,1090,0.970302,19,1,1
app_48,105.134,20560.6,7950.5,6.65163,16.5588,5.53564e+09,1.00553,0.87757,467,0.325626,43,1,1
app_49,1032.85,22225.3,7838.5,74.6811,7.36108,7.43185e+10,1.01102,0.87757,1096,10.6169,19,1,1
app_5,7.42651,23253.1,6124.4,161.227,511.253,1.37811e+11,1.2775,0.87757,12,0.269689,1528,1,1
app_50,491.906,21345.6,7958.8,22.4353,5.35631,2.22488e+10,1.00237,0.87757,1452,3.70813,14,1,1
app_51,719.097,21669.9,7894.8,63.0727,6.77582,6.27201e+10,1.00534,0.87757,1154,8.96002,18,1,1
app_52,227.49,20642,7720.9,169.588,16.0302,1.68684e+11,1.014,0.87757,478,10.5427,41,1,1
app_53,819.891,21908.9,7912.6,8.33273,8.0625,7.9671e+09,1.01003,0.87757,982,0.995887,21,1,1
app_54,13.9791,20522.5,7908.1,64.7523,12.8203,6.41229e+10,1.00348,0.87757,600,5.34358,34,1,1
app_55,724.324,21222.3,7763.9,228.89,11.0329,2.28445e+11,1.00096,0.87757,713,20.7677,28,1,1
app_56,1305.73,21315,7746.4,229.946,4.53758,2.29779e+11,1.00299,0.87757,1642,46.8797,12,1,1
app_57,1358.85,22847.9,7756.7,196.559,4.93864,1.96222e+11,1.00592,0.87757,1594,39.2443,13,1,1
app_58,490.497,20568.6,7919.7,51.4247,9.60375,5.09556e+10,1.00368,0.87757,841,5.09556,24,1,1
app_59,668.632,21411.6,7893.8,60.9521,6.55362,6.06264e+10,1.00573,0.87757,1208,10.1044,17,1,1
app_6,5.09992,24187.6,5345.36,239.303,1070.25,1.96457e+11,1.44357,0.87757,5,0.183433,3407,1,1
app_60,1090.09,22288.7,7989.9,7.5372,5.25208,7.14007e+09,1.00037,0.87757,1475,1.42801,14,1,1
app_7,1.16511,23748.7,5986.7,192.887,598.414,1.65849e+11,1.30027,0.87757,10,0.276876,1843,1,1
app_8,7.23508,24763,5947.44,207.698,661.919,1.76862e+11,1.30627,0.87757,9,0.267163,2129,1,1
app_9,6.64278,24960.6,5920.68,136.5,658.952,1.04874e+11,1.32768,0.87757,9,0.159141,2161,1,1
