app_id,start_app,end_app,effective_cpu,effective_io,effective_iter,total_bytes,stretch,utilization,Tcomp,Tio,iterations,priority,group_id
app_1,5.1701,26835,5242.2,60.6496,524.128,3.60214e+10,1.51566,0.836407,10,0.0686123,1947,1,1
app_10,6.24617,25097.7,5515.4,51.5252,394.231,3.7806e+10,1.44061,0.836407,14,0.0959542,1326,1,1
app_11,10.1133,26608.3,5315.77,100.841,483.468,7.82212e+10,1.48313,0.836407,11,0.161863,1752,1,1
app_12,2.39565,27243.7,5290.1,42.4678,528.215,1.22091e+10,1.50878,0.836407,10,0.0230796,1984,1,1
app_13,6.63934,26613.1,4914.2,170.092,614.507,1.34185e+11,1.58467,0.836407,8,0.218543,2281,1,1
app_14,3.80985,27235.3,4928.5,183.878,616.511,1.53026e+11,1.57433,0.836407,8,0.248419,2360,1,1
app_15,0.313736,29154,4578.1,68.9986,918.748,1.50343e+10,1.74173,0.836407,5,0.0163595,3979,1,1
app_16,7.97848,26288,5512.2,26.7481,422.317,7.98206e+08,1.45112,0.836407,13,0.00189148,1510,1,1
app_17,0.283416,25876.6,4998.8,73.2378,624.723,4.64408e+10,1.58565,0.836407,8,0.0744243,2228,1,1
app_18,2.44473,27169.8,4348.4,107.462,1087.41,5.22441e+10,1.81792,0.836407,4,0.0480185,4311,1,1
app_19,3.38139,27139.3,4908.9,87.6248,701.505,6.14387e+10,1.60955,0.836407,7,0.0875196,2685,1,1
app_2,3.4978,26435.2,4588.6,81.8428,917.02,3.09203e+10,1.73178,0.836407,5,0.033719,3440,1,1
app_20,7.99688,26878.2,5209.1,152.551,519.982,1.24126e+11,1.50003,0.836407,10,0.238705,1923,1,1
app_21,78.6219,22121.6,7016.9,169.415,80.2643,1.65059e+11,1.1139,0.836407,87,2.03776,224,1,1
app_22,56.0037,21336.3,7381.1,209.318,41.3239,2.07452e+11,1.05422,0.836407,179,5.05981,109,1,1
app_23,33.2505,21841.3,7174.5,115.705,65.2123,1.11776e+11,1.09795,0.836407,111,1.71962,177,1,1
app_24,31.8593,22679.5,6746.5,170.19,106.013,1.65905e+11,1.15734,0.836407,64,1.56514,305,1,1
app_25,80.0017,21569.7,7448.1,13.1377,57.8971,1.03478e+10,1.07261,0.836407,129,0.178411,155,1,1
app_26,58.5388,21577.1,7455.7,21.7192,56.9415,1.85293e+10,1.07034,0.836407,130,0.330881,153,1,1
app_27,7.07747,22232.5,6986.4,79.1086,89.2321,7.46243e+10,1.13298,0.836407,78,0.838476,252,1,1
app_28,179.125,21398.7,7387,81.7665,38.8264,7.95925e+10,1.07144,0.836407,189,2.04083,105,1,1
app_29,55.4103,22428.2,7004.9,106.495,96.2394,1.0155e+11,1.12574,0.836407,73,1.05781,270,1,1
app_3,7.43212,25676.3,5470.6,81.0252,390.052,6.06325e+10,1.44633,0.836407,14,0.155468,1356,1,1
app_30,115.163,21835.6,7424.7,31.7059,61.84,2.93895e+10,1.07324,0.836407,120,0.481796,166,1,1
app_31,99.7868,21183,7367.2,165.874,44.8323,1.6362e+11,1.0623,0.836407,165,3.63601,119,1,1
app_32,54.5104,22546.3,6975,130.477,92.2866,1.25923e+11,1.12661,0.836407,75,1.36872,262,1,1
app_33,1.45457,22209.3,7047.8,37.6352,92.9328,3.29036e+10,1.12983,0.836407,76,0.353802,261,1,1
app_34,31.3593,22105.3,7069.9,172.312,86.2041,1.68375e+11,1.10524,0.836407,82,1.95785,238,1,1
app_35,127.116,21338.8,7390.4,113.555,46.7945,1.11031e+11,1.06646,0.836407,159,2.41372,124,1,1
app_36,126.559,21629.1,7419.3,6.36458,47.8114,4.7202e+09,1.07758,0.836407,157,0.0983375,128,1,1
app_37,153.709,21098.2,7566,24.0693,46.8367,2.1975e+10,1.0543,0.836407,164,0.467554,122,1,1
app_38,82.0179,21566.1,7194.3,229.629,67.5569,2.25598e+11,1.07818,0.836407,107,3.31761,180,1,1
app_39,52.5012,22083.4,7080.6,48.4262,86.2076,4.33686e+10,1.12297,0.836407,82,0.504286,241,1,1
app_4,0.0909695,25609.9,5266.7,91.4277,479.247,6.48414e+10,1.5005,0.836407,11,0.135368,1663,1,1
app_40,73.0749,21890.4,7209,81.5251,81.3719,7.74049e+10,1.09794,0.836407,89,0.943963,221,1,1
app_41,930.96,21410.2,7932.9,58.2874,7.43343,5.78389e+10,1.00116,0.836407,1066,7.22986,19,1,1
app_42,314.907,21395.7,7902.4,55.8348,6.99051,5.53267e+10,1.00531,0.836407,1168,7.90381,18,1,1
app_43,123.667,20761.8,7821.6,72.3277,11.6043,7.18431e+10,1.0135,0.836407,685,6.5312,29,1,1
app_44,461.422,20538.6,7795.1,125.299,5.88381,1.24857e+11,1.01011,0.836407,1320,20.8095,15,1,1
app_45,1048.95,21325.3,7878.7,50.1688,5.55915,4.99606e+10,1.009,0.836407,1420,9.99212,14,1,1
app_46,403.401,20615.7,7792.8,102.271,8.77356,1.0173e+11,1.01336,0.836407,906,12.7163,22,1,1
app_47,306.189,20874.2,7932,47.1893,7.59157,4.69039e+10,1.00264,0.836407,1018,5.86299,20,1,1
app_48,87.1461,21138.1,7696.6,207.341,7.28687,2.07104e+11,1.01218,0.836407,1047,29.5863,19,1,1
app_49,954.646,21834.8,7805.8,136.481,6.88034,1.35903e+11,1.00734,0.836407,1106,19.4147,18,1,1
app_5,3.41343,26803.2,4563.6,99.0628,911.993,5.72107e+10,1.7313,0.836407,5,0.0627311,3495,1,1
app_50,1564.6,23145.5,7794,133.176,4.07936,1.32969e+11,1.00921,0.836407,1941,33.2422,11,1,1
app_51,38.8987,20668.3,7712.3,222.449,7.78476,2.22088e+11,1.00827,0.836407,985,27.761,20,1,1
app_52,154.456,21204.5,7681.6,102.298,10.013,1.01813e+11,1.02783,0.836407,742,10.1813,27,1,1
app_53,142.626,20866.9,7896.8,17.9627,8.1453,1.74771e+10,1.01083,0.836407,955,1.9419,21,1,1
app_54,645.934,21175.2,7716.4,187.185,12.0291,1.86377e+11,1.0123,0.836407,632,15.5314,31,1,1
app_55,120.346,20819.2,7759,53.5674,8.2702,5.3037e+10,1.02406,0.836407,917,6.62962,22,1,1
app_56,80.8793,21071.4,7683.2,238.156,5.03854,2.37991e+11,1.00995,0.836407,1565,47.5981,13,1,1
app_57,361.038,21089.6,7735,123.342,8.79881,1.22926e+11,1.01808,0.836407,864,15.3657,23,1,1
app_58,763.694,21275.4,7700.2,234.531,10.3852,2.33942e+11,1.0083,0.836407,743,21.2675,27,1,1
app_59,212.49,20954.8,7825,88.8215,5.89044,8.85868e+10,1.01092,0.836407,1369,17.7174,15,1,1
app_6,11.282,25940.4,5314,63.3293,484.097,4.60543e+10,1.49252,0.836407,11,0.0951534,1702,1,1
app_60,850.337,21884.5,7775,168.55,8.12306,1.68019e+11,1.00717,0.836407,967,21.0024,21,1,1
app_7,4.78877,28908.4,4577.09,59.8336,916.035,4.26552e+08,1.74767,0.836407,5,0.000465593,3930,1,1
app_8,3.25744,26285.4,5292.47,103.336,482.177,8.16991e+10,1.4886,0.836407,11,0.1695,1724,1,1
app_9,7.37486,26111.3,5458.9,156.784,390.292,1.37991e+11,1.42936,0.836407,14,0.353824,1379,1,1
