app_id,start_app,end_app,effective_cpu,effective_io,effective_iter,total_bytes,stretch,utilization,Tcomp,Tio,iterations,priority,group_id
app_1,6.78112,25709.9,5596.7,180.341,621.038,1.47436e+11,1.39272,0.876462,9,0.237417,2156,1,1
app_10,5.25869,24949,5922.1,66.9821,538.857,4.30043e+10,1.34113,0.876462,11,0.0797853,1774,1,1
app_11,9.42157,23464.2,6302.4,105.196,372.368,8.38856e+10,1.25268,0.876462,17,0.224894,1121,1,1
app_12,10.7919,24227.1,6051.7,31.3436,501.863,1.8457e+09,1.32154,0.876462,12,0.00368404,1593,1,1
app_13,11.0846,23429.9,6208.5,80.4458,389.731,6.06616e+10,1.27609,0.876462,16,0.155543,1180,1,1
app_14,7.90332,24805.1,5686.4,105.341,630.788,6.80784e+10,1.39022,0.876462,9,0.10789,2083,1,1
app_15,7.65807,25571.2,5540.9,151.701,694.255,1.21912e+11,1.41273,0.876462,8,0.175665,2400,1,1
app_16,1.98859,25163.9,5897.7,98.9118,538.711,6.78659e+10,1.34103,0.876462,11,0.126145,1792,1,1
app_17,1.82163,24493.7,5582.7,133.959,699.318,9.52974e+10,1.40895,0.876462,8,0.136334,2275,1,1
app_18,0.712991,24833.1,5648.1,145.543,627.913,1.17827e+11,1.38746,0.876462,9,0.187622,2082,1,1
app_19,3.7601,24830.9,5549.91,135.553,691.856,9.94459e+10,1.41609,0.876462,8,0.143708,2314,1,1
app_2,3.22439,24731.7,5654.62,139.415,628.911,1.12297e+11,1.38722,0.876462,9,0.178798,2071,1,1
app_20,10.1406,23163.9,6116.4,191.089,408.964,1.65999e+11,1.2734,0.876462,15,0.405865,1227,1,1
app_21,77.7571,20917.7,7470.7,92.0267,77.6736,8.72358e+10,1.05849,0.876462,96,1.13293,204,1,1
app_22,22.5015,20980.9,7509.5,55.2534,69.7909,5.13328e+10,1.05808,0.876462,108,0.733325,183,1,1
app_23,113.889,21049.8,7596.5,42.8852,64.2258,3.93113e+10,1.04769,0.876462,118,0.614239,169,1,1
app_24,77.1913,21043.5,7595.9,25.1212,82.4341,2.10372e+10,1.05029,0.876462,92,0.256551,216,1,1
app_25,47.8591,21286.1,7382.9,74.0372,90.0503,6.9456e+10,1.07349,0.876462,82,0.771734,240,1,1
app_26,83.7826,21206.9,7403.7,114.064,71.5897,1.10127e+11,1.0647,0.876462,103,1.52954,192,1,1
app_27,46.7901,20900.2,7513.2,149.445,68.001,1.46028e+11,1.04449,0.876462,110,2.14747,178,1,1
app_28,26.7367,22368.7,6959.3,106.908,188.719,9.64143e+10,1.13383,0.876462,37,0.512842,532,1,1
app_29,71.6368,20626.8,7707.8,32.0072,55.9019,2.9271e+10,1.03398,0.876462,139,0.522696,143,1,1
app_3,1.81628,23778.9,6305.6,122.609,330.014,1.03556e+11,1.24821,0.876462,19,0.313806,1029,1,1
app_30,57.2905,20765,7608,139.053,66.8368,1.3531e+11,1.03315,0.876462,115,2.01955,171,1,1
app_31,10.4831,21283.8,7290.2,144.093,95.0043,1.39278e+11,1.07679,0.876462,77,1.46608,255,1,1
app_32,14.2581,21198.7,7441.4,94.1169,86.721,8.9563e+10,1.06228,0.876462,86,1.02946,230,1,1
app_33,28.6451,21524.8,7273.4,129.105,124.859,1.241e+11,1.08145,0.876462,58,0.992798,335,1,1
app_34,82.849,20863.1,7688.1,88.1177,56.4497,8.4966e+10,1.02919,0.876462,137,1.51725,145,1,1
app_35,63.2884,21387.2,7259.5,77.0544,105.637,7.30548e+10,1.09102,0.876462,69,0.689196,285,1,1
app_36,168.386,20526.2,7624.3,126.238,45.6796,1.24118e+11,1.03247,0.876462,168,2.75819,117,1,1
app_37,35.9771,21528.3,7330.2,89.5865,126.947,8.29209e+10,1.07917,0.876462,58,0.65292,339,1,1
app_38,2.02353,20800.8,7454.5,188.514,58.6632,1.85911e+11,1.04706,0.876462,127,3.15103,154,1,1
app_39,62.765,21345.2,7335.8,93.7604,101.556,8.96367e+10,1.07738,0.876462,73,0.878791,271,1,1
app_4,2.81108,23787.8,6251.4,37.0703,417.749,1.4152e+10,1.27682,0.876462,15,0.0338563,1287,1,1
app_40,70.0151,21122.8,7423.29,190.531,67.2567,1.87711e+11,1.05111,0.876462,109,2.76144,179,1,1
app_41,248.515,20548.8,7840.2,63.0584,13.9646,6.23353e+10,1.01233,0.876462,554,4.45252,36,1,1
app_42,145.436,20682.9,7848.7,102.581,14.024,1.0208e+11,1.00619,0.876462,551,7.2914,36,1,1
app_43,94.5404,20593.9,7712.3,117.025,33.6698,1.15438e+11,1.02201,0.876462,226,3.49811,87,1,1
app_44,110.694,20303.6,7855.1,108.01,8.32718,1.07488e+11,1.0047,0.876462,948,13.436,21,1,1
app_45,176.706,21040,7843.1,143.501,9.33819,1.4307e+11,1.00173,0.876462,807,15.8966,25,1,1
app_46,207.412,20107.5,7805.2,162.605,6.74903,1.62209e+11,1.00409,0.876462,1158,23.1728,17,1,1
app_47,399.977,20763,7892.8,37.5201,10.4122,3.7091e+10,1.00884,0.876462,744,3.7091,27,1,1
app_48,775.99,20734.8,7883.1,107.57,5.34016,1.07322e+11,1.0012,0.876462,1540,21.4644,13,1,1
app_49,657.254,21636.1,7992.7,0.79563,5.79124,5.89997e+08,1.00084,0.876462,1387,0.0983328,15,1,1
app_5,3.46318,24885.1,4838,123.957,1209.79,6.2762e+10,1.6324,0.876462,4,0.0518694,4147,1,1
app_50,118.674,20913.6,7420.3,198.764,58.8887,1.95436e+11,1.05046,0.876462,126,3.31248,154,1,1
app_51,894.58,21335.6,7882.5,91.5545,5.44941,9.12679e+10,1.00329,0.876462,1417,15.2113,14,1,1
app_52,760.428,21272.8,7939,10.0052,7.7289,9.73438e+09,1.00645,0.876462,1024,1.39063,20,1,1
app_53,886.181,21806.4,7902,83.8369,6.39125,8.3636e+10,1.0018,0.876462,1216,13.9393,17,1,1
app_54,851.774,21697.5,7899.8,79.6848,7.27218,7.92454e+10,1.00263,0.876462,1078,9.90567,19,1,1
app_55,280.995,20774.2,7764.8,127.477,17.9037,1.2643e+11,1.01378,0.876462,422,7.0239,47,1,1
app_56,894.807,21522.6,7804.3,172.901,6.24452,1.72592e+11,1.0029,0.876462,1246,24.6561,16,1,1
app_57,976.85,22096.8,7938,46.3821,8.06175,4.59094e+10,1.00202,0.876462,981,5.73868,21,1,1
app_58,154.436,20789,7806.6,71.0267,21.2681,6.99533e+10,1.01567,0.876462,369,3.1797,54,1,1
app_59,452.444,21113.7,7913.5,57.299,8.39756,5.68599e+10,1.00372,0.876462,931,6.31777,22,1,1
app_6,0.974532,23747.6,5599.1,164.446,622.888,1.28907e+11,1.39665,0.876462,9,0.206913,1960,1,1
app_60,49.7036,20427.7,7766.2,202.55,11.9734,2.01642e+11,1.00404,0.876462,644,16.8035,31,1,1
app_7,3.33251,25923,5441.9,136.3,776.382,8.9148e+10,1.44638,0.876462,7,0.114881,2745,1,1
app_8,1.56757,25041.2,5262.1,167.168,876.839,1.20054e+11,1.48639,0.876462,6,0.136892,2981,1,1
app_9,3.92854,24124.1,5666.9,119.705,630.04,8.74053e+10,1.39026,0.876462,9,0.138739,2014,1,1
