app_id,start_app,end_app,effective_cpu,effective_io,effective_iter,total_bytes,stretch,utilization,Tcomp,Tio,iterations,priority,group_id
app_1,4.57843,26209.1,5479.2,129.248,685.544,9.28959e+10,1.43573,0.863873,8,0.135614,2442,1,1
app_10,7.79649,25586.4,5549.68,170.525,616.705,1.35932e+11,1.40706,0.863873,9,0.220668,2117,1,1
app_11,3.73895,24692.8,4956.8,177.138,992.01,1.18549e+11,1.57625,0.863873,5,0.119505,3322,1,1
app_12,15.8653,23675.3,6089.1,124.503,405.101,1.05304e+11,1.29149,0.863873,15,0.260009,1243,1,1
app_13,3.97962,24257.9,5733,47.6048,573.003,1.51434e+10,1.39175,0.863873,10,0.0264283,1835,1,1
app_14,1.69811,25805.5,5489.91,81.7007,687.248,5.15265e+10,1.44367,0.863873,8,0.0750022,2405,1,1
app_15,2.11774,25419.4,5452.7,115.371,681.711,7.56655e+10,1.44708,0.863873,8,0.110946,2337,1,1
app_16,3.19963,24071,5684.1,131.161,567.098,1.11103e+11,1.38045,0.863873,10,0.195949,1791,1,1
app_17,1.53058,25933.3,5350.5,167.733,765.116,1.35286e+11,1.45831,0.863873,7,0.176844,2693,1,1
app_18,3.8289,24907,5466.42,131.431,683.544,9.69626e+10,1.43797,0.863873,8,0.141966,2274,1,1
app_19,0.260324,24835.1,5719.2,50.5563,570.061,2.07896e+10,1.39373,0.863873,10,0.036473,1887,1,1
app_2,3.47025,25779.8,5593.4,125.44,622.078,9.59062e+10,1.40615,0.863873,9,0.15419,2157,1,1
app_20,9.75089,25182.9,5921.7,46.7972,492.586,2.01682e+10,1.34638,0.863873,12,0.0409092,1645,1,1
app_21,141.685,20938.1,7616,59.667,36.4932,5.8232e+10,1.04245,0.863873,209,1.57384,95,1,1
app_22,22.9094,20690.5,7641.79,134.117,49.696,1.31784e+11,1.02913,0.863873,154,2.66259,128,1,1
app_23,49.1136,21224.5,7376.8,60.9507,90.6749,5.57618e+10,1.07634,0.863873,82,0.612768,240,1,1
app_24,60.8027,21332.3,7336.5,161.108,74.4909,1.56758e+11,1.06763,0.863873,98,2.11835,199,1,1
app_25,4.20013,20841.5,7628.3,9.57065,50.7634,6.48952e+09,1.04784,0.863873,151,0.12979,133,1,1
app_26,27.1534,21605.4,7246.8,85.6336,110.808,7.87149e+10,1.09207,0.863873,65,0.709144,302,1,1
app_27,47.2363,21743.1,7146.5,157.091,110.372,1.51672e+11,1.09616,0.863873,65,1.36641,301,1,1
app_28,64.1066,21395.9,7226.4,169.367,85.361,1.64976e+11,1.08234,0.863873,84,1.9409,231,1,1
app_29,59.4561,21667.9,7193.8,137.434,102.538,1.33272e+11,1.09184,0.863873,70,1.2939,280,1,1
app_3,12.3593,24636.5,5964.25,155.123,425.519,1.28826e+11,1.31297,0.863873,14,0.30312,1381,1,1
app_30,84.6754,20918.8,7518.3,158.94,42.8257,1.56529e+11,1.04237,0.863873,174,3.6402,113,1,1
app_31,123.819,21041.3,7496.7,123.721,55.7452,1.21074e+11,1.05018,0.863873,135,2.16204,146,1,1
app_32,3.14745,21591.3,7364.4,170.321,84.0021,1.6622e+11,1.06233,0.863873,87,1.97881,225,1,1
app_33,86.5746,21141.2,7519,23.3726,73.1647,1.99351e+10,1.06116,0.863873,103,0.273083,193,1,1
app_34,4.38427,22360.9,6734.1,102.075,204.232,9.16891e+10,1.17203,0.863873,33,0.449456,586,1,1
app_35,114.761,20761.8,7666.3,62.0505,46.5351,6.01646e+10,1.0354,0.863873,165,1.2801,121,1,1
app_36,26.1138,21409.5,7229.3,164.82,96.9183,1.60042e+11,1.08264,0.863873,75,1.64992,259,1,1
app_37,78.8473,21214.7,7428.1,122.454,80.7238,1.18685e+11,1.06005,0.863873,92,1.46525,213,1,1
app_38,42.5107,20923.6,7472.9,108.798,66.8213,1.05773e+11,1.05559,0.863873,110,1.5787,178,1,1
app_39,99.9049,20854.6,7655.1,29.4547,50.5343,2.67933e+10,1.04141,0.863873,154,0.52536,130,1,1
app_4,3.94204,24556.9,5977.1,135.069,427.202,1.15346e+11,1.3131,0.863873,14,0.27013,1380,1,1
app_40,46.8478,21151.4,7277.3,186.037,88.6185,1.81572e+11,1.07255,0.863873,82,2.06332,236,1,1
app_41,420.471,20720.6,7925.4,45.4619,9.04656,4.50928e+10,1.0037,0.863873,879,5.01031,23,1,1
app_42,44.2761,21082.4,7528,76.24,70.2818,7.22864e+10,1.05259,0.863873,107,1.03266,184,1,1
app_43,353.022,20731.6,7870.5,44.3508,13.037,4.37531e+10,1.01083,0.863873,605,3.36562,33,1,1
app_44,74.6617,20694.8,7594,128.778,29.5029,1.2722e+11,1.03611,0.863873,259,4.24068,76,1,1
app_45,182.411,20891,7753.9,181.457,7.687,1.80998e+11,1.0082,0.863873,987,22.6248,20,1,1
app_46,1001.95,22014.6,7762.8,177.969,6.61212,1.7766e+11,1.0075,0.863873,1208,29.61,17,1,1
app_47,298.434,20498.6,7908.5,36.9162,17.6837,3.5934e+10,1.00699,0.863873,459,2.11376,44,1,1
app_48,1199.78,22115.9,7756.6,172.325,6.43283,1.72035e+11,1.009,0.863873,1197,28.6725,17,1,1
app_49,1422.02,22415.1,7916,47.6861,5.25695,4.73162e+10,1.00461,0.863873,1483,9.46325,14,1,1
app_5,4.25601,25846.8,5205.03,69.5328,870.804,1.99548e+10,1.53111,0.863873,6,0.0229365,3092,1,1
app_50,1093.39,21023.9,7906.6,30.2553,6.45578,2.98832e+10,1.008,0.863873,1259,4.98054,16,1,1
app_51,220.341,20635.9,7752.2,167.595,19.0415,1.66808e+11,1.01023,0.863873,413,8.77938,48,1,1
app_52,436.827,20936.5,7945.7,40.6818,5.10033,4.04908e+10,1.00173,0.863873,1555,8.09816,13,1,1
app_53,48.6702,21016.5,7835.8,85.4989,8.42393,8.52381e+10,1.00997,0.863873,936,10.6548,22,1,1
app_54,191.914,20572,7929.3,58.5281,9.8558,5.81592e+10,1.00157,0.863873,808,6.46213,25,1,1
app_55,147.523,20714,7676.3,174.748,33.3477,1.72787e+11,1.01923,0.863873,228,5.23596,86,1,1
app_56,436.21,20907.3,7672.9,136.575,10.2983,1.36049e+11,1.02447,0.863873,731,13.6049,27,1,1
app_57,74.7116,20671.4,7863.6,7.19122,22.1105,6.19219e+09,1.01655,0.863873,354,0.281463,57,1,1
app_58,137.884,21005.7,7726.2,227.841,7.23966,2.27441e+11,1.00583,0.863873,1136,28.4301,18,1,1
app_59,486.14,20727,7941.6,13.6006,9.19426,1.31947e+10,1.00568,0.863873,870,1.46608,23,1,1
app_6,0.60837,26212.4,3980.22,199.481,1990.92,9.87199e+10,1.96129,0.863873,2,0.049608,7672,1,1
app_60,106.339,20216.6,7768.9,128.781,9.8593,1.28178e+11,1.01303,0.863873,787,12.8178,25,1,1
app_7,5.27724,24510.6,5919.4,39.3048,496.396,1.0684e+10,1.34905,0.863873,12,0.0215404,1595,1,1
app_8,6.36837,25452.7,5874.8,44.5186,531.312,1.41824e+10,1.35847,0.863873,11,0.0267088,1799,1,1
app_9,2.27556,24202.7,5443.3,138.347,679.364,1.03663e+11,1.44223,0.863873,8,0.15267,2187,1,1
