app_id,start_app,end_app,effective_cpu,effective_io,effective_iter,total_bytes,stretch,utilization,Tcomp,Tio,iterations,priority,group_id
app_1,6.65301,24313.9,5734.17,92.917,476.816,6.75496e+10,1.3789,0.855268,12,0.141614,1541,1,1
app_10,1.2151,24328.5,5406.6,173.05,602.442,1.39975e+11,1.44233,0.855268,9,0.232131,1963,1,1
app_11,8.88951,26296.4,5454.6,164.147,606.722,1.25924e+11,1.43356,0.855268,9,0.207454,2168,1,1
app_12,6.37119,25065.4,5105.5,144.975,849.376,9.15351e+10,1.53934,0.855268,6,0.107688,2917,1,1
app_13,2.77412,24359.5,5622.3,70.2833,563.623,4.58538e+10,1.41139,0.855268,10,0.081301,1815,1,1
app_14,9.33452,24761.3,5479.4,126.999,608.33,9.83076e+10,1.43428,0.855268,9,0.161425,2025,1,1
app_15,13.0128,24875.8,5779.76,129.244,443.663,1.05202e+11,1.3594,0.855268,13,0.236942,1469,1,1
app_16,6.15087,24082.7,5963.9,117.413,372.248,9.92071e+10,1.31946,0.855268,16,0.265971,1178,1,1
app_17,4.03078,25542.4,5628.3,145.024,514.206,1.16314e+11,1.39261,0.855268,11,0.225852,1759,1,1
app_18,0.0173842,24246.2,5838.3,121.304,418.21,9.8611e+10,1.3475,0.855268,14,0.235911,1335,1,1
app_19,4.14789,24842.8,5882,42.4763,419.194,2.17195e+10,1.35508,0.855268,14,0.0518366,1389,1,1
app_2,1.69865,25299.4,4990.31,102.665,997.895,5.63162e+10,1.58522,0.855268,5,0.056429,3474,1,1
app_20,0.859702,25288.5,4475.9,159.106,1493.38,9.00199e+10,1.75211,0.855268,3,0.0602947,5314,1,1
app_21,54.748,21710.9,7039.9,142.471,99.9277,1.38291e+11,1.11449,0.855268,70,1.38291,278,1,1
app_22,126.381,21145,7337.6,138.767,50.6181,1.36794e+11,1.07032,0.855268,145,2.68223,136,1,1
app_23,7.7229,21039.9,7422.9,62.8914,50.3374,6.02496e+10,1.06907,0.855268,148,1.20499,134,1,1
app_24,77.0887,21078,7551.4,24.1509,56.9896,2.20125e+10,1.05633,0.855268,132,0.386184,151,1,1
app_25,37.2045,21474,7234.8,179.613,75.4038,1.74986e+11,1.07965,0.855268,96,2.30244,204,1,1
app_26,70.3183,21469.4,7407,30.4942,70.8655,2.76593e+10,1.07604,0.855268,104,0.389568,191,1,1
app_27,72.2111,21326.6,7421,95.9377,63.3328,9.26743e+10,1.06473,0.855268,117,1.47102,169,1,1
app_28,10.3611,22526.4,6753.1,133.795,164.022,1.26177e+11,1.16291,0.855268,41,0.769373,471,1,1
app_29,59.8738,21320.3,7402.5,112.79,61.2721,1.10128e+11,1.06487,0.855268,121,1.77625,163,1,1
app_3,8.53432,24905.2,5642.1,136.049,513.531,1.02683e+11,1.39257,0.855268,11,0.200161,1703,1,1
app_30,112.121,21122.6,7502.2,42.4172,39.6156,4.03783e+10,1.06065,0.855268,190,1.03534,105,1,1
app_31,6.88703,22051.5,7153,11.6341,123.04,5.27106e+09,1.11759,0.855268,58,0.0428541,342,1,1
app_32,50.0735,21578.9,7374,22.5319,79.7935,1.80042e+10,1.08225,0.855268,93,0.225052,215,1,1
app_33,16.8699,21415,7209.2,96.2735,75.5203,9.23336e+10,1.09566,0.855268,96,1.23112,205,1,1
app_34,106.963,21191.4,7493.11,22.5833,70.1562,2.02951e+10,1.06476,0.855268,108,0.287675,185,1,1
app_35,14.6165,21629.2,7259.9,84.3841,71.0946,8.02954e+10,1.08989,0.855268,101,1.13092,196,1,1
app_36,63.1274,21488.7,7365.7,30.0031,77.2479,2.57517e+10,1.08233,0.855268,96,0.334437,207,1,1
app_37,56.6106,21395.4,7285.5,122.196,76.5321,1.18038e+11,1.08056,0.855268,94,1.53296,208,1,1
app_38,6.36302,24257.7,6258.8,37.1499,314.245,2.29146e+10,1.27354,0.855268,20,0.0729765,990,1,1
app_39,81.9644,21190.7,7462.1,128.739,51.2473,1.26463e+11,1.05422,0.855268,145,2.47966,136,1,1
app_4,1.8669,24535.4,5214,166.645,746.95,1.36564e+11,1.49517,0.855268,7,0.182817,2477,1,1
app_40,36.491,21900.6,7114,56.5154,121.941,4.96561e+10,1.11675,0.855268,58,0.407017,339,1,1
app_41,195.768,20357.1,7849.8,128.073,6.39489,1.27671e+11,1.00282,0.855268,1256,18.2387,16,1,1
app_42,999.443,21138.3,7951.8,16.4357,4.29241,1.62692e+10,1.00401,0.855268,1815,4.0673,11,1,1
app_43,620.555,20627.4,7733,187.004,11.5264,1.86304e+11,1.01019,0.855268,674,15.5254,29,1,1
app_44,58.8279,21126.1,7532.7,20.4894,38.307,1.86609e+10,1.05941,0.855268,197,0.478485,102,1,1
app_45,190.123,20141.8,7796.3,120.267,7.36011,1.19917e+11,1.01058,0.855268,1100,17.131,18,1,1
app_46,1336.95,22582.6,7807.1,173.476,5.17621,1.73172e+11,1.00247,0.855268,1487,28.862,14,1,1
app_47,356.038,21133.4,7870.8,77.72,11.3949,7.71499e+10,1.00655,0.855268,707,7.01363,29,1,1
app_48,756.467,21188.2,7828.5,171.204,3.79953,1.70952e+11,1.00007,0.855268,2014,42.738,10,1,1
app_49,357.238,21387.5,7788.8,61.7271,6.8675,6.1402e+10,1.01908,0.855268,1075,8.77171,19,1,1
app_5,1.54686,25624.4,5085.9,143.916,845.943,9.11714e+10,1.54528,0.855268,6,0.107768,3007,1,1
app_50,671.556,21693.3,7707.3,184.658,8.68228,1.84078e+11,1.01376,0.855268,886,20.4531,23,1,1
app_51,101.442,21139.3,7452.67,22.1229,70.055,1.85325e+10,1.07078,0.855268,108,0.26102,184,1,1
app_52,384.649,21206.8,7843.9,39.6688,9.34233,3.93222e+10,1.01481,0.855268,858,4.36913,24,1,1
app_53,192.927,20942.7,7939.4,54.1452,6.44285,5.38246e+10,1.00085,0.855268,1221,7.68923,17,1,1
app_54,38.5403,20680.5,7527.5,181.281,28.362,1.79856e+11,1.03797,0.855268,268,6.42342,73,1,1
app_55,486.437,21316,7782.7,97.0476,9.82231,9.66045e+10,1.01532,0.855268,783,10.7338,26,1,1
app_56,408.846,20671.6,7748.7,164.929,11.9452,1.64341e+11,1.01099,0.855268,658,13.6951,30,1,1
app_57,568.926,20827.5,7818.4,111.168,10.8535,1.10635e+11,1.00895,0.855268,718,10.0578,28,1,1
app_58,581.647,21487.7,7875.7,25.8909,6.87682,2.5491e+10,1.01251,0.855268,1137,3.64157,18,1,1
app_59,130.663,21572.8,7719.3,200.581,4.78178,2.00463e+11,1.01013,0.855268,1600,40.0926,13,1,1
app_6,7.47,26178.8,5462.3,123.304,605.542,9.34735e+10,1.43994,0.855268,9,0.154247,2172,1,1
app_60,12.0623,21469,7763.7,193.011,4.73334,1.92714e+11,1.00548,0.855268,1593,38.5428,13,1,1
app_7,14.3783,24187.6,5811.4,166.427,413.415,1.45109e+11,1.34307,0.855268,14,0.350504,1321,1,1
app_8,3.34553,25096.9,5534.1,173.341,552.771,1.4826e+11,1.40787,0.855268,10,0.268101,1862,1,1
app_9,17.6704,23886.2,6032.1,82.6712,356.237,6.96247e+10,1.3111,0.855268,17,0.195027,1105,1,1
