app_id,start_app,end_app,effective_cpu,effective_io,effective_iter,total_bytes,stretch,utilization,Tcomp,Tio,iterations,priority,group_id
app_1,4.57546,26380,5387.2,72.6223,600.381,4.80532e+10,1.47187,0.851239,9,0.0800886,2175,1,1
app_10,10.0643,26094.6,5502.6,55.7383,552.473,2.77886e+10,1.44655,0.851239,10,0.0503417,1963,1,1
app_11,2.68141,25761.2,5038.7,82.5487,842.188,3.94963e+10,1.57536,0.851239,6,0.0469077,3001,1,1
app_12,2.07396,24441.5,5664.2,53.9701,471.564,3.3128e+10,1.40417,0.851239,12,0.0703354,1533,1,1
app_13,6.66527,25620.7,5115,120.985,732.688,7.41254e+10,1.54169,0.851239,7,0.101126,2582,1,1
app_14,4.0656,25233.6,5371.5,105.911,595.044,7.11068e+10,1.46988,0.851239,9,0.119507,2036,1,1
app_15,0.206988,25539.4,5111.6,196.415,731.649,1.52765e+11,1.51965,0.851239,7,0.208981,2542,1,1
app_16,0.45746,23978.3,5970.6,78.8215,372.031,6.11644e+10,1.32631,0.851239,16,0.16442,1171,1,1
app_17,10.7816,26022,5530.9,136.966,503.872,1.0745e+11,1.41885,0.851239,11,0.213194,1780,1,1
app_18,7.51039,25545,5100.4,191.676,728.51,1.4594e+11,1.52487,0.851239,7,0.200192,2552,1,1
app_19,13.7872,24189.9,5731.1,147.809,440.561,1.31998e+11,1.36447,0.851239,13,0.299316,1399,1,1
app_2,6.10739,25995.3,5590.72,95.874,506.583,6.7704e+10,1.41382,0.851239,11,0.133539,1783,1,1
app_20,6.87272,26056.8,5375.5,100.268,595.77,6.29587e+10,1.47101,0.851239,9,0.105635,2130,1,1
app_21,16.5638,21276.7,7517.8,31.4284,58.7731,2.91772e+10,1.06003,0.851239,128,0.494529,156,1,1
app_22,108.109,21157.7,7337.1,178.739,56.2428,1.76178e+11,1.06478,0.851239,129,3.09083,151,1,1
app_23,38.0452,23062.6,6611.9,83.7413,169.43,7.51425e+10,1.19634,0.851239,39,0.442015,503,1,1
app_24,4.54143,22079.2,6969,127.285,102.626,1.23353e+11,1.12798,0.851239,68,1.19761,289,1,1
app_25,17.217,21347,7297.9,110.131,78.5257,1.06354e+11,1.08046,0.851239,93,1.34625,211,1,1
app_26,57.5497,21260.5,7563.1,42.2592,55.521,3.93028e+10,1.0523,0.851239,136,0.701836,147,1,1
app_27,31.5682,21957.6,7107.35,201.409,99.4089,1.97173e+11,1.09521,0.851239,71,1.98113,274,1,1
app_28,37.75,22110.4,7047,143.616,117.216,1.3784e+11,1.11346,0.851239,60,1.16813,325,1,1
app_29,49.9574,21372.2,7336.5,68.1818,82.1836,6.4149e+10,1.08099,0.851239,89,0.77288,221,1,1
app_3,2.28497,26040,5321.9,178.271,592.177,1.48009e+11,1.46255,0.851239,9,0.250016,2107,1,1
app_30,8.5222,21959.5,7011.3,192.09,102.728,1.86079e+11,1.11152,0.851239,68,1.80659,286,1,1
app_31,16.2427,21591,7243.8,100.169,73.1564,9.58481e+10,1.08997,0.851239,99,1.31299,200,1,1
app_32,108.021,21081.6,7399.3,145.294,63.8315,1.41236e+11,1.06093,0.851239,117,2.20681,167,1,1
app_33,38.9843,22883.7,6683.7,129.116,162.412,1.20788e+11,1.17569,0.851239,41,0.745606,475,1,1
app_34,17.4428,21435.9,7348.3,42.2022,86.533,3.80918e+10,1.08307,0.851239,85,0.442928,232,1,1
app_35,18.4036,21812.8,7126.3,122.58,93.9153,1.17926e+11,1.10433,0.851239,76,1.25453,258,1,1
app_36,21.6983,21671.3,7159.4,112.768,108.825,1.07804e+11,1.10084,0.851239,66,0.98903,296,1,1
app_37,20.2177,23132,6563.2,87.0182,204.834,7.79888e+10,1.2046,0.851239,32,0.380433,610,1,1
app_38,61.3966,20697.1,7654.7,41.2011,41.4616,3.887e+10,1.03983,0.851239,186,0.925476,107,1,1
app_39,72.5739,21078.5,7427.3,133.911,63.05,1.31121e+11,1.05842,0.851239,118,2.08129,166,1,1
app_4,10.0395,25463.3,5813.3,77.8241,447.096,5.12997e+10,1.36412,0.851239,13,0.114765,1510,1,1
app_40,48.5933,21939.1,7176.6,13.1129,104.244,8.5542e+09,1.11341,0.851239,69,0.0822519,289,1,1
app_41,951.967,21942.6,7933.2,16.1541,8.22214,1.56381e+10,1.00644,0.851239,980,1.73757,21,1,1
app_42,190.184,21934.8,7840.3,144.871,4.67877,1.44602e+11,1.00189,0.851239,1611,28.9203,13,1,1
app_43,102.093,21356.4,7932.6,20.2855,6.88578,1.98955e+10,1.00597,0.851239,1148,2.84222,18,1,1
app_44,916.211,20989.4,7805.9,123.262,5.59651,1.22981e+11,1.00897,0.851239,1421,20.4968,14,1,1
app_45,807.584,21813.9,7954.1,7.92715,7.25526,7.46205e+09,1.00483,0.851239,1073,0.932756,19,1,1
app_46,479.563,21037.8,7801.9,146.815,14.645,1.46014e+11,1.00655,0.851239,525,10.4296,38,1,1
app_47,638.068,20954.7,7813.1,169.193,6.26758,1.68939e+11,1.00225,0.851239,1228,28.1565,16,1,1
app_48,168.176,22535,7930.5,37.9543,4.7557,3.76804e+10,1.00399,0.851239,1655,7.53609,13,1,1
app_49,453.372,21339.2,7778.8,165.92,4.90567,1.65621e+11,1.007,0.851239,1549,33.1243,13,1,1
app_5,1.71916,25139.5,5400.9,69.797,598.553,4.35734e+10,1.46938,0.851239,9,0.0727435,2038,1,1
app_50,399.285,21067.6,7811.6,152.813,8.09118,1.5244e+11,1.00452,0.851239,956,19.055,21,1,1
app_51,96.4916,20734.9,7709.7,145.104,21.8485,1.44138e+11,1.01861,0.851239,354,6.55171,56,1,1
app_52,45.0885,20703.6,7675.6,97.4934,20.3814,9.64906e+10,1.02932,0.851239,377,4.82453,53,1,1
app_53,381.603,20926.5,7849.5,84.2737,10.2734,8.39192e+10,1.00839,0.851239,775,8.39192,26,1,1
app_54,865.644,21587.1,7842.7,142.671,7.22566,1.4232e+11,1.00188,0.851239,1144,20.3314,18,1,1
app_55,1011.39,21687,7828.9,85.6627,7.6451,8.5275e+10,1.01084,0.851239,1006,10.6594,20,1,1
app_56,512.186,21014.3,7795,145.968,7.3635,1.4572e+11,1.00747,0.851239,1031,20.8171,19,1,1
app_57,1049.75,21858.6,7917.4,15.0272,6.21156,1.45827e+10,1.00858,0.851239,1298,2.43045,16,1,1
app_58,833.183,22253.8,7854.3,125.901,6.18454,1.25645e+11,1.00251,0.851239,1310,17.9493,16,1,1
app_59,364.956,21464.3,7803.8,132.601,10.2177,1.32055e+11,1.00808,0.851239,755,13.2055,27,1,1
app_6,3.19697,26989,4361.5,97.1375,1455.86,2.05098e+09,1.83337,0.851239,3,0.00140864,5757,1,1
app_60,992.485,22231,7749,196.417,5.58405,1.96204e+11,1.0069,0.851239,1382,32.7007,15,1,1
app_7,2.52868,25519.3,5444.7,77.2285,602.995,5.28466e+10,1.45519,0.851239,9,0.0876395,2080,1,1
app_8,13.7388,24690,5842.9,176.574,365.104,1.55818e+11,1.33362,0.851239,16,0.426898,1189,1,1
app_9,3.02094,24810.7,5710.1,44.0267,477.205,1.72625e+10,1.3968,0.851239,12,0.0361898,1572,1,1
