app_id,start_app,end_app,effective_cpu,effective_io,effective_iter,total_bytes,stretch,utilization,Tcomp,Tio,iterations,priority,group_id
app_1,3.13284,19929.9,7511.2,488.8,2500.03,1.00497e+11,1.05101,0.951944,3,0.0401989,6241,1,1
app_10,4.3113,19400.2,7419.4,580.6,926.289,1.49276e+11,1.05699,0.951944,8,0.161031,2257,1.00001,1.00001
app_11,1.34118,18794.1,7674.24,325.759,1532.69,7.17954e+10,1.03279,0.951944,5,0.0468578,3606,1.00001,1.00001
app_12,7.29183,18706.9,7685,315,853.561,7.7408e+10,1.03061,0.951944,9,0.0906416,1998,1.00001,1.00001
app_13,3.00798,17980.3,7650.5,349.5,1274.83,7.88784e+10,1.03501,0.951944,6,0.0618654,2871,1.00001,1.00001
app_14,1.40301,19024.3,7915.5,84.5,527.039,1.5413e+10,1.00871,0.951944,15,0.0292467,1254,1.00001,1.00001
app_15,1.52286,17820.7,7886.5,113.5,1121.91,9.4785e+09,1.01317,0.951944,7,0.00844786,2506,1.00002,1.00002
app_16,3.97055,19686.4,7680.1,319.9,853.023,8.01422e+10,1.0309,0.951944,9,0.0939534,2100,1.00002,1.00002
app_17,10.6525,20421.9,7462.5,537.5,678.013,1.42232e+11,1.05198,0.951944,11,0.209782,1733,1.00002,1.00002
app_18,5.86152,19379,7542.2,457.8,686.073,1.21477e+11,1.04389,0.951944,11,0.17708,1657,1.00002,1.00002
app_19,2.2735,19563.6,7467.99,532.006,1867.7,1.23552e+11,1.0538,0.951944,4,0.0661524,4579,1.00002,1.00002
app_2,9.35509,19883.2,7642.5,357.5,762.699,8.58259e+10,1.03515,0.951944,10,0.112632,1902,1,1
app_20,0.942847,18419.2,7489.2,510.8,1071.71,1.26505e+11,1.05046,0.951944,7,0.118009,2466,1.00002,1.00002
app_21,63.6069,20456.3,7743.7,256.3,82.5171,7.03587e+10,1.0238,0.951944,93,0.858033,212,1.00002,1.00002
app_22,26.9982,20766.5,7376.2,623.8,255.201,1.72586e+11,1.05977,0.951944,29,0.67681,662,1.00002,1.00002
app_23,104.349,20467.9,7678.5,321.5,52.5254,9.05499e+10,1.02973,0.951944,147,1.74134,134,1.00002,1.00002
app_24,0.600992,20381.2,7523.6,476.403,942.589,1.18963e+11,1.04677,0.951944,8,0.126265,2404,1.00002,1.00002
app_25,4.37193,20631.4,7646.3,353.7,93.93,9.59968e+10,1.03329,0.951944,82,1.02124,241,1.00003,1.00003
app_26,1.34986,20230.7,7915.1,84.9,53.1461,2.16122e+10,1.00797,0.951944,146,0.407778,136,1.00003,1.00003
app_27,4.8763,19751.4,7957.9,42.1,116.175,9.61206e+09,1.00408,0.951944,69,0.0828626,286,1.00003,1.00003
app_28,29.2489,20718,7743.43,256.57,39.1503,7.05375e+10,1.02381,0.951944,195,1.80781,102,1.00003,1.00003
app_29,50.97,20335.1,7841.6,158.4,87.9343,4.23416e+10,1.01472,0.951944,89,0.481154,223,1.00003,1.00003
app_3,5.04176,19217.9,7871.8,128.2,787.415,2.50506e+10,1.01306,0.951944,10,0.0317901,1890,1,1
app_30,20.1227,20343.5,7862.9,137.1,135.077,3.61345e+10,1.01278,0.951944,58,0.267663,343,1.00003,1.00003
app_31,29.8599,19958.7,7969.9,30.1,109.572,5.97479e+09,1.00302,0.951944,73,0.0543163,273,1.00003,1.00003
app_32,19.0856,20560.9,7629.2,370.8,112.457,1.07166e+11,1.03408,0.951944,68,0.956839,289,1.00003,1.00003
app_33,47.4899,20271.7,7698.7,301.3,147.78,7.98202e+10,1.02847,0.951944,52,0.539326,376,1.00003,1.00003
app_34,7.7429,21004.5,7364.5,635.5,122.492,1.76302e+11,1.0609,0.951944,60,1.43335,322,1.00003,1.00003
app_35,41.5226,20567.1,7796.2,203.8,56.1261,6.33915e+10,1.01786,0.951944,139,1.13199,143,1.00004,1.00004
app_36,58.502,21108.5,7331.1,668.9,122.216,1.96631e+11,1.06274,0.951944,60,1.59862,323,1.00004,1.00004
app_37,40.7949,20528.5,7667,333,53.8595,8.92811e+10,1.03142,0.951944,142,1.65335,139,1.00004,1.00004
app_38,4.80421,18539.6,7227,773,1441.95,2.0068e+11,1.07705,0.951944,5,0.139168,3354,1.00004,1.00004
app_39,2.23201,20056.3,7729.1,270.9,203.43,6.8977e+10,1.02589,0.951944,38,0.339788,511,1.00004,1.00004
app_4,0.052214,18823.4,7817.2,182.8,1114.72,3.56188e+10,1.01874,0.951944,7,0.0319738,2627,1,1
app_40,25.4417,21050.6,7382.8,617.2,142.526,1.69563e+11,1.05927,0.951944,52,1.18575,375,1.00004,1.00004
app_41,281.703,20871.3,7681.3,318.7,14.6592,9.67886e+10,1.02853,0.951944,523,6.45257,38,1.00004,1.00004
app_42,6.09279,20867.5,7729.7,270.3,4.94723,1.08096e+11,1.0207,0.951944,1568,21.6192,13,1.00004,1.00004
app_43,694.464,21706.6,7544.2,455.8,7.22354,1.58301e+11,1.03862,0.951944,1065,19.7877,19,1.00004,1.00004
app_44,415.673,21548.4,7895.3,104.7,8.23104,2.69232e+10,1.00982,0.951944,932,2.99146,22,1.00004,1.00004
app_45,626.626,21135,7840.2,159.8,6.1739,5.7588e+10,1.01294,0.951944,1254,9.598,16,1.00004,1.00004
app_46,749.529,23010.3,7336.6,663.4,6.85108,2.04706e+11,1.06082,0.951944,1076,29.2438,19,1.00005,1.00005
app_47,31.3086,21061,7351.1,648.9,19.9775,1.69863e+11,1.06369,0.951944,378,8.49316,52,1.00005,1.00005
app_48,311.802,22378.5,7457.24,542.755,7.23515,1.87524e+11,1.04647,0.951944,1017,26.7809,20,1.00005,1.00005
app_49,304.491,21129.9,7789.9,210.1,9.52387,5.48011e+10,1.0198,0.951944,808,5.48011,25,1.00005,1.00005
app_5,1.27906,20050.4,7542.8,457.2,1509.54,1.07786e+11,1.04567,0.951944,5,0.0714285,3791,1.00001,1.00001
app_50,102.961,21062.6,7652.94,347.064,10.3269,1.03557e+11,1.03139,0.951944,704,10.3251,28,1.00005,1.00005
app_51,699.184,22896.3,7313.6,686.4,5.86375,1.74321e+11,1.06839,0.951944,1269,29.0536,16,1.00005,1.00005
app_52,131.064,21172.1,7494.5,505.5,35.9401,1.48104e+11,1.04676,0.951944,208,4.11399,95,1.00005,1.00005
app_53,376.689,21320.1,7620.9,379.1,12.9856,1.18504e+11,1.03367,0.951944,589,9.1157,34,1.00005,1.00005
app_54,240.131,21215.6,7306.2,693.8,6.30146,1.77993e+11,1.06892,0.951944,1174,25.4275,17,1.00005,1.00005
app_55,482.215,21796.2,7298.2,701.8,5.39783,1.94309e+11,1.06773,0.951944,1339,32.3848,15,1.00005,1.00005
app_56,343.322,22002.3,7466.1,533.9,11.145,1.4382e+11,1.05126,0.951944,665,13.0745,30,1.00006,1.00006
app_57,1101.53,22335.4,7660.3,339.7,6.82286,1.40405e+11,1.02555,0.951944,1109,23.4008,18,1.00006,1.00006
app_58,30.851,21017.8,7340,660,80.8626,1.91295e+11,1.06223,0.951944,91,2.36167,213,1.00006,1.00006
app_59,806.163,21619.9,7616,384,5.71745,1.43538e+11,1.03099,0.951944,1350,23.923,15,1.00006,1.00006
app_6,15.2962,20430.3,7575.3,424.7,505.719,1.10738e+11,1.04085,0.951944,15,0.218849,1292,1.00001,1.00001
app_60,17.0913,20359.9,7754.9,245.1,14.0069,8.75924e+10,1.02008,0.951944,565,6.2566,35,1.00006,1.00006
app_7,9.36631,18837,7838.1,161.9,712.803,3.44185e+10,1.01619,0.951944,11,0.0482728,1676,1.00001,1.00001
app_8,4.19501,20322.4,7577.5,422.5,630.466,1.08606e+11,1.04084,0.951944,12,0.172117,1603,1.00001,1.00001
app_9,4.71321,20762.6,7449.9,550.1,1063,1.39745e+11,1.05407,0.951944,7,0.131463,2769,1.00001,1.00001
