app_id,start_app,end_app,effective_cpu,effective_io,effective_iter,total_bytes,stretch,utilization,Tcomp,Tio,iterations,priority,group_id
app_1,6.40414,26117.6,5261.82,115.706,660.319,7.69582e+10,1.49847,0.861456,8,0.116603,2375,1,1
app_10,4.44439,24708.9,5678.7,67.4458,515.993,4.75003e+10,1.39709,0.861456,11,0.0920549,1692,1,1
app_11,2.47025,26128.3,5463.86,65.5376,606.308,3.64312e+10,1.45447,0.861456,9,0.0600675,2164,1,1
app_12,5.19335,26853.5,5169.01,144.534,739.028,1.04962e+11,1.51688,0.861456,7,0.142033,2759,1,1
app_13,1.28502,27562.2,5066.58,78.221,842.015,3.25769e+10,1.56889,0.861456,6,0.0386899,3298,1,1
app_14,1.17239,26581.2,5185.63,144.19,739.089,1.03872e+11,1.51243,0.861456,7,0.140558,2724,1,1
app_15,10.6373,24313.9,5551.43,156.316,505.414,1.31763e+11,1.40766,0.861456,11,0.260916,1634,1,1
app_16,1.18036,26141.4,5599.87,39.2023,559.002,5.34048e+09,1.42724,0.861456,10,0.00955363,1983,1,1
app_17,0.898715,24563.5,5605.61,105.484,507.747,8.02812e+10,1.40699,0.861456,11,0.158346,1665,1,1
app_18,3.79047,27073.1,5076.94,93.5708,845,5.65154e+10,1.55841,0.861456,6,0.0668821,3220,1,1
app_19,6.82793,25565.5,5721.87,154.47,476.393,1.34901e+11,1.36594,0.861456,12,0.283406,1626,1,1
app_2,9.22483,24467.2,5810.92,42.1694,447.127,2.00915e+10,1.37198,0.861456,13,0.0449474,1442,1,1
app_20,1.69457,24203.9,5679.1,131.145,472.341,1.03737e+11,1.3834,0.861456,12,0.219783,1515,1,1
app_21,77.1267,21429.9,7318.8,168.162,88.2649,1.63911e+11,1.06913,0.861456,83,1.86263,236,1,1
app_22,30.3427,21547,7330.9,108.67,76.2886,1.06234e+11,1.07568,0.861456,95,1.39781,208,1,1
app_23,69.9252,21110.4,7514.5,80.4924,57.2293,7.76981e+10,1.05371,0.861456,131,1.36312,151,1,1
app_24,124.6,21118.3,7483,109.99,60.2699,1.0749e+11,1.05395,0.861456,123,1.7915,160,1,1
app_25,36.4767,21019.2,7558.8,151.847,58.1427,1.49091e+11,1.0379,0.861456,129,2.57054,152,1,1
app_26,77.8009,21059.9,7630.4,14.8068,51.1656,1.1788e+10,1.04682,0.861456,148,0.231138,135,1,1
app_27,18.2401,21310.4,7313.52,166.754,71.9855,1.63623e+11,1.06993,0.861456,102,2.29473,191,1,1
app_28,68.881,21269.6,7297.3,166.849,79.2059,1.63326e+11,1.0723,0.861456,92,2.06742,212,1,1
app_29,57.934,21477,7247.4,161.349,71.0469,1.57566e+11,1.08036,0.861456,101,2.21924,192,1,1
app_3,6.6615,25256.6,5036.37,73.5523,839.044,2.49604e+10,1.58061,0.861456,6,0.0297148,2920,1,1
app_30,66.7152,21666.4,7200.8,99.3984,97.3487,9.58125e+10,1.0964,0.861456,74,0.987758,265,1,1
app_31,46.5384,20981.6,7402.5,146.599,64.4667,1.43618e+11,1.06015,0.861456,116,2.24403,169,1,1
app_32,17.9011,21894.9,7013.58,133.91,135.202,1.27745e+11,1.12024,0.861456,52,0.94626,372,1,1
app_33,178.535,20874.5,7666.9,63.6534,43.0913,6.08575e+10,1.03523,0.861456,180,1.41529,111,1,1
app_34,19.2101,20855.5,7544.04,110.341,52.2479,1.07701e+11,1.04551,0.861456,144,2.07117,137,1,1
app_35,136.789,20871.6,7620.5,65.5016,47.8491,6.2953e+10,1.0412,0.861456,160,1.33943,124,1,1
app_36,11.9339,21090.1,7335.4,179.119,74.596,1.75643e+11,1.0651,0.861456,98,2.37355,198,1,1
app_37,18.2116,21129.4,7568,46.8043,58.4657,4.42404e+10,1.05094,0.861456,129,0.762765,154,1,1
app_38,4.20048,21224.9,7275.4,185.607,84.8326,1.80723e+11,1.07294,0.861456,86,2.12615,226,1,1
app_39,17.9469,22517.1,6794.88,112.443,183.848,1.04201e+11,1.15957,0.861456,37,0.569405,525,1,1
app_4,4.28747,26351.5,5308.09,67.8625,664.277,3.43045e+10,1.49745,0.861456,8,0.0516634,2418,1,1
app_40,1.73432,21486.8,7351.7,69.4486,96.2238,6.50347e+10,1.07864,0.861456,76,0.677445,258,1,1
app_41,128.872,20451.9,7902.1,87.3208,10.6702,8.68534e+10,1.00138,0.861456,742,7.89576,27,1,1
app_42,1049.01,21204.7,7741.8,198.717,6.85588,1.98287e+11,1.00755,0.861456,1101,28.3267,18,1,1
app_43,127.803,20133.4,7740.7,171.76,11.0574,1.70978e+11,1.01116,0.861456,700,15.5435,28,1,1
app_44,424.586,20744.2,7868.1,33.5859,17.4828,3.24772e+10,1.01258,0.861456,453,1.80429,44,1,1
app_45,308.117,20434.4,7771,151.715,12.1429,1.51123e+11,1.00983,0.861456,642,11.6249,31,1,1
app_46,185.118,20494.4,7841.3,61.7378,9.68404,6.11494e+10,1.01234,0.861456,829,6.11494,24,1,1
app_47,283.555,21231.6,7948.6,40.5777,5.89193,4.02719e+10,1.00139,0.861456,1394,6.71198,15,1,1
app_48,3.46643,20586.5,7893.3,71.3267,6.91647,7.10056e+10,1.00448,0.861456,1128,10.1437,18,1,1
app_49,419.289,21663.7,7851.4,142.026,7.09497,1.41758e+11,1.00086,0.861456,1075,20.2511,19,1,1
app_5,2.96895,24182.5,5942.87,120.17,370.153,1.04667e+11,1.32285,0.861456,16,0.282885,1181,1,1
app_50,101.926,20867.9,7591.1,45.2985,54.9757,4.29034e+10,1.04794,0.861456,139,0.780061,143,1,1
app_51,244.531,20568.6,7871.2,82.5332,12.5268,8.17988e+10,1.00591,0.861456,623,6.81657,32,1,1
app_52,1228.81,21012.3,7931.9,43.4468,5.16498,4.33022e+10,1.00311,0.861456,1564,8.66045,13,1,1
app_53,745.266,21336.3,7789.6,172.713,9.07655,1.7223e+11,1.00479,0.861456,876,19.1367,23,1,1
app_54,835.325,21220.1,7845.6,96.2919,7.38639,9.58711e+10,1.00737,0.861456,1046,11.9839,19,1,1
app_55,1225.2,21641.7,7816.2,110.141,5.86676,1.09815e+11,1.00933,0.861456,1349,18.3026,15,1,1
app_56,75.6569,20352.4,7784.5,179.903,10.349,1.79271e+11,1.00455,0.861456,759,17.9271,26,1,1
app_57,1091.61,22111.5,7939.6,24.7797,5.79555,2.45013e+10,1.00451,0.861456,1404,4.08356,15,1,1
app_58,1151.43,21786.5,7840,114.868,6.80648,1.14574e+11,1.00571,0.861456,1143,16.3677,18,1,1
app_59,996.943,21890.2,7888.2,84.5688,7.36774,8.4218e+10,1.00346,0.861456,1079,12.0311,19,1,1
app_6,1.61802,25949.5,5191.5,99.3253,739.593,7.06352e+10,1.5203,0.861456,7,0.095453,2652,1,1
app_60,481.21,20848.5,7813.3,154.577,7.35274,1.54086e+11,1.00409,0.861456,1059,22.0122,19,1,1
app_7,1.02688,26155.4,5410.67,123.915,598.745,9.68057e+10,1.45257,0.861456,9,0.161882,2155,1,1
app_8,2.3642,25234.9,5820.97,29.1513,446.164,2.18152e+09,1.37383,0.861456,13,0.00489131,1504,1,1
app_9,1.39812,24942.2,5779.17,132.473,442.432,1.10166e+11,1.35839,0.861456,13,0.249243,1462,1,1
