app_id,start_app,end_app,effective_cpu,effective_io,effective_iter,total_bytes,stretch,utilization,Tcomp,Tio,iterations,priority,group_id
app_1,8.48791,20168.4,7904,53.8791,525.167,2.6904e+10,1.00871,0.964177,15,0.0512458,1328,0.1,1
app_10,4.7852,19268.9,7758.3,182.616,863.624,1.43321e+11,1.01245,0.964177,9,0.165881,2078,0.1,1
app_11,8.62958,20124.5,7855.6,87.6854,786.929,5.60788e+10,1.01116,0.964177,10,0.0712564,1979,0.1,1
app_12,7.78231,18364.4,7753.4,183.871,863.034,1.49001e+11,1.01235,0.964177,9,0.172654,1980,0.1,1
app_13,2.31935,19015.8,7889,65.1741,654.604,2.86517e+10,1.0104,0.964177,12,0.0437431,1558,0.1,1
app_14,3.65856,19741.8,7784.1,169.039,600.563,1.2044e+11,1.01208,0.964177,13,0.200399,1482,0.1,1
app_15,2.29666,19876.2,7664.8,273.505,956.495,1.98265e+11,1.01741,0.964177,8,0.207391,2380,0.1,1
app_16,6.41731,20126.7,7874.4,76.7535,715.567,4.5375e+10,1.01013,0.964177,11,0.0633729,1796,0.1,1
app_17,0.447288,18032.1,7666.1,249.085,1278.78,1.65952e+11,1.02144,0.964177,6,0.129752,2880,0.1,1
app_18,0.925011,20013.4,7769.9,171.331,863.933,1.196e+11,1.01401,0.964177,9,0.138586,2168,0.1,1
app_19,0.202311,19638.6,7740.9,184.905,966.385,1.18349e+11,1.01791,0.964177,8,0.122514,2373,0.1,1
app_2,1.72712,19250,7665,281.104,957.676,2.13241e+11,1.01546,0.964177,8,0.222822,2302,0.1,1
app_20,3.77079,19808.6,7779.2,171.896,708.392,1.29025e+11,1.01161,0.964177,11,0.182238,1752,0.1,1
app_21,17.7812,20363.2,7810.8,121.2,88.2882,8.07887e+10,1.01374,0.964177,88,0.918053,224,0.01,2
app_22,62.5314,20364.7,7729.4,178.375,80.2392,1.18704e+11,1.01935,0.964177,97,1.4838,203,0.01,2
app_23,65.2796,20532.9,7716.6,208.819,87.6438,1.36181e+11,1.01875,0.964177,87,1.5653,226,0.01,2
app_24,29.9346,20331.2,7666.4,206.516,141.576,1.32856e+11,1.02574,0.964177,54,0.942244,361,0.01,2
app_25,35.5429,20249.3,7742.9,199.126,63.3432,1.27297e+11,1.01649,0.964177,123,1.98902,159,0.01,2
app_26,12.8954,20408.9,7646,273.616,72.065,1.79458e+11,1.0223,0.964177,105,2.49248,186,0.01,2
app_27,18.8715,19602.1,7853.2,124.549,357.821,1.03472e+11,1.00545,0.964177,22,0.289837,875,0.1,1
app_28,123.651,20067.7,7948.3,8.93502,61.1152,3.9722e+09,1.006,0.964177,130,0.0651181,153,0.01,2
app_29,97.461,20582,7651.6,310.394,62.313,2.03845e+11,1.0184,0.964177,123,3.28783,159,0.01,2
app_3,1.01404,18314.5,7528.8,347.288,1887.19,1.96506e+11,1.03556,0.964177,4,0.104136,4322,0.1,1
app_30,45.976,20324.4,7738.2,185.777,96.3374,1.21732e+11,1.01782,0.964177,80,1.25497,245,0.01,2
app_31,3.89974,20240.9,7786.6,148.237,67.6872,9.73989e+10,1.01471,0.964177,114,1.43234,173,0.01,2
app_32,38.8254,20512.6,7547.5,298.574,164.777,1.94328e+11,1.03335,0.964177,46,1.17775,421,0.01,2
app_33,51.3724,20347.1,7683.8,264.136,57.3518,1.76271e+11,1.0178,0.964177,133,3.09247,147,0.01,2
app_34,29.5013,20247,7796.1,112.418,108.666,7.03555e+10,1.01698,0.964177,72,0.645463,274,0.01,2
app_35,32.2064,20195.3,7794.2,129.879,84.0257,8.35339e+10,1.01552,0.964177,93,0.994451,212,0.01,2
app_36,17.6253,20523.6,7678.9,201.452,131.817,1.3189e+11,1.02422,0.964177,58,0.999167,339,0.01,2
app_37,116.008,20027.5,7905.7,52.9405,55.8122,3.25341e+10,1.00778,0.964177,143,0.580965,139,0.01,2
app_38,49.5756,20030.9,7830.4,93.8254,72.1152,5.95939e+10,1.01394,0.964177,110,0.827694,180,0.01,2
app_39,25.5113,20239.3,7587.3,284.476,151.979,1.87794e+11,1.02893,0.964177,50,1.23549,384,0.01,2
app_4,3.79025,19781.9,7879.4,62.5636,788.676,2.05737e+09,1.01504,0.964177,10,0.00260756,1949,0.1,1
app_40,16.0443,20082.8,7762.1,175.203,75.7101,1.14195e+11,1.01571,0.964177,103,1.50256,191,0.01,2
app_41,379.434,21560.7,7443.4,295.1,7.37674,1.28361e+11,1.05656,0.964177,1027,18.3373,20,0.001,3
app_42,233.216,21774.1,7266.9,301.551,13.8937,1.25475e+11,1.0822,0.964177,514,8.96249,39,0.001,3
app_43,643.956,21819.9,7786.9,53.7359,9.24732,2.17655e+10,1.0245,0.964177,864,2.17655,24,0.001,3
app_44,744.328,21981.4,7705,162.858,10.1972,7.33096e+10,1.0285,0.964177,754,7.33096,27,0.001,3
app_45,1005.61,21744.6,7704.4,290.563,4.25103,1.20142e+11,1.02242,0.964177,1825,30.0355,11,0.001,3
app_46,567.944,22114.9,7361.1,509.304,8.40366,1.97845e+11,1.05835,0.964177,875,21.9828,23,0.001,3
app_47,459.336,21765.1,7748.6,85.2493,6.59266,4.51406e+10,1.02646,0.964177,1205,7.52343,17,0.001,3
app_48,562.008,22122.6,7628.5,96.4463,9.81866,4.17147e+10,1.043,0.964177,777,4.17147,26,0.001,3
app_49,971.888,22093,7548.3,291.844,5.91682,1.31309e+11,1.04172,0.964177,1263,21.8848,16,0.001,3
app_5,3.2687,19764,7728,159.012,1549.39,7.90933e+10,1.02471,0.964177,5,0.0510609,3821,0.1,1
app_50,545.506,21529.2,7567.8,277.857,6.49729,1.1727e+11,1.04098,0.964177,1183,19.5451,17,0.001,3
app_51,1089.5,21951.5,7926,47.5658,4.28854,2.56417e+10,1.00608,0.964177,1864,6.41043,11,0.001,3
app_52,152.812,20492.8,7936.5,36.3974,28.4977,2.38814e+10,1.00498,0.964177,278,0.823496,72,0.01,2
app_53,297.158,21418.5,7425,274.675,10.682,1.17837e+11,1.06061,0.964177,679,10.7125,29,0.001,3
app_54,617.776,21651.7,7519.16,386.118,10.3142,1.53034e+11,1.04273,0.964177,743,14.9999,27,0.001,3
app_55,152.411,21373.4,7706.9,99.5495,10.0951,4.2343e+10,1.03236,0.964177,759,4.2343,27,0.001,3
app_56,643.076,21863.6,7709.3,279.925,5.23177,1.06897e+11,1.02352,0.964177,1487,21.3793,14,0.001,3
app_57,20.712,19969.8,7640.5,176.548,7.1804,9.00055e+10,1.03486,0.964177,1101,12.8579,18,0.001,3
app_58,1101.9,22330,7894.9,24.3995,5.62261,8.29669e+09,1.01225,0.964177,1369,1.38278,15,0.001,3
app_59,1322.28,22663.8,7642.3,276.291,5.17868,1.27782e+11,1.02959,0.964177,1460,25.5564,14,0.001,3
app_6,3.33402,17885.4,7740.2,152.931,1549.92,6.78378e+10,1.02459,0.964177,5,0.0437946,3463,0.1,1
app_60,56.7678,21694.2,7651.3,209.334,5.44287,7.75475e+10,1.03508,0.964177,1378,12.9246,15,0.001,3
app_7,4.4128,16575.9,7656.1,208.193,1912.27,1.28093e+11,1.02772,0.964177,4,0.0669942,3959,0.1,1
app_8,5.73782,20105,7757.8,180.635,861.597,1.41867e+11,1.0127,0.964177,9,0.164579,2167,0.1,1
app_9,4.5764,18329.9,7721.2,205.555,1102.22,1.23049e+11,1.01986,0.964177,7,0.11166,2527,0.1,1
