app_id,start_app,end_app,effective_cpu,effective_io,effective_iter,total_bytes,stretch,utilization,Tcomp,Tio,iterations,priority,group_id
app_1,6.66979,25225.4,5298.85,177.857,589.514,1.49069e+11,1.46845,0.848034,9,0.253088,2023,1,1
app_10,6.24639,25291.1,5032.46,85.968,837.357,4.55655e+10,1.57542,0.848034,6,0.0544391,2925,1,1
app_11,2.47212,25250.5,5706.8,149.691,407.118,1.24566e+11,1.37189,0.848034,14,0.306059,1380,1,1
app_12,12.221,24659.3,5736.3,68.3756,410.587,4.21452e+10,1.38446,0.848034,14,0.102543,1344,1,1
app_13,8.88536,26515.9,5351.5,96.9729,594.921,5.9633e+10,1.47843,0.848034,9,0.100223,2178,1,1
app_14,6.48659,25325.6,5505.5,60.0715,498.94,3.70449e+10,1.44338,0.848034,11,0.0742383,1712,1,1
app_15,1.63122,25944,5078.19,159.601,725.691,1.31195e+11,1.53569,0.848034,7,0.180959,2616,1,1
app_16,4.40575,27219.1,4991.26,154.023,829.102,1.06873e+11,1.5692,0.848034,6,0.128918,3199,1,1
app_17,8.45804,25070.7,5464.32,136.266,496.553,1.07958e+11,1.43568,0.848034,11,0.217656,1678,1,1
app_18,3.09139,24185.2,5890.8,99.2831,346.715,7.99903e+10,1.33986,0.848034,17,0.23052,1101,1,1
app_19,3.60325,25551.2,5279.05,56.9972,660.005,1.99967e+10,1.50971,0.848034,8,0.030298,2317,1,1
app_2,5.85338,25673.6,5377.04,150.8,535.213,1.17915e+11,1.45588,0.848034,10,0.220401,1878,1,1
app_20,2.70149,25714.1,5297.52,41.887,660.007,8.7703e+08,1.50989,0.848034,8,0.00132883,2338,1,1
app_21,35.6115,22662.8,6767.1,161.989,161.727,1.53009e+11,1.15605,0.848034,42,0.944501,461,1,1
app_22,50.9841,21400.5,7199.3,159.505,75.0803,1.5676e+11,1.08754,0.848034,96,2.09013,203,1,1
app_23,6.31172,24943.4,5184.64,78.449,741.715,4.33218e+10,1.53023,0.848034,7,0.058464,2515,1,1
app_24,29.3916,21433.4,7341.5,93.1934,65.1575,9.06172e+10,1.07641,0.848034,113,1.39411,175,1,1
app_25,48.4056,20936.5,7506.1,120.939,54.8233,1.18549e+11,1.04923,0.848034,136,2.15544,145,1,1
app_26,17.1994,20655.8,7506.4,112.538,58.4974,1.09194e+11,1.05048,0.848034,130,1.85075,151,1,1
app_27,50.1746,21623.2,7285.8,110.858,80.6875,1.0636e+11,1.08223,0.848034,90,1.31309,218,1,1
app_28,95.1568,21191.1,7524.4,66.9152,49.6895,6.47618e+10,1.05413,0.848034,152,1.29524,131,1,1
app_29,49.4116,21604.7,7228.9,34.4881,70.216,3.11707e+10,1.10192,0.848034,103,0.445296,193,1,1
app_3,7.22409,26924.9,5095.42,146.309,725.464,1.10296e+11,1.53677,0.848034,7,0.152132,2747,1,1
app_30,31.8292,21541.7,7195.2,153.711,89.7621,1.50247e+11,1.08911,0.848034,80,1.68817,243,1,1
app_31,26.0086,21106.9,7547.1,29.5751,59.2107,2.61284e+10,1.05635,0.848034,127,0.435474,157,1,1
app_32,48.8532,22369.3,6990.4,176.495,132.728,1.71503e+11,1.11702,0.848034,53,1.2895,369,1,1
app_33,32.1447,22218.9,7109.6,13.8903,119.831,8.48704e+09,1.1239,0.848034,59,0.0707253,337,1,1
app_34,89.3821,21729,7263.2,15.9923,71.0883,1.32094e+10,1.09944,0.848034,101,0.186048,196,1,1
app_35,85.9585,21528.7,7305,105.663,69.0517,1.03206e+11,1.07988,0.848034,105,1.49574,188,1,1
app_36,43.8411,21068.9,7618,52.6656,58.8232,5.03738e+10,1.04325,0.848034,130,0.868514,153,1,1
app_37,85.0162,21902.3,7077.27,140.649,84.4305,1.3569e+11,1.10911,0.848034,84,1.61536,233,1,1
app_38,114.344,21457,7508.6,6.75693,57.2178,4.11742e+09,1.06486,0.848034,130,0.0722355,154,1,1
app_39,44.5412,21819.7,7090.5,172.193,96.9708,1.66263e+11,1.10242,0.848034,73,1.71406,267,1,1
app_4,1.75284,26401.8,5396.3,38.5197,597.287,1.4505e+09,1.4821,0.848034,9,0.00242966,2183,1,1
app_40,62.8229,21436,7281.6,39.5243,78.0033,3.52038e+10,1.09337,0.848034,94,0.45133,211,1,1
app_41,103.545,20718.4,7842.6,67.1692,8.31168,6.67991e+10,1.01145,0.848034,910,8.34988,22,1,1
app_42,436.662,20840.6,7768.4,182.242,6.00696,1.81835e+11,1.00626,0.848034,1327,30.3059,15,1,1
app_43,255.527,20778.1,7789.8,181.828,8.75142,1.81311e+11,1.00362,0.848034,881,20.1457,23,1,1
app_44,233.486,20705.9,7790.1,165.331,6.19867,1.65114e+11,1.00563,0.848034,1287,27.519,16,1,1
app_45,596.179,21175.4,7769.1,160.834,10.3501,1.60302e+11,1.0089,0.848034,773,14.5729,26,1,1
app_46,165.999,20306.5,7799.6,174.526,9.08588,1.74057e+11,1.0033,0.848034,851,19.3396,23,1,1
app_47,146.639,20491.1,7873.1,76.2877,6.18946,7.60397e+10,1.0064,0.848034,1280,12.6733,16,1,1
app_48,809.192,21060.4,7922.6,24.9866,5.9229,2.47415e+10,1.00663,0.848034,1393,4.12359,15,1,1
app_49,1636.71,22147.5,7750.6,216.607,4.64258,2.16356e+11,1.00415,0.848034,1637,43.2713,12,1,1
app_5,1.39049,25660.2,4836.6,115.727,968.112,7.78594e+10,1.62785,0.848034,5,0.0804333,3472,1,1
app_50,467.449,20957.5,7870.6,38.9682,8.68408,3.85868e+10,1.01148,0.848034,915,4.28742,22,1,1
app_51,637.532,21364.1,7880.3,33.4969,7.67629,3.31519e+10,1.01094,0.848034,1040,4.73598,20,1,1
app_52,220.987,20753.2,7778.6,169.407,6.23134,1.69081e+11,1.00658,0.848034,1247,28.1801,16,1,1
app_53,473.372,20792.7,7769.65,100.826,14.6409,1.00022e+11,1.01656,0.848034,535,6.84319,37,1,1
app_54,363.577,21396.6,7837.7,71.2816,9.35229,7.07506e+10,1.01158,0.848034,848,7.86117,24,1,1
app_55,638.36,21094.1,7730.6,146.289,9.77313,1.45769e+11,1.0157,0.848034,800,14.5769,25,1,1
app_56,501.657,21279.2,7794.5,174.676,6.73578,1.74219e+11,1.00393,0.848034,1189,24.8885,17,1,1
app_57,245.086,21387.5,7962,4.60768,8.86667,4.38218e+09,1.00422,0.848034,901,0.486909,23,1,1
app_58,381.22,21421.8,7763.9,169.44,7.81035,1.68947e+11,1.00847,0.848034,961,21.1184,21,1,1
app_59,955.597,22000.7,7873.7,53.3969,6.54293,5.31136e+10,1.00923,0.848034,1211,8.85227,17,1,1
app_6,10.547,26040.8,5608.9,55.6528,467.967,3.42176e+10,1.41766,0.848034,12,0.0731146,1654,1,1
app_60,395.451,21053.8,7820.7,120.338,9.84225,1.19919e+11,1.00748,0.848034,809,11.9919,25,1,1
app_7,0.731079,25324.2,5449.91,142.086,494.101,1.13874e+11,1.43787,0.848034,11,0.230515,1697,1,1
app_8,6.87569,24749.1,5218.6,145.9,652.296,1.19651e+11,1.49862,0.848034,8,0.183513,2188,1,1
app_9,2.06317,25011.2,5522.4,109.128,501.885,8.7178e+10,1.42613,0.848034,11,0.173661,1683,1,1
