app_id,start_app,end_app,effective_cpu,effective_io,effective_iter,total_bytes,stretch,utilization,Tcomp,Tio,iterations,priority,group_id
app_1,1.10965,19080.8,7447.4,552.6,1864.85,1.2649e+11,1.05626,0.950813,4,0.0678229,4447,1,1
app_10,7.47903,19271.4,7213.1,786.9,901.764,2.05557e+11,1.07836,0.950813,8,0.22789,2177,1.00001,1.00001
app_11,8.48791,19652.2,7279.1,720.9,806.29,1.88381e+11,1.07131,0.950813,9,0.233723,1986,1.00001,1.00001
app_12,7.14218,20225.8,7282.5,717.5,605.771,1.91853e+11,1.07033,0.950813,12,0.317113,1537,1.00001,1.00001
app_13,3.31959,20330.3,7475,525,467.134,1.34876e+11,1.05127,0.950813,16,0.288814,1190,1.00001,1.00001
app_14,4.15021,19787.5,7879.4,120.6,875.171,1.90388e+10,1.01286,0.950813,9,0.0217586,2166,1.00001,1.00001
app_15,0.908308,19385.7,7320.8,679.2,1831.9,1.70617e+11,1.06789,0.950813,4,0.0931315,4444,1.00002,1.00002
app_16,0.678358,19013.4,7596.6,403.4,1899.36,8.69132e+10,1.04119,0.950813,4,0.0457438,4509,1.00002,1.00002
app_17,4.9406,19167.4,7810.6,189.4,707.865,4.01946e+10,1.01901,0.950813,11,0.056772,1699,1.00002,1.00002
app_18,1.97282,17932.4,7289.1,710.9,1457.61,1.75131e+11,1.07178,0.950813,5,0.120117,3270,1.00002,1.00002
app_19,0.214181,20347.4,7448,552,677.57,1.39515e+11,1.05436,0.950813,11,0.206078,1727,1.00002,1.00002
app_2,10.7593,19775,7542.2,457.8,578.476,1.14644e+11,1.04482,0.950813,13,0.198003,1434,1,1
app_20,4.50287,21112.2,7336.4,663.6,734.485,1.73713e+11,1.06523,0.950813,10,0.236666,1947,1.00002,1.00002
app_21,23.2193,20551.6,7570.5,429.5,161.181,1.14267e+11,1.04102,0.950813,47,0.705353,414,1.00002,1.00002
app_22,112.199,20175.8,7931.2,68.8,68.0887,1.71158e+10,1.0065,0.950813,116,0.251703,171,1.00002,1.00002
app_23,14.5864,20804.1,7551.5,448.5,63.8426,1.15598e+11,1.04342,0.950813,118,1.80623,167,1.00002,1.00002
app_24,40.9553,20293.4,7807.8,192.2,57.0738,4.70352e+10,1.01848,0.950813,136,0.82518,146,1.00002,1.00002
app_25,33.6813,20713,7510.7,489.3,64.551,1.39466e+11,1.04573,0.950813,117,2.14563,167,1.00003,1.00003
app_26,119.875,20310.6,7938.3,61.7,58.3794,1.61097e+10,1.00573,0.950813,136,0.277754,147,1.00003,1.00003
app_27,60.0579,21031.6,7341.56,658.438,92.8558,1.74812e+11,1.06434,0.950813,79,1.89374,245,1.00003,1.00003
app_28,9.50885,20110.9,7886.8,113.2,109.182,2.83154e+10,1.01072,0.950813,72,0.259774,274,1.00003,1.00003
app_29,147.085,21180.1,7474.1,525.9,51.7635,1.39383e+11,1.05077,0.950813,145,2.68043,136,1.00003,1.00003
app_3,5.21786,20150,7258.1,741.9,1038.69,1.93338e+11,1.07362,0.950813,7,0.186081,2617,1,1
app_30,86.2127,20402.3,7779.1,220.9,50.5206,6.22518e+10,1.02023,0.950813,155,1.24504,128,1.00003,1.00003
app_31,86.677,20435.6,7676.7,323.3,88.4812,8.69745e+10,1.03044,0.950813,87,0.977241,225,1.00003,1.00003
app_32,12.5829,20601.4,7623,377,68.7113,9.72315e+10,1.03624,0.950813,111,1.42987,178,1.00003,1.00003
app_33,175.509,21236.7,7383.6,616.4,40.9667,1.48672e+11,1.0621,0.950813,178,3.62615,110,1.00003,1.00003
app_34,27.3775,20837.1,7644.9,355.1,69.1638,8.67681e+10,1.03471,0.950813,110,1.25751,180,1.00003,1.00003
app_35,8.27135,20353.2,7809.7,190.3,67.0993,5.02962e+10,1.01781,0.950813,116,0.75069,171,1.00004,1.00004
app_36,46.7931,20158.8,7767.7,232.3,168.991,6.11171e+10,1.02187,0.950813,46,0.36164,424,1.00004,1.00004
app_37,21.9603,21048.5,7379,621,38.7487,1.72542e+11,1.05939,0.950813,191,4.54057,102,1.00004,1.00004
app_38,57.1466,20352,7703.5,296.5,130.853,7.89007e+10,1.02796,0.950813,59,0.602295,333,1.00004,1.00004
app_39,52.7442,21140,7423.7,576.3,81.5564,1.57232e+11,1.05528,0.950813,90,1.91746,217,1.00004,1.00004
app_4,2.79519,18896.4,7918.5,81.5,720.117,1.07415e+10,1.00892,0.950813,11,0.0148981,1698,1,1
app_40,19.4304,20821.6,7520.8,479.2,117.911,1.3101e+11,1.0455,0.950813,64,1.11026,307,1.00004,1.00004
app_41,1279.37,22522.1,7650,350,5.60154,1.16146e+11,1.03011,0.950813,1349,23.2292,15,1.00004,1.00004
app_42,1405.24,21745.9,7930.8,69.2,5.65554,1.4785e+10,1.00685,0.950813,1463,2.95701,14,1.00004,1.00004
app_43,652.444,21736.5,7484.68,515.317,10.1056,1.54188e+11,1.04728,0.950813,730,15.385,27,1.00004,1.00004
app_44,838.038,22186.4,7613.7,386.3,6.94459,1.11202e+11,1.03561,0.950813,1144,15.886,18,1.00004,1.00004
app_45,27.3248,20821.2,7716,284,14.9461,8.23945e+10,1.02585,0.950813,531,5.49297,38,1.00004,1.00004
app_46,530.724,21084.6,7775.4,224.6,6.87851,5.36247e+10,1.02184,0.950813,1114,7.66067,18,1.00005,1.00005
app_47,221.111,20681.3,7808.9,191.1,11.1318,4.25947e+10,1.01891,0.950813,693,3.87224,29,1.00005,1.00005
app_48,1037.13,21230.6,7833.1,166.9,6.07315,5.74318e+10,1.01387,0.950813,1357,9.57197,15,1.00005,1.00005
app_49,95.061,21279,7391.4,608.6,13.2969,1.84479e+11,1.05598,0.950813,563,14.1907,35,1.00005,1.00005
app_5,5.89832,20251.7,7439.7,560.3,532.561,1.46595e+11,1.05453,0.950813,14,0.275038,1347,1.00001,1.00001
app_50,142.698,21108.4,7805.7,194.3,7.91454,5.32342e+10,1.01795,0.950813,983,7.60489,21,1.00005,1.00005
app_51,153.703,21651.9,7510.8,489.2,5.95969,1.40997e+11,1.04551,0.950813,1258,23.4995,16,1.00005,1.00005
app_52,1104.2,21408.5,7955.9,44.1,6.65498,8.2749e+09,1.0045,0.950813,1184,1.37915,17,1.00005,1.00005
app_53,1230.77,22609.6,7623.8,376.2,5.40956,1.01084e+11,1.03561,0.950813,1343,20.2167,15,1.00005,1.00005
app_54,13.767,20479.5,7894.2,105.8,19.3929,2.52375e+10,1.01017,0.950813,405,1.32829,50,1.00005,1.00005
app_55,266.851,21792.5,7579.5,420.5,8.84493,1.21533e+11,1.03882,0.950813,839,13.5037,24,1.00005,1.00005
app_56,208.714,21343.5,7704.1,295.9,4.95153,1.05048e+11,1.02444,0.950813,1548,21.0096,13,1.00006,1.00006
app_57,648.967,22263.1,7453.3,546.7,4.50731,1.7258e+11,1.04906,0.950813,1701,34.5159,12,1.00006,1.00006
app_58,891.851,22234.1,7406,594,7.05613,1.78497e+11,1.05478,0.950813,1035,25.4996,19,1.00006,1.00006
app_59,498.706,20944,7826.6,173.4,12.9907,4.98642e+10,1.01568,0.950813,608,3.83571,33,1.00006,1.00006
app_6,3.95703,19277.3,7728.5,271.5,773.038,6.32876e+10,1.02672,0.950813,10,0.0818728,1863,1.00001,1.00001
app_60,762.305,21458.1,7457.83,542.167,9.35679,1.69517e+11,1.04886,0.950813,819,18.4082,24,1.00006,1.00006
app_7,8.89013,19939.9,7825,175,653.52,3.8346e+10,1.01738,0.950813,12,0.0586331,1626,1.00001,1.00001
app_8,5.1941,20031,7501.4,498.6,1498.75,1.1882e+11,1.04984,0.950813,5,0.0792661,3757,1.00001,1.00001
app_9,4.14955,16926.7,7653.04,346.956,1913.75,6.40414e+10,1.03666,0.950813,4,0.0334633,4049,1.00001,1.00001
