app_id,start_app,end_app,effective_cpu,effective_io,effective_iter,total_bytes,stretch,utilization,Tcomp,Tio,iterations,priority,group_id
app_1,6.40414,19537.1,7759.5,184.511,974.202,1.13572e+11,1.01612,0.965906,8,0.116603,2375,0.1,1
app_10,4.44439,18956.7,7860.47,101.649,713.71,6.56606e+10,1.00932,0.965906,11,0.0920549,1692,0.1,1
app_11,2.47025,19865.9,7855.9,91.5855,871.728,5.23789e+10,1.0116,0.965906,9,0.0600675,2164,0.1,1
app_12,5.19335,20027.3,7725.6,219.461,1102.05,1.5652e+11,1.01496,0.965906,7,0.142033,2759,0.1,1
app_13,1.28502,20272.5,7802.5,126.315,1303.87,5.04516e+10,1.01873,0.965906,6,0.0386899,3298,0.1,1
app_14,1.17239,19721.8,7723.7,220.355,1103.57,1.55176e+11,1.01537,0.965906,7,0.140558,2724,0.1,1
app_15,10.6373,18578.4,7748.5,216.279,706.164,1.84207e+11,1.00848,0.965906,11,0.260916,1634,0.1,1
app_16,1.18036,20078.2,7888.7,68.3996,790.928,7.55692e+09,1.01314,0.965906,10,0.00955363,1983,0.1,1
app_17,0.898715,18733,7817.6,146.433,712.874,1.12742e+11,1.00878,0.965906,11,0.158346,1665,0.1,1
app_18,3.79047,19805.4,7789.4,139.213,1301.2,8.70805e+10,1.01568,0.965906,6,0.0668821,3220,0.1,1
app_19,6.82793,20190.7,7741.3,223.764,646.336,1.8308e+11,1.00954,0.965906,12,0.283406,1626,0.1,1
app_2,9.22483,18934.8,7905.5,60.6811,609.263,2.7373e+10,1.00846,0.965906,13,0.0449474,1442,0.1,1
app_20,1.69457,18687.9,7780.3,191.772,650.031,1.42859e+11,1.0097,0.965906,12,0.219783,1515,0.1,1
app_21,77.1267,20465.4,7649,257.529,91.7325,1.71362e+11,1.02297,0.965906,83,1.86263,236,0.01,2
app_22,30.3427,20323.7,7760,164.623,81.9248,1.14621e+11,1.01592,0.965906,95,1.39781,208,0.01,2
app_23,69.9252,20235.1,7812.3,124.554,60.245,8.31506e+10,1.01324,0.965906,131,1.36312,151,0.01,2
app_24,124.6,20233.5,7783.5,156.618,63.8828,1.14656e+11,1.01289,0.965906,123,1.7915,160,0.01,2
app_25,36.4767,20186,7735.4,221.291,60.148,1.54232e+11,1.01399,0.965906,129,2.57054,152,0.01,2
app_26,77.8009,20211.2,7925.3,20.2656,53.4872,1.22503e+10,1.00787,0.965906,148,0.231138,135,0.01,2
app_27,18.2401,20305.7,7696.8,242.331,74.9065,1.72104e+11,1.01666,0.965906,102,2.29473,191,0.01,2
app_28,68.881,20474.2,7684.5,246.257,82.6883,1.71596e+11,1.01832,0.965906,92,2.06742,212,0.01,2
app_29,57.934,20087.3,7704.5,244.177,77.6059,1.731e+11,1.01554,0.965906,101,2.21924,192,0.01,2
app_3,6.6615,17956.9,7804,121.801,1301,3.86589e+10,1.02006,0.965906,6,0.0297148,2920,0.1,1
app_30,66.7152,20344.6,7747.1,149.912,104.58,1.02727e+11,1.01913,0.965906,74,0.987758,265,0.01,2
app_31,46.5384,20314.5,7729.6,206.346,67.0162,1.5035e+11,1.01523,0.965906,116,2.24403,169,0.01,2
app_32,17.9011,20157.5,7670.7,205.648,147.276,1.391e+11,1.02435,0.965906,52,0.94626,372,0.01,2
app_33,178.535,20497.9,7871,92.8417,43.5821,6.22728e+10,1.00841,0.965906,180,1.41529,111,0.01,2
app_34,19.2101,20343.5,7789.8,166.069,54.2465,1.11843e+11,1.01245,0.965906,144,2.07117,137,0.01,2
app_35,136.789,20180.1,7871.8,99.1548,49.5624,6.69713e+10,1.00771,0.965906,160,1.33943,124,0.01,2
app_36,11.9339,20210.8,7684.4,261.41,78.6765,1.85137e+11,1.01658,0.965906,98,2.37355,198,0.01,2
app_37,18.2116,20205.5,7883.6,65.5816,60.7899,4.57659e+10,1.00891,0.965906,129,0.762765,154,0.01,2
app_38,4.20048,20357.2,7655.5,271.976,89.5048,1.89227e+11,1.01979,0.965906,86,2.12615,226,0.01,2
app_39,17.9469,20375,7627.8,174.532,205.29,1.16728e+11,1.03299,0.965906,37,0.569405,525,0.01,2
app_4,4.28747,19743.1,7843.5,100.046,979.63,5.06302e+10,1.01341,0.965906,8,0.0516634,2418,0.1,1
app_40,1.73432,20136.4,7789,105.47,102.816,6.90994e+10,1.01806,0.965906,76,0.677445,258,0.01,2
app_41,128.872,20705.9,7701.2,218.401,10.4824,8.68534e+10,1.02721,0.965906,742,7.89576,27,0.001,3
app_42,1049.01,22414.3,7326.5,456.706,6.59937,1.98287e+11,1.06315,0.965906,1101,28.3267,18,0.001,3
app_43,127.803,21292,7420.26,363.769,10.3423,1.70978e+11,1.05385,0.965906,700,15.5435,28,0.001,3
app_44,424.586,21239,7718.3,83.5889,16.845,3.06729e+10,1.03239,0.965906,453,1.80429,44,0.001,3
app_45,308.117,21276.4,7475.8,317.857,11.8327,1.39499e+11,1.05052,0.965906,642,11.6249,31,0.001,3
app_46,185.118,21077.5,7510.8,102.887,8.86723,5.50345e+10,1.05739,0.965906,829,6.11494,24,0.001,3
app_47,283.555,21421.4,7844.4,65.2536,5.82362,3.35599e+10,1.01549,0.965906,1394,6.71198,15,0.001,3
app_48,3.46643,21669.1,7364.4,176.53,6.57159,7.10056e+10,1.07593,0.965906,1128,10.1437,18,0.001,3
app_49,419.289,22281.5,7571.3,311.89,6.97828,1.41758e+11,1.0372,0.965906,1075,20.2511,19,0.001,3
app_5,2.96895,19370.7,7809,168.189,487.289,1.38048e+11,1.00666,0.965906,16,0.282885,1181,0.1,1
app_50,101.926,20388.5,7876.7,59.5142,55.9365,4.36834e+10,1.01005,0.965906,139,0.780061,143,0.01,2
app_51,244.531,21228.7,7705.77,211.435,12.5041,8.86154e+10,1.02638,0.965906,623,6.81657,32,0.001,3
app_52,1228.81,21520,7835,96.4055,5.166,4.33022e+10,1.01545,0.965906,1564,8.66045,13,0.001,3
app_53,745.266,21748.4,7434.1,351.854,8.65925,1.7223e+11,1.05176,0.965906,876,19.1367,23,0.001,3
app_54,835.325,21218.5,7725.9,227.136,7.54274,9.58711e+10,1.02279,0.965906,1046,11.9839,19,0.001,3
app_55,1225.2,22232.3,7744.1,213.763,5.83946,1.09815e+11,1.0186,0.965906,1349,18.3026,15,0.001,3
app_56,75.6569,21321.4,7473.8,393.414,9.67828,1.61344e+11,1.04779,0.965906,759,17.9271,26,0.001,3
app_57,1091.61,23565.1,7859,40.9309,5.34219,2.04178e+10,1.0153,0.965906,1404,4.08356,15,0.001,3
app_58,1151.43,22431.2,7694.42,272.615,6.74355,1.01519e+11,1.02618,0.965906,1143,16.3677,18,0.001,3
app_59,996.943,21938.2,7699.5,234.056,7.1553,8.4218e+10,1.02779,0.965906,1079,12.0311,19,0.001,3
app_6,1.61802,19099.2,7773.8,160.083,1109.91,1.05953e+11,1.01526,0.965906,7,0.095453,2652,0.1,1
app_60,481.21,21691.1,7470.13,372.957,7.12128,1.76098e+11,1.04627,0.965906,1059,22.0122,19,0.001,3
app_7,1.02688,19914.2,7778,179.539,867.685,1.40514e+11,1.01029,0.965906,9,0.161882,2155,0.1,1
app_8,2.3642,19741.9,7913.9,51.2094,608.786,2.97881e+09,1.0105,0.965906,13,0.00489131,1504,0.1,1
app_9,1.39812,19540.7,7790.74,182.197,598.361,1.49264e+11,1.00756,0.965906,13,0.249243,1462,0.1,1
