app_id,start_app,end_app,effective_cpu,effective_io,effective_iter,total_bytes,stretch,utilization,Tcomp,Tio,iterations,priority,group_id
app_1,7.79649,25241.5,5477.1,116.99,496.929,9.9114e+10,1.43467,0.849552,11,0.199425,1703,1,1
app_10,1.48094,27083.5,5037.1,148.666,718.932,1.15478e+11,1.55262,0.849552,7,0.160609,2744,1,1
app_11,8.79977,24860.7,5424.7,67.037,543.3,4.59955e+10,1.46234,0.849552,10,0.0847062,1829,1,1
app_12,5.47741,26665.6,5093.2,82.3786,726.837,5.15356e+10,1.55499,0.849552,7,0.070888,2719,1,1
app_13,5.17851,27664.7,4971.4,62.3928,827.349,1.32907e+10,1.60491,0.849552,6,0.0160516,3270,1,1
app_14,1.48199,25471,5202.1,43.665,647.639,3.97888e+09,1.53667,0.849552,8,0.00614025,2279,1,1
app_15,6.78606,25686.5,4914,99.7601,817.376,6.68937e+10,1.60614,0.849552,6,0.0817772,2944,1,1
app_16,10.1434,25395.8,5668.7,78.2305,435.366,5.38223e+10,1.39798,0.849552,13,0.123446,1489,1,1
app_17,1.53843,25233,5622.9,59.8496,469.349,4.24179e+10,1.4121,0.849552,12,0.0902508,1590,1,1
app_18,2.09182,26203.9,4503.1,125.223,1127.37,7.25852e+10,1.74837,0.849552,4,0.0643486,4257,1,1
app_19,5.5048,25423,5083.1,189.253,637.656,1.5586e+11,1.52702,0.849552,8,0.244294,2232,1,1
app_2,6.97166,23999.9,6187.9,84.7546,281.578,7.02565e+10,1.27833,0.849552,22,0.249137,877,1,1
app_20,1.09002,26610.2,5313.7,67.6035,588.932,4.28268e+10,1.49351,0.849552,9,0.072711,2183,1,1
app_21,11.0804,21445.6,7358.1,20.0984,69.761,1.61619e+10,1.08485,0.849552,105,0.230884,189,1,1
app_22,102.017,21017.6,7556.5,35.6115,48.7222,3.35157e+10,1.05402,0.849552,155,0.698244,128,1,1
app_23,17.3882,22477.7,6912.7,141.556,130.111,1.34282e+11,1.13524,0.849552,53,1.02506,368,1,1
app_24,54.7437,22507.4,6955.1,125.19,120.737,1.20569e+11,1.13064,0.849552,57,0.996441,343,1,1
app_25,1.21996,21378.6,7206.9,93.5659,86.3696,8.84123e+10,1.09659,0.849552,84,1.01623,234,1,1
app_26,50.7081,22500.7,6941.5,72.9271,122.666,6.65963e+10,1.14154,0.849552,57,0.541433,346,1,1
app_27,72.9686,21506.8,7290.6,154.204,61.2907,1.50144e+11,1.07516,0.849552,120,2.42168,164,1,1
app_28,93.3916,21275.1,7328.5,183.392,66.4629,1.80139e+11,1.06544,0.849552,111,2.72938,176,1,1
app_29,15.8874,21250.7,7297.9,119.056,64.1862,1.1522e+11,1.07917,0.849552,114,1.80032,172,1,1
app_3,3.40631,26197.6,5035.2,142.788,720.209,1.06458e+11,1.55592,0.849552,7,0.147858,2631,1,1
app_30,20.1729,21005.7,7434.6,150.108,71.1185,1.46989e+11,1.05519,0.849552,104,2.07027,187,1,1
app_31,35.9218,22252.6,6937.3,108.866,106.076,1.04342e+11,1.1361,0.849552,66,0.984357,297,1,1
app_32,62.4128,21472.8,7448.3,33.4182,66.9185,3.0198e+10,1.06973,0.849552,111,0.450717,180,1,1
app_33,22.6958,22365.2,6823.4,180.818,136.026,1.75156e+11,1.14309,0.849552,50,1.28791,387,1,1
app_34,24.4841,21445.2,7310.7,108.362,59.4063,1.04967e+11,1.0788,0.849552,123,1.74944,160,1,1
app_35,67.6423,20667.7,7609.4,42.7296,48.6717,4.03937e+10,1.04578,0.849552,157,0.841536,126,1,1
app_36,36.3388,22237.8,6794.8,216.761,133.318,2.11363e+11,1.14185,0.849552,51,1.5892,374,1,1
app_37,7.18995,22173.4,7015.27,67.918,96.3953,6.27901e+10,1.13025,0.849552,72,0.649881,274,1,1
app_38,44.6358,21590.8,7311.2,10.9246,93.9554,6.30029e+09,1.09327,0.849552,78,0.0670243,254,1,1
app_39,122.981,21300.3,7439.9,126.05,61.3053,1.23939e+11,1.05766,0.849552,121,1.99902,163,1,1
app_4,1.12425,24221.3,5897.4,184.711,327.681,1.65405e+11,1.31952,0.849552,18,0.504283,1046,1,1
app_40,90.4396,21341.7,7404.9,67.7561,57.5134,6.49827e+10,1.07097,0.849552,129,1.12039,154,1,1
app_41,470.257,20920,7855.6,4.15862,9.52571,3.76912e+09,1.01789,0.849552,816,0.376912,25,1,1
app_42,250.581,21373.3,7925.7,65.9496,4.90472,6.57337e+10,1.00107,0.849552,1601,13.1467,13,1,1
app_43,199.181,21036.2,7689.8,238.761,15.6697,2.38104e+11,1.00909,0.849552,481,14.8815,41,1,1
app_44,1016.64,21799.2,7818.6,149.611,7.34331,1.49178e+11,1.00404,0.849552,1064,21.3111,19,1,1
app_45,262.67,21122.7,7633.3,147.45,22.1895,1.46274e+11,1.02833,0.849552,343,6.64881,58,1,1
app_46,305.822,21000.5,7685.6,213.786,10.8709,2.13161e+11,1.01282,0.849552,712,19.3783,28,1,1
app_47,37.845,21078.1,7867,53.5182,5.02821,5.31755e+10,1.01008,0.849552,1579,10.6351,13,1,1
app_48,157.001,21300.7,7971.5,2.50732,6.9667,2.17875e+09,1.0033,0.849552,1159,0.31125,18,1,1
app_49,545.247,20854.1,7740.7,231.885,6.78528,2.31577e+11,1.00348,0.849552,1185,33.0824,17,1,1
app_5,10.1774,25401.9,5397.6,119.414,540.357,9.87978e+10,1.4555,0.849552,10,0.182959,1861,1,1
app_50,167.37,20498.6,7707.6,192.455,20.5723,1.91747e+11,1.01274,0.849552,372,9.58734,53,1,1
app_51,359.61,22439.2,7916.9,51.5592,6.51478,5.12845e+10,1.00399,0.849552,1168,7.32636,18,1,1
app_52,413.258,20722.6,7765.7,87.8275,15.8048,8.71211e+10,1.01874,0.849552,495,5.44507,40,1,1
app_53,210.262,20732.2,7873,28.3292,9.377,2.78816e+10,1.01255,0.849552,834,2.78816,24,1,1
app_54,349.744,20919.5,7889.4,1.37133,8.30823,1.04617e+09,1.01388,0.849552,922,0.130771,22,1,1
app_55,753.573,21689.8,7864.8,14.1971,9.11291,1.36342e+10,1.01543,0.849552,856,1.51491,24,1,1
app_56,786.929,22473.2,7854,117.145,5.49482,1.16983e+11,1.00364,0.849552,1401,19.4972,15,1,1
app_57,200.98,20980.3,7735.1,196.787,8.15106,1.96423e+11,1.00863,0.849552,972,21.8248,21,1,1
app_58,459.592,20892,7757.4,205.027,11.3699,2.04239e+11,1.00482,0.849552,691,17.0199,29,1,1
app_59,120.564,20940.3,7831,83.1051,7.14834,8.26241e+10,1.01091,0.849552,1086,11.8034,19,1,1
app_6,7.15369,25905.9,5466.3,46.5986,545.441,1.34953e+10,1.45991,0.849552,10,0.024762,1930,1,1
app_60,648.531,20344.6,7746.7,216.505,5.19157,2.16306e+11,1.00465,0.849552,1510,43.2613,13,1,1
app_7,7.68598,25487.2,5495.1,137.746,500.998,1.07321e+11,1.42795,0.849552,11,0.214214,1712,1,1
app_8,12.469,24847.1,5700.6,36.288,440.442,1.11838e+10,1.40061,0.849552,13,0.0253602,1456,1,1
app_9,0.321428,25149.2,5786.7,105.386,385.077,8.28154e+10,1.36297,0.849552,15,0.215105,1291,1,1
