app_id,Tcomp,Tio,iter,witer,alpha_io,compute_size,io_size,mu,desyn_time
1,11.95616646356626,0.8876614135439085,1558,12.843827877110169,0.06911190511404068,11e9,887661413.5439085,10,5.755045965025816
2,9.356371402577716,0.5957507421646738,2010,9.95212214474239,0.059861679097196696,9e9,595750742.1646738,10,9.477142690781081
3,17.037906370524396,1.7782793954222738,1063,18.81618576594667,0.09450796338546916,17e9,1778279395.4222739,10,0.690785702570334
4,13.2588757575805,1.1954837347362621,1384,14.454359492316762,0.0827074859575565,13e9,1195483734.736262,10,11.059539811971137
5,21.790355650014387,0.4543631861324304,900,22.244718836146816,0.02042566550196659,21e9,454363186.1324304,10,18.22908035856853
6,91.0581520660433,3.2034264325585062,213,94.2615784986018,0.033984434417316946,91e9,3203426432.558506,100,82.73233498532285
7,51.43963518467265,1.9000363676565635,375,53.339671552329214,0.03562144858339671,51e9,1900036367.6565635,100,30.131398933565052
8,292.30095210523587,19.870192866579707,65,312.1711449718156,0.06365160004898496,292e9,19870192866.57971,100,49.01812468161368
9,124.05966206616111,2.280083403127432,159,126.33974546928854,0.018047237586699818,124e9,2280083403.1274323,100,73.87629338824904
10,187.9713512160034,18.17850786660203,98,206.14985908260542,0.08818103464876878,187e9,18178507866.602028,100,202.73306401323796
11,339.80423663545764,30.93388572065078,54,370.7381223561084,0.0834386426841143,339e9,30933885720.65078,1000,281.7841058202404
12,797.8863088653252,1.4137734740724806,26,799.3000823393977,0.0017687643293300276,797e9,1413773474.0724804,1000,234.5392651902546
13,1563.7082061309331,176.03626454435562,12,1739.7444706752888,0.10118512661576469,1563e9,176036264544.35562,1000,131.17193627560812
14,1650.4113051287075,62.987480388542416,12,1713.39878551725,0.03676171649061104,1650e9,62987480388.54242,1000,954.1002314091429
15,866.1966190302539,9.408637254087049,23,875.605256284341,0.010745295538782972,866e9,9408637254.08705,1000,514.05656608571
