app_id,Tcomp,Tio,iter,witer,alpha_io,compute_size,io_size,mu,desyn_time
1,9.939855679958233,0.24931282108133562,1963,10.18916850103957,0.024468416736449006,9e9,249312821.08133563,10,7.011040629935551
2,17.48609753771112,1.680235773086789,1044,19.16633331079791,0.08766599984673017,17e9,1680235773.086789,10,5.075945005524154
3,16.486203007740038,0.5272789328514886,1176,17.013481940591525,0.0309918295791929,16e9,527278932.85148865,10,7.702357944268783
4,11.239682922470276,0.4454019835389759,1712,11.685084906009251,0.03811713711296359,11e9,445401983.5389759,10,0.9899811602009471
5,6.448072595145628,0.21563355830455264,3002,6.66370615345018,0.03235940381208239,6e9,215633558.30455264,10,3.3394092607500836
6,79.61583736813051,5.849989630379295,235,85.46582699850981,0.06844828905102968,79e9,5849989630.379295,100,38.466174987486276
7,215.74383883121627,6.5302226042859095,90,222.27406143550218,0.02937914825559077,215e9,6530222604.28591,100,137.7486615368384
8,21.5679917119639,1.4492316071494007,869,23.0172233191133,0.0629629207249326,21e9,1449231607.1494007,100,8.744904061697943
9,165.28057660450165,14.065809379081854,112,179.3463859835835,0.07842817295671277,165e9,14065809379.081854,100,107.88964287691071
10,25.004201574372303,2.128479877351139,738,27.132681451723442,0.07844708902576748,25e9,2128479877.3511388,100,24.455286858504095
11,1889.270567132427,62.609254763559456,11,1951.8798218959864,0.03207638813681831,1889e9,62609254763.559456,1000,1580.8852221775855
12,1096.1323141412763,81.4082294266231,17,1177.5405435678995,0.06913412015518336,1096e9,81408229426.6231,1000,531.3193924661717
13,2212.1346997052215,126.25712075975449,9,2338.391820464976,0.05399314163468506,2212e9,126257120759.75449,1000,1801.4753254761924
14,1185.8074819083554,72.89596261109754,16,1258.703444519453,0.05791353231652411,1185e9,72895962611.09755,1000,966.7209922593663
15,736.6741191398468,43.38238262342909,26,780.0565017632758,0.055614410655337836,736e9,43382382623.429085,1000,474.1988704378517
