app_id,start_app,end_app,effective_cpu,effective_io,effective_iter,total_bytes,stretch,utilization,Tcomp,Tio,iterations,priority,group_id
app_1,0.861589,29098.8,2765.62,267.919,2763.96,1.01582e+11,2.79018,0.753082,1,0.0367519,13720,1,1
app_10,0.0156836,23521,6401.28,161.138,64.0007,1.58719e+11,1.21951,0.753082,101,2.47999,194,1,1
app_11,1402.03,21778.5,7418.98,550.405,3.57336,5.50121e+11,1.00388,0.753082,2074,178.904,9,1,1
app_12,1626.42,22540.3,7599.4,282.369,4.68276,2.82167e+11,1.01503,0.753082,1624,56.4334,12,1,1
app_13,270.422,21358,7255.8,334.353,17.7067,3.3311e+11,1.05417,0.753082,414,18.5061,47,1,1
app_14,824.271,20772.8,7472.6,507.277,3.58663,5.07104e+11,1.00254,0.753082,2096,126.776,9,1,1
app_15,715.898,21886.8,7809.6,142.189,5.68947,1.41871e+11,1.0061,0.753082,1365,23.6452,15,1,1
app_2,6.73004,26568.1,5168.98,281.33,234.002,2.69824e+11,1.47091,0.753082,22,1.15309,847,1,1
app_3,0.19906,26912.2,3211.21,152.66,1606,5.56695e+10,2.44882,0.753082,2,0.0346635,6640,1,1
app_4,19.2869,26431.7,5249.7,307.036,193.998,2.95489e+11,1.44269,0.753082,27,1.52314,697,1,1
app_5,1.64563,28339.4,4767.15,183.204,318.003,1.62612e+11,1.6228,0.753082,15,0.511357,1289,1,1
app_6,16.364,22629.6,6371.45,639.057,43.1985,6.37804e+11,1.14135,0.753082,148,14.4956,124,1,1
app_7,28.4988,22797.2,6090.91,798.155,62.0289,7.95577e+11,1.16169,0.753082,97,12.7744,181,1,1
app_8,131.357,21791.3,6982.67,281.654,29.8999,2.80308e+11,1.10148,0.753082,236,9.34358,82,1,1
app_9,8.08873,23308.3,5804.51,907.402,72.1765,9.05153e+11,1.19231,0.753082,81,12.3994,214,1,1
