app_id,start_app,end_app,effective_cpu,effective_io,effective_iter,total_bytes,stretch,utilization,Tcomp,Tio,iterations,priority,group_id
app_1,13.9706,25092.6,5201.66,595.95,273.784,5.78552e+11,1.38403,0.786387,19,2.11381,911,1,1
app_10,106.099,23324,6479.8,402.291,63.2697,3.98521e+11,1.16307,0.786387,102,6.32574,185,1,1
app_11,744.161,22381.4,7382.7,600.946,3.85509,6.00694e+11,1.00208,0.786387,1988,150.173,10,1,1
app_12,365.116,22011.8,7377.3,401.356,19.292,4.00556e+11,1.02856,0.786387,386,21.0819,50,1,1
app_13,55.7427,20718.9,7329.1,669.259,3.89155,6.6908e+11,1.00023,0.786387,1862,167.27,10,1,1
app_14,1232.28,22753.3,7919.1,25.9905,6.34855,2.58474e+10,1.00693,0.786387,1244,3.69249,17,1,1
app_15,333.813,21455.9,7542.4,260.025,4.80386,2.59813e+11,1.02535,0.786387,1524,51.9626,13,1,1
app_2,0.234917,25360.9,5368.1,385.466,296.712,3.71172e+11,1.39391,0.786387,18,1.24974,1001,1,1
app_3,1.84605,26387.7,3988.29,379.208,1325.39,2.9024e+11,1.8698,0.786387,3,0.218884,4975,1,1
app_4,7.50828,25989.9,5411,247.833,301.429,2.37043e+11,1.41642,0.786387,18,0.784911,1052,1,1
app_5,6.25042,27357.8,4652.91,394.961,665.584,3.5861e+11,1.59632,0.786387,7,0.538453,2543,1,1
app_6,30.9496,23928.9,6191.05,182.401,141.058,1.74534e+11,1.25676,0.786387,44,1.22911,435,1,1
app_7,6.62562,21979.1,6741.4,216.211,35.881,2.14306e+11,1.15013,0.786387,191,5.95293,102,1,1
app_8,73.5478,22527.5,6468.5,489.06,52.1912,4.86628e+11,1.15023,0.786387,124,9.35823,150,1,1
app_9,25.4054,23380.9,6313.1,350.86,75.5623,3.47419e+11,1.20111,0.786387,83,4.5713,227,1,1
