app_id,start_app,end_app,effective_cpu,effective_io,effective_iter,total_bytes,stretch,utilization,Tcomp,Tio,iterations,priority,group_id
app_1,30.1072,26523.8,5246.39,129.642,181.37,1.21877e+11,1.49024,0.773873,29,0.673352,664,1,1
app_10,10.686,21864.6,6506.6,547.078,34.7058,5.4582e+11,1.13436,0.773873,188,15.5949,98,1,1
app_11,104.048,23276.5,6533.32,170.605,59.1478,1.6693e+11,1.19398,0.773873,108,2.82932,179,1,1
app_12,702.997,20863.3,7048.2,576.102,7.14689,5.75804e+11,1.04932,0.773873,1048,82.2577,18,1,1
app_13,349.461,20577.6,7714.8,215.999,8.74439,2.15665e+11,1.00877,0.773873,888,26.9581,22,1,1
app_14,826.046,21444.3,6992.9,896.901,5.82289,8.96466e+11,1.01402,0.773873,1226,149.411,15,1,1
app_15,66.0278,21099.7,7858.08,4.84017,7.5209,4.59201e+09,1.01747,0.773873,1039,0.656002,20,1,1
app_2,17.7263,27344.6,4991.69,206.086,227.89,1.96405e+11,1.54199,0.773873,22,0.865221,872,1,1
app_3,9.21705,27599.6,4760.82,148.66,297.458,1.32467e+11,1.63489,0.773873,16,0.446018,1178,1,1
app_4,22.6583,26778.8,5063.92,391.367,186.243,3.81497e+11,1.46913,0.773873,27,2.04547,689,1,1
app_5,7.09228,27055,4546.85,448.141,325.768,4.22817e+11,1.60977,0.773873,14,1.30097,1235,1,1
app_6,50.6917,22929.1,6484.6,321.069,43.9455,3.18653e+11,1.17591,0.773873,147,7.24211,130,1,1
app_7,263.503,21507,6748.9,849.328,21.3423,8.4834e+11,1.05301,0.773873,318,38.5609,56,1,1
app_8,95.2535,24115.2,6268,178.359,61.6508,1.74603e+11,1.24173,0.773873,101,2.81618,193,1,1
app_9,66.7061,23583,6099.7,455.918,63.6865,4.53538e+11,1.22077,0.773873,96,7.08653,193,1,1
