app_id,start_app,end_app,effective_cpu,effective_io,effective_iter,total_bytes,stretch,utilization,Tcomp,Tio,iterations,priority,group_id
app_1,5.86848,19939.3,6980.3,727.875,700.741,6.89119e+11,1.0431,0.883193,10,0.984456,1747,0.1,1
app_10,114.737,21050,7280.61,678.822,32.9254,3.80429e+11,1.04425,0.883193,220,11.5449,87,0.01,2
app_11,1476.12,24171.5,5976.2,1777.89,2.70965,7.99301e+11,1.18072,0.883193,2245,266.434,8,0.001,3
app_12,781.52,23050.8,7105.8,296.053,4.52572,1.48254e+11,1.10283,0.883193,1587,29.6507,13,0.001,3
app_13,267.644,22807.3,6937,483.848,7.89628,2.13574e+11,1.11879,0.883193,855,26.6968,23,0.001,3
app_14,379.963,23829.2,6657.9,1014.25,3.33188,4.36444e+11,1.12766,0.883193,2044,145.481,10,0.001,3
app_15,233.505,23600.6,6638.9,244.681,10.7656,1.01546e+11,1.18687,0.883193,625,9.23145,32,0.001,3
app_2,15.769,19712.7,7335.2,492.873,385.103,4.58134e+11,1.02652,0.883193,19,1.18974,951,0.1,1
app_3,14.2205,20194.8,7456.1,376.101,338.407,3.446e+11,1.02555,0.883193,22,1.01953,855,0.1,1
app_4,12.6442,19434.1,6895.2,979.624,457.77,9.25734e+11,1.0229,0.883193,15,2.02125,1113,0.1,1
app_5,2.81029,21199.2,6829.4,678.74,978.619,5.99766e+11,1.07684,0.883193,7,0.612631,2606,0.1,1
app_6,57.4007,21252.9,7040.6,889.491,58.4527,4.89991e+11,1.06233,0.883193,120,8.44813,156,0.01,2
app_7,17.2065,19737.4,7459.4,442.5,257.605,4.15303e+11,1.01591,0.883193,29,1.6097,635,0.1,1
app_8,19.5306,20619.8,7734.8,210.454,25.3696,1.16743e+11,1.01891,0.883193,301,4.66971,66,0.01,2
app_9,54.312,20614.5,7655.7,103.058,102.816,3.48208e+10,1.04024,0.883193,74,0.338066,267,0.01,2
