app_id,start_app,end_app,effective_cpu,effective_io,effective_iter,total_bytes,stretch,utilization,Tcomp,Tio,iterations,priority,group_id
app_1,6.44483,19572.6,7605.7,370.418,504.73,3.27428e+11,1.00843,0.897427,15,0.649659,1237,0.1,1
app_10,100.405,20540.7,7779.1,139.899,51.6799,1.05615e+11,1.01462,0.897427,151,2.03105,131,0.01,2
app_11,336.609,23671.2,7012.25,386.72,5.40655,1.88664e+11,1.11097,0.897427,1289,31.444,16,0.001,3
app_12,2085.17,24193.3,6780.7,1192.64,3.647,6.14086e+11,1.08184,0.897427,1939,153.521,10,0.001,3
app_13,586.769,21592.2,7822.3,94.6127,3.51188,5.64787e+10,1.01539,0.897427,2223,18.8262,9,0.001,3
app_14,15.6798,24039.7,5760.23,1202.13,18.2401,6.31724e+11,1.25157,0.897427,315,33.8033,58,0.001,3
app_15,900.16,23834.6,6271.7,1241.51,7.47873,6.44043e+11,1.15678,0.897427,843,92.0062,22,0.001,3
app_2,2.37232,19315.2,7716.7,215.094,965.852,1.74407e+11,1.0138,0.897427,8,0.180545,2331,0.1,1
app_3,3.2244,19691,7779.1,201.073,298.816,1.78866e+11,1.00528,0.897427,26,0.598216,737,0.1,1
app_4,2.12705,19325.5,7184.3,772.885,1438.91,6.57536e+11,1.02017,0.897427,5,0.45694,3468,0.1,1
app_5,2.08118,19471.8,7807.9,175.216,326.423,1.55065e+11,1.00465,0.897427,24,0.474206,794,0.1,1
app_6,11.794,21170.2,6777.8,917.92,187.689,7.06111e+11,1.06896,0.897427,36,3.75591,503,0.01,2
app_7,136.705,20502.9,7275.8,665.464,48.9788,5.1993e+11,1.0262,0.897427,148,10.6108,126,0.01,2
app_8,11.7672,21413.6,6754.6,888.306,211.138,6.76286e+11,1.07659,0.897427,32,3.20515,568,0.01,2
app_9,63.7075,20674.1,7363.1,527.958,51.8306,4.11414e+11,1.029,0.897427,142,7.91181,134,0.01,2
