app_id,start_app,end_app,effective_cpu,effective_io,effective_iter,total_bytes,stretch,utilization,Tcomp,Tio,iterations,priority,group_id
app_1,6.5698,19345.4,7306.5,659.686,733.737,5.8803e+11,1.01336,0.902036,10,0.801131,1767,0.1,1
app_10,97.0896,21025.8,7012.5,862.608,54.1038,6.79449e+11,1.04005,0.902036,131,12.5511,140,0.01,2
app_11,70.1002,22942.1,6579.7,1382.73,8.82444,5.73109e+11,1.11844,0.902036,730,63.6787,26,0.001,3
app_12,1071.9,22837,7346.8,468.031,6.17568,2.16454e+11,1.05775,0.902036,1198,30.922,17,0.001,3
app_13,690.026,22174,7292.1,619.377,5.17133,2.90277e+11,1.05508,0.902036,1426,58.0554,14,0.001,3
app_14,156.365,21373.1,7485.6,202.742,6.7468,1.08449e+11,1.05346,0.902036,1107,18.0749,18,0.001,3
app_15,2735.58,25215.9,7852.9,73.1384,2.77466,1.95674e+10,1.0162,0.902036,2844,9.78368,8,0.001,3
app_2,3.19688,19952.3,7609.4,369.979,281.606,3.36267e+11,1.00684,0.902036,27,1.19244,702,0.1,1
app_3,13.4554,22006.1,6685.23,822.01,166.037,6.34311e+11,1.09296,0.902036,40,3.81672,457,0.01,2
app_4,11.2844,19691.6,7619.2,354.97,364.054,3.26837e+11,1.00679,0.902036,21,0.897905,895,0.1,1
app_5,18.5698,19599.9,7806,168.086,259.271,1.47961e+11,1.00579,0.902036,30,0.57128,636,0.1,1
app_6,199.694,22634.1,6411,1044.06,22.1667,4.95005e+11,1.15841,0.902036,293,22.5002,64,0.001,3
app_7,37.967,20477.5,7361.5,572.187,25.0561,4.46815e+11,1.02455,0.902036,295,17.8726,64,0.01,2
app_8,56.868,21318.3,6685.94,951.83,130.63,7.61006e+11,1.07427,0.902036,51,5.80921,348,0.01,2
app_9,37.5691,20808.1,7189.9,591.739,62.6462,4.71066e+11,1.04425,0.902036,115,7.59784,163,0.01,2
