app_id,start_app,end_app,effective_cpu,effective_io,effective_iter,total_bytes,stretch,utilization,Tcomp,Tio,iterations,priority,group_id
app_1,7.96145,19694.7,7275.2,724.8,807.758,2.5863e+11,1.06188,0.879171,9,0.320087,1985,1,1
app_10,11.113,21814,6712,1288,515.3,5.10762e+11,1.10761,0.879171,13,0.989849,1406,1.00001,1.00001
app_11,45.9275,21919.7,7318.5,681.5,12.6046,2.87904e+11,1.05175,0.879171,579,23.992,34,1.00001,1.00001
app_12,1.91298,20354.7,7496.5,503.5,1069.84,1.68379e+11,1.04372,0.879171,7,0.157364,2718,1.00001,1.00001
app_13,901.235,23854.3,6470.06,1529.94,4.87451,7.09711e+11,1.11424,0.879171,1360,149.696,14,1.00001,1.00001
app_14,415.388,22284.9,7061.5,938.5,7.48941,4.80202e+11,1.06077,0.879171,975,60.0253,20,1.00001,1.00001
app_15,576.653,23296.1,6868.8,1131.2,7.05296,5.3837e+11,1.08003,0.879171,957,76.91,20,1.00002,1.00002
app_2,0.35237,21721.8,6243.5,1756.5,2082.02,6.84725e+11,1.1547,0.879171,3,0.328879,5661,1,1
app_3,9.57841,21477.3,6538.7,1461.3,342.72,5.79227e+11,1.12392,0.879171,19,1.68871,925,1,1
app_4,15.3314,20810.3,7381.6,618.4,370.789,2.25745e+11,1.05162,0.879171,20,0.608476,961,1,1
app_5,5.73877,20627.8,7594.2,405.8,1082.9,1.29467e+11,1.03578,0.879171,7,0.119544,2790,1.00001,1.00001
app_6,232.42,21230.7,7405.6,594.4,30.4108,2.21147e+11,1.04894,0.879171,240,7.37156,81,1.00001,1.00001
app_7,65.9623,21944.7,6822,1178,47.3931,4.99355e+11,1.09269,0.879171,145,10.6246,129,1.00001,1.00001
app_8,28.7431,20637.2,7452,548,174.404,2.03399e+11,1.04501,0.879171,43,1.16896,447,1.00001,1.00001
app_9,48.424,22073.1,6860.4,1139.6,48.8534,4.8378e+11,1.0893,0.879171,141,9.87307,133,1.00001,1.00001
