app_id,start_app,end_app,effective_cpu,effective_io,effective_iter,total_bytes,stretch,utilization,Tcomp,Tio,iterations,priority,group_id
app_1,0.314354,19984.8,7343.8,613.769,386.482,5.65312e+11,1.01149,0.8903,19,1.46075,967,0.1,1
app_10,14.3668,21439.7,7138.9,469.7,165.527,3.21093e+11,1.07239,0.8903,43,1.9343,445,0.01,2
app_11,76.9413,22607.5,7363.8,420.575,8.39502,1.69416e+11,1.06196,0.8903,887,18.8241,23,0.001,3
app_12,192.012,23170.3,6224.8,1081.17,8.63905,4.47052e+11,1.19907,0.8903,721,49.6725,26,0.001,3
app_13,2656.64,26269.8,7604,396,2.31628,1.53586e+10,1.04996,0.8903,3229,5.11955,7,0.0001,4
app_14,2045.87,26463.9,6583.5,1327.79,2.78067,5.55162e+11,1.12066,0.8903,2271,185.054,9,0.001,3
app_15,155.97,22588.6,7023,864.666,2.39188,3.73487e+11,1.08159,0.8903,2966,124.496,7,0.001,3
app_2,4.1033,19711.5,7571.7,150.759,1515.57,6.90674e+10,1.04702,0.8903,5,0.0455589,3727,0.1,1
app_3,5.41639,19308.3,7395.3,474.29,738.339,4.07387e+11,1.02529,0.8903,10,0.552015,1790,0.1,1
app_4,8.22803,19772.6,7536.8,342.531,685.971,2.92464e+11,1.02181,0.8903,11,0.426333,1693,0.1,1
app_5,6.81201,19979.3,7315.4,653.44,384.425,6.07488e+11,1.00973,0.8903,19,1.57789,961,0.1,1
app_6,5.93051,21496,6688.57,986.912,132.143,7.15019e+11,1.08056,0.8903,51,5.3929,352,0.01,2
app_7,86.2645,21023.6,7178.4,665.387,74.9238,4.87429e+11,1.04359,0.8903,95,6.49906,197,0.01,2
app_8,8.91963,21482.1,6884.39,736.96,180.659,5.20149e+11,1.08042,0.8903,38,2.88972,488,0.01,2
app_9,3.11674,20931.1,6983.6,888.302,60.0431,6.52868e+11,1.0476,0.8903,116,10.8811,158,0.01,2
