app_id,start_app,end_app,effective_cpu,effective_io,effective_iter,total_bytes,stretch,utilization,Tcomp,Tio,iterations,priority,group_id
app_1,6.5795,21442.8,6961.3,1038.7,771.104,3.9221e+11,1.08792,0.881835,9,0.508703,2074,1,1
app_10,56.7413,22460.6,6266.77,1733.23,40.3064,7.50326e+11,1.14007,0.881835,160,18.4176,112,1.00001,1.00001
app_11,851.644,23211.4,6854.7,1145.3,6.74245,4.64936e+11,1.09295,0.881835,1020,66.4194,19,1.00001,1.00001
app_12,1800.67,24030.6,7116,884,3.1346,4.77987e+11,1.05347,0.881835,2160,159.329,9,1.00001,1.00001
app_13,20.7782,22638.8,6196.4,1803.6,6.30606,7.92381e+11,1.14469,0.881835,1029,113.197,18,1.00001,1.00001
app_14,1013.84,21589.9,7840.65,159.355,6.28954,6.26544e+10,1.01224,0.881835,1275,10.1998,16,1.00001,1.00001
app_15,1281.78,24761,7340.6,659.4,3.31974,3.66785e+11,1.03797,0.881835,2070,122.262,10,1.00002,1.00002
app_2,0.571522,18853.9,7107.9,892.1,1415.69,3.18979e+11,1.07717,0.881835,5,0.225427,3354,1,1
app_3,7.17177,20525.7,7676,324,363.226,1.12002e+11,1.02722,0.881835,21,0.308545,933,1,1
app_4,4.92594,18798.1,7816.8,183.2,1119.82,5.02761e+10,1.0169,0.881835,7,0.0448894,2627,1,1
app_5,3.23911,21054.5,6553.29,1446.71,821.284,5.76953e+11,1.12198,0.881835,8,0.702166,2162,1.00001,1.00001
app_6,17.256,22488.3,6401.2,1598.8,53.7823,6.63952e+11,1.13232,0.881835,119,12.2954,152,1.00001,1.00001
app_7,26.7289,19815.1,7928.5,71.5,128.375,2.32971e+10,1.00606,0.881835,62,0.182009,318,1.00001,1.00001
app_8,37.177,21273.5,7088.2,911.8,107.492,3.60179e+11,1.07406,0.881835,66,3.33499,286,1.00001,1.00001
app_9,47.8827,21889.2,6671.9,1328.1,122.872,5.44155e+11,1.10864,0.881835,54,4.42402,337,1.00001,1.00001
