app_id,start_app,end_app,effective_cpu,effective_io,effective_iter,total_bytes,stretch,utilization,Tcomp,Tio,iterations,priority,group_id
app_1,0.984968,20527.4,6783.8,950.777,2260.11,7.61462e+11,1.06027,0.88001,3,0.33693,5823,0.1,1
app_10,128.779,21058.6,6892.2,1022.23,38.5341,6.85756e+11,1.05569,0.88001,182,17.5835,100,0.01,2
app_11,390.888,24042.6,6027.2,1376.49,14.1965,5.79767e+11,1.21084,0.88001,414,41.4119,44,0.001,3
app_12,1881.08,25090.5,7266.3,556.619,2.67503,2.3667e+11,1.06624,0.88001,2765,78.8901,8,0.001,3
app_13,699.45,23039.9,6784.42,1200.65,3.50091,5.33977e+11,1.09314,0.88001,1917,145.643,10,0.001,3
app_14,317.98,24072.8,6391.56,482.478,19.447,2.05468e+11,1.21267,0.88001,332,10.8141,59,0.001,3
app_15,481.977,23051.2,7327.05,209.42,8.28585,9.02121e+10,1.07856,0.88001,897,11.2765,23,0.001,3
app_2,5.29348,18900.8,7205.5,619.411,1205.06,4.91409e+11,1.03938,0.88001,6,0.407808,2844,0.1,1
app_3,9.5198,20098.8,7907.2,32.6312,343.948,1.03494e+10,1.01041,0.88001,23,0.0300853,862,0.1,1
app_4,12.0274,19897.2,7142.94,829.09,474.588,7.32901e+11,1.01576,0.88001,15,1.54415,1181,0.1,1
app_5,1.20365,19336.4,7272.8,727.2,3635.25,4.01266e+11,1.04247,0.88001,2,0.110359,8790,1,0
app_6,8.38152,22127.7,6736.8,609.29,152.78,3.99081e+11,1.12109,0.88001,44,2.62553,428,0.01,2
app_7,118.154,21316.1,6631.3,1213.71,60.1356,8.08214e+11,1.07534,0.88001,111,13.4702,160,0.01,2
app_8,84.2517,20812,7594.93,109.679,41.108,6.84213e+10,1.04393,0.88001,183,1.66786,108,0.01,2
app_9,121.342,20709.2,7637.2,117.14,49.8851,7.5047e+10,1.03731,0.88001,153,1.50094,129,0.01,2
