app_id,start_app,end_app,effective_cpu,effective_io,effective_iter,total_bytes,stretch,utilization,Tcomp,Tio,iterations,priority,group_id
app_1,6.33628,19395,7645.8,225.486,450.012,1.93904e+11,1.02045,0.898159,17,0.430897,1090,0.1,1
app_10,1.7275,19399.8,7436,455.087,571.187,4.00827e+11,1.02082,0.898159,13,0.701974,1386,0.1,1
app_11,17.3549,23162,6490.3,1373.68,5.41668,6.64393e+11,1.11815,0.898159,1149,132.879,16,0.001,3
app_12,206.301,22683.6,6338.99,1425.56,10.9534,6.21661e+11,1.14932,0.898159,588,57.1617,31,0.001,3
app_13,654.627,22714.4,7870.5,33.448,6.7402,1.11703e+10,1.01501,0.898159,1144,1.86172,18,0.001,3
app_14,1073.01,22534.1,7182.3,384.122,6.91905,2.05268e+11,1.0829,0.898159,1064,29.324,19,0.001,3
app_15,905.615,23657.6,7113.2,563.341,3.78744,2.43915e+11,1.08738,0.898159,1831,60.9787,11,0.001,3
app_2,11.2427,20229.3,7391.8,509.714,494.362,4.53315e+11,1.01974,0.898159,15,0.917641,1244,0.1,1
app_3,10.0403,20114.7,7107,870.573,297.282,8.14185e+11,1.00995,0.898159,24,2.74136,748,0.1,1
app_4,0.63401,18969.8,7636,164.884,848.165,1.03651e+11,1.03364,0.898159,9,0.12223,2018,0.1,1
app_5,2.94363,19148.7,7636.9,176.241,849.98,1.46322e+11,1.02785,0.898159,9,0.172143,2032,0.1,1
app_6,9.54017,20419.5,7237.05,727.678,37.6318,5.1386e+11,1.03214,0.898159,194,13.6632,96,0.01,2
app_7,36.0021,21406.9,6667.9,954.522,169.592,6.64098e+11,1.09111,0.898159,39,3.92958,462,0.01,2
app_8,51.2314,20768.9,7137.4,723.648,59.0449,5.07666e+11,1.04643,0.898159,123,8.60451,152,0.01,2
app_9,45.1658,21545.3,6887.9,764.901,151.209,4.81552e+11,1.08556,0.898159,46,3.18909,406,0.01,2
