app_id,start_app,end_app,effective_cpu,effective_io,effective_iter,total_bytes,stretch,utilization,Tcomp,Tio,iterations,priority,group_id
app_1,1.47808,22521.9,6375,1625,1274.34,6.24586e+11,1.14292,0.868354,5,0.490256,3612,1,1
app_10,175.777,22250.5,6733.9,1266.1,25.8653,4.63663e+11,1.11149,0.868354,265,17.8332,71,1.00001,1.00001
app_11,438.913,23328.2,6607.47,1392.53,7.75172,3.90982e+11,1.14311,0.868354,808,53.599,24,1.00001,1.00001
app_12,444.383,23292.1,7034.4,965.6,3.10049,3.44945e+11,1.08411,0.868354,2312,114.982,9,1.00001,1.00001
app_13,346.713,23415.3,6717.1,1282.9,4.83621,4.8582e+11,1.11066,0.868354,1404,97.164,14,1.00001,1.00001
app_14,413.238,21401.5,7726,274,12.1921,1.04324e+11,1.02167,0.868354,635,8.69369,32,1.00001,1.00001
app_15,402.617,22998.9,6436.76,1563.24,16.3142,5.33591e+11,1.14772,0.868354,393,33.287,47,1.00002,1.00002
app_2,1.64373,21127.8,6658.31,1341.69,512.483,5.0701e+11,1.11649,0.868354,13,0.989293,1357,1,1
app_3,21.2197,22169.2,6557.5,1442.5,285.25,5.46625e+11,1.12611,0.868354,23,1.91128,795,1,1
app_4,1.92434,19632.2,7831.13,168.874,653.516,4.85558e+10,1.01527,0.868354,12,0.0742801,1603,1,1
app_5,13.7769,20955.5,6911.33,1088.67,492.874,4.07528e+11,1.09307,0.868354,14,0.827376,1290,1.00001,1.00001
app_6,14.6129,20194.2,7891.5,108.5,37.5613,3.53877e+10,1.00922,0.868354,210,0.931257,95,1.00001,1.00001
app_7,92.7078,22600.4,6427.6,1572.4,42.2642,6.19665e+11,1.13519,0.868354,153,14.7539,119,1.00001,1.00001
app_8,11.4568,21987.4,6894,1106,70.299,4.20865e+11,1.09366,0.868354,97,6.01236,194,1.00001,1.00001
app_9,18.6221,21198.7,7400.53,599.465,43.4324,2.30969e+11,1.04829,0.868354,169,5.34962,115,1.00001,1.00001
