app_id,start_app,end_app,effective_cpu,effective_io,effective_iter,total_bytes,stretch,utilization,Tcomp,Tio,iterations,priority,group_id
app_1,4.4022,19967.3,7260.52,739.478,604.456,2.58841e+11,1.06392,0.870294,12,0.428403,1509,1,1
app_10,44.2707,21706.4,6912.15,1087.85,107.654,4.06723e+11,1.09306,0.870294,64,3.79411,294,1.00001,1.00001
app_11,16.0583,22142.7,6611.2,1388.8,69.5643,5.36969e+11,1.11917,0.870294,95,7.78215,194,1.00001,1.00001
app_12,279.48,22543.2,6660.99,1339.01,8.18886,5.36058e+11,1.11157,0.870294,828,60.3962,23,1.00001,1.00001
app_13,398.638,22082.3,6872.9,1127.1,4.78261,4.27813e+11,1.09578,0.870294,1456,85.5626,13,1.00001,1.00001
app_14,778.717,21164.4,7944.3,55.7,8.79664,2.12934e+10,1.00432,0.870294,911,2.36594,22,1.00001,1.00001
app_15,508.899,23658.6,6519.85,1480.15,8.55791,6.06745e+11,1.12256,0.870294,762,69.354,25,1.00002,1.00002
app_2,5.37556,21155.8,6752.8,1247.2,966.357,4.64232e+11,1.10849,0.870294,7,0.480075,2560,1,1
app_3,4.46294,19299.9,7707.8,292.2,770.252,7.94491e+10,1.02732,0.870294,10,0.103181,1860,1,1
app_4,6.11369,21172.9,6838.8,1161.2,568.337,4.33207e+11,1.10011,0.870294,12,0.762688,1513,1,1
app_5,19.9019,22071.9,6352.3,1647.7,275.81,6.48629e+11,1.14271,0.870294,23,2.35011,766,1.00001,1.00001
app_6,96.6625,22624.3,6295.71,1704.29,51.5284,6.65061e+11,1.1493,0.870294,123,12.8329,147,1.00001,1.00001
app_7,143.571,20262.8,7863.2,136.8,37.593,5.03353e+10,1.01093,0.870294,208,1.36041,96,1.00001,1.00001
app_8,39.0068,21963.4,6818.2,1181.8,61.1215,4.28856e+11,1.1039,0.870294,111,7.00251,169,1.00001,1.00001
app_9,17.5041,21534.6,7024.6,975.4,151.879,3.63807e+11,1.08278,0.870294,46,2.39346,412,1.00001,1.00001
