app_id,start_app,end_app,effective_cpu,effective_io,effective_iter,total_bytes,stretch,utilization,Tcomp,Tio,iterations,priority,group_id
app_1,0.799824,19637.3,7687.8,76.5248,852.513,1.57566e+10,1.03848,0.982705,9,0.018472,2095,1,1
app_10,5.5453,19066.8,7713.6,78.5375,766.95,4.18493e+10,1.03153,0.982705,10,0.0545623,1836,1,1
app_11,0.912092,18695.6,7639.8,86.3418,851.208,4.47212e+10,1.04105,0.982705,9,0.0525514,1991,1,1
app_12,4.52415,20163.1,7667.9,80.4958,845.206,3.04155e+10,1.03919,0.982705,9,0.0359947,2141,1,1
app_13,9.64261,19934.1,7703.8,63.6359,765.269,1.16873e+09,1.03829,0.982705,10,0.00152776,1914,1,1
app_14,4.33413,19723.8,7680.8,76.6197,774.074,3.79938e+10,1.03643,0.982705,10,0.0490875,1903,1,1
app_15,5.09466,19421.6,7706.6,71.8754,775.027,2.38448e+10,1.03487,0.982705,10,0.0307674,1870,1,1
app_16,8.89356,19702.5,7670.4,77.1393,850.218,1.92878e+10,1.04035,0.982705,9,0.0226648,2100,1,1
app_17,3.17296,19552.9,7646.12,87.2712,849.825,4.78578e+10,1.03977,0.982705,9,0.0563206,2089,1,1
app_18,8.74051,19099.5,7600,92.111,944.512,3.95303e+10,1.04718,0.982705,8,0.041831,2269,1,1
app_19,1.38991,20164,7683.6,66.2537,695.149,2.47888e+10,1.03783,0.982705,11,0.0356161,1765,1,1
app_2,6.32404,19267.4,7637.5,84.0193,955.594,1.3964e+10,1.04555,0.982705,8,0.0146067,2301,1,1
app_20,0.634897,20591.3,7655.2,76.3626,857.051,1.8277e+10,1.04255,0.982705,9,0.0213268,2199,1,1
app_21,78.2915,20349.4,7959.8,23.65,75.7549,2.23218e+10,1.00224,0.982705,104,0.297624,192,1,1
app_22,14.4533,19945.2,7975.3,7.91154,75.2426,4.5173e+09,1.00253,0.982705,107,0.0602306,186,1,1
app_23,80.7954,19861.9,7949.6,19.3859,93.3396,1.65166e+10,1.00425,0.982705,86,0.175709,231,1,1
app_24,20.8239,20103.2,7944.7,30.5845,77.5895,2.60645e+10,1.00367,0.982705,103,0.3385,193,1,1
app_25,3.40626,20177.9,7961.8,22.0968,75.0749,1.68041e+10,1.00268,0.982705,106,0.224055,188,1,1
app_26,4.99992,20150.5,7969.8,7.03576,64.8848,4.30896e+09,1.00325,0.982705,119,0.0662917,168,1,1
app_27,72.097,19886.8,7928.2,43.6443,88.9774,3.79416e+10,1.00425,0.982705,90,0.426311,221,1,1
app_28,7.89174,19947.5,7974.8,9.1933,95.1218,4.12291e+09,1.00264,0.982705,84,0.0433991,236,1,1
app_29,9.40174,20070.8,7921,48.9266,81.5208,4.59565e+10,1.00415,0.982705,96,0.567364,207,1,1
app_3,7.87945,19991.9,7636.1,91.4487,955.828,3.73399e+10,1.04256,0.982705,8,0.0390994,2384,1,1
app_30,28.352,19873.9,7972,9.08454,99.962,2.97863e+09,1.00314,0.982705,80,0.0297863,249,1,1
app_31,108.725,20335.5,7977.9,7.30243,70.0497,4.72953e+09,1.00218,0.982705,112,0.0675647,178,1,1
app_32,28.8074,19993.6,7965.2,18.157,84.4615,1.59296e+10,1.00236,0.982705,94,0.187407,211,1,1
app_33,34.1098,19876.4,7943.9,29.2871,73.5383,2.46259e+10,1.00395,0.982705,110,0.332782,180,1,1
app_34,38.178,19938.3,7946.6,23.9476,76.7639,2.07091e+10,1.0041,0.982705,104,0.26895,191,1,1
app_35,52.3989,20368.6,7947.3,30.1654,73.2533,2.75748e+10,1.00315,0.982705,109,0.377737,183,1,1
app_36,25.8418,20207.4,7957.1,12.7605,69.1069,7.14758e+09,1.00449,0.982705,115,0.103588,174,1,1
app_37,86.9924,20088.9,7944.1,31.1716,78.3321,2.66487e+10,1.00367,0.982705,101,0.34165,198,1,1
app_38,11.2496,20153.6,7949.3,14.8273,77.689,1.00714e+10,1.0051,0.982705,101,0.129121,197,1,1
app_39,13.6476,19656.4,7937.2,45.9868,75.8323,4.33522e+10,1.00244,0.982705,106,0.570423,187,1,1
app_4,1.50385,19038.8,7680.7,83.8656,850.231,4.03506e+10,1.03613,0.982705,9,0.0474713,2032,1,1
app_40,89.4048,20032.9,7925.6,49.1943,81.0873,4.60816e+10,1.00355,0.982705,98,0.568909,203,1,1
app_41,256.204,20114.9,7971.4,23.2256,10.1667,2.25606e+10,1.00076,0.982705,740,2.05097,27,1,1
app_42,475.54,20714.7,7964.9,28.7244,9.58445,2.82899e+10,1.00085,0.982705,845,3.14333,24,1,1
app_43,341.11,21344.8,7950.2,49.708,7.44634,4.93029e+10,1.00006,0.982705,1036,7.04328,20,1,1
app_44,674.286,20973.8,7954,45.4324,7.3601,4.48168e+10,1.00015,0.982705,1069,6.4024,19,1,1
app_45,903.128,21930.4,7960.6,36.7137,7.97415,3.62059e+10,1.0004,0.982705,985,4.52574,21,1,1
app_46,439.671,20957.1,7988.6,9.59039,7.65394,8.99921e+09,1.0003,0.982705,977,1.1249,21,1,1
app_47,858.385,21234.2,7964.8,32.2781,8.38793,3.18197e+10,1.00042,0.982705,898,3.97746,23,1,1
app_48,261.087,21199.3,7965.6,34.0387,8.7815,3.34441e+10,1.00012,0.982705,890,3.71602,23,1,1
app_49,218.074,21063.1,7967.1,32.4193,8.89588,3.21925e+10,1.00009,0.982705,892,3.57695,23,1,1
app_5,2.85624,19726.9,7715.4,68.145,701.607,2.75665e+10,1.0332,0.982705,11,0.0393246,1730,1,1
app_50,90.6193,20646.8,7943.9,53.2884,8.15111,5.28192e+10,1.00041,0.982705,972,6.6024,21,1,1
app_51,536.74,21873.1,7977.3,22.4647,8.50795,2.21122e+10,1.00007,0.982705,903,2.76403,23,1,1
app_52,251.147,21358.9,7955.8,44.1624,8.38671,4.40066e+10,1.00002,0.982705,944,4.88962,22,1,1
app_53,481.564,20818.9,7988.6,3.75516,11.2979,3.14057e+09,1.00103,0.982705,698,0.261715,29,1,1
app_54,618.244,21348,7965.8,29.6421,9.2038,2.89244e+10,1.00066,0.982705,939,3.21382,22,1,1
app_55,161.855,20077.2,7960.7,38.5544,7.8418,3.82155e+10,1.00014,0.982705,1117,5.45936,18,1,1
app_56,641.246,21097.9,7975.2,24.2549,8.43212,2.39626e+10,1.0001,0.982705,941,2.66252,22,1,1
app_57,953.73,21166.4,7932.1,67.1404,9.12754,6.67528e+10,1.00014,0.982705,988,6.67528,21,1,1
app_58,836.757,21954.6,7962.6,37.127,7.41181,3.70588e+10,1.00004,0.982705,1068,5.29411,19,1,1
app_59,261.525,21262.4,7969.2,19.5577,8.57159,1.91539e+10,1.00146,0.982705,878,2.12821,23,1,1
app_6,9.70707,19887.5,7689.2,65.4268,764.715,9.23714e+09,1.03917,0.982705,10,0.0120905,1911,1,1
app_60,229.444,20742.5,7986.4,11.9871,7.69854,1.15048e+10,1.00026,0.982705,1008,1.4381,20,1,1
app_7,4.91117,20311.6,7632.2,97.4086,964.151,5.24556e+10,1.04104,0.982705,8,0.0544146,2439,1,1
app_8,3.42938,20027.3,7696.5,75.1571,768.231,3.2458e+10,1.03507,0.982705,10,0.0422081,1928,1,1
app_9,2.19206,20185.4,7599.2,93.7909,1089.15,8.50319e+09,1.05157,0.982705,7,0.00780825,2765,1,1
