app_id,start_app,end_app,effective_cpu,effective_io,effective_iter,total_bytes,stretch,utilization,Tcomp,Tio,iterations,priority,group_id
app_1,1.05682,19414.7,7679.2,84.537,855.852,4.07622e+10,1.03627,0.984762,9,0.0476194,2072,1,1
app_10,4.84744,18683,7718.4,89.8075,857.012,5.43645e+10,1.02923,0.984762,9,0.0634358,2001,1,1
app_11,4.71383,20682.3,7668.6,88.2652,960.052,2.32949e+10,1.04006,0.984762,8,0.0242656,2471,1,1
app_12,0.253607,19698.1,7702,76.0236,856.512,1.36668e+10,1.03685,0.984762,9,0.0159472,2109,1,1
app_13,7.03356,18910.8,7739.6,72.9251,774.036,2.46754e+10,1.03036,0.984762,10,0.0318804,1829,1,1
app_14,5.9101,20493.6,7749.2,66.1359,701.193,2.17026e+10,1.02948,0.984762,11,0.0309154,1804,1,1
app_15,2.3761,18873.4,7696.7,74.6759,857.289,1.02236e+10,1.03803,0.984762,9,0.0119157,2025,1,1
app_16,10.3311,20469.5,7759.7,63.9572,703.49,1.32183e+10,1.02921,0.984762,11,0.0188027,1799,1,1
app_17,0.680026,20418.6,7671.9,90.3856,948.255,3.3425e+10,1.03824,0.984762,8,0.0352585,2430,1,1
app_18,5.94374,19743.1,7682.2,88.4556,963.742,2.61392e+10,1.03784,0.984762,8,0.0271154,2374,1,1
app_19,2.55785,18756.2,7740.7,69.3407,776.356,1.57689e+10,1.0314,0.984762,10,0.0202946,1817,1,1
app_2,10.1056,19496.9,7731.3,66.8369,774.267,8.79777e+09,1.03358,0.984762,10,0.0113666,1882,1,1
app_20,2.86528,18608.6,7675.9,93.5647,953.12,4.13149e+10,1.03664,0.984762,8,0.0433525,2229,1,1
app_21,68.082,20261.4,7932.2,57.4288,72.2719,5.13499e+10,1.00206,0.984762,109,0.703423,182,1,1
app_22,56.6144,20128.1,7947.5,18.6655,90.5639,1.43343e+10,1.00479,0.984762,88,0.15752,227,1,1
app_23,14.7461,19768.4,7945.5,36.3052,70.317,3.42491e+10,1.00254,0.984762,116,0.482382,172,1,1
app_24,81.5348,20280.1,7921.8,56.3322,70.0541,5.33686e+10,1.00311,0.984762,116,0.762408,172,1,1
app_25,9.7341,20128.5,7965.2,8.65423,82.1566,5.00439e+09,1.00374,0.984762,98,0.0602938,203,1,1
app_26,62.622,20267.6,7969.5,15.5432,74.6627,1.31879e+10,1.00217,0.984762,106,0.175839,188,1,1
app_27,34.3246,19853.8,7932.7,37.6932,96.1259,3.13497e+10,1.00451,0.984762,83,0.326559,238,1,1
app_28,46.8468,20054,7950.2,20.5459,98.7013,1.76457e+10,1.00404,0.984762,80,0.180058,248,1,1
app_29,49.9835,19878.7,7933.5,55.8385,70.5292,5.14111e+10,1.00189,0.984762,113,0.734445,176,1,1
app_3,1.02779,19516,7722.6,71.3345,851.397,3.32179e+09,1.03548,0.984762,9,0.0039034,2087,1,1
app_30,18.1413,19995.9,7958.1,30.64,76.6446,2.75497e+10,1.0018,0.984762,104,0.362497,191,1,1
app_31,76.7103,20139.1,7946,41.3266,82.4627,3.73526e+10,1.00209,0.984762,97,0.455519,206,1,1
app_32,29.9069,20469,7970.6,9.24548,79.0396,7.69913e+09,1.00272,0.984762,100,0.0974574,200,1,1
app_33,61.7594,19791.5,7945.5,34.8064,90.2399,2.71102e+10,1.00344,0.984762,90,0.301225,220,1,1
app_34,74.7929,20187.9,7946,26.7023,69.162,2.19033e+10,1.00403,0.984762,116,0.317439,172,1,1
app_35,19.142,20389.7,7946.4,37.8136,77.2517,3.23366e+10,1.00267,0.984762,101,0.419956,197,1,1
app_36,81.5161,20328.2,7953.6,13.4826,72.2901,8.09426e+09,1.00481,0.984762,108,0.11088,184,1,1
app_37,83.1544,20408,7968.1,16.5861,82.5191,1.23538e+10,1.00245,0.984762,96,0.14884,208,1,1
app_38,12.0563,20168.4,7971,9.9733,93.4229,6.80798e+09,1.00278,0.984762,86,0.0732041,232,1,1
app_39,8.18009,20079.6,7927.7,52.039,76.0714,4.6383e+10,1.00325,0.984762,103,0.610303,192,1,1
app_4,0.526904,19521.3,7700.2,86.4191,859.647,4.1961e+10,1.0333,0.984762,9,0.0487919,2093,1,1
app_40,28.0559,20122.9,7929.9,46.958,76.5821,4.39686e+10,1.00328,0.984762,103,0.57102,192,1,1
app_41,108.846,21040.5,7967.9,31.4708,9.648,3.1017e+10,1.00014,0.984762,819,3.44634,25,1,1
app_42,466.975,21337.2,7952.3,46.8766,7.24879,4.64856e+10,1.00015,0.984762,1057,6.6408,19,1,1
app_43,1046.32,22536.3,7958.7,36.3625,7.02937,3.60373e+10,1.00066,0.984762,1093,5.14818,19,1,1
app_44,519.794,21245.6,7969,19.4952,7.28869,1.91861e+10,1.00148,0.984762,1042,2.74087,20,1,1
app_45,538.099,21653.7,7997.4,1.33864,7.42068,7.86734e+08,1.00023,0.984762,1039,0.112391,20,1,1
app_46,430.192,21561.4,7945,54.914,8.73776,5.42888e+10,1.00009,0.984762,927,6.03209,22,1,1
app_47,102.293,20431.1,7966.3,33.3829,8.93337,3.29321e+10,1.0001,0.984762,926,3.65912,22,1,1
app_48,727.825,20343.1,7977.9,16.1232,7.4228,1.59591e+10,1.00077,0.984762,1120,1.99489,18,1,1
app_49,248.034,21417.5,7985.9,14.0125,6.84216,1.37101e+10,1.00005,0.984762,1152,1.95859,18,1,1
app_5,8.52492,19179.8,7738,81.388,774.829,5.04897e+10,1.02716,0.984762,10,0.065148,1856,1,1
app_50,853.99,20481.6,7980,19.9925,8.26547,1.98647e+10,1.00002,0.984762,957,2.48308,21,1,1
app_51,712.214,21425.1,7960.7,39.1401,8.19696,3.86944e+10,1.00008,0.984762,1016,4.83679,20,1,1
app_52,306.662,20091.2,7971.2,25.5741,7.94275,2.50681e+10,1.00047,0.984762,1010,3.13351,20,1,1
app_53,373.306,21023.6,7943.7,44.7428,7.7935,4.41631e+10,1.00152,0.984762,1003,5.52039,20,1,1
app_54,624.775,21889.8,7978.9,21.0109,7.21955,2.09082e+10,1.00002,0.984762,1004,2.98689,20,1,1
app_55,835.853,21388.2,7948.5,49.4461,9.35084,4.86701e+10,1.00035,0.984762,843,5.40779,24,1,1
app_56,473.998,21492.3,7950.2,49.5906,8.12269,4.90365e+10,1.0001,0.984762,983,6.12956,21,1,1
app_57,592.921,20649.7,7994.5,1.39732,7.57636,1.09358e+09,1.00055,0.984762,1053,0.156226,19,1,1
app_58,621.257,22051.6,7981.3,17.0594,8.53244,1.67291e+10,1.00025,0.984762,944,2.09114,22,1,1
app_59,377.663,21534.2,7985.1,14.0768,8.69214,1.35701e+10,1.00017,0.984762,945,1.50778,22,1,1
app_6,4.01708,20691.9,7738.9,65.8138,767.163,2.91909e+09,1.03335,0.984762,10,0.00380585,1999,1,1
app_60,39.6262,20545.3,7976.8,23.1037,6.92338,2.30046e+10,1.00002,0.984762,1150,3.28638,18,1,1
app_7,7.29827,19725.2,7772.3,70.3761,645.212,4.79809e+10,1.02298,0.984762,12,0.0743889,1588,1,1
app_8,10.4037,19530.7,7732.7,73.1447,770.558,2.51858e+10,1.03121,0.984762,10,0.0326664,1885,1,1
app_9,8.53401,19517.3,7713.3,76.2134,861.989,1.4156e+10,1.03527,0.984762,9,0.0164222,2096,1,1
