app_id,start_app,end_app,effective_cpu,effective_io,effective_iter,total_bytes,stretch,utilization,Tcomp,Tio,iterations,priority,group_id
app_1,5.25245,19685.8,7911.53,88.4674,884.733,3.8536e+09,1.01069,0.993213,9,0.00435595,2169,1,1
app_10,10.2879,19177.2,7920.8,79.2,791.969,3.42809e+08,1.00996,0.993213,10,0.00043284,1899,1.00001,1.00001
app_11,2.73193,18030.2,7883.7,116.3,984.214,5.08459e+10,1.00825,0.993213,8,0.0516726,2223,1.00001,1.00001
app_12,6.61382,18987.8,7920.7,79.3,792.843,1.45702e+10,1.00816,0.993213,10,0.0183736,1879,1.00001,1.00001
app_13,1.18571,18949.1,7912,88,878.128,2.06155e+10,1.00849,0.993213,9,0.0234801,2082,1.00001,1.00001
app_14,4.63813,18904.9,7920.7,79.3,792.868,1.36159e+10,1.00828,0.993213,10,0.0171701,1873,1.00001,1.00001
app_15,7.64117,19132.9,7928.3,71.7,717.697,1.12653e+10,1.00761,0.993213,11,0.0157117,1721,1.00002,1.00002
app_16,6.74765,19056.2,7920.9,79.1,791.612,1.19747e+10,1.00846,0.993213,10,0.0151387,1888,1.00002,1.00002
app_17,2.69455,19347.3,7928.1,71.9,718.724,1.62731e+10,1.007,0.993213,11,0.022633,1737,1.00002,1.00002
app_18,7.62713,19536,7912,88,721.574,4.88435e+10,1.00492,0.993213,11,0.0676502,1761,1.00002,1.00002
app_19,9.23659,18524.8,7895.1,104.9,877.001,5.57321e+10,1.00618,0.993213,9,0.0635485,2029,1.00002,1.00002
app_2,4.59674,18701.7,7911.8,88.2,881.936,2.01124e+09,1.01089,0.993213,9,0.00228032,2062,1,1
app_20,0.695589,19904.8,7925.2,74.8,725.903,2.78313e+10,1.00591,0.993213,11,0.0383351,1798,1.00002,1.00002
app_21,93.3901,20255.5,7982.8,17.2,79.3862,8.24037e+09,1.00112,0.993213,100,0.103005,200,1.00002,1.00002
app_22,5.93327,19978,7967.1,32.9,88.0438,2.63142e+10,1.00082,0.993213,92,0.299025,217,1.00002,1.00002
app_23,2.03553,19702.2,7940.4,59.6,73.8177,4.54589e+10,1.00177,0.993213,109,0.61431,181,1.00002,1.00002
app_24,80.7832,20047.5,7934.8,65.2,73.6282,4.89016e+10,1.00204,0.993213,107,0.669885,185,1.00002,1.00002
app_25,5.08485,19897,7955,45,89.4092,3.1458e+10,1.0017,0.993213,90,0.353461,220,1.00003,1.00003
app_26,49.6049,19928.8,7930.1,69.9,82.5844,5.4975e+10,1.00187,0.993213,99,0.66235,201,1.00003,1.00003
app_27,87.111,20154.8,7971.7,28.3,85.1314,1.80033e+10,1.00129,0.993213,95,0.211803,209,1.00003,1.00003
app_28,77.4256,19831.8,7931.6,68.4,84.7031,4.90024e+10,1.00243,0.993213,94,0.576499,210,1.00003,1.00003
app_29,56.3044,19981.7,7992,8,67.473,3.55585e+09,1.00056,0.993213,118,0.0530723,169,1.00003,1.00003
app_3,8.94912,19349.3,7927.8,72.2,722.25,9.9611e+09,1.00784,0.993213,11,0.0137965,1746,1,1
app_30,54.7451,19848.2,7959.6,40.4,83.9686,2.98886e+10,1.00132,0.993213,96,0.355817,207,1.00003,1.00003
app_31,76.4607,19651.1,7953.7,46.3,89.3677,3.18811e+10,1.00181,0.993213,91,0.358214,218,1.00003,1.00003
app_32,102.497,20021.7,7989.3,10.7,76.4558,6.71648e+09,1.0005,0.993213,105,0.087227,189,1.00003,1.00003
app_33,56.3565,20057,7943.7,56.3,90.962,4.05331e+10,1.00197,0.993213,88,0.445419,225,1.00003,1.00003
app_34,74.0158,20049.5,7928.7,71.3,72.6216,5.356e+10,1.00222,0.993213,109,0.743889,183,1.00003,1.00003
app_35,45.2731,20096.4,7943.1,56.9,62.8895,4.39309e+10,1.00162,0.993213,125,0.708562,158,1.00004,1.00004
app_36,46.9939,20070.6,7975,25,74.0696,1.58987e+10,1.00114,0.993213,108,0.214847,184,1.00004,1.00004
app_37,62.8225,20090.9,7983.1,16.9,70.8443,1.0024e+10,1.00086,0.993213,113,0.143199,177,1.00004,1.00004
app_38,72.0835,20019.2,7933.9,66.1,66.4884,4.91412e+10,1.00212,0.993213,117,0.73345,170,1.00004,1.00004
app_39,11.3657,20076.4,7963.3,36.7,78.2623,2.63792e+10,1.00129,0.993213,100,0.338195,200,1.00004,1.00004
app_4,1.28101,19370.7,7912.6,87.4,874.365,1.49878e+10,1.00913,0.993213,9,0.0171486,2121,1,1
app_40,33.7502,20097,7945.9,54.1,85.8009,4.17619e+10,1.00154,0.993213,93,0.485603,214,1.00004,1.00004
app_41,757.2,21312.2,7934.8,65.2,7.9664,5.2136e+10,1.00164,0.993213,1033,6.517,20,1.00004,1.00004
app_42,582.23,20967.8,7945,55,7.4281,4.34757e+10,1.00144,0.993213,1106,5.43447,18,1.00004,1.00004
app_43,603.51,21584.8,7992,8,7.12131,5.54312e+09,1.00031,0.993213,1062,0.791874,19,1.00004,1.00004
app_44,902.311,20999,7991.6,8.4,8.20515,6.01868e+09,1.0003,0.993213,960,0.752335,21,1.00004,1.00004
app_45,203.239,20062.5,7957.2,42.8,8.00184,3.57344e+10,1.00088,0.993213,1032,4.4668,20,1.00004,1.00004
app_46,837.008,19767.9,7993.9,6.1,7.55466,2.57926e+09,1.00044,0.993213,1068,0.368465,19,1.00005,1.00005
app_47,177.523,20926.2,7998.4,1.6,7.97429,9.8177e+08,1.00008,0.993213,986,0.122721,21,1.00005,1.00005
app_48,474.692,21724.5,7974.1,25.9,8.04688,2.33879e+10,1.00031,0.993213,938,2.59866,22,1.00005,1.00005
app_49,857.07,21302.1,7977.6,22.4,8.69044,1.65218e+10,1.00074,0.993213,947,1.83576,22,1.00005,1.00005
app_5,10.0859,18788,7905.9,94.1,783.784,4.7593e+10,1.00585,0.993213,10,0.0607053,1854,1.00001,1.00001
app_50,182.408,20291.6,7975.7,24.3,9.2326,1.93835e+10,1.00061,0.993213,842,1.93835,24,1.00005,1.00005
app_51,234.7,20414.2,7925.1,74.9,7.65376,5.81545e+10,1.0021,0.993213,1068,7.26931,19,1.00005,1.00005
app_52,322.44,21429,7961.1,38.9,8.6739,3.18891e+10,1.00088,0.993213,886,3.98614,23,1.00005,1.00005
app_53,344.762,21074.6,7960.2,39.8,8.56364,3.28586e+10,1.00087,0.993213,945,3.65095,22,1.00005,1.00005
app_54,360.116,21201.6,7980.6,19.4,7.38853,1.53138e+10,1.00051,0.993213,1038,2.18768,20,1.00005,1.00005
app_55,120.641,20783.4,7993.5,6.5,7.351,4.43717e+09,1.00026,0.993213,1029,0.554646,20,1.00005,1.00005
app_56,501.722,21656.8,7945.2,54.8,8.16589,3.76172e+10,1.00215,0.993213,1041,4.70216,20,1.00006,1.00006
app_57,7.73596,21226.8,7957.2,42.8,9.40597,2.80939e+10,1.00184,0.993213,795,2.80939,26,1.00006,1.00006
app_58,395.787,20791.1,7940.3,59.7,6.83274,4.9945e+10,1.00122,0.993213,1191,7.135,17,1.00006,1.00006
app_59,761.455,22628.1,7984.9,15.1,7.62323,1.03308e+10,1.0006,0.993213,1050,1.29135,20,1.00006,1.00006
app_6,0.696525,19479.6,7923.8,76.2,716.25,3.48595e+10,1.00519,0.993213,11,0.0486864,1750,1.00001,1.00001
app_60,880.567,20810.9,7951.3,48.7,8.93397,4.14365e+10,1.00091,0.993213,922,4.60406,22,1.00006,1.00006
app_7,2.42587,19628.6,7910.8,89.2,724.992,4.8341e+10,1.00513,0.993213,11,0.0666773,1767,1.00001,1.00001
app_8,6.87317,19274.8,7912.6,87.4,873.802,5.94731e+09,1.01029,0.993213,9,0.00680471,2111,1.00001,1.00001
app_9,7.77079,18288.8,7893.4,106.6,875.033,5.56689e+10,1.00641,0.993213,9,0.0636216,2002,1.00001,1.00001
