app_id,Tcomp,Tio,iter,witer,alpha_io,compute_size,io_size,mu,desyn_time
1,7.129136215816251,0.03202673293371207,2793,7.161162948749963,0.00447228099163734,7e9,32026732.93371207,10,3.2908020476873916
2,4.797492127840801,0.02099283764968885,4151,4.81848496549049,0.004356729926530324,4e9,20992837.64968885,10,0.7692431136904415
3,2.867231658607414,0.00489619244883992,6964,2.872127851056254,0.0017047264964334006,2e9,4896192.44883992,10,0.3352107312132833
4,8.436935690976892,0.04331463601387776,2359,8.48025032699077,0.005107707242558253,8e9,43314636.01387776,10,0.10932915354826338
5,10.412990948445382,0.04274653118067766,1913,10.455737479626059,0.004088332483860952,10e9,42746531.18067766,10,0.7775218789362621
6,4.128973028821192,0.020471183704210024,4820,4.149444212525402,0.004933476064677832,4e9,20471183.704210024,10,0.5811507972275042
7,12.510062894910243,0.0428656401350869,1594,12.55292853504533,0.0034147920156969262,12e9,42865640.1350869,10,8.431302034763215
8,16.256835740942304,0.03608344293921182,1228,16.292919183881516,0.002214670221583677,16e9,36083442.93921182,10,11.047879581747747
9,13.008902618115286,0.06205759770939368,1531,13.07096021582468,0.004747745895076792,13e9,62057597.70939368,10,9.286724373820885
10,10.816602634633469,0.051064879090292836,1841,10.867667513723761,0.004698789231986328,10e9,51064879.090292834,10,0.514424958658192
11,2.0289536451227743,0.010384213841956877,9808,2.039337858964731,0.005091953643830463,2e9,10384213.841956878,10,1.394291340984863
12,12.260333761307313,0.08005627860184501,1621,12.340390039909158,0.006487337786159175,12e9,80056278.60184501,10,11.60421033305363
13,8.830294409182457,0.05587880176757224,2251,8.88617321095003,0.0062882863569118045,8e9,55878801.76757224,10,6.883202995229394
14,9.919489349325277,0.01861623829875468,2013,9.938105587624031,0.0018732180026279424,9e9,18616238.29875468,10,2.988091541369489
15,13.005902049206886,0.06713572356605019,1530,13.073037772772937,0.005135434069185739,13e9,67135723.56605019,10,10.363209245164548
16,9.402993788985816,0.050723914833978194,2116,9.453717703819795,0.0053654992060407185,9e9,50723914.83397819,10,3.7610357630009936
17,9.382070493240713,0.02467683713184288,2127,9.406747330372555,0.0026233124230057906,9e9,24676837.13184288,10,1.9308245839115585
18,5.909812170531197,0.0031104858868461244,3383,5.912922656418043,0.0005260488032039317,5e9,3110485.886846124,10,1.3418183076379595
19,15.895769465544895,0.032086984726759936,1256,15.927856450271655,0.002014519959226069,15e9,32086984.726759937,10,13.76505933045522
20,11.516111152163287,0.012831920449444015,1735,11.52894307261273,0.0011130179382988314,11e9,12831920.449444015,10,11.268897856137533
21,38.71215675287594,0.10588102160749634,516,38.818037774483436,0.0027276242612421777,38e9,105881021.60749634,100,38.459448950113334
22,73.07580731973027,0.3045407228256318,273,73.38034804255591,0.004150167326121398,73e9,304540722.8256318,100,5.110454813744748
23,102.01943576560885,0.11330328656809181,196,102.13273905217694,0.0011093728379320967,102e9,113303286.56809181,100,51.58537207447325
24,95.20478253905421,0.571580902253147,209,95.77636344130735,0.0059678701687542884,95e9,571580902.253147,100,77.38680826346463
25,6.4032679646406905,0.009720127982177511,3119,6.412988092622868,0.001515694063639224,6e9,9720127.98217751,100,0.039818657082964753
26,126.17250616557314,0.11826840887195054,159,126.2907745744451,0.0009364770251071223,126e9,118268408.87195055,100,7.744527624561693
27,149.95170079986428,0.9931364060226575,133,150.94483720588696,0.006579465879101458,149e9,993136406.0226575,100,97.092036769852
28,89.77959730004571,0.5001974097061007,222,90.27979470975181,0.005540524447515946,89e9,500197409.7061007,100,4.393922150725495
29,114.65096210321933,0.04142976657844218,175,114.69239186979777,0.00036122506386887884,114e9,41429766.578442186,100,40.90853368989081
30,75.43872739896649,0.24691554348059352,265,75.68564294244709,0.003262382849391306,75e9,246915543.48059353,100,41.47121524197549
31,189.00651493980905,0.5016659942356747,106,189.50818093404473,0.0026471996710805403,189e9,501665994.2356747,100,27.924423893822606
32,84.41338848941874,0.08427048352399391,237,84.49765897294273,0.0009973114586639428,84e9,84270483.52399391,100,33.53019427112221
33,150.02719180986443,0.03892003489999913,134,150.06611184476444,0.0002593525908118408,150e9,38920034.89999913,100,131.82104355386647
34,157.5104419072417,0.24427376631628514,127,157.754715673558,0.0015484403447042503,157e9,244273766.31628513,100,111.6920536481959
35,93.54750767847108,0.1289649162777991,214,93.67647259474887,0.001376705513194445,93e9,128964916.2777991,100,4.110676436154268
36,144.20074965970431,0.2861675606471014,139,144.48691722035142,0.0019805776616486207,144e9,286167560.6471014,100,109.36368639108906
37,95.56256667520071,0.30669095106217853,209,95.8692576262629,0.0031990541979346893,95e9,306690951.06217855,100,66.81885900449686
38,110.52092866759254,0.5503363322612898,181,111.07126499985384,0.004954803857343427,110e9,550336332.2612897,100,54.82786301119404
39,146.98744367393707,0.6848733836788399,136,147.6723170576159,0.00463779127547399,146e9,684873383.6788399,100,17.139178278073096
40,94.64381844785339,0.3830584380389351,211,95.02687688589232,0.004031053640739022,94e9,383058438.03893507,100,41.698106546277614
41,931.3466598656676,3.943655928085066,22,935.2903157937526,0.004216504609842137,931e9,3943655928.085066,1000,271.9584203384896
42,1286.7575233254954,2.7596765552022022,16,1289.5171998806977,0.002140085107401064,1286e9,2759676555.2022023,1000,1095.0939039131642
43,783.1825924011085,4.192692681883558,26,787.3752850829921,0.005324897493374628,783e9,4192692681.883558,1000,418.9600539904494
44,860.1048444393232,2.9781553864793477,24,863.0829998258025,0.0034506013756271806,860e9,2978155386.4793477,1000,162.17987072509538
45,1570.5190328988483,10.369917050932631,13,1580.888949949781,0.006559548063930769,1570e9,10369917050.932632,1000,1050.9869850743357
46,984.76833306417,0.6774082185239765,21,985.4457412826939,0.0006874130052479967,984e9,677408218.5239764,1000,691.0037033937498
47,933.016941078083,4.308131185815679,22,937.3250722638987,0.004596197534127998,933e9,4308131185.815679,1000,589.8091754753108
48,640.8833566990537,1.9966414069432334,32,642.879998105997,0.003105776214574389,640e9,1996641406.9432335,1000,64.26866545419536
49,301.7629366401734,0.1487701728188734,67,301.9117068129923,0.0004927605305183591,301e9,148770172.8188734,1000,236.23528374209974
50,657.6336544248585,0.30033177595407223,31,657.9339862008126,0.0004564770664733618,657e9,300331775.95407224,1000,200.50121366696928
51,836.3941197159398,0.4774256754872605,24,836.871545391427,0.0005704885990166577,836e9,477425675.4872605,1000,297.83799999687403
52,866.2270903749798,2.3235251685117047,24,868.5506155434914,0.0026751753172816186,866e9,2323525168.5117044,1000,350.90491896555596
53,1628.3139157698618,5.0951350232097194,13,1633.4090507930714,0.003119325817826142,1628e9,5095135023.20972,1000,1027.990480821405
54,857.0644499159811,4.807759788705052,24,861.8722097046862,0.005578274522103913,857e9,4807759788.705052,1000,709.5802648570161
55,591.0337932893469,3.569312071660904,34,594.6031053610078,0.0060028480165669985,591e9,3569312071.660904,1000,482.3752820041597
56,120.50357308946192,0.04555187641247283,166,120.5491249658744,0.000377869822160616,120e9,45551876.41247283,1000,98.50849765245457
57,814.6161527122373,4.446186443200842,25,819.0623391554382,0.0054283858879233165,814e9,4446186443.200842,1000,687.708978629447
58,772.9546522386607,3.995017812221546,26,776.9496700508823,0.005141926132692627,772e9,3995017812.2215457,1000,240.2204870109671
59,747.1882538848259,1.583458165357487,27,748.7717120501834,0.002114740901498376,747e9,1583458165.357487,1000,355.77490963572905
60,386.4705018994374,1.5208216531957746,52,387.99132355263316,0.003919731089010981,386e9,1520821653.1957746,1000,68.01321298775288
