app_id,Tcomp,Tio,iter,witer,alpha_io,compute_size,io_size,mu,desyn_time
1,6.472593870667347,0.009223836121198271,3086,6.481817706788545,0.0014230323249507543,6e9,9223836.12119827,10,5.432644232055965
2,9.692443668865547,0.05872778734133642,2052,9.751171456206883,0.006022639188028491,9e9,58727787.34133642,10,7.017537827019074
3,8.433789994907318,0.024093927460278122,2365,8.457883922367596,0.0028486945057923617,8e9,24093927.460278124,10,2.0359180231415936
4,6.911306354484156,0.03118974685725362,2881,6.94249610134141,0.004492583993129967,6e9,31189746.85725362,10,3.3866159341206665
5,4.152963295306273,0.018490349083795318,4795,4.171453644390069,0.004432591288329873,4e9,18490349.083795317,10,2.402187301458177
6,13.985375040272755,0.02902925886243203,1428,14.014404299135187,0.002071387284311713,13e9,29029258.86243203,10,12.954644882998753
7,7.478683403364194,0.0144301630372287,2670,7.493113566401423,0.0019257899816082467,7e9,14430163.0372287,10,1.9400786933465428
8,8.98568963726572,0.023899990118277283,2220,9.009589627383997,0.0026527279384218555,8e9,23899990.11827728,10,2.1818109567164337
9,7.926955929351534,0.019775576228529334,2517,7.946731505580063,0.0024885169726249407,7e9,19775576.228529334,10,3.69110021989262
10,11.497756581498379,0.013602252226259203,1738,11.511358833724639,0.0011816374089919696,11e9,13602252.226259204,10,4.764303496295462
11,11.492759657030582,0.0077914751044249435,1740,11.500551132135007,0.000677487106044326,11e9,7791475.104424943,10,6.858103775895121
12,11.894424422020625,0.004041695709554337,1681,11.89846611773018,0.0003396820791489848,11e9,4041695.709554337,10,9.24188863409954
13,8.416907258127718,0.048946437492176434,2363,8.465853695619895,0.005781630447677188,8e9,48946437.492176436,10,7.905488579645795
14,5.821333806768881,0.017834403517308944,3426,5.83916821028619,0.003054271237792419,5e9,17834403.517308943,10,2.1670609939975565
15,9.745221259804827,0.055832111604567615,2041,9.801053371409395,0.005696541941852413,9e9,55832111.60456762,10,7.432271407744079
16,4.4033751247437145,0.02075354035064697,4521,4.424128665094361,0.004690989327319739,4e9,20753540.35064697,10,3.2202343854430726
17,11.62451018240146,0.0254914552827091,1717,11.65000163768417,0.0021881074419982985,11e9,25491455.2827091,10,0.9307230689157926
18,12.737479218734236,0.034654482457279444,1566,12.772133701191516,0.0027132884189934934,12e9,34654482.457279444,10,10.559685173835975
19,15.933301704284608,0.0901712090480534,1249,16.02347291333266,0.005627444782773938,15e9,90171209.0480534,10,15.636998796855924
20,5.850867362117884,0.03140367072997499,3401,5.882271032847859,0.005338698362351919,5e9,31403670.729974993,10,0.7791228873318417
21,71.91022360751583,0.0570504487799532,278,71.96727405629578,0.0007927276602880079,71e9,57050448.779953204,100,35.08954555126594
22,51.42115894221968,0.12845357184124556,388,51.549612514060925,0.0024918435964229207,51e9,128453571.84124556,100,48.529334449752284
23,170.4473929683586,1.042364631637782,117,171.48975759999638,0.006078290891687655,170e9,1042364631.637782,100,100.21406511850311
24,79.88964897734914,0.06271953186986748,251,79.95236850921901,0.0007844612115854394,79e9,62719531.86986748,100,46.223503203959254
25,58.07168642996649,0.3469149779387471,343,58.418601407905236,0.005938433471154659,58e9,346914977.9387471,100,19.086519998195232
26,154.1900689542488,0.65185339965778,130,154.84192235390657,0.00420979919228789,154e9,651853399.65778,100,16.01133150836428
27,114.59361398339308,0.6719433853901485,174,115.26555736878323,0.005829524454042396,114e9,671943385.3901485,100,47.134229484568024
28,116.89687045954628,0.06573747565639357,171,116.96260793520267,0.0005620383883096396,116e9,65737475.656393565,100,43.49006910819956
29,14.842569800840785,0.045188156174013075,1344,14.887757957014799,0.0030352559669820107,14e9,45188156.17401308,100,11.963068512852292
30,111.60228027028307,0.2631091428969797,179,111.86538941318005,0.0023520156169588233,111e9,263109142.8969797,100,49.88943127483137
31,30.28339586632266,0.10636488311796578,659,30.389760749440626,0.0035000237084763363,30e9,106364883.11796579,100,27.792803187718814
32,130.97860242768758,0.43603111615500595,153,131.41463354384257,0.0033179799265622666,130e9,436031116.15500593,100,127.0658963450958
33,80.98789850302461,0.06058467107212127,247,81.04848317409673,0.0007475114733730668,80e9,60584671.07212127,100,42.67003483385455
34,146.544604962546,0.8865282797567345,136,147.43113324230274,0.00601316872671478,146e9,886528279.7567345,100,133.71741948296096
35,119.82277118751456,0.010376210683500838,167,119.83314739819807,8.658881877667235e-05,119e9,10376210.683500838,100,117.04823344788913
36,91.65953884719903,0.34329104879654143,218,92.00282989599557,0.0037313096693288037,91e9,343291048.79654145,100,46.8384431748377
37,86.14791993673481,0.10898600965208233,232,86.2569059463869,0.0012635047415197427,86e9,108986009.65208232,100,46.327649769270174
38,91.82071053831801,0.21414209650765267,218,92.03485263482567,0.00232675003411286,91e9,214142096.50765267,100,26.294995139296624
39,93.83853945724286,0.42812411214448076,213,94.26666356938735,0.00454162793010436,93e9,428124112.14448076,100,13.571732755604335
40,45.85886241346053,0.15504022017584757,435,46.01390263363638,0.0033694212249345797,45e9,155040220.17584756,100,36.73353083592243
41,1006.4874740962176,2.9042437953149625,20,1009.3917178915326,0.0028772217404175763,1006e9,2904243795.3149624,1000,992.2408065497484
42,688.768253774413,4.504065420962752,29,693.2723191953758,0.006496819931005253,688e9,4504065420.962752,1000,402.42381965620746
43,1316.0204280075611,5.068446263398943,16,1321.08887427096,0.0038365672152041656,1316e9,5068446263.398943,1000,1001.7003123893059
44,756.2901451219847,0.3540047440373063,27,756.644149866022,0.00046786160191681844,756e9,354004744.0373063,1000,448.009317046426
45,795.9066810417504,3.7368976671265473,26,799.6435787088769,0.004673204120716168,795e9,3736897667.1265473,1000,570.6029729450646
46,800.8583863191341,3.6165548763354236,25,804.4749411954695,0.004495546960059607,800e9,3616554876.3354235,1000,774.9647429699855
47,686.8210834541991,2.483750554270748,30,689.3048340084698,0.0036032687306531046,686e9,2483750554.270748,1000,32.28642697721674
48,1146.79228491273,7.044815905557566,18,1153.8371008182876,0.006105555022075011,1146e9,7044815905.557566,1000,646.8812017244336
49,2049.1714181420966,4.722291552466403,10,2053.893709694563,0.002299189841312996,2049e9,4722291552.466403,1000,520.5754242623645
50,1009.7069262113437,4.418033713224699,20,1014.1249599245683,0.004356498348638729,1009e9,4418033713.224699,1000,65.5581754683041
51,587.1958172245485,0.8168138676874691,35,588.0126310922359,0.0013891093906779417,587e9,816813867.6874691,1000,345.0231664510298
52,762.326380757651,2.4109407007882733,27,764.7373214584393,0.0031526389952962423,762e9,2410940700.7882733,1000,762.3030177626807
53,1751.6999188741515,5.639987467711324,12,1757.3399063418628,0.0032093890586322085,1751e9,5639987467.711325,1000,1421.291053078865
54,390.1190992319714,1.5577311629180268,52,391.6768303948894,0.0039770827427997694,390e9,1557731162.918027,1000,389.65359559223765
55,1489.5646171651179,8.794400200302501,14,1498.3590173654204,0.005869354472712276,1489e9,8794400200.302502,1000,1397.4406519430977
56,1554.8126582410412,1.2291774396846173,13,1556.0418356807259,0.0007899385553132546,1554e9,1229177439.6846173,1000,1067.0605527478692
57,715.0198578392619,1.603527170466936,28,716.6233850097288,0.0022376149090434254,715e9,1603527170.466936,1000,329.0353123288703
58,601.6394945548258,1.720017839238038,34,603.3595123940638,0.0028507346016858133,601e9,1720017839.238038,1000,260.6686842918406
59,847.3666257401096,3.849521804019196,24,851.2161475441288,0.004522378734385591,847e9,3849521804.019196,1000,542.0417333354075
60,1182.6538005956204,7.342283324873788,17,1189.9960839204941,0.006170006291688217,1182e9,7342283324.873789,1000,258.46197308780427
