app_id,Tcomp,Tio,iter,witer,alpha_io,compute_size,io_size,mu,desyn_time
1,6.9957748311464645,0.027885068333557167,2848,7.0236598994800215,0.003970162099622957,6e9,27885068.333557166,10,1.8550217392734312
2,9.41677062544581,0.054774565667494286,2112,9.471545191113306,0.005783065440989145,9e9,54774565.66749429,10,8.621001045004842
3,18.17428969414988,0.022922778033684543,1100,18.197212472183566,0.0012596862331922826,18e9,22922778.033684544,10,6.652679838055316
4,10.858894765009602,0.02393660071913296,1838,10.882831365728734,0.0021994828289365964,10e9,23936600.71913296,10,8.274850848782169
5,12.500854435542273,0.00488571254232159,1600,12.505740148084595,0.00039067759960372244,12e9,4885712.54232159,10,12.303118509980257
6,10.03266248933925,0.00337914622290843,1993,10.036041635562158,0.00033670109646960933,10e9,3379146.22290843,10,4.9545635947957605
7,10.960829560384214,0.02153375096391114,1822,10.982363311348125,0.001960757475730221,10e9,21533750.96391114,10,0.3118484617839992
8,14.89182966710084,0.048372779405834,1339,14.940202446506675,0.0032377592993824895,14e9,48372779.405834004,10,7.90561515404081
9,6.879219166205771,0.037785525358688336,2892,6.917004691564459,0.005462700553719325,6e9,37785525.35868834,10,6.300433179992775
10,15.880939188598337,0.008858894111225587,1259,15.889798082709563,0.000557520873777834,15e9,8858894.111225586,10,3.846060440964863
11,5.903911977921893,0.01903382483109282,3377,5.922945802752985,0.0032135740330843307,5e9,19033824.83109282,10,1.9776164816985053
12,9.182875687234452,0.031128112109647336,2171,9.214003799344098,0.0033783480870567036,9e9,31128112.109647337,10,3.0990023552246195
13,10.846118665190232,0.05019666992817119,1836,10.896315335118404,0.004606756356104092,10e9,50196669.928171195,10,8.806290673481922
14,7.3433565454500105,0.0401557954120019,2709,7.383512340862012,0.005438576324951843,7e9,40155795.4120019,10,7.294286333584135
15,10.13374476623981,0.03550656749314475,1967,10.169251333732955,0.003491561603494257,10e9,35506567.49314475,10,3.8929242172915193
16,2.5249087589275376,0.003298092377051663,7911,2.5282068513045894,0.0013045184081159349,2e9,3298092.377051663,10,0.288794160642555
17,13.94700106261569,0.0706429427168911,1427,14.017644005332581,0.005039573175778838,13e9,70642942.7168911,10,1.9904203977940096
18,11.433443677337321,0.004131211080488941,1749,11.43757488841781,0.0003611964180162341,11e9,4131211.080488941,10,9.783248930399045
19,12.391660713750602,0.05857285874058271,1607,12.450233572491184,0.004704559026908504,12e9,58572858.74058271,10,5.6360220010824245
20,2.994154832905496,0.01141110680332808,6655,3.0055659397088244,0.003796658277420317,2e9,11411106.80332808,10,1.6119689758893287
21,84.48567394011657,0.25576373866367946,237,84.74143767878024,0.00301816614951913,84e9,255763738.66367945,100,58.87067791060898
22,48.72924660485869,0.2596517384503206,409,48.98889834330901,0.00530021591077041,48e9,259651738.45032057,100,43.428190378834245
23,114.94243288633176,0.21641689386157412,174,115.15884978019334,0.0018792901654944853,114e9,216416893.8615741,100,43.4485190228978
24,54.95107790452691,0.2908986310316029,363,55.241976535558514,0.0052658983127505474,54e9,290898631.0316029,100,36.56979386646131
25,133.58447724395643,0.7277334561099541,149,134.31221070006637,0.005418222604756773,133e9,727733456.1099541,100,133.63612497888917
26,121.13704133154084,0.35720510926270516,165,121.49424644080355,0.002940098973631221,121e9,357205109.26270515,100,86.17234724546137
27,85.00232188788259,0.04732340392429548,236,85.04964529180688,0.0005564209440489495,85e9,47323403.92429548,100,9.972007765545449
28,51.95434234178699,0.25673233805295126,384,52.21107467983994,0.004917200797479128,51e9,256732338.05295125,100,13.737090081512237
29,39.18285326443806,0.195123028652493,508,39.377976293090555,0.004955130939187705,39e9,195123028.652493,100,20.775190116068963
30,85.8333805586686,0.09191496676048047,233,85.92529552542908,0.0010697078921687129,85e9,91914966.76048048,100,19.407483716511607
31,121.0440812986458,0.4005374248746898,165,121.44461872352049,0.0032981076402121114,121e9,400537424.8746898,100,110.5758787142456
32,184.60584803388497,0.7926838363657058,108,185.39853187025068,0.004275566954977064,184e9,792683836.3657058,100,124.5303414810965
33,121.75597019621871,0.4182993125792882,164,122.174269508798,0.003423792213049947,121e9,418299312.5792882,100,99.00240325702374
34,44.77964888016256,0.18015930308117467,445,44.95980818324374,0.004007119032779126,44e9,180159303.08117467,100,31.920854283308294
35,65.62858366346038,0.3765569619219963,304,66.00514062538237,0.005704964164218306,65e9,376556961.9219963,100,5.483875091238991
36,139.6493447139804,0.6084517144798098,143,140.2577964284602,0.004338095492539384,139e9,608451714.4798099,100,128.97490683465097
37,80.2893353209016,0.24750901420276994,249,80.53684433510438,0.0030732395370858326,80e9,247509014.20276994,100,70.98862493610409
38,105.21952169329285,0.5866380361237736,190,105.80615972941662,0.005544460148861015,105e9,586638036.1237736,100,58.048833995174036
39,164.93081338760095,0.6738524040666509,121,165.6046657916676,0.004069042383832134,164e9,673852404.0666509,100,120.40709031756722
40,101.70738609837393,0.0037021194043889076,197,101.71108821777833,3.6398385557159e-05,101e9,3702119.4043889074,100,34.4648372289385
41,1465.9530749093894,3.1648199727932687,14,1469.1178948821828,0.0021542314499185065,1465e9,3164819972.7932687,1000,486.7323004585211
42,837.2439616320056,1.4437537966362182,24,838.6877154286418,0.0017214438343100512,837e9,1443753796.636218,1000,489.8394117637375
43,1625.9747693541462,3.4417891601182355,13,1629.4165585142646,0.0021122831618064133,1625e9,3441789160.1182356,1000,483.29603070429897
44,1280.1024056378324,1.5966271314194564,16,1281.6990327692517,0.001245711427252752,1280e9,1596627131.4194565,1000,664.5979078661443
45,448.02146431987734,0.8573604417279597,45,448.8788247616053,0.0019100042025446279,448e9,857360441.7279596,1000,133.8166262309083
46,1642.0718440397097,7.624090726985915,13,1649.6959347666957,0.004621512708076191,1642e9,7624090726.985915,1000,1020.7402773269448
47,1250.7735642327234,3.679647903767118,16,1254.4532121364905,0.002933268350040906,1250e9,3679647903.767118,1000,1055.9799438935936
48,858.9278528486069,4.144147250212265,24,863.0720000988192,0.004801624024111282,858e9,4144147250.2122655,1000,24.06415458508633
49,855.8559157069109,3.405284704606553,24,859.2612004115174,0.003963037901601625,855e9,3405284704.606553,1000,418.45854892766096
50,1202.5065825605438,6.661719603256922,17,1209.1683021638007,0.005509340255889778,1202e9,6661719603.256923,1000,438.9625767973111
51,905.7496946907157,4.586333133783514,22,910.3360278244993,0.005038066157552646,905e9,4586333133.783514,1000,805.235445811474
52,749.1838822484099,2.873925231534739,27,752.0578074799446,0.0038214153259905877,749e9,2873925231.534739,1000,186.8106057384656
53,1302.9016688318188,6.342839906696029,16,1309.244508738515,0.0048446564903354,1302e9,6342839906.696029,1000,651.9533010510683
54,304.008629126895,1.3226566619588473,66,305.33128578885385,0.00433187401199858,304e9,1322656661.9588473,1000,179.02019635363905
55,1049.8034075432383,4.1615191214173235,19,1053.9649266646556,0.0039484417518396335,1049e9,4161519121.4173236,1000,252.2834051261851
56,531.1399528750563,1.8641186582145117,38,533.0040715332708,0.0034973816482340905,531e9,1864118658.2145116,1000,298.42489001515776
57,732.748008545415,2.679334326588589,28,735.4273428720036,0.0036432345799453226,732e9,2679334326.5885887,1000,167.99213591694598
58,462.93174411774874,0.8180513110781881,44,463.7497954288269,0.0017639928235908772,462e9,818051311.0781881,1000,57.9885607468966
59,899.18003414945,1.1307741265961777,23,900.3108082760461,0.0012559819522342875,899e9,1130774126.5961778,1000,161.36707055737722
60,1157.2509137187596,3.8286879539651753,18,1161.0796016727247,0.0032975240874521653,1157e9,3828687953.965175,1000,1104.871504997741
