app_id,Tcomp,Tio,iter,witer,alpha_io,compute_size,io_size,mu,desyn_time
1,8.539882696815043,0.04858599752744523,2329,8.588468694342488,0.0056571199426331325,8e9,48585997.527445234,10,1.5533239858914172
2,6.880130397008592,0.0393169299404714,2891,6.919447326949063,0.005682091080792591,6e9,39316929.9404714,10,3.9767844851047798
3,1.671601414441788,0.011939566344758153,11880,1.683540980786546,0.007091936864631604,1e9,11939566.344758153,10,0.09072941910717262
4,13.390816353746038,0.013329334249329942,1493,13.404145687995367,0.0009944187835310963,13e9,13329334.249329941,10,1.0583707049762119
5,1.875843687199746,0.006627870367347749,10625,1.8824715575670936,0.0035208342674316996,1e9,6627870.367347749,10,0.33285734897858255
6,13.748518337687472,0.02565616005716922,1452,13.77417449774464,0.0018626277793540452,13e9,25656160.05716922,10,9.906023265785189
7,10.445846990758861,0.028932682207314472,1910,10.474779672966175,0.0027621279979745403,10e9,28932682.207314473,10,7.527509689034759
8,9.999050075678216,0.056050372488171386,1990,10.055100448166387,0.00557432248211827,9e9,56050372.488171384,10,8.510676236364723
9,15.16026920846134,0.01596823253738824,1318,15.176237440998728,0.0010521865251165569,15e9,15968232.53738824,10,10.44822785133876
10,18.157112027660762,0.019086125056437322,1101,18.1761981527172,0.0010500614537800963,18e9,19086125.05643732,10,4.805310044956274
11,8.902124087421356,0.027964087070507373,2240,8.930088174491864,0.003131445795841604,8e9,27964087.070507374,10,4.906392640990961
12,9.345540138228868,0.05135350252448974,2129,9.396893640753358,0.005464944532496877,9e9,51353502.52448974,10,4.49030263513249
13,14.754071312540342,0.067163888672071,1350,14.821235201212414,0.004531598598919531,14e9,67163888.672071,10,5.873304437012289
14,12.41933492271008,0.03780814568705198,1606,12.457143068397132,0.003035057515151167,12e9,37808145.68705198,10,8.100244286987493
15,8.544542638738175,0.055126490704621056,2326,8.599669129442796,0.00641030368434569,8e9,55126490.704621054,10,5.578780720904993
16,15.35924823436075,0.0648850756951948,1297,15.424133310055945,0.004206724254184981,15e9,64885075.6951948,10,13.817148132318628
17,11.423064423477584,0.020525568579311843,1748,11.443589992056896,0.0017936301976529071,11e9,20525568.579311844,10,10.422751240508731
18,4.628923579569792,0.016313500368114478,4306,4.645237079937906,0.0035118768078749047,4e9,16313500.368114479,10,1.2953368763503916
19,14.219013890434109,0.010942856223110422,1406,14.22995674665722,0.0007690013692895465,14e9,10942856.223110422,10,5.5281880302001705
20,8.193821843868081,0.0035564558628693173,2440,8.19737829973095,0.00043385284085108595,8e9,3556455.862869317,10,1.0454166013048558
21,99.65997080876265,0.49384892954754384,200,100.15381973831019,0.004930904590937334,99e9,493848929.5475438,100,69.57672136623287
22,66.20465838868441,0.2608897429847677,301,66.46554813166918,0.003925187564359531,66e9,260889742.9847677,100,12.553648477173674
23,100.38174050325216,0.5672497211581199,199,100.94899022441028,0.005619171820313605,100e9,567249721.1581199,100,91.77450526838841
24,113.18544791443364,0.3466989910345912,177,113.53214690546822,0.0030537517389085203,113e9,346698991.0345912,100,58.588775981483714
25,76.72547171631183,0.43705650066574414,260,77.16252821697758,0.005664102910635079,76e9,437056500.6657441,100,54.58662438973987
26,78.46256405543849,0.03490753991285164,255,78.49747159535134,0.0004446963603209722,78e9,34907539.91285164,100,2.2791608109670207
27,171.97805023122626,0.06187193069837677,117,172.03992216192464,0.0003596370535447155,171e9,61871930.698376775,100,68.33996452047671
28,47.21150918170804,0.343277135618663,421,47.5547863173267,0.007218561204923113,47e9,343277135.618663,100,29.059948120474715
29,104.95884575725914,0.6055262852317812,190,105.56437204249092,0.00573608570312008,104e9,605526285.2317812,100,98.06184471030132
30,157.670355153982,0.10583777316047303,127,157.77619292714246,0.0006708095258030884,157e9,105837773.16047303,100,134.70518579094278
31,133.35069614412572,0.07089944191446237,150,133.42159558604018,0.0005313940490896103,133e9,70899441.91446237,100,0.1448766802617302
32,88.4572459212126,0.1900266036081748,226,88.64727252482078,0.0021436260608578605,88e9,190026603.6081748,100,8.607591386270178
33,62.66962936002932,0.20216292183025428,319,62.87179228185957,0.003215478905451602,62e9,202162921.8302543,100,36.07949605205431
34,76.6467521377674,0.02263150554967428,261,76.66938364331706,0.0002951830897058082,76e9,22631505.54967428,100,64.58835024521845
35,122.59875069215056,0.16236740263670285,163,122.76111809478726,0.0013226289003928301,122e9,162367402.63670287,100,100.12244249132418
36,82.06547526438527,0.29919172784375037,243,82.36466699222902,0.0036325251927744532,82e9,299191727.84375036,100,36.289720462117245
37,83.68006036605263,0.47100841865365056,238,84.15106878470628,0.005597176904059146,83e9,471008418.6536506,100,62.23129423206409
38,93.28289663614586,0.3412168825384652,214,93.62411351868433,0.0036445405965886066,93e9,341216882.5384652,100,20.92866021267878
39,51.2169131932436,0.021453795686796676,391,51.238366988930395,0.00041870568770139736,51e9,21453795.686796676,100,16.143430885742468
40,188.0133806253328,0.8365980281274157,106,188.8499786534602,0.004429960935619556,188e9,836598028.1274157,100,152.58988045837995
41,1381.9604842283372,0.333046865629831,15,1382.293531093967,0.00024093787472639975,1381e9,333046865.629831,1000,604.2071756446509
42,861.1144377343204,5.582472905903316,24,866.6969106402237,0.0064410901173970695,861e9,5582472905.903316,1000,844.5840155587862
43,662.2798132478516,1.2768481965512497,31,663.5566614444028,0.0019242489311641587,662e9,1276848196.5512497,1000,92.38912952271669
44,1344.7208301553999,2.05965225019962,15,1346.7804824055995,0.0015293154876440587,1344e9,2059652250.19962,1000,736.7607880552522
45,1335.664240167164,6.541438791537963,15,1342.205678958702,0.004873648572708233,1335e9,6541438791.537963,1000,1064.9778673896376
46,763.5726533910282,4.304222341889653,27,767.8768757329178,0.005605354813922985,763e9,4304222341.889653,1000,616.4760307494582
47,874.5110809539435,6.1062699106742295,23,880.6173508646177,0.0069340785809851495,874e9,6106269910.67423,1000,479.48024160258467
48,879.6850712306413,4.977169475687275,23,884.6622407063285,0.005626067494090652,879e9,4977169475.687275,1000,377.21397411904417
49,1866.4758313256723,8.200514581750037,11,1874.6763459074223,0.004374362859835756,1866e9,8200514581.750036,1000,535.9799263571851
50,971.3370860240134,0.9235729581906439,21,972.2606589822041,0.0009499232018268351,971e9,923572958.1906439,1000,915.9250354573699
51,1167.0105490848603,8.004448759915437,18,1175.0149978447757,0.006812209865063235,1167e9,8004448759.915438,1000,1056.2199400217683
52,832.4766880382209,4.165228184615528,24,836.6419162228365,0.004978507655246543,832e9,4165228184.615528,1000,240.5533478944275
53,989.3250328257284,2.17960450791892,21,991.5046373336473,0.0021982796911372083,989e9,2179604507.91892,1000,378.61090417205014
54,1431.5565569967812,1.0308319726100044,14,1432.5873889693912,0.0007195595748972695,1431e9,1030831972.6100044,1000,898.870740609616
55,1232.8325536126981,3.1793201467535317,17,1236.0118737594516,0.002572240780408781,1232e9,3179320146.753532,1000,968.8941823128831
56,714.4892510330654,1.8755772673542792,28,716.3648283004197,0.0026181872605388775,714e9,1875577267.3542793,1000,264.19884963508804
57,663.3945743869359,0.29856562194595354,31,663.6931400088819,0.0004498549162975498,663e9,298565621.94595355,1000,59.80484393906168
58,834.4389544413012,4.273798164121324,24,838.7127526054226,0.0050956637428547094,834e9,4273798164.121324,1000,265.38277945525505
59,1060.792987748892,3.451734048809484,19,1064.2447217977015,0.003243364968706523,1060e9,3451734048.809484,1000,933.9183441531936
60,900.0038024773942,1.2823608059291007,23,901.2861632833233,0.0014228120414692142,900e9,1282360805.9291008,1000,806.8740808551186
