app_id,Tcomp,Tio,iter,witer,alpha_io,compute_size,io_size,mu,desyn_time
1,12.61383654660243,0.07641556805866996,1577,12.6902521146611,0.006021595738857445,12e9,76415568.05866995,10,10.435715816002453
2,19.165013789181355,0.11060374579045222,1038,19.275617534971808,0.005738013092954533,19e9,110603745.79045223,10,3.8787960351591244
3,13.115728849729463,0.01565615164413658,1524,13.1313850013736,0.0011922696381607028,13e9,15656151.644136582,10,6.279153895757297
4,8.997230163379959,0.027921731233950964,2217,9.02515189461391,0.003093768565891316,8e9,27921731.233950965,10,7.549192838690018
5,12.911349136701762,0.00928158451499911,1548,12.920630721216762,0.0007183538261609759,12e9,9281584.51499911,10,0.05111360978537462
6,12.22148148279424,0.05572428063799687,1630,12.277205763432237,0.004538840654114646,12e9,55724280.637996875,10,5.1390851666828095
7,1.832545138359731,0.003812969197969239,10892,1.8363581075577002,0.0020763756166493966,1e9,3812969.1979692387,10,0.26908373744520137
8,10.108986567847035,0.05459035157464313,1968,10.163576919421677,0.005371175129331279,10e9,54590351.57464313,10,8.05110282892277
9,5.634315606406807,0.025743954504126965,3534,5.660059560910934,0.004548353992936377,5e9,25743954.504126966,10,2.2633711711483713
10,7.170153672590598,0.020156419514669514,2782,7.190310092105268,0.002803275416007527,7e9,20156419.514669515,10,2.6657344040593753
11,7.841502979386698,0.034719373870617166,2540,7.876222353257315,0.0044081251535843845,7e9,34719373.870617166,10,4.726116987158288
12,11.756710662393449,0.07348518202977333,1691,11.830195844423223,0.00621166234237909,11e9,73485182.02977334,10,7.71267284013166
13,7.751480080255906,0.04655838925630656,2565,7.798038469512212,0.005970525721094437,7e9,46558389.25630656,10,5.0034415210174155
14,12.717412323319918,0.04232135742016928,1568,12.759733680740087,0.0033167900270560007,12e9,42321357.42016928,10,3.0597925982834533
15,10.022550062026864,0.056481910905174924,1985,10.07903197293204,0.005603902344675673,10e9,56481910.905174926,10,6.479490564966449
16,11.713735978168986,0.0035565715090586803,1707,11.717292549678044,0.0003035318520878276,11e9,3556571.5090586804,10,6.283437023557444
17,2.6211571268449294,0.007140278439312,7610,2.6282974052842416,0.002716693485659703,2e9,7140278.439312,10,0.8499053728967558
18,15.068682809150848,0.0025294410422969774,1328,15.071212250193145,0.0001678326202502099,15e9,2529441.0422969772,10,7.726211677686199
19,9.22914368941635,0.012313469028686026,2165,9.241457158445037,0.0013324163946844378,9e9,12313469.028686026,10,1.791782106054158
20,14.00535704329076,0.023013866894671768,1426,14.028370910185432,0.001640523125743869,14e9,23013866.894671768,10,6.6600231461747565
21,83.7055674773993,0.20578182974721504,239,83.91134930714651,0.0024523718358285193,83e9,205781829.74721503,100,22.32161577952256
22,152.101491499346,0.6636235352997547,131,152.76511503464576,0.0043440777375728145,152e9,663623535.2997547,100,5.481505027310892
23,39.264947836287355,0.1585281675745953,508,39.42347600386195,0.004021161593134654,39e9,158528167.5745953,100,14.732686712744295
24,90.32709468277828,0.49479065267749217,221,90.82188533545578,0.005447923161360887,90e9,494790652.67749214,100,84.88201838318194
25,154.15958480917342,0.5273285404752869,130,154.6869133496487,0.0034090055135002437,154e9,527328540.4752869,100,70.37689645757021
26,95.47925678677692,0.2907717517622101,209,95.77002853853912,0.003036145610473528,95e9,290771751.7622101,100,10.64699221740018
27,125.21808261859047,0.7661290985219179,159,125.98421171711239,0.006081151662417831,125e9,766129098.5219179,100,91.66649929822577
28,85.95253354881429,0.3809730555854882,232,86.33350660439977,0.0044128064591560665,85e9,380973055.5854882,100,76.56539312215483
29,115.9453050978943,0.6735422120664256,172,116.61884730996073,0.005775586259022272,115e9,673542212.0664256,100,4.23934357754301
30,120.82706293150761,0.5023443289895332,165,121.32940726049715,0.004140334485529859,120e9,502344328.9895332,100,104.86667735212511
31,157.01897411498047,0.3874498775481382,128,157.4064239925286,0.0024614616590649995,157e9,387449877.5481382,100,75.6926700453987
32,127.58823855046005,0.29283472948490086,157,127.88107327994494,0.0022898989035215183,127e9,292834729.48490083,100,96.79170829955972
33,50.57979745162794,0.17150629934295272,395,50.75130375097089,0.0033793476554712498,50e9,171506299.34295273,100,32.08584895989453
34,70.956480080232,0.44858308987168755,281,71.40506317010369,0.0062822308384919,70e9,448583089.87168753,100,68.90841014951867
35,53.02253655074891,0.24168672933763957,376,53.26422328008655,0.0045375059365222545,53e9,241686729.33763957,100,39.81519602741215
36,126.07939355828825,0.4957595906745162,159,126.57515314896276,0.0039167212390497416,126e9,495759590.6745162,100,47.64736212225814
37,26.472519163623705,0.167660562401975,751,26.64017972602568,0.006293522195654776,26e9,167660562.401975,100,16.78500565737346
38,99.93450492521585,0.0652798491437385,201,99.99978477435958,0.0006527998964301427,99e9,65279849.14373849,100,51.65249743928442
39,109.22744102941735,0.03960300236265173,184,109.26704403178,0.00036244233303440803,109e9,39603002.362651736,100,10.423733134272743
40,151.58512977459978,0.5828545828388606,132,152.16798435743863,0.003830336488323,151e9,582854582.8388606,100,1.555028879381365
41,421.65229092347965,0.1438334219581938,48,421.7961243454379,0.000341002236996371,421e9,143833421.95819378,1000,410.3072162138394
42,484.89309304203664,1.5282581294175204,42,486.42135117145415,0.0031418401468952767,484e9,1528258129.4175203,1000,352.1234099089749
43,694.6700496190836,1.455609824759014,29,696.1256594438426,0.0020910159035395248,694e9,1455609824.759014,1000,120.91485682479731
44,901.4216198169132,5.5179964802306,23,906.9396162971439,0.006084193898993513,901e9,5517996480.2306,1000,673.2686043921979
45,328.56178200710707,0.24118113814946485,61,328.8029631452565,0.0007335126661949131,328e9,241181138.14946485,1000,80.56102545098543
46,1602.90937085323,7.3880305992634625,13,1610.2974014524934,0.004587991381343245,1602e9,7388030599.263462,1000,974.0984642713403
47,1290.9084844749586,3.9058945307326827,16,1294.8143790056913,0.0030165671574732445,1290e9,3905894530.7326827,1000,460.16336200058055
48,699.1151867651215,1.1282643117770441,29,700.2434510768985,0.001611245788935114,699e9,1128264311.777044,1000,166.68676682666347
49,1079.2642363994137,6.574457060830275,19,1085.838693460244,0.006054727189615468,1079e9,6574457060.830275,1000,805.6844866434369
50,653.5517244884599,0.10987234975698369,31,653.6615968382168,0.00016808750932965918,653e9,109872349.7569837,1000,44.007419008138996
51,809.8646825925161,0.9897821420269971,25,810.8544647345432,0.0012206655880608996,809e9,989782142.0269971,1000,788.4909023920828
52,1357.2230468835833,1.5475305938999968,15,1358.7705774774834,0.0011389197113562326,1357e9,1547530593.8999968,1000,75.4006605417812
53,1245.4978194769387,4.45167090411921,17,1249.949490381058,0.0035614806345191426,1245e9,4451670904.119209,1000,1192.9143235950507
54,703.8841661018488,2.4063663761108773,29,706.2905324779597,0.0034070488920024847,703e9,2406366376.1108775,1000,564.0941422583754
55,946.2766750287491,2.0428646494675977,22,948.3195396782166,0.002154194408100862,946e9,2042864649.4675977,1000,920.4453296648373
56,1254.3367793179373,3.0728327308663066,16,1257.4096120488036,0.002443780214038193,1254e9,3072832730.866307,1000,428.2363112701689
57,1443.7968397752488,5.833278504565584,14,1449.6301182798145,0.004023977172526997,1443e9,5833278504.565584,1000,760.2832017559548
58,653.0788565836176,0.9522029025689943,31,654.0310594861866,0.0014558985980223241,653e9,952202902.5689943,1000,187.02041098274685
59,1758.1212806461872,9.688826215620201,12,1767.8101068618073,0.005480693982918604,1758e9,9688826215.620201,1000,564.7914840074802
60,747.9026870338381,1.7859838584163952,27,749.6886708922545,0.002382300717297457,747e9,1785983858.4163952,1000,624.9135357709879
