app_id,start_app,end_app,effective_cpu,effective_io,effective_iter,total_bytes,stretch,utilization,Tcomp,Tio,iterations,priority,group_id
app_1,7.37768,19596.7,7642.56,104.947,1093.41,4.30971e+10,1.0409,0.98125,7,0.0394301,2676,1,1
app_10,3.66114,19092,7647.9,102.528,1091.16,3.83149e+10,1.04082,0.98125,7,0.0351191,2607,1,1
app_11,0.578979,20228.6,7482.21,170.369,1871.48,4.74086e+10,1.06247,0.98125,4,0.0253386,4731,1,1
app_12,12.3336,19040,7780.2,53.0946,597.434,1.34103e+10,1.02648,0.98125,13,0.0224627,1428,1,1
app_13,6.98394,20199.7,7791,68.0297,600.691,4.77042e+10,1.02058,0.98125,13,0.0795069,1514,1,1
app_14,1.16939,17589.5,7472.74,170.488,1865.69,5.21488e+10,1.06314,0.98125,4,0.0279618,4106,1,1
app_15,0.752412,20150.9,7645.56,103.45,1093.46,4.14864e+10,1.04071,0.98125,7,0.0379565,2759,1,1
app_16,2.04204,19625.9,7791.3,61.3005,711.369,7.87462e+09,1.02575,0.98125,11,0.0110754,1739,1,1
app_17,15.9762,20248.3,7815.98,54.8502,460.055,4.29315e+10,1.01795,0.98125,17,0.0933293,1167,1,1
app_18,3.37055,19381.6,7711.75,78.2801,856.65,2.12614e+10,1.03453,0.98125,9,0.0248381,2076,1,1
app_19,0.722715,16229.9,7352.91,209.848,2450.14,3.17996e+10,1.08332,0.98125,3,0.0129794,4986,1,1
app_2,2.16633,19567.6,7787.24,67.5781,650.259,3.82795e+10,1.0223,0.98125,12,0.0588915,1590,1,1
app_20,1.05506,19206,7650.39,99.9165,1094.3,3.05782e+10,1.04153,0.98125,7,0.0279508,2629,1,1
app_21,29.0782,19982.8,7932.7,41.1816,102.781,3.58572e+10,1.00395,0.98125,77,0.348128,256,1,1
app_22,23.3124,19902.5,7966.9,20.1291,64.2333,1.86042e+10,1.00182,0.98125,124,0.286218,160,1,1
app_23,42.4102,19942.8,7954,36.8357,92.8288,3.23612e+10,1.00171,0.98125,86,0.34797,230,1,1
app_24,88.2988,20000.6,7929.7,51.1557,72.4824,4.77775e+10,1.00282,0.98125,110,0.654486,180,1,1
app_25,27.1472,20174.6,7973.2,11.1917,55.9415,9.00148e+09,1.00223,0.98125,141,0.160741,142,1,1
app_26,0.0349269,18239.9,7367.35,200.915,2454.9,1.47545e+10,1.0837,0.98125,3,0.00601243,5610,1,1
app_27,9.19942,20026.8,7929.07,24.1811,274.678,5.97427e+09,1.00819,0.98125,29,0.0218039,685,1,1
app_28,112.087,19980.3,7970.8,16.3798,57.0101,1.2785e+10,1.00206,0.98125,141,0.224298,141,1,1
app_29,93.5951,20056.7,7944.3,48.9407,61.3354,4.57776e+10,1.00124,0.98125,129,0.750452,154,1,1
app_3,1.12259,19285,7621.55,111.341,1266.95,2.35556e+10,1.04642,0.98125,6,0.0186063,3062,1,1
app_30,15.6322,20081.9,7931.8,53.4408,67.1849,4.95764e+10,1.00233,0.98125,117,0.739946,170,1,1
app_31,10.6208,19880.2,7857.52,39.1164,374.541,2.28105e+10,1.01519,0.98125,21,0.0609905,933,1,1
app_32,67.0699,20117,7953.6,26.794,83.8662,2.45507e+10,1.00274,0.98125,95,0.29227,209,1,1
app_33,16.5849,20252.9,7983.88,4.04422,46.099,7.91699e+08,1.00192,0.98125,173,0.0172109,116,1,1
app_34,83.8417,20228.4,7956.4,9.1498,85.5819,5.05523e+09,1.00484,0.98125,92,0.0594733,217,1,1
app_35,62.0833,20251.8,7968.3,8.07973,95.8967,6.66473e+08,1.00389,0.98125,83,0.00694243,241,1,1
app_36,40.6858,19857.9,7947.8,37.3888,62.7831,3.37174e+10,1.00232,0.98125,128,0.535197,155,1,1
app_37,45.213,19985,7939,24.4683,134.075,1.4344e+10,1.00587,0.98125,59,0.107045,334,1,1
app_38,45.7677,20070.2,7951.7,23.1555,108.651,1.87903e+10,1.0037,0.98125,73,0.172388,272,1,1
app_39,147.448,20212.5,7961.9,32.4758,47.2782,2.87946e+10,1.00116,0.98125,166,0.61265,120,1,1
app_4,10.5191,20390,7829.9,47.8058,487.634,1.96049e+10,1.01917,0.98125,16,0.0401739,1246,1,1
app_40,52.2159,19933.8,7939,39.8735,78.6145,3.80565e+10,1.00288,0.98125,103,0.487904,193,1,1
app_41,903.169,21881.6,7967,30.4225,7.65213,2.99739e+10,1.00038,0.98125,1018,3.74674,20,1,1
app_42,704.757,21321.7,7999.1,0.594288,7.41606,6.5987e+07,1.0001,0.98125,1074,0.00824837,19,1,1
app_43,1440.02,22296.1,7980.4,19.494,5.08598,1.93261e+10,1.00003,0.98125,1586,3.86521,13,1,1
app_44,84.7108,19884.7,7986,12.1643,31.8559,9.68071e+09,1.00054,0.98125,256,0.302522,78,1,1
app_45,1020.95,22005.1,7951,47.0369,7.20388,4.66426e+10,1.00029,0.98125,1100,6.66323,19,1,1
app_46,397.955,20974.4,7986.3,12.6296,17.9502,1.15577e+10,1.00027,0.98125,442,0.642093,46,1,1
app_47,186.718,20474.5,7947.6,52.2916,5.94301,5.21481e+10,1.00003,0.98125,1366,8.69135,15,1,1
app_48,661.095,20407,7992.8,6.98412,7.52533,6.40729e+09,1.0001,0.98125,1130,0.800912,18,1,1
app_49,17.5811,20124.4,7904.4,45.0002,206.558,3.84885e+10,1.00719,0.98125,38,0.185935,521,1,1
app_5,9.14123,19337,7741.7,65.0038,777.513,9.09739e+09,1.03215,0.98125,10,0.0117084,1874,1,1
app_50,79.0208,20562.5,7963.4,35.8534,8.10488,3.52396e+10,1.00017,0.98125,951,4.40495,21,1,1
app_51,198.48,20003.6,7946.8,52.2471,18.2039,5.16553e+10,1.00019,0.98125,452,2.86974,44,1,1
app_52,887.919,21753.1,7992.3,7.60407,6.7312,7.02465e+09,1.00008,0.98125,1160,1.00352,18,1,1
app_53,615.18,21904.7,7984.8,11.3387,6.86649,1.10233e+10,1.00052,0.98125,1155,1.57476,18,1,1
app_54,370.435,20593.2,7946.6,49.6048,15.56,4.92546e+10,1.00052,0.98125,498,3.07841,40,1,1
app_55,1200.58,21742.8,7959.8,40.1507,6.44087,3.99674e+10,1.00003,0.98125,1205,6.66124,17,1,1
app_56,1522.4,22760.3,7953.82,46.0957,4.40076,4.58929e+10,1.00004,0.98125,1769,9.95922,12,1,1
app_57,543.668,21057.3,7976.7,23.0482,10.9681,2.22754e+10,1.00013,0.98125,730,2.02503,28,1,1
app_58,456.147,20569.2,7989.9,9.41326,12.2387,8.8902e+09,1.00015,0.98125,662,0.74085,31,1,1
app_59,1048.31,21841.7,7980.6,18.0859,5.85576,1.77832e+10,1.0002,0.98125,1369,2.96387,15,1,1
app_6,1.35586,20157.8,7766.59,63.4209,648.8,2.99881e+10,1.02609,0.98125,12,0.0462779,1636,1,1
app_60,278.202,21173.8,7984.9,15.0119,5.79076,1.47225e+10,1.00005,0.98125,1414,2.45374,15,1,1
app_7,0.190646,18958.4,7355.69,213.858,2450.17,4.40606e+10,1.08112,0.98125,3,0.0179839,5820,1,1
app_8,1.00035,19675.9,7846.54,45.3235,522.744,1.03136e+10,1.01822,0.98125,15,0.0197579,1284,1,1
app_9,1.34664,18647.6,7513.32,142.561,1503.04,5.43502e+10,1.05713,0.98125,5,0.0361612,3516,1,1
