app_id,start_app,end_app,effective_cpu,effective_io,effective_iter,total_bytes,stretch,utilization,Tcomp,Tio,iterations,priority,group_id
app_1,5.19939,19735.8,7794.5,49.7715,487.584,2.55419e+10,1.02301,0.978444,16,0.05234,1204,1,1
app_10,1.02065,18015.8,7129.6,293.009,3567.87,1.22044e+10,1.12017,0.978444,2,0.00342052,8063,1,1
app_11,2.9487,20528.9,7519.7,112.497,1251.86,3.21855e+10,1.05934,0.978444,6,0.0257073,3229,1,1
app_12,11.2287,19149.1,7779.8,64.239,599.39,3.85042e+10,1.02324,0.978444,13,0.0641736,1432,1,1
app_13,5.60257,20282.3,7655.2,73.8452,847.467,1.5743e+10,1.0429,0.978444,9,0.0185867,2158,1,1
app_14,6.77996,19097.6,7684.2,76.2619,699.554,5.00194e+10,1.03436,0.978444,11,0.0715584,1670,1,1
app_15,4.7903,21215.7,7483.3,132.381,1496.15,3.15006e+10,1.06457,0.978444,5,0.0210565,3982,1,1
app_16,6.10829,19765.6,7778.3,55.5833,484.553,4.12873e+10,1.02307,0.978444,16,0.0851285,1200,1,1
app_17,1.99259,20704.9,7652.9,79.6144,957.731,7.54987e+09,1.04433,0.978444,8,0.00788911,2475,1,1
app_18,6.98027,20530.9,7563.1,94.3191,1080.7,2.01304e+10,1.05496,0.978444,7,0.0186392,2781,1,1
app_19,3.2216,20977.5,7395.3,168.568,1848.37,4.85881e+10,1.07471,0.978444,4,0.0262923,4869,1,1
app_2,6.05032,18817.7,7565.7,98.522,1084.33,2.78139e+10,1.05353,0.978444,7,0.0256586,2550,1,1
app_20,2.42341,19500.4,7476,120.25,1495.48,8.65455e+08,1.06997,0.978444,5,0.000578513,3651,1,1
app_21,24.278,19814.6,7918.3,17.1684,176.457,8.50027e+09,1.00923,0.978444,45,0.048297,436,1,1
app_22,117.57,20350.4,7966.5,8.73065,46.7001,5.95774e+09,1.00345,0.978444,169,0.129516,118,1,1
app_23,62.3902,20024.4,7935.7,33.5359,107.609,2.93631e+10,1.00439,0.978444,74,0.271881,268,1,1
app_24,20.4214,20248.8,7939,36.0994,50.5861,3.37457e+10,1.00342,0.978444,156,0.66168,128,1,1
app_25,14.5477,19749.3,7835.8,57.4842,280.105,4.57988e+10,1.01502,0.978444,28,0.163567,692,1,1
app_26,59.2488,19988,7927.7,39.337,64.1574,3.71554e+10,1.00441,0.978444,125,0.580553,159,1,1
app_27,3.03785,20105.3,7942.5,42.7251,54.3179,3.94533e+10,1.00226,0.978444,145,0.730617,137,1,1
app_28,0.230009,20063.1,7930.4,41.8168,103.615,3.75902e+10,1.00402,0.978444,76,0.364953,261,1,1
app_29,4.72928,19997.5,7948.5,20.3038,101.721,1.51493e+10,1.00456,0.978444,78,0.148522,254,1,1
app_3,3.92429,19554.4,7456.1,139.812,1488.72,5.06947e+10,1.0657,0.978444,5,0.034069,3662,1,1
app_30,97.3881,20294.5,7955.9,38.1048,42.42,3.63479e+10,1.00097,0.978444,187,0.865427,107,1,1
app_31,23.4639,19995.4,7946.6,16.0182,177.426,5.71627e+09,1.006,0.978444,45,0.0322953,441,1,1
app_32,79.5474,20117.7,7958.7,16.0816,57.8879,1.23865e+10,1.00363,0.978444,138,0.217307,145,1,1
app_33,39.4488,19862.1,7934.5,28.5003,128.31,2.50505e+10,1.00508,0.978444,62,0.195707,317,1,1
app_34,12.6473,19765.1,7937.8,21.6641,188.375,1.66862e+10,1.00572,0.978444,42,0.0882865,465,1,1
app_35,80.3506,20261,7921.6,50.4695,87.1822,4.43114e+10,1.00428,0.978444,91,0.509327,219,1,1
app_36,112.532,20202.5,7968.7,12.2678,65.7263,6.93217e+09,1.00306,0.978444,121,0.105033,165,1,1
app_37,1.94088,20068.3,7970,16.1669,76.958,1.30932e+10,1.00212,0.978444,103,0.170042,194,1,1
app_38,14.2006,19949.5,7933.5,34.6682,111.462,3.05323e+10,1.00452,0.978444,71,0.27261,279,1,1
app_39,5.60162,20214.4,7907.8,54.6717,108.22,5.00718e+10,1.00529,0.978444,73,0.463628,273,1,1
app_4,6.09565,18932.5,7599.8,95.4149,948.455,4.82171e+10,1.04602,0.978444,8,0.0508619,2253,1,1
app_40,48.697,20091.4,7963.5,7.30842,73.6498,4.15e+09,1.00406,0.978444,109,0.0560811,184,1,1
app_41,534.248,20645.4,7995.9,3.32428,7.05483,2.85281e+09,1.00016,0.978444,1118,0.407544,18,1,1
app_42,46.9785,19988.2,7934.2,22.8304,126.176,1.43591e+10,1.00647,0.978444,63,0.113961,313,1,1
app_43,495.831,22470,7944.2,55.5168,4.33842,5.54249e+10,1.00005,0.978444,1781,11.085,12,1,1
app_44,173.702,21939.9,7991.5,8.46655,4.65126,8.01889e+09,1.00006,0.978444,1662,1.60378,13,1,1
app_45,158.017,19947.2,7962.5,37.0909,5.60641,3.68326e+10,1.00008,0.978444,1422,7.36653,14,1,1
app_46,730.966,21996.3,7997.3,2.59599,4.94068,2.46267e+09,1.00003,0.978444,1649,0.492533,13,1,1
app_47,1120.95,22561.3,7979.4,10.2463,5.9243,9.80618e+09,1.00135,0.978444,1297,1.63436,16,1,1
app_48,686.533,19981.7,7956.6,43.27,6.33702,4.30529e+10,1.00004,0.978444,1328,7.17548,15,1,1
app_49,435.098,22152.8,7975.3,22.1032,5.03241,2.19453e+10,1.00034,0.978444,1509,4.38906,14,1,1
app_5,0.714832,18187.8,7113.7,308.033,3557.4,5.20414e+10,1.11642,0.978444,2,0.0146307,8131,1,1
app_50,422.881,20704.7,7983.1,16.5131,5.02983,1.62172e+10,1.00009,0.978444,1551,3.24345,13,1,1
app_51,895.375,21155.8,7950.5,48.6835,8.13473,4.82985e+10,1.00015,0.978444,969,6.03731,21,1,1
app_52,17.0362,20149.3,7900.7,18.9895,231.71,3.52467e+09,1.01212,0.978444,34,0.0151926,585,1,1
app_53,689.015,21294.7,7960.2,39.6753,9.14969,3.92299e+10,1.00007,0.978444,861,4.35888,24,1,1
app_54,679.118,22036.4,7949.4,50.5143,5.96621,5.03087e+10,1.00004,0.978444,1311,8.38478,16,1,1
app_55,625.951,21685.6,7969.4,29.6269,5.23224,2.93305e+10,1.00016,0.978444,1501,5.86611,14,1,1
app_56,270.725,20387.2,7995.1,3.69455,8.9265,3.25585e+09,1.00021,0.978444,871,0.361762,23,1,1
app_57,935.667,21003.1,7996.9,3.08318,6.74544,2.9551e+09,1.00002,0.978444,1185,0.492517,17,1,1
app_58,714.665,21125.6,7987.8,11.014,9.77953,1.06166e+10,1.0002,0.978444,804,1.06166,25,1,1
app_59,1199.15,22585.6,7946.6,53.0062,6.43195,5.26121e+10,1.0001,0.978444,1241,7.51602,17,1,1
app_6,4.6987,19297.1,7759.8,58.6477,517.639,4.40574e+10,1.02513,0.978444,15,0.0852174,1250,1,1
app_60,1498.93,22341,7950.9,48.9914,5.03127,4.88802e+10,1.00003,0.978444,1598,9.77604,13,1,1
app_7,4.33877,20539.1,7629.3,74.7742,951.82,8.25768e+08,1.04848,0.978444,8,0.000867403,2453,1,1
app_8,3.30978,20345.5,7748.7,85.4492,483.516,4.93393e+10,1.0259,0.978444,16,0.101941,1229,1,1
app_9,13.5439,19947.3,7797.6,41.175,458.027,1.3883e+10,1.02413,0.978444,17,0.0303122,1144,1,1
