app_id,start_app,end_app,effective_cpu,effective_io,effective_iter,total_bytes,stretch,utilization,Tcomp,Tio,iterations,priority,group_id
app_1,0.00806561,19089.3,7884.8,115.2,1124.97,3.78809e+10,1.00976,0.993175,7,0.0336719,2684,1,1
app_10,3.89975,19360.6,7927.8,72.2,722.526,1.29848e+10,1.00746,0.993175,11,0.0179844,1743,1.00001,1.00001
app_11,2.62423,19416.2,7943.8,56.2,531.176,2.57285e+10,1.00382,0.993175,15,0.0484529,1286,1.00001,1.00001
app_12,4.32016,19866.8,7943.8,56.2,466.8,3.23984e+10,1.00298,0.993175,17,0.0693757,1160,1.00001,1.00001
app_13,5.82201,18128.8,7887.2,112.8,1128.12,1.01381e+10,1.013,0.993175,7,0.0089877,2557,1.00001,1.00001
app_14,0.893836,19284.1,7886.97,113.03,1126.57,2.87435e+10,1.01065,0.993175,7,0.0255203,2716,1.00001,1.00001
app_15,4.5441,18924.9,7901,99,990.366,1.79557e+10,1.01023,0.993175,8,0.0181371,2340,1.00002,1.00002
app_16,2.55368,19131.3,7887,113,1128.51,2.12848e+10,1.0116,0.993175,7,0.0188528,2697,1.00002,1.00002
app_17,9.64421,18599.4,7928,72,719.958,1.21563e+10,1.00754,0.993175,11,0.0168837,1675,1.00002,1.00002
app_18,0.853168,18893.8,7940.6,59.4,566.486,2.80214e+10,1.00394,0.993175,14,0.0495077,1342,1.00002,1.00002
app_19,3.9351,19744.8,7936.1,63.9,608.608,2.72829e+10,1.0046,0.993175,13,0.0447995,1506,1.00002,1.00002
app_2,4.32646,19365.5,7940.6,59.4,530.225,2.68612e+10,1.00408,0.993175,15,0.0506814,1283,1,1
app_20,2.85037,19458.3,7842.6,157.4,1565.12,4.31007e+10,1.01449,0.993175,5,0.0275228,3812,1.00002,1.00002
app_21,61.1794,19977.9,7944.6,55.4,121.975,3.80357e+10,1.00218,0.993175,65,0.311768,304,1.00002,1.00002
app_22,9.72213,19849.2,7959.8,40.2,45.0164,2.93184e+10,1.00136,0.993175,176,0.65152,113,1.00002,1.00002
app_23,65.7429,20050.8,7992.7,7.3,55.5379,4.63738e+09,1.00033,0.993175,145,0.084316,138,1.00002,1.00002
app_24,34.8765,19989.2,7949,51,110.349,3.51203e+10,1.00199,0.993175,72,0.319275,276,1.00002,1.00002
app_25,51.9644,19918.7,7958.7,41.3,110.311,2.81575e+10,1.00165,0.993175,73,0.255977,272,1.00003,1.00003
app_26,40.0716,20112.4,7953.1,46.9,108.77,3.30786e+10,1.00173,0.993175,73,0.303473,273,1.00003,1.00003
app_27,37.9452,20138.1,7950.3,49.7,65.654,3.29888e+10,1.00209,0.993175,121,0.50752,165,1.00003,1.00003
app_28,78.3484,20228,7959.2,40.8,92.2862,2.93693e+10,1.00143,0.993175,86,0.319231,232,1.00003,1.00003
app_29,86.9734,20225.7,7942.9,57.1,72.6945,4.58337e+10,1.00141,0.993175,109,0.62786,183,1.00003,1.00003
app_3,5.76095,19695.1,7925.2,74.8,723.221,3.12455e+10,1.00547,0.993175,11,0.0432164,1778,1,1
app_30,110.722,19958.8,7935.1,64.9,59.8901,4.66843e+10,1.00228,0.993175,132,0.778071,150,1.00003,1.00003
app_31,68.468,20226.9,7965.1,34.9,71.9249,2.27716e+10,1.00152,0.993175,110,0.316272,181,1.00003,1.00003
app_32,18.6793,20059,7973.7,26.3,113.044,1.75025e+10,1.0011,0.993175,70,0.15489,284,1.00003,1.00003
app_33,55.7827,20089.4,7945.1,54.9,68.9961,4.45856e+10,1.00129,0.993175,115,0.646168,173,1.00003,1.00003
app_34,101.274,20181.8,7990.1,9.9,61.1696,5.78714e+09,1.00051,0.993175,131,0.093341,153,1.00003,1.00003
app_35,38.3299,20134.8,7947.7,52.3,127.363,3.67371e+10,1.00195,0.993175,62,0.287008,321,1.00004,1.00004
app_36,6.79811,19966.1,7959.8,40.2,304.566,2.76221e+10,1.00157,0.993175,26,0.0905644,760,1.00004,1.00004
app_37,11.5163,19894.8,7974.2,25.8,69.5241,1.72437e+10,1.00107,0.993175,115,0.249909,173,1.00004,1.00004
app_38,2.97575,20051.9,7945.7,54.3,51.0673,3.97225e+10,1.00183,0.993175,157,0.778873,127,1.00004,1.00004
app_39,26.0433,20150.1,7943.8,56.2,79.6898,4.39825e+10,1.00153,0.993175,99,0.549781,201,1.00004,1.00004
app_4,7.95814,19696.3,7900.9,99.1,990.029,2.39272e+10,1.00949,0.993175,8,0.0241689,2434,1,1
app_40,56.7396,20022,7944.8,55.2,58.5094,4.48577e+10,1.00129,0.993175,136,0.773409,147,1.00004,1.00004
app_41,362.351,20738.6,7952.8,47.2,9.89239,3.74665e+10,1.00122,0.993175,804,3.74665,25,1.00004,1.00004
app_42,689.352,21496.8,7937.2,62.8,9.11937,4.71481e+10,1.00196,0.993175,895,5.23868,23,1.00004,1.00004
app_43,1191.11,21472.7,7956.1,43.9,6.1765,3.44399e+10,1.00118,0.993175,1273,5.73999,16,1.00004,1.00004
app_44,204.227,21217.6,7994,6,7.69838,4.90963e+09,1.00014,0.993175,1026,0.613704,20,1.00004,1.00004
app_45,56.5552,20296.7,7969.5,30.5,17.9624,2.43526e+10,1.00077,0.993175,446,1.35292,45,1.00004,1.00004
app_46,416.363,20412.4,7984.8,15.2,4.51941,1.33347e+10,1.00023,0.993175,1830,3.33366,11,1.00005,1.00005
app_47,412.505,20567.3,7998.9,1.1,11.5279,4.31022e+08,1.00008,0.993175,692,0.0391838,29,1.00005,1.00005
app_48,744.512,21581.1,7995.3,4.7,6.55072,3.74046e+09,1.00012,0.993175,1232,0.623411,17,1.00005,1.00005
app_49,178.856,20411.7,7989.5,10.5,32.7759,7.05735e+09,1.00043,0.993175,242,0.213859,83,1.00005,1.00005
app_5,3.37741,19961.9,7927.8,72.2,608.948,3.87699e+10,1.0042,0.993175,13,0.0636615,1519,1.00001,1.00001
app_50,412.472,20809.1,7990.6,9.4,9.95027,7.81039e+09,1.0002,0.993175,813,0.781039,25,1.00005,1.00005
app_51,677.729,21961.8,7943.3,56.7,5.89196,4.42619e+10,1.00156,0.993175,1321,7.37698,16,1.00005,1.00005
app_52,466.971,21290.1,7954,46,8.3234,3.95233e+10,1.00081,0.993175,941,4.94042,22,1.00005,1.00005
app_53,106.236,19987.9,7953.5,46.5,9.25071,3.46718e+10,1.00148,0.993175,866,3.85242,23,1.00005,1.00005
app_54,109.193,20480.4,7980.7,19.3,12.8182,1.45561e+10,1.00059,0.993175,622,1.1197,33,1.00005,1.00005
app_55,232.564,20655,7990.8,9.2,8.75899,6.66359e+09,1.00032,0.993175,925,0.832949,22,1.00005,1.00005
app_56,275.632,20248.2,7972.1,27.9,18.2216,2.38023e+10,1.00051,0.993175,434,1.32235,46,1.00006,1.00006
app_57,276.353,21066.7,7944.5,55.5,10.9803,4.43e+10,1.0014,0.993175,695,4.02727,29,1.00006,1.00006
app_58,5.39952,20281.3,7996.6,3.4,8.67192,2.50438e+09,1.00011,0.993175,928,0.278265,22,1.00006,1.00006
app_59,1010.26,21484.1,7998.4,1.6,7.38309,1.19745e+09,1.00005,0.993175,1069,0.149682,19,1.00006,1.00006
app_6,7.83582,18802.3,7907.1,92.9,792.308,4.81309e+10,1.00563,0.993175,10,0.0607714,1858,1.00001,1.00001
app_60,401.5,20427.2,7964,36,6.184,3.02725e+10,1.00072,0.993175,1340,5.04542,15,1.00006,1.00006
app_7,13.005,19188.4,7937.5,62.5,608.195,2.21632e+10,1.00507,0.993175,13,0.0364526,1461,1.00001,1.00001
app_8,1.99791,17666.3,7804.8,195.2,1949.87,4.896e+10,1.01862,0.993175,4,0.0251077,4304,1.00001,1.00001
app_9,2.32141,19245,7868.3,131.7,1313.39,3.26859e+10,1.01253,0.993175,6,0.024894,3159,1.00001,1.00001
