app_id,start_app,end_app,effective_cpu,effective_io,effective_iter,total_bytes,stretch,utilization,Tcomp,Tio,iterations,priority,group_id
app_1,2.37879,18007.4,7718.8,242.88,2576.35,6.01482e+10,1.02842,0.992185,3,0.0233495,5799,0.1,1
app_10,4.97252,19559.6,7924.6,65.7667,609.236,5.0778e+10,1.00309,0.992185,13,0.0833793,1493,0.1,1
app_11,0.351958,17381.3,7799.3,172.85,1952.17,5.53098e+09,1.02501,0.992185,4,0.0028335,4236,0.1,1
app_12,11.2502,18860,7932.3,57.4513,610.405,1.66469e+10,1.00642,0.992185,13,0.0272454,1436,0.1,1
app_13,4.76539,18797,7836.7,141.22,1566.13,1.31329e+10,1.01913,0.992185,5,0.00838627,3685,0.1,1
app_14,1.64507,17940.1,7893.4,90.8935,990.374,1.8181e+10,1.01118,0.992185,8,0.0183461,2218,0.1,1
app_15,4.83098,18326.4,7867.1,115.378,1121.64,6.34742e+10,1.00875,0.992185,7,0.0565723,2570,0.1,1
app_16,7.74279,19882.4,7953.7,41.1832,347.09,3.40059e+10,1.00154,0.992185,23,0.0979996,860,0.1,1
app_17,8.45189,19205.2,7912.4,75.3859,720.563,4.6803e+10,1.00513,0.992185,11,0.064914,1728,0.1,1
app_18,2.88212,17768.7,7848.2,132.135,1308.16,6.89344e+10,1.01047,0.992185,6,0.0527022,2905,0.1,1
app_19,6.53222,19116.6,7897.7,87.1727,986.205,5.06153e+09,1.0123,0.992185,8,0.00513339,2357,0.1,1
app_2,12.0606,19510.3,7933.3,57.2663,612.057,1.69314e+10,1.00626,0.992185,13,0.0276657,1487,0.1,1
app_20,8.53704,18680.5,7924.6,66.3994,658.694,3.5265e+10,1.00504,0.992185,12,0.0535129,1538,0.1,1
app_21,51.7321,19898,7954.6,42.2663,100.004,3.43199e+10,1.00139,0.992185,80,0.343199,247,0.01,2
app_22,47.5773,20052.9,7955,42.5905,115.109,3.43603e+10,1.00133,0.992185,69,0.298785,287,0.01,2
app_23,89.2691,20073.4,7980,16.7965,76.8741,1.25913e+10,1.00093,0.992185,104,0.163524,192,0.01,2
app_24,106.152,20322.3,7944.4,55.6,53.4486,4.78497e+10,1.00097,0.992185,148,0.902825,135,0.01,2
app_25,62.505,20217.4,7979.9,18.13,90.497,1.04435e+10,1.00121,0.992185,88,0.116039,227,0.01,2
app_26,57.1451,20023.3,7973.2,23.887,65.9963,1.93474e+10,1.00093,0.992185,122,0.293142,164,0.01,2
app_27,19.9216,20085.4,7991.2,7.2778,53.249,5.15528e+09,1.00046,0.992185,149,0.0972695,134,0.01,2
app_28,45.2076,19955.1,7976.5,22.5269,67.2466,1.847e+10,1.00063,0.992185,119,0.271618,167,0.01,2
app_29,25.8465,20056.8,7976.4,16.2239,77.2385,1.14316e+10,1.00152,0.992185,104,0.146559,192,0.01,2
app_3,6.01237,19124.5,7928.9,61.5927,663.04,1.41707e+10,1.00717,0.992185,12,0.0213735,1580,0.1,1
app_30,23.5044,19945.8,7972,23.4442,96.7418,1.84328e+10,1.0012,0.992185,82,0.190029,242,0.01,2
app_31,46.4261,19916.3,7993.3,5.03447,51.9851,2.46316e+08,1.00081,0.992185,155,0.00473684,129,0.01,2
app_32,25.0484,20028.1,7938,59.5579,92.113,5.05778e+10,1.00143,0.992185,86,0.549758,231,0.01,2
app_33,157.055,20148.4,7976.7,20.7267,50.7053,1.61322e+10,1.0009,0.992185,158,0.316317,126,0.01,2
app_34,84.0026,19999.7,7969.4,30.4646,42.2795,2.59636e+10,1.00058,0.992185,190,0.61818,105,0.01,2
app_35,74.6402,20006.9,7968.9,29.8572,68.9417,2.4319e+10,1.00085,0.992185,116,0.35245,171,0.01,2
app_36,16.6282,19985.3,7980.2,16.8236,123.081,1.17341e+10,1.00101,0.992185,65,0.095399,307,0.01,2
app_37,30.7242,20052.6,7929.7,68.8988,66.7133,5.90573e+10,1.00141,0.992185,118,0.894807,167,0.01,2
app_38,96.1828,20090.3,7931.9,67.4535,55.1465,5.81893e+10,1.00124,0.992185,146,1.05799,136,0.01,2
app_39,15.5133,19880,7970.9,26.1825,87.7318,1.85824e+10,1.00132,0.992185,91,0.213591,218,0.01,2
app_4,0.366878,15510.9,7721.3,241.111,2573.13,5.97822e+10,1.02813,0.992185,3,0.0232254,4989,0.1,1
app_40,38.2424,19942.9,7946.9,48.5386,89.72,3.997e+10,1.00164,0.992185,88,0.449102,224,0.01,2
app_41,468.4,20585.7,7966.3,27.1818,14.8812,2.23733e+10,1.00142,0.992185,535,1.49155,38,0.001,3
app_42,742.358,21027.9,7932,68,7.54131,5.44627e+10,1.0017,0.992185,1033,7.78038,20,0.001,3
app_43,603.979,20783.3,7974.4,24.0114,8.72338,1.93416e+10,1.00078,0.992185,911,2.14906,22,0.001,3
app_44,713.112,20951.3,7945.9,54.1,5.05852,4.41828e+10,1.00124,0.992185,1591,8.83656,13,0.001,3
app_45,96.8504,20700,7964.8,35.2,8.59119,2.95277e+10,1.00071,0.992185,934,3.69096,22,0.001,3
app_46,308.681,20952.7,7974.9,25.1,14.0843,1.88468e+10,1.00078,0.992185,567,1.3462,36,0.001,3
app_47,1049.17,20904.3,7994.6,4.00501,5.89623,3.17592e+09,1.00028,0.992185,1343,0.529319,15,0.001,3
app_48,671.844,21209.2,7973.6,26.4,6.7183,2.14934e+10,1.00061,0.992185,1174,3.07049,17,0.001,3
app_49,326.271,21702.8,7993.9,6.1,5.59944,5.23294e+09,1.00011,0.992185,1408,0.872156,15,0.001,3
app_5,7.77354,19587.4,7931.7,57.7081,610.305,1.84598e+10,1.00627,0.992185,13,0.030262,1494,0.1,1
app_50,460.218,21000.1,7978.6,13.759,13.5816,1.18706e+10,1.00119,0.992185,585,0.913125,35,0.001,3
app_51,6.04291,20003.2,7931.3,65.8141,48.3239,5.71609e+10,1.00144,0.992185,164,1.19085,121,0.01,2
app_52,98.96,22065.8,7951.5,46.0646,4.70452,4.03727e+10,1.00102,0.992185,1640,8.07453,13,0.001,3
app_53,661.401,22237.1,7983.9,16.1,3.92268,1.32112e+10,1.00036,0.992185,1988,3.30279,11,0.001,3
app_54,89.6305,21060,7936.6,59.9417,6.98254,4.89255e+10,1.00181,0.992185,1164,6.98935,18,0.001,3
app_55,304.328,20721.7,7992.8,4.17453,21.641,2.11202e+09,1.00064,0.992185,368,0.100573,55,0.001,3
app_56,228.368,20475.7,7995,4.14435,18.6984,1.59287e+09,1.00043,0.992185,422,0.0838354,48,0.001,3
app_57,43.5802,20544.3,7953.5,46.5,17.1527,3.76202e+10,1.00111,0.992185,459,2.21296,44,0.001,3
app_58,38.4304,20814.3,7985.5,14.5,6.07115,1.19988e+10,1.00031,0.992185,1266,1.9998,16,0.001,3
app_59,697.924,21432.7,7989,11,7.73267,8.33049e+09,1.00033,0.992185,1035,1.19007,20,0.001,3
app_6,4.59319,18679.7,7852.2,126.583,1309.55,4.58177e+10,1.01291,0.992185,6,0.035002,3058,0.1,1
app_60,711.157,20865.7,7990.3,9.27478,9.29178,7.75839e+09,1.00024,0.992185,881,0.775839,23,0.001,3
app_7,2.9832,19688.9,7869.4,112.381,1125.87,5.23818e+10,1.00987,0.992185,7,0.0465202,2772,0.1,1
app_8,5.64435,19657.5,7895.3,89.393,985.758,1.56351e+10,1.01126,0.992185,8,0.0158571,2420,0.1,1
app_9,6.50428,19259.5,7890.3,94.1678,990.102,2.69062e+10,1.01046,0.992185,8,0.027178,2380,0.1,1
