app_id,start_app,end_app,effective_cpu,effective_io,effective_iter,total_bytes,stretch,utilization,Tcomp,Tio,iterations,priority,group_id
app_1,1.0412,20493.4,7622.5,101.106,1088.59,3.24723e+10,1.04507,0.983304,7,0.0298459,2802,1,1
app_10,5.01475,20620.8,7662.1,90.8115,959.559,3.16454e+10,1.03981,0.983304,8,0.032964,2473,1,1
app_11,3.30336,19190.9,7612,104.334,1088.94,4.15476e+10,1.04527,0.983304,7,0.0381872,2618,1,1
app_12,11.9543,19452.4,7775.6,53.9528,646.87,1.62325e+09,1.02864,0.983304,12,0.00250888,1583,1,1
app_13,16.8897,19284.6,7804.9,52.6197,486.551,3.65392e+10,1.02022,0.983304,16,0.0751835,1177,1,1
app_14,9.56768,19499.4,7703,75.9007,770.273,3.32823e+10,1.03409,0.983304,10,0.0432238,1886,1,1
app_15,5.95235,19420,7683,84.5364,854.624,3.95167e+10,1.03593,0.983304,9,0.0462184,2078,1,1
app_16,8.55736,19831.6,7829.9,58.0334,519.505,4.51387e+10,1.01587,0.983304,15,0.0868052,1287,1,1
app_17,4.64802,19506,7637.4,90.3849,1089.91,1.40028e+09,1.04728,0.983304,7,0.00128584,2663,1,1
app_18,3.60042,18146,7588.2,104.302,1264.47,1.93332e+09,1.054,0.983304,6,0.00152831,2886,1,1
app_19,1.72103,20740.8,7524.2,130.675,1502.59,2.00238e+10,1.06041,0.983304,5,0.0133315,3914,1,1
app_2,5.66621,19683.1,7677,82.0028,958.373,5.22411e+09,1.04137,0.983304,8,0.00544745,2361,1,1
app_20,12.551,19077.8,7794.1,63.4104,556.305,5.07414e+10,1.01978,0.983304,14,0.0912615,1331,1,1
app_21,41.6601,19974.4,7881.8,61.2503,121.983,5.56161e+10,1.00788,0.983304,65,0.45587,302,1,1
app_22,58.5339,20126,7898.3,51.6923,127.039,4.76375e+10,1.0068,0.983304,62,0.375099,319,1,1
app_23,21.3148,19976.2,7964.6,19.1334,60.1803,1.76974e+10,1.00222,0.983304,132,0.294956,151,1,1
app_24,51.144,20145.5,7931.4,55.5398,54.5481,5.37478e+10,1.00186,0.983304,145,0.977232,137,1,1
app_25,38.22,20010.1,7941,33.1208,79.9574,3.19579e+10,1.00339,0.983304,99,0.399474,200,1,1
app_26,152.414,20511.6,7967.4,13.8112,45.4499,1.19009e+10,1.00259,0.983304,176,0.264466,114,1,1
app_27,72.6803,20220.2,7938.3,28.6851,59.3681,2.46431e+10,1.00465,0.983304,134,0.410719,149,1,1
app_28,51.7703,19858.5,7943.1,47.8027,52.9136,4.48788e+10,1.0015,0.983304,151,0.84677,131,1,1
app_29,34.4643,20081,7923.8,43.9716,143.295,3.89803e+10,1.00467,0.983304,55,0.272589,361,1,1
app_3,0.0756623,19948.4,7717.4,69.0066,770.786,1.44236e+10,1.03468,0.983304,10,0.018732,1930,1,1
app_30,3.99849,19997.5,7947,42.586,59.0391,4.11518e+10,1.00148,0.983304,133,0.697489,149,1,1
app_31,60.457,20264.3,7977.7,13.8833,72.7771,7.76621e+09,1.00182,0.983304,109,0.106386,183,1,1
app_32,74.275,19961.3,7964.5,26.3497,64.4936,2.4817e+10,1.00134,0.983304,124,0.387766,160,1,1
app_33,66.0995,20109.1,7947.7,9.98904,98.1373,5.83149e+09,1.00584,0.983304,81,0.0589039,246,1,1
app_34,75.3742,19921.6,7936.3,23.4724,77.4724,1.97777e+10,1.00552,0.983304,104,0.25356,191,1,1
app_35,46.8726,20131.8,7970.3,9.51057,110.578,7.67118e+08,1.00363,0.983304,72,0.00691097,278,1,1
app_36,57.4328,20006.2,7946.9,44.0337,87.426,3.97805e+10,1.00167,0.983304,91,0.452051,219,1,1
app_37,48.7773,20133.6,7907.3,58.5895,81.7138,5.66247e+10,1.00453,0.983304,97,0.690545,204,1,1
app_38,4.72301,19873.7,7885.5,58.8592,196.531,4.76363e+10,1.00843,0.983304,40,0.241808,489,1,1
app_39,4.74701,19895.9,7882.2,48.5306,261.792,2.8513e+10,1.01129,0.983304,30,0.108828,653,1,1
app_4,2.60017,18049.2,7522.6,133.621,1503.5,2.70507e+10,1.05965,0.983304,5,0.0179978,3410,1,1
app_40,90.979,20129.6,7941,33.332,84.7165,2.72255e+10,1.00399,0.983304,94,0.3203,212,1,1
app_41,922.17,21734.5,7934.6,52.6925,7.40372,5.21922e+10,1.00165,0.983304,1096,6.52402,19,1,1
app_42,144.781,20904.4,7993.9,5.65795,7.20051,5.27268e+09,1.0001,0.983304,1104,0.75324,19,1,1
app_43,569.798,21270.4,7975.7,22.4788,9.46722,2.17519e+10,1.00032,0.983304,862,2.41688,24,1,1
app_44,916.281,21682.3,7973.8,26.0305,6.92277,2.56369e+10,1.00007,0.983304,1120,3.66241,18,1,1
app_45,378.159,21157.2,7977.4,13.8124,6.29886,1.33311e+10,1.00116,0.983304,1282,2.22185,16,1,1
app_46,1102.4,20894.7,7991.9,3.46444,5.28967,3.30154e+09,1.0006,0.983304,1540,0.660309,13,1,1
app_47,86.5361,20674,7966.2,31.226,12.2924,3.05464e+10,1.00041,0.983304,630,2.54553,32,1,1
app_48,179.559,20769.2,7947.6,48.1395,5.80694,4.77626e+10,1.00058,0.983304,1352,7.96043,15,1,1
app_49,782.192,21803,7981.4,13.905,7.03874,1.35474e+10,1.00063,0.983304,1080,1.93534,19,1,1
app_5,4.78736,20163.4,7701.6,82.5773,854.997,3.2949e+10,1.03432,0.983304,9,0.0385369,2165,1,1
app_50,764.517,21233.8,7981.5,18.1289,10.1161,1.79283e+10,1.00007,0.983304,783,1.79283,26,1,1
app_51,351.137,20088.8,7991.1,7.31271,12.6998,7.02197e+09,1.00023,0.983304,644,0.585165,31,1,1
app_52,1147.45,22364.7,7943.9,55.2455,5.66607,5.49118e+10,1.00015,0.983304,1406,9.15197,15,1,1
app_53,530.319,19972.1,7945.2,54.6644,7.15789,5.42964e+10,1.00006,0.983304,1169,7.75662,17,1,1
app_54,64.5147,20286.5,7982.5,16.9103,14.022,1.65569e+10,1.00012,0.983304,572,1.18264,35,1,1
app_55,220.222,20264.1,7974.6,20.578,12.0664,2.02294e+10,1.00065,0.983304,665,1.68578,30,1,1
app_56,78.7373,20082.3,7984.2,14.7308,20.0883,1.38036e+10,1.00025,0.983304,399,0.657312,50,1,1
app_57,188.183,20674.6,7984.5,7.3646,15.4019,6.68128e+09,1.0011,0.983304,522,0.445419,39,1,1
app_58,602.996,20848.4,7945.9,53.9943,9.17756,5.35413e+10,1.00007,0.983304,872,5.94904,23,1,1
app_59,533.496,20601.2,7972.9,26.9447,10.3182,2.60919e+10,1.00013,0.983304,768,2.60919,26,1,1
app_6,0.813556,19133.1,7724.8,70.8891,772.239,2.37702e+10,1.03245,0.983304,10,0.0307904,1851,1,1
app_60,217.573,20211.1,7976.8,22.6493,12.6899,2.2072e+10,1.00014,0.983304,625,1.83933,32,1,1
app_7,13.9867,19859,7816.2,42.0245,489.338,5.39733e+09,1.02281,0.983304,16,0.0110375,1215,1,1
app_8,4.21989,19257.2,7789.5,47.4467,555.821,3.73664e+09,1.02653,0.983304,14,0.00672057,1343,1,1
app_9,6.5984,18463.3,7678.3,91.6205,962.953,3.53281e+10,1.03713,0.983304,8,0.0366854,2219,1,1
