app_id,start_app,end_app,effective_cpu,effective_io,effective_iter,total_bytes,stretch,utilization,Tcomp,Tio,iterations,priority,group_id
app_1,9.81724,19446,7927.8,72.2,721.896,5.55488e+09,1.0084,0.992211,11,0.00769374,1754,1,1
app_10,4.56635,17900.9,7803.3,196.7,1951.53,6.01114e+10,1.01737,0.992211,4,0.0308105,4369,1.00001,1.00001
app_11,3.16167,15927.2,7741.5,258.5,2581.62,5.17671e+10,1.02653,0.992211,3,0.020057,5134,1.00001,1.00001
app_12,1.44126,18411.3,7887.5,112.5,1125.7,2.53742e+09,1.01394,0.992211,7,0.00225548,2588,1.00001,1.00001
app_13,7.80368,18581.9,7901.26,98.744,987.717,9.91153e+09,1.01123,0.992211,8,0.0100376,2296,1.00001,1.00001
app_14,6.48664,19161.9,7933.4,66.6,663.379,1.78005e+10,1.00614,0.992211,12,0.0268484,1585,1.00001,1.00001
app_15,8.8866,19546.1,7918.6,81.4,788.569,3.11817e+10,1.00632,0.992211,10,0.0395205,1934,1.00002,1.00002
app_16,7.89687,18862.8,7920.6,79.4,788.786,2.16215e+10,1.00727,0.992211,10,0.0274384,1862,1.00002,1.00002
app_17,7.3016,19370.7,7893.9,106.1,493.015,5.35322e+10,1.00661,0.992211,16,0.108585,1193,1.00002,1.00002
app_18,1.81405,19093.4,7920.4,79.6,792.635,1.79669e+10,1.00776,0.992211,10,0.0226855,1887,1.00002,1.00002
app_19,6.72188,20186.4,7912.1,87.9,879.716,3.45581e+09,1.01067,0.992211,9,0.00393152,2218,1.00002,1.00002
app_2,2.67035,20287.1,7804,196,1948.11,5.34205e+10,1.01815,0.992211,4,0.0274232,4941,1,1
app_20,5.30931,19199,7927.9,72.1,719.78,1.79708e+10,1.00681,0.992211,11,0.0249594,1728,1.00002,1.00002
app_21,103.351,19942,7991.1,8.9,71.5127,5.31511e+09,1.00045,0.992211,111,0.073821,179,1.00002,1.00002
app_22,2.79458,19751.9,7987,13,60.1689,6.60385e+09,1.0008,0.992211,136,0.110064,147,1.00002,1.00002
app_23,29.883,20047.6,7991.2,8.8,87.4265,3.25557e+09,1.00069,0.992211,92,0.0374204,217,1.00002,1.00002
app_24,28.6394,19733.3,7974.5,25.5,112.004,1.43369e+10,1.0014,0.992211,71,0.128008,278,1.00002,1.00002
app_25,67.3518,20148,7951.1,48.9,94.3086,3.40493e+10,1.00186,0.992211,84,0.362227,237,1.00003,1.00003
app_26,58.9849,19941.8,7962.8,37.2,74.4503,2.7027e+10,1.00127,0.992211,107,0.36036,185,1.00003,1.00003
app_27,27.5509,19743.5,7953.8,46.2,128.366,3.25491e+10,1.00171,0.992211,62,0.252318,317,1.00003,1.00003
app_28,25.9923,19938.3,7987.7,12.3,110.265,6.65675e+09,1.00071,0.992211,72,0.0605159,276,1.00003,1.00003
app_29,71.7371,20062.7,7927,73,105.351,5.42063e+10,1.00235,0.992211,75,0.51625,263,1.00003,1.00003
app_3,0.452486,18427.1,7920.7,79.3,793.233,1.339e+10,1.00831,0.992211,10,0.0168853,1822,1,1
app_30,89.6432,19912,7991.9,8.1,76.1307,3.72328e+09,1.00055,0.992211,105,0.0489905,189,1.00003,1.00003
app_31,60.1057,20047.3,7940.3,59.7,95.9624,4.52822e+10,1.00181,0.992211,83,0.47169,239,1.00003,1.00003
app_32,2.03298,20098.6,7933,67,189.08,4.32669e+10,1.00298,0.992211,42,0.228925,474,1.00003,1.00003
app_33,12.743,19988.4,7980.4,19.6,79.8581,1.25742e+10,1.00088,0.992211,99,0.157178,201,1.00003,1.00003
app_34,33.1192,20004.6,7933.7,66.3,122.532,4.51539e+10,1.00265,0.992211,64,0.370114,308,1.00003,1.00003
app_35,7.1201,19971.6,7932.9,67.1,104.973,4.92583e+10,1.00224,0.992211,75,0.469127,264,1.00004,1.00004
app_36,18.2423,20310.8,7935,65,56.9992,4.65693e+10,1.00231,0.992211,138,0.817005,144,1.00004,1.00004
app_37,50.6672,20242.7,7954.8,45.2,75.2437,3.40837e+10,1.00139,0.992211,105,0.454449,190,1.00004,1.00004
app_38,102.002,20250.1,7971.6,28.4,72.8946,2.05868e+10,1.00098,0.992211,109,0.282011,183,1.00004,1.00004
app_39,63.9089,20294.5,7992.7,7.3,72.909,4.94211e+08,1.00085,0.992211,108,0.00677001,186,1.00004,1.00004
app_4,0.211494,20040.2,7906.1,93.9,438.543,5.03751e+10,1.00547,0.992211,18,0.11475,1099,1,1
app_40,125.726,20438.5,7975.1,24.9,55.4552,1.60748e+10,1.0011,0.992211,142,0.287051,141,1.00004,1.00004
app_41,311.791,20333.1,7933,67,10.408,4.68165e+10,1.00253,0.992211,770,4.68165,26,1.00004,1.00004
app_42,120.279,19955.9,7963.5,36.5,5.43889,2.74429e+10,1.00113,0.992211,1539,4.57382,13,1.00004,1.00004
app_43,97.3669,20645.6,7963.5,36.5,8.56348,2.66157e+10,1.00124,0.992211,929,3.32696,22,1.00004,1.00004
app_44,1024.3,21053.2,7952.1,47.9,5.97905,3.68761e+10,1.00138,0.992211,1365,6.14601,15,1.00004,1.00004
app_45,431.087,21019.1,7956.48,43.5173,10.6035,3.48104e+10,1.00109,0.992211,758,3.23673,27,1.00004,1.00004
app_46,301.882,20961.5,7934.1,65.9,15.6938,4.84774e+10,1.00218,0.992211,496,3.02984,41,1.00005,1.00005
app_47,1104.45,22116.7,7944.4,55.6,6.8743,4.25368e+10,1.00164,0.992211,1148,7.08947,18,1.00005,1.00005
app_48,1158.29,22158.4,7945.5,54.5,6.69053,4.1887e+10,1.00158,0.992211,1225,5.98385,17,1.00005,1.00005
app_49,776.906,20544.3,7981.9,18.1,8.19565,1.56947e+10,1.0003,0.992211,1003,1.96183,20,1.00005,1.00005
app_5,7.28059,18987.2,7925.7,74.3,720.697,2.42189e+10,1.0063,0.992211,11,0.0335907,1709,1.00001,1.00001
app_50,97.0235,20121.9,7997.6,2.4,7.14593,2.09783e+09,1.00004,0.992211,1131,0.29969,18,1.00005,1.00005
app_51,674.612,20991.3,7981.8,18.2,9.72007,1.55729e+10,1.00033,0.992211,798,1.55729,25,1.00005,1.00005
app_52,294.668,21089.6,7969.7,30.3,9.0368,2.43006e+10,1.00075,0.992211,879,2.70006,23,1.00005,1.00005
app_53,724.682,21539.4,7940.7,59.3,7.22036,4.75566e+10,1.00147,0.992211,1069,5.94457,19,1.00005,1.00005
app_54,936.644,21150.9,7986.6,13.4,6.99951,9.28075e+09,1.00052,0.992211,1134,1.32582,18,1.00005,1.00005
app_55,1012.11,21414.8,7995.9,4.1,7.48925,3.44207e+09,1.00008,0.992211,1056,0.430258,19,1.00005,1.00005
app_56,36.5552,20761.9,7926.5,73.5,7.67102,5.6491e+10,1.00213,0.992211,1036,7.06137,20,1.00006,1.00006
app_57,23.6463,19872.4,7946.9,53.1,10.8761,4.02967e+10,1.0016,0.992211,739,3.66334,27,1.00006,1.00006
app_58,414.844,20689.2,7990.1,9.9,15.574,6.37846e+09,1.00044,0.992211,523,0.398654,39,1.00006,1.00006
app_59,336.228,21101.7,7963.7,36.3,9.20184,3.08888e+10,1.00068,0.992211,854,3.43209,24,1.00006,1.00006
app_6,3.70584,16415.3,7741.4,258.6,2577.86,6.0079e+10,1.02545,0.992211,3,0.0233045,5291,1.00001,1.00001
app_60,901.459,21253.6,7942.7,57.3,8.48846,3.9421e+10,1.00224,0.992211,948,4.92763,21,1.00006,1.00006
app_7,2.39975,19851.1,7939.1,60.9,609.563,6.37057e+07,1.00766,0.992211,13,0.000104607,1513,1.00001,1.00001
app_8,4.98596,19566.1,7908.8,91.2,792.502,4.14047e+10,1.00626,0.992211,10,0.0522787,1933,1.00001,1.00001
app_9,11.3026,19999.4,7943.1,56.9,569.055,5.20129e+09,1.0065,0.992211,14,0.0091411,1417,1.00001,1.00001
