app_id,start_app,end_app,effective_cpu,effective_io,effective_iter,total_bytes,stretch,utilization,Tcomp,Tio,iterations,priority,group_id
app_1,7.15114,19831.5,7930.8,69.2,658.09,2.75939e+10,1.00523,0.993124,12,0.0419361,1635,1,1
app_10,5.34416,18685,7843.1,156.9,1569.9,1.27172e+10,1.01835,0.993124,5,0.00810527,3665,1.00001,1.00001
app_11,10.2812,19944.5,7929.4,70.6,608.977,3.1803e+10,1.00487,0.993124,13,0.0522217,1518,1.00001,1.00001
app_12,0.852063,18271.4,7838.9,161.1,1570.31,5.56304e+10,1.01336,0.993124,5,0.0354334,3582,1.00001,1.00001
app_13,2.31927,18918.5,7903,97,791.913,5.83416e+10,1.00486,0.993124,10,0.0736636,1870,1.00001,1.00001
app_14,11.6974,19069.9,7919.6,80.4,658.869,4.63408e+10,1.00428,0.993124,12,0.0703199,1569,1.00001,1.00001
app_15,4.94949,19450.6,7886.5,113.5,1124.53,3.5115e+10,1.0099,0.993124,7,0.0312411,2739,1.00002,1.00002
app_16,11.3633,19725.4,7927.6,72.4,527.789,5.04509e+10,1.00275,0.993124,15,0.095551,1303,1.00002,1.00002
app_17,3.1482,18920.6,7931.5,68.5,662.728,2.61597e+10,1.00532,0.993124,12,0.0395161,1564,1.00002,1.00002
app_18,10.6975,20087,7927.9,72.1,720.95,1.12516e+10,1.00766,0.993124,11,0.0156056,1809,1.00002,1.00002
app_19,6.76533,18829.1,7934.3,65.7,657.454,1.0401e+10,1.00696,0.993124,12,0.015831,1556,1.00002,1.00002
app_2,6.18181,20051.1,7947.1,52.9,468.592,2.43247e+10,1.00358,0.993124,17,0.051865,1173,1,1
app_20,2.63479,19176,7898,102,877.625,4.7411e+10,1.00687,0.993124,9,0.0539989,2102,1.00002,1.00002
app_21,170.734,20303.7,7958.7,41.3,43.5297,3.17021e+10,1.0012,0.993124,183,0.720502,109,1.00002,1.00002
app_22,36.7508,20218.9,7961.5,38.5,50.7761,3.11488e+10,1.00092,0.993124,157,0.61076,127,1.00002,1.00002
app_23,76.5955,20154.7,7946.7,53.3,92.6431,3.8191e+10,1.00189,0.993124,85,0.410656,234,1.00002,1.00002
app_24,93.8493,20025.6,7968,32,52.0884,2.52622e+10,1.00084,0.993124,153,0.485811,130,1.00002,1.00002
app_25,34.7623,19731.2,7957.6,42.4,169.392,2.87335e+10,1.00171,0.993124,47,0.170021,417,1.00003,1.00003
app_26,40.723,19894.1,7959.1,40.9,67.2969,3.03658e+10,1.00132,0.993124,119,0.446556,167,1.00003,1.00003
app_27,35.817,20093.1,7936.6,63.4,73.3162,4.8792e+10,1.00183,0.993124,108,0.668383,183,1.00003,1.00003
app_28,81.2148,20251.8,7972.6,27.4,79.7087,1.5952e+10,1.00143,0.993124,99,0.201924,202,1.00003,1.00003
app_29,17.1205,19801.3,7975.4,24.6,74.2942,1.69672e+10,1.00096,0.993124,108,0.229286,184,1.00003,1.00003
app_3,4.22022,19102.8,7911.5,88.5,879.221,2.46432e+10,1.00805,0.993124,9,0.0280354,2100,1,1
app_30,36.3655,20078,7952.8,47.2,120.826,3.4143e+10,1.00163,0.993124,66,0.282174,302,1.00003,1.00003
app_31,89.8292,19984.4,7971.2,28.8,38.4737,2.21788e+10,1.00083,0.993124,205,0.583653,97,1.00003,1.00003
app_32,21.8465,20015.1,7973,27,113.672,1.62762e+10,1.00134,0.993124,70,0.144037,283,1.00003,1.00003
app_33,14.8438,19879.8,7991.8,8.2,75.8098,3.74507e+09,1.00056,0.993124,106,0.0492772,188,1.00003,1.00003
app_34,29.0609,20226.9,7954.7,45.3,65.406,3.43705e+10,1.00137,0.993124,120,0.528777,166,1.00003,1.00003
app_35,35.344,20022.8,7975.8,24.2,98.7577,1.78839e+10,1.00079,0.993124,80,0.182489,248,1.00004,1.00004
app_36,6.16432,20024.7,7966.8,33.2,61.7311,2.30286e+10,1.00127,0.993124,129,0.371429,154,1.00004,1.00004
app_37,65.6363,20121.9,7946.9,53.1,87.4573,3.65392e+10,1.00207,0.993124,91,0.41999,218,1.00004,1.00004
app_38,57.7909,20106.8,7959.8,40.2,91.9585,2.77519e+10,1.00156,0.993124,86,0.301652,232,1.00004,1.00004
app_39,93.3091,20220.6,7948,52,45.5526,4.1694e+10,1.00129,0.993124,173,0.926533,115,1.00004,1.00004
app_4,1.46305,19804.6,7912,88,879.607,1.31277e+10,1.00945,0.993124,9,0.0149178,2175,1,1
app_40,114.934,20237.1,7938.5,61.5,51.814,4.63648e+10,1.0019,0.993124,153,0.891631,130,1.00004,1.00004
app_41,871.346,21549.5,7945.2,54.8,5.74877,4.59195e+10,1.00111,0.993124,1383,7.65325,15,1.00004,1.00004
app_42,404.375,21319.5,7955.7,44.3,9.14726,3.38642e+10,1.00131,0.993124,858,3.76269,24,1.00004,1.00004
app_43,525.906,21180.2,7952,48,7.6707,3.8442e+10,1.0012,0.993124,1010,5.49172,20,1.00004,1.00004
app_44,702.905,21134.6,7969.4,30.6,10.2783,2.57543e+10,1.00061,0.993124,778,2.57543,26,1.00004,1.00004
app_45,1073.98,22684.4,7994.6,5.4,5.76443,4.82676e+09,1.00007,0.993124,1330,0.804461,16,1.00004,1.00004
app_46,572.966,21549.5,7964.1,35.9,6.1181,2.82723e+10,1.00095,0.993124,1304,4.03891,16,1.00005,1.00005
app_47,546.994,21422,7959.2,40.8,7.82743,3.08249e+10,1.00125,0.993124,977,3.85311,21,1.00005,1.00005
app_48,486.982,20780.8,7963.2,36.8,9.6506,3.16475e+10,1.00064,0.993124,845,3.16475,24,1.00005,1.00005
app_49,959.941,20639.6,7980.1,19.9,8.05606,1.67385e+10,1.0004,0.993124,1001,2.09232,20,1.00005,1.00005
app_5,1.76393,19326.3,7843.3,156.7,1566.78,3.07521e+09,1.01958,0.993124,5,0.00196248,3787,1.00001,1.00001
app_50,149.119,20291.3,7945.7,54.3,12.8351,4.04439e+10,1.00174,0.993124,603,3.11107,33,1.00005,1.00005
app_51,261.338,20472.6,7996.1,3.9,28.5167,2.12162e+09,1.00022,0.993124,281,0.0731592,72,1.00005,1.00005
app_52,505.108,20241.8,7952.1,47.9,6.51428,3.48582e+10,1.00163,0.993124,1271,5.8097,16,1.00005,1.00005
app_53,480.378,21161.8,7970.7,29.3,11.9428,2.16523e+10,1.00096,0.993124,655,1.80436,31,1.00005,1.00005
app_54,9.70323,20291.2,7984.5,15.5,10.988,1.21765e+10,1.00042,0.993124,719,1.10696,28,1.00005,1.00005
app_55,1099.76,22218.3,7949,51,6.4469,4.0126e+10,1.00136,0.993124,1240,6.68767,17,1.00005,1.00005
app_56,1090.16,21274.3,7971.2,28.8,7.19119,2.51849e+10,1.00045,0.993124,1120,3.59784,18,1.00006,1.00006
app_57,666.527,20915.5,7968.2,31.8,8.82685,2.68206e+10,1.00062,0.993124,917,2.98006,22,1.00006,1.00006
app_58,1254.53,22152.4,7987.2,12.8,5.28429,9.31334e+09,1.00044,0.993124,1467,1.86267,14,1.00006,1.00006
app_59,101.542,20062.9,7966.3,33.7,5.93184,2.46721e+10,1.00113,0.993124,1334,4.11201,15,1.00006,1.00006
app_6,3.82102,19259.8,7927.8,72.2,721.71,6.90717e+09,1.00823,0.993124,11,0.00956671,1735,1.00001,1.00001
app_60,316.975,21325.9,7982.5,17.5,9.14323,1.38669e+10,1.00045,0.993124,859,1.54076,24,1.00006,1.00006
app_7,2.80016,19998.1,7938.7,61.3,612.547,3.42615e+09,1.00729,0.993124,13,0.00558916,1529,1.00001,1.00001
app_8,8.92679,18466.3,7906.9,93.1,790.455,4.73655e+10,1.00575,0.993124,10,0.0598805,1824,1.00001,1.00001
app_9,0.964904,19026.6,7868.9,131.1,1310.9,1.68868e+09,1.01644,0.993124,6,0.00128808,3117,1.00001,1.00001
