app_id,start_app,end_app,effective_cpu,effective_io,effective_iter,total_bytes,stretch,utilization,Tcomp,Tio,iterations,priority,group_id
app_1,10.4357,19130.8,7917.2,82.8,659.983,5.04343e+10,1.00406,0.98759,12,0.0764156,1577,1,1
app_10,2.66573,19778.5,7887.6,112.4,1124.59,2.26558e+10,1.01135,0.98759,7,0.0201564,2782,1.00001,1.00001
app_11,4.72612,18068.3,7884.5,115.5,1125.6,3.9094e+10,1.00964,0.98759,7,0.0347194,2540,1.00001,1.00001
app_12,7.71267,18808.1,7912.8,87.2,718.833,5.28358e+10,1.00431,0.98759,11,0.0734852,1691,1.00001,1.00001
app_13,5.00344,18235.9,7881.7,118.3,1127.75,5.25179e+10,1.00829,0.98759,7,0.0465584,2565,1.00001,1.00001
app_14,3.05979,19023.4,7930.8,69.2,661.918,2.80167e+10,1.00517,0.98759,12,0.0423214,1568,1.00001,1.00001
app_15,6.47949,20083.1,7907.3,92.7,791.709,4.47337e+10,1.00603,0.98759,10,0.0564819,1985,1.00002,1.00002
app_16,6.28344,18971.5,7928.1,71.9,719.654,2.55717e+09,1.00874,0.98759,11,0.00355657,1707,1.00002,1.00002
app_17,0.849905,15973.3,7619,381,3810.15,2.72045e+10,1.04627,0.98759,2,0.00714028,7610,1.00002,1.00002
app_18,7.72621,20037.3,7946.8,53.2,532.206,1.34566e+09,1.00652,0.98759,15,0.00252944,1328,1.00002,1.00002
app_19,1.79178,19692.2,7911.9,88.1,881.422,1.08482e+10,1.00975,0.98759,9,0.0123135,2165,1.00002,1.00002
app_2,3.8788,19947.8,7909.3,90.7,416.671,4.61218e+10,1.0056,0.98759,19,0.110604,1038,1,1
app_20,6.66002,20138.9,7943.3,56.7,566.629,1.30258e+10,1.00549,0.98759,14,0.0230139,1426,1.00002,1.00002
app_21,22.3216,19963.2,7967.8,32.2,96.1284,1.97551e+10,1.00156,0.98759,83,0.205782,239,1.00002,1.00002
app_22,5.4815,19987.8,7958.7,41.3,52.3099,3.45084e+10,1.00085,0.98759,152,0.663624,131,1.00002,1.00002
app_23,14.7327,19983,7951.6,48.4,202.73,3.21812e+10,1.00203,0.98759,39,0.158528,508,1.00002,1.00002
app_24,84.882,20157.8,7943.1,56.9,88.5866,4.40364e+10,1.00161,0.98759,90,0.494791,221,1.00002,1.00002
app_25,70.3769,19996.5,7963.7,36.3,51.6727,2.68938e+10,1.00118,0.98759,154,0.527329,130,1.00003,1.00003
app_26,10.647,19973.5,7966.6,33.4,83.7011,2.41341e+10,1.00116,0.98759,95,0.290772,209,1.00003,1.00003
app_27,91.6665,20137.8,7940,60,63.8163,4.82661e+10,1.00147,0.98759,125,0.766129,159,1.00003,1.00003
app_28,76.5654,20115.5,7953.5,46.5,92.907,3.54305e+10,1.00139,0.98759,85,0.380973,232,1.00003,1.00003
app_29,4.23934,19915.7,7942.5,57.5,68.9836,4.64744e+10,1.00138,0.98759,115,0.673542,172,1.00003,1.00003
app_3,6.27915,19919.1,7938.7,61.3,613.327,9.59722e+09,1.0065,0.98759,13,0.0156562,1524,1,1
app_30,104.867,19973.4,7951.9,48.1,65.9165,3.31547e+10,1.00187,0.98759,120,0.502344,165,1.00003,1.00003
app_31,75.6927,20192.1,7974.2,25.8,50.7977,1.97599e+10,1.00076,0.98759,157,0.38745,128,1.00003,1.00003
app_32,96.7917,20071.4,7976,24,62.884,1.84486e+10,1.00069,0.98759,127,0.292835,157,1.00003,1.00003
app_33,32.0858,19875.3,7962,38,160.247,2.7441e+10,1.00132,0.98759,50,0.171506,395,1.00003,1.00003
app_34,68.9084,19984.4,7929.8,70.2,112.581,5.06899e+10,1.00244,0.98759,70,0.448583,281,1.00003,1.00003
app_35,39.8152,20230.4,7949.9,50.1,149.236,3.60113e+10,1.00176,0.98759,53,0.241687,376,1.00004,1.00004
app_36,47.6474,20096.9,7958.1,41.9,63.1732,3.12329e+10,1.00134,0.98759,126,0.49576,159,1.00004,1.00004
app_37,16.785,19754.5,7926.6,73.4,305.084,5.11365e+10,1.00279,0.98759,26,0.167661,751,1.00004,1.00004
app_38,51.6525,19935.3,7990.7,9.3,80.6122,5.22239e+09,1.00051,0.98759,99,0.0652798,201,1.00004,1.00004
app_39,10.4237,20178.4,7992.4,7.6,73.6124,2.93062e+09,1.00058,0.98759,109,0.039603,184,1.00004,1.00004
app_4,7.54919,17976.4,7901,99,985.729,2.75308e+10,1.00901,0.98759,8,0.0279217,2217,1,1
app_40,1.55503,20195.2,7962.1,37.9,52.4526,3.03084e+10,1.00095,0.98759,151,0.582855,132,1.00004,1.00004
app_41,410.307,20555.6,7995.8,4.2,18.936,2.73283e+09,1.00018,0.98759,421,0.143833,48,1.00004,1.00004
app_42,352.123,20623,7967.3,32.7,16.685,2.59804e+10,1.00084,0.98759,484,1.52826,42,1.00004,1.00004
app_43,120.915,20349.6,7979.6,20.4,11.3987,1.60117e+10,1.00055,0.98759,694,1.45561,29,1.00004,1.00004
app_44,673.269,21997.4,7937,63,8.54839,4.9662e+10,1.00167,0.98759,901,5.518,23,1.00004,1.00004
app_45,80.561,20400.6,7991.3,8.7,24.2072,5.78835e+09,1.00036,0.98759,328,0.241181,61,1.00004,1.00004
app_46,974.098,22354.6,7951.9,48.1,5.00173,3.69402e+10,1.0014,0.98759,1602,7.38803,13,1.00005,1.00005
app_47,460.163,21084.8,7967.3,32.7,6.20233,2.34354e+10,1.00116,0.98759,1290,3.90589,16,1.00005,1.00005
app_48,166.687,20747.9,7985.5,14.5,11.3577,1.24109e+10,1.00026,0.98759,699,1.12826,29,1.00005,1.00005
app_49,805.685,22008.3,7929.5,70.5,7.20617,4.60212e+10,1.00307,0.98759,1079,6.57446,19,1.00005,1.00005
app_5,0.0511136,18720,7934,66,660.094,6.12585e+09,1.00754,0.98759,12,0.00928158,1548,1.00001,1.00001
app_50,44.0074,20615.1,7997.5,2.5,12.065,1.31847e+09,1.00015,0.98759,653,0.109872,31,1.00005,1.00005
app_51,788.491,21202.3,7986,14,9.93831,9.89782e+09,1.00051,0.98759,809,0.989782,25,1.00005,1.00005
app_52,75.4007,20297.8,7982.4,17.6,5.79774,9.28518e+09,1.00104,0.98759,1357,1.54753,15,1.00005,1.00005
app_53,1192.91,22500.2,7963.6,36.4,6.32014,3.11617e+10,1.00066,0.98759,1245,4.45167,17,1.00005,1.00005
app_54,564.094,20647.3,7966.5,33.5,11.5195,2.88764e+10,1.00058,0.98759,703,2.40637,29,1.00005,1.00005
app_55,920.445,21797.6,7978.1,21.9,8.32043,1.63429e+10,1.0007,0.98759,946,2.04286,22,1.00005,1.00005
app_56,428.236,20307.9,7979.2,20.8,6.39189,1.8437e+10,1.0003,0.98759,1254,3.07283,16,1.00006,1.00006
app_57,760.283,21007.5,7953.8,46.2,5.45268,3.49997e+10,1.0014,0.98759,1443,5.83328,14,1.00006,1.00006
app_58,187.02,20507.6,7983.2,16.8,12.2077,1.23786e+10,1.00055,0.98759,653,0.952203,31,1.00006,1.00006
app_59,564.792,21883,7953.4,46.6,4.5635,3.87553e+10,1.00098,0.98759,1758,9.68883,12,1.00006,1.00006
app_6,5.13909,19747.1,7921.2,78.8,662.421,3.69452e+10,1.00526,0.98759,12,0.0557243,1630,1.00001,1.00001
app_60,624.914,21029.4,7975.1,24.9,10.7464,1.96458e+10,1.00066,0.98759,747,1.78598,27,1.00006,1.00006
app_7,0.269084,11976.4,5432.48,543.921,5439.02,2.07396e+10,1.46702,0.98759,1,0.00381297,10892,1.00001,1.00001
app_8,8.0511,19882.5,7907.5,92.5,792.114,4.32356e+10,1.0062,0.98759,10,0.0545904,1968,1.00001,1.00001
app_9,2.26337,18037.6,7842.8,157.2,1568.23,4.03665e+10,1.01482,0.98759,5,0.025744,3534,1.00001,1.00001
