app_id,Tcomp,Tio,iter,witer,alpha_io,compute_size,io_size,mu,desyn_time
1,8.217372202764068,0.2765625133035815,2355,8.493934716067649,0.032559999876196226,8e9,276562513.3035815,10,1.054502864489572
2,8.44199980098543,0.418079211210087,2258,8.860079012195516,0.04718684908279249,8e9,418079211.210087,10,4.6486099698830525
3,8.88098359069447,0.4609105180429223,2141,9.341894108737392,0.049338015682690806,8e9,460910518.0429223,10,9.20757545372342
4,10.554118127362369,0.35255864299782663,1834,10.906676770360194,0.03232502900938022,10e9,352558642.99782664,10,9.845731202614205
5,9.428101466115777,0.04402447606118218,2112,9.472125942176959,0.004647792515632887,9e9,44024476.06118218,10,7.037144379145598
6,105.72169018407949,2.606251962576943,185,108.32794214665644,0.02405890771051987,105e9,2606251962.576943,100,96.58944026709558
7,97.51031934839038,5.24387865554792,195,102.7541980039383,0.051033230343999536,97e9,5243878655.54792,100,50.777485772907475
8,105.76598216821652,2.838241769907803,185,108.60422393812432,0.026133806467093304,105e9,2838241769.907803,100,19.782421355360576
9,93.72495082082052,0.9849675785211337,212,94.70991839934166,0.01039983557337729,93e9,984967578.5211337,100,10.386931202429066
10,76.310746018303,6.779936745623892,241,83.09068276392689,0.08159683516967492,76e9,6779936745.623892,100,60.17884410830771
11,1077.2807858162687,97.05614451411209,18,1174.3369303303807,0.08264761331043802,1077e9,97056144514.11209,1000,688.7037507353307
12,861.8458963574084,71.43207515992482,22,933.2779715173332,0.07653890624225257,861e9,71432075159.92482,1000,206.85089295419988
13,1007.1081941359923,57.87310171313907,19,1064.9812958491314,0.0543418949597567,1007e9,57873101713.13907,1000,520.0724051505252
14,1049.098634193589,43.14687149222547,19,1092.2455056858146,0.039502905956233535,1049e9,43146871492.22547,1000,726.1350177768934
15,810.742057692216,36.597390571027525,24,847.3394482632435,0.043190943896262206,810e9,36597390571.02753,1000,820.4078914162538
16,3064.827645172315,26.097071369882702,7,3090.9247165421975,0.008443127466099326,3064e9,26097071369.8827,3000,3033.093645984526
17,2500.6272087714715,122.80157369102646,8,2623.428782462498,0.04680957017470777,2500e9,122801573691.02646,3000,2539.501656438679
18,2826.6413206123493,26.420034191194198,8,2853.0613548035435,0.009260240459502292,2826e9,26420034191.1942,3000,241.05127461852555
19,3055.424681043204,105.91497190970837,7,3161.3396529529127,0.033503192803334615,3055e9,105914971909.70837,3000,56.122985659575455
20,2908.4530619701077,141.778749987059,7,3050.231811957167,0.046481303300055524,2908e9,141778749987.059,3000,1170.9227226155851
