app_id,Tcomp,Tio,iter,witer,alpha_io,compute_size,io_size,mu,desyn_time
1,11.91773062958591,0.3330022727701954,1633,12.250732902356106,0.027182232722268492,11e9,333002272.7701954,10,11.629694578401145
2,9.047873614230257,0.5070049145530932,2094,9.55487852878335,0.053062413407536174,9e9,507004914.55309314,10,1.7458562244356095
3,9.222152777795367,0.534962633221057,2050,9.757115411016423,0.05482794972549459,9e9,534962633.221057,10,7.508890016216092
4,9.520748393141863,0.2767880197407597,2042,9.797536412882623,0.028250777346110763,9e9,276788019.74075973,10,0.5214951176963931
5,8.039296441909652,0.7807011912564116,2268,8.819997633166064,0.08851489804495194,8e9,780701191.2564116,10,4.015802464498534
6,97.16267656458967,9.394475673190591,188,106.55715223778027,0.0881637269380754,97e9,9394475673.190592,100,62.30725816742396
7,92.05207628131039,1.9630835696429172,213,94.01515985095331,0.020880500259267618,92e9,1963083569.6429172,100,43.968213262211144
8,113.83508060208146,0.23079296890807632,176,114.06587357098954,0.002023330569282328,113e9,230792968.90807632,100,71.26020906004622
9,94.11486584031276,4.940577315934847,202,99.0554431562476,0.04987688872525362,94e9,4940577315.934848,100,4.098524537457027
10,98.3285126173366,0.31176827742090585,203,98.64028089475751,0.003160658856532875,98e9,311768277.4209058,100,43.96706721055362
11,936.7502184316412,17.107967946153362,21,953.8581863777946,0.017935546594320898,936e9,17107967946.153362,1000,380.65114501330766
12,826.338018552723,33.849795207785014,24,860.1878137605081,0.03935163305767246,826e9,33849795207.785015,1000,539.6197617034304
13,934.7142166322445,1.3435465727165035,22,936.057763204961,0.0014353244271126438,934e9,1343546572.7165034,1000,350.46801936678276
14,913.7321427007324,71.18859135049028,21,984.9207340512227,0.07227849804488733,913e9,71188591350.49028,1000,190.10078069654733
15,973.0432111607715,23.75501341532611,21,996.7982245760976,0.02383131593701249,973e9,23755013415.32611,1000,617.8680776111761
16,2542.077197886864,247.94378856804488,8,2790.020986454909,0.08886807295420752,2542e9,247943788568.0449,3000,698.294539596061
17,2486.9370882598846,30.516853638524438,8,2517.453941898409,0.012122110013862543,2486e9,30516853638.524437,3000,2347.112576684337
18,2787.031705292896,132.181742245898,7,2919.213447538794,0.04527991687532859,2787e9,132181742245.898,3000,310.7827433757814
19,3548.0515393823503,123.26441432879106,6,3671.3159537111414,0.03357499487457338,3548e9,123264414328.79106,3000,206.26612426543903
20,3242.1806456448367,168.4123919645292,6,3410.5930376093656,0.0493792106262484,3242e9,168412391964.5292,3000,1091.448195080991
