app_id,start_app,end_app,effective_cpu,effective_io,effective_iter,total_bytes,stretch,utilization,Tcomp,Tio,iterations,priority,group_id
app_1,4.1975,29368.7,4334.22,151.937,361.419,1.41208e+11,1.78754,0.79057,12,0.390079,1612,1,1
app_10,74.9361,23895.9,5745.1,639.445,71.1086,6.36304e+11,1.25364,0.79057,81,8.96202,220,1,1
app_11,728.304,21424.6,7787.2,72.7597,7.27993,7.24025e+10,1.01786,0.79057,1053,9.05031,19,1,1
app_12,256.613,21121.9,7351.7,264.63,7.76803,2.64263e+11,1.05043,0.79057,991,33.0329,20,1,1
app_13,700.913,21087,7230.7,475.315,8.60984,4.74786e+11,1.03822,0.79057,860,52.754,22,1,1
app_14,227.388,21000.7,7257.1,704.31,7.28036,7.04153e+11,1.00487,0.79057,992,100.593,19,1,1
app_15,833.19,21297.5,7737.9,35.9353,9.38293,3.5616e+10,1.02914,0.79057,839,3.95733,24,1,1
app_16,2951.12,25442.7,7676.96,317.574,2.49776,3.17414e+11,1.0007,0.79057,3030,118.05,7,1,1
app_17,2222.67,23967.9,7680.3,161.019,2.95136,1.60875e+11,1.02026,0.79057,2634,53.625,8,1,1
app_18,2704.88,25322.7,7704.2,261.511,2.45608,2.6144e+11,1.00431,0.79057,3146,130.72,7,1,1
app_19,3317.45,23880.2,7293.6,479.387,2.29238,4.79243e+11,1.02922,0.79057,3263,159.748,6,1,1
app_2,2.57378,28631.9,4253.41,37.0706,426.118,9.48252e+09,1.87666,0.79057,10,0.0222073,1854,1,1
app_20,2921.48,25147.9,7956.2,16.9963,2.50054,1.68246e+10,1.00338,0.79057,3117,5.60821,7,1,1
app_3,7.56191,28035.5,4015.91,257.947,501.867,2.41124e+11,1.87924,0.79057,8,0.480327,2114,1,1
app_4,4.29207,29031.6,4098.89,272.534,455.869,2.48454e+11,1.8402,0.79057,9,0.544855,1996,1,1
app_5,5.37678,29449.7,4214.63,136.583,420.109,1.25268e+11,1.84336,0.79057,10,0.297549,1909,1,1
app_6,13.8447,24611.2,6112.02,143.152,70.7119,1.40315e+11,1.27952,0.79057,86,1.97627,226,1,1
app_7,58.64,24125,6086.3,349.587,59.5129,3.46957e+11,1.24354,0.79057,103,5.78262,183,1,1
app_8,63.8864,24013.7,5900.5,498.066,62.3681,4.94592e+11,1.25096,0.79057,94,7.85066,195,1,1
app_9,41.7857,24544.6,6054.3,271.329,57.4628,2.67577e+11,1.26545,0.79057,105,4.61339,183,1,1
