app_id,start_app,end_app,effective_cpu,effective_io,effective_iter,total_bytes,stretch,utilization,Tcomp,Tio,iterations,priority,group_id
app_1,1.15532,19464.5,7851.9,92.365,872.269,6.71495e+10,1.01022,0.918108,9,0.0769181,2122,0.1,1
app_10,77.8452,20434.9,7447.7,483.192,81.7131,3.68417e+11,1.02353,0.918108,92,4.54836,207,0.01,2
app_11,765.627,22127.1,7060,701.33,7.61996,3.94112e+11,1.07323,0.918108,915,56.3018,21,0.001,3
app_12,1030.9,23012.4,7424,123.992,7.1939,8.0692e+10,1.066,0.918108,1035,11.5274,20,0.001,3
app_13,915.244,22874.8,7065.7,440.788,7.00904,2.31145e+11,1.09636,0.918108,993,33.0208,20,0.001,3
app_14,552.929,22070.7,7122.3,571.556,6.24074,3.07642e+11,1.07672,0.918108,1135,51.2736,17,0.001,3
app_15,358.938,21515.6,7239.2,760.8,6.47573,3.98736e+11,1.0474,0.918108,1120,66.4561,17,0.001,3
app_16,694.896,22708.8,6666,930.227,2.37789,4.30753e+11,1.12728,0.918108,2782,143.584,7,0.000333333,3.47712
app_17,170.112,21993.5,7244.5,677.288,2.55918,3.84987e+11,1.04856,0.918108,2868,128.329,7,0.000333333,3.47712
app_18,1505.94,24753.5,6931.4,1028.12,2.84931,4.82086e+11,1.07911,0.918108,2541,160.695,8,0.000333333,3.47712
app_19,2782.52,25191.7,7283.22,716.784,2.55316,2.68881e+11,1.05931,0.918108,3028,95.5865,7,0.000333333,3.47712
app_2,7.27056,20140,7647.5,307.837,763.892,2.69422e+11,1.01049,0.918108,10,0.352646,1922,0.1,1
app_20,511.883,23982.6,7203.3,672.596,2.44185,3.39668e+11,1.06059,0.918108,3000,113.223,7,0.000333333,3.47712
app_3,6.90971,18779,7612.6,353.411,843.083,3.06499e+11,1.01022,0.918108,9,0.363581,1982,0.1,1
app_4,0.96104,18446.2,7496.2,468.729,937.443,4.12058e+11,1.0116,0.918108,8,0.439294,2160,0.1,1
app_5,2.70592,19663.2,7478.4,495.719,830.744,4.27129e+11,1.01195,0.918108,9,0.514613,2043,0.1,1
app_6,51.238,20557.3,7226.4,754.86,68.7515,5.83391e+11,1.02436,0.918108,106,8.45494,175,0.01,2
app_7,83.6648,20109.4,7867.6,23.0666,88.3492,1.31772e+10,1.01513,0.918108,89,0.14974,223,0.01,2
app_8,83.7043,20259.6,7460.3,473.749,72.286,3.66957e+11,1.02207,0.918108,104,5.09662,183,0.01,2
app_9,9.04335,20367.6,7569.13,354.823,81.2171,2.72511e+11,1.02019,0.918108,93,3.35806,206,0.01,2
