app_id,Tcomp,Tio,iter,witer,alpha_io,compute_size,io_size,mu,desyn_time
1,10.010175859876338,0.01631682073543166,1995,10.026492680611769,0.0016273707322385523,10e9,16316820.73543166,10,0.23521427739130796
2,9.525611326588658,0.2193585632947556,2053,9.744969889883414,0.022509927252056385,9e9,219358563.29475558,10,7.526567859528813
3,11.053988392031359,0.19098303372497413,1779,11.244971425756333,0.01698386118505665,11e9,190983033.72497413,10,8.98606295197826
4,11.163357764357576,0.05433848992597079,1783,11.217696254283547,0.004843997260598075,11e9,54338489.92597079,10,5.5663133719396525
5,11.262997036963858,0.18072841629004946,1748,11.443725453253908,0.01579279553920626,11e9,180728416.29004946,10,9.997180986726166
6,12.436366559116877,0.10674009202304241,1595,12.543106651139919,0.008509860833666902,12e9,106740092.02304241,10,3.6587523687069283
7,9.274451252332415,0.2277335183674865,2105,9.502184770699902,0.02396643759966713,9e9,227733518.3674865,10,2.85054849282206
8,8.377486942417612,0.10827464599265904,2357,8.48576158841027,0.012759567289816271,8e9,108274645.99265905,10,6.922466846745961
9,9.253790228284783,0.12405419656166763,2133,9.377844424846451,0.013228434056016966,9e9,124054196.56166764,10,9.37715555775498
10,9.688306305700678,0.12774547001307082,2038,9.816051775713749,0.013013936043932708,9e9,127745470.01307082,10,9.61617667356201
11,8.881315919783116,0.11113478057563683,2225,8.992450700358752,0.012358675546723112,8e9,111134780.57563683,10,1.2352138990918913
12,8.26379755313485,0.12443557406767834,2385,8.388233127202529,0.014834539310089196,8e9,124435574.06767835,10,7.138489016397233
13,9.09334372624048,0.15175200352936485,2164,9.245095729769846,0.016414324736596608,9e9,151752003.52936485,10,6.570571203827041
14,9.379062209074055,0.11861644815732637,2106,9.497678657231381,0.012488993620247796,9e9,118616448.15732637,10,3.332190970557048
15,9.58220787400493,0.011097990863847301,2085,9.593305864868777,0.0011568473913136416,9e9,11097990.8638473,10,5.547527446806547
16,9.388014842306145,0.18211755516753528,2090,9.57013239747368,0.01902978429176284,9e9,182117555.16753528,10,2.0619223594682152
17,10.117173869235614,0.18278311937312458,1942,10.29995698860874,0.017746008024623207,10e9,182783119.37312457,10,1.9950352932809619
18,9.783264866379577,0.23014999821776355,1998,10.01341486459734,0.022984166873127786,9e9,230149998.21776354,10,9.53591194916076
19,10.766886678186108,0.2600011988182193,1814,11.026887877004327,0.023578837630192154,10e9,260001198.8182193,10,1.7490855826935405
20,9.370390801599052,0.052431186954774334,2123,9.422821988553826,0.00556427650001921,9e9,52431186.954774335,10,2.8685044447572974
21,92.01483864892845,1.6523006246695402,214,93.66713927359798,0.01764013118670397,92e9,1652300624.6695402,100,91.19905956115323
22,114.49795055074101,0.3021166894196855,175,114.8000672401607,0.0026316769378510914,114e9,302116689.4196855,100,9.217951321077459
23,97.30840965972779,1.7236522003454033,202,99.03206186007318,0.017404991554965586,97e9,1723652200.3454034,100,29.055139754757004
24,82.31215008610846,1.907919168378696,238,84.22006925448716,0.02265397292198313,82e9,1907919168.378696,100,79.2011634927825
25,77.72849406949109,0.9555856790208551,255,78.68407974851195,0.012144587343145828,77e9,955585679.0208551,100,24.899894739408637
26,97.31189919829268,1.5425995935500447,203,98.85449879184273,0.015604748518307565,97e9,1542599593.5500448,100,71.59961616680843
27,78.36128688147853,0.28843402686657105,255,78.6497209083451,0.003667324226143145,78e9,288434026.86657107,100,3.588680755612643
28,106.85554196044521,1.5715971563704187,185,108.42713911681562,0.014494499893400625,106e9,1571597156.3704188,100,3.191179143119172
29,103.78545360543777,2.0433504445017547,189,105.82880404993952,0.01930807461017436,103e9,2043350444.5017548,100,64.74826399184141
30,110.48445967055193,1.6876168759596866,179,112.17207654651162,0.015044892881696135,110e9,1687616875.9596865,100,65.1006426778233
31,88.7415889770369,2.1835230387941955,220,90.92511201583109,0.024014521295437276,88e9,2183523038.7941957,100,76.6686560469894
32,102.70299085311073,2.49846330304537,191,105.2014541561561,0.023749322888035065,102e9,2498463303.0453696,100,8.269352866479977
33,95.22836270247454,0.27763530447382945,210,95.50599800694837,0.0029069933854168045,95e9,277635304.47382945,100,29.303441625182426
34,117.22751293150748,1.7552013381982232,169,118.9827142697057,0.0147517338881646,117e9,1755201338.198223,100,104.45208039194668
35,103.48247969373533,1.8046980130336985,190,105.28717770676903,0.01714071981357396,103e9,1804698013.0336986,100,30.845235958449635
36,100.48774566414954,1.270478546436402,197,101.75822421058595,0.012485266486246656,100e9,1270478546.4364018,100,8.054155295393333
37,111.25333712869781,2.411357645099774,176,113.66469477379758,0.02121465816539235,111e9,2411357645.099774,100,29.311231899620708
38,118.41475620726487,1.1512125960757353,168,119.56596880334061,0.009628263021639742,118e9,1151212596.0757353,100,32.92554126199471
39,110.58739989399047,1.8894618538512482,178,112.47686174784171,0.01679867151776667,110e9,1889461853.8512483,100,94.83798871744249
40,92.12385858408807,1.4295874972596196,214,93.55344608134769,0.015280971007915069,92e9,1429587497.2596197,100,61.964450758033344
41,1060.6056176094999,0.6946530762775688,19,1061.3002706857774,0.0006545301979699928,1060e9,694653076.2775688,1000,375.90543574034734
42,1146.7880129883922,26.15058193051579,18,1172.938594918908,0.0222949283481662,1146e9,26150581930.515793,1000,554.2640582053298
43,1066.3057124416096,6.06304160629626,19,1072.368754047906,0.005653877533646795,1066e9,6063041606.296261,1000,116.28797903418898
44,906.6779002427938,6.7063515531999585,22,913.3842517959938,0.007342311343789005,906e9,6706351553.199959,1000,687.8943315863029
45,1034.4722134058536,10.985335297609222,20,1045.4575487034629,0.010507681838667501,1034e9,10985335297.609222,1000,861.9641079116583
46,814.073650092385,9.038681431010826,25,823.1123315233958,0.010981103167634797,814e9,9038681431.010826,1000,2.1600293512538
47,1051.602891198099,7.527142678648775,19,1059.1300338767478,0.0071069108021581395,1051e9,7527142678.648775,1000,86.272037885852
48,1089.2283977740235,10.125277972762344,19,1099.353675746786,0.009210209777016745,1089e9,10125277972.762344,1000,24.953370279369224
49,997.3793428770905,7.362529372462881,20,1004.7418722495534,0.007327781966505133,997e9,7362529372.462881,1000,825.5821812525062
50,1084.518447204757,1.039390540241228,19,1085.557837744998,0.0009574713608998741,1084e9,1039390540.241228,1000,573.4449911162042
51,922.6364251308978,4.1091870769756635,22,926.7456122078735,0.004433996797876345,922e9,4109187076.9756637,1000,771.2054331827392
52,1208.438855643336,20.06958377574621,17,1228.5084394190822,0.016336545303047654,1208e9,20069583775.746212,1000,1108.843682111258
53,1036.1046530962722,13.846672325746917,20,1049.9513254220192,0.013187918325815116,1036e9,13846672325.746918,1000,692.438672537459
54,984.0395525876925,4.512431535215502,21,988.5519841229079,0.004564688157719044,984e9,4512431535.215503,1000,585.0761803468548
55,916.9537484921674,10.107535228134632,22,927.0612837203021,0.010902769218851463,916e9,10107535228.134632,1000,807.0989875064623
56,1032.8744806969241,12.59526336531485,20,1045.469744062239,0.01204746807533153,1032e9,12595263365.31485,1000,13.939939038824985
57,1007.1858487014694,15.735059029632165,20,1022.9209077311015,0.01538247865568947,1007e9,15735059029.632164,1000,465.7831681328871
58,947.115356356598,16.569723168943035,21,963.685079525541,0.017194126505622503,947e9,16569723168.943035,1000,54.64283337279504
59,900.2666292103702,20.054632600049764,22,920.32126181042,0.021790904363764317,900e9,20054632600.049763,1000,736.7580196358514
60,1065.585578374093,26.386002714618364,19,1091.9715810887114,0.024163634998917407,1065e9,26386002714.618362,1000,914.4839607105924
