app_id,Tcomp,Tio,iter,witer,alpha_io,compute_size,io_size,mu,desyn_time
1,9.448442209131507,0.09735534525093718,2096,9.545797554382444,0.010198764922082562,9e9,97355345.25093718,10,8.81134939947906
2,12.478596215490526,0.03315988514506207,1599,12.511756100635589,0.002650298237781151,12e9,33159885.145062067,10,0.5641743397419511
3,7.802566775312954,0.19933206340397555,2500,8.00189883871693,0.024910595275150667,7e9,199332063.40397555,10,6.021970355932658
4,8.81054405208215,0.25496297137372315,2207,9.065507023455874,0.028124513136886672,8e9,254962971.37372315,10,0.5824796123516824
5,8.488904093826841,0.2374077011073087,2292,8.72631179493415,0.027205961314049083,8e9,237407701.1073087,10,7.127686568853696
6,9.005510640732535,0.08631122124128929,2200,9.091821861973823,0.009493281165382537,9e9,86311221.24128929,10,7.318213929823157
7,10.919852525581843,0.1397137586348569,1809,11.0595662842167,0.012632842468175705,10e9,139713758.6348569,10,10.422487033383057
8,9.414843591192117,0.09102837863676347,2104,9.505871969828881,0.009576015638090074,9e9,91028378.63676347,10,4.572140125856722
9,8.14216856629102,0.08747006584194199,2431,8.22963863213296,0.010628664240542901,8e9,87470065.84194198,10,3.8497262993466337
10,9.678437076363124,0.23599201076450185,2018,9.914429087127626,0.023802884532292585,9e9,235992010.76450184,10,3.876085986399069
11,8.876184605215226,0.21517125578814988,2200,9.091355861003375,0.023667674995663662,8e9,215171255.7881499,10,1.7346557694172655
12,8.869499531235329,0.018292091561073687,2251,8.887791622796403,0.0020581143592696394,8e9,18292091.561073687,10,1.3320073384635978
13,8.572549848478685,0.16989775289136344,2288,8.74244760137005,0.01943365984426814,8e9,169897752.89136344,10,0.7444439141402497
14,11.857122321876965,0.0132906837005359,1685,11.8704130055775,0.00111964795953528,11e9,13290683.700535899,10,8.002836305373707
15,9.056057787247438,0.19083400332963424,2163,9.246891790577072,0.020637637776198616,9e9,190834003.32963425,10,8.70125499839916
16,11.665391369805112,0.19378423947718862,1687,11.859175609282302,0.01634044775637791,11e9,193784239.47718862,10,8.247010627513202
17,10.802312151017905,0.07712168035524516,1839,10.87943383137315,0.00708875862021868,10e9,77121680.35524516,10,2.8036637793410777
18,9.2170868577068,0.12800677642896482,2141,9.345093634135765,0.013697752151073328,9e9,128006776.42896482,10,2.1342508323069604
19,9.19101745560928,0.05052844805523411,2165,9.241545903664514,0.005467532010547961,9e9,50528448.05523411,10,6.274967702101058
20,8.586314567199768,0.2252606401053285,2270,8.811575207305097,0.025564173806129437,8e9,225260640.1053285,10,3.4032420807745787
21,113.53618847454962,1.6474037293955057,174,115.18359220394512,0.014302416671278993,113e9,1647403729.3955057,100,36.37810068955575
22,85.62924342765409,1.0444474745329728,231,86.67369090218706,0.012050340347356985,85e9,1044447474.5329728,100,82.97310232469704
23,90.43232018579086,1.0742068625503483,219,91.50652704834121,0.011739128313577724,90e9,1074206862.5503483,100,10.606814459055444
24,97.73249060445315,0.1934213225902076,205,97.92591192704336,0.001975180202910034,97e9,193421322.5902076,100,87.86873044763448
25,89.96702447882342,0.32249030850336946,222,90.2895147873268,0.003571735979122072,89e9,322490308.50336945,100,82.96800470171449
26,98.36509311540827,1.0063965617021318,202,99.3714896771104,0.010127618746304745,98e9,1006396561.7021317,100,20.869501164723903
27,95.26921109698199,0.9207968640881243,208,96.19000796107011,0.009572687263533526,95e9,920796864.0881243,100,81.52735144703736
28,107.61506823070326,0.5354037923904672,185,108.15047202309373,0.00495054512823708,107e9,535403792.3904672,100,33.68944894368884
29,116.79153596257602,3.004957080890599,167,119.79649304346663,0.02508384848795439,116e9,3004957080.8905993,100,50.62887455406978
30,106.54669782684863,1.7603406517396063,185,108.30703847858824,0.016253243339190895,106e9,1760340651.7396064,100,2.248907782405092
31,94.16988932782044,0.22395969764370985,212,94.39384902546415,0.0023726090201416977,94e9,223959697.64370984,100,61.24796902740577
32,110.60378372299981,0.6467343306204246,180,111.25051805362023,0.005813315227068995,110e9,646734330.6204246,100,41.487101157483444
33,105.58886180880644,1.4439696794505257,187,107.03283148825697,0.013490904233519691,105e9,1443969679.4505258,100,57.62677185648257
34,101.93607369801971,2.4309294248236855,192,104.3670031228434,0.02329212636260525,101e9,2430929424.8236856,100,94.79267740345352
35,111.78979357708177,1.9999208925344583,176,113.78971446961623,0.017575585823870494,111e9,1999920892.5344582,100,88.24548249837233
36,99.85496607045906,0.7861003329210537,199,100.64106640338011,0.00781093008067184,99e9,786100332.9210538,100,14.74707512130009
37,90.50316057217137,0.4751467112472013,220,90.97830728341857,0.005222637411432693,90e9,475146711.2472013,100,23.822255669691454
38,93.39295365288284,2.4328483454218586,209,95.8258019983047,0.025388238811347483,93e9,2432848345.421859,100,39.416335396990796
39,106.03514526774731,0.37182506809327626,188,106.40697033584058,0.0034943675862561053,106e9,371825068.09327626,100,15.224548700711825
40,109.34859034028408,0.08772663538250508,183,109.43631697566659,0.0008016226953435513,109e9,87726635.38250507,100,57.43023749020627
41,968.1389887721352,19.69895161620281,21,987.8379403883381,0.01994148109806227,968e9,19698951616.20281,1000,837.932996220401
42,937.8706093393063,6.620851141834727,22,944.491460481141,0.007009964005880949,937e9,6620851141.834727,1000,594.0158844567547
43,890.3047880827756,18.74118615968497,23,909.0459742424606,0.020616323806177842,890e9,18741186159.684967,1000,664.055434604011
44,882.269588013907,13.077756752647629,23,895.3473447665546,0.01460635007082912,882e9,13077756752.647629,1000,667.3487413083143
45,955.7026511178016,6.612777979619787,21,962.3154290974213,0.006871736417883344,955e9,6612777979.619787,1000,177.78016697252338
46,1074.2024763590036,22.28275376208037,19,1096.485230121084,0.02032198259489524,1074e9,22282753762.08037,1000,133.5772220310413
47,1046.3096792746887,12.650980460139442,19,1058.9606597348281,0.01194660098450432,1046e9,12650980460.139442,1000,597.7709361799684
48,935.5725895017893,10.187026732541568,22,945.7596162343308,0.010771264238478045,935e9,10187026732.541569,1000,419.4678500593983
49,1078.83048753737,3.4162713391269715,19,1082.2467588764969,0.0031566473275221212,1078e9,3416271339.1269712,1000,793.5129053338072
50,1076.5400246965796,8.236208798220288,19,1084.7762334948,0.007592541709441654,1076e9,8236208798.220287,1000,467.24249975291104
51,1082.8618688989125,14.80132347208372,19,1097.6631923709963,0.013484394461758593,1082e9,14801323472.08372,1000,962.6611104027226
52,1073.5000110211936,12.33695985622051,19,1085.8369708774142,0.011361705474304847,1073e9,12336959856.22051,1000,378.87590911383967
53,1001.5224900335608,13.808951093811737,20,1015.3314411273725,0.013600436797740626,1001e9,13808951093.811737,1000,247.90942126409536
54,1106.1488751644538,27.29626474536347,18,1133.4451399098173,0.024082563667382526,1106e9,27296264745.36347,1000,1009.5623963012295
55,1214.1440297659722,15.124774047182257,17,1229.2688038131544,0.01230387853353609,1214e9,15124774047.182257,1000,1129.9791552501179
56,1052.7250457601817,16.46002031337663,19,1069.1850660735583,0.015394921642353175,1052e9,16460020313.37663,1000,441.36947374490893
57,1057.3270358573698,19.613890299607874,19,1076.9409261569776,0.018212596274522957,1057e9,19613890299.607876,1000,256.51366786548346
58,1011.1028695626599,19.608623766715983,20,1030.7114933293758,0.01902435734307837,1011e9,19608623766.715984,1000,978.8853911868438
59,1009.2725646355672,17.541996058327346,20,1026.8145606938945,0.01708389881662072,1009e9,17541996058.327347,1000,1020.7751761572131
60,1103.8335566259154,26.48107076385038,18,1130.3146273897657,0.023428052793586406,1103e9,26481070763.85038,1000,91.11053901840748
