app_id,Tcomp,Tio,iter,witer,alpha_io,compute_size,io_size,mu,desyn_time
1,9.751992751814651,0.2307876273095089,2004,9.98278037912416,0.02311857203551513,9e9,230787627.30950892,10,4.692054848830655
2,8.644267057642741,0.20328536750752485,2261,8.847552425150266,0.02297645244007382,8e9,203285367.50752485,10,8.251862259363799
3,9.107268417149484,0.0398635907389473,2187,9.147132007888432,0.0043580425760302985,9e9,39863590.738947295,10,6.761169730048773
4,10.295752076481405,0.12626748995420342,1920,10.422019566435608,0.012115453166183954,10e9,126267489.95420343,10,0.7038662764301702
5,8.684904878144756,0.024480977106348268,2297,8.709385855251105,0.0028108729493926464,8e9,24480977.10634827,10,7.89614713907384
6,10.579338471959575,0.002997544116986395,1890,10.582336016076562,0.0002832592078377176,10e9,2997544.116986395,10,2.6499753514452578
7,9.255980146990666,0.13287452859941365,2131,9.38885467559008,0.014152368227071596,9e9,132874528.59941365,10,4.126403757113046
8,9.923328970151923,0.23616213607244527,1969,10.159491106224369,0.023245469049897282,9e9,236162136.07244527,10,1.4136026485694426
9,10.325010747251694,0.23236380050658567,1895,10.557374547758279,0.022009619859127295,10e9,232363800.50658566,10,6.1894681378034795
10,9.795423648471834,0.23485868957629702,1994,10.030282338048131,0.023414962975209723,9e9,234858689.57629701,10,1.890073792814273
11,9.793891772892197,0.012695789025461325,2040,9.806587561917658,0.0012946184333032856,9e9,12695789.025461325,10,5.817828370900591
12,10.271606901771674,0.008945179794081022,1946,10.280552081565755,0.0008701069478672051,10e9,8945179.794081023,10,7.819178800936024
13,9.746599888017116,0.039564314325028604,2044,9.786164202342144,0.00404288273801492,9e9,39564314.325028606,10,3.523197476784576
14,8.760516419033813,0.22486425031740906,2226,8.985380669351223,0.025025567484793617,8e9,224864250.31740907,10,7.932839117281642
15,9.946208734314713,0.03373315022778373,2005,9.979941884542496,0.003380094856066403,9e9,33733150.22778373,10,8.079157580885832
16,10.09110932943054,0.20728678476865986,1943,10.2983961141992,0.02012806484330676,10e9,207286784.76865986,10,3.4464158813629022
17,8.810810136665648,0.18857336632337152,2223,8.99938350298902,0.02095403160235804,8e9,188573366.32337153,10,5.63627975999121
18,8.940134126375641,0.150060466357694,2201,9.090194592733335,0.016507948738264826,8e9,150060466.357694,10,5.7123029980088615
19,10.108527261498612,0.20308664161391055,1940,10.311613903112523,0.0196949423748895,10e9,203086641.61391056,10,5.511785416994955
20,9.822337287163952,0.20967647944220308,1994,10.032013766606156,0.02090073681319687,9e9,209676479.44220307,10,3.13212378145154
21,102.31636384855285,1.6269106807242542,193,103.9432745292771,0.015651909063784705,102e9,1626910680.7242541,100,53.80870193844502
22,89.6547727121808,1.905782379345887,219,91.5605550915267,0.020814447634582484,89e9,1905782379.345887,100,61.833618561232115
23,97.01964340123361,0.7927620226971208,205,97.81240542393073,0.008104923084768184,97e9,792762022.6971208,100,62.10793590792519
24,100.79612348434632,1.8965218950531813,195,102.69264537939951,0.018467942743576746,100e9,1896521895.0531812,100,31.438919122267777
25,110.85042100779098,1.1923918444781476,179,112.04281285226914,0.010642287658828612,110e9,1192391844.4781475,100,69.18382413087559
26,107.80076075829943,1.1516810858784183,184,108.95244184417786,0.01057049356934593,107e9,1151681085.8784184,100,91.0773764023095
27,108.86945921748777,1.1616984427110337,182,110.0311576601988,0.01055790439194162,108e9,1161698442.7110338,100,77.29957065182455
28,103.18705122043187,1.2120236455749653,192,104.39907486600683,0.011609524769549563,103e9,1212023645.5749652,100,16.667460231069136
29,98.57750612703269,0.8476089654679471,202,99.42511509250063,0.008525099163117588,98e9,847608965.467947,100,74.99180719474568
30,93.957741125008,1.9311373879722484,209,95.88887851298024,0.02013932603988934,93e9,1931137387.9722483,100,7.164250065945284
31,87.90315980101222,0.3901394762679498,227,88.29329927728017,0.004418675929673197,87e9,390139476.2679498,100,66.89182246044498
32,91.6492985611786,2.2927881370942513,213,93.94208669827285,0.02440639991805084,91e9,2292788137.094251,100,14.368535931680832
33,73.76360058921603,0.6151552915262359,269,74.37875588074226,0.008270577858448806,73e9,615155291.5262359,100,16.30824452239281
34,97.86800155428716,0.1679493951881016,205,98.03595094947526,0.0017131408790501516,97e9,167949395.1881016,100,94.83143081921763
35,109.86862788038249,0.1913076659519465,182,110.05993554633444,0.001738213501600747,109e9,191307665.9519465,100,45.023649734716244
36,103.06373602731236,1.3135145672735267,192,104.37725059458589,0.012584299354419473,103e9,1313514567.2735267,100,44.577819745951686
37,104.78966299410445,1.703646027587512,188,106.49330902169196,0.015997681387104716,104e9,1703646027.587512,100,80.14102852106437
38,89.8709810922231,1.7857754125044503,219,91.65675650472755,0.019483292673708588,89e9,1785775412.5044503,100,32.61863858174528
39,111.54860912331542,1.2442325321504684,178,112.79284165546588,0.011031130290617815,111e9,1244232532.1504683,100,105.09415557996827
40,97.72283729351265,1.3388793506212924,202,99.06171664413395,0.01351560820847713,97e9,1338879350.6212924,100,43.087245372308104
41,1103.0367771781334,16.9566256267591,18,1119.9934028048926,0.015139933489155571,1103e9,16956625626.759098,1000,429.68407587869666
42,930.9119846389746,12.379188735632434,22,943.291173374607,0.013123401432185686,930e9,12379188735.632435,1000,843.9704144236811
43,895.1441294696617,2.022893454078728,23,897.1670229237404,0.002254756809369123,895e9,2022893454.0787277,1000,816.597883937645
44,1003.3571016131956,16.232630134174155,20,1019.5897317473698,0.01592074697177925,1003e9,16232630134.174154,1000,511.89061957986775
45,1089.9784546719527,11.015290922318362,19,1100.993745594271,0.010004862394901946,1089e9,11015290922.318363,1000,982.6536293765464
46,1064.8134037667921,26.963482651124213,19,1091.7768864179163,0.024696879908852533,1064e9,26963482651.124214,1000,829.7379198252229
47,1006.1925024707969,11.061889784835621,20,1017.2543922556325,0.010874261019711387,1006e9,11061889784.83562,1000,454.64086688838256
48,1042.533676684682,13.978935149572779,19,1056.5126118342548,0.013231205186754351,1042e9,13978935149.572779,1000,997.2167854907972
49,1093.0967839308325,14.41440510080926,19,1107.5111890316418,0.013015132707970715,1093e9,14414405100.80926,1000,714.9082392204739
50,1068.454989396098,7.599056125530385,19,1076.0540455216283,0.007061965109611818,1068e9,7599056125.530385,1000,397.275819884772
51,759.3093549582607,7.265887285459317,27,766.57524224372,0.00947837457441555,759e9,7265887285.459317,1000,221.38257172240608
52,870.1645680155799,21.454614238736983,23,891.6191822543169,0.0240625310286533,870e9,21454614238.736984,1000,456.9422122884892
53,1014.0167598596332,12.512278017117811,20,1026.529037876751,0.01218891775628473,1014e9,12512278017.117811,1000,690.2352674434427
54,899.896998550447,16.29441329324482,22,916.1914118436919,0.017784944371454937,899e9,16294413293.24482,1000,18.731984906537086
55,1062.4099786316228,3.8243831563023813,19,1066.2343617879253,0.0035868128934518936,1062e9,3824383156.3023815,1000,821.2251605811724
56,1034.9784021730325,23.191171805287137,19,1058.1695739783197,0.02191630942297561,1034e9,23191171805.287136,1000,1038.7251115186275
57,1103.7076280848692,12.387345906691586,18,1116.0949739915607,0.011098827783795085,1103e9,12387345906.691586,1000,128.08490329596978
58,938.2977336679652,21.01262065476316,21,959.3103543227284,0.021903881846035155,938e9,21012620654.76316,1000,859.9669965530793
59,884.5287730695102,16.530063388711834,23,901.058836458222,0.01834515430056299,884e9,16530063388.711834,1000,611.6607314680025
60,969.1211742471063,4.658714462105526,21,973.7798887092118,0.004784155553141334,969e9,4658714462.105526,1000,635.5588552966225
