app_id,start_app,end_app,effective_cpu,effective_io,effective_iter,total_bytes,stretch,utilization,Tcomp,Tio,iterations,priority,group_id
app_1,1.6103,18426.1,7710.8,244.672,857.715,1.72523e+11,1.0148,0.965502,9,0.20131,1967,0.1,1
app_10,3.76654,19503.6,7865.3,86.4645,783.884,5.92162e+10,1.00953,0.965502,10,0.0755309,1921,0.1,1
app_11,0.576255,18474.6,7840.7,111.877,786.258,7.54198e+10,1.0106,0.965502,10,0.0959539,1814,0.1,1
app_12,3.77897,18680.9,7790.98,162.516,777.582,1.29831e+11,1.01,0.965502,10,0.167068,1818,0.1,1
app_13,9.10217,19436,7788.2,164.527,865.746,1.0322e+11,1.01376,0.965502,9,0.119192,2107,0.1,1
app_14,8.51761,19584.1,7809.4,145.072,784.258,8.22565e+10,1.01373,0.965502,10,0.104919,1918,0.1,1
app_15,2.65764,19916.4,7857.7,89.8941,874.139,4.7699e+10,1.01197,0.965502,9,0.0545755,2174,0.1,1
app_16,4.59839,19226.1,7862.2,91.1737,793.068,6.87355e+10,1.00871,0.965502,10,0.0866778,1898,0.1,1
app_17,0.195174,18407.3,7832.5,109.289,979.337,7.52192e+10,1.01167,0.965502,8,0.0767543,2251,0.1,1
app_18,4.62091,17504.7,7637.56,302.686,1275.71,2.34878e+11,1.0162,0.965502,6,0.184074,2785,0.1,1
app_19,4.35665,18361,7661,291.061,959.541,2.34925e+11,1.01318,0.965502,8,0.244714,2197,0.1,1
app_2,9.94227,18745.5,7888,70.0741,720.775,2.90084e+10,1.01048,0.965502,11,0.0402336,1683,0.1,1
app_20,0.745687,18638.8,7702.9,251.521,852.076,1.93848e+11,1.01308,0.965502,9,0.227522,1990,0.1,1
app_21,41.5162,20295.5,7797.8,128.649,83.3424,8.562e+10,1.01479,0.965502,93,1.01929,212,0.01,2
app_22,22.9673,20434.9,7779.2,177.95,77.9114,1.18951e+11,1.0129,0.965502,98,1.52501,201,0.01,2
app_23,13.052,20284.6,7934.4,7.63187,84.979,3.08981e+08,1.00823,0.965502,93,0.00363508,215,0.01,2
app_24,73.4786,19995.1,7863.3,41.7376,80.9258,2.6162e+10,1.01401,0.965502,97,0.322988,205,0.01,2
app_25,84.9085,20363.3,7780,168.001,70.6082,1.16766e+11,1.01307,0.965502,110,1.66809,179,0.01,2
app_26,17.2162,20273.3,7750.26,192.956,73.8604,1.30656e+11,1.01511,0.965502,105,1.78681,187,0.01,2
app_27,73.234,20350.3,7637.4,327.078,91.339,2.24238e+11,1.0176,0.965502,84,2.43737,231,0.01,2
app_28,76.9054,20339.2,7629.5,302.223,81.0328,2.10591e+11,1.0204,0.965502,93,2.59988,208,0.01,2
app_29,34.6586,20583.8,7774.1,147.718,95.1596,9.69239e+10,1.01639,0.965502,81,1.02025,244,0.01,2
app_3,1.23722,18945.5,7773.4,178.84,864.56,1.42351e+11,1.01064,0.965502,9,0.164758,2050,0.1,1
app_30,83.2502,20269.1,7612,334.657,76.2399,2.23718e+11,1.02097,0.965502,101,2.94366,192,0.01,2
app_31,31.4365,19767.1,7925.7,22.153,86.4233,1.07115e+10,1.00801,0.965502,93,0.123121,214,0.01,2
app_32,6.61605,20392.4,7792.6,174.125,82.1774,1.16499e+11,1.01149,0.965502,95,1.42073,207,0.01,2
app_33,49.0996,19856.6,7899.9,35.0683,85.6409,1.99593e+10,1.01012,0.965502,94,0.234815,211,0.01,2
app_34,28.9701,20123.7,7768.4,175.002,80.4767,1.20911e+11,1.01403,0.965502,98,1.49273,200,0.01,2
app_35,62.2253,20374.8,7760.7,179.752,87.9207,1.22332e+11,1.01484,0.965502,86,1.39014,228,0.01,2
app_36,86.2069,20253.1,7649.4,297.125,79.3272,2.09488e+11,1.01796,0.965502,97,2.6186,200,0.01,2
app_37,36.3619,20292.8,7778.9,158.324,76.1141,1.03801e+11,1.01488,0.965502,102,1.36581,194,0.01,2
app_38,13.377,19923,7911,21.1657,83.5079,9.71511e+09,1.01001,0.965502,97,0.115656,206,0.01,2
app_39,57.1041,20247,7907.9,20.8093,90.2272,9.95154e+09,1.01038,0.965502,87,0.110573,230,0.01,2
app_4,1.36428,18715.2,7787.9,161.804,866.217,9.17312e+10,1.01528,0.965502,9,0.105803,2022,0.1,1
app_40,10.8552,19900.4,7796.6,152.331,66.9025,1.04955e+11,1.01246,0.965502,119,1.56649,165,0.01,2
app_41,660.483,22444.3,7500.6,377.79,8.5454,1.77621e+11,1.04191,0.965502,875,19.7356,23,0.001,3
app_42,103.826,20631.4,7621.2,182.534,9.33429,8.20742e+10,1.03852,0.965502,890,9.11935,23,0.001,3
app_43,736.491,22019.6,7718.1,29.389,7.79533,1.36656e+10,1.03469,0.965502,988,1.7082,21,0.001,3
app_44,513.354,22144,7607.5,195.345,7.56969,9.18564e+10,1.03905,0.965502,958,11.4821,21,0.001,3
app_45,873.535,22038.1,7780.1,93.9585,8.14225,4.60988e+10,1.02221,0.965502,992,5.76235,21,0.001,3
app_46,722.891,22391.6,7482.8,307.368,8.01624,1.48494e+11,1.04832,0.965502,899,18.5617,22,0.001,3
app_47,72.4531,21611.2,7372.9,267.503,9.25283,1.32911e+11,1.06584,0.965502,773,14.7679,26,0.001,3
app_48,1083.63,23400.7,7638.3,207.121,6.06311,9.31195e+10,1.03474,0.965502,1219,15.5199,17,0.001,3
app_49,344.915,21267.1,7543.1,397.071,7.3661,1.91111e+11,1.03437,0.965502,982,23.8889,20,0.001,3
app_5,7.94037,18864.4,7866.8,71.078,873.816,5.68455e+09,1.0162,0.965502,9,0.00650406,2072,0.1,1
app_50,48.6111,22270.8,7437.8,419.879,6.69097,2.06739e+11,1.0465,0.965502,1090,29.5342,18,0.001,3
app_51,95.7005,22286.9,7723.1,230.565,6.45506,1.11476e+11,1.02111,0.965502,1156,15.9251,18,0.001,3
app_52,203.851,21168.5,7530.6,311.999,7.73606,1.55871e+11,1.04079,0.965502,1008,19.4839,20,0.001,3
app_53,461.422,21364.5,7483.5,465.922,8.04562,2.20205e+11,1.03846,0.965502,928,27.5256,21,0.001,3
app_54,459.016,21149,7409.4,285.592,7.69982,1.30961e+11,1.06096,0.965502,982,18.7088,20,0.001,3
app_55,699.204,22005.7,7762.1,5.00744,8.35606,2.05208e+09,1.03038,0.965502,931,0.256509,22,0.001,3
app_56,573.854,21334.2,7667.8,107.153,6.68854,5.50597e+10,1.03589,0.965502,1066,9.17661,19,0.001,3
app_57,1048.54,21836.2,7670.9,214.648,6.84718,1.06912e+11,1.02857,0.965502,1095,15.2732,18,0.001,3
app_58,570.251,22995.4,7663.3,137.189,7.84321,5.34306e+10,1.03671,0.965502,940,7.63295,22,0.001,3
app_59,101.183,21130.2,7630.8,243.308,7.51335,1.28087e+11,1.03108,0.965502,1068,18.2982,19,0.001,3
app_6,9.10318,18700.2,7852.3,100.104,871.893,7.66912e+10,1.00896,0.965502,9,0.0880496,2039,0.1,1
app_60,433.125,21717.4,7494.2,167.957,7.27718,8.42564e+10,1.05562,0.965502,993,12.0366,20,0.001,3
app_7,6.80109,19906.5,7864.7,86.1056,786.599,5.74376e+10,1.00983,0.965502,10,0.072983,1960,0.1,1
app_8,5.30339,19046.8,7824.2,131.098,789.525,7.8951e+10,1.01225,0.965502,10,0.0999379,1868,0.1,1
app_9,0.210871,18550.3,7737.2,223.786,778.087,1.58941e+11,1.01315,0.965502,10,0.204032,1798,0.1,1
