app_id,start_app,end_app,effective_cpu,effective_io,effective_iter,total_bytes,stretch,utilization,Tcomp,Tio,iterations,priority,group_id
app_1,5.35796,25290.6,5236.9,153.794,581.576,1.16756e+11,1.49431,0.850888,9,0.200957,1989,1,1
app_10,6.83341,25381.4,5135.3,117.672,640.925,8.20783e+10,1.53334,0.850888,8,0.128247,2224,1,1
app_11,1.88675,26287.6,5337.3,109.605,531.452,8.47774e+10,1.47545,0.850888,10,0.159356,1911,1,1
app_12,9.8677,25251.6,5306.6,96.1002,530.105,6.42634e+10,1.48952,0.850888,10,0.121252,1813,1,1
app_13,9.36052,25381.1,5185.2,129.545,581.719,1.06569e+11,1.51178,0.850888,9,0.183108,2002,1,1
app_14,0.698743,25548.2,5334.8,54.2525,538.099,2.75818e+10,1.49187,0.850888,10,0.0512672,1857,1,1
app_15,8.46224,26758.5,5226.1,135.655,583.219,1.14626e+11,1.49792,0.850888,9,0.196615,2152,1,1
app_16,8.19654,26034.3,5328.7,40.0392,534.603,8.57389e+09,1.49889,0.850888,10,0.016056,1910,1,1
app_17,6.64116,26024.7,5198,159.809,576.089,1.25333e+11,1.50282,0.850888,9,0.217592,2058,1,1
app_18,2.51786,25801.2,5502.5,40.2419,455.857,1.50826e+10,1.44991,0.850888,12,0.0330758,1601,1,1
app_19,1.68261,25123.9,5239.1,75.1267,579.714,5.22235e+10,1.51191,0.850888,9,0.0901961,1996,1,1
app_2,9.25796,26829.1,5289.5,91.0889,531.124,6.06276e+10,1.49529,0.850888,10,0.114176,1966,1,1
app_20,1.56669,26368.3,5240.7,70.8176,578.669,4.68797e+10,1.51298,0.850888,9,0.0811067,2118,1,1
app_21,60.9172,21532.4,7357.9,27.9255,82.7939,2.42459e+10,1.0837,0.850888,89,0.292119,222,1,1
app_22,50.4791,21731.1,7273.4,110.999,74.6036,1.06751e+11,1.08399,0.850888,96,1.42334,205,1,1
app_23,17.5055,21699.3,7363.91,40.0565,75.1713,3.6811e+10,1.08098,0.850888,98,0.48718,203,1,1
app_24,9.84211,21518.2,7294.1,104.102,87.9309,9.89252e+10,1.0821,0.850888,84,1.12415,235,1,1
app_25,88.4736,21817.6,7249.9,75.1227,81.995,7.09721e+10,1.09277,0.850888,89,0.865514,222,1,1
app_26,25.4376,21519.8,7367.1,116.097,72.4245,1.12396e+11,1.06959,0.850888,100,1.56106,197,1,1
app_27,95.0718,21445.2,7424.9,6.9162,61.6475,4.09759e+09,1.07686,0.850888,120,0.0660901,167,1,1
app_28,6.62775,21460,7351.1,120.169,71.233,1.16195e+11,1.07134,0.850888,102,1.63654,192,1,1
app_29,107.811,21565.3,7302.3,46.0088,65.0531,4.29508e+10,1.08914,0.850888,111,0.660781,180,1,1
app_3,2.52847,25245.2,5452.9,143.589,456.673,1.23725e+11,1.43456,0.850888,12,0.270732,1550,1,1
app_30,30.5183,21364.1,7287.3,165.187,82.5975,1.61493e+11,1.074,0.850888,88,1.96942,221,1,1
app_31,10.2385,21336.9,7338.2,129.555,69.1843,1.25711e+11,1.07182,0.850888,105,1.8219,187,1,1
app_32,0.619802,21596,7360.52,62.1608,78.6537,5.76867e+10,1.07843,0.850888,94,0.730211,210,1,1
app_33,62.0758,21561.4,7154.4,125.291,78.3581,1.21762e+11,1.09948,0.850888,92,1.56105,212,1,1
app_34,68.9391,21387.7,7141.6,133.225,77.8582,1.29271e+11,1.10028,0.850888,94,1.65732,208,1,1
app_35,76.1861,21595.2,7280.6,107.843,76.7923,1.0507e+11,1.08318,0.850888,95,1.3825,208,1,1
app_36,11.873,21395,7299,161.121,70.3235,1.57191e+11,1.07293,0.850888,104,2.21395,187,1,1
app_37,69.1386,21651.9,7270.5,156.284,68.1574,1.52826e+11,1.07768,0.850888,105,2.24743,186,1,1
app_38,8.69467,21300.4,7347,131.106,73.8995,1.26894e+11,1.07039,0.850888,100,1.71478,196,1,1
app_39,36.4159,21375.6,7336,140.556,78.5084,1.36726e+11,1.07056,0.850888,94,1.75289,208,1,1
app_4,6.89612,25966,5268.5,140.476,527.442,1.08201e+11,1.4879,0.850888,10,0.205315,1874,1,1
app_40,81.0699,21883.8,7291.2,40.2102,75.2511,3.74501e+10,1.09161,0.850888,98,0.499335,203,1,1
app_41,86.1849,21047.4,7781.3,153.326,8.1546,1.52832e+11,1.0083,0.850888,968,19.1039,21,1,1
app_42,92.7085,20801.3,7802.6,176.602,7.56866,1.76347e+11,1.00264,0.850888,1029,25.1924,19,1,1
app_43,660.802,21965,7803.8,81.3059,7.85118,8.08567e+10,1.01463,0.850888,941,10.1071,22,1,1
app_44,13.0265,20381.9,7945.4,14.9033,7.88874,1.4639e+10,1.00502,0.850888,964,2.09128,21,1,1
app_45,775.989,21210.9,7853.8,46.0056,8.62635,4.55418e+10,1.01274,0.850888,905,5.69272,22,1,1
app_46,233.933,21334.5,7811.3,123.155,7.78784,1.22892e+11,1.00829,0.850888,1026,15.3614,20,1,1
app_47,162.64,21422.3,7775.7,185.436,8.2298,1.84909e+11,1.00495,0.850888,966,23.1136,21,1,1
app_48,989.645,21167.6,7851.9,106.614,7.6483,1.06365e+11,1.00524,0.850888,985,15.1949,20,1,1
app_49,362.763,20326.1,7804.6,156.642,8.37154,1.56188e+11,1.00493,0.850888,1021,19.5235,20,1,1
app_5,1.07597,26646.9,5340.3,64.352,535.089,4.14036e+10,1.48652,0.850888,10,0.0773898,1966,1,1
app_50,272.471,21509,7799.7,117.065,7.09582,1.16604e+11,1.01057,0.850888,1077,14.5755,19,1,1
app_51,698.156,21348.9,7833.2,40.9887,8.16138,4.05379e+10,1.01604,0.850888,979,5.06724,21,1,1
app_52,217.564,21138.5,7752.2,164.664,7.67568,1.64192e+11,1.01056,0.850888,1021,20.524,20,1,1
app_53,512.895,21444.8,7791.1,150.022,9.57481,1.49606e+11,1.00747,0.850888,838,16.6229,24,1,1
app_54,339.966,21983.9,7799.8,138.916,7.66245,1.38475e+11,1.00778,0.850888,963,17.3093,21,1,1
app_55,778.815,21766.4,7795,108.76,9.64877,1.08306e+11,1.01223,0.850888,801,10.8306,25,1,1
app_56,686.58,20981.5,7863.8,89.725,7.27938,8.94677e+10,1.00588,0.850888,1054,12.7811,19,1,1
app_57,588.665,21196.9,7770.2,137.8,10.1202,1.3715e+11,1.01172,0.850888,769,13.715,26,1,1
app_58,221.518,21514.5,7864.3,16.2439,7.6779,1.59132e+10,1.0152,0.850888,988,1.98915,21,1,1
app_59,19.2033,20527.4,7792.4,165.264,8.95392,1.64731e+11,1.00539,0.850888,866,18.3034,23,1,1
app_6,10.6171,26226.8,5481.2,104.606,459.117,8.90566e+10,1.4362,0.850888,12,0.194023,1630,1,1
app_60,940.032,22603.2,7719.7,176.929,7.56266,1.76563e+11,1.01314,0.850888,1029,22.0704,20,1,1
app_7,8.76523,25678.9,5361,58.5206,535.666,3.29966e+10,1.48313,0.850888,10,0.0616759,1867,1,1
app_8,6.73873,25177.9,5311.3,97.9586,531.183,6.70766e+10,1.48744,0.850888,10,0.126321,1801,1,1
app_9,6.78394,25957.7,5347.7,51.7189,533.711,2.38523e+10,1.48933,0.850888,10,0.044751,1893,1,1
