app_id,start_app,end_app,effective_cpu,effective_io,effective_iter,total_bytes,stretch,utilization,Tcomp,Tio,iterations,priority,group_id
app_1,9.04351,19072.8,7795.2,147.939,782.249,9.20496e+10,1.0143,0.963148,10,0.11756,1860,0.1,1
app_10,0.242526,18740.7,7648.1,286.425,955.491,2.25848e+11,1.01601,0.963148,8,0.236242,2242,0.1,1
app_11,3.23499,19809.7,7709.6,211.507,1101.74,1.36482e+11,1.01962,0.963148,7,0.12385,2722,0.1,1
app_12,0.882488,18852.6,7796.5,144.752,785.969,8.67149e+10,1.01481,0.963148,10,0.110324,1849,0.1,1
app_13,7.97322,19207.3,7764.8,175.046,865.062,1.31293e+11,1.01316,0.963148,9,0.151784,2070,0.1,1
app_14,5.42253,18949.2,7859.3,75.7596,874.617,1.62018e+10,1.01581,0.963148,9,0.0185163,2066,0.1,1
app_15,6.8125,19304.5,7838.5,106.887,777.872,7.20147e+10,1.01131,0.963148,10,0.0925639,1885,0.1,1
app_16,3.26883,20257.6,7771.6,169.492,866.319,1.12951e+11,1.01464,0.963148,9,0.130428,2189,0.1,1
app_17,8.98795,18978.1,7683.8,259.157,853.308,2.10492e+11,1.01339,0.963148,9,0.246478,2022,0.1,1
app_18,1.49054,19994.6,7853.1,88.0547,788.066,5.94862e+10,1.01105,0.963148,10,0.0754901,1973,0.1,1
app_19,9.92928,19539.8,7711.4,237.528,771.641,2.00718e+11,1.01111,0.963148,10,0.259998,1881,0.1,1
app_2,5.06013,18702.9,7792.3,149.884,778.565,9.80684e+10,1.01389,0.963148,10,0.126052,1822,0.1,1
app_20,3.65327,18321.4,7783.7,161.026,860.184,9.47087e+10,1.01543,0.963148,9,0.110126,1979,0.1,1
app_21,74.725,19926.8,7715.1,250.075,78.7966,1.67373e+11,1.01491,0.963148,100,2.11865,195,0.01,2
app_22,28.016,20468.2,7925.9,19.9805,85.1439,9.33119e+09,1.00816,0.963148,92,0.109779,217,0.01,2
app_23,68.4053,19989.8,7904.2,64.2033,72.4641,4.02794e+10,1.00699,0.963148,110,0.559437,180,0.01,2
app_24,47.8417,20432.5,7826.8,113.158,82.3659,6.68792e+10,1.01347,0.963148,95,0.8156,208,0.01,2
app_25,44.1901,20228.2,7946.3,16.0576,82.8744,7.22923e+09,1.00584,0.963148,97,0.0870991,206,0.01,2
app_26,31.4935,20377.2,7803.9,155.743,82.7433,1.02861e+11,1.01179,0.963148,94,1.23928,210,0.01,2
app_27,0.828466,20065.6,7917.3,37.4378,88.2093,2.0797e+10,1.0078,0.963148,91,0.236329,219,0.01,2
app_28,21.2423,20498.3,7756,189.663,79.1054,1.27951e+11,1.01472,0.963148,95,1.61964,206,0.01,2
app_29,40.6802,20468.1,7711.1,253.247,80.1903,1.6711e+11,1.01546,0.963148,95,2.08888,206,0.01,2
app_3,2.97229,20297.6,7873.7,63.7713,787.502,4.55122e+09,1.01545,0.963148,10,0.00577566,1996,0.1,1
app_30,60.333,20293.1,7816.2,128.448,96.4675,8.13455e+10,1.01297,0.963148,81,0.838614,242,0.01,2
app_31,83.3491,20007.9,7793.5,143.667,82.9201,9.08317e+10,1.01467,0.963148,95,1.09436,207,0.01,2
app_32,98.5459,20286.3,7697.7,234.16,78.9816,1.48838e+11,1.01956,0.963148,99,1.88402,197,0.01,2
app_33,23.4751,20264.5,7737.4,227.019,69.841,1.47184e+11,1.01464,0.963148,111,2.13311,177,0.01,2
app_34,37.464,20308,7713.27,241.549,70.5925,1.62075e+11,1.01583,0.963148,108,2.31133,181,0.01,2
app_35,49.4158,20391.3,7786.2,154.148,90.1755,9.99641e+10,1.01443,0.963148,85,1.11071,231,0.01,2
app_36,72.8064,20190.7,7873.6,97.1106,74.0456,6.28775e+10,1.008,0.963148,106,0.849697,186,0.01,2
app_37,69.7063,20401,7675.8,275.291,72.8802,1.80512e+11,1.01829,0.963148,107,2.47276,183,0.01,2
app_38,4.35113,20387.3,7803.6,164.124,67.9747,1.05735e+11,1.01146,0.963148,115,1.55492,172,0.01,2
app_39,86.9113,20356.3,7790.7,170.461,83.2033,1.08511e+11,1.01276,0.963148,94,1.29179,209,0.01,2
app_4,0.615114,18380.4,7643.1,287.761,958.118,2.30926e+11,1.016,0.963148,8,0.24105,2199,0.1,1
app_40,34.0994,20544.5,7912.3,45.816,70.4216,2.55395e+10,1.00783,0.963148,110,0.36485,182,0.01,2
app_41,470.004,21453.4,7462.5,344.787,9.51683,1.68591e+11,1.04834,0.963148,790,16.8591,25,0.001,3
app_42,780.249,20972.3,7881.9,79.4349,7.38364,4.22062e+10,1.00958,0.963148,1072,6.02946,19,0.001,3
app_43,140.302,20867.9,7732,82.272,7.98912,3.84186e+10,1.02955,0.963148,966,4.80232,21,0.001,3
app_44,1119.73,21769.4,7665,112.4,7.15164,6.22608e+10,1.0353,0.963148,1139,8.89441,18,0.001,3
app_45,796.505,22422.8,7390.9,347.686,9.04162,1.66e+11,1.05864,0.963148,871,18.4445,23,0.001,3
app_46,674.197,22019.3,7411.2,500.603,7.68679,2.16876e+11,1.04876,0.963148,1023,27.1095,20,0.001,3
app_47,232.418,21714.3,7512.8,251.808,7.51721,1.20539e+11,1.04803,0.963148,995,15.0674,20,0.001,3
app_48,732.079,22305.4,7269.2,469.083,8.36157,2.08865e+11,1.0698,0.963148,926,23.2072,22,0.001,3
app_49,555.155,21635,7480.2,436.152,8.01483,2.13543e+11,1.03981,0.963148,1018,26.6929,20,0.001,3
app_5,10.5918,19395.6,7889.7,57.9335,721.589,2.08126e+09,1.01371,0.963148,11,0.00288663,1748,0.1,1
app_50,924.043,21301.1,7863.9,61.508,8.60763,3.56853e+10,1.01271,0.963148,971,3.96503,21,0.001,3
app_51,469.776,22221.2,7476.2,184.008,9.64488,8.27777e+10,1.05834,0.963148,745,9.19752,27,0.001,3
app_52,792.194,21771.2,7669.16,33.0572,7.37966,1.25586e+10,1.04143,0.963148,1055,1.79408,19,0.001,3
app_53,510.267,21699.2,7407.24,244.066,7.04637,1.15676e+11,1.06342,0.963148,1047,16.5251,19,0.001,3
app_54,548.432,20900.7,7434.1,445.153,8.39902,2.16642e+11,1.04565,0.963148,941,24.0714,21,0.001,3
app_55,184.368,21355,7594.1,268.874,8.69457,1.17486e+11,1.0374,0.963148,833,13.0541,24,0.001,3
app_56,69.7331,21508.2,7557.7,242.458,6.06129,1.05344e+11,1.04397,0.963148,1305,17.5574,16,0.001,3
app_57,696.488,21540.3,7363.22,108.745,8.04509,4.56478e+10,1.07979,0.963148,1003,5.70598,20,0.001,3
app_58,896.55,22677.8,7716.9,172.341,8.23076,8.65602e+10,1.02519,0.963148,917,10.82,22,0.001,3
app_59,687.104,21370,7478.9,278.953,8.87422,1.27505e+11,1.05174,0.963148,869,14.8947,23,0.001,3
app_6,4.71603,19262.3,7648.9,283.444,957.18,2.1962e+11,1.01671,0.963148,8,0.229488,2295,0.1,1
app_60,560.087,21312.7,7429.6,134.294,8.68366,5.66208e+10,1.06863,0.963148,925,6.2912,22,0.001,3
app_7,1.40161,19777.5,7860.2,76.4666,873.29,1.54817e+10,1.01579,0.963148,9,0.0177338,2164,0.1,1
app_8,2.91681,19540.9,7724.4,229.111,776.566,1.75109e+11,1.01272,0.963148,10,0.225365,1886,0.1,1
app_9,6.13144,19332.3,7759.5,184.654,770.476,1.44658e+11,1.01213,0.963148,10,0.187625,1872,0.1,1
