app_id,Tcomp,Tio,iter,witer,alpha_io,compute_size,io_size,mu,desyn_time
1,10.547611087974794,0.20754847230846196,1860,10.755159560283255,0.019297572587848786,10e9,207548472.30846196,10,3.354422556540836
2,9.58605690378371,0.17542169477427402,2049,9.761478598557984,0.0179708117989613,9e9,175421694.77427402,10,1.0889017149349884
3,10.487846944524561,0.2498961440848125,1863,10.737743088609374,0.023272687940345954,10e9,249896144.0848125,10,5.318298743896626
4,8.765017580532755,0.1238301276551617,2251,8.888847708187916,0.013930953900930965,8e9,123830127.6551617,10,7.0390897697073305
5,10.32052393846271,0.17775889379585194,1906,10.498282832258562,0.016932187543056462,10e9,177758893.79585195,10,2.6702364283076143
6,11.103524269736605,0.2583632232263763,1761,11.361887492962982,0.022739463261398626,11e9,258363223.2263763,10,7.254404432963559
7,10.328892406045204,0.20125693851506726,1900,10.530149344560272,0.019112448639584945,10e9,201256938.51506725,10,9.105261589837006
8,12.213027055869471,0.21496867616021884,1610,12.42799573202969,0.017297131476010818,12e9,214968676.16021883,10,8.2531577903598
9,10.210673201376048,0.18308304664456043,1925,10.393756248020608,0.017614714283820814,10e9,183083046.64456043,10,9.938771236995663
10,9.637419750068801,0.09003074194919146,2057,9.727450492017992,0.009255327695891906,9e9,90030741.94919147,10,6.5172857473049035
11,9.01128406573064,0.015914575853067034,2216,9.027198641583707,0.0017629584198753186,9e9,15914575.853067035,10,6.085503118362627
12,10.969724152320353,0.15413121853955805,1798,11.12385537085991,0.013855917161897009,10e9,154131218.53955805,10,7.8455800863033325
13,10.693256480356338,0.026180309128552442,1866,10.71943678948489,0.002442321331120094,10e9,26180309.12855244,10,3.2434583028161126
14,10.163616311480945,0.01628560807610652,1965,10.179901919557052,0.0015997804502241354,10e9,16285608.07610652,10,1.2136922183684222
15,9.733691688070786,0.16704438613250647,2021,9.900736074203293,0.016871915873785014,9e9,167044386.13250646,10,7.309031890370894
16,8.044802812935671,0.13514631083663992,2446,8.179949123772312,0.016521656649902863,8e9,135146310.8366399,10,4.005049114899632
17,9.114065406976128,0.002408951051604703,2194,9.116474358027732,0.0002642415211186815,9e9,2408951.051604703,10,8.60110181851235
18,8.713423476517791,0.10870258454171991,2268,8.82212606105951,0.012321585952112893,8e9,108702584.54171991,10,1.8199455253081034
19,8.843415358780309,0.16953640269158074,2220,9.01295176147189,0.01881030845147828,8e9,169536402.69158074,10,6.019167263022315
20,10.09878092468916,0.13833685971734327,1954,10.237117784406504,0.013513262485663913,10e9,138336859.71734327,10,5.678028725549777
21,93.03318594934233,1.2242888812215909,213,94.25747483056392,0.012988772332617202,93e9,1224288881.2215908,100,78.4237149688259
22,98.09404180805905,1.6547844210794949,201,99.74882622913854,0.016589512715449884,98e9,1654784421.079495,100,38.4206858815171
23,92.76838752186003,0.6738054974971289,215,93.44219301935716,0.00721093411578585,92e9,673805497.497129,100,75.26978060536605
24,93.99164429265669,1.05188645022273,211,95.04353074287941,0.011067417655899074,93e9,1051886450.22273,100,41.838661680869784
25,106.67636888363228,0.9530620935762371,186,107.62943097720851,0.008855032354282876,106e9,953062093.5762371,100,86.52209547379799
26,90.59904650116188,0.9452530787994733,219,91.54429957996135,0.01032563560086908,90e9,945253078.7994733,100,10.525863140029337
27,110.24913652538378,0.6895001771900263,181,110.9386367025738,0.006215149182322967,110e9,689500177.1900263,100,22.969368613086058
28,92.69842984498709,0.5041233443773125,215,93.20255318936441,0.005408900584011462,92e9,504123344.37731254,100,71.37663427606262
29,111.53215745859221,1.6491886708141008,177,113.18134612940631,0.01457120565546636,111e9,1649188670.8141007,100,108.23143873574546
30,99.01802365767219,0.24357425603705699,202,99.26159791370924,0.002453861928041926,99e9,243574256.03705698,100,1.0438170851426225
31,99.79272911680214,1.4403215102897176,198,101.23305062709186,0.014227779380030465,99e9,1440321510.2897174,100,80.56830600710757
32,91.63439115407918,1.1610641208504489,216,92.79545527492964,0.012512079577717545,91e9,1161064120.8504488,100,42.78244907966097
33,86.84214878439872,1.9012170369940982,226,88.74336582139281,0.021423765251596796,86e9,1901217036.9940982,100,53.653651265394586
34,95.92513885804686,1.2896641240782531,206,97.21480298212512,0.013266129072085695,95e9,1289664124.078253,100,64.69563197945365
35,108.64496488513633,1.4733776291071399,182,110.11834251424347,0.013379947386299999,108e9,1473377629.1071398,100,47.72098950110378
36,94.36232249148121,1.5491340942950813,209,95.91145658577629,0.01615171064480339,94e9,1549134094.2950814,100,63.95427880679939
37,98.00218925536568,1.3576499821987331,202,99.35983923756442,0.013663971204227292,98e9,1357649982.198733,100,45.95041872666468
38,102.09527122337929,1.7742865837951762,193,103.86955780717446,0.01708187289185343,102e9,1774286583.7951763,100,72.79708146299008
39,106.76059313726346,1.8481185472348074,185,108.60871168449826,0.017016301165632828,106e9,1848118547.2348075,100,84.24687373938843
40,70.62020940853483,1.550768756073956,278,72.17097816460878,0.02148742881850564,70e9,1550768756.073956,100,68.21619909745122
41,1033.3440542258388,23.991000541455424,19,1057.3350547672942,0.02269006445334921,1033e9,23991000541.455425,1000,241.9627357299882
42,1027.8343874681616,22.701138621276268,20,1050.5355260894378,0.021609110836812953,1027e9,22701138621.276268,1000,2.352771746956577
43,1010.5625803954322,7.893790910660301,20,1018.4563713060925,0.007750740368521743,1010e9,7893790910.660301,1000,917.8445658476678
44,1072.0550337850682,7.875511681675456,19,1079.9305454667438,0.007292609431907193,1072e9,7875511681.675456,1000,623.2951120008873
45,970.2625259150103,13.333567263481724,21,983.5960931784921,0.013555937600762813,970e9,13333567263.481724,1000,860.5654941124087
46,873.7946119268795,16.994774259845723,23,890.7893861867252,0.01907833043745238,873e9,16994774259.845724,1000,831.9971964781128
47,1010.7835402836843,16.059597741855406,20,1026.8431380255397,0.015639777047870743,1010e9,16059597741.855406,1000,262.38612743424426
48,886.032472005797,12.501411764222134,23,898.5338837700191,0.013913122242835627,886e9,12501411764.222134,1000,121.01832681678823
49,902.2810328553066,14.640875463901779,22,916.9219083192085,0.015967418087697,902e9,14640875463.90178,1000,110.80568343991101
50,922.1372473461755,6.817466857623145,22,928.9547142037986,0.00733885813095459,922e9,6817466857.623145,1000,321.3140624164813
51,921.7801450399919,7.01404356069489,22,928.7941886006868,0.007551773737152885,921e9,7014043560.69489,1000,346.36985259426064
52,966.4468431463066,22.672069725096403,21,989.118912871403,0.02292148034990009,966e9,22672069725.0964,1000,855.8332007387148
53,884.8595899481492,9.381703575150919,23,894.2412935233001,0.010491243966365183,884e9,9381703575.150919,1000,560.0125711299455
54,1098.2131368717037,7.923360511185474,19,1106.136497382889,0.0071630947264936,1098e9,7923360511.185474,1000,635.1516150958304
55,1024.4544259322504,8.96675113162652,20,1033.421177063877,0.008676763482922388,1024e9,8966751131.62652,1000,417.88851869579213
56,953.6933509576477,5.318245708414585,21,959.0115966660622,0.0055455489035827095,953e9,5318245708.414585,1000,118.25309200221135
57,1110.2008322647005,19.669727184249666,18,1129.8705594489502,0.01740883238328008,1110e9,19669727184.249664,1000,19.293220615281275
58,1058.1118862037258,13.806120585368799,19,1071.9180067890945,0.012879828958862919,1058e9,13806120585.3688,1000,1062.1115277758977
59,900.6797761612995,19.659412210614683,22,920.3391883719142,0.021361050859294937,900e9,19659412210.61468,1000,76.1901361473945
60,951.0685488218571,9.49008788545994,21,960.5586367073171,0.00987975905145245,951e9,9490087885.45994,1000,157.9187732402511
