app_id,start_app,end_app,effective_cpu,effective_io,effective_iter,total_bytes,stretch,utilization,Tcomp,Tio,iterations,priority,group_id
app_1,8.7892,20191.7,7292.3,707.7,728.063,1.69627e+11,1.07211,0.943335,10,0.233004,1849,1,1
app_10,8.6335,18783.6,7691.9,308.1,962.012,6.3078e+10,1.0316,0.943335,8,0.0655696,2264,1.00001,1.00001
app_11,8.43814,19616.4,7538.71,461.293,942.667,9.74935e+10,1.04764,0.943335,8,0.103426,2321,1.00001,1.00001
app_12,2.85477,19308.5,7848.1,151.9,872.24,2.53463e+10,1.01607,0.943335,9,0.0290669,2106,1.00001,1.00001
app_13,2.63351,19909.3,7480.5,519.5,830.357,1.18798e+11,1.05273,0.943335,9,0.142958,2076,1.00001,1.00001
app_14,5.78874,19468.9,7414,586,820.731,1.34785e+11,1.05977,0.943335,9,0.164171,2011,1.00001,1.00001
app_15,3.83726,19019.2,7765.7,234.3,972.084,4.5445e+10,1.02418,0.943335,8,0.0467541,2312,1.00002,1.00002
app_16,2.26133,19931.9,7470,530,745.766,1.22187e+11,1.05371,0.943335,10,0.163789,1871,1.00002,1.00002
app_17,2.58261,20428.2,7476.7,523.3,747.488,1.20566e+11,1.05301,0.943335,10,0.161184,1920,1.00002,1.00002
app_18,9.16267,19528.6,7412.8,587.2,674.148,1.35327e+11,1.05987,0.943335,11,0.200781,1656,1.00002,1.00002
app_19,1.99319,18608.3,7752.3,247.7,860.674,4.95095e+10,1.0254,0.943335,9,0.0575692,2005,1.00002,1.00002
app_2,5.24581,20466,7485.1,514.9,749.378,1.19651e+11,1.05197,0.943335,10,0.159534,1925,1,1
app_20,4.71799,18823.7,7682.6,317.4,768.358,7.0167e+10,1.03189,0.943335,10,0.0913633,1814,1.00002,1.00002
app_21,42.9516,20976.2,7558.1,441.9,72.5144,1.15209e+11,1.04257,0.943335,104,1.5782,190,1.00002,1.00002
app_22,10.0197,20452.3,7562.8,437.2,70.9946,9.89046e+10,1.04415,0.943335,106,1.39302,185,1.00002,1.00002
app_23,94.548,20334.9,7824.6,175.4,81.0301,4.14686e+10,1.01703,0.943335,98,0.511958,203,1.00002,1.00002
app_24,37.0916,20879.8,7469.9,530.1,85.5908,1.28526e+11,1.05285,0.943335,87,1.49448,225,1.00002,1.00002
app_25,13.7058,19991.1,7850.7,149.3,80.2694,3.30832e+10,1.01474,0.943335,98,0.41354,202,1.00003,1.00003
app_26,74.1525,20455.1,7806.7,193.3,87.1095,4.46795e+10,1.01893,0.943335,90,0.513558,221,1.00003,1.00003
app_27,33.0964,21320.3,7337,663,70.8661,1.7728e+11,1.06464,0.943335,103,2.4969,189,1.00003,1.00003
app_28,93.9785,20972.3,7554.7,445.3,77.1134,1.10947e+11,1.04362,0.943335,98,1.44087,201,1.00003,1.00003
app_29,0.470281,20655.3,7686.3,313.7,74.2654,7.15364e+10,1.03122,0.943335,103,0.953819,192,1.00003,1.00003
app_3,8.21288,19121.5,7374,626,815.552,1.45854e+11,1.06385,0.943335,9,0.178743,1966,1,1
app_30,14.4336,19839.5,7937.5,62.5,89.4974,1.45404e+10,1.00603,0.943335,89,0.163375,222,1.00003,1.00003
app_31,93.1111,20644.6,7628,372,72.9913,9.26924e+10,1.03618,0.943335,105,1.26976,188,1.00003,1.00003
app_32,77.5384,20319.6,7924.7,75.3,90.238,1.51299e+10,1.00758,0.943335,88,0.16811,227,1.00003,1.00003
app_33,86.0426,20307.5,7927.5,72.5,88.9082,1.49189e+10,1.00725,0.943335,88,0.167628,226,1.00003,1.00003
app_34,0.34135,20285.9,7812.7,187.3,91.7897,4.44633e+10,1.01818,0.943335,85,0.483297,234,1.00003,1.00003
app_35,85.5487,21080.4,7359.43,640.568,66.0395,1.64894e+11,1.06322,0.943335,112,2.48794,174,1.00004,1.00004
app_36,67.0681,21004.8,7482.56,517.442,84.0708,1.22458e+11,1.05194,0.943335,89,1.45423,221,1.00004,1.00004
app_37,66.2982,20319.6,7682.1,317.9,76.9217,7.71129e+10,1.03103,0.943335,101,1.00147,195,1.00004,1.00004
app_38,84.8901,21145.1,7299.48,700.522,84.4571,1.76395e+11,1.07011,0.943335,87,2.07539,225,1.00004,1.00004
app_39,4.3035,21059.5,7384.7,615.3,78.2617,1.5674e+11,1.06081,0.943335,94,2.00949,208,1.00004,1.00004
app_4,1.05494,19973.6,7792.8,207.2,868.565,3.87316e+10,1.02151,0.943335,9,0.0445703,2171,1,1
app_40,38.3885,21059.7,7380.1,619.9,89.1214,1.47375e+11,1.06277,0.943335,82,1.6559,238,1.00004,1.00004
app_41,352.471,21060.3,7502.8,497.2,10.0883,1.57035e+11,1.04441,0.943335,755,15.7035,26,1.00004,1.00004
app_42,145.034,21641.4,7417.8,582.2,8.0988,9.54498e+10,1.06479,0.943335,881,11.9312,23,1.00004,1.00004
app_43,830.361,22145.8,7171.5,828.5,7.15795,1.46483e+11,1.0932,0.943335,994,18.3103,20,1.00004,1.00004
app_44,516.921,20469.9,7975.4,24.6,8.32028,8.86677e+09,1.00197,0.943335,960,0.985197,21,1.00004,1.00004
app_45,750.232,22894.6,7295.56,704.438,7.08946,1.2046e+11,1.07875,0.943335,1034,15.8063,20,1.00004,1.00004
app_46,786.954,21969.6,7670.95,329.053,8.84313,6.70778e+10,1.03386,0.943335,854,7.82998,24,1.00005,1.00005
app_47,252.26,21693,7431.7,568.3,7.15279,1.8976e+11,1.04967,0.943335,1052,27.1086,19,1.00005,1.00005
app_48,411.406,21795.8,7198.99,801.013,7.01307,1.62036e+11,1.08681,0.943335,1060,22.0032,19,1.00005,1.00005
app_49,860.542,22362.4,7195.05,804.948,7.10633,1.24807e+11,1.09292,0.943335,995,16.542,20,1.00005,1.00005
app_5,3.26912,19891.7,7402.4,597.6,822.201,1.39761e+11,1.0607,0.943335,9,0.170026,2058,1.00001,1.00001
app_50,85.7167,20696.7,7791.5,208.5,7.52544,7.11026e+10,1.01747,0.943335,1054,10.1575,19,1.00005,1.00005
app_51,680.094,21468,7751.5,248.5,6.79532,1.10865e+11,1.01751,0.943335,1114,15.8379,18,1.00005,1.00005
app_52,371.803,22340.4,7176.4,823.6,8.41424,1.70191e+11,1.08894,0.943335,834,21.2739,24,1.00005,1.00005
app_53,804.713,21903.3,7469.1,530.9,7.86657,1.44941e+11,1.05069,0.943335,944,18.1176,21,1.00005,1.00005
app_54,0.689459,21298.7,7336.05,663.952,9.49052,1.51658e+11,1.06842,0.943335,755,16.2155,26,1.00005,1.00005
app_55,492.109,21833.9,7299.2,700.8,7.62217,9.19151e+10,1.08238,0.943335,944,11.4894,21,1.00005,1.00005
app_56,1010.75,22226.6,7695.4,304.6,7.16037,1.06747e+11,1.02536,0.943335,1070,15.2495,19,1.00006,1.00006
app_57,1049.84,22294.5,7331.9,668.1,6.89998,1.55166e+11,1.06851,0.943335,1047,22.1666,19,1.00006,1.00006
app_58,124.808,21453.7,7459.88,540.122,6.6833,1.28605e+11,1.05423,0.943335,1101,18.6222,18,1.00006,1.00006
app_59,47.2645,21057.8,7841,159,7.38392,5.49832e+10,1.01317,0.943335,1091,7.85474,19,1.00006,1.00006
app_6,3.08739,19806.7,7680.4,319.6,961.287,6.56852e+10,1.03278,0.943335,8,0.0683509,2384,1.00001,1.00001
app_60,851.017,22429,6905,1095,7.61562,1.76671e+11,1.12968,0.943335,890,22.0839,22,1.00006,1.00006
app_7,4.06618,18588.6,7886,114,1129.3,7.80105e+09,1.01345,0.943335,7,0.0069097,2618,1.00001,1.00001
app_8,5.92654,20290.5,7661.4,338.6,767.429,7.48384e+10,1.03409,0.943335,10,0.0974458,1952,1.00001,1.00001
app_9,0.134883,20579.1,7306.7,693.3,915.31,1.64172e+11,1.07083,0.943335,8,0.179228,2371,1.00001,1.00001
