app_id,start_app,end_app,effective_cpu,effective_io,effective_iter,total_bytes,stretch,utilization,Tcomp,Tio,iterations,priority,group_id
app_1,8.98738,26016.3,5367.91,170.052,595.011,1.35456e+11,1.45365,0.858711,9,0.227657,2092,1,1
app_10,1.96208,25726.2,5436.95,78.4605,606.504,5.59126e+10,1.45644,0.858711,9,0.092265,2099,1,1
app_11,3.34826,26480.3,5453.5,88.2286,546.42,5.55325e+10,1.45216,0.858711,10,0.101708,1971,1,1
app_12,8.29232,25880.2,5480.51,45.885,546.881,1.5805e+10,1.45552,0.858711,10,0.0289469,1920,1,1
app_13,1.65564,25968.1,5327.95,191.541,590.698,1.65521e+11,1.45627,0.858711,9,0.280543,2087,1,1
app_14,1.9383,26276.4,5350.83,167.824,589.742,1.32699e+11,1.45891,0.858711,9,0.225295,2124,1,1
app_15,3.673,26340.2,5453.91,36.1834,546.318,4.00047e+09,1.46576,0.858711,10,0.00732688,1965,1,1
app_16,3.67767,26406.2,5295.13,131.579,660.232,9.76537e+10,1.48346,0.858711,8,0.14796,2392,1,1
app_17,2.42648,26521,5508.27,37.3133,551.463,4.42115e+09,1.4512,0.858711,10,0.00802387,1990,1,1
app_18,7.43732,25446.6,5438.53,103.895,541.379,7.44006e+10,1.45113,0.858711,10,0.137524,1863,1,1
app_19,0.0465379,25309.8,5435.32,63.554,602.827,3.37925e+10,1.46276,0.858711,9,0.0561337,2053,1,1
app_2,6.75365,25227.9,5436.75,99.2353,544.441,6.77289e+10,1.45336,0.858711,10,0.124502,1844,1,1
app_20,1.20392,26094.7,5560.3,84.4642,505.524,5.45987e+10,1.42478,0.858711,11,0.108116,1783,1,1
app_21,16.8504,21866.9,7334.8,35.8013,91.2366,3.02361e+10,1.08621,0.858711,80,0.332265,249,1,1
app_22,79.6483,21405.8,7277.6,177.569,73.6998,1.73597e+11,1.07365,0.858711,99,2.3459,197,1,1
app_23,67.1411,21294.7,7471.4,7.63253,80.9645,3.2618e+09,1.07028,0.858711,93,0.0402691,213,1,1
app_24,16.923,21764.5,7365.34,35.0011,80.5997,3.19417e+10,1.08148,0.858711,90,0.397285,221,1,1
app_25,69.83,21643.2,7181.1,223.155,87.7407,2.19926e+11,1.08093,0.858711,82,2.49916,236,1,1
app_26,67.743,21889.3,7230.1,151.209,72.3228,1.47351e+11,1.08439,0.858711,98,2.04654,200,1,1
app_27,51.9608,21554.1,7435.3,47.3217,75.9654,4.40177e+10,1.06962,0.858711,98,0.579181,203,1,1
app_28,75.4088,21685.4,7325.8,105.217,70.3836,1.01799e+11,1.07706,0.858711,104,1.45427,190,1,1
app_29,3.2099,21132.5,7590.32,10.7595,63.1279,6.72421e+09,1.05304,0.858711,120,0.106733,166,1,1
app_3,7.91598,26063.9,5486.49,62.1834,546.11,3.75003e+10,1.44823,0.858711,10,0.0686819,1936,1,1
app_30,60.64,21683.9,7377.8,169.408,72.7374,1.66084e+11,1.06046,0.858711,101,2.27512,193,1,1
app_31,61.3669,21476.4,7410,54.3733,80.4988,5.00203e+10,1.07238,0.858711,92,0.625253,215,1,1
app_32,93.196,21488.2,7310.65,205.45,77.0195,2.01079e+11,1.065,0.858711,95,2.61141,205,1,1
app_33,64.954,21698.6,7296.5,118.531,67.3198,1.14965e+11,1.07941,0.858711,108,1.71589,183,1,1
app_34,15.2437,21668.9,7317.38,26.2566,88.7187,2.13758e+10,1.0901,0.858711,83,0.242906,240,1,1
app_35,69.5199,21332.8,7364.6,92.7483,65.3405,9.00153e+10,1.07316,0.858711,114,1.38485,174,1,1
app_36,32.9623,21520.6,7362.9,29.4194,78.5166,2.4396e+10,1.08294,0.858711,94,0.30881,212,1,1
app_37,90.3228,21577.6,7277.12,132.992,73.7114,1.29726e+11,1.08008,0.858711,99,1.77707,198,1,1
app_38,78.4533,21460.8,7367.2,99.6898,68.0854,9.55214e+10,1.07199,0.858711,109,1.40473,181,1,1
app_39,7.88987,21739.7,7359,100.312,72.2099,9.65255e+10,1.07303,0.858711,102,1.34063,194,1,1
app_4,5.64992,25373.5,5458.68,69.0802,546.332,4.59679e+10,1.45332,0.858711,10,0.0841903,1862,1,1
app_40,18.5997,21261.4,7457.4,18.3471,62.8021,1.47892e+10,1.07064,0.858711,119,0.238535,167,1,1
app_41,659.822,21451.3,7771.7,142.506,7.95285,1.42143e+11,1.01089,0.858711,954,17.7679,21,1,1
app_42,945.704,21288.5,7901.6,70.3237,6.48492,6.99525e+10,1.00357,0.858711,1274,11.6588,16,1,1
app_43,713.014,21367.8,7879.7,13.5517,6.76499,1.30997e+10,1.01358,0.858711,1163,1.87139,18,1,1
app_44,319.348,21430.1,7764.1,185.746,8.07487,1.85375e+11,1.00636,0.858711,971,23.1719,21,1,1
app_45,840.872,21609.9,7754.7,162.309,7.78289,1.61907e+11,1.01053,0.858711,1007,20.2384,20,1,1
app_46,869.985,21362.5,7873.7,90.3326,8.25115,8.9837e+10,1.00458,0.858711,969,11.2296,21,1,1
app_47,973.466,21575.5,7788.3,147.671,6.93334,1.47401e+11,1.0081,0.858711,1120,21.0573,18,1,1
app_48,303.956,20850.8,7882.7,82.7312,6.29047,8.24973e+10,1.00437,0.858711,1171,11.7853,17,1,1
app_49,733.31,20576,7958.6,11.1422,8.53201,1.06909e+10,1.00385,0.858711,955,1.33636,21,1,1
app_5,9.26141,26055.7,5322.09,178.805,591.153,1.49476e+11,1.4621,0.858711,9,0.252921,2095,1,1
app_50,298.875,20885.8,7761.06,212.267,6.96854,2.11979e+11,1.00338,0.858711,1087,30.7328,18,1,1
app_51,179.283,20449.6,7819,169.405,7.39137,1.69033e+11,1.0015,0.858711,1065,24.1476,19,1,1
app_52,950.634,21516.5,7802.1,183.934,6.85278,1.83419e+11,1.00181,0.858711,1090,26.2027,18,1,1
app_53,845.257,21925.6,7943,43.4708,9.00837,4.29443e+10,1.00176,0.858711,849,4.77159,24,1,1
app_54,20.8013,20082.7,7847.3,33.6809,7.55445,3.31693e+10,1.01517,0.858711,1054,4.14616,19,1,1
app_55,405.952,20338.6,7727.5,215.547,9.14116,2.15113e+11,1.00723,0.858711,856,23.9015,23,1,1
app_56,575.753,21693.1,7926.3,27.9722,7.487,2.7463e+10,1.00581,0.858711,1106,3.43288,19,1,1
app_57,606.382,21075.1,7765.2,216.596,8.79456,2.16058e+11,1.00235,0.858711,906,24.0065,22,1,1
app_58,953.791,21250.9,7894.8,31.7333,7.55235,3.13641e+10,1.00932,0.858711,1069,3.92051,19,1,1
app_59,212.24,20946.2,7887.8,77.8585,8.29536,7.74119e+10,1.00437,0.858711,935,9.67648,22,1,1
app_6,6.54732,26263.2,5340.06,179.319,589.836,1.51083e+11,1.45689,0.858711,9,0.256508,2116,1,1
app_60,387.434,21380.6,7872.3,53.5538,8.24599,5.31883e+10,1.0094,0.858711,967,6.64854,21,1,1
app_7,7.77069,25624.1,5410.1,63.6861,602.866,3.47142e+10,1.46929,0.858711,9,0.0576648,2086,1,1
app_8,1.9085,25115.4,5284.49,213.797,585.214,1.77409e+11,1.46469,0.858711,9,0.303264,1983,1,1
app_9,9.90797,24970.2,5399.52,201.968,541.292,1.6962e+11,1.43649,0.858711,10,0.313531,1800,1,1
