app_id,Tcomp,Tio,iter,witer,alpha_io,compute_size,io_size,mu,desyn_time
1,9.722644578723296,0.0057917238609342106,2056,9.72843630258423,0.0005953396497436815,9e9,5791723.860934211,10,1.3526322237105743
2,8.4331604140636,0.04352268985619972,2360,8.4766831039198,0.005134400958798836,8e9,43522689.85619972,10,5.633769496983071
3,10.132318329048653,0.04583895893883216,1965,10.178157287987485,0.0045036599103191735,10e9,45838958.93883216,10,8.375505281589225
4,10.449857274354395,0.06502027278483252,1903,10.514877547139227,0.006183645267701907,10e9,65020272.78483252,10,3.83841186301201
5,9.1892382499572,0.006336431793407902,2175,9.195574681750607,0.0006890740397098927,9e9,6336431.793407902,10,8.736212896014367
6,10.380771515878891,0.0008306285753160873,1927,10.381602144454208,8.00096713164648e-05,10e9,830628.5753160873,10,10.141044797002612
7,10.23592440383795,0.039290210400369126,1947,10.275214614238319,0.0038237848916483803,10e9,39290210.40036912,10,2.5556885185270555
8,9.341115654448716,0.06210101758660952,2127,9.403216672035326,0.00660423127027315,9e9,62101017.58660952,10,3.0464402963820616
9,10.041931063198788,0.04078962269591433,1984,10.082720685894703,0.004045497635670626,10e9,40789622.69591433,10,2.135341319320025
10,11.035028189306072,0.05806633468545465,1803,11.093094523991526,0.00523445775746993,11e9,58066334.68545465,10,6.95220189550164
11,12.149246871254524,0.08021785915183735,1636,12.229464730406361,0.006559392493474395,12e9,80217859.15183735,10,2.596845585000473
12,9.48005296715951,0.013776795012512152,2107,9.493829762172023,0.0014511314567073363,9e9,13776795.012512153,10,2.128612828705264
13,10.590448401193587,0.019099713213742313,1886,10.60954811440733,0.00180023814471473,10e9,19099713.213742312,10,10.282368931483154
14,11.506673180250518,0.07116735116507052,1728,11.577840531415589,0.006146858818098532,11e9,71167351.16507052,10,7.494819156546501
15,10.405538158484333,0.020430208860517565,1919,10.42596836734485,0.001959550244225464,10e9,20430208.860517565,10,0.242129037449702
16,111.42152801875878,0.6095120221739843,179,112.03104004093277,0.0054405638111659676,111e9,609512022.1739843,100,52.12351806611386
17,101.8839841677358,0.11074382201931884,197,101.99472798975512,0.0010857798653126712,101e9,110743822.01931885,100,15.356427114085403
18,116.56960527906841,0.01754021529675534,172,116.58714549436517,0.00015044724890020644,116e9,17540215.29675534,100,104.95354147773104
19,88.25030999265135,0.22505053991084065,227,88.47536053256219,0.0025436521372299327,88e9,225050539.91084066,100,23.37658360546987
20,107.61610589576854,0.4761173147274881,186,108.09222321049603,0.004404732371914577,107e9,476117314.7274881,100,63.9733279892316
21,107.8748827627029,0.5468801833753142,185,108.4217629460782,0.005044007480742553,107e9,546880183.3753142,100,82.92175454271928
22,97.48108340377271,0.4719573782286649,205,97.95304078200138,0.004818200379088036,97e9,471957378.2286649,100,3.989662703811414
23,103.96573608890192,0.41426184450362413,192,104.37999793340555,0.003968785712832867,103e9,414261844.50362414,100,72.36795935010696
24,90.76527541705384,0.11687140868079218,221,90.88214682573464,0.0012859666366034643,90e9,116871408.68079218,100,44.51199890036587
25,95.58010768227633,0.2396586830469903,209,95.81976636532333,0.002501140340222344,95e9,239658683.0469903,100,12.55446203524672
26,97.56077358774566,0.2566751025498686,205,97.81744869029552,0.0026240216442624652,97e9,256675102.54986858,100,9.742838643992773
27,86.7750986722904,0.533746665739594,230,87.30884533803,0.006113317197966705,86e9,533746665.7395939,100,27.22274845461449
28,102.07606290563382,0.6694171313514335,195,102.74548003698526,0.006515295184863253,102e9,669417131.3514335,100,64.59244775753744
29,98.82180756311391,0.5886960075039162,202,99.41050357061782,0.005921869283015216,98e9,588696007.5039161,100,34.955008971575296
30,92.70156577367479,0.5022714335028777,215,93.20383720717767,0.0053889565982826034,92e9,502271433.5028777,100,27.701716300143577
31,102.48416571683592,0.5349644015333463,195,103.01913011836926,0.005192864673955903,102e9,534964401.53334635,100,5.424274999578578
32,93.27938472740243,0.540884601966296,214,93.82026932936873,0.005765114573136083,93e9,540884601.966296,100,24.93996128210146
33,97.66469420134916,0.5886353000694176,204,98.25332950141858,0.005990995959693345,97e9,588635300.0694176,100,33.31367149057799
34,117.79435262609259,0.7711152652593299,169,118.56546789135191,0.006503708701811437,117e9,771115265.2593299,100,95.62296698968554
35,90.28512187647472,0.5025138896025683,221,90.78763576607729,0.005535047645665558,90e9,502513889.60256827,100,68.81625791959264
36,110.43157761323982,0.0919563030388912,181,110.52353391627871,0.0008320065399695586,110e9,91956303.0388912,100,29.098016455462517
37,88.96194686956538,0.21600917074353174,225,89.17795604030891,0.0024222260784480688,88e9,216009170.74353173,100,87.6284740054983
38,108.58478978488272,0.24954587143317356,184,108.83433565631589,0.0022928965379198497,108e9,249545871.43317357,100,78.84796804250142
39,97.63773355797773,0.08593753391272924,205,97.72367109189045,0.0008793932212382955,97e9,85937533.91272923,100,9.22342523048802
40,117.33452201564624,0.6334208154393022,170,117.96794283108555,0.005369431730671754,117e9,633420815.4393022,100,91.22806871775333
41,95.26835182516204,0.19029165028275258,210,95.4586434754448,0.0019934459924700484,95e9,190291650.28275257,100,41.841443575335674
42,94.92916555403124,0.1246403278839086,211,95.05380588191515,0.00131126078253772,94e9,124640327.8839086,100,46.58033628623719
43,106.64635864810303,0.028897042172252023,188,106.67525569027528,0.00027088795789862195,106e9,28897042.17225202,100,4.84204617586476
44,88.5065901454052,0.5322584772899062,225,89.0388486226951,0.005977823001119075,88e9,532258477.28990614,100,80.29190242629842
45,101.15388929969313,0.049715108458357644,198,101.20360440815149,0.000491238516148673,101e9,49715108.45835765,100,76.4720714929622
46,1214.8217521237345,2.2121606871056576,17,1217.03391281084,0.0018176656080162057,1214e9,2212160687.1056576,1000,866.7323372125436
47,1119.96741064179,2.738469970986121,18,1122.7058806127761,0.0024391695262978904,1119e9,2738469970.986121,1000,621.7561075121135
48,892.5223750322052,5.413861903885712,23,897.936236936091,0.006029227556690124,892e9,5413861903.885712,1000,771.7056171806875
49,924.4175999728067,5.518429960652364,22,929.936029933459,0.005934203840932189,924e9,5518429960.652364,1000,558.1780691193708
50,833.1844098319291,0.18753537415837793,24,833.3719452060875,0.00022503202230068068,833e9,187535374.15837792,1000,347.27189710943446
51,1052.528493035228,2.0218928795093554,19,1054.5503859147373,0.001917303247445618,1052e9,2021892879.5093553,1000,296.8667096740699
52,965.0371226423523,0.015166957216238267,21,965.0522895995686,1.5716202510157796e-05,965e9,15166957.216238268,1000,523.9934769001168
53,915.8616052904594,3.855628859161237,22,919.7172341496206,0.004192189420834534,915e9,3855628859.1612372,1000,676.5918960711468
54,1029.5364401008924,1.4319958210921304,20,1030.9684359219846,0.0013889812444272467,1029e9,1431995821.0921304,1000,513.036448815528
55,1080.1215693719478,1.157851566724921,19,1081.2794209386727,0.0010708162425950684,1080e9,1157851566.724921,1000,1055.180697980531
56,1067.7371044351023,0.31397592112685224,19,1068.0510803562292,0.0002939708848214743,1067e9,313975921.1268522,1000,501.5521991049404
57,1096.710265595842,3.52253445085756,19,1100.2328000466996,0.0032016264655153393,1096e9,3522534450.85756,1000,633.0039460435049
58,1053.3893336984504,5.383884048498008,19,1058.7732177469484,0.005085021001905227,1053e9,5383884048.498009,1000,834.2538159297889
59,993.1162267762329,2.7081832947850293,21,995.824410071018,0.002719538974337748,993e9,2708183294.7850294,1000,859.0108857901218
60,1024.0208627277416,0.22859992933330342,20,1024.249462657075,0.0002231877464111886,1024e9,228599929.33330342,1000,320.6996002132477
