app_id,Tcomp,Tio,iter,witer,alpha_io,compute_size,io_size,mu,desyn_time
1,6.980141557220246,0.01453490867089189,2860,6.994676465891137,0.0020779958503827824,6e9,14534908.67089189,10,1.1168759064406393
2,9.606940862044166,0.013194312392578456,2079,9.620135174436744,0.001371530872834225,9e9,13194312.392578455,10,7.208540492545161
3,7.916057138678818,0.020609266772201065,2520,7.936666405451019,0.0025967157644481965,7e9,20609266.772201065,10,3.755558914631447
4,8.31687232061456,0.05225258754126136,2390,8.369124908155822,0.006243494763752484,8e9,52252587.54126136,10,1.0438644118156193
5,9.501130296853011,0.053179209889657124,2094,9.554309506742669,0.005565991959139222,9e9,53179209.889657125,10,0.07031491104733197
6,9.908175946551014,0.032022714992665055,2013,9.940198661543679,0.0032215367200409692,9e9,32022714.992665056,10,0.15702017036659405
7,10.348355720675842,0.02400311644490247,1929,10.372358837120744,0.0023141425033426128,10e9,24003116.444902472,10,2.781336875965728
8,8.969779997650983,0.05763939995257783,2216,9.02741939760356,0.006384925460301414,8e9,57639399.95257783,10,0.39596741123104556
9,11.32535705665596,0.051410716535390616,1758,11.37676777319135,0.004518921152327359,11e9,51410716.535390615,10,7.9009691483318925
10,11.352745806071331,0.044172099046592465,1755,11.396917905117924,0.003875793386802975,11e9,44172099.04659247,10,8.365898881960069
11,9.058667204049685,0.06005817228967662,2194,9.118725376339363,0.006586246411753051,9e9,60058172.28967662,10,1.168154216696859
12,9.554591307985852,0.03574024228786778,2086,9.59033155027372,0.0037266951721651067,9e9,35740242.28786778,10,1.108838709647785
13,9.955089321217729,0.019454362311661238,2006,9.97454368352939,0.0019504012342725547,9e9,19454362.311661236,10,2.2831223338092856
14,11.291779303004688,0.01847914386214096,1769,11.310258446866829,0.0016338392220612834,11e9,18479143.86214096,10,5.361841134413275
15,8.141781313651839,0.00959247928138228,2454,8.15137379293322,0.0011767929584701926,8e9,9592479.28138228,10,2.993572253113901
16,88.35196904915311,0.21490775482417515,226,88.5668768039773,0.0024265025772538503,88e9,214907754.82417515,100,40.22601354873927
17,112.54942684442165,0.0573713322373292,178,112.60679817665897,0.0005094837360291901,112e9,57371332.2373292,100,106.48585544010494
18,94.81585284122362,0.39381590077994105,211,95.20966874200356,0.004136301554068969,94e9,393815900.7799411,100,2.8445770827666226
19,102.6119817182694,0.42426753419663193,195,103.03624925246604,0.004117653129599704,102e9,424267534.1966319,100,7.068970396342339
20,109.34149319207127,0.45339739328060874,183,109.79489058535188,0.00412949446794292,109e9,453397393.2806087,100,17.17462596489491
21,110.56154725328,0.12686990165594503,181,110.68841715493595,0.0011461895012768958,110e9,126869901.65594503,100,54.95391488967101
22,108.58177919693358,0.0945629299415261,185,108.67634212687511,0.0008701335368016693,108e9,94562929.9415261,100,3.031740790865342
23,104.68178096155802,0.10735281638347442,191,104.78913377794149,0.001024465156959553,104e9,107352816.38347442,100,13.134480576479616
24,92.94542736008685,0.4245143934049692,215,93.36994175349182,0.004546585179690266,92e9,424514393.4049692,100,7.189703107041655
25,106.83603284980803,0.2634797998387248,187,107.09951264964675,0.002460140044713769,106e9,263479799.83872482,100,14.060424588877053
26,105.07680991801236,0.6136599974471036,190,105.69046991545946,0.005806199915072408,105e9,613659997.4471036,100,24.63429375482652
27,109.57311420078338,0.4106948279812951,182,109.98380902876467,0.003734138975618528,109e9,410694827.9812951,100,34.07269394758937
28,99.95263976339417,0.3074887888463778,200,100.26012855224056,0.0030669099799344535,99e9,307488788.8463778,100,11.446597928422893
29,103.34184159249344,0.5058127150695877,193,103.84765430756302,0.004870718731609813,103e9,505812715.0695877,100,26.729020773003114
30,108.98193962384796,0.48740196464378693,183,109.46934158849174,0.004452406103582762,108e9,487401964.6437869,100,8.984498962999641
31,93.25901218088562,0.10198242354737048,215,93.36099460443299,0.0010923450845769817,93e9,101982423.54737048,100,1.55346007518379
32,127.67385530601105,0.19567452778269784,157,127.86952983379375,0.0015302670467079826,127e9,195674527.78269783,100,108.29637574175219
33,98.5446098957253,0.1417793161056172,203,98.68638921183091,0.0014366653521113947,98e9,141779316.1056172,100,33.60862548344178
34,95.47428406667515,0.13670435823788296,210,95.61098842491303,0.0014297975629155024,95e9,136704358.23788297,100,49.02817433339369
35,94.14977199751254,0.10956139172789313,213,94.25933338924044,0.0011623399804395328,94e9,109561391.72789313,100,83.19918391015186
36,118.40819645804794,0.2613981631056764,169,118.66959462115362,0.0022027391594298114,118e9,261398163.10567638,100,99.34202455101659
37,96.23955068303984,0.5413887508889555,207,96.7809394339288,0.005593960484941926,96e9,541388750.8889556,100,77.97707385829513
38,102.91961017209573,0.3818485599836153,194,103.30145873207934,0.003696448865973619,102e9,381848559.9836153,100,65.81251503256847
39,100.90026781807958,0.5389858869340522,198,101.43925370501364,0.005313385767815569,100e9,538985886.9340522,100,36.15210705271949
40,97.95195265977144,0.6075684922804114,203,98.55952115205184,0.006164482996453387,97e9,607568492.2804115,100,92.34974419536621
41,105.69976266703071,0.37115350417880677,189,106.07091617120952,0.003499107178255407,105e9,371153504.1788068,100,16.11678157395216
42,99.5000775920706,0.4116493751104876,201,99.91172696718108,0.004120130715443502,99e9,411649375.1104876,100,60.87117181557351
43,89.3000832935474,0.5480616477727003,223,89.8481449413201,0.0060998660365290764,89e9,548061647.7727003,100,54.35574715706621
44,88.5757724622318,0.33396911525476025,225,88.90974157748656,0.003756271352602006,88e9,333969115.25476027,100,28.47315945879124
45,106.38346068503222,0.3638493034134424,188,106.74730998844566,0.003408510279582928,106e9,363849303.41344243,100,2.2791565455178837
46,1213.2204176845962,6.220107724385865,17,1219.440525408982,0.005100788103052204,1213e9,6220107724.385864,1000,621.4762692785057
47,909.1976168714833,1.9552006632218804,22,911.1528175347052,0.0021458537202486434,909e9,1955200663.2218804,1000,137.88993443445952
48,958.9637160788963,1.3185311826957542,21,960.282247261592,0.0013730662900993638,958e9,1318531182.6957543,1000,891.9005588298307
49,1094.267252515667,2.765093921257566,19,1097.0323464369246,0.0025205217788138836,1094e9,2765093921.257566,1000,289.0689211469977
50,949.2340103913823,4.857629488042684,21,954.091639879425,0.005091365739937282,949e9,4857629488.042684,1000,674.2125468063432
51,1116.9527135521191,2.8355658981151253,18,1119.7882794502343,0.002532233950070687,1116e9,2835565898.115125,1000,494.24723959833517
52,1005.6129216498096,1.1679027529278772,20,1006.7808244027374,0.0011600367474427452,1005e9,1167902752.9278772,1000,731.2688935045194
53,873.2084839728403,2.6999320703668586,23,875.9084160432072,0.003082436497828644,873e9,2699932070.3668585,1000,155.2119094319202
54,913.9751931104914,5.497397770224177,22,919.4725908807156,0.005978859864608364,913e9,5497397770.224177,1000,429.09477542537894
55,992.3186282787584,4.046284784363295,21,996.3649130631217,0.004061047043420883,992e9,4046284784.363295,1000,531.6344417843186
56,929.9044129215525,4.83018834188049,22,934.734601263433,0.005167443609503458,929e9,4830188341.88049,1000,140.98239541517893
57,937.1664588037155,1.0504699379156708,22,938.2169287416311,0.001119645047680601,937e9,1050469937.9156708,1000,504.2470449143765
58,1049.2818094060717,3.028682885970996,20,1052.3104922920427,0.002878126663333183,1049e9,3028682885.970996,1000,831.8644898941337
59,966.7286196401737,1.7234978218592767,21,968.452117462033,0.0017796417507723033,966e9,1723497821.8592768,1000,419.59761488637986
60,1092.7942067672852,5.447575001950533,19,1098.2417817692358,0.004960269307159892,1092e9,5447575001.950533,1000,931.6647223039947
