app_id,start_app,end_app,effective_cpu,effective_io,effective_iter,total_bytes,stretch,utilization,Tcomp,Tio,iterations,priority,group_id
app_1,1.00201,18482.9,7919,73.6518,793.225,4.76864e+09,1.00962,0.993691,10,0.00601342,1828,0.1,1
app_10,2.12382,20045.5,7921.6,70.9158,719.078,2.54566e+10,1.00666,0.993691,11,0.0354056,1804,0.1,1
app_11,2.11256,18809.1,7917.3,77.1752,789.783,2.4941e+10,1.00727,0.993691,10,0.0315709,1860,0.1,1
app_12,5.10892,18944.5,7886.5,105.824,1123.75,4.86821e+09,1.01377,0.993691,7,0.00433114,2662,0.1,1
app_13,0.240924,18276.6,7909.3,83.6218,877.491,1.4079e+10,1.00967,0.993691,9,0.0160353,2005,0.1,1
app_14,4.39639,18772.6,7906.5,87.8864,876.801,4.74338e+10,1.00579,0.993691,9,0.0540864,2059,0.1,1
app_15,7.77131,19719.5,7896.6,94.3476,989.89,2.3e+10,1.01015,0.993691,8,0.0232324,2432,0.1,1
app_16,3.4952,19909.4,7939.9,57.392,81.3218,5.01765e+10,1.00124,0.993691,98,0.619463,202,0.01,2
app_17,15.9652,19824.6,7965.8,31.8213,80.6076,2.42448e+10,1.00125,0.993691,100,0.30306,198,0.01,2
app_18,20.7584,20033.7,7985.8,10.2688,82.7689,7.79907e+09,1.0008,0.993691,96,0.0939647,207,0.01,2
app_19,70.6771,19916.5,7949.9,48.2541,93.2222,4.08657e+10,1.00116,0.993691,86,0.434742,231,0.01,2
app_2,1.12757,18444.9,7897.8,94.2556,987.163,1.99594e+10,1.01039,0.993691,8,0.0202223,2274,0.1,1
app_20,63.9381,20159.1,7988.3,10.1773,90.4275,7.51034e+09,1.00052,0.993691,88,0.0834483,227,0.01,2
app_21,58.0388,19980.2,7949.9,48.6024,72.6534,4.28536e+10,1.00091,0.993691,110,0.595188,180,0.01,2
app_22,2.43268,20076.7,7980.4,17.1653,85.9632,1.10579e+10,1.00107,0.993691,92,0.12858,217,0.01,2
app_23,73.613,19912.2,7977.9,18.5861,92.5567,1.33804e+10,1.00109,0.993691,86,0.145439,231,0.01,2
app_24,72.95,19895,7939.7,58.7904,71.6734,5.17336e+10,1.00107,0.993691,111,0.718522,178,0.01,2
app_25,50.7393,19957.1,7965.4,31.6076,77.2723,2.68017e+10,1.00098,0.993691,103,0.348074,192,0.01,2
app_26,4.62967,19936.7,7964.5,31.5501,79.9702,2.55625e+10,1.00124,0.993691,99,0.319531,200,0.01,2
app_27,2.96469,19971.9,7970.8,26.0485,84.2355,2.05885e+10,1.00108,0.993691,95,0.242217,210,0.01,2
app_28,97.0453,20123.7,7939.8,57.9634,71.5738,5.09594e+10,1.00116,0.993691,110,0.70777,180,0.01,2
app_29,34.0417,19920.5,7935.9,59.9128,73.8895,5.25635e+10,1.00144,0.993691,108,0.710317,183,0.01,2
app_3,3.47277,18543.2,7912.9,81.2744,791.091,5.34897e+10,1.00422,0.993691,10,0.0676229,1834,0.1,1
app_30,10.6787,19931.2,7964.5,32.4535,78.5239,2.7101e+10,1.00105,0.993691,102,0.343051,195,0.01,2
app_31,74.2591,20168.5,7969.2,28.5261,82.6049,2.42067e+10,1.00082,0.993691,97,0.291647,206,0.01,2
app_32,35.7686,20166.6,7943.9,52.5071,88.2874,4.43026e+10,1.00148,0.993691,89,0.503438,223,0.01,2
app_33,45.6511,19908.4,7970.6,25.7249,86.5002,1.89597e+10,1.00131,0.993691,92,0.217928,215,0.01,2
app_34,87.9057,20068.2,7977.9,16.7112,83.1564,1.07854e+10,1.00142,0.993691,96,0.129944,208,0.01,2
app_35,39.5188,19857.3,7964.1,32.5442,81.5014,2.56043e+10,1.00129,0.993691,98,0.312248,202,0.01,2
app_36,72.5143,19940.7,7974.3,23.1313,78.2389,1.62918e+10,1.00118,0.993691,103,0.208869,193,0.01,2
app_37,34.3103,20140.6,7963.2,35.1593,88.2952,2.71596e+10,1.00121,0.993691,90,0.308631,221,0.01,2
app_38,108.79,20114.1,7968.4,29.2392,72.9999,2.38876e+10,1.00096,0.993691,109,0.327227,183,0.01,2
app_39,8.49596,20058.9,7949.9,47.1697,85.6374,4.07709e+10,1.00117,0.993691,93,0.47408,214,0.01,2
app_4,4.61383,18766.6,7908.1,85.1694,878.378,2.39649e+10,1.00856,0.993691,9,0.0272948,2063,0.1,1
app_40,49.6669,19950.4,7980.9,15.1387,76.7424,8.80936e+09,1.00129,0.993691,104,0.114407,191,0.01,2
app_41,31.782,19994.2,7971.5,25.1085,83.9531,1.87217e+10,1.00122,0.993691,95,0.222877,209,0.01,2
app_42,28.8959,20187.2,7951.5,45.9906,82.1207,4.0045e+10,1.00106,0.993691,96,0.488353,208,0.01,2
app_43,55.5371,19889.2,7973.9,23.7695,72.7377,1.98192e+10,1.00079,0.993691,110,0.275266,181,0.01,2
app_44,82.1859,19858.2,7947.7,48.7822,76.0729,4.34326e+10,1.00111,0.993691,105,0.571482,188,0.01,2
app_45,36.7602,19945,7965,31.9427,79.4165,2.44494e+10,1.00132,0.993691,101,0.305618,197,0.01,2
app_46,567.375,20506.5,7979.6,17.8509,7.98896,1.3609e+10,1.00085,0.993691,1020,1.70112,20,0.001,3
app_47,1.11038,20990,7952.6,42.3403,9.23536,3.20219e+10,1.00193,0.993691,861,3.55799,24,0.001,3
app_48,949.326,21678.5,7955.8,44.2,8.14273,3.60614e+10,1.00102,0.993691,981,4.50767,21,0.001,3
app_49,368.507,20651.8,7994.6,2.82739,8.20037,2.0166e+09,1.00042,0.993691,993,0.224067,21,0.001,3
app_5,3.49633,18420.3,7916,77.2575,790.807,2.96787e+10,1.00684,0.993691,10,0.037568,1821,0.1,1
app_50,785.77,21237.8,7962.8,37.2,8.66948,3.28152e+10,1.00055,0.993691,930,3.64613,22,0.001,3
app_51,944.526,21682.9,7973.5,26.5,7.37228,2.06231e+10,1.00074,0.993691,1074,2.94616,19,0.001,3
app_52,786.186,21773.3,7941.4,58.6,7.46831,4.75889e+10,1.00138,0.993691,1035,5.94861,20,0.001,3
app_53,453.488,20831.8,7934.5,65.5,7.71989,5.33508e+10,1.00152,0.993691,1022,6.66885,20,0.001,3
app_54,551.448,20664.1,7992.5,4.08593,9.01367,2.87854e+09,1.00058,0.993691,913,0.319838,22,0.001,3
app_55,803.054,20941.5,7944.1,41.6274,8.41768,3.6005e+10,1.00249,0.993691,953,4.50062,21,0.001,3
app_56,461.213,21529.1,7949.4,45.8651,7.73923,3.71363e+10,1.00169,0.993691,1023,5.30519,20,0.001,3
app_57,506.555,21439.1,7977.7,22.3,7.89606,1.95018e+10,1.00035,0.993691,1046,2.43773,20,0.001,3
app_58,932.839,21550.7,7952,48,8.19795,4.0889e+10,1.00089,0.993691,989,5.11113,21,0.001,3
app_59,923.019,21924.7,7960.8,39.2,8.09228,3.17497e+10,1.00093,0.993691,927,3.96871,22,0.001,3
app_6,3.83206,19891,7915.3,78.5586,790.153,3.45478e+10,1.00631,0.993691,10,0.0437314,1969,0.1,1
app_60,218.197,20673.2,7963.9,36.1,8.56506,3.06701e+10,1.00068,0.993691,923,3.83377,22,0.001,3
app_7,8.89789,18560.8,7909.3,83.5562,879.795,1.20867e+10,1.00992,0.993691,9,0.0137348,2037,0.1,1
app_8,2.23558,19061.3,7909.9,84.1204,877.74,1.64678e+10,1.00929,0.993691,9,0.018756,2092,0.1,1
app_9,4.8038,19257.2,7919.9,73.1977,790.882,3.92679e+09,1.00961,0.993691,10,0.00497062,1905,0.1,1
