app_id,start_app,end_app,effective_cpu,effective_io,effective_iter,total_bytes,stretch,utilization,Tcomp,Tio,iterations,priority,group_id
app_1,1.35263,18707.3,7910.6,83.0766,880.252,5.10251e+09,1.01065,0.994139,9,0.00579172,2056,0.1,1
app_10,6.9522,20021.2,7920.8,73.0477,721.25,4.19239e+10,1.00468,0.994139,11,0.0580663,1803,0.1,1
app_11,2.59685,19857.7,7924.3,69.2715,658.596,5.28636e+10,1.00286,0.994139,12,0.0802179,1636,0.1,1
app_12,2.12861,19174.9,7909,82.5593,878.674,1.2096e+10,1.00996,0.994139,9,0.0137768,2107,0.1,1
app_13,10.2824,19022,7917.6,76.0247,795.435,1.51843e+10,1.00847,0.994139,10,0.0190997,1886,0.1,1
app_14,7.49482,19169.5,7920.8,74.022,721.349,5.13828e+10,1.00349,0.994139,11,0.0711674,1728,0.1,1
app_15,0.242129,19404,7918.1,76.2187,793.248,1.62012e+10,1.00828,0.994139,10,0.0204302,1919,0.1,1
app_16,52.1235,20021,7947.1,51.8385,71.7565,4.38849e+10,1.00113,0.994139,111,0.609512,179,0.01,2
app_17,15.3564,19783.3,7981.2,15.724,79.6948,8.85951e+09,1.00124,0.994139,101,0.110744,197,0.01,2
app_18,104.954,19927.2,7990.7,6.81886,69.5619,1.22782e+09,1.00101,0.994139,116,0.0175402,172,0.01,2
app_19,23.3766,20098.7,7969,27.3707,90.459,2.02545e+10,1.00134,0.994139,88,0.225051,227,0.01,2
app_2,5.63377,19126.2,7894.5,97.9167,987.314,4.29569e+10,1.00788,0.994139,8,0.0435227,2360,0.1,1
app_20,63.9733,20129.9,7953.7,40.791,74.5861,3.57088e+10,1.00133,0.994139,107,0.476117,186,0.01,2
app_21,82.9218,19943.9,7951.6,45.9641,73.8299,3.99223e+10,1.00106,0.994139,107,0.54688,185,0.01,2
app_22,3.98966,19993.2,7953.8,43.9392,81.6655,3.87005e+10,1.00094,0.994139,97,0.471957,205,0.01,2
app_23,72.368,19973.2,7956.6,39.6044,77.6662,3.23124e+10,1.00139,0.994139,103,0.414262,192,0.01,2
app_24,44.512,20040.7,7978.9,17.219,88.2064,1.02847e+10,1.00135,0.994139,90,0.116871,221,0.01,2
app_25,12.5545,20098.4,7970.3,25.4981,82.8762,1.98917e+10,1.00123,0.994139,95,0.239659,209,0.01,2
app_26,9.74284,19963.3,7969.5,26.7353,82.5094,2.1304e+10,1.00115,0.994139,97,0.256675,205,0.01,2
app_27,27.2227,19887.4,7939.8,56.9547,93.2264,4.96384e+10,1.00132,0.994139,86,0.533747,230,0.01,2
app_28,64.5924,20082.4,7937.3,59.4763,78.1445,5.22145e+10,1.00131,0.994139,102,0.669417,195,0.01,2
app_29,34.955,19940.4,7943.9,54.1299,80.864,4.76844e+10,1.00105,0.994139,98,0.588696,202,0.01,2
app_3,8.37551,19904.1,7914.6,78.6746,789.685,3.62128e+10,1.00619,0.994139,10,0.045839,1965,0.1,1
app_30,27.7017,19856.8,7944,52.9514,87.4695,4.36976e+10,1.00154,0.994139,92,0.502271,215,0.01,2
app_31,5.42427,20145.8,7946.8,48.153,76.884,4.11923e+10,1.0015,0.994139,102,0.534964,195,0.01,2
app_32,24.94,20085.1,7940.4,55.1892,85.1947,4.59752e+10,1.00171,0.994139,93,0.540885,214,0.01,2
app_33,33.3137,19972,7944.5,54.3541,81.4142,4.76795e+10,1.00098,0.994139,97,0.588635,204,0.01,2
app_34,95.623,20164.1,7938.9,58.0083,67.756,5.16647e+10,1.00118,0.994139,117,0.771115,169,0.01,2
app_35,68.8163,20135.2,7943.2,53.0078,88.1017,4.42212e+10,1.00157,0.994139,90,0.502514,221,0.01,2
app_36,29.098,19989.9,7987.2,8.47057,72.6167,6.71281e+09,1.00076,0.994139,110,0.0919563,181,0.01,2
app_37,87.6285,20039.8,7969.7,26.9484,89.9617,1.94408e+10,1.00136,0.994139,88,0.216009,225,0.01,2
app_38,78.848,19924.4,7975.1,23.5112,73.938,1.84664e+10,1.0008,0.994139,108,0.249546,184,0.01,2
app_39,9.22342,20003,7987.9,9.18774,81.6421,7.04688e+09,1.00063,0.994139,97,0.0859375,205,0.01,2
app_4,3.83841,19249.8,7914,80.5747,790.225,5.1366e+10,1.00435,0.994139,10,0.0650203,1903,0.1,1
app_40,91.2281,20108.4,7948.4,49.0362,67.9062,4.30726e+10,1.00107,0.994139,117,0.633421,170,0.01,2
app_41,41.8414,20293.6,7978.7,18.4941,82.324,1.56039e+10,1.00071,0.994139,95,0.190292,210,0.01,2
app_42,46.5803,19959.7,7980.1,16.954,84.9383,1.05944e+10,1.00116,0.994139,94,0.12464,211,0.01,2
app_43,4.84205,19858.8,7989.7,7.3111,75.2349,2.16728e+09,1.00102,0.994139,106,0.028897,188,0.01,2
app_44,80.2919,20010.5,7940.4,56.2931,91.0224,4.84355e+10,1.0014,0.994139,88,0.532258,225,0.01,2
app_45,76.4721,20066.3,7987.8,8.49226,79.2433,3.97721e+09,1.00103,0.994139,101,0.0497151,198,0.01,2
app_46,866.732,21369.5,7983,17,6.41148,1.3273e+10,1.00047,0.994139,1214,2.21216,17,0.001,3
app_47,621.756,21057.9,7968.3,24.1106,6.72335,1.91693e+10,1.00157,0.994139,1119,2.73847,18,0.001,3
app_48,771.706,21424.5,7943.2,56.8,8.96574,4.87248e+10,1.00101,0.994139,892,5.41386,23,0.001,3
app_49,558.178,20946.6,7941,57.9247,8.61368,4.96659e+10,1.00117,0.994139,924,5.51843,22,0.001,3
app_5,8.73621,19843.1,7911,81.5395,876.248,5.55071e+09,1.01054,0.994139,9,0.00633643,2175,0.1,1
app_50,347.272,20481.9,7996.9,3.1,9.5484,1.87535e+09,1.00015,0.994139,833,0.187535,24,0.001,3
app_51,296.867,20196.7,7981,18.7066,7.71195,1.61751e+10,1.00035,0.994139,1052,2.02189,19,0.001,3
app_52,523.993,21224,7999.2,0.8,7.89838,1.21336e+08,1.00008,0.994139,965,0.015167,21,0.001,3
app_53,676.592,21037.9,7957.8,42.2,8.55948,3.47007e+10,1.00094,0.994139,915,3.85563,22,0.001,3
app_54,513.036,21902.9,7983.2,12.4109,7.41376,1.0024e+10,1.00085,0.994139,1029,1.432,20,0.001,3
app_55,1055.18,22011.4,7989.7,10.3,7.2058,8.10496e+09,1.00027,0.994139,1080,1.15785,19,0.001,3
app_56,501.552,20913.3,7997.2,2.8,7.4652,2.19783e+09,1.00008,0.994139,1067,0.313976,19,0.001,3
app_57,633.004,21980.3,7968.1,31.9,7.08794,2.46577e+10,1.00091,0.994139,1096,3.52253,19,0.001,3
app_58,834.254,21345.7,7950.1,49.9,7.3915,4.30711e+10,1.00085,0.994139,1053,5.38388,19,0.001,3
app_59,859.011,21787.6,7974.3,21.7351,7.78401,1.89573e+10,1.00084,0.994139,993,2.70818,21,0.001,3
app_6,10.141,19479.2,7919.7,73.58,791.168,6.57027e+08,1.01006,0.994139,10,0.000830628,1927,0.1,1
app_60,320.7,20682.9,7997.4,2.6,7.69611,1.8288e+09,1.0001,0.994139,1024,0.2286,20,0.001,3
app_7,2.55569,19639.6,7916.5,77.9284,793.36,3.11571e+10,1.00659,0.994139,10,0.0392902,1947,0.1,1
app_8,3.04644,19355.9,7903.4,89.6316,881.865,5.47731e+10,1.00526,0.994139,9,0.062101,2127,0.1,1
app_9,2.13534,20066.9,7915.1,78.7444,791.849,3.22646e+10,1.00662,0.994139,10,0.0407896,1984,0.1,1
