app_id,start_app,end_app,effective_cpu,effective_io,effective_iter,total_bytes,stretch,utilization,Tcomp,Tio,iterations,priority,group_id
app_1,2.3961,19975.6,7931.9,63.064,661.827,8.91846e+09,1.00745,0.993865,12,0.013472,1652,0.1,1
app_10,9.9868,18772.6,7913.7,79.5578,792.84,4.01239e+10,1.00581,0.993865,10,0.0505976,1857,0.1,1
app_11,7.26754,18884.1,7912.8,81.2226,789.123,5.31799e+10,1.00427,0.993865,10,0.0674017,1864,0.1,1
app_12,4.93299,18765.3,7907.7,84.8637,881.437,1.8556e+10,1.0093,0.993865,9,0.0210385,2059,0.1,1
app_13,3.11877,19672.3,7907.1,86.3009,876.622,3.14878e+10,1.00774,0.993865,9,0.035945,2155,0.1,1
app_14,1.37923,19857.7,7919,74.7201,791.857,9.95904e+09,1.00896,0.993865,10,0.0125745,1963,0.1,1
app_15,6.79344,18454.1,7897,96.5968,987.857,3.49063e+10,1.00858,0.993865,8,0.0353303,2279,0.1,1
app_16,91.4014,20082.8,7954.9,41.4413,78.5075,3.56448e+10,1.00118,0.993865,102,0.4512,195,0.01,2
app_17,33.3139,20018.2,7991.3,7.36778,74.4277,2.45825e+09,1.00078,0.993865,107,0.0332196,187,0.01,2
app_18,90.2584,20176.3,7988,8.48124,82.2744,5.18044e+09,1.00085,0.993865,97,0.0631761,206,0.01,2
app_19,32.684,20037.7,7989.9,7.93894,76.6488,4.57359e+09,1.00069,0.993865,104,0.0601788,192,0.01,2
app_2,5.45383,19071.6,7910.6,83.486,880.451,6.30012e+09,1.0105,0.993865,9,0.0071511,2098,0.1,1
app_20,82.1717,19999.2,7982.9,15.83,78.0746,1.21649e+10,1.00062,0.993865,102,0.15596,196,0.01,2
app_21,18.9139,20209.4,7941.1,56.2311,78.4728,5.03936e+10,1.00106,0.993865,101,0.646072,197,0.01,2
app_22,101.541,19976.9,7961.9,34.4648,68.6996,2.87786e+10,1.00117,0.993865,116,0.417081,171,0.01,2
app_23,53.2933,20116.7,7945.9,51.6139,81.6075,4.53448e+10,1.0011,0.993865,98,0.559812,203,0.01,2
app_24,16.5001,20190.1,7951.8,46.5968,72.0804,4.15744e+10,1.00083,0.993865,110,0.577423,181,0.01,2
app_25,52.2146,20212.1,7977,20.8818,70.1513,1.52794e+10,1.00097,0.993865,113,0.218278,177,0.01,2
app_26,9.80565,19873.4,7948.5,49.0029,73.7333,4.2931e+10,1.00107,0.993865,108,0.580149,183,0.01,2
app_27,66.0803,19942.5,7946.7,49.8234,90.3393,4.46836e+10,1.00108,0.993865,88,0.496484,225,0.01,2
app_28,45.1883,20221,7965.8,30.7246,76.8735,2.53411e+10,1.00111,0.993865,103,0.329105,194,0.01,2
app_29,87.3178,19929.4,7972.3,25.3666,80.9867,2.15392e+10,1.00077,0.993865,99,0.265915,200,0.01,2
app_3,0.453334,19163.4,7909,83.1525,878.767,1.347e+10,1.00979,0.993865,9,0.0153243,2103,0.1,1
app_30,64.5102,19967.7,7965.3,32.3797,79.9844,2.6618e+10,1.00101,0.993865,100,0.332725,199,0.01,2
app_31,24.4797,19930.2,7942,55.3654,91.034,4.91274e+10,1.00111,0.993865,87,0.539862,227,0.01,2
app_32,46.2362,19836.8,7975.4,21.1992,102.829,1.58662e+10,1.00109,0.993865,78,0.155551,254,0.01,2
app_33,55.8639,19782,7955.6,40.9112,90.6661,3.50303e+10,1.00117,0.993865,89,0.384948,222,0.01,2
app_34,81.9743,20016.8,7978.8,19.419,85.2493,1.56037e+10,1.0007,0.993865,94,0.183573,212,0.01,2
app_35,47.4529,20135.7,7942.9,54.6586,67.5628,4.81699e+10,1.00112,0.993865,116,0.70838,171,0.01,2
app_36,76.3891,20062.2,7975.4,23.5238,77.9954,1.83152e+10,1.00079,0.993865,101,0.234811,196,0.01,2
app_37,76.4074,20039.1,7952.8,44.9443,85.3019,3.9251e+10,1.00099,0.993865,93,0.461776,213,0.01,2
app_38,34.8003,19904.2,7949.7,47.0559,87.9335,4.17853e+10,1.00107,0.993865,91,0.474833,218,0.01,2
app_39,18.8453,19905.5,7961.3,35.3982,81.1542,3.03657e+10,1.00104,0.993865,99,0.374885,201,0.01,2
app_4,7.0737,18584.2,7917.2,75.8838,791.485,1.95036e+10,1.00798,0.993865,10,0.0246258,1838,0.1,1
app_40,61.0503,20008.8,7981.5,15.1993,74.9505,1.12419e+10,1.00091,0.993865,107,0.149892,187,0.01,2
app_41,67.1539,19907.2,7960.8,35.2823,88.8709,2.73389e+10,1.00148,0.993865,89,0.307179,222,0.01,2
app_42,74.5607,20225.4,7965.3,32.946,74.5003,2.8884e+10,1.00073,0.993865,107,0.385119,187,0.01,2
app_43,32.1098,19864.4,7960.9,36.2644,91.4237,2.78551e+10,1.00141,0.993865,87,0.3061,227,0.01,2
app_44,54.9841,20237.4,7945.5,50.9195,82.3118,4.4549e+10,1.00125,0.993865,97,0.54328,206,0.01,2
app_45,60.6216,20068.2,7973.9,22.614,75.3022,1.75072e+10,1.00108,0.993865,105,0.23343,189,0.01,2
app_46,670.869,21394.8,7971.2,28.8,7.74809,2.30909e+10,1.00071,0.993865,1043,3.2987,20,0.001,3
app_47,537.584,21064,7935.4,64.6,8.24235,5.51162e+10,1.00119,0.993865,967,6.12403,21,0.001,3
app_48,528.661,20897.1,7949.3,50.7,9.14143,4.30291e+10,1.00096,0.993865,889,4.78101,23,0.001,3
app_49,854.063,21708.2,7998.7,1.3,7.40714,5.19491e+08,1.0001,0.993865,1100,0.0742129,19,0.001,3
app_5,6.63036,19673.7,7918.6,76.1108,791.332,1.82443e+10,1.00796,0.993865,10,0.0230649,1945,0.1,1
app_50,904.744,21924.1,7983,15.3392,7.15177,1.23314e+10,1.00058,0.993865,1103,1.76163,19,0.001,3
app_51,235.565,20798.7,7944.7,55.3,8.25094,4.74474e+10,1.00098,0.993865,969,5.27193,21,0.001,3
app_52,673.106,21012,7990.8,7.59024,9.38004,6.00532e+09,1.0004,0.993865,852,0.667258,24,0.001,3
app_53,333.421,20403.4,7970.3,29.6697,8.49072,2.42263e+10,1.00068,0.993865,906,3.02829,22,0.001,3
app_54,604.162,21248.3,7944.7,49.2209,7.67292,4.19756e+10,1.00167,0.993865,1018,5.24695,20,0.001,3
app_55,546.471,20947,7984.5,15.5,8.64796,1.2824e+10,1.00033,0.993865,925,1.42489,22,0.001,3
app_56,571.284,20290.2,7987,13,6.76943,1.13998e+10,1.0002,0.993865,1175,1.62855,17,0.001,3
app_57,343.093,21010.3,7947.7,45.0847,7.26881,4.00918e+10,1.00153,0.993865,1089,5.7274,19,0.001,3
app_58,216.454,20513.8,7964.6,35.4,9.52141,2.91758e+10,1.00078,0.993865,846,2.91758,24,0.001,3
app_59,331.156,20591.5,7943.5,56.5,7.91367,4.96784e+10,1.00085,0.993865,1007,6.2098,20,0.001,3
app_6,9.11433,19528.6,7908.2,85.849,877.755,2.36406e+10,1.00859,0.993865,9,0.0269255,2142,0.1,1
app_60,559.28,21391.4,7947.4,52.6,7.64431,4.41786e+10,1.00105,0.993865,1043,6.31122,20,0.001,3
app_7,4.0403,19459.3,7910.5,83.0595,879.026,6.49461e+09,1.01048,0.993865,9,0.00738864,2139,0.1,1
app_8,6.71535,18239.1,7906.2,85.6252,878.513,2.41512e+10,1.00878,0.993865,9,0.0274757,2002,0.1,1
app_9,9.67034,18501.2,7917.6,76.5219,790.543,1.93939e+10,1.00794,0.993865,10,0.0245493,1828,0.1,1
