app_id,start_app,end_app,effective_cpu,effective_io,effective_iter,total_bytes,stretch,utilization,Tcomp,Tio,iterations,priority,group_id
app_1,5.43777,19357.1,7931.3,63.0965,660.869,7.51768e+09,1.00771,0.993926,12,0.0113732,1597,0.1,1
app_10,9.20968,19557.7,7918.3,76.6016,789.669,1.72233e+10,1.00813,0.993926,10,0.0218017,1932,0.1,1
app_11,5.62316,18829.3,7910.4,81.6197,877.54,8.42928e+09,1.01025,0.993926,9,0.0096115,2069,0.1,1
app_12,4.90654,20115.6,7905.3,89.5731,879.316,5.68718e+10,1.00475,0.993926,9,0.0646271,2206,0.1,1
app_13,0.791617,19619.3,7904.5,88.5864,879.889,4.82771e+10,1.00594,0.993926,9,0.0548603,2156,0.1,1
app_14,5.92409,19378.5,7931.4,63.5828,660.208,1.52793e+10,1.00671,0.993926,12,0.0231504,1602,0.1,1
app_15,0.667153,19029.4,7910.8,82.5866,874.809,8.07653e+09,1.01024,0.993926,9,0.00923032,2085,0.1,1
app_16,86.1471,20215.8,7989.9,8.25195,82.5067,3.63306e+09,1.00081,0.993926,96,0.0443057,208,0.01,2
app_17,0.291785,19780.4,7962.7,32.588,106.227,2.81334e+10,1.00115,0.993926,75,0.26541,263,0.01,2
app_18,88.3221,20169.9,7982.4,15.5977,77.1639,1.07459e+10,1.00086,0.993926,104,0.139557,192,0.01,2
app_19,57.7472,20034.5,7949.7,48.0498,78.9761,4.10028e+10,1.00116,0.993926,100,0.519023,199,0.01,2
app_2,9.3263,19123.3,7905,87.2708,880.259,4.03816e+10,1.00687,0.993926,9,0.0458881,2101,0.1,1
app_20,111.848,20365.4,7939.8,57.9951,69.4105,5.23791e+10,1.00098,0.993926,113,0.759118,176,0.01,2
app_21,1.31263,20144.3,7947.4,50.9006,79.6007,4.51516e+10,1.00093,0.993926,99,0.564395,201,0.01,2
app_22,39.6261,20059.7,7979.1,17.587,89.1294,8.91706e+09,1.0015,0.993926,89,0.100192,224,0.01,2
app_23,42.4109,19982.3,7960.1,37.5458,93.2588,2.92892e+10,1.00133,0.993926,85,0.311587,233,0.01,2
app_24,91.6412,20041.2,7975.7,23.6045,77.4413,1.93056e+10,1.00062,0.993926,104,0.250721,192,0.01,2
app_25,8.10077,19880.3,7990,8.24453,77.6043,5.86891e+09,1.00052,0.993926,103,0.0752424,193,0.01,2
app_26,82.0175,20276.5,7989.8,8.90545,85.3355,4.97177e+09,1.00065,0.993926,93,0.0584915,215,0.01,2
app_27,33.9847,20018.1,7947.9,47.6198,88.3093,4.14927e+10,1.00133,0.993926,90,0.46621,220,0.01,2
app_28,13.8459,19963.5,7967.3,28.5164,94.3926,2.29467e+10,1.00122,0.993926,84,0.244114,236,0.01,2
app_29,87.6712,19955.8,7989.5,8.65696,80.3208,4.7483e+09,1.00072,0.993926,100,0.0593538,199,0.01,2
app_3,4.65651,19756.3,7909.7,84.0003,878.108,1.39665e+10,1.00963,0.993926,9,0.0159072,2167,0.1,1
app_30,46.664,19840.9,7966.7,31.5972,100.988,2.48696e+10,1.00105,0.993926,79,0.246234,251,0.01,2
app_31,94.1261,20172.3,7980.9,17.2589,82.4597,1.29164e+10,1.00077,0.993926,96,0.155619,207,0.01,2
app_32,33.8281,19925.1,7977.2,18.9696,92.5759,1.36059e+10,1.00115,0.993926,86,0.1463,230,0.01,2
app_33,91.3897,20127.3,7991.1,8.47384,73.446,6.36248e+09,1.00032,0.993926,107,0.0871573,186,0.01,2
app_34,41.8875,20208.5,7971.6,26.1124,87.3909,1.83201e+10,1.00126,0.993926,90,0.210576,222,0.01,2
app_35,11.6779,20001.6,7981.2,16.2739,80.3163,1.21747e+10,1.00083,0.993926,99,0.152184,201,0.01,2
app_36,93.9408,19910.8,7990.8,8.24445,74.7956,5.80875e+09,1.00042,0.993926,108,0.07745,184,0.01,2
app_37,72.5336,20024.3,7940.6,57.2213,78.3079,5.07499e+10,1.00108,0.993926,101,0.65064,196,0.01,2
app_38,43.4934,20066.7,7943,54.7705,85.432,4.77861e+10,1.00115,0.993926,92,0.56219,216,0.01,2
app_39,54.7017,20065.1,7971.4,25.103,81.4506,2.11558e+10,1.00093,0.993926,98,0.261183,203,0.01,2
app_4,1.88233,18676.6,7906.6,85.8449,879.518,3.12573e+10,1.00783,0.993926,9,0.0355196,2050,0.1,1
app_40,3.43241,19922.7,7990.5,8.19365,81.1129,3.31342e+09,1.00077,0.993926,99,0.0409064,201,0.01,2
app_41,72.9371,20160.7,7952.8,45.0802,87.0973,3.868e+10,1.00107,0.993926,92,0.444598,217,0.01,2
app_42,60.6241,20233,7952.3,45.5668,75.0949,3.89254e+10,1.0011,0.993926,105,0.519005,189,0.01,2
app_43,13.1389,19957.5,7942.9,54.6721,82.2656,4.81789e+10,1.00112,0.993926,97,0.580468,204,0.01,2
app_44,16.0896,19972.8,7971.2,25.7039,87.67,1.81582e+10,1.00133,0.993926,91,0.208715,218,0.01,2
app_45,22.569,19906.7,7963.6,35.044,67.7332,3.03742e+10,1.00075,0.993926,118,0.453346,168,0.01,2
app_46,518.912,21555.3,7965.9,34.1,6.99043,2.96344e+10,1.00056,0.993926,1093,4.23348,19,0.001,3
app_47,602.896,20612.2,7929.8,69.428,8.08025,6.14768e+10,1.00109,0.993926,1002,7.6846,20,0.001,3
app_48,376.222,20616.6,7958.6,41.4,8.01292,3.4364e+10,1.00088,0.993926,1004,4.29551,20,0.001,3
app_49,748.966,20840,7932.8,62.3024,7.51059,5.41477e+10,1.00163,0.993926,1052,6.76847,19,0.001,3
app_5,3.3117,19967,7920.4,74.3141,791.486,1.86298e+09,1.00981,0.993926,10,0.00235522,1980,0.1,1
app_50,275.737,20891.7,7925.6,60.9679,7.80822,5.39148e+10,1.00257,0.993926,1023,6.73935,20,0.001,3
app_51,672.66,21040.8,7929.7,63.4618,6.69019,5.14068e+10,1.00237,0.993926,1203,7.34382,17,0.001,3
app_52,661.181,20566.8,7945.1,46.7759,9.65283,4.16515e+10,1.00166,0.993926,837,4.62795,24,0.001,3
app_53,875.581,21028,7942.9,57.1,8.86989,4.90742e+10,1.001,0.993926,916,5.45269,22,0.001,3
app_54,730.658,21157.9,7988.1,11.9,7.19824,8.54491e+09,1.00042,0.993926,1142,1.2207,18,0.001,3
app_55,145.806,20366.7,7950.3,49.7,8.51949,4.50926e+10,1.00058,0.993926,904,5.63657,22,0.001,3
app_56,319.921,19908.6,7942.1,56.2808,9.75712,5.0104e+10,1.00098,0.993926,831,5.56711,24,0.001,3
app_57,227.565,20663.3,7995.3,4.7,8.10271,3.4644e+09,1.00015,0.993926,960,0.433051,21,0.001,3
app_58,245.474,20083.3,7983.6,16.4,9.28892,1.40199e+10,1.0003,0.993926,878,1.55777,23,0.001,3
app_59,53.0956,20272,7962.6,34.5729,7.43828,2.86464e+10,1.0011,0.993926,1055,3.5808,19,0.001,3
app_6,4.21353,19224.1,7917.1,74.373,792.268,9.85187e+09,1.00922,0.993926,10,0.0124392,1900,0.1,1
app_60,740.803,20881.7,7953.3,43.111,8.099,3.70808e+10,1.0012,0.993926,1011,4.63511,20,0.001,3
app_7,2.37911,19870.3,7921.1,73.9805,720.085,4.85519e+10,1.00381,0.993926,11,0.0674332,1787,0.1,1
app_8,7.57198,19208.9,7910.5,81.3949,877.084,4.05459e+09,1.0108,0.993926,9,0.00462325,2110,0.1,1
app_9,0.524105,18519.8,7917.4,77.0696,790.272,2.6807e+10,1.00702,0.993926,10,0.0339329,1832,0.1,1
