app_id,start_app,end_app,effective_cpu,effective_io,effective_iter,total_bytes,stretch,utilization,Tcomp,Tio,iterations,priority,group_id
app_1,1.40247,19705,7907.6,85.047,881.951,2.16962e+10,1.00892,0.993867,9,0.0245988,2170,0.1,1
app_10,8.20301,18812,7898.2,93.438,988.82,1.49538e+10,1.01097,0.993867,8,0.0151355,2321,0.1,1
app_11,4.23977,18185.9,7906.1,86.4198,878.399,3.62126e+10,1.00726,0.993867,9,0.0412445,1998,0.1,1
app_12,7.95952,18712.9,7907.9,84.0259,876.681,1.86052e+10,1.00927,0.993867,9,0.0212146,2055,0.1,1
app_13,2.64683,18522.8,7906.5,85.7785,878.355,3.26066e+10,1.00767,0.993867,9,0.0371374,2034,0.1,1
app_14,9.72807,18379.8,7906,87.6062,877.901,4.16685e+10,1.00658,0.993867,9,0.0474584,2016,0.1,1
app_15,0.875676,18390,7895.5,96.2945,984.372,3.55491e+10,1.00869,0.993867,8,0.0360904,2263,0.1,1
app_16,27.5971,20048,7934.9,61.3633,84.0626,5.38967e+10,1.0014,0.993867,95,0.641628,209,0.01,2
app_17,19.7728,19928.4,7967.8,31.7383,77.7292,2.60703e+10,1.00077,0.993867,103,0.334235,193,0.01,2
app_18,84.4213,20225.4,7990.5,7.12216,72.1304,2.2149e+09,1.00091,0.993867,109,0.0307625,183,0.01,2
app_19,88.4365,20073.1,7943.1,54.1872,78.9412,4.73696e+10,1.00119,0.993867,101,0.599615,196,0.01,2
app_2,1.17494,18465.5,7919.9,73.4901,790.452,1.88877e+09,1.00987,0.993867,10,0.00238782,1824,0.1,1
app_20,59.811,19872.4,7935.6,59.7019,96.3371,5.20342e+10,1.00155,0.993867,83,0.536435,238,0.01,2
app_21,67.4258,20265.1,7976.9,18.8601,84.9777,1.48856e+10,1.00103,0.993867,93,0.175124,214,0.01,2
app_22,52.8458,19992.7,7937.3,58.5363,95.5803,5.008e+10,1.00158,0.993867,82,0.527158,241,0.01,2
app_23,60.8817,19815.4,7932.9,64.7333,90.6384,5.50499e+10,1.00151,0.993867,88,0.611666,224,0.01,2
app_24,80.1481,20068.1,7954.8,43.0335,75.4283,3.73368e+10,1.00098,0.993867,106,0.497825,188,0.01,2
app_25,7.93642,20114.7,7989.1,7.48675,74.6128,2.92891e+09,1.001,0.993867,107,0.0390521,186,0.01,2
app_26,46.7739,19990.6,7979.5,16.2471,83.5299,9.19705e+09,1.00141,0.993867,96,0.110808,207,0.01,2
app_27,52.5638,20041.1,7989.1,8.76809,86.7025,4.41382e+09,1.00081,0.993867,91,0.0507335,219,0.01,2
app_28,12.8848,19899.6,7967.8,26.4366,88.0384,1.9027e+10,1.00165,0.993867,90,0.216216,220,0.01,2
app_29,88.0743,20272.1,7970.9,26.0569,77.5081,2.22845e+10,1.00085,0.993867,103,0.285699,194,0.01,2
app_3,6.12924,18418.8,7894,98.4087,987.187,5.06996e+10,1.00696,0.993867,8,0.0513674,2272,0.1,1
app_30,62.9332,19943.1,7977.5,18.0474,93.4673,1.02848e+10,1.00153,0.993867,86,0.110589,231,0.01,2
app_31,62.6356,20020,7990.6,7.5117,73.2118,3.35878e+09,1.00076,0.993867,109,0.045389,183,0.01,2
app_32,94.6333,19957.9,7933.7,61.5378,84.3385,5.37609e+10,1.00157,0.993867,94,0.640011,210,0.01,2
app_33,23.5858,20022.7,7975.2,22.1098,93.4621,1.8057e+10,1.00084,0.993867,86,0.194161,232,0.01,2
app_34,52.712,20042.8,7936.1,61.3948,72.7057,5.49082e+10,1.00113,0.993867,109,0.752167,182,0.01,2
app_35,94.4709,20224.6,7966.7,30.3036,74.796,2.36758e+10,1.0012,0.993867,106,0.315677,188,0.01,2
app_36,13.6441,20174.1,7946.8,52.007,81.2501,4.48468e+10,1.00105,0.993867,98,0.553665,203,0.01,2
app_37,12.0858,20061.6,7948.2,49.4359,68.703,4.27381e+10,1.00113,0.993867,114,0.619393,174,0.01,2
app_38,59.1079,19997,7962.8,33.8452,78.3169,2.82514e+10,1.00112,0.993867,101,0.362198,196,0.01,2
app_39,2.30852,19812.9,7950.5,46.8953,85.7072,4.08996e+10,1.00108,0.993867,94,0.475576,211,0.01,2
app_4,5.89889,19184.9,7913.7,79.9053,792.995,4.59479e+10,1.00507,0.993867,10,0.0579419,1899,0.1,1
app_40,76.7968,19986.2,7962.8,35.1657,79.7307,3.02149e+10,1.00087,0.993867,100,0.377686,198,0.01,2
app_41,12.166,19899,7989.3,9.17405,90.9635,3.66238e+09,1.00088,0.993867,88,0.040246,226,0.01,2
app_42,46.1031,20100.9,7989.7,6.96926,73.764,1.24582e+09,1.00113,0.993867,109,0.0168354,183,0.01,2
app_43,9.26719,19862,7955.7,40.2403,72.3595,3.49125e+10,1.00117,0.993867,110,0.484895,180,0.01,2
app_44,71.7416,20049.7,7977.8,17.8158,77.5792,1.51369e+10,1.00088,0.993867,103,0.194063,193,0.01,2
app_45,19.1002,20006.9,7956.9,39.1572,73.3338,3.35425e+10,1.0012,0.993867,108,0.459486,184,0.01,2
app_46,134.834,20831.7,7964.8,35.2,6.78077,3.05341e+10,1.00058,0.993867,1198,4.36202,17,0.001,3
app_47,760.728,21202.3,7983.6,16.4,8.91153,1.35065e+10,1.00036,0.993867,883,1.50072,23,0.001,3
app_48,1159.81,22327.4,7970,22.0467,7.02499,1.88154e+10,1.0014,0.993867,1170,2.68791,18,0.001,3
app_49,812.497,21283.9,7933.8,60.7317,9.0246,5.18377e+10,1.0018,0.993867,870,5.75974,23,0.001,3
app_5,9.35602,19221.6,7912.3,81.8932,791.056,5.84935e+10,1.00366,0.993867,10,0.0738554,1901,0.1,1
app_50,600.327,20608.2,7986.6,13.4,8.3158,1.11847e+10,1.00028,0.993867,958,1.24274,21,0.001,3
app_51,187.963,20645.8,7980.1,19.9,7.61966,1.49698e+10,1.00062,0.993867,1059,2.13854,19,0.001,3
app_52,201.825,20148.6,7989.9,10.1,7.71447,8.22046e+09,1.00023,0.993867,1085,1.02756,19,0.001,3
app_53,588.425,21327.5,7931.4,59.6309,6.82184,4.8868e+10,1.00247,0.993867,1137,6.98114,18,0.001,3
app_54,659.218,21426.1,7962.5,37.5,8.93103,3.1999e+10,1.00069,0.993867,900,3.55544,23,0.001,3
app_55,572.768,21352.7,7982.9,17.1,8.41294,1.51485e+10,1.00024,0.993867,929,1.68316,22,0.001,3
app_56,476.909,21576.2,7954.5,45.5,7.37821,3.90276e+10,1.00081,0.993867,1094,5.57538,19,0.001,3
app_57,603.012,21274.4,7997,0.903982,8.2842,4.61143e+08,1.00032,0.993867,976,0.0576428,21,0.001,3
app_58,746.455,21735.3,7996.9,3.1,9.32429,2.00394e+09,1.00014,0.993867,868,0.200394,24,0.001,3
app_59,420.513,21235.8,7943.4,53.5124,9.25674,4.19628e+10,1.00183,0.993867,844,4.66253,24,0.001,3
app_6,0.323776,18268.7,7910.2,83.5763,878.506,1.53953e+10,1.00939,0.993867,9,0.0175345,2006,0.1,1
app_60,882.035,20816.9,7969.6,30.4,8.91295,2.51739e+10,1.00065,0.993867,921,2.7971,22,0.001,3
app_7,9.84792,19568.4,7914.9,78.3442,791.452,3.18397e+10,1.0067,0.993867,10,0.0402016,1938,0.1,1
app_8,5.78722,18424.3,7911.2,81.7173,877.041,4.87276e+09,1.0106,0.993867,9,0.00555617,2022,0.1,1
app_9,0.519439,18996.5,7914.7,77.2195,789.013,3.07124e+10,1.00687,0.993867,10,0.0389257,1877,0.1,1
