app_id,start_app,end_app,effective_cpu,effective_io,effective_iter,total_bytes,stretch,utilization,Tcomp,Tio,iterations,priority,group_id
app_1,3.49278,18001.1,7897.8,94.5985,987.423,1.82711e+10,1.0106,0.993777,8,0.0184931,2221,0.1,1
app_10,8.71062,18725,7910.6,83.2802,878.878,8.655e+09,1.0102,0.993777,9,0.00984641,2055,0.1,1
app_11,3.49206,20119.4,7896.5,94.9695,988.623,2.78877e+10,1.00954,0.993777,8,0.0281979,2482,0.1,1
app_12,3.49055,19610,7926.9,67.0429,720.052,5.90113e+09,1.00847,0.993777,11,0.00819601,1768,0.1,1
app_13,1.05704,19581,7903.7,88.3904,882.467,4.11356e+10,1.00694,0.993777,9,0.046639,2153,0.1,1
app_14,0.134852,19962.3,7910.3,82.0425,880.614,4.75568e+09,1.01073,0.993777,9,0.00539805,2193,0.1,1
app_15,7.03457,20050.1,7898.4,94.3107,986.68,1.91253e+10,1.01042,0.993777,8,0.0193969,2473,0.1,1
app_16,89.0786,20169,7985.9,13.8792,69.8059,9.28058e+09,1.0006,0.993777,115,0.134501,174,0.01,2
app_17,52.2246,20141.2,7960.4,37.9794,90.5888,3.24946e+10,1.00089,0.993777,88,0.361051,227,0.01,2
app_18,51.7786,20046.7,7987.3,9.56957,78.1257,6.91997e+09,1.00072,0.993777,102,0.0887176,196,0.01,2
app_19,15.7202,19969.5,7952.4,44.1035,71.6332,3.88619e+10,1.00109,0.993777,112,0.54735,178,0.01,2
app_2,5.94948,19043.9,7926.3,68.3745,717.396,1.53817e+10,1.00734,0.993777,11,0.0214528,1712,0.1,1
app_20,84.8792,19857.7,7962.9,33.8712,78.9684,2.93257e+10,1.00097,0.993777,102,0.371212,194,0.01,2
app_21,61.9605,20083.8,7965.5,31.7562,73.9485,2.66699e+10,1.00098,0.993777,108,0.360405,184,0.01,2
app_22,96.0464,20059.6,7952.3,43.4587,78.7629,3.8696e+10,1.00113,0.993777,100,0.489823,198,0.01,2
app_23,10.9663,19850,7977.9,19.4988,84.2481,1.59237e+10,1.00077,0.993777,95,0.189568,209,0.01,2
app_24,13.2723,19908,7967.3,29.7712,73.9154,2.4139e+10,1.00107,0.993777,110,0.326202,181,0.01,2
app_25,39.2292,20023.2,7986.4,8.49645,80.9566,4.02884e+09,1.0012,0.993777,98,0.0497387,203,0.01,2
app_26,0.13675,20075.1,7940,56.8944,76.3408,5.13131e+10,1.00109,0.993777,104,0.675173,191,0.01,2
app_27,84.5059,20057.3,7988.8,7.84296,80.7037,3.08261e+09,1.00102,0.993777,99,0.0380569,202,0.01,2
app_28,0.462283,19822.7,7942.3,55.5273,91.9512,4.60289e+10,1.00146,0.993777,87,0.500315,227,0.01,2
app_29,68.128,19959.6,7941.2,55.9885,74.5794,5.01161e+10,1.00109,0.993777,107,0.668215,186,0.01,2
app_3,2.115,19000.5,7907.7,85.0321,877.467,2.11993e+10,1.00897,0.993777,9,0.024145,2081,0.1,1
app_30,14.5218,20144,7950.5,46.6585,89.5665,3.99426e+10,1.0012,0.993777,88,0.443807,226,0.01,2
app_31,3.50443,20166.4,7968.5,27.8722,79.5719,2.32699e+10,1.00103,0.993777,100,0.294555,200,0.01,2
app_32,31.0934,19895.2,7967.5,29.4883,88.599,2.5137e+10,1.00092,0.993777,90,0.285648,220,0.01,2
app_33,65.313,20081.6,7990.3,7.03514,73.8524,2.00687e+09,1.00096,0.993777,108,0.0271199,185,0.01,2
app_34,14.3667,20075.5,7966.5,32.8814,82.0268,2.47623e+10,1.00109,0.993777,97,0.301979,206,0.01,2
app_35,27.0147,20079.6,7988.1,8.15187,80.782,4.11345e+09,1.00097,0.993777,99,0.0507833,202,0.01,2
app_36,55.2886,20120.9,7974.5,23.7123,77.3587,1.91471e+10,1.00079,0.993777,103,0.248664,194,0.01,2
app_37,63.083,19845.7,7935.1,61.0421,73.8436,5.40633e+10,1.00136,0.993777,109,0.740593,181,0.01,2
app_38,10.7053,20095.1,7933.8,62.0482,108.886,5.44283e+10,1.00147,0.993777,73,0.499343,271,0.01,2
app_39,45.1446,19893.4,7956.4,41.3943,83.1438,3.39356e+10,1.00121,0.993777,95,0.408862,208,0.01,2
app_4,9.33104,19646,7911.5,81.9401,792.571,5.51701e+10,1.00418,0.993777,10,0.0695714,1942,0.1,1
app_40,74.6493,19946.2,7949.3,48.6895,76.4808,4.19205e+10,1.0011,0.993777,104,0.544422,190,0.01,2
app_41,39.4184,19899.3,7965.9,33.3011,74.006,2.86641e+10,1.00068,0.993777,108,0.387352,184,0.01,2
app_42,49.6727,20112.2,7975.5,19.4786,82.6748,1.55015e+10,1.00113,0.993777,95,0.186766,210,0.01,2
app_43,21.0591,19925.2,7956.2,40.8027,72.7283,3.58365e+10,1.001,0.993777,109,0.497729,182,0.01,2
app_44,53.37,20019.2,7957.1,40.187,79.8634,3.27736e+10,1.00127,0.993777,99,0.414855,200,0.01,2
app_45,61.6461,19998.5,7973.5,24.7702,80.2333,1.92251e+10,1.00091,0.993777,100,0.240313,199,0.01,2
app_46,936.227,21289.1,7984.3,9.12055,6.48432,6.95698e+09,1.00109,0.993777,1255,0.993855,16,0.001,3
app_47,948.1,21157.9,7962.7,37.3,7.4851,3.09037e+10,1.0008,0.993777,1078,3.86297,19,0.001,3
app_48,644.892,20370.4,7987.1,12.9,7.90544,1.07487e+10,1.00027,0.993777,1013,1.34358,20,0.001,3
app_49,552.006,20806.1,7939.8,60.2,7.99508,5.26862e+10,1.00094,0.993777,1001,6.58578,20,0.001,3
app_5,8.73435,18428.9,7899,93.1207,988.523,7.12205e+09,1.01187,0.993777,8,0.00720126,2273,0.1,1
app_50,580.044,21223.3,7985.2,5.36341,7.63703,4.81426e+09,1.00125,0.993777,1022,0.687751,20,0.001,3
app_51,456.762,21208.8,7948.7,51.3,6.90694,4.18663e+10,1.00118,0.993777,1150,5.9809,18,0.001,3
app_52,619.249,21400.4,7977.3,20.1911,7.67805,1.71418e+10,1.0007,0.993777,1025,2.44882,20,0.001,3
app_53,1.90721,20578.9,7969.2,25.9353,8.32675,1.92956e+10,1.00144,0.993777,985,2.41195,21,0.001,3
app_54,221.191,20272.2,7960.1,39.0356,8.83759,3.1326e+10,1.00107,0.993777,910,3.48067,22,0.001,3
app_55,207.07,21323.8,7955.5,43.4034,8.73368,3.56834e+10,1.0011,0.993777,898,4.46043,23,0.001,3
app_56,576.097,22118.3,7973.7,26.3,7.15044,2.1477e+10,1.0006,0.993777,1099,3.06815,19,0.001,3
app_57,98.2611,20381.3,7937.8,62.2,6.96825,5.3684e+10,1.00107,0.993777,1127,7.66914,18,0.001,3
app_58,765.548,20976.4,7944.4,55.6,7.82326,4.84318e+10,1.0009,0.993777,1010,6.05397,20,0.001,3
app_59,4.92261,20540.4,7992.5,7.5,8.47378,5.76696e+09,1.00022,0.993777,923,0.72087,22,0.001,3
app_6,4.81928,19157.3,7904.3,89.3294,877.596,5.05505e+10,1.00568,0.993777,9,0.0576403,2100,0.1,1
app_60,536.999,20319.1,7940.5,59.5,11.9114,4.71894e+10,1.00154,0.993777,693,4.28994,29,0.001,3
app_7,6.0475,18857.4,7905,88.0629,879.478,4.5528e+10,1.00622,0.993777,9,0.0517364,2073,0.1,1
app_8,8.44654,19704,7916.9,77.4443,791.542,2.62173e+10,1.00716,0.993777,10,0.0331445,1950,0.1,1
app_9,3.79137,19733.3,7919.8,72.8293,791.569,4.50509e+09,1.00955,0.993777,10,0.00569543,1950,0.1,1
