app_id,start_app,end_app,effective_cpu,effective_io,effective_iter,total_bytes,stretch,utilization,Tcomp,Tio,iterations,priority,group_id
app_1,10.7804,19757.1,7445.6,531.431,464.789,4.64177e+11,1.01141,0.89664,16,0.998229,1149,0.1,1
app_10,79.4683,20694.6,7642.2,16.2916,73.608,7.11298e+09,1.04585,0.89664,104,0.0961213,191,0.01,2
app_11,916.557,23349.4,7403.7,596.3,3.60428,2.5808e+11,1.04414,0.89664,2083,86.0266,10,0.001,3
app_12,318.763,22595.7,6799.6,738.471,3.8755,3.234e+11,1.12312,0.89664,1763,80.8499,11,0.001,3
app_13,336.972,22475.7,6660.2,1146.08,5.34164,4.94618e+11,1.11813,0.89664,1265,82.4364,15,0.001,3
app_14,24.2473,20975.3,7093,728.284,53.5325,5.27954e+11,1.04974,0.89664,131,9.77693,142,0.01,2
app_15,1192.2,23096.5,6879.3,1120.7,5.45913,4.96766e+11,1.08459,0.89664,1249,99.3532,15,0.001,3
app_2,1.40451,19988.7,7131,742.874,1781.65,6.08748e+11,1.03363,0.89664,4,0.341801,4462,0.1,1
app_3,0.447243,19238.9,7405.1,530.162,925.861,4.48479e+11,1.01864,0.89664,8,0.484319,2225,0.1,1
app_4,6.01287,19728.3,7704.4,257.09,454.843,2.11705e+11,1.0106,0.89664,17,0.465287,1121,0.1,1
app_5,0.61779,18387.2,7271.8,728.2,7281.6,2.55162e+11,1.06285,0.89664,1,0.0350401,16718,1,0
app_6,19.8821,21420.4,6933.54,730.829,115.285,5.2703e+11,1.0723,0.89664,60,4.5633,308,0.01,2
app_7,43.9986,21139,7210.62,432.299,88.8816,3.06935e+11,1.06418,0.89664,81,3.45318,236,0.01,2
app_8,50.6161,21018.8,7087.8,836.268,44.9463,5.99132e+11,1.04073,0.89664,157,13.314,118,0.01,2
app_9,36.9064,20933,6928.9,870.425,73.8721,6.17484e+11,1.06011,0.89664,95,8.34438,192,0.01,2
