app_id,start_app,end_app,effective_cpu,effective_io,effective_iter,total_bytes,stretch,utilization,Tcomp,Tio,iterations,priority,group_id
app_1,0.849995,19495.4,6949.05,913.926,2316.1,7.12383e+11,1.04419,0.892609,3,0.307491,5636,0.1,1
app_10,99.5678,20543.8,7547.7,336.856,38.8827,2.37007e+11,1.02766,0.892609,196,6.07712,99,0.01,2
app_11,332.348,23225.5,6582.9,539.421,7.8675,2.53841e+11,1.17015,0.892609,843,31.7301,23,0.001,3
app_12,1550.96,23254,7277.3,170.768,4.42257,1.13803e+11,1.08238,0.892609,1648,28.4509,12,0.001,3
app_13,833.733,23906.3,6503.9,1166.58,8.09858,5.17757e+11,1.13933,0.892609,781,64.7196,24,0.001,3
app_14,1543.87,23818,7019.1,873.041,4.22052,4.13892e+11,1.07628,0.892609,1629,103.473,12,0.001,3
app_15,1229.97,24400.1,6993.7,1006.3,4.03727,4.5923e+11,1.0734,0.892609,1684,114.807,12,0.001,3
app_2,0.614726,20246.2,7461.23,273.48,2484.49,1.97159e+11,1.04461,0.892609,3,0.0793717,6302,0.1,1
app_3,14.7721,19887.8,7760.1,209.525,368.757,1.83152e+11,1.00714,0.892609,21,0.496347,915,0.1,1
app_4,6.26113,19624,7421.99,525.628,825.282,4.56529e+11,1.01542,0.892609,9,0.552862,2020,0.1,1
app_5,12.444,19853.6,7517.2,456.42,440.794,4.14705e+11,1.00858,0.892609,17,0.942511,1095,0.1,1
app_6,76.8002,21102.4,7098.9,630.176,65.668,4.57939e+11,1.05864,0.892609,108,7.04522,174,0.01,2
app_7,165.334,20933.1,7008.3,927.888,43.6081,6.6964e+11,1.04195,0.892609,160,15.2191,114,0.01,2
app_8,63.4194,20627.6,7070.27,800.196,42.7974,5.76574e+11,1.04618,0.892609,166,13.617,111,0.01,2
app_9,28.4249,21960.9,6901.46,528.64,166.351,3.74377e+11,1.09953,0.892609,41,2.24416,463,0.01,2
