app_id,start_app,end_app,effective_cpu,effective_io,effective_iter,total_bytes,stretch,utilization,Tcomp,Tio,iterations,priority,group_id
app_1,1.81687,25738.5,5069.63,473.438,461.815,4.59294e+11,1.44694,0.810859,11,0.995137,1603,1,1
app_10,94.9975,21154.8,7197.6,334.746,46.7535,3.32648e+11,1.06238,0.810859,154,7.07761,124,1,1
app_11,49.3886,20631.3,7187.7,645.572,26.8234,6.44707e+11,1.0214,0.810859,265,24.7964,69,1,1
app_12,572.211,21079,7695.8,241.022,5.1492,2.40808e+11,1.00799,0.810859,1508,48.1616,13,1,1
app_13,11.6958,21565.8,7108.18,136.026,65.4719,1.32517e+11,1.10487,0.810859,109,2.03537,180,1,1
app_14,175.59,20779.9,7229.9,524.685,32.6372,5.22997e+11,1.03187,0.810859,222,16.3437,84,1,1
app_15,117.58,21202.5,7650.4,304.219,9.03721,3.03653e+11,1.00578,0.810859,867,33.7392,23,1,1
app_2,10.6327,26629.4,5312.51,129.823,440.641,1.07467e+11,1.47602,0.810859,12,0.24369,1612,1,1
app_3,1.31245,24795.4,5565.28,403.054,327.586,3.92179e+11,1.34285,0.810859,17,1.19567,1065,1,1
app_4,3.89457,27398.9,4210.1,486.939,843.198,4.24348e+11,1.7262,0.810859,5,0.503379,3341,1,1
app_5,1.11998,25084.9,5686.4,64.723,353.751,4.37971e+10,1.39611,0.810859,16,0.123721,1182,1,1
app_6,120.011,21255.9,6970.5,542.68,51.8366,5.40672e+11,1.06508,0.810859,134,10.3975,139,1,1
app_7,11.944,22309.1,6642.1,450.993,110.16,4.45174e+11,1.12878,0.810859,60,4.04704,311,1,1
app_8,144.373,21140.8,7398.8,311.305,38.693,3.09236e+11,1.03788,0.810859,188,7.92912,102,1,1
app_9,3.04411,22192.1,6378.2,618.503,127.788,6.10935e+11,1.14463,0.810859,50,4.81051,359,1,1
