app_id,start_app,end_app,effective_cpu,effective_io,effective_iter,total_bytes,stretch,utilization,Tcomp,Tio,iterations,priority,group_id
app_1,10.7804,21403.5,6857.14,1142.86,427.571,4.26584e+11,1.09834,0.869391,16,0.998229,1149,1,1
app_10,79.4683,20032.6,7977.53,22.467,76.1986,7.39499e+09,1.00189,0.869391,104,0.0961213,191,1.00001,1.00001
app_11,916.557,23836.5,7199.6,800.4,3.47959,2.5808e+11,1.07272,0.869391,2083,86.0266,10,1.00001,1.00001
app_12,318.763,21656.6,7079.7,920.3,3.99993,3.234e+11,1.08063,0.869391,1763,80.8499,11,1.00001,1.00001
app_13,336.972,22415.8,6690.4,1309.6,5.2667,4.94618e+11,1.11343,0.869391,1265,82.4364,15,1.00001,1.00001
app_14,24.2473,21968.8,6714.82,1285.18,50.8801,4.94774e+11,1.10963,0.869391,131,9.77693,142,1.00001,1.00001
app_15,1192.2,22919.2,6971.86,1028.14,5.6508,5.06771e+11,1.06971,0.869391,1249,99.3532,15,1.00002,1.00002
app_2,1.40451,21796.5,6501.2,1498.8,1627.19,5.5611e+11,1.13358,0.869391,4,0.341801,4462,1,1
app_3,0.447243,20670.6,6872.6,1127.4,856.915,4.15061e+11,1.09775,0.869391,8,0.484319,2225,1,1
app_4,6.01287,20479.6,7421.7,578.3,437.331,2.0333e+11,1.04918,0.869391,17,0.465287,1121,1,1
app_5,0.61779,19223.6,6934.2,1065.8,6936.36,2.43073e+11,1.11463,0.869391,1,0.0350401,16718,1.00001,1.00001
app_6,19.8821,21960.7,6741.9,1258.1,112.453,5.1109e+11,1.10299,0.869391,60,4.5633,308,1.00001,1.00001
app_7,43.9986,21419.6,7163.2,836.8,88.0106,3.0388e+11,1.07137,0.869391,81,3.45318,236,1.00001,1.00001
app_8,50.6161,22168.3,6581.32,1418.68,42.4123,5.64283e+11,1.11957,0.869391,157,13.314,118,1.00001,1.00001
app_9,36.9064,22113.4,6619.8,1380.2,69.3586,5.75762e+11,1.1118,0.869391,95,8.34438,192,1.00001,1.00001
