app_id,start_app,end_app,effective_cpu,effective_io,effective_iter,total_bytes,stretch,utilization,Tcomp,Tio,iterations,priority,group_id
app_1,0.849995,21597.8,6213.6,1786.4,2069.11,6.36199e+11,1.16792,0.86334,3,0.307491,5636,1,1
app_10,99.5678,20894.4,7320.5,679.5,37.6225,2.24853e+11,1.06026,0.86334,196,6.07712,99,1.00001,1.00001
app_11,332.348,21519.5,7316.1,683.9,8.51251,2.53841e+11,1.05681,0.86334,843,31.7301,23,1.00001,1.00001
app_12,1550.96,22743,7658.3,341.7,4.5734,1.42254e+11,1.02557,0.86334,1648,28.4509,12,1.00001,1.00001
app_13,833.733,23533.1,6407.1,1592.9,7.96887,5.17757e+11,1.15526,0.86334,781,64.7196,24,1.00001,1.00001
app_14,1543.87,23999.4,7013.7,986.3,4.24478,4.13892e+11,1.07707,0.86334,1629,103.473,12,1.00001,1.00001
app_15,1229.97,25205.7,6493,1507,3.92225,4.5923e+11,1.15071,0.86334,1684,114.807,12,1.00002,1.00002
app_2,0.614726,20549.1,7341.6,658.4,2446.51,1.94143e+11,1.06161,0.86334,3,0.0793717,6302,1,1
app_3,14.7721,20560.8,7476.2,523.8,355.857,1.767e+11,1.04536,0.86334,21,0.496347,915,1,1
app_4,6.26113,21166.4,6830.6,1169.4,759.775,4.20175e+11,1.10333,0.86334,9,0.552862,2020,1,1
app_5,12.444,21379.4,6933.5,1066.5,407.672,3.83603e+11,1.09333,0.86334,17,0.942511,1095,1.00001,1.00001
app_6,76.8002,22038.8,6776.97,1223.03,62.3631,4.39124e+11,1.10863,0.86334,108,7.04522,174,1.00001,1.00001
app_7,165.334,22803.2,6423.38,1576.62,40.2523,6.11897e+11,1.13713,0.86334,160,15.2191,114,1.00001,1.00001
app_8,63.4194,22471.3,6452.68,1547.32,38.7901,5.25211e+11,1.14648,0.86334,166,13.617,111,1.00001,1.00001
app_9,28.4249,21765.9,6943.55,1056.45,169.502,3.79656e+11,1.09242,0.86334,41,2.24416,463,1.00001,1.00001
