app_id,start_app,end_app,effective_cpu,effective_io,effective_iter,total_bytes,stretch,utilization,Tcomp,Tio,iterations,priority,group_id
app_1,6.16749,26345.6,5107.11,465.342,392.594,4.3995e+11,1.44221,0.769859,13,1.11947,1415,1,1
app_10,63.901,23673.6,6500.1,84.5036,83.2582,8.07515e+10,1.21565,0.769859,78,0.972909,254,1,1
app_11,309.005,20774.9,7518.32,293.611,20.8084,2.91922e+11,1.0243,0.769859,364,13.901,53,1,1
app_12,1577.1,23008.6,7451,504.551,4.95386,5.04339e+11,1.00561,0.769859,1531,100.868,13,1,1
app_13,735.124,20966.4,7318.07,674.046,8.19391,6.73754e+11,1.00102,0.769859,922,79.2829,20,1,1
app_14,1026.2,21380.9,7468.3,469.219,6.20268,4.69187e+11,1.00788,0.769859,1192,78.1978,16,1,1
app_15,28.9472,20738.8,7586.1,219.268,8.90208,2.18723e+11,1.02501,0.769859,878,24.3025,23,1,1
app_2,4.64635,28208.2,4607.49,281.085,920.923,2.37096e+11,1.65133,0.769859,5,0.257434,3752,1,1
app_3,3.87638,25988.7,4694.05,459.619,670.759,4.14482e+11,1.56601,0.769859,7,0.617709,2406,1,1
app_4,1.19727,27132.4,5012.82,125.946,628.407,9.52053e+10,1.56616,0.769859,8,0.15136,2389,1,1
app_5,4.50757,27078.3,4667.83,372.09,777.092,3.18389e+11,1.60442,0.769859,6,0.40924,2965,1,1
app_6,22.7444,24763.3,5585.62,313.283,265.922,2.95329e+11,1.36032,0.769859,21,1.11026,872,1,1
app_7,33.274,24416.3,5684.43,521.058,152.836,5.14072e+11,1.29063,0.769859,37,3.35995,494,1,1
app_8,72.8779,22032.1,6764.8,436.552,45.643,4.34144e+11,1.11127,0.769859,147,9.43791,128,1,1
app_9,61.7769,23246.3,6417,346.323,92.2426,3.43014e+11,1.18343,0.769859,70,3.68832,271,1,1
