app_id,start_app,end_app,effective_cpu,effective_io,effective_iter,total_bytes,stretch,utilization,Tcomp,Tio,iterations,priority,group_id
app_1,3.26554,19577.6,7237.2,566.922,2409.03,4.64636e+11,1.03871,0.883726,3,0.192875,5897,0.1,1
app_10,87.5202,20573.2,7718.3,100.888,43.5954,7.25579e+10,1.02684,0.883726,179,1.64904,111,0.01,2
app_11,109.194,23233.5,6482.5,340.766,13.5103,1.56284e+11,1.20504,0.883726,486,11.1631,41,0.001,3
app_12,646.228,22967.1,6506.36,1357.75,6.23177,6.98618e+11,1.11034,0.883726,1096,109.878,17,0.001,3
app_13,23.9245,23352.6,6781.9,851.211,4.55068,4.47575e+11,1.10658,0.883726,1540,111.894,13,0.001,3
app_14,343.118,23442.7,5893.66,1219.49,6.15419,6.30679e+11,1.22618,0.883726,1000,90.097,19,0.001,3
app_15,439.354,23475.9,6420,692.773,10.5775,3.31543e+11,1.18491,0.883726,604,33.1543,32,0.001,3
app_2,5.38186,19302.3,7587.76,342.62,690.48,2.91958e+11,1.01527,0.883726,11,0.423074,1664,0.1,1
app_3,2.14947,19341.2,7543.8,391.332,753.061,3.3992e+11,1.01475,0.883726,10,0.451421,1824,0.1,1
app_4,2.60844,18775.7,7302.1,639.133,914.324,5.66891e+11,1.01665,0.883726,8,0.619553,2146,0.1,1
app_5,5.74233,20104.8,7522.9,434.866,625.937,3.7594e+11,1.01281,0.883726,12,0.600544,1576,0.1,1
app_6,41.0948,21011.5,6956.9,864.682,96.0285,6.1371e+11,1.05672,0.883726,72,6.39281,254,0.01,2
app_7,88.2486,20742.3,7169.6,759.968,50.1397,5.31428e+11,1.03882,0.883726,144,10.6286,129,0.01,2
app_8,28.3696,20901.9,7115.1,787.248,43.0168,5.54268e+11,1.04311,0.883726,164,12.89,113,0.01,2
app_9,124.287,20400.7,7809.1,74.3617,56.369,4.78777e+10,1.0182,0.883726,140,0.854958,142,0.01,2
