app_id,start_app,end_app,effective_cpu,effective_io,effective_iter,total_bytes,stretch,utilization,Tcomp,Tio,iterations,priority,group_id
app_1,10.5654,27149.5,4984.61,196.907,277.732,1.84833e+11,1.54756,0.763907,18,0.667266,1053,1,1
app_10,113.432,21892.5,6828.1,432.665,43.5198,4.30712e+11,1.10211,0.763907,158,9.78892,120,1,1
app_11,564.508,21959.9,7744.3,161.037,6.67786,1.60638e+11,1.01203,0.763907,1126,22.9483,18,1,1
app_12,505.476,21081.5,7381.1,464.797,15.145,4.64133e+11,1.01973,0.763907,487,30.9422,39,1,1
app_13,436.957,20962.7,7067.2,741.018,17.3471,7.40031e+11,1.02469,0.763907,405,43.5312,45,1,1
app_14,166.494,21131,7316.7,373.567,16.8134,3.72543e+11,1.04041,0.763907,426,21.9143,45,1,1
app_15,598.354,21035.1,7097.9,793.257,11.3191,7.92596e+11,1.01388,0.763907,637,66.0497,29,1,1
app_2,1.17036,27882.2,3618.52,141.814,1205.71,1.13804e+11,2.14344,0.763907,3,0.0944431,5256,1,1
app_3,0.861239,27390.4,4892.98,169.998,325.84,1.613e+11,1.58282,0.763907,15,0.496309,1269,1,1
app_4,13.082,26579.5,4787.47,481.743,280.066,4.71753e+11,1.52114,0.763907,17,1.68483,1036,1,1
app_5,8.51497,27390.9,4488.2,138.951,448.46,1.21085e+11,1.73563,0.763907,10,0.27028,1805,1,1
app_6,6.96732,22238.3,6945.2,138.712,62.2298,1.35811e+11,1.12978,0.763907,111,2.15573,176,1,1
app_7,17.8165,21473.1,6682.6,700.548,42.8674,6.98275e+11,1.08388,0.763907,156,16.239,116,1,1
app_8,24.7248,23253.3,6358.5,222.258,82.1637,2.18403e+11,1.21638,0.763907,77,2.66346,250,1,1
app_9,27.5644,24877.3,5475.51,455.923,157.517,4.4729e+11,1.35071,0.763907,35,2.83965,517,1,1
