app_id,start_app,end_app,effective_cpu,effective_io,effective_iter,total_bytes,stretch,utilization,Tcomp,Tio,iterations,priority,group_id
app_1,12.4944,29166.5,4232.48,241.221,303,2.25185e+11,1.79466,0.695822,14,0.743185,1349,1,1
app_10,1.75085,30646.9,3974.38,45.5757,568.005,6.61009e+09,2.00955,0.695822,7,0.0116375,2815,1,1
app_11,741.075,21623.2,6902.8,876.572,9.37583,8.75989e+11,1.02844,0.695822,706,97.3321,25,1,1
app_12,354.492,21100.4,7527.7,293.984,6.54764,2.93554e+11,1.02285,0.695822,1156,41.9362,17,1,1
app_13,71.1689,20362.9,6922.2,929.509,9.08723,9.29041e+11,1.01895,0.695822,778,94.3602,23,1,1
app_14,377.904,21501.2,7518.9,466.735,5.80989,4.66343e+11,1.00185,0.695822,1281,77.7239,15,1,1
app_15,26.4361,21057.6,7051.97,626.5,15.8643,6.25401e+11,1.04202,0.695822,441,40.6071,42,1,1
app_2,1.85957,24620.9,2854.23,552.929,2853.01,3.50898e+11,2.496,0.695822,1,0.122993,10115,1,1
app_3,3.60866,28514.4,4455.47,24.7293,297.003,5.96716e+09,1.79314,0.695822,15,0.0200914,1277,1,1
app_4,3.46873,29282.3,3536.91,133.935,1180.99,9.99956e+10,2.19967,0.695822,3,0.0846703,5609,1,1
app_5,0.575669,29225.4,3717.77,238.951,617.999,1.98279e+11,2.04287,0.695822,6,0.32084,2879,1,1
app_6,148.786,22469.2,7286.12,20.4682,36.1642,1.81728e+10,1.09525,0.695822,202,0.504799,99,1,1
app_7,56.5257,23285.1,6205.9,641.564,42.6282,6.38882e+11,1.16877,0.695822,144,15.2115,126,1,1
app_8,24.2099,26304.7,5725.12,123.719,116.466,1.16309e+11,1.36953,0.695822,49,1.00266,400,1,1
app_9,23.1268,25010.1,5586.62,564.326,83.9993,5.60843e+11,1.30135,0.695822,66,6.6767,274,1,1
