app_id,Tcomp,Tio,iter,witer,alpha_io,compute_size,io_size,mu,desyn_time
1,10.793850170828179,0.2568482851115326,1810,11.050698455939711,0.02324271955619942,10e9,256848285.11153263,10,7.219213213291127
2,10.122447856158821,0.12950053451392313,1951,10.251948390672744,0.012631797350027936,10e9,129500534.51392312,10,9.043323082288472
3,9.251783647331932,0.2233129634807489,2111,9.475096610812681,0.023568410186542182,9e9,223312963.4807489,10,3.7500297600426515
4,9.405815222470997,0.10039444397798622,2104,9.506209666448983,0.010560933063817881,9e9,100394443.97798622,10,6.953666143129257
5,8.438783685952828,0.15659590263921205,2327,8.59537958859204,0.01821861396872446,8e9,156595902.63921204,10,6.149652895643338
6,8.831458806155347,0.19042820640382,2217,9.021887012559166,0.021107358819582773,8e9,190428206.40382,10,6.067856649040832
7,9.357135093687,0.15246256430583333,2104,9.509597657992835,0.016032493675238537,9e9,152462564.30583334,10,7.934609747046116
8,10.143575110991389,0.2244826518311414,1930,10.36805776282253,0.021651369713244127,10e9,224482651.8311414,10,3.6978261090649984
9,10.660313344586614,0.13662975594154864,1853,10.796943100528162,0.012654485132450594,10e9,136629755.94154865,10,8.482427266096565
10,9.15763996403709,0.0711752288279931,2168,9.228815192865083,0.007712282383010508,9e9,71175228.8279931,10,6.07465015609232
11,8.6793398884422,0.0668012011793599,2287,8.74614108962156,0.0076377913979261405,8e9,66801201.179359905,10,1.3374227960345364
12,8.38478000698528,0.10080223467758889,2357,8.485582241662868,0.011879236074416419,8e9,100802234.6775889,10,0.45365578175549504
13,10.300460176359493,0.015593758945957832,1939,10.316053935305451,0.0015116011455300821,10e9,15593758.945957832,10,8.900539006230963
14,11.457819378417845,0.1498761268848634,1723,11.60769550530271,0.012911790011755213,11e9,149876126.8848634,10,4.923176664525608
15,9.59396944105188,0.07856391477264366,2068,9.672533355824525,0.008122372069705472,9e9,78563914.77264366,10,8.648614248713253
16,50.143296020803554,0.29118476574135344,397,50.43448078654491,0.00577352559598545,50e9,291184765.74135345,50,21.319168498591136
17,50.6426510707644,0.3086041164782886,393,50.95125518724269,0.0060568501275226234,50e9,308604116.4782886,50,31.684252091630796
18,47.391428539104474,0.07634225425546057,422,47.46777079335993,0.001608296597449227,47e9,76342254.25546056,50,30.22528348166108
19,47.33932922805856,0.6237215680487059,417,47.96305079610727,0.013004209650886675,47e9,623721568.0487059,50,8.620050762858636
20,52.29083758508649,0.5949450900506698,379,52.885782675137165,0.011249622487488821,52e9,594945090.0506698,50,12.839617639205086
21,50.35661958037667,0.5009864582461044,394,50.85760603862278,0.009850767609187905,50e9,500986458.2461044,50,23.389565934316284
22,52.9955555088008,1.1201507472444663,370,54.115706256045264,0.020699180048478705,52e9,1120150747.2444663,50,51.264633368067656
23,52.27140435593081,0.4690239262760073,380,52.74042828220682,0.008893062524375502,52e9,469023926.2760073,50,25.89940003091747
24,54.956679177043014,0.7116408918289051,360,55.66832006887192,0.012783588420639869,54e9,711640891.8289051,50,36.43454663890191
25,59.98526418927343,0.18258923679171649,333,60.16785342606514,0.0030346642998671037,59e9,182589236.7917165,50,48.74174676266217
26,47.7006824670255,0.042332053571144786,419,47.743014520596645,0.0008866648659749472,47e9,42332053.57114478,50,22.30117561218958
27,37.02884378923105,0.9018946018442698,528,37.930738391075316,0.023777406929058772,37e9,901894601.8442699,50,7.550813254166799
28,42.28443807375846,0.2888480366794981,470,42.573286110437955,0.006784724954757003,42e9,288848036.6794981,50,27.923796686778314
29,52.873718508864364,0.49494764285994924,375,53.36866615172431,0.009274124285827925,52e9,494947642.85994923,50,23.71567558086169
30,43.0383462420981,0.5128444557536602,460,43.55119069785176,0.011775670137509173,43e9,512844455.7536602,50,6.244531156893517
31,89.2852905431097,1.9943409181201495,220,91.27963146122984,0.021848695992678573,89e9,1994340918.1201494,100,16.641324815309705
32,102.03269936548448,0.34903838003055015,196,102.38173774551503,0.00340918593214482,102e9,349038380.0305502,100,99.85645926190631
33,83.58598685003365,1.856062271491941,235,85.44204912152559,0.02172305428738061,83e9,1856062271.491941,100,82.50542713581666
34,105.89893720106784,1.4122183599900888,187,107.31115556105793,0.013160033107523145,105e9,1412218359.990089,100,65.63135789269606
35,107.80043420909332,1.8047718708450045,183,109.60520607993833,0.01646611447934992,107e9,1804771870.8450046,100,71.03988239681142
36,92.02025262283246,1.3819076962734345,215,93.40216031910589,0.014795243402852624,92e9,1381907696.2734344,100,59.41597984186007
37,93.65459372600063,1.5251774322599503,211,95.17977115826058,0.016024176289770174,93e9,1525177432.2599504,100,80.90341793945389
38,100.72898707733984,1.7110768485595398,196,102.44006392589938,0.016703199734405254,100e9,1711076848.5595398,100,69.81268539313251
39,76.94170322584249,1.3651658195642402,256,78.30686904540673,0.017433538541461034,76e9,1365165819.5642402,100,56.62727436238146
40,109.21984375060596,1.1045644791976796,182,110.32440822980364,0.010011968311644083,109e9,1104564479.1976795,100,34.029942068155904
41,95.72549189447805,1.364290759532728,206,97.08978265401078,0.014051846880680695,95e9,1364290759.532728,100,41.843400171372814
42,107.99070182321819,2.2237215480002988,182,110.21442337121849,0.020176320666402032,107e9,2223721548.000299,100,28.891006829495836
43,94.04807303816887,1.1183432314442303,211,95.1664162696131,0.01175144841301879,94e9,1118343231.4442303,100,92.4961634276896
44,111.86607097583871,0.21533385431632396,179,112.08140483015504,0.00192122729584479,111e9,215333854.31632397,100,45.794990981942924
45,85.2306386415155,0.8195029523928338,233,86.05014159390834,0.009523551469098897,85e9,819502952.3928338,100,32.38467340525179
46,958.1395146559702,19.717559281379234,21,977.8570739373494,0.020164050357570483,958e9,19717559281.379234,1000,863.8613484474807
47,907.2029139639762,7.6672874742140396,22,914.8702014381903,0.008380738013065617,907e9,7667287474.21404,1000,162.98285913139972
48,1054.0705224527271,25.0174628174156,19,1079.0879852701428,0.02318389525127799,1054e9,25017462817.4156,1000,351.8739952681027
49,1035.3706792719122,7.605334538577143,20,1042.9760138104893,0.007291955364142292,1035e9,7605334538.577143,1000,187.34850291812404
50,945.9355992872007,12.499630897349665,21,958.4352301845504,0.013041706422814625,945e9,12499630897.349665,1000,480.23324339877746
51,930.7044842659866,12.504120321513211,22,943.2086045874998,0.01325700408233842,930e9,12504120321.51321,1000,685.1841237660117
52,919.8325995496502,9.798181626845219,22,929.6307811764955,0.010539863594496213,919e9,9798181626.845219,1000,523.7681136847077
53,885.3816858274735,21.335235839521992,23,906.7169216669954,0.023530205877593247,885e9,21335235839.52199,1000,59.767033452231395
54,1077.4061434878429,19.978617793594616,19,1097.3847612814375,0.018205663590831346,1077e9,19978617793.594616,1000,648.1871159717018
55,1008.5030874322888,8.59296387679702,20,1017.0960513090859,0.008448527418563048,1008e9,8592963876.79702,1000,998.1597517990816
56,855.4150787308347,21.951130130628034,23,877.3662088614627,0.025019347575641754,855e9,21951130130.628033,1000,311.92183345860434
57,1014.1096657657331,11.54101414161957,20,1025.6506799073527,0.011252382870415563,1014e9,11541014141.61957,1000,350.3770419711892
58,1098.601156814374,23.082531912928115,18,1121.683688727302,0.020578468016342725,1098e9,23082531912.928116,1000,221.60117161039057
59,959.9025127117018,16.26794016652593,21,976.1704528782277,0.016665061023471966,959e9,16267940166.525928,1000,733.4794480947296
60,1089.7181648522,18.333729866105966,19,1108.0518947183061,0.016545912653997897,1089e9,18333729866.105965,1000,153.5992207190411
