execution_id,priority,max_stretch,mean_stretch,utilization,noise,noise_seed,x
0,Set-10,1.06681,1.02159,0.96586,0.1,1661768884,0.25
0,Clairvoyant,1.04448,1.01868,0.968511,0.1,1661768890,0.25
0,Exclusive-FCFS,1.42459,1.13955,0.879214,0.1,1661768896,0.25
0,FairShare,1.07208,1.03658,0.952055,0.1,1661768912,0.25
1,Set-10,1.06013,1.01952,0.967768,0.1,1661768920,0.25
1,Clairvoyant,1.05873,1.01903,0.968252,0.1,1661768927,0.25
1,Exclusive-FCFS,1.41997,1.1411,0.877099,0.1,1661768933,0.25
1,FairShare,1.07261,1.0353,0.953437,0.1,1661768949,0.25
2,Set-10,1.0512,1.01991,0.96745,0.1,1661768958,0.25
2,Clairvoyant,1.06723,1.0198,0.967583,0.1,1661768964,0.25
2,Exclusive-FCFS,1.53253,1.19199,0.845629,0.1,1661768971,0.25
2,FairShare,1.07004,1.0344,0.954053,0.1,1661768990,0.25
3,Set-10,1.05027,1.01979,0.967396,0.1,1661768999,0.25
3,Clairvoyant,1.06262,1.02068,0.96662,0.1,1661769005,0.25
3,Exclusive-FCFS,1.4383,1.14952,0.872251,0.1,1661769011,0.25
3,FairShare,1.08247,1.03784,0.95109,0.1,1661769028,0.25
4,Set-10,1.04929,1.02157,0.965802,0.1,1661769036,0.25
4,Clairvoyant,1.06285,1.02152,0.965868,0.1,1661769042,0.25
4,Exclusive-FCFS,1.39963,1.13393,0.881875,0.1,1661769048,0.25
4,FairShare,1.09424,1.03806,0.950787,0.1,1661769063,0.25
5,Set-10,1.05277,1.02143,0.965854,0.1,1661769072,0.25
5,Clairvoyant,1.05623,1.02031,0.967023,0.1,1661769078,0.25
5,Exclusive-FCFS,1.50865,1.16836,0.859569,0.1,1661769084,0.25
5,FairShare,1.08088,1.03947,0.949622,0.1,1661769101,0.25
6,Set-10,1.07446,1.02307,0.964561,0.1,1661769110,0.25
6,Clairvoyant,1.08179,1.02349,0.964109,0.1,1661769116,0.25
6,Exclusive-FCFS,1.42774,1.14893,0.871779,0.1,1661769122,0.25
6,FairShare,1.11244,1.04456,0.945004,0.1,1661769139,0.25
7,Set-10,1.07262,1.02181,0.965738,0.1,1661769148,0.25
7,Clairvoyant,1.04438,1.01873,0.968414,0.1,1661769154,0.25
7,Exclusive-FCFS,1.4064,1.14079,0.877423,0.1,1661769160,0.25
7,FairShare,1.07101,1.03412,0.954308,0.1,1661769176,0.25
8,Set-10,1.05486,1.01872,0.968455,0.1,1661769184,0.25
8,Clairvoyant,1.06569,1.01956,0.967758,0.1,1661769191,0.25
8,Exclusive-FCFS,1.45833,1.15553,0.868883,0.1,1661769197,0.25
8,FairShare,1.09028,1.03931,0.94953,0.1,1661769215,0.25
9,Set-10,1.07671,1.02201,0.96537,0.1,1661769224,0.25
9,Clairvoyant,1.08806,1.02229,0.965261,0.1,1661769230,0.25
9,Exclusive-FCFS,1.44985,1.14944,0.871274,0.1,1661769238,0.25
9,FairShare,1.08965,1.03723,0.951462,0.1,1661769255,0.25
10,Set-10,1.06593,1.02299,0.964285,0.1,1661769264,0.25
10,Clairvoyant,1.0561,1.02254,0.9647,0.1,1661769271,0.25
10,Exclusive-FCFS,1.38925,1.12898,0.885703,0.1,1661769278,0.25
10,FairShare,1.09015,1.03957,0.949381,0.1,1661769295,0.25
11,Set-10,1.06436,1.02244,0.964942,0.1,1661769304,0.25
11,Clairvoyant,1.05382,1.01921,0.967975,0.1,1661769311,0.25
11,Exclusive-FCFS,1.46936,1.15545,0.868963,0.1,1661769317,0.25
11,FairShare,1.09246,1.03738,0.951246,0.1,1661769336,0.25
12,Set-10,1.05366,1.02196,0.965298,0.1,1661769346,0.25
12,Clairvoyant,1.0622,1.02046,0.966737,0.1,1661769353,0.25
12,Exclusive-FCFS,1.43947,1.13855,0.879642,0.1,1661769360,0.25
12,FairShare,1.06604,1.03891,0.949832,0.1,1661769377,0.25
13,Set-10,1.06302,1.02118,0.966097,0.1,1661769386,0.25
13,Clairvoyant,1.05134,1.02079,0.966419,0.1,1661769392,0.25
13,Exclusive-FCFS,1.3807,1.12525,0.887559,0.1,1661769398,0.25
13,FairShare,1.07392,1.0354,0.953022,0.1,1661769415,0.25
14,Set-10,1.06808,1.02053,0.96679,0.1,1661769423,0.25
14,Clairvoyant,1.0786,1.02076,0.966615,0.1,1661769430,0.25
14,Exclusive-FCFS,1.44171,1.15821,0.865905,0.1,1661769436,0.25
14,FairShare,1.09393,1.03754,0.951302,0.1,1661769455,0.25
15,Set-10,1.05097,1.02232,0.965121,0.1,1661769464,0.25
15,Clairvoyant,1.05186,1.02085,0.966431,0.1,1661769471,0.25
15,Exclusive-FCFS,1.40544,1.13087,0.884412,0.1,1661769478,0.25
15,FairShare,1.09051,1.03791,0.95099,0.1,1661769494,0.25
16,Set-10,1.06492,1.0208,0.966531,0.1,1661769504,0.25
16,Clairvoyant,1.06058,1.01996,0.967296,0.1,1661769511,0.25
16,Exclusive-FCFS,1.44259,1.15737,0.866038,0.1,1661769518,0.25
16,FairShare,1.08585,1.03838,0.950544,0.1,1661769537,0.25
17,Set-10,1.07365,1.02183,0.965538,0.1,1661769545,0.25
17,Clairvoyant,1.07289,1.02193,0.965549,0.1,1661769552,0.25
17,Exclusive-FCFS,1.4334,1.15639,0.867529,0.1,1661769558,0.25
17,FairShare,1.10329,1.0382,0.950781,0.1,1661769578,0.25
18,Set-10,1.05596,1.0211,0.966219,0.1,1661769587,0.25
18,Clairvoyant,1.07631,1.02203,0.96549,0.1,1661769594,0.25
18,Exclusive-FCFS,1.40974,1.13587,0.880063,0.1,1661769601,0.25
18,FairShare,1.08343,1.03565,0.953068,0.1,1661769617,0.25
19,Set-10,1.06157,1.02304,0.964467,0.1,1661769626,0.25
19,Clairvoyant,1.06993,1.02162,0.9658,0.1,1661769632,0.25
19,Exclusive-FCFS,1.47527,1.16484,0.862041,0.1,1661769639,0.25
19,FairShare,1.07875,1.03547,0.953235,0.1,1661769657,0.25
