app_id,start_app,end_app,effective_cpu,effective_io,effective_iter,total_bytes,stretch,utilization,Tcomp,Tio,iterations,priority,group_id
app_1,9.83386,18946.4,7704.2,264.85,770.654,2.08273e+11,1.01106,0.96549,10,0.270485,1825,0.1,1
app_10,2.42908,19419.1,7739.7,230.829,773.676,1.67247e+11,1.01177,0.96549,10,0.216081,1878,0.1,1
app_11,0.420878,18953.7,7644.8,317.492,953.061,2.40611e+11,1.01453,0.96549,8,0.252477,2264,0.1,1
app_12,3.59357,20071.7,7824.3,144.784,653.128,1.0739e+11,1.00861,0.96549,12,0.164456,1637,0.1,1
app_13,7.58334,18791.6,7866.7,94.2774,873.114,6.08389e+10,1.00914,0.96549,9,0.0696895,2049,0.1,1
app_14,3.72462,19561.8,7796,168.033,709.307,1.23173e+11,1.01021,0.96549,11,0.173483,1734,0.1,1
app_15,5.45739,18485.6,7850.1,98.8467,980.54,4.53718e+10,1.01324,0.96549,8,0.0462505,2268,0.1,1
app_16,35.9521,20078,7650.9,302.963,162.934,1.84464e+11,1.02101,0.96549,47,1.13168,408,0.02,1.69897
app_17,9.06245,19850.9,7844.5,78.8392,168.523,4.93986e+10,1.01344,0.96549,47,0.292299,415,0.02,1.69897
app_18,37.7714,20509.3,7655.3,304.684,165.436,1.94068e+11,1.01919,0.96549,46,1.16908,424,0.02,1.69897
app_19,4.26804,20308.7,7729.9,177.68,157.379,1.10154e+11,1.0204,0.96549,49,0.701618,402,0.02,1.69897
app_2,4.35336,20052.1,7802.7,157.405,779.845,1.07829e+11,1.01131,0.96549,10,0.138243,1956,0.1,1
app_20,28.7045,20082.5,7765.1,157.043,165.483,1.01179e+11,1.017,0.96549,47,0.60951,414,0.02,1.69897
app_21,35.2447,20112.3,7709.7,224.639,161.257,1.37166e+11,1.01952,0.96549,48,0.851963,404,0.02,1.69897
app_22,32.8894,19849.5,7884.8,46.4231,171.999,2.22257e+10,1.01176,0.96549,46,0.129219,425,0.02,1.69897
app_23,22.7501,20166.5,7841.5,80.1591,171.04,4.74169e+10,1.01408,0.96549,46,0.277292,429,0.02,1.69897
app_24,45.889,20003.1,7803.7,146.932,135.211,9.10918e+10,1.01333,0.96549,58,0.674754,336,0.02,1.69897
app_25,8.13057,20117.2,7646.1,274.98,173.48,1.75092e+11,1.02286,0.96549,44,1.01209,437,0.02,1.69897
app_26,5.93755,20315.8,7847.6,108.182,151.153,6.60586e+10,1.01091,0.96549,52,0.437474,382,0.02,1.69897
app_27,23.9294,20302,7654.5,300.369,153.799,1.97544e+11,1.01884,0.96549,50,1.28276,390,0.02,1.69897
app_28,40.0733,20160.3,7756.7,157.476,149.969,9.79528e+10,1.0185,0.96549,52,0.653019,377,0.02,1.69897
app_29,4.3971,20176.2,7636.8,325.983,159.611,2.08467e+11,1.01972,0.96549,48,1.30292,404,0.02,1.69897
app_3,3.14984,18881.9,7713.6,251.381,856.465,1.72547e+11,1.01444,0.96549,9,0.201573,2019,0.1,1
app_30,6.0045,20315.3,7557.6,354.167,176.768,2.27613e+11,1.02759,0.96549,43,1.28595,450,0.02,1.69897
app_31,31.3996,20493.8,7641.7,286.598,85.0588,1.38434e+11,1.02826,0.96549,90,1.62864,218,0.01,2
app_32,14.7716,20387.5,7704.6,209.987,92.6749,1.09128e+11,1.02384,0.96549,83,1.18618,235,0.01,2
app_33,101.424,20500,7703.17,245.473,66.3908,1.29313e+11,1.02139,0.96549,116,1.93005,169,0.01,2
app_34,0.629636,20462.7,7685.4,259.141,73.6525,1.29673e+11,1.02366,0.96549,105,1.77634,188,0.01,2
app_35,5.12783,20464.1,7719.6,209.405,84.3831,1.09158e+11,1.02187,0.96549,91,1.2995,216,0.01,2
app_36,90.763,20173.2,7826.9,92.3906,87.0479,4.26769e+10,1.01657,0.96549,90,0.490539,219,0.01,2
app_37,32.7375,20552.3,7585.67,359.507,80.8582,1.81553e+11,1.02997,0.96549,93,2.26788,209,0.01,2
app_38,3.00879,20200.4,7864.3,48.8859,75.745,2.3717e+10,1.0142,0.96549,104,0.312065,191,0.01,2
app_39,5.02585,20557.4,7541.9,384.577,71.7145,2.14812e+11,1.03136,0.96549,105,2.9835,185,0.01,2
app_4,6.25593,18651.1,7858.4,99.5747,873.615,6.68448e+10,1.00943,0.96549,9,0.0764815,2032,0.1,1
app_40,43.3936,20271.5,7861.5,70.5881,75.5393,3.30684e+10,1.01335,0.96549,104,0.43511,191,0.01,2
app_41,10.2118,20213.7,7878.3,36.5084,86.4832,1.53294e+10,1.01348,0.96549,91,0.1762,219,0.01,2
app_42,47.7764,20811.8,7551.2,379.251,86.717,1.872e+11,1.03381,0.96549,87,2.15172,224,0.01,2
app_43,66.9318,20180.7,7876.2,54.4665,74.814,2.34346e+10,1.01271,0.96549,105,0.312462,189,0.01,2
app_44,22.2358,20407.9,7762.45,177.862,76.9573,9.09826e+10,1.01866,0.96549,100,1.18159,197,0.01,2
app_45,30.695,20275.3,7863.4,56.9307,74.0703,2.967e+10,1.01355,0.96549,106,0.400945,188,0.01,2
app_46,117.422,22050.7,7226.7,566.131,6.96589,2.06085e+11,1.07631,0.96549,1020,29.4407,20,0.001,3
app_47,1019.01,21907.1,7483.4,224.424,7.01615,6.939e+10,1.05921,0.96549,1067,9.91285,19,0.001,3
app_48,357.153,21409.4,7474.2,393.11,7.37007,1.47222e+11,1.04967,0.96549,983,21.0318,20,0.001,3
app_49,942.308,21897.1,7749.2,105.901,7.94116,4.23813e+10,1.02675,0.96549,949,5.29766,21,0.001,3
app_5,5.37345,19780.6,7879,81.5388,791.107,4.09728e+10,1.0101,0.96549,10,0.0517988,1953,0.1,1
app_50,815.305,21030.7,7950.4,49.6,6.98513,2.21456e+10,1.00344,0.96549,1182,3.16366,17,0.001,3
app_51,304.259,21891.8,7460.3,422.115,8.13893,1.60626e+11,1.04974,0.96549,910,20.0782,22,0.001,3
app_52,545.732,21971.6,7763.2,80.5689,9.05851,3.67976e+10,1.02564,0.96549,862,4.08862,24,0.001,3
app_53,119.154,21060.4,7700.9,102.936,7.96529,3.68484e+10,1.03389,0.96549,962,4.60604,21,0.001,3
app_54,862.221,20854.5,7847.5,11.4256,8.07542,5.69468e+09,1.01869,0.96549,1018,0.632742,20,0.001,3
app_55,293.83,20731.9,7637.3,68.9437,8.46454,3.3564e+10,1.04291,0.96549,917,4.1955,22,0.001,3
app_56,782.326,22336.3,7734.3,109.791,8.38504,4.01214e+10,1.02902,0.96549,879,5.01518,23,0.001,3
app_57,1028.05,22447.9,7480.63,313.83,6.59152,1.19721e+11,1.05258,0.96549,1132,17.4225,18,0.001,3
app_58,292.9,22006.6,7346.2,577.948,8.38712,2.08513e+11,1.05894,0.96549,872,26.0641,23,0.001,3
app_59,624.175,21826.8,7769.8,131.089,8.1698,4.54515e+10,1.02364,0.96549,928,5.68144,22,0.001,3
app_6,8.17481,20101.4,7792.9,172.048,778.471,1.27173e+11,1.01009,0.96549,10,0.163252,1957,0.1,1
app_60,836.404,22482.4,7713.5,286.5,6.83149,1.11715e+11,1.02234,0.96549,1090,15.9593,19,0.001,3
app_7,0.380031,20058.3,7893.3,69.7415,714.847,2.39341e+10,1.01045,0.96549,11,0.0334743,1798,0.1,1
app_8,5.16781,18888,7896.9,70.2822,718.739,2.69708e+10,1.00961,0.96549,11,0.0375638,1693,0.1,1
app_9,9.95398,20079.2,7784.2,181.778,709.429,1.32905e+11,1.01047,0.96549,11,0.187454,1775,0.1,1
