app_id,start_app,end_app,effective_cpu,effective_io,effective_iter,total_bytes,stretch,utilization,Tcomp,Tio,iterations,priority,group_id
app_1,8.17828,18292.9,7751.5,197.819,967.565,1.43123e+11,1.01335,0.966419,8,0.147854,2212,0.1,1
app_10,5.59936,20093.1,7797.6,159.349,777.746,1.13768e+11,1.0112,0.966419,10,0.146232,1954,0.1,1
app_11,2.22962,19668.1,7707.3,252.652,858.596,1.72369e+11,1.01527,0.966419,9,0.200662,2109,0.1,1
app_12,9.54473,19469.1,7731.7,226.881,774.533,1.6004e+11,1.01372,0.966419,10,0.20677,1881,0.1,1
app_13,11.3555,19444.5,7718.94,252.359,703.057,2.00804e+11,1.01013,0.966419,11,0.285581,1709,0.1,1
app_14,8.03471,18278,7712.6,237.326,962.941,1.73881e+11,1.01439,0.966419,8,0.180562,2201,0.1,1
app_15,4.29714,19682.9,7886.1,67.0365,788.05,3.72063e+09,1.01396,0.966419,10,0.00472161,1941,0.1,1
app_16,11.6038,19972.2,7675.2,266.669,163.964,1.6825e+11,1.01996,0.966419,47,1.02592,409,0.02,1.69897
app_17,42.1513,20242,7727.7,204.599,158.567,1.25806e+11,1.01865,0.966419,49,0.791232,401,0.02,1.69897
app_18,31.5693,20037.1,7727,203.66,171.617,1.24461e+11,1.01892,0.966419,45,0.723614,429,0.02,1.69897
app_19,41.4677,20031.6,7875.6,65.212,166.124,3.3785e+10,1.01146,0.966419,47,0.203524,416,0.02,1.69897
app_2,5.07585,18456.6,7751.3,206.073,859.24,1.50339e+11,1.01245,0.966419,9,0.175016,1985,0.1,1
app_20,32.1359,20177.5,7689.9,246.177,196.873,1.49776e+11,1.02045,0.966419,39,0.760284,497,0.02,1.69897
app_21,40.0701,20149,7630.2,307.493,146.703,1.8423e+11,1.02375,0.966419,52,1.26185,371,0.02,1.69897
app_22,27.8716,20208,7645,286.75,181.604,1.78744e+11,1.02253,0.966419,42,0.982108,459,0.02,1.69897
app_23,47.1579,20206.9,7769.52,177.333,150.73,1.07623e+11,1.0156,0.966419,52,0.716241,379,0.02,1.69897
app_24,26.5589,20056.2,7795.1,147.708,170.311,8.80317e+10,1.01483,0.966419,46,0.514805,425,0.02,1.69897
app_25,37.8687,19957.2,7751.1,204.725,165.95,1.24903e+11,1.01574,0.966419,47,0.752427,412,0.02,1.69897
app_26,13.6848,20067.3,7741.1,181.605,161.606,1.09505e+11,1.01903,0.966419,48,0.675958,405,0.02,1.69897
app_27,28.9289,20146.3,7825,128.828,153.543,7.65839e+10,1.01246,0.966419,51,0.497298,386,0.02,1.69897
app_28,50.8967,20252.7,7839.5,101.091,130.672,6.08536e+10,1.01261,0.966419,60,0.464531,329,0.02,1.69897
app_29,14.6049,20448.8,7702.9,253.285,158.514,1.5879e+11,1.01759,0.966419,48,0.998679,407,0.02,1.69897
app_3,2.7808,19576.3,7757.8,208.414,706.451,1.47714e+11,1.01195,0.966419,11,0.209227,1730,0.1,1
app_30,14.8656,19955.3,7752.2,207.22,136.309,1.32061e+11,1.01468,0.966419,57,0.971038,340,0.02,1.69897
app_31,87.9746,20361.2,7787.4,180.439,76.6046,8.93091e+10,1.01565,0.966419,102,1.15986,194,0.01,2
app_32,51.4386,20214.4,7878.6,70.2587,75.5744,3.21227e+10,1.01129,0.966419,104,0.428302,191,0.01,2
app_33,4.13207,20265.2,7843.6,86.6188,83.7737,3.99467e+10,1.01477,0.966419,94,0.481286,212,0.01,2
app_34,48.3167,20303.9,7871,57.9223,80.348,2.66679e+10,1.01296,0.966419,98,0.329233,202,0.01,2
app_35,21.6262,20542.6,7608.9,325.105,90.4531,1.58791e+11,1.02991,0.966419,84,1.76434,233,0.01,2
app_36,36.0579,20188.8,7767.6,140.47,92.8825,6.90496e+10,1.02084,0.966419,84,0.742469,234,0.01,2
app_37,21.1571,20511.9,7602.8,342,83.5994,1.65706e+11,1.0298,0.966419,91,1.99646,214,0.01,2
app_38,10.5093,20331,7747,198.944,88.0546,9.38372e+10,1.0203,0.966419,89,1.06633,221,0.01,2
app_39,68.5245,20368.5,7705.9,197.274,85.6736,9.34197e+10,1.02573,0.966419,90,1.09906,218,0.01,2
app_4,7.27384,18306.4,7782.2,174.695,863.891,1.20951e+11,1.01225,0.966419,9,0.13999,1980,0.1,1
app_40,91.9435,20573,7715.5,222.465,72.0477,1.12892e+11,1.02192,0.966419,107,1.56794,184,0.01,2
app_41,91.9394,20326.7,7696.7,238.372,74.4005,1.19416e+11,1.02353,0.966419,104,1.59221,188,0.01,2
app_42,22.8335,20729.2,7612.5,343.691,72.6468,1.79122e+11,1.02674,0.966419,105,2.45372,186,0.01,2
app_43,7.46837,20266,7821.1,125.705,77.8351,5.97852e+10,1.01511,0.966419,101,0.766476,196,0.01,2
app_44,28.3728,20288.8,7758.2,143.84,81.3082,7.37984e+10,1.02145,0.966419,95,0.911091,208,0.01,2
app_45,12.3258,20284,7835.5,91.2058,80.6823,4.42551e+10,1.01526,0.966419,98,0.553189,203,0.01,2
app_46,1027.03,21469.8,7784.1,132.255,7.34573,4.60458e+10,1.02169,0.966419,1047,5.75572,19,0.001,3
app_47,808.897,21741.7,7608.8,179.221,6.85653,7.43529e+10,1.04124,0.966419,1123,10.6218,18,0.001,3
app_48,203.692,20976.1,7581.4,357.152,7.97271,1.3339e+11,1.03697,0.966419,958,16.6737,21,0.001,3
app_49,4.25363,20945.7,7840.8,87.1911,7.31785,3.56886e+10,1.01568,0.966419,1058,5.09837,19,0.001,3
app_5,4.77937,18242.9,7829.5,117.795,869.155,7.56225e+10,1.012,0.966419,9,0.0869224,1985,0.1,1
app_50,914.071,21902.1,7785.9,201.711,7.30482,6.27734e+10,1.01928,0.966419,1063,8.96763,19,0.001,3
app_51,654.176,22031.1,7680.8,285.303,7.44838,1.19841e+11,1.02556,0.966419,1012,14.9801,20,0.001,3
app_52,819.988,22476,7752,222.857,6.73526,8.17314e+10,1.02122,0.966419,1151,11.6759,18,0.001,3
app_53,822.743,22239.5,7511.9,375.737,6.86325,1.37852e+11,1.04579,0.966419,1054,19.6932,19,0.001,3
app_54,233.911,21582,7423.8,502.142,8.4864,1.85518e+11,1.05134,0.966419,870,23.1897,23,0.001,3
app_55,374.658,21969.3,7586.9,191.528,8.23062,6.10554e+10,1.04603,0.966419,900,7.63193,23,0.001,3
app_56,361.698,21926.3,7420.9,540.635,8.17878,1.93464e+11,1.05065,0.966419,922,24.1829,22,0.001,3
app_57,813.504,22276.8,7540.7,299.882,8.3997,1.04925e+11,1.04635,0.966419,891,11.6583,23,0.001,3
app_58,725.952,21836.7,7767.9,221.707,6.59004,8.35413e+10,1.01892,0.966419,1185,13.9235,17,0.001,3
app_59,836.817,21246.8,7696.4,142.117,9.3121,4.69159e+10,1.03315,0.966419,841,5.21288,24,0.001,3
app_6,6.43352,18486.8,7837.1,107.055,975.79,6.87137e+10,1.01191,0.966419,8,0.0704034,2257,0.1,1
app_60,425.179,21072.7,7833.2,40.2832,9.26001,1.0607e+10,1.01991,0.966419,837,1.17856,24,0.001,3
app_7,1.61204,19904.1,7690.5,277.167,699.024,2.10388e+11,1.01254,0.966419,11,0.300984,1739,0.1,1
app_8,4.17667,18324.9,7817.2,135.65,869.925,8.45999e+10,1.01243,0.966419,9,0.0972413,1992,0.1,1
app_9,0.433145,20112.1,7894.9,61.4254,716.822,7.04096e+09,1.01241,0.966419,11,0.00982003,1805,0.1,1
