app_id,start_app,end_app,effective_cpu,effective_io,effective_iter,total_bytes,stretch,utilization,Tcomp,Tio,iterations,priority,group_id
app_1,3.07188,18690.5,7725.8,229.039,1104.93,1.84124e+11,1.01139,0.96537,7,0.166628,2583,0.1,1
app_10,5.08538,19327.9,7787.19,178.655,778.172,1.40228e+11,1.00916,0.96537,10,0.180234,1881,0.1,1
app_11,3.38568,19797.8,7877.24,79.9525,876.994,1.3831e+10,1.0138,0.96537,9,0.0157708,2168,0.1,1
app_12,0.233352,18070.1,7806.6,146.111,977.105,9.1539e+10,1.0129,0.96537,8,0.0936939,2204,0.1,1
app_13,5.0854,18644,7872.8,86.9963,786.21,5.99183e+10,1.00848,0.96537,10,0.0762319,1831,0.1,1
app_14,5.84397,20023.1,7878.9,82.5084,789.998,4.68146e+10,1.00937,0.96537,10,0.0592589,1975,0.1,1
app_15,6.29701,18782.7,7679.8,281.147,961.093,2.0246e+11,1.01494,0.96537,8,0.210676,2256,0.1,1
app_16,47.7561,20250.4,7765,124.427,152.902,8.70517e+10,1.01884,0.96537,51,0.568965,384,0.01,2
app_17,9.31544,20335.6,7739.3,143.429,149.147,9.59611e+10,1.02103,0.96537,52,0.644034,377,0.01,2
app_18,23.579,20531.9,7678,227.94,161.687,1.59386e+11,1.02075,0.96537,47,0.989977,415,0.01,2
app_19,41.8917,20511.1,7819.7,45.3435,169.011,2.54176e+10,1.01974,0.96537,46,0.1504,434,0.01,2
app_2,6.48588,19275.3,7807.5,157.001,782.526,1.09395e+11,1.0105,0.96537,10,0.139713,1880,0.1,1
app_20,28.9447,20547.1,7824,68.0976,181.073,4.16813e+10,1.01708,0.96537,43,0.230283,462,0.01,2
app_21,10.2877,20270.7,7664.6,179.729,168.947,1.27663e+11,1.02666,0.96537,45,0.7554,431,0.01,2
app_22,13.1474,20143,7635,275.829,133.548,2.0126e+11,1.0209,0.96537,57,1.50194,337,0.01,2
app_23,5.95471,20101.2,7642.3,242.486,160.037,1.66726e+11,1.02446,0.96537,48,1.04204,402,0.01,2
app_24,42.788,20296.9,7822.7,47.6154,159.598,2.87137e+10,1.01892,0.96537,49,0.179461,403,0.01,2
app_25,17.9002,20348.1,7733.3,155.955,133.445,1.09671e+11,1.02002,0.96537,58,0.824592,340,0.01,2
app_26,24.9772,20152.5,7838,38.1817,163.809,1.88591e+10,1.01822,0.96537,48,0.1157,411,0.01,2
app_27,52.7025,20235.2,7737.1,165.359,130.971,1.17309e+11,1.01854,0.96537,59,0.895488,330,0.01,2
app_28,39.161,20497,7615.6,222.775,185.527,1.58531e+11,1.02905,0.96537,41,0.856922,476,0.01,2
app_29,42.0444,20181.8,7722.2,132.228,159.772,9.11264e+10,1.02389,0.96537,48,0.573122,405,0.01,2
app_3,4.16416,19844,7783.1,166.703,1111.87,1.03345e+11,1.0144,0.96537,7,0.092936,2761,0.1,1
app_30,37.4191,20509,7649.8,204.045,186.591,1.454e+11,1.02627,0.96537,41,0.777538,478,0.01,2
app_31,12.4599,20170.4,7742.1,201.984,71.531,1.46264e+11,1.01415,0.96537,109,2.03144,180,0.01,2
app_32,30.5068,20189.2,7804,140.337,78.0382,1.01535e+11,1.01195,0.96537,100,1.30174,196,0.01,2
app_33,74.4529,20204.5,7763.5,180.616,84.7321,1.30577e+11,1.01342,0.96537,92,1.55448,213,0.01,2
app_34,100.213,20328.4,7794.5,164.651,73.4601,1.17753e+11,1.01109,0.96537,106,1.61306,186,0.01,2
app_35,76.3816,20357.8,7738.8,195.922,93.0455,1.40226e+11,1.01535,0.96537,83,1.5078,236,0.01,2
app_36,93.6122,20219.4,7814.8,117.598,81.8075,8.64987e+10,1.01249,0.96537,97,1.05486,204,0.01,2
app_37,85.7513,20393.4,7853.7,93.4708,71.8157,6.61612e+10,1.01012,0.96537,108,0.918906,183,0.01,2
app_38,10.509,20247.2,7713.5,235.953,77.1847,1.70884e+11,1.01466,0.96537,100,2.21927,195,0.01,2
app_39,22.1352,20120.7,7811.1,96.8729,88.5505,6.59498e+10,1.01561,0.96537,89,0.74943,222,0.01,2
app_4,2.74177,18960.5,7831.5,134.826,713.337,7.64742e+10,1.01164,0.96537,11,0.107257,1690,0.1,1
app_40,96.2788,20092.9,7891.47,47.2729,75.058,3.2847e+10,1.00955,0.96537,106,0.434024,187,0.01,2
app_41,15.6894,20305.2,7784,166.63,74.6592,1.19361e+11,1.01223,0.96537,104,1.59148,189,0.01,2
app_42,19.0561,20255.7,7806.7,124.92,76.6664,9.08982e+10,1.01297,0.96537,102,1.1805,194,0.01,2
app_43,32.9182,20212.3,7748.7,176.558,87.1529,1.23476e+11,1.01624,0.96537,88,1.41926,222,0.01,2
app_44,16.8601,20067.7,7830.8,128.019,76.4025,8.94713e+10,1.01007,0.96537,103,1.17725,191,0.01,2
app_45,5.27614,20220.2,7900.7,12.3871,77.8664,5.89656e+09,1.01181,0.96537,102,0.0755969,196,0.01,2
app_46,216.73,22056.6,7312.7,384.832,8.2325,1.50592e+11,1.07191,0.96537,876,18.8239,23,0.001,3
app_47,643.014,22333.2,7483.7,414.099,7.84767,1.61456e+11,1.04641,0.96537,958,20.182,21,0.001,3
app_48,44.7174,21149.2,7897.5,92.1932,7.96076,3.70845e+10,1.00824,0.96537,984,4.63556,21,0.001,3
app_49,110.262,20909.2,7492.4,373.483,7.65034,1.42667e+11,1.0478,0.96537,1004,17.8334,20,0.001,3
app_5,5.49739,18546.7,7708.7,256.73,857.56,1.99145e+11,1.01165,0.96537,9,0.232103,1984,0.1,1
app_50,884.418,21860.4,7783.3,11.2516,6.65093,3.68697e+09,1.02736,0.96537,1153,0.52671,18,0.001,3
app_51,662.101,21755.3,7485.5,466.365,7.04296,1.885e+11,1.04248,0.96537,1109,26.9285,18,0.001,3
app_52,191.222,21454.2,7676,224.929,7.06193,8.27808e+10,1.03109,0.96537,1058,11.8258,19,0.001,3
app_53,175.187,21112.5,7285.3,495.185,8.6587,1.90069e+11,1.07018,0.96537,849,21.1188,23,0.001,3
app_54,295.234,21759.4,7568,71.9264,8.45386,3.23404e+10,1.05258,0.96537,897,4.04255,23,0.001,3
app_55,110.714,21506.1,7560.4,411.622,7.21335,1.56425e+11,1.0367,0.96537,1043,22.3464,19,0.001,3
app_56,733.652,21385.7,7733,190.761,8.45306,8.1178e+10,1.02378,0.96537,920,9.01978,22,0.001,3
app_57,596.806,22253,7547.5,210.268,7.84129,7.89461e+10,1.04898,0.96537,973,9.86827,21,0.001,3
app_58,911.287,22388.3,7247.1,465.469,8.2315,1.82965e+11,1.07671,0.96537,910,22.8706,22,0.001,3
app_59,886.367,22451,7722.1,9.77036,7.96464,5.0937e+09,1.0353,0.96537,942,0.636712,22,0.001,3
app_6,1.80865,19351.8,7801.9,157.906,782.008,1.1471e+11,1.01053,0.96537,10,0.146688,1892,0.1,1
app_60,428.533,21321.1,7843.9,87.9429,8.37759,3.54263e+10,1.01532,0.96537,925,3.93626,22,0.001,3
app_7,6.70832,19442.4,7768.8,200.481,775.736,1.528e+11,1.0099,0.96537,10,0.196907,1885,0.1,1
app_8,4.8736,19755.9,7736.2,233.267,772.423,1.87126e+11,1.00968,0.96537,10,0.242077,1907,0.1,1
app_9,7.6174,18554.4,7788.2,172.98,863.949,1.23334e+11,1.01118,0.96537,9,0.142748,2003,0.1,1
