app_id,Tcomp,Tio,iter,witer,alpha_io,compute_size,io_size,mu,desyn_time
1,5.515200341772711,0.024858561108765425,3611,5.540058902881476,0.004487057185589864,5e9,24858561.108765423,10,1.686039299493055
2,13.370264890071011,0.06021099796322147,1490,13.430475888034232,0.004483161912145343,13e9,60210997.96322147,10,6.495549773418475
3,9.706723998853095,0.04917521203064552,2051,9.75589921088374,0.005040561712218732,9e9,49175212.03064552,10,8.966683316018102
4,11.48294810720834,0.0027357451961614173,1742,11.485683852404502,0.00023818740192719959,11e9,2735745.1961614173,10,9.93721417170914
5,12.712369755591236,0.08071088925875278,1564,12.79308064484999,0.006308948680882734,12e9,80710889.25875278,10,1.369132619896297
6,8.311904479718889,0.02400671985177003,2400,8.335911199570658,0.002879915497781034,8e9,24006719.85177003,10,3.5135520011633368
7,11.831241060973912,0.0339466628975513,1686,11.865187723871463,0.002861030409932269,11e9,33946662.8975513,10,6.462819444882036
8,8.070081103981416,0.018566829541801215,2473,8.088647933523216,0.002295418182914281,8e9,18566829.541801214,10,0.248916178025395
9,4.461490885731001,0.0003849783055883719,4483,4.461875864036589,8.628171587904467e-05,4e9,384978.3055883719,10,4.428195949515285
10,10.442802586184094,0.07338527626186811,1902,10.516187862445962,0.006978315452497006,10e9,73385276.2618681,10,4.130818443046864
11,5.36412816315023,0.03074682146263165,3708,5.394874984612862,0.005699264867179874,5e9,30746821.46263165,10,3.5812956895429164
12,16.546537508704226,0.026276627172526577,1207,16.572814135876754,0.001585525967834458,16e9,26276627.172526576,10,10.150780016216558
13,18.634990951272385,0.020511646560146198,1073,18.65550259783253,0.0010994957896513237,18e9,20511646.560146198,10,5.332171456218665
14,7.297450572784532,0.028420937950493264,2731,7.325871510735025,0.0038795299520127282,7e9,28420937.950493265,10,5.050557986406983
15,14.833268396880987,0.026746789672881438,1346,14.860015186553868,0.0017999167118673846,14e9,26746789.67288144,10,10.752448426088351
16,10.164350032664084,0.06028809119925325,1957,10.224638123863336,0.005896354518263738,10e9,60288091.199253246,10,1.3116802388208162
17,13.250568244315863,0.04264636469740712,1505,13.29321460901327,0.0032081303094656554,13e9,42646364.69740712,10,9.07616635329541
18,6.0921283318079915,0.0027851092225688336,3282,6.0949134410305605,0.00045695632095767917,6e9,2785109.2225688337,10,5.636855284419392
19,3.538011012951547,0.020258451931080498,5621,3.5582694648826276,0.005693343950202698,3e9,20258451.931080498,10,1.6526782443157373
20,12.09063616750387,0.06565076439059675,1646,12.156286931894467,0.005400560611838533,12e9,65650764.39059675,10,0.6783607169298571
21,65.94958818225516,0.05926422957881636,303,66.00885241183397,0.0008978224497687457,65e9,59264229.578816354,100,3.698362530572755
22,131.72828823743134,0.333794678202416,152,132.06208291563377,0.002527558787753307,131e9,333794678.202416,100,11.133089623316636
23,54.18633623485666,0.16009749877608323,369,54.34643373363274,0.0029458694485965057,54e9,160097498.77608323,100,14.956236210016781
24,138.72911560809644,0.38455081485516096,144,139.1136664229516,0.0027642921414061444,138e9,384550814.85516095,100,52.694843436140275
25,84.37081872874701,0.5577342812067787,236,84.92855300995379,0.006567099773163582,84e9,557734281.2067786,100,27.847367483822357
26,146.94332379731273,0.4706892366383397,136,147.41401303395108,0.00319297485327894,146e9,470689236.6383397,100,16.283378840512597
27,120.0375220572715,0.2163797517860103,167,120.25390180905751,0.0017993574306602049,120e9,216379751.7860103,100,105.39078366781524
28,151.60183501141776,0.9157492043388871,132,152.51758421575664,0.0060042204906906775,151e9,915749204.3388871,100,33.648698362050034
29,93.84963483696825,0.023644362853869283,214,93.87327919982212,0.00025187532656166213,93e9,23644362.85386928,100,64.23528501433493
30,56.91446897429731,0.39949202095092323,349,57.31396099524823,0.0069702392578318605,56e9,399492020.9509232,100,57.04346379788939
31,92.69040742593111,0.24986536739648252,216,92.9402727933276,0.0026884509791800498,92e9,249865367.39648253,100,1.9646752801361325
32,97.90463476477622,0.08928714495481489,205,97.99392190973103,0.000911149826588872,97e9,89287144.9548149,100,60.974741770252955
33,35.60847760118106,0.036071165855266915,562,35.644548767036326,0.0010119686488674286,35e9,36071165.855266914,100,2.3120344021453825
34,129.23287707107633,0.5851239762927154,155,129.81800104736905,0.004507263796792022,129e9,585123976.2927154,100,17.824527447442453
35,33.530673182001856,0.011816220143821539,597,33.54248940214568,0.0003522761832658034,33e9,11816220.14382154,100,23.429724950081166
36,103.66010292264811,0.11453347929300312,193,103.77463640194111,0.0011036750719066915,103e9,114533479.29300311,100,28.580545317697535
37,92.27073826999417,0.3500653978203573,216,92.62080366781453,0.003779554743185672,92e9,350065397.82035726,100,30.23863744088634
38,67.5892385451573,0.19780899503591165,296,67.78704754019321,0.0029180942704227393,67e9,197808995.03591165,100,37.496224871198415
39,118.25498583069103,0.274245630958503,169,118.52923146164953,0.0023137383713420596,118e9,274245630.958503,100,106.70874297554809
40,151.74682332139398,0.9897459406531735,131,152.73656926204714,0.006480084929464965,151e9,989745940.6531734,100,3.5292685578611214
41,709.5265844880554,3.800084774757929,29,713.3266692628133,0.005327271415051848,709e9,3800084774.757929,1000,395.7627301883301
42,1298.6881167883744,4.87135558517904,16,1303.5594723735535,0.003736964586900784,1298e9,4871355585.17904,1000,429.3186969186932
43,1147.2366288539733,4.458114773969134,18,1151.6947436279424,0.0038709170104620516,1147e9,4458114773.969134,1000,924.7264006219243
44,1256.1868038226494,2.9063128871157846,16,1259.0931167097651,0.00230825889566492,1256e9,2906312887.1157846,1000,267.43142785966586
45,83.57806667488072,0.09858720149858209,240,83.6766538763793,0.0011781924459387568,83e9,98587201.4985821,1000,3.170638296287797
46,672.3513796497625,3.3731914633003255,30,675.7245711130629,0.00499196212111091,672e9,3373191463.3003254,1000,485.0636316334238
47,81.41388197640882,0.1292177169018154,246,81.54309969331064,0.0015846554446398578,81e9,129217716.90181541,1000,69.12541819361543
48,1610.3248014867395,1.4561776499485146,13,1611.780979136688,0.0009034587631928014,1610e9,1456177649.9485147,1000,781.7501065091516
49,355.2439343589004,1.4465698959032365,57,356.6905042548036,0.004055532397548414,355e9,1446569895.9032364,1000,295.02506700668056
50,674.9368422637282,0.6238273913649092,30,675.5606696550931,0.0009234217138238727,674e9,623827391.3649092,1000,491.6893403370891
51,1008.9264575741382,5.562969372742484,20,1014.4894269468807,0.0054835163629889305,1008e9,5562969372.742484,1000,604.15577995241
52,1111.984205329535,3.8886728442397436,18,1115.8728781737746,0.0034848708309891925,1111e9,3888672844.2397437,1000,693.9471744552377
53,2190.595512064923,6.016944241327192,10,2196.61245630625,0.0027391924433703176,2190e9,6016944241.327191,1000,1271.5289537550302
54,847.2486420078136,5.668668512658044,24,852.9173105204717,0.006646211118870222,847e9,5668668512.658044,1000,235.65970756305546
55,720.1626098997506,0.993777878765485,28,721.1563877785161,0.0013780338018314791,720e9,993777878.7654849,1000,408.1698791260401
56,793.3508461763653,4.172691849307588,26,797.5235380256729,0.005232061061968638,793e9,4172691849.307588,1000,547.1484151888261
57,1477.1381620110199,4.450757717887667,14,1481.5889197289075,0.0030040436038776806,1477e9,4450757717.887667,1000,57.84564807955792
58,1005.1124406078009,5.624388477852901,20,1010.7368290856538,0.005564641869180636,1005e9,5624388477.8529005,1000,121.6781542290939
59,1263.5923600098622,0.585662571607896,16,1264.17802258147,0.00046327539408726984,1263e9,585662571.6078961,1000,630.8486659314098
60,1210.230351935483,8.23437829471234,17,1218.4647302301953,0.00675799478673189,1210e9,8234378294.712339,1000,379.1577797614851
