app_id,Tcomp,Tio,iter,witer,alpha_io,compute_size,io_size,mu,desyn_time
1,11.779906928270528,0.031208622470387838,1694,11.811115550740915,0.0026423094699492724,11e9,31208622.47038784,10,11.769144166827356
2,6.273247668729686,0.028506986183608023,3174,6.301754654913294,0.004523658527610553,6e9,28506986.18360802,10,4.9815297988521685
3,10.796529542344597,0.05405192402990598,1844,10.850581466374503,0.004981477186030134,10e9,54051924.02990598,10,0.5035255358367695
4,10.48035998857008,0.04110616442417876,1901,10.52146615299426,0.003906885582907144,10e9,41106164.424178764,10,0.650907982143601
5,6.446121572769207,0.013697691921566908,3097,6.459819264690774,0.0021204450713409556,6e9,13697691.921566907,10,0.5595959059879244
6,16.06502028924019,0.06587023274328953,1240,16.13089052198348,0.004083483962247486,16e9,65870232.74328953,10,15.542846665303173
7,7.2861171305937456,0.02332707210960185,2737,7.3094442027033475,0.003191360582652029,7e9,23327072.109601848,10,2.278329182058588
8,8.872416301604218,0.03479692849995126,2246,8.907213230104169,0.00390660104356167,8e9,34796928.49995126,10,7.488645989068162
9,13.198643620822361,0.07251475068448864,1508,13.27115837150685,0.00546408600172971,13e9,72514750.68448864,10,10.44727374226656
10,1.7010623963090268,0.005945614700634067,11717,1.7070080110096608,0.003483061978787877,1e9,5945614.700634067,10,1.1029209357074206
11,19.327780417958166,0.03234270608113809,1034,19.360123124039305,0.0016705836979403511,19e9,32342706.08113809,10,4.781501085628995
12,8.492010501940058,0.010514395392437722,2353,8.502524897332496,0.0012366203591754742,8e9,10514395.392437723,10,4.855148633906434
13,6.437749620945378,0.004094675679048127,3105,6.441844296624426,0.000635637170118155,6e9,4094675.6790481266,10,4.72988574250579
14,6.385575906887729,0.01722689706323324,3124,6.402802803950962,0.0026905243829472743,6e9,17226897.063233238,10,5.057662563575975
15,18.209796590399204,0.10906959493290475,1092,18.31886618533211,0.00595394899604849,18e9,109069594.93290475,10,7.085418104188329
16,11.346523986795273,0.046074173471281656,1756,11.392598160266553,0.004044220012250801,11e9,46074173.471281655,10,5.307324439810662
17,6.633386628170579,0.006125154673109416,3013,6.639511782843689,0.0009225308838123674,6e9,6125154.673109416,10,0.57188433398614
18,11.78083220412105,0.0778828782046523,1687,11.858715082325702,0.006567564669862876,11e9,77882878.2046523,10,4.3257848749141115
19,17.161762603725414,0.08562925829542158,1160,17.247391862020837,0.0049647656283602635,17e9,85629258.29542157,10,9.054201347254322
20,10.583500483892943,0.06566495802643207,1879,10.649165441919374,0.006166206956269882,10e9,65664958.026432075,10,5.590752240957307
21,133.0676369171243,0.16165519119676144,151,133.22929210832106,0.0012133607305015847,133e9,161655191.19676143,100,75.2938627189055
22,82.58158786431339,0.5362276835208455,241,83.11781554783424,0.006451416943365732,82e9,536227683.5208455,100,37.101594997475225
23,63.357844744157774,0.2109143184845347,315,63.56875906264231,0.0033178926503299247,63e9,210914318.4845347,100,5.050459715243789
24,47.253743916554576,0.1281946502576216,423,47.381938566812195,0.0027055594206399397,47e9,128194650.25762162,100,4.585310027574824
25,90.79278359434207,0.5490259001475319,219,91.3418094944896,0.006010674664603105,90e9,549025900.147532,100,59.91388989812065
26,163.62903835114062,0.5477368386478543,122,164.1767751897885,0.0033362626231065264,163e9,547736838.6478543,100,88.91078404151753
27,119.60412694839711,0.35109784300285724,167,119.95522479139997,0.0029269074657932593,119e9,351097843.0028572,100,60.68808982895078
28,61.362838594300364,0.3945816770160796,324,61.75742027131644,0.006389218903292583,61e9,394581677.0160796,100,45.870103085392905
29,58.40262858770044,0.22200826464748674,342,58.624636852347926,0.003786944816504996,58e9,222008264.64748675,100,44.27287252316186
30,106.89210337826943,0.3007183445914825,187,107.19282172286091,0.002805396292010742,106e9,300718344.5914825,100,103.09760491380636
31,120.60660054727194,0.1031888084321727,166,120.70978935570412,0.0008548503728069552,120e9,103188808.4321727,100,44.378824936453356
32,77.74002812794255,0.11160133946045904,257,77.85162946740301,0.0014335132125550083,77e9,111601339.46045904,100,23.187161484568033
33,56.16995304379012,0.2328299745106058,355,56.40278301830073,0.0041279873447922,56e9,232829974.5106058,100,25.33847528719305
34,83.00911918846985,0.30257580706620973,241,83.31169499553606,0.0036318527318694224,83e9,302575807.06620973,100,53.47850261174645
35,116.75411321599611,0.3419416618048885,171,117.09605487780101,0.0029201808904811663,116e9,341941661.8048885,100,19.929509034165374
36,69.59392158303368,0.1476857298832272,287,69.7416073129169,0.0021176129368597764,69e9,147685729.8832272,100,36.264518174594194
37,83.71455639223676,0.5681454279627935,238,84.28270182019955,0.006740949396411369,83e9,568145427.9627936,100,44.74439408578617
38,124.25402004950708,0.5586331063548425,161,124.81265315586192,0.004475773026451412,124e9,558633106.3548425,100,82.29320050478734
39,70.8367799129729,0.020041450370898214,283,70.8568213633438,0.0002828443329136722,70e9,20041450.370898213,100,30.726790190349597
40,49.701585359508265,0.0035200934415400846,403,49.7051054529498,7.081955484174877e-05,49e9,3520093.441540085,100,12.513983646395635
41,1682.5470638445252,4.123628144146779,12,1686.670691988672,0.0024448329859131,1682e9,4123628144.146779,1000,1132.780890633219
42,1565.62238675235,2.962830674175216,13,1568.585217426525,0.001888855410123103,1565e9,2962830674.1752157,1000,537.0298599058893
43,1361.822257218455,1.1272770715458917,15,1362.9495342900009,0.0008270864351064344,1361e9,1127277071.5458918,1000,1135.7960765890257
44,1033.6343792686841,5.790918948967087,20,1039.4252982176513,0.005571269968988664,1033e9,5790918948.967087,1000,108.93616255796599
45,1011.44645615604,2.3902183888417454,20,1013.8366745448817,0.002357597085264972,1011e9,2390218388.8417454,1000,852.9110429322067
46,771.7500574986717,4.989064539012228,26,776.739122037684,0.006423089036540354,771e9,4989064539.012228,1000,314.3136191755746
47,1386.857024956266,5.6347167546844155,15,1392.4917417109505,0.004046499225741228,1386e9,5634716754.684416,1000,540.1341985539217
48,1009.4063418009267,1.4670485549526613,20,1010.8733903558793,0.0014512683476970195,1009e9,1467048554.9526613,1000,384.3339680721354
49,245.76714198270145,1.3003227098558898,81,247.06746469255734,0.005263026888117255,245e9,1300322709.8558898,1000,29.000314450001802
50,306.9320930823603,0.15575659367552772,66,307.08784967603583,0.0005072053285072792,306e9,155756593.67552772,1000,176.0837684202746
51,472.2324623065131,0.3661028430257717,43,472.5985651495389,0.0007746592351797132,472e9,366102843.0257717,1000,453.8277143832535
52,880.3070010150526,0.6724549066540053,23,880.9794559217066,0.0007633037321516916,880e9,672454906.6540053,1000,845.0428456625046
53,841.0414607015479,2.8618189025679333,24,843.9032796041158,0.0033911693101968316,841e9,2861818902.567933,1000,131.3645955124647
54,364.1181016249455,0.2439302370726732,55,364.36203186201817,0.0006694721615918757,364e9,243930237.0726732,1000,61.119641074136396
55,70.48840311761974,0.27431489338043646,283,70.76271801100017,0.0038765454619450004,70e9,274314893.3804365,1000,8.503808570800658
56,1018.7897044793482,4.336396297123228,20,1023.1261007764714,0.00423837911459032,1018e9,4336396297.123228,1000,983.0177675161874
57,1324.1574516039016,1.6126844781857035,16,1325.7701360820872,0.0012164133391565938,1324e9,1612684478.1857035,1000,208.93525330319216
58,1712.805142234628,5.4644568052335165,12,1718.2695990398615,0.003180209210642473,1712e9,5464456805.233517,1000,983.8486746970509
59,1859.149023593084,11.052346538879375,11,1870.2013701319634,0.0059097093582492185,1859e9,11052346538.879375,1000,541.5059222102831
60,1433.3139873267944,9.295334714735313,14,1442.6093220415298,0.006443417890562972,1433e9,9295334714.735313,1000,593.1746261556158
