app_id,Tcomp,Tio,iter,witer,alpha_io,compute_size,io_size,mu,desyn_time
1,5.423490168478164,0.03299112559890401,3666,5.456481294077068,0.006046227196767889,5e9,32991125.598904014,10,5.382553465015586
2,20.14599425822742,0.03910502379700535,991,20.185099282024428,0.0019373213503007048,20e9,39105023.797005355,10,15.880090461712612
3,7.888806237203805,0.0069332303976264945,2534,7.895739467601431,0.0008780976659723389,7e9,6933230.397626495,10,2.3158606034277076
4,13.58615953205864,0.07562255022579764,1464,13.661782082284438,0.005535335710255489,13e9,75622550.22579764,10,10.71121034048937
5,3.105252664885204,0.0024642227581751913,6436,3.107716887643379,0.0007929366950938194,3e9,2464222.7581751915,10,1.567863476213495
6,7.8851246948348175,0.040568565005936454,2524,7.925693259840754,0.005118614066418156,7e9,40568565.00593645,10,3.3199122606992364
7,14.577795515592976,0.0507297840468804,1368,14.628525299639858,0.003467867266711384,14e9,50729784.0468804,10,5.227111770478745
8,2.3867660128433084,0.004046717115728517,8366,2.3908127299590367,0.0016926114977637132,2e9,4046717.115728517,10,0.41204063427547405
9,5.972588725550225,0.01661249659835986,3340,5.989201222148585,0.0027737416029579047,5e9,16612496.598359859,10,5.499395804615474
10,11.774826655474573,0.01611037065812503,1697,11.7909370261327,0.0013663350607690471,11e9,16110370.65812503,10,7.771839051563887
11,6.985845534255168,0.03452037212749191,2849,7.0203659063826604,0.00491717562700076,6e9,34520372.127491914,10,1.1469142593751083
12,11.991230938787034,0.003779609471289883,1668,11.995010548258323,0.00031509846999164856,11e9,3779609.4712898834,10,3.5397961481941715
13,4.461309385427898,0.012833140302999384,4471,4.474142525730897,0.002868290455477379,4e9,12833140.302999385,10,3.210085561281128
14,10.845366212271754,0.001975455859970769,1844,10.847341668131724,0.00018211428388712392,10e9,1975455.8599707691,10,10.214811831224702
15,10.21187913166996,0.024065770775166237,1954,10.235944902445127,0.0023511039776520767,10e9,24065770.775166236,10,7.385225005820554
16,13.160693913554995,0.0776495153495008,1511,13.238343428904496,0.0058655009039848185,13e9,77649515.3495008,10,8.303057960950127
17,18.400733880725028,0.1032973183314798,1081,18.504031199056506,0.005582422404083862,18e9,103297318.3314798,10,13.354200990703886
18,14.012602390322224,0.06797137435061443,1421,14.080573764672838,0.004827315668140583,14e9,67971374.35061443,10,12.943196166854841
19,5.975419188861205,0.04012281557213337,3325,6.015542004433339,0.00666985876626971,5e9,40122815.57213337,10,2.7162007988212813
20,6.066070621307307,0.015472567583585643,3289,6.081543188890892,0.0025441844451338045,6e9,15472567.583585642,10,1.5731523413550828
21,97.71943292591013,0.5302155697272282,204,98.24964849563736,0.005396615436754175,97e9,530215569.72722816,100,12.940035635203625
22,87.98013966220665,0.5237938788802745,226,88.50393354108692,0.005918311852626406,87e9,523793878.88027453,100,29.592940996679964
23,18.19075613600873,0.0840903518122488,1095,18.27484648782098,0.004601425892594483,18e9,84090351.8122488,100,1.6874931361913543
24,64.25041546935523,0.027757881966061566,312,64.2781733513213,0.0004318399313301422,64e9,27757881.966061566,100,43.012525966219435
25,57.52972900391297,0.3849422963978277,346,57.91467130031079,0.006646714688265215,57e9,384942296.3978277,100,56.08063080623399
26,183.29631509469763,0.30101578444552823,109,183.59733087914316,0.001639543358305564,183e9,301015784.4455282,100,153.4912151175941
27,139.60445241168992,0.014006566664119481,144,139.61845897835403,0.00010032030697524754,139e9,14006566.664119482,100,2.6552943207102584
28,110.67573906128025,0.4428415283690978,180,111.11858058964935,0.003985305841913789,110e9,442841528.36909777,100,26.739229596425464
29,144.8174731780706,0.04055682037870427,139,144.8580299984493,0.0002799763353066339,144e9,40556820.37870427,100,118.11898609851615
30,185.0953520214399,0.11629840292426283,108,185.21165042436417,0.0006279216380707984,185e9,116298402.92426282,100,167.5595825390727
31,137.21769790057104,0.23581958273073358,146,137.45351748330177,0.0017156314880001642,137e9,235819582.73073357,100,54.296565105191526
32,59.474137253655655,0.2971096309438601,335,59.77124688459951,0.004970778533656665,59e9,297109630.9438601,100,19.262918566398763
33,140.88515671616975,0.0975037164238297,142,140.98266043259358,0.0006916007693758058,140e9,97503716.4238297,100,34.20758020067126
34,46.02757911472122,0.02863499708018631,435,46.05621411180141,0.0006217401415295423,46e9,28634997.08018631,100,29.77102741039985
35,58.524648536633045,0.1312949510910346,341,58.65594348772408,0.0022383912572902847,58e9,131294951.09103459,100,15.892165825479202
36,39.84255553382381,0.23877641640212308,499,40.08133195022594,0.005957297444572001,39e9,238776416.40212306,100,37.2031322776724
37,133.93731956360392,0.6061107260562602,149,134.5434302896602,0.004504944795530759,133e9,606110726.0562601,100,119.67827610066419
38,102.10999779126554,0.5733217847795693,195,102.68331957604511,0.005583397450985009,102e9,573321784.7795693,100,73.95615778993697
39,93.80816796689457,0.5344348968690902,212,94.34260286376366,0.005664830952786474,93e9,534434896.8690902,100,32.58082901456827
40,108.82331523030061,0.2820958775730776,184,109.10541110787369,0.0025855351692334154,108e9,282095877.57307756,100,16.366015441136827
41,712.520207567995,4.11131215386496,28,716.6315197218601,0.005736995988483241,712e9,4111312153.8649597,1000,643.3365111673347
42,1261.7126530793228,8.349679548728162,16,1270.0623326280509,0.00657422815733048,1261e9,8349679548.728162,1000,50.3992539861486
43,1029.2258213222287,1.9665790248886985,20,1031.1924003471174,0.0019070922402324858,1029e9,1966579024.8886986,1000,702.9969761360335
44,1606.524820111404,6.898861003048194,13,1613.4236811144524,0.004275914060145002,1606e9,6898861003.048194,1000,1302.800391293154
45,1727.7284431767487,10.75572477679474,12,1738.4841679535434,0.006186840797897999,1727e9,10755724776.794739,1000,658.7273376556233
46,1553.0855612822922,7.62616471959682,13,1560.711726001889,0.004886337811488698,1553e9,7626164719.59682,1000,191.509836855432
47,259.85688757095005,0.053004454549372505,77,259.9098920254994,0.00020393396394536732,259e9,53004454.5493725,1000,90.16964027786067
48,1527.6074778616728,0.18714156652745031,14,1527.7946194282003,0.0001224913114286859,1527e9,187141566.52745032,1000,1167.229076149165
49,894.0377380907124,3.7312737119799286,23,897.7690118026924,0.004156162289994446,894e9,3731273711.9799285,1000,697.336709270973
50,1021.2234737181074,2.2969404866295027,20,1023.5204142047369,0.002244156984806403,1021e9,2296940486.629503,1000,742.3467074943201
51,641.9331713575858,3.4497280013193845,31,645.3828993589052,0.005345242343337872,641e9,3449728001.3193846,1000,155.90793872678987
52,828.5351919015532,1.530425323571269,25,830.0656172251245,0.0018437401716353684,828e9,1530425323.571269,1000,26.589008461914712
53,1151.9586095813927,5.351488065871884,18,1157.3100976472647,0.004624074460899553,1151e9,5351488065.871883,1000,202.62518295390043
54,1527.9800475993843,0.02716550031307806,14,1528.0072130996973,1.777838486637144e-05,1527e9,27165500.313078057,1000,715.5533369633785
55,921.0210363247818,0.6547331986449454,22,921.6757695234268,0.0007103725846926517,921e9,654733198.6449454,1000,830.4524602911416
56,1564.4922244705829,2.6430704836885868,13,1567.1352949542716,0.0016865617743397903,1564e9,2643070483.6885867,1000,1436.715112325565
57,1309.2888243853554,8.428798579498006,16,1317.7176229648535,0.0063965135113950135,1309e9,8428798579.498006,1000,559.2653360789639
58,1219.7099181554067,3.181256775295345,17,1222.8911749307022,0.0026014226290214403,1219e9,3181256775.2953453,1000,359.42882903423816
59,534.8948178866877,3.1384445592287684,38,538.0332624459165,0.005833179430136528,534e9,3138444559.2287683,1000,28.872606632998814
60,1801.5824425142723,8.603241813645191,12,1810.1856843279174,0.004752684704187895,1801e9,8603241813.645191,1000,1266.9453131796229
