app_id,Tcomp,Tio,iter,witer,alpha_io,compute_size,io_size,mu,desyn_time
1,16.1979811554877,0.01932539071860916,1234,16.21730654620631,0.0011916523045024342,16e9,19325390.718609158,10,8.83639042208675
2,13.736536021737805,0.020658163634434793,1454,13.75719418537224,0.0015016262295984904,13e9,20658163.634434793,10,11.584498473214607
3,9.696996784071453,0.032044857264980346,2056,9.729041641336433,0.0032937321522840653,9e9,32044857.264980346,10,5.807181953609782
4,4.229985484187676,0.01968712972719307,4707,4.249672613914869,0.0046326226784460375,4e9,19687129.727193072,10,3.5689417009532676
5,13.919702926472969,0.07280383796512872,1430,13.992506764438097,0.0052030589794074215,13e9,72803837.96512872,10,7.851564158467179
6,14.097873219982764,0.03297886143620389,1416,14.130852081418968,0.0023338197333173326,14e9,32978861.43620389,10,1.1890174787306302
7,15.363899068423747,0.09461782812711407,1294,15.458516896550861,0.006120757169675534,15e9,94617828.12711407,10,10.455385782426902
8,12.219600007493455,0.07305712954452374,1627,12.292657137037978,0.005943151975206517,12e9,73057129.54452375,10,7.380427865498781
9,14.023448263388408,0.003988250290495865,1426,14.027436513678904,0.0002843178286072946,14e9,3988250.290495865,10,0.4546367652782276
10,9.189714870152494,0.006688834165359819,2175,9.196403704317854,0.0007273315070128237,9e9,6688834.165359819,10,3.536855648907634
11,11.368170413309745,0.06769594938142527,1749,11.43586636269117,0.005919617039446985,11e9,67695949.38142528,10,10.81921935386759
12,6.937853934700521,0.03169855005742179,2870,6.969552484757942,0.004548147119452061,6e9,31698550.05742179,10,2.8822540809921455
13,4.8293230797982,0.0050667454350194355,4138,4.834389825233219,0.0010480630685952197,4e9,5066745.435019435,10,4.490337700105747
14,8.056185201032259,0.020262799787622413,2477,8.07644800081988,0.0025088751621462103,8e9,20262799.787622415,10,1.9262317957453408
15,7.655736154227225,0.0012028172761103368,2613,7.656938971503335,0.00015708852853429234,7e9,1202817.2761103367,10,6.709556529349703
16,4.633383141468952,0.02283432240413305,4296,4.6562174638730855,0.004904049817539932,4e9,22834322.40413305,10,4.291013442891198
17,9.81696991794135,0.0013973670484007385,2037,9.818367284989751,0.00014232173311921455,9e9,1397367.0484007385,10,9.471915097702333
18,13.481511276320495,0.004484865670987305,1484,13.485996141991482,0.0003325572411386604,13e9,4484865.670987305,10,2.3121251511128587
19,10.213710689938049,0.05877599996432079,1947,10.272486689902369,0.005721691518188709,10e9,58775999.964320794,10,2.452197380205262
20,8.86670951187274,0.038214573695436856,2246,8.904924085568176,0.004291398031946118,8e9,38214573.69543686,10,8.406224814887592
21,80.23902168993177,0.4680444222850666,248,80.70706611221684,0.005799299179507871,80e9,468044422.2850666,100,65.6280941505842
22,103.5970957735096,0.3000676235706396,193,103.89716339708023,0.0028881214246805147,103e9,300067623.5706396,100,64.43117110436722
23,70.79619974199397,0.13230539396215865,282,70.92850513595613,0.001865334588802555,70e9,132305393.96215865,100,59.54529820059628
24,44.56189259117091,0.22922642467279553,447,44.791119015843705,0.0051176757738897434,44e9,229226424.67279553,100,18.05174735869671
25,126.18541139520744,0.11612933821872802,159,126.30154073342617,0.0009194609784201465,126e9,116129338.21872802,100,35.964932463716195
26,73.3335662019198,0.4116759387042239,272,73.74524214062401,0.005582406766245386,73e9,411675938.70422393,100,45.567866635260295
27,131.39001641730295,0.30143155274488515,152,131.69144797004782,0.002288922761434314,131e9,301431552.74488515,100,103.46466383833048
28,109.40139548128653,0.5491326028550815,182,109.95052808414161,0.0049943607586390845,109e9,549132602.8550814,100,100.63396622635852
29,99.15848324283319,0.44484859002164007,201,99.60333183285482,0.004466201901439845,99e9,444848590.02164006,100,28.381348308084185
30,128.7828206667024,0.04009859910019692,156,128.8229192658026,0.0003112691385099011,128e9,40098599.10019692,100,79.22282063618353
31,179.46645771859664,0.6351913450807861,112,180.10164906367743,0.0035268491342697558,179e9,635191345.0807861,100,76.61527358569063
32,40.79222193427014,0.20542613760477763,488,40.99764807187491,0.0050106810333274574,40e9,205426137.60477763,100,36.04888529953028
33,188.39833250768464,0.7555823317569479,106,189.1539148394416,0.003994537106981394,188e9,755582331.7569479,100,131.31144012577016
34,42.426119033064545,0.08007270638780555,471,42.50619173945235,0.0018837892342513864,42e9,80072706.38780555,100,16.42148982257426
35,9.758032056706112,0.017520561715545314,2046,9.775552618421656,0.0017922835055410047,9e9,17520561.715545315,100,5.9122875363907115
36,46.71212216238704,0.01664209644701399,429,46.728764258834055,0.00035614244696975504,46e9,16642096.447013991,100,15.570492597557267
37,119.65555890911003,0.4754008254123472,167,120.13095973452238,0.00395735476069563,119e9,475400825.4123472,100,81.29421272439151
38,113.70783025604175,0.560027145046409,176,114.26785740108815,0.004901003289846197,113e9,560027145.046409,100,110.09329285456947
39,144.32062699482748,0.73634935423178,138,145.05697634905925,0.005076276734597436,144e9,736349354.23178,100,68.77741874983157
40,106.00019987756654,0.278465379388017,189,106.27866525695457,0.002620143739242106,106e9,278465379.388017,100,24.568667122870266
41,1248.6421009427193,4.25042762370497,16,1252.8925285664243,0.003392491795420285,1248e9,4250427623.7049694,1000,484.3391279065669
42,811.3276579146374,0.45574932564819554,25,811.7834072402856,0.000561417394816614,811e9,455749325.64819556,1000,358.746947018834
43,1331.6399551951308,4.894606396760573,15,1336.5345615918914,0.003662162234645701,1331e9,4894606396.760573,1000,1237.1189001215046
44,235.7484746381197,1.3258189921917667,85,237.07429363031144,0.005592419877708126,235e9,1325818992.1917667,1000,165.87749054199764
45,1169.2805078324106,2.175236932140147,18,1171.455744764551,0.0018568665029487258,1169e9,2175236932.1401467,1000,194.10624915187165
46,1144.5592518131289,0.9479482116796287,18,1145.5072000248085,0.0008275357951998022,1144e9,947948211.6796287,1000,227.08923154960812
47,766.0692175821679,4.0770153957388615,26,770.1462329779067,0.0052938198242876025,766e9,4077015395.7388616,1000,743.6245860831121
48,633.1020293497826,3.167365942380376,32,636.2693952921629,0.0049780265494712055,633e9,3167365942.3803763,1000,633.2918801159933
49,230.90250000443845,1.0054260387264753,87,231.90792604316493,0.004335453539174576,230e9,1005426038.7264752,1000,104.91964870955624
50,878.5688504307941,5.486177951165031,23,884.0550283819591,0.0062056973548423825,878e9,5486177951.1650305,1000,459.4484968482402
51,942.414115295454,4.621421889222416,22,947.0355371846765,0.004879882230144038,942e9,4621421889.222416,1000,726.0017491527298
52,1078.6474212016847,5.511176213380542,19,1084.1585974150653,0.005083367162812447,1078e9,5511176213.380543,1000,561.8485576863578
53,969.5753677367762,2.3451642574366502,21,971.9205319942129,0.0024129177028751297,969e9,2345164257.4366503,1000,390.47509274692777
54,1011.2820202324509,0.574021410235114,20,1011.856041642686,0.0005672955307982602,1011e9,574021410.235114,1000,414.3886083686599
55,851.6464512511105,3.6372743111386288,24,855.2837255622492,0.004252710770040136,851e9,3637274311.138629,1000,368.6869197477483
56,110.53066628026382,0.07015334708391113,181,110.60081962734773,0.0006342931934888179,110e9,70153347.08391114,1000,14.20366977748169
57,951.5689023862807,5.101034914989294,21,956.66993730127,0.0053320740164357235,951e9,5101034914.989294,1000,218.042493847321
58,1373.9599205908353,5.570849761483859,15,1379.5307703523192,0.004038220735055526,1373e9,5570849761.483859,1000,538.0521106517607
59,1296.6630627391523,7.024764853708866,16,1303.6878275928611,0.005388379568350686,1296e9,7024764853.708865,1000,946.9013778063177
60,726.6093216346424,1.8553807633011041,28,728.4647023979435,0.0025469741460273972,726e9,1855380763.301104,1000,58.376867369409034
