app_id,Tcomp,Tio,iter,witer,alpha_io,compute_size,io_size,mu,desyn_time
1,7.28496979415452,0.029547398305157343,2735,7.314517192459678,0.004039555520577201,7e9,29547398.30515734,10,5.277160697210978
2,12.709623395882028,0.04204221497060894,1569,12.751665610852637,0.0032969979180467075,12e9,42042214.97060894,10,10.932579069493622
3,13.85816942437755,0.013441173499455209,1442,13.871610597877005,0.0009689699263553668,13e9,13441173.499455208,10,1.2572958197649347
4,21.028890800401495,0.10010745939203378,947,21.12899825979353,0.0047379179155184435,21e9,100107459.39203377,10,17.753344828186076
5,12.315393495542883,0.0644412835506206,1616,12.379834779093503,0.005205342777227212,12e9,64441283.55062061,10,0.8194535520909197
6,11.53917315460731,0.024703281783140265,1730,11.56387643639045,0.002136245740693088,11e9,24703281.783140264,10,0.40233102418098804
7,17.55204155738699,0.028882573446209595,1138,17.5809241308332,0.0016428359073318397,17e9,28882573.446209595,10,0.23123452340448308
8,5.7477870985083435,0.004195962284682195,3478,5.751983060793026,0.0007294809877454155,5e9,4195962.284682195,10,2.226594549933207
9,12.97852485224246,0.0016335899004733222,1541,12.980158442142933,0.00012585284746367302,12e9,1633589.9004733223,10,0.6750151432357046
10,11.073864502895763,0.00438317212960768,1806,11.07824767502537,0.00039565572626517774,11e9,4383172.12960768,10,1.8276334208947675
11,13.01254031740784,0.07288481424624832,1529,13.085425131654087,0.005569923293507482,13e9,72884814.24624832,10,6.95165043164981
12,6.498913984574084,0.00508769515869722,3076,6.504001679732782,0.0007822407510365602,6e9,5087695.15869722,10,0.3253332063015152
13,6.62050161502553,0.03831089299131117,3004,6.658812508016841,0.005753412180503202,6e9,38310892.99131117,10,0.34435767815460394
14,7.736830705281229,0.042937853028689986,2571,7.779768558309919,0.005519168431151611,7e9,42937853.02868999,10,2.291758811038974
15,5.655242573904114,0.009772783592270292,3531,5.665015357496384,0.001725111579677925,5e9,9772783.592270292,10,1.5031157925746352
16,12.375075827855905,0.07799043896309886,1607,12.453066266819004,0.006262749855503712,12e9,77990438.96309885,10,10.98049650910254
17,9.109336355731998,0.05608704908835178,2183,9.165423404820348,0.006119417141040539,9e9,56087049.08835178,10,1.968261890825962
18,7.620881777188768,0.045795814502715,2609,7.666677591691483,0.005973358596994446,7e9,45795814.502715,10,2.850740162740145
19,9.14467641364546,0.046575326191212324,2176,9.191251739836671,0.0050673539915510974,9e9,46575326.19121233,10,5.756163789334457
20,2.475042795834869,0.015735261046690006,8030,2.4907780568815587,0.00631740792930803,2e9,15735261.046690006,10,2.1218817165773634
21,105.98759794595739,0.09499681384943214,189,106.08259475980682,0.0008954985882889156,105e9,94996813.84943214,100,60.365199853393676
22,67.34786292760606,0.19598109726724144,297,67.5438440248733,0.0029015389943615084,67e9,195981097.26724145,100,6.865483194402899
23,122.01818926283654,0.5892643129351665,164,122.60745357577171,0.004806105140834686,122e9,589264312.9351665,100,25.783173462806204
24,181.4768571026902,0.7393682820015066,110,182.21622538469168,0.004057642399520489,181e9,739368282.0015066,100,82.72497204350867
25,79.38871994067516,0.27922904747435096,252,79.6679489881495,0.00350491070776638,79e9,279229047.4743509,100,49.89801739330087
26,38.37075033403105,0.25559684400305277,518,38.6263471780341,0.00661716322345916,38e9,255596844.00305277,100,10.974528329032049
27,14.386215965193308,0.05750365127759202,1385,14.4437196164709,0.003981221790820262,14e9,57503651.27759202,100,12.520797742415782
28,126.46801821463262,0.3559548124036609,158,126.82397302703629,0.0028066839723415588,126e9,355954812.4036609,100,79.25408422309705
29,179.70865274553736,0.7739050359222844,111,180.48255778145966,0.004287976885053792,179e9,773905035.9222845,100,19.551681847398168
30,90.51435179940958,0.39582156714915623,220,90.91017336655874,0.0043539853955966495,90e9,395821567.1491562,100,79.83227570949431
31,106.16935270695639,0.5225275603293539,188,106.69188026728574,0.004897538210220982,106e9,522527560.32935387,100,13.616912992083693
32,105.93318836618938,0.05845487902286319,189,105.99164324521225,0.000551504601996098,105e9,58454879.022863194,100,49.39863944380221
33,195.64003525480297,1.237231571116951,102,196.87726682591992,0.00628427848000815,195e9,1237231571.116951,100,95.10555482439051
34,101.04415560664988,0.4130328944076209,198,101.4571885010575,0.004071006702529667,101e9,413032894.4076209,100,57.01422315447804
35,100.46209754224418,0.5341129680567352,199,100.99621051030091,0.0052884456293759595,100e9,534112968.0567353,100,67.03013509606562
36,47.82061414752356,0.05317922392147965,418,47.87379337144504,0.0011108211857972195,47e9,53179223.92147965,100,8.524289510013872
37,70.16748971298829,0.13015047110072428,285,70.297640184089,0.0018514202007335976,70e9,130150471.10072428,100,20.59937561554438
38,160.06939275150222,0.36426288799156875,125,160.4336556394938,0.0022704892345661826,160e9,364262887.99156874,100,21.105603584559148
39,148.63823315501094,0.6415935902484005,134,149.27982674525933,0.0042979256088182425,148e9,641593590.2484004,100,133.64546417102957
40,119.93029467455645,0.08996209420328966,167,120.02025676875974,0.0007495575882379385,119e9,89962094.20328966,100,99.53021991736381
41,1011.3579895895926,5.350169438396958,20,1016.7081590279896,0.00526224697902682,1011e9,5350169438.396958,1000,254.9591624979664
42,1033.0408034146315,3.152322480292881,20,1036.1931258949244,0.0030422152024704163,1033e9,3152322480.292881,1000,948.9891079614031
43,1416.5779147709736,4.885550182699966,15,1421.4634649536736,0.0034369861084394375,1416e9,4885550182.6999655,1000,988.1833254547175
44,1008.3692919691136,4.500442334993564,20,1012.8697343041072,0.0044432587751134615,1008e9,4500442334.993564,1000,456.5880094394358
45,915.6880375255398,0.7967763735427968,22,916.4848138990826,0.0008693830617367247,915e9,796776373.5427969,1000,743.1755014547966
46,433.67404460315316,1.5843763038255143,46,435.2584209069787,0.0036400819093265046,433e9,1584376303.8255143,1000,293.01154193033807
47,2389.5838068817093,0.9052528157517342,9,2390.489059697461,0.00037868937825898374,2389e9,905252815.7517343,1000,1534.5712681654497
48,1364.9970847167647,1.9992272601220182,15,1366.9963119768868,0.0014624964548959377,1364e9,1999227260.1220183,1000,276.29136498463333
49,323.6766903119803,0.47804825155009084,62,324.1547385635304,0.0014747532418268173,323e9,478048251.55009085,1000,281.32093222174024
50,663.2469577278495,0.9737745761011932,31,664.2207323039506,0.0014660406228566639,663e9,973774576.1011932,1000,96.1609770943239
51,684.9310105558725,3.567036981740757,30,688.4980475376133,0.005180896292296147,684e9,3567036981.740757,1000,677.99498881679
52,72.92658745073119,0.36438126678136595,273,73.29096871751256,0.004971707608147614,72e9,364381266.78136593,1000,3.534292322504209
53,1887.232892984122,6.329695808159592,11,1893.5625887922815,0.0033427444361354254,1887e9,6329695808.159592,1000,1823.804118634822
54,647.3360790268513,1.7187028710156211,31,649.0547818978669,0.0026480089492447044,647e9,1718702871.0156212,1000,599.4478962793363
55,1442.3774635901957,0.781332003559286,14,1443.158795593755,0.0005414040408753665,1442e9,781332003.559286,1000,607.5915746303808
56,1080.0860701696824,1.282198000317182,19,1081.3682681699997,0.0011857181665659994,1080e9,1282198000.317182,1000,455.28808470173084
57,453.4286935531989,0.6892246375627288,45,454.11791819076166,0.0015177217413235953,453e9,689224637.5627288,1000,244.01801902765064
58,830.2973731923013,2.2771197889123744,25,832.5744929812137,0.002735034291957051,830e9,2277119788.9123745,1000,83.82933897200087
59,972.1617039716249,6.008689886391615,21,978.1703938580165,0.006142784451584811,972e9,6008689886.391615,1000,792.8064941082325
60,1040.312636745308,4.4959311385869,20,1044.808567883895,0.00430311473009141,1040e9,4495931138.5869,1000,64.45034687650457
