app_id,Tcomp,Tio,iter,witer,alpha_io,compute_size,io_size,mu,desyn_time
1,3.750020630031791,0.01494535061659475,5313,3.7649659806483857,0.003969584504458372,3e9,14945350.61659475,10,0.85431548209975
2,8.027353772410931,0.01876979700764083,2486,8.046123569418572,0.002332775136462038,8e9,18769797.00764083,10,3.055282514110621
3,6.58607786305973,0.009371517440680622,3033,6.59544938050041,0.0014209065827095447,6e9,9371517.440680621,10,6.110896187970577
4,9.726265148648887,0.028870449658307804,2051,9.755135598307195,0.0029595129014216553,9e9,28870449.658307802,10,0.27248404067033705
5,18.206644373726252,0.09046148493115054,1094,18.297105858657403,0.004944032440428171,18e9,90461484.93115054,10,8.916173132187653
6,11.250878934102829,0.03194121295673554,1773,11.282820147059564,0.0028309600383960563,11e9,31941212.95673554,10,3.141550905943129
7,10.939366541695358,0.037257499789131655,1823,10.97662404148449,0.003394258530521094,10e9,37257499.78913166,10,5.598620558334753
8,9.962555307569751,0.0024260281119146358,2008,9.964981335681665,0.00024345535934199326,9e9,2426028.1119146356,10,7.426110658035274
9,6.452322453248131,0.015057530554289718,3093,6.467379983802421,0.002328227287093284,6e9,15057530.554289717,10,2.717143543297757
10,9.381441602307746,0.03865747247131672,2124,9.420099074779062,0.0041037224942587335,9e9,38657472.47131672,10,2.382437001131581
11,8.409575409711714,0.003613679724976994,2378,8.41318908943669,0.00042952555642832344,8e9,3613679.724976994,10,1.6451729612104333
12,9.872892682769333,0.004941107981704961,2025,9.877833790751037,0.0005002218185055406,9e9,4941107.9817049615,10,3.5401273583261204
13,13.042974343101108,0.07752876712818564,1525,13.120503110229293,0.005908978221097403,13e9,77528767.12818564,10,6.0704952902138585
14,3.7358950332982763,0.009779174050217106,5340,3.745674207348493,0.002610791411338371,3e9,9779174.050217107,10,0.27578936616625327
15,12.268214670979948,0.0188289809373013,1628,12.28704365191725,0.0015324256567089886,12e9,18828980.9373013,10,0.8590686258788925
16,3.0286873353700243,0.014650363143026018,6572,3.0433376985130502,0.004813913076483121,3e9,14650363.143026019,10,1.0675644874128933
17,2.508982758742047,0.006642675223545526,7951,2.5156254339655924,0.002640566092971209,2e9,6642675.223545525,10,1.050853115609118
18,6.455933209084133,0.02523767478030014,3086,6.481170883864433,0.003893999283853482,6e9,25237674.78030014,10,5.5484079294740845
19,16.93630784609526,0.019807018817973646,1180,16.956114864913236,0.0011681342675355247,16e9,19807018.817973647,10,7.833047336718259
20,17.138853889119794,0.03764402035185694,1165,17.17649790947165,0.002191600438591086,17e9,37644020.35185694,10,3.0413585548894457
21,197.6505216949255,0.07387976619064784,102,197.72440146111614,0.00037365022043157783,197e9,73879766.19064784,100,140.5432943492691
22,80.34932730877672,0.31533191616744227,248,80.66465922494416,0.003909170623136176,80e9,315331916.16744226,100,68.26810915852694
23,37.2161584089615,0.1884458527700179,535,37.404604261731514,0.005038038939040882,37e9,188445852.77001792,100,0.25491980605137343
24,102.47375226406072,0.37528045547931205,195,102.84903271954003,0.0036488476902127778,102e9,375280455.47931206,100,101.43392673606986
25,115.95738852021006,0.36073585206523606,172,116.31812437227529,0.0031012866998328106,115e9,360735852.0652361,100,115.54340665917674
26,78.26440106369952,0.04297256871614782,256,78.30737363241568,0.000548767845514348,78e9,42972568.71614782,100,31.944476495199357
27,95.09292549511098,0.31514348522188607,210,95.40806898033286,0.003303111451578051,95e9,315143485.22188604,100,55.013164019592836
28,67.59648894236115,0.08676845538003525,296,67.68325739774119,0.0012819781245181471,67e9,86768455.38003525,100,29.10569398930331
29,76.77571974517944,0.24063620827185322,260,77.0163559534513,0.003124481875217438,76e9,240636208.27185324,100,25.378218417461376
30,112.52251386072099,0.6451544750835583,177,113.16766833580455,0.005700872736629859,112e9,645154475.0835583,100,27.195436714488952
31,42.881612931068204,0.2613746334253457,464,43.14298756449355,0.006058334115935347,42e9,261374633.42534572,100,40.32958208460111
32,168.59064321427132,0.10141543023272388,119,168.69205864450404,0.0006011867484908898,168e9,101415430.23272388,100,54.53283141063734
33,106.29229856985924,0.22956256644056716,188,106.5218611362998,0.002155074686001129,106e9,229562566.44056717,100,95.10007332190945
34,33.15515522584934,0.05955993890494259,603,33.21471516475428,0.0017931792763992895,33e9,59559938.904942594,100,19.703623079501096
35,76.4084344558898,0.4238345130068897,261,76.8322689688967,0.0055163607517365746,76e9,423834513.0068897,100,56.091874659576526
36,94.11605694018685,0.12927829762620963,213,94.24533523781307,0.001371720916478216,94e9,129278297.62620963,100,12.248761977105522
37,38.637339381981654,0.11461704726623824,517,38.75195642924789,0.0029577099539607105,38e9,114617047.26623824,100,9.435628537544892
38,53.05877335722436,0.0562151462389267,377,53.11498850346329,0.0010583669096579258,53e9,56215146.2389267,100,14.325179183004696
39,89.09355668262997,0.4971271916202217,224,89.59068387425019,0.005548871491125028,89e9,497127191.6202217,100,62.400064627307756
40,138.78448330422665,0.3480592602335864,144,139.13254256446024,0.0025016380339080643,138e9,348059260.23358643,100,85.03015289773953
41,1427.7652832402373,6.601985227997535,14,1434.367268468235,0.004602716035933959,1427e9,6601985227.997535,1000,1227.6002106587873
42,402.96820506118706,1.6609007973830583,50,404.62910585857014,0.004104748702787565,402e9,1660900797.3830583,1000,281.70681855695744
43,1199.4412987966368,6.77336887200411,17,1206.214667668641,0.005615392561172885,1199e9,6773368872.00411,1000,408.98511756701566
44,1048.49189923533,5.901598610420784,19,1054.3934978457507,0.005597150041685994,1048e9,5901598610.420784,1000,418.64917454353235
45,351.88154270379084,0.08469155495355717,57,351.9662342587444,0.00024062409035321562,351e9,84691554.95355716,1000,125.14807766821481
46,2188.4373673302453,12.093762559621402,10,2200.531129889867,0.005495837979909275,2188e9,12093762559.6214,1000,860.3567135052081
47,727.6023297136343,3.2493006986604733,28,730.8516304122948,0.00444591017307774,727e9,3249300698.6604733,1000,126.60356246892896
48,552.0182180034167,2.4037048603968754,37,554.4219228638135,0.004335515536580457,552e9,2403704860.3968754,1000,241.46936473202987
49,819.7026056623266,4.1076267045779336,25,823.8102323669045,0.004986132173639352,819e9,4107626704.577934,1000,683.4868287311457
50,980.2766308755023,3.7143849363770673,21,983.9910158118794,0.00377481590450536,980e9,3714384936.3770676,1000,920.8715445147798
51,1433.0179380367729,4.257478385914404,14,1437.2754164226874,0.002962186883089584,1433e9,4257478385.9144044,1000,668.8628097049467
52,234.54071556813668,1.0695066626521659,85,235.61022223078885,0.004539305012006418,234e9,1069506662.6521659,1000,3.132388814585193
53,872.8571582370114,5.353445465730807,23,878.2106037027422,0.006095856100073744,872e9,5353445465.730806,1000,287.8591382752868
54,1058.6699185396205,4.283141051657041,19,1062.9530595912777,0.004029473374208995,1058e9,4283141051.657041,1000,856.52008641957
55,1458.0630560961508,6.093935969116773,14,1464.1569920652676,0.004162078248536018,1458e9,6093935969.116773,1000,1354.084003579064
56,1129.9904315681858,3.762564132144361,18,1133.7529957003303,0.0033186806530290033,1129e9,3762564132.144361,1000,506.1486248244564
57,1965.6185560456695,8.195679477680818,11,1973.8142355233504,0.004152204057596008,1965e9,8195679477.680818,1000,1281.0230000750973
58,1032.1506395407876,6.331802759842925,20,1038.4824423006305,0.006097168812806881,1032e9,6331802759.842925,1000,276.5533646922502
59,912.7012800372524,5.321109351400031,22,918.0223893886525,0.005796274048330747,912e9,5321109351.400031,1000,708.2838812471191
60,1748.0809612271664,3.2183442088243552,12,1751.2993054359908,0.0018376894222676228,1748e9,3218344208.824355,1000,1237.03709920362
