app_id,Tcomp,Tio,iter,witer,alpha_io,compute_size,io_size,mu,desyn_time
1,15.515715928324976,0.011121133465399361,1289,15.526837061790376,0.0007162523456092093,15e9,11121133.465399362,10,14.769128016885649
2,11.702150854807343,0.024047880437259195,1706,11.726198735244601,0.002050782267997914,11e9,24047880.437259194,10,5.450912751010019
3,11.014782123685109,0.015871438652910356,1814,11.030653562338019,0.001438848438418938,11e9,15871438.652910355,10,9.866869997926827
4,11.451966366726014,0.03625004722851922,1741,11.488216413954532,0.0031554112424698865,11e9,36250047.228519216,10,0.6500994057301245
5,21.026527570882116,0.10510990321605024,947,21.131637474098167,0.004974053872771921,21e9,105109903.21605024,10,9.927665995682615
6,9.763058041876109,0.006111404822691922,2048,9.7691694466988,0.0006255807984533515,9e9,6111404.822691922,10,9.494339686441375
7,8.427870199810725,0.047316614921333024,2360,8.475186814732059,0.00558295834129397,8e9,47316614.92133302,10,0.18178230121304806
8,5.639315537004842,0.013811711392734618,3538,5.653127248397577,0.0024431983901741566,5e9,13811711.392734619,10,4.394833947289923
9,15.998115529671255,0.09955484742262855,1243,16.097670377093884,0.006184425764133531,15e9,99554847.42262855,10,15.626361701485985
10,4.220408829005315,0.024803295868508386,4712,4.245212124873824,0.0058426517071265525,4e9,24803295.868508387,10,3.7610953534138156
11,5.209210662760573,0.005183070736850625,3836,5.214393733497424,0.0009939929743997698,5e9,5183070.736850625,10,3.7084486649940858
12,13.52188494730497,0.06009507141308571,1473,13.581980018718056,0.004424617863541654,13e9,60095071.413085714,10,13.300305450439582
13,8.71095150785184,0.047329725521018384,2284,8.758281233372859,0.005403997001223431,8e9,47329725.521018386,10,1.638567931966093
14,11.058230550128615,0.02998183475205773,1804,11.088212384880672,0.002703937633169748,11e9,29981834.75205773,10,10.998882580678421
15,8.280059729476008,0.026140877236441623,2408,8.30620060671245,0.0031471521666977947,8e9,26140877.236441623,10,6.878683602805312
16,15.710819068866044,0.10047985467097499,1265,15.81129892353702,0.006354939917137272,15e9,100479854.67097498,10,13.429456924558936
17,14.720898487297555,0.06534795021318605,1353,14.78624643751074,0.004419509068062534,14e9,65347950.213186055,10,13.254951530565224
18,8.72992249404768,0.05296067992827409,2278,8.782883173975954,0.006029987975383616,8e9,52960679.928274095,10,8.164634026257954
19,4.251798333296668,0.01925992421778442,4683,4.271058257514452,0.004509403303946681,4e9,19259924.21778442,10,0.637719975105613
20,14.91044290888741,0.07301161594946363,1335,14.983454524836873,0.004872815933631202,14e9,73011615.94946364,10,13.080378255418614
21,53.2976550981913,0.13237480307473012,375,53.43002990126603,0.002477535635285008,53e9,132374803.07473013,100,52.27621239422776
22,153.0106560344438,0.7051431205846946,131,153.7157991550285,0.0045873171428106084,153e9,705143120.5846946,100,109.24178589894952
23,163.55237344823257,0.29351523200574137,123,163.84588868023832,0.0017914104184729698,163e9,293515232.00574136,100,79.10578397874397
24,33.330845445536156,0.17052574553086347,597,33.50137119106702,0.00509011241833389,33e9,170525745.53086346,100,24.88420123269286
25,81.15385451338928,0.08652520027402202,247,81.2403797136633,0.0010650516477026006,81e9,86525200.27402203,100,5.7164236066134135
26,108.162892574936,0.590866587720729,184,108.75375916265672,0.005433068174103333,108e9,590866587.720729,100,32.13167281357751
27,131.7882848229332,0.2371499112616222,152,132.02543473419482,0.0017962441232560467,131e9,237149911.2616222,100,92.6237337818252
28,110.84175426489864,0.5498107004392799,180,111.39156496533792,0.004935837831260979,110e9,549810700.4392799,100,48.9603466791964
29,40.82360143710256,0.0274086948969125,490,40.85101013199947,0.0006709428924364022,40e9,27408694.8969125,100,6.362706774726788
30,110.03596544002251,0.0033891193871531957,182,110.03935455940966,3.079915727171435e-05,110e9,3389119.3871531957,100,79.86993505834614
31,58.23642148906039,0.2612620883001961,342,58.49768357736059,0.00446619545122139,58e9,261262088.30019608,100,13.048561613172257
32,87.75926384051712,0.5758762176204806,227,88.3351400581376,0.006519220066232631,87e9,575876217.6204805,100,40.550016048799435
33,53.0357324909755,0.055375897485567246,377,53.091108388461066,0.0010430352495259406,53e9,55375897.48556725,100,38.38173091796916
34,154.82784302778907,0.29605127994534997,129,155.12389430773442,0.0019084827728605377,154e9,296051279.94535,100,122.960292920607
35,87.98218872626846,0.2651711181938293,227,88.2473598444623,0.0030048617733289544,87e9,265171118.19382933,100,49.75833016720503
36,180.83682078870547,0.4973304100337574,111,181.33415119873922,0.0027426185676888383,180e9,497330410.0337574,100,32.02692614704207
37,154.49058954920974,0.3806843586503957,130,154.87127390786014,0.0024580695247388607,154e9,380684358.6503957,100,135.57154361847606
38,107.46030750777592,0.5182525558221763,186,107.9785600635981,0.004799587580320868,107e9,518252555.82217634,100,43.2285135317182
39,100.61830964637143,0.10530317307630302,199,100.72361281944774,0.0010454666004193513,100e9,105303173.07630302,100,95.11208558158576
40,232.227112546042,0.3771873818793668,86,232.60429992792137,0.001621583874400638,232e9,377187381.8793668,100,5.747503317054809
41,401.1617774443927,0.46392709779531704,50,401.62570454218803,0.0011551230226266175,401e9,463927097.79531705,1000,285.90287674465395
42,572.7324853647744,0.8922456732429869,35,573.6247310380174,0.0015554518920904974,572e9,892245673.2429869,1000,38.89179579384634
43,437.54608432901887,2.501371907278075,46,440.04745623629697,0.005684323069771109,437e9,2501371907.278075,1000,283.2000153056909
44,287.8129676734683,0.38907452629426603,70,288.20204219976256,0.0013500061391812947,287e9,389074526.29426605,1000,37.26796834149714
45,1301.4452954333365,6.330990752766384,16,1307.7762861861029,0.004841034984071774,1301e9,6330990752.766384,1000,824.6114268486917
46,671.7607033728934,0.36631565311291636,30,672.1270190260063,0.0005450095632872373,671e9,366315653.11291635,1000,249.60243998079702
47,501.6925554028156,2.4274101964118127,40,504.1199655992274,0.004815143938063327,501e9,2427410196.411813,1000,10.914425577492624
48,305.9458841963554,1.1639392450597987,66,307.1098234414152,0.0037899772531432355,305e9,1163939245.0597987,1000,20.348381558728736
49,1106.4225800217105,6.413645935132276,18,1112.8362259568428,0.00576333317116602,1106e9,6413645935.132277,1000,694.9911595657038
50,1281.3716744089697,2.4796955323080416,16,1283.8513699412779,0.0019314506261121649,1281e9,2479695532.3080416,1000,1192.7246063899258
51,823.2837988937696,0.44651353560187645,25,823.7303124293715,0.0005420627708661159,823e9,446513535.60187644,1000,135.58371176782524
52,1975.129018798904,5.820266736458781,11,1980.9492855353628,0.0029381200109248736,1975e9,5820266736.458781,1000,1028.2321757541463
53,748.0193063430916,0.965661133944005,27,748.9849674770355,0.0012892930777994725,748e9,965661133.944005,1000,468.08412814209134
54,448.47747149357934,2.48129317890603,45,450.95876467248536,0.005502261788188331,448e9,2481293178.90603,1000,209.99255650736444
55,1151.151396332238,7.607118778961865,18,1158.7585151111998,0.006564887057793789,1151e9,7607118778.961864,1000,191.5094101145912
56,656.7645886792027,0.1503756873834188,31,656.9149643665861,0.00022891195290156743,656e9,150375687.3834188,1000,279.92775126991336
57,579.7220138406279,3.3096987535117854,35,583.0317125941398,0.005676704511982068,579e9,3309698753.5117855,1000,412.2322544432987
58,85.24187418759752,0.5414154421463655,234,85.78328962974388,0.006311432500236492,85e9,541415442.1463655,1000,16.20690232824586
59,140.67417975155522,0.47836729792188537,142,141.1525470494771,0.003389009323042587,140e9,478367297.9218854,1000,17.698660688748944
60,1220.8499665663342,3.3844025726300946,17,1224.2343691389642,0.0027645054394367582,1220e9,3384402572.6300945,1000,1124.9040334253068
