app_id,start_app,end_app,effective_cpu,effective_io,effective_iter,total_bytes,stretch,utilization,Tcomp,Tio,iterations,priority,group_id
app_1,5.42984,19213.5,7938.7,61.3,529.902,2.98623e+10,1.00395,0.993029,15,0.056344,1270,1,1
app_10,0.0492163,19871.3,7916.4,83.6,720.593,3.97306e+10,1.00551,0.993029,11,0.0551048,1788,1.00001,1.00001
app_11,3.03257,19475.2,7928.6,71.4,609.153,3.91621e+10,1.00405,0.993029,13,0.0643055,1483,1.00001,1.00001
app_12,9.3645,19731,7917.3,82.7,791.54,3.1594e+10,1.00643,0.993029,10,0.0398914,1951,1.00001,1.00001
app_13,13.4848,19125.9,7926.1,73.9,566.584,4.6405e+10,1.00345,0.993029,14,0.0818431,1353,1.00001,1.00001
app_14,7.90516,18680.6,7920.2,79.8,660.831,4.40654e+10,1.00449,0.993029,12,0.0666647,1543,1.00001,1.00001
app_15,2.79403,19812.1,7741.9,258.1,2580.15,3.71021e+10,1.02841,0.993029,3,0.0143806,6391,1.00002,1.00002
app_16,2.83142,16947.8,7842.9,157.1,1567.6,3.89977e+10,1.01498,0.993029,5,0.0248868,3321,1.00002,1.00002
app_17,3.38877,17977.7,7869,131,1310.28,1.21212e+10,1.01508,0.993029,6,0.00925282,2946,1.00002,1.00002
app_18,10.1522,19512.6,7927.2,72.8,721.21,1.87367e+10,1.0068,0.993029,11,0.025987,1758,1.00002,1.00002
app_19,1.60133,19672.9,7939.1,60.9,609.761,2.62978e+09,1.00734,0.993029,13,0.0043182,1503,1.00002,1.00002
app_2,7.74961,20138,7912.2,87.8,878.385,1.49448e+10,1.00919,0.993029,9,0.0170214,2209,1,1
app_20,6.74586,18512.4,7896.5,103.5,877.539,4.88693e+10,1.00688,0.993029,9,0.0556598,2029,1.00002,1.00002
app_21,43.1132,20164.1,7992.6,7.4,63.8277,4.04152e+09,1.00042,0.993029,125,0.0631488,159,1.00002,1.00002
app_22,86.6662,20407.5,7995.3,4.7,36.8977,2.78669e+09,1.00024,0.993029,214,0.0753159,94,1.00002,1.00002
app_23,40.7216,20157.7,7994.7,5.3,53.59,1.7822e+09,1.00044,0.993029,150,0.0336264,134,1.00002,1.00002
app_24,81.582,20058.3,7941.1,58.9,67.4625,4.55282e+10,1.00167,0.993029,117,0.669532,169,1.00002,1.00002
app_25,70.0768,19958.3,7958,42,74.8286,3.2758e+10,1.00116,0.993029,107,0.436773,185,1.00003,1.00003
app_26,1.70108,19923.2,7951.6,48.4,92.0314,3.42474e+10,1.00177,0.993029,86,0.372254,230,1.00003,1.00003
app_27,88.6302,20212.8,7966.6,33.4,81.0336,2.33239e+10,1.00126,0.993029,98,0.287949,203,1.00003,1.00003
app_28,26.8078,20092.6,7992,8,64.2611,4.65002e+09,1.00042,0.993029,123,0.0726566,162,1.00003,1.00003
app_29,34.917,20104.2,7949.6,50.4,36.2682,3.62154e+10,1.00178,0.993029,219,1.00598,91,1.00003,1.00003
app_3,2.28993,17200.2,7804.1,195.9,1948.3,5.32181e+10,1.01816,0.993029,4,0.0273194,4188,1,1
app_30,88.7277,20068.1,7970,30,87.7897,2.09011e+10,1.00114,0.993029,90,0.240242,220,1.00003,1.00003
app_31,70.2026,20125.4,7956.1,43.9,89.5081,2.87902e+10,1.00189,0.993029,88,0.323485,226,1.00003,1.00003
app_32,22.5739,19969.7,7961.5,38.5,105.456,2.68039e+10,1.00146,0.993029,76,0.255275,262,1.00003,1.00003
app_33,53.9296,19986,7949.2,50.8,41.4165,4.04145e+10,1.0013,0.993029,193,0.985719,103,1.00003,1.00003
app_34,27.9286,19635.9,7979,21,209.396,3.53736e+09,1.00219,0.993029,38,0.0168446,514,1.00003,1.00003
app_35,69.684,20069.2,7957,43,48.9795,3.35515e+10,1.00118,0.993029,162,0.684725,123,1.00004,1.00004
app_36,24.1662,19896.5,7982,18,162.986,7.82017e+09,1.00127,0.993029,49,0.0479765,403,1.00004,1.00004
app_37,42.0479,20119.4,7947.5,52.5,61.9454,4.20911e+10,1.0013,0.993029,128,0.678888,155,1.00004,1.00004
app_38,28.8114,19762.9,7960.7,39.3,172.258,2.57282e+10,1.0017,0.993029,46,0.149582,428,1.00004,1.00004
app_39,84.209,19955.8,7991.6,8.4,83.8969,2.69352e+08,1.00102,0.993029,95,0.00320658,210,1.00004,1.00004
app_4,11.393,19444.6,7914.7,85.3,717.274,4.33009e+10,1.00528,0.993029,11,0.0603918,1743,1,1
app_40,42.0716,20026.8,7934.1,65.9,78.8895,4.81369e+10,1.00223,0.993029,101,0.609328,197,1.00004,1.00004
app_41,1246.99,20505,7957.1,42.9,6.22484,3.48325e+10,1.00101,0.993029,1331,5.80542,15,1.00004,1.00004
app_42,271.42,20937.3,7967.8,32.2,11.0031,2.48668e+10,1.00092,0.993029,732,2.26062,28,1.00004,1.00004
app_43,191.767,21179.5,7994.8,5.2,4.42267,3.93861e+09,1.00016,0.993029,1791,0.984652,12,1.00004,1.00004
app_44,177.654,20221.9,7957.9,42.1,7.95157,2.66548e+10,1.00193,0.993029,1006,3.33185,20,1.00004,1.00004
app_45,1032.16,20478.8,7992.2,7.8,5.39804,6.7387e+09,1.00013,0.993029,1542,1.34774,13,1.00004,1.00004
app_46,72.9488,20523.7,7941.5,58.5,6.99588,3.62168e+10,1.00279,0.993029,1108,5.17383,18,1.00005,1.00005
app_47,1348.53,22333.4,7947.3,52.7,5.61316,4.06934e+10,1.0015,0.993029,1393,8.13869,15,1.00005,1.00005
app_48,236.022,20453.4,7964.7,35.3,14.3964,2.28455e+10,1.00156,0.993029,566,1.63182,36,1.00005,1.00005
app_49,930.478,20979.6,7939.2,60.8,8.08456,4.80826e+10,1.00159,0.993029,995,5.34251,20,1.00005,1.00005
app_5,9.03625,19146.4,7904.5,95.5,439.941,5.02986e+10,1.00568,0.993029,18,0.114315,1051,1.00001,1.00001
app_50,260.772,20552.9,7962.8,37.2,16.9018,3.22445e+10,1.00062,0.993029,469,2.01528,43,1.00005,1.00005
app_51,1339.04,22495.1,7992.4,7.6,5.09527,4.87197e+09,1.00034,0.993029,1527,0.974393,14,1.00005,1.00005
app_52,92.8352,20398.2,7984.4,15.6,20.3496,1.21824e+10,1.00043,0.993029,390,0.609118,52,1.00005,1.00005
app_53,665.528,20751.4,7953,47,11.1401,3.28763e+10,1.00177,0.993029,718,2.98876,28,1.00005,1.00005
app_54,60.9094,20048.1,7936.9,63.1,94.3432,4.26148e+10,1.00257,0.993029,84,0.453349,237,1.00005,1.00005
app_55,322.641,22204.5,7977.6,22.4,4.42809,1.35407e+10,1.00111,0.993029,1810,3.38517,12,1.00005,1.00005
app_56,39.5592,20027.2,7941.84,58.1615,68.0961,4.59056e+10,1.00153,0.993029,116,0.670627,171,1.00006,1.00006
app_57,641.428,21187.9,7947.8,52.2,12.4631,4.06919e+10,1.00144,0.993029,656,3.13015,31,1.00006,1.00006
app_58,1182,22814.8,7983.2,16.8,3.38968,1.26287e+10,1.00052,0.993029,2315,3.15717,9,1.00006,1.00006
app_59,48.274,20377,7982.9,17.1,8.64579,1.50493e+10,1.00026,0.993029,911,1.88116,22,1.00006,1.00006
app_6,12.0519,19245.4,7943.2,56.8,530.521,2.57361e+10,1.0039,0.993029,15,0.0484673,1272,1.00001,1.00001
app_60,29.9859,20475.5,7988.1,11.9,5.86054,8.24122e+09,1.00046,0.993029,1360,1.37354,15,1.00006,1.00006
app_7,12.3201,19583.8,7926.3,73.7,567.079,4.46035e+10,1.00365,0.993029,14,0.0786658,1385,1.00001,1.00001
app_8,0.0918808,19889.3,7901,99,989.418,1.83269e+10,1.01019,0.993029,8,0.0185308,2460,1.00001,1.00001
app_9,13.4313,19036,7940.5,59.5,567.735,2.33695e+10,1.00454,0.993029,14,0.041216,1351,1.00001,1.00001
