app_id,start_app,end_app,effective_cpu,effective_io,effective_iter,total_bytes,stretch,utilization,Tcomp,Tio,iterations,priority,group_id
app_1,9.59264,19798.1,7782.2,50.4283,648.873,3.26418e+09,1.02756,0.978523,12,0.00502956,1614,1,1
app_10,5.57578,19498.3,7777.7,46.2466,554.671,8.23032e+09,1.02749,0.978523,14,0.0148294,1356,1,1
app_11,0.317026,19689.6,7625.9,87.2309,1086.64,1.14926e+10,1.04748,0.978523,7,0.0105727,2686,1,1
app_12,4.03285,19644.8,7648.4,91.2257,954.035,3.6719e+10,1.04097,0.978523,8,0.0384895,2353,1,1
app_13,6.19911,19311.3,7757.8,67.8028,648.629,3.78985e+10,1.02621,0.978523,12,0.0583952,1569,1,1
app_14,2.70441,19174.1,7614.7,110.623,1090,5.581e+10,1.04296,0.978523,7,0.0512019,2622,1,1
app_15,2.7651,19965.3,7735.6,67.5765,702.651,2.80329e+10,1.03045,0.978523,11,0.0399329,1760,1,1
app_16,3.34029,20628.9,7417.2,154.286,1855.12,1.98262e+10,1.0757,0.978523,4,0.010688,4820,1,1
app_17,2.49952,20467,7424.3,164.963,1855.09,4.04789e+10,1.0717,0.978523,4,0.0218215,4770,1,1
app_18,1.84741,20955.1,7520.4,127.15,1504.28,2.3804e+10,1.06042,0.978523,5,0.0158271,3952,1,1
app_19,8.24127,19104.8,7811.3,51.0506,557.313,1.72389e+10,1.0219,0.978523,14,0.0309495,1333,1,1
app_2,4.84559,20574.2,7583.5,102.586,1266.12,5.97933e+09,1.05409,0.978523,6,0.00472301,3268,1,1
app_20,0.39129,20013.8,7703.4,67.5226,770.187,1.61643e+10,1.03633,0.978523,10,0.0209926,1934,1,1
app_21,17.6546,20100.3,7981.2,7.51002,64.7162,5.26331e+09,1.00169,0.978523,123,0.0809739,163,1,1
app_22,28.9413,20131,7922.8,51.2327,72.1577,4.8399e+10,1.00361,0.978523,109,0.672208,182,1,1
app_23,32.6943,20158,7939.3,46.9507,57.8268,4.51666e+10,1.00195,0.978523,137,0.778735,145,1,1
app_24,7.38725,20082.3,7976.6,6.3241,53.3613,4.64347e+09,1.00235,0.978523,150,0.0859901,133,1,1
app_25,141.619,20519.7,7956.2,23.4706,33.9225,2.25163e+10,1.00267,0.978523,231,0.682314,87,1,1
app_26,25.1184,19904.3,7938.7,27.9652,67.108,2.62596e+10,1.0044,0.978523,119,0.391934,167,1,1
app_27,82.9662,19943.8,7916.4,47.1905,94.7835,4.2025e+10,1.00522,0.978523,84,0.447074,235,1,1
app_28,62.0519,19858.5,7899,62.3297,123.101,5.66028e+10,1.00558,0.978523,64,0.456474,306,1,1
app_29,26.952,20028.9,7918.7,46.4669,91.2214,4.27607e+10,1.00484,0.978523,86,0.469898,229,1,1
app_3,7.99883,20497.4,7690.9,78.8582,854.445,2.63151e+10,1.03664,0.978523,9,0.0307779,2195,1,1
app_30,0.540716,20489.3,7518.2,125.524,1501.55,1.99064e+10,1.06127,0.978523,5,0.0132621,3863,1,1
app_31,6.5563,19684.7,7807.3,50.7217,558.093,1.62987e+10,1.02255,0.978523,14,0.0292091,1372,1,1
app_32,42.6674,20137.3,7887.47,56.9192,178.423,5.31046e+10,1.00748,0.978523,44,0.297341,449,1,1
app_33,9.07414,19904.9,7912,54.7724,111.826,4.89996e+10,1.0049,0.978523,71,0.441438,277,1,1
app_34,39.9651,20024.1,7913.7,24.8462,130.833,1.72614e+10,1.0087,0.978523,61,0.131767,325,1,1
app_35,113.054,20207.6,7987.5,7.95058,64.6694,6.23993e+09,1.00078,0.978523,123,0.0959989,163,1,1
app_36,41.3594,20243.4,7955.1,22.9928,45.5728,2.17495e+10,1.0029,0.978523,173,0.483323,116,1,1
app_37,8.25016,20150.7,7936.4,16.4975,184.263,5.1573e+09,1.00736,0.978523,43,0.0280288,464,1,1
app_38,19.6786,19958.9,7917.2,53.9337,183.606,4.35935e+10,1.00492,0.978523,43,0.238216,457,1,1
app_39,56.6795,19965.2,7968.2,16.1118,80.8213,1.21038e+10,1.00247,0.978523,99,0.149429,201,1,1
app_4,5.41835,18890,7551.4,122.909,1256.67,5.24225e+10,1.0521,0.978523,6,0.0417045,2980,1,1
app_40,191.764,20551.1,7940.1,51.3867,39.2689,4.97731e+10,1.00127,0.978523,201,1.27623,99,1,1
app_41,1102.62,22251.6,7975,25,5.06465,2.47194e+10,1.00004,0.978523,1498,4.94388,14,1,1
app_42,106.968,20248.2,7988.1,8.14367,17.2961,6.98019e+09,1.00062,0.978523,463,0.4106,44,1,1
app_43,1195.07,21741.3,7956.4,43.4797,5.0049,4.30423e+10,1.00007,0.978523,1576,8.60846,13,1,1
app_44,590.12,20769.2,7995.3,4.5542,8.61047,4.20779e+09,1.00006,0.978523,965,0.467533,21,1,1
app_45,141.038,20583,7950.1,49.452,17.0444,4.90035e+10,1.00011,0.978523,470,2.88256,43,1,1
app_46,302.594,20990.7,7983.1,16.8726,7.49417,1.67802e+10,1.00001,0.978523,1083,2.39717,19,1,1
app_47,43.976,21560.6,7963.9,30.0968,4.89533,2.99213e+10,1.00077,0.978523,1623,5.98426,13,1,1
app_48,690.588,20928.4,7973.5,26.108,9.17846,2.55853e+10,1.00011,0.978523,890,2.55853,23,1,1
app_49,261.704,20900.1,7972.3,25.8557,6.90559,2.5476e+10,1.00028,0.978523,1160,3.63942,18,1,1
app_5,6.23364,20249.9,7622.7,101.71,1088.15,3.65622e+10,1.04449,0.978523,7,0.033605,2768,1,1
app_50,162.792,20443.8,7952.9,45.9419,23.5194,4.45266e+10,1.00032,0.978523,333,1.93594,60,1,1
app_51,299.761,20633.7,7997.2,2.12618,10.0352,1.77211e+09,1.00013,0.978523,781,0.177211,26,1,1
app_52,218.072,20682.8,7955.9,42.9777,26.2947,4.15641e+10,1.00032,0.978523,300,1.53941,67,1,1
app_53,161.166,20768.7,7941.5,58.3198,8.25223,5.78462e+10,1.00008,0.978523,992,6.42735,21,1,1
app_54,509.362,21024.3,7976.9,22.1453,10.1041,2.18992e+10,1.00015,0.978523,778,2.18992,26,1,1
app_55,608.645,21042.3,7998.9,0.893473,8.42047,4.36991e+08,1.00008,0.978523,930,0.0485545,22,1,1
app_56,1076.79,21906.4,7970.4,21.1622,5.86826,2.08302e+10,1.0011,0.978523,1356,3.4717,15,1,1
app_57,1892.3,24151.6,7957.9,42.0294,3.61308,4.19715e+10,1.00002,0.978523,2179,10.4929,10,1,1
app_58,9.93507,21089.3,7972.9,26.5904,6.42983,2.64532e+10,1.00008,0.978523,1204,3.77903,17,1,1
app_59,660.223,20864.5,7953.2,37.7078,7.76383,3.72612e+10,1.00119,0.978523,998,4.65765,20,1,1
app_6,5.72459,19759.7,7808.5,53.0956,653.038,8.77383e+09,1.02337,0.978523,12,0.0134362,1602,1,1
app_60,409.953,20485.2,7989.5,9.9014,10.4123,9.3955e+09,1.00014,0.978523,745,0.854137,27,1,1
app_7,0.15313,15849.4,6649.7,547.938,6644.87,1.1263e+10,1.20103,0.978523,1,0.00169497,13260,1,1
app_8,9.12251,19280.8,7819,53.5413,487.985,3.3957e+10,1.01872,0.978523,16,0.0695841,1179,1,1
app_9,4.09254,18961.8,7529.3,130.757,1506.96,2.6827e+10,1.05874,0.978523,5,0.0178016,3575,1,1
