app_id,start_app,end_app,effective_cpu,effective_io,effective_iter,total_bytes,stretch,utilization,Tcomp,Tio,iterations,priority,group_id
app_1,4.26883,18350.7,7561.9,165.114,1890.72,3.43997e+10,1.05314,0.986625,4,0.0181913,4340,1,1
app_10,3.0905,18129.3,7629.8,142.857,1525.83,5.0656e+10,1.0416,0.986625,5,0.0331953,3466,1,1
app_11,6.8219,19076.7,7767.4,85.6219,863.041,4.05788e+10,1.02459,0.986625,9,0.0470206,2059,1,1
app_12,6.61685,19317.7,7783.6,79.648,972.97,3.05992e+09,1.0274,0.986625,8,0.00314483,2348,1,1
app_13,2.08588,18221.6,7253.46,319.306,3628.47,5.00876e+10,1.09536,0.986625,2,0.013802,8270,1,1
app_14,8.66347,19079.3,7873,48.9193,490.418,2.2463e+10,1.01324,0.986625,16,0.0458428,1174,1,1
app_15,6.11022,19351.7,7807.4,69.7877,709.191,3.20559e+10,1.02048,0.986625,11,0.0452128,1716,1,1
app_16,7.13493,19333.2,7736.9,99.6166,969.116,5.58338e+10,1.0266,0.986625,8,0.05762,2342,1,1
app_17,10.6975,19536.5,7857.7,56.1396,524.838,3.64157e+10,1.01341,0.986625,15,0.0693633,1281,1,1
app_18,10.6051,19804.4,7851.7,59.5502,560.884,3.74959e+10,1.01405,0.986625,14,0.0668376,1391,1,1
app_19,4.57108,18935.8,7834.1,59.4803,712.93,3.49941e+09,1.02072,0.986625,11,0.00490801,1683,1,1
app_2,7.21417,19635.8,7774.9,88.476,969.824,2.04623e+10,1.02625,0.986625,8,0.0210952,2383,1,1
app_20,2.49311,20140.5,7809.8,71.9185,783.057,1.87734e+10,1.0219,0.986625,10,0.0239763,1970,1,1
app_21,63.9378,20164.4,7962.2,12.2471,106.998,8.23861e+09,1.00371,0.986625,74,0.0769964,269,1,1
app_22,3.61453,20256.8,7935.5,46.6849,114.63,4.41278e+10,1.00255,0.986625,69,0.387086,289,1,1
app_23,47.5145,20134.3,7948.54,45.2509,74.5215,4.23182e+10,1.00114,0.986625,106,0.564243,188,1,1
app_24,25.8439,20147.3,7969.8,27.1283,45.0132,2.44965e+10,1.00071,0.986625,177,0.544367,113,1,1
app_25,59.5926,19836.1,7973.4,11.0096,109.92,5.11086e+09,1.00269,0.986625,73,0.0464624,271,1,1
app_26,15.3472,19983.7,7969.1,20.9272,73.075,1.58602e+10,1.00188,0.986625,110,0.217263,181,1,1
app_27,2.81211,19825.7,7859.1,73.7275,394.035,4.52415e+10,1.0121,0.986625,20,0.114535,977,1,1
app_28,44.5854,20052.2,7931.8,50.5673,71.4074,4.8266e+10,1.0025,0.986625,111,0.679803,178,1,1
app_29,82.9713,20278.9,7948.8,41.5805,60.4725,3.78246e+10,1.00167,0.986625,132,0.630411,151,1,1
app_3,3.31724,19983.3,7823.34,65.1551,653.799,3.2655e+10,1.01833,0.986625,12,0.0499616,1631,1,1
app_30,105.267,20063.6,7959.5,29.2656,72.0922,2.65767e+10,1.00174,0.986625,110,0.36912,181,1,1
app_31,47.0113,20089.6,7910.5,58.051,146.578,5.02045e+10,1.00494,0.986625,54,0.341527,366,1,1
app_32,80.171,20057.7,7960.3,24.5797,86.2649,1.81644e+10,1.0027,0.986625,92,0.211213,216,1,1
app_33,26.6545,20156.7,7939.2,54.8342,53.9346,5.35155e+10,1.00091,0.986625,146,0.991027,136,1,1
app_34,56.3329,20110,7937.3,29.244,97.3376,2.37155e+10,1.0049,0.986625,82,0.241995,244,1,1
app_35,5.22915,20028.1,7971.5,10.0983,112.889,2.58566e+09,1.00325,0.986625,71,0.022882,282,1,1
app_36,46.8499,19864.4,7940.6,49.3106,96.9648,4.53321e+10,1.00176,0.986625,82,0.467341,240,1,1
app_37,12.798,20125.6,7969.7,25.5844,64.0177,2.29107e+10,1.00092,0.986625,125,0.357979,160,1,1
app_38,26.2822,19942.7,7930.4,37.8525,128.439,3.05381e+10,1.00491,0.986625,62,0.238579,320,1,1
app_39,11.6633,20056.4,7955.9,28.6423,135.844,2.42815e+10,1.00248,0.986625,58,0.17854,341,1,1
app_4,6.28309,18492.4,7760.7,83.099,970.154,1.17947e+10,1.02927,0.986625,8,0.0121594,2248,1,1
app_40,134.757,20106.1,7948.6,48.5449,53.4052,4.55824e+10,1.00073,0.986625,149,0.844118,133,1,1
app_41,615.838,20713.9,7986.7,11.8704,6.78704,1.13362e+10,1.00025,0.986625,1188,1.61946,17,1,1
app_42,967.337,21340,7979.6,20.4,6.59059,2.02307e+10,1.00002,0.986625,1200,3.37178,17,1,1
app_43,546.671,21112,7956.6,42.2264,13.3532,4.16225e+10,1.00022,0.986625,602,2.97303,34,1,1
app_44,337.656,20578.2,7998.4,1.29701,12.7849,6.20258e+08,1.00012,0.986625,627,0.0477121,32,1,1
app_45,235.165,20635.1,7978.3,16.5143,14.8645,1.58458e+10,1.00073,0.986625,533,1.05639,38,1,1
app_46,309.16,21162.3,7976.4,23.1607,9.17896,2.2535e+10,1.00013,0.986625,849,2.50389,24,1,1
app_47,741.639,21052.6,7988.7,7.84796,10.4224,7.08052e+09,1.00053,0.986625,797,0.708052,26,1,1
app_48,873.625,20881.8,7989.5,8.96259,6.63184,8.41393e+09,1.00026,0.986625,1180,1.20199,17,1,1
app_49,1353.1,22714.2,7967,32.9135,5.6745,3.25083e+10,1.00006,0.986625,1420,6.50165,15,1,1
app_5,12.7316,20078.3,7853.5,57.9083,522.768,4.10421e+10,1.01336,0.986625,15,0.0784745,1312,1,1
app_50,268.004,20406.1,7944.3,54.3139,25.5593,5.22663e+10,1.00043,0.986625,307,2.01024,65,1,1
app_51,945.59,20688.6,7981.9,15.8765,7.97628,1.53372e+10,1.00035,0.986625,1006,1.91715,20,1,1
app_52,459.91,20334.4,7984.3,14.409,10.9814,1.41399e+10,1.0002,0.986625,713,1.28545,28,1,1
app_53,973.312,22163.7,7990.8,9.09494,6.57537,8.77033e+09,1.00005,0.986625,1167,1.46172,18,1,1
app_54,0.506021,20818.2,7984.33,15.6662,6.74744,1.53807e+10,1.00004,0.986625,1231,2.45445,17,1,1
app_55,675.004,21209.5,7995.5,2.51092,8.44905,1.87711e+09,1.00033,0.986625,933,0.208568,22,1,1
app_56,267.668,20712.2,7971.9,27.5062,4.21807,2.7224e+10,1.00011,0.986625,1871,6.80601,11,1,1
app_57,44.7861,20874.5,7980.3,18.6058,5.44562,1.83718e+10,1.00017,0.986625,1490,3.67436,14,1,1
app_58,114.838,20227.7,7981.5,15.9511,22.684,1.43296e+10,1.00052,0.986625,353,0.623027,57,1,1
app_59,150.424,19999.4,7957.4,37.6685,7.97255,3.70377e+10,1.0007,0.986625,1002,4.62972,20,1,1
app_6,14.8916,19263.7,7896.6,43.619,414.095,2.51094e+10,1.00988,0.986625,19,0.0606506,998,1,1
app_60,298.92,20826.6,7992.8,7.13311,6.25897,6.75099e+09,1.00006,0.986625,1286,1.12517,16,1,1
app_7,14.3977,20097,7848.6,84.5754,458.927,5.07605e+10,1.01274,0.986625,17,0.110589,1154,1,1
app_8,2.79134,19048.5,7728.2,106.171,1102.16,4.43352e+10,1.02927,0.986625,7,0.0402316,2624,1,1
app_9,4.28078,17463.3,7619.6,131.931,1520.07,2.09658e+10,1.04704,0.986625,5,0.0137933,3333,1,1
