app_id,start_app,end_app,effective_cpu,effective_io,effective_iter,total_bytes,stretch,utilization,Tcomp,Tio,iterations,priority,group_id
app_1,10.0257,19980.4,7780.3,62.3397,518.713,5.13194e+10,1.0215,0.980057,15,0.0988812,1298,1,1
app_10,3.0468,21098.1,7447.7,150.068,1863.77,1.3402e+10,1.07223,0.980057,4,0.00718992,4924,1,1
app_11,0.174137,20707.7,7527.6,135.019,1504.19,3.46134e+10,1.05789,0.980057,5,0.0229989,3898,1,1
app_12,2.09135,18734.5,7651.2,87.1487,956.8,2.59085e+10,1.04206,0.980057,8,0.0270726,2247,1,1
app_13,10.4214,19364.1,7753.9,56.2219,648.356,1.11477e+10,1.03026,0.980057,12,0.0172033,1568,1,1
app_14,0.654257,19330.6,7781.4,55.1755,599.831,1.80636e+10,1.02571,0.980057,13,0.030106,1455,1,1
app_15,0.762576,19777.6,7782.9,50.5839,558.034,1.54015e+10,1.02586,0.980057,14,0.0276012,1380,1,1
app_16,4.52792,17995.2,7437.2,156.719,1856.64,2.49811e+10,1.07207,0.980057,4,0.0134524,4186,1,1
app_17,8.25759,19955.1,7797.7,57.0729,555.782,3.08204e+10,1.0219,0.980057,14,0.0554324,1386,1,1
app_18,4.58019,18718.4,7708.6,83.4098,853.267,3.82599e+10,1.03268,0.980057,9,0.0448009,2004,1,1
app_19,4.15729,19652.6,7716.6,62.3059,699.518,1.55526e+10,1.03464,0.980057,11,0.022218,1729,1,1
app_2,6.20316,19209.7,7786.8,52.2104,519.068,2.67057e+10,1.02387,0.980057,15,0.051456,1250,1,1
app_20,0.877863,17170.9,7326.53,205.309,2441.94,2.16795e+10,1.0887,0.980057,3,0.00887778,5251,1,1
app_21,0.0164621,19998.8,7922.1,53.0219,67.7592,4.83078e+10,1.00371,0.980057,117,0.710409,170,1,1
app_22,4.68404,20143.9,7973.9,5.68713,54.3226,3.23696e+09,1.00287,0.980057,145,0.0599438,138,1,1
app_23,32.3039,20118.7,7932.2,39.4596,134.646,3.1678e+10,1.00454,0.980057,59,0.236403,338,1,1
app_24,25.8384,20358.6,7967.3,14.7805,50.4163,1.08061e+10,1.00274,0.980057,156,0.211885,129,1,1
app_25,65.3347,20097.6,7927.1,33.5351,109.474,2.95113e+10,1.00545,0.980057,72,0.270746,275,1,1
app_26,3.90944,18363.2,7436.8,163.775,1857.16,3.73041e+10,1.07036,0.980057,4,0.0200776,4289,1,1
app_27,15.8464,19871.5,7915.9,41.4924,192.522,3.83325e+10,1.00575,0.980057,41,0.199648,480,1,1
app_28,26.5039,20240.7,7952.4,37.7135,54.7907,3.38075e+10,1.00173,0.980057,145,0.614683,138,1,1
app_29,25.3843,19996.9,7980.6,8.15518,83.6921,3.46482e+09,1.002,0.980057,96,0.0412478,208,1,1
app_3,14.5792,19503.4,7852.8,34.0005,356.486,1.2914e+10,1.01707,0.980057,22,0.0361738,870,1,1
app_30,68.8209,20024.7,7963.8,20.0419,70.7264,1.53668e+10,1.00261,0.980057,113,0.216433,177,1,1
app_31,67.7198,19961.3,7931.4,45.7121,95.3885,3.87438e+10,1.00375,0.980057,83,0.40783,238,1,1
app_32,28.7233,20337.3,7963.8,14.3121,66.125,1.27165e+10,1.00294,0.980057,120,0.189798,167,1,1
app_33,2.76371,19674.9,7866.8,69.5007,245.298,5.16497e+10,1.0103,0.980057,32,0.210815,605,1,1
app_34,72.7556,19999.6,7921.7,47.7251,67.6655,4.47696e+10,1.00421,0.980057,117,0.658376,170,1,1
app_35,30.2365,20161.4,7982.7,4.04037,50.6427,4.33248e+08,1.00211,0.980057,158,0.00849506,127,1,1
app_36,114.514,20313,7953.9,31.746,46.9432,2.83158e+10,1.00223,0.980057,169,0.602464,118,1,1
app_37,98.2783,20002.4,7956.2,19.3528,64.2376,1.60137e+10,1.00349,0.980057,123,0.246364,162,1,1
app_38,154.657,20137.9,7936.7,53.6334,35.7904,5.09792e+10,1.00154,0.980057,225,1.41609,89,1,1
app_39,40.7908,20088.2,7942.6,33.3734,65.3183,3.03442e+10,1.00339,0.980057,123,0.459761,162,1,1
app_4,3.82263,20385.6,7713.3,86.8807,858.846,4.56858e+10,1.03106,0.980057,9,0.0532469,2185,1,1
app_40,63.7699,20226,7947.2,29.656,62.6292,2.51016e+10,1.00347,0.980057,127,0.404865,157,1,1
app_41,1006.35,21786.9,7982.6,13.2535,6.14936,1.26331e+10,1.0006,0.980057,1271,1.80472,16,1,1
app_42,344.069,20749.5,7966,33.9512,3.80758,3.37093e+10,1.00004,0.980057,2054,8.42733,10,1,1
app_43,502.183,21766.7,7992.6,0.632745,7.32395,9.0905e+07,1.00091,0.980057,1048,0.0129864,20,1,1
app_44,1008.38,22061.9,7996,4,4.6138,3.53735e+09,1.00006,0.980057,1754,0.70747,12,1,1
app_45,259.653,20691.9,7960,32.0097,13.3586,3.09962e+10,1.00113,0.980057,600,2.21402,34,1,1
app_46,157.029,21052.2,7965.5,31.2612,7.66801,3.09277e+10,1.00045,0.980057,1034,3.86596,20,1,1
app_47,173.983,20239.9,7939.8,52.4093,24.0439,5.06495e+10,1.0012,0.980057,331,2.11039,60,1,1
app_48,946.107,21165.2,7965.5,34.4999,5.36069,3.44293e+10,1.00001,0.980057,1462,6.88585,14,1,1
app_49,169.691,20617.4,7989.6,10.2882,5.58798,1.01903e+10,1.00003,0.980057,1470,1.69839,14,1,1
app_5,4.00923,18276.9,7583.7,123.117,1262.26,5.19499e+10,1.04772,0.980057,6,0.0411648,2888,1,1
app_50,616.915,22024.6,7971.7,27.9906,4.89194,2.77017e+10,1.00007,0.980057,1641,5.54033,13,1,1
app_51,479.147,21336.8,7967.6,31.6598,6.57975,3.13462e+10,1.00013,0.980057,1222,4.47803,17,1,1
app_52,39.6961,20468.2,7978.1,20.9403,6.2399,2.05081e+10,1.00017,0.980057,1273,3.41801,16,1,1
app_53,306.597,20486.4,7979.8,15.4597,25.5523,1.37912e+10,1.0008,0.980057,314,0.53043,64,1,1
app_54,679.248,21551,7961.4,37.8645,6.56371,3.75904e+10,1.00013,0.980057,1228,6.26506,17,1,1
app_55,206.598,20303.8,7946.5,51.8141,19.9908,5.03641e+10,1.00039,0.980057,398,2.51821,50,1,1
app_56,403.633,21127.5,7996.1,3.29069,12.526,2.55384e+09,1.00017,0.980057,643,0.21282,32,1,1
app_57,302.496,20621,7972.7,26.8137,8.77939,2.62044e+10,1.00014,0.980057,877,2.9116,23,1,1
app_58,31.3898,20735.4,7980.9,17.68,9.80946,1.71252e+10,1.00025,0.980057,824,1.9028,25,1,1
app_59,605.907,20851.9,7960.5,38.2594,11.4573,3.74777e+10,1.00025,0.980057,690,3.12314,29,1,1
app_6,7.38413,19401.7,7736.1,60.8716,773.054,2.22129e+07,1.03411,0.980057,10,2.8736e-05,1876,1,1
app_60,782.863,21837.7,7944.5,49.4204,5.7268,4.90298e+10,1.00081,0.980057,1401,8.17163,15,1,1
app_7,2.72288,19343.4,7298.67,217.727,2435.2,5.12808e+10,1.08844,0.980057,3,0.0210574,5911,1,1
app_8,3.07446,21301.2,7430.6,161.832,1861.25,3.38709e+10,1.07174,0.980057,4,0.0182004,4972,1,1
app_9,2.53708,19537.8,7521.1,131.912,1505.13,2.87246e+10,1.05963,0.980057,5,0.0190734,3680,1,1
