app_id,start_app,end_app,effective_cpu,effective_io,effective_iter,total_bytes,stretch,utilization,Tcomp,Tio,iterations,priority,group_id
app_1,5.30621,19900.6,7701.7,53.6792,641.071,8.48019e+09,1.03759,0.973053,12,0.0132296,1603,1,1
app_10,5.03513,20261.6,7751.2,52.5853,595.029,1.15022e+10,1.03057,0.973053,13,0.0193315,1512,1,1
app_11,0.0384457,18200.9,7281.2,193.912,2427.29,8.60026e+09,1.09742,0.973053,3,0.00354358,5552,1,1
app_12,3.09868,20050,7655.4,76.3449,696.733,4.91688e+10,1.03834,0.973053,11,0.0705435,1751,1,1
app_13,4.37287,19320.9,7637.3,84.0737,845.609,3.85105e+10,1.04224,0.973053,9,0.0455206,2055,1,1
app_14,11.5156,19908.7,7801.9,44.9327,489.143,1.50078e+10,1.02342,0.973053,16,0.0306907,1214,1,1
app_15,11.3304,19364.4,7790.5,54.1264,458.092,4.35371e+10,1.02118,0.973053,17,0.0950592,1112,1,1
app_16,4.51209,18427.5,7583.4,105.056,1083.68,4.33742e+10,1.04894,0.973053,7,0.04005,2501,1,1
app_17,8.35068,20533.4,7716.5,71.532,640.267,4.86236e+10,1.03025,0.973053,12,0.0758558,1654,1,1
app_18,2.45296,18359.8,7276.2,190.17,2425.15,3.66869e+09,1.09892,0.973053,3,0.00151286,5597,1,1
app_19,3.6817,21139.7,7459.2,129.743,1493.97,2.74221e+10,1.06857,0.973053,5,0.0183548,3962,1,1
app_2,8.75289,20309.3,7671.3,68.8281,767.893,2.07359e+10,1.04004,0.973053,10,0.0269999,1956,1,1
app_20,0.0328403,19250.6,7274.9,191.605,2420.97,1.0607e+10,1.09807,0.973053,3,0.00438126,5862,1,1
app_21,123.815,20247,7933,46.8269,52.1592,4.4014e+10,1.00288,0.973053,151,0.846422,132,1,1
app_22,124.691,20279,7922.4,56.5771,58.0453,5.24127e+10,1.00316,0.973053,135,0.903667,147,1,1
app_23,3.42442,20083.9,7893.4,48.922,125.088,4.12427e+10,1.00824,0.973053,63,0.329941,315,1,1
app_24,78.4812,20185.2,7976.2,7.56047,71.2201,4.59297e+09,1.00241,0.973053,112,0.0646898,178,1,1
app_25,3.63549,19990.7,7945.9,22.0917,69.2509,2.02601e+10,1.00425,0.973053,116,0.293625,172,1,1
app_26,51.2784,19990.3,7924.1,26.2778,89.5755,2.00976e+10,1.00702,0.973053,88,0.223307,225,1,1
app_27,7.62767,20062.5,7885.5,61.0828,101.932,5.57501e+10,1.0074,0.973053,78,0.54657,255,1,1
app_28,52.685,19950.4,7935.7,23.8181,107.698,2.11121e+10,1.00543,0.973053,74,0.195483,268,1,1
app_29,77.3914,20120.9,7937.1,47.8693,94.2839,4.43127e+10,1.00233,0.973053,84,0.471412,236,1,1
app_3,9.13621,20581.3,7757.8,54.6213,597.287,1.7879e+10,1.02885,0.973053,13,0.0299481,1531,1,1
app_30,14.4777,20038.8,7910.7,57.8121,95.1146,5.44006e+10,1.00438,0.973053,83,0.572638,239,1,1
app_31,182.335,20566.6,7981.3,14.7444,29.5694,1.3471e+10,1.00065,0.973053,265,0.464517,76,1,1
app_32,45.7849,20074.8,7911.3,33.8652,113.558,2.75471e+10,1.0077,0.973053,69,0.241641,286,1,1
app_33,47.2319,20234.7,7961.2,24.8139,88.9017,1.84203e+10,1.00255,0.973053,89,0.206969,223,1,1
app_34,44.6978,20068.6,7944.6,13.4969,114.221,9.58455e+09,1.00576,0.973053,69,0.0833439,287,1,1
app_35,23.3605,19679.9,7924.2,35.0446,124.714,2.58061e+10,1.00629,0.973053,64,0.206449,307,1,1
app_36,38.0378,20124.3,7953.9,19.515,65.2276,1.65662e+10,1.00371,0.973053,121,0.254864,165,1,1
app_37,105.337,20234.7,7985.4,5.87137,56.2414,3.83723e+09,1.00135,0.973053,140,0.068522,143,1,1
app_38,61.2195,20043.7,7923.7,42.1836,104.758,3.73407e+10,1.00489,0.973053,76,0.355626,260,1,1
app_39,3.47374,20053.9,7961.9,28.9943,56.9221,2.6571e+10,1.00144,0.973053,138,0.466158,145,1,1
app_4,9.91357,19919.7,7796.4,45.6596,518.121,1.04122e+10,1.02475,0.973053,15,0.0201008,1293,1,1
app_40,28.5414,19962.1,7939.9,13.0821,70.9894,8.54926e+09,1.00649,0.973053,112,0.120412,178,1,1
app_41,1426.36,22122.8,7988.6,6.91243,3.5026,6.80129e+09,1.00058,0.973053,2254,2.2671,9,1,1
app_42,400.056,20670.3,7969.3,27.2783,6.8049,2.68385e+10,1.00048,0.973053,1230,3.83406,17,1,1
app_43,49.3254,19899.1,7962.2,29.1694,26.9556,2.70069e+10,1.00135,0.973053,304,1.00026,66,1,1
app_44,273.767,20086.6,7974.7,24.5176,9.62671,2.41136e+10,1.00015,0.973053,847,2.67929,24,1,1
app_45,3.32744,17930.9,7389.3,150.951,1844.43,1.17831e+10,1.08092,0.973053,4,0.00638998,4156,1,1
app_46,892.19,21739.4,7944.2,52.981,7.54611,5.26711e+10,1.00039,0.973053,1037,6.58389,20,1,1
app_47,378.341,20231.8,7991,5.17048,9.70742,4.84129e+09,1.00052,0.973053,839,0.484129,24,1,1
app_48,802.007,21268,7941,58.2849,5.88609,5.81017e+10,1.00011,0.973053,1363,9.68362,15,1,1
app_49,196.537,21205.4,7987.9,7.08387,6.84174,6.73311e+09,1.00067,0.973053,1153,1.12219,18,1,1
app_5,1.55905,19708,7456.5,131.462,1491.45,3.1765e+10,1.06834,0.973053,5,0.0212902,3695,1,1
app_50,472.795,20461.6,7963.4,35.1087,14.2348,3.42002e+10,1.0003,0.973053,557,2.44287,36,1,1
app_51,393.598,21143.3,7987,11.5917,9.28761,1.09193e+10,1.00026,0.973053,862,1.21326,24,1,1
app_52,609.901,21983.5,7923.4,67.0885,4.16949,6.69631e+10,1.00121,0.973053,1967,13.3926,11,1,1
app_53,414.375,20996.7,7978.8,21.1548,4.72497,2.08119e+10,1.00005,0.973053,1691,5.20299,12,1,1
app_54,994.823,21989,7956.7,38.5649,7.01606,3.84537e+10,1.00061,0.973053,1158,5.49338,18,1,1
app_55,578.78,20684.8,7971.1,27.6233,5.84549,2.73902e+10,1.00019,0.973053,1355,4.56503,15,1,1
app_56,143.99,20474.2,7973.4,26.0565,3.95271,2.58599e+10,1.00009,0.973053,2041,6.46498,10,1,1
app_57,388.989,20791.6,7975.1,20.7363,11.0981,1.99758e+10,1.00062,0.973053,727,1.81598,28,1,1
app_58,22.5533,21912.3,7970.4,29.6,3.72157,2.92271e+10,1.00005,0.973053,2149,7.30678,10,1,1
app_59,547.743,21124.2,7960.7,39.2037,7.15967,3.89988e+10,1.00004,0.973053,1065,5.57126,19,1,1
app_6,0.480935,12017.9,4981.17,427.346,4974.18,5.62609e+10,1.58811,0.973053,1,0.0113087,10009,1,1
app_60,390.916,20759.4,7950.7,41.8577,15.1145,4.06565e+10,1.00108,0.973053,511,2.71044,39,1,1
app_7,10.8553,19891.1,7797.4,39.2061,484.873,3.80659e+09,1.02548,0.973053,16,0.00786486,1210,1,1
app_8,2.01278,20280.9,7566,103.136,1081.73,3.93611e+10,1.05189,0.973053,7,0.0363781,2750,1,1
app_9,1.42408,19607.2,7599,82.361,946.347,1.79614e+10,1.05029,0.973053,8,0.0189667,2339,1,1
