app_id,start_app,end_app,effective_cpu,effective_io,effective_iter,total_bytes,stretch,utilization,Tcomp,Tio,iterations,priority,group_id
app_1,1.75893,18358.1,7843.3,156.7,1565.39,3.7879e+10,1.01508,0.991847,5,0.0241884,3593,1,1
app_10,3.53959,18470.4,7919,81,792.353,2.69111e+10,1.00681,0.991847,10,0.0339787,1830,1.00001,1.00001
app_11,7.37936,20171.9,7901,99,986.062,2.69447e+10,1.00909,0.991847,8,0.0273273,2488,1.00001,1.00001
app_12,5.39932,17886.9,7868.2,131.8,1308.17,4.01791e+10,1.01159,0.991847,6,0.0306945,2927,1.00001,1.00001
app_13,1.33435,19917.2,7866.5,133.5,1311.09,4.48691e+10,1.0112,0.991847,6,0.0342251,3263,1.00001,1.00001
app_14,4.54992,19291.5,7901.2,98.8,987.345,7.43398e+09,1.01155,0.991847,8,0.00752427,2379,1.00001,1.00001
app_15,1.01426,18237.5,7896.8,103.2,983.963,4.51588e+10,1.00731,0.991847,8,0.0458931,2249,1.00002,1.00002
app_16,0.912614,18848.8,7842.8,157.2,1568,4.26568e+10,1.01453,0.991847,5,0.0272046,3693,1.00002,1.00002
app_17,3.70645,18870.5,7887.2,112.8,1128.25,1.40553e+10,1.0125,0.991847,7,0.0124604,2659,1.00002,1.00002
app_18,0.292897,18512.9,7898.8,101.2,879.621,5.02237e+10,1.00641,0.991847,9,0.0571373,2033,1.00002,1.00002
app_19,3.09708,19239.6,7920.6,79.4,794.686,7.67888e+09,1.00905,0.991847,10,0.00967114,1908,1.00002,1.00002
app_2,1.98825,17468.7,7618.9,381.1,3810.95,4.96165e+10,1.04323,0.991847,2,0.0130193,8319,1,1
app_20,1.69194,17605.4,7742.8,257.2,2571.57,4.54414e+10,1.02719,0.991847,3,0.0176677,5667,1.00002,1.00002
app_21,8.60211,19823.5,7988.4,11.6,112.974,3.88573e+09,1.00097,0.991847,71,0.034387,279,1.00002,1.00002
app_22,76.8254,19866.2,7987.9,12.1,95.4913,5.7063e+09,1.0008,0.991847,84,0.0600663,236,1.00002,1.00002
app_23,151.62,20226.7,7941.4,58.6,49.7371,4.51297e+10,1.00169,0.991847,159,0.902594,125,1.00002,1.00002
app_24,34.0282,19942.3,7937.8,62.2,129.478,4.43035e+10,1.00224,0.991847,61,0.340796,324,1.00002,1.00002
app_25,71.6553,20152.3,7952.3,47.7,80.5407,3.54888e+10,1.00153,0.991847,99,0.438133,202,1.00003,1.00003
app_26,31.5889,20101.4,7995.2,4.8,48.6055,1.08312e+09,1.00046,0.991847,164,0.022565,122,1.00003,1.00003
app_27,15.7757,19885.5,7927.3,72.7,255.834,5.02376e+10,1.00282,0.991847,31,0.19701,634,1.00003,1.00003
app_28,89.0133,20121.2,7967.2,32.8,53.2564,2.42672e+10,1.00107,0.991847,148,0.457871,135,1.00003,1.00003
app_29,99.4089,20127.5,7953.6,46.4,62.608,3.27464e+10,1.00171,0.991847,126,0.528168,157,1.00003,1.00003
app_3,0.646958,20197.2,7887.3,112.7,1127.04,2.68978e+10,1.01084,0.991847,7,0.0238668,2848,1,1
app_30,86.0745,20161.3,7947.4,52.6,91.6884,3.66343e+10,1.002,0.991847,87,0.398199,229,1.00003,1.00003
app_31,58.2758,20106.7,7973,27,102.847,1.87417e+10,1.00103,0.991847,77,0.181959,258,1.00003,1.00003
app_32,32.7912,20067.5,7964.7,35.3,77.0412,2.59167e+10,1.00117,0.991847,104,0.336581,192,1.00003,1.00003
app_33,12.8219,19888.1,7992.7,7.3,71.8519,2.66969e+09,1.00058,0.991847,112,0.037079,178,1.00003,1.00003
app_34,18.5174,20053.9,7963.4,36.6,70.4427,2.72501e+10,1.00117,0.991847,112,0.389288,178,1.00003,1.00003
app_35,37.9,19973.4,7977.3,22.7,95.3029,1.27831e+10,1.00124,0.991847,84,0.133157,237,1.00004,1.00004
app_36,26.7831,19991.3,7978.4,21.6,189.578,1.07095e+10,1.00136,0.991847,42,0.0563659,472,1.00004,1.00004
app_37,16.5464,20032.8,7922.2,77.8,344.233,4.91881e+10,1.00359,0.991847,23,0.142989,861,1.00004,1.00004
app_38,115.254,20227,7939,61,43.1911,4.86342e+10,1.00155,0.991847,182,1.13103,109,1.00004,1.00004
app_39,45.5394,19894.6,7960,40,111.709,2.93436e+10,1.00133,0.991847,71,0.261997,278,1.00004,1.00004
app_4,8.6916,18584.3,7911.9,88.1,881.158,5.38603e+09,1.01045,0.991847,9,0.00611355,2044,1,1
app_40,21.9549,20068.7,7978.5,21.5,161.935,1.2754e+10,1.00109,0.991847,49,0.0787284,407,1.00004,1.00004
app_41,943.922,21399.6,7972.9,27.1,5.85975,2.35785e+10,1.00044,0.991847,1363,3.92975,15,1.00004,1.00004
app_42,149.501,20697.8,7951.4,48.6,8.47968,4.08108e+10,1.00097,0.991847,924,5.10135,22,1.00004,1.00004
app_43,1169.52,21634.9,7949.9,50.1,6.21142,3.83445e+10,1.00147,0.991847,1278,6.39076,16,1.00004,1.00004
app_44,46.9843,20079.7,7987.6,12.4,47.4499,8.59917e+09,1.00048,0.991847,170,0.182961,118,1.00004,1.00004
app_45,415.435,21791.4,7973,27,4.86482,1.98698e+10,1.00089,0.991847,1606,3.97396,13,1.00004,1.00004
app_46,360.099,20655.7,7950.3,49.7,5.13478,4.2697e+10,1.00088,0.991847,1536,8.5394,13,1.00005,1.00005
app_47,41.7351,20338.4,7996.9,3.1,13.5553,1.73956e+09,1.00017,0.991847,585,0.124254,35,1.00005,1.00005
app_48,1014.04,21723.3,7934.8,65.2,7.59792,5.07032e+10,1.00182,0.991847,1022,6.3379,20,1.00005,1.00005
app_49,185.363,21819.7,7988.4,11.6,3.79189,8.44385e+09,1.00039,0.991847,2091,2.11096,10,1.00005,1.00005
app_5,1.52924,19279.8,7911.5,88.5,877.35,2.82256e+10,1.00759,0.991847,9,0.0321843,2115,1.00001,1.00001
app_50,693.505,20634.1,7995.8,4.2,10.5048,2.7158e+09,1.00019,0.991847,786,0.24689,26,1.00005,1.00005
app_51,329.507,21049.5,7948.3,51.7,7.90292,4.04261e+10,1.00141,0.991847,1044,5.05326,20,1.00005,1.00005
app_52,501.908,20827.4,7954.1,45.9,5.34968,3.10238e+10,1.00186,0.991847,1459,5.17064,14,1.00005,1.00005
app_53,342.544,21173,7947.5,52.5,7.08039,4.39061e+10,1.00108,0.991847,1134,6.27231,18,1.00005,1.00005
app_54,82.8067,21971.7,7958.8,41.2,6.21856,3.09472e+10,1.00128,0.991847,1244,5.15787,17,1.00005,1.00005
app_55,430.762,21323.3,7953.8,46.2,8.23871,3.90802e+10,1.00089,0.991847,994,4.88503,21,1.00005,1.00005
app_56,51.3689,20315.8,7949.8,50.2,7.44592,3.9461e+10,1.00134,0.991847,1050,4.93262,19,1.00006,1.00006
app_57,130.85,20300.6,7963.3,36.7,18.7247,2.97366e+10,1.00087,0.991847,428,1.56509,47,1.00006,1.00006
app_58,493.265,20744.4,7995.5,4.5,4.79625,3.97186e+09,1.00007,0.991847,1725,0.794373,12,1.00006,1.00006
app_59,254.145,20970.2,7987.5,12.5,6.75294,9.00919e+09,1.00044,0.991847,1160,1.50153,18,1.00006,1.00006
app_6,9.20633,19889.4,7938.6,61.4,613.867,1.43221e+10,1.00592,0.991847,13,0.0233258,1521,1.00001,1.00001
app_60,962.709,20524.9,7984.7,15.3,7.75287,1.25828e+10,1.00034,0.991847,1052,1.57285,19,1.00006,1.00006
app_7,1.84168,19754,7943.2,56.8,496.297,3.16525e+10,1.00315,0.991847,16,0.0638156,1226,1.00001,1.00001
app_8,6.83037,17757.1,7868.5,131.5,1310.79,3.36156e+10,1.01239,0.991847,6,0.0256412,2909,1.00001,1.00001
app_9,2.31561,19556.1,7926.3,73.7,720.094,2.59196e+10,1.00601,0.991847,11,0.0359994,1759,1.00001,1.00001
