app_id,start_app,end_app,effective_cpu,effective_io,effective_iter,total_bytes,stretch,utilization,Tcomp,Tio,iterations,priority,group_id
app_1,11.3178,19914.2,7921.4,78.6,661.072,3.88862e+10,1.00499,0.992635,12,0.0588293,1645,1,1
app_10,10.9726,20003.4,7939.9,60.1,566.477,2.7548e+10,1.00409,0.992635,14,0.0485855,1414,1.00001,1.00001
app_11,2.49082,19729.5,7887.5,112.5,1124.77,7.57084e+09,1.01329,0.992635,7,0.00672964,2772,1.00001,1.00001
app_12,3.28901,20098.1,7882.1,117.9,1124.64,5.13409e+10,1.00839,0.992635,7,0.0456769,2825,1.00001,1.00001
app_13,4.66649,18568.3,7905.7,94.3,791.574,4.9558e+10,1.00562,0.992635,10,0.0625733,1839,1.00001,1.00001
app_14,4.10874,19942.2,7901.2,98.8,988.036,3.01509e+09,1.01212,0.992635,8,0.00305171,2461,1.00001,1.00001
app_15,6.58933,19940,7927.8,72.2,721.988,7.38877e+09,1.00817,0.992635,11,0.0102337,1802,1.00002,1.00002
app_16,10.6565,18903.5,7909.3,90.7,721.537,5.70744e+10,1.00422,0.992635,11,0.07916,1703,1.00002,1.00002
app_17,6.0773,17825.4,7867.8,132.2,1307.96,3.97734e+10,1.01169,0.992635,6,0.0304078,2915,1.00002,1.00002
app_18,9.93079,19214.2,7938.7,61.3,610.648,1.76146e+10,1.00549,0.992635,13,0.0288292,1465,1.00002,1.00002
app_19,1.74588,17616.4,7804.9,195.1,1950.35,1.94677e+10,1.02245,0.992635,4,0.00997833,4299,1.00002,1.00002
app_2,1.5074,18161.8,7911.2,88.8,879.818,2.71337e+10,1.00777,0.992635,9,0.0308337,1995,1,1
app_20,0.0639576,18438.9,7887.6,112.4,1124.14,1.10537e+10,1.01283,0.992635,7,0.00983425,2592,1.00002,1.00002
app_21,51.0497,20183.3,7985.2,14.8,147.21,2.51319e+09,1.00154,0.992635,54,0.016981,371,1.00002,1.00002
app_22,12.8969,19919.4,7930.3,69.7,144.794,5.13855e+10,1.00229,0.992635,55,0.354383,360,1.00002,1.00002
app_23,74.951,20092.6,7928.5,71.5,83.9307,5.27948e+10,1.00234,0.992635,95,0.628509,208,1.00002,1.00002
app_24,77.5386,20015.5,7955.7,44.3,52.3902,3.52477e+10,1.00113,0.992635,151,0.665052,132,1.00002,1.00002
app_25,41.8488,19854.8,7991.8,8.2,73.4742,3.16144e+09,1.00063,0.992635,110,0.0427221,181,1.00003,1.00003
app_26,23.9851,20041.7,7949,51,74.5613,3.9743e+10,1.00141,0.992635,107,0.529906,185,1.00003,1.00003
app_27,15.4968,20133.9,7970.8,29.2,60.2239,2.2703e+10,1.00081,0.992635,132,0.378384,151,1.00003,1.00003
app_28,95.2991,20186.2,7968.4,31.6,66.9342,2.26598e+10,1.00112,0.992635,118,0.338206,169,1.00003,1.00003
app_29,13.7262,19870.5,7992.8,7.2,72.181,3.35157e+09,1.00048,0.992635,111,0.0465496,180,1.00003,1.00003
app_3,1.35929,18291.7,7868.8,131.2,1312.25,2.20727e+10,1.01383,0.992635,6,0.0168237,2994,1,1
app_30,111.988,20120,7939.6,60.4,47.6544,4.8008e+10,1.00155,0.992635,167,1.02145,119,1.00003,1.00003
app_31,132.677,20086.6,7969.7,30.3,52.4028,2.3697e+10,1.00083,0.992635,155,0.447114,129,1.00003,1.00003
app_32,104.771,20069.4,7952.9,47.1,56.8455,3.77505e+10,1.00117,0.992635,141,0.662289,141,1.00003,1.00003
app_33,78.4795,20159,7990.5,9.5,95.2693,3.75395e+08,1.00114,0.992635,83,0.00395152,240,1.00003,1.00003
app_34,19.7777,19990.8,7972.5,27.5,120.246,1.66073e+10,1.00136,0.992635,66,0.138394,302,1.00003,1.00003
app_35,30.4883,20057.1,7985.5,14.5,65.6326,9.2033e+09,1.00066,0.992635,122,0.139444,164,1.00004,1.00004
app_36,83.1212,19975.1,7955.9,44.1,71.279,3.20617e+10,1.00151,0.992635,112,0.451574,178,1.00004,1.00004
app_37,2.91472,19398.3,7942.6,57.4,258.403,2.89566e+10,1.00357,0.992635,31,0.111802,624,1.00004,1.00004
app_38,64.5724,19927.8,7947.3,52.7,104.172,3.80852e+10,1.00183,0.992635,77,0.366204,257,1.00004,1.00004
app_39,28.872,20071.8,7930.5,69.5,96.8482,5.38552e+10,1.00196,0.992635,82,0.555209,242,1.00004,1.00004
app_4,1.05672,20268.1,7805.2,194.8,1948.43,3.76932e+09,1.02446,0.992635,4,0.00193497,4941,1,1
app_40,67.6242,20234.3,7960.6,39.4,63.8013,2.79498e+10,1.00143,0.992635,124,0.436715,161,1.00004,1.00004
app_41,1307.5,21655.2,7924.6,75.4,3.99482,5.0844e+10,1.00308,0.992635,1992,12.711,10,1.00004,1.00004
app_42,460.765,20581,7982.8,17.2,16.6684,1.30984e+10,1.00051,0.992635,470,0.818647,43,1.00004,1.00004
app_43,190.627,20168.1,7932.4,67.6,31.5193,5.47284e+10,1.00161,0.992635,254,1.76543,78,1.00004,1.00004
app_44,693.182,20862.7,7967.2,32.8,11.3787,2.13413e+10,1.00143,0.992635,716,1.94012,28,1.00004,1.00004
app_45,738.322,21854.7,7954,46,4.61953,3.99916e+10,1.00075,0.992635,1770,7.99831,12,1.00004,1.00004
app_46,1170.37,20724.3,7983.5,16.5,4.901,1.41071e+10,1.0003,0.992635,1703,2.82142,12,1.00005,1.00005
app_47,715.897,20967.9,7987.6,12.4,10.9704,1.01684e+10,1.00028,0.992635,726,0.924402,28,1.00005,1.00005
app_48,194.945,21305.9,7928,72,8.36744,5.02663e+10,1.00272,0.992635,939,6.28328,22,1.00005,1.00005
app_49,797.714,21757.6,7971,29,8.70353,2.36969e+10,1.00066,0.992635,896,2.63299,23,1.00005,1.00005
app_5,10.4069,19084.6,7927.4,72.6,608.987,4.08522e+10,1.00398,0.992635,13,0.0670807,1454,1.00001,1.00001
app_50,328.263,21301.1,7968.6,31.4,7.12144,2.40058e+10,1.00093,0.992635,1080,3.4294,19,1.00005,1.00005
app_51,119.895,20875.3,7968.4,31.6,11.8265,2.52082e+10,1.0008,0.992635,660,2.29165,31,1.00005,1.00005
app_52,689.362,20728.1,7990.9,9.1,11.3035,6.39118e+09,1.00034,0.992635,690,0.532598,29,1.00005,1.00005
app_53,76.2813,20647.2,7959.6,40.4,8.12709,3.26499e+10,1.00097,0.992635,990,4.08123,21,1.00005,1.00005
app_54,349.624,20317.8,7951.8,48.2,5.62327,3.92485e+10,1.00112,0.992635,1441,7.84969,14,1.00005,1.00005
app_55,460.313,20451.4,7938.6,61.4,6.96235,4.00075e+10,1.00268,0.992635,1178,5.71536,17,1.00005,1.00005
app_56,140.738,20155.6,7937.6,62.4,32.1284,5.18642e+10,1.00132,0.992635,249,1.62076,80,1.00006,1.00006
app_57,1567.16,22486.4,7977.9,22.1,4.25164,1.93102e+10,1.00035,0.992635,1870,4.82755,11,1.00006,1.00006
app_58,204.202,20977.6,7973.2,26.8,10.0211,2.30481e+10,1.00047,0.992635,788,2.30481,26,1.00006,1.00006
app_59,149.4,20236.1,7981,19,32.9294,1.43305e+10,1.00058,0.992635,242,0.434259,83,1.00006,1.00006
app_6,2.36123,20180.4,7921,79,790.158,7.40726e+09,1.00903,0.992635,10,0.00937628,1996,1.00001,1.00001
app_60,66.0508,19990.6,7963.6,36.4,10.0932,3.17143e+10,1.00059,0.992635,799,3.17143,25,1.00006,1.00006
app_7,11.7449,19309.9,7933.9,66.1,661.086,5.58656e+09,1.00762,0.992635,12,0.00845167,1594,1.00001,1.00001
app_8,10.4673,19978.5,7922.1,77.9,661.623,3.5573e+10,1.00532,0.992635,12,0.053817,1646,1.00001,1.00001
app_9,7.22917,19079.1,7939,61,610.629,1.13178e+10,1.00625,0.992635,13,0.0185538,1456,1.00001,1.00001
