app_id,start_app,end_app,effective_cpu,effective_io,effective_iter,total_bytes,stretch,utilization,Tcomp,Tio,iterations,priority,group_id
app_1,8.26237,20148,7735.1,82.852,860.874,3.23549e+10,1.02994,0.986119,9,0.0375782,2172,1,1
app_10,4.33875,19659.1,7595.4,126.85,1519.56,1.98865e+09,1.05299,0.986119,5,0.00130832,3733,1,1
app_11,6.76985,20148.8,7841.3,59.4147,560.971,3.77674e+10,1.01535,0.986119,14,0.0673215,1412,1,1
app_12,6.02634,17820.1,7642.4,122.857,1275.56,4.98358e+10,1.04001,0.986119,6,0.0390563,2842,1,1
app_13,5.01961,19714.8,7887,29.8709,359.204,5.43553e+08,1.01426,0.986119,22,0.00150987,883,1,1
app_14,8.61361,20212.9,7864.8,44.566,490.795,1.29231e+10,1.01552,0.986119,16,0.02632,1240,1,1
app_15,11.1088,19095.8,7828.6,65.0902,653.62,3.10383e+10,1.01786,0.986119,12,0.0474592,1557,1,1
app_16,1.7462,17069.7,7493.8,169.268,1870.99,3.91021e+10,1.06201,0.986119,4,0.020899,3998,1,1
app_17,6.10995,19168.2,7874.6,46.7558,492.447,1.67335e+10,1.01377,0.986119,16,0.0340112,1180,1,1
app_18,10.9381,19879.5,7785,67.2417,648.989,3.86117e+10,1.02255,0.986119,12,0.0594941,1616,1,1
app_19,8.51357,19879.5,7887.1,42.6405,465.183,1.12538e+10,1.01287,0.986119,17,0.0242016,1150,1,1
app_2,4.98255,20541,7575.8,138.364,1515.57,3.9456e+10,1.05052,0.986119,5,0.0260264,3895,1,1
app_20,2.16804,18810.6,7700.2,109.04,1103.32,4.88232e+10,1.03239,0.986119,7,0.0442239,2588,1,1
app_21,17.8234,20026.4,7940,29.5595,144.152,2.39518e+10,1.00453,0.986119,55,0.166332,361,1,1
app_22,46.4815,20177.7,7934.3,51.8624,87.4044,4.67585e+10,1.00237,0.986119,90,0.537453,220,1,1
app_23,75.5266,20084.2,7945.5,50.371,56.0916,4.75753e+10,1.00087,0.986119,140,0.849558,142,1,1
app_24,29.1659,20062.2,7942.4,15.718,179.436,63900,1.00725,0.986119,44,3.55e-07,453,1,1
app_25,58.1629,20179.1,7958.5,22.4041,68.2749,2.06883e+10,1.00261,0.986119,116,0.299831,172,1,1
app_26,55.3648,19904.7,7956.5,26.8205,88.1134,2.29205e+10,1.00258,0.986119,91,0.26046,219,1,1
app_27,65.7386,20217.7,7936.8,42.1989,69.7987,3.90324e+10,1.00303,0.986119,113,0.557605,176,1,1
app_28,45.9459,19888.2,7983.2,9.5536,94.1946,5.17192e+09,1.00146,0.986119,86,0.0550204,232,1,1
app_29,32.0006,20229.4,7948,36.5527,72.4696,3.25124e+10,1.00244,0.986119,109,0.445375,183,1,1
app_3,1.98901,19782.1,7726.4,85.8919,965.578,1.83968e+10,1.03295,0.986119,8,0.0190443,2392,1,1
app_30,40.912,19970,7967.6,10.3919,95.3286,7.25823e+09,1.00315,0.986119,84,0.0756065,236,1,1
app_31,58.7525,20064,7969.5,15.9548,78.8035,1.21557e+10,1.0023,0.986119,101,0.153869,197,1,1
app_32,74.785,20276.3,7948.7,35.7693,60.0683,3.26067e+10,1.00234,0.986119,131,0.543446,152,1,1
app_33,36.2856,19896,7954,42.4898,39.4903,3.92351e+10,1.00085,0.986119,205,1.00603,97,1,1
app_34,27.5835,20025,7915.9,48.9023,161.267,4.12224e+10,1.00539,0.986119,49,0.25604,405,1,1
app_35,67.9707,20189.3,7972.84,14.8887,79.9672,8.88795e+09,1.00229,0.986119,99,0.111345,202,1,1
app_36,85.0144,20061.3,7972.5,13.669,69.229,9.95992e+09,1.0022,0.986119,115,0.144347,173,1,1
app_37,86.3455,20210,7972.2,17.3911,57.2361,1.51415e+10,1.00158,0.986119,139,0.265641,144,1,1
app_38,54.3381,20005.6,7917.1,55.8229,143.659,4.5738e+10,1.00467,0.986119,55,0.317625,359,1,1
app_39,3.99375,19803.7,7925.3,37.2073,178.059,3.11221e+10,1.00548,0.986119,45,0.174843,439,1,1
app_4,3.94955,20874.6,7488.6,171.654,1872.95,4.235e+10,1.06228,0.986119,4,0.0226108,4902,1,1
app_40,1.48476,20117.4,7982.2,6.48136,63.0436,4.12587e+09,1.00171,0.986119,126,0.06549,159,1,1
app_41,755.282,20865.6,7992.7,5.41105,10.2962,4.84497e+09,1.00031,0.986119,778,0.440452,26,1,1
app_42,791.368,22073.1,7990.5,8.27378,6.85048,7.82293e+09,1.00021,0.986119,1158,1.11756,18,1,1
app_43,590.304,20893,7988.6,6.98735,10.0828,6.10261e+09,1.00066,0.986119,775,0.610261,26,1,1
app_44,256.805,21127.9,7967.8,30.8362,7.3856,3.06688e+10,1.00019,0.986119,1091,4.38125,19,1,1
app_45,77.9556,20267.3,7952.9,46.2505,22.4271,4.52801e+10,1.00023,0.986119,359,2.05819,56,1,1
app_46,24.4434,19914,7957.3,34.6424,28.9644,3.29023e+10,1.00123,0.986119,281,1.13456,71,1,1
app_47,828.479,21686,7982.2,17.4975,7.07836,1.71216e+10,1.00008,0.986119,1157,2.44595,18,1,1
app_48,1195.22,21692.9,7959.1,40.5474,6.73575,4.0154e+10,1.00009,0.986119,1189,5.73628,17,1,1
app_49,50.5658,20063.7,7967.1,9.58685,102.127,4.18981e+09,1.0036,0.986119,78,0.0410765,255,1,1
app_5,1.22412,18950.9,7777.6,82.9282,864.306,3.19661e+10,1.02438,0.986119,9,0.0369978,2050,1,1
app_50,326.253,20562,7955.5,44.1629,13.0432,4.35346e+10,1.00012,0.986119,609,3.34882,33,1,1
app_51,77.9007,21452.1,7968.8,28.5442,4.79951,2.82887e+10,1.00036,0.986119,1627,5.65774,13,1,1
app_52,262.934,20977.6,7973.7,25.1347,9.74831,2.4492e+10,1.00023,0.986119,827,2.72133,25,1,1
app_53,327.028,19947.7,7974.6,24.4812,6.46968,2.40083e+10,1.00017,0.986119,1252,3.42976,16,1,1
app_54,511.738,20740,7959.2,40.4755,14.5909,3.93894e+10,1.00018,0.986119,537,2.81353,37,1,1
app_55,700.985,21224.4,7951.5,47.277,11.1043,4.67265e+10,1.00022,0.986119,710,4.24787,29,1,1
app_56,740.425,20849.8,7953.2,46.45,7.43952,4.62964e+10,1.00006,0.986119,1056,5.78705,19,1,1
app_57,85.2059,20152,7955.1,39.9766,39.8434,3.80523e+10,1.00086,0.986119,200,0.951306,100,1,1
app_58,490.827,21000.3,7993.4,1.04976,10.7206,4.70626e+08,1.00077,0.986119,760,0.0470626,27,1,1
app_59,13.4822,20015.6,7934.2,44.7964,90.1552,4.04491e+10,1.00318,0.986119,88,0.449434,225,1,1
app_6,2.28012,20288,7796.2,71.6961,706.981,3.9274e+10,1.021,0.986119,11,0.0555502,1790,1,1
app_60,39.0128,20474.6,7972.5,23.7864,16.2702,2.34357e+10,1.00051,0.986119,496,1.37857,41,1,1
app_7,1.02927,19793.1,7775.2,74.7662,864.146,1.25833e+10,1.02725,0.986119,9,0.014564,2142,1,1
app_8,15.1389,20217,7858.9,55.5257,492.231,4.42194e+10,1.01226,0.986119,16,0.0898769,1238,1,1
app_9,7.29575,20043.9,7810.3,66.9555,648.944,3.79651e+10,1.01933,0.986119,12,0.0584978,1629,1,1
