app_id,start_app,end_app,effective_cpu,effective_io,effective_iter,total_bytes,stretch,utilization,Tcomp,Tio,iterations,priority,group_id
app_1,0.800325,19604.3,7908.1,91.9,879.856,3.88645e+10,1.00667,0.991483,9,0.0441642,2156,1,1
app_10,1.4443,19235.7,7919.7,80.3,658.943,4.53136e+10,1.00439,0.991483,12,0.0687612,1586,1.00001,1.00001
app_11,17.6882,19320.9,7945.2,54.8,466.013,2.90145e+10,1.00323,0.991483,17,0.0622629,1127,1.00001,1.00001
app_12,0.254598,17953.6,7741.7,258.3,2583.25,1.21035e+10,1.03175,0.991483,3,0.00468584,5796,1.00001,1.00001
app_13,19.508,19604,7950.4,49.6,419.751,2.26048e+10,1.00339,0.991483,19,0.053821,1024,1.00001,1.00001
app_14,2.31943,16863.5,7618.3,381.7,3817.11,5.8598e+09,1.0493,0.991483,2,0.00153518,8032,1.00001,1.00001
app_15,11.9624,19374.5,7950.8,49.2,361.217,3.39289e+10,1.00191,0.991483,22,0.0937264,875,1.00002,1.00002
app_16,8.00736,19798.1,7907.3,92.7,791.607,4.29328e+10,1.00626,0.991483,10,0.0542767,1957,1.00002,1.00002
app_17,10.8371,19068.9,7922.4,77.6,660.373,3.87723e+10,1.00488,0.991483,12,0.0586571,1573,1.00002,1.00002
app_18,2.36124,20329.4,7804.7,195.3,1953.22,1.51846e+10,1.02303,0.991483,4,0.007775,4963,1.00002,1.00002
app_19,4.43763,18870.6,7946.8,53.2,531.01,1.13735e+10,1.00526,0.991483,15,0.0214189,1250,1.00002,1.00002
app_2,1.67465,16838.6,7805,195,1949.67,2.90542e+10,1.02118,0.991483,4,0.0148996,4105,1,1
app_20,5.15845,18186.5,7901.3,98.7,987.605,6.55518e+09,1.01165,0.991483,8,0.00664151,2243,1.00002,1.00002
app_21,6.39571,20089.2,7967.7,32.3,88.6587,2.44413e+10,1.00098,0.991483,90,0.274622,222,1.00002,1.00002
app_22,165.497,20221.5,7961.7,38.3,38.9654,2.92613e+10,1.00113,0.991483,203,0.75029,99,1.00002,1.00002
app_23,113.205,20009.5,7980.5,19.5,60.9058,1.30367e+10,1.00081,0.991483,131,0.213716,152,1.00002,1.00002
app_24,63.9293,19849.5,7967.1,32.9,83.3512,2.23937e+10,1.00132,0.991483,96,0.266592,206,1.00002,1.00002
app_25,21.2443,19740.7,7939.6,60.4,117.959,4.4589e+10,1.00198,0.991483,68,0.377873,291,1.00003,1.00003
app_26,60.1187,20112.1,7968.5,31.5,91.7307,2.01152e+10,1.00143,0.991483,87,0.218644,229,1.00003,1.00003
app_27,40.442,19762.5,7964.4,35.6,135.64,2.4678e+10,1.00137,0.991483,59,0.1828,333,1.00003,1.00003
app_28,23.2847,20059.1,7951.5,48.5,44.5712,3.74099e+10,1.00139,0.991483,178,0.831331,112,1.00003,1.00003
app_29,21.9378,20057.7,7952.4,47.6,51.3773,3.70799e+10,1.00132,0.991483,157,0.727057,127,1.00003,1.00003
app_3,0.484325,18929.9,7897.6,102.4,987.22,3.44236e+10,1.00857,0.991483,8,0.034877,2333,1,1
app_30,69.2798,20187.3,7937.7,62.3,83.3038,4.82158e+10,1.00176,0.991483,95,0.580913,209,1.00003,1.00003
app_31,7.75026,20126.7,7933.3,66.7,72.6955,4.84735e+10,1.00228,0.991483,109,0.664021,183,1.00003,1.00003
app_32,40.1831,19797,7961.7,38.3,99.3242,2.7192e+10,1.00139,0.991483,80,0.274666,247,1.00003,1.00003
app_33,9.50911,19904.6,7939.2,60.8,83.9362,4.83881e+10,1.00155,0.991483,94,0.576048,211,1.00003,1.00003
app_34,149.235,20198.6,7980.2,19.8,40.8549,1.53965e+10,1.00055,0.991483,195,0.375525,103,1.00003,1.00003
app_35,38.8677,19956.3,7994.5,5.5,42.8227,3.82642e+09,1.00021,0.991483,187,0.0889866,107,1.00004,1.00004
app_36,32.5772,19938.2,7936.5,63.5,132.891,4.83531e+10,1.0019,0.991483,60,0.363557,330,1.00004,1.00004
app_37,103.444,20159.3,7950.6,49.4,67.7018,3.80542e+10,1.00142,0.991483,117,0.567973,170,1.00004,1.00004
app_38,26.5998,20009.7,7970.9,29.1,115.768,2.03888e+10,1.00109,0.991483,69,0.175765,288,1.00004,1.00004
app_39,105.122,20118.9,7969.5,30.5,68.5942,2.14779e+10,1.00113,0.991483,116,0.311275,172,1.00004,1.00004
app_4,0.726703,19901.5,7907.2,92.8,792.112,4.38166e+10,1.00616,0.991483,10,0.0553239,1972,1,1
app_40,30.0857,19753.7,7971,29,209.639,1.96687e+10,1.00117,0.991483,38,0.0936607,516,1.00004,1.00004
app_41,487.491,20818.5,7938.1,61.9,15.2656,4.71455e+10,1.00185,0.991483,515,3.14303,39,1.00004,1.00004
app_42,527.745,20743,7961.2,38.8,12.1031,3.01041e+10,1.00109,0.991483,679,2.50867,30,1.00004,1.00004
app_43,1047.94,21113.6,7968.5,31.5,4.36805,2.8041e+10,1.00043,0.991483,1838,5.60819,11,1.00004,1.00004
app_44,39.5998,20283.1,7942.1,57.9,5.96746,4.96319e+10,1.00103,0.991483,1360,8.27198,15,1.00004,1.00004
app_45,194.563,20222.2,7975.2,24.8,8.18986,1.97708e+10,1.00063,0.991483,997,2.47135,20,1.00004,1.00004
app_46,276.465,20056.3,7983.9,16.1,13.9325,1.28623e+10,1.0004,0.991483,571,0.918735,35,1.00005,1.00005
app_47,1063.84,20620,7955.1,44.9,6.63523,3.93557e+10,1.00069,0.991483,1248,5.62224,16,1.00005,1.00005
app_48,1494.84,22122.6,7968.1,31.9,5.03899,2.88208e+10,1.00039,0.991483,1566,5.76416,13,1.00005,1.00005
app_49,899.851,20698.6,7974.4,25.6,6.38412,1.81025e+10,1.00094,0.991483,1269,3.01709,16,1.00005,1.00005
app_5,1.09336,15509.5,7741.92,258.079,2580.49,1.49915e+09,1.03314,0.991483,3,0.000580888,5000,1.00001,1.00001
app_50,17.098,19685.3,7983.7,16.3,5.13527,1.32124e+10,1.00039,0.991483,1543,2.64249,13,1.00005,1.00005
app_51,561.618,20540.2,7963.8,36.2,9.36012,2.88839e+10,1.00092,0.991483,883,3.20932,23,1.00005,1.00005
app_52,540.009,20800.1,7940.1,59.9,10.1095,4.8762e+10,1.00139,0.991483,776,4.43291,26,1.00005,1.00005
app_53,1220.29,21665.7,7982.4,17.6,4.24358,1.22294e+10,1.00067,0.991483,1823,3.05734,11,1.00005,1.00005
app_54,45.2662,19960.2,7981.2,18.8,11.5703,1.22939e+10,1.00081,0.991483,692,1.02449,29,1.00005,1.00005
app_55,59.0248,20120.5,7988.6,11.4,40.5021,7.55128e+09,1.00048,0.991483,197,0.184178,102,1.00005,1.00005
app_56,146.955,20391.8,7988.9,11.1,7.04655,9.27278e+09,1.00023,0.991483,1147,1.32468,18,1.00006,1.00006
app_57,87.7896,20566.1,7978.2,21.8,8.80352,1.70746e+10,1.00059,0.991483,881,1.89718,23,1.00006,1.00006
app_58,419.222,20998.2,7963.2,36.8,10.8099,3.07153e+10,1.00076,0.991483,728,2.7923,28,1.00006,1.00006
app_59,777.585,20605.3,7939.2,60.8,5.65949,5.03752e+10,1.0013,0.991483,1423,8.39586,14,1.00006,1.00006
app_6,4.62949,19704.2,7887.1,112.9,1127.87,2.5355e+10,1.01106,0.991483,7,0.0224778,2775,1.00001,1.00001
app_60,326.705,21969.5,7994.5,5.5,5.45929,4.64758e+09,1.00011,0.991483,1424,0.774597,15,1.00006,1.00006
app_7,7.43886,17776,7883.6,116.4,1126.05,4.76297e+10,1.00867,0.991483,7,0.0422999,2497,1.00001,1.00001
app_8,1.14947,18555,7899.1,100.9,877.337,4.90708e+10,1.00652,0.991483,9,0.0558893,2036,1.00001,1.00001
app_9,2.40997,18547.5,7804.9,195.1,1951.04,8.55653e+09,1.02387,0.991483,4,0.00438572,4520,1.00001,1.00001
