app_id,Tcomp,Tio,iter,witer,alpha_io,compute_size,io_size,mu,desyn_time
1,5.362337298909686,0.13840467015724217,3636,5.500741969066928,0.02516109116471051,5e9,138404670.15724218,5,1.9733471146243464
2,4.768904760358215,0.08426506877532869,4122,4.8531698291335434,0.017362893066194818,4e9,84265068.7753287,5,1.6983188862918752
3,5.0984888427929675,0.01602829306917959,3911,5.1145171358621475,0.003133881976226427,5e9,16028293.06917959,5,0.4752865834150558
4,5.413717434314609,0.11263951481101872,3620,5.526356949125628,0.02038223658876041,5e9,112639514.81101872,5,0.48856756875582874
5,4.9312214511790495,0.013894663078968698,4045,4.945116114258019,0.0028097748885828736,4e9,13894663.078968698,5,4.624874703077831
6,5.445702701431505,0.12988741279899532,3588,5.5755901142305,0.02329572478211508,5e9,129887412.79899532,5,5.471929246707368
7,4.871567984129301,0.0672874858042822,4050,4.938855469933584,0.013624105061164519,4e9,67287485.8042822,5,2.6131131232394567
8,5.392268498742376,0.061167046090596575,3668,5.453435544832972,0.011216240769280055,5e9,61167046.09059657,5,2.969913216183474
9,5.459791597660212,0.08599775789181802,3607,5.54578935555203,0.015506856171109976,5e9,85997757.89181802,5,2.284083051445224
10,4.710503316823087,0.06542009009168687,4188,4.775923406914774,0.01369789347898022,4e9,65420090.09168687,5,3.0033534845447356
11,4.523672914426405,0.022550490598841025,4400,4.546223405025247,0.004960268906696149,4e9,22550490.598841026,5,0.37902562674568535
12,5.609580927843904,0.15038312733588613,3473,5.759964055179791,0.026108344756188256,5e9,150383127.33588612,5,1.2393855708512955
13,4.484227773446539,0.12118203480486617,4343,4.605409808251404,0.026312975359488566,4e9,121182034.80486616,5,3.2674040323641265
14,5.367446134867938,0.1302585798476089,3638,5.497704714715547,0.023693265936773494,5e9,130258579.84760891,5,5.275568235968045
15,6.407340865451189,0.08047998611518764,3083,6.487820851566377,0.012404779348331896,6e9,80479986.11518764,5,5.042850009847705
16,9.749472217238372,0.11583302543081907,2028,9.86530524266919,0.011741453769704027,9e9,115833025.43081906,10,7.172543131804493
17,9.922059503654394,0.07860999580517823,2000,10.000669499459573,0.0078604733222537,9e9,78609995.80517823,10,7.325607782205043
18,9.873227042638682,0.2833869744856659,1970,10.156614017124348,0.027901717443221452,9e9,283386974.4856659,10,6.023427377939982
19,11.696934517369186,0.16585767406619892,1686,11.862792191435386,0.013981335202511906,11e9,165857674.06619892,10,0.19950584372401342
20,9.81169153919998,0.10989252673688589,2016,9.921584065936866,0.011076107001317744,9e9,109892526.73688589,10,9.657558907200968
21,11.983395369563468,0.1340855692360367,1651,12.117480938799504,0.011065465661819374,11e9,134085569.2360367,10,3.836370601446843
22,9.007948011845555,0.19911760934966596,2173,9.20706562119522,0.021626609121942742,9e9,199117609.34966597,10,6.796246012193781
23,11.308355184494808,0.06644293954504793,1759,11.374798124039856,0.005841241208898937,11e9,66442939.54504793,10,6.020097413336285
24,9.866179797760582,0.03267270742211694,2021,9.898852505182699,0.0033006560512959084,9e9,32672707.422116943,10,3.3570671834685544
25,8.429693259783937,0.03543488464337019,2363,8.465128144427307,0.004185983252562737,8e9,35434884.64337019,10,6.2050767381142355
26,8.209973278950853,0.19209540712947587,2381,8.402068686080328,0.02286287036045296,8e9,192095407.12947586,10,7.560845954098095
27,8.690290192334212,0.036671608973616134,2292,8.726961801307828,0.004202104903005362,8e9,36671608.97361613,10,5.170170247126191
28,8.56791746955666,0.1697313763410822,2289,8.737648845897741,0.01942529155549319,8e9,169731376.34108222,10,6.0670922475519165
29,10.995317891845945,0.15042998263772597,1795,11.145747874483671,0.01349662528991081,10e9,150429982.63772598,10,7.554397330929604
30,7.863604347109813,0.16827806695350267,2491,8.031882414063316,0.020951261270814727,7e9,168278066.95350266,10,6.094687238533229
31,97.23161825013543,0.8493022623544607,204,98.08092051248988,0.008659199545810832,97e9,849302262.3544607,100,97.06311971399985
32,122.91642716176136,1.395140686234584,161,124.31156784799595,0.011222935326023043,122e9,1395140686.234584,100,91.1930097512159
33,99.73640001662153,1.8528841598037231,197,101.58928417642525,0.018238972494243662,99e9,1852884159.803723,100,3.537679377125122
34,92.49815060490194,0.05668166415950659,217,92.55483226906145,0.0006124117214618271,92e9,56681664.15950659,100,66.81903289105391
35,90.70689105030934,2.4644111873199352,215,93.17130223762928,0.02645032459710141,90e9,2464411187.3199353,100,12.072918371411197
36,97.69531182072502,0.7775324505078851,204,98.47284427123292,0.007895907305838097,97e9,777532450.5078851,100,8.101897463279716
37,108.7440464120113,1.2398584970673245,182,109.98390490907863,0.011273090349831543,108e9,1239858497.0673246,100,22.582386409660753
38,110.61977543947575,1.4205420817087424,179,112.04031752118449,0.01267884733939769,110e9,1420542081.7087424,100,73.43791137443209
39,90.69475193193588,1.6000867004204016,217,92.29483863235629,0.01733668668942719,90e9,1600086700.4204016,100,40.65143741453466
40,86.18940343121301,0.30622933208037834,232,86.49563276329339,0.0035404022410982874,86e9,306229332.08037835,100,66.19971578740984
41,92.33153892925691,0.4612881381696673,216,92.79282706742657,0.004971161594575397,92e9,461288138.1696673,100,76.63430142714026
42,96.20016046421145,1.2247620701245276,206,97.42492253433598,0.012571342509334595,96e9,1224762070.1245277,100,89.2222740139912
43,94.23616189618414,1.041745982512878,210,95.27790787869702,0.010933762145986414,94e9,1041745982.5128781,100,62.5510400191952
44,98.22766322842355,0.11950072181586054,204,98.3471639502394,0.0012150906748701383,98e9,119500721.81586054,100,47.1526434243019
45,94.81718511180782,1.8176739931644952,207,96.6348591049723,0.01880971328565809,94e9,1817673993.1644952,100,38.96433399811512
46,1070.432680195496,15.426307440288822,19,1085.8589876357848,0.014206547641951334,1070e9,15426307440.288822,1000,896.0949381124253
47,951.8720887130456,1.6667853913899153,21,953.5388741044355,0.0017479994121428572,951e9,1666785391.3899152,1000,767.0329844085836
48,1006.8653425510432,23.618380678858912,20,1030.4837232299021,0.022919702802127254,1006e9,23618380678.858913,1000,930.6262905321328
49,1081.303603833499,11.193731034964909,19,1092.497334868464,0.010246003058957237,1081e9,11193731034.964909,1000,282.5209915242899
50,925.0891226560758,11.167639796040326,22,936.2567624521162,0.011927967032026093,925e9,11167639796.040327,1000,803.8345101375126
51,978.8526448077486,21.22251749374443,20,1000.075162301493,0.021220922480371,978e9,21222517493.74443,1000,404.6161751523269
52,902.1444881270022,19.420245761275417,22,921.5647338882776,0.021073121667033925,902e9,19420245761.275417,1000,598.2342730542277
53,1049.4093230719582,16.97375511951819,19,1066.3830781914764,0.01591712721877085,1049e9,16973755119.518192,1000,521.1926139250689
54,1222.9776879462588,8.889318828497307,17,1231.8670067747562,0.00721613516687252,1222e9,8889318828.497307,1000,85.9016839542976
55,1047.0329296812672,26.188820338779056,19,1073.2217500200463,0.024402058883254914,1047e9,26188820338.779057,1000,846.6155183539335
56,1064.893639603816,4.383708304120491,19,1069.2773479079365,0.004099692481746956,1064e9,4383708304.120491,1000,352.56138057638816
57,890.1656984630112,19.606036275155088,22,909.7717347381663,0.021550500555831992,890e9,19606036275.155087,1000,494.37873132325046
58,938.3200670235062,4.11007828932349,22,942.4301453128297,0.004361149003737771,938e9,4110078289.32349,1000,199.44505054374008
59,1148.6218773142887,10.77587651749112,18,1159.3977538317797,0.00929437415406156,1148e9,10775876517.491121,1000,837.6419523879598
60,873.0267923646305,3.6974291809115285,23,876.724221545542,0.004217322950646303,873e9,3697429180.9115286,1000,179.06803895550206
