app_id,start_app,end_app,effective_cpu,effective_io,effective_iter,total_bytes,stretch,utilization,Tcomp,Tio,iterations,priority,group_id
app_1,2.94747,18052.8,7496.8,503.2,1873.93,1.10688e+11,1.0516,0.948079,4,0.0590652,4223,1,1
app_10,1.36655,20419.9,7660.9,339.1,1535.29,6.98865e+10,1.03482,0.948079,5,0.0455287,3921,1.00001,1.00001
app_11,0.392248,16459.3,7184.1,815.9,2387.76,1.97252e+11,1.08381,0.948079,3,0.0826014,4904,1.00001,1.00001
app_12,2.87034,20902.5,7314.16,685.839,1217.56,1.74521e+11,1.06828,0.948079,6,0.143321,3193,1.00001,1.00001
app_13,2.47016,18230.7,7176.5,823.5,1793.34,1.97369e+11,1.08491,0.948079,4,0.110077,4082,1.00001,1.00001
app_14,2.22487,19251.6,7606.8,393.2,1519.39,8.56778e+10,1.03998,0.948079,5,0.0564041,3660,1.00001,1.00001
app_15,3.48828,20780.3,7567,433,1511.65,9.69086e+10,1.04385,0.948079,5,0.064093,3935,1.00002,1.00002
app_16,7.25723,20105,7920.7,79.3,793.068,1.1823e+09,1.00986,0.948079,10,0.00149092,1987,1.00002,1.00002
app_17,1.30239,20655.1,7511.5,488.5,835.173,1.24631e+11,1.04765,0.948079,9,0.149259,2154,1.00002,1.00002
app_18,0.158695,21343.8,7270,730,807.387,1.89366e+11,1.07248,0.948079,9,0.234364,2158,1.00002,1.00002
app_19,5.51018,20036.8,7253.1,746.9,905.539,1.96512e+11,1.07388,0.948079,8,0.2169,2271,1.00002,1.00002
app_2,2.46205,19688.9,7757.5,242.5,1552.4,4.2497e+10,1.02564,0.948079,5,0.0273644,3817,1,1
app_20,6.03782,20808.6,7396.3,603.7,741.653,1.53239e+11,1.05967,0.948079,10,0.2068,1930,1.00002,1.00002
app_21,9.46336,18691.7,7883,117,877.148,1.76488e+10,1.01258,0.948079,9,0.0201241,2047,1.00002,1.00002
app_22,7.46728,18632,7778.5,221.5,858.242,4.63599e+10,1.02238,0.948079,9,0.0539697,2006,1.00002,1.00002
app_23,2.00805,19640.6,7775.9,224.1,648.234,5.20152e+10,1.02198,0.948079,12,0.0802704,1593,1.00002,1.00002
app_24,2.14751,20858.2,7374.6,625.4,671.936,1.59733e+11,1.06181,0.948079,11,0.237698,1754,1.00002,1.00002
app_25,2.18498,20475.3,7540.8,459.2,941.67,1.08575e+11,1.04584,0.948079,8,0.11526,2412,1.00003,1.00003
app_26,1.26597,19421,7878.2,121.8,873.447,1.96055e+10,1.01294,0.948079,9,0.0224576,2121,1.00003,1.00003
app_27,5.18536,19217.5,7695.1,304.9,856.779,7.15486e+10,1.03005,0.948079,9,0.0834873,2053,1.00003,1.00003
app_28,6.9442,18510.1,7785.8,214.2,865.911,4.44564e+10,1.02168,0.948079,9,0.0513353,1998,1.00003,1.00003
app_29,2.31511,20407.5,7568.3,431.7,840.947,1.03757e+11,1.04275,0.948079,9,0.123373,2151,1.00003,1.00003
app_3,0.383418,19187.2,7429.2,570.8,1858.29,1.30188e+11,1.05829,0.948079,4,0.0700689,4454,1,1
app_30,0.0651306,19405.6,7473,527,749.517,1.33916e+11,1.05167,0.948079,10,0.178554,1816,1.00003,1.00003
app_31,28.8752,21230.3,7392.3,607.7,68.9799,1.62578e+11,1.05892,0.948079,107,2.3562,183,1.00003,1.00003
app_32,81.0241,20387.8,7766.2,233.8,84.2399,5.8945e+10,1.02235,0.948079,93,0.701727,213,1.00003,1.00003
app_33,60.7477,20489.2,7655.2,344.8,72.6835,9.89223e+10,1.03171,0.948079,107,1.3551,184,1.00003,1.00003
app_34,66.1733,20600.4,7651.8,348.2,68.1946,8.88046e+10,1.03351,0.948079,112,1.30595,176,1.00003,1.00003
app_35,87.4251,20942.9,7532.7,467.3,66.9814,1.28783e+11,1.04418,0.948079,113,1.92214,174,1.00004,1.00004
app_36,0.104001,20956.7,7431.2,568.8,75.9594,1.54235e+11,1.05465,0.948079,98,2.0294,199,1.00004,1.00004
app_37,102.275,21287.7,7315.2,684.8,69.0779,1.83485e+11,1.06685,0.948079,105,2.6592,185,1.00004,1.00004
app_38,75.4929,20791.1,7625.6,374.4,75.2142,1.03558e+11,1.03504,0.948079,102,1.38078,194,1.00004,1.00004
app_39,37.2008,21149.1,7339.5,660.5,87.284,1.7377e+11,1.06478,0.948079,83,1.99736,234,1.00004,1.00004
app_4,3.00192,19982.7,7585.9,414.1,1511.36,9.11047e+10,1.04207,0.948079,5,0.0602943,3785,1,1
app_40,91.0254,20314.3,7821.5,178.5,80.5207,4.71755e+10,1.01669,0.948079,97,0.582414,204,1.00004,1.00004
app_41,45.4207,20348.7,7777.2,222.8,87.3612,5.31096e+10,1.02167,0.948079,89,0.610455,223,1.00004,1.00004
app_42,20.8993,20178.1,7730.1,269.9,69.5857,6.5903e+10,1.02617,0.948079,112,0.955116,176,1.00004,1.00004
app_43,89.8506,19977.7,7981.5,18.5,71.7043,3.83943e+09,1.00184,0.948079,112,0.0533255,178,1.00004,1.00004
app_44,102.773,21189.3,7392,608,73.0965,1.67698e+11,1.05824,0.948079,102,2.2662,192,1.00004,1.00004
app_45,28.3603,20596.2,7772.6,227.4,83.3031,5.89188e+10,1.02151,0.948079,93,0.701414,214,1.00004,1.00004
app_46,584.165,22848.4,7530.4,469.6,6.78251,1.41319e+11,1.04279,0.948079,1089,20.1884,19,1.00005,1.00005
app_47,881.321,22505.1,7761,239,7.8953,8.06226e+10,1.0202,0.948079,975,11.5175,21,1.00005,1.00005
app_48,703.875,22507.7,7664.2,335.8,7.4233,1.22256e+11,1.02743,0.948079,1036,15.282,20,1.00005,1.00005
app_49,834.931,22154.3,7621.8,378.2,8.81925,1.01594e+11,1.03581,0.948079,855,11.2882,24,1.00005,1.00005
app_5,1.09951,19820,7787.5,212.5,1557.22,3.46872e+10,1.02273,0.948079,5,0.0222782,3853,1.00001,1.00001
app_50,508.032,21920.9,7608.6,391.4,6.76214,9.42351e+10,1.03858,0.948079,1116,13.4622,18,1.00005,1.00005
app_51,264.572,21268,7478.4,521.6,8.42904,1.64764e+11,1.04669,0.948079,907,18.3071,22,1.00005,1.00005
app_52,541.659,20516.3,7898.3,101.7,9.18593,2.10319e+10,1.01019,0.948079,869,2.33688,23,1.00005,1.00005
app_53,139.557,21090.7,7591.1,408.9,8.46789,1.1925e+11,1.03757,0.948079,908,14.9063,22,1.00005,1.00005
app_54,481.437,21692.6,7956.4,43.6,8.82534,1.21393e+10,1.00395,0.948079,906,1.34881,23,1.00005,1.00005
app_55,745.816,21341.3,7884.4,115.6,9.6644,2.78037e+10,1.0111,0.948079,809,3.0893,25,1.00005,1.00005
app_56,669.855,21848.1,7847.3,152.7,8.42571,4.46109e+10,1.0137,0.948079,944,5.57636,22,1.00006,1.00006
app_57,593.854,23089.7,7456.4,543.6,6.68788,1.58553e+11,1.05056,0.948079,1085,22.6505,19,1.00006,1.00006
app_58,137.133,21487,7795.8,204.2,6.58264,7.78444e+10,1.01605,0.948079,1141,12.9741,18,1.00006,1.00006
app_59,864.213,22262.3,7515.1,484.9,8.19617,1.56655e+11,1.04279,0.948079,890,19.5818,22,1.00006,1.00006
app_6,0.566142,20458.2,7196.7,803.3,1797.86,1.91806e+11,1.08276,0.948079,4,0.106737,4603,1.00001,1.00001
app_60,38.3448,21547.5,7399,601,7.64331,1.77532e+11,1.05589,0.948079,978,22.1914,20,1.00006,1.00006
app_7,4.18353,18407.5,7399.3,600.7,1850.37,1.39537e+11,1.06117,0.948079,4,0.0754255,4254,1.00001,1.00001
app_8,1.97789,18381.4,7181.83,818.169,1795.51,1.99732e+11,1.08378,0.948079,4,0.111219,4118,1.00001,1.00001
app_9,1.76262,17187.3,7436.2,563.8,1861.55,1.28056e+11,1.05761,0.948079,4,0.0687736,3990,1.00001,1.00001
