app_id,start_app,end_app,effective_cpu,effective_io,effective_iter,total_bytes,stretch,utilization,Tcomp,Tio,iterations,priority,group_id
app_1,4.27086,17143.6,7651.44,268.589,1913.84,1.77539e+11,1.02185,0.961333,4,0.0928064,4092,0.2,0.69897
app_10,3.18753,20285.8,7734.3,196.45,1549,1.1874e+11,1.01871,0.961333,5,0.0766556,3931,0.2,0.69897
app_11,1.79348,19293.6,7589.7,351.011,1519.28,2.39903e+11,1.02176,0.961333,5,0.157935,3662,0.2,0.69897
app_12,1.755,17908.8,7740.4,178.91,1551.21,1.00799e+11,1.02025,0.961333,5,0.0649477,3474,0.2,0.69897
app_13,2.41893,17038.5,7653.1,259.35,1913.38,1.61712e+11,1.0237,0.961333,4,0.0844892,4076,0.2,0.69897
app_14,4.6526,16521.5,7714.7,194.896,1924.48,8.73571e+10,1.02537,0.961333,4,0.0453981,3978,0.2,0.69897
app_15,0.255831,18295.5,7779.6,151.05,1556.09,5.51824e+10,1.02109,0.961333,5,0.0354643,3564,0.2,0.69897
app_16,2.93453,19791.1,7765.9,184.296,862.87,1.01336e+11,1.01688,0.961333,9,0.117559,2137,0.1,1
app_17,7.16455,19983.1,7773.7,166.937,1109.89,9.1902e+10,1.01709,0.961333,7,0.0827946,2774,0.1,1
app_18,5.21134,19569.1,7743,224.032,705.212,1.40858e+11,1.01473,0.961333,11,0.199798,1725,0.1,1
app_19,4.82927,19060.2,7817.25,130.185,867.993,7.35017e+10,1.01385,0.961333,9,0.0846873,2070,0.1,1
app_2,1.79535,18203.3,7741.8,162.699,1933.58,1.71687e+10,1.03106,0.961333,4,0.0088773,4403,0.2,0.69897
app_20,8.01867,18903.7,7829.7,115.984,868.766,5.73945e+10,1.01432,0.961333,9,0.0660466,2058,0.1,1
app_21,10.1479,19338.5,7767.8,189.872,776.691,1.13024e+11,1.01512,0.961333,10,0.145462,1880,0.1,1
app_22,5.01955,19522.8,7734.6,222.227,860.621,1.38944e+11,1.01606,0.961333,9,0.161562,2099,0.1,1
app_23,8.18361,20199.4,7822.2,122.579,868.17,6.6713e+10,1.01408,0.961333,9,0.0768583,2195,0.1,1
app_24,6.99635,20022.5,7903.9,61.9445,660.173,1.29777e+10,1.0105,0.961333,12,0.0196632,1653,0.1,1
app_25,1.77091,18998.5,7693.9,259.107,963.488,1.65178e+11,1.01793,0.961333,8,0.171524,2288,0.1,1
app_26,3.34566,18338.1,7855.8,82.9007,982.756,1.92089e+08,1.01833,0.961333,8,0.000195411,2256,0.1,1
app_27,1.90972,20225.8,7854.1,102.011,713.836,5.69492e+10,1.01124,0.961333,11,0.0798727,1805,0.1,1
app_28,1.40577,19237.1,7893.1,71.7737,659.077,2.51453e+10,1.01032,0.961333,12,0.0381568,1581,0.1,1
app_29,6.24717,18471.1,7621,337.647,845.826,2.26193e+11,1.01947,0.961333,9,0.267367,1956,0.1,1
app_3,4.32695,17254.2,7533.6,397.732,1886.07,2.57346e+11,1.02683,0.961333,4,0.136451,4065,0.2,0.69897
app_30,1.65331,20342.7,7615.6,331.723,1088.56,2.09194e+11,1.02239,0.961333,7,0.192097,2773,0.1,1
app_31,67.638,20217.8,7666.2,279.887,75.372,1.59942e+11,1.02222,0.961333,103,2.13256,189,0.01,2
app_32,34.5239,20285.4,7671.8,205.172,80.9064,1.14324e+11,1.02747,0.961333,95,1.41141,206,0.01,2
app_33,80.1402,20320.8,7704.1,202.558,74.138,1.15386e+11,1.02309,0.961333,105,1.55927,188,0.01,2
app_34,81.1159,20519.7,7722.5,194.832,82.2733,1.15524e+11,1.02067,0.961333,93,1.40883,211,0.01,2
app_35,23.5641,20318.8,7715.2,180.258,99.8296,1.01171e+11,1.02349,0.961333,78,1.01171,253,0.01,2
app_36,62.3025,20505.1,7838.4,96.2875,74.4867,5.12428e+10,1.01399,0.961333,105,0.683238,190,0.01,2
app_37,49.4267,20662,7531.96,388.89,68.0527,2.23483e+11,1.03153,0.961333,111,3.28467,175,0.01,2
app_38,4.78051,20490,7673.9,224.197,74.7004,1.2671e+11,1.02556,0.961333,102,1.68946,193,0.01,2
app_39,64.1383,20554.5,7707.14,188.695,78.605,1.05568e+11,1.02397,0.961333,98,1.34124,202,0.01,2
app_4,1.10289,19807,7789.8,140.426,1557.34,3.50888e+10,1.02238,0.961333,5,0.0225217,3856,0.2,0.69897
app_40,12.9681,20137,7885.9,14.1297,67.8126,4.91777e+09,1.01384,0.961333,116,0.0723202,172,0.01,2
app_41,110.086,20335.2,7637.8,291.407,67.2442,1.61594e+11,1.02572,0.961333,114,2.41185,171,0.01,2
app_42,24.3141,20494.6,7681.6,225.973,74.9688,1.30134e+11,1.0241,0.961333,103,1.73512,191,0.01,2
app_43,71.4956,20573.2,7541.6,373.646,77.7572,2.13392e+11,1.03159,0.961333,97,2.73579,200,0.01,2
app_44,14.5584,20065.2,7809.3,79.9092,92.6923,4.15535e+10,1.019,0.961333,85,0.446812,232,0.01,2
app_45,25.3875,20523.4,7561.9,374.911,67.4234,2.12128e+11,1.02907,0.961333,113,3.16608,172,0.01,2
app_46,622.439,21842.1,7456.9,543.1,6.51967,2.04485e+11,1.0442,0.961333,1151,34.0808,17,0.001,3
app_47,100.934,21608.8,7695.9,247.483,7.89114,8.57953e+10,1.02805,0.961333,964,10.7244,21,0.001,3
app_48,513.088,21558.6,7512.8,255.999,7.98268,1.05696e+11,1.05008,0.961333,951,13.212,21,0.001,3
app_49,791.809,22855.9,7477.7,500.713,6.81583,1.91902e+11,1.04308,0.961333,1069,27.4145,19,0.001,3
app_5,2.4756,16651.5,7724.1,184.432,1926.57,6.42899e+10,1.02717,0.961333,4,0.0333627,4012,0.2,0.69897
app_50,254.435,21084.9,7743.6,128.307,7.77914,3.90023e+10,1.02793,0.961333,1000,4.87529,20,0.001,3
app_51,18.8622,21882.1,7509.2,293.518,8.43441,1.06453e+11,1.05047,0.961333,888,13.3066,23,0.001,3
app_52,920.917,22621,7356.6,394.079,7.14779,1.3657e+11,1.06764,0.961333,1018,19.5099,20,0.001,3
app_53,745.503,21424.2,7673.5,165.209,8.49051,6.88218e+10,1.03328,0.961333,907,7.64687,22,0.001,3
app_54,971.519,22137,7673.29,295.172,6.30849,1.08016e+11,1.02811,0.961333,1173,17.8057,17,0.001,3
app_55,531.714,21385.6,7824.9,92.6482,7.06387,2.8901e+10,1.01862,0.961333,1125,4.12872,18,0.001,3
app_56,469.387,22018,7413.1,191.468,7.6636,6.61259e+10,1.06963,0.961333,983,8.26574,21,0.001,3
app_57,55.6855,21014.7,7740.7,187.716,8.88833,7.43163e+10,1.02367,0.961333,875,8.25737,23,0.001,3
app_58,138.428,20472.3,7994,6,7.83087,1.4529e+09,1.00057,0.961333,1002,0.181612,20,0.001,3
app_59,775.996,21670.5,7449.5,319.1,7.29701,1.10693e+11,1.05817,0.961333,1043,13.8366,19,0.001,3
app_6,3.88759,18347.8,7724.3,189.704,1930.66,7.90662e+10,1.0252,0.961333,4,0.0409457,4426,0.2,0.69897
app_60,151.801,21751.1,7423.5,370.539,6.96595,1.32246e+11,1.0588,0.961333,1047,18.8922,19,0.001,3
app_7,2.47221,18259.6,7757.4,163.794,1551.41,8.23494e+10,1.02044,0.961333,5,0.0530602,3543,0.2,0.69897
app_8,2.59162,19713.9,7752.15,153.042,1935.26,3.0066e+09,1.03157,0.961333,4,0.00155326,4773,0.2,0.69897
app_9,3.93934,17077.4,7567.3,362.922,1892.15,2.05484e+11,1.02923,0.961333,4,0.108607,4041,0.2,0.69897
