app_id,start_app,end_app,effective_cpu,effective_io,effective_iter,total_bytes,stretch,utilization,Tcomp,Tio,iterations,priority,group_id
app_1,0.449661,26606.2,4884.28,120.472,1222,5.65121e+10,1.61917,0.819807,4,0.0462456,4567,1,1
app_10,1.52002,24947.4,5076.6,190.207,1014.01,1.35561e+11,1.53487,0.819807,5,0.13369,3422,1,1
app_11,2.94617,25937.5,5111.45,128.898,1023,8.4186e+10,1.53975,0.819807,5,0.0822932,3639,1,1
app_12,2.85532,26280.7,4882.3,151.993,1222,9.82666e+10,1.60624,0.819807,4,0.0804146,4473,1,1
app_13,3.26536,26666.4,4885.77,145.827,1222.01,8.7809e+10,1.6085,0.819807,4,0.0718568,4570,1,1
app_14,2.33033,26515.3,5053.37,176.597,1011.01,1.19802e+11,1.54644,0.819807,5,0.118499,3729,1,1
app_15,4.86272,24385.5,4911.26,107.484,1229.01,4.05317e+10,1.61558,0.819807,4,0.0329794,4029,1,1
app_16,3.89812,24847.6,5910.37,42.4785,592.154,1.11957e+10,1.35099,0.819807,10,0.0189116,1938,1,1
app_17,0.872931,24068.5,5905.18,182.186,534.995,1.60108e+11,1.31898,0.819807,11,0.299268,1682,1,1
app_18,7.58051,25123.9,5742.62,112.399,636.003,7.63006e+10,1.37483,0.819807,9,0.119969,2126,1,1
app_19,1.34341,24267.5,5726.57,66.3543,713.993,2.91166e+10,1.38993,0.819807,8,0.0407795,2281,1,1
app_2,1.97296,25854.4,4910.11,107.458,1227.01,4.0785e+10,1.61587,0.819807,4,0.0332396,4398,1,1
app_20,0.451683,23896.5,5777.29,41.6787,640.999,6.74159e+09,1.38312,0.819807,9,0.0105173,2018,1,1
app_21,10.8064,24866.6,5981.19,48.0909,542.694,1.89713e+10,1.3333,0.819807,11,0.0349379,1778,1,1
app_22,2.03655,24209.8,5896.99,179.903,536.529,1.56965e+11,1.32145,0.819807,11,0.292299,1698,1,1
app_23,4.89966,23821.7,5749.24,129.806,640.002,9.64324e+10,1.36853,0.819807,9,0.150676,1998,1,1
app_24,1.7139,24840.6,5648.21,183.813,704.004,1.43541e+11,1.38128,0.819807,8,0.203894,2313,1,1
app_25,2.89775,24308.7,5867.65,95.5128,586.112,6.32742e+10,1.34886,0.819807,10,0.107976,1869,1,1
app_26,3.58249,25000.3,5860.57,164.322,585.993,1.32666e+11,1.33484,0.819807,10,0.226392,1932,1,1
app_27,1.15056,24094.5,5837.74,151.914,584.134,1.18794e+11,1.34306,0.819807,10,0.203414,1841,1,1
app_28,3.28038,23987.8,5787.7,71.9625,643.993,4.04945e+10,1.37264,0.819807,9,0.0628796,2023,1,1
app_29,10.3201,25045.3,6015.21,59.3935,546.965,3.29907e+10,1.32271,0.819807,11,0.0603121,1795,1,1
app_3,0.356603,24335.1,4894.54,115.266,1222,5.0127e+10,1.6179,0.819807,4,0.0410205,4022,1,1
app_30,8.6792,23832.9,5699.4,51.7198,713.01,1.21111e+10,1.40068,0.819807,8,0.0169862,2230,1,1
app_31,23.809,20787.7,7592.3,70.1234,77.2162,6.6456e+10,1.04456,0.819807,100,0.863065,198,1,1
app_32,54.1069,20926.2,7489,126.136,75.4642,1.2193e+11,1.05112,0.819807,98,1.62574,200,1,1
app_33,89.3665,20695.8,7555.9,201.491,70.2403,1.97756e+11,1.03177,0.819807,108,2.82509,180,1,1
app_34,78.7153,20912.6,7479.7,170.291,96.1219,1.64977e+11,1.04648,0.819807,77,1.71851,252,1,1
app_35,19.2017,20653.1,7480.5,183.323,78.6211,1.7932e+11,1.04441,0.819807,95,2.26987,204,1,1
app_36,87.4496,20750.5,7588.1,98.6416,70.4482,9.57589e+10,1.04114,0.819807,107,1.34872,184,1,1
app_37,77.4504,21112.2,7509.83,178.193,76.4309,1.74242e+11,1.04111,0.819807,98,2.26289,200,1,1
app_38,9.33961,20654.9,7642.18,117.984,65.5264,1.15432e+11,1.03125,0.819807,117,1.77587,168,1,1
app_39,37.3304,20928.1,7520.6,119.616,80.0416,1.15211e+11,1.04769,0.819807,94,1.44014,208,1,1
app_4,3.32203,27296.4,5111.02,97.7239,1022.01,4.32308e+10,1.55212,0.819807,5,0.0423002,3917,1,1
app_40,96.3547,21099.6,7578.99,45.903,65.6562,4.27027e+10,1.04964,0.819807,115,0.647011,173,1,1
app_41,5.98232,20944.4,7483.19,182.095,83.3608,1.77367e+11,1.04431,0.819807,90,2.12961,218,1,1
app_42,23.0609,20708,7542.3,162.496,81.0522,1.58116e+11,1.0389,0.819807,93,1.95204,209,1,1
app_43,34.4471,20745.9,7511.5,138.701,76.9089,1.35019e+11,1.04623,0.819807,98,1.7535,200,1,1
app_44,54.4272,20934.4,7440.3,189.056,81.5278,1.85702e+11,1.04904,0.819807,93,2.29262,210,1,1
app_45,48.374,21137.9,7494.12,148.562,77.5759,1.44686e+11,1.04728,0.819807,96,1.85494,204,1,1
app_46,808.491,21653,7798,153.911,8.1177,1.5356e+11,1.00609,0.819807,949,19.195,21,1,1
app_47,968.473,21558.1,7940.3,23.1445,8.20521,2.27115e+10,1.00465,0.819807,966,2.83894,21,1,1
app_48,675.692,21039.7,7813.6,160.565,9.02144,1.6006e+11,1.0033,0.819807,872,17.7845,23,1,1
app_49,945.135,22088.4,7875.5,57.0793,7.92264,5.67661e+10,1.00854,0.819807,977,7.09576,21,1,1
app_5,2.09867,27002.8,5143.97,62.0788,1029,6.52333e+09,1.55325,0.819807,5,0.00633949,3876,1,1
app_50,830.987,21412.3,7852.6,135.811,7.72192,1.35412e+11,1.0015,0.819807,1019,19.3445,20,1,1
app_51,748.654,21495,7882.6,87.4149,9.14176,8.69498e+10,1.00382,0.819807,852,9.66109,24,1,1
app_52,980.204,21553.8,7838.76,144.284,7.47407,1.43911e+11,1.00217,0.819807,1071,19.7255,19,1,1
app_53,87.5167,20725.9,7859.1,91.6917,9.42332,9.10299e+10,1.00627,0.819807,857,9.10299,24,1,1
app_54,149.313,20921.2,7903.2,69.5563,9.57689,6.91271e+10,1.00347,0.819807,806,7.68079,25,1,1
app_55,132.557,20987.2,7979.8,8.69378,7.13028,8.3361e+09,1.00149,0.819807,1080,1.19087,19,1,1
app_56,572.684,21664.9,7863.4,54.2945,7.0404,5.3999e+10,1.01043,0.819807,1100,7.71415,19,1,1
app_57,407.903,21282.5,7909.5,70.7107,9.27389,7.02604e+10,1.00254,0.819807,853,7.80671,24,1,1
app_58,189.402,20364.8,7868.1,119.776,6.85617,1.19322e+11,1.00157,0.819807,1180,17.046,17,1,1
app_59,228.811,20495.5,7832.1,136.185,7.98022,1.35783e+11,1.00403,0.819807,987,16.9728,20,1,1
app_6,5.66987,24613.5,5120.64,118.651,1024.01,6.90758e+10,1.54151,0.819807,5,0.0674569,3388,1,1
app_60,858.84,20639.4,7867.9,96.0022,8.22681,9.55389e+10,1.00459,0.819807,991,11.9424,20,1,1
app_7,1.25268,26724,5105.26,98.9231,1022.99,4.51168e+10,1.55328,0.819807,5,0.0441024,3801,1,1
app_8,3.65126,25108.7,4931.06,75.449,1229.99,7.79005e+09,1.61981,0.819807,4,0.00633337,4224,1,1
app_9,2.31198,24631.2,5087.04,169.068,1015,1.14508e+11,1.538,0.819807,5,0.112816,3356,1,1
