app_id,start_app,end_app,effective_cpu,effective_io,effective_iter,total_bytes,stretch,utilization,Tcomp,Tio,iterations,priority,group_id
app_1,4.59473,23770.8,4819.49,469.434,1204.97,4.00755e+11,1.53249,0.790937,4,0.332654,3790,1,1
app_10,8.42779,24255.9,5464.96,355.82,608.135,3.22088e+11,1.3824,0.790937,9,0.52975,1945,1,1
app_11,85.1792,21990.2,7314.9,14.3439,73.2234,1.01164e+10,1.09215,0.790937,99,0.138581,202,1,1
app_12,45.6444,21393.6,7139.4,349.272,76.4158,3.4473e+11,1.06893,0.790937,94,4.53593,202,1,1
app_13,91.9546,21566.6,7014.4,396.486,72.1292,3.93237e+11,1.07997,0.790937,97,5.46162,195,1,1
app_14,13.5273,21470.8,7266.5,158.768,72.3945,1.55356e+11,1.0779,0.790937,101,2.15772,193,1,1
app_15,57.7608,21674.6,6913.1,480.887,84.2976,4.77974e+11,1.08239,0.790937,82,5.69016,229,1,1
app_16,143.124,20645.9,7877.8,119.204,7.75713,1.18848e+11,1.00042,0.790937,1035,14.856,20,1,1
app_17,704.329,21385,7691,287.878,8.54866,2.87409e+11,1.00271,0.790937,900,31.9343,22,1,1
app_18,715.653,21664.8,7510.5,298.546,8.83444,2.98042e+11,1.02452,0.790937,855,33.1158,23,1,1
app_19,489.328,21453.2,7459.5,535.519,8.40934,5.35203e+11,1.00066,0.790937,883,59.467,22,1,1
app_2,3.28383,26416.1,5156.21,238.224,1028.76,2.05549e+11,1.49205,0.790937,5,0.199951,3749,1,1
app_20,60.9208,20088.5,7717.72,217.473,8.08903,2.17052e+11,1.00822,0.790937,981,25.3504,20,1,1
app_3,3.48495,25552.8,5145.36,228.525,1031.23,1.91672e+11,1.49896,0.790937,5,0.185909,3585,1,1
app_4,0.270828,26823.3,5072.63,331.017,1013.8,2.98976e+11,1.48931,0.790937,5,0.295139,3767,1,1
app_5,4.3002,24506.6,5069.93,93.7671,1263.3,1.38102e+10,1.57364,0.790937,4,0.0109344,4164,1,1
app_6,1.73209,24116.3,5508.67,320.132,612.936,2.9505e+11,1.37843,0.790937,9,0.482107,1946,1,1
app_7,0.280905,24421.9,5456.05,419.626,605.456,3.88683e+11,1.36875,0.790937,9,0.642451,1948,1,1
app_8,7.97277,24231.7,5450.69,412.373,605.012,3.75227e+11,1.37317,0.790937,9,0.620211,1934,1,1
app_9,6.64492,24296.1,5501.15,206.405,689.503,1.71215e+11,1.41035,0.790937,8,0.248497,2227,1,1
