app_id,start_app,end_app,effective_cpu,effective_io,effective_iter,total_bytes,stretch,utilization,Tcomp,Tio,iterations,priority,group_id
app_1,0.343232,18274.4,7512.05,152.994,1877.94,2.78128e+10,1.06103,0.91144,4,0.0148177,4300,0.1,1
app_10,9.43048,20097.1,7529.9,361.022,835.342,3.11969e+11,1.02016,0.91144,9,0.373615,2099,0.1,1
app_11,88.9612,21054.7,7074.87,878.692,65.9112,5.33839e+11,1.05143,0.91144,107,8.1685,173,0.01,2
app_12,2.86322,20605.5,7722.6,77.9165,77.2916,4.31785e+10,1.03016,0.91144,100,0.560759,199,0.01,2
app_13,93.5449,20648.2,7496.1,383.374,80.5928,2.26685e+11,1.0359,0.91144,93,2.79859,208,0.01,2
app_14,23.9029,20779.7,7473.4,471.719,67.0598,2.84248e+11,1.03124,0.91144,111,4.24251,174,0.01,2
app_15,9.85264,20808.4,7324.2,530.282,77.4503,3.14441e+11,1.04731,0.91144,95,4.0313,202,0.01,2
app_16,759.586,22426.2,6968.8,849.788,9.04958,3.76098e+11,1.08919,0.91144,765,40.641,25,0.001,3
app_17,745.774,23465.8,6689.77,680.617,7.3012,3.12088e+11,1.14255,0.91144,901,41.9904,22,0.001,3
app_18,283.346,22577.4,6665.5,1097.72,7.17419,5.00445e+11,1.11639,0.91144,947,71.4921,20,0.001,3
app_19,393.12,21831.2,7184.7,556.589,5.87423,2.51563e+11,1.07581,0.91144,1219,41.9272,16,0.001,3
app_2,3.90292,20612.1,7222.24,551.681,1805.43,4.56915e+11,1.04178,0.91144,4,0.253049,4663,0.1,1
app_20,310.221,22068.7,6756.9,978.607,6.27864,4.62851e+11,1.10807,0.91144,1116,77.1419,17,0.001,3
app_3,1.23215,19430.1,7249,509.841,1813.42,3.6331e+11,1.05093,0.91144,4,0.200392,4403,0.1,1
app_4,0.413336,18359,7381.3,335.935,1840.68,2.00911e+11,1.0551,0.91144,4,0.109132,4231,0.1,1
app_5,3.44503,18441.8,7066.4,762.438,1766.93,6.6248e+11,1.03508,0.91144,4,0.374918,4083,0.1,1
app_6,3.73326,18683.9,7750.9,162.468,773.885,1.28542e+11,1.0153,0.91144,10,0.166075,1809,0.1,1
app_7,0.915901,20321.5,7760.54,146.671,778.426,9.26266e+10,1.0187,0.91144,10,0.119057,1974,0.1,1
app_8,8.05715,19270.1,7677.7,183.908,852.064,1.51306e+11,1.02184,0.91144,9,0.177589,2056,0.1,1
app_9,8.86922,18522,7323.5,603.171,814.456,5.586e+11,1.01496,0.91144,9,0.685399,1882,0.1,1
