app_id,start_app,end_app,effective_cpu,effective_io,effective_iter,total_bytes,stretch,utilization,Tcomp,Tio,iterations,priority,group_id
app_1,4.16525,25971.8,4684.11,357.17,1174.73,3.00403e+11,1.60497,0.777584,4,0.255662,4190,1,1
app_10,8.94666,25885.3,5415.05,314.853,600.446,2.9003e+11,1.40226,0.777584,9,0.482578,2086,1,1
app_11,56.6715,21517.7,7145.61,272.153,92.0973,2.68768e+11,1.07898,0.777584,78,2.88998,247,1,1
app_12,73.524,21302.8,6914.31,522.148,76.9928,5.17695e+11,1.07643,0.777584,90,6.731,205,1,1
app_13,102.195,21420.4,7031.69,457.314,67.8784,4.54458e+11,1.06864,0.777584,104,6.68321,181,1,1
app_14,79.3883,21287.2,6936,537.568,71.5428,5.33317e+11,1.07105,0.777584,97,7.40717,192,1,1
app_15,53.0408,21401,7088.9,400.193,73.9558,3.96708e+11,1.06872,0.777584,96,5.36092,197,1,1
app_16,68.9471,21169.2,7450.3,540.765,8.14321,5.40425e+11,1.00116,0.777584,920,67.5532,21,1,1
app_17,415.152,20751.2,7940,47.1854,7.76963,4.67976e+10,1.00165,0.777584,1031,5.8497,20,1,1
app_18,86.4279,20718.1,7813.4,74.5415,8.38496,7.4182e+10,1.01425,0.777584,931,9.27275,22,1,1
app_19,652.023,20679.9,7669.6,285.058,7.59474,2.84762e+11,1.00574,0.777584,1020,40.6803,19,1,1
app_2,3.48466,24072.2,4616.76,191.25,1535.82,1.44674e+11,1.68016,0.777584,3,0.0941889,4948,1,1
app_20,90.6796,20536.3,7876.9,96.4456,7.31626,9.60667e+10,1.00339,0.777584,1118,13.7238,18,1,1
app_3,0.755432,24762.2,4683.5,340.099,1170,2.74185e+11,1.61366,0.777584,4,0.234346,3912,1,1
app_4,4.65225,26098.3,4762.07,214.205,1189.33,1.41716e+11,1.63139,0.777584,4,0.119189,4299,1,1
app_5,1.98037,26201.3,4863.3,104.34,1215.67,3.4449e+10,1.6334,0.777584,4,0.0283298,4409,1,1
app_6,2.41236,25213.5,5317.7,375.258,661.133,3.34192e+11,1.41546,0.777584,8,0.505585,2226,1,1
app_7,5.79054,24631.7,5532.08,174.048,611.363,1.40803e+11,1.41022,0.777584,9,0.230071,1994,1,1
app_8,5.70969,24347,5327.16,480.311,591.268,4.53203e+11,1.384,0.777584,9,0.765546,1896,1,1
app_9,1.26552,26387.4,5345.04,154.064,760.007,1.15774e+11,1.46498,0.777584,7,0.152335,2728,1,1
