app_id,start_app,end_app,effective_cpu,effective_io,effective_iter,total_bytes,stretch,utilization,Tcomp,Tio,iterations,priority,group_id
app_1,3.08159,18414.8,7106.4,789.996,1776.94,5.98642e+11,1.03828,0.908903,4,0.336883,4095,0.2,0.69897
app_10,0.0559932,20428.2,7337.5,599.789,731.274,4.04139e+11,1.03337,0.908903,10,0.552539,1877,0.1,1
app_11,60.9834,21303.1,7011.3,812.904,77.2884,4.55172e+11,1.07146,0.908903,91,5.83553,207,0.01,2
app_12,101.99,21405.7,6909.4,1007.38,58.686,5.6585e+11,1.0702,0.908903,117,9.59068,158,0.01,2
app_13,87.2097,21224.2,6975.98,850.528,74.6672,4.71526e+11,1.07419,0.908903,94,6.32685,198,0.01,2
app_14,19.1257,20597.1,7607.5,190.264,73.973,1.06583e+11,1.03706,0.908903,103,1.44031,191,0.01,2
app_15,87.3696,20620.9,7579.1,102.069,87.4683,5.29077e+10,1.04822,0.908903,87,0.601224,226,0.01,2
app_16,117.191,22892.8,6505.97,1339.34,7.94774,4.97055e+11,1.14236,0.908903,816,64.6253,23,0.001,3
app_17,1054.5,22518.3,7286.9,414.824,7.12663,1.63642e+11,1.07375,0.908903,1047,23.3774,19,0.001,3
app_18,639.959,23414.1,6557.9,1148.82,8.61721,4.28391e+11,1.1451,0.908903,769,47.5989,25,0.001,3
app_19,195.699,20800.2,7683,205.599,7.31305,6.67925e+10,1.03229,0.908903,1117,8.34906,18,0.001,3
app_2,1.60007,20593.1,7402.5,464.329,1480.16,3.12167e+11,1.03699,0.908903,5,0.210924,3815,0.2,0.69897
app_20,312.601,22300.6,7228.8,360.115,8.46937,1.19541e+11,1.08868,0.908903,836,14.9426,24,0.001,3
app_3,0.143633,19426.2,7141.1,786.548,1425.47,6.12124e+11,1.03183,0.908903,5,0.429561,3465,0.2,0.69897
app_4,2.42742,18769.7,7495.9,339.502,1497.75,2.3487e+11,1.03483,0.908903,5,0.156789,3520,0.2,0.69897
app_5,2.31819,17397.2,7684,157.493,1542.71,7.28872e+10,1.03134,0.908903,5,0.0472373,3344,0.2,0.69897
app_6,3.39573,20095.6,7639,215.275,954.789,1.06949e+11,1.0328,0.908903,8,0.111989,2398,0.1,1
app_7,1.08339,19188.7,7057.2,886.713,782.378,6.21054e+11,1.0419,0.908903,9,0.794186,1881,0.1,1
app_8,11.255,19953.1,7515.9,406.312,682.953,2.73409e+11,1.02705,0.908903,11,0.400306,1704,0.1,1
app_9,9.54494,19358.1,7699.1,150.29,855.237,7.85936e+10,1.02858,0.908903,9,0.0919224,2070,0.1,1
