app_id,start_app,end_app,effective_cpu,effective_io,effective_iter,total_bytes,stretch,utilization,Tcomp,Tio,iterations,priority,group_id
app_1,1.20251,24825.7,5024.38,351.033,1255,2.71009e+11,1.51075,0.802255,4,0.215943,4175,1,1
app_10,3.8935,23988.9,5482.1,308.272,785.056,2.63572e+11,1.39235,0.802255,7,0.33576,2464,1,1
app_11,78.6451,21015,7177.6,427.216,77.4708,4.23135e+11,1.05253,0.802255,94,5.4248,201,1,1
app_12,88.51,21211.9,7149.7,307.638,73.0396,3.04527e+11,1.07322,0.802255,99,4.1716,193,1,1
app_13,6.40246,21235.6,6904.9,522.388,71.1037,5.17663e+11,1.0778,0.802255,97,7.2172,192,1,1
app_14,73.8849,21347.4,7197.67,308.139,85.291,3.04157e+11,1.06641,0.802255,84,3.57558,227,1,1
app_15,80.4788,21348.7,7371.5,93.7005,73.5655,8.93748e+10,1.07226,0.802255,100,1.20777,197,1,1
app_16,87.833,20760.2,7668.1,318.488,7.93363,3.18005e+11,1.00174,0.802255,942,39.7506,21,1,1
app_17,161.233,21652.5,7585.9,348.755,7.55812,3.48259e+11,1.0083,0.802255,1008,43.5323,20,1,1
app_18,827.806,21340.2,7635.2,350.303,7.02373,3.49999e+11,1.00185,0.802255,1064,49.9999,18,1,1
app_19,792.65,20702.5,7899.93,34.4351,8.48782,3.41443e+10,1.00831,0.802255,972,4.26804,21,1,1
app_2,0.440224,26542.9,5207.2,282.205,1046,2.11376e+11,1.4764,0.802255,5,0.20208,3782,1,1
app_20,70.8054,20791.5,7829.7,137.924,9.02502,1.37584e+11,1.00411,0.802255,872,15.2871,23,1,1
app_3,2.49411,26688.3,5142.85,396.372,1028.01,3.37481e+11,1.45977,0.802255,5,0.328288,3750,1,1
app_4,1.63577,26256,5180.8,342.124,1037.02,3.0865e+11,1.45734,0.802255,5,0.297638,3700,1,1
app_5,5.30993,25446.7,5136.46,408.223,1023.28,3.57605e+11,1.45612,0.802255,5,0.349565,3516,1,1
app_6,7.84789,24697.5,5644.44,292.231,626.232,2.52227e+11,1.3567,0.802255,9,0.402919,2043,1,1
app_7,8.66584,24754.1,5848.5,71.9054,648.02,4.1053e+10,1.35834,0.802255,9,0.0633533,2109,1,1
app_8,4.99227,23788.4,5621.18,363.139,624.996,3.26666e+11,1.34503,0.802255,9,0.522666,1934,1,1
app_9,7.86235,23706.7,5652.7,269.095,705.496,2.24346e+11,1.36123,0.802255,8,0.318222,2175,1,1
