app_id,Tcomp,Tio,iter,witer,alpha_io,compute_size,io_size,mu,desyn_time
1,6.8445460376904865,0.2456369785252186,2821,7.090183016215705,0.0346446598012253,6e9,245636978.5252186,10,2.2600512824692283
2,10.985170752777071,1.0388368935524486,1664,12.024007646329519,0.08639689229319202,10e9,1038836893.5524485,10,10.70372932824397
3,3.122945728354914,0.3012812469325858,5841,3.4242269752874996,0.08798518588484926,3e9,301281246.9325858,10,0.36690334525096013
4,6.651578698074438,0.14232518323041293,2944,6.793903881304851,0.020948954491696117,6e9,142325183.23041293,10,4.943692056366384
5,2.028869841187639,0.19634059820272556,8988,2.2252104393903647,0.08823462029798697,2e9,196340598.20272556,10,0.7731232866094175
6,51.90498518364662,0.7052522111540885,381,52.61023739480071,0.01340522769098522,51e9,705252211.1540885,100,48.37978483765648
7,24.040928440803203,1.4194146923922761,786,25.46034313319548,0.055750022101690666,24e9,1419414692.392276,100,2.539610131624805
8,140.50294461778782,13.807579801265604,130,154.31052441905342,0.08947918395876256,140e9,13807579801.265604,100,118.3269316909796
9,103.80870664677418,0.7249335882975853,192,104.53364023507177,0.006934931058244779,103e9,724933588.2975852,100,31.733856150271727
10,75.12850044607629,6.6195855977958935,245,81.74808604387218,0.08097541995348155,75e9,6619585597.795894,100,75.34292925102079
11,1143.232637567479,102.20821208413464,17,1245.4408496516137,0.08206589025301786,1143e9,102208212084.13464,1000,687.5309775272477
12,1530.1466131221857,47.06806349435206,13,1577.2146766165379,0.029842521878710324,1530e9,47068063494.35206,1000,374.74328286638047
13,1079.1123924146095,91.86487204153116,18,1170.9772644561408,0.07845145659954184,1079e9,91864872041.53116,1000,848.5560961905833
14,1516.0413708317271,53.065257556331424,13,1569.1066283880587,0.03381877088292291,1516e9,53065257556.33142,1000,1236.4009643492152
15,892.9035798048557,9.991676232663263,23,902.895256037519,0.011066262853692598,892e9,9991676232.663263,1000,497.0593361901175
