app_id,Tcomp,Tio,iter,witer,alpha_io,compute_size,io_size,mu,desyn_time
1,9.45785382657587,1.189108083537975,1879,10.646961910113845,0.11168520124115483,9e9,1189108083.537975,10,1.5427318629972977
2,10.259593448729833,0.40697892031155386,1876,10.666572369041386,0.038154611081322405,10e9,406978920.31155384,10,10.630750828935279
3,13.059307323443518,0.10139405263678679,1520,13.160701376080304,0.007704304636914823,13e9,101394052.63678679,10,7.501314781878597
4,5.851897464938377,0.08952151782181568,3367,5.941418982760193,0.015067363214338884,5e9,89521517.82181568,10,5.7813260579685295
5,9.787019074639474,0.5687658045066899,1932,10.355784879146164,0.054922520228479745,9e9,568765804.5066899,10,1.1729600441433825
6,113.77490022962559,3.8200580978898087,171,117.5949583275154,0.03248487989808636,113e9,3820058097.8898087,100,28.54881246305302
7,74.99253334758016,7.281658591944567,244,82.27419193952473,0.08850477191312821,74e9,7281658591.944568,100,16.34753909118261
8,91.68281946990732,6.6374776383995595,204,98.32029710830687,0.06750872234537596,91e9,6637477638.39956,100,4.556424652627606
9,51.674988836670074,3.29399028989401,364,54.968979126564086,0.059924530930613,51e9,3293990289.89401,100,50.94216676284788
10,64.21452244770968,6.662241096846702,283,70.87676354455638,0.0939975354921294,64e9,6662241096.846702,100,45.538188244812915
11,1547.2109311432225,53.2809289151689,13,1600.4918600583915,0.033290346702060096,1547e9,53280928915.1689,1000,629.283135652446
12,878.2169646745228,2.487644035011316,23,880.7046087095341,0.0028246065825139424,878e9,2487644035.011316,1000,514.2646537958758
13,35.76658838259284,2.2763665500471446,526,38.04295493263999,0.05983674386171496,35e9,2276366550.0471444,1000,15.412366582369096
14,764.7526835731924,34.72565817610649,26,799.4783417492988,0.04343539576084701,764e9,34725658176.10649,1000,378.90733057597805
15,976.9549316583722,97.39930737055771,19,1074.35423902893,0.09065846611132045,976e9,97399307370.55771,1000,858.269752450773
