app_id,Tcomp,Tio,iter,witer,alpha_io,compute_size,io_size,mu,desyn_time
1,7.401767486879063,0.494766262435695,2533,7.896533749314758,0.06265613218947233,7e9,494766262.435695,10,7.247540870095301
2,22.681762858501685,2.387514362243542,798,25.069277220745228,0.09523666523053309,22e9,2387514362.243542,10,2.669677181091839
3,14.809317322400862,1.0841760535935916,1259,15.893493375994453,0.06821508827198004,14e9,1084176053.5935917,10,8.484926630524523
4,14.094293682267713,1.0100294604941713,1325,15.104323142761885,0.06687022324321668,14e9,1010029460.4941713,10,0.10384384998426303
5,7.562219615751788,0.4055602973928655,2511,7.967779913144653,0.05090003762827361,7e9,405560297.3928655,10,1.7564824622735906
6,137.55642824808538,8.395595061536785,138,145.95202330962218,0.05752297824420286,137e9,8395595061.536785,100,19.77932968033744
7,127.97759598588955,11.337166715393645,144,139.3147627012832,0.08137807146614205,127e9,11337166715.393644,100,70.8048887272002
8,168.5028256236895,15.969211433893896,109,184.47203705758338,0.08656711168050402,168e9,15969211433.893896,100,56.621591911121044
9,50.35721153011188,0.7777979241647988,392,51.135009454276684,0.01521067332275124,50e9,777797924.1647987,100,45.16137073492292
10,151.9053418046367,3.6065813551360772,129,155.51192315977278,0.023191670978376877,151e9,3606581355.1360774,100,63.842031223062754
11,491.1975654392398,0.38983283936743357,41,491.5873982786072,0.0007930082030835456,491e9,389832839.36743355,1000,264.9966399790184
12,1681.088173284471,153.0428392373865,11,1834.1310125218574,0.08344160705671655,1681e9,153042839237.38647,1000,578.8842237807436
13,411.6107150392154,13.365408745518625,48,424.976123784734,0.03144978740567716,411e9,13365408745.518625,1000,279.911456169435
14,1178.8178800788712,24.228181066835134,17,1203.0460611457063,0.02013903029096136,1178e9,24228181066.835133,1000,206.24795634377185
15,959.0424185308899,57.353078497325356,20,1016.3954970282152,0.05642791478810854,959e9,57353078497.325356,1000,885.3413277687575
