app_id,Tcomp,Tio,iter,witer,alpha_io,compute_size,io_size,mu,desyn_time
1,13.80522163506969,0.8655236374823201,1364,14.670745272552011,0.058996569117838696,13e9,865523637.4823201,10,1.7920495227902857
2,9.085798878673833,0.027207853128329004,2195,9.113006731802162,0.0029856066092193542,9e9,27207853.128329005,10,4.823970988942051
3,19.403814574127704,0.6231001867615655,999,20.02691476088927,0.031113139202970153,19e9,623100186.7615656,10,9.978390120580885
4,6.370606420414242,0.6629433815194269,2844,7.033549801933669,0.0942544519038125,6e9,662943381.519427,10,6.943260739490079
5,7.744433852049512,0.19467871187227043,2520,7.939112563921782,0.024521470164935232,7e9,194678711.87227044,10,6.825540440849127
6,85.51669451249202,8.949858761690313,212,94.46655327418233,0.09474103215890599,85e9,8949858761.690313,100,13.137646758501281
7,110.63153694506924,6.748176829068844,171,117.37971377413808,0.0574901455463904,110e9,6748176829.068844,100,27.135453943407803
8,45.44924511485528,2.4349413023081476,418,47.88418641716343,0.05085063534535436,45e9,2434941302.3081474,100,7.966367875819437
9,58.477655778589444,3.6336100068538513,323,62.111265785443294,0.058501625444339955,58e9,3633610006.8538513,100,43.99871183836276
10,122.73434310963896,2.26371202787593,161,124.99805513751488,0.0181099779943419,122e9,2263712027.87593,100,20.860576545043326
11,1100.5805598988518,62.26236698841369,18,1162.8429268872655,0.05354323060215841,1100e9,62262366988.41369,1000,772.8579340325293
12,647.59976130996,41.112166715903115,30,688.711928025863,0.05969428587326462,647e9,41112166715.903114,1000,185.2166413569393
13,839.3063382913859,42.95931699554606,23,882.265655286932,0.04869204274031812,839e9,42959316995.54606,1000,58.10235084131182
14,1371.652914726884,95.46272334597371,14,1467.1156380728578,0.06506830195837159,1371e9,95462723345.97371,1000,906.9662496446723
15,1458.2885319636378,129.2882618704622,13,1587.5767938341,0.08143748533777868,1458e9,129288261870.4622,1000,1378.6556088728748
