app_id,Tcomp,Tio,iter,witer,alpha_io,compute_size,io_size,mu,desyn_time
1,24.3419186653683,0.03541499492145933,821,24.37733366028976,0.0014527837791854046,24e9,35414994.92145933,10,18.365090365914888
2,16.97988571188339,1.2935564016237087,1095,18.273442113507098,0.0707888745638982,16e9,1293556401.6237087,10,8.70109329423046
3,3.2610826049537742,0.18877956924295367,5798,3.4498621741967277,0.054720901795709986,3e9,188779569.24295366,10,2.4503857061792877
4,16.470379595034206,0.6109624584384811,1171,17.08134205347269,0.035767825298848255,16e9,610962458.4384811,10,12.187384327978961
5,15.449969434716174,0.4055983153804729,1262,15.855567750096647,0.02558081311077622,15e9,405598315.3804729,10,14.310826679208457
6,108.20999253723673,5.950085894462724,176,114.16007843169945,0.05212054841064765,108e9,5950085894.462724,100,78.0767095054419
7,149.3452586381579,2.834339628042154,132,152.17959826620006,0.018624964583519185,149e9,2834339628.042154,100,68.47610572044208
8,192.46569890836372,13.905595794100437,97,206.37129470246416,0.06738144379114756,192e9,13905595794.100437,100,142.34952612948345
9,12.154887809199147,1.1934755178621883,1499,13.348363327061335,0.08940987659832705,12e9,1193475517.8621883,100,10.605256539073078
10,123.44141560768658,6.516952073610478,154,129.95836768129706,0.050146459900083554,123e9,6516952073.610477,100,14.322229568483186
11,902.0402114530799,81.97676598143062,21,984.0169774345105,0.08330828416716665,902e9,81976765981.43062,1000,175.24828356411916
12,264.54755871284215,20.04495030610131,71,284.5925090189435,0.07043386480972712,264e9,20044950306.10131,1000,36.49077511839054
13,644.2142164144332,52.7898985477923,29,697.0041149622255,0.07573828821749966,644e9,52789898547.7923,1000,421.59707524018586
14,827.2139753761516,48.681634827594124,23,875.8956102037457,0.05557926568015347,827e9,48681634827.594124,1000,146.6052818930318
15,1061.4988484155122,54.62981630572794,18,1116.12866472124,0.048945805293310045,1061e9,54629816305.72794,1000,1004.8189276886128
