app_id,Tcomp,Tio,iter,witer,alpha_io,compute_size,io_size,mu,desyn_time
1,6.080719659015099,0.6764217310597899,2960,6.757141390074889,0.10010471766261105,6e9,676421731.0597899,10,0.5590519149271899
2,8.34377452529321,0.7622064987962548,2197,9.105981024089465,0.08370394104488815,8e9,762206498.7962548,10,6.669191689307755
3,18.20638356953575,1.2172871641308507,1030,19.4236707336666,0.06267029444753483,18e9,1217287164.1308508,10,6.152959650165795
4,8.592930978847855,0.8399557473197486,2121,9.432886726167604,0.08904546102410435,8e9,839955747.3197486,10,8.191874868652963
5,0.9327411015189375,0.08990478976187583,19558,1.0226458912808134,0.08791390111514996,1e9,89904789.76187582,10,0.3711785442195285
6,15.597573806474113,0.3132523253611794,1258,15.910826131835293,0.01968799877301193,15e9,313252325.3611794,100,7.3509752339508205
7,76.09269884830877,0.6264480911079389,261,76.71914693941672,0.008165472585385107,76e9,626448091.1079389,100,66.04661864265134
8,72.11656404235181,2.2080662191429887,270,74.3246302614948,0.029708405025015195,72e9,2208066219.1429887,100,63.77969539827205
9,75.60243320798372,5.061892793639168,248,80.6643260016229,0.0627525579713804,75e9,5061892793.639168,100,74.35914792660787
10,2.3412268954674484,0.06448929871472743,8314,2.405716194182176,0.026806694351845847,2e9,64489298.71472743,100,2.2071612814528305
11,2212.8687538056297,105.89021271272185,9,2318.7589665183514,0.0456667615054951,2212e9,105890212712.72185,1000,2118.7817082591255
12,1810.501864521761,8.469661834367002,11,1818.971526356128,0.004656291597556744,1810e9,8469661834.3670025,1000,53.24717235133412
13,765.1431023900013,67.50210393315976,25,832.6452063231611,0.08106946802857262,765e9,67502103933.15976,1000,781.1647590664488
14,579.062072052847,33.25846336727336,33,612.3205354201204,0.05431544663850662,579e9,33258463367.273357,1000,545.6305137229006
15,1565.364873157878,71.58819445606396,13,1636.953067613942,0.043732588228941986,1565e9,71588194456.06396,1000,310.59004664677366
