app_id,start_app,end_app,effective_cpu,effective_io,effective_iter,total_bytes,stretch,utilization,Tcomp,Tio,iterations,priority,group_id
app_1,4.19169,20938.9,7077.5,922.5,1008.31,3.33474e+11,1.07948,0.878053,7,0.330828,2649,1,1
app_10,121.826,22535.2,6467.25,1532.75,42.4609,6.50645e+11,1.12393,0.878053,153,15.4469,119,1.00001,1.00001
app_11,842.709,22745.9,7259.8,740.2,6.56919,3.25969e+11,1.05461,0.878053,1076,54.3281,18,1.00001,1.00001
app_12,556.854,21782.4,7641.8,358.2,6.22054,1.91307e+11,1.02131,0.878053,1240,31.8846,16,1.00001,1.00001
app_13,477.075,22806.3,7002.39,997.614,4.72654,4.34806e+11,1.07567,0.878053,1514,92.1772,13,1.00001,1.00001
app_14,1016.85,23144.2,6724.36,1275.64,6.13682,5.57386e+11,1.09864,0.878053,1103,84.3521,17,1.00001,1.00001
app_15,852.099,24383.1,6677.26,1322.74,4.84528,5.63689e+11,1.10483,0.878053,1422,114.263,14,1.00002,1.00002
app_2,2.15777,21915.9,6458.11,1541.89,339.73,6.17412e+11,1.13066,0.878053,19,1.81845,936,1,1
app_3,6.00675,20676.1,6650.3,1349.7,831.166,5.18117e+11,1.11601,0.878053,8,0.62309,2153,1,1
app_4,3.13855,20255.6,7157,843,895.608,3.05559e+11,1.07202,0.878053,8,0.341026,2269,1,1
app_5,10.3173,20104.9,7572.3,427.7,685.58,1.37381e+11,1.03766,0.878053,11,0.200264,1729,1.00001,1.00001
app_6,18.512,21110.4,7186.46,813.54,102.572,3.09586e+11,1.06723,0.878053,70,3.01683,271,1.00001,1.00001
app_7,102.796,20729.2,7461.1,538.9,59.3537,1.95785e+11,1.04481,0.878053,126,3.26308,154,1.00001,1.00001
app_8,51.0255,22850.1,6131.5,1868.5,127.126,7.65373e+11,1.15995,0.878053,48,6.02656,368,1.00001,1.00001
app_9,19.9483,20120,7899.3,100.7,73.5876,3.20767e+10,1.00865,0.878053,109,0.433469,183,1.00001,1.00001
