app_id,start_app,end_app,effective_cpu,effective_io,effective_iter,total_bytes,stretch,utilization,Tcomp,Tio,iterations,priority,group_id
app_1,0.559052,20729.6,6828.5,942.525,1141.42,7.71797e+11,1.05259,0.899962,6,0.676422,2960,0.1,1
app_10,2.20716,17530.5,7599.1,384.231,3792.56,2.44608e+11,1.01993,0.899962,2,0.0644893,8314,1,0
app_11,2118.78,24190.4,7199.9,729.338,3.06428,3.17671e+11,1.06417,0.899962,2212,105.89,9,0.001,3
app_12,53.2472,20490.6,7667.1,68.0284,4.25621,3.38786e+10,1.03883,0.899962,1810,8.46966,11,0.001,3
app_13,781.165,24021.6,6424.3,1226.67,8.15844,5.40017e+11,1.14871,0.899962,765,67.5021,25,0.001,3
app_14,545.63,23587,6502.95,892.721,11.192,3.88282e+11,1.1609,0.899962,579,33.2585,33,0.001,3
app_15,310.59,23224.4,7346.2,653.8,4.54174,2.86353e+11,1.04814,0.899962,1565,71.5882,13,0.001,3
app_2,6.66919,20078.9,7019.95,817.585,877.779,6.68655e+11,1.0405,0.899962,8,0.762206,2197,0.1,1
app_3,6.15296,20205,7322.9,593.479,409.514,4.9787e+11,1.02292,0.899962,18,1.21729,1030,0.1,1
app_4,8.19187,19518.1,6968.2,889.279,871.311,7.31601e+11,1.03899,0.899962,8,0.839956,2121,0.1,1
app_5,0.371179,21594.6,7246.2,738.004,7236.52,6.50641e+11,1.01306,0.899962,1,0.0899048,19558,1,0
app_6,7.35098,19778.4,7644.3,217.93,509.825,1.59759e+11,1.02511,0.899962,15,0.313252,1258,0.1,1
app_7,66.0466,20683.3,7696.09,146.648,100.651,6.30512e+10,1.03104,0.899962,76,0.626448,261,0.01,2
app_8,63.7797,20862.1,7441.5,451.549,103.285,2.27431e+11,1.04317,0.899962,72,2.20807,270,0.01,2
app_9,74.3591,21047.2,7088.3,898.936,93.528,4.70756e+11,1.05833,0.899962,75,5.06189,248,0.01,2
