app_id,start_app,end_app,effective_cpu,effective_io,effective_iter,total_bytes,stretch,utilization,Tcomp,Tio,iterations,priority,group_id
app_1,1.73473,19089.7,7079.38,825.442,888.384,7.42317e+11,1.0228,0.896366,8,0.835191,2115,0.1,1
app_10,53.458,20812.8,7348.7,582.566,48.0761,3.68597e+11,1.03663,0.896366,154,7.67911,124,0.01,2
app_11,715.757,23075.6,7003.8,587.869,6.169,2.51928e+11,1.10258,0.896366,1175,41.988,17,0.001,3
app_12,296.222,23033.6,6594.5,1123.84,4.2317,4.94615e+11,1.12849,0.896366,1489,123.654,13,0.001,3
app_13,147.117,20557.9,7873.4,77.5175,28.9421,4.6135e+10,1.01016,0.896366,271,1.64768,74,0.01,2
app_14,121.546,23408.7,6694.6,503.972,6.52412,2.2405e+11,1.1563,0.896366,992,37.3416,20,0.001,3
app_15,207.976,23514.8,6496.4,1449.24,5.97837,6.30054e+11,1.12258,0.896366,1055,105.009,18,0.001,3
app_2,2.77566,18700.8,7775.4,88.993,865.618,4.87913e+10,1.02247,0.896366,9,0.0564061,2019,0.1,1
app_3,4.73011,19664.3,7447.8,477.392,571.055,4.34791e+11,1.01489,0.896366,13,0.761455,1405,0.1,1
app_4,4.06477,18652.4,7077.6,708.037,1415.85,6.14087e+11,1.04008,0.896366,5,0.433677,3300,0.1,1
app_5,4.17323,20023.1,6812.8,1018.88,1702.14,8.88318e+11,1.03881,0.896366,4,0.521926,4270,0.1,1
app_6,101.453,20818.7,7261.3,607.564,65.2404,3.81541e+11,1.04673,0.896366,111,5.86985,170,0.01,2
app_7,12.0569,20407.3,7607.4,219.435,96.304,1.37706e+11,1.03291,0.896366,79,1.43444,246,0.01,2
app_8,62.1852,21234.5,6690.5,1233.31,113.556,7.75404e+11,1.07154,0.896366,59,6.86198,301,0.01,2
app_9,62.701,20577.2,7800.3,98.588,71.2919,6.10171e+10,1.01764,0.896366,109,0.859396,182,0.01,2
