app_id,start_app,end_app,effective_cpu,effective_io,effective_iter,total_bytes,stretch,utilization,Tcomp,Tio,iterations,priority,group_id
app_1,4.84019,19414,7434.2,531.229,463.888,5.00211e+11,1.00827,0.900962,16,1.07804,1127,0.1,1
app_10,36.0909,20941.7,6900.1,955.566,81.3195,7.34241e+11,1.0479,0.900962,85,9.06471,213,0.01,2
app_11,303.78,23583.7,6506.98,449.535,17.6021,2.51751e+11,1.18365,0.900962,364,14.8089,53,0.001,3
app_12,425.78,22854.8,7339.5,626.686,6.68976,3.07416e+11,1.04617,0.900962,1113,43.9165,18,0.001,3
app_13,1380.2,23373.6,6830.9,1079.45,4.68703,5.6009e+11,1.0824,0.900962,1496,112.018,13,0.001,3
app_14,656.333,22648.8,6403.42,1293.44,7.19479,6.63343e+11,1.13206,0.900962,917,93.0441,20,0.001,3
app_15,454.154,22029.8,6736.5,956.011,6.85266,5.10825e+11,1.10386,0.900962,984,72.975,19,0.001,3
app_2,11.6804,20036.6,7775.2,168.71,520.112,1.41775e+11,1.01049,0.900962,15,0.272644,1298,0.1,1
app_3,12.0078,19692.3,7376.41,591.377,491.861,5.40303e+11,1.01052,0.900962,15,1.09952,1211,0.1,1
app_4,1.6069,19807.8,7640.5,287.084,849.471,2.35232e+11,1.01578,0.900962,9,0.27707,2098,0.1,1
app_5,2.39967,19654.8,7758.4,202.329,407.038,1.68393e+11,1.00924,0.900962,19,0.413742,1002,0.1,1
app_6,15.7171,20436.7,7728.7,142.839,76.7534,1.00579e+11,1.02181,0.900962,100,1.30622,197,0.01,2
app_7,124.435,20670.8,7480.9,432.951,55.3152,3.26615e+11,1.02465,0.900962,135,5.93845,142,0.01,2
app_8,10.6692,20830.5,6999.46,768.233,137.832,5.76491e+11,1.05597,0.900962,51,4.20227,357,0.01,2
app_9,88.3144,20931,7204.3,727.177,52.1109,5.51693e+11,1.03146,0.900962,137,10.6095,136,0.01,2
