app_id,start_app,end_app,effective_cpu,effective_io,effective_iter,total_bytes,stretch,utilization,Tcomp,Tio,iterations,priority,group_id
app_1,0.83921,22301.3,6306.32,1693.68,419.472,6.89385e+11,1.14356,0.874794,15,1.64206,1179,1,1
app_10,3.03196,22442.7,6400.1,1599.9,82.217,6.42457e+11,1.13595,0.874794,78,7.83485,232,1.00001,1.00001
app_11,688.272,22741.3,6988.2,1011.8,8.38107,4.11257e+11,1.08116,0.874794,818,51.4071,23,1.00001,1.00001
app_12,392.997,20791.5,7893.1,106.9,8.6439,3.86434e+10,1.00861,0.874794,937,4.83042,22,1.00001,1.00001
app_13,722.792,22631.6,7363.2,636.8,3.22402,2.15147e+11,1.05564,0.874794,2241,71.7157,9,1.00001,1.00001
app_14,517.033,22122.6,7212.1,787.9,7.03469,3.0929e+11,1.06363,0.874794,1042,44.1843,19,1.00001,1.00001
app_15,442.001,22200,7348.2,651.798,5.81505,2.81677e+11,1.04851,0.874794,1231,48.8943,16,1.00002,1.00002
app_2,1.31363,20251.2,7241,759,1033.83,2.67623e+11,1.06544,0.874794,7,0.258823,2620,1,1
app_3,9.45402,19885.2,7518.3,481.7,466.39,1.71157e+11,1.04039,0.874794,16,0.367291,1164,1,1
app_4,0.693139,21249.5,6362,1638,707.556,6.49217e+11,1.14103,0.874794,9,0.918271,1882,1,1
app_5,1.3593,18911.2,6718.3,1281.7,3359.13,4.31023e+11,1.11899,0.874794,2,0.128319,7948,1.00001,1.00001
app_6,34.5659,23092.3,6011.22,1988.78,157.54,8.09006e+11,1.17298,0.874794,38,5.13624,462,1.00001,1.00001
app_7,76.4227,22579.5,6316.7,1683.3,72.6558,6.90034e+11,1.14176,0.874794,88,9.45253,204,1.00001,1.00001
app_8,93.8816,21139.6,7440,560,34.2933,1.89284e+11,1.04859,0.874794,217,5.56718,90,1.00001,1.00001
app_9,7.53183,20206,7856.6,143.4,110.125,4.71028e+10,1.01218,0.874794,71,0.428208,279,1.00001,1.00001
