app_id,start_app,end_app,effective_cpu,effective_io,effective_iter,total_bytes,stretch,utilization,Tcomp,Tio,iterations,priority,group_id
app_1,5.49985,26158.4,4874.8,308.273,441.792,2.84736e+11,1.55053,0.795057,11,0.644199,1607,1,1
app_10,23.9735,22233.7,7040.5,44.0067,60.0372,4.16901e+10,1.12959,0.795057,118,0.694835,168,1,1
app_11,701.748,21594,7479.3,425.772,10.3576,4.2534e+11,1.01206,0.795057,726,38.6673,27,1,1
app_12,753.594,21035,7706,241.518,7.00962,2.41114e+11,1.00665,0.795057,1078,34.4449,18,1,1
app_13,546.939,21112.9,7341.1,585.291,14.0857,5.84765e+11,1.00935,0.795057,524,41.769,36,1,1
app_14,64.9662,21044,7774.8,1.24169,10.5805,7.54952e+08,1.02887,0.795057,722,0.0754952,28,1,1
app_15,60.3179,20733.6,6591,1218.55,28.9748,1.21739e+12,1.02454,0.795057,227,41.9789,75,1,1
app_2,0.349188,28235.8,4598.4,267.907,655.42,2.40951e+11,1.65311,0.795057,7,0.367864,2697,1,1
app_3,2.20221,26251.5,4923.5,185.525,492.275,1.50848e+11,1.57656,0.795057,10,0.306602,1799,1,1
app_4,0.125545,26958,4308.5,505.114,720.075,4.70978e+11,1.67382,0.795057,6,0.654136,2763,1,1
app_5,2.84577,25593,4737.8,684.754,362.988,6.61804e+11,1.48159,0.795057,13,1.82315,1274,1,1
app_6,34.3081,22972,6691.3,111.717,94.903,1.0583e+11,1.17697,0.795057,70,1.114,280,1,1
app_7,193.891,21693.4,7379,167.322,37.3306,1.65512e+11,1.06037,0.795057,195,4.47329,101,1,1
app_8,89.5,21871,7088.2,277.659,57.1716,2.73755e+11,1.08667,0.795057,123,4.80272,156,1,1
app_9,103.214,21408.8,6872.6,542.313,50.4502,5.39907e+11,1.07926,0.795057,135,10.5864,138,1,1
