app_id,start_app,end_app,effective_cpu,effective_io,effective_iter,total_bytes,stretch,utilization,Tcomp,Tio,iterations,priority,group_id
app_1,2.44444,19865.1,6188.5,1811.5,1546.53,6.90845e+11,1.1629,0.869074,4,0.446571,3853,1,1
app_10,4.71609,21541,6863.8,1136.2,196.139,4.29208e+11,1.09694,0.869074,35,2.18984,531,1.00001,1.00001
app_11,1127.37,22941.6,6929.5,1070.5,3.93327,3.89242e+11,1.09308,0.869074,1791,97.3104,11,1.00001,1.00001
app_12,623.222,22360,7483.5,516.5,5.12432,1.67978e+11,1.04555,0.869074,1462,33.5957,14,1.00001,1.00001
app_13,1208.25,23139.7,7294.1,705.9,5.84116,2.69557e+11,1.05769,0.869074,1279,44.9262,16,1.00001,1.00001
app_14,1236.1,22263,7859.2,140.8,5.98726,6.96161e+10,1.00898,0.869074,1268,11.6027,16,1.00001,1.00001
app_15,501.918,23304.2,6992.16,1007.84,6.82937,3.26239e+11,1.09314,0.869074,998,49.3457,20,1.00002,1.00002
app_2,1.94383,22511,6356.9,1643.1,275.558,6.447e+11,1.1426,0.869074,23,2.33587,785,1,1
app_3,0.840073,21047.4,6854.5,1145.5,980.26,4.00395e+11,1.1027,0.869074,7,0.408567,2589,1,1
app_4,11.7754,20128.3,7357.2,642.8,565.621,2.24146e+11,1.05522,0.869074,13,0.396018,1426,1,1
app_5,1.7192,20197.3,6932.2,1067.8,694.472,3.87011e+11,1.09301,0.869074,10,0.556851,1752,1.00001,1.00001
app_6,163.287,22467.8,6581.2,1418.8,31.8585,5.97918e+11,1.11434,0.869074,204,18.6849,90,1.00001,1.00001
app_7,69.1992,22220.5,6635.77,1364.23,46.4645,5.39562e+11,1.11493,0.869074,143,11.5445,130,1.00001,1.00001
app_8,75.7677,20808.9,7542,458,64.396,1.64503e+11,1.03808,0.869074,117,2.53081,167,1.00001,1.00001
app_9,99.9821,22423.8,6418.4,1581.6,69.225,6.46268e+11,1.1324,0.869074,93,9.3662,194,1.00001,1.00001
