app_id,start_app,end_app,effective_cpu,effective_io,effective_iter,total_bytes,stretch,utilization,Tcomp,Tio,iterations,priority,group_id
app_1,15.4344,19847.8,7698.3,275.805,512.525,2.44388e+11,1.00722,0.885877,15,0.47639,1270,0.1,1
app_10,57.5341,20729,6904.3,933.006,94.6654,6.83745e+11,1.05429,0.885877,74,7.19731,245,0.01,2
app_11,515.458,23853.5,6485.86,1171.57,4.77926,6.15521e+11,1.12654,0.885877,1347,153.88,14,0.001,3
app_12,245.571,22953.7,6489.8,1212.71,6.25438,6.50805e+11,1.12035,0.885877,1046,108.467,18,0.001,3
app_13,1438.96,23275.1,6053.52,1826.41,3.18931,9.70853e+11,1.13889,0.885877,2006,244.149,9,0.001,3
app_14,75.7017,22244.1,6962.5,320.134,6.41157,1.39883e+11,1.12638,0.885877,1063,23.3138,19,0.001,3
app_15,79.2292,23854.2,6340.21,11.4797,13.2734,8.01257e+09,1.2602,0.885877,467,0.616351,43,0.001,3
app_2,2.95868,17360.9,7095.2,792.164,2366.28,6.56098e+11,1.03209,0.885877,3,0.277302,5134,0.1,1
app_3,19.2948,19593.4,7705.4,278.984,298.252,2.52625e+11,1.00527,0.885877,26,0.847735,726,0.1,1
app_4,7.51007,18895.1,7604.3,324.279,1083.37,2.55946e+11,1.01778,0.885877,7,0.236113,2562,0.1,1
app_5,0.668537,20108.7,7691.6,228.44,1103.89,1.88087e+11,1.01527,0.885877,7,0.170369,2773,0.1,1
app_6,5.53424,20763.4,6745.6,1157.1,74.3509,8.55146e+11,1.05253,0.885877,91,11.4019,194,0.01,2
app_7,52.2637,20692.2,7328.7,526.821,67.4859,3.828e+11,1.03741,0.885877,109,5.71343,174,0.01,2
app_8,42.7224,20921.6,7411.4,217.406,178.076,1.54768e+11,1.05734,0.885877,42,0.869481,459,0.01,2
app_9,1.07978,19279.4,7788.5,184.557,372.227,1.53964e+11,1.00724,0.885877,21,0.413881,896,0.1,1
