app_id,start_app,end_app,effective_cpu,effective_io,effective_iter,total_bytes,stretch,utilization,Tcomp,Tio,iterations,priority,group_id
app_1,5.85378,20298.1,7150.62,747.779,894.244,6.40847e+11,1.02676,0.901077,8,0.71603,2268,0.1,1
app_10,7.00658,21009,7040.2,847.598,75.6625,5.54582e+11,1.05335,0.901077,92,7.29713,201,0.01,2
app_11,659.607,21799.2,7794.3,35.3621,4.50029,2.15229e+10,1.02356,0.901077,1663,5.38071,12,0.001,3
app_12,120.039,23174.1,6968.57,776.664,9.90289,3.44686e+11,1.0939,0.901077,702,35.1892,28,0.001,3
app_13,132.292,22463,6534.86,1235.59,6.0902,5.45914e+11,1.12982,0.901077,1034,89.3898,18,0.001,3
app_14,509.407,22672.7,7137.4,831.102,8.32946,3.56236e+11,1.06757,0.901077,872,44.5294,22,0.001,3
app_15,1334.59,23305.2,6971.7,820.457,4.42641,3.53927e+11,1.09206,0.901077,1638,88.4817,12,0.001,3
app_2,1.07416,20456.1,7228.46,607.504,1201.85,4.85219e+11,1.03712,0.901077,6,0.403676,3085,0.1,1
app_3,7.00963,19333.5,7100.6,817.868,787.814,7.13008e+11,1.02385,0.901077,9,0.905668,1910,0.1,1
app_4,3.19996,19548.4,7562.7,372.099,444.457,3.20297e+11,1.01484,0.901077,17,0.719768,1090,0.1,1
app_5,1.9618,15444.8,7516,484,3757.7,3.44731e+11,1.01772,0.901077,2,0.0917325,7253,1,0
app_6,66.3291,20519,7690.9,170.54,44.5811,1.1256e+11,1.02519,0.901077,172,2.55818,114,0.01,2
app_7,105.52,20775.5,7338.74,510.132,72.027,3.3418e+11,1.04263,0.901077,102,4.60189,187,0.01,2
app_8,88.6536,20887.1,7386,527.497,34.2788,3.45035e+11,1.03479,0.901077,212,9.85814,91,0.01,2
app_9,28.8186,21306.4,6708.17,1066.94,126.314,6.86322e+11,1.08189,0.901077,53,5.43144,340,0.01,2
