app_id,start_app,end_app,effective_cpu,effective_io,effective_iter,total_bytes,stretch,utilization,Tcomp,Tio,iterations,priority,group_id
app_1,1.77714,15845.4,6482.6,1517.4,3241.82,4.87453e+11,1.14777,0.861147,2,0.150356,6420,1,1
app_10,26.88,20793,7527.6,472.4,63.1461,1.68109e+11,1.03954,0.861147,120,2.62671,163,1.00001,1.00001
app_11,925.758,24031,7024.6,975.4,5.34631,3.95449e+11,1.07816,0.861147,1242,79.0899,16,1.00001,1.00001
app_12,11.8417,20213.9,7679.5,320.5,239.505,1.07096e+11,1.02741,0.861147,32,0.446231,607,1.00001,1.00001
app_13,142.993,22355.2,6899.3,1100.7,16.9454,4.32032e+11,1.09121,0.861147,397,25.4136,48,1.00001,1.00001
app_14,489.744,21998.8,7276.7,723.3,11.8459,2.45124e+11,1.06357,0.861147,607,22.284,32,1.00001,1.00001
app_15,162.961,23062.3,7450.4,549.6,4.48171,1.9052e+11,1.04699,0.861147,1600,47.6299,13,1.00002,1.00002
app_2,0.46079,18438,6110.68,1889.32,2037.11,6.98382e+11,1.17491,0.861147,3,0.342712,4702,1,1
app_3,13.8204,21401,6765.9,1234.1,354.84,4.36287e+11,1.11077,0.861147,19,1.22898,960,1,1
app_4,13.1338,20657.2,6722.2,1277.8,560.181,4.59169e+11,1.11399,0.861147,12,0.819944,1457,1,1
app_5,8.27444,21531,6934.2,1065.8,630.231,3.74238e+11,1.09463,0.861147,11,0.594028,1707,1.00001,1.00001
app_6,14.7057,21767,6561.3,1438.7,345.688,5.21819e+11,1.12945,0.861147,19,1.51252,951,1.00001,1.00001
app_7,20.5042,21308.4,6978.2,1021.8,349.956,3.64353e+11,1.08954,0.861147,20,1.04101,935,1.00001,1.00001
app_8,14.5901,22708.2,6284.7,1715.3,72.2027,6.39357e+11,1.15539,0.861147,87,8.87996,209,1.00001,1.00001
app_9,87.4532,22212.6,6639.8,1360.2,59.0819,4.95113e+11,1.12125,0.861147,111,8.39174,167,1.00001,1.00001
