app_id,start_app,end_app,effective_cpu,effective_io,effective_iter,total_bytes,stretch,utilization,Tcomp,Tio,iterations,priority,group_id
app_1,2.72098,28465.1,4413.5,421.055,885.006,3.54317e+11,1.67792,0.784899,5,0.400358,3669,1,1
app_10,14.9626,24521.6,5725.42,452.831,178.895,4.47131e+11,1.29606,0.784899,32,2.49794,580,1,1
app_11,435.021,21304.3,7825.6,48.3049,7.74196,4.78386e+10,1.01607,0.784899,1004,6.83408,20,1,1
app_12,329.347,20425.4,7349.2,645.429,9.20929,6.45256e+11,1.00069,0.784899,800,71.6951,23,1,1
app_13,789.664,21734.7,7335.87,618.187,9.28534,6.17733e+11,1.00583,0.784899,798,63.8285,24,1,1
app_14,139.779,20910.8,7176.35,484.901,20.0492,4.83819e+11,1.04436,0.784899,362,23.2388,52,1,1
app_15,657.885,21858.9,7530.6,325.434,11.325,3.24714e+11,1.01842,0.784899,656,29.5195,30,1,1
app_2,0.452368,29875.9,3464.7,395.735,3470.02,3.24903e+11,2.11104,0.784899,1,0.093632,16506,1,1
app_3,1.03735,28164.6,4551.8,270.085,909.988,2.23805e+11,1.67518,0.784899,5,0.245939,3702,1,1
app_4,14.4396,24741,5950.74,35.7931,212.966,2.1607e+10,1.33951,0.784899,28,0.101441,694,1,1
app_5,2.16306,26257.2,4850.91,488.598,483.994,4.69091e+11,1.50376,0.784899,10,0.969197,1751,1,1
app_6,80.4006,22369.4,6653.29,388.15,73.0031,3.84716e+11,1.13668,0.784899,91,5.27008,208,1,1
app_7,168.793,21655.4,7293.17,126.733,41.8174,1.24815e+11,1.07846,0.784899,174,3.04427,113,1,1
app_8,108.804,22075.4,7192.5,108.336,54.0669,1.06013e+11,1.09611,0.784899,134,1.96321,147,1,1
app_9,23.195,20934.3,6874.21,670.766,43.7068,6.68589e+11,1.06061,0.784899,155,15.5486,117,1,1
