app_id,start_app,end_app,effective_cpu,effective_io,effective_iter,total_bytes,stretch,utilization,Tcomp,Tio,iterations,priority,group_id
app_1,7.6878,18828.2,7504.7,369.544,938.935,2.8415e+11,1.02711,0.895281,8,0.302609,2204,0.1,1
app_10,79.234,20944.4,7582.5,77.5028,61.5475,5.3076e+10,1.04773,0.895281,123,0.870098,162,0.01,2
app_11,252.167,21387.5,7180.9,496.055,28.0297,3.43582e+11,1.0632,0.895281,252,12.2708,76,0.01,2
app_12,92.6636,20486.6,7619.9,196.986,29.679,1.35763e+11,1.0315,0.895281,259,4.52543,76,0.01,2
app_13,143.67,23010.3,6700.4,1117.15,6.53131,4.79346e+11,1.11425,0.895281,1040,68.478,19,0.001,3
app_14,699.554,23699.4,6407.1,1592.9,7.24087,6.65984e+11,1.13105,0.895281,908,83.248,21,0.001,3
app_15,875.82,24449.9,6397.11,1140.47,7.28918,4.57432e+11,1.16711,0.895281,879,64.46,22,0.001,3
app_2,10.4364,20322.3,7348.4,594.731,525.234,5.28594e+11,1.01562,0.895281,14,1.00685,1332,0.1,1
app_3,2.14976,19507.9,7353.3,567.298,667.538,5.1879e+11,1.01625,0.895281,11,0.776632,1632,0.1,1
app_4,17.0157,19901.8,7665.42,276.602,382.652,2.43271e+11,1.01155,0.895281,20,0.636036,951,0.1,1
app_5,4.63907,19423.2,7258.36,646.168,807.101,5.76468e+11,1.02108,0.895281,9,0.713743,1958,0.1,1
app_6,68.6972,21291.4,6835.23,821.11,84.2744,5.77284e+11,1.07926,0.895281,81,6.80225,227,0.01,2
app_7,116.691,21084.5,7435.7,252.586,61.8949,1.74591e+11,1.05121,0.895281,119,2.81599,164,0.01,2
app_8,3.53027,21159.1,6973.94,909.612,81.5218,6.28389e+11,1.05231,0.895281,85,7.74409,215,0.01,2
app_9,44.3258,20773.5,7170.7,780.455,27.9552,5.3885e+11,1.03767,0.895281,260,19.2447,72,0.01,2
