app_id,start_app,end_app,effective_cpu,effective_io,effective_iter,total_bytes,stretch,utilization,Tcomp,Tio,iterations,priority,group_id
app_1,5.30204,19772.4,7947,29.0421,295.121,1.12735e+10,1.00524,0.891604,27,0.0380861,727,0.1,1
app_10,81.9619,20641.5,6889.77,1009.26,91.9314,7.7426e+11,1.04384,0.891604,75,8.45984,237,0.01,2
app_11,200.593,23639.9,6339.73,832.154,14.1878,4.74287e+11,1.17405,0.891604,438,33.0367,43,0.001,3
app_12,994.811,22928.9,6395.6,1310.45,6.82099,7.32385e+11,1.12234,0.891604,970,104.626,19,0.001,3
app_13,464.444,22591.3,6186,864.887,7.91076,4.90556e+11,1.19822,0.891604,774,61.3195,24,0.001,3
app_14,103.41,23347.1,6182.5,848.999,10.0492,4.97705e+11,1.19757,0.891604,610,49.2061,31,0.001,3
app_15,420.673,23108.4,7134.7,640.683,6.41411,3.67611e+11,1.06634,0.891604,1108,61.2685,18,0.001,3
app_2,1.06932,19826.6,7586.8,388.392,424.185,3.46615e+11,1.00839,0.891604,18,0.815564,1049,0.1,1
app_3,1.51969,19629.2,7460.9,518.579,622.878,4.67321e+11,1.00905,0.891604,12,0.750114,1526,0.1,1
app_4,0.575674,17617.9,7488,374.046,1873.39,2.66786e+11,1.03162,0.891604,4,0.142438,4128,0.1,1
app_5,5.25708,18557.1,7483.5,464.342,933.834,3.85706e+11,1.01662,0.891604,8,0.412961,2169,0.1,1
app_6,28.6185,20767.4,7658.4,152.417,102.821,1.08756e+11,1.02998,0.891604,74,1.05588,266,0.01,2
app_7,4.68322,20318.4,7526.8,384.19,63.0745,3.0221e+11,1.02184,0.891604,120,4.79698,160,0.01,2
app_8,16.0201,20479.3,7222.3,674.352,82.0843,5.1344e+11,1.03416,0.891604,88,6.26146,210,0.01,2
app_9,83.6919,20404.9,7490.5,384.916,53.9429,2.99573e+11,1.02695,0.891604,138,5.54766,139,0.01,2
