app_id,start_app,end_app,effective_cpu,effective_io,effective_iter,total_bytes,stretch,utilization,Tcomp,Tio,iterations,priority,group_id
app_1,11.1688,26198.7,4884.2,581.095,325.806,5.58412e+11,1.46988,0.758752,15,1.71292,1162,1,1
app_10,7.75494,23897.5,6110.08,333.423,89.8406,3.30319e+11,1.24216,0.758752,68,3.69669,277,1,1
app_11,509.056,20735.5,7660.2,324.493,8.20775,3.24077e+11,1.00197,0.758752,929,40.5097,21,1,1
app_12,504.69,21134.4,6990.2,994.749,8.69665,9.9442e+11,1.00193,0.758752,832,110.491,22,1,1
app_13,16.8853,20579.8,7815,15.6379,12.4073,1.51194e+10,1.0217,0.758752,644,1.16303,31,1,1
app_14,861.585,22164.7,7754.4,188.416,8.73022,1.87881e+11,1.00727,0.758752,883,20.8756,23,1,1
app_15,352.768,21424.8,6970.8,806.04,12.978,8.05387e+11,1.02878,0.758752,541,61.9528,34,1,1
app_2,5.07161,27240.1,4375.4,213.604,726.163,1.72341e+11,1.75912,0.758752,6,0.237384,2870,1,1
app_3,4.28589,26591.8,4261.21,182.352,850.259,1.49058e+11,1.81395,0.758752,5,0.175156,3252,1,1
app_4,1.69297,27344.8,4241.7,179.661,846.956,1.46652e+11,1.82301,0.758752,5,0.173143,3398,1,1
app_5,0.157383,28082.3,4433.8,303.733,633.814,2.58563e+11,1.7049,0.758752,7,0.407829,2584,1,1
app_6,1.62264,24076.5,6079.4,281.349,108.293,2.77143e+11,1.25855,0.758752,56,2.56614,340,1,1
app_7,72.79,22890.1,6633.3,365.205,69.3074,3.61576e+11,1.14369,0.758752,96,5.24023,196,1,1
app_8,56.0531,22984.7,6812.7,144.649,68.8292,1.41101e+11,1.15045,0.758752,98,2.04494,199,1,1
app_9,60.9247,23319.1,6027.8,696.768,98.8023,6.92367e+11,1.19045,0.758752,61,7.06497,292,1,1
