app_id,start_app,end_app,effective_cpu,effective_io,effective_iter,total_bytes,stretch,utilization,Tcomp,Tio,iterations,priority,group_id
app_1,3.57732,27949.1,4514.2,334.374,563.843,3.03458e+11,1.66056,0.740528,8,0.538046,2236,1,1
app_10,41.9676,23778.8,6394.2,261.571,63.3203,2.5762e+11,1.20268,0.740528,100,4.02531,192,1,1
app_11,1747.56,22388.6,7142.1,812.029,4.21091,8.11819e+11,1.00579,0.740528,1653,202.955,11,1,1
app_12,762.877,22494.7,7292.7,516.706,5.59206,5.16516e+11,1.02443,0.740528,1309,86.086,15,1,1
app_13,1122.59,22602.4,7435.4,260.284,4.45673,2.60033e+11,1.03958,0.740528,1668,52.0065,12,1,1
app_14,670.372,21588.9,7323,358.377,8.54881,3.5805e+11,1.04152,0.740528,832,44.7563,23,1,1
app_15,304.118,21205.3,7480.6,304.5,10.9737,3.03783e+11,1.0277,0.740528,676,27.6167,29,1,1
app_2,2.30738,27355,4842.9,107.398,483.242,9.60546e+10,1.61978,0.740528,10,0.198871,1857,1,1
app_3,8.51318,27745.2,4419.3,434.051,552.622,3.98288e+11,1.66058,0.740528,8,0.720232,2168,1,1
app_4,2.8364,28386.5,4398.4,96.2124,879.121,6.47769e+10,1.79245,0.740528,5,0.0736938,3631,1,1
app_5,6.59261,25605.4,4943.36,627.199,260.635,6.14425e+11,1.43942,0.740528,19,2.35621,897,1,1
app_6,68.5969,23675.5,6344.4,156.609,68.4485,1.53042e+11,1.23125,0.740528,93,2.25062,209,1,1
app_7,68.1389,23739.9,5593.2,879.911,76.2501,8.74802e+11,1.23686,0.740528,74,11.5106,234,1,1
app_8,6.35797,27868.7,4648.64,76.8478,665.971,5.57171e+10,1.70055,0.740528,7,0.083785,2627,1,1
app_9,0.209212,24619.3,6091,163.03,100.536,1.58834e+11,1.28003,0.740528,60,1.57261,323,1,1
