app_id,start_app,end_app,effective_cpu,effective_io,effective_iter,total_bytes,stretch,utilization,Tcomp,Tio,iterations,priority,group_id
app_1,6.94256,18680,6900.8,898.135,984.631,8.04906e+11,1.03819,0.897273,7,0.817164,2302,0.1,1
app_10,32.1372,21388.2,7241.67,546.717,73.15,3.26599e+11,1.05705,0.897273,99,4.4135,194,0.01,2
app_11,794.992,22158.6,7295.97,684.8,4.82998,2.29461e+11,1.06306,0.897273,1520,57.3652,13,0.001,3
app_12,100.254,20981.2,7383.04,402.733,57.6558,2.41606e+11,1.04923,0.897273,128,4.16563,151,0.01,2
app_13,487.028,23308.3,7244.31,740.36,5.95077,2.62435e+11,1.06571,0.897273,1183,47.3704,17,0.001,3
app_14,374.974,22088.8,7506.8,362.291,8.05298,1.37352e+11,1.04655,0.897273,930,17.169,22,0.001,3
app_15,651.21,22676.1,7064.36,723.77,9.48828,2.81121e+11,1.08911,0.897273,747,28.1121,26,0.001,3
app_2,0.517617,18702.2,7147.5,665.246,893.723,5.8835e+11,1.03415,0.897273,8,0.658109,2091,0.1,1
app_3,0.668181,19580.4,7466.1,369.284,620.096,3.15451e+11,1.02807,0.897273,12,0.508791,1521,0.1,1
app_4,12.6541,20151.3,7239.3,646.159,557.238,5.99815e+11,1.02052,0.897273,13,1.07687,1405,0.1,1
app_5,4.75817,19971,7061.9,802.64,879.707,7.18498e+11,1.02823,0.897273,8,0.816475,2198,0.1,1
app_6,79.9441,21301.8,7101.31,745.356,51.595,4.42742e+11,1.06044,0.897273,135,8.67583,140,0.01,2
app_7,86.2085,21213.1,7074,788.79,67.5153,4.78533e+11,1.05925,0.897273,104,7.14229,180,0.01,2
app_8,26.0783,21915.7,6584.7,926.587,168.879,5.55893e+11,1.12036,0.897273,39,3.28931,468,0.01,2
app_9,60.7789,21061.7,7361,354.557,91.0257,2.18323e+11,1.0555,0.897273,81,2.39915,239,0.01,2
