app_id,start_app,end_app,effective_cpu,effective_io,effective_iter,total_bytes,stretch,utilization,Tcomp,Tio,iterations,priority,group_id
app_1,5.185,20456.9,7617.9,94.0985,850.532,6.15566e+10,1.04174,0.886372,9,0.0723344,2171,0.1,1
app_10,3.51291,20965,7135.9,713.599,79.0694,4.60508e+11,1.05313,0.886372,90,5.82921,208,0.01,2
app_11,334.291,22648.2,6548.3,1401.53,3.94398,7.12725e+11,1.10177,0.886372,1697,178.181,11,0.001,3
app_12,46.8921,22319.9,7012.3,408.574,8.10656,2.28081e+11,1.10491,0.886372,858,28.5102,23,0.001,3
app_13,349.671,22288.1,6945.1,587.032,5.19898,3.05578e+11,1.10335,0.886372,1277,61.1157,15,0.001,3
app_14,511.672,22226.9,6487.4,1479.57,7.54258,7.45893e+11,1.106,0.886372,847,106.556,21,0.001,3
app_15,332.318,24437,6399.9,100.77,15.2424,4.68762e+10,1.24093,0.886372,421,3.12508,48,0.001,3
app_2,4.46394,17824.9,7088.8,360.199,1771.76,2.75015e+11,1.08639,0.886372,4,0.1552,3957,0.1,1
app_3,2.9974,20442.7,7130.1,651.909,891.756,5.94621e+11,1.03564,0.886372,8,0.666616,2279,0.1,1
app_4,6.98522,20437.1,7007.9,874.055,778.613,7.9714e+11,1.02498,0.886372,9,1.02329,1989,0.1,1
app_5,2.00286,20232.6,6953.4,977.872,533.1,9.18433e+11,1.01628,0.886372,13,1.72314,1350,0.1,1
app_6,85.0881,21009.5,6886.44,1090.89,48.5089,7.04976e+11,1.05382,0.886372,143,14.4051,127,0.01,2
app_7,38.9567,20657,7763.1,124.941,49.0346,7.13755e+10,1.02113,0.886372,159,1.45664,125,0.01,2
app_8,12.6766,20566.4,7589.24,173.709,143.843,9.39873e+10,1.04123,0.886372,53,0.657254,369,0.01,2
app_9,55.0248,20223,7798.9,52.5223,69.4565,2.21289e+10,1.02288,0.886372,112,0.320708,177,0.01,2
