app_id,start_app,end_app,effective_cpu,effective_io,effective_iter,total_bytes,stretch,utilization,Tcomp,Tio,iterations,priority,group_id
app_1,4.35585,28670.5,4016.61,340.078,574.402,3.04689e+11,1.8513,0.729959,7,0.530369,2480,1,1
app_10,59.4681,25193.3,5524.97,372.909,86.1826,3.6844e+11,1.35745,0.729959,64,4.24026,290,1,1
app_11,336.692,20494.5,7244.2,735.586,5.92184,7.35258e+11,1.00257,0.729959,1238,122.543,15,1,1
app_12,41.6477,20896.7,7399.1,597.574,6.19345,5.9743e+11,1.00043,0.729959,1199,99.5717,16,1,1
app_13,442.804,21546.5,7291.9,340.991,9.44476,3.40647e+11,1.04814,0.729959,795,34.0647,25,1,1
app_14,1924.91,23279.7,7430,438.318,3.69192,4.38089e+11,1.01677,0.729959,1995,109.522,10,1,1
app_15,1060.3,22444.9,7480.6,491.548,5.8961,4.91356e+11,1.00352,0.729959,1306,81.8926,15,1,1
app_2,8.13216,27603.2,4336.1,308.493,434.307,2.89958e+11,1.72933,0.729959,10,0.668107,1725,1,1
app_3,4.45187,29662.5,4394.4,52.8674,487.296,3.44143e+10,1.80635,0.729959,9,0.0706659,2202,1,1
app_4,0.957442,29152.9,3838,104.504,959.262,7.28821e+10,2.04557,0.729959,4,0.075998,4379,1,1
app_5,1.24135,27945.6,4459.1,343.797,319.6,3.21407e+11,1.67346,0.729959,14,1.00755,1296,1,1
app_6,25.7946,23660,6150.6,471.634,53.0661,4.69178e+11,1.2085,0.729959,116,8.85241,160,1,1
app_7,45.6244,22858.6,6350.1,542.404,36.9024,5.40254e+11,1.16104,0.729959,174,14.6014,106,1,1
app_8,13.2865,24869.7,5602,352.658,81.6901,3.48618e+11,1.3444,0.729959,69,4.25144,272,1,1
app_9,56.2574,24852.1,6077.4,13.2172,75.6326,8.59019e+09,1.31449,0.729959,80,0.114536,249,1,1
