app_id,Tcomp,Tio,iter,witer,alpha_io,compute_size,io_size,mu,desyn_time
1,11.161091392972468,0.16228272770101398,1767,11.323374120673481,0.014331658211727608,11e9,162282727.70101398,10,3.1908277621009846
2,8.688583427593382,0.10826612761171558,2274,8.796849555205098,0.012307375149738066,8e9,108266127.61171558,10,1.8175812973683696
3,7.511878284135808,0.06914180549458673,2639,7.581020089630394,0.009120382834648005,7e9,69141805.49458674,10,2.8275137408500206
4,8.082963379720349,0.19155685413460713,2418,8.274520233854956,0.023150206745625915,8e9,191556854.13460714,10,0.5397766779332414
5,11.855050971212524,0.22609601386431066,1656,12.081146985076835,0.018714780487613835,11e9,226096013.86431065,10,10.111838375731898
6,7.884377944577587,0.08901365016723783,2509,7.973391594744824,0.011163837760822604,7e9,89013650.16723783,10,6.40699148876468
7,11.683997441861422,0.20094302526287555,1683,11.884940467124297,0.01690736489751186,11e9,200943025.26287556,10,5.574087678014722
8,10.136920897688391,0.17811959264600505,1939,10.315040490334397,0.017267948954045327,10e9,178119592.64600503,10,8.751566178014754
9,9.4061227956281,0.18485106693605693,2086,9.590973862564157,0.019273440798079373,9e9,184851066.93605694,10,1.0234270921100217
10,9.225032024516686,0.18512584235023694,2126,9.410157866866923,0.019672979451499244,9e9,185125842.35023692,10,7.574101538980536
11,10.976957880189547,0.10500450197379899,1805,11.081962382163345,0.009475262444745884,10e9,105004501.97379899,10,6.2204108699038265
12,8.169680171505739,0.10283778495740392,2418,8.272517956463142,0.012431255574012862,8e9,102837784.95740393,10,8.087722890911644
13,11.374632812561455,0.25124461852069874,1721,11.625877431082154,0.02161080916344329,11e9,251244618.52069873,10,4.874012825533102
14,10.599900945718323,0.1243820769590573,1865,10.72428302267738,0.011598171802818068,10e9,124382076.9590573,10,7.232764411376528
15,8.072769507594069,0.06304307859961558,2459,8.135812586193685,0.0077488361404241856,8e9,63043078.59961558,10,6.5999594426841695
16,9.956275989862585,0.2171626451531642,1966,10.17343863501575,0.021346041682083434,9e9,217162645.15316418,10,8.941350970965601
17,10.884455056269838,0.2155627198562856,1802,11.100017776126123,0.01942003375165012,10e9,215562719.8562856,10,0.5969506699664868
18,10.876906420213096,0.03514850351148839,1833,10.912054923724584,0.003221070985912087,10e9,35148503.51148839,10,4.676129787857748
19,13.055193179894188,0.09914179417353154,1521,13.15433497406772,0.007536815382075821,13e9,99141794.17353155,10,10.830746504360919
20,9.593946199459785,0.2158219328023421,2039,9.809768132262127,0.022000717029442538,9e9,215821932.80234212,10,6.469958888624804
21,81.15947385774813,1.5866357464913905,242,82.74610960423952,0.01917474735767032,81e9,1586635746.4913905,100,62.158993220272215
22,114.80898028193069,1.8344954056197482,172,116.64347568755043,0.015727372618197344,114e9,1834495405.619748,100,113.40903880725897
23,95.31235077595642,1.36921148494935,207,96.68156226090576,0.014162074473459407,95e9,1369211484.9493499,100,13.250112307504105
24,86.73849600078489,1.9905921268586049,226,88.7290881276435,0.022434493229491863,86e9,1990592126.858605,100,41.0595790916789
25,71.16149329955539,1.346693376426424,276,72.50818667598182,0.018572983798979946,71e9,1346693376.426424,100,56.01348789017796
26,145.36277175607543,0.41339646436604577,138,145.7761682204415,0.0028358302280309024,145e9,413396464.3660458,100,0.9346012973290572
27,101.559647159571,0.06595729085370879,197,101.6256044504247,0.0006490223719740261,101e9,65957290.85370879,100,83.8320360813619
28,124.59765304784386,2.687899086757619,158,127.28555213460149,0.02111707921033511,124e9,2687899086.757619,100,29.20079584869737
29,102.6407270297244,1.0653134329815679,193,103.70604046270597,0.01027243377751625,102e9,1065313432.9815679,100,19.031460076036534
30,105.41417745125013,0.16855494064760734,190,105.58273239189774,0.0015964252565653623,105e9,168554940.64760736,100,23.311407425458768
31,115.6218557158993,1.5201990671481258,171,117.14205478304743,0.01297739799735975,115e9,1520199067.148126,100,93.73322830291855
32,118.09995768612707,1.8038158709400043,167,119.90377355706707,0.015043862402558124,118e9,1803815870.9400043,100,95.48824919439943
33,99.94006328977375,2.21906376003274,196,102.15912704980649,0.02172163979974948,99e9,2219063760.03274,100,49.63469543011186
34,56.827166633830515,1.2711069508842843,345,58.098273584714796,0.02187856665019221,56e9,1271106950.8842843,100,27.43846072781715
35,55.442514063163884,0.6078704195062434,357,56.050384482670125,0.010845071360646726,55e9,607870419.5062435,100,54.93748983137708
36,80.66621091615826,0.38135853831820615,247,81.04756945447647,0.004705366748011006,80e9,381358538.31820613,100,33.79361695266556
37,105.94256701100376,0.7359344940600089,188,106.67850150506376,0.006898620468764983,105e9,735934494.0600089,100,47.600701498081946
38,94.52315232864134,0.8573148517905238,210,95.38046718043186,0.008988369182221928,94e9,857314851.7905238,100,37.01315493609791
39,89.6404619223371,0.5412241356320471,222,90.18168605796915,0.006001486103111291,89e9,541224135.632047,100,38.59218424444819
40,97.59687101337886,0.7414614664529549,204,98.33833247983182,0.0075399027800783685,97e9,741461466.4529549,100,68.10069411384292
41,1025.3073918927744,1.133365793816894,20,1026.4407576865913,0.0011041706843084565,1025e9,1133365793.816894,1000,350.4560695060819
42,675.6416463376004,10.8180391928776,30,686.4596855304779,0.015759176279256232,675e9,10818039192.877602,1000,530.9414223398819
43,785.6291639942951,13.395792987461926,26,799.0249569817571,0.01676517469249433,785e9,13395792987.461926,1000,550.4727811569865
44,1209.186270972951,18.398081629185942,17,1227.584352602137,0.014987223965658353,1209e9,18398081629.185944,1000,919.84461149211
45,886.020989650125,17.386044112293092,23,903.4070337624181,0.019244973154443415,886e9,17386044112.29309,1000,546.5120622244069
46,1016.0531273235018,19.686353491220082,20,1035.739480814722,0.019007051344354105,1016e9,19686353491.22008,1000,884.3694688150515
47,1046.2417636119148,22.771940683328424,19,1069.0137042952433,0.021301822971802803,1046e9,22771940683.328423,1000,74.90618031885995
48,859.9669319560799,11.353709025083116,23,871.320640981163,0.013030460304828899,859e9,11353709025.083117,1000,829.9902788672833
49,775.535795943632,12.525450310741013,26,788.061246254373,0.015894006170553407,775e9,12525450310.741013,1000,282.18472697210956
50,1417.1351686369924,7.730294279343296,15,1424.8654629163357,0.005425280126813768,1417e9,7730294279.343296,1000,442.48305322905156
51,1471.2248981149094,20.34752467787145,14,1491.5724227927808,0.013641660550262308,1471e9,20347524677.871452,1000,347.5363815028302
52,1298.1738683910885,26.074874715048782,16,1324.2487431061372,0.019690314867800412,1298e9,26074874715.048782,1000,762.0514616872443
53,1009.0059701056252,13.028987241064202,20,1022.0349573466895,0.012748083759178675,1009e9,13028987241.064201,1000,277.2565853480045
54,821.4743949677257,4.220007214980706,25,825.6944021827064,0.0051108584529884205,821e9,4220007214.9807057,1000,421.71463185346283
55,1385.0247506952305,17.593970994098704,15,1402.6187216893293,0.012543659030095031,1385e9,17593970994.098705,1000,1111.2013310354423
56,1217.940517527749,24.060996300931215,17,1242.0015138286803,0.01937275923823886,1217e9,24060996300.931217,1000,665.3324946145111
57,1110.8845420964237,25.664236004549124,18,1136.5487781009729,0.02258084870535057,1110e9,25664236004.549126,1000,982.0004216956821
58,985.299836494471,1.585063327570073,21,986.8848998220411,0.0016061278552908223,985e9,1585063327.570073,1000,859.1971291518738
59,1015.0605160966448,6.656497522237572,20,1021.7170136188824,0.006515010940906733,1015e9,6656497522.237572,1000,1010.124421347057
60,790.7400110661795,1.7669750364400625,26,792.5069861026195,0.002229601842539798,790e9,1766975036.4400625,1000,294.72399880607753
