app_id,Tcomp,Tio,iter,witer,alpha_io,compute_size,io_size,mu,desyn_time
1,12.721582479163345,0.13930009609940167,1556,12.860882575262746,0.010831301451063577,12e9,139300096.09940165,10,6.953137264217073
2,6.967410564488132,0.16640028250400857,2804,7.133810846992141,0.023325580965490363,6e9,166400282.50400856,10,6.869386057004692
3,9.20924597395006,0.06765897198323494,2156,9.276904945933294,0.007293269940519819,9e9,67658971.98323494,10,4.114892751730247
4,10.175071003421499,0.21226900369098683,1926,10.387340007112485,0.020435357227706098,10e9,212269003.69098684,10,9.524489434466897
5,10.427092244751794,0.10127210773059205,1900,10.528364352482386,0.009618978251518626,10e9,101272107.73059204,10,7.322433996370727
6,9.30864762472616,0.08966864496981346,2129,9.398316269695973,0.009540926523077538,9e9,89668644.96981345,10,7.96727646149651
7,10.899260321917655,0.026354641086542133,1831,10.925614963004197,0.0024121883459908644,10e9,26354641.086542133,10,2.18917615700326
8,8.512277143310564,0.17846094177652416,2302,8.690738085087089,0.020534612829116897,8e9,178460941.77652416,10,3.0510812165126695
9,12.006522520419912,0.22660950930416815,1635,12.23313202972408,0.018524242912898517,12e9,226609509.30416813,10,3.7880946653612146
10,6.096001923943261,0.11348220810352223,3221,6.209484132046783,0.018275625750913384,6e9,113482208.10352223,10,2.75107981426408
11,9.423873700713505,0.19995409490422134,2079,9.623827795617727,0.020776981794631836,9e9,199954094.90422133,10,0.7460043746632633
12,6.867328533210879,0.15716813298714502,2848,7.024496666198024,0.022374291063933488,6e9,157168132.987145,10,2.545733906808395
13,9.558636675760779,0.17962286566745778,2054,9.738259541428237,0.018445068639145537,9e9,179622865.6674578,10,9.087584838382826
14,8.983996004271864,0.21163448928794124,2175,9.195630493559806,0.02301467957375628,8e9,211634489.28794125,10,2.232129812801474
15,8.940769852877036,0.17640695448535199,2194,9.117176807362387,0.01934885746022806,8e9,176406954.48535198,10,4.09981682364574
16,10.629658312182826,0.047633604113957624,1874,10.677291916296785,0.004461206501365229,10e9,47633604.11395762,10,8.39577942666761
17,6.703851595371932,0.08507413329504204,2946,6.788925728666975,0.012531310062180721,6e9,85074133.29504204,10,0.9694326780120649
18,8.795464112204659,0.11574745722314654,2245,8.911211569427806,0.012988969717681022,8e9,115747457.22314654,10,5.017972819973048
19,9.791510814047811,0.12068106156332917,2018,9.912191875611141,0.01217501265893206,9e9,120681061.56332916,10,6.339709302906606
20,7.505483331452505,0.04714214899532808,2649,7.552625480447833,0.0062418226770768965,7e9,47142148.995328076,10,4.5312246171099115
21,108.38474658778797,0.13348252475941905,185,108.51822911254739,0.001230047023905822,108e9,133482524.75941905,100,105.22284464642166
22,71.50161377298119,1.4100111457152145,275,72.9116249186964,0.01933863286255813,71e9,1410011145.7152145,100,30.248211498172424
23,118.56930756077064,2.7315208113587683,165,121.3008283721294,0.022518566839287754,118e9,2731520811.3587685,100,109.99630530496857
24,111.99348403065962,0.6065914077176267,178,112.60007543837725,0.005387131450454458,111e9,606591407.7176267,100,0.749733450821055
25,92.95384848586626,0.43297699364552716,215,93.38682547951178,0.0046363819673955866,92e9,432976993.6455272,100,27.18145736763747
26,101.15692917364248,1.2128288926849278,196,102.3697580663274,0.011847531102878174,101e9,1212828892.6849277,100,101.24559249884274
27,74.28542374985743,0.6299487999493469,267,74.91537254980678,0.008408805542954905,74e9,629948799.9493469,100,9.941648487686368
28,101.23059136138731,1.5538406875273876,195,102.7844320489147,0.015117471163219749,101e9,1553840687.5273876,100,83.02679839076272
29,125.51085615679023,1.1649383242079732,158,126.67579448099819,0.009196218811816632,125e9,1164938324.2079732,100,93.72000290715464
30,98.75982795769096,1.6365629565629634,200,100.39639091425393,0.01630101382788462,98e9,1636562956.5629632,100,64.12914730878659
31,80.96604608805596,1.0626556093303192,244,82.02870169738628,0.012954680341651429,80e9,1062655609.3303192,100,55.300273729455945
32,112.78262421538449,0.5985037907383416,177,113.38112800612284,0.005278689683754258,112e9,598503790.7383416,100,37.31746846224328
33,125.08181019528031,0.9610345997795021,159,126.0428447950598,0.007624666051786618,125e9,961034599.7795022,100,45.22540053556664
34,98.78533157164065,1.1783175083259867,201,99.96364907996664,0.01178745993339422,98e9,1178317508.3259866,100,79.90515026713655
35,107.03979893534927,1.3144151967326234,185,108.35421413208189,0.012130725207700498,107e9,1314415196.7326233,100,104.37478414809071
36,118.6120196679693,0.7775194922068428,168,119.38953916017616,0.006512459112215033,118e9,777519492.2068428,100,89.79927887183646
37,113.10154233072068,1.7261009202253341,175,114.82764325094601,0.015032102648428376,113e9,1726100920.2253342,100,95.7235563830437
38,104.25035807389291,2.09553112724492,189,106.34588920113784,0.019704862529115037,104e9,2095531127.2449203,100,2.6805431606185017
39,120.83800015454473,1.9934910099835124,163,122.83149116452825,0.016229478215104502,120e9,1993491009.9835124,100,85.9050521850587
40,105.12014447224983,1.3720206445363266,188,106.49216511678615,0.012883770773480664,105e9,1372020644.5363266,100,36.17135235414197
41,1273.2442633600745,2.348749431047557,16,1275.593012791122,0.0018413000130098425,1273e9,2348749431.047557,1000,58.83402948066966
42,912.8198236059469,1.7010910139218474,22,914.5209146198688,0.0018600897876993065,912e9,1701091013.9218473,1000,823.6086776369006
43,1110.6796611551695,9.712425150174,18,1120.3920863053436,0.00866877343109602,1110e9,9712425150.174002,1000,196.63983394762872
44,1003.5860640973991,18.361194742310047,20,1021.9472588397092,0.017966871170198004,1003e9,18361194742.310047,1000,96.79242846292128
45,1189.9121351098488,5.853877851689444,17,1195.7660129615383,0.004895504461772768,1189e9,5853877851.689445,1000,545.6485145605664
46,921.3527392584734,9.086779032076084,22,930.4395182905495,0.009766114673171636,921e9,9086779032.076084,1000,568.7587453919366
47,1033.2597724927264,21.362724252634216,19,1054.6224967453606,0.02025627588882381,1033e9,21362724252.634216,1000,327.5558597794726
48,1159.723916978596,15.841005630318419,18,1175.5649226089145,0.01347522822913319,1159e9,15841005630.318419,1000,282.9147060187691
49,936.8029240042438,15.951670456079743,21,952.7545944603236,0.016742685418500002,936e9,15951670456.079742,1000,509.3886672774446
50,526.3074324233871,7.5903324365583105,38,533.8977648599455,0.014216827520432572,526e9,7590332436.5583105,1000,452.4616561880062
51,1203.8728421962512,26.295113675900744,17,1230.1679558721519,0.021375222424208168,1203e9,26295113675.900745,1000,1079.5910532558314
52,1183.6572938867253,22.460812547382297,17,1206.1181064341076,0.018622398940504895,1183e9,22460812547.382298,1000,865.9259122584702
53,849.4415727535379,17.39683221114736,24,866.8384049646853,0.020069291013768708,849e9,17396832211.147358,1000,616.9654459349408
54,1025.2176449978376,20.546422690783107,20,1045.7640676886208,0.01964728309722424,1025e9,20546422690.783108,1000,538.4945857809221
55,994.5440660147336,17.34514681429841,20,1011.8892128290321,0.01714134966001365,994e9,17345146814.29841,1000,396.45324575340936
56,887.0159960449807,6.88925862564014,23,893.9052546706209,0.007706922618078399,887e9,6889258625.64014,1000,59.683091556200246
57,1429.1668506373583,14.400362695278803,14,1443.567213332637,0.009975540149622786,1429e9,14400362695.278803,1000,931.5003757982929
58,1147.0010103703853,15.22756349679496,18,1162.2285738671803,0.013102038479510976,1147e9,15227563496.79496,1000,940.4520734039227
59,717.5006652836843,9.537533912216812,28,727.038199195901,0.013118339480326145,717e9,9537533912.216812,1000,682.5801298436478
60,1011.5164052045336,23.051162849765216,20,1034.5675680542988,0.02228096410669176,1011e9,23051162849.765217,1000,535.0725087673057
