app_id,start_app,end_app,effective_cpu,effective_io,effective_iter,total_bytes,stretch,utilization,Tcomp,Tio,iterations,priority,group_id
app_1,3.6904,19329.9,7639.3,360.7,953.521,9.10775e+10,1.03488,0.952611,8,0.0954691,2304,1,1
app_10,0.517841,19324.8,7566.3,433.7,944.921,1.0635e+11,1.04266,0.952611,8,0.11254,2284,1.00001,1.00001
app_11,1.59842,20966.9,7299.97,700.032,813.541,1.89543e+11,1.06816,0.952611,9,0.233066,2134,1.00001,1.00001
app_12,4.43859,18801.1,7623.7,376.3,1089.93,9.2771e+10,1.03674,0.952611,7,0.085111,2558,1.00001,1.00001
app_13,5.54143,20543.9,7524.6,475.4,685.091,1.27946e+11,1.0454,0.952611,11,0.186511,1755,1.00001,1.00001
app_14,3.53386,19021,7853.4,146.6,875.097,2.85655e+10,1.01498,0.952611,9,0.0326463,2078,1.00001,1.00001
app_15,9.04196,19362.5,7751.2,248.8,776.818,5.85175e+10,1.02436,0.952611,10,0.075312,1878,1.00002,1.00002
app_16,2.14639,20650.7,7460.36,539.64,1064.53,1.36986e+11,1.053,0.952611,7,0.128655,2750,1.00002,1.00002
app_17,7.32496,19547.7,7738.2,261.8,967.024,5.81272e+10,1.02612,0.952611,8,0.0601108,2361,1.00002,1.00002
app_18,6.20771,19635.2,7536.1,463.9,755.401,1.20644e+11,1.04483,0.952611,10,0.159793,1851,1.00002,1.00002
app_19,9.32926,20024.5,7305.2,694.8,810.87,1.88641e+11,1.06754,0.952611,9,0.232603,2033,1.00002,1.00002
app_2,4.12359,19782.2,7330.6,669.4,1469.74,1.64442e+11,1.06737,0.952611,5,0.111865,3629,1,1
app_20,4.9728,19111.2,7624.6,375.4,952.593,9.51426e+10,1.0363,0.952611,8,0.0999398,2274,1.00002,1.00002
app_21,91.0546,21042.9,7461.7,538.3,69.1334,1.66255e+11,1.04877,0.952611,107,2.40949,182,1.00002,1.00002
app_22,50.9612,20855.4,7431.4,568.6,77.5953,1.58938e+11,1.05397,0.952611,97,2.03766,201,1.00002,1.00002
app_23,38.7355,20401.7,7686.3,313.7,75.9305,8.24458e+10,1.02977,0.952611,102,1.08481,193,1.00002,1.00002
app_24,69.511,20834,7662.78,337.224,104.518,9.82663e+10,1.03079,0.952611,73,0.941105,271,1.00002,1.00002
app_25,42.3395,20151.3,7922.9,77.1,79.2399,2.03226e+10,1.00715,0.952611,100,0.257249,199,1.00003,1.00003
app_26,39.0923,20171.5,7854.6,145.4,90.9952,3.84408e+10,1.01355,0.952611,85,0.422426,232,1.00003,1.00003
app_27,58.2161,21140.5,7322,678,65.857,1.86582e+11,1.06545,0.952611,112,2.827,174,1.00003,1.00003
app_28,41.4657,20864.2,7469.54,530.457,70.2119,1.38016e+11,1.05159,0.952611,106,1.94709,184,1.00003,1.00003
app_29,13.5011,21070,7344.9,655.1,72.4894,1.88343e+11,1.06196,0.952611,101,2.61588,192,1.00003,1.00003
app_3,8.79431,19599.7,7925,75,721.777,7.56564e+09,1.0085,0.952611,11,0.0104787,1763,1,1
app_30,62.9273,20057.6,7912.8,87.2,78.5853,2.2617e+10,1.00814,0.952611,101,0.286291,196,1.00003,1.00003
app_31,54.9131,20031.9,7991.4,8.6,82.1117,9.96815e+08,1.00095,0.952611,97,0.0121563,205,1.00003,1.00003
app_32,45.9345,20065.2,7944.3,55.7,73.3891,1.44586e+10,1.00518,0.952611,109,0.198063,183,1.00003,1.00003
app_33,94.0875,20618.1,7795.7,204.3,63.8894,5.52487e+10,1.01899,0.952611,121,0.863261,164,1.00003,1.00003
app_34,105.626,21181.7,7459.1,540.9,70.0658,1.63103e+11,1.04957,0.952611,106,2.33005,184,1.00003,1.00003
app_35,17.781,20895.3,7522.63,477.371,69.4765,1.34169e+11,1.04482,0.952611,108,1.94066,182,1.00004,1.00004
app_36,98.6172,20377.2,7886.9,113.1,78.1625,3.26098e+10,1.01016,0.952611,101,0.418074,197,1.00004,1.00004
app_37,22.6241,20887.7,7560.45,439.545,98.7885,1.1414e+11,1.0424,0.952611,76,1.1536,258,1.00004,1.00004
app_38,5.00682,20609.7,7678.9,321.1,61.8022,8.6174e+10,1.03025,0.952611,124,1.3899,159,1.00004,1.00004
app_39,47.5771,20851.8,7499,501,66.2555,1.47974e+11,1.04617,0.952611,113,2.24203,173,1.00004,1.00004
app_4,6.92362,19848.6,7761.6,238.4,646.913,5.84871e+10,1.02301,0.952611,12,0.0903974,1604,1,1
app_40,32.3563,20251.9,7806.5,193.5,74.422,5.28418e+10,1.0179,0.952611,107,0.714078,186,1.00004,1.00004
app_41,685.869,22329.7,7388.47,611.527,10.0915,1.85981e+11,1.05618,0.952611,714,17.6404,28,1.00004,1.00004
app_42,1201.77,22002,7757.9,242.1,6.26618,6.7896e+10,1.02226,0.952611,1261,11.316,16,1.00004,1.00004
app_43,212.314,21319.6,7692.4,307.6,8.42668,9.23857e+10,1.02765,0.952611,915,10.2651,22,1.00004,1.00004
app_44,1298.08,22726.5,7560.4,439.6,5.47781,1.10507e+11,1.0429,0.952611,1341,22.1014,15,1.00004,1.00004
app_45,509.001,22426.9,7543.3,456.7,6.35793,1.1011e+11,1.04529,0.952611,1123,18.3517,18,1.00004,1.00004
app_46,176.143,21768.3,7834,166,6.12932,6.1695e+10,1.01321,0.952611,1317,10.2825,16,1.00005,1.00005
app_47,665.701,22483.4,7355.71,644.289,8.3114,1.59116e+11,1.06456,0.952611,867,18.9875,23,1.00005,1.00005
app_48,763.013,22657.1,7412.86,587.138,8.40888,1.44527e+11,1.05857,0.952611,891,17.4521,23,1.00005,1.00005
app_49,875.56,21364.1,7861.82,138.185,7.8625,3.42704e+10,1.01316,0.952611,1008,4.65305,20,1.00005,1.00005
app_5,6.17578,20679,7610.4,389.6,635.119,9.95684e+10,1.03762,0.952611,12,0.156801,1639,1.00001,1.00001
app_50,321.264,22103.3,7502.35,497.654,13.3853,1.7776e+11,1.04165,0.952611,555,13.6355,36,1.00005,1.00005
app_51,83.3546,21877.5,7450.21,549.785,7.96869,1.19128e+11,1.05689,0.952611,924,13.9323,22,1.00005,1.00005
app_52,787.257,21319.4,7646.3,353.7,7.91237,1.16261e+11,1.03059,0.952611,940,14.5327,21,1.00005,1.00005
app_53,37.8062,21442.8,7986.3,13.7,6.00894,2.76918e+09,1.00137,0.952611,1303,0.461531,16,1.00005,1.00005
app_54,493.585,22696.8,7479.1,520.9,6.83986,1.89024e+11,1.04328,0.952611,1063,27.0034,19,1.00005,1.00005
app_55,431.651,21129.6,7724.5,275.5,12.7979,7.08743e+10,1.02625,0.952611,603,5.45187,33,1.00005,1.00005
app_56,1003.02,22483.1,7388.56,611.442,6.51231,1.52214e+11,1.0609,0.952611,1107,23.7114,18,1.00006,1.00006
app_57,535.218,21571.3,7462,538,7.75504,1.69128e+11,1.04834,0.952611,981,24.1611,20,1.00006,1.00006
app_58,506.102,21872,7531.61,468.386,9.22068,1.40789e+11,1.0427,0.952611,804,15.5916,25,1.00006,1.00006
app_59,759.766,22021.9,7961.1,38.9,6.73175,7.58383e+09,1.00393,0.952611,1158,1.0834,18,1.00006,1.00006
app_6,7.29838,20529.5,7740.76,259.238,774.129,6.13344e+10,1.02537,0.952611,10,0.079206,1984,1.00001,1.00001
app_60,600.289,22409.9,7568.5,431.5,6.90654,1.43791e+11,1.03731,0.952611,1082,20.5416,19,1.00006,1.00006
app_7,6.20285,19340.4,7751,249,968.211,5.43601e+10,1.02494,0.952611,8,0.0561571,2343,1.00001,1.00001
app_8,0.408583,18961.9,7547.7,452.3,840.944,1.13493e+11,1.04422,0.952611,9,0.134951,1986,1.00001,1.00001
app_9,4.14378,19540.3,7341.9,658.1,816.704,1.78117e+11,1.06383,0.952611,9,0.218014,1994,1.00001,1.00001
