app_id,start_app,end_app,effective_cpu,effective_io,effective_iter,total_bytes,stretch,utilization,Tcomp,Tio,iterations,priority,group_id
app_1,9.52054,19863.3,7839.4,123.545,651.661,7.74098e+10,1.01051,0.966431,12,0.118909,1620,0.1,1
app_10,8.14882,18267.2,7755.7,201.667,967.554,1.64063e+11,1.01013,0.966431,8,0.169487,2209,0.1,1
app_11,7.90754,18833.8,7761.5,193.321,967.791,1.37298e+11,1.01281,0.966431,8,0.141837,2282,0.1,1
app_12,2.65834,19020.1,7889.4,64.7816,716.995,1.77061e+10,1.01175,0.966431,11,0.0246947,1706,0.1,1
app_13,0.548727,19131.6,7702.4,257.066,855.122,2.05875e+11,1.0116,0.966431,9,0.240789,2045,0.1,1
app_14,2.55157,19103.3,7878.9,79.1563,788.937,3.67468e+10,1.01066,0.966431,10,0.0465739,1880,0.1,1
app_15,4.38748,18640.3,7733.4,234.672,773.289,1.89885e+11,1.00968,0.966431,10,0.245647,1801,0.1,1
app_16,1.84717,18834.5,7754.5,204.087,860.346,1.63063e+11,1.01041,0.966431,9,0.189608,2025,0.1,1
app_17,1.70656,17872.5,7737,208.712,1107.02,1.2017e+11,1.01818,0.966431,7,0.108554,2470,0.1,1
app_18,0.0502312,20007,7882.1,82.4207,715.919,6.28061e+10,1.00693,0.966431,11,0.087718,1787,0.1,1
app_19,2.0723,18502.2,7879.1,72.678,874.214,3.34419e+09,1.01491,0.966431,9,0.00382631,2023,0.1,1
app_2,10.7768,19054,7746.5,213.208,703.4,1.74162e+11,1.01002,0.966431,11,0.247389,1675,0.1,1
app_20,9.8015,18602,7873.5,79.2055,877.014,1.75791e+10,1.0138,0.966431,9,0.0200446,2035,0.1,1
app_21,67.6661,20188.1,7770.8,180.247,81.9566,1.25944e+11,1.01308,0.966431,95,1.53591,207,0.01,2
app_22,74.6586,20300.3,7816,127.023,81.937,8.69014e+10,1.01229,0.966431,96,1.05977,206,0.01,2
app_23,76.3162,20268.9,7764.7,170.91,89.5782,1.17609e+11,1.01493,0.966431,87,1.32145,226,0.01,2
app_24,28.894,20190.1,7932.4,7.6206,82.735,9.12843e+08,1.00841,0.966431,96,0.0111322,208,0.01,2
app_25,80.4493,20267.6,7810.9,130.618,94.532,8.55619e+10,1.01311,0.966431,83,0.900652,238,0.01,2
app_26,106.38,20117.6,7768.2,174.458,75.2347,1.22066e+11,1.01391,0.966431,104,1.62754,188,0.01,2
app_27,107.396,20273.5,7918.8,42.2334,62.074,2.72542e+10,1.00679,0.966431,128,0.439583,156,0.01,2
app_28,86.7833,20442,7782.7,188.458,55.1131,1.27055e+11,1.01141,0.966431,139,2.31009,142,0.01,2
app_29,118.42,20264.1,7779.4,196.099,66.3218,1.37949e+11,1.01044,0.966431,118,2.05894,167,0.01,2
app_3,3.73848,19513.1,7856.8,91.6705,872.298,5.2218e+10,1.0115,0.966431,9,0.059883,2130,0.1,1
app_30,2.09172,20118.9,7782.4,159.876,102.736,1.05999e+11,1.01415,0.966431,76,1.03921,257,0.01,2
app_31,37.5171,20271.7,7808.7,135.126,74.2771,9.23254e+10,1.01253,0.966431,105,1.23101,188,0.01,2
app_32,7.73728,20286.4,7796.4,172.546,73.8508,1.17731e+11,1.01085,0.966431,105,1.59096,187,0.01,2
app_33,13.4126,20167.3,7878.4,54.968,78.97,3.43077e+10,1.01103,0.966431,100,0.434274,199,0.01,2
app_34,78.355,20458.5,7736.2,243.919,67.7413,1.72623e+11,1.01153,0.966431,113,2.53857,173,0.01,2
app_35,70.792,20221.5,7701.1,252.256,87.7659,1.72567e+11,1.01604,0.966431,88,1.96099,221,0.01,2
app_36,11.4377,20082.9,7862.8,106.006,62.4071,7.04556e+10,1.00841,0.966431,126,1.11834,157,0.01,2
app_37,68.1099,20296.9,7668.9,297.39,53.3718,2.08851e+11,1.01552,0.966431,145,3.94059,134,0.01,2
app_38,3.24948,20104.1,7919.9,20.8363,74.0253,1.18059e+10,1.00861,0.966431,107,0.159539,186,0.01,2
app_39,69.7042,20209.2,7741.2,194.221,88.3619,1.3104e+11,1.01623,0.966431,88,1.48909,222,0.01,2
app_4,5.11555,20050.5,7754.28,201.11,969.33,1.60984e+11,1.0107,0.966431,8,0.16612,2436,0.1,1
app_40,99.6012,20356.3,7888.1,64.1909,72.2592,4.24508e+10,1.00876,0.966431,109,0.589595,183,0.01,2
app_41,186.779,21262.8,7647.9,305.994,7.24538,1.44653e+11,1.02662,0.966431,1039,20.6647,19,0.001,3
app_42,552.2,21809.6,7536.4,348.256,11.0244,1.77266e+11,1.03712,0.966431,673,16.1151,29,0.001,3
app_43,51.6197,21612.2,7388,247.143,18.1492,1.26441e+11,1.06462,0.966431,405,7.0245,49,0.001,3
app_44,342.991,22275.7,7568.8,198.745,7.44791,1.02457e+11,1.04285,0.966431,1034,14.6367,20,0.001,3
app_45,121.601,21098.7,7605.2,280.204,7.30594,1.40303e+11,1.03286,0.966431,1052,20.0434,19,0.001,3
app_46,148.952,21196.6,7556.56,198.691,8.55976,1.07224e+11,1.04387,0.966431,938,11.9138,22,0.001,3
app_47,320.206,20915.8,7501,99.4048,10.3938,5.66624e+10,1.05853,0.966431,735,5.66624,27,0.001,3
app_48,98.0203,20977.8,7537.3,314.766,7.3321,1.64716e+11,1.03869,0.966431,1053,23.5308,19,0.001,3
app_49,189.722,21986.5,7560.68,421.462,6.9871,1.98497e+11,1.03104,0.966431,1068,28.9673,19,0.001,3
app_5,0.253111,19362.3,7896.3,67.9839,657.686,3.77656e+10,1.00831,0.966431,12,0.0573946,1593,0.1,1
app_50,94.32,21184.6,7475.06,183.245,14.3115,8.8537e+10,1.0577,0.966431,526,6.09055,38,0.001,3
app_51,261.235,21411.7,7446.8,367.305,7.76236,1.84677e+11,1.04829,0.966431,955,23.0847,21,0.001,3
app_52,109.587,21234,7596.4,100.987,13.0909,4.43952e+10,1.04701,0.966431,584,3.41501,35,0.001,3
app_53,997.99,22134.7,7489.2,421.854,7.02583,1.93062e+11,1.04136,0.966431,1048,27.5803,19,0.001,3
app_54,1209.4,21907,7855.2,79.5925,5.726,3.63362e+10,1.01374,0.966431,1378,6.05603,15,0.001,3
app_55,307.234,21307.5,7449.8,391.609,10.65,1.88868e+11,1.0473,0.966431,707,17.1698,28,0.001,3
app_56,291.877,21653.3,7653.9,115.706,8.47362,6.31353e+10,1.03667,0.966431,895,7.89191,23,0.001,3
app_57,981.257,21900.8,7449.4,306.133,7.1593,1.54081e+11,1.05215,0.966431,1034,22.0115,19,0.001,3
app_58,732.694,21842.3,7551.3,313.127,6.37759,1.49501e+11,1.03885,0.966431,1153,24.9168,17,0.001,3
app_59,119.831,20831.3,7806,44.9936,7.30695,2.22747e+10,1.02194,0.966431,1062,3.1821,19,0.001,3
app_6,11.7247,19922.7,7902.4,63.0863,564.101,4.34449e+10,1.00682,0.966431,14,0.0768936,1405,0.1,1
app_60,258.934,21654.4,7884.6,20.2105,8.41342,8.45129e+09,1.01355,0.966431,947,1.05641,22,0.001,3
app_7,2.69086,18885.4,7786.3,164.458,865.974,1.00257e+11,1.01438,0.966431,9,0.11577,2043,0.1,1
app_8,1.79634,18097.9,7712,233.977,1101.43,1.94163e+11,1.01187,0.966431,7,0.176352,2492,0.1,1
app_9,9.13264,19014.2,7857.8,94.6137,869.664,6.32852e+10,1.00996,0.966431,9,0.0728253,2070,0.1,1
