app_id,start_app,end_app,effective_cpu,effective_io,effective_iter,total_bytes,stretch,utilization,Tcomp,Tio,iterations,priority,group_id
app_1,9.52052,25702.2,5354.82,130.614,595.006,1.01717e+11,1.46613,0.85497,9,0.170953,2089,1,1
app_10,9.95716,25988,5473.87,127.174,548.998,1.05344e+11,1.43389,0.85497,10,0.191883,1937,1,1
app_11,2.79229,25163.5,4784.58,83.75,958.999,3.09391e+10,1.66129,0.85497,5,0.0322619,3349,1,1
app_12,0.40965,24846.3,5360.71,173.222,596.993,1.40321e+11,1.45427,0.85497,9,0.235043,1989,1,1
app_13,1.11726,25907.6,5426.83,50.4094,600.998,1.74854e+10,1.46942,0.85497,9,0.0290939,2119,1,1
app_14,3.14179,25268,4797.83,109.807,960.004,6.6579e+10,1.6446,0.85497,5,0.0693531,3367,1,1
app_15,7.34853,25733.6,5148.86,95.3169,737.002,6.72558e+10,1.53371,0.85497,7,0.0912562,2604,1,1
app_16,12.5683,25040.3,5674.93,63.4302,474.631,4.38016e+10,1.39891,0.85497,12,0.092214,1583,1,1
app_17,5.97416,26658.6,4996.69,80.4665,831.005,3.75713e+10,1.58911,0.85497,6,0.0452121,3122,1,1
app_18,5.73764,24856.5,5585.98,153.933,466.841,1.34958e+11,1.39837,0.85497,12,0.28899,1543,1,1
app_19,5.30937,25304.8,5400.21,45.3898,604,1.14998e+10,1.47828,0.85497,9,0.0190394,2063,1,1
app_2,6.93391,26005.3,5367.54,110.683,596.004,7.93544e+10,1.46873,0.85497,9,0.133145,2117,1,1
app_20,2.48231,24697.1,5392.03,114.59,599.003,8.18614e+10,1.46148,0.85497,9,0.136663,1981,1,1
app_21,52.7437,21344.5,7392.7,146.066,70.4875,1.42372e+11,1.0617,0.85497,105,2.03389,187,1,1
app_22,94.9543,21268.8,7409.4,110.276,72.7768,1.06864e+11,1.06436,0.85497,102,1.4639,193,1,1
app_23,65.8889,21326.3,7492.8,188.515,69.2803,1.85768e+11,1.04186,0.85497,108,2.69229,181,1,1
app_24,4.05652,21258,7236.2,160.62,84.7195,1.55716e+11,1.08226,0.85497,86,1.83196,226,1,1
app_25,16.8386,22106.3,7058.33,135.66,125.999,1.28888e+11,1.11309,0.85497,56,1.02292,349,1,1
app_26,8.88461,21156.7,7428.2,99.6753,82.1639,9.61343e+10,1.06322,0.85497,91,1.17237,216,1,1
app_27,72.2022,21265.9,7335,179.065,73.1326,1.75505e+11,1.06517,0.85497,101,2.37168,193,1,1
app_28,15.1661,21609.6,7359.3,36.7113,87.9568,3.26538e+10,1.08226,0.85497,83,0.371066,239,1,1
app_29,28.5859,21865.4,7263.1,46.3619,108.97,4.13374e+10,1.09522,0.85497,67,0.379242,297,1,1
app_3,11.2686,25119.6,5650.51,88.5214,472.642,6.30476e+10,1.40018,0.85497,12,0.133293,1575,1,1
app_30,93.2853,20803.7,7445.5,190.695,65.2415,1.86359e+11,1.04824,0.85497,115,2.82362,169,1,1
app_31,52.0144,21789.4,7128.3,81.095,114.883,7.60332e+10,1.11044,0.85497,62,0.661158,317,1,1
app_32,87.3178,21484.8,7465.06,119.983,60.494,1.16315e+11,1.05522,0.85497,122,1.90681,162,1,1
app_33,65.4999,21216.1,7322.3,169.97,81.5519,1.65343e+11,1.06843,0.85497,90,2.01637,216,1,1
app_34,49.025,22176.1,7051.66,109.293,139.322,1.00698e+11,1.11851,0.85497,51,0.724443,385,1,1
app_35,37.3358,21106.1,7514.7,95.8362,56.2843,9.32058e+10,1.05154,0.85497,132,1.66439,149,1,1
app_36,4.90157,21298.5,7323.77,87.6695,90.3508,8.20157e+10,1.08024,0.85497,81,0.901272,243,1,1
app_37,39.7676,21647.1,7262.28,172.974,93.6834,1.68874e+11,1.07655,0.85497,78,1.79653,251,1,1
app_38,34.7414,21360.6,7374.08,102.619,87.4372,9.68249e+10,1.07082,0.85497,85,1.10028,232,1,1
app_39,108.081,20948.2,7587.9,40.484,54.4936,3.80101e+10,1.04906,0.85497,139,0.691092,143,1,1
app_4,6.81768,25521.6,5161.78,53.215,738.002,9.3445e+09,1.54705,0.85497,7,0.0126619,2581,1,1
app_40,78.1238,21255.4,7319.7,152.725,77.5444,1.48495e+11,1.07121,0.85497,94,1.92851,207,1,1
app_41,149.387,21093.7,7791.1,138.489,7.68993,1.38109e+11,1.00893,0.85497,1019,17.2636,20,1,1
app_42,732.135,21434.6,7850.5,123.482,5.70546,1.23271e+11,1.00329,0.85497,1357,20.5452,15,1,1
app_43,619.305,20917,7836.4,121.527,8.84334,1.21099e+11,1.00534,0.85497,921,13.4554,22,1,1
app_44,592.722,20776.8,7913.2,61.3364,7.16156,6.09909e+10,1.00324,0.85497,1113,8.71298,18,1,1
app_45,492.677,20940.3,7884.4,77.6811,9.44294,7.71389e+10,1.00483,0.85497,831,7.71389,24,1,1
app_46,1032.86,21407.3,7786.2,157.168,6.59497,1.56908e+11,1.00716,0.85497,1181,26.1514,17,1,1
app_47,216.32,20601.4,7781.96,134.746,7.52422,1.34557e+11,1.01055,0.85497,1039,18.1642,19,1,1
app_48,748.328,21759.8,7823.6,138.212,9.85866,1.37679e+11,1.00486,0.85497,784,13.7679,26,1,1
app_49,415.285,21471.6,7965.1,10.2472,7.56402,9.8398e+09,1.00314,0.85497,1047,1.40569,20,1,1
app_5,5.40625,25117.7,5413.38,75.3948,600.997,4.94847e+10,1.46443,0.85497,9,0.0823373,2036,1,1
app_50,261.694,20691.9,7863.9,114.558,8.3546,1.14238e+11,1.00274,0.85497,959,14.2798,21,1,1
app_51,289.481,21290.5,7921.5,4.69768,8.71357,4.40161e+09,1.00935,0.85497,905,0.489068,23,1,1
app_52,45.3657,20866.9,7919.8,43.0265,7.35375,4.27466e+10,1.0047,0.85497,1088,6.10666,19,1,1
app_53,492.437,21060,7785.3,206.607,6.50591,2.06429e+11,1.00103,0.85497,1183,29.4899,17,1,1
app_54,144.191,20163.5,7865.5,105.025,7.55755,1.04513e+11,1.00376,0.85497,1054,13.0642,19,1,1
app_55,803.579,21707.6,7879.5,117.51,7.01519,1.17052e+11,1.00043,0.85497,1134,16.7217,18,1,1
app_56,558.273,20332,7891.02,75.6042,7.88885,7.52752e+10,1.00423,0.85497,1046,9.40939,19,1,1
app_57,815.038,20733.9,7881.3,79.4742,8.96586,7.90529e+10,1.00498,0.85497,908,8.78365,22,1,1
app_58,966.042,21865,7893.1,80.5114,6.87975,8.02448e+10,1.00334,0.85497,1144,11.4635,18,1,1
app_59,217.402,20799,7818.44,137.424,7.94787,1.37175e+11,1.00558,0.85497,949,19.2309,21,1,1
app_6,3.61772,24882.2,5563.98,158.952,506.971,1.36831e+11,1.40331,0.85497,11,0.269884,1671,1,1
app_60,497.771,21338.5,7894.6,94.0949,8.87053,9.36238e+10,1.00147,0.85497,883,11.703,23,1,1
app_7,3.67101,25666.9,5432.28,54.5162,604.999,2.20396e+10,1.46673,0.85497,9,0.0364291,2101,1,1
app_8,8.22511,26066.9,5299.57,112.668,663.89,7.34555e+10,1.48892,0.85497,8,0.110626,2369,1,1
app_9,6.9094,26277.3,5082.4,139.429,727,1.00645e+11,1.54349,0.85497,7,0.138439,2662,1,1
