app_id,start_app,end_app,effective_cpu,effective_io,effective_iter,total_bytes,stretch,utilization,Tcomp,Tio,iterations,priority,group_id
app_1,9.04435,20097.8,7702.9,255.26,852.972,2.01069e+11,1.01215,0.966792,9,0.23572,2147,0.1,1
app_10,12.5994,19959.9,7797,173.26,599.98,1.2451e+11,1.00991,0.966792,13,0.207517,1497,0.1,1
app_11,5.33429,19626.8,7890,70.7417,721.114,3.12084e+10,1.00995,0.966792,11,0.0432849,1764,0.1,1
app_12,8.11664,20049.2,7859.1,102.715,714.773,6.741e+10,1.00927,0.966792,11,0.0942798,1791,0.1,1
app_13,1.07965,19241.4,7714.7,237.142,963.878,1.90622e+11,1.01198,0.966792,8,0.197741,2313,0.1,1
app_14,8.56995,19615.6,7862.6,89.1817,872.189,4.65774e+10,1.01148,0.966792,9,0.0534144,2138,0.1,1
app_15,7.27429,18660.3,7875.4,73.1584,875.224,4.70834e+09,1.01521,0.966792,9,0.00538095,2039,0.1,1
app_16,2.06704,19018.9,7748.9,216.096,702.75,1.81927e+11,1.00872,0.966792,11,0.258787,1670,0.1,1
app_17,1.61649,19393,7877.6,83.2634,785.756,5.27975e+10,1.00878,0.966792,10,0.067258,1907,0.1,1
app_18,2.73976,19645.4,7828.3,131.473,781.54,7.80907e+10,1.01184,0.966792,10,0.0999881,1924,0.1,1
app_19,6.08952,20016.2,7865.4,89.2536,785.082,6.83207e+10,1.00835,0.966792,10,0.0870328,1965,0.1,1
app_2,7.28389,19679.6,7821,140.845,713.116,9.61359e+10,1.01047,0.966792,11,0.134833,1751,0.1,1
app_20,4.15819,18571.5,7872.3,84.6984,786.516,5.56785e+10,1.00908,0.966792,10,0.0707477,1826,0.1,1
app_21,113.302,20430.3,7717.9,219.843,62.6352,1.55924e+11,1.01602,0.966792,124,2.47498,159,0.01,2
app_22,61.9037,20432.3,7631.2,257.296,99.7771,1.81994e+11,1.02391,0.966792,76,1.81994,256,0.01,2
app_23,11.8657,20167.3,7682,250.933,74.3982,1.71332e+11,1.01868,0.966792,103,2.28443,189,0.01,2
app_24,78.7649,20403.5,7701.9,212.079,79.7144,1.48057e+11,1.01911,0.966792,96,1.85072,204,0.01,2
app_25,25.2567,20322.9,7699.1,225.004,82.351,1.53549e+11,1.01876,0.966792,94,1.87255,208,0.01,2
app_26,5.30654,20068,7855.4,87.8872,66.3016,5.86234e+10,1.01086,0.966792,120,0.888234,166,0.01,2
app_27,82.9858,20468.1,7630.3,287.572,85.7029,2.04145e+11,1.02113,0.966792,89,2.37378,218,0.01,2
app_28,0.203476,20176.6,7726.6,195.656,96.8913,1.34767e+11,1.01763,0.966792,80,1.38935,243,0.01,2
app_29,88.437,20303.9,7611,310.965,79.3562,2.2402e+11,1.02106,0.966792,96,2.80025,201,0.01,2
app_3,4.34158,20057.1,7732.9,228.082,773.402,1.7354e+11,1.01183,0.966792,10,0.224502,1939,0.1,1
app_30,141.742,20361,7752.1,189.463,50.1327,1.33939e+11,1.01445,0.966792,155,2.67878,127,0.01,2
app_31,25.0172,20187.2,7913.4,7.8839,84.9486,1.22463e+09,1.01079,0.966792,93,0.0144074,213,0.01,2
app_32,13.5933,19883.3,7887.6,35.3828,65.4949,2.0566e+10,1.01161,0.966792,123,0.311606,161,0.01,2
app_33,46.8318,20230.5,7896.8,12.3922,94.5742,5.85809e+09,1.01232,0.966792,83,0.0616641,240,0.01,2
app_34,9.87862,20238.3,7807,49.8084,136.059,2.80316e+10,1.02106,0.966792,57,0.206114,346,0.01,2
app_35,17.868,20207,7704.6,193.713,110.653,1.28566e+11,1.0213,0.966792,70,1.16878,279,0.01,2
app_36,78.8594,20213,7838.9,78.6632,91.107,5.15899e+10,1.01388,0.966792,86,0.566922,230,0.01,2
app_37,3.24264,20134,7741.3,183.612,97.1295,1.27188e+11,1.01671,0.966792,80,1.31122,245,0.01,2
app_38,7.05223,20332.8,7823.3,69.0106,124.604,4.14648e+10,1.0172,0.966792,62,0.334393,320,0.01,2
app_39,32.321,20365,7605.5,269.666,138.306,1.84959e+11,1.0269,0.966792,55,1.34028,352,0.01,2
app_4,2.32448,18679.8,7887.7,73.2281,659.666,5.01121e+10,1.00783,0.966792,12,0.0759274,1541,0.1,1
app_40,102.582,20321,7799,134.422,71.8589,9.22667e+10,1.01378,0.966792,109,1.28148,181,0.01,2
app_41,873.823,21978.9,7665.8,280.02,7.94739,1.20442e+11,1.02745,0.966792,939,15.0552,21,0.001,3
app_42,32.9942,21510.6,7383,417.466,9.47075,2.01501e+11,1.05478,0.966792,765,20.1501,26,0.001,3
app_43,657.578,21203.9,7641.25,94.7139,6.76412,4.0365e+10,1.04145,0.966792,1175,5.83948,17,0.001,3
app_44,586.712,21366.3,7451.7,323.763,7.87505,1.53203e+11,1.05195,0.966792,933,19.1504,21,0.001,3
app_45,265.473,21879.2,7471,427.993,8.28121,1.83198e+11,1.04518,0.966792,908,20.3554,22,0.001,3
app_46,722.121,21117.6,7717.9,197.769,6.5275,8.8832e+10,1.02476,0.966792,1164,14.8053,17,0.001,3
app_47,48.3781,20473.4,7722.53,190.816,15.6371,8.86971e+10,1.02417,0.966792,514,5.91314,39,0.001,3
app_48,345.084,21412.2,7553.5,354.817,7.79948,1.70597e+11,1.03572,0.966792,947,21.3246,21,0.001,3
app_49,32.1365,21283.2,7740.9,192.492,7.8736,1.0671e+11,1.01942,0.966792,962,13.3387,21,0.001,3
app_5,8.93081,19119.8,7810,149.989,780.932,9.58343e+10,1.01191,0.966792,10,0.122707,1867,0.1,1
app_50,1215.6,21723.3,7841.5,62.6953,5.86762,3.59409e+10,1.01556,0.966792,1337,5.99014,15,0.001,3
app_51,115.548,21035.5,7760.4,42.3154,8.42511,2.25624e+10,1.02789,0.966792,912,2.82029,22,0.001,3
app_52,243.246,21934.5,7729.8,118.28,6.53198,5.06881e+10,1.02821,0.966792,1150,7.24116,18,0.001,3
app_53,294.033,22191.2,7681.4,200.696,7.63341,9.67403e+10,1.02852,0.966792,984,12.0925,21,0.001,3
app_54,272.441,21227.6,7774,99.2836,7.98877,4.54282e+10,1.02309,0.966792,962,5.67852,21,0.001,3
app_55,328.182,21145,7429.1,480.497,7.66685,2.1883e+11,1.04603,0.966792,978,27.3538,20,0.001,3
app_56,833.79,22363.6,7620.2,333.586,6.8918,1.64174e+11,1.0277,0.966792,1083,23.4535,19,0.001,3
app_57,345.738,21784.5,7547.4,331.454,8.72303,1.74341e+11,1.03604,0.966792,842,19.3712,24,0.001,3
app_58,614.963,21319.1,7454.4,256.171,10.8152,1.23558e+11,1.05569,0.966792,709,11.2325,28,0.001,3
app_59,493.505,21259.9,7624.4,200.822,14.7995,9.25719e+10,1.03668,0.966792,522,6.17146,38,0.001,3
app_6,9.72505,19781.8,7793.6,163.446,777.004,1.31433e+11,1.00946,0.966792,10,0.169155,1927,0.1,1
app_60,758.779,21611.7,7878,1.74696,7.30146,4.13009e+08,1.01543,0.966792,1093,0.0590012,19,0.001,3
app_7,3.91047,18377.8,7669.8,288.706,958.059,2.29124e+11,1.0128,0.966792,8,0.239169,2201,0.1,1
app_8,6.42669,19209.6,7879.9,80.0754,715.086,5.86678e+10,1.00774,0.966792,11,0.0820529,1719,0.1,1
app_9,7.10697,20052.1,7857.9,89.5018,982.943,2.28564e+10,1.01513,0.966792,8,0.0232516,2464,0.1,1
