app_id,start_app,end_app,effective_cpu,effective_io,effective_iter,total_bytes,stretch,utilization,Tcomp,Tio,iterations,priority,group_id
app_1,3.59176,24382.8,5527.7,153.103,691.433,1.22699e+11,1.41583,0.876575,8,0.177567,2239,1,1
app_10,5.61811,25345.9,5746.1,70.6999,640.06,3.99328e+10,1.38264,0.876575,9,0.0623949,2149,1,1
app_11,4.48568,25314.9,5813.9,159.621,529.02,1.31238e+11,1.34564,0.876575,11,0.248087,1776,1,1
app_12,3.60191,24198.9,5735.9,117.728,575.838,8.99518e+10,1.37319,0.876575,10,0.156166,1830,1,1
app_13,2.17169,23807.3,5749.6,167.204,577.005,1.36842e+11,1.35906,0.876575,10,0.237161,1782,1,1
app_14,3.49395,24090.7,5908.2,143.011,493.417,1.17641e+11,1.32762,0.876575,12,0.238622,1552,1,1
app_15,8.19373,24187,5895.5,44.6778,537.095,1.29567e+10,1.35399,0.876575,11,0.0241279,1691,1,1
app_16,4.04992,24543.2,5689.8,183.096,632.543,1.479e+11,1.3704,0.876575,9,0.233649,2035,1,1
app_17,6.01563,24242.7,5773.6,95.8231,576.3,6.23975e+10,1.3708,0.876575,10,0.108329,1833,1,1
app_18,1.45718,24735.3,5710.4,121.559,634.552,8.65855e+10,1.38003,0.876575,9,0.13657,2068,1,1
app_19,0.807503,24624.5,5919.9,151.55,492.886,1.27242e+11,1.32294,0.876575,12,0.258098,1600,1,1
app_2,4.25904,25891.5,5545.2,159.27,692.509,1.33386e+11,1.4088,0.876575,8,0.192755,2414,1,1
app_20,7.25143,24963,5595.7,73.4952,700.608,4.01425e+10,1.41949,0.876575,8,0.0573465,2336,1,1
app_21,15.2177,21020.3,7487.5,122.247,87.2063,1.1749e+11,1.05194,0.876575,85,1.33511,230,1,1
app_22,63.3806,21251.9,7193.9,191.451,98.2382,1.87737e+11,1.08377,0.876575,73,1.89634,265,1,1
app_23,6.10369,21546.5,7265.1,126.682,125.935,1.20291e+11,1.08322,0.876575,58,0.954692,337,1,1
app_24,99.1248,20893.1,7520.9,190.652,65.6996,1.87952e+11,1.03777,0.876575,113,2.89157,172,1,1
app_25,24.0681,21289.4,7260.3,157.225,95.798,1.53499e+11,1.07907,0.876575,76,1.59895,256,1,1
app_26,49.9559,21081.7,7525.6,39.7568,84.7668,3.4498e+10,1.05819,0.876575,90,0.405858,221,1,1
app_27,54.7442,21246.5,7314.76,158.336,98.72,1.53328e+11,1.07122,0.876575,74,1.55325,263,1,1
app_28,80.6951,20496.8,7608.6,133.234,52.0403,1.30607e+11,1.0337,0.876575,146,2.51168,134,1,1
app_29,53.1391,20991.2,7528.9,133.812,73.8995,1.29802e+11,1.04456,0.876575,102,1.75408,193,1,1
app_3,2.28898,24079.7,5729.6,77.8653,637.424,5.17789e+10,1.38375,0.876575,9,0.0812856,2006,1,1
app_30,73.1113,21430,7288.6,107.406,98.0253,1.02616e+11,1.08237,0.876575,74,1.0471,266,1,1
app_31,56.2235,21252.6,7467.6,26.4136,85.344,2.21314e+10,1.06813,0.876575,88,0.260369,226,1,1
app_32,69.8588,20992.3,7555.7,47.3241,68.2019,4.3999e+10,1.05267,0.876575,111,0.647045,179,1,1
app_33,69.2148,21088.7,7581.8,36.4612,73.8148,3.2594e+10,1.05064,0.876575,102,0.446494,195,1,1
app_34,52.8412,21539.7,7231.5,157.426,100.274,1.51616e+11,1.08355,0.876575,72,1.51616,272,1,1
app_35,43.0853,21489.2,7281.5,125.033,96.8805,1.2021e+11,1.08083,0.876575,75,1.25219,262,1,1
app_36,95.6326,21211,7497.2,99.1602,72.262,9.49275e+10,1.05372,0.876575,103,1.30038,191,1,1
app_37,41.1428,20888.1,7503.8,199.62,71.0624,1.96463e+11,1.03893,0.876575,106,2.76709,184,1,1
app_38,115.776,20988,7632.3,4.69484,61.7543,1.24497e+09,1.04801,0.876575,125,0.0200802,160,1,1
app_39,6.89366,21020.9,7512.8,44.2062,71.5981,4.05986e+10,1.05913,0.876575,105,0.563869,189,1,1
app_4,0.978965,24319.3,6002,83.6264,460.394,5.87068e+10,1.31998,0.876575,13,0.127623,1465,1,1
app_40,39.0767,21604.4,7243.16,144.013,91.1874,1.39214e+11,1.08366,0.876575,79,1.52982,249,1,1
app_41,613.292,20872.1,7938.3,7.74438,9.99617,7.11798e+09,1.00687,0.876575,804,0.711798,25,1,1
app_42,901.249,21039.7,7941.4,35.5871,7.14299,3.50516e+10,1.00295,0.876575,1106,5.00737,18,1,1
app_43,33.3721,20160.1,7855,92.021,10.9198,9.14941e+10,1.00673,0.876575,713,8.31765,28,1,1
app_44,962.187,20767.3,7875.1,79.7874,6.10338,7.94361e+10,1.00572,0.876575,1325,13.2394,15,1,1
app_45,127.739,20723.5,7858.7,97.1488,11.5459,9.67402e+10,1.0056,0.876575,669,8.06169,30,1,1
app_46,747.962,20795.8,7980,8.17844,8.58935,7.76237e+09,1.00153,0.876575,966,0.970296,21,1,1
app_47,39.9607,20627.9,7941.1,12.5141,9.82722,1.20499e+10,1.00589,0.876575,825,1.20499,25,1,1
app_48,532.885,21078.8,7935.9,57.3543,7.54584,5.70037e+10,1.00089,0.876575,1067,8.14339,19,1,1
app_49,1032.44,22411,7812.9,155.923,6.81106,1.55572e+11,1.00396,0.876575,1133,22.2246,18,1,1
app_5,7.1608,24451.8,5609.1,86.8833,699.629,5.78324e+10,1.4117,0.876575,8,0.0827358,2270,1,1
app_50,264.627,21164.6,7797.8,194.644,7.31176,1.94302e+11,1.00099,0.876575,1068,27.7574,19,1,1
app_51,757.466,21708.5,7974.9,21.5703,6.31292,2.12817e+10,1.00048,0.876575,1246,3.54696,17,1,1
app_52,58.8672,20225.4,7867.1,102.38,8.30192,1.01812e+11,1.0039,0.876575,963,12.7265,21,1,1
app_53,505.684,21599,7730.1,196.916,8.71142,1.96366e+11,1.00928,0.876575,883,21.8184,23,1,1
app_54,701.682,21356.5,7754.6,172.542,9.39245,1.72084e+11,1.00925,0.876575,795,17.2084,25,1,1
app_55,1095.31,22216.2,7945.1,36.6189,6.16436,3.62787e+10,1.00233,0.876575,1312,6.04644,16,1,1
app_56,879.449,21701.5,7955.4,39.1397,6.82934,3.88711e+10,1.00072,0.876575,1212,6.47852,17,1,1
app_57,845.31,21639.7,7747.7,212.72,7.27232,2.12352e+11,1.00502,0.876575,1075,26.544,19,1,1
app_58,606.733,21500,7932.6,51.7821,8.00155,5.15001e+10,1.00199,0.876575,967,6.43751,21,1,1
app_59,802.96,22052.9,7901.3,81.3083,7.19266,8.10346e+10,1.00221,0.876575,1064,11.5764,19,1,1
app_6,5.55384,24474,5991.91,107.092,462.904,8.98087e+10,1.31542,0.876575,13,0.194391,1480,1,1
app_60,1066.63,22119.4,7813.6,97.2117,6.77046,9.68626e+10,1.01132,0.876575,1140,13.8375,18,1,1
app_7,5.03638,25876.7,5629.7,69.7704,703.543,3.39344e+10,1.41252,0.876575,8,0.0482709,2446,1,1
app_8,0.332884,25418.6,5685,147.498,634.077,1.23358e+11,1.37733,0.876575,9,0.194571,2138,1,1
app_9,5.84651,25085.9,5437,176.338,776.775,1.48023e+11,1.4324,0.876575,7,0.190751,2613,1,1
