app_id,start_app,end_app,effective_cpu,effective_io,effective_iter,total_bytes,stretch,utilization,Tcomp,Tio,iterations,priority,group_id
app_1,9.44725,18646.1,7873.4,82.8184,874.203,2.63598e+10,1.01269,0.967185,9,0.0301255,2036,0.1,1
app_10,8.38382,18710.3,7788.3,172.722,866.037,1.23134e+11,1.01119,0.967185,9,0.142188,2026,0.1,1
app_11,4.48159,18778,7884.4,79.9298,717.197,5.85072e+10,1.00719,0.967185,11,0.0814864,1683,0.1,1
app_12,7.26928,19194.2,7849.97,95.9952,978.472,4.1855e+10,1.01371,0.967185,8,0.0427865,2351,0.1,1
app_13,2.33724,19524.4,7909,60.0383,563.949,3.68269e+10,1.00682,0.967185,14,0.0652959,1378,0.1,1
app_14,5.28001,20175.5,7866,86.6715,873.398,3.92567e+10,1.01198,0.967185,9,0.0449676,2205,0.1,1
app_15,6.43544,19794,7701,262.421,853.149,2.23536e+11,1.00952,0.967185,9,0.262059,2112,0.1,1
app_16,8.67641,19384,7835,134.472,651.488,1.04287e+11,1.00765,0.967185,12,0.160194,1580,0.1,1
app_17,1.64821,19436.3,7831.9,132.686,711.529,7.63305e+10,1.0116,0.967185,11,0.107206,1729,0.1,1
app_18,3.97204,18658.7,7690.7,283.667,699.402,2.43417e+11,1.0083,0.967185,11,0.347738,1634,0.1,1
app_19,5.8832,19719.7,7759.2,196.417,968.877,1.46054e+11,1.01199,0.967185,8,0.150726,2391,0.1,1
app_2,4.99113,18523.4,7861.9,88.1057,874.035,4.18472e+10,1.01218,0.967185,9,0.0478801,2020,0.1,1
app_20,7.61321,18363.3,7875.4,76.8239,874.594,1.55275e+10,1.01382,0.967185,9,0.017766,2008,0.1,1
app_21,83.805,20425.6,7702.87,237.684,69.2014,1.69725e+11,1.01618,0.967185,111,2.45742,176,0.01,2
app_22,36.0905,20070.6,7916.6,24.2745,69.4669,1.49936e+10,1.00862,0.967185,115,0.217299,173,0.01,2
app_23,17.1507,20155.4,7817,100.245,82.0379,7.21956e+10,1.01405,0.967185,96,0.880434,205,0.01,2
app_24,75.3626,20389.5,7696.3,270.209,65.7515,1.94112e+11,1.01389,0.967185,117,2.94109,167,0.01,2
app_25,40.7944,20226.1,7659.4,268.816,73.8891,1.95533e+11,1.01847,0.967185,104,2.64234,188,0.01,2
app_26,14.0401,20204.6,7829.3,81.7685,77.8093,5.55503e+10,1.0146,0.967185,101,0.712183,196,0.01,2
app_27,28.2176,20277,7601.8,305.632,100.236,2.15663e+11,1.02335,0.967185,76,2.13527,254,0.01,2
app_28,66.0295,20340.8,7776.7,130.286,72.4737,9.11123e+10,1.0168,0.967185,108,1.24811,183,0.01,2
app_29,56.4796,20405.5,7711.3,244.789,68.3891,1.766e+11,1.01421,0.967185,112,2.59706,174,0.01,2
app_3,4.64038,18996.2,7701.91,240.192,1284.69,1.30522e+11,1.02139,0.967185,6,0.101574,3048,0.1,1
app_30,78.1019,20332.1,7624.7,297.567,89.908,2.1485e+11,1.02047,0.967185,85,2.38722,227,0.01,2
app_31,42.4373,20384,7718.5,214.298,77.7359,1.54713e+11,1.0161,0.967185,99,1.98351,197,0.01,2
app_32,45.9399,20189.2,7831.2,98.9998,92.7512,6.78549e+10,1.01278,0.967185,84,0.729622,234,0.01,2
app_33,22.8322,20197.3,7866,45.5742,99.6073,3.03964e+10,1.01312,0.967185,79,0.307034,251,0.01,2
app_34,24.4499,20270.4,7704.5,214.63,99.5903,1.53721e+11,1.01804,0.967185,77,1.55274,253,0.01,2
app_35,56.4579,20000.9,7820.4,103.405,71.7998,7.25898e+10,1.01356,0.967185,110,1.00819,179,0.01,2
app_36,71.055,20363.4,7810,66.7926,95.6963,4.41211e+10,1.01857,0.967185,82,0.459595,243,0.01,2
app_37,37.573,20448.1,7655.9,269.568,87.4381,1.9351e+11,1.01918,0.967185,87,2.22425,224,0.01,2
app_38,71.1462,20311.9,7688.58,195.392,97.2906,1.39193e+11,1.022,0.967185,79,1.42034,248,0.01,2
app_39,51.5477,20190.2,7816.7,98.2629,84.8645,7.07397e+10,1.01427,0.967185,93,0.842139,213,0.01,2
app_4,4.63672,19839.6,7899.9,63.7927,718.81,1.0745e+10,1.0113,0.967185,11,0.0149444,1785,0.1,1
app_40,43.0994,20360.8,7800.4,86.5182,102.271,5.87553e+10,1.01792,0.967185,76,0.57044,261,0.01,2
app_41,733.685,22584.3,7495.1,407.143,7.91068,1.96668e+11,1.04007,0.967185,926,24.5835,22,0.001,3
app_42,457.328,21151.1,7514.9,365.338,8.40327,1.7913e+11,1.03977,0.967185,893,19.9033,22,0.001,3
app_43,690.793,21894.3,7539.12,351.69,9.04605,1.55879e+11,1.03964,0.967185,850,15.6464,24,0.001,3
app_44,338.034,20924,7726.2,58.492,11.4825,2.36455e+10,1.03228,0.967185,677,2.14959,30,0.001,3
app_45,600.38,21103.7,7612.8,286.467,6.99521,1.26913e+11,1.03363,0.967185,1094,18.1304,18,0.001,3
app_46,802.634,20978.4,7824.7,54.5612,6.90051,2.53047e+10,1.01911,0.967185,1122,3.61496,18,0.001,3
app_47,110.275,20573.8,7772.9,68.1281,10.2142,3.97786e+10,1.02398,0.967185,741,3.61624,27,0.001,3
app_48,463.95,22074.7,7688.8,153.427,6.27815,5.60694e+10,1.03294,0.967185,1232,9.3449,17,0.001,3
app_49,477.604,21323.3,7500.6,297.728,14.6581,1.43982e+11,1.04649,0.967185,522,9.59877,38,0.001,3
app_5,2.82849,19086.3,7780.3,175.939,865.063,1.28688e+11,1.01151,0.967185,9,0.148772,2062,0.1,1
app_50,212.983,21539.7,7748.5,175.766,10.3513,9.87747e+10,1.01946,0.967185,754,9.87747,27,0.001,3
app_51,304.577,21465.7,7557.9,363.74,8.89798,1.66981e+11,1.03561,0.967185,843,18.5535,24,0.001,3
app_52,210.554,21110,7750.9,168.856,7.5204,4.98454e+10,1.02554,0.967185,1000,6.23068,20,0.001,3
app_53,753.406,21518.9,7867.9,3.41561,9.98108,1.9216e+09,1.01654,0.967185,782,0.19216,26,0.001,3
app_54,196.873,21594,7785.3,107.135,9.65835,5.09801e+10,1.02089,0.967185,785,5.09801,26,0.001,3
app_55,489.101,21990.2,7396.6,410.299,10.829,2.05469e+11,1.05235,0.967185,683,18.679,29,0.001,3
app_56,407.371,21907.4,7591.1,165.701,7.75511,8.31913e+10,1.04244,0.967185,977,10.3989,21,0.001,3
app_57,955.292,22511.6,7522.4,370.402,7.91866,1.90501e+11,1.03722,0.967185,960,27.2144,21,0.001,3
app_58,318.075,20995.9,7693.5,198.71,7.35,8.65445e+10,1.02827,0.967185,1044,12.3635,19,0.001,3
app_59,553.67,21518.8,7514.5,439.104,8.59601,2.056e+11,1.03626,0.967185,859,25.7,23,0.001,3
app_6,4.20448,19336.4,7854.6,98.2303,874.127,7.4035e+10,1.009,0.967185,9,0.0847083,2113,0.1,1
app_60,233.992,21648.6,7682.5,203.641,8.90309,9.86801e+10,1.02812,0.967185,843,10.9645,24,0.001,3
app_7,7.56832,18672.8,7740.9,209.811,1105.93,1.23301e+11,1.01727,0.967185,7,0.111484,2573,0.1,1
app_8,3.56068,19306.6,7821.4,145.773,709.192,1.14966e+11,1.00802,0.967185,11,0.162152,1716,0.1,1
app_9,5.16576,18708,7889.4,70.4533,717.333,3.10788e+10,1.01004,0.967185,11,0.0433456,1680,0.1,1
