app_id,start_app,end_app,effective_cpu,effective_io,effective_iter,total_bytes,stretch,utilization,Tcomp,Tio,iterations,priority,group_id
app_1,7.49695,25626.9,5265.5,183.179,586.229,1.56885e+11,1.47537,0.849522,9,0.267265,2049,1,1
app_10,11.3616,25165.3,5584.59,43.2876,465.482,1.92383e+10,1.4276,0.849522,12,0.041284,1573,1,1
app_11,10.6418,25643.3,5548.69,149.572,461.508,1.30701e+11,1.4086,0.849522,12,0.282904,1598,1,1
app_12,4.80622,25543.7,5428.38,57.0848,542.051,3.05766e+10,1.46548,0.849522,10,0.0563105,1886,1,1
app_13,8.97097,26083.2,5585.69,90.9468,463.524,6.74455e+10,1.41514,0.849522,12,0.145357,1642,1,1
app_14,2.1962,25591.6,5250.2,78.8148,657.554,5.05702e+10,1.50922,0.849522,8,0.0768544,2301,1,1
app_15,5.68712,26046.5,5363.99,154.148,536.085,1.24367e+11,1.45763,0.849522,10,0.231596,1905,1,1
app_16,2.06331,26164,5133.35,76.9333,734.216,3.90473e+10,1.54667,0.849522,7,0.0531256,2664,1,1
app_17,7.3004,25582,5208.01,116.016,650.325,7.85705e+10,1.51327,0.849522,8,0.120692,2274,1,1
app_18,8.60439,24952.8,5540.38,142.136,462.536,1.19363e+11,1.41349,0.849522,12,0.257803,1546,1,1
app_19,0.900892,25959.7,5134.22,54.2528,731.304,9.55435e+09,1.55528,0.849522,7,0.0130524,2636,1,1
app_2,3.55915,25143.9,5161.16,46.4972,734.245,4.73366e+08,1.5499,0.849522,7,0.000644036,2522,1,1
app_20,2.14204,25668.5,5289.33,164.961,587.192,1.30294e+11,1.47612,0.849522,9,0.221588,2059,1,1
app_21,59.8808,21766.6,7209.3,66.1792,90.9266,6.25885e+10,1.10013,0.849522,79,0.687785,250,1,1
app_22,34.1991,22613.7,6786.14,143.016,127.884,1.37525e+11,1.15546,0.849522,53,1.07441,369,1,1
app_23,26.2114,21530.9,7405.2,67.8421,74.3442,6.4491e+10,1.07099,0.849522,100,0.8715,198,1,1
app_24,50.4628,21687.7,7218.5,61.0464,77.9332,5.67131e+10,1.09962,0.849522,92,0.72709,215,1,1
app_25,47.0189,21241.1,7308.8,81.8271,68.1787,7.77538e+10,1.08305,0.849522,109,1.12687,181,1,1
app_26,92.2007,21482,7412.7,39.2489,76.8518,3.516e+10,1.07413,0.849522,96,0.456624,207,1,1
app_27,5.28532,21484.7,7235,71.9277,82.8177,6.65881e+10,1.09565,0.849522,88,0.802266,224,1,1
app_28,66.6337,21269.1,7425.2,130.457,54.8543,1.27472e+11,1.05923,0.849522,135,2.31768,146,1,1
app_29,9.07411,21492.4,7052.7,228.701,87.7513,2.23822e+11,1.09943,0.849522,80,2.54343,240,1,1
app_3,8.00955,25672.1,5656,45.2303,433.92,2.38545e+10,1.40849,0.849522,13,0.0549644,1508,1,1
app_30,50.9083,21144.8,7488.6,59.2248,50.1558,5.63631e+10,1.06031,0.849522,149,1.12726,134,1,1
app_31,71.0912,21090.1,7411,117.286,53.7039,1.14101e+11,1.06311,0.849522,139,2.11299,142,1,1
app_32,26.7274,21592.2,7238.57,21.1125,73.5405,1.74477e+10,1.10253,0.849522,99,0.235779,202,1,1
app_33,22.1323,21763.1,7081.4,159.504,86.7887,1.55619e+11,1.10543,0.849522,81,1.78872,241,1,1
app_34,49.0463,21560.6,7070.1,188.237,96.357,1.82428e+11,1.10306,0.849522,74,1.90029,261,1,1
app_35,93.3417,21791.5,7163,59.3404,70.8871,5.67365e+10,1.10807,0.849522,101,0.799106,196,1,1
app_36,63.8649,21518.2,7343.7,11.2349,80.8824,8.06504e+09,1.08817,0.849522,91,0.0995684,220,1,1
app_37,120.623,21578.4,7454.7,77.2909,58.8375,7.43622e+10,1.06255,0.849522,126,1.26038,158,1,1
app_38,30.7463,21575.1,7135.9,204.657,92.6464,1.99631e+11,1.09058,0.849522,77,2.14656,251,1,1
app_39,81.5041,21252.9,7248.9,79.9496,70.0893,7.69546e+10,1.09202,0.849522,104,1.09935,190,1,1
app_4,3.66594,25441.4,4802.08,75.5179,960.25,1.99435e+10,1.65905,0.849522,5,0.0207528,3405,1,1
app_40,77.0397,21851.2,7089.58,192.011,86.7151,1.87365e+11,1.09936,0.849522,82,2.15362,237,1,1
app_41,416.511,20400.7,7810,142.629,8.08455,1.42398e+11,1.00599,0.849522,991,17.7997,20,1,1
app_42,825.256,21325.6,7803.9,155.464,8.47609,1.55018e+11,1.00516,0.849522,912,17.2242,22,1,1
app_43,590.603,21341,7909.4,24.1917,8.69917,2.37134e+10,1.00843,0.849522,948,2.63482,22,1,1
app_44,559.035,21933.8,7844.6,116.908,6.76041,1.16681e+11,1.00486,0.849522,1147,16.6688,18,1,1
app_45,379.977,20600.2,7748.23,156.313,7.26893,1.55928e+11,1.01213,0.849522,1100,19.491,18,1,1
app_46,910.907,22602.1,7801.8,61.2675,6.82471,6.09438e+10,1.01746,0.849522,1098,8.70626,19,1,1
app_47,1194.1,20937.1,7984.1,10.2099,6.42766,9.92391e+09,1.00075,0.849522,1253,1.65399,16,1,1
app_48,275.852,20614.9,7906.7,37.3552,8.52767,3.68324e+10,1.00711,0.849522,929,4.60406,22,1,1
app_49,657.174,20928.4,7857.3,105.297,9.51087,1.04837e+11,1.00476,0.849522,825,11.6485,24,1,1
app_5,2.85319,25713.8,4779.12,192.729,956.205,1.45924e+11,1.62435,0.849522,5,0.15248,3411,1,1
app_50,277.452,20743,7628.21,234.343,9.72413,2.34054e+11,1.01752,0.849522,800,25.2639,25,1,1
app_51,834.375,20882.4,7740.4,190.569,7.09394,1.90261e+11,1.00874,0.849522,1149,27.1801,17,1,1
app_52,832.741,22166.2,7815.5,140.79,6.59834,1.40511e+11,1.00553,0.849522,1146,20.073,18,1,1
app_53,151.101,20706.4,7904.91,12.7353,8.54777,1.22555e+10,1.01046,0.849522,923,1.51007,22,1,1
app_54,567.203,21676.7,7844.4,119.799,6.94537,1.19558e+11,1.00453,0.849522,1084,17.0797,19,1,1
app_55,341.21,21480.9,7766,224.125,6.43004,2.23843e+11,1.00127,0.849522,1194,37.3072,17,1,1
app_56,913.621,20835.1,7890.2,71.9896,8.07772,7.16577e+10,1.00479,0.849522,992,8.95722,20,1,1
app_57,266.499,20488.7,7754.37,164.783,10.8381,1.6411e+11,1.01029,0.849522,706,14.9191,28,1,1
app_58,156.193,20763.8,7862,99.2645,6.48034,9.88512e+10,1.00492,0.849522,1207,14.1216,17,1,1
app_59,500.116,21536.5,7861.1,34.4641,8.13648,3.41681e+10,1.01327,0.849522,989,4.27101,21,1,1
app_6,3.10483,25181.3,5368.19,154.009,536.128,1.24607e+11,1.45645,0.849522,10,0.232043,1823,1,1
app_60,473.364,21137.6,7850.7,95.456,8.14641,9.51841e+10,1.00681,0.849522,965,11.898,21,1,1
app_7,1.37849,26343.7,5479.41,63.5783,497.785,4.41539e+10,1.44834,0.849522,11,0.0886625,1801,1,1
app_8,7.4245,25119.1,5305.5,134.069,590.81,1.11387e+11,1.47686,0.849522,9,0.188472,2006,1,1
app_9,6.9707,26202,5524.09,64.5577,500.768,4.6793e+10,1.43604,0.849522,11,0.0933992,1790,1,1
