app_id,start_app,end_app,effective_cpu,effective_io,effective_iter,total_bytes,stretch,utilization,Tcomp,Tio,iterations,priority,group_id
app_1,2.96888,24717.3,5479.84,136.815,497.657,1.0882e+11,1.43147,0.855651,11,0.218515,1640,1,1
app_10,5.21211,25901.9,5119.52,86.2316,731.407,5.34508e+10,1.5465,0.855651,7,0.07312,2614,1,1
app_11,6.17039,26173.2,5402.51,52.9568,600.164,1.822e+10,1.47582,0.855651,9,0.0303666,2142,1,1
app_12,6.88112,25647.4,5453.37,43.6372,545.575,1.31351e+10,1.46346,0.855651,10,0.024101,1898,1,1
app_13,3.3098,25880.5,5287.5,179.221,588.503,1.49179e+11,1.47149,0.855651,9,0.253706,2075,1,1
app_14,4.17523,25097.4,5329,114.822,593.156,8.30845e+10,1.47817,0.855651,9,0.140109,2005,1,1
app_15,10.7298,25429.4,5448.09,138.743,496.81,1.09946e+11,1.43936,0.855651,11,0.221665,1700,1,1
app_16,0.760166,25564.6,5420.43,56.218,604.54,2.36844e+10,1.46948,0.855651,9,0.0392125,2081,1,1
app_17,6.94573,25000.5,5394.39,77.5107,597.216,5.18009e+10,1.46892,0.855651,9,0.0867686,2012,1,1
app_18,6.42488,26454.6,5399.7,45.0927,598.077,1.13792e+10,1.47845,0.855651,9,0.0190288,2174,1,1
app_19,4.21513,26914.5,5115.68,145.762,732,1.07588e+11,1.53161,0.855651,7,0.146978,2740,1,1
app_2,2.01601,25448.4,5498.99,45.3679,550.664,1.44177e+10,1.45101,0.855651,10,0.026214,1887,1,1
app_20,4.35963,26063,4766.02,160.858,953.226,1.0213e+11,1.64333,0.855651,5,0.107167,3469,1,1
app_21,5.43056,21064.2,7437.7,95.3281,72.7945,9.21336e+10,1.06244,0.855651,103,1.27963,192,1,1
app_22,25.5208,21253.8,7311.5,169.264,78.4981,1.65117e+11,1.07,0.855651,93,2.11689,209,1,1
app_23,46.5758,21090.4,7509.4,51.4412,66.6638,4.79646e+10,1.05857,0.855651,113,0.716789,175,1,1
app_24,22.2108,21980.5,7034.7,105.324,114.237,9.99326e+10,1.12129,0.855651,62,0.86898,317,1,1
app_25,84.6824,21729.8,7223.9,173.171,82.2451,1.68571e+11,1.08218,0.855651,87,2.05575,223,1,1
app_26,12.0002,21722.2,7242,143.484,94.8791,1.39521e+11,1.08379,0.855651,76,1.46864,257,1,1
app_27,40.7161,21815.5,7307.28,89.1702,97.9595,8.4729e+10,1.08225,0.855651,74,0.873495,267,1,1
app_28,96.3001,21367.1,7301.6,160.493,75.7619,1.57246e+11,1.07255,0.855651,97,2.09661,201,1,1
app_29,32.5364,21131.6,7345.1,120.71,62.792,1.17868e+11,1.07196,0.855651,116,1.87092,169,1,1
app_3,3.68523,25417,5723.64,28.5917,439.004,1.63233e+09,1.39731,0.855651,13,0.00371829,1494,1,1
app_30,98.0127,21516.8,7414.57,26.3673,72.1553,2.19208e+10,1.07578,0.855651,103,0.300284,194,1,1
app_31,4.99256,21637,7300.35,101.359,79.4882,9.72033e+10,1.08144,0.855651,91,1.23042,216,1,1
app_32,68.0833,21392.8,7426.6,19.2949,62.4141,1.61155e+10,1.07488,0.855651,119,0.259927,168,1,1
app_33,100.343,21180.8,7464.36,97.9422,69.1881,9.49341e+10,1.0583,0.855651,108,1.37586,183,1,1
app_34,8.9064,21785.3,7194.4,157.139,102.95,1.52696e+11,1.08887,0.855651,70,1.48248,279,1,1
app_35,8.65347,21192.6,7328.9,175.667,61.5079,1.72934e+11,1.06641,0.855651,119,2.78927,164,1,1
app_36,96.1664,21170.5,7455.9,23.1223,72.3066,2.03253e+10,1.07006,0.855651,104,0.282296,191,1,1
app_37,68.1139,21573.9,7200.7,187.649,89.792,1.82863e+11,1.08349,0.855651,80,2.03181,243,1,1
app_38,79.2534,21868.6,7228.3,97.5212,89.7208,9.27548e+10,1.09274,0.855651,80,1.03061,246,1,1
app_39,5.4205,21145.3,7315.8,183.39,64.2632,1.79369e+11,1.06735,0.855651,114,2.80264,171,1,1
app_4,6.35249,25553.4,5342.3,99.036,592.225,6.4331e+10,1.47966,0.855651,9,0.108667,2060,1,1
app_40,44.6193,21266.5,7462,93.0668,71.1022,8.95069e+10,1.05939,0.855651,105,1.26066,188,1,1
app_41,367.592,21390.9,7856.9,114.432,6.08511,1.14108e+11,1.00364,0.855651,1281,19.0179,16,1,1
app_42,181.538,21239,7825.4,62.7849,6.84968,6.23523e+10,1.01423,0.855651,1133,8.90747,18,1,1
app_43,626.248,20935.4,7694.4,234.794,9.13862,2.34259e+11,1.009,0.855651,857,23.4259,23,1,1
app_44,349.767,20761.8,7912.4,36.9718,6.96414,3.65772e+10,1.00642,0.855651,1122,5.22532,18,1,1
app_45,414.736,20385.3,7786.9,205.269,8.4432,2.04882e+11,1.00103,0.855651,930,22.7647,21,1,1
app_46,744.728,21842.9,7808.2,111.212,8.15336,1.1089e+11,1.01022,0.855651,936,13.8612,22,1,1
app_47,918.685,21969.3,7871.1,58.4448,7.81866,5.8034e+10,1.00894,0.855651,1011,7.25425,20,1,1
app_48,1031.95,22084.4,7848.1,77.5279,7.54681,7.69995e+10,1.00945,0.855651,1036,9.62494,20,1,1
app_49,804.606,21684.8,7994,4.12124,6.71664,3.80604e+09,1.00027,0.855651,1165,0.54372,18,1,1
app_5,9.99687,26033.7,5458.6,139.595,495.67,1.11755e+11,1.43617,0.855651,11,0.225768,1753,1,1
app_50,61.0315,20447.3,7840.5,134.317,8.89056,1.33915e+11,1.00321,0.855651,855,14.8794,23,1,1
app_51,1280.57,21896.8,7805.8,164.952,6.29913,1.64585e+11,1.00372,0.855651,1258,27.4309,16,1,1
app_52,205.257,20634.6,7856.6,123.658,8.24211,1.23285e+11,1.00252,0.855651,973,15.4106,21,1,1
app_53,481.319,20788.4,7879.5,51.7817,7.49966,5.14737e+10,1.0087,0.855651,1048,7.35339,19,1,1
app_54,1052.59,21311.3,7788.5,190.591,6.61004,1.90252e+11,1.00266,0.855651,1166,31.7086,17,1,1
app_55,691.149,21224.9,7871.01,94.3229,7.87231,9.40865e+10,1.00438,0.855651,1003,12.6699,20,1,1
app_56,629.724,21127.5,7863.9,77.3986,8.17234,7.69456e+10,1.00745,0.855651,963,9.6182,21,1,1
app_57,1107.4,20813,7824.9,137.111,7.14187,1.36733e+11,1.00482,0.855651,1099,19.5333,18,1,1
app_58,1217.23,22034.3,7940.3,12.8356,6.0927,1.26163e+10,1.00592,0.855651,1293,2.10272,16,1,1
app_59,246.603,21359.7,7865.6,50.7208,6.9732,5.05267e+10,1.0106,0.855651,1149,7.2181,18,1,1
app_6,5.74749,24877.1,5358.6,99.7166,596.095,6.53667e+10,1.47494,0.855651,9,0.109676,1982,1,1
app_60,406.844,21350.6,7779.1,192.818,6.15784,1.92649e+11,1.00354,0.855651,1257,32.1082,16,1,1
app_7,6.43637,26175.8,5399.6,154.985,537.627,1.25528e+11,1.44793,0.855651,10,0.233758,1920,1,1
app_8,3.94705,25661.6,5450.61,71.261,545.648,4.83838e+10,1.45481,0.855651,10,0.0887777,1891,1,1
app_9,8.09459,25134.4,5446.08,115.934,546.772,9.16271e+10,1.44464,0.855651,10,0.167815,1832,1,1
