app_id,start_app,end_app,effective_cpu,effective_io,effective_iter,total_bytes,stretch,utilization,Tcomp,Tio,iterations,priority,group_id
app_1,3.6904,26016.9,5087.3,82.9223,636.568,6.07183e+10,1.554,0.845301,8,0.0954691,2304,1,1
app_10,0.517841,25998.4,5067,109.769,633.026,7.12375e+10,1.55695,0.845301,8,0.11254,2284,1,1
app_11,1.59842,26819.2,5160.8,166.063,571.961,1.33314e+11,1.51111,0.845301,9,0.233066,2134,1,1
app_12,4.43859,25814,4948.8,86.8529,706.371,6.01735e+10,1.59713,0.845301,7,0.085111,2558,1,1
app_13,5.54143,26233.9,5361.1,110.095,486.21,9.08307e+10,1.46737,0.845301,11,0.186511,1755,1,1
app_14,3.53386,25964.8,5212.3,50.823,577.637,1.88695e+10,1.52929,0.845301,9,0.0326463,2078,1,1
app_15,9.04196,25922.4,5273.3,63.2334,527.3,3.97648e+10,1.50572,0.845301,10,0.075312,1878,1,1
app_16,2.14639,27287.4,4978.35,133.276,711.237,9.1509e+10,1.57795,0.845301,7,0.128655,2750,1,1
app_17,7.32496,26484.8,5098.1,67.7651,638.55,3.84108e+10,1.55748,0.845301,8,0.0601108,2361,1,1
app_18,6.20771,25689.4,5249.9,108.076,526.59,8.4211e+10,1.49978,0.845301,10,0.159793,1851,1,1
app_19,9.32926,25881.4,5138.5,164.236,568.496,1.32351e+11,1.51778,0.845301,9,0.232603,2033,1,1
app_2,4.12359,27216,4589.6,160.474,917.381,1.0258e+11,1.70496,0.845301,5,0.111865,3629,1,1
app_20,4.9728,25845.2,5068.9,85.1636,632.468,6.32619e+10,1.5588,0.845301,8,0.0999398,2274,1,1
app_21,91.0546,21358,7342.2,170.637,68.8247,1.66255e+11,1.06547,0.845301,107,2.40949,182,1,1
app_22,50.9612,21384.8,7229.9,156.506,74.3398,1.52825e+11,1.08361,0.845301,97,2.03766,201,1,1
app_23,38.7355,21553.1,7337,81.3314,72.0255,7.81066e+10,1.07888,0.845301,102,1.08481,193,1,1
app_24,69.511,22018.9,7163.1,97.3275,98.5907,9.22283e+10,1.10264,0.845301,73,0.941105,271,1,1
app_25,42.3395,21553.9,7342.7,22.3164,73.4823,1.90364e+10,1.0867,0.845301,100,0.257249,199,1,1
app_26,39.0923,21635.5,7229.1,40.5998,85.0375,3.59062e+10,1.10117,0.845301,85,0.422426,232,1,1
app_27,58.2161,21690.5,7220.1,184.217,63.8431,1.80928e+11,1.08093,0.845301,112,2.827,174,1,1
app_28,41.4657,21230.9,7364.6,137.955,69.418,1.34349e+11,1.06682,0.845301,106,1.94709,184,1,1
app_29,13.5011,21350.6,7148.3,189.847,70.7045,1.85727e+11,1.09081,0.845301,101,2.61588,192,1,1
app_3,8.79431,26129.7,5396.77,34.7501,491.079,5.14506e+09,1.48096,0.845301,11,0.0104787,1763,1,1
app_30,62.9273,21551.3,7370.4,24.1131,72.6021,2.08993e+10,1.08235,0.845301,101,0.286291,196,1,1
app_31,54.9131,21453.5,7299.7,5.39029,75.2632,9.23877e+08,1.0958,0.845301,97,0.0121563,205,1,1
app_32,45.9345,21743,7414.32,15.6266,67.7299,1.32702e+10,1.07707,0.845301,109,0.198063,183,1,1
app_33,94.0875,21454.4,7442.2,55.2558,60.8763,5.26589e+10,1.0674,0.845301,121,0.863261,164,1,1
app_34,105.626,21684.9,7194.1,162.154,67.346,1.58443e+11,1.08806,0.845301,106,2.33005,184,1,1
app_35,17.781,21354.4,7373.9,137.674,68.2295,1.33905e+11,1.06556,0.845301,108,1.94066,182,1,1
app_36,98.6172,21673.1,7281.2,34.7056,72.419,3.05194e+10,1.09413,0.845301,101,0.418074,197,1,1
app_37,22.6241,21703.6,7154.9,113.311,94.1782,1.08438e+11,1.10142,0.845301,76,1.1536,258,1,1
app_38,5.00682,21001.2,7437.1,85.7887,60.2599,8.33942e+10,1.06376,0.845301,124,1.3899,159,1,1
app_39,47.5771,21208.7,7387.6,146.595,64.8657,1.4349e+11,1.06226,0.845301,113,2.24203,173,1,1
app_4,6.92362,25827.9,5460.8,58.8178,454.341,4.10404e+10,1.45406,0.845301,12,0.0903974,1604,1,1
app_40,32.3563,21606.7,7302,52.8853,68.6896,4.85573e+10,1.08835,0.845301,107,0.714078,186,1,1
app_41,685.869,21271.9,7784.6,176.847,10.8108,1.76404e+11,1.0049,0.845301,714,17.6404,28,1,1
app_42,1201.77,21604.8,7862,79.5876,6.51171,7.9212e+10,1.0074,0.845301,1261,11.316,16,1,1
app_43,212.314,20803.4,7887,82.5539,8.57102,8.21206e+10,1.00387,0.845301,915,10.2651,22,1,1
app_44,1298.08,22205.4,7819.1,132.977,5.72611,1.32608e+11,1.00607,0.845301,1341,22.1014,15,1,1
app_45,509.001,21119.9,7801.2,128.811,7.09369,1.28462e+11,1.00887,0.845301,1123,18.3517,18,1,1
app_46,176.143,21450.2,7911.8,61.878,5.84263,6.1695e+10,1.00332,0.845301,1317,10.2825,16,1,1
app_47,665.701,21407.1,7757.5,171.155,8.77078,1.70888e+11,1.00903,0.845301,867,18.9875,23,1,1
app_48,763.013,21762.3,7812.6,157.472,8.73027,1.57068e+11,1.00381,0.845301,891,17.4521,23,1,1
app_49,875.56,21309.5,7903.6,37.5822,7.90993,3.72244e+10,1.00745,0.845301,1008,4.65305,20,1,1
app_5,6.17578,26401.3,5469.5,94.1087,453.521,7.10307e+10,1.44391,0.845301,12,0.156801,1639,1,1
app_50,321.264,21093.5,7753,191.6,13.9656,1.90897e+11,1.00706,0.845301,555,13.6355,36,1,1
app_51,83.3546,21222.8,7789.2,111.728,8.29908,1.11458e+11,1.01257,0.845301,924,13.9323,22,1,1
app_52,787.257,21077,7847.4,116.671,8.36123,1.16261e+11,1.00456,0.845301,940,14.5327,21,1,1
app_53,37.8062,21311.1,7949.2,2.91327,6.05673,2.76918e+09,1.00604,0.845301,1303,0.461531,16,1,1
app_54,493.585,21438.4,7657.2,216.33,7.26119,2.16027e+11,1.0161,0.845301,1063,27.0034,19,1,1
app_55,431.651,20633.6,7859.9,71.4405,13.0337,7.08743e+10,1.00873,0.845301,603,5.45187,33,1,1
app_56,1003.02,21301.8,7809.9,166.394,6.95306,1.6598e+11,1.00302,0.845301,1107,23.7114,18,1,1
app_57,535.218,20843,7713.1,193.619,7.87852,1.93289e+11,1.01184,0.845301,981,24.1611,20,1,1
app_58,506.102,21381.3,7820.2,156.415,9.46566,1.55916e+11,1.00299,0.845301,804,15.5916,25,1,1
app_59,759.766,21627.6,7978.3,7.98524,6.97316,7.58383e+09,1.00177,0.845301,1158,1.0834,18,1,1
app_6,7.29838,26920.3,5284.03,63.3535,529.254,4.19e+10,1.50208,0.845301,10,0.079206,1984,1,1
app_60,600.289,21520.5,7792.8,164.811,7.38981,1.64333e+11,1.00539,0.845301,1082,20.5416,19,1,1
app_7,6.20285,26344.6,5077.8,66.6598,636.22,3.57159e+10,1.56448,0.845301,8,0.0561571,2343,1,1
app_8,0.408583,25277.3,5158.4,109.828,575.268,7.77316e+10,1.52785,0.845301,9,0.134951,1986,1,1
app_9,4.14378,25533.9,5119,157.536,570.852,1.24486e+11,1.5257,0.845301,9,0.218014,1994,1,1
