app_id,start_app,end_app,effective_cpu,effective_io,effective_iter,total_bytes,stretch,utilization,Tcomp,Tio,iterations,priority,group_id
app_1,9.85923,19386.3,7798.7,201.3,780.119,4.1914e+10,1.02033,0.95049,10,0.0537359,1889,1,1
app_10,10.3451,19680.8,7389,611,741.292,1.56203e+11,1.06028,0.95049,10,0.210516,1819,1.00001,1.00001
app_11,3.62757,20360.8,7306,694,731.731,1.82859e+11,1.06825,0.95049,10,0.249808,1863,1.00001,1.00001
app_12,7.68588,20945.7,7334,666,816.132,1.70674e+11,1.066,0.95049,9,0.209159,2136,1.00001,1.00001
app_13,2.53232,19383.6,7471.6,528.4,829.417,1.2995e+11,1.05242,0.95049,9,0.156755,2011,1.00001,1.00001
app_14,2.37508,18287,7367.6,632.4,1471.48,1.47424e+11,1.06453,0.95049,5,0.100152,3362,1.00001,1.00001
app_15,2.65194,20674.7,7243.4,756.6,801.947,1.92317e+11,1.07589,0.95049,9,0.239797,2082,1.00002,1.00002
app_16,1.29342,18669.8,7322.3,677.7,1218.96,1.68815e+11,1.06793,0.95049,6,0.138486,2845,1.00002,1.00002
app_17,5.81898,20789,7306.7,693.3,1218.7,1.75759e+11,1.06917,0.95049,6,0.144183,3169,1.00002,1.00002
app_18,0.172095,19499.8,7278.5,721.5,1212.69,1.85244e+11,1.07185,0.95049,6,0.152716,2956,1.00002,1.00002
app_19,3.25066,18209.1,7466.6,533.4,1868.55,1.20817e+11,1.05438,0.95049,4,0.0646424,4251,1.00002,1.00002
app_2,8.39272,20056.7,7338.2,661.8,732.433,1.76005e+11,1.06465,0.95049,10,0.240116,1836,1,1
app_20,5.90477,20199.4,7296.7,703.3,663.339,1.86368e+11,1.06908,0.95049,11,0.280675,1678,1.00002,1.00002
app_21,15.9861,20346.5,7740.1,259.9,67.634,6.29747e+10,1.02524,0.95049,115,0.926098,172,1.00002,1.00002
app_22,82.6769,20450.9,7769,231,86.8033,6.83363e+10,1.02075,0.95049,89,0.785475,221,1.00002,1.00002
app_23,4.79799,20552.1,7672.2,327.8,79.9686,8.01246e+10,1.03195,0.95049,96,1.00156,206,1.00002,1.00002
app_24,11.5055,20618.6,7702.6,297.4,88.463,7.57616e+10,1.02849,0.95049,87,0.860928,228,1.00002,1.00002
app_25,6.11492,19911,7964.9,35.1,93.0899,7.82647e+09,1.00342,0.95049,86,0.0841556,231,1.00003,1.00003
app_26,48.0685,21352.6,7252.5,747.5,56.2483,1.90933e+11,1.07477,0.95049,129,3.40952,151,1.00003,1.00003
app_27,39.2834,20255,7701.2,298.8,106.518,7.84344e+10,1.02833,0.95049,73,0.733032,269,1.00003,1.00003
app_28,77.6533,20572.4,7676.8,323.2,99.0021,8.84537e+10,1.03023,0.95049,77,0.893471,255,1.00003,1.00003
app_29,102.779,20376.3,7835.3,164.7,75.149,4.2475e+10,1.01552,0.95049,104,0.558882,191,1.00003,1.00003
app_3,4.32025,20702.8,7630.9,369.1,950.696,9.00606e+10,1.03614,0.95049,8,0.094701,2470,1,1
app_30,38.7424,20977.3,7499.3,500.7,86.2545,1.30594e+11,1.04851,0.95049,87,1.51854,226,1.00003,1.00003
app_31,27.192,20618.6,7749.5,250.5,94.9349,6.98819e+10,1.0231,0.95049,81,0.735599,245,1.00003,1.00003
app_32,11.2973,21132.1,7374.3,625.7,73.8189,1.63451e+11,1.06132,0.95049,99,2.2088,197,1.00003,1.00003
app_33,19.6916,20999.9,7513,487,64.0892,1.38463e+11,1.04555,0.95049,117,2.16349,168,1.00003,1.00003
app_34,10.3877,20484,7673.3,326.7,72.2522,9.51117e+10,1.02981,0.95049,106,1.3029,185,1.00003,1.00003
app_35,15.8277,20179.5,7827.4,172.6,68.673,4.49298e+10,1.01622,0.95049,115,0.651157,172,1.00004,1.00004
app_36,20.56,19981.2,7903.5,96.5,141.272,2.38767e+10,1.00916,0.95049,56,0.169338,353,1.00004,1.00004
app_37,30.0143,20847,7444.3,555.7,63.0154,1.61019e+11,1.0519,0.95049,118,2.55586,165,1.00004,1.00004
app_38,24.1474,20161.3,7856.1,143.9,69.8243,3.15685e+10,1.01424,0.95049,112,0.450979,177,1.00004,1.00004
app_39,1.70976,20258.4,7711.22,288.775,105.878,7.37332e+10,1.02762,0.95049,73,0.699442,269,1.00004,1.00004
app_4,1.90556,19320.9,7288.7,711.3,809.232,1.84528e+11,1.07049,0.95049,9,0.228093,1957,1,1
app_40,37.6036,20903,7546.3,453.7,71.4865,1.2319e+11,1.04309,0.95049,105,1.73508,187,1.00004,1.00004
app_41,207.229,21084.8,7952.8,47.2,7.07764,1.65315e+10,1.00385,0.95049,1092,2.36164,19,1.00004,1.00004
app_42,136.024,21294.3,7996.7,3.3,5.24512,9.82499e+08,1.00029,0.95049,1508,0.16375,14,1.00004,1.00004
app_43,616.971,21885,7441.4,558.6,9.61715,1.37238e+11,1.0556,0.95049,767,13.7238,26,1.00004,1.00004
app_44,121.598,20528.4,7642.8,357.2,10.2042,9.28033e+10,1.03418,0.95049,768,9.28033,26,1.00004,1.00004
app_45,376.417,21017.2,7620.5,379.5,7.34057,1.24036e+11,1.03299,0.95049,1040,17.7195,19,1.00004,1.00004
app_46,348.603,21536.3,7636.6,363.4,7.69676,1.05897e+11,1.03326,0.95049,1018,13.2371,20,1.00005,1.00005
app_47,371.508,21508.1,7588,412,9.30074,1.02943e+11,1.04018,0.95049,816,10.2943,25,1.00005,1.00005
app_48,1205.01,21864.5,7911.2,88.8,6.01546,2.83894e+10,1.00761,0.95049,1287,4.73157,16,1.00005,1.00005
app_49,161.883,21084.4,7854.2,145.8,10.1992,4.34973e+10,1.01295,0.95049,758,4.34973,27,1.00005,1.00005
app_5,4.39393,20884.1,7333,667,665.622,1.76511e+11,1.06532,0.95049,11,0.265031,1740,1.00001,1.00001
app_50,210.863,21153.3,7645.4,354.6,6.07221,1.17951e+11,1.03048,0.95049,1253,19.6584,16,1.00005,1.00005
app_51,578.674,21769.3,7841.5,158.5,7.24808,4.53423e+10,1.01435,0.95049,1065,5.66779,19,1.00005,1.00005
app_52,653.295,21233.5,7753.6,246.4,5.87935,7.97966e+10,1.02127,0.95049,1336,13.2994,15,1.00005,1.00005
app_53,363.906,21860.9,7582.7,417.3,6.15792,1.45757e+11,1.03514,0.95049,1181,24.2928,17,1.00005,1.00005
app_54,94.8579,21434.1,7603.8,396.2,7.58502,1.29018e+11,1.03455,0.95049,984,16.1273,20,1.00005,1.00005
app_55,415.75,21762.4,7726.5,273.5,7.1924,6.75483e+10,1.02642,0.95049,1079,8.44354,19,1.00005,1.00005
app_56,316.23,21152,7945.7,54.3,9.3673,1.09499e+10,1.00545,0.95049,839,1.21666,24,1.00006,1.00006
app_57,367.239,20301.1,7957.7,42.3,7.11591,1.04415e+10,1.004,0.95049,1111,1.49164,18,1.00006,1.00006
app_58,961.577,21373.6,7723,277,7.54474,7.92485e+10,1.02535,0.95049,1049,9.90606,19,1.00006,1.00006
app_59,421.005,20975,7789.9,210.1,12.941,7.54882e+10,1.01711,0.95049,609,5.80679,33,1.00006,1.00006
app_6,2.63567,19500.2,7686.4,313.6,641.907,7.30662e+10,1.031,0.95049,12,0.11381,1560,1.00001,1.00001
app_60,321.315,21673.8,7389.9,610.1,6.49706,2.03139e+11,1.0536,0.95049,1183,29.0198,17,1.00006,1.00006
app_7,3.46218,19224.8,7508.5,491.5,836.006,1.24376e+11,1.0481,0.95049,9,0.148775,2006,1.00001,1.00001
app_8,7.40123,20627.9,7563.5,436.5,843.968,1.04505e+11,1.0433,0.95049,9,0.123821,2172,1.00001,1.00001
app_9,0.632915,20887.5,7288.4,711.6,1215.54,1.80195e+11,1.07115,0.95049,6,0.148187,3180,1.00001,1.00001
