app_id,start_app,end_app,effective_cpu,effective_io,effective_iter,total_bytes,stretch,utilization,Tcomp,Tio,iterations,priority,group_id
app_1,5.40367,18508.3,7838.1,103.752,979.362,6.36439e+10,1.01243,0.965546,8,0.0650091,2263,0.1,1
app_10,0.961786,18626,7808.7,144.444,778.808,8.14391e+10,1.01392,0.965546,10,0.104543,1819,0.1,1
app_11,8.85375,18343.6,7839.1,98.3999,979.552,4.8531e+10,1.01425,0.965546,8,0.049572,2245,0.1,1
app_12,5.3075,19343.9,7880.5,68.8481,787.711,1.17678e+10,1.01365,0.965546,10,0.0149338,1906,0.1,1
app_13,4.54565,19440.2,7797.1,155.803,778.684,1.09521e+11,1.01181,0.965546,10,0.140773,1893,0.1,1
app_14,6.14993,19310.5,7855.1,90.6059,874.639,5.03248e+10,1.01196,0.965546,9,0.0575799,2108,0.1,1
app_15,4.1327,18558.7,7690.5,264.52,854.072,2.27796e+11,1.01032,0.965546,9,0.266741,1984,0.1,1
app_16,3.17449,19215.3,7722.2,218.488,1103.19,1.51717e+11,1.01601,0.965546,7,0.137549,2652,0.1,1
app_17,8.80533,18498,7755.2,189.581,968.255,1.28087e+11,1.01481,0.965546,8,0.132322,2241,0.1,1
app_18,3.86092,18453.7,7733,204.679,1104.79,1.16159e+11,1.01922,0.965546,7,0.105121,2546,0.1,1
app_19,4.17866,19381.4,7698,256.953,858.15,2.04804e+11,1.0123,0.965546,9,0.238699,2073,0.1,1
app_2,3.77664,19609.2,7700.2,258.216,857.37,2.06253e+11,1.01183,0.965546,9,0.240388,2098,0.1,1
app_20,7.82933,18266.9,7841,96.117,977.256,4.12663e+10,1.01494,0.965546,8,0.0422378,2234,0.1,1
app_21,34.0198,20393.7,7700.4,251.985,90.5727,1.67314e+11,1.01681,0.965546,85,1.85905,231,0.01,2
app_22,28.9065,20263.3,7837.3,96.3755,124.553,6.25089e+10,1.01268,0.965546,63,0.500071,315,0.01,2
app_23,52.6497,20204,7955.3,10.075,58.3603,4.58391e+09,1.00504,0.965546,137,0.0790329,146,0.01,2
app_24,62.8614,20189.7,7853.8,103.222,101.728,6.77666e+10,1.0099,0.965546,77,0.664379,256,0.01,2
app_25,41.2649,20059,7804.4,160.246,93.3633,1.05831e+11,1.01135,0.965546,84,1.12586,233,0.01,2
app_26,46.1838,20079.4,7927.9,40.7019,61.3582,2.46876e+10,1.00596,0.965546,130,0.398187,153,0.01,2
app_27,36.1847,20182.8,7704.4,261.456,85.4601,1.79813e+11,1.01469,0.965546,90,2.09085,216,0.01,2
app_28,125.34,20531,7773.5,203.973,57.714,1.37473e+11,1.01125,0.965546,135,2.37022,146,0.01,2
app_29,61.0128,20081.7,7828.6,146.207,74.8237,9.92025e+10,1.00911,0.965546,106,1.3227,186,0.01,2
app_3,1.33782,18603.6,7885.9,67.046,718.672,2.46874e+10,1.0113,0.965546,11,0.0343358,1670,0.1,1
app_30,97.5369,20235.4,7842,134.388,58.2579,8.79239e+10,1.00884,0.965546,135,1.51593,146,0.01,2
app_31,38.7624,20244.5,7840.3,121.888,80.4001,8.46976e+10,1.00946,0.965546,97,1.05872,203,0.01,2
app_32,61.4058,20211.9,7760.1,199.776,100.102,1.33373e+11,1.0135,0.965546,77,1.33373,254,0.01,2
app_33,19.581,20093.3,7900.2,48.0702,78.8518,2.97204e+10,1.00884,0.965546,101,0.376207,197,0.01,2
app_34,82.5121,20327.4,7848,107.293,84.2128,7.0663e+10,1.01027,0.965546,92,0.841226,216,0.01,2
app_35,4.46088,20108.3,7722.3,252.411,90.9858,1.72072e+11,1.01338,0.965546,85,1.8909,228,0.01,2
app_36,101.446,20302.3,7846.2,119.849,66.0252,7.99991e+10,1.00931,0.965546,119,1.21211,166,0.01,2
app_37,28.2938,20349.6,7738.5,235.154,75.3549,1.58765e+11,1.01301,0.965546,102,2.11687,192,0.01,2
app_38,58.123,20212.8,7839.1,117.733,91.5989,8.09992e+10,1.01009,0.965546,85,0.880426,232,0.01,2
app_39,64.2874,20165.5,7810.9,149.222,66.0332,1.03702e+11,1.01079,0.965546,118,1.57124,167,0.01,2
app_4,6.33113,19659.5,7804.3,151.978,784.444,9.99053e+10,1.01212,0.965546,10,0.12743,1922,0.1,1
app_40,40.7596,20039.8,7950.3,9.17579,70.5266,2.82053e+09,1.00589,0.965546,113,0.0402932,176,0.01,2
app_41,478.497,21898.9,7575.5,264.242,9.1825,1.42609e+11,1.03652,0.965546,803,15.8455,25,0.001,3
app_42,94.2487,21728.5,7513.31,198.379,8.08698,9.27019e+10,1.0518,0.965546,933,10.3068,22,0.001,3
app_43,404.416,22240.4,7650.39,82.8889,7.69937,3.98336e+10,1.04028,0.965546,992,5.69051,21,0.001,3
app_44,305.701,21917.5,7471.5,205.79,8.828,9.51074e+10,1.05728,0.965546,854,10.5675,24,0.001,3
app_45,836.769,22564.8,7535.2,306.337,7.01283,1.59177e+11,1.03972,0.965546,1071,22.7395,19,0.001,3
app_46,788.227,21740.1,7665.2,150.509,6.08455,8.06907e+10,1.03281,0.965546,1277,11.5272,16,0.001,3
app_47,422.7,22505.1,7610,273.464,5.77204,1.37734e+11,1.03256,0.965546,1301,27.5467,16,0.001,3
app_48,338.98,21481.9,7788.6,119.109,8.42185,7.00609e+10,1.01799,0.965546,896,8.75762,23,0.001,3
app_49,912.999,22234.6,7511.1,303.559,6.17831,1.49238e+11,1.04434,0.965546,1178,24.8729,17,0.001,3
app_5,11.5967,19029,7813.8,150.333,709.288,1.24402e+11,1.00778,0.965546,11,0.175461,1685,0.1,1
app_50,348.594,21460.4,7525,260.472,8.33205,1.42999e+11,1.0433,0.965546,902,15.8887,22,0.001,3
app_51,360.131,21024.8,7494.23,415.094,9.48213,2.09267e+11,1.03849,0.965546,824,21.2689,24,0.001,3
app_52,93.6456,20820.3,7579.4,313.462,9.1478,1.59212e+11,1.03378,0.965546,826,17.6902,24,0.001,3
app_53,578.195,22533.7,7547.2,116.706,6.89021,6.55244e+10,1.05087,0.965546,1097,9.36063,19,0.001,3
app_54,857.521,22184.4,7567.6,328.252,7.11901,1.57072e+11,1.03564,0.965546,1071,22.4389,19,0.001,3
app_55,287.564,21540.6,7567.5,212.832,7.46955,1.03028e+11,1.04295,0.965546,1000,14.7182,20,0.001,3
app_56,300.023,21854.9,7424.3,359.708,7.68547,1.74078e+11,1.05286,0.965546,973,21.7598,21,0.001,3
app_57,513.874,21869.5,7535.9,176.606,6.59108,1.01071e+11,1.04754,0.965546,1132,14.4387,18,0.001,3
app_58,431.826,21826.8,7365.8,307.291,14.2232,1.5438e+11,1.0638,0.965546,512,11.0272,39,0.001,3
app_59,744.089,21943.3,7610.5,310.109,8.99051,1.49251e+11,1.03096,0.965546,851,16.5834,24,0.001,3
app_6,5.06727,19827.6,7904.2,63.6026,563.694,4.70622e+10,1.00613,0.965546,14,0.0835918,1398,0.1,1
app_60,381.843,21028.5,7587.9,74.806,9.85409,3.75591e+10,1.04912,0.965546,766,3.75591,26,0.001,3
app_7,8.67279,19631.2,7696.4,258.476,855.484,2.1052e+11,1.01177,0.965546,9,0.246223,2098,0.1,1
app_8,0.670892,19897.6,7754.2,188.163,971.567,1.2452e+11,1.01539,0.965546,8,0.128239,2413,0.1,1
app_9,4.19062,18669.9,7834.9,103.292,1120.89,3.04011e+10,1.01713,0.965546,7,0.0271197,2608,0.1,1
