app_id,start_app,end_app,effective_cpu,effective_io,effective_iter,total_bytes,stretch,utilization,Tcomp,Tio,iterations,priority,group_id
app_1,7.41275,18743.4,7755.2,244.8,969.552,4.91011e+10,1.02508,0.949838,8,0.0506719,2270,1,1
app_10,9.35224,19336.3,7329.61,670.393,817.965,1.71322e+11,1.06653,0.949838,9,0.209459,1977,1.00001,1.00001
app_11,2.03585,18473.1,7709.7,290.3,966.346,6.41949e+10,1.02909,0.949838,8,0.0663857,2229,1.00001,1.00001
app_12,6.98874,20771.1,7342.8,657.2,612.806,1.73907e+11,1.0643,0.949838,12,0.283699,1597,1.00001,1.00001
app_13,7.0829,18675.3,7588.9,411.1,1083.45,9.8781e+10,1.04063,0.949838,7,0.0911264,2534,1.00001,1.00001
app_14,3.13242,20059.6,7798.8,201.2,777.664,4.17932e+10,1.02033,0.949838,10,0.0537187,1956,1.00001,1.00001
app_15,5.87171,20604.9,7371.2,628.8,736.049,1.61019e+11,1.0621,0.949838,10,0.218775,1902,1.00002,1.00002
app_16,10.065,20538.7,7389.56,610.44,670.54,1.5902e+11,1.0598,0.949838,11,0.237157,1727,1.00002,1.00002
app_17,5.00615,19549.2,7854.8,145.2,653.123,3.00934e+10,1.0146,0.949838,12,0.0460848,1597,1.00002,1.00002
app_18,3.12795,19686,7552.95,447.053,689.421,1.10934e+11,1.04386,0.949838,11,0.160842,1696,1.00002,1.00002
app_19,2.4367,19653.9,7475.6,524.4,832.19,1.3301e+11,1.05144,0.949838,9,0.159868,2046,1.00002,1.00002
app_2,6.44598,20625.3,7510.8,489.2,684.216,1.25588e+11,1.04762,0.949838,11,0.183608,1769,1,1
app_20,7.78552,19566.1,7692.1,307.9,964.078,6.87511e+10,1.03081,0.949838,8,0.0713186,2355,1.00002,1.00002
app_21,4.52594,20097.9,7927.5,72.5,67.4592,1.91416e+10,1.00671,0.949838,116,0.285696,171,1.00002,1.00002
app_22,68.4809,20021.4,7885.8,114.2,116.474,2.9111e+10,1.01075,0.949838,68,0.250957,291,1.00002,1.00002
app_23,29.5608,20682.8,7494.71,505.291,86.2662,1.29652e+11,1.04927,0.949838,88,1.49189,222,1.00002,1.00002
app_24,9.60625,20873.2,7352,648,94.8991,1.774e+11,1.0625,0.949838,78,1.86737,249,1.00002,1.00002
app_25,75.9682,20535.7,7673.44,326.556,70.3634,9.44902e+10,1.02987,0.949838,108,1.33796,182,1.00003,1.00003
app_26,28.9754,20799.4,7609.6,390.4,79.6454,9.26547e+10,1.03866,0.949838,95,1.15818,208,1.00003,1.00003
app_27,21.5306,20233.6,7831.3,168.7,115.493,4.13652e+10,1.01617,0.949838,68,0.359697,291,1.00003,1.00003
app_28,19.5997,20721.2,7515.5,484.5,89.0634,1.32613e+11,1.04601,0.949838,84,1.49004,232,1.00003,1.00003
app_29,12.4576,21110.8,7323.5,676.5,82.5491,1.76536e+11,1.06666,0.949838,89,2.15288,219,1.00003,1.00003
app_3,3.72874,19046.3,7464.6,535.4,828.516,1.32939e+11,1.05297,0.949838,9,0.160554,1974,1,1
app_30,27.6311,20594.7,7654.5,345.5,109.167,9.00597e+10,1.03298,0.949838,70,0.826236,282,1.00003,1.00003
app_31,45.9925,20790.3,7621.6,378.4,76.049,1.04652e+11,1.03543,0.949838,100,1.377,197,1.00003,1.00003
app_32,68.1411,20652.7,7622.4,377.6,77.9886,9.66217e+10,1.0364,0.949838,98,1.23874,200,1.00003,1.00003
app_33,46.3068,20767.6,7399.8,600.2,88.333,1.6632e+11,1.05735,0.949838,85,1.89,228,1.00003,1.00003
app_34,8.0003,20664.4,7609.3,390.7,133.874,9.93201e+10,1.0378,0.949838,57,0.741195,345,1.00003,1.00003
app_35,7.37895,20854.8,7583.4,416.6,53.0506,1.19184e+11,1.03861,0.949838,142,2.24875,139,1.00004,1.00004
app_36,6.65858,20662.4,7624.1,375.9,80.7126,9.45053e+10,1.03646,0.949838,94,1.16673,209,1.00004,1.00004
app_37,25.4883,20050.7,7956.7,43.3,64.375,9.80641e+09,1.0042,0.949838,123,0.150868,162,1.00004,1.00004
app_38,111.401,20410.6,7860.9,139.1,70.2411,3.98691e+10,1.01256,0.949838,112,0.569559,178,1.00004,1.00004
app_39,1.55017,20186.4,7901.5,98.5,67.7613,2.73615e+10,1.00897,0.949838,117,0.402374,170,1.00004,1.00004
app_4,4.9555,20729.5,7585.8,414.2,689.882,1.01884e+11,1.04063,0.949838,11,0.147658,1787,1,1
app_40,63.098,20304.6,7841.3,158.7,86.9052,4.12944e+10,1.01489,0.949838,90,0.474648,220,1.00004,1.00004
app_41,988.51,21750.7,7830,170,7.62512,3.48075e+10,1.01719,0.949838,1007,4.35094,20,1.00004,1.00004
app_42,366.074,22172,7304.72,695.284,11.4164,1.71153e+11,1.07011,0.949838,641,14.8716,31,1.00004,1.00004
app_43,151.724,21589.2,7470.2,529.8,7.78537,1.70836e+11,1.04698,0.949838,936,21.3545,21,1.00004,1.00004
app_44,75.5052,21607.5,7462.2,537.8,9.67129,1.29852e+11,1.05373,0.949838,732,12.9852,27,1.00004,1.00004
app_45,85.4336,21695.5,7505.6,494.4,8.98579,1.0821e+11,1.05072,0.949838,815,12.0233,25,1.00004,1.00004
app_46,107.965,21228.4,7924.3,75.7,7.64628,2.73244e+10,1.00608,0.949838,1044,3.41555,20,1.00005,1.00005
app_47,670.296,22064.9,7599.76,400.239,10.4712,1.05851e+11,1.0382,0.949838,718,10.1765,28,1.00005,1.00005
app_48,114.44,21312.9,7384.4,615.6,7.93114,1.49259e+11,1.0619,0.949838,934,18.6573,21,1.00005,1.00005
app_49,336.403,20999.6,7685.7,314.3,6.17855,9.60525e+10,1.02805,0.949838,1242,16.0088,16,1.00005,1.00005
app_5,5.9989,20668,7438.8,561.2,743.518,1.46371e+11,1.05469,0.949838,10,0.196999,1929,1.00001,1.00001
app_50,361.789,21368.3,7526.7,473.3,16.724,1.13168e+11,1.04714,0.949838,450,6.65696,44,1.00005,1.00005
app_51,167.218,21305.8,7480.8,519.2,7.6982,1.36821e+11,1.0502,0.949838,959,19.5458,21,1.00005,1.00005
app_52,973.51,22198.9,7988.3,11.7,5.62015,2.48402e+09,1.00115,0.949838,1403,0.414004,15,1.00005,1.00005
app_53,867.753,22183.6,7347.8,652.2,7.51374,1.81069e+11,1.06258,0.949838,997,22.6336,20,1.00005,1.00005
app_54,103.567,20377.2,7989.1,10.9,8.53707,2.84094e+09,1.00101,0.949838,919,0.355117,22,1.00005,1.00005
app_55,391.037,21675.3,7210.6,789.4,8.46756,1.75208e+11,1.08316,0.949838,860,19.4676,23,1.00005,1.00005
app_56,720.659,22510.3,7438.3,561.7,9.98943,1.59892e+11,1.05288,0.949838,751,15.9892,27,1.00006,1.00006
app_57,180.264,21340.7,7582.6,417.4,10.3176,1.31232e+11,1.0371,0.949838,703,11.9301,28,1.00006,1.00006
app_58,1111.77,21982.3,7557.8,442.2,6.53781,1.71125e+11,1.03507,0.949838,1184,24.4464,17,1.00006,1.00006
app_59,105.333,20785.4,7704.7,295.3,8.91373,6.0918e+10,1.03018,0.949838,864,6.76867,23,1.00006,1.00006
app_6,9.16576,19284.5,7616.7,383.3,692.565,9.11771e+10,1.0379,0.949838,11,0.131569,1671,1.00001,1.00001
app_60,137.286,21420.8,7582.4,417.6,6.27269,1.43169e+11,1.03552,0.949838,1186,23.8615,17,1.00006,1.00006
app_7,8.56632,18838.2,7555,445,940.866,1.0102e+11,1.04493,0.949838,8,0.107354,2223,1.00001,1.00001
app_8,1.56729,20206.3,7404.3,595.7,820.413,1.52975e+11,1.05858,0.949838,9,0.186555,2082,1.00001,1.00001
app_9,5.66502,19055.9,7620.2,379.8,690.712,9.12899e+10,1.03741,0.949838,11,0.132113,1649,1.00001,1.00001
