app_id,start_app,end_app,effective_cpu,effective_io,effective_iter,total_bytes,stretch,utilization,Tcomp,Tio,iterations,priority,group_id
app_1,6.93365,25453.7,5774.7,152.509,413.88,1.2702e+11,1.35554,0.859826,14,0.306811,1388,1,1
app_10,4.96946,24827.4,5061.87,157.525,844.257,1.10115e+11,1.5468,0.859826,6,0.130468,2824,1,1
app_11,7.58761,25452.7,5422.69,99.3426,602.618,6.29431e+10,1.45835,0.859826,9,0.104557,2064,1,1
app_12,7.13443,25202.8,5345.46,76.9234,668.546,4.88796e+10,1.48303,0.859826,8,0.0731731,2276,1,1
app_13,9.27375,24630.5,5674.45,83.7704,471.967,5.76596e+10,1.39565,0.859826,12,0.12242,1536,1,1
app_14,7.33805,26224.5,5545.32,56.7479,555.994,2.83091e+10,1.43533,0.859826,10,0.0509157,1971,1,1
app_15,1.68993,26404.6,5529.05,61.3755,552.151,3.50156e+10,1.4378,0.859826,10,0.0634341,1981,1,1
app_16,0.960583,25341.1,5360.49,160.98,595.767,1.25036e+11,1.45838,0.859826,9,0.210145,2029,1,1
app_17,9.86693,24817,5465.14,157.277,546.904,1.26911e+11,1.4306,0.859826,10,0.232438,1799,1,1
app_18,8.71587,25377.1,5477.75,152.098,546.931,1.20189e+11,1.4291,0.859826,10,0.220126,1853,1,1
app_19,8.12872,25119.8,5769.86,125.494,411.058,1.05653e+11,1.36158,0.859826,14,0.257063,1363,1,1
app_2,0.731578,25250.6,5484.19,38.0607,607.725,1.09673e+09,1.45845,0.859826,9,0.0018068,2060,1,1
app_20,9.10303,26488,5424.47,131.232,602.003,1.05218e+11,1.44674,0.859826,9,0.174781,2170,1,1
app_21,108.534,21442.4,7347.13,107.563,68.565,1.03959e+11,1.07367,0.859826,108,1.5288,182,1,1
app_22,38.9266,22324.7,6999.3,134.105,145.594,1.28211e+11,1.12241,0.859826,48,0.884215,405,1,1
app_23,24.3547,21131.8,7448.98,63.1926,61.9992,6.02515e+10,1.06535,0.859826,120,0.971798,165,1,1
app_24,58.9465,21339.3,7340.2,137.04,75.2843,1.34518e+11,1.07027,0.859826,97,1.79358,202,1,1
app_25,61.7984,21219.4,7517.9,126.396,61.4055,1.22558e+11,1.04706,0.859826,123,2.00915,160,1,1
app_26,36.1519,21102.2,7576.28,74.5881,61.9984,7.18856e+10,1.046,0.859826,122,1.15944,163,1,1
app_27,69.8741,21739.5,7428.1,13.7712,75.5529,8.94193e+09,1.0757,0.859826,98,0.117657,204,1,1
app_28,31.0347,21096.4,7363.6,128.709,58.8264,1.25221e+11,1.06826,0.859826,126,2.1224,156,1,1
app_29,44.039,22489.7,6900.86,137.477,156.924,1.2877e+11,1.13804,0.859826,44,0.825452,444,1,1
app_3,4.03536,26462.8,5341.99,125.02,668.542,8.72448e+10,1.4735,0.859826,8,0.130606,2413,1,1
app_30,53.0011,21389.3,7418.48,62.0557,85.9808,5.87155e+10,1.06992,0.859826,88,0.69077,226,1,1
app_31,54.2295,21527,7439.92,10.5729,77.2494,7.59969e+09,1.07418,0.859826,96,0.0986973,207,1,1
app_32,10.8326,22096.2,6997.6,128.481,126.334,1.22773e+11,1.12354,0.859826,56,0.974385,350,1,1
app_33,47.0924,21438.9,7455.1,22.9327,73.015,1.99082e+10,1.07023,0.859826,102,0.272715,196,1,1
app_34,57.029,21489.2,7388.6,91.3056,78.0254,8.69227e+10,1.07016,0.859826,95,1.11439,208,1,1
app_35,20.7626,21478.9,7156.5,127.179,98.7173,1.21641e+11,1.09918,0.859826,73,1.2287,266,1,1
app_36,55.125,21352.5,7673.8,12.1551,62.9106,8.27656e+09,1.04139,0.859826,120,0.133493,166,1,1
app_37,92.6927,21526,7299.6,137.024,72.5335,1.33148e+11,1.07632,0.859826,101,1.84928,195,1,1
app_38,86.9396,21434.1,7275.2,167.543,67.2393,1.64265e+11,1.07535,0.859826,108,2.45172,181,1,1
app_39,86.7405,21324.3,7400.6,16.3314,71.9534,1.28059e+10,1.07913,0.859826,103,0.17786,193,1,1
app_4,6.6744,26187.7,5389.5,128.851,598.643,1.02163e+11,1.45675,0.859826,9,0.170841,2130,1,1
app_40,35.9011,21437.2,7398.1,30.8731,71.1971,2.75121e+10,1.07735,0.859826,104,0.387494,192,1,1
app_41,743.234,21084.2,7769.6,159.983,8.99432,1.59359e+11,1.00896,0.859826,855,17.7066,23,1,1
app_42,859.408,21224.2,7922.3,28.7107,8.26501,2.81761e+10,1.00623,0.859826,950,3.52201,21,1,1
app_43,1010.83,21212.3,7840.9,127.677,7.36867,1.27273e+11,1.00399,0.859826,1048,15.9091,19,1,1
app_44,345.963,21865.1,7824.1,124.965,6.51268,1.24755e+11,1.00643,0.859826,1224,20.7924,17,1,1
app_45,572.41,21318.4,7791.4,146.08,11.9084,1.45233e+11,1.00798,0.859826,642,12.1027,31,1,1
app_46,331.299,20835.5,7819.9,126.884,8.58115,1.26458e+11,1.00675,0.859826,903,15.8073,22,1,1
app_47,477.85,20948.3,7766.9,136.923,10.1575,1.36392e+11,1.01224,0.859826,778,13.6392,26,1,1
app_48,988.318,21739.3,7815.2,85.6728,7.54832,8.52776e+10,1.0126,0.859826,1013,10.6597,20,1,1
app_49,338.495,20529.2,7801.8,121.126,6.24779,1.20896e+11,1.00976,0.859826,1239,20.1493,16,1,1
app_5,4.75521,25277.1,5629.65,126.011,466.983,9.93931e+10,1.39639,0.859826,12,0.213138,1573,1,1
app_50,719.045,21764,7830.34,124.015,10.2167,1.23238e+11,1.00584,0.859826,753,12.3238,27,1,1
app_51,392.572,21066.4,7863.3,109.378,6.96384,1.09185e+11,1.00345,0.859826,1147,15.5978,18,1,1
app_52,303.045,20352.5,7808,149.681,8.01946,1.49317e+11,1.00536,0.859826,990,18.6646,20,1,1
app_53,367.556,21047.3,7755,80.7379,13.0975,8.02305e+10,1.02103,0.859826,595,6.17158,34,1,1
app_54,59.6315,21001.6,7790.3,153.821,7.98138,1.53437e+11,1.00708,0.859826,963,19.1796,21,1,1
app_55,614.695,21667.1,7837.2,134.851,8.23139,1.3447e+11,1.00355,0.859826,927,16.8088,22,1,1
app_56,903.884,21037.4,7882.7,98.6927,6.68423,9.83907e+10,1.00237,0.859826,1169,14.0558,17,1,1
app_57,658.809,21015.6,7881.1,60.261,9.03058,5.97765e+10,1.00745,0.859826,875,6.64183,23,1,1
app_58,13.1257,20432.2,7832.8,85.0302,7.40844,8.47269e+10,1.01042,0.859826,1050,12.1038,19,1,1
app_59,447.672,21193.4,7840.5,130.397,7.60515,1.30137e+11,1.00368,0.859826,1005,18.5909,20,1,1
app_6,5.25883,24640,5710.13,33.8923,474.198,5.45352e+09,1.39968,0.859826,12,0.0115053,1548,1,1
app_60,599.927,21384.6,7787.75,133.015,9.51953,1.32637e+11,1.01005,0.859826,799,13.7469,25,1,1
app_7,1.29202,26720.8,5191.14,142.081,741.422,1.03249e+11,1.51103,0.859826,7,0.139337,2738,1,1
app_8,1.31047,25792,5315.07,129.89,663.768,9.60766e+10,1.47843,0.859826,8,0.144912,2318,1,1
app_9,9.3768,24993.3,5516.6,117.078,550.012,9.06938e+10,1.42671,0.859826,10,0.164898,1831,1,1
