app_id,start_app,end_app,effective_cpu,effective_io,effective_iter,total_bytes,stretch,utilization,Tcomp,Tio,iterations,priority,group_id
app_1,4.95581,21358.4,6714,1286,828.946,4.94937e+11,1.10973,0.874307,8,0.597029,2242,1,1
app_10,92.3894,21018,7435.5,564.5,79.9706,2.2482e+11,1.04434,0.874307,92,2.81025,211,1.00001,1.00001
app_11,923.117,25308.5,6476.9,1523.1,6.43676,5.92959e+11,1.13156,0.874307,1005,84.7085,19,1.00001,1.00001
app_12,452.97,22260,7846.5,153.5,8.05474,5.93729e+10,1.01191,0.874307,1008,7.42162,20,1.00001,1.00001
app_13,267.975,21563.2,6895.9,1104.1,7.97071,4.33061e+11,1.09156,0.874307,863,54.1326,22,1.00001,1.00001
app_14,450.403,22316.8,6864.1,1135.9,8.23095,5.13619e+11,1.08435,0.874307,825,64.2024,23,1.00001,1.00001
app_15,303.95,24717.2,6778.24,1221.76,7.12056,5.28605e+11,1.09486,0.874307,870,75.4633,22,1.00002,1.00002
app_2,1.77009,20161.3,6779.4,1220.6,970.039,4.56581e+11,1.10559,0.874307,7,0.470702,2444,1,1
app_3,1.89356,21898.1,6726.93,1273.07,741.413,4.89249e+11,1.10862,0.874307,9,0.659891,2032,1,1
app_4,6.18245,19104.6,7912.8,87.2,872.077,3.61121e+09,1.01056,0.874307,9,0.0041413,2093,1,1
app_5,6.74527,20436.3,7035.5,964.5,774.908,3.60284e+11,1.0817,0.874307,9,0.464883,1979,1.00001,1.00001
app_6,21.4934,21443.6,7016,984,74.1149,3.73319e+11,1.08264,0.874307,97,5.04485,196,1.00001,1.00001
app_7,31.4415,21373.1,6970.1,1029.9,88.1752,3.79246e+11,1.08853,0.874307,80,4.30962,236,1.00001,1.00001
app_8,81.151,22245.3,6806.4,1193.6,74.4701,4.52834e+11,1.10204,0.874307,86,6.03779,216,1.00001,1.00001
app_9,9.97219,22123.7,6658.6,1341.4,81.4013,5.3187e+11,1.11258,0.874307,84,6.48622,221,1.00001,1.00001
