app_id,start_app,end_app,effective_cpu,effective_io,effective_iter,total_bytes,stretch,utilization,Tcomp,Tio,iterations,priority,group_id
app_1,2.36545,18516.2,7255.9,684.833,910.302,6.22968e+11,1.01537,0.904,8,0.68458,2117,0.1,1
app_10,78.0615,21345.3,7255,510.56,86.195,3.58315e+11,1.05079,0.904,82,4.16646,232,0.01,2
app_11,589.435,20570.3,7627.9,74.6403,8.47622,3.20999e+10,1.04439,0.904,969,4.01249,21,0.001,3
app_12,392.455,23831.8,6537.55,1461.62,6.97917,6.52456e+11,1.11266,0.904,791,92.696,23,0.001,3
app_13,190.48,23530.1,7335.8,420.965,6.08308,1.85835e+11,1.0636,0.904,1026,30.9725,19,0.001,3
app_14,643.037,22753.9,7596.4,363.639,6.26976,1.48589e+11,1.03293,0.904,1054,24.7649,19,0.001,3
app_15,513.333,22542.9,6985.9,910.51,7.37345,3.69029e+11,1.08771,0.904,990,52.7184,20,0.001,3
app_2,3.82741,19822.4,7484.1,452.056,821.034,4.04098e+11,1.01417,0.904,9,0.492202,2065,0.1,1
app_3,0.644327,18621.6,7465.47,458.255,921.713,3.82823e+11,1.01933,0.904,8,0.415363,2174,0.1,1
app_4,0.605241,18463.6,7474.8,460.902,930.63,3.76508e+11,1.01894,0.904,8,0.404412,2146,0.1,1
app_5,7.13796,18659.5,7665,258.452,846.53,2.18331e+11,1.0148,0.904,9,0.25777,1990,0.1,1
app_6,82.1793,20970.4,6690.1,1210.25,71.6446,8.66717e+11,1.05865,0.904,93,12.0377,190,0.01,2
app_7,3.59231,20848.3,6837.7,862.261,81.5372,6.19982e+11,1.07272,0.904,89,7.56076,207,0.01,2
app_8,22.1698,21249,7266.4,426.473,79.113,3.05915e+11,1.05648,0.904,92,3.87234,209,0.01,2
app_9,5.6263,21403,7002,720.768,68.354,5.19732e+11,1.06358,0.904,100,7.64312,185,0.01,2
