app_id,start_app,end_app,effective_cpu,effective_io,effective_iter,total_bytes,stretch,utilization,Tcomp,Tio,iterations,priority,group_id
app_1,1.80634,29643.8,4350.16,41.4931,440.999,1.62714e+10,1.83216,0.727143,10,0.0368967,1990,1,1
app_10,38.6927,24235.6,5765.9,639.153,70.9576,6.35832e+11,1.24966,0.727143,83,8.95539,218,1,1
app_11,1014.39,25525.2,7089.3,792.553,6.65647,7.9218e+11,1.01504,0.727143,987,113.169,19,1,1
app_12,706.775,20420.4,7341.4,490.12,7.0241,4.89882e+11,1.02154,0.727143,986,69.9831,19,1,1
app_13,855.639,21654,7128.1,500.001,7.9869,4.9968e+11,1.0488,0.727143,974,62.46,20,1,1
app_14,157.064,22950.5,7481,267.194,8.03279,2.66726e+11,1.03256,0.727143,952,33.3407,21,1,1
app_15,678.695,20890.5,6941.6,834.091,8.24809,8.33676e+11,1.0289,0.727143,870,92.6307,21,1,1
app_2,1.11056,28425.8,4150.02,316.407,448.05,2.97629e+11,1.7987,0.727143,9,0.66435,1942,1,1
app_3,2.04068,30144.3,4146.41,107.035,516.027,8.76504e+10,1.88944,0.727143,8,0.169865,2412,1,1
app_4,5.5088,28822.5,3981.44,357.39,497.004,3.43351e+11,1.8498,0.727143,8,0.690596,2169,1,1
app_5,1.54089,29347.7,4144.64,197.701,514.045,1.60843e+11,1.8581,0.727143,8,0.312317,2283,1,1
app_6,92.93,24224.8,6100.92,318.668,62.9768,3.1532e+11,1.24684,0.727143,96,5.05643,197,1,1
app_7,78.6968,24832.5,6223.9,55.1379,59.7392,5.27148e+10,1.27457,0.727143,103,0.87858,191,1,1
app_8,18.4373,24226.6,6328.5,123.542,68.8875,1.19707e+11,1.24065,0.727143,94,1.73489,209,1,1
app_9,54.7528,23893,6083.85,426.241,53.9348,4.23484e+11,1.22938,0.727143,107,7.84229,174,1,1
