app_id,start_app,end_app,effective_cpu,effective_io,effective_iter,total_bytes,stretch,utilization,Tcomp,Tio,iterations,priority,group_id
app_1,4.85605,20289.5,7767,183.727,970.627,1.05139e+11,1.01624,0.967545,8,0.108279,2467,0.1,1
app_10,3.03366,18217.1,7708.7,246.27,963.909,1.88771e+11,1.01298,0.967545,8,0.19582,2193,0.1,1
app_11,3.72197,20141.3,7805.3,156.879,780.739,1.0961e+11,1.01075,0.967545,10,0.140345,1966,0.1,1
app_12,6.64148,18797.7,7765.3,195.926,861.513,1.55848e+11,1.00995,0.967545,9,0.181008,2024,0.1,1
app_13,4.09933,19636.1,7823.2,127.603,980.099,8.89818e+10,1.0111,0.967545,8,0.0907978,2403,0.1,1
app_14,2.71827,19288.6,7826.2,141.943,712.108,9.98285e+10,1.00933,0.967545,11,0.140012,1718,0.1,1
app_15,8.39401,18699.2,7750.5,213.878,862.211,1.60661e+11,1.01123,0.967545,9,0.186382,2014,0.1,1
app_16,78.2371,20340.6,7719.6,157.952,83.695,1.13708e+11,1.02128,0.967545,92,1.35367,213,0.01,2
app_17,38.8654,20446.9,7676.7,226.522,85.1089,1.60082e+11,1.02083,0.967545,90,1.88332,218,0.01,2
app_18,61.9028,20374.3,7703.2,218.089,78.9795,1.57552e+11,1.01771,0.967545,97,1.99433,202,0.01,2
app_19,63.0378,20449.6,7680.9,204.86,78.0559,1.49924e+11,1.0216,0.967545,98,1.9221,200,0.01,2
app_2,0.461475,19757.5,7805.6,163.43,780.788,1.37336e+11,1.00718,0.967545,10,0.175846,1926,0.1,1
app_20,30.6719,20208.8,7674.5,221.404,78.0165,1.63961e+11,1.02061,0.967545,99,2.10207,197,0.01,2
app_21,71.2235,20127.1,7736.1,202.249,77.7108,1.40851e+11,1.01562,0.967545,100,1.80579,195,0.01,2
app_22,76.3476,20427.6,7671.7,233.553,79.6851,1.68865e+11,1.02033,0.967545,96,2.11081,204,0.01,2
app_23,48.632,20430.9,7686.8,224.42,74.8078,1.57343e+11,1.01987,0.967545,102,2.0979,191,0.01,2
app_24,72.2088,20315.1,7677,167.95,86.088,1.18951e+11,1.02617,0.967545,89,1.38315,220,0.01,2
app_25,26.4396,20275.6,7687.9,233.542,70.5918,1.6589e+11,1.01862,0.967545,109,2.33648,179,0.01,2
app_26,57.575,20342.5,7821.7,72.8135,72.2641,5.11853e+10,1.01615,0.967545,107,0.710908,185,0.01,2
app_27,75.5989,20500.6,7680.4,211.36,89.7554,1.50854e+11,1.02155,0.967545,86,1.67615,228,0.01,2
app_28,56.5962,20478.7,7723.3,157.578,80.1675,1.1389e+11,1.02077,0.967545,96,1.42362,206,0.01,2
app_29,47.2205,20203.9,7896.7,11.7601,80.5305,5.06828e+09,1.01243,0.967545,98,0.0625713,203,0.01,2
app_3,4.20002,20014.3,7776.2,179.139,865.152,1.39342e+11,1.01067,0.967545,9,0.160903,2164,0.1,1
app_30,36.2283,20221.2,7843.3,9.08328,82.1473,2.46134e+09,1.01966,0.967545,96,0.0296546,207,0.01,2
app_31,17.8894,20210.2,7711,153.258,92.8474,1.08496e+11,1.02308,0.967545,84,1.16662,233,0.01,2
app_32,86.9289,20495.7,7797.5,103.036,68.389,7.36187e+10,1.01637,0.967545,113,1.06694,175,0.01,2
app_33,55.7506,20214.3,7808.7,106.042,88.1984,7.53021e+10,1.01471,0.967545,88,0.855706,223,0.01,2
app_34,41.8731,20201,7771.9,150.196,79.3569,1.0505e+11,1.01562,0.967545,97,1.31312,202,0.01,2
app_35,94.5713,20395.1,7860,6.00033,78.8575,3.14264e+08,1.01777,0.967545,100,0.00397802,200,0.01,2
app_36,85.7445,20281.7,7697.04,234.058,69.9704,1.70036e+11,1.0169,0.967545,110,2.44034,177,0.01,2
app_37,34.0542,20424.1,7836.62,81.3989,84.7422,5.45514e+10,1.01379,0.967545,92,0.649422,216,0.01,2
app_38,11.7855,20216.3,7777.3,128.598,70.1699,8.86645e+10,1.01704,0.967545,111,1.26664,178,0.01,2
app_39,40.5059,20267.4,7674.4,234.779,78.8556,1.66471e+11,1.02029,0.967545,98,2.10723,199,0.01,2
app_4,2.68437,18732.2,7732.3,232.465,775.457,1.81861e+11,1.01085,0.967545,10,0.234357,1812,0.1,1
app_40,84.5602,20203.8,7660.5,238.537,81.1231,1.69674e+11,1.02169,0.967545,95,2.09474,204,0.01,2
app_41,39.3357,20182.7,7787,92.8438,79.5797,6.71221e+10,1.01857,0.967545,99,0.839027,199,0.01,2
app_42,94.3912,20335.4,7835.9,77.6339,83.9803,5.33442e+10,1.01404,0.967545,94,0.635049,212,0.01,2
app_43,79.8752,20428.8,7751.9,132.938,88.0997,9.47738e+10,1.01954,0.967545,88,1.07697,224,0.01,2
app_44,13.3529,20234.6,7797,75.8311,95.6488,5.26526e+10,1.01915,0.967545,82,0.548465,242,0.01,2
app_45,50.0238,20298.2,7880.1,27.2091,70.5309,1.60948e+10,1.01315,0.967545,112,0.226687,178,0.01,2
app_46,848.367,21319.6,7725.6,193.972,7.97153,7.74677e+10,1.02524,0.967545,1015,9.68346,20,0.001,3
app_47,508.171,21295.5,7593.6,375.577,9.1282,1.55531e+11,1.03237,0.967545,822,17.2813,24,0.001,3
app_48,730.869,21653,7776,30.6642,9.77056,1.30336e+10,1.02709,0.967545,787,1.30336,26,0.001,3
app_49,967.629,22225.6,7439.3,439.978,7.69318,1.58114e+11,1.05299,0.967545,1021,19.7643,20,0.001,3
app_5,2.16888,19517.8,7894.2,75.3189,658.608,5.93594e+10,1.00584,0.967545,12,0.090075,1608,0.1,1
app_50,251.497,21088.3,7783,68.4949,8.14016,1.5237e+10,1.02587,0.967545,958,1.693,21,0.001,3
app_51,110.623,21278.2,7561.6,361.264,8.33894,1.50345e+11,1.03735,0.967545,892,18.7931,22,0.001,3
app_52,1058.19,21907.8,7670.9,327.665,7.15153,1.11234e+11,1.028,0.967545,1086,15.8906,19,0.001,3
app_53,22.0354,21361.5,7572.2,354.826,7.0325,1.29494e+11,1.03873,0.967545,1046,18.4991,19,0.001,3
app_54,72.5672,21529.4,7876,87.0298,8.6209,3.98109e+10,1.01064,0.967545,893,4.97637,23,0.001,3
app_55,409.837,22205.7,7573.6,263.484,7.57159,1.02044e+11,1.04226,0.967545,976,14.5777,21,0.001,3
app_56,438.695,21520.7,7618.1,201.595,8.02144,8.78754e+10,1.03816,0.967545,944,10.9844,21,0.001,3
app_57,300.598,21425,7637.8,331.572,8.33704,1.36987e+11,1.02897,0.967545,925,15.2208,22,0.001,3
app_58,156.662,21546.2,7838,162,8.41545,5.4769e+10,1.01359,0.967545,897,6.84613,23,0.001,3
app_59,638.755,21587.9,7552,369.013,8.31373,1.58659e+11,1.03752,0.967545,917,19.8324,22,0.001,3
app_6,7.69904,18635,7747.4,205.561,967.52,1.74107e+11,1.00991,0.967545,8,0.180049,2254,0.1,1
app_60,679.244,20646.1,7811.3,61.9229,7.72365,1.92417e+10,1.02164,0.967545,1051,2.74882,19,0.001,3
app_7,7.86817,18330.3,7714.71,248.789,855.732,1.72173e+11,1.01434,0.967545,9,0.201304,1966,0.1,1
app_8,8.86608,18684.2,7859.7,95.2869,871.441,6.65944e+10,1.0093,0.967545,9,0.0763697,2038,0.1,1
app_9,8.17421,20018.6,7889.4,72.9269,791.894,1.68804e+10,1.01185,0.967545,10,0.0213137,1976,0.1,1
