app_id,Tcomp,Tio,iter,witer,alpha_io,compute_size,io_size,mu,desyn_time
1,11.420528341023804,0.12451464837957593,1733,11.54504298940338,0.01078511777685555,11e9,124514648.37957594,10,0.3030864024566511
2,11.739860606213314,0.2040559854839922,1675,11.943916591697306,0.017084511928510928,11e9,204055985.4839922,10,8.679605026635393
3,8.727991501598998,0.1858315796199588,2244,8.913823081218958,0.02084757324963045,8e9,185831579.61995882,10,1.8822098635236741
4,9.59864721500198,0.012531548472604554,2081,9.611178763474586,0.0013038513569457542,9e9,12531548.472604554,10,0.9703899269132279
5,8.855326074444248,0.20919485263030352,2207,9.064520927074552,0.023078423483525262,8e9,209194852.63030353,10,8.153370113709803
6,9.644927074507697,0.025727220464442806,2069,9.67065429497214,0.002660339174549815,9e9,25727220.464442804,10,0.8367162018390911
7,10.656646715263323,0.13225297236436873,1854,10.78889968762769,0.012258244695335476,10e9,132252972.36436872,10,8.390082431537786
8,11.023848067197044,0.16781835491517283,1788,11.191666422112217,0.014994938964907093,11e9,167818354.91517282,10,7.454358587738505
9,10.334018391127563,0.07545294129292912,1922,10.409471332420491,0.007248489273218856,10e9,75452941.29292913,10,1.4428926196518277
10,10.417085752739538,0.2163679170026769,1881,10.633453669742215,0.020347849694249177,10e9,216367917.0026769,10,0.8945505439872632
11,9.485312110708957,0.24166441933130678,2057,9.726976530040265,0.02484476225320001,9e9,241664419.3313068,10,6.086416964667364
12,9.72905443935759,0.07504177508513976,2040,9.80409621444273,0.007654124709077549,9e9,75041775.08513977,10,0.4828622913298196
13,7.816923024934919,0.0423649753445227,2545,7.859288000279442,0.005390434266184976,7e9,42364975.3445227,10,4.408681529502378
14,10.11743094770822,0.01372869317957216,1975,10.131159640887793,0.0013550959284231666,10e9,13728693.17957216,10,3.5504632813229886
15,11.436344792824649,0.28674390556072116,1707,11.72308869838537,0.02445975740166622,11e9,286743905.56072116,10,11.527927286452528
16,94.01153608981625,0.002603091355355759,213,94.0141391811716,2.768829644165997e-05,94e9,2603091.3553557587,100,2.0215181489516643
17,96.6981935123232,1.6167967688962444,204,98.31499028121945,0.01644506869472876,96e9,1616796768.8962443,100,28.00634415621016
18,112.51454255177127,1.7157054630809052,176,114.23024801485218,0.015019712316984813,112e9,1715705463.0809052,100,16.97170911950019
19,118.4975820868868,1.136789295347402,168,119.63437138223419,0.009502196419082084,118e9,1136789295.3474019,100,9.845220153337769
20,105.77427352262241,0.8623903986999879,188,106.6366639213224,0.008087184716658693,105e9,862390398.6999879,100,18.258506461169837
21,105.70986111314086,1.322012281572946,187,107.03187339471381,0.012351575653521532,105e9,1322012281.572946,100,47.951890122278826
22,90.35413429541521,0.8947632074969367,220,91.24889750291214,0.00980574266629776,90e9,894763207.4969367,100,0.7865442343851479
23,100.40506806514654,1.1543723375511563,197,101.55944040269769,0.011366470049203749,100e9,1154372337.5511563,100,55.027529951179474
24,73.34208064151983,1.674126584029745,267,75.01620722554958,0.022316865194159784,73e9,1674126584.029745,100,10.154028630894727
25,90.205918412254,1.3638687209662836,219,91.56978713322027,0.01489430917844179,90e9,1363868720.9662836,100,82.11411413768234
26,108.11538304330486,1.1111717004660002,184,109.22655474377086,0.010173091177989112,108e9,1111171700.4660003,100,73.53673107304631
27,125.8606369975342,0.6831650639452764,159,126.54380206147948,0.005398644997353332,125e9,683165063.9452764,100,83.298058776386
28,95.28844481479943,2.48818901584039,205,97.77663383063982,0.02544768538616511,95e9,2488189015.84039,100,36.48389922831944
29,93.65840530482808,2.0726355990962175,209,95.7310409039243,0.021650611750647475,93e9,2072635599.0962176,100,27.38610780741814
30,100.71812735175193,1.1999659933185993,197,101.91809334507053,0.011773826942148522,100e9,1199965993.3185992,100,0.4757741295068884
31,1007.0841981029274,24.83827191269134,20,1031.9224700156187,0.024069901212942287,1007e9,24838271912.69134,1000,710.7623039347503
32,949.8063792724108,3.171658579868046,21,952.9780378522788,0.003328154956242218,949e9,3171658579.868046,1000,335.5031273855432
33,1081.4973140225175,19.956975738725248,19,1101.4542897612428,0.018118750750020892,1081e9,19956975738.725246,1000,731.8783273703013
34,929.0635807727488,13.66990311074445,22,942.7334838834932,0.014500283849506114,929e9,13669903110.74445,1000,802.1497366072773
35,1098.3452105042888,4.688230685515569,19,1103.0334411898043,0.004250306935806529,1098e9,4688230685.515569,1000,847.3264123529103
36,999.8930996040609,1.3081585442591501,20,1001.2012581483201,0.001306588993584102,999e9,1308158544.25915,1000,166.6272253179531
37,917.0364446622602,5.733035582439213,22,922.7694802446995,0.00621285782113094,917e9,5733035582.439214,1000,599.287149412821
38,1064.6264733698795,8.507525500642119,19,1073.1339988705215,0.007927738296984654,1064e9,8507525500.642119,1000,598.917678420075
39,865.5535337075326,8.007601624214917,23,873.5611353317474,0.00916661845444156,865e9,8007601624.214917,1000,491.4175284430709
40,1015.4704342275539,16.993432768523572,20,1032.4638669960775,0.016459106523471326,1015e9,16993432768.523573,1000,776.7517506808148
41,1025.3135510367047,9.44053171995596,20,1034.7540827566606,0.00912345442968023,1025e9,9440531719.95596,1000,466.01094344457556
42,1004.197254439466,11.331975870972055,20,1015.529230310438,0.011158690003938118,1004e9,11331975870.972055,1000,81.09628466854991
43,780.9557771355261,16.89475133730469,26,797.8505284728308,0.02117533389323312,780e9,16894751337.30469,1000,371.8509711414629
44,956.4696389170678,14.326006283574158,21,970.795645200642,0.0147569741936917,956e9,14326006283.574158,1000,482.31283169207705
45,881.5175784985063,11.45525201832066,23,892.9728305168269,0.01282822010574576,881e9,11455252018.32066,1000,143.2644530729199
46,4131.95282656276,30.496794156852836,5,4162.4496207196125,0.007326645830149529,4131e9,30496794156.852837,4000,3186.026465323469
47,4637.716703118883,79.18909279791453,5,4716.905795916798,0.016788355804448072,4637e9,79189092797.91452,4000,4456.585543886594
48,3445.7267785919935,60.35060300558966,6,3506.077381597583,0.017213140623294012,3445e9,60350603005.58966,4000,1802.4008412128178
49,3697.070668575327,53.99914479722787,6,3751.069813372555,0.014395665099252764,3697e9,53999144797.22787,4000,2172.5724527693383
50,3648.3667689424883,43.86260456831788,6,3692.229373510806,0.011879707388441723,3648e9,43862604568.31788,4000,1069.6039524318242
51,3478.629210832513,33.51051562074868,6,3512.1397264532616,0.00954133896449197,3478e9,33510515620.748676,4000,1976.5089752800686
52,4390.970382492603,46.93074864658947,5,4437.901131139192,0.010574987423061975,4390e9,46930748646.58947,4000,4407.377327617011
53,3857.1623547439945,50.10993613608045,6,3907.2722908800747,0.012824787321078583,3857e9,50109936136.08045,4000,571.9595158569315
54,3237.1323987922724,41.11647414355368,7,3278.248872935826,0.012542206445336757,3237e9,41116474143.55368,4000,2800.6818106440887
55,4410.880114811067,75.69220581863696,5,4486.572320629704,0.016870831541173803,4410e9,75692205818.63696,4000,12.10883807200193
56,3721.7741519444176,83.75549111602763,6,3805.5296430604453,0.022008892052321687,3721e9,83755491116.02763,4000,2704.9048238829364
57,4656.71736817726,92.43494562484162,5,4749.152313802102,0.019463462006936466,4656e9,92434945624.84161,4000,3776.6966456262003
58,3740.3598159600974,62.834804841977,6,3803.1946208020745,0.016521585431966523,3740e9,62834804841.977,4000,2600.643905577775
59,3661.698031478196,91.19181276076215,6,3752.889844238958,0.02429909124584358,3661e9,91191812760.76215,4000,971.6889717337457
60,4315.622238438107,109.71352070096543,5,4425.335759139072,0.02479213480567849,4315e9,109713520700.96544,4000,1575.226460553264
