app_id,start_app,end_app,effective_cpu,effective_io,effective_iter,total_bytes,stretch,utilization,Tcomp,Tio,iterations,priority,group_id
app_1,3.6775,28530.1,4403.47,48.7278,549.786,1.86935e+10,1.80907,0.830159,8,0.03405,2365,1,1
app_10,4.02928,28643.7,4314.74,153.095,541.844,1.18651e+11,1.80449,0.830159,8,0.219318,2330,1,1
app_11,4.04103,27390.7,4408.7,102.405,489.17,8.02994e+10,1.78213,0.830159,9,0.164211,1975,1,1
app_12,4.69551,28177.6,4371.16,70.3035,546.915,5.38109e+10,1.80792,0.830159,8,0.0985547,2314,1,1
app_13,5.88499,29025.7,4457.57,36.0751,496.011,4.06451e+09,1.79307,0.830159,9,0.00819458,2175,1,1
app_14,2.50732,27679,4350.3,105.044,545.899,7.49728e+10,1.8078,0.830159,8,0.137565,2245,1,1
app_15,1.70066,28229.6,4416.71,93.8429,489.021,6.70762e+10,1.78421,0.830159,9,0.13717,2068,1,1
app_16,41.9988,22806.5,6604.13,69.8232,63.012,6.68704e+10,1.19922,0.830159,105,1.06143,187,1,1
app_17,14.7872,22369.4,6763.9,80.4361,50.7928,7.75672e+10,1.16934,0.830159,134,1.52092,147,1,1
app_18,38.8863,23064.4,6735.2,26.0077,59.9575,2.37006e+10,1.18362,0.830159,111,0.39501,179,1,1
app_19,92.2879,23138.6,6742.7,37.2005,64.8805,3.33992e+10,1.18062,0.830159,104,0.513834,192,1,1
app_2,5.27943,28512.9,4479.9,36.332,497.996,4.01433e+09,1.78415,0.830159,9,0.0080609,2120,1,1
app_20,17.9201,22623.8,6639.1,160.452,67.5336,1.56149e+11,1.17729,0.830159,99,2.3044,197,1,1
app_21,35.298,23032.5,6761,58.8143,68.497,5.49737e+10,1.17371,0.830159,99,0.808437,201,1,1
app_22,29.055,22478.8,6745.1,161.446,57.9307,1.58493e+11,1.15882,0.830159,117,2.73264,166,1,1
app_23,38.467,22962.3,6602.1,37.2907,77.8504,3.29647e+10,1.20572,0.830159,85,0.428112,233,1,1
app_24,90.0664,22524.4,6674.8,185.556,63.6609,1.8241e+11,1.16666,0.830159,106,2.85016,183,1,1
app_25,33.3371,22869.4,6804.15,61.1064,61.6065,5.82712e+10,1.16577,0.830159,111,0.955265,179,1,1
app_26,28.0466,22831.3,6629.2,132.049,63.4455,1.28016e+11,1.18392,0.830159,105,2.00025,187,1,1
app_27,76.8027,22927.6,6579.9,101.297,59.6024,9.83221e+10,1.19792,0.830159,110,1.66648,179,1,1
app_28,3.42892,22704.4,6569.4,93.3031,62.8745,8.99046e+10,1.20133,0.830159,105,1.42706,188,1,1
app_29,31.4719,23400.1,6582.9,15.26,73.7524,1.22475e+10,1.21301,0.830159,89,0.167774,225,1,1
app_3,8.22605,27976.2,4463.54,39.8781,496.902,1.04138e+10,1.78813,0.830159,9,0.0209955,2061,1,1
app_30,1.94275,22790,6625,113.797,66.6669,1.10522e+11,1.18773,0.830159,99,1.67457,198,1,1
app_31,69.022,20879.3,7521.5,189.102,9.01526,1.88771e+11,1.03758,0.830159,818,20.9746,24,1,1
app_32,161.964,20328.6,7566,207.122,8.73757,2.06752e+11,1.02924,0.830159,890,22.9724,22,1,1
app_33,137.908,21129.6,7924.4,57.8846,8.39748,5.74495e+10,1.00227,0.830159,934,6.38327,22,1,1
app_34,29.8234,21187.6,7684.1,160.948,7.94249,1.60743e+11,1.01978,0.830159,960,20.0929,21,1,1
app_35,249.194,21686.5,7529.7,178.274,6.72071,1.77838e+11,1.03794,0.830159,1108,25.4054,18,1,1
app_36,332.376,21255.2,7550.4,121.602,8.72435,1.21087e+11,1.04282,0.830159,859,15.1359,23,1,1
app_37,414.996,21390.4,7586.94,99.1795,8.66202,9.88066e+10,1.04089,0.830159,863,11.536,23,1,1
app_38,941.356,21951.9,7761.2,58.6932,7.9902,5.81397e+10,1.0231,0.830159,974,7.26746,21,1,1
app_39,46.8794,21119.1,7717.4,184.617,8.20936,1.84181e+11,1.01246,0.830159,919,23.0226,22,1,1
app_4,3.92135,28035.5,4520.72,53.8246,452.377,3.75292e+10,1.75506,0.830159,10,0.0830293,1880,1,1
app_40,419.084,22224.1,7549.8,115.079,7.72467,1.14793e+11,1.04376,0.830159,982,14.3491,21,1,1
app_41,64.5902,20729.3,7632.2,90.1258,7.12159,8.98118e+10,1.036,0.830159,1077,12.8303,19,1,1
app_42,1162.68,23096,7729.9,12.0302,6.59635,1.17095e+10,1.03338,0.830159,1169,1.95158,18,1,1
app_43,323.459,21421,7589.1,171.536,7.49268,1.71212e+11,1.03089,0.830159,997,21.4015,20,1,1
app_44,824.266,21592.6,7653.7,122.497,9.23762,1.2188e+11,1.02886,0.830159,834,13.5422,24,1,1
app_45,236.184,22060,7509.3,100.299,6.80268,9.99448e+10,1.05135,0.830159,1085,14.2778,19,1,1
app_46,1756.84,26374.2,7832.7,151.129,1.96656,1.50983e+11,1.00204,0.830159,3878,75.4917,6,1,1
app_47,1869.57,22203.3,7709.9,108.488,2.33283,1.08416e+11,1.02324,0.830159,3331,54.2081,6,1,1
app_48,656.259,24442.9,7921.9,71.6156,1.98619,7.1536e+10,1.00082,0.830159,3877,35.768,6,1,1
app_49,2334.21,25088.3,7839.7,159.873,2.15482,1.5969e+11,1.00008,0.830159,3759,53.2299,6,1,1
app_5,6.46073,27811.1,4408.84,53.1702,490.04,2.98945e+10,1.80232,0.830159,9,0.0610092,2032,1,1
app_50,3884.85,25002.2,7812.8,54.8388,1.94357,5.47492e+10,1.01684,0.830159,4184,27.3746,5,1,1
app_51,3842.01,26956,7908.9,68.2276,2.14189,6.81032e+10,1.00288,0.830159,3964,34.0516,6,1,1
app_52,3194.59,24509.6,7819.8,121.736,1.86748,1.21672e+11,1.00737,0.830159,4123,60.8362,5,1,1
app_53,1094.61,22596.2,7781.8,119.962,1.81736,1.19882e+11,1.01244,0.830159,4184,59.9409,5,1,1
app_54,3247.43,25296.9,7832.3,161.433,1.81614,1.61393e+11,1.00079,0.830159,4253,80.6965,5,1,1
app_55,2952.56,24036.5,7956.6,43.4,1.86325,4.33981e+10,1,0.830159,4077,21.6991,5,1,1
app_56,1075.91,21838.8,7816.1,171.57,1.89817,1.71518e+11,1.00155,0.830159,3957,85.7589,5,1,1
app_57,3605.53,24065.2,7945.5,38.5508,1.96242,3.84435e+10,1.00201,0.830159,4102,19.2218,5,1,1
app_58,526.952,23568.8,7744.2,165.714,2.12141,1.65588e+11,1.01141,0.830159,3774,82.7939,6,1,1
app_59,3981.9,25941.1,7908.4,47.8205,1.80491,4.77206e+10,1.00552,0.830159,4383,23.8603,5,1,1
app_6,1.43881,27476.8,4378.96,150.23,486.249,1.27482e+11,1.77524,0.830159,9,0.262309,1969,1,1
app_60,2727.08,24533.1,7889.8,45.2241,2.21431,4.50552e+10,1.00821,0.830159,3551,22.5276,6,1,1
app_7,5.20795,28922.9,4508.65,99.7994,451.107,8.27253e+10,1.7424,0.830159,10,0.183426,1952,1,1
app_8,8.17659,27721.1,4298.05,148.259,536.713,1.13356e+11,1.81348,0.830159,8,0.211484,2218,1,1
app_9,5.12698,29112.8,4410.56,96.5323,490.047,7.14196e+10,1.78492,0.830159,9,0.145754,2162,1,1
