app_id,start_app,end_app,effective_cpu,effective_io,effective_iter,total_bytes,stretch,utilization,Tcomp,Tio,iterations,priority,group_id
app_1,1.18197,20260.4,7590.7,409.3,757.114,8.79989e+10,1.04184,0.944615,10,0.116247,1935,1,1
app_10,8.60505,20297.3,7298.7,701.3,807.775,1.64982e+11,1.07186,0.944615,9,0.204185,2080,1.00001,1.00001
app_11,2.56528,18731.8,7775.3,224.7,971.14,4.35666e+10,1.02317,0.944615,8,0.0448678,2283,1.00001,1.00001
app_12,1.16504,18683.9,7841.2,158.8,783.768,2.8351e+10,1.01658,0.944615,10,0.036162,1834,1.00001,1.00001
app_13,9.1881,20152,7696.1,303.9,768.588,6.50863e+10,1.03077,0.944615,10,0.0847478,1948,1.00001,1.00001
app_14,8.07752,20500.7,7168.66,831.338,650.354,2.01009e+11,1.08553,0.944615,11,0.309199,1693,1.00001,1.00001
app_15,0.779989,19829.5,7376,624,822.79,1.47825e+11,1.06329,0.944615,9,0.179617,2057,1.00002,1.00002
app_16,67.3467,20922.4,7426.8,573.2,69.1541,1.3867e+11,1.05744,0.944615,108,1.981,182,1.00002,1.00002
app_17,51.6232,20499.7,7605.1,394.9,78.5277,1.00031e+11,1.03827,0.944615,98,1.26621,201,1.00002,1.00002
app_18,94.4716,20709,7595,405,80.7544,9.84894e+10,1.03984,0.944615,94,1.21592,209,1.00002,1.00002
app_19,30.6151,20228.3,7820.7,179.3,76.5173,4.94377e+10,1.0165,0.944615,103,0.642048,193,1.00002,1.00002
app_2,3.45288,19262.9,7468.3,531.7,935.546,1.17332e+11,1.05463,0.944615,8,0.125355,2271,1,1
app_20,24.2799,20730.9,7535.9,464.1,81.4113,1.15476e+11,1.04556,0.944615,91,1.42563,215,1.00002,1.00002
app_21,13.4407,20103,7811.2,188.8,80.9862,4.58344e+10,1.0182,0.944615,96,0.565857,206,1.00002,1.00002
app_22,18.7453,21044.5,7258.6,741.4,78.7169,1.89899e+11,1.07404,0.944615,92,2.40379,211,1.00002,1.00002
app_23,8.97575,20593.9,7556,444,86.495,1.08624e+11,1.04376,0.944615,87,1.24855,225,1.00002,1.00002
app_24,15.6932,20881.1,7309.5,690.5,70.0374,1.56597e+11,1.07151,0.944615,105,2.2371,186,1.00002,1.00002
app_25,76.6643,21092.3,7384.4,615.6,80.1985,1.52939e+11,1.06138,0.944615,92,1.91173,213,1.00003,1.00003
app_26,55.3526,20129.5,7808.5,191.5,72.4905,4.65875e+10,1.01845,0.944615,108,0.638184,183,1.00003,1.00003
app_27,27.2015,21044.1,7290.1,709.9,73.214,1.80844e+11,1.07082,0.944615,100,2.47731,195,1.00003,1.00003
app_28,60.9198,21124.7,7301.6,698.4,73.9129,1.81408e+11,1.06909,0.944615,98,2.45146,198,1.00003,1.00003
app_29,84.7298,20814.5,7366.3,633.7,77.7234,1.66135e+11,1.06207,0.944615,95,2.12993,204,1.00003,1.00003
app_3,6.40826,19560.6,7619.8,380.2,761.495,8.14407e+10,1.03879,0.944615,10,0.106878,1872,1,1
app_30,94.5195,21161.7,7251.6,748.4,68.5346,1.78829e+11,1.07665,0.944615,105,2.62984,185,1.00003,1.00003
app_31,610.687,21552.5,7505.3,494.7,6.59131,1.02632e+11,1.05153,0.944615,1119,14.6617,18,1.00003,1.00003
app_32,40.2231,21015.5,7359.3,640.7,8.20684,1.91044e+11,1.05955,0.944615,938,21.2271,21,1.00003,1.00003
app_33,1044.38,21572.9,7509.4,490.6,7.46778,1.09172e+11,1.05007,0.944615,1041,13.6465,19,1.00003,1.00003
app_34,848.997,21166.9,7754.5,245.5,7.36871,5.32822e+10,1.02462,0.944615,1052,6.66027,19,1.00003,1.00003
app_35,459.248,22371.7,7186.3,813.7,7.73146,1.62491e+11,1.08861,0.944615,928,20.3114,22,1.00004,1.00004
app_36,1044.3,21794.7,7739.7,260.3,6.82415,7.16018e+10,1.02416,0.944615,1127,10.2288,18,1.00004,1.00004
app_37,463.474,21725.3,7434.3,565.7,7.84852,1.63775e+11,1.0529,0.944615,960,20.4718,21,1.00004,1.00004
app_38,128.942,20994.8,7771.9,228.1,8.83341,5.95693e+10,1.02152,0.944615,938,6.61881,22,1.00004,1.00004
app_39,430.34,21154.7,7820.3,179.7,9.10501,3.90708e+10,1.01789,0.944615,854,4.3412,24,1.00004,1.00004
app_4,5.4012,20474.7,7661.7,338.3,848.423,7.5969e+10,1.0339,0.944615,9,0.0895861,2191,1,1
app_40,873.902,21295.2,7927.1,72.9,7.94599,1.76902e+10,1.00695,0.944615,1015,2.21127,20,1.00004,1.00004
app_41,78.1232,21199,7317.2,682.8,8.19402,1.64788e+11,1.06923,0.944615,910,20.5985,22,1.00004,1.00004
app_42,413.079,21221.7,7801.7,198.3,8.4959,3.77768e+10,1.02048,0.944615,898,4.7221,23,1.00004,1.00004
app_43,643.071,21405.3,7910.9,89.1,7.30898,1.90498e+10,1.00883,0.944615,1078,2.38123,19,1.00004,1.00004
app_44,681.612,21477.8,7714.7,285.3,8.78077,6.2373e+10,1.02866,0.944615,883,6.93033,23,1.00004,1.00004
app_45,787.363,22182.4,7340,660,6.80795,1.49775e+11,1.06812,0.944615,1074,21.3964,19,1.00004,1.00004
app_46,237.934,25007.7,7447.6,552.4,1.91942,9.76551e+10,1.06027,0.944615,3876,48.8276,6,1.00005,1.00005
app_47,3111.14,26065.1,7694.2,305.8,2.07171,5.88662e+10,1.03185,0.944615,3794,29.4331,6,1.00005,1.00005
app_48,2608.66,26703.5,7219.4,780.6,1.98399,1.84396e+11,1.08053,0.944615,3684,92.1982,6,1.00005,1.00005
app_49,2877.08,24651.2,7988.3,11.7,1.81671,3.30666e+09,1.00105,0.944615,4401,1.65333,5,1.00005,1.00005
app_5,6.3508,19593.5,7702.4,297.6,854.731,6.24578e+10,1.03028,0.944615,9,0.07305,2100,1.00001,1.00001
app_50,3865.11,25248.3,7636.1,363.9,1.85342,6.93864e+10,1.03822,0.944615,4149,34.6932,5,1.00005,1.00005
app_51,587.467,24130.8,7940.4,59.6,1.73384,1.83345e+10,1.00518,0.944615,4513,18.3345,5,1.00005,1.00005
app_52,1085.47,23184.2,6963.6,1036.4,2.08858,1.66687e+11,1.12197,0.944615,3521,83.3437,6,1.00005,1.00005
app_53,2861.62,23715.6,7799.5,200.5,1.92848,3.44173e+10,1.0212,0.944615,4140,17.2087,5,1.00005,1.00005
app_54,1611.2,23202.7,7970.3,29.7,1.8774,1.45488e+10,1.0019,0.944615,4347,7.27438,5,1.00005,1.00005
app_55,3370.48,26446.5,7920,80,2.00607,1.88763e+10,1.0077,0.944615,3983,9.43817,6,1.00005,1.00005
app_56,3442.11,29603.1,7126.5,873.5,1.77416,1.94145e+11,1.0928,0.944615,3802,97.0724,6,1.00006,1.00006
app_57,2138.75,25616.1,7015.4,984.6,1.69918,2.47467e+11,1.10149,0.944615,4382,123.733,5,1.00006,1.00006
app_58,1484.48,26032.2,7955.3,44.7,1.54737,1.45703e+10,1.00378,0.944615,4752,7.28513,5,1.00006,1.00006
app_59,2107.51,22317.1,7884,116,1.88947,6.26877e+10,1.00671,0.944615,4078,31.3439,5,1.00006,1.00006
app_6,4.11468,19919.7,7381.8,618.2,822.772,1.46703e+11,1.06263,0.944615,9,0.178471,2069,1.00001,1.00001
app_60,607.465,24131.6,7366.2,633.8,1.92685,1.78406e+11,1.06036,0.944615,3547,89.203,6,1.00006,1.00006
app_7,1.9744,19933.1,7252.3,747.7,805.683,1.77161e+11,1.07679,0.944615,9,0.219803,2033,1.00001,1.00001
app_8,1.50263,19749.1,7794.4,205.6,868.141,4.01993e+10,1.02111,0.944615,9,0.0463125,2149,1.00001,1.00001
app_9,1.5275,20836.3,7446.9,553.1,742.846,1.25062e+11,1.05653,0.944615,10,0.168321,1961,1.00001,1.00001
