app_id,start_app,end_app,effective_cpu,effective_io,effective_iter,total_bytes,stretch,utilization,Tcomp,Tio,iterations,priority,group_id
app_1,2.29819,20077.1,7800.5,170.619,865.07,1.19792e+11,1.01006,0.969901,9,0.138487,2174,0.1,1
app_10,2.90693,19056.7,7869.3,95.6705,988.462,3.48339e+10,1.01213,0.969901,8,0.035257,2352,0.1,1
app_11,8.41853,19901.1,7912,64.4981,720.728,4.92896e+09,1.01049,0.969901,11,0.00684577,1790,0.1,1
app_12,8.9078,18133.4,7836.7,130.822,979.833,9.35842e+10,1.00879,0.969901,8,0.0954941,2219,0.1,1
app_13,3.89957,19985.4,7720.8,256.484,854.593,2.06663e+11,1.00915,0.969901,9,0.241994,2139,0.1,1
app_14,7.0332,18770.3,7798.4,174.563,867.07,1.30514e+11,1.00897,0.969901,9,0.150536,2028,0.1,1
app_15,6.38642,19060.2,7800.6,173.3,866.802,1.231e+11,1.00963,0.969901,9,0.141983,2065,0.1,1
app_16,37.1621,20089.2,7864,104.14,65.6449,7.96845e+10,1.00709,0.969901,120,1.22592,165,0.01,2
app_17,78.0168,20258.4,7727.7,245.244,82.7633,1.89695e+11,1.01043,0.969901,93,2.28548,209,0.01,2
app_18,64.6078,20211,7776.5,198.432,77.0802,1.52863e+11,1.00891,0.969901,101,1.98523,193,0.01,2
app_19,82.4489,20251.4,7806.6,153.444,82.7529,1.18751e+11,1.00942,0.969901,94,1.44819,209,0.01,2
app_2,9.57404,18758.3,7810.3,161.193,779.655,1.32563e+11,1.00719,0.969901,10,0.169953,1829,0.1,1
app_20,51.416,20207.2,7877.7,95.7388,78.9326,7.11336e+10,1.00644,0.969901,100,0.900425,198,0.01,2
app_21,33.9176,20179.3,7764.7,209.252,77.6101,1.61597e+11,1.0093,0.969901,101,2.09866,194,0.01,2
app_22,22.5015,20005.9,7741.1,227.56,77.8027,1.77989e+11,1.01022,0.969901,100,2.28191,194,0.01,2
app_23,65.9347,20291.6,7848.8,125.877,75.3835,9.59941e+10,1.00695,0.969901,104,1.27992,190,0.01,2
app_24,26.4116,20022.8,7776,176.359,82.3117,1.34717e+11,1.01129,0.969901,95,1.6231,205,0.01,2
app_25,16.9743,19958.4,7904.7,57.8434,72.819,4.29082e+10,1.00659,0.969901,108,0.587784,184,0.01,2
app_26,5.3105,20110.3,7895.9,69.3871,75.1997,5.05321e+10,1.00674,0.969901,105,0.664896,189,0.01,2
app_27,9.93527,20087.8,7689.9,253.65,103.536,1.95222e+11,1.01457,0.969901,74,1.89536,261,0.01,2
app_28,75.8551,20389.6,7735.1,245.747,84.5396,1.91063e+11,1.00932,0.969901,91,2.2478,215,0.01,2
app_29,86.0072,20118.9,7803.2,162.279,91.6898,1.23178e+11,1.00929,0.969901,85,1.33889,230,0.01,2
app_3,2.54796,19578.8,7902,67.4327,787.349,1.10459e+09,1.01226,0.969901,10,0.00140354,1932,0.1,1
app_30,2.42416,19895.1,7832.3,138.789,70.7953,1.07755e+11,1.00755,0.969901,111,1.51767,177,0.01,2
app_31,234.171,20641.9,7807,85.5344,8.74328,4.16128e+10,1.01929,0.969901,907,5.2016,22,0.001,3
app_32,206.105,21729.4,7655.3,301.735,8.99359,1.68847e+11,1.02248,0.969901,836,18.7608,24,0.001,3
app_33,876.694,20986.5,7631.1,349.317,7.66329,2.0473e+11,1.02095,0.969901,1027,25.5912,19,0.001,3
app_34,591.469,21740.8,7754.6,153.029,8.29227,9.10029e+10,1.01968,0.969901,983,11.3754,21,0.001,3
app_35,178.263,21075.1,7569.3,416.274,8.91561,2.11938e+11,1.02811,0.969901,868,23.5487,23,0.001,3
app_36,362.736,21029.7,7541.9,375.71,7.70576,1.87321e+11,1.03503,0.969901,985,23.4151,20,0.001,3
app_37,603.831,21759.5,7650.5,302.781,8.11899,1.49264e+11,1.02567,0.969901,941,18.658,21,0.001,3
app_38,200.889,21295.7,7717,264.106,7.21514,1.46788e+11,1.01732,0.969901,1051,20.9697,19,0.001,3
app_39,827.916,21811.6,7847.7,85.2781,7.7222,4.72908e+10,1.0133,0.969901,1035,5.91135,20,0.001,3
app_4,4.83324,18936.4,7722.9,255.153,772.961,2.1131e+11,1.00829,0.969901,10,0.273363,1830,0.1,1
app_40,306.992,21212.1,7491,358.51,9.4741,1.95181e+11,1.04083,0.969901,803,19.5181,25,0.001,3
app_41,645.454,21521.5,7630.7,282.876,8.63862,1.37805e+11,1.0298,0.969901,866,17.2257,23,0.001,3
app_42,265.62,20601,7858.8,19.3151,8.16177,5.70735e+09,1.01723,0.969901,953,0.634151,21,0.001,3
app_43,434.557,21481.2,7823.5,94.0393,8.17604,5.79389e+10,1.01504,0.969901,928,6.43765,22,0.001,3
app_44,689.581,21614,7942.6,15.4607,7.42833,7.52429e+09,1.00627,0.969901,1088,0.940536,19,0.001,3
app_45,674.616,21639.6,7691.6,204.081,8.65777,1.09995e+11,1.02543,0.969901,884,13.7494,23,0.001,3
app_46,475.157,22201.7,7799.1,200.9,1.85012,6.55929e+10,1.0172,0.969901,4055,32.7964,5,0.00025,3.60206
app_47,1655,23377.8,7735.8,76.869,2.27285,1.57806e+10,1.03205,0.969901,3427,7.89032,6,0.00025,3.60206
app_48,3551.71,25475.9,7615.8,295.403,1.82144,1.41877e+11,1.03124,0.969901,4227,70.9387,5,0.00025,3.60206
app_49,1335.11,23014.9,7842.53,157.467,1.91542,5.72597e+10,1.01268,0.969901,4012,47.1792,5,0.00025,3.60206
app_5,9.85156,19973.1,7765.7,214.028,705.7,1.81479e+11,1.00665,0.969901,11,0.257417,1765,0.1,1
app_50,2118.66,24243.1,7925.5,65.0387,1.80358,1.44206e+10,1.00757,0.969901,4198,7.21029,5,0.00025,3.60206
app_51,885.441,22513.8,7444.5,226.178,2.1299,1.09814e+11,1.059,0.969901,3423,54.9068,6,0.00025,3.60206
app_52,1414.54,24495,7635.7,112.866,1.64082,3.94207e+10,1.04233,0.969901,4497,39.4207,5,0.00025,3.60206
app_53,3744.99,27402.4,7401,575.645,1.93075,1.42997e+11,1.06045,0.969901,3699,71.4987,6,0.00025,3.60206
app_54,1282.31,24109.4,7659.9,300.69,2.07579,1.0608e+11,1.03013,0.969901,3666,53.0402,6,0.00025,3.60206
app_55,2246.64,22632.1,7767.7,232.3,1.86567,7.34482e+10,1.02026,0.969901,4158,36.7241,5,0.00025,3.60206
app_56,1169.14,22595.4,7650.4,247.407,1.77156,8.15944e+10,1.03466,0.969901,4252,81.5944,5,0.00025,3.60206
app_57,1666.43,24235.8,7570.1,429.9,1.81498,1.81591e+11,1.03203,0.969901,4314,90.7955,5,0.00025,3.60206
app_58,3387.41,23552.7,7646.2,353.8,1.95079,1.34342e+11,1.02821,0.969901,3947,67.1709,5,0.00025,3.60206
app_59,2456.48,26319.8,7823.1,176.9,1.91571,5.11254e+10,1.01597,0.969901,3921,25.5627,6,0.00025,3.60206
app_6,4.80999,19172.7,7873.7,89.9558,985.687,1.47001e+10,1.01415,0.969901,8,0.0149088,2355,0.1,1
app_60,1781.88,23023.7,7907.8,92.2,2.23581,1.74507e+10,1.00943,0.969901,3359,8.72536,6,0.00025,3.60206
app_7,1.27118,18371.1,7880.8,88.1471,873.51,4.33022e+10,1.00958,0.969901,9,0.0496016,2010,0.1,1
app_8,9.15631,18401.1,7898,74.1307,791.848,1.90563e+10,1.01048,0.969901,10,0.0240913,1818,0.1,1
app_9,4.01815,20062.4,7878.7,92.9731,870.934,6.07891e+10,1.00762,0.969901,9,0.0697923,2192,0.1,1
