app_id,start_app,end_app,effective_cpu,effective_io,effective_iter,total_bytes,stretch,utilization,Tcomp,Tio,iterations,priority,group_id
app_1,3.25746,18562.7,7910.7,89.3,788.216,1.24875e+10,1.00969,0.954648,10,0.015827,1833,1,1
app_10,7.4265,18896.5,7910.7,89.3,787.932,1.27653e+10,1.00966,0.954648,10,0.0161996,1861,1.00001,1.00001
app_11,0.7996,20808.5,7276.7,723.3,726.882,1.98117e+11,1.07026,0.954648,10,0.272513,1910,1.00001,1.00001
app_12,3.4963,19639.4,7782.5,217.5,866.264,4.81257e+10,1.02163,0.954648,9,0.0555724,2128,1.00001,1.00001
app_13,1.10966,19669.4,7717.1,282.9,855.949,6.93011e+10,1.02743,0.954648,9,0.0809593,2111,1.00001,1.00001
app_14,4.41708,18957,7774.7,225.3,704.438,5.32069e+10,1.02198,0.954648,11,0.075578,1674,1.00001,1.00001
app_15,1.20522,20073.5,7324.2,675.8,913.611,1.82348e+11,1.06574,0.954648,8,0.199724,2313,1.00002,1.00002
app_16,18.3907,20489.3,7596.7,403.3,79.0347,1.19546e+11,1.03677,0.954648,96,1.51324,204,1.00002,1.00002
app_17,88.6491,21150.3,7345.7,654.3,78.2597,1.94066e+11,1.06104,0.954648,94,2.45653,208,1.00002,1.00002
app_18,8.77133,19957.9,7918.7,81.3,94.2952,2.13704e+10,1.00755,0.954648,84,0.227345,235,1.00002,1.00002
app_19,60.1197,20739.9,7482.1,517.9,78.9477,1.59414e+11,1.04691,0.954648,95,2.01789,205,1.00002,1.00002
app_2,8.51051,19517.8,7346.4,653.6,917.536,1.79626e+11,1.06298,0.954648,8,0.195885,2252,1,1
app_20,33.5182,21083.7,7347.2,652.8,68.2374,1.96914e+11,1.06043,0.954648,108,2.8958,180,1.00002,1.00002
app_21,38.5873,20505.7,7724.3,275.7,87.4854,7.65633e+10,1.02553,0.954648,88,0.880038,225,1.00002,1.00002
app_22,56.8356,20995.8,7392.2,607.8,75.5718,1.61941e+11,1.05902,0.954648,98,2.1308,200,1.00002,1.00002
app_23,20.4382,20380.8,7777,223,78.6952,6.37413e+10,1.02031,0.954648,98,0.806852,201,1.00002,1.00002
app_24,11.7305,20666.3,7652.83,347.167,74.55,9.365e+10,1.03273,0.954648,102,1.26106,194,1.00002,1.00002
app_25,59.0794,20716.6,7607,393,64.9996,1.09439e+11,1.03675,0.954648,117,1.68368,169,1.00003,1.00003
app_26,14.8682,20446.4,7693.5,306.5,86.138,8.56684e+10,1.02839,0.954648,89,0.996144,222,1.00003,1.00003
app_27,22.0733,20587.3,7509,491,84.4103,1.3131e+11,1.04708,0.954648,89,1.56321,219,1.00003,1.00003
app_28,34.4948,20822.6,7515,485,72.0627,1.43169e+11,1.04464,0.954648,104,1.98846,189,1.00003,1.00003
app_29,30.9033,20205,7814.4,185.6,86.4156,5.2602e+10,1.01691,0.954648,91,0.611651,218,1.00003,1.00003
app_3,8.81099,19424.2,7542,458,838.792,1.15282e+11,1.04476,0.954648,9,0.137405,2045,1,1
app_30,59.2877,20488.7,7708.6,291.4,79.031,8.78845e+10,1.0261,0.954648,97,1.11246,203,1.00003,1.00003
app_31,152.404,20961.6,7952.3,47.7,9.61311,1.32957e+10,1.00432,0.954648,819,1.32957,25,1.00003,1.00003
app_32,506.654,21929.1,7514.2,485.8,8.10004,1.19762e+11,1.04795,0.954648,922,14.9702,22,1.00003,1.00003
app_33,89.0304,21059.8,7738.6,261.4,8.60023,9.91895e+10,1.0207,0.954648,877,11.0211,23,1.00003,1.00003
app_34,254.077,20943.6,7915.7,84.3,7.19464,3.94075e+10,1.00564,0.954648,1068,5.62964,19,1.00003,1.00003
app_35,162.451,21647.1,7835.4,164.6,8.28002,7.26622e+10,1.01163,0.954648,940,8.07358,22,1.00004,1.00004
app_36,686.767,21123.8,7540.1,459.9,7.81258,1.43438e+11,1.04119,0.954648,983,20.4911,20,1.00004,1.00004
app_37,456.199,20778.3,7798.4,201.6,8.97851,5.04481e+10,1.01926,0.954648,884,5.60535,23,1.00004,1.00004
app_38,149.797,21504.2,7818.1,181.9,8.62378,4.05738e+10,1.01798,0.954648,902,5.07173,23,1.00004,1.00004
app_39,749.418,21948.1,7549.8,450.2,8.63372,1.20114e+11,1.04304,0.954648,838,15.0142,24,1.00004,1.00004
app_4,1.95068,18940.2,7307.3,692.7,914.235,1.83692e+11,1.06795,0.954648,8,0.200976,2177,1,1
app_40,964.024,22053.9,7836.7,163.3,7.94212,6.77927e+10,1.01208,0.954648,980,8.47409,21,1.00004,1.00004
app_41,281.472,22287.4,7440.3,559.7,6.499,1.81201e+11,1.04966,0.954648,1122,25.8858,18,1.00004,1.00004
app_42,266.988,20925,7398.5,601.5,8.79554,1.95901e+11,1.05341,0.954648,850,21.7668,23,1.00004,1.00004
app_43,251.922,22096.4,7398.8,601.2,7.84995,1.93888e+11,1.05365,0.954648,970,24.2361,21,1.00004,1.00004
app_44,969.497,21374.3,7770.67,229.325,7.67401,8.70281e+10,1.01811,0.954648,991,11.3315,20,1.00004,1.00004
app_45,750.759,20931.9,7818.2,181.8,9.23119,3.98902e+10,1.01806,0.954648,887,3.98902,23,1.00004,1.00004
app_46,1953.31,24517.2,7707.3,292.7,1.84472,1.08645e+11,1.02355,0.954648,4384,54.3227,5,1.00005,1.00005
app_47,658.633,21312,7649.9,350.1,1.87743,9.38764e+10,1.03309,0.954648,4004,46.9382,5,1.00005,1.00005
app_48,1747.37,24613.4,7486.2,513.8,2.13482,1.76984e+11,1.04395,0.954648,3533,88.4919,6,1.00005,1.00005
app_49,3568.23,24474.1,7990.6,9.4,1.91565,4.59965e+09,1.0006,0.954648,4149,2.29983,5,1.00005,1.00005
app_5,5.26775,18377.9,7647.1,352.9,953.918,8.9889e+10,1.03399,0.954648,8,0.0942232,2201,1.00001,1.00001
app_50,1736.89,25497.3,7707.8,292.2,1.92079,8.35483e+10,1.02678,0.954648,3944,41.7742,6,1.00005,1.00005
app_51,1433.74,25808,7820.4,179.6,1.89751,6.58422e+10,1.01442,0.954648,3952,32.9211,6,1.00005,1.00005
app_52,1657.19,25844.7,7426.4,573.6,2.02583,1.4945e+11,1.05599,0.954648,3822,74.7248,6,1.00005,1.00005
app_53,1929.01,23036.7,7933.5,66.5,2.31166,1.64286e+10,1.0063,0.954648,3518,8.21428,6,1.00005,1.00005
app_54,3344.11,25100.2,7713,287,1.78639,1.16132e+11,1.02182,0.954648,4199,58.0658,5,1.00005,1.00005
app_55,483.926,22976.9,7552.2,447.8,1.87034,8.68908e+10,1.04725,0.954648,4338,43.4454,5,1.00005,1.00005
app_56,638.771,21803.3,7776.7,223.3,2.61075,5.48231e+10,1.02151,0.954648,2985,18.2744,7,1.00006,1.00006
app_57,45.1105,20588,7656.3,343.7,1.98485,9.5263e+10,1.03205,0.954648,4227,47.6315,5,1.00006,1.00006
app_58,3063.37,24432.1,7722,278,2.14868,1.29334e+11,1.01894,0.954648,3400,64.6672,6,1.00006,1.00006
app_59,3719.16,25170,7617.4,382.6,1.79215,1.39393e+11,1.03135,0.954648,4088,69.6963,5,1.00006,1.00006
app_6,9.61939,19684.6,7410.5,589.5,822.248,1.60622e+11,1.05665,0.954648,9,0.195404,2037,1.00001,1.00001
app_60,52.6754,23969.4,7769,231,1.9986,7.42746e+10,1.01998,0.954648,3819,37.1373,6,1.00006,1.00006
app_7,4.5409,20487.4,7541.9,458.1,686.51,1.21414e+11,1.04393,0.954648,11,0.176989,1764,1.00001,1.00001
app_8,9.48386,19813.6,7274.4,725.6,805.947,2.00129e+11,1.0703,0.954648,9,0.248299,2011,1.00001,1.00001
app_9,2.61673,18422.9,7526.1,473.9,1075.96,1.1386e+11,1.04713,0.954648,7,0.105818,2483,1.00001,1.00001
