app_id,start_app,end_app,effective_cpu,effective_io,effective_iter,total_bytes,stretch,utilization,Tcomp,Tio,iterations,priority,group_id
app_1,3.07533,20184.5,7918.3,74.8152,790.096,1.75979e+10,1.00808,0.994085,10,0.0222758,1993,0.1,1
app_10,0.717,19905.6,7918.4,75.0028,792.965,9.55064e+09,1.00909,0.994085,10,0.0120437,1975,0.1,1
app_11,8.04388,19438.3,7922.3,72.3703,721.575,3.73283e+10,1.00507,0.994085,11,0.051773,1753,0.1,1
app_12,9.8816,18774.8,7919.6,73.6077,791.101,3.13375e+09,1.00975,0.994085,10,0.00396176,1857,0.1,1
app_13,7.71374,18429,7892.5,99.8325,985.908,5.76351e+10,1.00627,0.994085,8,0.0584534,2270,0.1,1
app_14,5.41979,19623.8,7918.1,74.2688,791.065,9.76568e+09,1.0091,0.994085,10,0.012346,1942,0.1,1
app_15,5.02475,19013.9,7906.4,86.8359,877.691,3.63821e+10,1.0072,0.994085,9,0.0414374,2087,0.1,1
app_16,45.324,20065.6,7946.2,52.5619,76.6079,4.50047e+10,1.0011,0.994085,103,0.584476,192,0.01,2
app_17,26.5639,19921.3,7940,59.0481,79.4346,5.02891e+10,1.00122,0.994085,100,0.628614,197,0.01,2
app_18,34.9192,19815.2,7987.9,11.182,91.5248,6.85599e+09,1.00066,0.994085,88,0.0753405,225,0.01,2
app_19,88.6188,20105.2,7941.7,57.5151,87.6369,4.88388e+10,1.00118,0.994085,90,0.554987,221,0.01,2
app_2,8.51973,19561.9,7915.7,78.6413,791.41,3.52977e+10,1.00616,0.994085,10,0.0446241,1934,0.1,1
app_20,100.613,20121.9,7985.6,13.3195,67.2654,6.71919e+09,1.00096,0.994085,118,0.100286,169,0.01,2
app_21,43.9771,20206.1,7990.7,7.61684,75.6611,3.70257e+09,1.0007,0.994085,105,0.0487181,191,0.01,2
app_22,73.8842,19942.2,7984.2,14.7027,72.1254,8.56071e+09,1.00091,0.994085,111,0.118899,180,0.01,2
app_23,3.43022,20136.6,7990.5,8.51113,85.1642,3.63886e+09,1.00073,0.994085,94,0.0428101,213,0.01,2
app_24,52.5077,20062.1,7986.7,10.795,88.0021,6.8494e+09,1.00081,0.994085,91,0.0778341,219,0.01,2
app_25,78.1862,20095.9,7961.5,38.0125,72.5474,3.04231e+10,1.00101,0.994085,110,0.416754,181,0.01,2
app_26,64.6132,20114,7972.9,26.3902,84.6106,1.97214e+10,1.00092,0.994085,94,0.234778,212,0.01,2
app_27,57.0872,20056.7,7966.3,31.6848,76.525,2.33954e+10,1.00129,0.994085,104,0.307834,191,0.01,2
app_28,95.2226,20121,7977.7,22.1737,73.3131,1.53968e+10,1.00086,0.994085,107,0.208064,185,0.01,2
app_29,62.3389,19879.7,7956.8,41.6552,78.5572,3.19915e+10,1.0014,0.994085,102,0.404956,194,0.01,2
app_3,0.747238,19354.7,7929.5,64.6043,659.629,2.28734e+10,1.00599,0.994085,12,0.0346567,1598,0.1,1
app_30,19.547,20042.3,7970.7,28.6014,85.3308,2.25177e+10,1.00085,0.994085,93,0.261834,214,0.01,2
app_31,214.759,20402.5,7962.9,36.6821,33.5496,3.05722e+10,1.00082,0.994085,235,0.92643,85,0.004,2.39794
app_32,228.262,20534.5,7981.1,16.9237,31.5277,1.31184e+10,1.00072,0.994085,252,0.409951,80,0.004,2.39794
app_33,221.039,20328.2,7929.6,69.0755,29.4533,5.73356e+10,1.00164,0.994085,274,1.91119,73,0.004,2.39794
app_34,56.2557,20227.4,7951.5,48.5,42.6897,4.18059e+10,1.00084,0.994085,185,0.995379,108,0.004,2.39794
app_35,174.741,20216.9,7966.7,29.2709,34.1726,2.20238e+10,1.00141,0.994085,232,0.62925,86,0.004,2.39794
app_36,93.209,20379.9,7962.2,37.3711,30.7099,3.12302e+10,1.00082,0.994085,260,1.00742,77,0.004,2.39794
app_37,129.208,20111.2,7989.5,8.04362,36.3611,5.5664e+09,1.00062,0.994085,225,0.154622,89,0.004,2.39794
app_38,234.439,20361,7955.4,43.6752,31.4396,3.64276e+10,1.00102,0.994085,253,1.13836,79,0.004,2.39794
app_39,115.237,20124.9,7954.1,43.3811,31.9749,3.80831e+10,1.00098,0.994085,250,1.1901,80,0.004,2.39794
app_4,9.27064,19566.8,7915.9,78.0003,791.78,3.28339e+10,1.00645,0.994085,10,0.041457,1934,0.1,1
app_40,225.182,20311.9,7975.8,21.1002,31.4069,1.71826e+10,1.00088,0.994085,251,0.536957,80,0.004,2.39794
app_41,140.714,20118.7,7956.5,42.9755,32.6746,3.79785e+10,1.00069,0.994085,243,1.18683,82,0.004,2.39794
app_42,145.132,20032.1,7971.1,24.4519,36.2528,2.11705e+10,1.00097,0.994085,221,0.58807,90,0.004,2.39794
app_43,270.458,20285.2,7938.8,59.7018,27.7653,5.00078e+10,1.0014,0.994085,284,1.78599,70,0.004,2.39794
app_44,47.2139,20221.2,7936.5,60.7569,26.7832,5.27739e+10,1.00134,0.994085,291,1.95459,69,0.004,2.39794
app_45,25.2371,20131.1,7941.1,57.9116,42.1888,4.98741e+10,1.00113,0.994085,191,1.15986,105,0.004,2.39794
app_46,993.647,21943,7957.4,42.6,6.7306,3.6348e+10,1.00078,0.994085,1143,5.19257,18,0.001,3
app_47,589.301,20852.1,7966.3,33.6499,9.48757,2.67874e+10,1.00086,0.994085,831,2.97637,24,0.001,3
app_48,816.698,20822.3,7977.9,22.1,7.40226,1.63325e+10,1.00072,0.994085,1058,2.04157,19,0.001,3
app_49,848.648,21133.3,7977.3,21.3694,7.55799,1.99919e+10,1.00034,0.994085,1074,2.49899,19,0.001,3
app_5,10.1925,19807,7912,80.2651,789.359,4.33605e+10,1.00561,0.994085,10,0.0549562,1957,0.1,1
app_50,957.709,21553.2,7982.3,17.7,7.70166,1.47435e+10,1.00037,0.994085,1029,1.84294,20,0.001,3
app_51,419.242,20733.8,7953.7,41.8247,8.31639,3.39927e+10,1.00154,0.994085,962,3.77696,21,0.001,3
app_52,308.214,20919.5,7986.4,13.6,8.28127,9.41072e+09,1.00052,0.994085,983,1.04564,21,0.001,3
app_53,176.867,20600.3,7953.18,46.8229,8.18883,3.8402e+10,1.00105,0.994085,981,4.69407,21,0.001,3
app_54,566.596,21286.5,7989.2,10.8,8.36082,8.64269e+09,1.00027,0.994085,944,0.960299,22,0.001,3
app_55,96.537,19798.1,7982.9,17.1,8.44412,1.30717e+10,1.0005,0.994085,951,1.63397,21,0.001,3
app_56,831.751,20895.4,7984,11.2929,7.13886,6.31256e+09,1.00121,0.994085,1116,0.901794,18,0.001,3
app_57,47.4136,20767.1,7937.6,62.4,8.4997,4.60853e+10,1.00204,0.994085,927,5.76066,22,0.001,3
app_58,349.905,20653.4,7952.6,47.4,8.78825,4.17071e+10,1.00071,0.994085,915,5.21339,22,0.001,3
app_59,76.3909,19820.9,7982.9,17.1,7.74139,1.41575e+10,1.00037,0.994085,1053,1.76969,19,0.001,3
app_6,1.39149,19928.9,7911.4,81.8342,877.504,2.28148e+09,1.01091,0.994085,9,0.00260146,2191,0.1,1
app_60,30.085,20479.8,7958.6,41.4,9.23463,3.26366e+10,1.0011,0.994085,850,3.62629,24,0.001,3
app_7,7.40788,18823.7,7907.3,85.7983,878.577,2.91064e+10,1.00801,0.994085,9,0.0331508,2067,0.1,1
app_8,5.23378,18578.8,7880.5,110.74,1121.03,4.42814e+10,1.00949,0.994085,7,0.0395017,2611,0.1,1
app_9,9.10624,19481.6,7918.4,75.075,721.185,4.9535e+10,1.00402,0.994085,11,0.0687031,1752,0.1,1
