app_id,start_app,end_app,effective_cpu,effective_io,effective_iter,total_bytes,stretch,utilization,Tcomp,Tio,iterations,priority,group_id
app_1,1.57915,18944.5,7906.6,85.8178,878.222,3.12962e+10,1.00782,0.994033,9,0.0356449,2076,0.1,1
app_10,6.90186,19604.4,7905.2,86.9333,878.275,3.79876e+10,1.00715,0.994033,9,0.0432661,2151,0.1,1
app_11,7.88749,19247.2,7905.45,86.8982,878.929,3.22775e+10,1.00785,0.994033,9,0.0367407,2114,0.1,1
app_12,8.6442,18272.5,7904.2,86.585,877.311,3.7101e+10,1.00739,0.994033,9,0.0423045,2009,0.1,1
app_13,5.91058,19179.1,7902.4,88.8972,877.843,4.95764e+10,1.00604,0.994033,9,0.0564651,2102,0.1,1
app_14,1.0199,18126.3,7893.6,98.057,986.442,4.2116e+10,1.0081,0.994033,8,0.0427139,2234,0.1,1
app_15,5.92929,19386.1,7904.6,87.9649,879.36,4.31323e+10,1.00658,0.994033,9,0.0490139,2131,0.1,1
app_16,31.7669,19963.1,7985.3,9.39932,95.2726,2.4034e+09,1.00154,0.994033,84,0.0250355,237,0.01,2
app_17,11.6407,20026.9,7985.6,9.49438,75.4993,6.4637e+09,1.00099,0.994033,106,0.0850487,189,0.01,2
app_18,36.44,20005.6,7983.2,14.0722,72.0922,7.36839e+09,1.00118,0.994033,111,0.102339,180,0.01,2
app_19,89.5503,19996.8,7976.9,15.7875,78.6627,9.746e+09,1.00167,0.994033,101,0.123367,197,0.01,2
app_2,7.7566,19587.9,7915.9,77.1297,790.267,2.53295e+10,1.0074,0.994033,10,0.0320626,1937,0.1,1
app_20,62.0189,20082.4,7941.9,53.4422,80.3828,4.63626e+10,1.00147,0.994033,98,0.579532,202,0.01,2
app_21,53.7951,19828.8,7967,27.3832,87.9436,2.14207e+10,1.00145,0.994033,91,0.243417,217,0.01,2
app_22,38.9182,19895.7,7963.8,29.7187,89.9608,2.3245e+10,1.00162,0.994033,89,0.258278,223,0.01,2
app_23,77.4209,20009.2,7959.9,36.5689,84.5798,3.02478e+10,1.00123,0.994033,94,0.360093,210,0.01,2
app_24,81.9459,20089.6,7942.2,53.1652,85.3218,4.66693e+10,1.00139,0.994033,93,0.54905,214,0.01,2
app_25,48.6318,20001.1,7939.1,57.013,77.7024,4.92901e+10,1.00145,0.994033,102,0.631925,195,0.01,2
app_26,99.2798,20172.2,7985.4,9.70689,80.1326,5.67608e+09,1.00112,0.994033,99,0.070951,201,0.01,2
app_27,60.7313,20138.5,7946.6,48.4552,74.9587,4.15338e+10,1.00149,0.994033,106,0.561267,188,0.01,2
app_28,21.804,20005.2,7976.6,16.6601,81.3369,1.13384e+10,1.00151,0.994033,98,0.138274,203,0.01,2
app_29,6.59076,20190.1,7985.1,8.5284,89.4879,1.22522e+09,1.00171,0.994033,88,0.0136135,227,0.01,2
app_3,9.94716,19445.5,7915.6,78.5196,793.179,3.34641e+10,1.00641,0.994033,10,0.0421994,1924,0.1,1
app_30,64.573,19927.4,7983.5,8.20664,79.1894,4.11896e+09,1.00155,0.994033,100,0.0521388,198,0.01,2
app_31,251.562,19953.5,7962.9,35.7612,30.3559,3.23586e+10,1.00059,0.994033,266,1.04383,75,0.01,2
app_32,80.312,20127.1,7949,49.9199,31.9969,4.48734e+10,1.00077,0.994033,247,1.4023,81,0.01,2
app_33,149.108,20272.7,7996.4,3.27589,33.2685,4.94448e+08,1.00039,0.994033,240,0.0149833,84,0.01,2
app_34,144.425,20499,7975.8,23.3857,35.6035,2.03318e+10,1.00048,0.994033,218,0.580908,92,0.01,2
app_35,175.885,20040.8,7955.7,42.8556,33.208,3.76657e+10,1.00083,0.994033,243,1.14139,82,0.01,2
app_36,250.373,20368.7,7946.4,52.4925,31.8915,4.73054e+10,1.00079,0.994033,249,1.52598,80,0.01,2
app_37,51.0323,19926.4,7982.7,16.3333,32.0401,1.2808e+10,1.00056,0.994033,251,0.400251,80,0.01,2
app_38,98.3553,20292.6,7955.5,44.4541,39.1144,3.95399e+10,1.00062,0.994033,201,1.01384,99,0.01,2
app_39,234.122,20296.4,7961,37.4329,32.1573,3.29115e+10,1.00076,0.994033,247,1.02848,81,0.01,2
app_4,0.93244,19959.9,7921.1,72.2496,719.284,3.82058e+10,1.00511,0.994033,11,0.0531373,1789,0.1,1
app_40,51.3599,19851.6,7944.2,51.9497,35.1492,4.62133e+10,1.0012,0.994033,231,1.32038,86,0.01,2
app_41,223.659,20212.8,7995.6,3.35128,28.8897,2.01544e+09,1.0003,0.994033,278,0.0694978,72,0.01,2
app_42,42.7989,20321.4,7942.2,56.063,31.5017,5.03679e+10,1.00093,0.994033,250,1.62477,80,0.01,2
app_43,140.448,20147.1,7942.1,56.2233,37.3335,4.89351e+10,1.00112,0.994033,214,1.32257,93,0.01,2
app_44,102.173,20278.9,7982.2,17.6668,26.7006,1.51954e+10,1.00033,0.994033,300,0.562794,67,0.01,2
app_45,127.016,20280.3,7972.2,25.9706,34.8887,2.24965e+10,1.00066,0.994033,229,0.642758,88,0.01,2
app_46,571.069,20342.2,7940.2,59.8,8.68582,4.48675e+10,1.00187,0.994033,918,5.60843,22,0.001,3
app_47,978.613,21493,7983.7,16.3,7.47223,1.15018e+10,1.0006,0.994033,1095,1.43772,19,0.001,3
app_48,123.342,21260.7,7961.1,33.2734,8.28288,2.70388e+10,1.00148,0.994033,941,3.37985,22,0.001,3
app_49,431.79,20845.5,7961.5,36.6924,6.54793,2.5712e+10,1.0016,0.994033,1176,3.67315,17,0.001,3
app_5,5.55361,18569.2,7899.7,91.8379,989.656,2.7602e+09,1.01234,0.994033,8,0.00278808,2294,0.1,1
app_50,889.578,21193.9,7997.4,0.730414,8.03355,2.76397e+07,1.00032,0.994033,961,0.00345496,21,0.001,3
app_51,253.871,20802.7,7954.5,45.5,7.20324,3.87173e+10,1.00085,0.994033,1065,5.53105,19,0.001,3
app_52,1060.71,21147.1,7985.7,10.8875,7.16171,9.3287e+09,1.00062,0.994033,1116,1.33267,18,0.001,3
app_53,294.93,21207.5,7961.1,38.9,7.97438,3.0795e+10,1.00101,0.994033,980,3.84937,21,0.001,3
app_54,842.161,21573.6,7972.8,27.2,8.15247,2.17554e+10,1.00068,0.994033,996,2.41726,21,0.001,3
app_55,519.36,21030.8,7982.9,17.1,9.02308,1.41822e+10,1.00036,0.994033,875,1.5758,23,0.001,3
app_56,314.908,20072.8,7992.9,7.1,9.65509,6.01912e+09,1.00014,0.994033,833,0.601912,24,0.001,3
app_57,171.741,20897.7,7983.7,14.562,8.71946,1.14298e+10,1.00061,0.994033,887,1.26997,23,0.001,3
app_58,922.629,20773.2,7990.9,4.2438,8.34889,3.54707e+09,1.00069,0.994033,967,0.443384,21,0.001,3
app_59,530.76,21406.1,7952.2,47.8,9.15528,4.19524e+10,1.00073,0.994033,860,4.66138,24,0.001,3
app_6,5.01301,18268,7896.2,96.2394,986.124,3.05563e+10,1.00924,0.994033,8,0.0309901,2247,0.1,1
app_60,63.1379,21066.7,7945.2,48.4885,8.31633,3.74998e+10,1.00217,0.994033,933,4.68747,22,0.001,3
app_7,0.534005,18509.9,7901.1,90.5859,876.961,5.61723e+10,1.00537,0.994033,9,0.0640505,2028,0.1,1
app_8,8.06122,19860.6,7906.6,86.0094,876.149,3.15463e+10,1.00779,0.994033,9,0.0360118,2178,0.1,1
app_9,1.683,19072.2,7906,87.0273,877.525,3.90245e+10,1.00692,0.994033,9,0.0444978,2094,0.1,1
