app_id,start_app,end_app,effective_cpu,effective_io,effective_iter,total_bytes,stretch,utilization,Tcomp,Tio,iterations,priority,group_id
app_1,5.80161,18995.5,7909.8,83.4691,879.854,1.18934e+10,1.00989,0.993766,9,0.0135152,2085,0.1,1
app_10,5.38301,20168.4,7926.8,65.8689,720.666,4.35876e+09,1.00868,0.993766,11,0.00605384,1815,0.1,1
app_11,1.79379,18666.9,7918.5,74.9543,790.524,1.37708e+10,1.00854,0.993766,10,0.0174093,1846,0.1,1
app_12,2.6834,19228.6,7903.9,88.6243,878.439,5.1579e+10,1.0056,0.993766,9,0.058746,2111,0.1,1
app_13,9.36024,19226.9,7915,78.7759,789.432,3.55091e+10,1.00622,0.993766,10,0.0449483,1902,0.1,1
app_14,6.9169,19352.6,7918.8,74.4361,787.779,1.28852e+10,1.00861,0.993766,10,0.0163726,1911,0.1,1
app_15,4.37072,19913.3,7903.7,88.7765,881.393,4.37728e+10,1.00661,0.993766,9,0.049629,2188,0.1,1
app_16,30.6306,20135.3,7979.4,9.88986,104.054,2.17173e+09,1.00231,0.993766,77,0.020882,260,0.01,2
app_17,67.4139,20090,7947.8,45.1613,84.6731,4.04166e+10,1.00148,0.993766,93,0.475489,213,0.01,2
app_18,6.15841,20115.5,7975.8,20.3078,91.9224,1.67147e+10,1.00094,0.993766,86,0.181681,232,0.01,2
app_19,60.8255,20075.7,7971,23.5041,76.3443,1.87036e+10,1.00129,0.993766,105,0.2461,190,0.01,2
app_2,7.93364,19490.6,7912.1,81.0065,791.095,4.86026e+10,1.00494,0.993766,10,0.0614445,1925,0.1,1
app_20,94.5708,20060.6,7940.8,52.4403,83.4613,4.60581e+10,1.00165,0.993766,95,0.548311,209,0.01,2
app_21,89.7737,20176.9,7968,27.0005,68.3633,2.08366e+10,1.0014,0.993766,116,0.306421,172,0.01,2
app_22,97.428,20169.1,7954.7,37.7865,74.8177,3.20194e+10,1.00166,0.993766,105,0.432695,189,0.01,2
app_23,10.0238,19941.1,7946.2,49.5821,79.2056,4.34333e+10,1.0013,0.993766,101,0.549789,196,0.01,2
app_24,17.759,19910.5,7940.6,50.4914,83.4982,4.35791e+10,1.00198,0.993766,95,0.518798,208,0.01,2
app_25,62.7466,20126.3,7971.1,26.0833,80.7452,2.20129e+10,1.00086,0.993766,97,0.275161,205,0.01,2
app_26,31.2852,20126.7,7987.7,7.71177,80.8342,5.42541e+07,1.00153,0.993766,98,0.000669804,204,0.01,2
app_27,10.5176,19984.9,7957.5,39.92,72.4743,3.52034e+10,1.00091,0.993766,110,0.488936,181,0.01,2
app_28,97.515,20089.4,7976.3,22.028,74.1142,1.66458e+10,1.00088,0.993766,108,0.224943,184,0.01,2
app_29,73.8073,19972.6,7944.56,48.2539,73.7481,4.27758e+10,1.00159,0.993766,107,0.58409,185,0.01,2
app_3,1.82403,18228.1,7881.4,109.681,1125.3,3.33518e+10,1.01077,0.993766,7,0.029646,2563,0.1,1
app_30,6.09476,19941.7,7939.5,55.9584,84.6856,4.95801e+10,1.00137,0.993766,94,0.59024,211,0.01,2
app_31,183.132,20143.9,7970.4,29.0684,34.0992,2.55501e+10,1.00051,0.993766,231,0.751473,86,0.01,2
app_32,53.6288,20089.1,7960.3,35.0606,33.462,3.12396e+10,1.00106,0.993766,238,0.946654,84,0.01,2
app_33,207.034,20340.1,7970,26.5977,33.2192,2.33746e+10,1.00083,0.993766,238,0.708322,84,0.01,2
app_34,168.683,20222.1,7951.5,48.3921,30.1025,4.4976e+10,1.00044,0.993766,265,1.4992,75,0.01,2
app_35,15.8315,20102.1,7941.8,55.8595,35.8126,5.13487e+10,1.00086,0.993766,222,1.42635,90,0.01,2
app_36,79.6806,20111.3,7977.9,20.0149,31.7796,1.78712e+10,1.00053,0.993766,251,0.558474,80,0.01,2
app_37,135.386,20580.3,7977.7,19.0347,33.4552,1.68707e+10,1.00068,0.993766,234,0.496198,86,0.01,2
app_38,177.861,19981.2,7984.1,12.8353,31.7255,1.06264e+10,1.00066,0.993766,253,0.342788,79,0.01,2
app_39,86.8001,20055.5,7950.4,47.7965,36.9355,4.31329e+10,1.00081,0.993766,216,1.16576,92,0.01,2
app_4,8.99651,19704.5,7919,74.8919,794.784,5.98673e+09,1.00947,0.993766,10,0.00753048,1953,0.1,1
app_40,175.139,20142.9,7986.2,11.1883,38.74,8.36749e+09,1.00068,0.993766,206,0.220197,97,0.01,2
app_41,137.929,20203.2,7943.4,56.0617,31.4475,5.24148e+10,1.00052,0.993766,253,1.6908,79,0.01,2
app_42,92.8364,20188.5,7939.8,57.986,32.9967,5.31017e+10,1.00089,0.993766,240,1.60914,83,0.01,2
app_43,57.1354,20209.3,7995.8,3.27057,32.6369,3.28188e+08,1.00048,0.993766,242,0.00994508,83,0.01,2
app_44,73.5891,20412.3,7952.3,44.2024,30.99,4.03162e+10,1.00092,0.993766,253,1.30052,79,0.01,2
app_45,131.677,20091.4,7942.8,52.0882,34.1273,4.73602e+10,1.00123,0.993766,235,1.39295,85,0.01,2
app_46,413.019,20750.6,7956,44,9.99914,3.96971e+10,1.00054,0.993766,776,3.96971,26,0.001,3
app_47,446.962,20961.5,7970.9,27.7389,7.11172,2.32693e+10,1.00073,0.993766,1134,3.32418,18,0.001,3
app_48,54.8551,20545.9,7986.9,13.1,6.93476,1.01941e+10,1.00036,0.993766,1145,1.4563,18,0.001,3
app_49,615.812,20704.9,7986.1,13.9,7.16564,1.22303e+10,1.00021,0.993766,1142,1.52879,18,0.001,3
app_5,7.41039,18551.5,7906.7,85.2511,877.397,2.72325e+10,1.00833,0.993766,9,0.0310518,2034,0.1,1
app_50,869.536,21573,7969.8,30.2,8.62844,2.64074e+10,1.00047,0.993766,942,3.30093,22,0.001,3
app_51,239.264,20333.9,7950.9,49.1,8.01789,4.34151e+10,1.00071,0.993766,1013,5.42689,20,0.001,3
app_52,648.984,20746.7,7933.2,66.3094,8.33221,5.06179e+10,1.00203,0.993766,959,5.62421,21,0.001,3
app_53,55.2748,20087,7963.2,36.8,7.90109,2.88548e+10,1.00099,0.993766,1000,3.60685,20,0.001,3
app_54,736.554,21735.2,7973.4,26.6,8.07841,2.25469e+10,1.00051,0.993766,991,2.81836,21,0.001,3
app_55,825.487,20721.6,7963.6,36.4,8.53122,2.94758e+10,1.00087,0.993766,954,3.27509,21,0.001,3
app_56,291.435,20494.2,7960.5,39.5,8.2109,2.88993e+10,1.00133,0.993766,955,3.21103,21,0.001,3
app_57,748.713,21141.6,7978.7,19.1759,8.62247,1.68353e+10,1.00056,0.993766,918,1.87058,22,0.001,3
app_58,546.39,21343.6,7961.6,36.8305,9.21299,2.94961e+10,1.00111,0.993766,892,2.94961,23,0.001,3
app_59,480.813,21619.3,7964.6,33.85,6.43019,2.5486e+10,1.00124,0.993766,1233,4.24766,17,0.001,3
app_6,8.03781,19871.4,7917.3,74.7875,793.498,1.38466e+10,1.00868,0.993766,10,0.0174611,1966,0.1,1
app_60,967.921,21126.5,7978.9,17.5458,8.00716,1.57507e+10,1.00067,0.993766,1012,1.75008,20,0.001,3
app_7,1.50905,19240.8,7911.4,80.8365,878.119,3.80054e+08,1.01115,0.993766,9,0.000432371,2115,0.1,1
app_8,2.15815,18901.6,7909.1,84.6108,881.089,1.58528e+10,1.00947,0.993766,9,0.0179941,2076,0.1,1
app_9,4.6357,19501.5,7910.7,82.7694,880.871,3.59479e+09,1.01083,0.993766,9,0.00408498,2144,0.1,1
