app_id,start_app,end_app,effective_cpu,effective_io,effective_iter,total_bytes,stretch,utilization,Tcomp,Tio,iterations,priority,group_id
app_1,4.20754,19799.7,7894.8,105.2,989.55,4.65908e+10,1.00738,0.994066,8,0.0470614,2444,1,1
app_10,2.27483,20117.3,7920.6,79.4,787.624,2.25585e+10,1.00716,0.994066,10,0.0286639,1989,1.00001,1.00001
app_11,9.6586,19031.5,7920.9,79.1,791.011,1.2575e+10,1.00839,0.994066,10,0.0158975,1881,1.00001,1.00001
app_12,4.90149,19518.1,7912.3,87.7,656.104,5.66369e+10,1.0039,0.994066,12,0.0863368,1605,1.00001,1.00001
app_13,5.58518,19095.7,7920.1,79.9,791.804,2.12798e+10,1.00738,0.994066,10,0.0268684,1888,1.00001,1.00001
app_14,5.88717,19832.9,7911.4,88.6,718.552,5.14066e+10,1.00467,0.994066,11,0.0714974,1784,1.00001,1.00001
app_15,8.36283,19282.3,7926.9,73.1,722.861,2.31193e+10,1.00629,0.994066,11,0.0319769,1739,1.00002,1.00002
app_16,75.5073,20158.6,7989.5,10.5,84.9684,4.88554e+09,1.0007,0.994066,94,0.057477,213,1.00002,1.00002
app_17,80.4254,20000.2,7928.1,71.9,78.8249,5.48854e+10,1.00213,0.994066,102,0.703659,195,1.00002,1.00002
app_18,15.7884,19956.8,7946.8,53.2,86.1,3.7663e+10,1.00195,0.994066,92,0.437942,216,1.00002,1.00002
app_19,52.8269,20050.1,7954,46,76.7402,3.79417e+10,1.00101,0.994066,104,0.499233,191,1.00002,1.00002
app_2,4.8503,19274.8,7912.3,87.7,877.6,1.3753e+10,1.00933,0.994066,9,0.0156819,2117,1,1
app_20,47.974,20274.9,7990.5,9.5,73.6558,5.15959e+09,1.00054,0.994066,107,0.0706794,187,1.00002,1.00002
app_21,51.768,20039.1,7958,42,85.3656,3.18666e+10,1.00127,0.994066,94,0.370542,212,1.00002,1.00002
app_22,10.909,20040.3,7954.5,45.5,73.1495,3.57598e+10,1.00122,0.994066,109,0.48986,183,1.00002,1.00002
app_23,78.7364,20036.5,7948.2,51.8,81.5583,3.93687e+10,1.00156,0.994066,98,0.480107,203,1.00002,1.00002
app_24,23.5329,20074.1,7990.4,9.6,80.5309,4.30155e+09,1.00066,0.994066,98,0.0537693,203,1.00002,1.00002
app_25,0.405143,19896.4,7991.1,8.9,88.5114,1.31948e+09,1.00095,0.994066,90,0.0148256,221,1.00003,1.00003
app_26,33.4098,19975.2,7962.4,37.6,85.9454,2.65826e+10,1.00138,0.994066,92,0.3091,215,1.00003,1.00003
app_27,91.1952,20039.4,7955.4,44.6,68.276,3.31867e+10,1.00143,0.994066,116,0.48804,171,1.00003,1.00003
app_28,75.2468,20009.5,7980.1,19.9,87.6388,1.16169e+10,1.00104,0.994066,91,0.13201,219,1.00003,1.00003
app_29,58.6083,19901.5,7925.7,74.3,87.9273,5.65423e+10,1.00222,0.994066,90,0.642526,219,1.00003,1.00003
app_3,6.53058,18243.5,7900.1,99.9,879.762,4.59855e+10,1.00679,0.994066,9,0.0523157,2000,1,1
app_30,19.4276,19955.2,7923.9,76.1,92.2156,5.61875e+10,1.0025,0.994066,86,0.610733,229,1.00003,1.00003
app_31,71.7229,20384.6,7966.2,33.8,36.7733,2.67696e+10,1.00088,0.994066,216,0.7436,93,1.00003,1.00003
app_32,82.819,20109.1,7954.9,45.1,33.3989,3.37924e+10,1.00142,0.994066,240,1.02401,83,1.00003,1.00003
app_33,159.778,20216.5,7929.7,70.3,29.9557,5.53936e+10,1.00187,0.994066,267,1.84645,75,1.00003,1.00003
app_34,132.89,20233.7,7986.1,13.9,31.6846,1.03092e+10,1.00045,0.994066,251,0.332555,80,1.00003,1.00003
app_35,12.373,20254.3,7988.3,11.7,33.4066,7.64658e+09,1.00051,0.994066,240,0.231715,84,1.00004,1.00004
app_36,138.075,19975.1,7996.9,3.1,30.826,7.19526e+08,1.0003,0.994066,263,0.0232105,76,1.00004,1.00004
app_37,38.8229,20173.4,7953.9,46.1,35.3889,3.86991e+10,1.00093,0.994066,224,1.10569,89,1.00004,1.00004
app_38,261.9,20551.2,7941.2,58.8,28.5193,4.55191e+10,1.00166,0.994066,277,1.62568,72,1.00004,1.00004
app_39,94.6699,20385.7,7946.4,53.6,30.3125,4.11287e+10,1.00156,0.994066,261,1.37096,77,1.00004,1.00004
app_4,1.82332,18379.3,7910,90,877.469,3.2107e+10,1.00729,0.994066,9,0.0365683,2020,1,1
app_40,143.692,20168.7,7953.7,46.3,29.3706,3.85151e+10,1.00097,0.994066,271,1.28384,74,1.00004,1.00004
app_41,71.9983,20292.6,7962.7,37.3,33.0658,2.86706e+10,1.00108,0.994066,238,0.868805,84,1.00004,1.00004
app_42,146.794,20176.8,7946,54,31.9195,3.88939e+10,1.00189,0.994066,249,1.21543,80,1.00004,1.00004
app_43,179.005,19960.1,7993.7,6.3,42.1193,4.01836e+09,1.00029,0.994066,192,0.0956752,104,1.00004,1.00004
app_44,18.6022,20031.7,7993.2,6.8,32.8822,4.4187e+09,1.0003,0.994066,245,0.1339,82,1.00004,1.00004
app_45,89.9994,20143.7,7987,13,36.314,7.48454e+09,1.00069,0.994066,221,0.202285,91,1.00004,1.00004
app_46,674.36,22100.3,7980.6,19.4,7.33643,1.60234e+10,1.00042,0.994066,1104,2.28906,19,1.00005,1.00005
app_47,58.3961,19849.2,7986.2,13.8,8.85175,9.2717e+09,1.00057,0.994066,916,1.03019,22,1.00005,1.00005
app_48,671.078,21712.9,7937.5,62.5,9.16295,4.64866e+10,1.00201,0.994066,862,4.64866,24,1.00005,1.00005
app_49,879.454,21207.4,7967.6,32.4,9.03826,2.30419e+10,1.00117,0.994066,898,2.56021,23,1.00005,1.00005
app_5,8.64095,18191.8,7907.5,92.5,877.996,4.38689e+10,1.00612,0.994066,9,0.0499645,1994,1.00001,1.00001
app_50,208.307,21331.8,7959.9,40.1,8.56827,3.35287e+10,1.00082,0.994066,899,4.19109,23,1.00005,1.00005
app_51,926.145,22276.1,7991.1,8.9,7.16392,7.56792e+09,1.00017,0.994066,1098,1.08113,19,1.00005,1.00005
app_52,464.153,20758,7994.8,5.2,9.095,4.25497e+09,1.00012,0.994066,882,0.472774,23,1.00005,1.00005
app_53,321.181,21249.6,7961.2,38.8,7.76377,3.28918e+10,1.00074,0.994066,1013,4.11147,20,1.00005,1.00005
app_54,338.093,21178.8,7971.1,28.9,7.35168,2.51688e+10,1.00047,0.994066,1082,3.59555,19,1.00005,1.00005
app_55,824.654,21473.2,7960.5,39.5,6.96577,3.0049e+10,1.00118,0.994066,1124,4.29271,18,1.00005,1.00005
app_56,924.197,22302.8,7987.7,12.3,7.01732,1.02937e+10,1.00025,0.994066,1103,1.47052,19,1.00006,1.00006
app_57,802.403,21026.7,7963.3,36.7,6.60542,3.07098e+10,1.00075,0.994066,1197,4.38712,17,1.00006,1.00006
app_58,102.747,21016,7977.8,22.2,8.54943,1.79412e+10,1.00053,0.994066,902,1.99347,23,1.00006,1.00006
app_59,348.515,21030.9,7978.6,21.4,7.04819,1.82517e+10,1.00039,0.994066,1136,2.60738,18,1.00006,1.00006
app_6,8.57056,18297.1,7883.4,116.6,984.088,5.71098e+10,1.00749,0.994066,8,0.0580384,2255,1.00001,1.00001
app_60,434.718,21021.5,7972.3,27.7,8.23239,2.28206e+10,1.00061,0.994066,976,2.85257,21,1.00006,1.00006
app_7,3.50331,19976.9,7912.4,87.6,875.911,8.68977e+09,1.00996,0.994066,9,0.00991983,2194,1.00001,1.00001
app_8,6.03792,19341.7,7921,79,790.695,8.45625e+09,1.0089,0.994066,10,0.0107041,1911,1.00001,1.00001
app_9,4.65844,19356.8,7909.3,90.7,877.285,2.93759e+10,1.00772,0.994066,9,0.0334959,2122,1.00001,1.00001
