app_id,start_app,end_app,effective_cpu,effective_io,effective_iter,total_bytes,stretch,utilization,Tcomp,Tio,iterations,priority,group_id
app_1,1.88804,19483.5,7918.1,76.4452,791.991,1.56344e+10,1.00835,0.99405,10,0.0197404,1925,0.1,1
app_10,5.34918,19269.8,7913,80.2593,789.968,4.55987e+10,1.0052,0.99405,10,0.0577199,1908,0.1,1
app_11,2.07294,18574,7918.9,74.9208,790.938,8.28973e+09,1.00918,0.99405,10,0.0104801,1839,0.1,1
app_12,5.70923,18764.5,7910.7,82.7515,879.005,1.00222e+10,1.01001,0.99405,9,0.0114019,2059,0.1,1
app_13,1.67262,19313.9,7907.8,85.4245,881.203,2.25002e+10,1.00879,0.99405,9,0.0255393,2123,0.1,1
app_14,1.66499,19188,7907.2,86.6352,880.49,3.01295e+10,1.0079,0.99405,9,0.0341992,2109,0.1,1
app_15,0.180735,19402,7931.7,63.5984,660.142,1.2573e+10,1.00701,0.99405,12,0.01905,1599,0.1,1
app_16,11.3259,20014.5,7953.9,45.1136,87.8684,3.84902e+10,1.00095,0.99405,90,0.437389,220,0.01,2
app_17,42.9747,20093.6,7952.4,44.8602,90.6769,3.60751e+10,1.00144,0.99405,88,0.400834,226,0.01,2
app_18,98.9996,20039.9,7984.8,14.1999,71.3793,7.71647e+09,1.00094,0.99405,111,0.108683,179,0.01,2
app_19,68.9221,20210.6,7988.2,10.8928,87.3288,8.2853e+09,1.00044,0.99405,92,0.0941511,217,0.01,2
app_2,8.17005,19222.9,7912.3,80.7733,790.807,4.81272e+10,1.00497,0.99405,10,0.0608435,1899,0.1,1
app_20,47.7713,20071.4,7939.8,58.0022,80.4672,5.18364e+10,1.00105,0.99405,98,0.647955,203,0.01,2
app_21,15.2471,20115,7972.9,25.6678,85.386,2.04557e+10,1.00083,0.99405,93,0.240656,215,0.01,2
app_22,64.5748,20097.1,7968.5,28.9313,93.3828,2.30671e+10,1.00106,0.99405,85,0.245394,234,0.01,2
app_23,36.607,19835.1,7981.4,16.1138,82.6933,8.57531e+09,1.00125,0.99405,96,0.104577,206,0.01,2
app_24,33.9438,19890.4,7981.9,16.1051,73.6528,1.28222e+10,1.00066,0.99405,109,0.173272,183,0.01,2
app_25,21.6478,20002.5,7955.1,44.3995,86.4593,3.7877e+10,1.00088,0.99405,93,0.440431,214,0.01,2
app_26,26.2394,19989.7,7941.7,56.6261,79.0663,4.9612e+10,1.00109,0.99405,101,0.628,196,0.01,2
app_27,76.6319,20109.4,7944.2,54.5698,82.5534,4.8428e+10,1.00092,0.99405,97,0.590586,205,0.01,2
app_28,65.4604,20048.6,7954.3,42.8392,80.4815,3.66446e+10,1.00113,0.99405,99,0.458058,200,0.01,2
app_29,59.0278,20074.2,7938.1,60.595,86.0988,5.22853e+10,1.0012,0.99405,91,0.607969,218,0.01,2
app_3,0.999005,18834.1,7914.3,79.9227,789.065,4.54395e+10,1.00506,0.99405,10,0.0575183,1862,0.1,1
app_30,45.7467,20161.6,7962,36.9981,68.4142,3.26937e+10,1.00066,0.99405,116,0.48079,171,0.01,2
app_31,201.396,20445.8,7994.9,5.1,7.51457,4.6502e+09,1.00006,0.99405,1081,0.664314,19,0.001,3
app_32,178.79,21055.6,7967.9,29.6833,7.66918,2.53276e+10,1.00085,0.99405,1048,3.16596,20,0.001,3
app_33,521.678,20996.6,7963.8,33.0062,8.94314,2.77401e+10,1.00106,0.99405,901,3.08223,23,0.001,3
app_34,801.779,22109.2,7978.3,21.7,8.67903,1.85618e+10,1.00039,0.99405,905,2.06243,23,0.001,3
app_35,165.025,20613,7981.4,14.6626,9.08781,1.30648e+10,1.00069,0.99405,888,1.45164,23,0.001,3
app_36,231.566,21211.3,7974.8,25.2,8.01019,2.15294e+10,1.00046,0.99405,994,2.69118,21,0.001,3
app_37,101.165,20146.6,7983.3,15.87,7.31307,1.41824e+10,1.00031,0.99405,1059,2.02606,19,0.001,3
app_38,214.818,21146.4,7983.7,16.3,8.36193,1.43743e+10,1.00024,0.99405,936,1.79678,22,0.001,3
app_39,722.25,21224.9,7950.4,49.6,10.1472,4.35378e+10,1.00076,0.99405,772,4.35378,26,0.001,3
app_4,5.59487,19513.5,7914.4,78.7877,790.575,3.66357e+10,1.00616,0.99405,10,0.0463157,1930,0.1,1
app_40,184.548,20367.3,7956.2,43.8,8.08666,3.97508e+10,1.00051,0.99405,1012,4.96885,20,0.001,3
app_41,499.716,20764,7958.5,41.5,7.72858,3.77638e+10,1.00047,0.99405,1036,4.72047,20,0.001,3
app_42,662.056,21673.6,7941.1,58.9,7.92229,5.07893e+10,1.00101,0.99405,993,6.34867,21,0.001,3
app_43,225.728,21256.6,7959,41,6.83936,3.7188e+10,1.00048,0.99405,1144,6.198,18,0.001,3
app_44,752.362,21742.5,7992.8,7.2,7.3636,5.74508e+09,1.00018,0.99405,1080,0.718135,19,0.001,3
app_45,966.587,21573.5,7945.8,53.9591,7.84596,4.72779e+10,1.00087,0.99405,1019,6.75399,20,0.001,3
app_46,3374.6,25734.8,7986.9,13.1,1.45175,1.15222e+10,1.0002,0.99405,5674,11.5222,4,0.0002,3.69897
app_47,3509,28335.2,7991.9,8.1,1.5371,7.41835e+09,1.00009,0.99405,4980,3.70918,5,0.0002,3.69897
app_48,2299.6,27011.8,7967.9,28.8783,1.68275,2.7142e+10,1.00062,0.99405,4918,13.571,5,0.0002,3.69897
app_49,2218.6,22904.1,7917.1,82.9,1.4632,6.52209e+10,1.00221,0.99405,5192,32.6105,4,0.0002,3.69897
app_5,6.39779,18285.5,7885.4,105.299,1130.03,5.39516e+09,1.01384,0.99405,7,0.00477448,2579,0.1,1
app_50,3911.14,26198.8,7960.5,39.5,1.42164,3.33798e+10,1.00077,0.99405,5478,33.3798,4,0.0002,3.69897
app_51,4782.78,27202,7967.1,32.9,1.36449,2.74842e+10,1.00068,0.99405,5418,27.4842,4,0.0002,3.69897
app_52,2840.94,26120.7,7994.5,5.5,1.40711,3.78356e+09,1.00021,0.99405,5728,1.89178,4,0.0002,3.69897
app_53,1267.88,25502,7977.84,22.161,1.57119,1.95602e+10,1.00033,0.99405,4821,17.3881,5,0.0002,3.69897
app_54,1684.47,22401.9,7988.9,11.1,2.04471,9.5818e+09,1.00019,0.99405,4099,3.19393,5,0.0002,3.69897
app_55,3025.82,23782.3,7956.5,43.5,1.60124,3.96527e+10,1.00048,0.99405,5206,19.8263,4,0.0002,3.69897
app_56,3580.7,24272.5,7993.6,6.4,1.55148,4.94021e+09,1.00018,0.99405,5040,4.94021,4,0.0002,3.69897
app_57,399.209,21061,7954.9,45.1,1.96571,3.22551e+10,1.00161,0.99405,4220,16.1275,5,0.0002,3.69897
app_58,1559.15,25515,7994.3,5.7,1.62271,4.0113e+09,1.00021,0.99405,4859,2.00565,5,0.0002,3.69897
app_59,1455.13,23513.8,7917.1,82.9,1.45121,6.71033e+10,1.00198,0.99405,5511,33.5517,4,0.0002,3.69897
app_6,8.09288,18249.7,7900,92.3855,984.805,4.68141e+09,1.01206,0.99405,8,0.00475753,2251,0.1,1
app_60,4330.54,26975.5,7949.8,50.2,1.83384,4.37144e+10,1.00081,0.99405,4561,21.8572,5,0.0002,3.69897
app_7,7.20539,18767.1,7916.8,75.9296,792.934,1.82248e+10,1.00819,0.99405,10,0.0229821,1856,0.1,1
app_8,5.34346,18585.3,7911.4,81.7465,879.545,2.45588e+09,1.01089,0.99405,9,0.00279395,2047,0.1,1
app_9,0.735842,19940.2,7912.2,80.8854,791.216,5.21232e+10,1.00448,0.99405,10,0.0658953,1974,0.1,1
