app_id,start_app,end_app,effective_cpu,effective_io,effective_iter,total_bytes,stretch,utilization,Tcomp,Tio,iterations,priority,group_id
app_1,2.94851,18917.2,7922.31,72.5721,720.075,4.00354e+10,1.00473,0.994096,11,0.0555379,1701,0.1,1
app_10,7.81129,18695.5,7907.1,85.9048,880.312,2.95413e+10,1.00798,0.994096,9,0.0335696,2054,0.1,1
app_11,2.53178,19569.8,7905.8,87.0673,877.413,3.72727e+10,1.00717,0.994096,9,0.0425003,2150,0.1,1
app_12,7.45637,19165.4,7910.8,82.3313,877.341,5.94785e+09,1.01052,0.994096,9,0.00677432,2107,0.1,1
app_13,3.50308,19596.7,7918.2,75.7189,792.701,1.59306e+10,1.0083,0.994096,10,0.0201144,1935,0.1,1
app_14,1.62893,18390.3,7897.3,94.7359,986.515,1.89674e+10,1.01058,0.994096,8,0.0192367,2269,0.1,1
app_15,8.78819,18139.5,7894.2,98.4764,988.307,4.24477e+10,1.00798,0.994096,8,0.0429632,2237,0.1,1
app_16,22.0761,20078.2,7983,16.4992,83.2701,9.01464e+09,1.001,0.994096,96,0.10861,207,0.01,2
app_17,88.1393,20064.8,7987.9,9.91213,81.5221,7.32939e+09,1.0006,0.994096,98,0.0904863,203,0.01,2
app_18,25.7396,20059,7968.6,29.9604,74.8044,2.30771e+10,1.00104,0.994096,107,0.307694,186,0.01,2
app_19,5.23378,19944.2,7968.19,31.2104,77.7411,2.43058e+10,1.00094,0.994096,103,0.313945,193,0.01,2
app_2,1.31417,18619.9,7893.1,99.0858,991.598,4.63511e+10,1.00763,0.994096,8,0.046772,2300,0.1,1
app_20,13.4792,19757.8,7945.5,52.6996,94.9769,4.57811e+10,1.00109,0.994096,84,0.481906,235,0.01,2
app_21,69.815,20084.2,7949,50.1873,91.822,4.26301e+10,1.00105,0.994096,86,0.463371,231,0.01,2
app_22,89.5647,20011.8,7976.1,23.1377,76.4633,1.913e+10,1.0006,0.994096,104,0.251711,192,0.01,2
app_23,67.392,20197.7,7978.3,19.8649,66.6918,1.33813e+10,1.00104,0.994096,119,0.202747,168,0.01,2
app_24,30.8729,20139.1,7980.1,19.1431,96.5689,1.05197e+10,1.00117,0.994096,82,0.10958,244,0.01,2
app_25,82.0046,20143,7982.2,16.9723,71.531,1.39157e+10,1.00049,0.994096,111,0.195996,180,0.01,2
app_26,15.0972,20000.9,7977.8,20.9921,97.4135,1.58416e+10,1.0008,0.994096,82,0.163315,244,0.01,2
app_27,26.1139,19802.6,7947.5,52.1004,85.0457,4.43031e+10,1.00103,0.994096,94,0.521213,210,0.01,2
app_28,49.7365,20077.6,7949,50.6146,83.4997,4.25577e+10,1.00106,0.994096,95,0.512743,210,0.01,2
app_29,84.266,20030.9,7944.8,52.1979,80.094,4.5307e+10,1.00124,0.994096,99,0.566337,200,0.01,2
app_3,0.372174,18964.6,7916.5,77.6453,792.285,2.89674e+10,1.00686,0.994096,10,0.036575,1879,0.1,1
app_30,51.6249,19992.8,7951.6,47.943,94.6776,3.90043e+10,1.00118,0.994096,84,0.410571,236,0.01,2
app_31,625.554,20603.6,7955.5,38.543,8.39557,3.47566e+10,1.00122,0.994096,953,3.86185,21,0.001,3
app_32,245.115,20567.6,7965.5,34.5,8.72398,3.09884e+10,1.00044,0.994096,930,3.87355,22,0.001,3
app_33,922.55,21192.5,7991.3,7.32562,8.01819,6.3007e+09,1.0003,0.994096,977,0.787588,21,0.001,3
app_34,927.373,22189.7,7958.9,41.1,6.90955,3.49078e+10,1.00077,0.994096,1162,4.98683,18,0.001,3
app_35,335.494,21242.2,7972.9,25.4488,7.68257,2.10459e+10,1.00076,0.994096,992,2.63073,21,0.001,3
app_36,829.754,20837,7950.2,46.716,7.49047,3.9778e+10,1.00125,0.994096,1053,5.48083,19,0.001,3
app_37,269.459,20085,7972.3,27.7,9.27787,2.54394e+10,1.00028,0.994096,871,2.54394,23,0.001,3
app_38,731.308,21493,7943.5,52.7181,8.04238,4.62166e+10,1.00129,0.994096,970,5.77708,21,0.001,3
app_39,409.123,21411.6,7973.2,24.3033,7.69991,2.19182e+10,1.00061,0.994096,1045,3.13117,20,0.001,3
app_4,1.34255,20101.1,7904.4,87.1705,879.502,3.79492e+10,1.00726,0.994096,9,0.0431241,2207,0.1,1
app_40,415.813,20340.2,7949.9,50.1,9.1793,4.42417e+10,1.00073,0.994096,870,4.91574,23,0.001,3
app_41,857.344,20583.9,7960.3,30.8897,7.78476,2.63711e+10,1.00167,0.994096,1053,3.29638,19,0.001,3
app_42,692.898,21288.1,7982.9,17.1,7.74531,1.31943e+10,1.00049,0.994096,1017,1.8849,20,0.001,3
app_43,383.079,21196.2,7961.9,34.8735,8.10616,3.00911e+10,1.001,0.994096,977,3.76138,21,0.001,3
app_44,982.67,22634.2,7953.4,39.9906,7.82251,3.60253e+10,1.00132,0.994096,993,4.50317,21,0.001,3
app_45,963.297,21855.8,7945.2,54.8,7.87019,4.72583e+10,1.00094,0.994096,1027,5.90729,20,0.001,3
app_46,3953.57,23834.8,7991.7,8.3,1.68574,2.00697e+09,1.00079,0.994096,5087,1.00348,4,0.0002,3.69897
app_47,98.2905,20358.3,7983.1,16.9,1.53448,1.51655e+10,1.00022,0.994096,5144,15.1655,4,0.0002,3.69897
app_48,730.309,24554.1,7943.3,56.7,1.4235,4.96881e+10,1.00088,0.994096,5975,24.844,4,0.0002,3.69897
app_49,1714.67,22502.2,7936.6,63.4,1.46345,5.16567e+10,1.00147,0.994096,5181,25.8283,4,0.0002,3.69897
app_5,5.84792,19192.1,7920.7,73.7683,719.465,4.51954e+10,1.00428,0.994096,11,0.0627713,1724,0.1,1
app_50,1519.87,23500.4,7989.6,10.4,1.89102,9.60107e+09,1.0001,0.994096,4330,9.60107,5,0.0002,3.69897
app_51,2667.5,26872.4,7977.7,22.3,1.64471,1.38044e+10,1.00106,0.994096,4954,6.90222,5,0.0002,3.69897
app_52,706.401,21602.1,7989.1,10.9,1.48183,8.64242e+09,1.00028,0.994096,5471,8.64242,4,0.0002,3.69897
app_53,703.558,24487.5,7981.8,18.2,1.79008,1.6105e+10,1.00026,0.994096,4735,16.105,5,0.0002,3.69897
app_54,535.319,21903.3,7921.6,78.4,1.55067,5.98309e+10,1.00233,0.994096,5280,29.9155,4,0.0002,3.69897
app_55,790.026,23101.8,7994.2,5.8,1.84938,5.31496e+09,1.00006,0.994096,4387,5.31496,5,0.0002,3.69897
app_56,281.251,24644.7,7997.3,2.7,1.67048,1.90009e+09,1.0001,0.994096,4760,1.90009,5,0.0002,3.69897
app_57,4978.53,25697.4,7972.8,27.2,1.5706,2.48146e+10,1.0003,0.994096,5270,24.8146,4,0.0002,3.69897
app_58,3728.65,27765,7979.4,20.6,1.348,1.62298e+10,1.00055,0.994096,5898,16.2298,4,0.0002,3.69897
app_59,2695.79,24223.7,7948.4,51.6,1.50248,4.36816e+10,1.00099,0.994096,5078,21.8408,4,0.0002,3.69897
app_6,4.56482,19773.5,7906.6,85.738,880.505,2.96331e+10,1.00803,0.994096,9,0.033674,2176,0.1,1
app_60,866.324,25420.2,7997.2,2.8,1.67269,2.53469e+09,1.00003,0.994096,4742,2.53469,5,0.0002,3.69897
app_7,3.58638,19018.7,7919.1,73.4555,791.654,6.24967e+09,1.00942,0.994096,10,0.007891,1885,0.1,1
app_8,6.95479,18813.1,7898.4,92.3284,988.892,1.11985e+10,1.01143,0.994096,8,0.0113345,2325,0.1,1
app_9,1.50007,19198,7921.5,72.6817,717.269,4.73494e+10,1.00391,0.994096,11,0.0660382,1726,0.1,1
