app_id,start_app,end_app,effective_cpu,effective_io,effective_iter,total_bytes,stretch,utilization,Tcomp,Tio,iterations,priority,group_id
app_1,7.0663,19567.1,7428.2,72.599,824.883,7.17373e+09,1.07594,0.976777,9,0.00869542,2037,1,1
app_10,2.79231,20496.3,7457.1,77.5948,827.362,2.12995e+10,1.06975,0.976777,9,0.025724,2135,1,1
app_11,5.20002,19615,7357.4,92.1773,1050.95,4.79414e+09,1.08663,0.976777,7,0.0045615,2617,1,1
app_12,3.32755,19523.3,7427.2,76.9631,743.128,4.6527e+10,1.07042,0.976777,10,0.0626204,1837,1,1
app_13,0.280712,20882,7524.9,57.0282,628.575,8.00253e+09,1.06201,0.976777,12,0.0127429,1647,1,1
app_14,1.19735,19137.4,7410.7,83.4314,924.553,1.07284e+10,1.07796,0.976777,8,0.0115982,2244,1,1
app_15,0.156847,20893.1,7488.7,69.0685,679.912,3.80651e+10,1.06287,0.976777,11,0.0559782,1786,1,1
app_16,63.4447,20297.3,7849.5,46.6054,76.358,4.53145e+10,1.01332,0.976777,102,0.596244,195,1,1
app_17,9.25266,20143,7889.3,26.2827,90.3557,1.95264e+10,1.01153,0.976777,87,0.214576,229,1,1
app_18,7.57354,19991.8,7932.6,16.0614,75.5766,1.50624e+10,1.00659,0.976777,106,0.19819,188,1,1
app_19,47.609,20048.8,7914.9,7.81468,76.6421,3.93675e+09,1.01025,0.976777,104,0.0511266,192,1,1
app_2,9.75824,19301.7,7449.9,75.3039,828.927,1.79526e+10,1.07126,0.976777,9,0.0216557,2021,1,1
app_20,39.2327,19963.3,7820,43.6473,86.3608,3.95547e+10,1.01787,0.976777,91,0.454652,217,1,1
app_21,85.0878,20032.2,7895.7,46.5148,79.0305,4.01261e+10,1.00809,0.976777,100,0.507925,198,1,1
app_22,45.3768,20094.8,7856.7,21.7716,73.1602,1.85288e+10,1.01584,0.976777,108,0.25382,184,1,1
app_23,90.9386,20144.2,7926,7.48749,83.2789,1.48652e+09,1.00915,0.976777,96,0.0179098,208,1,1
app_24,58.554,20100.2,7829.8,56.5355,82.2185,4.97367e+10,1.01529,0.976777,96,0.606545,206,1,1
app_25,63.4055,20284.1,7919.4,9.41122,84.6663,7.62588e+09,1.00921,0.976777,94,0.0907842,213,1,1
app_26,19.3108,20184.6,7900.8,8.23231,76.9645,5.69506e+09,1.01183,0.976777,103,0.0739618,194,1,1
app_27,39.8988,20284.9,7813,48.5394,96.9223,4.27796e+10,1.01836,0.976777,81,0.441027,245,1,1
app_28,68.3636,20283.9,7900.9,22.873,78.1876,1.75361e+10,1.0103,0.976777,100,0.224822,199,1,1
app_29,1.61944,19930.3,7878.9,56.6474,72.0572,5.0894e+10,1.00885,0.976777,109,0.706861,181,1,1
app_3,7.17008,19690.6,7387.5,92.6692,921.997,4.71636e+10,1.07604,0.976777,8,0.0511536,2302,1,1
app_30,19.1222,20092.5,7899.9,8.42459,76.0039,6.88524e+09,1.01179,0.976777,104,0.0905953,191,1,1
app_31,220.219,20326.5,7939.1,36.5423,7.24336,3.62679e+10,1.00309,0.976777,1110,5.18113,18,1,1
app_32,641.219,21425,7968.4,31.5504,8.5267,3.14169e+10,1.00002,0.976777,939,3.49076,22,1,1
app_33,614.389,21060,7975.2,24.4855,7.73479,2.40956e+10,1.00009,0.976777,1028,3.44223,20,1,1
app_34,20.2831,21226.7,7945.4,40.7302,7.71421,4.00096e+10,1.00183,0.976777,994,5.0012,21,1,1
app_35,223.285,21124.3,7966.6,20.8536,6.51938,2.0366e+10,1.00163,0.976777,1223,2.90943,17,1,1
app_36,799.867,21121.4,7954.8,44.8905,7.98871,4.46383e+10,1.00007,0.976777,1066,5.57979,19,1,1
app_37,379.436,20555.7,7982.6,17.4,6.03878,1.68878e+10,1.00006,0.976777,1381,2.81463,15,1,1
app_38,292.528,20674.4,7945.8,11.748,9.20173,1.13531e+10,1.00538,0.976777,892,1.26146,23,1,1
app_39,737.986,22017.9,7975.8,14.8985,7.07842,1.46286e+10,1.0012,0.976777,1104,2.0898,19,1,1
app_4,1.57022,19183.7,7438,86.0137,827.821,5.35161e+10,1.06787,0.976777,9,0.064633,1999,1,1
app_40,716.626,21398.4,7965.6,27.9576,9.12305,2.73547e+10,1.00088,0.976777,864,3.03942,24,1,1
app_41,57.9351,20713.8,7962.1,36.6218,7.74681,3.60778e+10,1.00023,0.976777,1043,4.50972,20,1,1
app_42,424.304,21083,7962.5,33.7033,8.13324,3.35862e+10,1.00049,0.976777,967,4.19828,21,1,1
app_43,782.537,20923.5,7938,15.9793,7.24305,1.56941e+10,1.00582,0.976777,1072,1.96176,19,1,1
app_44,23.5729,20542.8,7954.5,42.3766,8.29547,4.16479e+10,1.00048,0.976777,974,5.20598,21,1,1
app_45,135.297,21032.8,7995.2,4.8,7.62716,4.43215e+09,1.00005,0.976777,1049,0.554018,20,1,1
app_46,4865.9,26293.9,7996.1,3.9,1.46856,3.87176e+09,1,0.976777,5420,3.87176,4,1,1
app_47,1095.56,21262.7,7991.4,8.6,1.54258,8.58133e+09,1,0.976777,5031,8.58133,4,1,1
app_48,2782.91,24180.3,7960.7,36.1338,1.92304,3.60086e+10,1.00041,0.976777,4300,18.0043,5,1,1
app_49,3379.02,25569.5,7989.8,10.1006,1.41215,1.00408e+10,1.00002,0.976777,5551,10.0408,4,1,1
app_5,1.8226,19688.9,7466,68.9432,745.954,1.795e+10,1.06895,0.976777,10,0.0240616,1859,1,1
app_50,3387.97,25725.9,7979.6,20.4,1.4511,2.03172e+10,1.00001,0.976777,5609,20.3172,4,1,1
app_51,4937.22,24483,7984.5,15.5,1.64867,1.54424e+10,1.00001,0.976777,5162,15.4424,4,1,1
app_52,3385.55,27372.3,7959.6,40.4,1.67324,4.03144e+10,1.00001,0.976777,4836,20.1572,5,1,1
app_53,1017.65,24943.1,7962.9,25.2673,1.68518,2.5219e+10,1.00149,0.976777,4754,25.219,5,1,1
app_54,1589.66,25233.5,7937,63,1.73192,6.29618e+10,1,0.976777,4716,31.4809,5,1,1
app_55,2852.17,23270.3,7932.4,67.6,1.63348,6.74915e+10,1.00001,0.976777,5121,33.7457,4,1,1
app_56,2116.13,23532.9,7967.6,32.4,1.43455,3.22085e+10,1.00002,0.976777,5373,16.1043,4,1,1
app_57,3681.9,25705.6,7967.1,32.9,1.39652,3.28368e+10,1.00001,0.976777,5629,32.8368,4,1,1
app_58,5057,28920.3,7962.9,37.1,1.28289,3.70979e+10,1,0.976777,5859,37.0979,4,1,1
app_59,4151.71,24723.3,7988.8,8.90613,1.57794,8.8848e+09,1.00029,0.976777,5071,8.8848,4,1,1
app_6,3.42229,19525,7473.6,67.5502,748.149,1.10407e+10,1.06886,0.976777,10,0.0147603,1843,1,1
app_60,656.037,20629.2,7980,20,1.5707,1.9903e+10,1.00001,0.976777,5094,19.903,4,1,1
app_7,3.64185,20837.5,7442.3,84.8718,828.878,4.96038e+10,1.06782,0.976777,9,0.0598358,2165,1,1
app_8,0.0324628,21214,7486.2,59.8993,679.943,6.95802e+09,1.06764,0.976777,11,0.0102324,1816,1,1
app_9,8.5641,19292.6,7395.7,88.1406,924.305,2.93729e+10,1.07743,0.976777,8,0.0317888,2254,1,1
