app_id,start_app,end_app,effective_cpu,effective_io,effective_iter,total_bytes,stretch,utilization,Tcomp,Tio,iterations,priority,group_id
app_1,3.50138,19314.8,7511.4,79.7683,751.361,5.32871e+10,1.05755,0.980268,10,0.0708605,1843,1,1
app_10,5.66477,19884.5,7468.9,74.1736,828.627,8.09766e+09,1.06995,0.980268,9,0.00976799,2098,1,1
app_11,6.64727,18926.9,7459.2,82.2823,933.291,7.03821e+09,1.07149,0.980268,8,0.00754363,2243,1,1
app_12,7.52549,20174.7,7550.7,66.1592,688.137,2.61401e+10,1.05585,0.980268,11,0.0379943,1759,1,1
app_13,10.0552,19189.4,7527.2,69.0877,687.927,3.22293e+10,1.05828,0.980268,11,0.0468449,1665,1,1
app_14,6.89924,19916.9,7506.1,85.9557,833.766,5.06094e+10,1.05866,0.980268,9,0.0606827,2107,1,1
app_15,3.41066,19737.8,7531.6,70.4389,750.032,2.32738e+10,1.05892,0.980268,10,0.0310317,1877,1,1
app_16,18.1845,19856,7954.5,8.28375,74.9785,5.51218e+09,1.00502,0.980268,106,0.0734957,187,1,1
app_17,45.0531,20118.9,7949.7,15.5403,76.0951,1.29549e+10,1.00469,0.980268,104,0.17046,192,1,1
app_18,48.0567,20088,7916.6,32.4974,82.1592,2.788e+10,1.00699,0.980268,96,0.34,207,1,1
app_19,2.08498,19894.4,7949.3,25.6464,81.0643,2.35228e+10,1.00341,0.980268,98,0.286863,202,1,1
app_2,0.267702,19568.8,7537,75.1598,751.617,4.25426e+10,1.05547,0.980268,10,0.0565727,1865,1,1
app_20,70.8561,20224.6,7901.7,34.2678,85.4297,2.8709e+10,1.00878,0.980268,92,0.333826,216,1,1
app_21,67.0818,20165.5,7909.1,21.4691,72.5058,1.70294e+10,1.00932,0.980268,109,0.233279,183,1,1
app_22,35.7643,20333.5,7883.5,34.3538,84.6994,3.03226e+10,1.01089,0.980268,92,0.356737,217,1,1
app_23,32.1225,20243.2,7934,29.8022,73.8846,2.64726e+10,1.00497,0.980268,107,0.357737,186,1,1
app_24,65.8783,20089.4,7951.7,15.3548,79.9866,9.63317e+09,1.00486,0.980268,99,0.120415,200,1,1
app_25,44.6097,20001.3,7898.6,57.6839,71.9253,5.38e+10,1.00599,0.980268,110,0.747222,180,1,1
app_26,63.1618,20169.7,7930,7.80238,77.8355,3.66241e+09,1.00836,0.980268,102,0.046954,195,1,1
app_27,85.4782,20124.6,7861.1,51.5901,75.1678,4.56431e+10,1.01179,0.980268,104,0.600567,190,1,1
app_28,40.4718,19959.2,7903.1,18.1743,90.0152,1.387e+10,1.01049,0.980268,88,0.154111,226,1,1
app_29,104.054,20200.2,7950.4,14.9625,73.4679,1.15768e+10,1.00478,0.980268,108,0.158587,184,1,1
app_3,2.27085,20158.7,7494.1,86.802,830.833,5.47254e+10,1.05977,0.980268,9,0.0658549,2128,1,1
app_30,23.5317,20087.1,7858.3,43.8635,73.06,4.02805e+10,1.01284,0.980268,107,0.551787,185,1,1
app_31,941.907,21365.3,7972.5,21.5931,8.26159,2.11198e+10,1.0008,0.980268,961,2.63998,21,1,1
app_32,895.371,22124.9,7978,19.9666,7.44809,1.96187e+10,1.0003,0.980268,1038,2.45234,20,1,1
app_33,251.467,20825.5,7962.9,36.0573,8.72691,3.56985e+10,1.00018,0.980268,897,3.9665,23,1,1
app_34,79.1214,20594.7,7986.3,12.3989,9.13842,1.17606e+10,1.00024,0.980268,858,1.30673,24,1,1
app_35,49.2735,20098.1,7963.6,36.3571,10.4048,3.58307e+10,1.00007,0.980268,773,3.25733,26,1,1
app_36,896.623,21478.6,7996.8,3.14314,7.97146,2.4609e+09,1.00009,0.980268,1019,0.307612,20,1,1
app_37,317.398,20494.6,7964.9,10.5132,7.48556,1.02157e+10,1.00312,0.980268,1061,1.45939,19,1,1
app_38,662.676,21106.5,7945.9,30.4348,8.82245,2.97077e+10,1.00306,0.980268,910,3.30086,22,1,1
app_39,556.708,20943.6,7969.2,30.3379,8.29203,2.98345e+10,1.00012,0.980268,958,3.72931,21,1,1
app_4,9.4026,20380.6,7540.7,71.5487,685.009,4.33242e+10,1.05485,0.980268,11,0.063247,1768,1,1
app_40,776.045,21610.6,7951.5,28.8914,8.67919,2.8755e+10,1.00247,0.980268,898,3.195,23,1,1
app_41,243.513,20928.5,7949.6,25.0965,7.18943,2.47258e+10,1.00322,0.980268,1069,3.53226,19,1,1
app_42,29.9007,19998.8,7967.7,29.5515,8.42138,2.88537e+10,1.00043,0.980268,953,3.60671,21,1,1
app_43,1024.57,21332.1,7967.5,32.4206,6.73987,3.23413e+10,1.00002,0.980268,1183,5.39021,17,1,1
app_44,325.192,21125.2,7947.8,24.0209,8.29004,2.39192e+10,1.00355,0.980268,931,2.9899,22,1,1
app_45,1005.69,21737.8,7994.8,4.89709,7.52671,4.4332e+09,1.0001,0.980268,1034,0.633315,20,1,1
app_46,4735.32,26483.2,7971.4,28.6,1.48374,2.85496e+10,1.00001,0.980268,5550,28.5496,4,1,1
app_47,4224.51,28609.9,7969.4,30.5787,1.6572,3.05063e+10,1.00001,0.980268,4823,15.2532,5,1,1
app_48,5239.61,27071.2,7982.9,17.1,1.51655,1.70955e+10,1,0.980268,5462,17.0955,4,1,1
app_49,1645.42,24772.9,7995.2,4.8,1.62712,4.74378e+09,1.00001,0.980268,4632,2.37189,5,1,1
app_5,3.84618,19707.1,7516.2,75.3686,750.381,3.59437e+10,1.0593,0.980268,10,0.0478611,1877,1,1
app_50,2455.99,21792.2,7966.9,31.4525,1.64643,3.13699e+10,1.00022,0.980268,5017,15.6849,4,1,1
app_51,3026.56,27247.1,7989.6,10.4,1.64752,1.03034e+10,1.00001,0.980268,4823,5.15171,5,1,1
app_52,3415.9,26662.9,7991.3,8.7,1.36311,8.63759e+09,1.00001,0.980268,5657,8.63759,4,1,1
app_53,3933.98,27184.5,7953.2,42.7239,1.799,4.26673e+10,1.00052,0.980268,4703,21.3336,5,1,1
app_54,3100.36,23148.8,7942.6,57.4,1.63223,5.73356e+10,1.00001,0.980268,5032,28.6678,4,1,1
app_55,5011.55,25695,7984.7,15.3,1.59321,1.52265e+10,1.00001,0.980268,5006,15.2265,4,1,1
app_56,1772.76,22564.6,7959.8,40.2,1.47214,4.00402e+10,1.00002,0.980268,5165,20.0201,4,1,1
app_57,1148.89,24557.7,7982.2,17.8,1.34067,1.77296e+10,1.00001,0.980268,5634,8.86481,4,1,1
app_58,4005.82,24849.4,7993.2,6.8,1.53054,6.75983e+09,1.00001,0.980268,5012,6.75983,4,1,1
app_59,3498.2,24232.1,7964.5,35.2374,1.54416,3.51088e+10,1.00005,0.980268,5107,17.5544,4,1,1
app_6,1.72262,20559.9,7555.33,70.6207,687.171,4.28507e+10,1.05288,0.980268,11,0.062308,1787,1,1
app_60,3431.4,26692.4,7941,59,1.72988,5.89162e+10,1.00001,0.980268,4485,29.4581,5,1,1
app_7,6.43787,20564.6,7498.9,83.5541,830.661,4.37664e+10,1.06063,0.980268,9,0.0526671,2170,1,1
app_8,0.995864,20066.8,7484.2,75.2737,830.18,1.22965e+10,1.06717,0.980268,9,0.0148151,2119,1,1
app_9,0.620394,20181.2,7488.4,81.8286,829.133,3.91448e+10,1.06276,0.980268,9,0.0472193,2132,1,1
