app_id,start_app,end_app,effective_cpu,effective_io,effective_iter,total_bytes,stretch,utilization,Tcomp,Tio,iterations,priority,group_id
app_1,1.88804,19445.5,7918,75.5501,791.514,1.56344e+10,1.00837,0.994036,10,0.0197404,1925,0.1,1
app_10,5.34918,19286.4,7914,80.061,791.801,4.56564e+10,1.00507,0.994036,10,0.0577199,1908,0.1,1
app_11,2.07294,18587.3,7918.6,74.7622,792.042,8.30021e+09,1.00922,0.994036,10,0.0104801,1839,0.1,1
app_12,5.70923,18755.4,7909.7,82.981,878.893,1.00222e+10,1.01014,0.994036,9,0.0114019,2059,0.1,1
app_13,1.67262,19331.7,7907.5,84.3457,879.98,2.24746e+10,1.00883,0.994036,9,0.0255393,2123,0.1,1
app_14,1.66499,19193.6,7907.9,86.3338,878.494,3.00611e+10,1.00782,0.994036,9,0.0341992,2109,0.1,1
app_15,0.180735,19365.4,7932.1,63.4093,660.363,1.2573e+10,1.00696,0.994036,12,0.01905,1599,0.1,1
app_16,11.3259,19991.6,7950.8,45.2832,87.7681,3.84902e+10,1.00134,0.994036,90,0.437389,220,0.01,2
app_17,42.9747,20047,7954.7,45.0112,90.7561,3.60751e+10,1.00115,0.994036,88,0.400834,226,0.01,2
app_18,98.9996,20036.8,7984.7,14.0524,71.0897,7.71647e+09,1.00095,0.994036,111,0.108683,179,0.01,2
app_19,68.9221,20121.2,7987.8,10.3706,85.8944,8.097e+09,1.00051,0.994036,92,0.0941511,217,0.01,2
app_2,8.17005,19208.8,7913.2,80.8428,792.813,4.8188e+10,1.00485,0.994036,10,0.0608435,1899,0.1,1
app_20,47.7713,20191.5,7939.9,58.9167,80.5788,5.24843e+10,1.00095,0.994036,98,0.647955,203,0.01,2
app_21,15.2471,20005.2,7971,26.8484,86.2296,2.06964e+10,1.00104,0.994036,93,0.240656,215,0.01,2
app_22,64.5748,19929.6,7968.2,29.153,94.8412,2.33125e+10,1.00106,0.994036,85,0.245394,234,0.01,2
app_23,36.607,19879.5,7982.1,16.7477,83.9077,8.78446e+09,1.00114,0.994036,96,0.104577,206,0.01,2
app_24,33.9438,19971.4,7982,16.5853,73.2247,1.28222e+10,1.00065,0.994036,109,0.173272,183,0.01,2
app_25,21.6478,19992.6,7953.7,45.0689,86.9169,3.83175e+10,1.001,0.994036,93,0.440431,214,0.01,2
app_26,26.2394,19931.5,7942,56.5257,78.8734,4.9612e+10,1.00105,0.994036,101,0.628,196,0.01,2
app_27,76.6319,20006.1,7941.9,55.6904,82.2858,4.90186e+10,1.00114,0.994036,97,0.590586,205,0.01,2
app_28,65.4604,19934.3,7954.4,41.9887,80.1962,3.66446e+10,1.00112,0.994036,99,0.458058,200,0.01,2
app_29,59.0278,19977,7936.2,62.8824,87.8397,5.35012e+10,1.00129,0.994036,91,0.607969,218,0.01,2
app_3,0.999005,18858.4,7914.5,79.4633,791.492,4.5497e+10,1.00503,0.994036,10,0.0575183,1862,0.1,1
app_30,45.7467,19927.9,7961.7,37.3639,68.4208,3.31745e+10,1.00064,0.994036,116,0.48079,171,0.01,2
app_31,201.396,20623.9,7993.8,6.2,7.35695,4.6502e+09,1.00019,0.994036,1081,0.664314,19,0.001,3
app_32,178.79,21200,7971.6,28.4,7.5118,2.53276e+10,1.00038,0.994036,1048,3.16596,20,0.001,3
app_33,521.678,21647,7972.2,27.8,8.63037,2.46579e+10,1.00039,0.994036,901,3.08223,23,0.001,3
app_34,801.779,21619.8,7979.5,20.5,8.82891,1.85618e+10,1.00024,0.994036,905,2.06243,23,0.001,3
app_35,165.025,20561.7,7984,16,8.93222,1.30648e+10,1.00037,0.994036,888,1.45164,23,0.001,3
app_36,231.566,21459.4,7976.4,23.6,8.04329,2.15294e+10,1.00026,0.994036,994,2.69118,21,0.001,3
app_37,101.165,20407.9,7977.6,21.8189,7.4686,1.62085e+10,1.00077,0.994036,1059,2.02606,19,0.001,3
app_38,214.818,21180.5,7980.9,19.1,8.34505,1.61711e+10,1.00037,0.994036,936,1.79678,22,0.001,3
app_39,722.25,20900.1,7941.7,53.9694,10.4818,4.78916e+10,1.0013,0.994036,772,4.35378,26,0.001,3
app_4,5.59487,19499.8,7914.9,79.1331,793.12,3.67283e+10,1.00608,0.994036,10,0.0463157,1930,0.1,1
app_40,184.548,20535.8,7952.5,47.5,8.05024,3.97508e+10,1.00097,0.994036,1012,4.96885,20,0.001,3
app_41,499.716,21118.8,7957.7,42.3,7.79895,3.77638e+10,1.00057,0.994036,1036,4.72047,20,0.001,3
app_42,662.056,21549.8,7942.8,57.2,8.34207,5.07893e+10,1.0008,0.994036,993,6.34867,21,0.001,3
app_43,225.728,21154.9,7958.7,41.3,6.83227,3.7188e+10,1.00051,0.994036,1144,6.198,18,0.001,3
app_44,752.362,21340.2,7991.9,5.60866,7.19356,5.02694e+09,1.00038,0.994036,1080,0.718135,19,0.001,3
app_45,966.587,21466.2,7937.8,62.2,7.89694,5.40319e+10,1.00102,0.994036,1019,6.75399,20,0.001,3
app_46,3374.6,26072.8,7974.5,25.5,1.51413,2.30445e+10,1.00031,0.994036,5674,11.5222,4,0.0001,4
app_47,3509,28938.8,7991.4,8.6,1.67623,7.41835e+09,1.00015,0.994036,4980,3.70918,5,0.0001,4
app_48,2299.6,26634.5,7969.7,30.3,1.67099,2.7142e+10,1.00039,0.994036,4918,13.571,5,0.0001,4
app_49,2218.6,23461.2,7923.2,76.8,1.5328,6.52209e+10,1.00145,0.994036,5192,32.6105,4,0.0001,4
app_5,6.39779,18314,7885.4,105.685,1126.75,5.38083e+09,1.01384,0.994036,7,0.00477448,2579,0.1,1
app_50,3911.14,25875.2,7960.3,39.7,1.42764,3.33798e+10,1.00079,0.994036,5478,33.3798,4,0.0001,4
app_51,4782.78,25823.1,7965.1,34.9,1.53544,2.74842e+10,1.00093,0.994036,5418,27.4842,4,0.0001,4
app_52,2840.94,26421.6,7997.5,2.5,1.37977,1.89178e+09,1.00008,0.994036,5728,1.89178,4,0.0001,4
app_53,1267.88,24580.7,7977.1,22.9,1.77455,1.73881e+10,1.00069,0.994036,4821,17.3881,5,0.0001,4
app_54,1684.47,21717.2,7989.6,10.4,1.93398,6.38787e+09,1.0005,0.994036,4099,3.19393,5,0.0001,4
app_55,3025.82,24312.5,7957.5,42.5,1.4854,3.96527e+10,1.00036,0.994036,5206,19.8263,4,0.0001,4
app_56,3580.7,23748.8,7994.7,5.3,1.53397,4.94021e+09,1.00004,0.994036,5040,4.94021,4,0.0001,4
app_57,399.209,22376.5,7963.9,36.1,1.80129,3.22551e+10,1.00048,0.994036,4220,16.1275,5,0.0001,4
app_58,1559.15,25783.2,7994.8,5.2,1.65598,4.0113e+09,1.00015,0.994036,4859,2.00565,5,0.0001,4
app_59,1455.13,23042.5,7921.8,78.2,1.4272,6.71033e+10,1.00139,0.994036,5511,33.5517,4,0.0001,4
app_6,8.09288,18253.3,7900,92.2766,986.009,4.69093e+09,1.01206,0.994036,8,0.00475753,2251,0.1,1
app_60,4330.54,27614.1,7948.4,51.6,1.69123,4.37144e+10,1.00099,0.994036,4561,21.8572,5,0.0001,4
app_7,7.20539,18782.8,7917.5,75.9012,790.135,1.81559e+10,1.00811,0.994036,10,0.0229821,1856,0.1,1
app_8,5.34346,18660.1,7911,82.1132,877.289,2.45309e+09,1.01094,0.994036,9,0.00279395,2047,0.1,1
app_9,0.735842,19910.7,7913.46,81.0468,793.137,5.22794e+10,1.0043,0.994036,10,0.0658953,1974,0.1,1
