app_id,start_app,end_app,effective_cpu,effective_io,effective_iter,total_bytes,stretch,utilization,Tcomp,Tio,iterations,priority,group_id
app_1,6.58062,27149.6,4820.4,141.844,481.273,1.17582e+11,1.62009,0.865977,10,0.244454,1848,1,1
app_10,4.34103,28093.6,4865.52,91.8517,485.235,6.57328e+10,1.6223,0.865977,10,0.135531,1959,1,1
app_11,7.37061,27179.2,4904.2,31.6782,490.061,2.92243e+09,1.63028,0.865977,10,0.00596414,1891,1,1
app_12,1.55888,26845.3,5082.3,72.358,423.386,4.47038e+10,1.56037,0.865977,12,0.105683,1580,1,1
app_13,7.11097,27684.8,4979.78,99.1847,453.303,8.01567e+10,1.58105,0.865977,11,0.176946,1763,1,1
app_14,0.921056,27500.5,4862.07,98.1861,483.397,7.402e+10,1.62072,0.865977,10,0.153251,1899,1,1
app_15,3.9234,27559.4,4649.2,117.929,580.028,8.93245e+10,1.68829,0.865977,8,0.154008,2318,1,1
app_16,30.4718,22353.5,6997.7,99.1417,81.2108,9.55439e+10,1.12783,0.865977,86,1.17955,230,1,1
app_17,74.4777,21813,7347.9,80.4288,63.1134,7.66151e+10,1.07751,0.865977,117,1.21611,170,1,1
app_18,91.5746,21447.8,7294.1,153.818,63.3465,1.50475e+11,1.07461,0.865977,116,2.35118,169,1,1
app_19,69.1083,21785.1,7211.9,164.484,68.9144,1.60781e+11,1.08509,0.865977,105,2.33017,185,1,1
app_2,0.452504,26598.6,4748.99,150.115,530.084,1.19537e+11,1.64321,0.865977,9,0.225542,1974,1,1
app_20,78.6119,21852.5,7287.9,71.7746,70.7979,6.92712e+10,1.08737,0.865977,104,0.989589,190,1,1
app_21,72.5123,21930.6,7233.2,88.0352,67.3149,8.44264e+10,1.09325,0.865977,108,1.2601,183,1,1
app_22,58.9501,21874.5,7249.1,113.359,75.2142,1.09684e+11,1.08714,0.865977,97,1.46245,202,1,1
app_23,75.5939,22258.7,7187.9,29.7848,76.7824,2.6135e+10,1.10895,0.865977,94,0.343881,212,1,1
app_24,98.5396,21839.1,7382.3,66.5004,73.5475,6.30512e+10,1.0745,0.865977,101,0.863715,196,1,1
app_25,38.7176,22109.7,7351.6,10.1987,75.6117,7.40399e+09,1.0871,0.865977,97,0.0974209,206,1,1
app_26,66.2998,21797.8,7229.3,174.482,66.9633,1.70956e+11,1.08104,0.865977,108,2.55158,180,1,1
app_27,43.2236,22050.5,7086.1,162.039,78.7382,1.57032e+11,1.10449,0.865977,90,2.01323,216,1,1
app_28,75.0792,22392.1,7233.74,85.9954,76.4728,8.25167e+10,1.09345,0.865977,95,1.07178,209,1,1
app_29,7.68438,21911.6,7302.6,41.2915,77.3284,3.83022e+10,1.08978,0.865977,94,0.497431,211,1,1
app_3,6.9803,27023.4,4578.75,71.4722,655.004,4.37564e+10,1.73066,0.865977,7,0.0668037,2549,1,1
app_30,11.3507,21881,7061.2,183.381,79.3069,1.7982e+11,1.10482,0.865977,90,2.27621,215,1,1
app_31,376.233,20723.7,7663.6,190.109,8.32119,1.8969e+11,1.01868,0.865977,955,21.0766,21,1,1
app_32,561.227,21493.8,7795.3,180.649,7.26944,1.80304e+11,1.00306,0.865977,1063,25.7578,19,1,1
app_33,415.128,21460.7,7827.6,101.774,7.40689,1.015e+11,1.00894,0.865977,1060,12.6875,19,1,1
app_34,206.299,20133.1,7820.4,135.152,8.46827,1.34754e+11,1.00564,0.865977,935,16.8442,21,1,1
app_35,418.642,21557.4,7849.6,102.4,7.31563,1.01906e+11,1.0061,0.865977,1090,12.7383,19,1,1
app_36,582.841,21631.5,7834.8,111.424,7.66242,1.11087e+11,1.00681,0.865977,1031,15.8696,20,1,1
app_37,611.539,21909.6,7903.8,68.9374,7.77434,6.85643e+10,1.00347,0.865977,977,8.57053,21,1,1
app_38,930.179,21420.6,7792.5,130.431,7.76032,1.30097e+11,1.00977,0.865977,994,16.2621,20,1,1
app_39,192.645,21268.2,7878.2,68.0666,7.16069,6.77725e+10,1.0068,0.865977,1093,9.68179,19,1,1
app_4,1.57305,26829.4,4881.68,96.9497,488.216,7.10408e+10,1.61528,0.865977,10,0.145575,1839,1,1
app_40,597.738,21018.2,7816.4,122.315,8.11451,1.21923e+11,1.00777,0.865977,953,15.2404,21,1,1
app_41,636.695,20883,7848.1,44.3571,8.34358,4.38654e+10,1.01369,0.865977,966,5.48317,21,1,1
app_42,864.647,21782,7876,36.6244,8.39093,3.61906e+10,1.0111,0.865977,932,4.52382,22,1,1
app_43,429.525,21576.9,7800.1,67.6501,7.69327,6.72015e+10,1.01687,0.865977,1029,9.60022,20,1,1
app_44,959.256,21258.1,7775.1,204.049,7.49986,2.03625e+11,1.00267,0.865977,1054,25.4532,19,1,1
app_45,402.319,21610.1,7869.4,68.7741,8.63628,6.83206e+10,1.00785,0.865977,889,8.54007,23,1,1
app_46,881.876,21228.8,7781.1,186.208,7.14099,1.85889e+11,1.00414,0.865977,1087,26.5556,18,1,1
app_47,1184.11,21979.3,7917.3,24.3916,6.55289,2.38327e+10,1.00741,0.865977,1221,3.40467,17,1,1
app_48,505.687,21519.9,7828.88,157.814,7.60212,1.57484e+11,1.00171,0.865977,994,21.6456,20,1,1
app_49,609.568,21428.7,7953.6,45.6047,8.00149,4.50579e+10,1.00017,0.865977,984,5.63224,21,1,1
app_5,5.18838,26964.9,4958,42.0933,449.562,1.77877e+10,1.60779,0.865977,11,0.0396163,1716,1,1
app_50,703.863,20875,7748.6,142.857,7.7226,1.42528e+11,1.0138,0.865977,1038,20.3612,19,1,1
app_51,422.394,20920.8,7731.7,177.217,8.18429,1.7682e+11,1.01157,0.865977,935,22.1024,21,1,1
app_52,485.389,21440.6,7829.3,83.2874,8.82428,8.28234e+10,1.01111,0.865977,893,10.3529,23,1,1
app_53,577.31,20895.1,7772.1,118.85,10.5304,1.18293e+11,1.01389,0.865977,730,11.8293,27,1,1
app_54,315.386,21708.7,7892.6,17.2233,7.31787,1.68412e+10,1.01145,0.865977,1041,2.40589,20,1,1
app_55,277.506,21542.5,7766.3,148.384,7.08149,1.48096e+11,1.01082,0.865977,1081,21.1566,19,1,1
app_56,148.249,20593.1,7852.3,33.097,7.63672,3.26065e+10,1.0146,0.865977,1002,4.07582,20,1,1
app_57,934.426,21601.1,7790,129.616,7.8238,1.2915e+11,1.01021,0.865977,994,16.1437,20,1,1
app_58,578.905,21076.7,7774.4,166.071,7.82302,1.6579e+11,1.00753,0.865977,983,23.6843,20,1,1
app_59,223.168,20785.7,7777.8,110.97,8.36472,1.10474e+11,1.01416,0.865977,945,12.2749,21,1,1
app_6,3.17853,27113,4894,55.3127,488.265,3.19443e+10,1.62405,0.865977,10,0.0654596,1874,1,1
app_60,447.148,20652.3,7799.9,165.134,9.60561,1.64796e+11,1.00443,0.865977,820,16.4796,24,1,1
app_7,3.76936,27150.6,4788.64,148.417,533.248,1.15695e+11,1.63121,0.865977,9,0.217063,2036,1,1
app_8,7.72565,28141.1,4895.3,55.0484,487.975,3.22013e+10,1.62354,0.865977,10,0.0659863,1976,1,1
app_9,2.51566,26602.2,4736.78,46.0213,594.005,7.5048e+09,1.68624,0.865977,8,0.0126343,2236,1,1
