app_id,start_app,end_app,effective_cpu,effective_io,effective_iter,total_bytes,stretch,utilization,Tcomp,Tio,iterations,priority,group_id
app_1,10.7858,25888.1,5185.94,63.4266,473,4.7088e+10,1.52875,0.874079,11,0.0995518,1684,1,1
app_10,11.2583,26654,5178.12,61.2157,469.001,4.46201e+10,1.53176,0.874079,11,0.0951387,1752,1,1
app_11,7.45661,26476.5,5076.62,84.1563,508.002,5.11671e+10,1.56013,0.874079,10,0.100723,1875,1,1
app_12,1.35293,27569.9,4949.46,37.4776,548.995,2.11966e+09,1.61565,0.874079,9,0.00386095,2190,1,1
app_13,2.85761,26030.6,4995.89,97.1962,556.003,6.33383e+10,1.58127,0.874079,9,0.113918,2017,1,1
app_14,2.78558,26327.2,5138.65,138.738,467.215,1.14119e+11,1.52301,0.874079,11,0.243843,1709,1,1
app_15,2.7689,27139.5,5000.95,143.83,499.994,1.15711e+11,1.56352,0.874079,10,0.231422,1925,1,1
app_16,20.9606,21667.2,7287.1,71.8383,70.3846,6.88053e+10,1.08756,0.874079,104,0.982932,190,1,1
app_17,72.5973,21505.9,7277.3,124.031,76.4134,1.21062e+11,1.08132,0.874079,96,1.59292,204,1,1
app_18,63.6165,21714.8,7235.16,121.142,84.9807,1.17334e+11,1.08807,0.874079,84,1.3804,233,1,1
app_19,10.1384,21798.7,7270.87,124.884,84.833,1.19753e+11,1.08245,0.874079,85,1.40886,230,1,1
app_2,6.3838,27093.6,4867.79,120.689,605.992,8.8601e+10,1.61408,0.874079,8,0.146206,2346,1,1
app_20,59.0529,21225.7,7461.18,67.6731,66.0344,6.49749e+10,1.06296,0.874079,113,0.969775,175,1,1
app_21,73.5965,21534.9,7274.2,154.461,76.0482,1.51811e+11,1.07729,0.874079,96,1.99751,204,1,1
app_22,9.38472,21822.2,7144.8,159.087,85.0727,1.54884e+11,1.09594,0.874079,85,1.82216,230,1,1
app_23,98.4772,21519.8,7224.1,133.754,68.5082,1.29589e+11,1.08789,0.874079,106,1.90572,185,1,1
app_24,13.9484,21605.1,7380.98,65.3004,86.6859,6.02269e+10,1.07509,0.874079,85,0.700313,232,1,1
app_25,52.5632,21873.5,7271.3,139.389,81.5392,1.35883e+11,1.08003,0.874079,89,1.67757,221,1,1
app_26,89.7612,21711.6,7277.4,81.8433,77.1874,7.73609e+10,1.08773,0.874079,94,1.00469,209,1,1
app_27,25.2724,21382.2,7270,149.334,68.7671,1.45883e+11,1.07877,0.874079,105,2.14533,186,1,1
app_28,52.0522,21881.7,7282.2,45.3759,76.6334,4.12937e+10,1.09237,0.874079,95,0.543338,210,1,1
app_29,91.2704,21700.9,7269.1,116.238,75.4053,1.1316e+11,1.08368,0.874079,96,1.48894,204,1,1
app_3,5.5808,26443.6,4706.52,183.372,671.994,1.40024e+11,1.65066,0.874079,7,0.208369,2520,1,1
app_30,63.1137,21604,7203.3,196.172,75.4304,1.92365e+11,1.08171,0.874079,96,2.56487,201,1,1
app_31,882.386,21443.6,7859.73,75.4574,7.7954,7.50061e+10,1.00823,0.874079,1017,10.7152,20,1,1
app_32,386.866,21483.7,7827.78,72.9675,9.2312,7.24466e+10,1.01263,0.874079,814,8.04962,25,1,1
app_33,595.491,21105.9,7902.5,43.1072,8.18852,4.26751e+10,1.0069,0.874079,961,5.33439,21,1,1
app_34,319.4,20959,7921.3,21.5721,7.09369,2.11377e+10,1.00725,0.874079,1146,3.01967,18,1,1
app_35,798.592,21860.5,7812.9,97.1879,9.06485,9.677e+10,1.01142,0.874079,847,9.677,24,1,1
app_36,277.441,21336.5,7785.4,172.945,8.1057,1.72613e+11,1.00528,0.874079,974,21.5767,21,1,1
app_37,146.913,20001.3,7866.7,112.005,8.35958,1.11532e+11,1.00273,0.874079,941,13.9415,21,1,1
app_38,548.281,21200.8,7852.3,104.186,6.77484,1.03838e+11,1.00551,0.874079,1100,14.8339,18,1,1
app_39,540.475,20434.5,7732.2,224.574,8.45717,2.24064e+11,1.0055,0.874079,939,24.8961,21,1,1
app_4,1.49017,26685.8,5091.52,40.4406,509.006,9.73387e+09,1.56824,0.874079,10,0.0191235,1918,1,1
app_40,919.692,21530.7,7917.3,28.8104,7.31551,2.84201e+10,1.00683,0.874079,1079,3.55251,19,1,1
app_41,642.711,21501.9,7804.68,139.067,8.28102,1.38577e+11,1.00714,0.874079,921,17.3222,22,1,1
app_42,463.754,21901.4,7893.4,21.7989,8.17216,2.15543e+10,1.01074,0.874079,948,2.69429,22,1,1
app_43,528.152,21178.5,7830.9,69.4897,7.90556,6.91834e+10,1.01265,0.874079,1041,8.64792,20,1,1
app_44,497.847,21378.1,7831.5,140.905,9.42762,1.40501e+11,1.00351,0.874079,804,14.0501,25,1,1
app_45,14.4509,19499.2,7865.3,109.452,7.15986,1.09194e+11,1.0032,0.874079,1099,15.5991,18,1,1
app_46,661.821,20866.4,7798.9,166.815,7.71681,1.66435e+11,1.00435,0.874079,1045,20.8044,19,1,1
app_47,263.363,21063,7803.9,139.093,9.98007,1.3845e+11,1.00726,0.874079,763,13.845,26,1,1
app_48,861.518,20872.7,7880.3,10.7111,9.23504,1.00487e+10,1.0139,0.874079,874,1.00487,23,1,1
app_49,440.733,20369.9,7744.8,183.403,8.45629,1.82848e+11,1.00913,0.874079,941,20.3164,21,1,1
app_5,5.41902,26988.6,5195.55,56.0614,471.998,3.59214e+10,1.52921,0.874079,11,0.0761046,1788,1,1
app_50,318.904,21459.7,7859.9,90.5827,8.33322,9.00385e+10,1.0063,0.874079,942,10.0043,22,1,1
app_51,482.852,20792.3,7807.3,152.757,9.41692,1.52083e+11,1.0051,0.874079,824,15.2083,24,1,1
app_52,550.704,21044.2,7798.4,186.429,9.22531,1.86075e+11,1.00194,0.874079,835,20.675,24,1,1
app_53,917.186,21132.1,7839.68,122.206,7.9801,1.21714e+11,1.00485,0.874079,987,15.2142,20,1,1
app_54,842.82,21345.3,7827.07,20.9285,8.32985,2.04802e+10,1.01943,0.874079,912,2.29397,22,1,1
app_55,699.838,21111.2,7945.7,28.9717,8.63614,2.86531e+10,1.00322,0.874079,908,3.18368,22,1,1
app_56,511.4,21398.4,7864.2,95.1917,7.52659,9.47445e+10,1.00516,0.874079,999,13.5349,20,1,1
app_57,888.619,21849,7810.7,157.308,6.9484,1.56864e+11,1.00407,0.874079,1140,22.4092,18,1,1
app_58,912.047,21814.9,7852.5,41.5163,8.34287,4.10483e+10,1.01349,0.874079,941,5.13103,22,1,1
app_59,607.343,21919.6,7759.54,160.488,9.97044,1.60047e+11,1.01015,0.874079,745,17.3316,27,1,1
app_6,4.89928,26066.8,5106.3,34.0739,512.004,2.56732e+09,1.56591,0.874079,10,0.0050143,1852,1,1
app_60,718.174,21281.7,7911.9,44.6548,7.25631,4.43705e+10,1.0055,0.874079,1063,5.54631,19,1,1
app_7,4.94176,26909.1,4946.05,108.104,548.269,7.91473e+10,1.59198,0.874079,9,0.144166,2101,1,1
app_8,7.02929,25906.8,4900,162.738,545.006,1.35055e+11,1.58886,0.874079,9,0.247807,1976,1,1
app_9,7.46326,26454.9,4881.05,131.271,609.995,1.06137e+11,1.60411,0.874079,8,0.173995,2266,1,1
