app_id,start_app,end_app,effective_cpu,effective_io,effective_iter,total_bytes,stretch,utilization,Tcomp,Tio,iterations,priority,group_id
app_1,2.73077,27195,4704.09,115.803,523.003,9.16216e+10,1.66816,0.860323,9,0.175185,2062,1,1
app_10,6.12652,27121.8,4766.54,129.749,476.998,9.95393e+10,1.64403,0.860323,10,0.208678,1852,1,1
app_11,1.51087,27420.1,4696.29,105.02,522.001,7.84521e+10,1.67548,0.860323,9,0.150291,2085,1,1
app_12,5.72465,28311.2,4748.9,95.4044,527.004,6.50405e+10,1.66184,0.860323,9,0.123417,2185,1,1
app_13,1.68015,27766.3,4821.25,102.528,479.69,8.1596e+10,1.63171,0.860323,10,0.169992,1933,1,1
app_14,8.27202,27273.9,4657.66,149.733,517.834,1.2059e+11,1.67425,0.860323,9,0.232798,2047,1,1
app_15,0.106336,27622.3,4778.48,39.1837,531.998,7.67998e+09,1.67149,0.860323,9,0.0144361,2130,1,1
app_16,103.637,21872.3,7162.8,50.0466,68.5056,4.72313e+10,1.10957,0.860323,105,0.684511,189,1,1
app_17,44.826,22031.3,7117.8,59.241,76.4421,5.49475e+10,1.11533,0.860323,93,0.722994,213,1,1
app_18,56.7856,22020,7147.07,23.4892,74.7709,2.05291e+10,1.11613,0.860323,96,0.27742,206,1,1
app_19,50.6754,22146.4,7080.22,141.82,78.8967,1.38247e+11,1.10827,0.860323,90,1.7724,218,1,1
app_2,0.190493,27471.5,5080.5,29.5861,421.601,2.29856e+09,1.57394,0.860323,12,0.00544683,1646,1,1
app_20,22.9446,21836.2,7159.9,57.1008,79.9691,5.34618e+10,1.10905,0.860323,91,0.668272,217,1,1
app_21,87.9844,22065.7,7064.4,147.297,77.6637,1.43039e+11,1.10996,0.860323,91,1.85765,216,1,1
app_22,0.0902391,21661.4,7140.2,169.202,73.6494,1.6558e+11,1.09502,0.860323,98,2.26822,199,1,1
app_23,40.804,22090,7151.2,64.1521,80.17,6.06208e+10,1.10929,0.860323,89,0.757759,222,1,1
app_24,66.4521,21801.2,7297.7,13.2237,61.6815,1.07667e+10,1.09462,0.860323,119,0.173656,167,1,1
app_25,92.8497,22047.4,7229,85.2988,73.4794,8.08939e+10,1.09441,0.860323,98,1.10814,201,1,1
app_26,53.7418,22371.9,6871.9,170.082,85.5525,1.65216e+11,1.13683,0.860323,80,1.92112,243,1,1
app_27,54.1302,22318.1,7122.8,62.1311,74.5579,5.89368e+10,1.11394,0.860323,95,0.785824,209,1,1
app_28,16.2687,21844.6,7174.5,81.0108,71.0625,7.83807e+10,1.10301,0.860323,102,1.08862,194,1,1
app_29,11.5819,21557.7,7267.1,156.905,67.67,1.53458e+11,1.07809,0.860323,108,2.25674,181,1,1
app_3,1.6317,26621.7,4795.05,33.6713,533.005,4.01491e+08,1.66825,0.860323,9,0.000753266,2029,1,1
app_30,53.2732,21964.1,7106.48,87.5017,69.0941,8.33039e+10,1.11269,0.860323,102,1.2073,193,1,1
app_31,487.769,21156.9,7797.3,149.795,7.68255,1.49531e+11,1.00669,0.860323,1018,18.6914,20,1,1
app_32,135.646,19969.3,7770.1,169.421,8.68952,1.68957e+11,1.00768,0.860323,941,21.1196,21,1,1
app_33,598.85,20652.9,7893.6,4.82946,8.90088,4.45755e+09,1.01291,0.860323,911,0.495283,22,1,1
app_34,721.327,21048.3,7895.5,63.0022,8.45284,6.25539e+10,1.00527,0.860323,955,7.81924,21,1,1
app_35,138.165,21422.8,7742.6,181.413,7.83198,1.80926e+11,1.00965,0.860323,974,22.6157,21,1,1
app_36,486.036,20971.4,7754.1,186.243,11.2409,1.85617e+11,1.00759,0.860323,689,15.4681,29,1,1
app_37,283.797,20578.3,7830.1,128.477,8.85577,1.28019e+11,1.00526,0.860323,901,16.0024,22,1,1
app_38,46.0763,21229.5,7771.5,165.549,8.90072,1.65084e+11,1.00799,0.860323,846,18.3426,24,1,1
app_39,1024.83,21902.7,7815.8,72.8176,7.22102,7.24094e+10,1.01417,0.860323,1052,10.3442,19,1,1
app_4,6.17165,27568.3,4789.26,36.0112,532.996,3.59756e+09,1.66915,0.860323,9,0.00674964,2122,1,1
app_40,246.53,21119.2,7862.2,102.237,8.07134,1.01829e+11,1.00452,0.860323,961,12.7287,21,1,1
app_41,121.71,20142.8,7747.14,106.698,8.06855,1.06336e+11,1.01866,0.860323,988,12.4261,20,1,1
app_42,172.803,20869.9,7834.4,126.507,7.54022,1.26177e+11,1.00495,0.860323,1022,15.7722,20,1,1
app_43,65.9323,20526.7,7910.4,28.162,8.32472,2.76899e+10,1.0078,0.860323,971,3.46124,21,1,1
app_44,12.6314,20085.1,7791.9,139.405,8.24873,1.3899e+11,1.00871,0.860323,944,17.3737,21,1,1
app_45,147.912,20256.4,7765.6,156.864,9.42828,1.56445e+11,1.00984,0.860323,819,17.3828,24,1,1
app_46,923.672,22254.2,7811.8,108.317,7.68291,1.07989e+11,1.01013,0.860323,975,15.4271,21,1,1
app_47,572.102,21194,7710.4,152.153,11.3033,1.51581e+11,1.01756,0.860323,683,13.7801,29,1,1
app_48,1044,21623.2,7788.4,133.226,6.40176,1.32948e+11,1.00993,0.860323,1177,22.1581,17,1,1
app_49,191.968,21037.4,7747.9,175.011,7.22251,1.74609e+11,1.00978,0.860323,1053,24.9441,19,1,1
app_5,6.54537,27629.2,4745.82,115.356,526.003,9.30945e+10,1.65326,0.860323,9,0.176986,2110,1,1
app_50,528.775,20972.1,7878.1,2.16966,7.67648,1.69628e+09,1.01525,0.860323,1009,0.212035,20,1,1
app_51,105.508,20712.2,7841.6,90.2272,9.33843,8.97994e+10,1.00865,0.860323,848,8.97994,24,1,1
app_52,647.744,21304.2,7780.8,196.394,8.50037,1.96082e+11,1.0029,0.860323,905,21.7868,22,1,1
app_53,727.079,21717.5,7815.5,129.471,6.75156,1.2913e+11,1.00697,0.860323,1128,18.4472,18,1,1
app_54,995.14,21507.9,7825.5,65.0573,6.70184,6.45985e+10,1.01393,0.860323,1195,9.22835,17,1,1
app_55,97.4809,20456.3,7812.1,92.2393,9.56096,9.19234e+10,1.01214,0.860323,830,9.19234,24,1,1
app_56,495.07,20733.8,7843.4,97.8285,7.22084,9.73773e+10,1.00746,0.860323,1116,12.1722,18,1,1
app_57,378.397,21064.8,7790.19,137.521,9.00273,1.37138e+11,1.00917,0.860323,886,14.8981,23,1,1
app_58,283.085,20757.5,7839.9,34.7753,7.48471,3.44403e+10,1.01596,0.860323,1051,4.92005,19,1,1
app_59,229.733,20773.6,7895.7,79.2803,8.23621,7.89236e+10,1.00318,0.860323,971,8.76928,21,1,1
app_6,3.52246,27421.1,4705.4,94.7559,521.999,6.41477e+10,1.67731,0.860323,9,0.122888,2085,1,1
app_60,638.458,21739,7726.6,144.878,8.39288,1.44453e+11,1.01638,0.860323,932,16.0503,22,1,1
app_7,2.24207,28200.8,4758.53,57.7914,526.007,3.36165e+10,1.6694,0.860323,9,0.0639098,2178,1,1
app_8,4.10549,27337.3,4750.27,132.338,474.992,1.04247e+11,1.64795,0.860323,10,0.219468,1878,1,1
app_9,6.8301,26864.9,4773.9,140.39,478.697,1.15442e+11,1.63621,0.860323,10,0.241007,1835,1,1
