app_id,Tcomp,Tio,iter,witer,alpha_io,compute_size,io_size,mu,desyn_time
1,9.455563605716485,0.3696649776600827,2036,9.825228583376568,0.03762405877106246,9e9,369664977.6600827,10,0.16022779069594542
2,9.109976475863478,0.3503526268679849,2115,9.460329102731462,0.03703387303585753,9e9,350352626.8679849,10,8.108524490513672
3,10.135133152241245,0.41975095415707964,1895,10.554884106398324,0.03976840957473218,10e9,419750954.15707964,10,5.846525874539303
4,9.165043644751384,0.7030299660338144,2027,9.868073610785197,0.07124287817081602,9e9,703029966.0338144,10,3.7734542976681884
5,8.86389550945843,0.21577024000544148,2203,9.079665749463873,0.02376411708968274,8e9,215770240.0054415,10,9.013183644217966
6,104.7207520377359,7.667962813524967,178,112.38871485126087,0.06822715985028403,104e9,7667962813.524966,100,3.4719825419606085
7,106.36903603838931,2.7490140281439257,184,109.11805006653324,0.025193027427339032,106e9,2749014028.1439257,100,70.78695189036492
8,79.6473434765397,5.885993453095157,234,85.53333692963486,0.06881519725972282,79e9,5885993453.095157,100,61.07458158466758
9,101.33878201059225,4.530428873115235,189,105.8692108837075,0.04279269520665177,101e9,4530428873.115235,100,16.957973902029796
10,88.16919647535923,3.837268560871917,218,92.00646503623115,0.041706510073621916,88e9,3837268560.871917,100,82.8054195004643
11,1161.8497302447597,3.1847402644513707,18,1165.0344705092111,0.0027336017474739525,1161e9,3184740264.4513707,1000,30.512459834036854
12,1088.1406480193168,11.224472278768083,19,1099.365120298085,0.0102099585219919,1088e9,11224472278.768084,1000,550.239237806662
13,965.3691966458964,12.84537207230965,21,978.214568718206,0.013131446293159852,965e9,12845372072.309649,1000,626.3321385312055
14,922.5286879971225,12.630362646785052,22,935.1590506439076,0.013506111755094884,922e9,12630362646.785051,1000,420.814382592654
15,953.7312378575651,79.23185165719642,20,1032.9630895147616,0.07670346836343966,953e9,79231851657.19641,1000,115.21635655523224
16,1512.1900869946928,65.17734415571844,13,1577.3674311504112,0.04132033086811173,1512e9,65177344155.718445,1500,242.235001680051
17,1497.9845743054498,120.21686776280549,13,1618.2014420682553,0.07429042184584506,1497e9,120216867762.8055,1500,579.1588291443121
18,1504.5721636855085,54.68394010276096,13,1559.2561037882695,0.035070531370635226,1504e9,54683940102.760956,1500,429.766610275487
19,1324.178871373132,13.367036768792762,15,1337.5459081419249,0.009993703159962421,1324e9,13367036768.79276,1500,1038.703230369663
20,1170.9033878608554,83.91268751699221,16,1254.8160753778477,0.06687249961451489,1170e9,83912687516.9922,1500,1036.672713811119
