app_id,Tcomp,Tio,iter,witer,alpha_io,compute_size,io_size,mu,desyn_time
1,8.839291574851448,0.42038539513979356,2160,9.259676969991242,0.045399574575028745,8e9,420385395.1397936,10,8.325524449201513
2,8.309537926327398,0.2815737950553424,2328,8.59111172138274,0.03277501261618131,8e9,281573795.05534244,10,5.363251199718554
3,10.834109756979085,0.044280270980775,1839,10.87839002795986,0.004070480178313606,10e9,44280270.980775,10,5.492475340865904
4,7.151077861041736,0.5005520809892451,2614,7.651629942030981,0.0654177063947741,7e9,500552080.98924506,10,4.299078968078021
5,11.42040119790039,0.6374080690862337,1659,12.057809266986624,0.05286267637616471,11e9,637408069.0862337,10,11.901191478612882
6,93.94097344240805,3.5059578762112165,206,97.44693131861926,0.03597812500373042,93e9,3505957876.2112164,100,72.40594145446838
7,95.973300921327,6.359665517469388,196,102.33296643879639,0.06214679138880427,95e9,6359665517.469388,100,77.50652563299265
8,94.9810594446627,6.058597580133528,198,101.03965702479623,0.05996257072256968,94e9,6058597580.133528,100,53.33834960747661
9,101.68390805379731,6.150062097252726,186,107.83397015105004,0.0570326965485731,101e9,6150062097.252726,100,60.53135689730728
10,99.8425274812352,0.002451323670097882,201,99.8449788049053,2.455129641409119e-05,99e9,2451323.6700978824,100,3.990955954898562
11,1080.1286197895363,30.231236395820027,19,1110.3598561853564,0.027226521408725547,1080e9,30231236395.820026,1000,854.6873217283087
12,895.8639160356263,0.9434474471732576,23,896.8073634827996,0.0010520068027868646,895e9,943447447.1732576,1000,160.8043546043878
13,919.0949174824875,27.273759477092636,22,946.3686769595802,0.028819381009857228,919e9,27273759477.092636,1000,159.77823080842833
14,890.223126316922,56.829313353906336,22,947.0524396708283,0.06000651175520838,890e9,56829313353.906334,1000,361.40449779489256
15,872.310839514102,47.34062612068633,22,919.6514656347883,0.05147670382714991,872e9,47340626120.68633,1000,44.3212561024659
16,1385.248904334988,57.26593390200347,14,1442.5148382369916,0.039698679267654934,1385e9,57265933902.00347,1500,83.4088528424131
17,1133.0503692018497,69.13350856937421,17,1202.183877771224,0.05750660098482068,1133e9,69133508569.37422,1500,1169.9511994240206
18,1300.1285496680728,56.689459977960894,15,1356.8180096460337,0.0417811818349537,1300e9,56689459977.96089,1500,842.6217487717244
19,1333.8249986151466,2.7777007364012616,15,1336.602699351548,0.0020781798044765746,1333e9,2777700736.401262,1500,786.5908040496565
20,1476.8994125069032,119.20342095230899,13,1596.1028334592122,0.07468404820381216,1476e9,119203420952.30899,1500,1362.7440211415565
