app_id,start_app,end_app,effective_cpu,effective_io,effective_iter,total_bytes,stretch,utilization,Tcomp,Tio,iterations,priority,group_id
app_1,2.68576,20663.1,7162.2,837.8,796.022,2.82036e+11,1.07466,0.897495,9,0.354316,2063,1,1
app_10,19.2163,20640.3,7555.3,444.7,86.0417,1.52064e+11,1.03797,0.897495,88,1.76818,222,1.00001,1.00001
app_11,859.164,23074.1,6765.7,1234.3,6.51625,4.1442e+11,1.11419,0.897495,1027,59.2028,19,1.00001,1.00001
app_12,698.79,21580,7677.9,322.104,8.64988,9.45811e+10,1.02927,0.897495,886,11.091,23,1.00001,1.00001
app_13,285.76,21778,7199.9,800.1,7.87929,3.06455e+11,1.06576,0.897495,920,38.3069,21,1.00001,1.00001
app_14,203.991,21546,7356.8,643.2,7.31719,2.19767e+11,1.05589,0.897495,1012,31.3952,20,1.00001,1.00001
app_15,101.219,22237.9,6974.62,1025.38,6.65484,3.74522e+11,1.08856,0.897495,1070,54.9028,18,1.00002,1.00002
app_16,922.249,23258.5,7075,925,5.48105,3.78892e+11,1.07326,0.897495,1333,75.7783,15,1.00002,1.00002
app_17,1508.78,25315.7,6705,1295,4.62112,5.21381e+11,1.10705,0.897495,1430,104.276,14,1.00002,1.00002
app_18,1254.67,23849.6,6892.02,1107.98,5.0744,5.02761e+11,1.08184,0.897495,1407,93.2808,14,1.00002,1.00002
app_19,253.541,21257.3,7373.7,626.3,5.30189,2.3397e+11,1.05157,0.897495,1411,38.995,14,1.00002,1.00002
app_2,7.29976,20272.6,7221.65,778.351,803.212,2.64784e+11,1.0686,0.897495,9,0.329671,2042,1,1
app_20,1110.35,23698.6,6800.6,1199.4,5.2199,4.64529e+11,1.10115,0.897495,1306,92.9058,15,1.00002,1.00002
app_3,5.00666,21465.1,7057.48,942.519,640.755,3.21291e+11,1.08419,0.897495,11,0.501741,1730,1,1
app_4,2.56082,19887,7794.4,205.6,711.439,5.83604e+10,1.01875,0.897495,11,0.0820821,1768,1,1
app_5,9.15483,20384.8,7218,782,801.33,2.59358e+11,1.0699,0.897495,9,0.323793,2048,1.00001,1.00001
app_6,91.677,21373.7,7158.55,841.449,69.5399,3.15151e+11,1.07042,0.897495,102,4.5445,187,1.00001,1.00001
app_7,39.2656,20598.2,7645.7,354.3,78.1143,1.21203e+11,1.03001,0.897495,97,1.55389,203,1.00001,1.00001
app_8,82.3811,21181.7,7197.2,802.8,73.2245,2.90075e+11,1.06848,0.897495,98,3.97363,195,1.00001,1.00001
app_9,67.5208,22028,6767.5,1232.5,69.7288,4.89036e+11,1.10245,0.897495,97,6.98623,192,1.00001,1.00001
