app_id,start_app,end_app,effective_cpu,effective_io,effective_iter,total_bytes,stretch,utilization,Tcomp,Tio,iterations,priority,group_id
app_1,2.10979,28405.4,3923.61,263.063,436.783,2.42921e+11,1.92006,0.785642,9,0.555883,1899,1,1
app_10,68.3912,24243.9,5951.2,303.302,60.3638,2.99605e+11,1.27984,0.785642,98,4.91155,193,1,1
app_11,909.23,21757.9,7555.4,322.523,7.37375,3.2225e+11,1.01553,0.785642,1027,40.2813,19,1,1
app_12,1033.74,22394,7404.6,511.696,7.24633,5.11255e+11,1.01063,0.785642,996,73.0364,19,1,1
app_13,842.131,21802.2,7649.23,270.91,6.99969,2.70604e+11,1.01012,0.785642,1039,38.6578,19,1,1
app_14,523.709,20804.7,7779.4,8.22627,7.22259,7.80406e+09,1.02733,0.785642,1052,1.11487,19,1,1
app_15,53.2311,20863.2,7517.8,130.932,7.6194,1.30631e+11,1.04597,0.785642,999,16.3288,20,1,1
app_16,1034.63,22578.7,7690.1,243.543,5.07047,2.43443e+11,1.00838,0.785642,1428,48.6886,14,1,1
app_17,1492.52,22797.1,7604.69,390.535,5.20516,3.90216e+11,1.00064,0.785642,1426,68.1334,14,1,1
app_18,848.93,21922.9,7475.7,517.881,5.37752,5.1752e+11,1.00085,0.785642,1389,103.504,14,1,1
app_19,733.813,22052.1,7406.1,527.486,5.32654,5.27127e+11,1.00842,0.785642,1385,105.425,14,1,1
app_2,4.87118,29013.6,4112.06,45.5589,411.504,2.93782e+10,1.9317,0.785642,10,0.0713063,1855,1,1
app_20,501.738,21093.9,7361,500.533,5.24803,5.00399e+11,1.01763,0.785642,1364,83.3998,14,1,1
app_3,5.90658,30009.8,4057.58,82.618,449.778,5.11046e+10,1.94709,0.785642,9,0.113566,2133,1,1
app_4,4.14115,28910.4,3886.92,298.394,484.511,2.8681e+11,1.91675,0.785642,8,0.591362,2162,1,1
app_5,8.26213,28808.6,3956.37,204.588,395.65,1.93468e+11,1.92779,0.785642,10,0.488556,1775,1,1
app_6,23.5768,24063.2,5983,354.102,57.5226,3.51151e+11,1.26299,0.785642,105,6.05432,181,1,1
app_7,31.2403,24120.3,6032.49,300.413,62.37,2.96817e+11,1.26396,0.785642,97,4.71138,197,1,1
app_8,88.9043,24171.4,6054.6,221.653,59.497,2.18068e+11,1.27537,0.785642,102,3.63447,189,1,1
app_9,48.9397,24503.3,6300.8,26.9951,69.8797,2.32973e+10,1.265,0.785642,90,0.332818,221,1,1
