app_id,start_app,end_app,effective_cpu,effective_io,effective_iter,total_bytes,stretch,utilization,Tcomp,Tio,iterations,priority,group_id
app_1,0.304654,19047.3,7367.31,591.833,818.382,5.285e+11,1.0132,0.908935,9,0.645701,1950,0.1,1
app_10,91.8445,20263.5,7869.8,84.701,63.3309,5.69946e+10,1.00924,0.908935,125,0.904676,159,0.01,2
app_11,429.995,23761,6791.6,407.4,6.56362,2.46459e+11,1.13668,0.908935,1014,35.2085,20,0.001,3
app_12,718.761,22433.3,7428.2,413.02,6.75802,2.43481e+11,1.0428,0.908935,1114,34.783,18,0.001,3
app_13,888.781,22630.3,6688.95,511.199,7.64718,3.06139e+11,1.14366,0.908935,898,43.7341,22,0.001,3
app_14,180.669,21931,7197.5,94.0108,7.03916,3.70621e+10,1.1058,0.908935,999,5.29459,20,0.001,3
app_15,389.269,22398.5,6873.2,660.875,6.7599,3.75925e+11,1.10358,0.908935,999,62.6542,19,0.001,3
app_16,1395,22535,7105.9,885.863,4.54656,5.08213e+11,1.05068,0.908935,1579,101.643,12,0.001,3
app_17,587.641,22586.6,7226.9,366.914,4.54394,2.06118e+11,1.07628,0.908935,1557,51.5295,13,0.001,3
app_18,206.118,22309.8,6704.62,671.211,4.52646,3.87602e+11,1.128,0.908935,1500,86.51,13,0.001,3
app_19,1218.21,22730.7,7017.8,566.639,5.60588,3.25511e+11,1.08943,0.908935,1275,65.1021,15,0.001,3
app_2,6.85176,19600.4,7636.67,306.191,763.688,2.60434e+11,1.01303,0.908935,10,0.341087,1869,0.1,1
app_20,719.43,23020.9,7134.9,143.574,4.7541,8.48925e+10,1.10807,0.908935,1485,16.9785,14,0.001,3
app_3,9.3193,19240.6,7628.8,281.734,847.821,2.44853e+11,1.01605,0.908935,9,0.288742,2039,0.1,1
app_4,0.591026,20127.2,7530.8,408.346,686.73,3.48798e+11,1.01528,0.908935,11,0.507711,1730,0.1,1
app_5,6.55153,19107.7,7436.5,522.876,825.506,4.90181e+11,1.00925,0.908935,9,0.59344,1970,0.1,1
app_6,54.5276,20487.9,7437.31,507.6,76.8611,3.67841e+11,1.02496,0.908935,97,4.77716,196,0.01,2
app_7,5.80617,20291.3,7660.3,289.977,76.8645,2.07746e+11,1.01677,0.908935,99,2.698,196,0.01,2
app_8,16.0751,20425.6,7420.6,516.544,82.3579,3.72198e+11,1.02659,0.908935,91,4.53478,209,0.01,2
app_9,27.6245,20475.2,7272,704.098,80.3114,5.06774e+11,1.02844,0.908935,90,6.25647,207,0.01,2
