app_id,start_app,end_app,effective_cpu,effective_io,effective_iter,total_bytes,stretch,utilization,Tcomp,Tio,iterations,priority,group_id
app_1,0.488928,28986.3,3992.81,346.24,570.996,3.23442e+11,1.85346,0.801045,7,0.566449,2494,1,1
app_10,42.5164,24049.4,6465.3,12.1953,71.0005,7.46646e+09,1.23595,0.801045,92,0.105161,216,1,1
app_11,145.17,21074,7493.04,219.465,8.12685,2.19369e+11,1.03729,0.801045,949,25.1999,21,1,1
app_12,167.987,20710.4,7555.1,303.92,7.50365,3.0365e+11,1.01797,0.801045,1017,43.3785,19,1,1
app_13,733.215,21787.7,7662.2,190.929,6.42224,1.90713e+11,1.01873,0.801045,1155,31.7854,17,1,1
app_14,349.656,21140.1,7247.4,660.061,9.57257,6.59672e+11,1.01175,0.801045,762,65.9672,25,1,1
app_15,229.82,20922.9,7464.4,387.019,7.09159,3.86627e+11,1.01898,0.801045,1086,55.2324,18,1,1
app_16,1347.95,22816.8,7474.9,407.609,5.51152,4.07481e+11,1.01492,0.801045,1305,81.4961,15,1,1
app_17,501.346,21693.2,7793.8,127.881,4.96964,1.2757e+11,1.00993,0.801045,1555,25.5141,13,1,1
app_18,1118.19,22893.9,7574.2,342.129,5.12935,3.41923e+11,1.0106,0.801045,1451,68.3845,14,1,1
app_19,1337.08,23960.6,7569.6,281.004,4.60847,2.80806e+11,1.01906,0.801045,1606,56.1613,13,1,1
app_2,3.8489,29152.9,4160.64,120.818,596,9.20161e+10,1.88118,0.801045,7,0.154389,2633,1,1
app_20,1247.23,22291.6,7647.58,350.229,4.97778,3.49861e+11,1.00032,0.801045,1521,77.504,13,1,1
app_3,9.13411,29587.8,4382.28,53.7842,438.999,4.19079e+10,1.80824,0.801045,10,0.0954621,1958,1,1
app_4,2.10604,28540.4,4099.95,310.866,456.004,2.75306e+11,1.82847,0.801045,9,0.603742,1950,1,1
app_5,5.06025,28785.1,4178.58,365.616,416.006,3.33233e+11,1.77312,0.801045,10,0.80104,1775,1,1
app_6,85.1583,23766.1,6067.03,521.022,62.4126,5.18042e+11,1.21487,0.801045,98,8.35552,187,1,1
app_7,82.2308,23847.7,6586.74,69.589,62.8816,6.64476e+10,1.20243,0.801045,104,1.05472,190,1,1
app_8,45.8051,24076.2,6296.29,190.012,64.2132,1.8681e+11,1.23398,0.801045,98,2.874,198,1,1
app_9,88.5249,23580,6455.4,196.574,64.9983,1.94558e+11,1.20302,0.801045,101,2.9932,191,1,1
