app_id,Tcomp,Tio,iter,witer,alpha_io,compute_size,io_size,mu,desyn_time
1,21.920092726747395,0.1428160429930453,907,22.06290876974044,0.006473128474742157,21e9,142816042.9930453,10,1.6926217026611348
2,16.26887800678218,0.05281007475274107,1226,16.321688081534923,0.0032355767668716968,16e9,52810074.75274107,10,7.211015295784662
3,6.617900185512216,0.010867270941861181,3018,6.628767456454077,0.001639410495729534,6e9,10867270.94186118,10,0.6375636561236091
4,17.2290914758813,0.03162659998219483,1159,17.260718075863497,0.0018322876164937685,17e9,31626599.98219483,10,10.749316152579606
5,30.163008241517343,0.19053420408415114,659,30.353542445601494,0.0062771653234748315,30e9,190534204.08415115,10,16.68618794767877
6,4.091732537833675,0.007717301958739964,4879,4.099449839792415,0.0018825213773394401,4e9,7717301.958739964,10,4.096980982764509
7,6.690922987748762,0.028569040212454058,2977,6.719492027961216,0.004251666657772981,6e9,28569040.21245406,10,3.289549431709473
8,6.98815848823862,0.02310589934756525,2853,7.011264387586185,0.0032955395874780403,6e9,23105899.34756525,10,6.270189601186489
9,19.96821445825168,0.052433139442764946,999,20.020647597694445,0.0026189532175174535,19e9,52433139.442764945,10,11.482673182183097
10,42.26895770068937,0.03901571698610326,473,42.30797341767547,0.0009221835468442275,42e9,39015716.98610326,10,21.755137194428602
11,2.584519560512574,0.012095208165003434,7703,2.5966147686775773,0.004658068001039434,2e9,12095208.165003434,10,0.8879359138417103
12,5.679753416864984,0.010962572641186661,3515,5.690715989506171,0.0019263960214148679,5e9,10962572.641186662,10,3.756043616675654
13,3.1402959928092242,0.018865015625575316,6331,3.1591610084347996,0.005971527115967398,3e9,18865015.625575315,10,0.27958009505977066
14,8.800341356255325,0.0077188483177864165,2271,8.808060204573112,0.0008763391868937067,8e9,7718848.317786416,10,1.9491721377314155
15,15.191982817366162,0.0787425281888886,1310,15.27072534555505,0.005156436672591241,15e9,78742528.18888861,10,7.3303867056408
16,30.16021155328875,0.1084146663277208,661,30.268626219616472,0.003581750474603948,30e9,108414666.3277208,10,18.12461366088901
17,14.780654043639274,0.025444073122752965,1351,14.806098116762026,0.0017184860536583677,14e9,25444073.122752964,10,0.8349575897381077
18,8.903485235277879,0.022234277575801847,2241,8.92571951285368,0.0024910347612629863,8e9,22234277.575801846,10,3.717001706776089
19,24.408756363912218,0.00850241107159122,820,24.41725877498381,0.00034821316962501076,24e9,8502411.07159122,10,2.8601506965360053
20,13.57276761849988,0.07254811137957581,1466,13.645315729879455,0.005316704487878986,13e9,72548111.37957582,10,1.279007136671848
21,84.57093483577873,0.1361582607630137,237,84.70709309654174,0.0016074009363989438,84e9,136158260.76301372,100,77.20136490613692
22,13.567016477132565,0.06351827031783228,1468,13.630534747450398,0.004659998414934779,13e9,63518270.317832276,100,5.175558097322869
23,179.80324631196652,0.5595668610724702,111,180.362813173039,0.0031024513935454376,179e9,559566861.0724702,100,177.14067961700724
24,20.962844591711555,0.058003933890934695,952,21.02084852560249,0.002759352640797939,20e9,58003933.8909347,100,15.825157101678927
25,97.85749647701334,0.35870464650575407,204,98.2162011235191,0.003652194265329386,97e9,358704646.50575405,100,21.290609663123075
26,179.7957669790257,1.0048680835842951,111,180.80063506260998,0.005557879170260196,179e9,1004868083.5842952,100,30.79454765762346
27,143.11661062884647,0.16898761993293065,140,143.2855982487794,0.001179376168981939,143e9,168987619.93293065,100,120.34268181362805
28,85.98819987703581,0.05321411208884979,233,86.04141398912466,0.000618470915593924,85e9,53214112.08884979,100,64.34471459066702
29,72.95787351702973,0.31438816862250973,273,73.27226168565224,0.0042906846518710835,72e9,314388168.6225097,100,60.86306490008806
30,46.90406650455248,0.09186033967692975,426,46.99592684422941,0.0019546447074318997,46e9,91860339.67692974,100,20.97986518092988
31,281.8267007764799,0.40466464335781416,71,282.23136541983774,0.001433804647317809,281e9,404664643.35781413,100,122.99011721583634
32,72.56904916500255,0.33764249141673547,275,72.90669165641928,0.004631159139793538,72e9,337642491.4167355,100,18.0146303546331
33,268.08633811729624,1.3985390333771293,75,269.48487715067336,0.0051896753842523916,268e9,1398539033.3771293,100,29.89399087574351
34,176.74522405452066,0.9388650390198544,113,177.6840890935405,0.005283900453943266,176e9,938865039.0198544,100,143.633019747965
35,149.68857041180837,0.4275047428083289,134,150.1160751546167,0.0028478278716520342,149e9,427504742.8083289,100,30.347978389658728
36,45.802303703008086,0.18012870459856437,435,45.98243240760665,0.0039173374518736105,45e9,180128704.59856436,100,35.290996514695
37,46.17837642462365,0.08626857862988387,433,46.264645003253534,0.0018646761176664617,46e9,86268578.62988387,100,28.70567947274982
38,23.542689682868335,0.15074623906927165,845,23.693435921937606,0.006362362958497574,23e9,150746239.06927165,100,23.198819588440788
39,200.65655688016832,0.10741348949595173,100,200.76397036966426,0.0005350237360726258,200e9,107413489.49595173,100,14.56609736862423
40,138.68601506433143,0.7927670693421781,144,139.4787821336736,0.005683782559718699,138e9,792767069.3421781,100,117.35772978172088
41,284.2485532743352,0.8418282414535454,71,285.09038151578875,0.0029528468725519724,284e9,841828241.4535455,1000,247.97757763949565
42,2259.857188475156,3.149504697098787,9,2263.0066931722545,0.001391734592125245,2259e9,3149504697.098787,1000,1151.922429053601
43,1438.7306717055449,7.958980263386917,14,1446.6896519689317,0.005501511849866913,1438e9,7958980263.386917,1000,441.71821016088415
44,2536.957784729939,8.161032939193321,8,2545.118817669132,0.0032065430040187077,2536e9,8161032939.193321,1000,929.4367367669387
45,53.68014151057143,0.015911722505348436,373,53.69605323307678,0.0002963294608689566,53e9,15911722.505348437,1000,35.900067605329376
46,1696.156767973547,9.811794180899756,12,1705.9685621544468,0.005751450758569995,1696e9,9811794180.899755,1000,1048.4103307120222
47,434.42782225398776,1.0182913221882477,46,435.446113576176,0.0023385013448055728,434e9,1018291322.1882477,1000,64.14169572967083
48,2014.3993620454567,2.0189923981961138,10,2016.4183544436528,0.001001276542512514,2014e9,2018992398.1961138,1000,1204.6219403933903
49,898.0021245082178,3.3676432117677826,23,901.3697677199856,0.0037361395205058124,898e9,3367643211.7677827,1000,408.6966270931058
50,1881.7838043735528,2.4748583889867444,11,1884.2586627625396,0.0013134387745673505,1881e9,2474858388.9867444,1000,1288.5922803012757
51,846.1288081873352,3.6907681146937588,24,849.819576302029,0.0043430019943222,846e9,3690768114.693759,1000,539.1497563029512
52,2290.247102062498,11.098913177225914,9,2301.346015239724,0.004822792011165594,2290e9,11098913177.225914,1000,522.5350226049459
53,1780.6611465403803,2.78681046742151,12,1783.4479570078017,0.0015625970225097625,1780e9,2786810467.4215097,1000,968.5509169797144
54,2101.140011664825,10.50522154907173,10,2111.645233213897,0.004974898900552019,2101e9,10505221549.07173,1000,1433.4808953525
55,1892.4107131638962,6.129486797820457,11,1898.5401999617166,0.0032285262107929324,1892e9,6129486797.8204565,1000,460.1150470460421
56,3074.5615685129947,16.103081736416822,7,3090.6646502494114,0.0052102326064774876,3074e9,16103081736.416822,1000,2994.9260580363
57,1346.9383310387866,4.971417801967936,15,1351.9097488407544,0.0036773296488399943,1346e9,4971417801.9679365,1000,389.633505152437
58,762.5138790282081,2.8945766592819036,27,765.40845568749,0.0037817411576437244,762e9,2894576659.2819037,1000,322.77209261149454
59,226.9713784457373,0.6337241496369277,88,227.6051025953742,0.0027843143339520517,226e9,633724149.6369277,1000,70.53208752351443
60,1102.2043433908113,7.232865827349258,19,1109.4372092181607,0.006519400798217667,1102e9,7232865827.349257,1000,18.956629742929124
