app_id,Tcomp,Tio,iter,witer,alpha_io,compute_size,io_size,mu,desyn_time
1,14.313942486181165,0.03575730708331793,1394,14.349699793264483,0.0024918505333541424,14e9,35757307.08331793,10,3.4090310087303206
2,19.030778566457258,0.10477836222565336,1046,19.13555692868291,0.005475584672876579,19e9,104778362.22565335,10,2.1491223265872357
3,25.81781186428539,0.1573693388704836,770,25.975181203155874,0.006058450088939665,25e9,157369338.8704836,10,18.784479308191756
4,16.845338807669624,0.11023463568213403,1180,16.955573443351756,0.0065013805667160605,16e9,110234635.68213403,10,1.7904944186661353
5,5.661923462940514,0.0012861791502236347,3532,5.663209642090738,0.00022711134347991473,5e9,1286179.1502236347,10,2.1166466215525137
6,22.132548429785356,0.019635392658609536,903,22.152183822443966,0.0008863863182064926,22e9,19635392.658609536,10,6.678504888502435
7,19.56496110972575,0.09193557652235358,1018,19.656896686248103,0.0046770137723047295,19e9,91935576.52235357,10,12.224967855826524
8,26.292011950276923,0.026419610123729953,760,26.31843156040065,0.00100384439943152,26e9,26419610.12372995,10,22.06950619524367
9,20.6721395354397,0.04980164131598452,966,20.721941176755685,0.002403328958961058,20e9,49801641.31598452,10,12.954250413027435
10,13.014441692908838,0.06869255738448132,1529,13.08313425029332,0.005250466445602762,13e9,68692557.38448133,10,9.795014398278804
11,7.531785451910267,0.04186869730975208,2641,7.573654149220019,0.005528202963171216,7e9,41868697.309752084,10,0.7758812743153082
12,16.896808311075265,0.07209865472190728,1179,16.96890696579717,0.004248868525664653,16e9,72098654.72190729,10,7.8242056045477435
13,25.68415445563644,0.16913539395098762,774,25.853289849587426,0.00654212268283863,25e9,169135393.9509876,10,13.157921692829708
14,8.803510488869573,0.04294484616314875,2261,8.846455335032722,0.004854469336784359,8e9,42944846.16314875,10,3.53995488060784
15,7.534612448196549,0.040426875987927734,2641,7.575039324184477,0.005336853613268874,7e9,40426875.987927735,10,0.5241793094438859
16,12.711080760748452,0.06713041700634632,1566,12.778211177754798,0.005253506619393772,12e9,67130417.00634633,10,11.226421436273192
17,2.7578991549501963,0.0010497793342385694,7250,2.758948934284435,0.00038049973350117177,2e9,1049779.3342385693,10,1.6908551836530201
18,13.78156646481069,0.04414171039644657,1447,13.825708175207136,0.0031927268995597213,13e9,44141710.39644657,10,3.3084735887967742
19,16.611812221153194,0.08347576263109396,1198,16.695287983784286,0.004999959432396247,16e9,83475762.63109396,10,14.47463621259745
20,14.342778301160358,0.04631129274598587,1390,14.389089593906343,0.0032185005481930075,14e9,46311292.745985866,10,8.447678964161371
21,54.64539551728719,0.014245868875097604,366,54.65964138616229,0.0002606286560581809,54e9,14245868.875097604,100,18.708336039628144
22,49.922032897403575,0.004923506074479098,401,49.92695640347805,9.861418418319832e-05,49e9,4923506.0744790975,100,40.083321815820845
23,92.85222419788698,0.0039050903973001697,216,92.85612928828428,4.205527871161088e-05,92e9,3905090.39730017,100,47.846417602311234
24,264.9427231541532,1.2538343953859659,76,266.1965575495392,0.004710182606898015,264e9,1253834395.3859658,100,127.57038258242886
25,97.78944001094908,0.36014415293490676,204,98.14958416388399,0.0036693395698300744,97e9,360144152.9349068,100,83.33872860966379
26,143.58600652914788,0.40723848573070953,139,143.9932450148786,0.002828177708535079,143e9,407238485.73070955,100,31.401683862771385
27,137.02217976094272,0.3091178747620438,146,137.33129763570477,0.002250891676433677,137e9,309117874.7620438,100,9.23194811618553
28,103.9884556533046,0.3386776973634166,192,104.32713335066802,0.003246305026181839,103e9,338677697.36341655,100,59.009159025100494
29,4.986322930783921,0.025285227476124647,3991,5.011608158260046,0.005045332092543982,4e9,25285227.476124648,100,1.280808785258864
30,39.10155998671509,0.06830636906566169,511,39.16986635578075,0.0017438499392679427,39e9,68306369.06566168,100,38.19358165234519
31,90.28449330777472,0.23736732526037826,221,90.5218606330351,0.002622209967851161,90e9,237367325.26037827,100,69.10296037331813
32,294.11996049912585,0.15944342376603762,68,294.2794039228919,0.0005418096599373823,294e9,159443423.7660376,100,188.02514444805735
33,172.73729723677508,0.3230657034834216,116,173.0603629402585,0.0018667804573768627,172e9,323065703.4834216,100,107.5697711022164
34,142.9875199014842,0.6889715358893165,140,143.67649143737353,0.004795297609209988,142e9,688971535.8893164,100,109.30653004816403
35,49.884348888326365,0.20437752398247847,400,50.088726412308844,0.004080309854559499,49e9,204377523.98247847,100,44.82878474816209
36,115.57580826933525,0.29319745951204557,173,115.8690057288473,0.0025304218126992154,115e9,293197459.51204556,100,15.679610559957842
37,68.61096175593387,0.0755195900643255,292,68.6864813459982,0.0010994825849923293,68e9,75519590.0643255,100,34.016965641327715
38,185.45262831966318,1.0872144028273236,108,186.5398427224905,0.005828322716261419,185e9,1087214402.8273237,100,18.264910518955475
39,212.19797035484217,0.5256066133839885,95,212.72357696822615,0.002470843245845272,212e9,525606613.3839885,100,178.1077870496159
40,86.70037576013837,0.1947922037361778,231,86.89516796387456,0.002241692010045483,86e9,194792203.7361778,100,59.94433674942078
41,366.2209708734663,1.9822516382782853,55,368.20322251174457,0.005383580362920527,366e9,1982251638.2782853,1000,244.49799671658917
42,2869.517768609422,13.419273010168293,7,2882.93704161959,0.004654722880326776,2869e9,13419273010.168293,1000,1846.3254491899534
43,1450.0747075272725,4.9914950844752495,14,1455.0662026117477,0.0034304247294836793,1450e9,4991495084.475249,1000,1060.8094523940713
44,1099.1173002370851,1.8940493893462806,19,1101.0113496264314,0.0017202814394137933,1099e9,1894049389.3462806,1000,827.4948766773862
45,869.3872435115557,4.435068422483277,23,873.8223119340389,0.005075480863686233,869e9,4435068422.483277,1000,59.12240067098484
46,865.594004183544,5.595218452841382,23,871.1892226363855,0.0064225065088720674,865e9,5595218452.841382,1000,98.6644471586128
47,1480.3421377018442,9.321922550831122,14,1489.6640602526754,0.006257734746752195,1480e9,9321922550.831121,1000,1201.1413802432137
48,515.1670747281794,2.7805945589437613,39,517.9476692871232,0.005368485512775509,515e9,2780594558.9437613,1000,400.0328942460273
49,1227.2411853406522,6.4156994100624765,17,1233.6568847507147,0.005200554132487899,1227e9,6415699410.062476,1000,812.0917119989302
50,1188.2104640376976,0.7042911894741142,17,1188.9147552271718,0.0005923815701484349,1188e9,704291189.4741142,1000,759.247209286705
51,1051.2373725484567,0.36062590474592293,20,1051.5979984532028,0.0003429313342896888,1051e9,360625904.7459229,1000,720.3337782147988
52,1107.962236768028,0.0029333466454966677,19,1107.9651701146736,2.647507994491441e-06,1107e9,2933346.645496668,1000,99.5385192697276
53,2355.48384113336,5.715728060614682,9,2361.1995691939746,0.00242068825320251,2355e9,5715728060.614681,1000,79.11837639383329
54,167.29409659412568,0.6364637398279521,120,167.93056033395362,0.003790041184655456,167e9,636463739.8279521,1000,59.38146365663723
55,1756.3187191265429,4.690609347547297,12,1761.0093284740901,0.002663591425498976,1756e9,4690609347.547297,1000,1331.1481923029598
56,916.2361912570004,1.4067701261040857,22,917.6429613831045,0.0015330255723683109,916e9,1406770126.1040857,1000,296.51868034725965
57,591.3106374520407,3.315659653351702,34,594.6262971053925,0.005576039387245649,591e9,3315659653.351702,1000,495.4130320358926
58,672.6603968443028,0.9243485938895512,30,673.5847454381924,0.0013722825526403918,672e9,924348593.8895512,1000,9.551762756562125
59,422.52951286682827,1.6718784316664614,48,424.20139129849474,0.003941237501717722,422e9,1671878431.6664615,1000,112.98641002605959
60,855.5761785573809,3.2184948539490894,24,858.79467341133,0.003747688421452927,855e9,3218494853.9490895,1000,25.05960431733165
