app_id,Tcomp,Tio,iter,witer,alpha_io,compute_size,io_size,mu,desyn_time
1,25.49030468838945,0.006478089033229757,785,25.49678277742268,0.00025407476267814006,25e9,6478089.033229757,10,1.0516722402975027
2,2.173317828275504,0.009798397288180771,9162,2.183116225563685,0.004488261858642366,2e9,9798397.28818077,10,1.6194670020433442
3,15.920050059517553,0.0007500855591374069,1257,15.92080014507669,4.7113559136621756e-05,15e9,750085.5591374069,10,5.1108861829054115
4,17.77686526316086,0.0385880463980548,1123,17.815453309558915,0.0021659873441081797,17e9,38588046.3980548,10,10.114703751452067
5,6.4047469392183025,0.019609083572470026,3114,6.424356022790772,0.003052303375296399,6e9,19609083.572470024,10,0.620003390789621
6,15.44375876150487,0.045441572868549364,1292,15.48920033437342,0.002933758482528375,15e9,45441572.86854936,10,9.351874448709685
7,9.165214641334822,0.004780178608630996,2182,9.169994819943453,0.0005212847665120571,9e9,4780178.608630996,10,5.2198399548497765
8,14.696029264910413,0.06098483486262006,1356,14.757014099773032,0.004132599891163486,14e9,60984834.86262006,10,4.9139377200578975
9,24.128432115515842,0.10850429100007915,826,24.236936406515923,0.004476815434928837,24e9,108504291.00007915,10,12.983755109619072
10,3.6234210667088784,0.0009551451541452442,5519,3.624376211863024,0.0002635336671228936,3e9,955145.1541452443,10,1.6612060560288477
11,27.869078364387367,0.15581082999879384,714,28.02488919438616,0.005559730456668684,27e9,155810829.99879384,10,10.85700261747273
12,19.94203899584077,0.06638063755585032,1000,20.00841963339662,0.00331763521418016,19e9,66380637.55585032,10,15.406781893228878
13,21.18612570901984,0.007168236252931893,944,21.19329394527277,0.00033823134201990294,21e9,7168236.252931893,10,21.12670340694916
14,7.534326502114069,0.039980258121242375,2641,7.574306760235311,0.005278404926921696,7e9,39980258.121242374,10,4.361292814175518
15,10.161869940161205,0.05782381453248361,1958,10.219693754693688,0.005658077034444047,10e9,57823814.53248361,10,5.138204051181187
16,34.48432542370221,0.07425135612377229,579,34.558576779825984,0.0021485652200560956,34e9,74251356.1237723,10,9.818896586563326
17,22.11827330245568,0.06160334346029183,902,22.17987664591597,0.0027774430148435917,22e9,61603343.46029183,10,14.18134682915838
18,16.40163517347212,0.0662835261712028,1215,16.46791869964332,0.004025009315393234,16e9,66283526.17120279,10,9.56023864193969
19,20.250634217752285,0.06737885413498736,985,20.318013071887272,0.00331621275646363,20e9,67378854.13498735,10,13.236840614374636
20,8.802695295918452,0.02185651507068912,2267,8.824551810989142,0.0024767847182302653,8e9,21856515.07068912,10,4.25846294488388
21,144.33235982024178,0.21627642202462444,139,144.5486362422664,0.0014962190418880245,144e9,216276422.02462444,100,122.48795661548583
22,44.44317847333038,0.18107735440651196,449,44.62425582773689,0.004057823509831184,44e9,181077354.40651196,100,27.497997653581262
23,103.47766176206646,0.13992721593435056,194,103.61758897800081,0.001350419531225135,103e9,139927215.93435055,100,41.83226096977306
24,80.72701844957245,0.1495926509533035,248,80.87661110052576,0.0018496404450894584,80e9,149592650.95330352,100,67.90165113424844
25,144.00772310878034,0.5136934897297978,139,144.52141659851014,0.003554445436670965,144e9,513693489.7297978,100,5.187470208474341
26,119.8355904308686,0.5356635539668632,167,120.37125398483548,0.0044500953195548395,119e9,535663553.96686316,100,12.411411774453379
27,196.05949058597486,0.41179022131342563,102,196.47128080728828,0.002095930863897284,196e9,411790221.31342566,100,54.181176820464756
28,21.13874121801898,0.07247065079174263,943,21.21121186881072,0.003416620004550732,21e9,72470650.79174262,100,8.682952375317768
29,25.190125064993882,0.14752241820581938,790,25.337647483199703,0.005822261845881118,25e9,147522418.20581937,100,8.577886959263619
30,157.85474197285166,0.6238136040999644,127,158.4785555769516,0.00393626507907603,157e9,623813604.0999645,100,148.02639554554884
31,315.7472742601665,1.4077391672460564,64,317.15501342741254,0.0044386470578944405,315e9,1407739167.2460563,100,31.20513743769531
32,3.4571302223167355,0.015011904561148726,5761,3.472142126877884,0.004323528246422125,3e9,15011904.561148725,100,0.2023044650819789
33,196.54440898439594,0.6716049978142582,102,197.2160139822102,0.0034054283131127482,196e9,671604997.8142582,100,125.33109689828086
34,118.20512163302054,0.6288241779943025,169,118.83394581101484,0.005291620788173947,118e9,628824177.9943025,100,27.341495558429685
35,166.06109212674153,0.6280989731553609,120,166.6891910998969,0.0037680845951129542,166e9,628098973.1553609,100,160.2996539866267
36,279.07058127439586,0.09761058127856034,72,279.1681918556744,0.00034964793313209364,279e9,97610581.27856034,100,140.76089252088792
37,242.5701567132137,0.7537196934694907,83,243.32387640668318,0.003097598577665882,242e9,753719693.4694908,100,191.07316594352847
38,90.2887876496223,0.21382071280421586,221,90.50260836242651,0.0023625917161188325,90e9,213820712.80421585,100,71.10176662047436
39,67.85887942035494,0.4145332080947891,293,68.27341262844973,0.0060716638019944515,67e9,414533208.0947891,100,2.8221876969358783
40,230.34843856834755,0.06670576381163272,87,230.41514433215917,0.0002895025151448891,230e9,66705763.81163272,100,13.397841759679455
41,548.7967841427977,1.4093674629326802,37,550.2061516057304,0.002561526182176553,548e9,1409367462.9326801,1000,108.86457727619565
42,903.3849630898512,5.270831051191716,23,908.655794141043,0.005800690520192258,903e9,5270831051.191716,1000,710.1647561651638
43,1247.6122261169578,3.7849507069494117,16,1251.397176823907,0.0030245798672454724,1247e9,3784950706.949412,1000,581.0119211533087
44,437.99270227196445,0.5789051893606898,46,438.57160746132513,0.001319978720719489,437e9,578905189.3606898,1000,62.16184878533962
45,436.5221796707429,1.946879547900643,46,438.46905921864357,0.004440175439904478,436e9,1946879547.900643,1000,155.64394238947276
46,1091.766171131004,4.704872139191946,19,1096.471043270196,0.004290922380548955,1091e9,4704872139.191946,1000,1065.2915053074457
47,1778.644957758251,4.181812597495747,12,1782.8267703557467,0.00234560792278282,1778e9,4181812597.495747,1000,1456.9874502017249
48,1363.7762587438835,2.868611154524645,15,1366.6448698984082,0.002099017248524767,1363e9,2868611154.5246453,1000,552.3873475605789
49,1080.5676351169952,6.702907905654944,19,1087.2705430226501,0.0061648942378413245,1080e9,6702907905.654943,1000,99.60869978370643
50,1281.1536452958665,7.42697452295254,16,1288.580619818819,0.005763686345055237,1281e9,7426974522.95254,1000,94.04054030432043
51,1440.8759309022269,7.3086528454506094,14,1448.1845837476774,0.005046768849407959,1440e9,7308652845.450609,1000,464.06269488165185
52,1101.1160984244173,3.60156898609018,19,1104.7176674105074,0.0032601714377686834,1101e9,3601568986.09018,1000,1001.0943000080796
53,3785.921456327172,23.500791386408157,6,3809.4222477135804,0.006169122207577109,3785e9,23500791386.408157,1000,3190.616732960423
54,452.40904883169344,2.478501196128482,44,454.88755002782193,0.005448601958828927,452e9,2478501196.128482,1000,83.27644968345729
55,1567.3074022005192,5.576295387109591,13,1572.8836975876288,0.0035452687288081725,1567e9,5576295387.109591,1000,96.36075499720751
56,1895.6984985592287,3.4494132858589643,11,1899.1479118450877,0.0018162952260562686,1895e9,3449413285.8589644,1000,994.9391110383041
57,770.3864492777886,4.021875264661407,26,774.40832454245,0.005193481445383073,770e9,4021875264.661407,1000,27.804132687762902
58,1603.7622953743114,4.269767699789154,13,1608.0320630741005,0.0026552752260589696,1603e9,4269767699.7891536,1000,714.0682509351417
59,2626.576189053797,13.015354470250754,8,2639.5915435240477,0.004930821400069461,2626e9,13015354470.250753,1000,1073.329471914405
60,399.16617863615187,0.5849369757091507,51,399.751115611861,0.0014632528912742202,399e9,584936975.7091507,1000,212.47200499795392
