app_id,Tcomp,Tio,iter,witer,alpha_io,compute_size,io_size,mu,desyn_time
1,9.528082445222173,0.04774796422843814,2089,9.575830409450612,0.004986300110465047,9e9,47747964.22843814,10,6.590522858449571
2,11.159848432091238,0.06303996292790533,1783,11.222888395019144,0.005617088997862907,11e9,63039962.92790533,10,2.9344110356255366
3,23.725873337296974,0.11823948507720448,839,23.84411282237418,0.004958854454264039,23e9,118239485.07720448,10,14.589394158116017
4,29.210499323254115,0.09719260867470138,683,29.307691931928815,0.0033162832781388828,29e9,97192608.67470138,10,4.467683945771292
5,7.585446875864401,0.013092821461296785,2633,7.598539697325697,0.0017230707455413831,7e9,13092821.461296786,10,4.404236770964811
6,7.937148991170333,0.028778296091866055,2511,7.965927287262199,0.003612673710678175,7e9,28778296.091866054,10,4.591112503727199
7,20.30036261426935,0.013193727251497147,985,20.313556341520847,0.0006495035645003828,20e9,13193727.251497146,10,6.647611002746155
8,11.503704960776323,0.04550514593940484,1732,11.549210106715728,0.003940108935497168,11e9,45505145.939404845,10,4.165510112475629
9,11.369360510525562,0.011423473076627947,1758,11.38078398360219,0.001003750979992878,11e9,11423473.076627947,10,0.458986844355514
10,4.21538581706316,0.007925021828274006,4736,4.223310838891433,0.0018764950368545985,4e9,7925021.828274006,10,3.4451769843749043
11,10.366717607549731,0.009486180957899843,1928,10.376203788507631,0.0009142246192587746,10e9,9486180.957899842,10,2.397876060891066
12,3.6221743327524,0.002541135261509446,5518,3.6247154680139095,0.0007010578579018259,3e9,2541135.261509446,10,1.0882433697276934
13,3.0287739163529714,0.011183691151011015,6580,3.0399576075039825,0.003678897075210732,3e9,11183691.151011014,10,0.18078822642320663
14,7.973653463380844,0.04911632700290467,2493,8.022769790383748,0.006122115963214659,7e9,49116327.00290467,10,6.825170832449894
15,14.88456152006348,0.07152550894624646,1338,14.956087029009726,0.004782367794966109,14e9,71525508.94624646,10,12.610323071864732
16,37.00770709379761,0.07260528879283722,540,37.08031238259045,0.0019580549387962025,37e9,72605288.79283722,10,13.751855232647516
17,16.583220771185793,0.07924359966532309,1201,16.662464370851115,0.0047558151004331506,16e9,79243599.6653231,10,13.95592794638965
18,17.556122936429254,0.02545730074751096,1138,17.581580237176766,0.0014479529373406807,17e9,25457300.747510962,10,0.11318413855355869
19,17.043000052084185,0.08647824612584556,1168,17.12947829821003,0.005048504374758584,17e9,86478246.12584557,10,15.016585821679262
20,11.230601068943917,0.0012070054887745607,1781,11.231808074432692,0.00010746315114857635,11e9,1207005.4887745606,10,5.329171043605566
21,26.67169029565355,0.07987282251808135,748,26.75156311817163,0.002985725438369837,26e9,79872822.51808135,100,4.110576573672763
22,121.6856224894814,0.4498473530207385,164,122.13546984250215,0.0036831835469322057,121e9,449847353.02073854,100,50.1165857780482
23,148.8592559344439,0.6083023711692827,134,149.46755830561318,0.004069795332613245,148e9,608302371.1692827,100,9.332999517491627
24,171.3315267777451,0.7285094976257775,117,172.06003627537086,0.004234042450507482,171e9,728509497.6257776,100,111.10951375756879
25,18.50669923159465,0.009309816881812828,1081,18.516009048476462,0.0005027982465032799,18e9,9309816.881812828,100,9.872725369341598
26,116.91579532449951,0.13904922234463415,171,117.05484454684415,0.001187898056530143,116e9,139049222.34463415,100,113.980851664808
27,74.33931704637203,0.21761233895609816,269,74.55692938532813,0.0029187406288076227,74e9,217612338.95609817,100,46.330000306445775
28,94.52710070201653,0.4795087444124371,211,95.00660944642897,0.005047109324355123,94e9,479508744.41243714,100,84.24098776155934
29,112.1156319135637,0.27931252017348923,178,112.3949444337372,0.0024850986099126445,112e9,279312520.1734892,100,23.800697388487293
30,249.1437010823923,0.9833836206246582,80,250.12708470301698,0.003931535930194276,249e9,983383620.6246582,100,169.17617318366848
31,144.42195837626605,0.5757550654045254,138,144.99771344167058,0.0039707872058005874,144e9,575755065.4045254,100,37.24186738405164
32,173.52594980917917,0.6320423831280155,115,174.15799219230718,0.00362913223316279,173e9,632042383.1280155,100,51.90949186999208
33,27.165891772796748,0.13680601044739257,733,27.30269778324414,0.005010714015643955,27e9,136806010.44739258,100,15.842053499938702
34,168.09905702755924,0.3549501647240171,119,168.45400719228326,0.002107104310785888,168e9,354950164.7240171,100,20.41450328589265
35,121.49706232535566,0.7383245348800221,164,122.23538686023568,0.006040186510999673,121e9,738324534.8800222,100,87.33475127224773
36,13.997912041985684,0.07266015297951083,1422,14.070572194965195,0.005163979969877164,13e9,72660152.97951083,100,0.28224648449290235
37,150.3898818637786,0.35519859543658894,133,150.7450804592152,0.0023562864828128812,150e9,355198595.43658894,100,62.29493124878956
38,51.08939678606366,0.10303307081023254,391,51.19242985687389,0.002012662245146344,51e9,103033070.81023254,100,15.403040555704232
39,104.28227719897404,0.12208322398494573,192,104.40436042295899,0.0011693307012309332,104e9,122083223.98494573,100,70.46169818553831
40,207.60808780049666,1.1043112107522652,96,208.71239901124892,0.0052910666351583,207e9,1104311210.7522652,100,181.4449410001415
41,1002.5002291545147,3.190365928538165,20,1005.6905950830529,0.003172313576497844,1002e9,3190365928.538165,1000,717.7562984120541
42,1020.4026703039177,1.4371253975919116,20,1021.8397957015096,0.0014064096971338855,1020e9,1437125397.5919116,1000,696.0078248855164
43,1311.5586179613515,3.4151044230606598,16,1314.9737223844122,0.002597089481657571,1311e9,3415104423.06066,1000,80.10644750831577
44,282.126880097971,0.7198110519958768,71,282.8466911499669,0.0025448805820190027,282e9,719811051.9958768,1000,140.13775464675325
45,1392.6320958804586,3.432931940214554,15,1396.065027820673,0.0024590057567544198,1392e9,3432931940.2145543,1000,930.8218177360407
46,1179.5203323939688,4.758641663888105,17,1184.2789740578569,0.004018176264316271,1179e9,4758641663.888105,1000,911.9064523839312
47,682.4257127354687,2.912969821274691,30,685.3386825567434,0.004250409170554164,682e9,2912969821.2746906,1000,448.31061693626475
48,1430.4372580548988,8.293566845313721,14,1438.7308249002126,0.00576450208876907,1430e9,8293566845.313722,1000,576.658760102234
49,1161.4966298167637,5.0421028586642,18,1166.538732675428,0.004322276421204001,1161e9,5042102858.6642,1000,900.5880668761744
50,233.64891730899419,0.5171724377023755,86,234.16608974669657,0.002208571011549171,233e9,517172437.70237553,1000,26.87854549181061
51,2899.9566215393816,13.156226324887006,7,2913.1128478642686,0.004516208953090305,2899e9,13156226324.887007,1000,372.68618476357585
52,3070.7428224490604,17.870872040764645,7,3088.613694489825,0.005786049602981037,3070e9,17870872040.764645,1000,982.9643893646713
53,1211.498329220534,1.54186518618352,17,1213.0401944067175,0.0012710750998136764,1211e9,1541865186.18352,1000,794.4856385224949
54,1648.3673141407937,3.849905051136983,13,1652.2172191919308,0.0023301446119898817,1648e9,3849905051.136983,1000,525.029388363913
55,1680.406071548639,3.2153167796995206,12,1683.6213883283385,0.001909762374123791,1680e9,3215316779.6995206,1000,716.8259015314169
56,867.3967588114091,3.718258870294014,23,871.1150176817031,0.004268390275476377,867e9,3718258870.294014,1000,42.190518992220916
57,560.2199610719217,3.020891886809922,36,563.2408529587317,0.005363410468081336,560e9,3020891886.809922,1000,448.0426777913871
58,625.5468633125159,1.3126751541734154,32,626.8595384666894,0.002094049900531536,625e9,1312675154.1734154,1000,244.61236099691556
59,268.2602486268604,1.3868603741354892,75,269.6471090009959,0.005143242140713503,268e9,1386860374.1354892,1000,77.00350615337264
60,983.9932858243733,5.517781891440951,21,989.5110677158142,0.005576271020574019,983e9,5517781891.44095,1000,816.3398657144755
