app_id,start_app,end_app,effective_cpu,effective_io,effective_iter,total_bytes,stretch,utilization,Tcomp,Tio,iterations,priority,group_id
app_1,10.2269,19552.8,7825.4,29.6993,342.296,5.55201e+09,1.02159,0.981956,23,0.016234,836,1,1
app_10,5.78264,20014.5,7811.6,34.5617,370.011,1.10273e+10,1.02267,0.981956,21,0.0298036,929,1,1
app_11,0.458356,21710,7267.5,220.271,2424.12,4.32026e+10,1.09429,0.981956,3,0.0178229,6600,1,1
app_12,4.83467,19791.4,7893.9,29.2344,330.152,6.32419e+09,1.01263,0.981956,24,0.0191642,813,1,1
app_13,2.46748,19990.4,7774.9,44.0764,517.498,1.05949e+09,1.02881,0.981956,15,0.0020493,1296,1,1
app_14,5.94031,20126.8,7805.2,34.6125,372.067,1.16714e+10,1.02343,0.981956,21,0.0313747,938,1,1
app_15,2.67266,19783.4,7852,35.9016,326.025,2.59425e+10,1.01549,0.981956,24,0.0795783,807,1,1
app_16,0.0305554,19506.2,7512.4,111.147,1249.95,2.04046e+10,1.06202,0.981956,6,0.0163236,3057,1,1
app_17,16.3214,19815.4,7854.8,46.6107,244.825,3.02116e+10,1.01458,0.981956,32,0.123313,606,1,1
app_18,17.0052,19699.3,7812.4,67.8174,355.143,4.34983e+10,1.01834,0.981956,22,0.122531,874,1,1
app_19,1.0323,17379.5,7074.9,307.182,3541.04,1.83658e+10,1.12783,0.981956,2,0.00518662,7734,1,1
app_2,9.63427,19554.2,7639.3,70.2862,765.07,2.05925e+10,1.0444,0.981956,10,0.0269182,1873,1,1
app_20,18.6042,19719.4,7819.4,69.368,354.515,4.85865e+10,1.01678,0.981956,22,0.13725,871,1,1
app_21,147.798,20251.8,7935,46.5076,51.0796,4.52257e+10,1.00248,0.981956,154,0.886779,129,1,1
app_22,122.802,20194.5,7964.2,16.8484,54.1404,1.46505e+10,1.00265,0.981956,147,0.266373,136,1,1
app_23,106.918,20130.3,7950,20.0916,68.5836,1.61333e+10,1.00425,0.981956,116,0.233816,172,1,1
app_24,78.3437,20150.6,7911.1,62.1303,77.7203,5.79565e+10,1.00388,0.981956,101,0.743033,196,1,1
app_25,94.5954,19946.4,7963,4.9495,53.6132,1.51063e+09,1.00446,0.981956,150,0.0279747,133,1,1
app_26,216.051,20318.7,7967.6,12.5257,32.2671,9.64908e+09,1.00285,0.981956,248,0.301534,81,1,1
app_27,24.21,20160.4,7889.1,49.6646,168.637,3.99872e+10,1.00894,0.981956,47,0.238019,423,1,1
app_28,46.9573,20080.4,7931.3,51.1938,56.3301,4.77664e+10,1.00262,0.981956,141,0.838008,141,1,1
app_29,83.2416,20098.9,7927.8,22.4758,79.2066,1.61532e+10,1.00706,0.981956,102,0.204471,196,1,1
app_3,4.50375,20646.3,7691.2,66.6522,642.192,3.59132e+10,1.03532,0.981956,12,0.0558525,1658,1,1
app_30,13.3988,19978.3,7984.1,7.92244,79.1488,4.07087e+09,1.00148,0.981956,100,0.05153,199,1,1
app_31,44.8815,20016.5,7933.3,26.7154,130.676,2.21763e+10,1.0056,0.981956,61,0.169284,325,1,1
app_32,53.1711,20190.8,7973.2,14.5455,29.6301,1.29164e+10,1.00174,0.981956,269,0.445394,75,1,1
app_33,7.90735,19710.1,7628.7,76.1305,762.856,3.78575e+10,1.04349,0.981956,10,0.0496166,1886,1,1
app_34,119.588,19873.8,7969.6,12.9878,62.745,1.04741e+10,1.0025,0.981956,129,0.166256,154,1,1
app_35,99.8705,20199.9,7938.2,20.2662,70.6917,1.47834e+10,1.00591,0.981956,112,0.208217,178,1,1
app_36,44.1694,20201.9,7991,4.26766,47.409,1.67527e+08,1.00111,0.981956,168,0.0035644,119,1,1
app_37,66.3042,20078.9,7902.1,61.0313,75.5743,5.83434e+10,1.00497,0.981956,104,0.767676,190,1,1
app_38,46.3553,20137.2,7900.8,38.7586,131.553,3.04388e+10,1.00867,0.981956,60,0.232357,330,1,1
app_39,16.6302,20015.8,7908.6,40.5409,100.887,3.48205e+10,1.00712,0.981956,78,0.344758,255,1,1
app_4,0.947834,20116.3,7605.5,79.5517,760.663,4.70021e+10,1.04541,0.981956,10,0.0617636,1923,1,1
app_40,24.9153,19728.8,7817.4,56.6414,301.28,3.51767e+10,1.01877,0.981956,26,0.116866,743,1,1
app_41,1731.89,21800.1,7946.5,53.1705,4.39398,5.30582e+10,1.00006,0.981956,1868,13.2645,11,1,1
app_42,421.537,20589.9,7997.1,2.31375,12.2613,1.64105e+09,1.00016,0.981956,662,0.136754,31,1,1
app_43,198.766,20290.4,7992.9,2.45579,23.4672,2.24436e+09,1.00061,0.981956,341,0.0935151,59,1,1
app_44,62.8028,20271.3,7935.6,8.81853,104.036,1.23752e+08,1.0081,0.981956,76,0.00118993,263,1,1
app_45,1176.6,22311,7988,10.6176,5.04877,1.04815e+10,1.00019,0.981956,1652,2.0963,13,1,1
app_46,46.2466,20085,7931.9,36.5501,92.1189,3.19272e+10,1.00454,0.981956,86,0.347035,231,1,1
app_47,291.505,21100.5,7998,1.80385,5.42482,1.71797e+09,1.00004,0.981956,1454,0.286328,14,1,1
app_48,115.345,21254.8,7954.2,45.5483,7.20837,4.50629e+10,1.00009,0.981956,1090,6.43756,19,1,1
app_49,210.578,21390.5,7944.8,55.2,6.04436,5.50223e+10,1.00002,0.981956,1316,9.17038,16,1,1
app_5,10.886,19604.7,7794.4,48.0133,458.404,2.95643e+10,1.0225,0.981956,17,0.0645508,1120,1,1
app_50,430.954,20484.8,7954.8,45.059,10.7769,4.43949e+10,1.0001,0.981956,739,4.0359,27,1,1
app_51,576.763,21278.4,7962,37.8942,8.9303,3.77596e+10,1.00003,0.981956,889,4.19551,23,1,1
app_52,438.919,21582.4,7940.5,59.3633,5.83777,5.90563e+10,1.00006,0.981956,1417,9.84272,15,1,1
app_53,321.042,21442.8,7973.8,25.8256,5.5387,2.55734e+10,1.00008,0.981956,1520,4.26223,14,1,1
app_54,828.025,21753.8,7977.2,22.8,6.51786,2.23757e+10,1.00005,0.981956,1237,3.72929,17,1,1
app_55,37.2804,20730.2,7948.8,51.1056,7.35768,5.08527e+10,1.00004,0.981956,1057,7.26468,19,1,1
app_56,680.486,21472.3,7965.3,25.675,7.97036,2.54395e+10,1.00116,0.981956,977,3.17994,21,1,1
app_57,552.06,21812.3,7951.1,48.815,3.76369,4.86086e+10,1.00004,0.981956,2058,12.1521,10,1,1
app_58,442.471,22129,7989.2,10.7804,3.07571,1.06853e+10,1.00001,0.981956,2705,3.56177,8,1,1
app_59,215.892,21518.3,7949.5,40.0619,3.85251,3.99066e+10,1.00133,0.981956,2119,9.97664,10,1,1
app_6,9.68171,19545.8,7725,60.3312,592.591,3.23487e+10,1.03128,0.981956,13,0.0545509,1446,1,1
app_60,47.5174,20219.4,7981.2,18.5814,11.1013,1.76614e+10,1.00014,0.981956,747,1.60558,27,1,1
app_7,5.7837,18338.2,7502.6,123.848,1248.98,6.10613e+10,1.05769,0.981956,6,0.0488882,2872,1,1
app_8,3.78323,20585,7618.4,69.5964,847.005,2.64551e+09,1.04972,0.981956,9,0.00312339,2186,1,1
app_9,16.5986,20096,7789.7,42.8925,435.425,2.03431e+10,1.02432,0.981956,18,0.0466585,1090,1,1
