app_id,start_app,end_app,effective_cpu,effective_io,effective_iter,total_bytes,stretch,utilization,Tcomp,Tio,iterations,priority,group_id
app_1,10.5224,19332.4,7963.8,32.773,319.029,2.16416e+10,1.00182,0.993257,25,0.0678421,768,0.1,1
app_10,3.0212,18863,7927.7,64.7765,607.963,5.07746e+10,1.0027,0.993257,13,0.0835108,1436,0.1,1
app_11,1.33391,18851.2,7934.5,57.361,610.638,1.238e+10,1.00668,0.993257,13,0.0202951,1437,0.1,1
app_12,4.96611,19684.1,7924,68.9272,659.852,4.92034e+10,1.00336,0.993257,12,0.0746637,1628,0.1,1
app_13,2.49934,16880.6,7734.4,235.401,2583.32,1.52364e+10,1.03231,0.993257,3,0.00589873,5444,0.1,1
app_14,0.307294,19894.5,7798.4,180.955,1953.42,2.11276e+10,1.02308,0.993257,4,0.0108125,4858,0.1,1
app_15,7.04677,19926.7,7967.7,28.2023,306.363,6.72739e+09,1.00321,0.993257,26,0.0219849,763,0.1,1
app_16,11.1286,19905.1,7917.5,77.7391,394.175,5.16233e+10,1.00387,0.993257,20,0.131024,982,0.1,1
app_17,19.8194,19905.7,7951.9,42.8866,361.507,3.49186e+10,1.00165,0.993257,22,0.0964603,899,0.1,1
app_18,30.8628,19670.2,7967.2,26.6265,234.513,1.73252e+10,1.00194,0.993257,34,0.0740392,574,0.01,2
app_19,2.30377,19204.9,7953.2,41.3969,418.997,1.94226e+10,1.00343,0.993257,19,0.0463547,1007,0.1,1
app_2,8.88179,19783.1,7968.8,27.3541,296.272,4.69542e+09,1.00332,0.993257,27,0.0158629,729,0.1,1
app_20,6.14544,19959.5,7968,28.6649,304.738,5.67792e+09,1.0033,0.993257,26,0.0186161,764,0.1,1
app_21,17.7308,20039.9,7950.9,48.211,32.4873,4.24262e+10,1.00083,0.993257,242,1.28564,82,0.01,2
app_22,86.0143,20062,7976.7,21.7331,42.5541,1.83097e+10,1.00062,0.993257,188,0.435946,106,0.01,2
app_23,17.0443,20032.7,7947.8,51.5406,48.3914,4.50406e+10,1.0009,0.993257,165,0.938345,121,0.01,2
app_24,118.13,20100.5,7992,6.38445,56.1877,3.99774e+09,1.0005,0.993257,143,0.0701358,140,0.01,2
app_25,2.198,18865.9,7917.95,73.4507,719.044,4.46864e+10,1.00469,0.993257,11,0.0621044,1696,0.1,1
app_26,86.3531,20064.1,7980.2,16.869,69.0487,1.30167e+10,1.00085,0.993257,117,0.188648,171,0.01,2
app_27,17.9222,19903.5,7970.3,26.3575,284.466,3.04736e+09,1.00334,0.993257,28,0.0106925,709,0.1,1
app_28,136.479,19950.5,7986.6,12.3155,56.8525,9.73786e+09,1.00046,0.993257,141,0.17084,141,0.01,2
app_29,38.299,20018.7,7960.3,37.3178,71.5473,3.20728e+10,1.00095,0.993257,110,0.451729,180,0.01,2
app_3,9.0984,18966.4,7936.6,55.2413,608.551,7.20958e+09,1.00707,0.993257,13,0.0118579,1445,0.1,1
app_30,80.819,20135.3,7940.3,57.2804,90.9316,4.81444e+10,1.00145,0.993257,87,0.529059,228,0.01,2
app_31,201.624,20402.6,7956.9,42.5322,36.8966,3.76111e+10,1.00069,0.993257,216,1.01652,93,0.01,2
app_32,105.964,19972.6,7953.7,44.732,61.4976,3.81512e+10,1.00102,0.993257,131,0.625429,152,0.01,2
app_33,124.656,20335.3,7984.3,11.3893,24.9053,7.04668e+09,1.00108,0.993257,326,0.281867,62,0.001,3
app_34,21.37,19986.3,7959.1,38.6059,116.847,3.13091e+10,1.0012,0.993257,68,0.267599,292,0.01,2
app_35,30.3268,19573.7,7942.1,52.6577,255.779,3.33074e+10,1.00308,0.993257,31,0.130107,624,0.01,2
app_36,35.437,20033,7946.11,49.523,164.849,3.50048e+10,1.00237,0.993257,48,0.213066,413,0.01,2
app_37,15.7266,19976.8,7937.5,57.8129,128.411,4.94834e+10,1.00163,0.993257,62,0.386589,320,0.01,2
app_38,39.4776,19808.6,7968,27.8393,134.187,1.83342e+10,1.00171,0.993257,60,0.136822,330,0.01,2
app_39,72.3677,20017.2,7947.8,51.169,33.5615,4.62377e+10,1.00075,0.993257,236,1.35993,84,0.01,2
app_4,7.1517,18371.6,7882.1,106.559,1123.33,2.69202e+10,1.0115,0.993257,7,0.0239504,2582,0.1,1
app_40,19.8708,20065.3,7958.8,40.7411,39.2683,3.51065e+10,1.00076,0.993257,202,0.900167,99,0.01,2
app_41,23.2831,20680.4,7972.2,27.8,6.35038,2.3152e+10,1.00058,0.993257,1280,3.85866,16,0.001,3
app_42,803.895,22002.2,7956.5,43.5,4.57463,3.64365e+10,1.00088,0.993257,1727,9.10913,12,0.001,3
app_43,1655.86,23407.4,7992,8,4.88638,6.11554e+09,1.00024,0.993257,1659,1.22311,13,0.001,3
app_44,68.7636,20259.4,7980.2,12.9316,17.9972,9.03085e+09,1.00135,0.993257,444,0.501714,45,0.001,3
app_45,276.194,19880.3,7964.8,35.2,4.53311,3.0377e+10,1.0006,0.993257,1835,7.59424,11,0.001,3
app_46,1948.68,23205.5,7962.2,37.8,3.54958,3.03841e+10,1.00093,0.993257,2312,7.59602,9,0.001,3
app_47,600.536,21692.3,7980.7,19.3,4.27368,1.77737e+10,1.00019,0.993257,1869,3.55473,11,0.001,3
app_48,988.363,21955.1,7962.4,37.6,5.28564,3.23447e+10,1.00066,0.993257,1512,6.46893,14,0.001,3
app_49,553.622,20848.7,7955.8,44.2,4.0224,3.68688e+10,1.00092,0.993257,2015,9.2172,10,0.001,3
app_5,10.0059,19824.2,7941.8,51.8874,529.263,2.06856e+10,1.00471,0.993257,15,0.0391032,1311,0.1,1
app_50,67.1119,20534.2,7990.5,9.3116,13.8358,7.16107e+09,1.00029,0.993257,563,0.511505,36,0.001,3
app_51,565.673,20703.2,7967.1,32.9,6.06223,2.86124e+10,1.00054,0.993257,1351,4.76873,15,0.001,3
app_52,383.203,20462.9,7961.2,38.8,2.69808,3.41925e+10,1.00058,0.993257,2841,17.0962,7,0.001,3
app_53,1558.91,22308.2,7975.6,24.4,4.45692,2.14186e+10,1.00037,0.993257,1901,5.35465,11,0.001,3
app_54,1446,22878.5,7969.6,30.2777,5.0214,2.73544e+10,1.00038,0.993257,1481,5.47087,14,0.001,3
app_55,386.471,20744.6,7939.1,60.9,8.03475,5.16676e+10,1.00116,0.993257,1026,6.45845,20,0.001,3
app_56,147.505,20300.8,7973.9,25.96,25.7454,2.24567e+10,1.00046,0.993257,308,0.863719,65,0.01,2
app_57,435.816,20233.1,7984.9,15.1,6.86772,1.20093e+10,1.00039,0.993257,1174,1.71562,17,0.001,3
app_58,1.18532,20274.4,7980,20,10.3086,1.70955e+10,1.00036,0.993257,780,1.55413,26,0.001,3
app_59,230.215,20922.7,7971.3,28.7,11.7191,2.52364e+10,1.00043,0.993257,684,2.10303,30,0.001,3
app_6,1.06885,19067,7832.4,150.21,1566.72,4.71664e+10,1.01528,0.993257,5,0.0300998,3732,0.1,1
app_60,258.176,20749.8,7947.4,52.6,8.70259,4.62086e+10,1.0008,0.993257,930,5.13428,22,0.001,3
app_7,3.75119,18492.2,7914.7,76.9414,791.996,2.98221e+10,1.00698,0.993257,10,0.0376542,1829,0.1,1
app_8,6.67343,18594.3,7916,75.0237,718.957,5.05303e+10,1.0042,0.993257,11,0.0702786,1670,0.1,1
app_9,1.76098,17813.6,7797.7,178.755,1949.78,1.17946e+10,1.02439,0.993257,4,0.00604852,4338,0.1,1
