app_id,start_app,end_app,effective_cpu,effective_io,effective_iter,total_bytes,stretch,utilization,Tcomp,Tio,iterations,priority,group_id
app_1,9.78182,19976.2,7936.9,63.1,526.99,3.45592e+10,1.00358,0.99223,15,0.0655773,1319,1,1
app_10,1.34275,19120.2,7804.4,195.6,1953.98,3.94996e+10,1.0199,0.99223,4,0.0202147,4667,1.00001,1.00001
app_11,9.39987,19137.2,7900.2,99.8,465.53,4.77452e+10,1.00655,0.99223,17,0.102458,1112,1.00001,1.00001
app_12,2.14399,18421.6,7887.1,112.9,1129.78,2.2166e+10,1.01147,0.99223,7,0.0196333,2597,1.00001,1.00001
app_13,20.0771,19996.3,7965.4,34.6,346.801,3.82709e+09,1.00386,0.99223,23,0.0110609,865,1.00001,1.00001
app_14,1.8951,19837.3,7938.8,61.2,611.762,1.75759e+09,1.00749,0.99223,13,0.00287189,1513,1.00001,1.00001
app_15,4.11609,17121.6,7843.5,156.5,1565.24,1.6293e+10,1.01784,0.99223,5,0.0104109,3352,1.00002,1.00002
app_16,7.30074,19207.7,7952,48,468.258,1.59106e+10,1.00403,0.99223,17,0.0339245,1124,1.00002,1.00002
app_17,9.85139,19040.1,7950.5,49.5,495.061,1.14417e+10,1.00478,0.99223,16,0.0231146,1181,1.00002,1.00002
app_18,27.9213,19721.5,7972.7,27.3,273.544,6.68133e+09,1.00258,0.99223,29,0.0244737,676,1.00002,1.00002
app_19,3.92072,20038.5,7868.5,131.5,1313.22,2.91815e+10,1.01296,0.99223,6,0.022225,3282,1.00002,1.00002
app_2,6.80141,20058.7,7936.2,63.8,609.954,2.8328e+10,1.00445,0.99223,13,0.0464394,1530,1,1
app_20,1.7971,20129,7887.6,112.4,1123.54,5.28229e+08,1.01418,0.99223,7,0.000469955,2834,1.00002,1.00002
app_21,131.612,20208.7,7965.9,34.1,54.0202,2.58435e+10,1.00103,0.99223,148,0.478584,135,1.00002,1.00002
app_22,6.57172,18656.1,7920.7,79.3,792.486,6.95331e+09,1.00913,0.99223,10,0.00876836,1847,1.00002,1.00002
app_23,34.7967,19936.4,7934.7,65.3,92.3504,4.81e+10,1.00215,0.99223,86,0.522826,229,1.00002,1.00002
app_24,61.2855,20275.9,7944.7,55.3,40.1549,4.20336e+10,1.00166,0.99223,196,1.05084,102,1.00002,1.00002
app_25,98.8344,20068.6,7962.4,37.6,43.5124,2.58779e+10,1.00147,0.99223,182,0.601812,109,1.00003,1.00003
app_26,88.3063,20006.7,7962.2,37.8,81.2203,2.78026e+10,1.00125,0.99223,99,0.339056,201,1.00003,1.00003
app_27,54.1881,19878.5,7949,51,36.058,4.01495e+10,1.00136,0.99223,222,1.11526,90,1.00003,1.00003
app_28,3.89357,19464.4,7943,57,565.998,1.57949e+10,1.00518,0.99223,14,0.0279062,1379,1.00003,1.00003
app_29,69.1804,20022.1,7967.7,32.3,88.6478,2.35881e+10,1.00109,0.99223,89,0.265035,223,1.00003,1.00003
app_3,3.95808,20020,7922.2,77.8,317.288,4.95652e+10,1.00354,0.99223,25,0.156357,792,1,1
app_30,12.2225,19749.2,7958.6,41.4,177.85,2.71077e+10,1.00179,0.99223,45,0.15229,437,1.00003,1.00003
app_31,137.126,19976.8,7970,30,39.3979,1.89143e+10,1.00139,0.99223,204,0.472856,98,1.00003,1.00003
app_32,15.001,20094.7,7977.1,22.9,47.8563,1.73927e+10,1.00069,0.99223,166,0.362348,121,1.00003,1.00003
app_33,23.1683,19624,7976.7,23.3,227.521,7.90165e+09,1.00193,0.99223,35,0.034809,559,1.00003,1.00003
app_34,68.9178,20207.8,7940.4,59.6,50.8165,4.91815e+10,1.0013,0.99223,157,0.964343,127,1.00003,1.00003
app_35,22.586,19774.9,7932,68,203.599,4.29031e+10,1.00315,0.99223,39,0.210309,502,1.00004,1.00004
app_36,19.1467,19940.8,7962.6,37.4,55.892,2.74989e+10,1.00124,0.99223,144,0.491052,138,1.00004,1.00004
app_37,1.04974,19686.4,7974.2,25.8,249.704,8.76052e+09,1.00213,0.99223,32,0.0350421,613,1.00004,1.00004
app_38,35.5439,20005.7,7967.1,32.9,139.219,2.1323e+10,1.00145,0.99223,57,0.153403,350,1.00004,1.00004
app_39,83.6729,19896.3,7960.5,39.5,78.6517,3.07103e+10,1.0011,0.99223,102,0.393722,195,1.00004,1.00004
app_4,9.30956,19354.5,7914.9,85.1,718.31,4.99471e+10,1.00441,0.99223,11,0.0694674,1739,1,1
app_40,36.8992,20016.2,7941.7,58.3,74.0931,4.25051e+10,1.00198,0.99223,106,0.566735,187,1.00004,1.00004
app_41,784.078,21838.4,7982.3,17.7,3.74316,1.44004e+10,1.00041,0.99223,2034,3.60011,10,1.00004,1.00004
app_42,633.437,21377.8,7972.2,27.8,5.76769,2.41435e+10,1.00046,0.99223,1353,4.02392,15,1.00004,1.00004
app_43,560.912,20775.4,7962.7,37.3,9.35506,3.16026e+10,1.00071,0.99223,834,3.16026,24,1.00004,1.00004
app_44,452.809,21129.2,7952.2,47.8,7.99039,3.79977e+10,1.00123,0.99223,989,4.74971,21,1.00004,1.00004
app_45,337.702,20429.2,7957.8,42.2,20.2286,3.71461e+10,1.00063,0.99223,390,1.85731,51,1.00004,1.00004
app_46,264.829,20844.7,7996.9,3.1,7.3175,1.90018e+09,1.00015,0.99223,1085,0.271455,19,1.00005,1.00005
app_47,1097.83,22504,7966.3,33.7,7.16811,2.64839e+10,1.0009,0.99223,1104,3.78342,19,1.00005,1.00005
app_48,1212.75,22412.1,7936.6,63.4,6.33509,4.5678e+10,1.00222,0.99223,1236,6.52543,17,1.00005,1.00005
app_49,283.036,20953.4,7997.6,2.4,3.75371,1.9599e+09,1.00006,0.99223,2093,0.489975,10,1.00005,1.00005
app_5,1.05583,17722.8,7804.7,195.3,1952.64,3.54537e+10,1.02039,0.99223,4,0.0181535,4327,1.00001,1.00001
app_50,72.0654,19937.9,7962.1,37.9,76.5265,2.5441e+10,1.00156,0.99223,105,0.330403,190,1.00005,1.00005
app_51,217.901,20373.4,7946.1,53.9,17.9993,4.5791e+10,1.00101,0.99223,433,2.54394,46,1.00005,1.00005
app_52,960.809,22052.1,7947.5,52.5,6.47998,4.22147e+10,1.00129,0.99223,1208,7.03579,17,1.00005,1.00005
app_53,1359.58,21944.5,7962.7,37.3,4.64782,3.13598e+10,1.00074,0.99223,1683,6.27195,12,1.00005,1.00005
app_54,20.4936,19959.6,7950.9,49.1,45.9393,3.71614e+10,1.00149,0.99223,176,0.807856,113,1.00005,1.00005
app_55,143.371,20480.1,7998.1,1.9,18.4524,1.40324e+09,1.00006,0.99223,434,0.0738546,46,1.00005,1.00005
app_56,103.091,20140.4,7971.1,28.9,33.7194,2.19585e+10,1.00087,0.99223,238,0.64584,84,1.00006,1.00006
app_57,11.1467,19879.7,7936.4,63.6,4.49728,3.67817e+10,1.00336,0.99223,1820,9.19543,11,1.00006,1.00006
app_58,357.531,20408.2,7946.8,53.2,5.1533,3.74395e+10,1.00197,0.99223,1551,7.48789,13,1.00006,1.00006
app_59,720.387,20830.7,7946.3,53.7,6.97096,4.33081e+10,1.0013,0.99223,1113,6.18687,18,1.00006,1.00006
app_6,1.83924,16405.2,7742.2,257.8,2577.65,4.19564e+09,1.03274,0.99223,3,0.00162748,5291,1.00001,1.00001
app_60,1245.73,21329,7973.5,26.5,5.48824,1.88635e+10,1.00096,0.99223,1462,3.77271,14,1.00006,1.00006
app_7,4.34438,20078.2,7918.6,81.4,375.999,3.8161e+10,1.00543,0.99223,21,0.101492,947,1.00001,1.00001
app_8,2.71021,17406.8,7805.1,194.9,1947.59,4.10729e+10,1.01961,0.99223,4,0.0210955,4243,1.00001,1.00001
app_9,5.72339,19654,7941.7,58.3,494.901,3.12449e+10,1.00339,0.99223,16,0.0631211,1218,1.00001,1.00001
