app_id,start_app,end_app,effective_cpu,effective_io,effective_iter,total_bytes,stretch,utilization,Tcomp,Tio,iterations,priority,group_id
app_1,17.5,19728.1,7932.6,58.5453,241.547,4.4211e+10,1.00291,0.990632,33,0.18269,593,0.01,2
app_10,7.32721,19413.8,7939.8,49.4233,567.068,3.86902e+09,1.00709,0.990632,14,0.00682368,1375,0.1,1
app_11,19.5377,19648.9,7938.6,56.8716,281.668,4.33245e+10,1.00226,0.990632,28,0.153633,695,0.1,1
app_12,0.78815,19464.3,7794.06,179.279,1947.97,2.13827e+10,1.02361,0.990632,4,0.0109802,4743,0.1,1
app_13,2.03775,19518,7887,98.9249,986.18,4.90326e+10,1.00806,0.990632,8,0.0497288,2405,0.1,1
app_14,1.73411,20109.3,7836.7,141.205,1571.28,2.13259e+09,1.02056,0.990632,5,0.00135747,3944,0.1,1
app_15,5.39383,18793.7,7902.3,85.3019,881.377,2.8659e+10,1.00871,0.990632,9,0.0325301,2066,0.1,1
app_16,8.88431,19978.2,7939.3,54.0501,493.89,4.35762e+10,1.00215,0.990632,16,0.088211,1236,0.1,1
app_17,1.08616,15572.9,7272.7,710.34,7272.83,1.11865e+09,1.09983,0.990632,1,0.000153809,14153,1,0
app_18,1.04519,18510.3,7729.9,235.086,2569.35,2.53061e+10,1.03157,0.990632,3,0.00985057,5959,0.1,1
app_19,8.60225,19951.6,7899.6,85.7838,878.076,3.56923e+10,1.00815,0.990632,9,0.0406518,2187,0.1,1
app_2,3.04203,19717,7794.4,180.139,1949.09,3.03036e+10,1.0224,0.990632,4,0.0155483,4799,0.1,1
app_20,4.38897,20025.8,7966.1,26.2705,233.754,1.68288e+10,1.00214,0.990632,34,0.0719181,586,0.01,2
app_21,17.3147,20003.5,7915,79.4237,416.777,4.46444e+10,1.00507,0.990632,19,0.107318,1040,0.1,1
app_22,145.502,20320.5,7966.7,27.0889,36.1505,2.29506e+10,1.0013,0.990632,217,0.620287,92,0.01,2
app_23,9.42777,19514.5,7922.1,69.7304,718.711,2.07502e+10,1.0072,0.990632,11,0.0288597,1751,0.1,1
app_24,110.584,20107.3,7962.3,35.6297,49.0552,2.96475e+10,1.00101,0.990632,164,0.605051,122,0.01,2
app_25,79.8931,20139.1,7987.6,9.50852,91.8094,4.5131e+09,1.00099,0.990632,87,0.0490555,230,0.01,2
app_26,26.6358,20167.2,7947.9,45.5745,96.941,3.76938e+10,1.0018,0.990632,82,0.388596,243,0.01,2
app_27,235.239,20492.3,7951.3,48.6904,25.9929,4.35746e+10,1.00064,0.990632,304,1.67595,66,0.01,2
app_28,42.2426,20200.9,7963.4,34.3829,75.5892,2.80295e+10,1.00107,0.990632,105,0.368809,190,0.01,2
app_29,247.754,20201.4,7996.4,2.81849,27.8028,1.43159e+09,1.00027,0.990632,287,0.0511283,70,0.01,2
app_3,0.133175,14222.4,7614.9,367.283,3815.37,3.9219e+10,1.04519,0.990632,2,0.0102802,6778,1,0
app_30,13.6435,19942.3,7951.8,36.646,168.571,2.68656e+10,1.00267,0.990632,47,0.159914,421,0.01,2
app_31,131.657,19926.7,7941.5,56.82,21.103,4.35858e+10,1.00187,0.990632,382,2.07551,52,0.001,3
app_32,49.9836,20245.9,7951.2,47.5076,46.6145,4.12792e+10,1.00094,0.990632,170,0.878281,118,0.01,2
app_33,31.4353,20042.7,7952.7,47.1374,35.9009,4.11723e+10,1.00077,0.990632,221,1.14367,90,0.01,2
app_34,81.7887,20079.1,7986.1,11.4386,58.0403,6.10228e+09,1.00098,0.990632,137,0.105212,146,0.01,2
app_35,203.411,20316.1,7951.6,45.3768,34.3795,3.94639e+10,1.00112,0.990632,233,1.12754,86,0.01,2
app_36,78.7497,20231.7,7948,49.9938,40.6366,4.37511e+10,1.00103,0.990632,195,1.0671,102,0.01,2
app_37,191.711,20045.4,7986.6,13.4,20.6078,1.0632e+10,1.00035,0.990632,384,0.506283,52,0.001,3
app_38,41.2899,20075.4,7956.9,40.8826,63.4894,3.4148e+10,1.00112,0.990632,124,0.538346,160,0.01,2
app_39,4.23282,20109.3,7975.4,20.633,65.7918,1.51604e+10,1.00118,0.990632,120,0.229703,167,0.01,2
app_4,6.03791,19150.8,7872.15,111.368,1129.38,4.69045e+10,1.01022,0.990632,7,0.0415084,2697,0.1,1
app_40,190.249,20376.3,7983.9,14.9331,36.1151,1.12625e+10,1.00061,0.990632,221,0.312847,91,0.01,2
app_41,1002.14,21132.9,7976.4,23.6,6.79189,2.02466e+10,1.00042,0.990632,1189,2.89237,17,0.001,3
app_42,552.663,21873.2,7985.6,11.9539,8.54697,9.12501e+09,1.00066,0.990632,907,1.01389,23,0.001,3
app_43,1160.95,21911.6,7983,17,2.35455,1.40727e+10,1.00037,0.990632,3493,7.03633,6,0.0001,4
app_44,373.454,20680.6,7964.9,35.1,8.02397,2.91119e+10,1.00075,0.990632,958,3.63899,21,0.001,3
app_45,920.572,21703.4,7958.4,41.6,6.07319,3.58073e+10,1.00072,0.990632,1296,5.96788,16,0.001,3
app_46,1855.34,22833.6,7958.8,32.269,3.48078,2.85102e+10,1.00159,0.990632,2358,7.12755,9,0.001,3
app_47,154.331,20338.1,7973.6,26.2655,30.8398,2.21798e+10,1.00053,0.990632,262,0.715477,77,0.01,2
app_48,852.46,21293.4,7981.1,17.478,8.68153,1.37807e+10,1.00064,0.990632,902,1.72259,23,0.001,3
app_49,230.613,20063.5,7959.1,39.874,31.9356,3.51635e+10,1.00072,0.990632,252,1.09886,79,0.01,2
app_5,3.61942,19436.2,7933.7,58.6126,495.694,4.68171e+10,1.00244,0.990632,16,0.0943894,1202,0.1,1
app_50,584.052,21403.4,7980.8,14.5731,7.32391,1.23599e+10,1.00086,0.990632,1074,1.54498,19,0.001,3
app_51,821.776,20703.1,7970.6,28.2587,3.24603,2.41333e+10,1.00066,0.990632,2560,8.04442,8,0.001,3
app_52,184.165,20265.9,7977.5,22.2327,42.1192,1.84858e+10,1.0005,0.990632,190,0.440138,105,0.01,2
app_53,13.7222,20131.9,7968.8,30.966,37.5952,2.56668e+10,1.00069,0.990632,211,0.693696,95,0.01,2
app_54,427.975,20884.3,7956.1,43.3475,13.134,3.69835e+10,1.00087,0.990632,598,2.84488,34,0.001,3
app_55,785.955,21346.8,7991.6,8.4,3.47688,6.79728e+09,1.0002,0.990632,2321,2.26576,9,0.001,3
app_56,936.64,21459.6,7962,32.6436,7.98854,2.7526e+10,1.00131,0.990632,1037,3.44075,20,0.001,3
app_57,660.444,21465.9,7955.7,44.2604,6.49778,3.7615e+10,1.00084,0.990632,1197,6.26917,17,0.001,3
app_58,63.8522,20393.4,7998.4,1.6,12.978,1.26088e+09,1.00004,0.990632,597,0.0969907,34,0.001,3
app_59,507.6,20419.7,7973.5,26.5,9.3803,2.04394e+10,1.00076,0.990632,872,2.27105,23,0.001,3
app_6,9.62458,18908.7,7929.6,61.2029,565.313,4.62891e+10,1.00302,0.990632,14,0.0819276,1335,0.1,1
app_60,736.363,21684.4,7974.7,25.3,9.06454,2.17352e+10,1.00045,0.990632,860,2.41502,24,0.001,3
app_7,4.43472,18122.4,7788.66,185.297,1951.54,5.40397e+10,1.02006,0.990632,4,0.0276927,4414,0.1,1
app_8,21.9048,20005.4,7959.6,34.6894,329.816,2.32853e+10,1.00214,0.990632,24,0.0705616,827,0.1,1
app_9,5.84015,18597.2,7922.8,68.1013,662.208,4.12451e+10,1.00451,0.990632,12,0.0623038,1537,0.1,1
