app_id,start_app,end_app,effective_cpu,effective_io,effective_iter,total_bytes,stretch,utilization,Tcomp,Tio,iterations,priority,group_id
app_1,1.63816,17240,7736.7,233.938,2573.67,1.91156e+08,1.03401,0.991063,3,7.4264e-05,5552,0.1,1
app_10,9.72572,19784.9,7941.5,51.1143,496.033,3.16543e+10,1.00337,0.991063,16,0.0638192,1225,0.1,1
app_11,0.0989899,19331.3,7962.9,33.7181,319.996,2.4456e+10,1.00158,0.991063,25,0.0764251,770,0.1,1
app_12,2.72954,19092.5,7917,74.2252,718.779,4.53305e+10,1.00473,0.991063,11,0.0630466,1716,0.1,1
app_13,6.43309,18472.4,7879.4,106.66,1125.29,2.62354e+10,1.01194,0.991063,7,0.0233204,2600,0.1,1
app_14,8.44849,19054.3,7946.3,46.6449,467.307,2.19445e+10,1.00399,0.991063,17,0.04689,1111,0.1,1
app_15,3.83049,19109.2,7858.4,126.581,1308.37,3.89472e+10,1.013,0.991063,6,0.0297762,3130,0.1,1
app_16,10.3666,19664.3,7928.9,62.0642,661.786,1.46531e+10,1.00711,0.991063,12,0.0221346,1624,0.1,1
app_17,7.43953,19650.2,7929.1,63.0093,660.971,1.71423e+10,1.00677,0.991063,12,0.0259338,1621,0.1,1
app_18,3.40441,18613,7908.1,82.1388,789.329,5.16712e+10,1.00505,0.991063,10,0.0654066,1836,0.1,1
app_19,2.3334,14640.7,7613.1,368.656,3805.38,6.40304e+10,1.04206,0.991063,2,0.0168235,6965,1,0
app_2,3.30938,19978.9,7858.1,124.798,1312.08,2.91751e+10,1.01429,0.991063,6,0.0222372,3276,0.1,1
app_20,9.18795,19508,7943,50.2328,397.277,3.72831e+10,1.00247,0.991063,20,0.0939121,968,0.1,1
app_21,7.2331,19955.5,7942.8,54.5986,262.687,4.69843e+10,1.00128,0.991063,30,0.179329,657,0.1,1
app_22,278.996,20286.7,7946.3,47.8028,19.9361,3.7806e+10,1.00199,0.991063,398,1.8903,50,0.001,3
app_23,14.7865,19548.8,7958.9,35.9082,397.131,1.26439e+09,1.005,0.991063,20,0.00318487,970,0.1,1
app_24,64.7301,19840.3,7940.8,56.5591,59.8759,4.78763e+10,1.00142,0.991063,132,0.797938,150,0.01,2
app_25,26.1541,19889.5,7975.6,18.8629,162.131,1.15918e+10,1.0016,0.991063,49,0.0715542,404,0.01,2
app_26,99.4012,19906.9,7959.5,39.5703,36.0312,3.47908e+10,1.00071,0.991063,221,0.966412,90,0.01,2
app_27,116.991,20056.3,7968.9,29.6254,51.3489,2.42592e+10,1.00086,0.991063,156,0.466523,128,0.01,2
app_28,59.6703,20259.4,7982,18,42.8091,1.33426e+10,1.00058,0.991063,184,0.310292,109,0.01,2
app_29,63.3362,20105.1,7992.8,7.17289,52.3639,4.85059e+09,1.00029,0.991063,153,0.0932805,131,0.01,2
app_3,3.58382,19917.1,7962.9,32.5246,305.627,2.42079e+10,1.00161,0.991063,26,0.0793703,763,0.1,1
app_30,98.2104,20297,7964.8,34.8187,53.3885,2.93905e+10,1.00073,0.991063,148,0.554537,135,0.01,2
app_31,5.37201,18043.9,7866.1,118.489,1308.76,3.92502e+09,1.01652,0.991063,6,0.00299848,2953,0.1,1
app_32,103.414,20000.6,7948.7,51.1113,58.3997,4.36113e+10,1.00096,0.991063,136,0.751919,146,0.01,2
app_33,25.1124,19993.4,7957.3,32.7884,165.629,1.67402e+10,1.00326,0.991063,48,0.101456,413,0.01,2
app_34,85.4926,20258.1,7952.3,45.235,37.058,3.8895e+10,1.0011,0.991063,214,1.05122,93,0.01,2
app_35,51.1748,20009,7984.3,10.2835,51.0389,6.3386e+09,1.00117,0.991063,157,0.124286,127,0.01,2
app_36,7.83805,20043.1,7943.1,53.4046,70.6091,4.59636e+10,1.00137,0.991063,112,0.656622,177,0.01,2
app_37,84.4509,20152,7967.4,28.1521,78.8046,2.22193e+10,1.0013,0.991063,101,0.281256,196,0.01,2
app_38,0.408369,19858.1,7945.8,54.2,36.4083,4.76973e+10,1.00081,0.991063,222,1.32493,90,0.01,2
app_39,12.4274,19835.3,7964.5,32.1725,306.87,2.28514e+10,1.00158,0.991063,26,0.0746779,760,0.1,1
app_4,0.826562,15180.1,7270.4,711.942,7273.11,4.95774e+10,1.0929,0.991063,1,0.00681664,13806,1,0
app_40,67.3997,19975.6,7948.5,51.5,31.6171,4.49805e+10,1.00082,0.991063,256,1.40564,78,0.01,2
app_41,313.403,21151.5,7962,33.5704,6.85648,2.95859e+10,1.00105,0.991063,1143,4.93098,18,0.001,3
app_42,1170.92,22038.9,7966.7,33.3,6.45596,2.66273e+10,1.00083,0.991063,1234,3.8039,17,0.001,3
app_43,1535.43,22077.5,7982.5,17.5,2.63867,1.55525e+10,1.00024,0.991063,2902,5.18417,7,0.001,3
app_44,248.87,21474.3,7971.2,28.8,3.40396,2.23496e+10,1.00081,0.991063,2353,7.44986,9,0.001,3
app_45,834.925,21195.8,7958,35.7076,8.61594,3.01574e+10,1.00148,0.991063,908,3.35082,22,0.001,3
app_46,577.381,21569.5,7992.6,7.4,4.69628,5.71119e+09,1.00021,0.991063,1740,1.14224,12,0.001,3
app_47,458.522,21013.2,7931.1,67.0087,4.30026,5.61408e+10,1.0016,0.991063,1900,11.2282,11,0.001,3
app_48,770.592,21286.3,7995.5,4.5,5.5304,3.63657e+09,1.00011,0.991063,1471,0.606094,14,0.001,3
app_49,352.759,20425.8,7952.5,42.8375,11.6122,3.82147e+10,1.00116,0.991063,688,3.18456,29,0.001,3
app_5,6.4615,19699.8,7896.6,89.7721,986.725,7.79183e+09,1.0121,0.991063,8,0.00789445,2429,0.1,1
app_50,1135.36,21808.2,7956.75,43.2457,3.5349,3.72151e+10,1.00075,0.991063,2275,10.4166,9,0.001,3
app_51,514.056,20899,7975.3,11.4294,14.5315,8.40947e+09,1.00204,0.991063,546,0.560631,37,0.001,3
app_52,33.8037,20212.7,7946.4,53.0021,36.1453,4.64183e+10,1.0009,0.991063,221,1.25455,90,0.01,2
app_53,499.711,21647.4,7989.3,10.7,12.6928,9.4552e+09,1.00016,0.991063,605,0.727323,34,0.001,3
app_54,2037.71,24609.1,7951.7,48.3,3.26622,4.26072e+10,1.00071,0.991063,2424,14.2024,9,0.001,3
app_55,134.755,20230.8,7992.3,6.20113,25.437,4.81207e+09,1.00036,0.991063,312,0.192483,64,0.01,2
app_56,492.993,20391.3,7979.8,20.2,9.21189,1.69795e+10,1.0004,0.991063,874,1.88661,23,0.001,3
app_57,323.58,20555.8,7981.8,16.6871,5.9734,1.34507e+10,1.00059,0.991063,1352,2.24178,15,0.001,3
app_58,908.069,21480.8,7947.3,43.5307,6.58622,3.4272e+10,1.00231,0.991063,1192,5.712,17,0.001,3
app_59,594.466,20659.7,7975.6,24.4,6.8053,2.15482e+10,1.00036,0.991063,1177,3.07832,17,0.001,3
app_6,1.52917,19363.8,7864.4,119.894,1308.05,8.56559e+09,1.01614,0.991063,6,0.00654862,3171,0.1,1
app_60,202.472,20205,7960.5,34.1018,9.72159,2.77701e+10,1.00147,0.991063,808,2.77701,25,0.001,3
app_7,11.1282,19362.9,7937.3,56.475,528.86,4.38439e+10,1.00236,0.991063,15,0.0828807,1280,0.1,1
app_8,0.110188,19866.2,7934,59.5128,529.872,4.6312e+10,1.00247,0.991063,15,0.0873811,1314,0.1,1
app_9,13.8509,19281.3,7943.1,48.9757,469.564,3.18006e+10,1.00315,0.991063,17,0.0676608,1127,0.1,1
