app_id,start_app,end_app,effective_cpu,effective_io,effective_iter,total_bytes,stretch,utilization,Tcomp,Tio,iterations,priority,group_id
app_1,18.0866,19957.2,7918.7,77.4888,396.055,4.76534e+10,1.00422,0.987404,20,0.120337,989,0.1,1
app_10,21.7526,19714.5,7944.2,53.7735,264.512,4.49461e+10,1.00136,0.987404,30,0.17025,651,0.1,1
app_11,3.83832,18372.4,7917,75.6406,791.488,1.36941e+10,1.00874,0.987404,10,0.0172905,1822,0.1,1
app_12,15.4014,19912,7943.5,54.6989,275.741,3.57235e+10,1.0026,0.987404,29,0.129433,683,0.1,1
app_13,2.4537,19667,7897.1,93.907,988.591,1.37458e+10,1.01127,0.987404,8,0.0138986,2426,0.1,1
app_14,6.20128,19648,7959.4,37.4518,361.028,2.60398e+10,1.00182,0.987404,22,0.0721324,887,0.1,1
app_15,17.8267,19457.6,7956,40.5109,397.471,2.66015e+10,1.00218,0.987404,20,0.0668379,967,0.1,1
app_16,0.838914,20024.3,7944.1,51.8806,530.109,1.51938e+10,1.00511,0.987404,15,0.0286135,1324,0.1,1
app_17,2.05126,19442.8,7906.4,85.8261,877.441,2.62207e+10,1.00849,0.987404,9,0.0298982,2134,0.1,1
app_18,0.610257,20271.3,7616.57,361.595,3808.45,2.20743e+10,1.04731,0.987404,2,0.00579639,9656,1,0
app_19,15.2319,19564.6,7949,45.9686,497.136,5.01663e+08,1.00635,0.987404,16,0.00100938,1212,0.1,1
app_2,7.64219,20038.6,7942.5,53.1665,495.673,4.38502e+10,1.00171,0.987404,16,0.0884076,1243,0.1,1
app_20,1.92561,19387.1,7934.1,60.5736,611.835,2.34224e+10,1.00534,0.987404,13,0.038272,1480,0.1,1
app_21,21.8842,19900.6,7989.1,8.92097,80.5702,5.1552e+09,1.00072,0.987404,100,0.0636444,199,0.01,2
app_22,68.6035,19938.9,7943.9,54.4113,100.601,4.59238e+10,1.00127,0.987404,79,0.454691,250,0.01,2
app_23,13.7227,19704.9,7949.2,48.4377,194.99,3.82446e+10,1.00157,0.987404,41,0.196126,479,0.01,2
app_24,9.25693,20044.1,7943.1,54.7075,134.078,4.22994e+10,1.00183,0.987404,59,0.315667,336,0.01,2
app_25,8.40797,19933.3,7949.6,45.862,228.186,2.48488e+10,1.0032,0.987404,35,0.108986,566,0.01,2
app_26,1.25399,20058,7959.4,40.0213,37.917,3.43478e+10,1.00078,0.987404,210,0.903889,95,0.01,2
app_27,40.7894,20170.7,7978.4,17.5101,165.798,1.05083e+10,1.00139,0.987404,48,0.0636867,416,0.01,2
app_28,2.02204,20136.2,7976,23.3024,47.3053,1.90871e+10,1.00061,0.987404,168,0.397648,119,0.01,2
app_29,6.85636,19901.2,7960,38.735,127.063,2.96415e+10,1.0013,0.987404,62,0.233398,317,0.01,2
app_3,4.59685,18023.9,7878.9,111.211,1124.22,4.39164e+10,1.00974,0.987404,7,0.0390715,2537,0.1,1
app_30,16.7922,19748.2,7946.4,48.9052,214.843,3.71563e+10,1.00206,0.987404,37,0.17282,530,0.01,2
app_31,18.1782,19833,7937.5,56.8159,168.818,4.719e+10,1.00192,0.987404,47,0.279231,419,0.01,2
app_32,65.5661,19960,7986.9,11.3577,95.6815,7.18224e+09,1.00074,0.987404,83,0.0756026,239,0.01,2
app_33,269.194,20759.3,7981.7,17.9406,25.8585,1.49485e+10,1.00042,0.987404,302,0.597938,67,0.01,2
app_34,5.85452,19762.9,7970.1,24.7973,203.909,1.75488e+10,1.00155,0.987404,39,0.0860236,506,0.01,2
app_35,3.36448,19864.3,7963.2,33.7635,160.111,2.41338e+10,1.00159,0.987404,50,0.150836,397,0.01,2
app_36,29.9843,20172.4,7982.1,15.3133,76.6918,9.52102e+09,1.00105,0.987404,104,0.125277,192,0.01,2
app_37,0.515908,19973.2,7966.9,32.6241,42.0532,2.83222e+10,1.0006,0.987404,192,0.674339,104,0.01,2
app_38,41.6808,19966.2,7935.1,62.1067,153.084,4.83276e+10,1.00208,0.987404,52,0.315867,380,0.01,2
app_39,101.552,19990.9,7967.1,32.0984,51.0295,2.74377e+10,1.00068,0.987404,158,0.537994,126,0.01,2
app_4,13.9169,19391.8,7951.3,43.4487,467.59,2.59492e+09,1.0058,0.987404,17,0.0055447,1132,0.1,1
app_40,4.63848,19975.5,7944.8,52.2919,203.218,4.04491e+10,1.00185,0.987404,39,0.199257,507,0.01,2
app_41,159.496,20131.3,7959.3,38.4369,22.8189,3.14168e+10,1.00116,0.987404,350,1.36595,57,0.001,3
app_42,1413.19,22230.9,7948.8,51.2,3.84952,4.32758e+10,1.00099,0.987404,2027,10.819,10,0.001,3
app_43,17.94,19914.9,7956.9,40.3021,199.695,2.18633e+10,1.00266,0.987404,40,0.109316,495,0.01,2
app_44,1176.81,21748,7987,8.80678,4.61981,7.13304e+09,1.00073,0.987404,1698,1.42661,12,0.001,3
app_45,291.198,20411.3,7989.8,10.2,3.21427,8.24e+09,1.00025,0.987404,2540,2.74667,8,0.001,3
app_46,235.359,20202.9,7958.6,41.4,8.73388,3.42131e+10,1.0009,0.987404,908,3.80145,22,0.001,3
app_47,856.026,21063.6,7960,40,4.76395,3.40584e+10,1.00074,0.987404,1696,8.51459,12,0.001,3
app_48,620.208,20930.6,7959.1,40.9,5.57085,3.28569e+10,1.00101,0.987404,1458,5.47615,14,0.001,3
app_49,786.134,21410.4,7958.4,41.6,6.38764,3.4767e+10,1.00085,0.987404,1191,5.7945,17,0.001,3
app_5,10.6044,19784.2,7925.6,67.9455,662.369,4.71077e+10,1.00342,0.987404,12,0.0710523,1638,0.1,1
app_50,764.554,21144.3,7991,9,3.91626,7.79108e+09,1.00015,0.987404,2034,1.94777,10,0.001,3
app_51,1520.45,22852.6,7970.6,26.7135,5.11755,2.23696e+10,1.00088,0.987404,1522,3.72827,14,0.001,3
app_52,442.49,20850.8,7999.6,0.4,4.09902,2.90874e+08,1.00001,0.987404,1884,0.0727186,11,0.001,3
app_53,509.741,20807.8,7941.6,56.7938,6.85289,4.83634e+10,1.00126,0.987404,1202,6.90906,17,0.001,3
app_54,477.138,20703.5,7979.1,15.4684,15.5358,1.1365e+10,1.00119,0.987404,504,0.757664,40,0.001,3
app_55,1060.33,21623.3,7960.6,39.4,7.15695,3.37336e+10,1.00071,0.987404,1124,4.81909,18,0.001,3
app_56,1129.52,21013,7957.7,42.3,6.05122,3.35112e+10,1.0011,0.987404,1343,5.5852,15,0.001,3
app_57,594.659,21444.5,7979.1,17.232,5.68771,1.42814e+10,1.00083,0.987404,1369,2.38024,15,0.001,3
app_58,522.549,21413.7,7970.1,23.3396,5.75103,1.98609e+10,1.00126,0.987404,1394,3.31015,15,0.001,3
app_59,934.442,21303.9,7987.9,4.83412,5.13308,3.61768e+09,1.00106,0.987404,1558,0.723537,13,0.001,3
app_6,5.39102,19078.3,7924.6,68.3709,657.442,4.92015e+10,1.00329,0.987404,12,0.0748881,1575,0.1,1
app_60,1.49807,11956.5,5413.12,514.364,5413.4,1.71767e+10,1.47322,0.987404,1,0.00317264,10865,1,0
app_7,16.0371,19844.8,7939,56.6337,246.29,4.56704e+10,1.00192,0.987404,32,0.185652,612,0.01,2
app_8,0.684334,19802,7614.6,364.566,3816.01,3.49798e+10,1.04581,0.987404,2,0.00916663,9431,1,0
app_9,1.72669,18855,7832.3,152.958,1565.95,4.79031e+10,1.0152,0.987404,5,0.0305895,3695,0.1,1
