app_id,start_app,end_app,effective_cpu,effective_io,effective_iter,total_bytes,stretch,utilization,Tcomp,Tio,iterations,priority,group_id
app_1,10.2269,19312.6,7965.4,34.6,346.228,5.61695e+09,1.00364,0.993013,23,0.016234,836,1,1
app_10,5.78264,19599.8,7962,38,378.403,1.12956e+10,1.00335,0.993013,21,0.0298036,929,1.00001,1.00001
app_11,0.458356,20484.2,7742.2,257.795,2577.56,4.59465e+10,1.0272,0.993013,3,0.0178229,6600,1.00001,1.00001
app_12,4.83467,19598.3,7966.8,33.2,332.081,6.36252e+09,1.00337,0.993013,24,0.0191642,813,1.00001,1.00001
app_13,2.46748,19575.9,7946.8,53.2,531.568,1.09023e+09,1.00656,0.993013,15,0.0020493,1296,1.00001,1.00001
app_14,5.94031,19817.4,7962,38,378.435,1.1891e+10,1.00327,0.993013,21,0.0313747,938,1.00001,1.00001
app_15,2.67266,19413.3,7957.3,42.7,333.22,2.64996e+10,1.00203,0.993013,24,0.0795783,807,1.00002,1.00002
app_16,0.0305554,18634.3,7868.8,131.2,1312.87,2.14166e+10,1.01391,0.993013,6,0.0163236,3057,1.00002,1.00002
app_17,16.3214,19590.6,7945.4,54.6,248.11,3.05815e+10,1.00301,0.993013,32,0.123313,606,1.00002,1.00002
app_18,17.0052,19383.5,7920.9,79.1,361.748,4.43561e+10,1.00436,0.993013,22,0.122531,874,1.00002,1.00002
app_19,1.0323,16248.2,7618.7,381.3,3812.43,1.97766e+10,1.04733,0.993013,2,0.00518662,7734,1.00002,1.00002
app_2,9.63427,18893.3,7920.3,79.7,793.171,2.13462e+10,1.00735,0.993013,10,0.0269182,1873,1,1
app_20,18.6042,19422.7,7918.9,81.1,359.778,4.941e+10,1.00398,0.993013,22,0.13725,871,1.00002,1.00002
app_21,147.798,20145.4,7941.6,58.4,51.6638,4.61125e+10,1.00154,0.993013,154,0.886779,129,1.00002,1.00002
app_22,122.802,20120.8,7979.4,20.6,54.2797,1.46505e+10,1.00074,0.993013,147,0.266373,136,1.00002,1.00002
app_23,106.918,20030.7,7977,23,69.0891,1.63671e+10,1.00083,0.993013,116,0.233816,172,1.00002,1.00002
app_24,78.3437,20234.7,7924.2,75.8,78.3101,5.79565e+10,1.00224,0.993013,101,0.743033,196,1.00002,1.00002
app_25,94.5954,20049.3,7994.7,5.3,53.3455,1.48266e+09,1.00048,0.993013,150,0.0279747,133,1.00003,1.00003
app_26,216.051,20391.6,7986.2,13.8,31.9617,9.64908e+09,1.00052,0.993013,248,0.301534,81,1.00003,1.00003
app_27,24.21,20011,7942,58,169.62,4.04632e+10,1.0022,0.993013,47,0.238019,423,1.00003,1.00003
app_28,46.9573,20023.4,7942.7,57.3,56.506,4.69284e+10,1.0013,0.993013,141,0.838008,141,1.00003,1.00003
app_29,83.2416,20155.9,7973.4,26.6,77.9749,1.59488e+10,1.00133,0.993013,102,0.204471,196,1.00003,1.00003
app_3,4.50375,20067.9,7924.2,75.8,659.402,3.68627e+10,1.00489,0.993013,12,0.0558525,1658,1,1
app_30,13.3988,20038.1,7991.3,8.7,79.5446,4.1224e+09,1.00057,0.993013,100,0.05153,199,1.00003,1.00003
app_31,44.8815,20023.8,7969.3,30.7,129.416,2.18377e+10,1.00111,0.993013,61,0.169284,325,1.00003,1.00003
app_32,53.1711,20245.9,7981.6,18.4,29.8005,1.33618e+10,1.00063,0.993013,269,0.445394,75,1.00003,1.00003
app_33,7.90735,19088.5,7916.3,83.7,790.861,3.92468e+10,1.00559,0.993013,10,0.0496166,1886,1.00003,1.00003
app_34,119.588,19907.5,7985.7,14.3,62.8847,1.03079e+10,1.0005,0.993013,129,0.166256,154,1.00003,1.00003
app_35,99.8705,20086.8,7975.9,24.1,71.3094,1.49917e+10,1.00114,0.993013,112,0.208217,178,1.00004,1.00004
app_36,44.1694,20056.5,7995.2,4.8,47.432,1.71091e+08,1.00058,0.993013,168,0.0035644,119,1.00004,1.00004
app_37,66.3042,20058,7926,74,75.9605,5.83434e+10,1.00196,0.993013,104,0.767676,190,1.00004,1.00004
app_38,46.3553,20103,7953.2,46.8,133.062,3.09035e+10,1.00199,0.993013,60,0.232357,330,1.00004,1.00004
app_39,16.6302,20051.4,7953.3,46.7,101.917,3.51653e+10,1.00144,0.993013,78,0.344758,255,1.00004,1.00004
app_4,0.947834,19461.9,7906.1,93.9,791.172,4.8855e+10,1.00566,0.993013,10,0.0617636,1923,1,1
app_40,24.9153,19444.2,7933.2,66.8,306.603,3.58779e+10,1.00388,0.993013,26,0.116866,743,1.00004,1.00004
app_41,1731.89,22306.4,7932.7,67.3,4.27909,5.30582e+10,1.00178,0.993013,1868,13.2645,11,1.00004,1.00004
app_42,421.537,21201.5,7997.2,2.8,11.6978,1.64105e+09,1.00014,0.993013,662,0.136754,31,1.00004,1.00004
app_43,198.766,20189,7996.8,3.2,23.5802,2.15085e+09,1.00013,0.993013,341,0.0935151,59,1.00004,1.00004
app_44,62.8028,20082.4,7989.6,10.4,104.281,1.23752e+08,1.00129,0.993013,76,0.00118993,263,1.00004,1.00004
app_45,1176.6,21631.1,7985,15,5.08217,1.04815e+10,1.00057,0.993013,1652,2.0963,13,1.00004,1.00004
app_46,46.2466,20063.6,7953.7,46.3,92.6758,3.22742e+10,1.00176,0.993013,86,0.347035,231,1.00005,1.00005
app_47,291.505,20327.1,7997.6,2.4,5.50632,1.71797e+09,1.00009,0.993013,1454,0.286328,14,1.00005,1.00005
app_48,115.345,20890.4,7947,53,7.03756,4.50629e+10,1.00099,0.993013,1090,6.43756,19,1.00005,1.00005
app_49,210.578,21738.1,7936.2,63.8,5.88625,5.50223e+10,1.0011,0.993013,1316,9.17038,16,1.00005,1.00005
app_5,10.886,19118.3,7944,56,468.837,3.02098e+10,1.00323,0.993013,17,0.0645508,1120,1.00001,1.00001
app_50,430.954,20631,7949.1,50.9,10.6795,4.43949e+10,1.00081,0.993013,739,4.0359,27,1.00005,1.00005
app_51,576.763,21216.8,7957.2,42.8,9.02038,3.77596e+10,1.00063,0.993013,889,4.19551,23,1.00005,1.00005
app_52,438.919,22173.6,7932.1,67.9,5.58591,5.90563e+10,1.00111,0.993013,1417,9.84272,15,1.00005,1.00005
app_53,321.042,21172.5,7972.4,27.6,5.46089,2.55734e+10,1.00025,0.993013,1520,4.26223,14,1.00005,1.00005
app_54,828.025,21541.7,7972.3,27.7,6.66969,2.23757e+10,1.00067,0.993013,1237,3.72929,17,1.00005,1.00005
app_55,37.2804,20038.3,7933.2,66.8,7.61649,5.81174e+10,1.00109,0.993013,1057,7.26468,19,1.00005,1.00005
app_56,680.486,21555.3,7969.1,30.9,8.27649,2.54395e+10,1.00068,0.993013,977,3.17994,21,1.00006,1.00006
app_57,552.06,21406.7,7943.2,56.8,3.76017,4.86086e+10,1.00102,0.993013,2058,12.1521,10,1.00006,1.00006
app_58,442.471,22015,7988,12,2.98113,1.06853e+10,1.00016,0.993013,2705,3.56177,8,1.00006,1.00006
app_59,215.892,21513.5,7944.8,55.2,3.82558,3.99066e+10,1.00192,0.993013,2119,9.97664,10,1.00006,1.00006
app_6,9.68171,18986.3,7929.1,70.9,609.628,3.32761e+10,1.00473,0.993013,13,0.0545509,1446,1.00001,1.00001
app_60,47.5174,20231.8,7979.6,20.4,10.8451,1.60558e+10,1.00054,0.993013,747,1.60558,27,1.00006,1.00006
app_7,5.7837,17561.1,7862.1,137.9,1307.86,6.39457e+10,1.00933,0.993013,6,0.0488882,2872,1.00001,1.00001
app_8,3.78323,19918.6,7912.3,87.7,877.124,2.73921e+09,1.01073,0.993013,9,0.00312339,2186,1.00001,1.00001
app_9,16.5986,19733.7,7954.1,45.9,443.209,2.06697e+10,1.00316,0.993013,18,0.0466585,1090,1.00001,1.00001
