app_id,start_app,end_app,effective_cpu,effective_io,effective_iter,total_bytes,stretch,utilization,Tcomp,Tio,iterations,priority,group_id
app_1,1.05771,18350.9,7533.8,143.713,1511.03,5.29884e+10,1.05446,0.98359,5,0.0350684,3479,1,1
app_10,10.5089,20104.3,7795.9,61.3516,556.726,4.14454e+10,1.02075,0.98359,14,0.0744082,1397,1,1
app_11,20.8899,19597.6,7831,64.1431,339.465,4.29696e+10,1.01601,0.98359,23,0.126754,831,1,1
app_12,3.6963,19447.4,7545.5,140.662,1509.25,4.39014e+10,1.0541,0.98359,5,0.0290738,3681,1,1
app_13,5.84871,19524.7,7836.4,43.7414,489.463,9.8502e+09,1.0196,0.98359,16,0.0201436,1197,1,1
app_14,11.7194,19591.3,7810.7,73.6169,390.397,4.78806e+10,1.018,0.98359,20,0.122457,957,1,1
app_15,3.29292,19356.3,7698.7,85.2983,855.639,3.95916e+10,1.03382,0.98359,9,0.046306,2076,1,1
app_16,14.8078,19436.4,7860,45.8378,415.167,3.37236e+10,1.01346,0.98359,19,0.0812616,1006,1,1
app_17,14.7994,20113.9,7918.7,21.4313,203.152,1.26316e+10,1.00866,0.98359,39,0.0622247,509,1,1
app_18,6.98702,19290.7,7797.9,44.9984,557.453,2.1136e+09,1.02564,0.98359,14,0.00379461,1344,1,1
app_19,3.80482,20322.6,7795.3,76.6738,412.33,4.57115e+10,1.02028,0.98359,19,0.11095,1044,1,1
app_2,6.46117,20387.4,7771.7,63.1094,556.542,4.74715e+10,1.02313,0.98359,14,0.0853805,1419,1,1
app_20,6.1954,20026.9,7835.7,41.2511,489.026,3.30661e+09,1.02054,0.98359,16,0.00676198,1229,1,1
app_21,29.8013,20076.3,7980.5,6.5102,62.3458,3.33333e+09,1.00202,0.98359,128,0.0537634,156,1,1
app_22,326.568,20772.1,7980,14.5438,21.2699,1.33756e+10,1.00083,0.98359,373,0.636933,54,1,1
app_23,67.8414,20258,7956.2,34.1874,67.4169,3.07552e+10,1.00163,0.98359,117,0.452283,170,1,1
app_24,24.5812,20220.6,7982.7,8.90059,89.6092,4.68234e+09,1.00158,0.98359,88,0.052026,227,1,1
app_25,57.0638,20183.4,7969.4,26.3042,53.4747,2.34011e+10,1.0009,0.98359,149,0.44153,134,1,1
app_26,96.762,20300.8,7929.8,43.292,62.2994,4.00486e+10,1.00378,0.98359,127,0.645944,157,1,1
app_27,58.126,20103.8,7953.4,19.2467,90.292,1.73911e+10,1.00366,0.98359,88,0.193234,227,1,1
app_28,109.139,20083.3,7982.3,7.02464,57.5024,5.66717e+09,1.00151,0.98359,140,0.0994241,143,1,1
app_29,50.9262,19905.2,7891.1,47.0748,157.845,3.88518e+10,1.00883,0.98359,50,0.247464,392,1,1
app_3,11.0868,20247.9,7809.4,53.9604,651.402,1.3733e+09,1.02423,0.98359,12,0.00210629,1644,1,1
app_30,108.633,20243.1,7943.6,52.3,64.9341,5.0652e+10,1.00072,0.98359,122,0.779261,163,1,1
app_31,35.6111,19854.6,7898.8,36.3233,174.709,2.99427e+10,1.00899,0.98359,45,0.171101,436,1,1
app_32,59.4528,19947.4,7885.3,52.4675,125.294,4.9961e+10,1.00816,0.98359,63,0.396516,312,1,1
app_33,23.9378,20148,7956.7,32.544,81.5398,2.84585e+10,1.00186,0.98359,97,0.347055,205,1,1
app_34,200.494,20284.3,7943.9,47.2424,39.0338,4.58189e+10,1.00129,0.98359,204,1.17484,98,1,1
app_35,95.411,20084.9,7976.8,10.1072,53.8125,6.46552e+09,1.0021,0.98359,149,0.119732,134,1,1
app_36,37.3294,20026.7,7914.7,29.7797,140.748,2.47097e+10,1.00763,0.98359,56,0.175246,353,1,1
app_37,1.87542,20092.4,7896.5,56.7116,142.496,4.99415e+10,1.00674,0.98359,55,0.351701,358,1,1
app_38,10.6708,19594.5,7747.3,70.0784,706.535,3.30379e+10,1.02823,0.98359,11,0.0467959,1729,1,1
app_39,122.437,20117.8,7942.9,41.8117,30.5334,4.03346e+10,1.0021,0.98359,262,1.34449,76,1,1
app_4,7.45292,19992.6,7871.1,59.5811,314.414,3.74969e+10,1.01156,0.98359,25,0.119038,784,1,1
app_40,6.29077,19646.2,7791,59.5958,648.805,1.72865e+10,1.02455,0.98359,12,0.0266355,1593,1,1
app_41,1364.42,23418.9,7974.4,25.6,4.08092,2.54631e+10,1.00002,0.98359,1962,6.36578,11,1,1
app_42,501.081,20915.4,7958.1,37.9718,5.26511,3.75232e+10,1.00055,0.98359,1452,7.50464,14,1,1
app_43,201.669,20476.5,7974.7,24.5394,22.2111,2.38223e+10,1.00018,0.98359,356,1.08283,56,1,1
app_44,933.845,21393.6,7981.8,7.66822,6.64115,7.4231e+09,1.00135,0.98359,1208,1.23718,17,1,1
app_45,723.776,21956.3,7981.3,18.2203,6.73406,1.78824e+10,1.0001,0.98359,1173,2.55463,18,1,1
app_46,331.405,20748.5,7975.3,21.8785,18.2202,2.14212e+10,1.00041,0.98359,442,1.19007,46,1,1
app_47,212.52,20802.6,7985.6,13.1975,11.9231,1.23471e+10,1.00026,0.98359,662,1.02892,31,1,1
app_48,770.812,23043.4,7959.8,40.0288,3.765,3.99872e+10,1.00003,0.98359,2182,9.9968,10,1,1
app_49,74.9401,20420.3,7975,16.8144,32.915,1.54394e+10,1.0012,0.98359,243,0.467861,83,1,1
app_5,3.57566,18942.5,7636.3,104.469,1090.06,3.95584e+10,1.04223,0.98359,7,0.0362921,2588,1,1
app_50,832.295,21722.1,7986.6,12.9833,5.29001,1.2669e+10,1.00009,0.98359,1521,2.53379,14,1,1
app_51,954.416,20808.8,7975,24.9532,4.08518,2.47212e+10,1.00003,0.98359,2029,6.18031,10,1,1
app_52,447.612,20332,7951.7,47.1548,11.6412,4.64333e+10,1.00023,0.98359,688,4.22121,29,1,1
app_53,268.189,20281.9,7947.7,48.7872,26.9611,4.77321e+10,1.00057,0.98359,292,1.76786,68,1,1
app_54,247.54,21213.6,7980.1,19.7781,5.44465,1.95204e+10,1.00005,0.98359,1483,3.2534,14,1,1
app_55,93.5836,20031.1,7985.8,2.37341,20.9737,1.86529e+09,1.00154,0.98359,386,0.0888232,52,1,1
app_56,227.703,21210.3,7952.8,46.5046,2.62711,4.63778e+10,1.0001,0.98359,2882,15.4593,7,1,1
app_57,104.974,21661.1,7968.3,28.8192,3.31659,2.86523e+10,1.00038,0.98359,2323,9.55076,9,1,1
app_58,608.763,22062.1,7993.9,3.90047,5.10079,3.68835e+09,1.0003,0.98359,1511,0.73767,14,1,1
app_59,534.401,20668.9,7978.5,20.4546,12.0062,2.02224e+10,1.00016,0.98359,665,1.6852,30,1,1
app_6,2.04273,19648.5,7634.8,95.1625,1090.63,1.60118e+10,1.04564,0.98359,7,0.0146763,2687,1,1
app_60,170.348,20279.9,7971.3,15.1003,38.7047,1.26831e+10,1.00201,0.98359,204,0.325208,98,1,1
app_7,2.06848,20158.7,7797.9,52.5443,519.168,2.62018e+10,1.02248,0.98359,15,0.0504851,1313,1,1
app_8,0.160243,16909.7,7169.4,306.954,3577.01,4.03165e+10,1.10961,0.98359,2,0.011271,7600,1,1
app_9,1.14762,17465.5,7192.2,302.969,3596.46,1.09961e+10,1.11062,0.98359,2,0.00305787,7880,1,1
