app_id,start_app,end_app,effective_cpu,effective_io,effective_iter,total_bytes,stretch,utilization,Tcomp,Tio,iterations,priority,group_id
app_1,1.13692,19434.4,7912.4,79.2456,792.963,4.13384e+10,1.00582,0.987761,10,0.0521291,1925,0.1,1
app_10,3.78866,17665.8,7862,123.559,1313.13,2.02133e+10,1.01494,0.987761,6,0.0153948,2893,0.1,1
app_11,7.33856,19064.9,7935.9,57.1412,611.123,1.21572e+10,1.00654,0.987761,13,0.0198973,1456,0.1,1
app_12,22.6252,20087.9,7952.7,43.857,345.251,3.27686e+10,1.00182,0.987761,23,0.0949813,864,0.1,1
app_13,0.375148,18151.7,7857.09,125.852,1307.14,4.10177e+10,1.0129,0.987761,6,0.03138,2970,0.1,1
app_14,5.99852,19516.8,7963.8,32.7516,308.055,2.35319e+10,1.00159,0.987761,26,0.0764023,750,0.1,1
app_15,2.90098,18799.1,7929.4,63.3368,662.621,1.49295e+10,1.00701,0.987761,12,0.0225181,1557,0.1,1
app_16,2.83266,19320.5,7932.6,61.2433,657.964,1.12435e+09,1.00835,0.987761,12,0.00170874,1595,0.1,1
app_17,3.18932,19751,7939.5,54.7481,567.775,1.45637e+10,1.00578,0.987761,14,0.0256403,1401,0.1,1
app_18,0.481914,19217.5,7858.6,126.673,1307.05,3.79883e+10,1.0131,0.987761,6,0.0290652,3147,0.1,1
app_19,11.3005,19389.9,7926.7,66.4596,719.684,1.03993e+09,1.00911,0.987761,11,0.00144435,1746,0.1,1
app_2,7.76626,18786.4,7912.9,78.7284,794.356,3.74856e+10,1.00624,0.987761,10,0.0472111,1860,0.1,1
app_20,0.961958,14057.8,7617.1,370.837,3801.74,3.73556e+10,1.04514,0.987761,2,0.00982783,6683,1,0
app_21,175.281,20261.6,7959.7,37.8102,45.4584,3.21011e+10,1.00103,0.987761,176,0.713358,114,0.01,2
app_22,17.1173,20147.3,7987.9,11.0052,43.6581,8.18645e+09,1.00049,0.987761,181,0.186056,111,0.01,2
app_23,26.6396,19841.3,7942.7,53.369,129.576,4.11166e+10,1.00203,0.987761,61,0.316282,322,0.01,2
app_24,196.302,20240.9,7976.7,22.3731,27.4083,1.89438e+10,1.00054,0.987761,291,0.676563,69,0.01,2
app_25,168.933,20028.6,7954.2,44.6867,35.8444,3.8599e+10,1.0009,0.987761,223,1.0722,89,0.01,2
app_26,104.358,20186.2,7939,53.9042,75.2958,4.51768e+10,1.00198,0.987761,105,0.602358,188,0.01,2
app_27,61.2657,19929,7985.9,10.7837,106.33,4.96219e+09,1.00114,0.987761,75,0.0468132,264,0.01,2
app_28,11.8959,19917.8,7988.6,9.75068,91.661,5.91949e+09,1.00069,0.987761,87,0.0650493,229,0.01,2
app_29,0.151901,19509.1,7937.2,55.8577,532.499,3.55615e+10,1.00342,0.987761,15,0.066845,1294,0.1,1
app_3,11.9464,19472.6,7941.7,50.8338,530.209,1.84446e+10,1.00501,0.987761,15,0.0348012,1286,0.1,1
app_30,10.8351,20053.6,7935,60.7442,317.531,3.48795e+10,1.00378,0.987761,25,0.11003,796,0.1,1
app_31,91.3318,20262.1,7975.9,21.6905,38.8098,1.89558e+10,1.00064,0.987761,205,0.486047,98,0.01,2
app_32,23.7324,19920,7932.8,59.2758,193.029,4.13796e+10,1.00324,0.987761,41,0.214402,480,0.01,2
app_33,48.625,19936.3,7957.1,41.3171,49.1444,3.4188e+10,1.00109,0.987761,164,0.697713,121,0.01,2
app_34,6.61599,19883,7958.5,37.8504,361.257,2.77542e+10,1.00172,0.987761,22,0.0768814,900,0.1,1
app_35,33.4767,20019.1,7959.8,37.4026,86.6446,3.02974e+10,1.00124,0.987761,92,0.348246,216,0.01,2
app_36,12.3528,19866.5,7948.8,48.3011,45.6915,4.23305e+10,1.00111,0.987761,176,0.940678,113,0.01,2
app_37,15.3408,19930.1,7987.5,11.6094,37.4531,8.02523e+09,1.00056,0.987761,215,0.21119,93,0.01,2
app_38,96.8504,20122.9,7960,38.3067,34.9443,3.27152e+10,1.00091,0.987761,227,0.934721,88,0.01,2
app_39,14.4553,19951.5,7948.7,44.3235,213.838,3.02561e+10,1.00264,0.987761,37,0.141384,535,0.01,2
app_4,1.04148,20028.1,7918.3,73.9543,718.357,4.77354e+10,1.00426,0.987761,11,0.0663914,1802,0.1,1
app_40,12.1443,19833.4,7949.4,50.1386,40.4949,4.42895e+10,1.00079,0.987761,201,1.08023,99,0.01,2
app_41,80.8434,21476.8,7954.7,41.3949,5.94455,3.42771e+10,1.00138,0.987761,1288,5.71285,16,0.001,3
app_42,9.49942,19869.3,7994.3,5.15419,50.9675,1.90913e+09,1.00047,0.987761,155,0.0374339,129,0.01,2
app_43,302.409,20928.9,7941,59,13.9297,4.71049e+10,1.00149,0.987761,566,3.36463,36,0.001,3
app_44,51.7923,20367.3,7962.7,36.4123,9.36839,3.10677e+10,1.00078,0.987761,853,3.45197,24,0.001,3
app_45,611.368,20793.5,7998.2,1.8,4.02311,1.46805e+09,1.00004,0.987761,2019,0.367014,10,0.001,3
app_46,313.021,21019.9,7975.2,23.6961,11.5819,2.07072e+10,1.00051,0.987761,683,1.88248,30,0.001,3
app_47,210.085,20675,7944.5,54.1185,6.66002,4.24717e+10,1.00163,0.987761,1214,6.06738,17,0.001,3
app_48,44.0407,20060.8,7962.3,36.0386,25.739,3.15543e+10,1.00077,0.987761,312,1.21363,64,0.01,2
app_49,104.335,20573.5,7994.8,5.2,14.4148,3.73295e+09,1.00018,0.987761,553,0.248863,37,0.001,3
app_5,14.0351,19870.1,7945.8,48.9877,497.358,2.32489e+10,1.00388,0.987761,16,0.0467785,1234,0.1,1
app_50,1199.11,21435.3,7961.7,38.3,6.00433,3.49647e+10,1.00042,0.987761,1349,5.82745,15,0.001,3
app_51,77.9512,20188.1,7956.7,40.224,45.4508,3.39208e+10,1.00117,0.987761,175,0.753796,114,0.01,2
app_52,734.266,21928.7,7970.15,29.849,5.95164,2.45053e+10,1.00067,0.987761,1322,4.87313,16,0.001,3
app_53,554.421,21125,7995.4,4.6,5.10154,3.61887e+09,1.00012,0.987761,1610,0.723774,13,0.001,3
app_54,380.562,21674.3,7980,20,5.35503,1.81325e+10,1.00023,0.987761,1509,3.6265,14,0.001,3
app_55,637.161,20723.2,7973.7,26.0551,4.977,2.06138e+10,1.00071,0.987761,1565,4.12276,13,0.001,3
app_56,181.456,20335.9,7950.2,48.7521,36.2161,4.30697e+10,1.00084,0.987761,216,1.19638,92,0.01,2
app_57,141.894,20735.2,7944.3,55.7,3.45573,4.79929e+10,1.00096,0.987761,2222,11.9982,9,0.001,3
app_58,356.895,20870.3,7983.5,4.25728,5.79777,3.68408e+09,1.0016,0.987761,1361,0.736816,15,0.001,3
app_59,47.728,19989.9,7941.2,50.0255,25.4371,4.22578e+10,1.00207,0.987761,318,1.69031,63,0.001,3
app_6,4.18939,18775.8,7915.8,74.646,721.032,4.40347e+10,1.00505,0.987761,11,0.0610745,1689,0.1,1
app_60,517.501,20994.1,7970,28.7536,11.3498,2.44679e+10,1.00069,0.987761,695,2.03899,29,0.001,3
app_7,1.23842,20199.5,7795.9,184.844,1947.81,3.4713e+10,1.02163,0.987761,4,0.0178198,4919,0.1,1
app_8,0.123364,12098.2,5542.19,541.803,5540.73,2.86597e+10,1.43605,0.987761,1,0.00517229,10993,1,0
app_9,1.14264,18999.5,7924.9,67.607,659.713,3.95495e+10,1.00446,0.987761,12,0.0599235,1566,0.1,1
