app_id,start_app,end_app,effective_cpu,effective_io,effective_iter,total_bytes,stretch,utilization,Tcomp,Tio,iterations,priority,group_id
app_1,5.27959,26987.4,4249.1,567.104,714.622,5.26254e+11,1.67527,0.757417,6,0.73705,2686,1,1
app_10,44.3094,24459.2,6212.4,368.076,73.5458,3.63179e+11,1.21662,0.757417,79,4.90782,238,1,1
app_11,31.0082,21546.7,7036.4,599.189,8.83333,5.98611e+11,1.0478,0.757417,821,66.5124,23,1,1
app_12,193.367,19224.1,7229.1,397.675,9.11488,3.9708e+11,1.04902,0.757417,936,44.12,21,1,1
app_13,842.364,27844.1,7321.7,608.998,5.63189,6.08587e+11,1.00879,0.757417,891,101.431,21,1,1
app_14,530.651,24414.1,7252.5,620.745,8.72847,6.20274e+11,1.01616,0.757417,834,68.9193,23,1,1
app_15,839.092,22091,7709.5,289.797,5.69083,2.89377e+11,1.00014,0.757417,1213,48.2296,16,1,1
app_2,0.278712,26270.5,4694,213.384,542.299,1.82571e+11,1.6405,0.757417,9,0.336847,1945,1,1
app_3,5.78601,27061.3,4647.1,286.884,600.08,2.43993e+11,1.63563,0.757417,8,0.406655,2235,1,1
app_4,7.43242,28144.7,4683.4,167.111,584.472,1.29261e+11,1.66228,0.757417,8,0.221337,2335,1,1
app_5,3.53823,28515.4,4542.8,386.597,570.356,3.43142e+11,1.63735,0.757417,8,0.602003,2292,1,1
app_6,43.4722,23808.9,6819.2,21.7084,64.3054,1.90559e+10,1.16989,0.757417,106,0.297749,188,1,1
app_7,41.622,23553.9,6329.6,95.0897,84.8324,9.17982e+10,1.24583,0.757417,77,1.07998,254,1,1
app_8,53.5132,22248.4,5893.1,669.896,75.4882,6.66524e+11,1.21958,0.757417,87,8.77005,207,1,1
app_9,60.5539,23579.3,6270.1,180.795,73.0264,1.76671e+11,1.24093,0.757417,90,2.42015,216,1,1
