app_id,start_app,end_app,effective_cpu,effective_io,effective_iter,total_bytes,stretch,utilization,Tcomp,Tio,iterations,priority,group_id
app_1,6.87852,29905.8,4296.34,35.415,478.005,2.83191e+09,1.86082,0.810826,9,0.00591213,2146,1,1
app_10,10.6099,29873.4,4386.65,77.668,398.96,5.57603e+10,1.80082,0.810826,11,0.13975,1762,1,1
app_11,11.1245,29397.2,4388.65,81.5327,399.095,6.15991e+10,1.79765,0.810826,11,0.153998,1721,1,1
app_12,3.04087,29375.8,4200.58,145.196,467.237,1.25785e+11,1.84913,0.810826,9,0.268771,2041,1,1
app_13,5.31345,30012.4,4299.36,42.9694,430.769,2.14079e+10,1.85152,0.810826,10,0.0496704,1948,1,1
app_14,5.96435,29748.1,4259.2,126.197,426.564,1.02547e+11,1.83413,0.810826,10,0.240157,1891,1,1
app_15,7.57199,30044.4,4284.74,52.1826,473.405,3.25272e+10,1.85303,0.810826,9,0.0686228,2149,1,1
app_16,36.2021,23979.9,6312.86,67.714,67.4166,6.43811e+10,1.25446,0.810826,93,0.946781,213,1,1
app_17,89.3891,23936.2,6255.08,13.5047,65.8139,1.02228e+10,1.27687,0.810826,95,0.154891,210,1,1
app_18,58.0375,23822.4,6362.63,61.5828,57.4086,5.82557e+10,1.24593,0.810826,110,1.00441,179,1,1
app_19,74.0259,23823.9,6408.52,85.6666,56.5141,8.24801e+10,1.23248,0.810826,114,1.44702,173,1,1
app_2,7.59861,29592.1,4286.72,34.6762,476.229,8.96309e+08,1.86584,0.810826,9,0.00187905,2111,1,1
app_20,44.937,23770.1,6355.21,11.1769,68.6705,6.97313e+09,1.25743,0.810826,93,0.10106,214,1,1
app_21,26.1917,23894.8,6147.77,173.752,59.7693,1.70363e+11,1.2662,0.810826,103,2.83939,189,1,1
app_22,13.6673,23956,6405.75,11.4792,56.6428,8.0749e+09,1.24731,0.810826,113,0.141665,177,1,1
app_23,63.2267,24119.6,6230.45,163.97,71.7758,1.59381e+11,1.25199,0.810826,86,2.21363,226,1,1
app_24,105.701,23895.3,6336.89,32.3671,59.7177,2.96386e+10,1.25657,0.810826,106,0.493977,188,1,1
app_25,109.501,23897.7,6537.7,19.2851,58.6783,1.70256e+10,1.22049,0.810826,111,0.288569,180,1,1
app_26,55.951,23669,6320.91,78.6807,64.0349,7.55501e+10,1.25069,0.810826,99,1.16231,198,1,1
app_27,27.7412,23675.5,6284.7,108.993,59.6996,1.06444e+11,1.25173,0.810826,107,1.77407,183,1,1
app_28,37.1971,24134,6178.89,48.1754,68.8122,4.45838e+10,1.28546,0.810826,90,0.646142,219,1,1
app_29,53.6184,23807.2,6191.95,93.666,60.7465,9.10989e+10,1.27327,0.810826,102,1.49342,193,1,1
app_3,0.679844,29071.8,4424.15,34.8842,401.088,1.09662e+10,1.80379,0.810826,11,0.027279,1708,1,1
app_30,72.1803,23794.1,6283.5,88.5315,59.6785,8.50007e+10,1.25618,0.810826,105,1.41668,187,1,1
app_31,36.1768,21091.8,7498.2,196.243,8.92157,1.95792e+11,1.03977,0.810826,837,21.7546,24,1,1
app_32,446.374,21840.6,7546,52.6956,7.21979,5.24086e+10,1.05285,0.810826,1029,7.48694,20,1,1
app_33,254.887,21189.9,7609.1,180.36,7.1139,1.80003e+11,1.02708,0.810826,1051,25.7147,19,1,1
app_34,172.409,22574.9,7346.38,110.376,8.0936,1.09862e+11,1.07293,0.810826,894,12.6138,23,1,1
app_35,786.945,21652.1,7558.5,98.5099,8.53296,9.80953e+10,1.04485,0.810826,910,12.2619,22,1,1
app_36,542.035,21815.8,7597.7,173.728,7.4509,1.73467e+11,1.02945,0.810826,1005,24.781,20,1,1
app_37,635.334,22131.3,7394.6,184.669,6.12394,1.84401e+11,1.05555,0.810826,1179,30.7335,17,1,1
app_38,551.425,21434.4,7590.15,66.607,8.74975,6.61865e+10,1.04489,0.810826,882,7.35406,23,1,1
app_39,24.9437,21622.4,7598.2,209.787,7.00883,2.09498e+11,1.02463,0.810826,1067,29.9283,19,1,1
app_4,6.18397,29267.3,4229.71,51.3522,528.096,2.25859e+10,1.88134,0.810826,8,0.0426955,2299,1,1
app_40,156.175,21356,7454.02,176.095,7.7097,1.75598e+11,1.04855,0.810826,966,21.9498,21,1,1
app_41,759.204,21590.9,7491.7,6.99181,8.26358,6.3318e+09,1.06695,0.810826,928,0.703533,22,1,1
app_42,602.525,21397.7,7555.5,216.379,6.80703,2.1599e+11,1.0294,0.810826,1117,30.8557,18,1,1
app_43,632.987,21427,7477.7,173.873,7.58423,1.73412e+11,1.0456,0.810826,995,24.7732,20,1,1
app_44,321.038,22526.1,7189.13,77.908,7.93778,7.73984e+10,1.10094,0.810826,886,9.6748,23,1,1
app_45,677.785,21477.1,7682.5,235.248,7.44831,2.34843e+11,1.01044,0.810826,1058,29.3554,19,1,1
app_46,2081.12,23327.6,7980.9,18.8425,1.5976,1.87006e+10,1.00005,0.810826,5111,9.35028,4,1,1
app_47,2416.8,23082,7904.1,74.9351,1.60901,7.48098e+10,1.00264,0.810826,5168,37.4049,4,1,1
app_48,1808.21,22877.9,7964.3,12.6667,1.45017,1.25749e+10,1.0029,0.810826,5114,6.28744,4,1,1
app_49,3301.28,26457.8,7980.9,18.7605,1.42408,1.87491e+10,1.00004,0.810826,5484,18.7491,4,1,1
app_5,5.07866,29172.4,4305.85,46.771,478.682,2.09472e+10,1.84894,0.810826,9,0.0437312,2058,1,1
app_50,3929.05,24339.8,7920.6,77.1157,1.56265,7.70487e+10,1.00029,0.810826,5244,77.0487,4,1,1
app_51,326.872,25172.5,7911.3,88.7,1.63046,8.86093e+10,1.00001,0.810826,4663,88.6093,5,1,1
app_52,3830.18,25262.9,7899,87.9709,1.45498,8.79605e+10,1.00163,0.810826,5284,87.9605,4,1,1
app_53,572.429,23006.1,7889.8,110.2,1.40372,1.10156e+11,1.00001,0.810826,5312,110.156,4,1,1
app_54,4290.63,25803.1,7678,227.742,1.87616,2.27655e+11,1.01193,0.810826,4309,113.828,5,1,1
app_55,3987.32,27519.8,7574.8,236.436,1.7457,2.36349e+11,1.02418,0.810826,4741,118.174,5,1,1
app_56,5484.92,27122.3,7860.5,57.4685,1.48779,5.74139e+10,1.01037,0.810826,5495,57.4139,4,1,1
app_57,2974.76,26212.7,7701.1,208.957,1.62214,2.08834e+11,1.01139,0.810826,4427,104.417,5,1,1
app_58,2616.48,23663,7872.6,93.1939,1.56599,9.30043e+10,1.00432,0.810826,5051,46.5022,4,1,1
app_59,5975.92,32972.6,7658.5,93.9046,1.1168,9.38164e+10,1.03195,0.810826,6330,93.8164,4,1,1
app_6,7.54893,28681.4,4117.16,107.219,587.558,6.78768e+10,1.91157,0.810826,7,0.115437,2487,1,1
app_60,468.346,25431.1,7917.3,82.7,1.62598,8.26953e+10,1,0.810826,4754,82.6953,5,1,1
app_7,5.12185,29626.5,4310.03,85.4529,430.545,6.22272e+10,1.82972,0.810826,10,0.144379,1893,1,1
app_8,7.82633,30445.2,4258.37,85.3484,473.194,5.38179e+10,1.85521,0.810826,9,0.11354,2180,1,1
app_9,2.10574,28758.6,4233,91.4794,468.627,6.6577e+10,1.86065,0.810826,9,0.141955,1992,1,1
