app_id,start_app,end_app,effective_cpu,effective_io,effective_iter,total_bytes,stretch,utilization,Tcomp,Tio,iterations,priority,group_id
app_1,3.10078,18620.3,7886,76.8575,788.399,3.13611e+10,1.01044,0.965059,10,0.0397479,1834,0.1,1
app_10,7.95487,18526.1,7792.2,173.708,864.689,1.29609e+11,1.00987,0.965059,9,0.149838,2002,0.1,1
app_11,5.48786,20104.4,7833.1,138.47,710.898,8.99022e+10,1.00972,0.965059,11,0.126445,1789,0.1,1
app_12,5.82948,18528,7893.03,74.0443,788.038,1.86696e+10,1.01116,0.965059,10,0.0236748,1824,0.1,1
app_13,6.09449,20140.8,7813.4,152.963,781.339,1.01689e+11,1.01073,0.965059,10,0.130203,1971,0.1,1
app_14,7.7339,20006.2,7789.1,175.572,865.299,1.35834e+11,1.00947,0.965059,9,0.157033,2162,0.1,1
app_15,7.37622,19659.7,7793.8,171.993,866.822,1.19004e+11,1.01102,0.965059,9,0.137418,2129,0.1,1
app_16,19.2195,20226.2,7721,231.251,80.9732,1.71648e+11,1.0136,0.965059,96,2.11912,204,0.01,2
app_17,15.6012,20125.4,7914.4,57.5273,72.9085,3.86592e+10,1.0059,0.965059,108,0.529578,184,0.01,2
app_18,59.1646,20054.1,7679.3,292.816,79.5144,2.22401e+11,1.01244,0.965059,97,2.78001,199,0.01,2
app_19,71.5688,20129.2,7856.1,121.132,74.4329,8.86371e+10,1.00696,0.965059,106,1.1978,185,0.01,2
app_2,2.05805,18853.9,7776.1,183.885,971.607,1.06799e+11,1.01486,0.965059,8,0.109875,2288,0.1,1
app_20,7.97172,20182.7,7857.2,96.2959,93.8998,6.82193e+10,1.00941,0.965059,84,0.725738,236,0.01,2
app_21,92.68,20179.5,7812.4,147.757,85.6613,1.07543e+11,1.01011,0.965059,91,1.26521,216,0.01,2
app_22,52.7247,20026.9,7921.3,60.4672,62.5322,4.17596e+10,1.00464,0.965059,127,0.66285,156,0.01,2
app_23,63.3518,20401.6,7881.38,93.9435,72.9702,6.6667e+10,1.00654,0.965059,107,0.92223,186,0.01,2
app_24,53.2816,20428.3,7716.3,254.938,91.2991,1.86165e+11,1.01234,0.965059,84,2.04577,232,0.01,2
app_25,35.4611,20073.4,7886,70.712,76.8507,4.73727e+10,1.0084,0.965059,103,0.623325,192,0.01,2
app_26,84.5038,20046.7,7929.3,25.2558,80.9764,1.54452e+10,1.00695,0.965059,98,0.190681,202,0.01,2
app_27,7.07473,20097.6,7852.3,105.729,89.1907,7.2277e+10,1.00952,0.965059,88,0.812101,224,0.01,2
app_28,66.7729,20328.8,7690.4,288.944,74.4934,2.07439e+11,1.01294,0.965059,103,2.80323,189,0.01,2
app_29,68.617,20212,7708.9,260.252,81.4819,1.91475e+11,1.01261,0.965059,95,2.36389,204,0.01,2
app_3,1.08556,18516.1,7696.6,274.364,770.642,2.30231e+11,1.00923,0.965059,10,0.298613,1782,0.1,1
app_30,68.5021,20185.1,7776.5,170.422,87.8816,1.22345e+11,1.01281,0.965059,89,1.39029,220,0.01,2
app_31,677.434,21710.9,7694.1,260.418,8.15827,1.21754e+11,1.02356,0.965059,921,15.2192,22,0.001,3
app_32,683.175,21579.7,7674.1,55.7474,7.98953,2.91957e+10,1.03852,0.965059,962,3.64946,21,0.001,3
app_33,427.997,21601,7637.1,219.414,8.96837,1.16188e+11,1.03182,0.965059,851,12.9098,24,0.001,3
app_34,557.723,21614.6,7706.4,196.253,6.78413,9.51951e+10,1.02543,0.965059,1117,13.5993,18,0.001,3
app_35,61.5821,21035.2,7633.1,211.725,7.64434,1.1478e+11,1.03254,0.965059,957,16.3972,21,0.001,3
app_36,943.238,21070.6,7836.2,53.1227,8.42496,2.54836e+10,1.01759,0.965059,953,3.18546,21,0.001,3
app_37,36.5224,20614.2,7551.5,287.229,7.1395,1.4941e+11,1.03884,0.965059,1046,21.3444,19,0.001,3
app_38,1051.15,21742.8,7505.9,354.674,7.42773,1.90528e+11,1.03944,0.965059,1032,27.2183,19,0.001,3
app_39,117.505,20966.4,7578.2,383.054,7.70617,2.01101e+11,1.02837,0.965059,989,25.1376,20,0.001,3
app_4,3.40478,17953.4,7732.8,227.189,1106.24,1.83211e+11,1.01061,0.965059,7,0.165652,2480,0.1,1
app_40,811.79,22785.2,7467.9,395.673,7.81609,1.98839e+11,1.04347,0.965059,911,24.8549,22,0.001,3
app_41,131.106,21303.7,7588.76,293.324,8.28584,1.55757e+11,1.03299,0.965059,917,19.2268,22,0.001,3
app_42,282.302,21166.4,7727.2,70.5151,9.25671,3.5227e+10,1.03061,0.965059,852,3.91411,24,0.001,3
app_43,664.165,21424.9,7891.1,50.3583,8.10939,2.49718e+10,1.0106,0.965059,984,3.12147,21,0.001,3
app_44,759.362,21049.7,7694.4,107.192,8.61739,4.88335e+10,1.03316,0.965059,920,5.42595,22,0.001,3
app_45,238.214,20429.4,7697.01,176.683,6.67043,9.34944e+10,1.02689,0.965059,1164,13.3563,17,0.001,3
app_46,3219.98,26224,7283.6,716.4,1.71367,2.27503e+11,1.06509,0.965059,4403,113.752,5,0.0002,3.69897
app_47,3066.22,27545.8,7567.3,252.823,1.28638,1.15086e+11,1.04134,0.965059,5549,115.086,4,0.0002,3.69897
app_48,1739.37,22151.9,7640,277.795,1.48414,7.81687e+10,1.03652,0.965059,5024,39.0843,4,0.0002,3.69897
app_49,1315.64,21978.7,7680.3,319.7,1.5646,1.01878e+11,1.02799,0.965059,5026,50.9391,4,0.0002,3.69897
app_5,2.9481,18555.2,7778.9,176.366,864.139,1.36174e+11,1.01073,0.965059,9,0.157609,2004,0.1,1
app_50,4085.62,28024.6,7166.54,833.457,1.61543,2.62249e+11,1.07689,0.965059,4527,134.224,5,0.0002,3.69897
app_51,4902.42,26462.6,7832.6,167.4,1.45628,8.03743e+10,1.011,0.965059,5148,80.3743,4,0.0002,3.69897
app_52,3349.23,26110.1,7692.2,122.948,1.34825,6.85484e+10,1.03083,0.965059,5401,68.5484,4,0.0002,3.69897
app_53,1384.2,25159.6,7595.96,404.037,1.67609,7.55621e+10,1.04282,0.965059,4604,49.1282,5,0.0002,3.69897
app_54,1439.34,22455,7999.5,0.5,1.88957,3.39088e+08,1.00002,0.965059,4271,0.339088,5,0.0002,3.69897
app_55,5867.92,30600.5,7660.9,339.1,1.31322,1.20396e+11,1.02811,0.965059,6031,120.396,4,0.0002,3.69897
app_56,718.299,23634,7793.1,109.239,1.38433,3.07499e+10,1.02251,0.965059,5554,15.375,4,0.0002,3.69897
app_57,1454.44,24329.7,7435.2,222.678,1.71016,9.66459e+10,1.06216,0.965059,4398,48.3229,5,0.0002,3.69897
app_58,2389.15,24688.6,7513.4,138.143,1.74544,3.95342e+10,1.05919,0.965059,4296,19.7671,5,0.0002,3.69897
app_59,2044.9,23242.6,7946.4,17.0704,1.50772,9.14872e+09,1.00559,0.965059,5415,4.57436,4,0.0002,3.69897
app_6,2.80833,20066.1,7734.1,233.438,774.67,1.88305e+11,1.00979,0.965059,10,0.242974,1942,0.1,1
app_60,118.1,21927.7,7334.7,232.091,1.85625,1.01504e+11,1.07582,0.965059,4306,50.7518,5,0.0002,3.69897
app_7,1.39985,19533,7894.3,71.7399,792.387,1.30142e+10,1.01172,0.965059,10,0.0164113,1931,0.1,1
app_8,9.82576,18400.7,7880.8,75.6817,877.652,2.31917e+09,1.01483,0.965059,9,0.00264142,2016,0.1,1
app_9,4.57134,18897,7706.6,257.482,855.545,2.07801e+11,1.01082,0.965059,9,0.242758,2025,0.1,1
