app_id,Tcomp,Tio,iter,witer,alpha_io,compute_size,io_size,mu,desyn_time
1,8.852390849589964,0.03591011711655635,2251,8.88830096670652,0.004040155396522596,8e9,35910117.116556354,10,7.044944753228697
2,10.344686678450286,0.03811429830258768,1927,10.382800976752874,0.003670907146147338,10e9,38114298.30258768,10,10.032150599207583
3,11.178994085276996,0.0559509566689181,1781,11.234945041945913,0.0049800828094862925,11e9,55950956.668918096,10,9.776363299515
4,8.980873092361128,0.03846222214191076,2218,9.019335314503039,0.004264418696138698,8e9,38462222.14191076,10,4.682071291165258
5,10.171476309084493,0.011031047306845647,1965,10.182507356391339,0.0010833331045836856,10e9,11031047.306845646,10,1.7657995101279305
6,7.901427183770701,0.030428100926749354,2522,7.93185528469745,0.003836189622048808,7e9,30428100.926749352,10,7.738833725314645
7,12.729398918022524,0.08621897504436903,1561,12.815617893066893,0.006727648698937297,12e9,86218975.04436903,10,3.8664090692572994
8,10.776789609497197,0.01973220405935454,1853,10.79652181355655,0.0018276445322027678,10e9,19732204.05935454,10,4.115519594219157
9,10.855067477905608,0.07000891481844289,1831,10.925076392724051,0.006408093847752667,10e9,70008914.81844288,10,9.582517436037207
10,9.83882474381933,0.057621737884344444,2021,9.896446481703675,0.005822467487787076,9e9,57621737.88434444,10,4.612545954188736
11,10.89431276899553,0.006996494606429684,1835,10.90130926360196,0.0006418031483420125,10e9,6996494.606429684,10,5.989309395263294
12,12.157772956580306,0.030846368888025173,1641,12.18861932546833,0.0025307516843660178,12e9,30846368.888025172,10,9.809709494025256
13,11.07443304489495,0.07169641389569689,1795,11.146129458790648,0.006432404554493299,11e9,71696413.8956969,10,0.533699796940919
14,9.741262974106332,0.02455462448459068,2048,9.765817598590923,0.0025143439590898753,9e9,24554624.48459068,10,1.964379194454664
15,10.241881513352876,0.01851084283524564,1950,10.260392356188122,0.001804106723470629,10e9,18510842.83524564,10,1.673639519009136
16,94.6129602377756,0.3169552786613187,211,94.92991551643692,0.003338834517412359,94e9,316955278.66131866,100,70.476243288415
17,99.05023150341461,0.12061450909456607,202,99.17084601250917,0.0012162295063949747,99e9,120614509.09456608,100,16.489154570930303
18,79.68600457465485,0.20742209411398344,251,79.89342666876883,0.0025962347938077225,79e9,207422094.11398342,100,3.3786656946077245
19,108.83097293572179,0.1694079999201507,184,109.00038093564194,0.0015541964024894167,108e9,169407999.9201507,100,33.085976261207044
20,87.24512402839268,0.03824596473868782,230,87.28336999313137,0.0004381815773348064,87e9,38245964.73868782,100,4.217334468948674
21,88.95803937038029,0.17190991364196578,225,89.12994928402226,0.0019287558786122067,88e9,171909913.64196578,100,61.588499379123306
22,108.02639270473743,0.33918221085626715,185,108.3655749155937,0.0031299811874800397,108e9,339182210.85626715,100,97.74204831655211
23,83.52347714458136,0.4328988801440314,239,83.9563760247254,0.005156235900612735,83e9,432898880.1440314,100,68.94426218872162
24,83.47544300646558,0.04512864086479532,240,83.52057164733037,0.0005403296454357758,83e9,45128640.86479532,100,70.64331483967484
25,108.06633682523035,0.09639440232687242,185,108.16273122755723,0.0008911979314212572,108e9,96394402.32687242,100,22.899674859871485
26,89.35726333962296,0.2724860350482614,224,89.62974937467122,0.0030401293872775706,89e9,272486035.0482614,100,10.570706248541496
27,95.49675718393489,0.47512685106479413,209,95.97188403499969,0.004950687962857138,95e9,475126851.0647941,100,61.585536754272695
28,104.80634224639275,0.3076891653737224,191,105.11403141176646,0.0029271940314837897,104e9,307689165.3737224,100,89.35297220886699
29,96.67245497057577,0.5827332991725236,206,97.25518826974829,0.005991796525613078,96e9,582733299.1725236,100,18.994707131683096
30,94.59053805844104,0.21981182305729982,211,94.81034988149834,0.002318436999041122,94e9,219811823.05729982,100,13.488586708065494
31,178.48644286493678,0.7038857854291245,112,179.1903286503659,0.003928146070888336,178e9,703885785.4291245,150,164.0976374105523
32,146.01028287925644,0.3253414423041928,137,146.33562432156063,0.002223255231339168,146e9,325341442.30419284,150,13.451717476296723
33,144.6979208144896,0.6164378817812607,138,145.31435869627086,0.004242098904140022,144e9,616437881.7812607,150,78.00637273088336
34,148.81499815345035,0.1570774224133063,135,148.97207557586364,0.001054408497741008,148e9,157077422.4133063,150,75.3682885930499
35,147.1578975471604,0.35110559689054194,136,147.50900314405092,0.0023802316428622825,147e9,351105596.8905419,150,43.446813385393725
36,185.27950837756873,1.0539916393093136,108,186.33350001687805,0.0056564795874807445,185e9,1053991639.3093137,150,174.8518713604165
37,141.9556269001003,0.3066964426670192,141,142.26232334276733,0.002155851496450425,141e9,306696442.6670192,150,134.94575356640203
38,143.14467381617266,0.8049243006240652,139,143.94959811679672,0.00559170925903504,143e9,804924300.6240652,150,84.67197343476666
39,146.2944810803799,0.7994874751224795,136,147.09396855550239,0.00543521588936403,146e9,799487475.1224796,150,70.01574486341512
40,155.9314893612844,0.4263634334069806,128,156.35785279469138,0.0027268437484033827,155e9,426363433.4069806,150,59.81233984239825
41,143.11271179075385,0.7888416780658517,139,143.9015534688197,0.005481814886986444,143e9,788841678.0658517,150,22.202096065532256
42,154.02329134319052,0.028549744142790257,130,154.05184108733332,0.0001853255627539379,154e9,28549744.142790258,150,140.8405752670672
43,147.52795652336692,0.6943301052838425,135,148.22228662865078,0.004684383982169867,147e9,694330105.2838426,150,146.32216623490768
44,125.9758152139748,0.5570245425739597,159,126.53283975654875,0.0044022132408130885,125e9,557024542.5739597,150,70.63423374943153
45,151.22059249617396,0.3621339663328795,132,151.58272646250686,0.00238901868823722,151e9,362133966.3328795,150,147.31437553754398
46,1042.4360387092597,5.4459012566982645,20,1047.881939965958,0.005197056127215231,1042e9,5445901256.698264,1000,504.6338472431093
47,933.1389609547878,6.150471484275154,22,939.2894324390629,0.006548004557343053,933e9,6150471484.275154,1000,134.93210631108815
48,932.5413383148082,2.7633749021831795,22,935.3047132169913,0.0029545183116617894,932e9,2763374902.1831794,1000,548.1080785973973
49,889.9407261944913,2.0039938375131072,23,891.9447200320044,0.00224676910183537,889e9,2003993837.5131073,1000,715.8655228598263
50,1005.9823078803333,1.8904597332969464,20,1007.8727676136302,0.0018756928394573485,1005e9,1890459733.2969463,1000,242.11155060316577
51,1070.8404950301206,2.0146201797511774,19,1072.8551152098717,0.001877811972175831,1070e9,2014620179.7511773,1000,649.7801646449067
52,1159.11625535384,1.1410008774279985,18,1160.257256231268,0.0009834033541269824,1159e9,1141000877.4279985,1000,987.2781034305651
53,965.0847501859181,2.7649483930546697,21,967.8496985789727,0.0028567952204916255,965e9,2764948393.05467,1000,419.7844013648433
54,1038.493444330134,0.8326584321674868,20,1039.3261027623016,0.0008011522369682265,1038e9,832658432.1674868,1000,929.7726616705072
55,901.412944546812,2.771276754641581,23,904.1842213014536,0.003064947042155519,901e9,2771276754.641581,1000,785.0926691775944
56,970.3736119544386,5.352117650257721,21,975.7257296046963,0.005485268542038005,970e9,5352117650.257721,1000,287.3745592520141
57,1022.4011953113921,6.318971737418599,20,1028.7201670488107,0.006142556488949222,1022e9,6318971737.418599,1000,775.6364587389726
58,1042.0643996947892,3.3460508635407646,20,1045.41045055833,0.0032007053896904464,1042e9,3346050863.540765,1000,658.6995162759237
59,1004.5970626901125,3.1791546185921136,20,1007.7762173087045,0.0031546235801060453,1004e9,3179154618.5921135,1000,66.54691831883808
60,1110.381048277365,4.986725539764577,18,1115.3677738171295,0.0044709248884773475,1110e9,4986725539.764577,1000,1073.9915743170068
