app_id,start_app,end_app,effective_cpu,effective_io,effective_iter,total_bytes,stretch,utilization,Tcomp,Tio,iterations,priority,group_id
app_1,8.08162,18353.7,7904.37,88.631,876.085,5.03593e+10,1.00569,0.994293,9,0.0574703,2011,0.1,1
app_10,4.19679,19583.5,7907.3,86.1466,881.284,2.82583e+10,1.00812,0.994293,9,0.0320389,2158,0.1,1
app_11,3.15404,19366.5,7917.2,74.8967,790.208,2.03471e+10,1.00787,0.994293,10,0.0257558,1915,0.1,1
app_12,0.43212,20111.9,7928.1,65.6917,659.125,3.5813e+10,1.00453,0.994293,12,0.0543444,1658,0.1,1
app_13,7.61055,18934,7917.4,75.3785,792.19,1.23984e+10,1.00885,0.994293,10,0.0156545,1876,0.1,1
app_14,8.36084,19430.2,7909.7,82.0612,791.922,5.62917e+10,1.00427,0.994293,10,0.0710754,1922,0.1,1
app_15,10.7741,18785.5,7910.2,82.227,791.052,5.7206e+10,1.00409,0.994293,10,0.0723211,1855,0.1,1
app_16,76.0281,19811.7,7967.9,30.224,87.4496,2.3531e+10,1.00107,0.994293,92,0.270471,216,0.01,2
app_17,26.2105,20003.6,7975.4,23.2769,76.1586,1.65782e+10,1.001,0.994293,105,0.218134,189,0.01,2
app_18,47.3828,20191.1,7980.7,18.219,85.2715,1.0739e+10,1.00107,0.994293,93,0.126341,215,0.01,2
app_19,89.8585,20123.2,7938.2,60.0133,71.243,5.10568e+10,1.00134,0.994293,111,0.71911,179,0.01,2
app_2,1.32971,18844.6,7903.4,89.555,874.231,5.52605e+10,1.00519,0.994293,9,0.0632271,2067,0.1,1
app_20,26.2767,20224.1,7975.1,23.509,74.9256,1.6317e+10,1.00107,0.994293,106,0.21756,189,0.01,2
app_21,63.5504,19977.6,7963,35.9291,84.663,2.64109e+10,1.00133,0.994293,94,0.310716,211,0.01,2
app_22,76.5668,20177.3,7988.4,9.25622,92.7257,2.65726e+09,1.00112,0.994293,86,0.0285727,233,0.01,2
app_23,9.63196,19961.6,7934.1,65.5074,120.566,5.40951e+10,1.00148,0.994293,66,0.447067,299,0.01,2
app_24,80.5739,20110.1,7989.8,9.67393,95.3494,2.79438e+09,1.00093,0.994293,84,0.0291082,237,0.01,2
app_25,81.848,20178.7,7984.1,14.8519,72.486,8.71064e+09,1.0009,0.994293,110,0.119324,182,0.01,2
app_26,65.4249,20056.4,7943.3,56.5442,66.7176,4.70219e+10,1.00121,0.994293,119,0.701819,166,0.01,2
app_27,105.581,20245.8,7957.5,42.1277,71.8558,3.3725e+10,1.0011,0.994293,109,0.468403,183,0.01,2
app_28,85.9266,19918.8,7969.3,29.5119,83.6676,2.48828e+10,1.00073,0.994293,96,0.296224,207,0.01,2
app_29,42.3312,20283.4,7963.2,35.6325,65.1463,2.77858e+10,1.00113,0.994293,121,0.427474,165,0.01,2
app_3,8.30048,19099.5,7908.1,84.403,877.878,1.98695e+10,1.00909,0.994293,9,0.0226304,2095,0.1,1
app_30,53.5441,20187.6,7990.4,6.67923,69.6802,8.1556e+08,1.0011,0.994293,114,0.0116509,176,0.01,2
app_31,115.41,20054.7,7988.4,8.28463,65.4738,6.49773e+09,1.00064,0.994293,123,0.099965,162,0.00666667,2.17609
app_32,47.3837,20079.8,7994.2,5.54635,53.4355,2.44907e+09,1.00042,0.994293,149,0.0453532,134,0.00666667,2.17609
app_33,15.6443,19972.2,7964.3,34.4773,50.6064,2.82298e+10,1.00093,0.994293,157,0.564595,127,0.00666667,2.17609
app_34,7.84771,19967.7,7945.4,54.0995,53.4874,4.47573e+10,1.00123,0.994293,149,0.844477,134,0.00666667,2.17609
app_35,151.121,20080.7,7950.9,49.0229,52.1176,3.99831e+10,1.00114,0.994293,154,0.768907,129,0.00666667,2.17609
app_36,21.8849,20121.8,7963.6,35.905,60.6602,2.87373e+10,1.00096,0.994293,131,0.471102,152,0.00666667,2.17609
app_37,42.5312,19993.9,7971,28.5103,53.3566,2.20814e+10,1.00087,0.994293,148,0.408915,134,0.00666667,2.17609
app_38,70.308,20245,7983.2,16.703,45.6752,1.36327e+10,1.0004,0.994293,172,0.296363,116,0.00666667,2.17609
app_39,139.525,20319.9,7986.3,10.3578,50.9878,5.99259e+09,1.00096,0.994293,155,0.117502,129,0.00666667,2.17609
app_4,3.89231,20026.3,7915.2,77.0064,792.125,2.34727e+10,1.00773,0.994293,10,0.0296372,1982,0.1,1
app_40,98.595,20001.6,7977.2,22.1325,57.7174,1.73057e+10,1.00069,0.994293,140,0.298374,142,0.00666667,2.17609
app_41,127.095,20142,7954.9,45.0544,52.6935,3.71982e+10,1.00099,0.994293,151,0.701852,132,0.00666667,2.17609
app_42,6.98248,20223.2,7936.8,62.4078,49.5379,5.22445e+10,1.00137,0.994293,161,1.04489,124,0.00666667,2.17609
app_43,69.4517,20093.9,7985.6,12.7784,58.3555,6.47187e+09,1.00099,0.994293,136,0.109693,147,0.00666667,2.17609
app_44,155.515,19999.7,7965.5,31.724,47.3904,2.6057e+10,1.00106,0.994293,168,0.554404,119,0.00666667,2.17609
app_45,33.0202,20073.8,7942.9,56.2972,55.4296,4.68714e+10,1.00128,0.994293,143,0.852208,139,0.00666667,2.17609
app_46,39.9779,20303,7974.8,24.6384,8.34223,1.92419e+10,1.00075,0.994293,965,2.40524,21,0.001,3
app_47,183.658,20434.7,7931.2,68.8,7.4924,5.88208e+10,1.00125,0.994293,1058,7.35261,19,0.001,3
app_48,111.068,20795.2,7976,19.8733,9.59234,1.49958e+10,1.00113,0.994293,809,1.6662,25,0.001,3
app_49,841.233,20904.8,7956.7,43.3,9.7282,3.50678e+10,1.00103,0.994293,843,3.50678,24,0.001,3
app_5,3.49345,17924.9,7892.7,100.689,987.648,6.32772e+10,1.00553,0.994293,8,0.0641106,2209,0.1,1
app_50,499.448,21120.8,7983.5,16.5,8.53942,1.40104e+10,1.00031,0.994293,946,1.55671,22,0.001,3
app_51,356.202,20736.3,7993.7,6.3,8.80284,5.29195e+09,1.00013,0.994293,920,0.661493,22,0.001,3
app_52,324.345,20694,7942.4,57.6,8.13525,4.82112e+10,1.00117,0.994293,961,5.3568,21,0.001,3
app_53,253.25,20872.6,7965.6,31.3622,7.39942,2.45583e+10,1.00123,0.994293,1081,3.50833,19,0.001,3
app_54,658.053,21303.4,7986.1,13.9,7.71265,1.21431e+10,1.00022,0.994293,1039,1.73473,20,0.001,3
app_55,344.447,19979.7,7956,44,7.99614,3.79979e+10,1.00075,0.994293,1000,4.74974,20,0.001,3
app_56,589.323,21627.5,7983.6,16.4,7.75634,1.28433e+10,1.00044,0.994293,1045,1.83476,20,0.001,3
app_57,712.425,22325,7994.3,5.10695,7.53542,3.80602e+09,1.00024,0.994293,1051,0.475753,20,0.001,3
app_58,317.207,20308.1,7986.5,13.5,7.39736,1.08264e+10,1.00033,0.994293,1116,1.54663,18,0.001,3
app_59,827.586,21576.9,7952.6,47.4,8.42538,4.17461e+10,1.00071,0.994293,928,5.21827,22,0.001,3
app_6,0.25294,18912.3,7920.2,74.3643,790.864,1.68273e+09,1.00986,0.994293,10,0.00212735,1869,0.1,1
app_60,734.314,21438,7984.1,15.9,8.96306,1.41235e+10,1.00022,0.994293,899,1.56927,23,0.001,3
app_7,3.43497,18587.5,7895.7,97.1064,988.24,3.36745e+10,1.00891,0.994293,8,0.0340835,2290,0.1,1
app_8,10.1062,19810.7,7911,82.1603,792.893,5.94881e+10,1.0037,0.994293,10,0.0750165,1961,0.1,1
app_9,10.1714,19800.9,7922.4,71.5682,720.27,3.21871e+10,1.00571,0.994293,11,0.0447043,1780,0.1,1
