app_id,start_app,end_app,effective_cpu,effective_io,effective_iter,total_bytes,stretch,utilization,Tcomp,Tio,iterations,priority,group_id
app_1,5.73251,19950.3,7915.1,78.4393,791.454,3.6522e+10,1.00608,0.99433,10,0.0461719,1973,0.1,1
app_10,8.19156,18776.5,7919.3,74.4829,793.287,4.97445e+09,1.00956,0.99433,10,0.00627295,1858,0.1,1
app_11,6.26113,18385.4,7906.1,87.4099,878.01,3.83529e+10,1.00699,0.99433,9,0.0436821,2018,0.1,1
app_12,0.805532,19577,7918.5,75.0238,788.721,9.52794e+09,1.00908,0.99433,10,0.012076,1934,0.1,1
app_13,2.38357,19923.8,7916.2,78.1013,792.08,3.21666e+10,1.0065,0.99433,10,0.0406144,1971,0.1,1
app_14,2.62483,19762.4,7927.6,66.6085,659.949,3.8524e+10,1.00425,0.99433,12,0.0583698,1631,0.1,1
app_15,0.0630755,19404,7903.9,88.6209,879.345,4.34311e+10,1.00663,0.99433,9,0.0494097,2131,0.1,1
app_16,11.187,20005.4,7945.4,54.3017,83.3187,4.39339e+10,1.00134,0.99433,96,0.523023,207,0.01,2
app_17,7.83313,20111.7,7988.7,10.2819,97.8563,4.41112e+09,1.00086,0.99433,82,0.0450114,244,0.01,2
app_18,79.4771,20133.4,7988.3,10.5712,87.3189,6.87371e+09,1.0006,0.99433,90,0.0781103,222,0.01,2
app_19,104.096,20242,7956.8,42.2664,73.8512,3.3894e+10,1.00116,0.99433,107,0.458027,186,0.01,2
app_2,8.22328,18764.4,7913,79.9163,794.047,4.42411e+10,1.00537,0.99433,10,0.0557193,1852,0.1,1
app_20,9.82917,20132.1,7949.56,50.0263,72.3103,4.05535e+10,1.00124,0.99433,109,0.557583,183,0.01,2
app_21,78.477,19870.6,7967.9,30.8376,85.3117,2.46778e+10,1.00093,0.99433,95,0.290327,210,0.01,2
app_22,66.8535,20105.2,7981.4,16.8894,69.2354,1.24723e+10,1.00077,0.99433,115,0.180758,174,0.01,2
app_23,7.47069,19868.4,7981.8,18.0158,76.6487,1.36515e+10,1.00057,0.99433,106,0.179625,188,0.01,2
app_24,84.6091,19995.5,7963.8,35.519,83.4916,2.81229e+10,1.00101,0.99433,96,0.33883,207,0.01,2
app_25,11.5842,19756.8,7954.8,43.1992,79.122,3.51791e+10,1.00125,0.99433,102,0.445305,194,0.01,2
app_26,34.3149,20196.1,7953.1,45.8489,71.8505,3.67036e+10,1.00128,0.99433,110,0.509773,181,0.01,2
app_27,28.6176,20107.2,7982.4,16.3748,79.6926,9.99043e+09,1.00095,0.99433,100,0.12488,199,0.01,2
app_28,87.9995,20255.7,7989.9,8.07753,82.3453,1.92429e+09,1.00102,0.99433,96,0.023467,208,0.01,2
app_29,97.4658,20096.5,7954.4,44.8549,77.7544,3.68718e+10,1.00109,0.99433,102,0.472716,195,0.01,2
app_3,1.69222,19063.4,7914.6,79.3675,791.444,3.99216e+10,1.00572,0.99433,10,0.050406,1886,0.1,1
app_30,19.9722,19970.6,7971.1,28.2176,80.9845,2.26162e+10,1.00079,0.99433,99,0.279212,201,0.01,2
app_31,46.3722,19878.9,7975.9,22.3737,45.5257,1.77785e+10,1.00079,0.99433,176,0.38649,113,0.00666667,2.17609
app_32,100.038,20218.5,7948.3,51.1456,52.3767,4.20462e+10,1.00121,0.99433,152,0.80858,131,0.00666667,2.17609
app_33,1.52297,19910.5,7952,46.6671,55.3915,3.90851e+10,1.00112,0.99433,144,0.697948,138,0.00666667,2.17609
app_34,142.816,20078,7955.1,44.7947,50.8314,3.66379e+10,1.00103,0.99433,157,0.71839,127,0.00666667,2.17609
app_35,81.3195,20281.7,7945.8,54.1956,54.6588,4.39432e+10,1.00128,0.99433,143,0.798967,139,0.00666667,2.17609
app_36,40.8601,20140.1,7988.9,10.4846,48.2991,6.25039e+09,1.00061,0.99433,165,0.127559,121,0.00666667,2.17609
app_37,10.8264,19889.3,7985.3,13.9487,57.4201,9.63089e+09,1.00063,0.99433,140,0.168963,142,0.00666667,2.17609
app_38,51.6726,20028.9,7967.1,31.7033,49.1508,2.44848e+10,1.00105,0.99433,161,0.499691,124,0.00666667,2.17609
app_39,25.1383,20042.1,7989.5,10.4024,48.5373,6.00808e+09,1.00056,0.99433,164,0.122614,122,0.00666667,2.17609
app_4,7.47514,19723,7904,87.4902,874.541,4.3796e+10,1.00657,0.99433,9,0.0500525,2162,0.1,1
app_40,7.96643,20073.7,7968.6,29.2465,61.5557,2.30093e+10,1.00105,0.99433,129,0.377201,154,0.00666667,2.17609
app_41,59.808,20037.4,7992.9,6.20784,53.6892,4.34529e+09,1.00034,0.99433,149,0.0804684,134,0.00666667,2.17609
app_42,56.1171,19982.5,7944.9,54.3349,59.9394,4.38043e+10,1.00141,0.99433,133,0.730072,149,0.00666667,2.17609
app_43,108.023,20049.6,7981.4,17.4234,51.3116,1.28341e+10,1.00072,0.99433,156,0.246809,128,0.00666667,2.17609
app_44,99.4383,20292.3,7982.1,17.2414,54.0457,1.27655e+10,1.00064,0.99433,147,0.236398,136,0.00666667,2.17609
app_45,133.147,20141.2,7983.6,16.2488,53.1611,1.13405e+10,1.00063,0.99433,149,0.213973,134,0.00666667,2.17609
app_46,571.326,20595.1,7987.3,12.7,7.77391,9.84588e+09,1.00036,0.99433,1015,1.23074,20,0.001,3
app_47,370.543,20431.1,7950.9,48.7877,6.80031,4.28403e+10,1.00078,0.99433,1172,6.12004,17,0.001,3
app_48,15.146,21014.1,7947.8,50.8931,8.37691,4.34687e+10,1.00109,0.99433,939,5.43359,22,0.001,3
app_49,837.387,20787.7,7961.8,38.2,8.01729,3.30609e+10,1.00064,0.99433,1009,4.13262,20,0.001,3
app_5,0.923093,18831.7,7903.3,88.327,879.691,4.18118e+10,1.00691,0.99433,9,0.0475675,2070,0.1,1
app_50,771.602,20874,7980.6,17.4192,7.54475,1.39511e+10,1.00068,0.99433,1056,1.99302,19,0.001,3
app_51,767.176,20520.5,7975.6,24.4,7.0156,1.77258e+10,1.00083,0.99433,1175,2.53226,17,0.001,3
app_52,638.854,20908.8,7972.8,25.52,8.51585,2.12907e+10,1.00074,0.99433,921,2.66134,22,0.001,3
app_53,588.321,20783.6,7971,26.358,8.72373,2.27632e+10,1.00078,0.99433,933,2.52925,22,0.001,3
app_54,410.875,20597.8,7979.5,20.5,7.65236,1.82562e+10,1.00028,0.99433,1051,2.60803,19,0.001,3
app_55,274.522,20583.7,7941.7,52.8599,6.95021,4.25883e+10,1.00197,0.99433,1135,6.08405,18,0.001,3
app_56,555.652,20622,7948.7,51.3,9.65252,4.20896e+10,1.00115,0.99433,831,4.20896,24,0.001,3
app_57,356.743,21040.7,7970.4,28.1028,8.47396,2.27173e+10,1.00086,0.99433,945,2.83966,22,0.001,3
app_58,145.46,20453.8,7992.9,7.1,10.2701,4.33552e+09,1.00035,0.99433,783,0.433552,26,0.001,3
app_59,78.3957,21263,7970.9,25.8831,7.14961,2.26335e+10,1.00081,0.99433,1104,3.23336,19,0.001,3
app_6,4.09834,18312.4,7912.6,80.083,791.461,4.2381e+10,1.00566,0.99433,10,0.0535114,1814,0.1,1
app_60,572.14,21329,7957.1,42.9,8.77261,3.53363e+10,1.00095,0.99433,880,4.41704,23,0.001,3
app_7,9.23272,18584.6,7913.6,79.8103,790.895,4.58656e+10,1.00509,0.99433,10,0.0579843,1837,0.1,1
app_8,5.02055,19928.4,7903.2,88.9671,881.633,4.62503e+10,1.00636,0.99433,9,0.052438,2190,0.1,1
app_9,1.04679,18391.7,7907.4,86.7123,882.246,3.15891e+10,1.00768,0.99433,9,0.0357748,2026,0.1,1
