app_id,Tcomp,Tio,iter,witer,alpha_io,compute_size,io_size,mu,desyn_time
1,9.340031199126491,0.04942202852089543,2131,9.389453227647387,0.005263568316776053,9e9,49422028.52089543,10,6.474782315304467
2,9.244180348025608,0.008606498214977956,2162,9.252786846240586,0.0009301520026341883,9e9,8606498.214977955,10,5.917369657406784
3,12.001814722892966,0.02245586992127212,1664,12.024270592814238,0.0018675452908296871,12e9,22455869.92127212,10,10.347668225065526
4,8.50653974610875,0.05663769527864261,2336,8.563177441387392,0.006614098057212074,8e9,56637695.27864261,10,4.084303035541072
5,9.211494537986924,0.0599149191409416,2158,9.271409457127866,0.006462331258046097,9e9,59914919.140941605,10,4.465868103492615
6,8.969091877987376,0.04624975036061314,2219,9.015341628347988,0.00513011622490097,8e9,46249750.360613145,10,1.1476404477534725
7,9.970574493458198,0.04484589887194648,1997,10.015420392330144,0.0044776851210648816,9e9,44845898.871946484,10,4.254580260946226
8,9.156163850526505,0.03790860086924337,2176,9.19407245139575,0.004123156639198387,9e9,37908600.869243376,10,4.769313251942751
9,10.60591715554352,0.021575287770558515,1882,10.627492443314077,0.0020301390836680263,10e9,21575287.770558514,10,5.828147060320156
10,10.13403072746493,0.03790033537282152,1967,10.171931062837752,0.0037259724961454994,10e9,37900335.37282152,10,7.450822412028726
11,9.225756626749888,0.048780730653894815,2157,9.274537357403783,0.0052596403221076655,9e9,48780730.65389481,10,3.0025289314273853
12,9.571594433484037,0.05810062428151473,2077,9.629695057765552,0.006033485373419108,9e9,58100624.281514734,10,8.107030482943598
13,9.464113318263749,0.051941066714910486,2102,9.51605438497866,0.005458256606530204,9e9,51941066.714910485,10,5.304871371916158
14,7.035694192406522,0.025232415585424293,2833,7.060926607991947,0.0035735275249660367,7e9,25232415.585424293,10,4.390785729884357
15,9.66439740946382,0.016279694330837383,2066,9.680677103794658,0.0016816689738010189,9e9,16279694.330837382,10,4.7121382474578715
16,9.274102632169367,0.04446857194832356,2147,9.31857120411769,0.004772037576820123,9e9,44468571.948323555,10,4.63884384780671
17,9.669448205278941,0.013240681856883726,2066,9.682688887135825,0.001367459185275999,9e9,13240681.856883727,10,6.673880228421267
18,11.116331024786968,0.03707270929889085,1794,11.153403734085858,0.0033238919869450385,11e9,37072709.29889085,10,8.679123878434313
19,10.596568291741118,0.02626112909116005,1883,10.622829420832279,0.0024721407123096343,10e9,26261129.091160048,10,6.419469601842027
20,9.536910296591751,0.024681899788595786,2092,9.561592196380346,0.0025813587613514213,9e9,24681899.788595784,10,7.921757680595284
21,99.62612570048874,0.10153981601864666,201,99.72766551650739,0.0010181709908955938,99e9,101539816.01864666,100,35.35225451467851
22,112.61997399470874,0.4060735773864455,177,113.0260475720952,0.00359274331987435,112e9,406073577.3864455,100,66.14779637774669
23,100.4928787409192,0.11599363656211105,199,100.6088723774813,0.0011529165750601656,100e9,115993636.56211105,100,76.82242686588891
24,121.32787250020476,0.15783089763230781,165,121.48570339783707,0.0012991726040013844,121e9,157830897.63230783,100,112.90522830577834
25,103.56705715343669,0.016039865909746466,194,103.58309701934644,0.00015485022529062502,103e9,16039865.909746466,100,70.2250093041541
26,110.74451957728323,0.6117058576565992,180,111.35622543493983,0.005493234484802019,110e9,611705857.6565993,100,24.82151273709775
27,95.01148192084578,0.03831159400646755,211,95.04979351485225,0.00040306867158507897,95e9,38311594.00646755,100,16.414413561851838
28,105.61823104232342,0.057196186165661654,190,105.67542722848907,0.0005412439548694071,105e9,57196186.165661655,100,69.08470303467632
29,114.78133365567064,0.20439021810280114,174,114.98572387377344,0.0017775269069677923,114e9,204390218.10280114,100,82.43090640333901
30,94.80054510518204,0.3689671634487839,211,95.16951226863083,0.0038769470879215645,94e9,368967163.4487839,100,77.35549821593061
31,128.22277192454473,0.6389251908005549,156,128.8616971153453,0.004958224244312467,128e9,638925190.8005549,100,85.36720208640486
32,113.06194825130089,0.17734532871894085,177,113.23929358001983,0.00156611122440128,113e9,177345328.71894085,100,16.62679437158686
33,106.74911676702482,0.35343530695585534,187,107.10255207398068,0.00329997091676883,106e9,353435306.95585537,100,4.283639800447937
34,123.1963701582487,0.24677476654120478,163,123.4431449247899,0.001999096561348603,123e9,246774766.54120478,100,14.244779131796577
35,116.73201400463243,0.6970443597731595,171,117.42905836440559,0.0059358762599466056,116e9,697044359.7731595,100,26.76675998388101
36,87.9603796072132,0.5758086786340272,226,88.53618828584723,0.0065036533623401074,87e9,575808678.6340271,100,51.45792869064021
37,95.07944227902343,0.06665429591862801,211,95.14609657494205,0.0007005468255455714,95e9,66654295.91862801,100,43.40949291383789
38,115.1999318569513,0.39726410522765404,174,115.59719596217894,0.003436624062729262,115e9,397264105.22765404,100,75.24908814464561
39,112.9769283059754,0.18321222374181226,177,113.16014052971722,0.0016190526353552779,112e9,183212223.74181226,100,77.04107139465088
40,93.11315553603721,0.5032073926909343,214,93.61636292872815,0.0053752076768249935,93e9,503207392.6909343,100,20.158041051991773
41,1022.3334670443672,2.4833543673450222,20,1024.8168214117122,0.002423217803864827,1022e9,2483354367.345022,1000,84.75774898195127
42,936.466704845865,5.294992466375955,22,941.7616973122409,0.005622433447322929,936e9,5294992466.375956,1000,495.9318844551614
43,868.3042207040953,5.352631072179707,23,873.6568517762751,0.0061266972968815015,868e9,5352631072.179708,1000,667.772806160384
44,937.2854043067946,2.4597373937705487,22,939.7451417005651,0.002617451567048702,937e9,2459737393.770549,1000,421.62792581401857
45,1060.9823634740612,0.6772241836404364,19,1061.6595876577016,0.000637892024443136,1060e9,677224183.6404363,1000,174.40687139236778
46,1034.693386281314,2.3690095616282845,20,1037.0623958429421,0.0022843462178596427,1034e9,2369009561.6282845,1000,906.8807125720913
47,1050.429210404637,5.966151811848496,19,1056.3953622164854,0.005647650515362507,1050e9,5966151811.848496,1000,621.5089534458621
48,1057.7275118862858,2.5808710396585957,19,1060.3083829259444,0.0024340758605874875,1057e9,2580871039.6585956,1000,118.05336715456878
49,1114.2106244661743,5.4713748360583265,18,1119.6819993022327,0.0048865435359932525,1114e9,5471374836.058327,1000,839.3002234014723
50,871.2319589044381,1.1993049258825108,23,872.4312638303206,0.0013746698171006443,871e9,1199304925.882511,1000,729.3518863244308
51,932.695747886923,6.195301032011582,22,938.8910489189345,0.006598530297146858,932e9,6195301032.011582,1000,98.22584757445904
52,843.903584180399,0.6360230736148568,24,844.5396072540138,0.0007531003497667325,843e9,636023073.6148567,1000,456.83940108846053
53,995.8805713504026,1.1139316738403928,21,996.994503024243,0.0011172896846085281,995e9,1113931673.8403928,1000,711.9267267487817
54,999.1817340352782,1.4197146965536684,20,1000.6014487318319,0.0014188613242095774,999e9,1419714696.5536685,1000,848.7479377086015
55,1143.6506413750142,7.2726486529233245,18,1150.9232900279376,0.00631896905374709,1143e9,7272648652.923325,1000,519.5965835888798
56,991.5059811535889,1.7160926085346635,21,993.2220737621235,0.0017278035334378477,991e9,1716092608.5346634,1000,710.6075002890358
57,1119.0718548749096,4.101655614604699,18,1123.1735104895142,0.0036518450411255413,1119e9,4101655614.6046987,1000,358.22672347647284
58,985.8566686392508,5.208945445076159,21,991.065614084327,0.005255903717221436,985e9,5208945445.076159,1000,69.3777674361999
59,1051.0066955773318,2.030372180394896,19,1053.0370677577266,0.0019281108353747202,1051e9,2030372180.3948963,1000,397.06967810944684
60,1092.4804824393339,5.84544210872851,19,1098.3259245480624,0.005322137972053955,1092e9,5845442108.72851,1000,52.09582353094295
