app_id,start_app,end_app,effective_cpu,effective_io,effective_iter,total_bytes,stretch,utilization,Tcomp,Tio,iterations,priority,group_id
app_1,6.98805,19715.6,7912.7,79.2702,791.938,3.74317e+10,1.00627,0.993461,10,0.0472622,1946,0.1,1
app_10,0.928662,19201.1,7900.4,88.6817,880.814,4.42382e+10,1.00697,0.993461,9,0.0502136,2111,0.1,1
app_11,8.01035,20069.8,7923.1,68.149,719.908,1.51948e+10,1.00777,0.993461,11,0.021104,1808,0.1,1
app_12,4.08613,19234.6,7908.2,80.8003,881.165,8.79418e+09,1.01048,0.993461,9,0.00998205,2113,0.1,1
app_13,6.88804,18713.9,7909.2,80.7764,878.396,4.53518e+09,1.0109,0.993461,9,0.00516535,2055,0.1,1
app_14,7.88885,19555.1,7922.3,69.6795,658.163,5.00444e+10,1.00347,0.993461,12,0.0760553,1612,0.1,1
app_15,10.1155,19657.4,7922.5,69.055,720.208,2.05382e+10,1.00717,0.993461,11,0.0285253,1767,0.1,1
app_16,3.03225,19412.4,7921.2,68.4152,719.848,2.12384e+10,1.00725,0.993461,11,0.0294978,1746,0.1,1
app_17,1.25143,19464.1,7916.8,74.603,792.934,1.06395e+10,1.00915,0.993461,10,0.0134168,1929,0.1,1
app_18,1.02804,19793.8,7910.7,79.2165,793.337,3.68595e+10,1.0066,0.993461,10,0.0464811,1960,0.1,1
app_19,9.30737,19427.8,7913.2,77.4412,792.791,3.08147e+10,1.00705,0.993461,10,0.0388584,1922,0.1,1
app_2,3.03446,19238,7912.9,77.9264,790.423,3.5253e+10,1.00652,0.993461,10,0.044624,1901,0.1,1
app_20,9.09105,18713.7,7916.9,74.4383,791.926,1.2965e+10,1.00884,0.993461,10,0.01637,1851,0.1,1
app_21,46.6903,19984.7,7938.5,59.0515,80.5604,5.09884e+10,1.00132,0.993461,99,0.637355,200,0.01,2
app_22,5.88601,19781,7969.2,29.2099,86.3368,2.33056e+10,1.00094,0.993461,93,0.26788,214,0.01,2
app_23,63.7449,19885.8,7966.1,32.1568,79.9245,2.52917e+10,1.00108,0.993461,100,0.316147,198,0.01,2
app_24,36.4269,19909.2,7944.3,53.4972,83.4532,4.57386e+10,1.00125,0.993461,96,0.551068,207,0.01,2
app_25,47.5386,20080.3,7976.7,20.8711,93.291,1.71751e+10,1.00077,0.993461,85,0.182714,235,0.01,2
app_26,11.7306,19999.2,7976.1,23.0377,76.9105,1.55814e+10,1.00104,0.993461,105,0.202356,190,0.01,2
app_27,61.5631,19937.8,7990.6,7.92648,78.4482,1.99553e+09,1.00093,0.993461,102,0.0252598,195,0.01,2
app_28,31.1477,19844.7,7962,35.5723,84.6369,2.93188e+10,1.00109,0.993461,94,0.344927,210,0.01,2
app_29,76.2367,20064.6,7982.9,16.5937,82.8287,9.4088e+09,1.00096,0.993461,97,0.113359,206,0.01,2
app_3,0.406226,19971.2,7922.4,69.1741,718.272,2.11184e+10,1.00711,0.993461,11,0.0293719,1797,0.1,1
app_30,61.8834,20143.2,7991.3,7.20398,71.0353,3.11303e+09,1.0007,0.993461,112,0.0438455,179,0.01,2
app_31,41.507,19874.8,7962.3,36.5669,91.8184,2.74066e+10,1.00129,0.993461,87,0.301171,227,0.01,2
app_32,15.8857,19845.1,7955.8,43.4992,93.3057,3.66963e+10,1.00094,0.993461,86,0.390386,230,0.01,2
app_33,27.9014,19999.6,7959.4,39.064,89.221,3.23627e+10,1.00103,0.993461,89,0.363625,223,0.01,2
app_34,26.7448,20023.2,7986.6,11.0963,81.6982,7.82456e+09,1.0007,0.993461,98,0.0954215,204,0.01,2
app_35,76.1473,20074.9,7968.4,29.9814,74.2043,2.22377e+10,1.00117,0.993461,107,0.30051,186,0.01,2
app_36,78.7217,19916.9,7961.9,36.2578,89.8517,2.71248e+10,1.00137,0.993461,89,0.301387,223,0.01,2
app_37,48.4261,19971.6,7939,60.357,73.8315,5.19339e+10,1.00113,0.993461,108,0.70181,183,0.01,2
app_38,87.8928,20114,7954.2,44.942,87.1628,3.65159e+10,1.00116,0.993461,91,0.414953,218,0.01,2
app_39,15.8383,20110.7,7954.1,44.8034,87.8337,3.64892e+10,1.00118,0.993461,91,0.419416,219,0.01,2
app_4,4.50819,19609.4,7902,88.1384,882.656,4.47402e+10,1.0067,0.993461,9,0.0506684,2154,0.1,1
app_40,23.4633,20089.9,7989.2,7.90251,83.321,2.86094e+08,1.00132,0.993461,95,0.00340588,210,0.01,2
app_41,941.085,21330.4,7964.3,35.7,6.652,3.14126e+10,1.00054,0.993461,1201,4.48751,17,0.001,3
app_42,979.846,21662.9,7949.1,46.0565,6.67935,4.07516e+10,1.00127,0.993461,1161,5.82166,18,0.001,3
app_43,200.903,20804.5,7983.7,16.3,8.44133,1.34775e+10,1.00035,0.993461,931,1.68468,22,0.001,3
app_44,758.692,20631.9,7995.4,4.6,8.76368,3.58721e+09,1.00013,0.993461,909,0.398579,22,0.001,3
app_45,617.22,20710.7,7948.3,51.7,7.47095,4.53121e+10,1.0008,0.993461,1056,6.47316,19,0.001,3
app_46,29.1261,21013.1,7989.6,5.51243,8.64953,4.09941e+09,1.00079,0.993461,946,0.45549,22,0.001,3
app_47,591.062,20771.7,7956.3,41.4513,7.36607,3.29772e+10,1.00134,0.993461,1053,4.71102,19,0.001,3
app_48,923.533,21533.6,7955.4,44.6,8.2997,3.89863e+10,1.0007,0.993461,981,4.87329,21,0.001,3
app_49,387.821,20188.5,7950.3,46.1645,8.22664,4.15487e+10,1.00102,0.993461,1000,5.19359,20,0.001,3
app_5,0.581533,19383.9,7927.3,64.6745,608.678,4.75399e+10,1.00315,0.993461,13,0.0780623,1478,0.1,1
app_50,4.65252,20648,7952.9,46.0399,7.61071,4.03287e+10,1.00085,0.993461,1041,5.04109,20,0.001,3
app_51,356.497,20139.8,7986,5.86272,9.38762,4.17246e+09,1.00123,0.993461,879,0.463606,23,0.001,3
app_52,8.91168,20513,7962.1,34.067,7.48203,2.96425e+10,1.00103,0.993461,1098,4.23465,19,0.001,3
app_53,658.979,21325.9,7952.4,47.6,7.39321,4.06971e+10,1.00086,0.993461,1056,5.08714,19,0.001,3
app_54,92.1418,20270.1,7986.9,8.54079,7.29396,7.15277e+09,1.00074,0.993461,1141,0.894096,18,0.001,3
app_55,662.638,21500.7,7966.3,33.7,7.75914,2.63072e+10,1.00092,0.993461,1017,3.75817,20,0.001,3
app_56,275.878,21126.1,7978.6,19.7851,9.22069,1.69314e+10,1.00056,0.993461,862,1.88127,24,0.001,3
app_57,104.825,20846.2,7958,42,9.1928,3.59415e+10,1.00076,0.993461,898,3.9935,23,0.001,3
app_58,428.781,21065.5,7943,57,8.01324,4.74452e+10,1.0012,0.993461,970,5.93065,21,0.001,3
app_59,672.125,20927,7993.5,0.800573,8.04252,4.74214e+08,1.00075,0.993461,1019,0.0592767,20,0.001,3
app_6,7.80188,19143.8,7891.66,95.7474,987.808,3.34365e+10,1.00945,0.993461,8,0.0338623,2363,0.1,1
app_60,283.57,20084.6,7940.7,56.9221,7.42774,4.97367e+10,1.0012,0.993461,1107,7.10525,18,0.001,3
app_7,1.62352,17960.6,7892.5,96.4428,988.171,3.68332e+10,1.00891,0.993461,8,0.0372806,2216,0.1,1
app_8,5.58942,18118.7,7875,111.693,1125.94,5.11342e+10,1.00932,0.993461,7,0.0454123,2549,0.1,1
app_9,9.49318,18609.8,7918.7,72.4421,788.572,4.71941e+09,1.00967,0.993461,10,0.00598151,1838,0.1,1
