app_id,start_app,end_app,effective_cpu,effective_io,effective_iter,total_bytes,stretch,utilization,Tcomp,Tio,iterations,priority,group_id
app_1,7.85769,20248.2,7776.1,76.999,776.343,3.59324e+10,1.02406,0.986471,10,0.0463046,1962,1,1
app_10,2.67488,19691,7769.4,73.3122,776.107,2.72383e+10,1.02608,0.986471,10,0.0351009,1912,1,1
app_11,0.686832,19378,7741.5,87.8604,859.438,4.66607e+10,1.0272,0.986471,9,0.0543198,2082,1,1
app_12,2.21515,20286.3,7784.5,67.9006,780.803,7.98962e+09,1.02663,0.986471,10,0.01023,1979,1,1
app_13,2.67209,18477.2,7723.7,90.133,964.516,2.97118e+10,1.0318,0.986471,8,0.0307894,2231,1,1
app_14,6.78998,19446.4,7727.6,87.0922,966.629,1.86526e+10,1.03276,0.986471,8,0.0192891,2348,1,1
app_15,4.88438,19815.4,7766.2,69.1037,773.994,1.49159e+10,1.02813,0.986471,10,0.0192712,1923,1,1
app_16,6.89523,20033,7771.5,68.7996,705.403,3.06546e+10,1.02536,0.986471,11,0.0434818,1774,1,1
app_17,3.83898,18669.1,7731.3,81.1003,771.302,4.9108e+10,1.02822,0.986471,10,0.0636939,1811,1,1
app_18,10.5344,19427.2,7775.1,72.6537,708.072,4.02974e+10,1.02362,0.986471,11,0.0569172,1715,1,1
app_19,8.51153,19286.4,7774.7,56.8607,702.871,8.18352e+08,1.02887,0.986471,11,0.00116409,1711,1,1
app_2,4.6866,18636.5,7729,84.9191,962.143,1.5851e+10,1.03294,0.986471,8,0.0164771,2245,1,1
app_20,2.93717,18616.6,7744.1,79.1734,860.49,2.19007e+10,1.03013,0.986471,9,0.0254364,2002,1,1
app_21,39.2115,19952,7964.9,18.4768,60.4959,1.57228e+10,1.00243,0.986471,132,0.262047,151,1,1
app_22,34.3168,20067.9,7948.7,47.1289,79.0131,4.21678e+10,1.00114,0.986471,101,0.533769,197,1,1
app_23,2.74312,19997.4,7977.4,12.5005,66.7279,7.32589e+09,1.00191,0.986471,120,0.109342,166,1,1
app_24,98.4948,20112.8,7939.7,41.1368,68.824,3.71749e+10,1.0029,0.986471,115,0.538767,173,1,1
app_25,21.3181,19971.4,7931.3,48.5206,98.2192,4.3094e+10,1.00321,0.986471,81,0.439735,244,1,1
app_26,60.8525,19903,7942.4,42.28,86.2952,3.65397e+10,1.00264,0.986471,92,0.424881,215,1,1
app_27,86.3884,19898.9,7949.1,34.8193,85.3717,3.148e+10,1.00243,0.986471,93,0.366046,213,1,1
app_28,21.4528,20116.1,7942.4,38.1966,76.257,3.54436e+10,1.00278,0.986471,103,0.466363,193,1,1
app_29,64.5001,19988.2,7931,36.127,69.2376,3.45233e+10,1.00433,0.986471,115,0.493191,172,1,1
app_3,2.94449,19358.1,7698.6,86.9497,963.482,1.89364e+10,1.0366,0.986471,8,0.0196436,2335,1,1
app_30,23.9829,19924.7,7928.6,45.9042,76.5709,4.09977e+10,1.00381,0.986471,104,0.532438,190,1,1
app_31,85.561,20082.2,7956.4,31.1874,76.2891,2.97539e+10,1.00173,0.986471,104,0.391499,191,1,1
app_32,0.244316,20067.3,7960.7,21.5764,75.5923,1.57111e+10,1.00296,0.986471,105,0.206724,190,1,1
app_33,82.4571,20116.6,7950.9,29.9462,78.1769,2.45001e+10,1.00308,0.986471,102,0.314104,195,1,1
app_34,71.0665,20022.5,7968.9,22.7085,71.9437,2.15088e+10,1.0012,0.986471,111,0.298733,179,1,1
app_35,32.7777,20223.9,7943.4,33.7652,85.9567,2.80847e+10,1.00358,0.986471,92,0.326566,217,1,1
app_36,83.5499,20016.6,7968.9,7.20816,90.7973,1.933e+08,1.00388,0.986471,88,0.00212418,226,1,1
app_37,75.6963,19988.4,7958.7,23.1651,80.7226,1.64978e+10,1.00311,0.986471,100,0.203676,199,1,1
app_38,53.2647,19958.2,7957.2,27.5482,90.0009,2.52854e+10,1.00219,0.986471,90,0.280949,222,1,1
app_39,5.50064,19973.1,7932.2,44.3433,73.0807,4.0843e+10,1.00338,0.986471,109,0.559493,182,1,1
app_4,4.65452,19179.4,7746.1,79.3193,862.203,2.50732e+10,1.02945,0.986471,9,0.0290873,2061,1,1
app_40,24.1051,19868.6,7939.3,47.9468,81.1248,4.23118e+10,1.0023,0.986471,99,0.522368,200,1,1
app_41,851.059,21403,7972.5,27.0055,9.34111,2.64821e+10,1.00013,0.986471,851,2.94246,24,1,1
app_42,569.219,21208.2,7963.1,36.7958,8.77016,3.61415e+10,1.00009,0.986471,878,4.51769,23,1,1
app_43,811.91,20741.9,7969.2,30.2446,8.29214,2.97215e+10,1.00013,0.986471,948,3.71519,21,1,1
app_44,319.927,21081.9,7994.3,4.99078,8.02463,4.74975e+09,1.00012,0.986471,975,0.593718,21,1,1
app_45,690.68,21495.9,7969.7,29.6348,8.00764,2.9297e+10,1.00013,0.986471,988,3.66213,21,1,1
app_46,595.614,20377.8,7957.1,38.6381,8.54472,3.81473e+10,1.00059,0.986471,950,4.23859,21,1,1
app_47,898.718,21611.4,7978.1,21.3658,8.67691,2.09635e+10,1.00012,0.986471,935,2.62044,22,1,1
app_48,308.189,20533.1,7969.5,25.0411,8.27833,2.45246e+10,1.00075,0.986471,957,2.72495,21,1,1
app_49,425.088,20752.4,7972.6,27.1172,8.75257,2.65091e+10,1.00011,0.986471,909,3.31364,22,1,1
app_5,7.72853,19513,7760.1,79.3649,775.351,4.30683e+10,1.02522,0.986471,10,0.055572,1896,1,1
app_50,652.02,21734.8,7999.1,0.800176,7.85894,3.13679e+08,1.00007,0.986471,995,0.0392099,21,1,1
app_51,1074.81,22315.4,7996.3,1.84015,6.89002,1.58149e+09,1.00026,0.986471,1153,0.263582,18,1,1
app_52,973.906,21642.3,7971.6,24.0946,7.72861,2.37317e+10,1.00058,0.986471,1011,2.96647,20,1,1
app_53,216.298,20412.9,7966.1,33.5227,8.50584,3.31544e+10,1.00009,0.986471,907,4.14429,22,1,1
app_54,392.363,21357.2,7965.4,34.2831,7.17932,3.36771e+10,1.00012,0.986471,1087,4.81101,19,1,1
app_55,30.3498,20102.7,7965.3,29.7268,7.92799,2.93686e+10,1.00067,0.986471,1000,3.67108,20,1,1
app_56,434.241,21159.3,7984.6,13.6193,8.12195,1.35985e+10,1.00023,0.986471,986,1.69981,21,1,1
app_57,385.7,20417.5,7982.8,14.2943,8.15528,1.3708e+10,1.00044,0.986471,1003,1.7135,20,1,1
app_58,118.079,20875.9,7954.4,36.9197,7.61613,3.67422e+10,1.00111,0.986471,1036,4.59278,20,1,1
app_59,1015.32,21807.5,7984.3,15.4568,7.17901,1.52695e+10,1.00005,0.986471,1075,2.18136,19,1,1
app_6,0.63469,20381.1,7786.9,73.3176,706.569,4.38313e+10,1.02162,0.986471,11,0.062084,1805,1,1
app_60,154.213,20592.6,7957,40.744,8.165,4.0143e+10,1.00036,0.986471,976,5.01788,21,1,1
app_7,5.64104,18590.2,7738.1,84.7406,860.061,3.68842e+10,1.02894,0.986471,9,0.0428887,2000,1,1
app_8,4.81176,18727.9,7719.5,90.1983,964.924,2.84912e+10,1.03253,0.986471,8,0.0295246,2262,1,1
app_9,7.82738,20027.2,7777.2,67.2339,706.709,2.50731e+10,1.02534,0.986471,11,0.0355143,1773,1,1
