app_id,start_app,end_app,effective_cpu,effective_io,effective_iter,total_bytes,stretch,utilization,Tcomp,Tio,iterations,priority,group_id
app_1,3.4734,19303.7,7914,77.5522,791.215,3.0824e+10,1.00694,0.993573,10,0.0389684,1908,0.1,1
app_10,7.14391,19325.7,7924.8,67.0557,720.5,1.29279e+10,1.00785,0.993573,11,0.0179305,1738,0.1,1
app_11,4.66141,18821,7902.7,85.6982,882.125,3.00743e+10,1.00847,0.993573,9,0.0340979,2070,0.1,1
app_12,8.23918,18324.2,7908,81.2654,877.175,7.99683e+09,1.01061,0.993573,9,0.00910801,2011,0.1,1
app_13,3.28084,18382.5,7906.8,82.2566,880.421,1.46252e+10,1.00992,0.993573,9,0.0166196,2024,0.1,1
app_14,1.97916,19121.2,7912.4,77.529,794.324,2.61311e+10,1.00774,0.993573,10,0.0329108,1895,0.1,1
app_15,8.16767,19259.3,7912.9,76.868,793.402,2.93341e+10,1.00727,0.993573,10,0.0369447,1904,0.1,1
app_16,6.00485,18265.3,7888.4,98.7808,988.822,4.52024e+10,1.00837,0.993573,8,0.0457052,2257,0.1,1
app_17,2.4142,18468.9,7910.9,80.0896,793.519,4.07694e+10,1.00608,0.993573,10,0.0513469,1827,0.1,1
app_18,3.29399,19824.9,7915.2,75.4372,793.479,2.12102e+10,1.00801,0.993573,10,0.0267131,1959,0.1,1
app_19,8.81773,19693.2,7903,87.1058,880.809,3.85178e+10,1.00736,0.993573,9,0.0437702,2162,0.1,1
app_2,1.79751,18232.5,7896.5,93.2399,986.144,2.07853e+10,1.01045,0.993573,8,0.0210804,2248,0.1,1
app_20,0.705985,18462.8,7900.3,90.1372,880.529,5.15998e+10,1.00605,0.993573,9,0.0586361,2028,0.1,1
app_21,0.850726,19951.3,7975.6,21.7491,90.5029,1.67003e+10,1.00096,0.993573,88,0.185558,226,0.01,2
app_22,35.7983,19942.6,7973,25.4351,83.9666,1.71353e+10,1.00123,0.993573,94,0.203992,211,0.01,2
app_23,71.5755,20087.8,7971.9,27.5762,77.7125,2.22205e+10,1.00074,0.993573,103,0.284878,194,0.01,2
app_24,33.9092,19907.2,7946.7,52.8907,72.6641,4.36774e+10,1.0012,0.993573,110,0.60663,181,0.01,2
app_25,63.981,19884.8,7992,7.49579,75.9157,1.38485e+09,1.00083,0.993573,106,0.0182217,187,0.01,2
app_26,85.1645,20085.6,7981.8,17.8177,73.4958,1.45824e+10,1.00045,0.993573,108,0.199759,185,0.01,2
app_27,77.4634,19973.6,7984.8,13.9086,69.3402,7.77466e+09,1.00093,0.993573,116,0.112676,172,0.01,2
app_28,74.662,20035.8,7977.3,22.3016,90.5754,1.69921e+10,1.00071,0.993573,88,0.186726,226,0.01,2
app_29,35.9148,19862.5,7989.3,8.50113,85.8475,2.8733e+09,1.00098,0.993573,93,0.0334105,213,0.01,2
app_3,3.79079,18680.4,7902.5,88.6449,876.563,4.80524e+10,1.00622,0.993573,9,0.0548544,2045,0.1,1
app_30,18.9007,19862.2,7979.3,20.3794,67.9331,1.36582e+10,1.00088,0.993573,117,0.200857,170,0.01,2
app_31,26.9083,20024.5,7956.5,41.8858,91.0804,3.31762e+10,1.00129,0.993573,87,0.364574,228,0.01,2
app_32,19.5014,20061.8,7990.4,8.86769,77.6436,5.84149e+09,1.00047,0.993573,102,0.0748909,195,0.01,2
app_33,27.3222,20045,7953.7,45.487,86.9715,3.76553e+10,1.00108,0.993573,92,0.432819,217,0.01,2
app_34,46.0982,19994.6,7949.3,49.0607,68.2901,4.10116e+10,1.00121,0.993573,116,0.594371,171,0.01,2
app_35,32.216,20055.7,7963.2,35.1656,88.0451,2.66819e+10,1.00127,0.993573,90,0.303203,221,0.01,2
app_36,33.9739,20092.7,7989.8,7.82111,79.9949,2.56065e+09,1.00096,0.993573,99,0.0320081,202,0.01,2
app_37,1.8913,20030.8,7963.8,34.3208,80.521,2.79668e+10,1.00103,0.993573,98,0.349584,203,0.01,2
app_38,7.19042,20095.8,7981.3,17.3414,76.7416,1.25629e+10,1.00077,0.993573,104,0.163155,192,0.01,2
app_39,89.4023,19912.1,7954.1,43.8961,86.0556,3.49114e+10,1.00138,0.993573,93,0.405946,213,0.01,2
app_4,3.72962,19865.5,7913.1,79.3413,790.803,4.2261e+10,1.00561,0.993573,10,0.0534273,1962,0.1,1
app_40,17.7514,20250,7941.3,57.1959,80.3375,4.79994e+10,1.00134,0.993573,98,0.592585,203,0.01,2
app_41,643.97,21009.4,7959.9,40.1,8.08207,3.4338e+10,1.00072,0.993573,1017,4.29225,20,0.001,3
app_42,791.599,21070.8,7956.4,42.274,6.99748,3.57574e+10,1.00098,0.993573,1132,5.1082,18,0.001,3
app_43,15.342,20480.2,7959.5,40.5,7.30669,3.42595e+10,1.00078,0.993573,1062,4.89421,19,0.001,3
app_44,558.81,20890.6,7971,29,7.77419,2.42332e+10,1.0006,0.993573,1063,3.02915,19,0.001,3
app_45,843.042,21564.3,7970.1,27.2967,8.5209,2.34187e+10,1.00081,0.993573,932,2.60208,22,0.001,3
app_46,948.137,22531,7939.1,58.7222,6.88891,4.85125e+10,1.00155,0.993573,1096,6.93036,19,0.001,3
app_47,249.786,20647.3,7962.7,37.3,8.78635,3.23386e+10,1.00062,0.993573,927,3.59318,22,0.001,3
app_48,256.843,21150,7982.9,17.1,8.38677,1.43858e+10,1.00034,0.993573,943,1.79822,22,0.001,3
app_49,1033.16,21936.9,7970.9,29.1,7.43042,2.48233e+10,1.00053,0.993573,1089,3.54618,19,0.001,3
app_5,7.82566,20122.3,7910.9,76.8867,791.53,3.04718e+10,1.00738,0.993573,10,0.0384745,1992,0.1,1
app_50,451.583,20202.2,7969,30.2647,7.6318,2.59861e+10,1.00063,0.993573,1054,3.7123,19,0.001,3
app_51,450.628,21055.3,7997.9,2.1,9.28283,1.73933e+09,1.00005,0.993573,848,0.193259,24,0.001,3
app_52,555.888,21005.1,7952.7,47.3,8.76957,4.25608e+10,1.00059,0.993573,883,5.3201,23,0.001,3
app_53,593.173,20978.4,7992.2,7.8,7.91494,6.22095e+09,1.0002,0.993573,1019,0.777618,20,0.001,3
app_54,189.045,20495.3,7939.5,60.5,9.15182,4.97186e+10,1.00135,0.993573,872,5.52429,23,0.001,3
app_55,406.383,21248.4,7978.5,21.5,9.25421,1.76865e+10,1.00048,0.993573,863,1.96517,24,0.001,3
app_56,218.172,20375.3,7986.4,12.0603,9.48719,1.06278e+10,1.00037,0.993573,833,1.06278,24,0.001,3
app_57,46.6133,20722.4,7968,31.9627,9.10749,2.92934e+10,1.00034,0.993573,854,2.92934,24,0.001,3
app_58,829.587,20999.7,7957.4,42.6,7.15447,3.51813e+10,1.00093,0.993573,1133,5.02589,18,0.001,3
app_59,1007.74,21888.6,7969.7,30.3,7.52448,2.48258e+10,1.00068,0.993573,1036,3.10323,20,0.001,3
app_6,4.11227,19073.8,7916.2,74.1888,722.404,4.50398e+10,1.00487,0.993573,11,0.0623821,1722,0.1,1
app_60,236.649,20659.5,7964.3,35.7,9.2609,3.13545e+10,1.00054,0.993573,853,3.48383,24,0.001,3
app_7,11.7336,18918.4,7920,71.1907,721.3,3.20046e+10,1.00604,0.993573,11,0.0443892,1704,0.1,1
app_8,1.75041,19720.6,7900.8,88.934,878.265,4.98213e+10,1.00621,0.993573,9,0.0566795,2163,0.1,1
app_9,3.53834,18118.5,7892.6,95.9845,987.518,3.38905e+10,1.00927,0.993573,8,0.0343021,2234,0.1,1
