app_id,start_app,end_app,effective_cpu,effective_io,effective_iter,total_bytes,stretch,utilization,Tcomp,Tio,iterations,priority,group_id
app_1,4.34402,18452.9,7916.1,75.0404,717.924,4.87049e+10,1.00442,0.993253,11,0.0678341,1658,0.1,1
app_10,4.90333,18112.4,7889.4,98.3699,987.332,4.12576e+10,1.00874,0.993253,8,0.0417587,2234,0.1,1
app_11,4.73411,18954.8,7906.2,82.0374,879.157,1.32597e+10,1.01017,0.993253,9,0.015085,2081,0.1,1
app_12,9.28348,18516.5,7900.7,85.8006,878.222,2.9721e+10,1.00877,0.993253,9,0.0338508,2034,0.1,1
app_13,7.25365,19322.9,7916.2,74.8118,789.991,2.06697e+10,1.00795,0.993253,10,0.0261642,1912,0.1,1
app_14,6.45172,19992.1,7908.69,81.9455,877.035,1.12823e+10,1.0101,0.993253,9,0.0128631,2194,0.1,1
app_15,1.68688,18657.6,7919,72.3963,792.57,2.75298e+09,1.00988,0.993253,10,0.00347598,1848,0.1,1
app_16,1.09079,19852.4,7912.7,77.1928,791.317,2.8075e+10,1.00746,0.993253,10,0.035493,1960,0.1,1
app_17,4.40807,18660.1,7892.2,97.6409,981.519,4.57773e+10,1.00781,0.993253,8,0.0466164,2295,0.1,1
app_18,0.869303,18508.4,7911.5,78.4206,788.168,3.4645e+10,1.00678,0.993253,10,0.0439657,1828,0.1,1
app_19,10.2764,19526.9,7916.4,73.4719,792.926,1.34939e+10,1.00884,0.993253,10,0.0170162,1927,0.1,1
app_2,2.01194,19498.3,7909.1,82.5022,879.477,8.63848e+09,1.01039,0.993253,9,0.00981646,2143,0.1,1
app_20,6.52636,18849.8,7892.6,96.358,987.042,3.91227e+10,1.00861,0.993253,8,0.039638,2323,0.1,1
app_21,26.9275,20043.4,7979.6,15.437,107.609,1.063e+10,1.00122,0.993253,74,0.0984263,269,0.01,2
app_22,47.7369,20029.5,7955,43.6015,79.1641,3.67095e+10,1.00104,0.993253,100,0.464677,199,0.01,2
app_23,71.3748,20122.9,7991.1,7.96108,76.7594,4.21948e+09,1.00059,0.993253,104,0.0547985,192,0.01,2
app_24,26.7248,20006.6,7968.3,31.385,78.2996,2.43624e+10,1.00092,0.993253,102,0.312339,195,0.01,2
app_25,83.0423,19936,7987.5,11.0162,92.9194,7.42128e+09,1.00064,0.993253,86,0.0797987,232,0.01,2
app_26,12.9972,19964,7945.7,52.9901,85.5671,4.53555e+10,1.00112,0.993253,93,0.533594,213,0.01,2
app_27,19.9278,19915.5,7974.1,23.9198,76.32,1.84289e+10,1.00093,0.993253,103,0.242486,192,0.01,2
app_28,74.0483,19932.9,7965.9,33.1145,83.0281,2.63504e+10,1.00097,0.993253,96,0.317475,207,0.01,2
app_29,42.5534,20195.5,7962.3,35.9267,89.6093,2.79932e+10,1.00121,0.993253,88,0.314531,226,0.01,2
app_3,8.05888,19573.2,7904.4,85.0659,875.762,2.84361e+10,1.00847,0.993253,9,0.0324614,2144,0.1,1
app_30,34.0183,20237.4,7951,47.3086,82.8355,3.94425e+10,1.0012,0.993253,97,0.475211,206,0.01,2
app_31,45.2659,20026.1,7948.9,49.0545,78.7548,4.05322e+10,1.00132,0.993253,100,0.513066,198,0.01,2
app_32,22.6241,19945.2,7955.4,43.1897,90.2251,3.47864e+10,1.00123,0.993253,88,0.386516,225,0.01,2
app_33,36.43,19905.6,7955,43.918,92.8837,3.67634e+10,1.00103,0.993253,86,0.395305,230,0.01,2
app_34,46.2161,20012.4,7952.3,46.529,68.6671,4.00141e+10,1.00096,0.993253,116,0.579914,171,0.01,2
app_35,22.7136,20051.8,7979.4,17.8827,87.4534,1.26076e+10,1.001,0.993253,91,0.144915,220,0.01,2
app_36,85.6856,20007.1,7957.2,41.622,78.4878,3.46971e+10,1.00101,0.993253,102,0.439204,195,0.01,2
app_37,6.91861,19834.9,7963.4,35.5018,85.9012,2.78513e+10,1.00109,0.993253,93,0.323852,213,0.01,2
app_38,11.9166,19977.8,7963.2,35.6146,80.7128,2.91284e+10,1.00096,0.993253,99,0.35961,201,0.01,2
app_39,67.5418,20204.4,7962.6,35.065,80.5011,2.89843e+10,1.00105,0.993253,98,0.362303,203,0.01,2
app_4,8.58556,19856.2,7901.5,87.6025,879.687,4.34312e+10,1.00693,0.993253,9,0.0494098,2179,0.1,1
app_40,18.978,19909.7,7990.8,7.87282,76.3112,4.36067e+09,1.00061,0.993253,105,0.0573772,189,0.01,2
app_41,71.937,20626.1,7954.4,42.1732,7.77698,3.60888e+10,1.00119,0.993253,1012,4.5111,20,0.001,3
app_42,1114.38,22316.5,7974.3,25.7,6.56476,2.15673e+10,1.00052,0.993253,1194,3.08104,17,0.001,3
app_43,174.526,20658.3,7976.1,23.9,8.16384,2.00245e+10,1.00048,0.993253,964,2.50306,21,0.001,3
app_44,469.973,20867.2,7957,43,9.18776,3.68275e+10,1.00077,0.993253,845,4.09195,24,0.001,3
app_45,87.0047,20911.8,7956.7,43.3,8.20489,3.76687e+10,1.0007,0.993253,973,4.70859,21,0.001,3
app_46,704.863,21068.7,7949.7,50.3,7.35313,4.23792e+10,1.00099,0.993253,1055,5.29739,19,0.001,3
app_47,96.1485,20368.4,7960.3,39.7,7.88074,3.44457e+10,1.00066,0.993253,1009,4.30571,20,0.001,3
app_48,678.474,21310.1,7953.1,42.8544,7.68456,3.72232e+10,1.00121,0.993253,1045,5.3176,20,0.001,3
app_49,108.233,20606.3,7988.4,6.29718,6.97052,4.66286e+09,1.00087,0.993253,1141,0.666123,18,0.001,3
app_5,4.90354,18506.7,7907.4,84.1475,878.338,2.1172e+10,1.00901,0.993253,9,0.0241139,2031,0.1,1
app_50,779.74,21314.1,7995.4,4.6,8.05532,3.30178e+09,1.00016,0.993253,990,0.412723,21,0.001,3
app_51,80.3833,20319.7,7956.3,43.7,7.23034,3.69831e+10,1.00084,0.993253,1137,5.2833,18,0.001,3
app_52,607.41,21194.3,7948.1,47.2048,8.1199,3.9525e+10,1.00155,0.993253,984,4.94063,21,0.001,3
app_53,301.69,20879.9,7970.8,29.2,9.23742,2.49761e+10,1.00053,0.993253,865,2.77512,24,0.001,3
app_54,466.977,21077.2,7997.7,2.3,9.7355,1.22575e+09,1.00013,0.993253,815,0.122575,25,0.001,3
app_55,518.676,20655.8,7952,48,8.02331,4.1949e+10,1.00076,0.993253,1006,5.24362,20,0.001,3
app_56,158.921,21244.4,7989.7,8.54124,8.22207,6.72525e+09,1.00045,0.993253,933,0.840656,22,0.001,3
app_57,187.131,21369,7967.5,29.2189,7.88012,2.61742e+10,1.00079,0.993253,996,3.27178,21,0.001,3
app_58,696.297,21197.4,7986.2,13.8,7.99162,1.17242e+10,1.00026,0.993253,988,1.46552,21,0.001,3
app_59,215.166,20876,7954.2,45.8,7.77452,3.81533e+10,1.00096,0.993253,1013,4.76916,20,0.001,3
app_6,5.85685,18240.5,7903.9,86.6622,877.845,3.51308e+10,1.00768,0.993253,9,0.0400123,2002,0.1,1
app_60,99.2539,20641.6,7967.3,32.7,8.47705,2.92137e+10,1.00044,0.993253,936,3.65172,22,0.001,3
app_7,2.62418,18796.3,7906.6,83.1926,879.548,1.86046e+10,1.00944,0.993253,9,0.0211416,2066,0.1,1
app_8,1.27433,18531.7,7889.4,98.8462,984.93,4.78748e+10,1.0079,0.993253,8,0.0486038,2285,0.1,1
app_9,7.58445,19980.2,7893.4,96.5644,988.075,3.42107e+10,1.00913,0.993253,8,0.0346262,2465,0.1,1
