app_id,start_app,end_app,effective_cpu,effective_io,effective_iter,total_bytes,stretch,utilization,Tcomp,Tio,iterations,priority,group_id
app_1,0.859425,19899.1,7920.9,79.1,791.291,5.39655e+09,1.0093,0.993359,10,0.00682243,1969,1,1
app_10,7.21243,19910.5,7927.8,72.2,721.886,3.77361e+09,1.00863,0.993359,11,0.0052266,1791,1.00001,1.00001
app_11,3.45839,18462.1,7912.1,87.9,877.652,1.58693e+10,1.00909,0.993359,9,0.0180743,2026,1.00001,1.00001
app_12,7.05388,18652.2,7906.2,93.8,791.236,5.04404e+10,1.00545,0.993359,10,0.0636874,1846,1.00001,1.00001
app_13,8.31976,19417.4,7906.7,93.3,792.397,4.40275e+10,1.0062,0.993359,10,0.0555202,1920,1.00001,1.00001
app_14,0.894088,18525.1,7909,91,877.611,3.11697e+10,1.00754,0.993359,9,0.0355008,2035,1.00001,1.00001
app_15,4.29317,18969.8,7908.8,91.2,791.318,4.03332e+10,1.0064,0.993359,10,0.0509901,1874,1.00002,1.00002
app_16,8.2907,19325.7,7927.5,72.5,724.735,3.07628e+09,1.00875,0.993359,11,0.00424314,1744,1.00002,1.00002
app_17,11.0134,18672.3,7925.6,74.4,718.894,3.23298e+10,1.00529,0.993359,11,0.044965,1680,1.00002,1.00002
app_18,9.63883,18457.6,7908.8,91.2,877.858,3.23843e+10,1.00741,0.993359,9,0.0368842,2026,1.00002,1.00002
app_19,3.73921,19017.4,7907.8,92.2,879.672,3.73309e+10,1.00691,0.993359,9,0.0424215,2087,1.00002,1.00002
app_2,6.64719,20164.1,7920.5,79.5,792.757,1.84988e+10,1.00768,0.993359,10,0.023357,1995,1,1
app_20,4.71248,18493.8,7912.1,87.9,879.665,6.20366e+09,1.01032,0.993359,9,0.00705763,2033,1.00002,1.00002
app_21,73.9972,19983.4,7978.5,21.5,82.9139,1.39847e+10,1.00094,0.993359,97,0.16849,205,1.00002,1.00002
app_22,33.5827,20113.6,7981.6,18.4,71.3236,1.20102e+10,1.0008,0.993359,111,0.169158,180,1.00002,1.00002
app_23,25.8577,20103.5,7953.2,46.8,71.3437,3.48384e+10,1.0015,0.993359,110,0.483866,181,1.00002,1.00002
app_24,27.8848,20238.4,7926.8,73.2,64.4573,5.14814e+10,1.00272,0.993359,123,0.804397,162,1.00002,1.00002
app_25,53.1225,19994,7957,43,79.7611,3.06529e+10,1.00155,0.993359,101,0.383161,197,1.00003,1.00003
app_26,44.4765,20080.8,7980.2,19.8,86.5847,1.19681e+10,1.00098,0.993359,92,0.137565,217,1.00003,1.00003
app_27,56.2069,20034.5,7977.2,22.8,92.1337,1.46289e+10,1.00102,0.993359,86,0.15901,231,1.00003,1.00003
app_28,51.7665,20031,7933.1,66.9,73.8613,4.98523e+10,1.00214,0.993359,107,0.67368,185,1.00003,1.00003
app_29,30.144,20105.3,7957.4,42.6,80.7657,3.07168e+10,1.00149,0.993359,98,0.379219,203,1.00003,1.00003
app_3,2.14923,19094.6,7916.6,83.4,791.17,3.495e+10,1.00609,0.993359,10,0.0441846,1890,1,1
app_30,28.1906,20070.9,7950.2,49.8,80.6301,3.74546e+10,1.00155,0.993359,98,0.462402,203,1.00003,1.00003
app_31,68.4316,20213.5,7959.7,40.3,88.9891,2.94166e+10,1.00136,0.993359,90,0.330523,222,1.00003,1.00003
app_32,57.3931,20085.3,7930.4,69.6,83.5799,5.14094e+10,1.00228,0.993359,95,0.61939,209,1.00003,1.00003
app_33,44.2941,20005.5,7961,39,84.2306,2.87145e+10,1.00129,0.993359,94,0.337818,211,1.00003,1.00003
app_34,82.5947,20120.9,7990.1,9.9,73.9903,6.89935e+09,1.00038,0.993359,108,0.0932345,185,1.00003,1.00003
app_35,44.2551,20080.7,7980,20,88.697,1.2618e+10,1.00092,0.993359,90,0.141776,222,1.00004,1.00004
app_36,3.28641,19960,7988.3,11.7,89.714,7.61338e+09,1.00051,0.993359,89,0.0855436,224,1.00004,1.00004
app_37,35.0823,19908.6,7927.1,72.9,99.888,5.21836e+10,1.0026,0.993359,79,0.521836,249,1.00004,1.00004
app_38,49.2155,19910.8,7962,38,77.9455,2.68603e+10,1.00139,0.993359,102,0.344363,194,1.00004,1.00004
app_39,87.5358,19938.9,7948.7,51.3,85.2165,3.87225e+10,1.00157,0.993359,94,0.455559,212,1.00004,1.00004
app_4,7.91215,18594.9,7897.7,102.3,876.363,4.76755e+10,1.00688,0.993359,9,0.0544241,2035,1,1
app_40,65.14,19889.9,7927.8,72.2,82.0742,5.28565e+10,1.00242,0.993359,98,0.644591,203,1.00004,1.00004
app_41,259.742,20682.7,7957.7,42.3,7.75991,3.69787e+10,1.00067,0.993359,1042,4.62234,20,1.00004,1.00004
app_42,982.185,21672.4,7957.7,42.3,8.19948,3.45644e+10,1.00097,0.993359,991,4.32055,21,1.00004,1.00004
app_43,781.689,21079.7,7988.2,11.8,8.00972,9.07055e+09,1.00034,0.993359,1019,1.13382,20,1.00004,1.00004
app_44,18.4549,20934.3,7957.7,42.3,7.30658,3.3776e+10,1.00107,0.993359,1080,4.82514,19,1.00004,1.00004
app_45,912.571,21603.3,7939.9,60.1015,8.6248,4.26228e+10,1.00219,0.993359,934,5.12948,22,1.00004,1.00004
app_46,743.302,21159.1,7986.6,13.4,8.19604,1.16824e+10,1.00021,0.993359,973,1.4603,21,1.00005,1.00005
app_47,279.755,20875.2,7991.8,8.2,7.70279,7.51096e+09,1.00009,0.993359,1019,0.938869,20,1.00005,1.00005
app_48,347.29,21127.6,7951,49,7.24749,3.98768e+10,1.00114,0.993359,1080,5.69669,19,1.00005,1.00005
app_49,660.324,20828.1,7951.5,48.5,8.35052,3.52775e+10,1.00166,0.993359,961,3.91972,21,1.00005,1.00005
app_5,6.47469,18514.8,7908.8,91.2,877.395,3.57002e+10,1.00699,0.993359,9,0.0407071,2032,1.00001,1.00001
app_50,403.679,21049.2,7989.1,10.9,8.28244,8.8865e+09,1.00025,0.993359,981,1.11081,21,1.00005,1.00005
app_51,646.262,20734.7,7969.4,30.6,9.44239,2.39543e+10,1.00083,0.993359,832,2.66159,24,1.00005,1.00005
app_52,901.479,21518.7,7995,5,7.73226,4.23775e+09,1.0001,0.993359,1022,0.605392,20,1.00005,1.00005
app_53,204.587,20541.6,7942.2,57.8,6.92642,4.81781e+10,1.0012,0.993359,1174,6.88258,17,1.00005,1.00005
app_54,376.473,20272.1,7964.3,35.7,8.61478,2.78953e+10,1.00098,0.993359,960,3.09947,21,1.00005,1.00005
app_55,371.291,20650.9,7971.6,28.4,9.43447,2.39948e+10,1.00055,0.993359,859,2.66609,24,1.00005,1.00005
app_56,609.166,20859.3,7952.7,47.3,8.04374,3.16026e+10,1.00197,0.993359,1005,3.95032,20,1.00006,1.00006
app_57,133.475,20775.8,7997.4,2.6,8.55556,2.35897e+09,1.00003,0.993359,937,0.294871,22,1.00006,1.00006
app_58,847.945,20916.4,7947.1,52.9,8.51846,4.05042e+10,1.00155,0.993359,949,5.06302,21,1.00006,1.00006
app_59,587.896,21381.7,7946,54,8.55364,4.39873e+10,1.00125,0.993359,946,4.88748,22,1.00006,1.00006
app_6,3.13829,20100.2,7927.7,72.3,722.423,6.51538e+09,1.00829,0.993359,11,0.00901159,1811,1.00001,1.00001
app_60,447.641,20917.6,7994.2,5.8,9.62987,3.83866e+09,1.00025,0.993359,827,0.383866,25,1.00006,1.00006
app_7,9.6271,20073.4,7923.9,76.1,720.595,2.81928e+10,1.00602,0.993359,11,0.0391024,1808,1.00001,1.00001
app_8,0.0676781,19171.4,7910.3,89.7,878.89,2.94946e+10,1.00758,0.993359,9,0.0335547,2110,1.00001,1.00001
app_9,3.85871,18893.8,7912,88,879.669,2.15407e+10,1.00838,0.993359,9,0.0245059,2079,1.00001,1.00001
