app_id,start_app,end_app,effective_cpu,effective_io,effective_iter,total_bytes,stretch,utilization,Tcomp,Tio,iterations,priority,group_id
app_1,2.84256,19631.9,7916,76.249,722.241,5.41637e+10,1.00374,0.993461,11,0.075019,1767,0.1,1
app_10,9.66142,18814.5,7911.1,80.4302,790.186,4.71643e+10,1.00524,0.993461,10,0.0597017,1860,0.1,1
app_11,8.17224,18322.4,7901.6,90.0052,875.714,6.03702e+10,1.00478,0.993461,9,0.0689158,2008,0.1,1
app_12,4.62477,18385.3,7908.7,81.3093,878.058,1.12211e+10,1.01011,0.993461,9,0.0127803,2018,0.1,1
app_13,9.84162,19179.6,7911.9,79.3689,793.751,3.47866e+10,1.00671,0.993461,10,0.043867,1898,0.1,1
app_14,9.78365,19635.8,7926.2,65.3246,721.163,3.17996e+09,1.00891,0.993461,11,0.00441048,1766,0.1,1
app_15,0.926086,19217.8,7911.4,81.3886,790.293,5.1791e+10,1.00462,0.993461,10,0.0654753,1901,0.1,1
app_16,4.34428,18988,7915.1,75.558,791.936,2.01003e+10,1.00817,0.993461,10,0.0253792,1879,0.1,1
app_17,8.08363,19412,7921.5,69.9807,721.237,2.25913e+10,1.00704,0.993461,11,0.0313332,1747,0.1,1
app_18,6.0047,19650.9,7895.9,92.9135,986.084,1.96157e+10,1.01067,0.993461,8,0.0198942,2422,0.1,1
app_19,1.09478,19628.7,7904.4,85.102,876.745,2.811e+10,1.00851,0.993461,9,0.0320524,2152,0.1,1
app_2,7.87725,19417.6,7916.7,72.7767,790.071,1.19968e+10,1.00899,0.993461,10,0.0151858,1921,0.1,1
app_20,4.85033,19656.6,7916.9,72.789,788.05,1.02037e+10,1.0092,0.993461,10,0.0129488,1947,0.1,1
app_21,2.5102,19774.4,7983.4,14.9555,72.1627,1.14922e+10,1.00064,0.993461,112,0.159614,178,0.01,2
app_22,43.7161,19947.7,7948.4,49.9473,76.1791,4.13503e+10,1.00128,0.993461,105,0.537017,188,0.01,2
app_23,11.0745,19995.9,7987.9,10.2709,72.9716,6.9845e+09,1.00064,0.993461,109,0.095678,183,0.01,2
app_24,40.9787,20117.1,7961.4,36.7556,80.6017,3.00905e+10,1.00106,0.993461,99,0.376132,201,0.01,2
app_25,83.4898,20137.3,7965.5,32.8152,72.8083,2.7434e+10,1.00088,0.993461,110,0.375808,182,0.01,2
app_26,94.2425,19939.8,7974.9,22.4971,71.6767,1.62239e+10,1.00111,0.993461,111,0.225331,179,0.01,2
app_27,29.3946,19908.1,7976.7,22.7966,71.6679,1.7675e+10,1.0007,0.993461,112,0.245487,177,0.01,2
app_28,76.2041,20035.2,7949.2,48.587,87.4904,4.07992e+10,1.00125,0.993461,91,0.468957,218,0.01,2
app_29,95.1736,20308.8,7940.7,58.6441,79.8216,4.96009e+10,1.00121,0.993461,98,0.620012,203,0.01,2
app_3,0.653654,19507,7923.8,66.7957,716.759,1.38783e+10,1.00785,0.993461,11,0.019356,1752,0.1,1
app_30,0.965037,20020.3,7952.5,46.4173,83.9088,3.9238e+10,1.00103,0.993461,95,0.467119,209,0.01,2
app_31,25.1382,19701.2,7987.7,10.8041,86.8147,8.26734e+09,1.0005,0.993461,93,0.0950269,213,0.01,2
app_32,55.487,19960.2,7944,54.6802,74.695,4.64505e+10,1.0012,0.993461,106,0.61934,187,0.01,2
app_33,29.9961,20050.1,7976.1,23.8675,75.2843,1.8976e+10,1.00062,0.993461,106,0.253013,187,0.01,2
app_34,26.516,19995.8,7937.3,61.1196,81.0812,5.26774e+10,1.00125,0.993461,98,0.650339,203,0.01,2
app_35,20.4652,19856.4,7977.6,18.4363,92.1607,1.09422e+10,1.00143,0.993461,86,0.117658,230,0.01,2
app_36,89.1681,20107.3,7970.2,28.2141,68.0165,2.26246e+10,1.0009,0.993461,118,0.332715,169,0.01,2
app_37,84.3996,20193.2,7988,10.6655,78.3181,7.67358e+09,1.00054,0.993461,100,0.097134,200,0.01,2
app_38,76.7187,20068.5,7973.5,26.0105,80.0553,2.10678e+10,1.00068,0.993461,99,0.263348,201,0.01,2
app_39,98.601,20033.7,7952.1,46.5975,80.0243,3.97637e+10,1.00102,0.993461,100,0.497047,199,0.01,2
app_4,2.65676,19507.1,7902.3,88.196,877.837,4.98235e+10,1.00602,0.993461,9,0.0568113,2140,0.1,1
app_40,57.2679,20016.2,7967.9,28.9726,94.8184,2.05992e+10,1.00144,0.993461,84,0.216834,237,0.01,2
app_41,287.95,21372.3,7975.8,13.9019,8.33705,1.16303e+10,1.00157,0.993461,950,1.29226,22,0.001,3
app_42,450.919,20293.8,7991,9,7.21985,7.05241e+09,1.00024,0.993461,1116,1.00749,18,0.001,3
app_43,597.138,21702,7972.8,27.2,8.17629,2.36419e+10,1.00044,0.993461,940,2.95524,22,0.001,3
app_44,490.565,21256.7,7996.3,3.7,8.51458,2.78571e+09,1.00011,0.993461,944,0.309523,22,0.001,3
app_45,423.43,21474.6,7976.1,23.1689,8.74403,1.83312e+10,1.0007,0.993461,906,2.03679,23,0.001,3
app_46,838.663,21857,7976.3,23.7,6.32087,2.04824e+10,1.0004,0.993461,1218,3.41373,17,0.001,3
app_47,70.6626,20366.6,7944.8,52.6589,7.95815,4.20404e+10,1.00165,0.993461,997,5.25505,20,0.001,3
app_48,319.636,20398.3,7934,66,9.64498,5.51645e+10,1.00136,0.993461,839,5.51645,24,0.001,3
app_49,717.796,21381.7,7976.6,23.4,8.30039,1.94465e+10,1.00049,0.993461,973,2.43081,21,0.001,3
app_5,5.99797,19394.9,7904.4,84.2525,880.811,2.43382e+10,1.00899,0.993461,9,0.027657,2135,0.1,1
app_50,859.682,21887.5,7935.8,56.1921,7.52309,4.73719e+10,1.00211,0.993461,1044,5.92149,20,0.001,3
app_51,645.57,21218.7,7957.2,42.7138,7.6771,3.69483e+10,1.00073,0.993461,1041,5.27834,20,0.001,3
app_52,192.375,20996.6,7984.9,15.1,8.8833,1.25966e+10,1.00031,0.993461,900,1.39962,23,0.001,3
app_53,370.501,21353.8,7942.2,57.8,7.28882,4.98718e+10,1.00099,0.993461,1079,6.23397,19,0.001,3
app_54,1110.39,21608.6,7936.5,53.0794,7.15022,4.54488e+10,1.00226,0.993461,1109,6.49269,18,0.001,3
app_55,130.175,20745.8,7947.1,50.8792,8.03238,4.22557e+10,1.00133,0.993461,977,5.28196,21,0.001,3
app_56,730.898,20910,7988.4,11.6,7.21724,9.85013e+09,1.00022,0.993461,1117,1.40716,18,0.001,3
app_57,748.954,20908.5,7973.6,26.4,7.18972,2.2556e+10,1.00048,0.993461,1131,3.22229,18,0.001,3
app_58,269.513,20475.9,7999.1,0.9,8.22137,2.38779e+08,1.00008,0.993461,956,0.026531,21,0.001,3
app_59,829.189,21453.9,7987,9.95153,9.04121,7.91344e+09,1.00064,0.993461,905,0.879271,23,0.001,3
app_6,10.258,19210.1,7912.2,77.4008,794.142,3.1316e+10,1.00711,0.993461,10,0.0394408,1904,0.1,1
app_60,759.292,21049.7,7936.1,63.9,8.26398,5.25071e+10,1.00143,0.993461,969,6.56339,21,0.001,3
app_7,1.36214,18988.3,7908.9,79.4451,877.048,3.36018e+09,1.01109,0.993461,9,0.00383145,2083,0.1,1
app_8,9.64298,18332,7915.5,76.8498,792.943,1.99472e+10,1.00813,0.993461,10,0.0251541,1815,0.1,1
app_9,6.19174,18184.9,7890.4,99.0288,988.221,5.32208e+10,1.0071,0.993461,8,0.0538672,2244,0.1,1
