app_id,Tcomp,Tio,iter,witer,alpha_io,compute_size,io_size,mu,desyn_time
1,8.132854425266089,0.023779878290598258,2452,8.156634303556688,0.0029154032662993216,8e9,23779878.29059826,10,3.5778280261684983
2,9.483461646440663,0.5399970267898023,1996,10.023458673230465,0.05387332301094493,9e9,539997026.7898023,10,5.638923872885849
3,8.758454934322186,0.8520920430110833,2082,9.61054697733327,0.08866217968870711,8e9,852092043.0110834,10,5.003651354211439
4,9.002910617608732,0.8967778324877871,2021,9.89968845009652,0.09058647017109349,9e9,896777832.4877871,10,5.579396443267079
5,11.974285790765231,0.013118751733354807,1669,11.987404542498586,0.0010943779937387856,11e9,13118751.733354807,10,0.7906337306819463
6,90.8422073064277,11.338331109147163,196,102.18053841557486,0.11096370487923479,90e9,11338331109.147163,100,60.85487379784909
7,98.55481792027622,11.263670152147087,183,109.8184880724233,0.10256624681191112,98e9,11263670152.147087,100,84.58134881912018
8,92.4246018885153,3.5054994890342748,209,95.93010137754958,0.03654222646172105,92e9,3505499489.0342746,100,62.1399661204418
9,92.79432822994413,3.361568980221966,208,96.15589721016609,0.034959571672184074,92e9,3361568980.221966,100,9.9350705774574
10,98.97650527590847,3.2102358389380017,196,102.18674111484647,0.03141538524386501,98e9,3210235838.9380016,100,80.55533967204778
11,848.8642533525081,75.12564348159495,22,923.989896834103,0.08130569797245664,848e9,75125643481.59496,1000,380.77948539903963
12,1043.4470282514203,29.996194879161422,19,1073.4432231305818,0.027943904468166227,1043e9,29996194879.161423,1000,427.7966092203553
13,700.9899691905214,23.689593324875233,28,724.6795625153966,0.032689749442702025,700e9,23689593324.875233,1000,52.686575434970834
14,920.745350808325,100.54647657923455,20,1021.2918273875596,0.09845028999833483,920e9,100546476579.23454,1000,125.76913273688415
15,1020.5594076453816,6.192824173359742,20,1026.7522318187414,0.006031468918640731,1020e9,6192824173.359741,1000,0.6576126730305117
