app_id,Tcomp,Tio,iter,witer,alpha_io,compute_size,io_size,mu,desyn_time
1,10.105190414900939,0.1679404780622382,1947,10.273130892963177,0.016347545827268002,10e9,167940478.0622382,10,2.5026283174481074
2,8.940101589096255,0.5288293315723278,2113,9.468930920668582,0.055848895297990864,8e9,528829331.5723278,10,4.089246477203364
3,9.17418322766115,0.5100708872099267,2066,9.684254114871077,0.052670126285375464,9e9,510070887.20992666,10,3.8143255811619228
4,96.97999629346221,4.863518171716128,197,101.84351446517833,0.04775481479853124,96e9,4863518171.716128,100,65.77007496119694
5,87.92426117266835,2.709754608462063,221,90.63401578113042,0.02989776614340663,87e9,2709754608.4620633,100,0.4783445053362965
6,82.47702471256828,6.755157402576637,225,89.23218211514492,0.07570315151387651,82e9,6755157402.576637,100,44.03479931325851
7,98.35138370270077,4.8126258521047784,194,103.16400955480555,0.046650240455689995,98e9,4812625852.104778,100,34.369556218465796
8,94.62320232289778,7.144518915230999,197,101.76772123812879,0.07020417504007351,94e9,7144518915.230999,100,20.849985281647257
9,970.4506780255823,37.037120606424565,20,1007.4877986320068,0.036761855237070394,970e9,37037120606.42457,1000,679.9984193409102
10,810.1666291688756,102.06473092519276,22,912.2313600940684,0.1118846987618009,810e9,102064730925.19276,1000,753.5898151278157
11,926.0946103863934,69.99838970650794,21,996.0930000929013,0.07027294610039372,926e9,69998389706.50793,1000,484.5922159289822
12,947.9259739221774,33.86404940271272,21,981.7900233248901,0.03449215066173734,947e9,33864049402.712723,1000,619.8137058409512
13,946.7613563328447,85.22339987389876,20,1031.9847562067434,0.08258203366021956,946e9,85223399873.89876,1000,557.1231684301501
14,1011.1376139817784,56.02879872038164,19,1067.16641270216,0.05250240080036979,1011e9,56028798720.38164,1000,670.4431777895672
15,931.2350877405786,15.553078003573734,22,946.7881657441524,0.01642719941619612,931e9,15553078003.573734,1000,614.9009042556777
