app_id,Tcomp,Tio,iter,witer,alpha_io,compute_size,io_size,mu,desyn_time
1,8.70539368420074,0.7821968819760027,2109,9.487590566176742,0.08244420714828635,8e9,782196881.9760027,10,8.517833004361007
2,8.77874669951472,0.32498800229212305,2197,9.103734701806843,0.03569831645331468,8e9,324988002.292123,10,0.09238500451437333
3,96.55720632919905,6.094138962418015,195,102.65134529161706,0.059367356025442054,96e9,6094138962.418015,100,96.74553340372078
4,90.73071296381073,5.399534509037871,209,96.1302474728486,0.056168944229160925,90e9,5399534509.03787,100,56.215358709701945
5,93.77747123154202,5.037090856164019,203,98.81456208770604,0.050975187763248775,93e9,5037090856.164019,100,34.67158500804356
6,97.17060368158879,9.730708045433866,188,106.90131172702266,0.09102515103165124,97e9,9730708045.433867,100,45.452533714950675
7,91.40292898322218,4.036452198986788,210,95.43938118220898,0.04229336096889142,91e9,4036452198.986788,100,82.77728157843714
8,972.6110041550435,95.69618812819252,19,1068.307192283236,0.08957740696631103,972e9,95696188128.19252,1000,511.6594027167155
9,925.4623596747701,24.621473513996463,22,950.0838331887666,0.02591505365516999,925e9,24621473513.996464,1000,763.4484322222244
10,895.7885823403151,64.94300005889374,21,960.7315823992088,0.0675974447480048,895e9,64943000058.893745,1000,546.510526447884
11,956.7181154081462,33.20318909607472,21,989.921304504221,0.03354124105118009,956e9,33203189096.074722,1000,624.7054535142419
12,798.2048590806775,61.61482353704886,24,859.8196826177264,0.07166016873382353,798e9,61614823537.04887,1000,470.615821148196
13,991.5335981355224,19.129707940236774,20,1010.6633060757592,0.018927874224022548,991e9,19129707940.236774,1000,270.3972566891865
14,1080.925026940846,43.95852296562499,18,1124.883549906471,0.03907828767633764,1080e9,43958522965.624985,1000,64.9044463951219
15,980.2214702658611,36.32106406565641,20,1016.5425343315175,0.035729999325154936,980e9,36321064065.65641,1000,693.8723944215064
