app_id,Tcomp,Tio,iter,witer,alpha_io,compute_size,io_size,mu,desyn_time
1,9.03835629290558,0.2816020417206216,2146,9.3199583346262,0.030214946420349626,9e9,281602041.7206216,10,1.5183318217871842
2,8.578421152974538,0.22909720887339358,2271,8.807518361847931,0.02601155052549059,8e9,229097208.87339357,10,5.2556321702422055
3,9.573047869703275,1.2634672635923991,1846,10.836515133295675,0.11659350335887408,9e9,1263467263.5923991,10,2.5565662167497347
4,11.381611505597846,0.5150771128535466,1682,11.896688618451392,0.04329583881473355,11e9,515077112.8535466,10,4.766228526167439
5,87.86041331616288,9.377328119600719,206,97.2377414357636,0.09643712391032337,87e9,9377328119.60072,100,73.39368431744857
6,86.89327660265602,0.19087184004310861,230,87.08414844269913,0.002191809226551732,86e9,190871840.0431086,100,56.829073143091605
7,114.6282946334184,3.3533784798332467,170,117.98167311325166,0.02842287612427999,114e9,3353378479.8332467,100,50.972647010970654
8,104.62330540396097,11.283708045074444,173,115.90701344903542,0.0973513828827616,104e9,11283708045.074444,100,47.76975420337331
9,93.73846755280834,6.066880956311202,201,99.80534850911954,0.06078713262302622,93e9,6066880956.311202,100,67.1630089851399
10,987.6294178407268,10.689920865294939,21,998.3193387060218,0.010707917247351685,987e9,10689920865.294939,1000,380.5727405181858
11,1077.7900536562527,83.24667661862188,18,1161.0367302748746,0.07170029547550429,1077e9,83246676618.62187,1000,570.8081047023124
12,918.8363259411524,83.57705668275634,20,1002.4133826239087,0.08337583888194484,918e9,83577056682.75633,1000,847.108639782756
13,746.21470776253,92.30377522219817,24,838.5184829847282,0.11007959525667282,746e9,92303775222.19817,1000,570.0183042645745
14,1025.2327841726028,13.061702311485703,20,1038.2944864840886,0.012579959232679475,1025e9,13061702311.485703,1000,42.00029224109907
15,780.0271027342026,8.078261260513097,26,788.1053639947156,0.01025023001945621,780e9,8078261260.513097,1000,377.642179066376
