app_id,Tcomp,Tio,iter,witer,alpha_io,compute_size,io_size,mu,desyn_time
1,8.133293444488933,0.87516226761,2221,9.008455712098932,0.09714897820217966,8e9,875162267.61,10,7.863897031603421
2,10.125513568481697,0.06126107526670613,1964,10.186774643748404,0.006013785266595829,10e9,61261075.266706124,10,4.1315919204543565
3,91.64243729862183,4.596405899628518,208,96.23884319825035,0.04776040262828182,91e9,4596405899.628518,100,11.219323621910299
4,92.2543651043785,4.222670379553693,208,96.47703548393218,0.04376865808917771,92e9,4222670379.5536933,100,66.63230260720128
5,100.70147012272092,3.17771537429012,193,103.87918549701104,0.030590491820727202,100e9,3177715374.2901196,100,22.759842522704496
6,94.60228097681373,6.613838774770187,198,101.21611975158392,0.06534372974386511,94e9,6613838774.770187,100,53.761762168824035
7,85.513780595887,4.1261423320995885,224,89.63992292798659,0.046030186074728995,85e9,4126142332.0995884,100,76.8839333814812
8,1030.7105809416078,47.24218881968988,19,1077.9527697612975,0.04382584297283379,1030e9,47242188819.68988,1000,49.35183722395576
9,897.6171871348308,33.81759673032758,22,931.4347838651584,0.03630699359325545,897e9,33817596730.32758,1000,869.0806001883955
10,978.1025760909015,18.0895073910423,21,996.1920834819438,0.01815865402966754,978e9,18089507391.0423,1000,611.7423569958382
11,750.4945912972471,69.62263084742942,25,820.1172221446765,0.08489351152187768,750e9,69622630847.42941,1000,385.5206012096253
12,845.0099633970137,74.33156673079775,22,919.3415301278114,0.08085305003077997,845e9,74331566730.79774,1000,211.33446446312374
13,899.211280675353,33.73009267379014,22,932.9413733491432,0.03615456837625639,899e9,33730092673.79014,1000,92.45003779109004
14,735.3506620768211,95.14257494344236,25,830.4932370202635,0.11456152886302305,735e9,95142574943.44235,1000,232.70635517505366
15,976.0084638496755,49.84587106420012,20,1025.8543349138756,0.048589618786749944,976e9,49845871064.20012,1000,681.0247855193301
