app_id,Tcomp,Tio,iter,witer,alpha_io,compute_size,io_size,mu,desyn_time
1,9.804277198305003,0.05022349780097937,2030,9.854500696105983,0.005096503552009007,9e9,50223497.80097937,10,0.7098207143909445
2,10.175776826794293,0.42414549330484713,1887,10.59992232009914,0.04001401901791297,10e9,424145493.3048471,10,6.538495009816787
3,9.26090489698582,0.49118869429413775,2051,9.752093591279959,0.050367512339436996,9e9,491188694.2941378,10,0.23746171034640554
4,8.221488180370537,0.3306398861208864,2339,8.552128066491424,0.03866170893960127,8e9,330639886.1208864,10,2.287171397063793
5,8.620304716978406,0.2309607780429973,2260,8.851265495021403,0.026093531842752482,8e9,230960778.0429973,10,2.966460647673088
6,8.277706088404768,0.6652897698703915,2237,8.94299585827516,0.074392270824411,8e9,665289769.8703915,10,0.16704156338705334
7,8.174898273366601,1.0399318214972748,2171,9.214830094863876,0.11285415040662634,8e9,1039931821.4972748,10,4.1172609773059055
8,95.72478274569676,5.393467682914359,198,101.11825042861112,0.053338221933755814,95e9,5393467682.914359,100,27.682208736619504
9,84.42200688983054,5.500720990815696,223,89.92272788064624,0.06117164281444801,84e9,5500720990.815697,100,69.25605035174152
10,94.25801013154887,1.6052565283075753,209,95.86326665985645,0.016745272555788983,94e9,1605256528.3075752,100,36.37028637586354
11,99.9224733587288,0.2897451271174541,200,100.21221848584625,0.0028913153654848687,99e9,289745127.1174541,100,1.7626025266159235
12,94.87389682749517,4.131814379166282,203,99.00571120666146,0.04173309124098568,94e9,4131814379.1662817,100,98.88015440313279
13,737.5145323587578,100.15384478053096,24,837.6683771392889,0.11956264258484384,737e9,100153844780.53096,1000,35.46367820705408
14,964.612215247782,56.339085788378966,20,1020.951301036161,0.055182931576854416,964e9,56339085788.37897,1000,618.9827208088003
15,961.9071283884618,109.13392642863296,19,1071.0410548170948,0.10189518500508846,961e9,109133926428.63297,1000,147.02877237052192
