app_id,Tcomp,Tio,iter,witer,alpha_io,compute_size,io_size,mu,desyn_time
1,9.346870307904656,0.9152111634711051,1949,10.26208147137576,0.08918377485346642,9e9,915211163.4711051,10,0.9732573392621109
2,101.1753389646872,8.903661967924275,182,110.07900093261148,0.0808842912134981,101e9,8903661967.924276,100,104.65393978995803
3,110.23082881584504,10.984841245360965,165,121.21567006120601,0.09062228703445963,110e9,10984841245.360964,100,55.408687004291906
4,92.42193469013031,1.1044036080637347,214,93.52633829819405,0.011808476929167453,92e9,1104403608.0637348,100,17.890690063864966
5,98.24632157182782,0.10410687415827943,204,98.3504284459861,0.0010585299505375797,98e9,104106874.15827943,100,25.694713505625998
6,100.14240331906278,2.1707040044466432,196,102.31310732350943,0.02121628461134481,100e9,2170704004.4466434,100,100.86210298838184
7,1192.3178583226247,13.746296243108025,17,1206.0641545657327,0.011397649280155957,1192e9,13746296243.108025,1000,152.7425705815704
8,1051.7931882887124,77.59545097503049,18,1129.3886392637428,0.06870571234505737,1051e9,77595450975.03049,1000,144.69245221673071
9,896.5604996572164,88.9092470592269,21,985.4697467164433,0.09022016896558209,896e9,88909247059.2269,1000,420.7345933589558
10,944.8571790497319,81.73254590909708,20,1026.589724958829,0.07961558928750717,944e9,81732545909.09708,1000,654.4039262485867
11,850.8574193928167,79.36332171183462,22,930.2207411046513,0.0853166546443476,850e9,79363321711.83461,1000,565.7695369348
12,994.9598805288288,16.706856345965413,20,1011.6667368747942,0.016514189640726602,994e9,16706856345.965412,1000,262.587814933498
13,1173.0852958047087,75.85378857743419,17,1248.939084382143,0.06073457827205358,1173e9,75853788577.43419,1000,53.69392752746346
14,978.3684860354886,42.12901946286882,20,1020.4975054983573,0.04128282453987501,978e9,42129019462.86882,1000,369.6627383330095
15,862.5653319813487,46.775576470815906,22,909.3409084521645,0.051438988432220646,862e9,46775576470.8159,1000,157.5447592862067
