app_id,Tcomp,Tio,iter,witer,alpha_io,compute_size,io_size,mu,desyn_time
1,6.342018920535068,0.45866434856679766,2941,6.8006832691018655,0.0674438626851933,6e9,458664348.5667977,10,1.755555456155652
2,8.299367738194585,0.8355280200299345,2190,9.13489575822452,0.0914655232138445,8e9,835528020.0299345,10,2.1979832417426857
3,9.153466503518608,0.3563947649201199,2104,9.509861268438728,0.03747633691596751,9e9,356394764.9201199,10,2.7539584729818958
4,9.450262829862881,0.8003563724061489,1952,10.25061920226903,0.0780788317869603,9e9,800356372.4061489,10,4.254207593743387
5,8.547336511253604,0.11035384734239186,2311,8.657690358595996,0.012746337969089456,8e9,110353847.34239185,10,8.143575581302416
6,8.669722601453962,0.2344437451363064,2247,8.90416634659027,0.026329668158780913,8e9,234443745.1363064,10,0.9343578094577725
7,7.601307693296181,0.7107317422687177,2407,8.312039435564898,0.08550630056297553,7e9,710731742.2687178,10,7.9398954229248
8,10.010819948465132,0.4263084944933978,1917,10.43712844295853,0.040845381641442705,10e9,426308494.49339783,10,7.91171052420176
9,91.99410021132888,4.256915852901012,208,96.2510160642299,0.04422723028773329,91e9,4256915852.9010124,100,52.98937969684227
10,109.38498405708155,5.342693026413212,175,114.72767708349477,0.04656847556082729,109e9,5342693026.413212,100,59.737478429963254
11,104.2443405820458,9.79528281727875,176,114.03962339932454,0.08589367910291404,104e9,9795282817.27875,100,24.527642617162012
12,101.53909454026837,8.983708555300787,181,110.52280309556915,0.081283755964211,101e9,8983708555.300787,100,58.0398402434222
13,107.32942943696862,7.363518472564041,175,114.69294790953266,0.06420201596328509,107e9,7363518472.564041,100,49.28795750927757
14,1103.9844242745603,39.18548538413924,18,1143.1699096586995,0.03427791884046206,1103e9,39185485384.139244,1000,567.549954288828
15,1216.8314373827961,4.463443619948558,17,1221.2948810027447,0.003654681346313223,1216e9,4463443619.948558,1000,161.91964965046012
