app_id,Tcomp,Tio,iter,witer,alpha_io,compute_size,io_size,mu,desyn_time
1,11.041724457217574,0.30437085415154114,1763,11.346095311369115,0.02682604418513502,11e9,304370854.1515411,10,8.118864598318563
2,7.272046879446245,0.4888421452750186,2578,7.760889024721264,0.0629879056017781,7e9,488842145.27501863,10,6.46630808485715
3,9.67555635172086,1.1322716936555697,1851,10.80782804537643,0.10476403666876931,9e9,1132271693.6555698,10,4.110493926881758
4,9.63136900504231,0.1426776471472466,2047,9.774046652189558,0.014597602428599449,9e9,142677647.1472466,10,1.357022791849873
5,10.494756914956008,0.04788666138839658,1898,10.542643576344405,0.0045421872646671585,10e9,47886661.38839658,10,9.32627630698689
6,100.48603950872261,0.06014360232283835,199,100.54618311104545,0.0005981689255813362,100e9,60143602.32283835,100,55.81208191440008
7,98.88490321562153,4.5139991090357565,194,103.39890232465729,0.04365616082521327,98e9,4513999109.035756,100,65.05541266655588
8,124.81633646526664,1.4666864271966753,159,126.28302289246332,0.011614280317360129,124e9,1466686427.1966753,100,88.91061880668093
9,87.26877458287095,1.7822018581678114,225,89.05097644103876,0.020013276994753887,87e9,1782201858.1678114,100,0.635281036292597
10,67.76572930857512,7.715734559254224,265,75.48146386782935,0.10222025599244791,67e9,7715734559.254224,100,18.597936198046355
11,1000.4090702945041,93.34038449113584,19,1093.74945478564,0.08533982264652126,1000e9,93340384491.13583,1000,137.30318928637314
12,880.2067647917156,30.117906813571707,22,910.3246716052873,0.03308479683458551,880e9,30117906813.57171,1000,81.14351287630393
13,819.8603803399963,92.08639287721427,22,911.9467732172105,0.10097781535247652,819e9,92086392877.21426,1000,406.436133223012
14,808.7241527933836,88.01447745090857,23,896.7386302442922,0.09814953263129905,808e9,88014477450.90857,1000,646.1989740932868
15,1038.342658092407,103.4813561682584,18,1141.8240142606653,0.09062811333081211,1038e9,103481356168.2584,1000,556.190809049364
