app_id,Tcomp,Tio,iter,witer,alpha_io,compute_size,io_size,mu,desyn_time
1,10.708887828617613,0.5006331656555465,1785,11.20952099427316,0.044661423615809756,10e9,500633165.6555465,10,0.9351743217282457
2,10.093146230096357,0.39454869073431437,1907,10.487694920830672,0.0376201533046753,10e9,394548690.7343144,10,8.264348099560625
3,8.653495565611134,0.8609817956909676,2103,9.514477361302102,0.09049175934695146,8e9,860981795.6909676,10,4.577777021262172
4,93.97386902855061,6.263863399825046,200,100.23773242837565,0.06249007482587315,93e9,6263863399.825046,100,55.603311260000176
5,92.36610031742272,8.67450202080357,198,101.0406023382263,0.08585164597263867,92e9,8674502020.803572,100,86.70199360745904
6,75.6572826847407,3.797373355387534,252,79.45465604012823,0.04779296198160731,75e9,3797373355.387534,100,17.5947635239032
7,87.73088609454395,0.6611920928054387,227,88.39207818734938,0.007480218887987046,87e9,661192092.8054386,100,57.97957907524234
8,86.62866708108922,2.254996910963854,226,88.88366399205307,0.025370206511350264,86e9,2254996910.963854,100,2.8761759979537747
9,932.1074972786469,107.18733053775642,20,1039.2948278164033,0.10313467138382758,932e9,107187330537.75642,1000,169.91142593333606
10,1121.2606446583914,58.693995488105365,17,1179.9546401464968,0.04974258627502684,1121e9,58693995488.10536,1000,997.5687024803656
11,940.3341174573785,59.11715001568769,21,999.4512674730662,0.059149607329184575,940e9,59117150015.68769,1000,199.18205867987405
12,1161.846623471103,42.268682329064646,17,1204.1153058001676,0.03510351718432476,1161e9,42268682329.064644,1000,845.3738599832534
13,951.1694077109448,93.98595525327205,20,1045.155362964217,0.08992534371800363,951e9,93985955253.27205,1000,918.1436607050864
14,862.732288320854,37.74011054679082,23,900.4723988676448,0.041911457357548636,862e9,37740110546.79082,1000,709.1257405040412
15,919.8132428468442,18.077250551254266,22,937.8904933980984,0.019274372305191037,919e9,18077250551.254265,1000,153.63356947548925
