app_id,start_app,end_app,effective_cpu,effective_io,effective_iter,total_bytes,stretch,utilization,Tcomp,Tio,iterations,priority,group_id
app_1,0.970387,18338.4,7556.8,171.77,1083.18,1.07612e+11,1.04379,0.888184,7,0.0992732,2478,0.1,1
app_10,46.8317,21675.5,7214.9,291.154,75.2049,1.78096e+11,1.08211,0.888184,96,2.37461,203,0.01,2
app_11,19.7865,22249.3,6417.2,1068.77,88.9277,6.75975e+11,1.12784,0.888184,73,7.59523,248,0.01,2
app_12,10.6742,21824.3,6381.4,1401.1,60.0971,9.0322e+11,1.0982,0.888184,105,15.0537,166,0.01,2
app_13,57.8996,21638.4,7370.6,89.9212,85.4321,5.214e+10,1.07777,0.888184,86,0.606279,229,0.01,2
app_14,92.8596,22118.3,6505.8,1134.2,74.6886,7.13202e+11,1.10819,0.888184,86,9.50936,209,0.01,2
app_15,385.393,24506.5,5695.83,2304.17,5.37454,7.86248e+11,1.23417,0.888184,1082,142.49,17,0.001,3
app_2,4.54873,19280.3,6823.6,1074.62,856.119,9.91772e+11,1.02362,0.888184,8,1.15861,2056,0.1,1
app_3,5.07525,20544.5,7557.6,267.914,757.668,2.25068e+11,1.02793,0.888184,10,0.296923,1942,0.1,1
app_4,0.185025,19355.7,7692.1,91.6231,855.655,5.41235e+10,1.03276,0.888184,9,0.0632283,2065,0.1,1
app_5,8.7331,19798.8,7665.2,142.736,766.526,8.17814e+10,1.03266,0.888184,10,0.106625,1898,0.1,1
app_6,3.38264,19489.7,7006,883.939,633.262,8.09005e+11,1.02367,0.888184,11,1.27805,1548,0.1,1
app_7,1.20626,19676.8,7509.6,327.765,834.87,2.61064e+11,1.02951,0.888184,9,0.312652,2051,0.1,1
app_8,0.492349,18749.6,7463.7,233.37,934.871,1.81103e+11,1.04646,0.888184,8,0.193693,2189,0.1,1
app_9,2.34204,19166.3,7721.7,88.9652,855.895,4.97799e+10,1.0294,0.888184,9,0.0581541,2045,0.1,1
