app_id,start_app,end_app,effective_cpu,effective_io,effective_iter,total_bytes,stretch,utilization,Tcomp,Tio,iterations,priority,group_id
app_1,1.99928,19929.7,6961.6,480.843,995.561,4.01392e+11,1.08651,0.879847,7,0.403409,2476,0.1,1
app_10,7.83078,21371.8,6929.3,970.2,76.0138,4.43279e+11,1.0851,0.879847,91,5.83262,205,0.01,2
app_11,85.0413,22052.8,6748.07,1096.47,81.8235,4.95419e+11,1.10444,0.879847,82,6.10683,227,0.01,2
app_12,85.321,21188,7384.25,161.983,83.7262,7.73202e+10,1.07216,0.879847,89,0.920478,222,0.01,2
app_13,73.2077,21568.3,6923.8,885.129,79.8501,4.11282e+11,1.09065,0.879847,87,5.14103,216,0.01,2
app_14,12.6295,20585.1,7733.6,138.829,70.9724,6.16268e+10,1.02627,0.879847,108,0.867983,184,0.01,2
app_15,298.956,23416.9,6422,1578,8.01389,4.35096e+11,1.16667,0.879847,793,54.3869,24,0.001,3
app_2,7.73871,20262.5,6778.7,797.001,967.191,7.07575e+11,1.06862,0.879847,7,0.731721,2453,0.1,1
app_3,8.54481,19291.9,6812.7,852.698,758.478,7.74756e+11,1.05437,0.879847,9,1.02211,1828,0.1,1
app_4,8.26591,19401.2,7227.2,253.554,903.821,1.88517e+11,1.07879,0.879847,8,0.208537,2193,0.1,1
app_5,5.31898,19636.8,7386.4,230.74,739.584,1.9154e+11,1.0557,0.879847,10,0.258838,1809,0.1,1
app_6,6.89772,19781.8,6868.9,728.956,859.501,6.65666e+11,1.06177,0.879847,8,0.774931,2125,0.1,1
app_7,0.102196,20502.4,6930,860.805,692.598,7.93962e+11,1.03574,0.879847,10,1.14734,1778,0.1,1
app_8,4.71784,20408,7335.52,186.014,814.506,1.47068e+11,1.06915,0.879847,9,0.180527,2078,0.1,1
app_9,3.52354,20928.5,7139.66,448.854,715.794,3.92521e+11,1.06211,0.879847,10,0.548213,1875,0.1,1
