app_id,start_app,end_app,effective_cpu,effective_io,effective_iter,total_bytes,stretch,utilization,Tcomp,Tio,iterations,priority,group_id
app_1,5.69752,20921.1,6986.5,605.114,874.881,5.2798e+11,1.06461,0.878595,8,0.603406,2289,0.1,1
app_10,35.3998,22142.4,6761.9,787.256,89.0885,3.68148e+11,1.12201,0.878595,76,4.13649,249,0.01,2
app_11,31.4792,21868.8,6979.7,526.266,66.4271,2.41747e+11,1.10781,0.878595,105,3.60816,183,0.01,2
app_12,70.615,21656.7,7243.9,248.488,84.3734,1.12834e+11,1.08744,0.878595,86,1.34326,228,0.01,2
app_13,17.2697,22202.2,6793,680.855,68.5621,3.21117e+11,1.12452,0.878595,98,4.65388,194,0.01,2
app_14,22.7769,22270.2,6504.36,1408.86,66.5319,6.60516e+11,1.11656,0.878595,97,9.97182,187,0.01,2
app_15,428.459,22393.4,7226.05,773.947,6.5497,2.06444e+11,1.07635,0.878595,1113,29.8349,18,0.001,3
app_2,1.45623,19683.7,6817.4,786.715,973.888,7.05412e+11,1.06343,0.878595,7,0.724531,2398,0.1,1
app_3,2.12872,20569,6949.7,792.879,698.352,7.20738e+11,1.04297,0.878595,10,1.03258,1792,0.1,1
app_4,0.570775,19961.9,7215.2,542.957,655.993,4.79713e+11,1.03965,0.878595,11,0.73127,1640,0.1,1
app_5,8.41255,20580.3,6912.8,797.742,769.199,7.20304e+11,1.04807,0.878595,9,0.936676,1979,0.1,1
app_6,8.70661,21282.4,7434.1,91.4143,826.513,5.24524e+10,1.06858,0.878595,9,0.063425,2202,0.1,1
app_7,9.82099,20611.1,7484.61,73.1457,746.949,3.23611e+10,1.06426,0.878595,10,0.0433795,1930,0.1,1
app_8,8.67665,20796.3,7202.4,353.14,799.589,2.95331e+11,1.06699,0.878595,9,0.369164,2081,0.1,1
app_9,4.05328,19276.9,6919.8,792.291,767.478,7.13354e+11,1.04806,0.878595,9,0.930057,1848,0.1,1
