app_id,start_app,end_app,effective_cpu,effective_io,effective_iter,total_bytes,stretch,utilization,Tcomp,Tio,iterations,priority,group_id
app_1,5.32539,20595.4,6210.93,1789.07,890.185,6.72263e+11,1.16225,0.865274,7,0.755282,2300,1,1
app_10,49.3507,21587.6,7063.3,936.7,87.9572,3.45878e+11,1.07974,0.865274,80,3.93043,238,1.00001,1.00001
app_11,39.3007,21644.5,6948.9,1051.1,79.4141,3.76053e+11,1.09216,0.865274,87,4.70067,217,1.00001,1.00001
app_12,49.4311,22074.4,6685.1,1314.9,62.4118,4.6705e+11,1.11854,0.865274,107,7.53307,174,1.00001,1.00001
app_13,21.3524,22600,6315.3,1684.7,70.4929,6.65814e+11,1.14595,0.865274,89,9.37767,202,1.00001,1.00001
app_14,109.75,20581.1,7794.3,205.7,72.1063,7.42232e+10,1.01671,0.865274,109,1.01676,182,1.00001,1.00001
app_15,521.007,22201.4,7448.4,551.6,8.568,1.7301e+11,1.04967,0.865274,842,21.6263,24,1.00002,1.00002
app_2,10.3215,22598.9,6295.6,1704.4,630.014,6.4526e+11,1.15259,0.865274,10,1.02422,1800,1,1
app_3,1.36784,21254.1,6594.9,1405.1,733.09,5.21511e+11,1.12416,0.865274,9,0.711475,1950,1,1
app_4,3.70401,18855.7,7601.6,398.4,844.985,1.25812e+11,1.03528,0.865274,9,0.14889,1997,1,1
app_5,9.58562,21013.7,6717.3,1282.7,746.972,4.69462e+11,1.11316,0.865274,9,0.628463,1964,1.00001,1.00001
app_6,5.6867,21473.4,7036.1,963.9,703.678,3.37487e+11,1.08495,0.865274,10,0.479385,1893,1.00001,1.00001
app_7,4.5078,20512,7060.9,939.1,883.469,3.27054e+11,1.08284,0.865274,8,0.37039,2265,1.00001,1.00001
app_8,5.81173,19488.1,7803.6,196.4,779.121,5.41008e+10,1.01811,0.865274,10,0.06936,1898,1.00001,1.00001
app_9,0.593058,21876,6256.7,1743.3,894.115,6.49692e+11,1.15835,0.865274,7,0.726725,2469,1.00001,1.00001
