app_id,start_app,end_app,effective_cpu,effective_io,effective_iter,total_bytes,stretch,utilization,Tcomp,Tio,iterations,priority,group_id
app_1,3.03951,21962.3,6513,1006.6,720.829,5.42721e+11,1.13383,0.858222,9,0.752734,1994,1,1
app_10,52.7501,21412.7,6851.5,1023.24,70.6173,6.23535e+11,1.07023,0.858222,97,8.78218,189,1,2
app_11,405.958,22340.6,7267.8,199.842,7.88314,1.00514e+11,1.08573,0.858222,931,12.5643,22,1,3
app_12,737.766,22554.1,7352.71,156.221,8.50003,7.81101e+10,1.0766,0.858222,890,9.7635,23,1,3
app_13,667.209,22972.4,7117.6,343.172,7.63725,1.66515e+11,1.09828,0.858222,930,20.8144,22,1,3
app_14,654.323,22115.8,7065,594.863,8.46281,2.93925e+11,1.08712,0.858222,841,32.6583,23,1,3
app_15,11.4859,22951.6,6667.5,1297.71,7.31727,6.4e+11,1.09477,0.858222,887,91.4286,21,1,3
app_2,2.49064,21402.4,6487.1,1164.21,722.776,6.4023e+11,1.12244,0.858222,9,0.885519,1939,1,1
app_3,4.5125,21195,6933.9,293.667,771.746,1.51008e+11,1.12916,0.858222,9,0.195606,2059,1,1
app_4,10.0003,21483.7,6605.64,1197.62,598.956,6.41625e+11,1.10386,0.858222,11,1.07116,1616,1,1
app_5,6.12428,21492.8,7131.44,93.8861,795.6,2.96878e+10,1.11714,0.858222,9,0.037322,2139,1,1
app_6,34.5128,21939.4,6859,793.254,75.2787,4.62523e+11,1.09267,0.858222,90,6.08583,207,1,2
app_7,93.6253,21922.2,6778.7,779.198,76.015,4.66245e+11,1.10422,0.858222,90,6.1348,207,1,2
app_8,25.7222,21652.7,6606,1111.12,73.2739,6.49465e+11,1.10262,0.858222,91,8.89678,199,1,2
app_9,28.4966,22182.9,6749.7,653.846,79.3819,3.93949e+11,1.11988,0.858222,85,4.92436,221,1,2
