app_id,start_app,end_app,effective_cpu,effective_io,effective_iter,total_bytes,stretch,utilization,Tcomp,Tio,iterations,priority,group_id
app_1,6.3134,25049.1,4893.78,417.908,611.995,3.79454e+11,1.5171,0.779881,8,0.620022,2080,1,1
app_10,66.4382,22879.4,6901.8,87.6415,73.9713,8.3735e+10,1.14522,0.779881,93,1.13155,213,1,1
app_11,105.06,22670.4,6990.6,94.1108,65.5001,9.14104e+10,1.12962,0.779881,107,1.38501,184,1,1
app_12,147.123,21030.6,7607.5,233.017,8.19548,2.32525e+11,1.0204,0.779881,946,25.8361,21,1,1
app_13,1019.52,21329,7273.9,717.558,7.58556,7.17176e+11,1.00112,0.779881,987,89.647,19,1,1
app_14,331.057,21133.4,7189.04,667.744,6.86893,6.67557e+11,1.01825,0.779881,1013,98.2704,18,1,1
app_15,531.565,21234.8,7386.4,375.108,8.27647,3.7471e+11,1.03078,0.779881,923,46.8387,21,1,1
app_2,3.42417,26847,4955.85,439.439,550.995,4.09667e+11,1.491,0.779881,9,0.743498,2043,1,1
app_3,6.56657,25423.9,4893.04,635.842,490.678,6.08534e+11,1.45413,0.779881,10,1.23938,1682,1,1
app_4,2.34389,27096.2,5054.06,238.486,561.002,2.20475e+11,1.51672,0.779881,9,0.393003,2119,1,1
app_5,0.300514,26651.7,5110.23,183.572,638.998,1.44763e+11,1.52236,0.779881,8,0.226546,2354,1,1
app_6,7.73166,26450.9,4878.18,528.507,540.089,4.92798e+11,1.48949,0.779881,9,0.911155,1973,1,1
app_7,103.695,22711.1,7049,144.509,64.5876,1.41944e+11,1.11251,0.779881,110,2.18376,178,1,1
app_8,29.9614,22537.9,6483.91,647.616,67.2223,6.44761e+11,1.12223,0.779881,97,9.48178,187,1,1
app_9,34.4827,22677.8,6918.4,134.286,63.5192,1.31108e+11,1.13483,0.779881,109,2.04856,180,1,1
