app_id,start_app,end_app,effective_cpu,effective_io,effective_iter,total_bytes,stretch,utilization,Tcomp,Tio,iterations,priority,group_id
app_1,9.13582,20536.9,7197.6,802.4,799.98,5.65094e+11,1.03057,0.896376,9,0.706368,2054,0.1027,1
app_10,104.405,21370.9,7531.5,468.5,7.20373,1.73074e+11,1.03834,0.896376,1052,24.7249,19,0.000928565,1.00001
app_11,441.418,22069.6,6891.47,1108.53,9.92426,3.7494e+11,1.10096,0.896376,702,38.3869,27,0.00134986,1.00001
app_12,958.066,22265.8,7623.9,376.1,7.52452,8.16785e+10,1.03821,0.896376,1022,10.2098,20,0.000968217,1.00001
app_13,279.421,22984.7,6967.3,1032.7,6.88995,3.39863e+11,1.09482,0.896376,991,53.2423,20,0.000957483,1.00001
app_14,376.082,23841,5906.4,2093.6,6.50629,7.08402e+11,1.20941,0.896376,928,101.2,20,0.000970703,1.00001
app_15,391.72,21544.3,7693.9,306.1,8.99909,9.9969e+10,1.02645,0.896376,854,11.1077,24,0.0011558,1.00002
app_2,8.84032,20256,6977,1023,774.659,7.22903e+11,1.03897,0.896376,9,0.932779,1967,0.0983365,1
app_3,1.85679,19116.5,6966,1034,773.716,7.11589e+11,1.04199,0.896376,9,0.919365,1856,0.0927733,1
app_4,8.90527,19931,7379.8,620.2,818.243,4.14403e+11,1.0264,0.896376,9,0.506606,2045,0.102227,1
app_5,48.3453,21231.7,7115.2,884.8,87.6503,4.96014e+11,1.05108,0.896376,81,5.63652,230,0.011457,1.00001
app_6,87.5235,20961.6,7450.3,549.7,77.5345,2.88125e+11,1.0338,0.896376,95,3.74188,203,0.0101188,1.00001
app_7,95.5953,20243.5,7892.1,107.9,81.0637,4.5388e+10,1.00788,0.896376,97,0.560346,205,0.0102236,1.00001
app_8,38.8833,21225,7112.9,887.1,86.1499,4.96006e+11,1.0514,0.896376,82,5.76751,228,0.0113897,1.00001
app_9,106.881,21659.8,6859.74,1140.26,67.1318,5.81426e+11,1.0751,0.896376,101,8.56781,183,0.00911267,1.00001
