app_id,start_app,end_app,effective_cpu,effective_io,effective_iter,total_bytes,stretch,utilization,Tcomp,Tio,iterations,priority,group_id
app_1,0.853777,29894.4,3493.64,149.606,387.995,1.21571e+11,2.21287,0.741744,9,0.313327,1982,1,1
app_10,4.7491,21453.4,6927.4,982.828,8.73718,9.824e+11,1.0114,0.741744,798,109.156,23,1,1
app_11,856.966,22242.2,7431.1,192.317,7.41434,1.91965e+11,1.04945,0.741744,979,23.9956,20,1,1
app_12,869.44,22107.4,7580.3,287.401,7.0704,2.87003e+11,1.01687,0.741744,1053,41.0004,19,1,1
app_13,838.448,21684.6,7215.69,709.236,8.40414,7.08903e+11,1.00952,0.741744,877,86.0625,21,1,1
app_14,760.956,22191.5,7199.5,541.565,7.43336,5.4119e+11,1.0335,0.741744,969,67.6487,20,1,1
app_15,696.327,21330.3,6931.52,880.081,8.90719,8.7969e+11,1.02417,0.741744,784,99.0567,23,1,1
app_2,4.74753,30553.9,3425.86,340.727,342,3.22733e+11,2.13413,0.741744,10,0.943663,1775,1,1
app_3,0.548091,29665.3,3511.36,150.455,390.004,1.19018e+11,2.20363,0.741744,9,0.305174,1951,1,1
app_4,6.61598,26225.1,5657.62,155.073,68.2117,1.5131e+11,1.37719,0.741744,83,2.22514,235,1,1
app_5,56.5989,26494.8,5565.01,10.0326,57.9997,6.99708e+09,1.43575,0.741744,95,0.120639,211,1,1
app_6,2.65428,25627.1,5507.5,272.417,58.9258,2.69849e+11,1.38472,0.741744,94,4.57372,202,1,1
app_7,64.2205,25621.5,5555.7,194.976,58.96,1.92245e+11,1.3918,0.741744,94,3.2584,204,1,1
app_8,48.7999,25451.8,5801.06,108.407,56.9534,1.06143e+11,1.35428,0.741744,101,1.86216,194,1,1
app_9,784.109,21763.4,7206,672.991,8.71951,6.72342e+11,1.01544,0.741744,828,74.7047,23,1,1
