app_id,start_app,end_app,effective_cpu,effective_io,effective_iter,total_bytes,stretch,utilization,Tcomp,Tio,iterations,priority,group_id
app_1,7.70224,26133.4,5101.21,557.13,566.006,5.22449e+11,1.42256,0.765219,9,0.923056,1981,1,1
app_10,32.581,22025.3,6766.62,349.278,86.2545,3.4533e+11,1.12487,0.765219,79,3.96931,240,1,1
app_11,21.4837,21691.8,6898.3,510.44,77.4158,5.07616e+11,1.08022,0.765219,89,6.59241,210,1,1
app_12,81.5266,21901.2,6882.97,450.426,74.4937,4.46962e+11,1.09141,0.765219,93,5.9595,203,1,1
app_13,59.0221,21577.6,6530.75,894.329,81.811,8.90512e+11,1.07798,0.765219,80,10.8599,220,1,1
app_14,389.224,21054.8,7308.71,674.297,8.46467,6.73713e+11,1.0022,0.765219,859,79.9188,22,1,1
app_15,705.702,21753.7,7857.68,130.44,8.3442,1.30237e+11,1.00151,0.765219,936,15.3897,22,1,1
app_2,7.22815,25533.1,5262.11,537.216,477.654,5.21004e+11,1.38334,0.765219,11,1.08997,1629,1,1
app_3,9.5589,25400.9,5481.22,41.4078,548.007,8.23994e+09,1.45734,0.765219,10,0.0150364,1853,1,1
app_4,3.29921,25192.6,5474.78,42.2282,547.992,1.07623e+10,1.45838,0.765219,10,0.0196392,1836,1,1
app_5,5.14999,26605.2,5393.08,74.5451,599.992,5.26572e+10,1.46904,0.765219,9,0.0877621,2170,1,1
app_6,10.5787,25372.8,5370.2,204.935,535.997,1.72822e+11,1.44325,0.765219,10,0.322429,1815,1,1
app_7,2.08203,25627.9,4972.43,628.532,624.013,6.01038e+11,1.43537,0.765219,8,0.963202,2134,1,1
app_8,5.95736,26058.4,5597.97,98.4591,467.611,7.80149e+10,1.40945,0.765219,12,0.166699,1620,1,1
app_9,52.0224,21585.6,6928.24,490.018,73.1737,4.87488e+11,1.07879,0.765219,95,6.58767,196,1,1
