app_id,start_app,end_app,effective_cpu,effective_io,effective_iter,total_bytes,stretch,utilization,Tcomp,Tio,iterations,priority,group_id
app_1,2.30757,26328.6,5286.2,320.034,528.746,2.92945e+11,1.43391,0.781373,10,0.553772,1872,1,1
app_10,4.28976,21449.9,6931.3,649.276,64.3608,6.45689e+11,1.05583,0.781373,107,9.93367,170,1,1
app_11,76.5084,21806.4,6840.9,524.708,70.3923,5.20893e+11,1.08669,0.781373,97,7.33652,192,1,1
app_12,102.287,21637.6,6977.9,352.647,71.3202,3.48575e+11,1.09193,0.781373,99,4.84131,192,1,1
app_13,429.761,20937.8,7549.7,371.863,8.32169,3.7145e+11,1.00995,0.781373,874,46.4312,22,1,1
app_14,402.197,21053.3,7556.6,350.062,7.15464,3.49665e+11,1.01186,0.781373,1028,49.9521,19,1,1
app_15,238.713,21242.6,7581.5,282.942,7.85158,2.82585e+11,1.01728,0.781373,954,40.3692,21,1,1
app_2,0.245331,26362.4,5127,321.521,641.983,2.89895e+11,1.47686,0.781373,8,0.45155,2279,1,1
app_3,1.48474,25337.5,5258.5,284.365,583.492,2.50511e+11,1.45217,0.781373,9,0.428958,1957,1,1
app_4,6.91544,26034.3,5210.3,186.93,649.922,1.50016e+11,1.49245,0.781373,8,0.230794,2273,1,1
app_5,1.23163,25451.9,4980.4,556.63,619.624,5.24086e+11,1.45336,0.781373,8,0.8453,2104,1,1
app_6,1.8623,25083.9,5297.9,65.2815,664.275,2.86822e+10,1.5019,0.781373,8,0.0431961,2213,1,1
app_7,7.03532,25123.7,5051,565.488,558.735,5.4206e+11,1.43034,0.781373,9,0.969696,1860,1,1
app_8,24.3686,21363.3,6917.6,638.59,71.1239,6.34749e+11,1.05927,0.781373,97,8.94013,189,1,1
app_9,44.1846,21667.8,7198,172.656,90.9196,1.68408e+11,1.08601,0.781373,80,1.85064,243,1,1
