app_id,start_app,end_app,effective_cpu,effective_io,effective_iter,total_bytes,stretch,utilization,Tcomp,Tio,iterations,priority,group_id
app_1,6.07143,21333.4,6719.7,1280.3,745.996,4.58327e+11,1.11451,0.863537,9,0.614379,2007,1,1
app_10,744.921,23149.3,6764.9,1235.1,8.87823,4.28746e+11,1.11209,0.863537,781,47.6384,25,1.00001,1.00001
app_11,228.064,23217.7,6230.6,1769.4,8.03132,7.00238e+11,1.15426,0.863537,800,87.5298,23,1.00001,1.00001
app_12,489.044,22537.6,6527.8,1472.2,7.87346,5.17301e+11,1.13554,0.863537,857,64.6626,22,1.00001,1.00001
app_13,583.581,21397.6,7559.2,440.8,8.36999,1.56101e+11,1.0369,0.863537,906,17.3445,22,1.00001,1.00001
app_14,393.244,20647,7927.7,72.3,8.79227,2.77623e+10,1.0056,0.863537,915,3.47028,22,1.00001,1.00001
app_15,509.924,22129.1,6875.8,1124.2,6.05099,2.98644e+11,1.11507,0.863537,1168,49.7741,17,1.00002,1.00002
app_2,5.23174,20780.3,6284.1,1715.9,896.006,6.27726e+11,1.15744,0.863537,7,0.700587,2356,1,1
app_3,3.34412,21146.3,7409.84,590.156,70.0412,1.91691e+11,1.05242,0.863537,105,2.732,186,1,1
app_4,68.8084,20648.8,7673.7,326.3,79.3262,1.09123e+11,1.0279,0.863537,95,1.3813,207,1,1
app_5,78.0184,21454.8,7184.52,815.478,72.4294,2.86462e+11,1.07081,0.863537,98,3.93935,196,1.00001,1.00001
app_6,3.62834,22522.3,6264.3,1735.7,73.757,6.61962e+11,1.15502,0.863537,86,8.94543,209,1.00001,1.00001
app_7,4.88202,22216.7,6602.8,1397.2,67.747,5.04083e+11,1.12567,0.863537,97,7.52363,191,1.00001,1.00001
app_8,242.58,23698.1,5915.5,2084.5,6.31042,6.73375e+11,1.21417,0.863537,925,112.229,20,1.00001,1.00001
app_9,966.715,21604,7684,316,7.91153,1.22551e+11,1.02478,0.863537,995,15.3188,20,1.00001,1.00001
