app_id,start_app,end_app,effective_cpu,effective_io,effective_iter,total_bytes,stretch,utilization,Tcomp,Tio,iterations,priority,group_id
app_1,6.84276,19230.5,7454.8,545.2,932.107,3.03878e+11,1.0311,0.887994,8,0.326049,2238,0.111858,1
app_10,51.959,21608.2,6913.56,1086.44,86.5324,3.78589e+11,1.09707,0.887994,79,4.36112,238,0.0118914,1.00001
app_11,80.2167,22685.3,6243,1757,78.9514,6.62727e+11,1.15846,0.887994,79,8.38895,228,0.0113856,1.00001
app_12,52.2965,22901.7,6122,1878,74.2391,6.91171e+11,1.1742,0.887994,82,9.34015,218,0.0108734,1.00001
app_13,78.7147,21002.8,7383.9,616.1,71.1255,1.80708e+11,1.05756,0.887994,105,2.54519,186,0.00927933,1.00001
app_14,78.808,23258.6,5825.6,2174.4,63.9993,7.75862e+11,1.21185,0.887994,91,12.1228,193,0.00960535,1.00001
app_15,417.323,20905.2,7784.1,215.9,7.73032,5.48788e+10,1.02054,0.887994,1011,6.85985,20,0.000981829,1.00002
app_2,6.17544,18677.5,7749.6,250.404,968.746,1.11667e+11,1.01765,0.887994,8,0.115317,2260,0.112962,1
app_3,2.53219,18688.6,7851.6,148.4,982.426,6.46991e+10,1.01057,0.887994,8,0.065885,2289,0.114415,1
app_4,1.27065,19633.2,7328.7,671.3,664.323,3.58777e+11,1.04065,0.887994,11,0.540327,1632,0.0815709,1
app_5,3.88017,20145.5,6963.37,1036.63,868.943,6.34941e+11,1.05287,0.887994,8,0.730887,2193,0.109615,1.00001
app_6,0.319422,19141.3,7326.9,673.1,915.068,3.83141e+11,1.03761,0.887994,8,0.418733,2193,0.1096,1.00001
app_7,6.74672,20289.1,6618.4,1381.6,827.079,8.8035e+11,1.06684,0.887994,8,1.06451,2101,0.105037,1.00001
app_8,0.343891,18411.8,7610.8,389.2,950.638,2.00158e+11,1.0242,0.887994,8,0.210692,2186,0.109275,1.00001
app_9,8.59927,20057.3,7382.9,617.1,818.841,3.3725e+11,1.03625,0.887994,9,0.411783,2056,0.102759,1.00001
