app_id,start_app,end_app,effective_cpu,effective_io,effective_iter,total_bytes,stretch,utilization,Tcomp,Tio,iterations,priority,group_id
app_1,4.10373,26982.4,4601,195.912,656.065,1.61465e+11,1.6798,0.75102,7,0.246136,2499,1,1
app_10,76.7274,22796.7,6199.1,686.226,73.9889,6.81048e+11,1.16277,0.75102,85,9.20336,212,1,1
app_11,58.9673,22372.5,6527,473.247,63.2218,4.69924e+11,1.14336,0.75102,103,7.34256,181,1,1
app_12,541.236,20918.5,7127.5,860.865,7.73904,8.60533e+11,1.0015,0.75102,925,107.567,20,1,1
app_13,144.708,21208.9,7668.6,45.5408,7.55178,4.52067e+10,1.0371,0.75102,1035,5.65083,20,1,1
app_14,18.2484,21202.6,7644.6,225.408,7.52672,2.24991e+11,1.01657,0.75102,994,28.1239,20,1,1
app_15,448.627,21033.4,7295.2,543.861,6.93857,5.43524e+11,1.02057,0.75102,1070,77.6462,18,1,1
app_2,4.0489,26835.1,4952.4,36.5607,495.106,3.24842e+09,1.61432,0.75102,10,0.00656247,1852,1,1
app_3,6.56571,27720.8,4677.5,211.626,519.269,1.8805e+11,1.64421,0.75102,9,0.362332,2068,1,1
app_4,5.39438,26220.1,4437.25,606.325,553.892,5.73902e+11,1.59644,0.75102,8,1.03601,2011,1,1
app_5,4.76484,27623.4,4769.1,295.675,476.208,2.79143e+11,1.58471,0.75102,10,0.586436,1861,1,1
app_6,3.31168,28045,4777.7,121.45,529.907,1.03763e+11,1.63885,0.75102,9,0.195779,2136,1,1
app_7,59.528,22892.7,6567.3,332.34,62.2195,3.28326e+11,1.16016,0.75102,106,5.21152,180,1,1
app_8,26.8092,22827.3,6546.8,435.791,74.5048,4.32388e+11,1.14627,0.75102,88,5.76518,213,1,1
app_9,48.3545,23021.5,6331.4,515.234,78.5565,5.11822e+11,1.16904,0.75102,80,6.56182,230,1,1
