app_id,start_app,end_app,effective_cpu,effective_io,effective_iter,total_bytes,stretch,utilization,Tcomp,Tio,iterations,priority,group_id
app_1,4.1394,21198.6,6447.1,1552.9,805.051,6.12585e+11,1.1332,0.878119,8,0.760975,2138,1,1
app_10,617.741,21948.2,7542.2,457.8,7.41519,1.5808e+11,1.03892,0.878119,987,22.5829,20,1.00001,1.00001
app_11,84.8423,21264,7548.3,451.7,7.47104,2.42699e+11,1.02683,0.878119,1003,30.3374,20,1.00001,1.00001
app_12,510.332,22233.9,6737.7,1262.3,7.98629,5.12219e+11,1.10346,0.878119,854,64.0274,22,1.00001,1.00001
app_13,779.034,23099.9,6911.9,1088.1,7.28807,4.54017e+11,1.08608,0.878119,900,64.8595,21,1.00001,1.00001
app_14,526.932,22863.2,6679.73,1320.27,8.39311,6.25467e+11,1.09511,0.878119,769,77.9404,24,1.00001,1.00001
app_15,103.635,21745.6,7097.49,902.508,7.50738,3.8333e+11,1.0694,0.878119,914,49.4475,21,1.00002,1.00002
app_2,3.85028,20311.8,6429.98,1570.02,1072.51,6.19156e+11,1.13489,0.878119,6,0.577202,2722,1,1
app_3,4.97275,19631.9,7710,290,773.253,8.7162e+10,1.02601,0.878119,10,0.112758,1893,1,1
app_4,3.30301,20137.1,6878.34,1121.66,984.245,4.15429e+11,1.09683,0.878119,7,0.422171,2475,1,1
app_5,61.2468,20534.9,7668,332,71.097,1.16664e+11,1.02766,0.878119,107,1.64316,183,1.00001,1.00001
app_6,48.0709,22287.9,6513.8,1486.2,68.9445,6.20307e+11,1.12137,0.878119,95,8.98995,193,1.00001,1.00001
app_7,97.4117,21977.6,6903.5,1096.5,69.6516,4.13205e+11,1.09339,0.878119,99,5.90293,191,1.00001,1.00001
app_8,34.0326,22108.8,6744.24,1255.76,70.1801,4.79698e+11,1.10743,0.878119,95,6.80164,196,1.00001,1.00001
app_9,79.3227,20685.4,7561.94,438.056,75.941,1.66156e+11,1.03518,0.878119,100,2.19339,195,1.00001,1.00001
