app_id,start_app,end_app,effective_cpu,effective_io,effective_iter,total_bytes,stretch,utilization,Tcomp,Tio,iterations,priority,group_id
app_1,5.71987,21808.6,6010.8,1989.2,857.945,7.98422e+11,1.17488,0.868516,7,0.930561,2347,1,1
app_10,58.6573,21785.7,6892.39,1107.61,61.931,4.05524e+11,1.0962,0.868516,111,6.60331,170,1.00001,1.00001
app_11,11.9211,20982.4,7325.6,674.4,75.8441,2.47635e+11,1.05635,0.868516,97,3.25835,199,1.00001,1.00001
app_12,6.0955,22112,6507.58,1492.42,78.4705,5.61382e+11,1.13171,0.868516,83,7.10958,220,1.00001,1.00001
app_13,51.5372,22574.5,6467.83,1532.17,67.796,5.80508e+11,1.13502,0.868516,96,8.5557,191,1.00001,1.00001
app_14,37.0992,20551.2,7629.9,370.1,74.3225,1.22764e+11,1.0319,0.868516,102,1.63685,192,1.00001,1.00001
app_15,288.462,21896.4,7295.8,704.2,8.79341,2.42833e+11,1.0612,0.868516,833,26.9815,24,1.00002,1.00002
app_2,5.24568,22288.5,6498.4,1501.6,721.951,5.79708e+11,1.13025,0.868516,9,0.80292,2017,1,1
app_3,0.845015,19010.4,7387.3,612.7,923.613,2.03035e+11,1.05397,0.868516,8,0.219972,2197,1,1
app_4,1.59999,21606.1,6931.7,1068.3,691.736,4.10696e+11,1.08956,0.868516,10,0.593492,1870,1,1
app_5,2.48424,19676.9,7437.4,562.6,742.546,1.86026e+11,1.0494,0.868516,10,0.250371,1828,1.00001,1.00001
app_6,7.49092,19483.2,7744.6,255.4,860.287,7.95612e+10,1.02247,0.868516,9,0.0925131,2094,1.00001,1.00001
app_7,9.56387,21369.8,6506.28,1493.72,726.238,5.81929e+11,1.12864,0.868516,9,0.800845,1935,1.00001,1.00001
app_8,8.35233,22477.5,6312.5,1687.5,702.077,6.55425e+11,1.14812,0.868516,9,0.933654,1985,1.00001,1.00001
app_9,0.36706,20500.7,7273.9,726.1,729.418,2.56014e+11,1.06243,0.868516,10,0.351185,1861,1.00001,1.00001
