app_id,start_app,end_app,effective_cpu,effective_io,effective_iter,total_bytes,stretch,utilization,Tcomp,Tio,iterations,priority,group_id
app_1,2.50263,30264.2,4057.64,85.1753,405.007,6.80159e+10,1.93908,0.766946,10,0.16794,1947,1,1
app_10,753.59,21035.6,6969,918.905,8.58275,9.18583e+11,1.01425,0.766946,810,102.065,22,1,1
app_11,484.592,21771.6,7298.2,560.168,7.85448,5.59987e+11,1.01805,0.766946,926,69.9984,21,1,1
app_12,619.814,21589.8,7553,271.344,7.94239,2.70912e+11,1.02251,0.766946,947,33.864,21,1,1
app_13,557.123,21509.3,7305.2,597.04,7.66092,5.96564e+11,1.01243,0.766946,946,85.2234,20,1,1
app_14,670.443,21417.9,7349,448.737,7.15839,4.4823e+11,1.02601,0.766946,1011,56.0288,19,1,1
app_15,614.901,22740.5,7299.9,124.887,8.00327,1.24425e+11,1.07754,0.766946,931,15.5531,22,1,1
app_2,4.08925,28708.4,3788.71,278.968,471.891,2.49079e+11,1.98128,0.766946,8,0.528829,2113,1,1
app_3,3.81433,30220.7,3875.24,251.383,430.954,2.19442e+11,1.95375,0.766946,9,0.510071,2066,1,1
app_4,65.7701,24548.5,5923.94,309.183,62.0888,3.06402e+11,1.28404,0.766946,96,4.86352,197,1,1
app_5,0.478345,24576.9,5839.11,188.679,67.1787,1.84263e+11,1.32816,0.766946,87,2.70975,221,1,1
app_6,44.0348,24600.4,5636.67,466.278,68.0493,4.63277e+11,1.31149,0.766946,82,6.75516,225,1,1
app_7,34.3696,24611.8,5825.27,292.127,59.1277,2.88758e+11,1.30847,0.766946,98,4.81263,194,1,1
app_8,20.85,24180.3,5814.67,446.114,61.9891,4.4296e+11,1.27844,0.766946,94,7.14452,197,1,1
app_9,679.998,22008.8,7498,296.685,7.68146,2.96297e+11,1.02639,0.766946,970,37.0371,20,1,1
