app_id,start_app,end_app,effective_cpu,effective_io,effective_iter,total_bytes,stretch,utilization,Tcomp,Tio,iterations,priority,group_id
app_1,5.39508,18460.4,7323.98,676.02,811.9,6.30691e+11,1.0057,0.907694,9,0.777049,1874,0.0936663,1
app_10,69.4902,22122.7,7289.3,710.7,9.09025,3.88139e+11,1.04201,0.907694,824,43.1265,24,0.00115225,1.00001
app_11,516.524,21455.4,7994.2,5.8,7.51671,1.73261e+09,1.00051,0.907694,1050,0.247516,20,0.000952061,1.00001
app_12,259.792,21451.1,7853.7,146.3,8.02752,4.91274e+10,1.0123,0.907694,978,6.14092,21,0.00101537,1.00001
app_13,730.568,23394.7,7095.7,904.3,7.47926,4.27425e+11,1.06339,0.907694,924,53.4281,21,0.00102236,1.00001
app_14,738.013,24491.9,6629.2,1370.8,7.90274,6.26347e+11,1.1026,0.907694,848,78.2934,22,0.00107931,1.00001
app_15,757.985,23280.5,6807.5,1192.5,9.25866,5.24704e+11,1.09108,0.907694,745,52.4704,26,0.00125266,1.00002
app_2,27.2965,20666.1,7061.3,938.7,70.0387,6.81467e+11,1.03322,0.907694,101,9.73524,180,0.00898088,1
app_3,49.8503,20531.7,7514.8,485.2,73.1329,3.45926e+11,1.01772,0.907694,102,4.73871,186,0.00929088,1
app_4,12.5232,19781.4,7986.6,13.4,86.3064,6.34026e+09,1.00088,0.907694,93,0.073724,213,0.0106355,1
app_5,75.8737,20388.9,7699.2,300.8,85.5531,2.12766e+11,1.01113,0.907694,89,2.50312,218,0.0108822,1.00001
app_6,20.2034,20444,7557.9,442.1,81.9355,3.1296e+11,1.01641,0.907694,92,3.81658,208,0.0103973,1.00001
app_7,361.094,24841.4,6272.17,1727.83,6.3574,7.12752e+11,1.14532,0.907694,963,116.038,19,0.000926543,1.00001
app_8,774.429,24412.2,6898.9,1101.1,7.74857,5.33458e+11,1.07637,0.907694,870,76.2083,22,0.0010559,1.00001
app_9,850.222,23680.3,6938.8,1061.2,7.48104,5.34191e+11,1.07052,0.907694,889,76.313,21,0.00103591,1.00001
