app_id,start_app,end_app,effective_cpu,effective_io,effective_iter,total_bytes,stretch,utilization,Tcomp,Tio,iterations,priority,group_id
app_1,10.0894,21477.6,6904.8,1095.2,690.498,3.92748e+11,1.09626,0.869047,10,0.568376,1867,1,1
app_10,178.677,23027.5,6442.7,1557.3,7.84435,5.25352e+11,1.1481,0.869047,836,65.6689,23,1.00001,1.00001
app_11,193.745,22807.1,6543.41,1456.59,6.58183,4.3891e+11,1.14575,0.869047,1021,65.2005,19,1.00001,1.00001
app_12,183.145,20432.3,7932.7,67.3,7.33882,3.67149e+10,1.00384,0.869047,1107,5.24498,18,1.00001,1.00001
app_13,594.151,22692.2,6923.6,1076.4,6.09941,4.01207e+11,1.09218,0.869047,1148,66.8679,17,1.00001,1.00001
app_14,118.537,21340.8,7431.8,568.2,8.30928,2.059e+11,1.04744,0.869047,905,25.7376,22,1.00001,1.00001
app_15,327.615,23498.3,6313.98,1686.02,6.66553,5.98943e+11,1.15725,0.869047,941,87.9682,20,1.00002,1.00002
app_2,6.00804,22893.9,6079.1,1920.9,678.88,7.52313e+11,1.17106,0.869047,9,1.10797,1971,1,1
app_3,81.1303,20594,7605.5,394.5,78.5413,1.33417e+11,1.03374,0.869047,97,1.71047,202,1,1
app_4,21.9392,22826.3,6231.5,1768.5,68.4027,7.34004e+11,1.14852,0.869047,91,10.6377,197,1,1
app_5,39.1643,20664.6,7653.7,346.3,70.5301,1.26334e+11,1.02827,0.869047,109,1.80478,181,1.00001,1.00001
app_6,47.5309,21976.9,6779.4,1220.6,77.2684,4.60302e+11,1.10502,0.869047,89,5.97795,211,1.00001,1.00001
app_7,3.34109,21797.7,6833.27,1166.73,74.276,4.40464e+11,1.09985,0.869047,92,5.88308,203,1.00001,1.00001
app_8,326.731,22114.4,6755.1,1244.9,9.63955,4.88614e+11,1.10441,0.869047,730,48.8614,26,1.00001,1.00001
app_9,36.5883,20416.6,7855.1,144.9,6.9784,7.10747e+10,1.00931,0.869047,1120,10.1535,18,1.00001,1.00001
