app_id,start_app,end_app,effective_cpu,effective_io,effective_iter,total_bytes,stretch,utilization,Tcomp,Tio,iterations,priority,group_id
app_1,2.46189,19068.9,7718.7,281.3,771.659,2.20155e+11,1.0077,0.895691,10,0.285174,1838,0.0918844,1
app_10,762.38,24323.2,6690.09,1309.91,7.28585,5.43086e+11,1.10601,0.895691,876,77.5267,21,0.0010487,1.00001
app_11,853.264,24678.4,6991.9,1008.1,6.62129,2.54312e+11,1.10403,0.895691,1007,42.3854,20,0.000952217,1.00001
app_12,538.466,23891.3,6473.5,1526.5,8.56164,5.80978e+11,1.13403,0.895691,766,64.5531,25,0.00120294,1.00001
app_13,9.072,21064.1,7688.3,311.7,8.06223,1.5294e+11,1.02025,0.895691,936,19.1175,21,0.00104616,1.00001
app_14,562.799,23593.4,7123.2,876.8,6.96102,3.60052e+11,1.06905,0.895691,979,51.436,20,0.000969635,1.00001
app_15,589.266,24049.1,6128,1872,6.65602,6.29402e+11,1.18389,0.895691,903,97.4339,20,0.000999129,1.00002
app_2,1.54607,18189.9,7310.51,689.494,916.728,5.88666e+11,1.01276,0.895691,8,0.642455,2080,0.103963,1
app_3,83.3476,20190.2,7819.7,180.3,86.5054,1.03929e+11,1.00964,0.895691,91,1.20848,216,0.0107963,1
app_4,27.3413,20878.1,6985.1,1014.9,77.819,6.58766e+11,1.04659,0.895691,90,8.44571,204,0.0101521,1
app_5,47.6095,20653.6,7282.9,717.102,86.4262,4.52981e+11,1.03414,0.895691,84,5.25683,223,0.011137,1.00001
app_6,65.3795,20563.4,7448.9,551.1,79.9446,3.34574e+11,1.02782,0.895691,93,4.18217,206,0.0102736,1.00001
app_7,21.5247,20928.9,6866.1,1133.9,63.6252,7.04194e+11,1.05676,0.895691,108,11.1085,167,0.00834062,1.00001
app_8,736.823,23389.9,7176.66,823.339,7.80234,3.07745e+11,1.06889,0.895691,913,39.0257,22,0.00105006,1.00001
app_9,267.259,21424,7779.4,220.6,8.19343,4.88881e+10,1.02193,0.895691,928,6.11101,22,0.00106954,1.00001
