app_id,start_app,end_app,effective_cpu,effective_io,effective_iter,total_bytes,stretch,utilization,Tcomp,Tio,iterations,priority,group_id
app_1,1.65593,20676.2,7047.3,952.7,783.375,5.9597e+11,1.04667,0.889606,9,0.761137,2031,0.101512,1
app_10,76.5457,20206.3,7814.3,185.7,80.5272,6.45467e+10,1.01538,0.889606,97,0.806834,203,0.0101482,1.00001
app_11,56.5879,20833.3,7662.3,337.7,66.9187,1.29351e+11,1.02674,0.889606,114,1.93061,173,0.00860819,1.00001
app_12,68.451,22333.5,6567.1,1432.9,65.3964,6.09986e+11,1.11466,0.889606,101,9.3844,181,0.00902343,1.00001
app_13,51.8357,21970.3,6626.4,1373.6,6.66248,3.6867e+11,1.14366,0.889606,1062,52.6672,18,0.000896537,1.00001
app_14,302.202,21106.9,7578.2,421.8,8.94945,9.9088e+10,1.04203,0.889606,864,11.0098,23,0.00114165,1.00001
app_15,518.598,23235.5,6719.52,1280.48,8.30828,3.40054e+11,1.13321,0.889606,821,38.3133,24,0.00116342,1.00002
app_2,0.33426,19654.2,6684.8,1315.2,744.44,8.30731e+11,1.06446,0.889606,9,1.11508,1829,0.091402,1
app_3,0.796069,20791.9,7046.92,953.078,703.823,5.78532e+11,1.04912,0.889606,10,0.822456,1834,0.0916887,1
app_4,9.9823,18992.9,7206.2,793.8,799.599,4.75258e+11,1.04147,0.889606,9,0.594073,1899,0.0949424,1
app_5,3.02163,20297.1,6842.01,1157.99,855.829,7.62239e+11,1.05204,0.889606,8,0.891288,2172,0.108567,1.00001
app_6,5.52109,19233.7,7620.3,379.7,845.874,2.11576e+11,1.02147,0.889606,9,0.25009,2036,0.101794,1.00001
app_7,3.49715,20062.5,7910.8,89.2,789.947,2.72898e+10,1.0078,0.889606,10,0.034544,1983,0.099116,1.00001
app_8,84.6703,21679.6,6990.8,1009.2,78.0648,4.07452e+11,1.08134,0.889606,89,5.22374,212,0.0105846,1.00001
app_9,54.6041,22326.3,6435.8,1564.2,69.6343,6.74362e+11,1.12515,0.889606,92,9.63375,196,0.00977988,1.00001
