app_id,start_app,end_app,effective_cpu,effective_io,effective_iter,total_bytes,stretch,utilization,Tcomp,Tio,iterations,priority,group_id
app_1,9.13582,20417.6,7263.2,643.937,806.348,5.70039e+11,1.02129,0.899427,9,0.706368,2054,0.1,1
app_10,104.405,21707.8,7458,379.071,7.02752,1.73074e+11,1.04835,0.899427,1052,24.7249,19,0.001,3
app_11,441.418,21877.7,6869.12,720.655,9.91077,3.56939e+11,1.1071,0.899427,702,38.3869,27,0.001,3
app_12,958.066,22792.6,7213.5,189.953,7.08805,7.14687e+10,1.09815,0.899427,1022,10.2098,20,0.001,3
app_13,279.421,22355,7111.9,862.422,6.99335,3.72696e+11,1.06886,0.899427,991,53.2423,20,0.001,3
app_14,376.082,23162,6464.9,1535.1,6.88216,7.08402e+11,1.11525,0.899427,928,101.2,20,0.001,3
app_15,391.72,21814.5,7587.8,255.388,9.28323,1.11077e+11,1.03911,0.899427,854,11.1077,24,0.001,3
app_2,8.84032,19840.1,7143.7,821.966,794.623,7.41559e+11,1.01455,0.899427,9,0.932779,1967,0.1,1
app_3,1.85679,18724.8,7140.1,817.709,794.262,7.29976e+11,1.01651,0.899427,9,0.919365,1856,0.1,1
app_4,8.90527,19965.5,7373.6,486.094,819.55,4.15417e+11,1.02709,0.899427,9,0.506606,2045,0.1,1
app_5,48.3453,20986.7,7076.7,742.753,86.7861,4.90378e+11,1.05721,0.899427,81,5.63652,230,0.01,2
app_6,87.5235,20856.2,7393.3,436.262,77.6495,2.91867e+11,1.04097,0.899427,95,3.74188,203,0.01,2
app_7,95.5953,20695.1,7758.8,86.1688,79.022,4.42673e+10,1.02524,0.899427,97,0.560346,205,0.01,2
app_8,38.8833,21063.2,7080.6,749.623,86.4965,5.01774e+11,1.05508,0.899427,82,5.76751,228,0.01,2
app_9,106.881,21226.1,6996,901.978,69.5257,5.91179e+11,1.05441,0.899427,101,8.56781,183,0.01,2
