app_id,start_app,end_app,effective_cpu,effective_io,effective_iter,total_bytes,stretch,utilization,Tcomp,Tio,iterations,priority,group_id
app_1,0.634515,28180.3,4076.9,314.069,509.082,3.01221e+11,1.82727,0.794723,8,0.59179,2137,1,1
app_10,436.328,21465.1,7311.6,381.168,8.58663,3.80744e+11,1.04,0.794723,824,47.5931,23,1,1
app_11,500.994,20913.8,7426.7,424.351,7.25722,4.24026e+11,1.01901,0.794723,1004,60.5751,19,1,1
app_12,516.328,21513.4,7592.2,331.762,8.0067,3.31314e+11,1.00965,0.794723,945,41.4142,21,1,1
app_13,817.293,22417.1,7381.4,437.331,8.29727,4.36965e+11,1.02323,0.794723,891,54.6206,22,1,1
app_14,742.1,20986.4,7493.7,439.266,7.60762,4.38759e+11,1.00851,0.794723,1007,54.8449,19,1,1
app_15,48.4396,20782.3,7381.8,479.541,8.90564,4.78922e+11,1.01772,0.794723,828,53.2135,23,1,1
app_2,4.19304,27938.9,4074.2,401.17,450.396,3.76126e+11,1.79762,0.794723,9,0.835835,1863,1,1
app_3,0.340687,28309.5,4060.85,224.048,581.066,1.82899e+11,1.88513,0.794723,7,0.314259,2463,1,1
app_4,56.8559,23588.4,6266.2,213.517,64.6032,2.09702e+11,1.23535,0.794723,98,3.22618,196,1,1
app_5,54.4518,24127.7,6219.6,244.579,84.0467,2.41154e+11,1.23825,0.794723,74,2.87088,259,1,1
app_6,76.2003,23731.6,6260.8,318.319,65.4408,3.15e+11,1.21658,0.794723,96,4.77273,199,1,1
app_7,47.5245,23499.9,6341.9,393.148,58.1688,3.89779e+11,1.18841,0.794723,110,6.72033,171,1,1
app_8,10.2383,23819.6,6226.37,332.17,70.5425,3.29338e+11,1.22031,0.794723,89,4.67883,213,1,1
app_9,436.154,21151.5,7252.6,581.749,7.98566,5.81189e+11,1.02122,0.794723,909,72.6486,21,1,1
