app_id,start_app,end_app,effective_cpu,effective_io,effective_iter,total_bytes,stretch,utilization,Tcomp,Tio,iterations,priority,group_id
app_1,6.39836,19052.9,7547.7,452.3,838.873,3.08372e+11,1.01832,0.897548,9,0.367547,1998,0.0998518,1
app_10,27.6321,20456.5,7641.1,358.9,78.6533,1.58002e+11,1.02576,0.897548,97,2.00002,201,0.0100181,1.00001
app_11,82.2409,21694.8,6546.4,1453.6,72.2145,7.17488e+11,1.10134,0.897548,91,9.96511,198,0.00985736,1.00001
app_12,689.45,21874.5,7480.3,519.7,6.73434,1.9296e+11,1.04258,0.897548,1114,27.5658,18,0.00087595,1.00001
app_13,381.2,22249.5,7130.6,869.4,8.54366,2.75705e+11,1.08016,0.897548,808,34.4631,24,0.00118584,1.00001
app_14,843.79,24331,6307.2,1692.8,6.71069,5.9625e+11,1.15884,0.897548,934,99.3749,20,0.000967452,1.00001
app_15,1196.83,22621.9,7346.2,653.8,6.01393,1.55609e+11,1.06641,0.897548,1262,25.9348,16,0.000776419,1.00002
app_2,2.24596,19387.3,7900,100,789.615,4.91518e+10,1.0064,0.897548,10,0.0622964,1914,0.095652,1
app_3,1.08383,19933.9,7487.6,512.4,748.071,3.59964e+11,1.01942,0.897548,10,0.481235,1864,0.0931878,1
app_4,1.63144,19406.5,7252.3,747.7,905.24,5.45153e+11,1.02598,0.897548,8,0.602379,2195,0.109712,1
app_5,1.54882,19144.8,7896.5,103.5,787.949,5.89123e+10,1.0056,0.897548,10,0.0747619,1889,0.0944308,1.00001
app_6,5.46999,19506.7,7170,830,797.859,6.15249e+11,1.02758,0.897548,9,0.770989,1944,0.0971634,1.00001
app_7,97.155,21847.7,6430.4,1569.6,73.0485,8.09404e+11,1.105,0.897548,88,11.0877,201,0.0100072,1.00001
app_8,74.6751,21524.5,6871.3,1128.7,72.2816,6.11123e+11,1.06917,0.897548,95,8.37154,193,0.00961826,1.00001
app_9,84.577,21678,6698.15,1301.85,64.8537,5.38116e+11,1.10554,0.897548,104,8.28614,178,0.00885846,1.00001
