app_id,start_app,end_app,effective_cpu,effective_io,effective_iter,total_bytes,stretch,utilization,Tcomp,Tio,iterations,priority,group_id
app_1,0.86338,19209.1,7501.9,498.1,935.536,3.35403e+11,1.02076,0.891774,8,0.35872,2250,0.11248,1
app_10,77.8082,20460.1,7692.2,307.8,76.1819,1.36476e+11,1.02188,0.891774,101,1.79573,194,0.00965691,1.00001
app_11,11.1335,21547.1,6674.53,1325.47,79.512,6.85726e+11,1.08692,0.891774,84,8.61028,215,0.0107018,1.00001
app_12,938.188,22245.8,7444.2,555.8,7.01086,1.58848e+11,1.05221,0.891774,1093,22.6926,18,0.000895762,1.00001
app_13,176.259,23333.7,6378.88,1621.12,7.52053,5.85167e+11,1.14876,0.891774,849,76.7149,22,0.00107985,1.00001
app_14,293.926,22896.7,6901.3,1098.7,7.33933,3.07855e+11,1.1097,0.891774,952,43.9793,21,0.00100393,1.00001
app_15,25.4637,23477.9,6021.8,1978.2,5.88343,5.74029e+11,1.21289,0.891774,1019,95.6714,18,0.000896962,1.00002
app_2,0.261064,19901.1,6995.55,1004.45,875.498,7.41091e+11,1.03404,0.891774,8,0.846651,2178,0.108862,1
app_3,1.95773,18749.3,7439.8,560.201,825.551,3.72972e+11,1.02396,0.891774,9,0.451987,1936,0.096753,1
app_4,1.77956,18641.6,7508.7,491.3,937.051,3.31489e+11,1.02038,0.891774,8,0.353777,2182,0.109091,1
app_5,5.49811,18900.8,7288,712,728.951,4.93604e+11,1.02807,0.891774,10,0.677098,1720,0.0859796,1.00001
app_6,7.79828,18797,7792,208,779.568,1.17679e+11,1.01142,0.891774,10,0.151065,1831,0.0915482,1.00001
app_7,91.682,20923,7420.5,579.5,81.2276,2.41645e+11,1.04409,0.891774,91,2.98327,213,0.0106034,1.00001
app_8,0.247513,20988.4,7188.12,811.883,78.0101,4.27372e+11,1.05049,0.891774,91,5.47843,207,0.0103251,1.00001
app_9,27.7537,21313.9,6765.4,1234.6,81.8006,6.16315e+11,1.08376,0.891774,83,7.51603,219,0.0109489,1.00001
