app_id,start_app,end_app,effective_cpu,effective_io,effective_iter,total_bytes,stretch,utilization,Tcomp,Tio,iterations,priority,group_id
app_1,7.70224,21935.6,6492.1,1160.81,721.495,6.65523e+11,1.11769,0.858302,9,0.923056,1981,1,1
app_10,32.581,22181.5,6773.2,571.008,86.3822,3.4533e+11,1.12383,0.858302,79,3.96931,240,1,2
app_11,21.4837,21317.5,7018.15,881.389,79.1188,5.2188e+11,1.061,0.858302,89,6.59241,210,1,2
app_12,81.5266,21599.8,7073.5,748.861,75.8918,4.52922e+11,1.06292,0.858302,93,5.9595,203,1,2
app_13,59.0221,22151.2,6320.4,1431.31,79.0222,8.57932e+11,1.11447,0.858302,80,10.8599,220,1,2
app_14,389.224,23112.5,6521.9,1478.1,7.76296,6.3935e+11,1.11712,0.858302,859,79.9188,22,1,3
app_15,705.702,23313.6,7385,263.681,7.78189,1.23117e+11,1.06551,0.858302,936,15.3897,22,1,3
app_2,7.22815,21626.5,6595.2,1134.81,599.894,6.5398e+11,1.10357,0.858302,11,1.08997,1629,1,1
app_3,9.5589,20530.7,7206.8,63.9721,721.977,1.08563e+10,1.10839,0.858302,10,0.0150364,1853,1,1
app_4,3.29921,20342,7208.8,68.0836,722.497,1.41992e+10,1.10757,0.858302,10,0.0196392,1836,1,1
app_5,5.14999,22313.4,6949.6,143.196,771.563,6.76646e+10,1.14005,0.858302,9,0.0877621,2170,1,1
app_6,10.5787,20619.2,7026.7,429.432,702.864,2.26668e+11,1.10294,0.858302,10,0.322429,1815,1,1
app_7,2.08203,21983.3,6183.91,1286.9,771.278,7.43394e+11,1.15485,0.858302,8,0.963202,2134,1,1
app_8,5.95736,21404.4,7229.3,202.141,602.377,1.00519e+11,1.09143,0.858302,12,0.166699,1620,1,1
app_9,52.0224,21367.3,7011.7,812.54,73.8771,4.87488e+11,1.06678,0.858302,95,6.58767,196,1,2
