app_id,start_app,end_app,effective_cpu,effective_io,effective_iter,total_bytes,stretch,utilization,Tcomp,Tio,iterations,priority,group_id
app_1,4.64578,20946.4,6430.9,502.951,919.67,3.53826e+11,1.17912,0.859362,7,0.384594,2413,1,1
app_10,82.4883,20972.4,7207.53,751.303,73.4992,4.04784e+11,1.05093,0.859362,98,5.49336,192,1,2
app_11,13.2522,20684,7569.7,263.889,71.7314,1.44596e+11,1.03704,0.859362,106,2.03657,186,1,2
app_12,20.9056,20379,7827.5,31.6227,65.0509,1.58682e+10,1.01997,0.859362,120,0.244126,166,1,2
app_13,73.8573,21342.7,7114.5,747.236,74.9737,3.95437e+11,1.06526,0.859362,94,5.27249,201,1,2
app_14,43.3312,21467,6907.9,1063.91,73.1671,5.56917e+11,1.07169,0.859362,94,7.61002,197,1,2
app_15,450.671,21304.8,7479.8,520.2,7.07007,2.10864e+11,1.04022,0.859362,1095,30.1234,18,1,3
app_2,8.40623,21825.5,6964.2,112.613,694.978,6.45602e+10,1.13818,0.859362,10,0.0928923,1900,1,1
app_3,4.52929,22250.8,6571.9,603.98,733.955,4.36061e+11,1.14156,0.859362,9,0.594089,2047,1,1
app_4,10.2718,21177.5,6601.68,965.444,660.011,6.80933e+11,1.09851,0.859362,10,1.03165,1753,1,1
app_5,1.41544,20874.1,6408,757.881,799.317,5.53205e+11,1.14923,0.859362,8,0.692371,2081,1,1
app_6,8.75838,22409.2,6537,751.92,725.732,5.4173e+11,1.13015,0.859362,9,0.746184,2044,1,1
app_7,2.19573,21887.1,6426.9,663.246,802.29,4.75905e+11,1.15895,0.859362,8,0.593398,2206,1,1
app_8,7.46715,21741.3,6587.7,635.711,734.54,4.45657e+11,1.13744,0.859362,9,0.607162,1996,1,1
app_9,4.61979,22284.1,6488.25,935.03,719.225,6.49982e+11,1.12073,0.859362,9,0.904008,2018,1,1
