app_id,start_app,end_app,effective_cpu,effective_io,effective_iter,total_bytes,stretch,utilization,Tcomp,Tio,iterations,priority,group_id
app_1,1.06988,20751.1,6776.02,360.737,753.151,2.12944e+11,1.14466,0.859103,9,0.282568,1956,1,1
app_10,14.4117,22047.6,6951.2,459.522,68.9181,2.54488e+11,1.11023,0.859103,101,3.68824,191,1,2
app_11,72.9427,21575.4,7416.9,79.683,82.3623,4.37068e+10,1.0723,0.859103,90,0.526588,220,1,2
app_12,37.0318,21592.5,6645,1345.58,68.8438,7.39139e+11,1.0834,0.859103,97,10.7122,185,1,2
app_13,566.185,21343.9,7860.8,139.2,7.75948,7.07842e+10,1.00863,0.859103,996,10.112,20,1,3
app_14,348.35,21071.9,7916.4,66.2151,8.46587,2.59435e+10,1.00726,0.859103,913,3.24294,22,1,3
app_15,812.98,23513.5,6641.9,1358.1,8.13349,5.87584e+11,1.10658,0.859103,770,73.448,24,1,3
app_2,6.22686,21707.4,6251.3,1045.42,782.113,6.50341e+11,1.15914,0.859103,8,0.831638,2125,1,1
app_3,7.04995,21525.8,6729.8,796.067,671.821,4.74978e+11,1.11037,0.859103,10,0.706813,1814,1,1
app_4,9.91133,21469,6618.4,1154.42,663.543,7.01874e+11,1.09286,0.859103,10,1.05863,1784,1,1
app_5,8.54194,21854.5,6827,261.764,761.291,1.49361e+11,1.14673,0.859103,9,0.196012,2081,1,1
app_6,3.48882,22366.7,6699.3,529.053,743.092,3.09188e+11,1.14147,0.859103,9,0.416024,2089,1,1
app_7,2.01859,21398.9,6419.8,1097.14,718.073,6.7324e+11,1.12787,0.859103,9,0.937661,1918,1,1
app_8,95.4239,22108.2,6890.1,440.541,71.0755,2.44877e+11,1.12124,0.859103,98,3.44898,196,1,2
app_9,80.4672,22258.1,6448.4,1308.3,68.929,7.04565e+11,1.11842,0.859103,94,10.2111,192,1,2
