app_id,start_app,end_app,effective_cpu,effective_io,effective_iter,total_bytes,stretch,utilization,Tcomp,Tio,iterations,priority,group_id
app_1,3.49179,30833.9,3764.17,115.437,418.003,8.48567e+10,2.07845,0.814868,9,0.203007,2107,1,1
app_10,963.897,21375,7295.4,685.674,7.53538,6.85395e+11,1.00241,0.814868,977,85.6743,19,1,1
app_11,252.577,21036.4,7681.9,42.4019,9.43509,4.19113e+10,1.03576,0.814868,831,4.19113,24,1,1
app_12,305.008,21240.9,7260.79,520.387,8.52497,5.19962e+11,1.02818,0.814868,875,57.7735,22,1,1
app_13,421.698,21289.2,7538,331.336,8.94821,3.31029e+11,1.01664,0.814868,861,36.781,23,1,1
app_14,85.6582,21478.7,7745.2,37.0593,6.79554,3.6789e+10,1.02801,0.814868,1149,5.25557,18,1,1
app_15,822.399,21472.9,7401.68,449.538,8.74813,4.4914e+11,1.019,0.814868,820,55.7281,23,1,1
app_2,7.22971,30362.8,3729.48,163.346,411.998,1.41194e+11,2.06682,0.814868,9,0.342704,2028,1,1
app_3,49.6108,24121.2,6476.5,86.3942,54.2013,8.35662e+10,1.2195,0.814868,119,1.54752,166,1,1
app_4,41.6849,23972.6,6021.32,553.315,62.064,5.4964e+11,1.21748,0.814868,98,8.81786,187,1,1
app_5,95.6081,23814.1,5940.9,641.714,68.8852,6.38317e+11,1.21595,0.814868,86,9.25097,209,1,1
app_6,65.1103,23889.3,6007.8,609.449,66.5924,6.06601e+11,1.20948,0.814868,89,9.05375,203,1,1
app_7,2.93605,23611.1,5917.7,640.487,61.161,6.3843e+11,1.22023,0.814868,97,10.2973,186,1,1
app_8,851.074,21880.8,7588.4,328.175,6.48618,3.27879e+11,1.01058,0.814868,1170,54.6465,17,1,1
app_9,117.574,20815.9,7414.9,466.343,8.38913,4.66013e+11,1.01511,0.814868,855,58.2516,22,1,1
