app_id,start_app,end_app,effective_cpu,effective_io,effective_iter,total_bytes,stretch,utilization,Tcomp,Tio,iterations,priority,group_id
app_1,10.1644,19401,7246.02,581.609,724.259,5.21372e+11,1.02995,0.892497,10,0.720034,1753,0.1,1
app_10,79.8626,21277.1,7191.9,598.528,66.8686,3.19196e+11,1.06509,0.892497,108,4.76413,176,0.01,2
app_11,28.303,22068.6,6412.76,1201.83,81.875,6.33869e+11,1.1353,0.892497,78,7.77145,231,0.01,2
app_12,27.0648,21483.1,6666.6,1210.08,78.8831,6.35028e+11,1.09565,0.892497,85,8.03832,213,0.01,2
app_13,45.8521,21063.2,7255.2,573.512,77.1461,3.04719e+11,1.05821,0.892497,94,3.95739,204,0.01,2
app_14,48.6482,20891.9,7532.2,279.718,75.264,1.47416e+11,1.04172,0.892497,99,1.93969,198,0.01,2
app_15,599.535,23131.6,6409.05,1590.95,7.18443,4.48582e+11,1.16658,0.892497,902,59.5294,21,0.001,3
app_2,1.02316,20214.1,7418.4,249.872,826.32,1.98697e+11,1.05027,0.892497,9,0.240262,2085,0.1,1
app_3,9.85794,19963.6,7153.3,597.856,792.77,5.35483e+11,1.04048,0.892497,9,0.675262,1984,0.1,1
app_4,9.10283,20319.5,7591.2,134.154,757.976,7.97214e+10,1.0429,0.892497,10,0.105173,1923,0.1,1
app_5,4.10144,19338.2,7513.3,161.317,833.727,1.09863e+11,1.04943,0.892497,9,0.131888,2012,0.1,1
app_6,5.95279,20522,7107.42,625.228,788.158,5.52121e+11,1.04445,0.892497,9,0.700105,2032,0.1,1
app_7,1.6633,20590.9,7314.19,481.035,732.246,4.31453e+11,1.03284,0.892497,10,0.588613,1881,0.1,1
app_8,7.48919,19517,7182.6,612.306,719.104,5.47211e+11,1.03495,0.892497,10,0.761072,1754,0.1,1
app_9,7.33886,20020.4,7105.5,806.292,711.866,7.19003e+11,1.02243,0.892497,10,1.00984,1778,0.1,1
