app_id,start_app,end_app,effective_cpu,effective_io,effective_iter,total_bytes,stretch,utilization,Tcomp,Tio,iterations,priority,group_id
app_1,0.145461,19659.9,7100.2,899.8,789.964,6.39556e+11,1.03362,0.887407,9,0.809564,1945,0.0972313,1
app_10,716.707,21599.1,7426.63,573.369,8.49459,1.6762e+11,1.05343,0.887407,854,18.7384,23,0.00114522,1.00001
app_11,569.07,24234.4,5975.95,2024.05,6.52038,5.62833e+11,1.22347,0.887407,958,80.4825,20,0.000962497,1.00001
app_12,381.417,22638.3,7119,881,8.38841,2.92788e+11,1.07936,0.887407,827,36.5984,24,0.0011578,1.00001
app_13,214.431,22480.7,6489.3,1510.7,6.99189,5.74829e+11,1.13248,0.887407,929,82.1185,20,0.000988401,1.00001
app_14,900.297,22987.7,6703.2,1296.8,6.96418,3.50607e+11,1.13414,0.887407,956,50.0867,20,0.00099374,1.00001
app_15,661.983,23045.2,7195.2,804.8,7.34156,2.89961e+11,1.06878,0.887407,1005,36.2451,20,0.00096021,1.00002
app_2,7.26865,19361.9,7379.5,620.5,820.328,4.11999e+11,1.02676,0.887407,9,0.502438,1987,0.0993062,1
app_3,9.40967,19058.5,7304.4,695.6,812.781,4.83203e+11,1.02727,0.887407,9,0.595077,1940,0.0969995,1
app_4,4.81143,18975.1,7106.3,893.7,889.05,6.69016e+11,1.0289,0.887407,8,0.752549,2107,0.105333,1
app_5,30.2105,20447.2,7655,345,78.8933,1.81409e+11,1.02088,0.887407,96,2.29631,203,0.0101092,1.00001
app_6,52.5624,21082,6931.1,1068.9,83.2177,5.70104e+11,1.0665,0.887407,83,6.86872,221,0.011012,1.00001
app_7,102.047,21083.6,7123.8,876.2,73.6763,4.79343e+11,1.0522,0.887407,97,6.47761,193,0.00963708,1.00001
app_8,48.4763,20450.2,7688.1,311.9,82.2016,1.63074e+11,1.01896,0.887407,94,1.98871,209,0.0104141,1.00001
app_9,30.6008,20698,7291.1,708.9,67.7828,3.47421e+11,1.04732,0.887407,107,5.10914,178,0.00888051,1.00001
