app_id,start_app,end_app,effective_cpu,effective_io,effective_iter,total_bytes,stretch,utilization,Tcomp,Tio,iterations,priority,group_id
app_1,5.83803,20568,6696.9,1178.64,668.997,6.14267e+11,1.09422,0.870138,10,0.918187,1725,1,1
app_10,49.9272,21257.5,7209.1,380.797,61.2522,1.96439e+11,1.08027,0.870138,118,3.22031,165,1,2
app_11,1144.39,23510.6,6772.8,947.189,6.30518,5.04734e+11,1.09927,0.870138,1103,72.1049,18,1,3
app_12,941.444,22973,6821.78,917.991,7.49033,4.89462e+11,1.09421,0.870138,904,67.948,21,1,3
app_13,167.101,22325,7351.4,626.396,6.12277,3.40436e+11,1.04006,0.870138,1191,56.7394,17,1,3
app_14,271.755,22905,6764,695.469,7.81302,4.03516e+11,1.11615,0.870138,888,50.4396,22,1,3
app_15,155.934,21701.4,7384.3,552.334,7.95953,2.95424e+11,1.0417,0.870138,933,36.9281,21,1,3
app_2,1.39229,20585.5,7342.3,242.683,667.28,1.17827e+11,1.07237,0.870138,11,0.176652,1722,1,1
app_3,1.53787,21801.5,6846.8,702.892,761.242,3.73679e+11,1.10796,0.870138,9,0.491036,2085,1,1
app_4,3.49314,21719.1,6516.2,986.559,813.913,5.21232e+11,1.13678,0.870138,8,0.640334,2232,1,1
app_5,3.96946,21203.1,6725.7,1028.34,673.194,5.40634e+11,1.10097,0.870138,10,0.803319,1792,1,1
app_6,108.834,21554,6914.3,789.163,67.7278,4.18776e+11,1.09095,0.870138,102,6.25038,184,1,2
app_7,81.5545,21539.7,7176.9,565.429,68.085,2.96554e+11,1.07046,0.870138,104,4.36109,184,1,2
app_8,56.3444,21654.6,6895.3,802.426,77.4977,4.12776e+11,1.09468,0.870138,89,5.292,212,1,2
app_9,92.3677,21590.8,6998.8,871.149,61.3366,4.59547e+11,1.07262,0.870138,112,7.53355,167,1,2
