app_id,start_app,end_app,effective_cpu,effective_io,effective_iter,total_bytes,stretch,utilization,Tcomp,Tio,iterations,priority,group_id
app_1,7.27769,19667.7,7358.89,641.11,819.358,2.14848e+11,1.05628,0.868105,9,0.262051,2012,1,1
app_10,8.17597,20452.5,7692.8,307.2,85.7199,1.02415e+11,1.02627,0.868105,90,1.19087,218,1.00001,1.00001
app_11,20.1267,21189.5,7306.1,693.9,83.7295,2.43949e+11,1.0596,0.868105,87,2.93914,222,1.00001,1.00001
app_12,50.5338,23803.6,6356.4,1643.6,7.35207,6.67294e+11,1.139,0.868105,856,95.3278,22,1.00001,1.00001
app_13,130.142,22417.5,6516.52,1483.48,7.52537,5.10854e+11,1.13841,0.868105,847,66.4445,22,1.00001,1.00001
app_14,291.5,23607.7,6123.1,1876.9,7.8894,7.24345e+11,1.16832,0.868105,768,90.5431,24,1.00001,1.00001
app_15,85.0291,21404.1,7826.8,173.2,7.73002,8.45473e+10,1.01121,0.868105,1022,10.5684,20,1.00002,1.00002
app_2,7.63574,21166.4,6980,1020,776.776,3.67201e+11,1.08885,0.868105,9,0.473197,2060,1,1
app_3,5.11931,20966.9,6470.97,1529.03,922.959,5.7522e+11,1.13537,0.868105,7,0.623394,2427,1,1
app_4,6.08744,20357.4,6652.2,1347.8,739.446,4.99663e+11,1.11859,0.868105,9,0.676134,1885,1,1
app_5,1.33465,21154,6393.09,1606.91,797.279,6.13324e+11,1.14181,0.868105,8,0.769364,2120,1.00001,1.00001
app_6,7.14789,20444.4,7310.2,689.804,812.74,2.41005e+11,1.05943,0.868105,9,0.296559,2078,1.00001,1.00001
app_7,6.28284,20625.6,7431.8,568.2,69.9856,1.97173e+11,1.04863,0.868105,107,2.81676,181,1.00001,1.00001
app_8,64.9034,21637.5,7027.8,972.2,86.4947,3.6033e+11,1.08282,0.868105,81,4.14172,234,1.00001,1.00001
app_9,89.0722,22020.4,6725.9,1274.1,69.0179,4.7033e+11,1.11169,0.868105,97,6.81637,193,1.00001,1.00001
