app_id,start_app,end_app,effective_cpu,effective_io,effective_iter,total_bytes,stretch,utilization,Tcomp,Tio,iterations,priority,group_id
app_1,7.80022,18630.1,7477,468.248,933.65,4.1522e+11,1.01366,0.890475,8,0.445038,2176,0.1,1
app_10,7.71652,20541.4,7477.01,415.651,69.1897,3.06093e+11,1.02787,0.890475,108,4.37276,178,0.01,2
app_11,175.147,22647.5,6509.15,510.308,6.73481,2.92686e+11,1.17615,0.890475,959,43.507,20,0.001,3
app_12,447.897,23154.8,6326.1,778.332,7.88141,4.45142e+11,1.18147,0.890475,784,55.6427,24,0.001,3
app_13,931.575,24494.3,6062.2,1159.05,6.81749,6.41813e+11,1.19332,0.890475,897,91.6876,21,0.001,3
app_14,559.525,23230.5,6183.03,1053.91,7.96418,5.96857e+11,1.17996,0.890475,800,75.6795,23,0.001,3
app_15,832.624,23007.6,6876.9,1051.54,6.85692,6.10143e+11,1.06851,0.890475,1012,87.1633,19,0.001,3
app_2,8.67714,19806.9,7576.7,373.994,756.781,3.13714e+11,1.01389,0.890475,10,0.414418,1873,0.1,1
app_3,6.32961,20222.9,7564.98,388.996,754.866,3.40997e+11,1.01189,0.890475,10,0.451728,1909,0.1,1
app_4,7.99136,19817.4,7737.5,189.166,969.113,1.19319e+11,1.01822,0.890475,8,0.123137,2394,0.1,1
app_5,6.45943,18901.8,7292.1,654.066,1040.63,5.81241e+11,1.01609,0.890475,7,0.558349,2459,0.1,1
app_6,37.2738,20513.9,7404.4,555.352,74.8159,4.10534e+11,1.02368,0.890475,98,5.47379,193,0.01,2
app_7,21.7138,20556.5,7479,350.167,88.6624,2.5596e+11,1.03427,0.890475,84,2.87595,230,0.01,2
app_8,37.5317,20473.6,7051.12,911.985,78.1025,6.69951e+11,1.03613,0.890475,91,8.53098,199,0.01,2
app_9,14.7476,20078.6,7839.8,104.468,74.145,7.06271e+10,1.01132,0.890475,106,0.95442,186,0.01,2
