app_id,start_app,end_app,effective_cpu,effective_io,effective_iter,total_bytes,stretch,utilization,Tcomp,Tio,iterations,priority,group_id
app_1,2.69024,18076.9,7082.15,840.064,1011.68,7.7621e+11,1.01802,0.894031,7,0.767056,2284,0.1,1
app_10,506.701,23046.4,6441.7,736.054,7.80135,3.88616e+11,1.17125,0.894031,848,48.577,23,0.001,3
app_11,227.669,23374,6385.35,1182.13,7.10207,6.52744e+11,1.13667,0.894031,900,85.6363,21,0.001,3
app_12,599.056,24425.2,6929.38,552.075,7.81832,3.08112e+11,1.10536,0.894031,861,44.016,23,0.001,3
app_13,559.229,22489.6,7661,196.15,6.32157,1.08015e+11,1.02973,0.894031,1216,18.0025,17,0.001,3
app_14,918.016,22781.4,6481.9,1358.13,6.22201,7.6942e+11,1.10325,0.894031,1070,109.917,17,0.001,3
app_15,266.088,22627.4,6489.52,828.331,7.28229,4.61145e+11,1.15097,0.894031,897,65.8779,21,0.001,3
app_2,5.42695,19341.3,7485.1,413.581,831.931,3.50263e+11,1.02101,0.894031,9,0.42099,2010,0.1,1
app_3,5.34424,18886.2,7271.6,671.55,727.762,6.04444e+11,1.01574,0.894031,10,0.830281,1716,0.1,1
app_4,5.62156,19602.8,7555.7,352.555,753.664,3.00974e+11,1.01824,0.894031,10,0.399169,1851,0.1,1
app_5,79.6893,20461.6,7570,392.243,72.8756,2.73633e+11,1.01994,0.894031,104,3.7484,186,0.01,2
app_6,24.5987,20604.5,7629.3,312.893,75.1826,2.10824e+11,1.02039,0.894031,101,2.774,193,0.01,2
app_7,85.1868,20435,7758.1,115.757,73.1094,7.31808e+10,1.02154,0.894031,106,0.988929,187,0.01,2
app_8,57.381,20799.9,7154.2,814.654,74.7247,5.73606e+11,1.03522,0.894031,96,7.64808,193,0.01,2
app_9,40.0528,20692.6,7388.7,571.03,73.2614,4.01103e+11,1.02698,0.894031,100,5.49457,190,0.01,2
