app_id,start_app,end_app,effective_cpu,effective_io,effective_iter,total_bytes,stretch,utilization,Tcomp,Tio,iterations,priority,group_id
app_1,4.48531,20272.8,7353.69,362.787,918.441,2.9514e+11,1.04591,0.88683,8,0.321504,2329,0.1,1
app_10,60.5425,21687.6,6643.04,1087.92,72.3115,6.12773e+11,1.10256,0.88683,92,8.44044,198,0.01,2
app_11,50.3755,21457.9,7177.8,174.547,80.5306,1.02593e+11,1.09884,0.88683,89,1.26657,221,0.01,2
app_12,94.1638,21915.6,6811.77,779.33,74.8856,4.36358e+11,1.10373,0.88683,91,5.89673,206,0.01,2
app_13,7.74582,21469.8,7157.21,370.501,92.7135,2.1099e+11,1.08575,0.88683,77,2.29337,250,0.01,2
app_14,902.395,23236.9,6330.4,1669.6,6.90138,5.28681e+11,1.16634,0.88683,926,75.5259,20,0.001,3
app_15,893.142,24041.7,6980.2,616.807,7.4462,2.03349e+11,1.11366,0.88683,920,29.0499,22,0.001,3
app_2,3.05821,20768,7345.7,368.561,814.896,3.18914e+11,1.04376,0.88683,9,0.391305,2116,0.1,1
app_3,7.34434,19050.9,7203.4,521.55,798.089,4.63359e+11,1.04347,0.88683,9,0.58065,1902,0.1,1
app_4,0.858872,19994.9,7496.7,208.927,833.454,1.6263e+11,1.04448,0.88683,9,0.195,2079,0.1,1
app_5,5.57255,20345.1,7625.11,226.29,760.404,1.74665e+11,1.02567,0.88683,10,0.229822,1936,0.1,1
app_6,0.560455,20133.1,6975.06,955.872,773.235,8.539e+11,1.02185,0.88683,9,1.10362,1949,0.1,1
app_7,6.30262,19454.2,6994,963.731,774.982,8.84105e+11,1.01547,0.88683,9,1.14078,1882,0.1,1
app_8,3.01415,19566.7,7619,227.768,761.624,1.7937e+11,1.02586,0.88683,10,0.235703,1861,0.1,1
app_9,17.9032,21334.7,6706.53,1256.33,72.2276,7.08747e+11,1.07885,0.88683,93,9.7226,194,0.01,2
