app_id,start_app,end_app,effective_cpu,effective_io,effective_iter,total_bytes,stretch,utilization,Tcomp,Tio,iterations,priority,group_id
app_1,5.5285,19594.3,7789.9,210.1,971.847,1.31729e+11,1.00989,0.902221,8,0.135524,2381,0.119042,1
app_10,691.975,22482.8,7399.7,600.3,6.89574,1.67002e+11,1.05726,0.902221,1049,23.8575,19,0.000931467,1.00001
app_11,203.977,21652,7260.9,739.1,8.99835,2.62933e+11,1.06329,0.902221,836,29.2148,24,0.0011554,1.00001
app_12,499.068,23543.8,6638.4,1361.6,8.31503,5.38551e+11,1.11468,0.902221,779,67.3189,24,0.00118096,1.00001
app_13,771.591,23119.9,6814.36,1185.64,6.74433,5.21534e+11,1.09053,0.902221,968,84.3402,19,0.000949847,1.00001
app_14,394.961,23102.1,6759.6,1240.4,7.77187,5.41926e+11,1.09566,0.902221,866,67.7408,22,0.00107005,1.00001
app_15,599.208,24618.3,6497.4,1502.6,6.40643,5.33962e+11,1.13776,0.902221,1015,88.9937,19,0.000905448,1.00002
app_2,1.18283,19925.6,7552.4,447.6,941.887,3.59535e+11,1.01113,0.902221,8,0.381672,2346,0.11725,1
app_3,2.42566,19927.1,7225.28,774.717,723.228,6.49062e+11,1.01596,0.902221,10,0.896721,1798,0.0898835,1
app_4,8.89682,18946.4,7815.31,184.693,863.109,9.86999e+10,1.01087,0.902221,9,0.114241,2049,0.102446,1
app_5,9.81563,20724,7271.6,728.4,79.7557,4.55595e+11,1.0353,0.902221,90,5.76702,207,0.0103422,1.00001
app_6,62.6041,20010.7,7835.9,164.1,73.2344,8.65929e+10,1.00978,0.902221,107,1.1862,184,0.00916186,1.00001
app_7,48.2062,20907,7078.7,921.3,81.1531,5.93363e+11,1.04274,0.902221,87,7.32546,211,0.0105383,1.00001
app_8,47.6677,20627.8,7340.1,659.9,76.6055,4.08246e+11,1.03248,0.902221,97,5.3019,194,0.00968812,1.00001
app_9,91.6763,20991,6987,1013,70.1109,6.02253e+11,1.05412,0.902221,100,8.60362,184,0.00919183,1.00001
