app_id,start_app,end_app,effective_cpu,effective_io,effective_iter,total_bytes,stretch,utilization,Tcomp,Tio,iterations,priority,group_id
app_1,4.10373,18386.3,7606.2,393.8,1090.92,2.68535e+11,1.01591,0.895773,7,0.246136,2499,0.124943,1
app_10,76.7274,21996.8,6636.5,1363.5,78.1003,7.17862e+11,1.08779,0.895773,85,9.20336,212,0.0105646,1.00001
app_11,58.9673,21453.8,6986.8,1013.2,67.0993,4.91952e+11,1.0697,0.895773,103,7.34256,181,0.00904471,1.00001
app_12,541.236,24249.6,5867.1,2132.9,6.62959,7.52967e+11,1.20845,0.895773,925,107.567,20,0.000967703,1.00001
app_13,144.708,21245.8,7831,169,7.58477,4.52067e+10,1.01572,0.895773,1035,5.65083,20,0.000960916,1.00001
app_14,18.2484,22263.5,7257,743,7.17391,1.96867e+11,1.07327,0.895773,994,28.1239,20,0.000978028,1.00001
app_15,448.627,23884.1,6638.1,1361.9,6.10604,4.65877e+11,1.12613,0.895773,1070,77.6462,18,0.000870907,1.00002
app_2,4.0489,18699,7920.8,79.2,792.048,5.19748e+09,1.00934,0.895773,10,0.00656247,1852,0.0925571,1
app_3,6.56571,19678.1,7564.5,435.5,842.336,3.05084e+11,1.01657,0.895773,9,0.362332,2068,0.103364,1
app_4,5.39438,18814.2,6842.1,1157.9,857.701,8.88899e+11,1.0348,0.895773,8,1.03601,2011,0.10053,1
app_5,4.76484,20141.8,7390.46,609.544,739.587,4.33848e+11,1.02246,0.895773,10,0.586436,1861,0.0930185,1.00001
app_6,3.31168,19882.1,7726.7,273.3,857.623,1.67979e+11,1.01334,0.895773,9,0.195779,2136,0.106771,1.00001
app_7,59.528,21005.7,7261.35,738.652,69.3797,3.63758e+11,1.04917,0.895773,106,5.21152,180,0.0089608,1.00001
app_8,26.8092,21353.4,7069.9,930.1,79.9768,4.61214e+11,1.06226,0.895773,88,5.76518,213,0.0106468,1.00001
app_9,48.3545,21386.9,6894.3,1105.7,86.566,5.70878e+11,1.07164,0.895773,80,6.56182,230,0.011462,1.00001
