app_id,start_app,end_app,effective_cpu,effective_io,effective_iter,total_bytes,stretch,utilization,Tcomp,Tio,iterations,priority,group_id
app_1,0.124609,19943.5,7179.6,739.133,795.939,6.554e+11,1.02106,0.896618,9,0.823366,1986,0.1,1
app_10,97.4519,21013.1,7460.15,346.624,77.5254,2.03879e+11,1.04384,0.896618,96,2.62238,202,0.01,2
app_11,50.1023,21732.2,6969.28,686.719,6.68437,2.84895e+11,1.10281,0.896618,1011,44.7257,19,0.001,3
app_12,901.76,22285.8,7362.8,320.279,7.5895,1.39679e+11,1.06631,0.896618,991,17.4599,20,0.001,3
app_13,930.798,22400,7063.9,467.481,6.5839,2.03963e+11,1.10074,0.896618,1109,33.9938,18,0.001,3
app_14,1043.06,23103.3,7233.52,766.48,6.51455,3.29381e+11,1.0578,0.896618,1118,48.4622,18,0.001,3
app_15,747.522,23009.5,6329.9,1651.98,6.68323,6.9012e+11,1.1396,0.896618,978,98.5885,19,0.001,3
app_2,5.22626,18609.5,7166.7,755.405,799.073,7.11168e+11,1.0155,0.896618,9,0.890072,1857,0.1,1
app_3,4.27466,19189.9,7224.64,675.982,799.465,6.30283e+11,1.01847,0.896618,9,0.787905,1925,0.1,1
app_4,7.46842,18668.8,7010.4,824.892,875.092,7.60168e+11,1.02953,0.896618,8,0.868763,2041,0.1,1
app_5,3.12674,19761.8,7649.6,230.89,764.786,1.87307e+11,1.02081,0.896618,10,0.245167,1888,0.1,1
app_6,73.3249,20877.3,6937.74,1046.41,70.7268,6.27936e+11,1.05741,0.896618,99,8.84417,184,0.01,2
app_7,17.7046,20944.3,6940.1,1006.43,70.7637,6.06526e+11,1.06008,0.896618,99,8.54261,185,0.01,2
app_8,86.5835,20880.2,7468.5,279.129,71.7642,1.8229e+11,1.04564,0.896618,104,2.53181,188,0.01,2
app_9,59.4437,20654.4,7597.3,212.478,74.0079,1.18175e+11,1.03688,0.896618,103,1.59696,190,0.01,2
