app_id,start_exec,end_exec,start_io,end_io
app_1,23.0602,101.514,101.514,110.614
app_1,110.614,203.62,203.62,212.52
app_1,212.52,303.516,303.516,311.116
app_1,311.116,403.795,403.795,410.995
app_1,410.995,492.685,492.685,501.785
app_1,501.785,589.837,589.837,598.437
app_1,598.437,680.66,680.66,687.86
app_1,687.86,771.574,771.574,778.774
app_1,778.774,863.254,863.254,873.554
app_1,873.554,968,968,978.8
app_1,978.8,1063.42,1063.42,1084.82
app_1,1084.82,1179.39,1179.39,1186.59
app_1,1186.59,1280.81,1280.81,1295.11
app_1,1295.11,1382.79,1382.79,1399.69
app_1,1399.69,1485.2,1485.2,1499.5
app_1,1499.5,1580.4,1580.4,1587.6
app_1,1587.6,1667.75,1667.75,1687.35
app_1,1687.35,1765.4,1765.4,1798.6
app_1,1798.6,1879.49,1879.49,1901.59
app_1,1901.59,1995.44,1995.44,2002.64
app_1,2002.64,2088.33,2088.33,2095.53
app_1,2095.53,2172.96,2172.96,2180.16
app_1,2180.16,2269.71,2269.71,2296.91
app_1,2296.91,2384.98,2384.98,2399.28
app_1,2399.28,2478.11,2478.11,2485.31
app_1,2485.31,2575.55,2575.55,2589.85
app_1,2589.85,2676.95,2676.95,2709.55
app_1,2709.55,2798.55,2798.55,2820.75
app_1,2820.75,2910.54,2910.54,2934.54
app_1,2934.54,3024.46,3024.46,3031.66
app_1,3031.66,3116.76,3116.76,3123.96
app_1,3123.96,3208.13,3208.13,3222.43
app_1,3222.43,3312.35,3312.35,3319.55
app_1,3319.55,3403.13,3403.13,3410.33
app_1,3410.33,3491.12,3491.12,3515.52
app_1,3515.52,3603.51,3603.51,3637.61
app_1,3637.61,3731.62,3731.62,3745.92
app_1,3745.92,3834.19,3834.19,3842.89
app_1,3842.89,3935.1,3935.1,3942.3
app_1,3942.3,4019.83,4019.83,4040.63
app_1,4040.63,4127.44,4127.44,4168.44
app_1,4168.44,4253.24,4253.24,4264.04
app_1,4264.04,4345.09,4345.09,4360.09
app_1,4360.09,4442.67,4442.67,4454.37
app_1,4454.37,4541.73,4541.73,4563.93
app_1,4563.93,4646.97,4646.97,4671.57
app_1,4671.57,4755.32,4755.32,4777.22
app_1,4777.22,4869.98,4869.98,4891.28
app_1,4891.28,4972.73,4972.73,4992.53
app_1,4992.53,5073.1,5073.1,5083.6
app_1,5083.6,5171.97,5171.97,5192.37
app_1,5192.37,5270.07,5270.07,5290.77
app_1,5290.77,5379.62,5379.62,5393.22
app_1,5393.22,5470.74,5470.74,5489.64
app_1,5489.64,5572.51,5572.51,5579.71
app_1,5579.71,5664.66,5664.66,5688.26
app_1,5688.26,5768.22,5768.22,5789.62
app_1,5789.62,5878.32,5878.32,5885.52
app_1,5885.52,5971.07,5971.07,5995.47
app_1,5995.47,6080.36,6080.36,6103.06
app_1,6103.06,6190.66,6190.66,6197.86
app_1,6197.86,6282.73,6282.73,6295.33
app_1,6295.33,6373.51,6373.51,6391.91
app_1,6391.91,6472.81,6472.81,6491.51
app_1,6491.51,6575.39,6575.39,6588.59
app_1,6588.59,6676.7,6676.7,6691
app_1,6691,6782.73,6782.73,6814.23
app_1,6814.23,6904.07,6904.07,6924.27
app_1,6924.27,7012.1,7012.1,7040.7
app_1,7040.7,7133.13,7133.13,7142.43
app_1,7142.43,7231.08,7231.08,7257.28
app_1,7257.28,7346.52,7346.52,7353.72
app_1,7353.72,7446.84,7446.84,7454.04
app_1,7454.04,7538.98,7538.98,7556.08
app_1,7556.08,7648.34,7648.34,7655.54
app_1,7655.54,7743.8,7743.8,7762.4
app_1,7762.4,7846.79,7846.79,7872.89
app_1,7872.89,7966.68,7966.68,8001.48
app_1,8001.48,8088.42,8088.42,8111.92
app_1,8111.92,8193.07,8193.07,8200.27
app_1,8200.27,8282.59,8282.59,8291.89
app_1,8291.89,8375.29,8375.29,8395.59
app_1,8395.59,8483.39,8483.39,8495.89
app_1,8495.89,8576.09,8576.09,8605.89
app_1,8605.89,8700.34,8700.34,8715.94
app_1,8715.94,8808.46,8808.46,8834.56
app_1,8834.56,8912.4,8912.4,8922.8
app_1,8922.8,9016.05,9016.05,9026.25
app_1,9026.25,9111.47,9111.47,9128.77
app_1,9128.77,9222.05,9222.05,9229.25
app_1,9229.25,9314.52,9314.52,9321.72
app_1,9321.72,9413.58,9413.58,9420.78
app_1,9420.78,9507.32,9507.32,9521.92
app_1,9521.92,9608.91,9608.91,9623.31
app_1,9623.31,9717.38,9717.38,9751.28
app_1,9751.28,9841.59,9841.59,9886.69
app_1,9886.69,9964.93,9964.93,9993.23
app_1,9993.23,10079.3,10079.3,10102.7
app_1,10102.7,10185.3,10185.3,10214.9
app_1,10214.9,10298.6,10298.6,10313.6
app_1,10313.6,10398.7,10398.7,10413
app_1,10413,10499.4,10499.4,10506.6
app_1,10506.6,10591.4,10591.4,10607.3
app_1,10607.3,10686.3,10686.3,10694.4
app_1,10694.4,10785.6,10785.6,10821.7
app_1,10821.7,10906.6,10906.6,10944.9
app_1,10944.9,11031.4,11031.4,11053.1
app_1,11053.1,11138,11138,11145.2
app_1,11145.2,11236.5,11236.5,11257.6
app_1,11257.6,11347.2,11347.2,11366.4
app_1,11366.4,11457.6,11457.6,11472.3
app_1,11472.3,11556.8,11556.8,11565.3
app_1,11565.3,11644.7,11644.7,11651.9
app_1,11651.9,11738.4,11738.4,11752.7
app_1,11752.7,11841.3,11841.3,11848.5
app_1,11848.5,11940.7,11940.7,11966
app_1,11966,12049.4,12049.4,12070.8
app_1,12070.8,12161.3,12161.3,12182.4
app_1,12182.4,12261.7,12261.7,12288.5
app_1,12288.5,12376.8,12376.8,12384
app_1,12384,12469.7,12469.7,12484
app_1,12484,12571.9,12571.9,12585.6
app_1,12585.6,12671,12671,12685.5
app_1,12685.5,12763.6,12763.6,12773.1
app_1,12773.1,12863.6,12863.6,12876.9
app_1,12876.9,12970.5,12970.5,12977.7
app_1,12977.7,13057.3,13057.3,13097.3
app_1,13097.3,13191.7,13191.7,13225.4
app_1,13225.4,13304.9,13304.9,13339.3
app_1,13339.3,13419.6,13419.6,13428.9
app_1,13428.9,13511.3,13511.3,13518.5
app_1,13518.5,13597.2,13597.2,13627
app_1,13627,13708.1,13708.1,13727.7
app_1,13727.7,13805.5,13805.5,13828.3
app_1,13828.3,13911.7,13911.7,13944
app_1,13944,14037.5,14037.5,14044.7
app_1,14044.7,14127.4,14127.4,14134.6
app_1,14134.6,14218.5,14218.5,14232.8
app_1,14232.8,14314.5,14314.5,14321.7
app_1,14321.7,14403,14403,14424.4
app_1,14424.4,14514.9,14514.9,14529.2
app_1,14529.2,14617.4,14617.4,14624.6
app_1,14624.6,14715.8,14715.8,14739.4
app_1,14739.4,14820.4,14820.4,14844.8
app_1,14844.8,14926.8,14926.8,14958.5
app_1,14958.5,15041.1,15041.1,15048.3
app_1,15048.3,15134.9,15134.9,15150.1
app_1,15150.1,15239.4,15239.4,15259.6
app_1,15259.6,15346.2,15346.2,15356.1
app_1,15356.1,15444.1,15444.1,15472.2
app_1,15472.2,15557.1,15557.1,15583.8
app_1,15583.8,15667.5,15667.5,15692.6
app_1,15692.6,15777.7,15777.7,15787
app_1,15787,15868.1,15868.1,15882.6
app_1,15882.6,15960.1,15960.1,15971.2
app_1,15971.2,16056,16056,16084.7
app_1,16084.7,16169,16169,16179
app_1,16179,16264.4,16264.4,16288.7
app_1,16288.7,16381.7,16381.7,16413.1
app_1,16413.1,16502,16502,16520.6
app_1,16520.6,16599.3,16599.3,16636
app_1,16636,16727.7,16727.7,16745.2
app_1,16745.2,16836.1,16836.1,16847.7
app_1,16847.7,16938.6,16938.6,16952.3
app_1,16952.3,17032.9,17032.9,17049.2
app_1,17049.2,17126.7,17126.7,17150.3
app_1,17150.3,17244.1,17244.1,17257.6
app_1,17257.6,17345.9,17345.9,17378.5
app_1,17378.5,17471,17471,17498.8
app_1,17498.8,17592.7,17592.7,17599.9
app_1,17599.9,17687.1,17687.1,17702.5
app_1,17702.5,17793.4,17793.4,17834.3
app_1,17834.3,17922.4,17922.4,17934
app_1,17934,18011.8,18011.8,18019
app_1,18019,18102.2,18102.2,18109.4
app_1,18109.4,18195.2,18195.2,18216.6
app_1,18216.6,18302.1,18302.1,18318.6
app_1,18318.6,18404.9,18404.9,18429
app_1,18429,18517.5,18517.5,18531.8
app_1,18531.8,18617.9,18617.9,18625.1
app_1,18625.1,18711.2,18711.2,18718.4
app_1,18718.4,18799.7,18799.7,18819.6
app_1,18819.6,18903.4,18903.4,18939.5
app_1,18939.5,19023,19023,19044.4
app_1,19044.4,19129.3,19129.3,19136.5
app_1,19136.5,19224.5,19224.5,19234.7
app_1,19234.7,19316.2,19316.2,19335.4
app_1,19335.4,19418.3,19418.3,19436.6
app_1,19436.6,19517,19517,19524.8
app_1,19524.8,19605.8,19605.8,19620.1
app_1,19620.1,19701.1,19701.1,19708.8
app_1,19708.8,19795.9,19795.9,19803.1
app_1,19803.1,19886.3,19886.3,19914.1
app_1,19914.1,19999.4,19999.4,20028.4
app_1,20028.4,20119,20119,20139.5
app_1,20139.5,20217.2,20217.2,20234.5
app_1,20234.5,20320.1,20320.1,20333.9
app_1,20333.9,20421.9,20421.9,20434.2
app_1,20434.2,20524.9,20524.9,20545.1
app_1,20545.1,20637.5,20637.5,20653.1
app_1,20653.1,20739.9,20739.9,20765.5
app_1,20765.5,20856.3,20856.3,20888.3
app_1,20888.3,20975.9,20975.9,20992.1
app_1,20992.1,21086.1,21086.1,21119
app_1,21119,21212,21212,21227.7
app_1,21227.7,21309.4,21309.4,21324.5
app_1,21324.5,21409.2,21409.2,21423.9
app_1,21423.9,21516.5,21516.5,21542.2
app_1,21542.2,21636.5,21636.5,21660
app_1,21660,21750.4,21750.4,21787.3
app_1,21787.3,21866.5,21866.5,21890.6
app_1,21890.6,21971,21971,21978.2
app_1,21978.2,22060.1,22060.1,22067.3
app_10,190.715,912.586,912.586,973.786
app_10,973.786,1720.82,1720.82,1833.62
app_10,1833.62,2639.13,2639.13,2744.73
app_10,2744.73,3581.96,3581.96,3731.26
app_10,3731.26,4514.08,4514.08,4608.68
app_10,4608.68,5442.56,5442.56,5501.56
app_10,5501.56,6225.79,6225.79,6293.59
app_10,6293.59,6997.75,6997.75,7101.85
app_10,7101.85,7908.91,7908.91,8038.01
app_10,8038.01,8736.41,8736.41,8859.51
app_10,8859.51,9652.68,9652.68,9862.78
app_10,9862.78,10629.2,10629.2,10676.2
app_10,10676.2,11382,11382,11461.3
app_10,11461.3,12185.2,12185.2,12312.6
app_10,12312.6,13013,13013,13104.7
app_10,13104.7,13811.8,13811.8,13960.9
app_10,13960.9,14673.7,14673.7,14794.7
app_10,14794.7,15501.4,15501.4,15623.8
app_10,15623.8,16371.8,16371.8,16471.3
app_10,16471.3,17279,17279,17378.5
app_10,17378.5,18160.2,18160.2,18285.8
app_10,18285.8,18998.4,18998.4,19064.8
app_10,19064.8,19847.3,19847.3,19958.9
app_10,19958.9,20660.7,20660.7,20772.4
app_10,20772.4,21500.4,21500.4,21566.4
app_11,727.169,1624.08,1624.08,1807.58
app_11,1807.58,2756.73,2756.73,2966.03
app_11,2966.03,3972.93,3972.93,4167.13
app_11,4167.13,5161.79,5161.79,5343.59
app_11,5343.59,6332.35,6332.35,6491.65
app_11,6491.65,7517.61,7517.61,7633.91
app_11,7633.91,8531.19,8531.19,8665.09
app_11,8665.09,9647.71,9647.71,10002.3
app_11,10002.3,10990.8,10990.8,11121.6
app_11,11121.6,12014,12014,12289.2
app_11,12289.2,13172.8,13172.8,13359.5
app_11,13359.5,14343.4,14343.4,14475.3
app_11,14475.3,15475.5,15475.5,15698.2
app_11,15698.2,16588.8,16588.8,16732.2
app_11,16732.2,17690.7,17690.7,17897.4
app_11,17897.4,18769.9,18769.9,18996.7
app_11,18996.7,20001.1,20001.1,20163.8
app_11,20163.8,21053,21053,21210.2
app_11,21210.2,22071,22071,22228.6
app_11,22228.6,23208.1,23208.1,23297
app_12,851.769,1732.05,1732.05,1813.85
app_12,1813.85,2630.34,2630.34,2699.74
app_12,2699.74,3450.43,3450.43,3509.83
app_12,3509.83,4281.61,4281.61,4302.81
app_12,4302.81,5202.26,5202.26,5247.16
app_12,5247.16,6092.89,6092.89,6139.89
app_12,6139.89,6959.09,6959.09,6983.59
app_12,6983.59,7852.36,7852.36,7918.66
app_12,7918.66,8702.73,8702.73,8758.43
app_12,8758.43,9541.57,9541.57,9602.67
app_12,9602.67,10366.7,10366.7,10385.9
app_12,10385.9,11300.5,11300.5,11346.1
app_12,11346.1,12194,12194,12283.4
app_12,12283.4,13038.7,13038.7,13110.4
app_12,13110.4,13891.5,13891.5,13960
app_12,13960,14743.4,14743.4,14808.4
app_12,14808.4,15664.3,15664.3,15706.5
app_12,15706.5,16526.6,16526.6,16545.8
app_12,16545.8,17398.2,17398.2,17466.4
app_12,17466.4,18312.1,18312.1,18366.8
app_12,18366.8,19189.1,19189.1,19215.2
app_12,19215.2,19991.8,19991.8,20042.2
app_12,20042.2,20854.7,20854.7,20915.9
app_12,20915.9,21749.7,21749.7,21824.5
app_13,719.928,1869.04,1869.04,1911.34
app_13,1911.34,3075.04,3075.04,3095.34
app_13,3095.34,4092.71,4092.71,4164.91
app_13,4164.91,5294.34,5294.34,5334.04
app_13,5334.04,6418.1,6418.1,6457.1
app_13,6457.1,7481.89,7481.89,7499.59
app_13,7499.59,8570.01,8570.01,8621.31
app_13,8621.31,9775.2,9775.2,9871.1
app_13,9871.1,10969.3,10969.3,11006.7
app_13,11006.7,12170.3,12170.3,12241.2
app_13,12241.2,13297.9,13297.9,13353.6
app_13,13353.6,14385.3,14385.3,14431.8
app_13,14431.8,15437.3,15437.3,15489.1
app_13,15489.1,16606.6,16606.6,16658.2
app_13,16658.2,17783.4,17783.4,17855.7
app_13,17855.7,18893.9,18893.9,18958.7
app_13,18958.7,20057.9,20057.9,20095.6
app_13,20095.6,21224.3,21224.3,21247
app_13,21247,22272.3,22272.3,22289.6
app_14,575.38,1335.91,1335.91,1433.21
app_14,1433.21,2225.44,2225.44,2292.24
app_14,2292.24,3164.5,3164.5,3227.6
app_14,3227.6,4061.55,4061.55,4184.95
app_14,4184.95,5076.91,5076.91,5136.21
app_14,5136.21,5965.11,5965.11,6088.51
app_14,6088.51,7005.27,7005.27,7111.77
app_14,7111.77,7975.98,7975.98,8117.48
app_14,8117.48,8933.27,8933.27,8991.67
app_14,8991.67,9793.25,9793.25,9976.25
app_14,9976.25,10760,10760,10937.6
app_14,10937.6,11730.6,11730.6,11804.3
app_14,11804.3,12625.3,12625.3,12697.3
app_14,12697.3,13569.4,13569.4,13679
app_14,13679,14490.1,14490.1,14548.9
app_14,14548.9,15422.9,15422.9,15542.1
app_14,15542.1,16401.7,16401.7,16485.9
app_14,16485.9,17401.6,17401.6,17545.1
app_14,17545.1,18340.3,18340.3,18474.8
app_14,18474.8,19306.9,19306.9,19379.8
app_14,19379.8,20243.2,20243.2,20302.4
app_14,20302.4,21063.6,21063.6,21175.2
app_14,21175.2,22094.9,22094.9,22195.4
app_15,108.284,1002.35,1002.35,1097.55
app_15,1097.55,1858.6,1858.6,1980.7
app_15,1980.7,2783.93,2783.93,2968.23
app_15,2968.23,3839.8,3839.8,3932
app_15,3932,4759.71,4759.71,4851.41
app_15,4851.41,5641.03,5641.03,5816.33
app_15,5816.33,6721.98,6721.98,6844.08
app_15,6844.08,7733.17,7733.17,7828.37
app_15,7828.37,8718,8718,8879.6
app_15,8879.6,9643.26,9643.26,9939.96
app_15,9939.96,10723.1,10723.1,10972.1
app_15,10972.1,11876.1,11876.1,12004
app_15,12004,12773.3,12773.3,12854.2
app_15,12854.2,13732.7,13732.7,13940.9
app_15,13940.9,14814,14814,15001.3
app_15,15001.3,15782.7,15782.7,15863.1
app_15,15863.1,16752.5,16752.5,16830.7
app_15,16830.7,17738.6,17738.6,17908.3
app_15,17908.3,18818.7,18818.7,19005.3
app_15,19005.3,19828.6,19828.6,19968
app_15,19968,20777.8,20777.8,20922.7
app_15,20922.7,21771.5,21771.5,21959.5
app_15,21959.5,22728.9,22728.9,22864.4
app_2,4.62585,103.747,103.747,107.747
app_2,107.747,203.353,203.353,207.053
app_2,207.053,310.232,310.232,312.632
app_2,312.632,401.167,401.167,403.167
app_2,403.167,493.846,493.846,497.846
app_2,497.846,595.567,595.567,598.967
app_2,598.967,704.163,704.163,706.163
app_2,706.163,811.008,811.008,814.508
app_2,814.508,905.72,905.72,907.72
app_2,907.72,1002.59,1002.59,1006.59
app_2,1006.59,1111.88,1111.88,1113.88
app_2,1113.88,1219.51,1219.51,1224.81
app_2,1224.81,1321.85,1321.85,1325.85
app_2,1325.85,1415.48,1415.48,1423.38
app_2,1423.38,1521.65,1521.65,1527.25
app_2,1527.25,1631.02,1631.02,1636.92
app_2,1636.92,1729.32,1729.32,1737.82
app_2,1737.82,1828.55,1828.55,1832.55
app_2,1832.55,1926.77,1926.77,1930.77
app_2,1930.77,2035.88,2035.88,2037.88
app_2,2037.88,2145.3,2145.3,2147.3
app_2,2147.3,2254.48,2254.48,2258.48
app_2,2258.48,2359.38,2359.38,2363.38
app_2,2363.38,2466.01,2466.01,2468.01
app_2,2468.01,2568.51,2568.51,2574.41
app_2,2574.41,2679.97,2679.97,2691.77
app_2,2691.77,2790,2790,2796.4
app_2,2796.4,2885.89,2885.89,2893.79
app_2,2893.79,2988.82,2988.82,2990.82
app_2,2990.82,3084.22,3084.22,3088.22
app_2,3088.22,3187.34,3187.34,3191.34
app_2,3191.34,3284.33,3284.33,3286.33
app_2,3286.33,3379.24,3379.24,3381.24
app_2,3381.24,3477.07,3477.07,3484.97
app_2,3484.97,3589.58,3589.58,3599.18
app_2,3599.18,3694.11,3694.11,3703.11
app_2,3703.11,3805.08,3805.08,3809.08
app_2,3809.08,3899.72,3899.72,3905.62
app_2,3905.62,3998.36,3998.36,4003.36
app_2,4003.36,4092.47,4092.47,4100.47
app_2,4100.47,4190.82,4190.82,4192.82
app_2,4192.82,4287.68,4287.68,4291.68
app_2,4291.68,4393.93,4393.93,4395.93
app_2,4395.93,4485.11,4485.11,4487.11
app_2,4487.11,4575.98,4575.98,4583.78
app_2,4583.78,4679.11,4679.11,4683.11
app_2,4683.11,4781.03,4781.03,4785.03
app_2,4785.03,4884.79,4884.79,4890.69
app_2,4890.69,4997,4997,4999
app_2,4999,5093.32,5093.32,5100.62
app_2,5100.62,5198.12,5198.12,5206.92
app_2,5206.92,5310.33,5310.33,5318.23
app_2,5318.23,5415.16,5415.16,5417.96
app_2,5417.96,5511.39,5511.39,5515.39
app_2,5515.39,5607.88,5607.88,5613.78
app_2,5613.78,5709.73,5709.73,5717.23
app_2,5717.23,5820.93,5820.93,5827.93
app_2,5827.93,5928.95,5928.95,5934.65
app_2,5934.65,6037.47,6037.47,6047.27
app_2,6047.27,6138.88,6138.88,6146.98
app_2,6146.98,6245.24,6245.24,6252.94
app_2,6252.94,6349.05,6349.05,6356.95
app_2,6356.95,6445.58,6445.58,6452.88
app_2,6452.88,6553.31,6553.31,6555.31
app_2,6555.31,6662.48,6662.48,6664.48
app_2,6664.48,6763.8,6763.8,6767.8
app_2,6767.8,6858.9,6858.9,6862.9
app_2,6862.9,6962.43,6962.43,6966.93
app_2,6966.93,7068.25,7068.25,7074.15
app_2,7074.15,7176.16,7176.16,7178.16
app_2,7178.16,7284.06,7284.06,7288.06
app_2,7288.06,7380.03,7380.03,7382.03
app_2,7382.03,7477.15,7477.15,7479.15
app_2,7479.15,7583.12,7583.12,7587.12
app_2,7587.12,7694.21,7694.21,7696.21
app_2,7696.21,7790.23,7790.23,7794.23
app_2,7794.23,7900.28,7900.28,7907.48
app_2,7907.48,8008.73,8008.73,8018.53
app_2,8018.53,8115.45,8115.45,8121.25
app_2,8121.25,8214.91,8214.91,8218.81
app_2,8218.81,8324.59,8324.59,8326.59
app_2,8326.59,8427,8427,8432.8
app_2,8432.8,8522.55,8522.55,8528.45
app_2,8528.45,8623.33,8623.33,8629.23
app_2,8629.23,8730.42,8730.42,8738.72
app_2,8738.72,8843.23,8843.23,8853.03
app_2,8853.03,8956.92,8956.92,8962.42
app_2,8962.42,9060.9,9060.9,9065.5
app_2,9065.5,9164.33,9164.33,9170.23
app_2,9170.23,9261.59,9261.59,9265.59
app_2,9265.59,9359.16,9359.16,9361.16
app_2,9361.16,9464.52,9464.52,9469.22
app_2,9469.22,9560.32,9560.32,9569.32
app_2,9569.32,9660.46,9660.46,9671.46
app_2,9671.46,9777.51,9777.51,9787.31
app_2,9787.31,9880.81,9880.81,9889.81
app_2,9889.81,9995.95,9995.95,9999.95
app_2,9999.95,10104.7,10104.7,10108.7
app_2,10108.7,10203.9,10203.9,10213.3
app_2,10213.3,10320.3,10320.3,10322.3
app_2,10322.3,10429.4,10429.4,10431.4
app_2,10431.4,10533.5,10533.5,10535.5
app_2,10535.5,10638.8,10638.8,10642.8
app_2,10642.8,10733.5,10733.5,10741.4
app_2,10741.4,10834.3,10834.3,10843.2
app_2,10843.2,10939.4,10939.4,10950.1
app_2,10950.1,11047.7,11047.7,11054.9
app_2,11054.9,11148.4,11148.4,11150.4
app_2,11150.4,11247.8,11247.8,11255.7
app_2,11255.7,11354.3,11354.3,11361.5
app_2,11361.5,11462.4,11462.4,11467.8
app_2,11467.8,11569.1,11569.1,11572
app_2,11572,11666.8,11666.8,11670.3
app_2,11670.3,11761.7,11761.7,11767.6
app_2,11767.6,11874.8,11874.8,11877.5
app_2,11877.5,11984.9,11984.9,11990.8
app_2,11990.8,12086.3,12086.3,12094.2
app_2,12094.2,12191.3,12191.3,12204.6
app_2,12204.6,12296.3,12296.3,12300.4
app_2,12300.4,12397.4,12397.4,12399.4
app_2,12399.4,12488.2,12488.2,12492.2
app_2,12492.2,12586.2,12586.2,12588.2
app_2,12588.2,12684.9,12684.9,12689
app_2,12689,12793.9,12793.9,12798.4
app_2,12798.4,12899.5,12899.5,12901.5
app_2,12901.5,12994.9,12994.9,12996.9
app_2,12996.9,13092.6,13092.6,13102.6
app_2,13102.6,13210.3,13210.3,13220.3
app_2,13220.3,13313.2,13313.2,13325
app_2,13325,13420.6,13420.6,13424.6
app_2,13424.6,13524.3,13524.3,13526.3
app_2,13526.3,13620.2,13620.2,13629.4
app_2,13629.4,13733.5,13733.5,13741
app_2,13741,13836.8,13836.8,13844.7
app_2,13844.7,13937.1,13937.1,13945.3
app_2,13945.3,14046.7,14046.7,14048.7
app_2,14048.7,14142,14142,14144
app_2,14144,14235.3,14235.3,14239.3
app_2,14239.3,14339.6,14339.6,14341.6
app_2,14341.6,14437.7,14437.7,14441.7
app_2,14441.7,14538.8,14538.8,14542.8
app_2,14542.8,14631.5,14631.5,14633.5
app_2,14633.5,14736.2,14736.2,14745
app_2,14745,14851.9,14851.9,14857.8
app_2,14857.8,14946.6,14946.6,14954.5
app_2,14954.5,15049.7,15049.7,15051.7
app_2,15051.7,15145.7,15145.7,15150.4
app_2,15150.4,15253.7,15253.7,15259.6
app_2,15259.6,15360.6,15360.6,15362.6
app_2,15362.6,15457.1,15457.1,15466.1
app_2,15466.1,15563.4,15563.4,15573
app_2,15573,15670.5,15670.5,15679.4
app_2,15679.4,15773.2,15773.2,15775.2
app_2,15775.2,15879.7,15879.7,15883.8
app_2,15883.8,15987.4,15987.4,15989.4
app_2,15989.4,16085.2,16085.2,16090.3
app_2,16090.3,16186.9,16186.9,16190.5
app_2,16190.5,16297.8,16297.8,16301.8
app_2,16301.8,16400,16400,16411
app_2,16411,16501.9,16501.9,16511.3
app_2,16511.3,16616.1,16616.1,16627.9
app_2,16627.9,16729.4,16729.4,16736
app_2,16736,16833.5,16833.5,16838.1
app_2,16838.1,16934.2,16934.2,16937.8
app_2,16937.8,17035.4,17035.4,17041.3
app_2,17041.3,17145.5,17145.5,17155.8
app_2,17155.8,17247.3,17247.3,17253.2
app_2,17253.2,17347.3,17347.3,17358.9
app_2,17358.9,17458.3,17458.3,17467.3
app_2,17467.3,17563.9,17563.9,17565.9
app_2,17565.9,17660.3,17660.3,17662.3
app_2,17662.3,17768.5,17768.5,17774.4
app_2,17774.4,17871,17871,17876.9
app_2,17876.9,17982.5,17982.5,17984.5
app_2,17984.5,18077.8,18077.8,18079.8
app_2,18079.8,18180.6,18180.6,18188.5
app_2,18188.5,18284.9,18284.9,18289.1
app_2,18289.1,18382.4,18382.4,18390.3
app_2,18390.3,18495.9,18495.9,18501.8
app_2,18501.8,18598.7,18598.7,18600.7
app_2,18600.7,18689,18689,18693
app_2,18693,18786.9,18786.9,18793.9
app_2,18793.9,18896.2,18896.2,18906.2
app_2,18906.2,19007.7,19007.7,19011.7
app_2,19011.7,19105.9,19105.9,19107.9
app_2,19107.9,19206,19206,19211.9
app_2,19211.9,19318,19318,19324.9
app_2,19324.9,19416.5,19416.5,19422.3
app_2,19422.3,19526.9,19526.9,19528.9
app_2,19528.9,19626.9,19626.9,19630.9
app_2,19630.9,19721.8,19721.8,19723.8
app_2,19723.8,19819.5,19819.5,19821.5
app_2,19821.5,19918.5,19918.5,19924.4
app_2,19924.4,20021.5,20021.5,20029.9
app_2,20029.9,20125,20125,20130.9
app_2,20130.9,20221.5,20221.5,20228.3
app_2,20228.3,20316.8,20316.8,20323.4
app_2,20323.4,20416.2,20416.2,20419.1
app_2,20419.1,20514.3,20514.3,20518.3
app_2,20518.3,20614.9,20614.9,20619.5
app_3,76.4765,156.169,156.169,162.669
app_3,162.669,248.043,248.043,254.543
app_3,254.543,342.928,342.928,349.428
app_3,349.428,429.887,429.887,436.387
app_3,436.387,523.742,523.742,530.242
app_3,530.242,623.231,623.231,632.731
app_3,632.731,715.734,715.734,722.234
app_3,722.234,811.496,811.496,819.496
app_3,819.496,911.203,911.203,922.803
app_3,922.803,1016.86,1016.86,1029.86
app_3,1029.86,1123.66,1123.66,1130.16
app_3,1130.16,1209.29,1209.29,1223.69
app_3,1223.69,1303.6,1303.6,1316.6
app_3,1316.6,1410.37,1410.37,1431.87
app_3,1431.87,1522.23,1522.23,1536.93
app_3,1536.93,1628.93,1628.93,1643.93
app_3,1643.93,1730.85,1730.85,1760.15
app_3,1760.15,1855.19,1855.19,1864.79
app_3,1864.79,1959.64,1959.64,1972.64
app_3,1972.64,2062.19,2062.19,2068.69
app_3,2068.69,2163.25,2163.25,2169.75
app_3,2169.75,2263.17,2263.17,2283.27
app_3,2283.27,2367.39,2367.39,2383.39
app_3,2383.39,2471.7,2471.7,2478.3
app_3,2478.3,2560.38,2560.38,2575.38
app_3,2575.38,2665.5,2665.5,2697.1
app_3,2697.1,2775.98,2775.98,2791.98
app_3,2791.98,2885.38,2885.38,2906.88
app_3,2906.88,2996.57,2996.57,3004.87
app_3,3004.87,3094.49,3094.49,3102.09
app_3,3102.09,3194.72,3194.72,3207.72
app_3,3207.72,3289.05,3289.05,3295.55
app_3,3295.55,3389.41,3389.41,3395.91
app_3,3395.91,3476.89,3476.89,3500.79
app_3,3500.79,3591.98,3591.98,3626.58
app_3,3626.58,3708.58,3708.58,3728.08
app_3,3728.08,3816.28,3816.28,3822.78
app_3,3822.78,3909.59,3909.59,3924.49
app_3,3924.49,4020.14,4020.14,4039.64
app_3,4039.64,4131.08,4131.08,4168.58
app_3,4168.58,4250.33,4250.33,4260.43
app_3,4260.43,4347.41,4347.41,4360.61
app_3,4360.61,4440.66,4440.66,4451.66
app_3,4451.66,4530.63,4530.63,4550.63
app_3,4550.63,4640.7,4640.7,4663.6
app_3,4663.6,4758.55,4758.55,4778.15
app_3,4778.15,4860.21,4860.21,4881.51
app_3,4881.51,4976.37,4976.37,4993.17
app_3,4993.17,5085.5,5085.5,5103.5
app_3,5103.5,5184.57,5184.57,5208.97
app_3,5208.97,5297.45,5297.45,5318.95
app_3,5318.95,5409.51,5409.51,5416.91
app_3,5416.91,5510.02,5510.02,5518.52
app_3,5518.52,5604.07,5604.07,5621.37
app_3,5621.37,5714.85,5714.85,5737.15
app_3,5737.15,5828.2,5828.2,5840.2
app_3,5840.2,5929.43,5929.43,5939.93
app_3,5939.93,6021.83,6021.83,6049.43
app_3,6049.43,6133.35,6133.35,6156.35
app_3,6156.35,6240.55,6240.55,6259.65
app_3,6259.65,6342.06,6342.06,6360.06
app_3,6360.06,6447.17,6447.17,6464.87
app_3,6464.87,6557.89,6557.89,6564.39
app_3,6564.39,6655.42,6655.42,6661.92
app_3,6661.92,6740.6,6740.6,6753.6
app_3,6753.6,6844.1,6844.1,6857.1
app_3,6857.1,6945.31,6945.31,6958.31
app_3,6958.31,7044.68,7044.68,7067.18
app_3,7067.18,7151.26,7151.26,7158.66
app_3,7158.66,7249.54,7249.54,7270.84
app_3,7270.84,7357.27,7357.27,7376.77
app_3,7376.77,7469.98,7469.98,7476.48
app_3,7476.48,7556.01,7556.01,7575.11
app_3,7575.11,7661.7,7661.7,7674.1
app_3,7674.1,7752.73,7752.73,7772.23
app_3,7772.23,7852.16,7852.16,7879.76
app_3,7879.76,7964.38,7964.38,7994.38
app_3,7994.38,8074.18,8074.18,8095.38
app_3,8095.38,8182.46,8182.46,8188.96
app_3,8188.96,8276.28,8276.28,8286.98
app_3,8286.98,8377.51,8377.51,8396.51
app_3,8396.51,8485.24,8485.24,8497.04
app_3,8497.04,8582.84,8582.84,8609.24
app_3,8609.24,8695.68,8695.68,8704.68
app_3,8704.68,8792.77,8792.77,8813.57
app_3,8813.57,8909.18,8909.18,8918.98
app_3,8918.98,8997.84,8997.84,9004.34
app_3,9004.34,9099.91,9099.91,9117.21
app_3,9117.21,9204.8,9204.8,9213.6
app_3,9213.6,9305.71,9305.71,9312.21
app_3,9312.21,9401.68,9401.68,9408.18
app_3,9408.18,9494.97,9494.97,9508.27
app_3,9508.27,9592.77,9592.77,9609.17
app_3,9609.17,9694.45,9694.45,9732.15
app_3,9732.15,9827.26,9827.26,9875.76
app_3,9875.76,9970.34,9970.34,9994.64
app_3,9994.64,10077.1,10077.1,10099.9
app_3,10099.9,10183,10183,10209.8
app_3,10209.8,10289.3,10289.3,10297.2
app_3,10297.2,10390.4,10390.4,10398.7
app_3,10398.7,10489.2,10489.2,10495.7
app_3,10495.7,10589.4,10589.4,10602.1
app_3,10602.1,10680.7,10680.7,10688.2
app_3,10688.2,10770.9,10770.9,10800.1
app_3,10800.1,10895.6,10895.6,10927
app_3,10927,11015.1,11015.1,11028.1
app_3,11028.1,11117.7,11117.7,11126.2
app_3,11126.2,11211.7,11211.7,11221.2
app_3,11221.2,11302.3,11302.3,11321.9
app_3,11321.9,11414.6,11414.6,11434.1
app_3,11434.1,11521.8,11521.8,11528.3
app_3,11528.3,11617.2,11617.2,11623.7
app_3,11623.7,11715.9,11715.9,11722.4
app_3,11722.4,11815.2,11815.2,11822.6
app_3,11822.6,11915.5,11915.5,11937.2
app_3,11937.2,12016,12016,12035.5
app_3,12035.5,12116.2,12116.2,12135.7
app_3,12135.7,12215.8,12215.8,12250.6
app_3,12250.6,12346.1,12346.1,12352.6
app_3,12352.6,12431.9,12431.9,12445.4
app_3,12445.4,12524.1,12524.1,12541.9
app_3,12541.9,12633.7,12633.7,12656.2
app_3,12656.2,12748,12748,12759.9
app_3,12759.9,12854.4,12854.4,12862.5
app_3,12862.5,12957.4,12957.4,12969.7
app_3,12969.7,13051.7,13051.7,13085
app_3,13085,13178.7,13178.7,13211.6
app_3,13211.6,13298.5,13298.5,13328.2
app_3,13328.2,13408.1,13408.1,13414.6
app_3,13414.6,13503.6,13503.6,13510.1
app_3,13510.1,13596.8,13596.8,13623.3
app_3,13623.3,13714.1,13714.1,13735.4
app_3,13735.4,13828.4,13828.4,13853.6
app_3,13853.6,13947.6,13947.6,13962.9
app_3,13962.9,14057.3,14057.3,14069.5
app_3,14069.5,14161.4,14161.4,14179.6
app_3,14179.6,14263.3,14263.3,14280.7
app_3,14280.7,14371.2,14371.2,14395.1
app_3,14395.1,14478.8,14478.8,14493
app_3,14493,14588.7,14588.7,14598.6
app_3,14598.6,14680.9,14680.9,14700.1
app_3,14700.1,14795.4,14795.4,14818.3
app_3,14818.3,14905.7,14905.7,14942.6
app_3,14942.6,15033.9,15033.9,15040.4
app_3,15040.4,15134.7,15134.7,15148.5
app_3,15148.5,15234.4,15234.4,15251.4
app_3,15251.4,15342.4,15342.4,15351.7
app_3,15351.7,15432.3,15432.3,15451.4
app_3,15451.4,15545.9,15545.9,15572.3
app_3,15572.3,15652.9,15652.9,15675.5
app_3,15675.5,15765.1,15765.1,15771.8
app_3,15771.8,15867.5,15867.5,15879.9
app_3,15879.9,15971.7,15971.7,15978.8
app_3,15978.8,16059.2,16059.2,16085.2
app_3,16085.2,16165.4,16165.4,16174.8
app_3,16174.8,16270.4,16270.4,16294.5
app_3,16294.5,16382.4,16382.4,16411.5
app_3,16411.5,16497,16497,16517.5
app_3,16517.5,16597.4,16597.4,16630.9
app_3,16630.9,16717,16717,16731.8
app_3,16731.8,16815,16815,16828
app_3,16828,16910.1,16910.1,16916.6
app_3,16916.6,17003.4,17003.4,17011.6
app_3,17011.6,17100.6,17100.6,17113.6
app_3,17113.6,17206,17206,17219
app_3,17219,17304.2,17304.2,17323.7
app_3,17323.7,17406.2,17406.2,17432.2
app_3,17432.2,17518.5,17518.5,17539.8
app_3,17539.8,17618.9,17618.9,17625.4
app_3,17625.4,17713.1,17713.1,17729.1
app_3,17729.1,17816.7,17816.7,17850.8
app_3,17850.8,17933.6,17933.6,17945
app_3,17945,18035.7,18035.7,18048.7
app_3,18048.7,18141,18141,18147.5
app_3,18147.5,18233.6,18233.6,18259.6
app_3,18259.6,18350.5,18350.5,18382.2
app_3,18382.2,18477.4,18477.4,18493.1
app_3,18493.1,18577.2,18577.2,18586.3
app_3,18586.3,18678.4,18678.4,18684.9
app_3,18684.9,18765.3,18765.3,18773.7
app_3,18773.7,18855.9,18855.9,18875.4
app_3,18875.4,18965.5,18965.5,18988
app_3,18988,19070.7,19070.7,19077.2
app_3,19077.2,19163,19163,19169.5
app_3,19169.5,19256.3,19256.3,19262.8
app_3,19262.8,19348.2,19348.2,19366.8
app_3,19366.8,19459.1,19459.1,19478.6
app_3,19478.6,19560.4,19560.4,19576.4
app_3,19576.4,19665.5,19665.5,19684.1
app_3,19684.1,19763.4,19763.4,19769.9
app_3,19769.9,19862.2,19862.2,19888.6
app_3,19888.6,19982.1,19982.1,19988.6
app_3,19988.6,20074.8,20074.8,20094.3
app_3,20094.3,20183.8,20183.8,20190.3
app_3,20190.3,20268.9,20268.9,20281.9
app_3,20281.9,20373,20373,20379.5
app_3,20379.5,20471.5,20471.5,20484.3
app_3,20484.3,20575.4,20575.4,20590.2
app_3,20590.2,20669.1,20669.1,20691.6
app_3,20691.6,20773.2,20773.2,20791.1
app_3,20791.1,20880.4,20880.4,20902.2
app_3,20902.2,20985.8,20985.8,20998.4
app_3,20998.4,21091.6,21091.6,21123
app_3,21123,21207.4,21207.4,21218.9
app_3,21218.9,21309.7,21309.7,21323.8
app_3,21323.8,21408.5,21408.5,21421.3
app_3,21421.3,21511.3,21511.3,21533.8
app_3,21533.8,21628.8,21628.8,21646.6
app_3,21646.6,21725.5,21725.5,21745
app_3,21745,21830.7,21830.7,21850.2
app_3,21850.2,21931.1,21931.1,21950.6
app_3,21950.6,22034.8,22034.8,22041.3
app_3,22041.3,22125.6,22125.6,22145.1
app_3,22145.1,22229.3,22229.3,22235.8
app_4,38.0983,119.526,119.526,122.526
app_4,122.526,196.861,196.861,199.861
app_4,199.861,275.518,275.518,280.718
app_4,280.718,358.883,358.883,361.883
app_4,361.883,448.139,448.139,451.139
app_4,451.139,539.52,539.52,542.52
app_4,542.52,623.47,623.47,629.47
app_4,629.47,706.705,706.705,709.705
app_4,709.705,784.488,784.488,787.488
app_4,787.488,864.902,864.902,870.902
app_4,870.902,952.195,952.195,961.195
app_4,961.195,1036.89,1036.89,1042.89
app_4,1042.89,1120.37,1120.37,1123.37
app_4,1123.37,1205,1205,1208
app_4,1208,1296.23,1296.23,1302.23
app_4,1302.23,1391.76,1391.76,1400.46
app_4,1400.46,1477.95,1477.95,1484.85
app_4,1484.85,1566.51,1566.51,1572.51
app_4,1572.51,1655.28,1655.28,1663.28
app_4,1663.28,1749.18,1749.18,1763.38
app_4,1763.38,1843.45,1843.45,1846.45
app_4,1846.45,1933.57,1933.57,1942.57
app_4,1942.57,2022.86,2022.86,2025.86
app_4,2025.86,2102.67,2102.67,2107.77
app_4,2107.77,2191.58,2191.58,2194.58
app_4,2194.58,2279.75,2279.75,2292.35
app_4,2292.35,2369.67,2369.67,2378.67
app_4,2378.67,2459.92,2459.92,2462.92
app_4,2462.92,2546.53,2546.53,2552.53
app_4,2552.53,2638.56,2638.56,2650.36
app_4,2650.36,2734.64,2734.64,2740.64
app_4,2740.64,2823.56,2823.56,2835.56
app_4,2835.56,2909.37,2909.37,2920.97
app_4,2920.97,2995.31,2995.31,3000.11
app_4,3000.11,3090.16,3090.16,3096.46
app_4,3096.46,3175.88,3175.88,3181.88
app_4,3181.88,3256.4,3256.4,3260.4
app_4,3260.4,3346.76,3346.76,3349.76
app_4,3349.76,3426.09,3426.09,3429.09
app_4,3429.09,3507.36,3507.36,3516.46
app_4,3516.46,3593.59,3593.59,3610.69
app_4,3610.69,3686.36,3686.36,3701.56
app_4,3701.56,3777.21,3777.21,3784.11
app_4,3784.11,3866.86,3866.86,3873.86
app_4,3873.86,3960.4,3960.4,3963.4
app_4,3963.4,4052.27,4052.27,4058.27
app_4,4058.27,4139.79,4139.79,4159.99
app_4,4159.99,4237.07,4237.07,4241.57
app_4,4241.57,4328.46,4328.46,4331.46
app_4,4331.46,4409.85,4409.85,4412.85
app_4,4412.85,4494.67,4494.67,4497.67
app_4,4497.67,4576.06,4576.06,4586.96
app_4,4586.96,4661.6,4661.6,4671.1
app_4,4671.1,4752.17,4752.17,4759.97
app_4,4759.97,4841.29,4841.29,4850.29
app_4,4850.29,4927.17,4927.17,4933.17
app_4,4933.17,5011.05,5011.05,5014.05
app_4,5014.05,5088.45,5088.45,5098.75
app_4,5098.75,5177,5177,5186.4
app_4,5186.4,5263.53,5263.53,5273.33
app_4,5273.33,5359.46,5359.46,5362.46
app_4,5362.46,5440.48,5440.48,5444.38
app_4,5444.38,5524.7,5524.7,5527.7
app_4,5527.7,5614.44,5614.44,5622.74
app_4,5622.74,5712.3,5712.3,5724.7
app_4,5724.7,5814.77,5814.77,5825.17
app_4,5825.17,5901.57,5901.57,5904.57
app_4,5904.57,5982.06,5982.06,5994.06
app_4,5994.06,6076.69,6076.69,6089.59
app_4,6089.59,6164.05,6164.05,6170.05
app_4,6170.05,6259.06,6259.06,6268.16
app_4,6268.16,6346.61,6346.61,6357.51
app_4,6357.51,6433.84,6433.84,6442.84
app_4,6442.84,6523.31,6523.31,6526.31
app_4,6526.31,6612.53,6612.53,6615.53
app_4,6615.53,6690.88,6690.88,6694.88
app_4,6694.88,6784.24,6784.24,6799.14
app_4,6799.14,6874.38,6874.38,6880.38
app_4,6880.38,6965.18,6965.18,6971.78
app_4,6971.78,7050.05,7050.05,7062.05
app_4,7062.05,7144.25,7144.25,7150.25
app_4,7150.25,7230.82,7230.82,7240.02
app_4,7240.02,7326.34,7326.34,7332.34
app_4,7332.34,7414.29,7414.29,7417.29
app_4,7417.29,7495.46,7495.46,7500.46
app_4,7500.46,7577.24,7577.24,7583.34
app_4,7583.34,7664.15,7664.15,7672.05
app_4,7672.05,7755.77,7755.77,7766.37
app_4,7766.37,7852.71,7852.71,7867.61
app_4,7867.61,7954.17,7954.17,7963.17
app_4,7963.17,8047.99,8047.99,8056.99
app_4,8056.99,8141.75,8141.75,8144.75
app_4,8144.75,8233.97,8233.97,8236.97
app_4,8236.97,8318.57,8318.57,8323.37
app_4,8323.37,8408.81,8408.81,8416.71
app_4,8416.71,8499.98,8499.98,8502.98
app_4,8502.98,8576.98,8576.98,8590.48
app_4,8590.48,8669.39,8669.39,8672.39
app_4,8672.39,8756.91,8756.91,8766.31
app_4,8766.31,8842.09,8842.09,8855.99
app_4,8855.99,8934.99,8934.99,8940.99
app_4,8940.99,9016.15,9016.15,9022.15
app_4,9022.15,9107.19,9107.19,9117.59
app_4,9117.59,9204.08,9204.08,9209.38
app_4,9209.38,9294.88,9294.88,9297.88
app_4,9297.88,9377.8,9377.8,9380.8
app_4,9380.8,9455.4,9455.4,9461.8
app_4,9461.8,9542.26,9542.26,9555.36
app_4,9555.36,9635.67,9635.67,9641.67
app_4,9641.67,9716.84,9716.84,9734.24
app_4,9734.24,9824.21,9824.21,9848.41
app_4,9848.41,9936.91,9936.91,9946.61
app_4,9946.61,10035.4,10035.4,10038.4
app_4,10038.4,10115.8,10115.8,10121.8
app_4,10121.8,10205.9,10205.9,10216.7
app_4,10216.7,10294.5,10294.5,10300.7
app_4,10300.7,10388.3,10388.3,10392.2
app_4,10392.2,10482.3,10482.3,10485.3
app_4,10485.3,10570,10570,10573
app_4,10573,10656.1,10656.1,10662.1
app_4,10662.1,10745.7,10745.7,10757.7
app_4,10757.7,10844.9,10844.9,10856.9
app_4,10856.9,10937.3,10937.3,10952.6
app_4,10952.6,11036.9,11036.9,11047.6
app_4,11047.6,11127.3,11127.3,11130.3
app_4,11130.3,11212.7,11212.7,11218.7
app_4,11218.7,11295.9,11295.9,11302.7
app_4,11302.7,11384.3,11384.3,11393.3
app_4,11393.3,11476.2,11476.2,11480.5
app_4,11480.5,11555.2,11555.2,11559.6
app_4,11559.6,11639.9,11639.9,11642.9
app_4,11642.9,11731.4,11731.4,11737.4
app_4,11737.4,11820.8,11820.8,11824.7
app_4,11824.7,11913.5,11913.5,11924.2
app_4,11924.2,11999.8,11999.8,12007.2
app_4,12007.2,12096.4,12096.4,12107.1
app_4,12107.1,12191.1,12191.1,12210.5
app_4,12210.5,12290.6,12290.6,12296.7
app_4,12296.7,12370.9,12370.9,12373.9
app_4,12373.9,12454.8,12454.8,12460.8
app_4,12460.8,12548.3,12548.3,12555.2
app_4,12555.2,12633.7,12633.7,12645.7
app_4,12645.7,12733.4,12733.4,12736.4
app_4,12736.4,12824.7,12824.7,12830.7
app_4,12830.7,12904.8,12904.8,12907.8
app_4,12907.8,12991.5,12991.5,12994.5
app_4,12994.5,13082.5,13082.5,13100.2
app_4,13100.2,13182.6,13182.6,13198.7
app_4,13198.7,13282.7,13282.7,13288.7
app_4,13288.7,13378.1,13378.1,13381.1
app_4,13381.1,13461.4,13461.4,13464.4
app_4,13464.4,13544.3,13544.3,13547.3
app_4,13547.3,13632.4,13632.4,13644.4
app_4,13644.4,13722.8,13722.8,13733.1
app_4,13733.1,13823,13823,13834.9
app_4,13834.9,13914.5,13914.5,13929.4
app_4,13929.4,14018.4,14018.4,14021.4
app_4,14021.4,14110.4,14110.4,14113.4
app_4,14113.4,14198.1,14198.1,14204.1
app_4,14204.1,14293.9,14293.9,14299.9
app_4,14299.9,14383.5,14383.5,14397.4
app_4,14397.4,14476.9,14476.9,14481.3
app_4,14481.3,14568.8,14568.8,14571.8
app_4,14571.8,14648.3,14648.3,14651.3
app_4,14651.3,14732.6,14732.6,14745.5
app_4,14745.5,14828.5,14828.5,14840.5
app_4,14840.5,14917.8,14917.8,14937.2
app_4,14937.2,15021.9,15021.9,15027.9
app_4,15027.9,15109.8,15109.8,15112.8
app_4,15112.8,15198,15198,15204
app_4,15204,15288.2,15288.2,15294.2
app_4,15294.2,15372.2,15372.2,15375.2
app_4,15375.2,15449.4,15449.4,15462.9
app_4,15462.9,15537.1,15537.1,15550.8
app_4,15550.8,15629.1,15629.1,15635.1
app_4,15635.1,15710,15710,15713
app_4,15713,15794.3,15794.3,15800.3
app_4,15800.3,15882.1,15882.1,15886.1
app_4,15886.1,15967.6,15967.6,15973
app_4,15973,16051.5,16051.5,16060.1
app_4,16060.1,16140.2,16140.2,16143.2
app_4,16143.2,16231.8,16231.8,16237.8
app_4,16237.8,16318,16318,16324
app_4,16324,16411.6,16411.6,16421
app_4,16421,16503.4,16503.4,16516.1
app_4,16516.1,16597.3,16597.3,16611.2
app_4,16611.2,16694.6,16694.6,16700.6
app_4,16700.6,16788.8,16788.8,16794.8
app_4,16794.8,16881.8,16881.8,16884.8
app_4,16884.8,16958.9,16958.9,16961.9
app_4,16961.9,17051.1,17051.1,17054.1
app_4,17054.1,17143,17143,17157.4
app_4,17157.4,17246.8,17246.8,17254.8
app_4,17254.8,17342.5,17342.5,17358.1
app_4,17358.1,17432.5,17432.5,17444.5
app_4,17444.5,17532.6,17532.6,17543.4
app_4,17543.4,17627.1,17627.1,17630.1
app_4,17630.1,17716.8,17716.8,17725.8
app_4,17725.8,17815.3,17815.3,17835.7
app_4,17835.7,17913.2,17913.2,17916.2
app_4,17916.2,17993.6,17993.6,17996.6
app_4,17996.6,18073.4,18073.4,18076.4
app_4,18076.4,18163,18163,18175
app_4,18175,18264.4,18264.4,18273.8
app_4,18273.8,18352.1,18352.1,18369.5
app_4,18369.5,18449.2,18449.2,18458.2
app_4,18458.2,18546.1,18546.1,18552.1
app_4,18552.1,18626.2,18626.2,18629.2
app_4,18629.2,18703.2,18703.2,18706.2
app_4,18706.2,18786.6,18786.6,18796.5
app_4,18796.5,18878.4,18878.4,18887.4
app_4,18887.4,18969,18969,18981
app_4,18981,19055.2,19055.2,19061.2
app_4,19061.2,19143.4,19143.4,19149.4
app_4,19149.4,19225.4,19225.4,19231.4
app_4,19231.4,19321,19321,19330.9
app_4,19330.9,19418.9,19418.9,19428.7
app_4,19428.7,19506.8,19506.8,19512.8
app_4,19512.8,19597.9,19597.9,19603.9
app_4,19603.9,19683.1,19683.1,19692.3
app_4,19692.3,19775.1,19775.1,19781.1
app_4,19781.1,19866.7,19866.7,19880.2
app_4,19880.2,19963.8,19963.8,19968.9
app_4,19968.9,20047.4,20047.4,20053.4
app_4,20053.4,20131.4,20131.4,20140.1
app_4,20140.1,20224.9,20224.9,20233.6
app_4,20233.6,20314.4,20314.4,20322.9
app_4,20322.9,20401.7,20401.7,20404.7
app_4,20404.7,20488.4,20488.4,20494.4
app_4,20494.4,20573,20573,20580.8
app_4,20580.8,20670.7,20670.7,20682.7
app_4,20682.7,20766,20766,20774.6
app_4,20774.6,20857.3,20857.3,20872.2
app_4,20872.2,20949.8,20949.8,20952.8
app_5,7.84058,90.9757,90.9757,99.8757
app_5,99.8757,186.671,186.671,195.571
app_5,195.571,276.29,276.29,287.49
app_5,287.49,380.566,380.566,389.466
app_5,389.466,483.25,483.25,492.15
app_5,492.15,577.453,577.453,586.353
app_5,586.353,669.184,669.184,678.084
app_5,678.084,757.259,757.259,766.159
app_5,766.159,854.5,854.5,863.6
app_5,863.6,950.212,950.212,972.512
app_5,972.512,1060.91,1060.91,1085.91
app_5,1085.91,1167.38,1167.38,1176.28
app_5,1176.28,1255.25,1255.25,1273.05
app_5,1273.05,1359.62,1359.62,1382.52
app_5,1382.52,1461.97,1461.97,1480.67
app_5,1480.67,1565.68,1565.68,1577.58
app_5,1577.58,1657.23,1657.23,1681.73
app_5,1681.73,1775.19,1775.19,1813.49
app_5,1813.49,1898.86,1898.86,1921.26
app_5,1921.26,2006.49,2006.49,2015.39
app_5,2015.39,2103.61,2103.61,2114.61
app_5,2114.61,2200.01,2200.01,2208.91
app_5,2208.91,2292.95,2292.95,2312.05
app_5,2312.05,2401.77,2401.77,2419.57
app_5,2419.57,2500.19,2500.19,2509.09
app_5,2509.09,2595.02,2595.02,2612.82
app_5,2612.82,2697.19,2697.19,2723.09
app_5,2723.09,2817.6,2817.6,2848.1
app_5,2848.1,2939.19,2939.19,2965.89
app_5,2965.89,3055.23,3055.23,3064.13
app_5,3064.13,3154.9,3154.9,3163.8
app_5,3163.8,3248.46,3248.46,3258.36
app_5,3258.36,3350.61,3350.61,3359.51
app_5,3359.51,3448.71,3448.71,3471.51
app_5,3471.51,3558.54,3558.54,3576.34
app_5,3576.34,3658.48,3658.48,3696.38
app_5,3696.38,3781.43,3781.43,3800.13
app_5,3800.13,3893.58,3893.58,3915.28
app_5,3915.28,4000.16,4000.16,4019.06
app_5,4019.06,4109.61,4109.61,4155.61
app_5,4155.61,4238.63,4238.63,4249.03
app_5,4249.03,4338.1,4338.1,4349.7
app_5,4349.7,4430.7,4430.7,4439.6
app_5,4439.6,4519.92,4519.92,4541.32
app_5,4541.32,4632.98,4632.98,4658.78
app_5,4658.78,4746.4,4746.4,4760.5
app_5,4760.5,4852.49,4852.49,4877.19
app_5,4877.19,4957.32,4957.32,4976.32
app_5,4976.32,5064.22,5064.22,5073.22
app_5,5073.22,5156.88,5156.88,5169.78
app_5,5169.78,5261.26,5261.26,5287.66
app_5,5287.66,5377.14,5377.14,5392.54
app_5,5392.54,5475.84,5475.84,5498.24
app_5,5498.24,5580.14,5580.14,5589.04
app_5,5589.04,5679.65,5679.65,5708.55
app_5,5708.55,5801.52,5801.52,5829.52
app_5,5829.52,5922.51,5922.51,5935.61
app_5,5935.61,6013.57,6013.57,6048.37
app_5,6048.37,6127.78,6127.78,6157.48
app_5,6157.48,6245.73,6245.73,6272.33
app_5,6272.33,6363.83,6363.83,6385.73
app_5,6385.73,6463.39,6463.39,6486.19
app_5,6486.19,6572.51,6572.51,6587.51
app_5,6587.51,6675.87,6675.87,6692.87
app_5,6692.87,6778.7,6778.7,6815.5
app_5,6815.5,6906.52,6906.52,6930.22
app_5,6930.22,7010.7,7010.7,7044.6
app_5,7044.6,7138.14,7138.14,7153.04
app_5,7153.04,7238.54,7238.54,7270.04
app_5,7270.04,7355.04,7355.04,7378.24
app_5,7378.24,7459.17,7459.17,7468.07
app_5,7468.07,7547.72,7547.72,7574.42
app_5,7574.42,7666.39,7666.39,7680.09
app_5,7680.09,7769.58,7769.58,7788.28
app_5,7788.28,7876.81,7876.81,7905.61
app_5,7905.61,7985.79,7985.79,8027.69
app_5,8027.69,8110.5,8110.5,8126.7
app_5,8126.7,8207.89,8207.89,8218.69
app_5,8218.69,8311.4,8311.4,8322.1
app_5,8322.1,8411.07,8411.07,8432.57
app_5,8432.57,8514.18,8514.18,8530.38
app_5,8530.38,8610.74,8610.74,8634.04
app_5,8634.04,8713.93,8713.93,8743.13
app_5,8743.13,8820.87,8820.87,8855.97
app_5,8855.97,8942.14,8942.14,8961.44
app_5,8961.44,9044.47,9044.47,9062.97
app_5,9062.97,9151.97,9151.97,9171.77
app_5,9171.77,9259.53,9259.53,9270.43
app_5,9270.43,9363.64,9363.64,9372.54
app_5,9372.54,9452.75,9452.75,9469.15
app_5,9469.15,9549.78,9549.78,9583.08
app_5,9583.08,9664.41,9664.41,9713.21
app_5,9713.21,9805.92,9805.92,9870.32
app_5,9870.32,9955.36,9955.36,9988.96
app_5,9988.96,10067.5,10067.5,10092.8
app_5,10092.8,10177.9,10177.9,10209
app_5,10209,10297.7,10297.7,10314.9
app_5,10314.9,10396.9,10396.9,10413.8
app_5,10413.8,10506.7,10506.7,10515.6
app_5,10515.6,10597.3,10597.3,10614.6
app_5,10614.6,10700,10700,10714.3
app_5,10714.3,10797.4,10797.4,10839.2
app_5,10839.2,10917,10917,10959.1
app_5,10959.1,11040.8,11040.8,11065.4
app_5,11065.4,11152.3,11152.3,11161.2
app_5,11161.2,11241,11241,11265.7
app_5,11265.7,11356.3,11356.3,11378.4
app_5,11378.4,11463.3,11463.3,11478.7
app_5,11478.7,11570.1,11570.1,11579.9
app_5,11579.9,11667.3,11667.3,11677.7
app_5,11677.7,11758.3,11758.3,11781
app_5,11781,11858.7,11858.7,11867.6
app_5,11867.6,11950.5,11950.5,11981.1
app_5,11981.1,12072.9,12072.9,12103.3
app_5,12103.3,12190,12190,12242.9
app_5,12242.9,12327.7,12327.7,12336.6
app_5,12336.6,12424.3,12424.3,12435
app_5,12435,12527.5,12527.5,12551
app_5,12551,12631.9,12631.9,12659.2
app_5,12659.2,12752.7,12752.7,12768.4
app_5,12768.4,12859.3,12859.3,12875.9
app_5,12875.9,12954.3,12954.3,12969
app_5,12969,13048.2,13048.2,13092.5
app_5,13092.5,13176.9,13176.9,13220.6
app_5,13220.6,13306.9,13306.9,13346.1
app_5,13346.1,13428.5,13428.5,13437.6
app_5,13437.6,13527,13527,13535.9
app_5,13535.9,13623.6,13623.6,13655.3
app_5,13655.3,13736.5,13736.5,13764.4
app_5,13764.4,13845.2,13845.2,13879.6
app_5,13879.6,13971.3,13971.3,13980.2
app_5,13980.2,14058.1,14058.1,14072.7
app_5,14072.7,14160.9,14160.9,14183.5
app_5,14183.5,14267.6,14267.6,14289.8
app_5,14289.8,14369.8,14369.8,14400.7
app_5,14400.7,14480.5,14480.5,14499.5
app_5,14499.5,14583.2,14583.2,14595.5
app_5,14595.5,14674.1,14674.1,14697.4
app_5,14697.4,14781,14781,14814.5
app_5,14814.5,14893.7,14893.7,14936.9
app_5,14936.9,15020.4,15020.4,15032.3
app_5,15032.3,15117.5,15117.5,15126.4
app_5,15126.4,15209.4,15209.4,15227.2
app_5,15227.2,15318.2,15318.2,15327.4
app_5,15327.4,15412,15412,15420.9
app_5,15420.9,15512.4,15512.4,15549.8
app_5,15549.8,15643.4,15643.4,15665.8
app_5,15665.8,15756.3,15756.3,15765.4
app_5,15765.4,15848.1,15848.1,15864.5
app_5,15864.5,15949.1,15949.1,15964.4
app_5,15964.4,16054.5,16054.5,16088.5
app_5,16088.5,16179.6,16179.6,16190.1
app_5,16190.1,16267.7,16267.7,16297.5
app_5,16297.5,16376.1,16376.1,16408.5
app_5,16408.5,16493.1,16493.1,16513.7
app_5,16513.7,16601.1,16601.1,16642.6
app_5,16642.6,16731.6,16731.6,16748.1
app_5,16748.1,16828.7,16828.7,16844.3
app_5,16844.3,16934.6,16934.6,16951.7
app_5,16951.7,17031.8,17031.8,17049.8
app_5,17049.8,17130,17130,17160.8
app_5,17160.8,17254.7,17254.7,17265
app_5,17265,17343.2,17343.2,17380.6
app_5,17380.6,17461,17461,17496.5
app_5,17496.5,17581.9,17581.9,17590.8
app_5,17590.8,17681.1,17681.1,17694.1
app_5,17694.1,17787.6,17787.6,17836.2
app_5,17836.2,17925.2,17925.2,17943.2
app_5,17943.2,18034.1,18034.1,18049.5
app_5,18049.5,18131.1,18131.1,18140
app_5,18140,18228.5,18228.5,18261.7
app_5,18261.7,18350.4,18350.4,18391.3
app_5,18391.3,18485,18485,18507.5
app_5,18507.5,18587.7,18587.7,18596.6
app_5,18596.6,18685.9,18685.9,18696.8
app_5,18696.8,18789.4,18789.4,18815.6
app_5,18815.6,18897.5,18897.5,18941.9
app_5,18941.9,19023,19023,19048
app_5,19048,19139.2,19139.2,19151.1
app_5,19151.1,19245,19245,19253.9
app_5,19253.9,19341.6,19341.6,19365
app_5,19365,19455.1,19455.1,19479.4
app_5,19479.4,19557.3,19557.3,19574.9
app_5,19574.9,19667.7,19667.7,19693.9
app_5,19693.9,19771.8,19771.8,19783.7
app_5,19783.7,19872.6,19872.6,19910.2
app_5,19910.2,19995,19995,20026.6
app_5,20026.6,20104.3,20104.3,20123.7
app_5,20123.7,20213.5,20213.5,20231.4
app_5,20231.4,20312.9,20312.9,20331.9
app_5,20331.9,20417.2,20417.2,20432.2
app_5,20432.2,20519,20519,20542.8
app_5,20542.8,20622.4,20622.4,20641.6
app_5,20641.6,20725.7,20725.7,20756.6
app_5,20756.6,20849.4,20849.4,20882.6
app_5,20882.6,20976.1,20976.1,20996
app_5,20996,21089.5,21089.5,21128.7
app_5,21128.7,21218,21218,21237.3
app_5,21237.3,21320.5,21320.5,21332
app_5,21332,21420.1,21420.1,21431.1
app_5,21431.1,21513.8,21513.8,21544
app_5,21544,21638.1,21638.1,21664.6
app_5,21664.6,21750.3,21750.3,21794.3
app_5,21794.3,21879.7,21879.7,21909.2
app_5,21909.2,21989.5,21989.5,21998.4
app_5,21998.4,22078.6,22078.6,22097.2
app_5,22097.2,22182.7,22182.7,22204.8
app_5,22204.8,22286.2,22286.2,22296.8
app_5,22296.8,22385.9,22385.9,22394.8
app_5,22394.8,22480.6,22480.6,22489.5
app_5,22489.5,22571.4,22571.4,22580.3
app_6,313.02,1208.7,1208.7,1375
app_6,1375,2269.88,2269.88,2433.18
app_6,2433.18,3451.34,3451.34,3701.04
app_6,3701.04,4547.6,4547.6,4719.3
app_6,4719.3,5597.81,5597.81,5838.81
app_6,5838.81,6771.28,6771.28,6959.78
app_6,6959.78,7830.28,7830.28,8120.08
app_6,8120.08,9043.61,9043.61,9190.21
app_6,9190.21,10059.8,10059.8,10223
app_6,10223,11235,11235,11443.3
app_6,11443.3,12433.6,12433.6,12585
app_6,12585,13576.3,13576.3,13812.1
app_6,13812.1,14698,14698,15004
app_6,15004,15997,15997,16135.4
app_6,16135.4,17078.3,17078.3,17223.1
app_6,17223.1,18159.1,18159.1,18447.7
app_6,18447.7,19377.9,19377.9,19518.2
app_6,19518.2,20471.7,20471.7,20619.3
app_6,20619.3,21601.5,21601.5,21778.8
app_6,21778.8,22689.8,22689.8,22865.9
app_7,589.541,1685.4,1685.4,1691.2
app_7,1691.2,2711.79,2711.79,2719.59
app_7,2719.59,3870.87,3870.87,3877.07
app_7,3877.07,5025.5,5025.5,5028.1
app_7,5028.1,6075.5,6075.5,6086.8
app_7,6086.8,7240.35,7240.35,7251.05
app_7,7251.05,8275.68,8275.68,8280.28
app_7,8280.28,9460.61,9460.61,9467.01
app_7,9467.01,10608.1,10608.1,10613.3
app_7,10613.3,11657.6,11657.6,11660.2
app_7,11660.2,12750.6,12750.6,12757.4
app_7,12757.4,13856.6,13856.6,13867
app_7,13867,14876.7,14876.7,14884.5
app_7,14884.5,16094.4,16094.4,16099.6
app_7,16099.6,17141.2,17141.2,17154.5
app_7,17154.5,18272.1,18272.1,18280.3
app_7,18280.3,19278.5,19278.5,19281.1
app_7,19281.1,20302.9,20302.9,20305.5
app_7,20305.5,21499.2,21499.2,21503.3
app_8,544.143,1408.06,1408.06,1550.86
app_8,1550.86,2524.5,2524.5,2703.6
app_8,2703.6,3590.86,3590.86,3812.96
app_8,3812.96,4834.79,4834.79,4989.39
app_8,4989.39,5959.98,5959.98,6182.68
app_8,6182.68,7201.1,7201.1,7332.7
app_8,7332.7,8344.77,8344.77,8470.87
app_8,8470.87,9489.29,9489.29,9715.59
app_8,9715.59,10703.5,10703.5,11010.6
app_8,11010.6,11914.3,11914.3,12169.7
app_8,12169.7,13073.2,13073.2,13255.1
app_8,13255.1,14164,14164,14305.4
app_8,14305.4,15189.5,15189.5,15318.8
app_8,15318.8,16210.6,16210.6,16339.6
app_8,16339.6,17290,17290,17547.7
app_8,17547.7,18418.2,18418.2,18582.4
app_8,18582.4,19566,19566,19702.2
app_8,19702.2,20617.2,20617.2,20838.3
app_8,20838.3,21710.1,21710.1,21969.3
app_8,21969.3,22866.7,22866.7,22965.3
app_9,804.402,1930.79,1930.79,1950.19
app_9,1950.19,2973.78,2973.78,2981.98
app_9,2981.98,4068.34,4068.34,4093.14
app_9,4093.14,5188.08,5188.08,5217.18
app_9,5217.18,6310.07,6310.07,6318.27
app_9,6318.27,7356.15,7356.15,7378.65
app_9,7378.65,8517.81,8517.81,8535.31
app_9,8535.31,9536.39,9536.39,9565.99
app_9,9565.99,10731.9,10731.9,10761.9
app_9,10761.9,11772.4,11772.4,11791.7
app_9,11791.7,12796.9,12796.9,12813.8
app_9,12813.8,13867.6,13867.6,13896.4
app_9,13896.4,14900.2,14900.2,14943.9
app_9,14943.9,15945.2,15945.2,15957.7
app_9,15957.7,17008.2,17008.2,17018.1
app_9,17018.1,18162.2,18162.2,18191.7
app_9,18191.7,19203.4,19203.4,19218.5
app_9,19218.5,20246.7,20246.7,20263.1
app_9,20263.1,21272.5,21272.5,21280.7
