app_id,start_exec,end_exec,start_io,end_io
app_1,41.8653,135.008,135.008,141.008
app_1,141.008,224.063,224.063,234.163
app_1,234.163,324.577,324.577,330.577
app_1,330.577,415.867,415.867,423.367
app_1,423.367,515.953,515.953,521.953
app_1,521.953,607.018,607.018,613.018
app_1,613.018,713.379,713.379,723.679
app_1,723.679,815.667,815.667,822.767
app_1,822.767,916.774,916.774,922.774
app_1,922.774,1011.82,1011.82,1017.82
app_1,1017.82,1100.93,1100.93,1106.93
app_1,1106.93,1199.94,1199.94,1211.94
app_1,1211.94,1310.36,1310.36,1329.96
app_1,1329.96,1418.57,1418.57,1424.57
app_1,1424.57,1513.89,1513.89,1525.89
app_1,1525.89,1619.06,1619.06,1638.86
app_1,1638.86,1733.6,1733.6,1756.8
app_1,1756.8,1841.77,1841.77,1859.77
app_1,1859.77,1953.9,1953.9,1970.2
app_1,1970.2,2069.22,2069.22,2075.22
app_1,2075.22,2162.9,2162.9,2168.9
app_1,2168.9,2261.31,2261.31,2274.41
app_1,2274.41,2357.76,2357.76,2390.16
app_1,2390.16,2475.66,2475.66,2481.66
app_1,2481.66,2572.26,2572.26,2578.26
app_1,2578.26,2671.85,2671.85,2701.45
app_1,2701.45,2799.58,2799.58,2828.68
app_1,2828.68,2929.63,2929.63,2935.63
app_1,2935.63,3036.67,3036.67,3061.07
app_1,3061.07,3160.06,3160.06,3172.06
app_1,3172.06,3256.88,3256.88,3280.78
app_1,3280.78,3376.49,3376.49,3389.49
app_1,3389.49,3480.86,3480.86,3486.86
app_1,3486.86,3579.88,3579.88,3592.18
app_1,3592.18,3681.39,3681.39,3693.29
app_1,3693.29,3782.51,3782.51,3797.91
app_1,3797.91,3893.72,3893.72,3906.72
app_1,3906.72,4003.53,4003.53,4015.53
app_1,4015.53,4112.43,4112.43,4124.43
app_1,4124.43,4222.18,4222.18,4250.08
app_1,4250.08,4349.84,4349.84,4368.04
app_1,4368.04,4454.93,4454.93,4479.73
app_1,4479.73,4571.5,4571.5,4578
app_1,4578,4675.22,4675.22,4681.22
app_1,4681.22,4774.93,4774.93,4786.93
app_1,4786.93,4880.36,4880.36,4900.26
app_1,4900.26,4987.44,4987.44,5003.14
app_1,5003.14,5093.79,5093.79,5099.79
app_1,5099.79,5183.47,5183.47,5189.47
app_1,5189.47,5278.32,5278.32,5290.32
app_1,5290.32,5377.25,5377.25,5385.75
app_1,5385.75,5469.31,5469.31,5481.31
app_1,5481.31,5580.11,5580.11,5598.21
app_1,5598.21,5687.46,5687.46,5705.46
app_1,5705.46,5793.09,5793.09,5805.09
app_1,5805.09,5898.73,5898.73,5910.73
app_1,5910.73,6005.76,6005.76,6013.56
app_1,6013.56,6103.76,6103.76,6128.86
app_1,6128.86,6227.43,6227.43,6244.13
app_1,6244.13,6344.86,6344.86,6350.86
app_1,6350.86,6446.09,6446.09,6452.09
app_1,6452.09,6539.21,6539.21,6551.21
app_1,6551.21,6644.87,6644.87,6662.87
app_1,6662.87,6761.34,6761.34,6792.64
app_1,6792.64,6880.1,6880.1,6899.2
app_1,6899.2,6990.54,6990.54,7002.54
app_1,7002.54,7098.74,7098.74,7110.74
app_1,7110.74,7193.6,7193.6,7199.6
app_1,7199.6,7285.52,7285.52,7298.42
app_1,7298.42,7394.74,7394.74,7400.74
app_1,7400.74,7487.02,7487.02,7493.02
app_1,7493.02,7579.75,7579.75,7591.75
app_1,7591.75,7689.23,7689.23,7700.43
app_1,7700.43,7785.26,7785.26,7804.26
app_1,7804.26,7897.98,7897.98,7916.78
app_1,7916.78,8014.3,8014.3,8035.8
app_1,8035.8,8135.25,8135.25,8161.75
app_1,8161.75,8252.51,8252.51,8263.91
app_1,8263.91,8354.69,8354.69,8366.59
app_1,8366.59,8466.65,8466.65,8478.65
app_1,8478.65,8575.34,8575.34,8581.34
app_1,8581.34,8677.26,8677.26,8683.26
app_1,8683.26,8780.48,8780.48,8792.68
app_1,8792.68,8875.74,8875.74,8893.74
app_1,8893.74,8989.03,8989.03,9003.23
app_1,9003.23,9088.29,9088.29,9094.29
app_1,9094.29,9183.6,9183.6,9201.6
app_1,9201.6,9294.61,9294.61,9317.91
app_1,9317.91,9408.41,9408.41,9415.91
app_1,9415.91,9502.26,9502.26,9508.26
app_1,9508.26,9606.56,9606.56,9624.56
app_1,9624.56,9712.92,9712.92,9724.92
app_1,9724.92,9813.17,9813.17,9819.17
app_1,9819.17,9911.18,9911.18,9924.58
app_1,9924.58,10008.6,10008.6,10014.6
app_1,10014.6,10101.8,10101.8,10125.7
app_1,10125.7,10220.6,10220.6,10247.7
app_1,10247.7,10338.1,10338.1,10363
app_1,10363,10446.1,10446.1,10459
app_1,10459,10551.6,10551.6,10557.6
app_1,10557.6,10648.5,10648.5,10660.5
app_1,10660.5,10760.2,10760.2,10766.2
app_1,10766.2,10867.4,10867.4,10885.4
app_1,10885.4,10985.7,10985.7,10998.8
app_1,10998.8,11097.3,11097.3,11110.3
app_1,11110.3,11207.5,11207.5,11221.8
app_1,11221.8,11313.8,11313.8,11325.8
app_1,11325.8,11414.4,11414.4,11431.9
app_1,11431.9,11516.4,11516.4,11528.4
app_1,11528.4,11619.3,11619.3,11637.3
app_1,11637.3,11727.2,11727.2,11733.2
app_1,11733.2,11826.8,11826.8,11834.8
app_1,11834.8,11925.9,11925.9,11937.9
app_1,11937.9,12025.2,12025.2,12038.4
app_1,12038.4,12129.4,12129.4,12148.2
app_1,12148.2,12248.7,12248.7,12260.7
app_1,12260.7,12347.5,12347.5,12357.1
app_1,12357.1,12440.1,12440.1,12446.1
app_1,12446.1,12546,12546,12562.7
app_1,12562.7,12646.3,12646.3,12672
app_1,12672,12764.4,12764.4,12796.3
app_1,12796.3,12895.8,12895.8,12916.3
app_1,12916.3,13011.1,13011.1,13017.1
app_1,13017.1,13112.1,13112.1,13126.9
app_1,13126.9,13217.1,13217.1,13223.1
app_1,13223.1,13317.8,13317.8,13323.8
app_1,13323.8,13407.7,13407.7,13419.7
app_1,13419.7,13512.5,13512.5,13518.5
app_1,13518.5,13607.1,13607.1,13619.1
app_1,13619.1,13718.4,13718.4,13731.9
app_1,13731.9,13827.6,13827.6,13853.8
app_1,13853.8,13939.3,13939.3,13955.6
app_1,13955.6,14053,14053,14076.1
app_1,14076.1,14162.3,14162.3,14184.9
app_1,14184.9,14286,14286,14292
app_1,14292,14391.7,14391.7,14397.7
app_1,14397.7,14485.9,14485.9,14491.9
app_1,14491.9,14579.6,14579.6,14601.5
app_1,14601.5,14688.3,14688.3,14706.3
app_1,14706.3,14803.3,14803.3,14809.3
app_1,14809.3,14905.8,14905.8,14940
app_1,14940,15036.8,15036.8,15063.1
app_1,15063.1,15159.4,15159.4,15171.4
app_1,15171.4,15267.4,15267.4,15281.4
app_1,15281.4,15382.4,15382.4,15389.2
app_1,15389.2,15484.5,15484.5,15490.5
app_1,15490.5,15580.5,15580.5,15589.1
app_1,15589.1,15682.7,15682.7,15694.7
app_1,15694.7,15793.7,15793.7,15806.1
app_1,15806.1,15901.3,15901.3,15913.3
app_1,15913.3,16012,16012,16020.4
app_1,16020.4,16120.3,16120.3,16126.3
app_1,16126.3,16225.7,16225.7,16251.1
app_1,16251.1,16341.6,16341.6,16358.7
app_1,16358.7,16454.3,16454.3,16460.3
app_1,16460.3,16558.1,16558.1,16564.1
app_1,16564.1,16655.2,16655.2,16662.3
app_1,16662.3,16748.1,16748.1,16761
app_1,16761,16850.4,16850.4,16859.6
app_1,16859.6,16943.2,16943.2,16970
app_1,16970,17056.3,17056.3,17087.8
app_1,17087.8,17176.7,17176.7,17207.3
app_1,17207.3,17301.5,17301.5,17313.5
app_1,17313.5,17400.1,17400.1,17406.1
app_1,17406.1,17490.4,17490.4,17508.6
app_1,17508.6,17593.1,17593.1,17599.1
app_1,17599.1,17695.6,17695.6,17701.6
app_1,17701.6,17801,17801,17807
app_1,17807,17893.8,17893.8,17905.8
app_1,17905.8,17991,17991,18012.7
app_1,18012.7,18096.3,18096.3,18119.5
app_1,18119.5,18202.7,18202.7,18230.8
app_1,18230.8,18330.6,18330.6,18348.7
app_1,18348.7,18445.9,18445.9,18465.3
app_1,18465.3,18559.5,18559.5,18565.5
app_1,18565.5,18660.5,18660.5,18672.5
app_1,18672.5,18772.9,18772.9,18778.9
app_1,18778.9,18875.5,18875.5,18882
app_1,18882,18973,18973,18993.3
app_1,18993.3,19077.2,19077.2,19090.2
app_1,19090.2,19185.7,19185.7,19213.8
app_1,19213.8,19307.9,19307.9,19319.9
app_1,19319.9,19419.2,19419.2,19431
app_1,19431,19523,19523,19533.5
app_1,19533.5,19623,19623,19629
app_1,19629,19726.6,19726.6,19755.1
app_1,19755.1,19848.2,19848.2,19867.8
app_1,19867.8,19962.2,19962.2,19968.2
app_1,19968.2,20066.2,20066.2,20072.2
app_1,20072.2,20172.9,20172.9,20181.1
app_1,20181.1,20275.9,20275.9,20296.5
app_1,20296.5,20396.4,20396.4,20426.4
app_1,20426.4,20522.1,20522.1,20538.5
app_1,20538.5,20628.2,20628.2,20640.4
app_1,20640.4,20725.8,20725.8,20739.9
app_1,20739.9,20829.8,20829.8,20853.3
app_1,20853.3,20941,20941,20963
app_1,20963,21048.3,21048.3,21054.3
app_1,21054.3,21153.8,21153.8,21164.6
app_1,21164.6,21255.5,21255.5,21261.5
app_1,21261.5,21359,21359,21375.8
app_1,21375.8,21470.6,21470.6,21484.6
app_1,21484.6,21584.4,21584.4,21590.4
app_1,21590.4,21690.9,21690.9,21702.9
app_10,651.836,1646.01,1646.01,1794.11
app_10,1794.11,2632.64,2632.64,2811.84
app_10,2811.84,3748.27,3748.27,3818.57
app_10,3818.57,4813.47,4813.47,4945.47
app_10,4945.47,5823.52,5823.52,5916.72
app_10,5916.72,6867.99,6867.99,6986.59
app_10,6986.59,7820.88,7820.88,7979.38
app_10,7979.38,8958.8,8958.8,9047
app_10,9047,10035.9,10035.9,10252
app_10,10252,11147.5,11147.5,11242.5
app_10,11242.5,12071,12071,12222.5
app_10,12222.5,13097.6,13097.6,13178.3
app_10,13178.3,14157.3,14157.3,14250.1
app_10,14250.1,15224.4,15224.4,15315.2
app_10,15315.2,16162.7,16162.7,16339.9
app_10,16339.9,17293.9,17293.9,17360.8
app_10,17360.8,18273.5,18273.5,18369.4
app_10,18369.4,19357.5,19357.5,19430.8
app_10,19430.8,20296.4,20296.4,20485.5
app_10,20485.5,21472.1,21472.1,21535.4
app_10,21535.4,22371,22371,22483.2
app_11,542.13,1316.73,1316.73,1418.23
app_11,1418.23,2294.42,2294.42,2429.92
app_11,2429.92,3216.89,3216.89,3341.29
app_11,3341.29,4134.04,4134.04,4295.74
app_11,4295.74,5195.94,5195.94,5275.24
app_11,5275.24,6066.03,6066.03,6234.03
app_11,6234.03,7074.35,7074.35,7144.15
app_11,7144.15,8061.89,8061.89,8194.99
app_11,8194.99,9119.26,9119.26,9224.26
app_11,9224.26,10028.2,10028.2,10226.9
app_11,10226.9,11033.2,11033.2,11094
app_11,11094,12006.8,12006.8,12117.4
app_11,12117.4,13044.3,13044.3,13120.5
app_11,13120.5,14000.6,14000.6,14101
app_11,14101,14898.8,14898.8,15090.5
app_11,15090.5,15918.2,15918.2,16016.9
app_11,16016.9,16912.5,16912.5,17181.2
app_11,17181.2,17963.6,17963.6,18082.3
app_11,18082.3,18905.2,18905.2,19010.1
app_11,19010.1,19817.6,19817.6,19952.6
app_11,19952.6,20810.6,20810.6,20964
app_11,20964,21800,21800,21890.4
app_12,335.23,1295.39,1295.39,1396.19
app_12,1396.19,2298.66,2298.66,2427.86
app_12,2427.86,3295.9,3295.9,3404.2
app_12,3404.2,4377.05,4377.05,4526.65
app_12,4526.65,5514.32,5514.32,5630.62
app_12,5630.62,6610.8,6610.8,6719.7
app_12,6719.7,7605.91,7605.91,7698.61
app_12,7698.61,8612.91,8612.91,8675.61
app_12,8675.61,9584.58,9584.58,9700.68
app_12,9700.68,10629.8,10629.8,10685.1
app_12,10685.1,11558.5,11558.5,11668.6
app_12,11668.6,12649.2,12649.2,12870.8
app_12,12870.8,13801.3,13801.3,13917.8
app_12,13917.8,14870.8,14870.8,15064.7
app_12,15064.7,16039.4,16039.4,16113.3
app_12,16113.3,16969.9,16969.9,17226.3
app_12,17226.3,18128,18128,18281
app_12,18281,19132.3,19132.3,19280.2
app_12,19280.2,20187.2,20187.2,20236.2
app_12,20236.2,21155.4,21155.4,21214.7
app_12,21214.7,22201.7,22201.7,22249.6
app_13,970.321,2118.06,2118.06,2155.76
app_13,2155.76,3244.36,3244.36,3360.66
app_13,3360.66,4359.34,4359.34,4492.14
app_13,4492.14,5627.97,5627.97,5713.17
app_13,5713.17,6714.11,6714.11,6844.21
app_13,6844.21,7985.79,7985.79,8087.79
app_13,8087.79,9143.33,9143.33,9230.43
app_13,9230.43,10208.1,10208.1,10349.5
app_13,10349.5,11480.5,11480.5,11530.9
app_13,11530.9,12611,12611,12745
app_13,12745,13748.7,13748.7,13787.5
app_13,13787.5,14905.6,14905.6,15069.9
app_13,15069.9,16217.6,16217.6,16347.1
app_13,16347.1,17414.2,17414.2,17450.5
app_13,17450.5,18414.1,18414.1,18497
app_13,18497,19551.7,19551.7,19595.1
app_13,19595.1,20693.3,20693.3,20735.3
app_13,20735.3,21815.1,21815.1,21887.6
app_13,21887.6,23029.1,23029.1,23065.4
app_14,450.412,1196.01,1196.01,1242.91
app_14,1242.91,1997.23,1997.23,2036.53
app_14,2036.53,2806.77,2806.77,2909.87
app_14,2909.87,3621.23,3621.23,3659.03
app_14,3659.03,4395.06,4395.06,4521.36
app_14,4521.36,5251.62,5251.62,5307.72
app_14,5307.72,6079.65,6079.65,6210.45
app_14,6210.45,6984.72,6984.72,7040.52
app_14,7040.52,7767.36,7767.36,7875.76
app_14,7875.76,8699.05,8699.05,8735.75
app_14,8735.75,9455.52,9455.52,9493.82
app_14,9493.82,10240.1,10240.1,10372.2
app_14,10372.2,11128.9,11128.9,11190.3
app_14,11190.3,11969.7,11969.7,12018.9
app_14,12018.9,12714.8,12714.8,12885
app_14,12885,13658,13658,13739.1
app_14,13739.1,14506.9,14506.9,14579.4
app_14,14579.4,15275.3,15275.3,15338.1
app_14,15338.1,16163,16163,16277.9
app_14,16277.9,17110.3,17110.3,17273.7
app_14,17273.7,18098.6,18098.6,18234.2
app_14,18234.2,18936.6,18936.6,19023.7
app_14,19023.7,19713.1,19713.1,19838.6
app_14,19838.6,20548.8,20548.8,20589.2
app_14,20589.2,21399.5,21399.5,21463.9
app_14,21463.9,22264.7,22264.7,22301.4
app_15,805.419,1723.38,1723.38,1911.68
app_15,1911.68,2943.34,2943.34,3109.94
app_15,3109.94,4186.43,4186.43,4425.73
app_15,4425.73,5509.43,5509.43,5711.53
app_15,5711.53,6720.5,6720.5,6967.9
app_15,6967.9,7965.49,7965.49,8189.69
app_15,8189.69,9285.38,9285.38,9401.28
app_15,9401.28,10369,10369,10478.5
app_15,10478.5,11557.9,11557.9,11718.9
app_15,11718.9,12622,12622,12941.1
app_15,12941.1,14028,14028,14205.2
app_15,14205.2,15107,15107,15224.7
app_15,15224.7,16256.9,16256.9,16424
app_15,16424,17452.6,17452.6,17564.1
app_15,17564.1,18655.1,18655.1,18760
app_15,18760,19709.6,19709.6,19950.8
app_15,19950.8,20859.1,20859.1,21019.6
app_15,21019.6,22047.3,22047.3,22131.5
app_15,22131.5,23103.6,23103.6,23187.8
app_2,110.258,222.969,222.969,232.269
app_2,232.269,354.899,354.899,360.099
app_2,360.099,468.383,468.383,473.583
app_2,473.583,590.489,590.489,595.689
app_2,595.689,715.051,715.051,724.551
app_2,724.551,827.885,827.885,833.085
app_2,833.085,953.078,953.078,958.278
app_2,958.278,1062.51,1062.51,1067.71
app_2,1067.71,1189.54,1189.54,1194.74
app_2,1194.74,1307.68,1307.68,1323.48
app_2,1323.48,1442.85,1442.85,1450.55
app_2,1450.55,1558.48,1558.48,1577.78
app_2,1577.78,1698.37,1698.37,1713.87
app_2,1713.87,1821.82,1821.82,1838.42
app_2,1838.42,1952.22,1952.22,1966.82
app_2,1966.82,2079.24,2079.24,2088.54
app_2,2088.54,2199.26,2199.26,2204.46
app_2,2204.46,2325.87,2325.87,2341.37
app_2,2341.37,2451.73,2451.73,2456.93
app_2,2456.93,2562.32,2562.32,2568.62
app_2,2568.62,2692.15,2692.15,2718.85
app_2,2718.85,2827.64,2827.64,2851.64
app_2,2851.64,2967.17,2967.17,2977.47
app_2,2977.47,3082.61,3082.61,3098.11
app_2,3098.11,3202.83,3202.83,3208.03
app_2,3208.03,3326.69,3326.69,3350.09
app_2,3350.09,3454.93,3454.93,3460.13
app_2,3460.13,3584.18,3584.18,3593.78
app_2,3593.78,3718.47,3718.47,3725.77
app_2,3725.77,3834.49,3834.49,3839.69
app_2,3839.69,3961.34,3961.34,3972.94
app_2,3972.94,4091.09,4091.09,4104.09
app_2,4104.09,4211.72,4211.72,4235.22
app_2,4235.22,4354.38,4354.38,4373.38
app_2,4373.38,4492.65,4492.65,4509.55
app_2,4509.55,4620.94,4620.94,4629.54
app_2,4629.54,4738.44,4738.44,4743.64
app_2,4743.64,4867.81,4867.81,4886.01
app_2,4886.01,4996.38,4996.38,5008.98
app_2,5008.98,5115.93,5115.93,5125.23
app_2,5125.23,5244.63,5244.63,5258.23
app_2,5258.23,5380.76,5380.76,5388.46
app_2,5388.46,5504.82,5504.82,5511.02
app_2,5511.02,5626.05,5626.05,5644.65
app_2,5644.65,5766.53,5766.53,5776.93
app_2,5776.93,5880.82,5880.82,5891.12
app_2,5891.12,6002.35,6002.35,6009.25
app_2,6009.25,6127.11,6127.11,6149.11
app_2,6149.11,6265.46,6265.46,6278.36
app_2,6278.36,6382.09,6382.09,6387.29
app_2,6387.29,6511.68,6511.68,6521.98
app_2,6521.98,6627.79,6627.79,6643.29
app_2,6643.29,6762.62,6762.62,6790.12
app_2,6790.12,6906.78,6906.78,6926.78
app_2,6926.78,7035.37,7035.37,7043.07
app_2,7043.07,7163.16,7163.16,7168.36
app_2,7168.36,7277,7277,7288.2
app_2,7288.2,7405.69,7405.69,7410.89
app_2,7410.89,7533.73,7533.73,7539.73
app_2,7539.73,7644.86,7644.86,7660.36
app_2,7660.36,7764.9,7764.9,7779.2
app_2,7779.2,7882.63,7882.63,7901.53
app_2,7901.53,8004.65,8004.65,8023.25
app_2,8023.25,8146.14,8146.14,8169.94
app_2,8169.94,8276.12,8276.12,8282.22
app_2,8282.22,8391.21,8391.21,8396.41
app_2,8396.41,8510.25,8510.25,8522.05
app_2,8522.05,8633.52,8633.52,8646.42
app_2,8646.42,8767.7,8767.7,8778
app_2,8778,8898.16,8898.16,8914.56
app_2,8914.56,9036.19,9036.19,9046.49
app_2,9046.49,9161.31,9161.31,9180.51
app_2,9180.51,9292.01,9292.01,9312.81
app_2,9312.81,9433.76,9433.76,9438.96
app_2,9438.96,9549.53,9549.53,9554.73
app_2,9554.73,9662.62,9662.62,9679.22
app_2,9679.22,9800.31,9800.31,9805.51
app_2,9805.51,9920.37,9920.37,9932.07
app_2,9932.07,10054.6,10054.6,10079.4
app_2,10079.4,10187.4,10187.4,10208.7
app_2,10208.7,10320,10320,10342.2
app_2,10342.2,10456.1,10456.1,10467.4
app_2,10467.4,10578,10578,10583.2
app_2,10583.2,10698.5,10698.5,10704.1
app_2,10704.1,10807.8,10807.8,10818.1
app_2,10818.1,10923.3,10923.3,10935.5
app_2,10935.5,11049.6,11049.6,11061.4
app_2,11061.4,11173.7,11173.7,11190.3
app_2,11190.3,11294.8,11294.8,11307.1
app_2,11307.1,11419.8,11419.8,11434.2
app_2,11434.2,11544.6,11544.6,11551.3
app_2,11551.3,11675.6,11675.6,11685.9
app_2,11685.9,11797.3,11797.3,11805.3
app_2,11805.3,11910.5,11910.5,11921.7
app_2,11921.7,12034.8,12034.8,12047.8
app_2,12047.8,12167.1,12167.1,12182.6
app_2,12182.6,12297.3,12297.3,12302.5
app_2,12302.5,12416.9,12416.9,12422.1
app_2,12422.1,12545.1,12545.1,12560.1
app_2,12560.1,12665.3,12665.3,12687.6
app_2,12687.6,12793.2,12793.2,12821.3
app_2,12821.3,12935.2,12935.2,12952
app_2,12952,13061.8,13061.8,13072.1
app_2,13072.1,13184.3,13184.3,13189.5
app_2,13189.5,13309.5,13309.5,13314.7
app_2,13314.7,13435.3,13435.3,13447.4
app_2,13447.4,13552.6,13552.6,13557.8
app_2,13557.8,13681.8,13681.8,13697.3
app_2,13697.3,13819.9,13819.9,13840.1
app_2,13840.1,13964.8,13964.8,13970
app_2,13970,14092.8,14092.8,14105.8
app_2,14105.8,14215,14215,14225.3
app_2,14225.3,14340.8,14340.8,14346
app_2,14346,14453.2,14453.2,14458.4
app_2,14458.4,14578.5,14578.5,14599.1
app_2,14599.1,14702,14702,14714.9
app_2,14714.9,14819.4,14819.4,14826.6
app_2,14826.6,14942.4,14942.4,14968.2
app_2,14968.2,15084.4,15084.4,15092.6
app_2,15092.6,15204.6,15204.6,15214.9
app_2,15214.9,15324.7,15324.7,15335
app_2,15335,15451.6,15451.6,15460.2
app_2,15460.2,15583.9,15583.9,15591.7
app_2,15591.7,15709.8,15709.8,15720.1
app_2,15720.1,15827.1,15827.1,15843.9
app_2,15843.9,15951.8,15951.8,15972.4
app_2,15972.4,16081.1,16081.1,16096.9
app_2,16096.9,16207.3,16207.3,16224.5
app_2,16224.5,16348.7,16348.7,16362.4
app_2,16362.4,16484.8,16484.8,16490.7
app_2,16490.7,16601,16601,16606.2
app_2,16606.2,16712.9,16712.9,16718.1
app_2,16718.1,16826.5,16826.5,16839.4
app_2,16839.4,16962.6,16962.6,16992.6
app_2,16992.6,17097.7,17097.7,17129.5
app_2,17129.5,17238.3,17238.3,17258.8
app_2,17258.8,17364,17364,17370.8
app_2,17370.8,17490.8,17490.8,17507.3
app_2,17507.3,17627.1,17627.1,17632.3
app_2,17632.3,17748.2,17748.2,17753.4
app_2,17753.4,17860.7,17860.7,17869.7
app_2,17869.7,17986.7,17986.7,18005.9
app_2,18005.9,18124.2,18124.2,18144.4
app_2,18144.4,18256.2,18256.2,18271.7
app_2,18271.7,18381.8,18381.8,18392.1
app_2,18392.1,18514,18514,18522.1
app_2,18522.1,18626.6,18626.6,18631.8
app_2,18631.8,18738.3,18738.3,18748.6
app_2,18748.6,18870.8,18870.8,18876.5
app_2,18876.5,18994,18994,19009.5
app_2,19009.5,19121.4,19121.4,19138.4
app_2,19138.4,19257,19257,19273.5
app_2,19273.5,19393.3,19393.3,19403.6
app_2,19403.6,19522.3,19522.3,19532
app_2,19532,19635.3,19635.3,19642.8
app_2,19642.8,19752.9,19752.9,19779
app_2,19779,19885.9,19885.9,19902.3
app_2,19902.3,20006.3,20006.3,20011.5
app_2,20011.5,20130,20130,20135.2
app_2,20135.2,20249.3,20249.3,20254.5
app_2,20254.5,20377.1,20377.1,20401.1
app_2,20401.1,20509.4,20509.4,20523.1
app_2,20523.1,20626.6,20626.6,20638.7
app_2,20638.7,20753.3,20753.3,20762.6
app_2,20762.6,20872.6,20872.6,20893.2
app_2,20893.2,21003.9,21003.9,21014.2
app_2,21014.2,21137,21137,21142.2
app_3,7.69992,96.7862,96.7862,103.986
app_3,103.986,189.43,189.43,196.63
app_3,196.63,291.318,291.318,298.518
app_3,298.518,379.214,379.214,386.414
app_3,386.414,478.389,478.389,485.589
app_3,485.589,568.44,568.44,575.64
app_3,575.64,657.482,657.482,664.682
app_3,664.682,748.895,748.895,756.095
app_3,756.095,842.906,842.906,850.106
app_3,850.106,945.123,945.123,952.323
app_3,952.323,1042.32,1042.32,1049.52
app_3,1049.52,1134.29,1134.29,1141.49
app_3,1141.49,1234.39,1234.39,1245.79
app_3,1245.79,1342.47,1342.47,1364.37
app_3,1364.37,1448.14,1448.14,1456.44
app_3,1456.44,1548.58,1548.58,1573.78
app_3,1573.78,1657.82,1657.82,1679.22
app_3,1679.22,1773.68,1773.68,1794.78
app_3,1794.78,1875.58,1875.58,1898.48
app_3,1898.48,1988.09,1988.09,1995.29
app_3,1995.29,2080.33,2080.33,2091.53
app_3,2091.53,2172.85,2172.85,2180.05
app_3,2180.05,2261.67,2261.67,2275.87
app_3,2275.87,2356.78,2356.78,2393.78
app_3,2393.78,2482.85,2482.85,2490.05
app_3,2490.05,2581.66,2581.66,2588.86
app_3,2588.86,2679.09,2679.09,2716.29
app_3,2716.29,2806.65,2806.65,2843.35
app_3,2843.35,2939.07,2939.07,2949.07
app_3,2949.07,3038.5,3038.5,3066.3
app_3,3066.3,3159.85,3159.85,3172.95
app_3,3172.95,3256.71,3256.71,3284.11
app_3,3284.11,3364.25,3364.25,3379.55
app_3,3379.55,3470.47,3470.47,3478.77
app_3,3478.77,3575.19,3575.19,3585.09
app_3,3585.09,3681.46,3681.46,3694.56
app_3,3694.56,3774.99,3774.99,3792.59
app_3,3792.59,3874.61,3874.61,3888.91
app_3,3888.91,3977.86,3977.86,3992.16
app_3,3992.16,4084.39,4084.39,4097.09
app_3,4097.09,4176.39,4176.39,4202.59
app_3,4202.59,4295.06,4295.06,4320.06
app_3,4320.06,4408.43,4408.43,4440.43
app_3,4440.43,4528.81,4528.81,4536.01
app_3,4536.01,4615.81,4615.81,4625.01
app_3,4625.01,4708.22,4708.22,4715.42
app_3,4715.42,4800.89,4800.89,4815.99
app_3,4815.99,4907.01,4907.01,4928.41
app_3,4928.41,5013.37,5013.37,5027.67
app_3,5027.67,5121.05,5121.05,5130.75
app_3,5130.75,5220.3,5220.3,5234.6
app_3,5234.6,5314.23,5314.23,5323.03
app_3,5323.03,5414.11,5414.11,5428.41
app_3,5428.41,5509.64,5509.64,5529.34
app_3,5529.34,5610.95,5610.95,5636.95
app_3,5636.95,5731.91,5731.91,5745.71
app_3,5745.71,5836.48,5836.48,5858.98
app_3,5858.98,5946.02,5946.02,5954.22
app_3,5954.22,6049.8,6049.8,6062.5
app_3,6062.5,6154.63,6154.63,6183.13
app_3,6183.13,6270.56,6270.56,6287.46
app_3,6287.46,6372.5,6372.5,6379.7
app_3,6379.7,6471.91,6471.91,6480.91
app_3,6480.91,6574.14,6574.14,6586.24
app_3,6586.24,6667.17,6667.17,6688.57
app_3,6688.57,6779.84,6779.84,6812.24
app_3,6812.24,6894.56,6894.56,6921.56
app_3,6921.56,7004.12,7004.12,7020.92
app_3,7020.92,7116.66,7116.66,7131.16
app_3,7131.16,7214.09,7214.09,7222.09
app_3,7222.09,7313.67,7313.67,7328.97
app_3,7328.97,7419.71,7419.71,7426.91
app_3,7426.91,7511.94,7511.94,7519.14
app_3,7519.14,7604.36,7604.36,7626.46
app_3,7626.46,7712.98,7712.98,7720.18
app_3,7720.18,7811.37,7811.37,7836.77
app_3,7836.77,7920.79,7920.79,7942.19
app_3,7942.19,8035.23,8035.23,8056.73
app_3,8056.73,8141.94,8141.94,8174.24
app_3,8174.24,8254.17,8254.17,8266.67
app_3,8266.67,8352.4,8352.4,8365.5
app_3,8365.5,8446.03,8446.03,8461.03
app_3,8461.03,8551.92,8551.92,8559.12
app_3,8559.12,8647.65,8647.65,8661.95
app_3,8661.95,8755.03,8755.03,8763.43
app_3,8763.43,8845.37,8845.37,8866.77
app_3,8866.77,8946.01,8946.01,8965.41
app_3,8965.41,9056.68,9056.68,9063.88
app_3,9063.88,9146.61,9146.61,9171.71
app_3,9171.71,9253.69,9253.69,9260.89
app_3,9260.89,9350.2,9350.2,9364.5
app_3,9364.5,9448.91,9448.91,9456.61
app_3,9456.61,9542.38,9542.38,9549.58
app_3,9549.58,9629.7,9629.7,9652.3
app_3,9652.3,9738.81,9738.81,9753.11
app_3,9753.11,9832.82,9832.82,9847.62
app_3,9847.62,9940.52,9940.52,9949.02
app_3,9949.02,10041.9,10041.9,10075.7
app_3,10075.7,10160.5,10160.5,10190.3
app_3,10190.3,10284,10284,10314
app_3,10314,10408.5,10408.5,10424.3
app_3,10424.3,10513.8,10513.8,10521
app_3,10521,10602,10602,10609.2
app_3,10609.2,10691.8,10691.8,10699.4
app_3,10699.4,10791.8,10791.8,10807
app_3,10807,10892.4,10892.4,10913.8
app_3,10913.8,10995.4,10995.4,11008.2
app_3,11008.2,11096.8,11096.8,11111
app_3,11111,11195.7,11195.7,11211.9
app_3,11211.9,11295.4,11295.4,11309.6
app_3,11309.6,11396.3,11396.3,11410.7
app_3,11410.7,11498.1,11498.1,11512.4
app_3,11512.4,11592.4,11592.4,11613.8
app_3,11613.8,11696.5,11696.5,11710.8
app_3,11710.8,11793,11793,11803
app_3,11803,11896.3,11896.3,11912.6
app_3,11912.6,11995.3,11995.3,12010.9
app_3,12010.9,12097.9,12097.9,12124.2
app_3,12124.2,12208.3,12208.3,12227.3
app_3,12227.3,12309.6,12309.6,12316.8
app_3,12316.8,12396.9,12396.9,12404.1
app_3,12404.1,12490.2,12490.2,12497.4
app_3,12497.4,12593.4,12593.4,12607.7
app_3,12607.7,12690.1,12690.1,12720.3
app_3,12720.3,12813.8,12813.8,12851.6
app_3,12851.6,12936,12936,12956.4
app_3,12956.4,13040.1,13040.1,13050.2
app_3,13050.2,13132.1,13132.1,13146.4
app_3,13146.4,13241,13241,13250.8
app_3,13250.8,13333.4,13333.4,13340.6
app_3,13340.6,13424.6,13424.6,13440.7
app_3,13440.7,13526.6,13526.6,13533.8
app_3,13533.8,13626.3,13626.3,13640.6
app_3,13640.6,13730.1,13730.1,13742.1
app_3,13742.1,13829.5,13829.5,13859.6
app_3,13859.6,13945.8,13945.8,13962.9
app_3,13962.9,14055.4,14055.4,14082
app_3,14082,14166.2,14166.2,14192.3
app_3,14192.3,14272.7,14272.7,14279.9
app_3,14279.9,14372.5,14372.5,14380.5
app_3,14380.5,14470.5,14470.5,14477.7
app_3,14477.7,14573.2,14573.2,14599.7
app_3,14599.7,14683.3,14683.3,14702.3
app_3,14702.3,14792.4,14792.4,14800.6
app_3,14800.6,14894.8,14894.8,14931.7
app_3,14931.7,15012.7,15012.7,15048.4
app_3,15048.4,15133.5,15133.5,15154.1
app_3,15154.1,15242.2,15242.2,15258
app_3,15258,15351.6,15351.6,15358.8
app_3,15358.8,15453.3,15453.3,15463.9
app_3,15463.9,15552.3,15552.3,15559.5
app_3,15559.5,15643.6,15643.6,15657.9
app_3,15657.9,15740,15740,15758.3
app_3,15758.3,15838.6,15838.6,15862.8
app_3,15862.8,15948.8,15948.8,15975.4
app_3,15975.4,16056.5,16056.5,16070.8
app_3,16070.8,16161.1,16161.1,16179.1
app_3,16179.1,16260.2,16260.2,16293.2
app_3,16293.2,16377.8,16377.8,16393.1
app_3,16393.1,16475.9,16475.9,16486.3
app_3,16486.3,16580.1,16580.1,16587.3
app_3,16587.3,16679.6,16679.6,16686.8
app_3,16686.8,16779,16779,16793.3
app_3,16793.3,16878.3,16878.3,16886.6
app_3,16886.6,16971.9,16971.9,17015.8
app_3,17015.8,17112,17112,17158.2
app_3,17158.2,17250.1,17250.1,17272.3
app_3,17272.3,17355.5,17355.5,17367.2
app_3,17367.2,17456.4,17456.4,17470.7
app_3,17470.7,17551,17551,17564.8
app_3,17564.8,17656.2,17656.2,17663.4
app_3,17663.4,17757,17757,17764.2
app_3,17764.2,17856.3,17856.3,17867.3
app_3,17867.3,17956.1,17956.1,17975.4
app_3,17975.4,18070.7,18070.7,18092.2
app_3,18092.2,18185,18185,18217.7
app_3,18217.7,18299.9,18299.9,18314.2
app_3,18314.2,18403.6,18403.6,18419.8
app_3,18419.8,18516.2,18516.2,18526.6
app_3,18526.6,18607.8,18607.8,18616
app_3,18616,18701,18701,18717.8
app_3,18717.8,18811.7,18811.7,18818.9
app_3,18818.9,18911.1,18911.1,18925.4
app_3,18925.4,19009.7,19009.7,19023.9
app_3,19023.9,19118.7,19118.7,19140.3
app_3,19140.3,19236.2,19236.2,19259.1
app_3,19259.1,19354.1,19354.1,19366.9
app_3,19366.9,19457.9,19457.9,19465.1
app_3,19465.1,19555.5,19555.5,19569.8
app_3,19569.8,19649.3,19649.3,19663.6
app_3,19663.6,19745.7,19745.7,19781.4
app_3,19781.4,19867.1,19867.1,19889.6
app_3,19889.6,19984.2,19984.2,19991.4
app_3,19991.4,20078.8,20078.8,20086
app_3,20086,20176.7,20176.7,20186
app_3,20186,20271.9,20271.9,20293.9
app_3,20293.9,20387.3,20387.3,20423.7
app_3,20423.7,20513.4,20513.4,20535
app_3,20535,20622.1,20622.1,20633.6
app_3,20633.6,20729,20729,20742.7
app_3,20742.7,20830.9,20830.9,20857.9
app_3,20857.9,20946.8,20946.8,20969.5
app_3,20969.5,21060.6,21060.6,21067.8
app_3,21067.8,21163.2,21163.2,21177.9
app_3,21177.9,21263.8,21263.8,21271
app_3,21271,21361.4,21361.4,21380.5
app_3,21380.5,21466.3,21466.3,21478.3
app_3,21478.3,21561.5,21561.5,21568.7
app_3,21568.7,21664.1,21664.1,21678.4
app_3,21678.4,21761.7,21761.7,21768.9
app_4,85.5579,178.714,178.714,179.814
app_4,179.814,271.618,271.618,272.718
app_4,272.718,366.284,366.284,367.384
app_4,367.384,455.909,455.909,457.009
app_4,457.009,540.427,540.427,541.527
app_4,541.527,634.74,634.74,635.84
app_4,635.84,726.729,726.729,727.829
app_4,727.829,818.174,818.174,820.374
app_4,820.374,905.224,905.224,906.324
app_4,906.324,992.895,992.895,993.995
app_4,993.995,1083.6,1083.6,1084.7
app_4,1084.7,1169.72,1169.72,1170.82
app_4,1170.82,1262.52,1262.52,1263.62
app_4,1263.62,1362.26,1362.26,1365.96
app_4,1365.96,1457.48,1457.48,1458.58
app_4,1458.58,1541.88,1541.88,1545.08
app_4,1545.08,1630.79,1630.79,1635.69
app_4,1635.69,1728.56,1728.56,1732.86
app_4,1732.86,1823.87,1823.87,1828.17
app_4,1828.17,1912.23,1912.23,1914.43
app_4,1914.43,2008.23,2008.23,2010.63
app_4,2010.63,2105.33,2105.33,2106.43
app_4,2106.43,2195.06,2195.06,2196.16
app_4,2196.16,2288.27,2288.27,2289.37
app_4,2289.37,2375.21,2375.21,2382.11
app_4,2382.11,2466.21,2466.21,2467.31
app_4,2467.31,2562.46,2562.46,2564.66
app_4,2564.66,2653.24,2653.24,2656.44
app_4,2656.44,2749.68,2749.68,2754.98
app_4,2754.98,2851.17,2851.17,2855.37
app_4,2855.37,2955.7,2955.7,2957.9
app_4,2957.9,3054.83,3054.83,3060.13
app_4,3060.13,3150.83,3150.83,3151.93
app_4,3151.93,3238.85,3238.85,3241.05
app_4,3241.05,3332.59,3332.59,3338.99
app_4,3338.99,3437.15,3437.15,3438.25
app_4,3438.25,3539.32,3539.32,3540.42
app_4,3540.42,3633.62,3633.62,3635.82
app_4,3635.82,3721.62,3721.62,3723.92
app_4,3723.92,3815.23,3815.23,3817.43
app_4,3817.43,3903.21,3903.21,3906.41
app_4,3906.41,3996.23,3996.23,3998.43
app_4,3998.43,4090.73,4090.73,4094.93
app_4,4094.93,4187.9,4187.9,4193.2
app_4,4193.2,4284.1,4284.1,4288.4
app_4,4288.4,4374.83,4374.83,4378.33
app_4,4378.33,4475.23,4475.23,4480.43
app_4,4480.43,4570.91,4570.91,4572.51
app_4,4572.51,4667.05,4667.05,4668.15
app_4,4668.15,4760.71,4760.71,4761.81
app_4,4761.81,4845.8,4845.8,4849
app_4,4849,4946.6,4946.6,4947.7
app_4,4947.7,5031.12,5031.12,5033.32
app_4,5033.32,5120.94,5120.94,5124.14
app_4,5124.14,5213.04,5213.04,5215.24
app_4,5215.24,5307.37,5307.37,5308.67
app_4,5308.67,5401.36,5401.36,5403.56
app_4,5403.56,5491.9,5491.9,5493
app_4,5493,5577.44,5577.44,5580.84
app_4,5580.84,5664.48,5664.48,5667.68
app_4,5667.68,5764.48,5764.48,5766.68
app_4,5766.68,5854.68,5854.68,5858.98
app_4,5858.98,5951.4,5951.4,5953.6
app_4,5953.6,6038.92,6038.92,6040.02
app_4,6040.02,6140.86,6140.86,6146.16
app_4,6146.16,6237.86,6237.86,6241.76
app_4,6241.76,6337.49,6337.49,6339.69
app_4,6339.69,6430.56,6430.56,6431.66
app_4,6431.66,6522.48,6522.48,6524.68
app_4,6524.68,6621.23,6621.23,6623.93
app_4,6623.93,6722,6722,6726.3
app_4,6726.3,6812.23,6812.23,6816.53
app_4,6816.53,6914.78,6914.78,6920.08
app_4,6920.08,7013.42,7013.42,7016.82
app_4,7016.82,7111.38,7111.38,7113.58
app_4,7113.58,7213.83,7213.83,7215.73
app_4,7215.73,7313.64,7313.64,7316.84
app_4,7316.84,7411.48,7411.48,7412.58
app_4,7412.58,7505.9,7505.9,7507
app_4,7507,7602.15,7602.15,7604.35
app_4,7604.35,7699.32,7699.32,7700.92
app_4,7700.92,7795.13,7795.13,7799.43
app_4,7799.43,7884.96,7884.96,7890.26
app_4,7890.26,7981.92,7981.92,7985.12
app_4,7985.12,8068.58,8068.58,8072.88
app_4,8072.88,8170.41,8170.41,8174.61
app_4,8174.61,8259.25,8259.25,8262.45
app_4,8262.45,8358.05,8358.05,8361.25
app_4,8361.25,8445.25,8445.25,8448.05
app_4,8448.05,8540,8540,8541.1
app_4,8541.1,8641.26,8641.26,8645.56
app_4,8645.56,8742.59,8742.59,8743.69
app_4,8743.69,8835.48,8835.48,8838.68
app_4,8838.68,8928.52,8928.52,8931.72
app_4,8931.72,9024.5,9024.5,9026.7
app_4,9026.7,9117.4,9117.4,9118.5
app_4,9118.5,9209.42,9209.42,9212.62
app_4,9212.62,9303.78,9303.78,9309.08
app_4,9309.08,9398.05,9398.05,9400.25
app_4,9400.25,9485.89,9485.89,9488.09
app_4,9488.09,9572.71,9572.71,9573.81
app_4,9573.81,9665.36,9665.36,9669.66
app_4,9669.66,9755.99,9755.99,9758.19
app_4,9758.19,9844.27,9844.27,9847.47
app_4,9847.47,9945.31,9945.31,9947.51
app_4,9947.51,10043,10043,10048.3
app_4,10048.3,10141.1,10141.1,10145.4
app_4,10145.4,10244.6,10244.6,10250.4
app_4,10250.4,10342.6,10342.6,10349
app_4,10349,10438.9,10438.9,10441.1
app_4,10441.1,10540.4,10540.4,10541.5
app_4,10541.5,10628,10628,10629.1
app_4,10629.1,10722.4,10722.4,10723.5
app_4,10723.5,10820.6,10820.6,10822.8
app_4,10822.8,10922.2,10922.2,10925.8
app_4,10925.8,11012.7,11012.7,11013.8
app_4,11013.8,11106.8,11106.8,11110
app_4,11110,11209,11209,11212.9
app_4,11212.9,11300,11300,11304.3
app_4,11304.3,11394.4,11394.4,11396.7
app_4,11396.7,11487.9,11487.9,11490.1
app_4,11490.1,11584.8,11584.8,11588
app_4,11588,11671.2,11671.2,11673.4
app_4,11673.4,11770.8,11770.8,11771.9
app_4,11771.9,11866.7,11866.7,11868.9
app_4,11868.9,11956.3,11956.3,11957.4
app_4,11957.4,12056.8,12056.8,12059
app_4,12059,12144.8,12144.8,12148.9
app_4,12148.9,12245.4,12245.4,12247.6
app_4,12247.6,12343.7,12343.7,12345.9
app_4,12345.9,12437.7,12437.7,12438.8
app_4,12438.8,12532.1,12532.1,12534.3
app_4,12534.3,12622,12622,12626.3
app_4,12626.3,12723.4,12723.4,12729.8
app_4,12729.8,12816.5,12816.5,12823.6
app_4,12823.6,12909.7,12909.7,12914.1
app_4,12914.1,13002.8,13002.8,13003.9
app_4,13003.9,13089.4,13089.4,13091.6
app_4,13091.6,13190.2,13190.2,13191.3
app_4,13191.3,13274.8,13274.8,13275.9
app_4,13275.9,13374.5,13374.5,13376.7
app_4,13376.7,13473.3,13473.3,13474.4
app_4,13474.4,13574.9,13574.9,13576
app_4,13576,13662.9,13662.9,13666.1
app_4,13666.1,13766.7,13766.7,13768.9
app_4,13768.9,13852.8,13852.8,13857.3
app_4,13857.3,13942.4,13942.4,13945.6
app_4,13945.6,14037.1,14037.1,14040.3
app_4,14040.3,14139.5,14139.5,14142.7
app_4,14142.7,14231.7,14231.7,14233.9
app_4,14233.9,14330.3,14330.3,14331.4
app_4,14331.4,14420.1,14420.1,14421.2
app_4,14421.2,14517.5,14517.5,14520.7
app_4,14520.7,14612.7,14612.7,14615.9
app_4,14615.9,14707.3,14707.3,14710.5
app_4,14710.5,14798.2,14798.2,14800.4
app_4,14800.4,14898.8,14898.8,14904.1
app_4,14904.1,14990.1,14990.1,14995.4
app_4,14995.4,15078.7,15078.7,15080.9
app_4,15080.9,15172.9,15172.9,15175.1
app_4,15175.1,15264.4,15264.4,15266.6
app_4,15266.6,15359.4,15359.4,15360.5
app_4,15360.5,15446.6,15446.6,15447.7
app_4,15447.7,15542.5,15542.5,15543.6
app_4,15543.6,15638.6,15638.6,15640.8
app_4,15640.8,15725.8,15725.8,15730.1
app_4,15730.1,15813.3,15813.3,15816.5
app_4,15816.5,15913.8,15913.8,15916
app_4,15916,16002.7,16002.7,16004.9
app_4,16004.9,16095.7,16095.7,16099.2
app_4,16099.2,16185.6,16185.6,16188.8
app_4,16188.8,16274.7,16274.7,16280.6
app_4,16280.6,16380.9,16380.9,16384.1
app_4,16384.1,16481.6,16481.6,16484.3
app_4,16484.3,16571.7,16571.7,16572.8
app_4,16572.8,16658.8,16658.8,16661
app_4,16661,16747.9,16747.9,16751
app_4,16751,16834.8,16834.8,16838.4
app_4,16838.4,16921.7,16921.7,16926
app_4,16926,17013.2,17013.2,17020
app_4,17020,17117.1,17117.1,17125.6
app_4,17125.6,17223.4,17223.4,17228.8
app_4,17228.8,17321,17321,17323.2
app_4,17323.2,17410.6,17410.6,17411.7
app_4,17411.7,17503.2,17503.2,17507.5
app_4,17507.5,17600.7,17600.7,17601.8
app_4,17601.8,17686.5,17686.5,17687.6
app_4,17687.6,17773,17773,17774.1
app_4,17774.1,17862.7,17862.7,17865.9
app_4,17865.9,17959.8,17959.8,17963
app_4,17963,18050.3,18050.3,18053.5
app_4,18053.5,18149.2,18149.2,18153.5
app_4,18153.5,18242.7,18242.7,18245.9
app_4,18245.9,18335.8,18335.8,18339.5
app_4,18339.5,18430.9,18430.9,18434.1
app_4,18434.1,18525.9,18525.9,18527.4
app_4,18527.4,18613.5,18613.5,18615.7
app_4,18615.7,18706.9,18706.9,18710.3
app_4,18710.3,18800.1,18800.1,18801.2
app_4,18801.2,18899.6,18899.6,18900.7
app_4,18900.7,18984.3,18984.3,18988.6
app_4,18988.6,19081.5,19081.5,19084.7
app_4,19084.7,19176.3,19176.3,19181.6
app_4,19181.6,19271.4,19271.4,19275.2
app_4,19275.2,19360.6,19360.6,19363.8
app_4,19363.8,19456.8,19456.8,19457.9
app_4,19457.9,19549.2,19549.2,19550.3
app_4,19550.3,19644.8,19644.8,19647
app_4,19647,19741.9,19741.9,19747.5
app_4,19747.5,19834.5,19834.5,19838.7
app_4,19838.7,19937.7,19937.7,19940.9
app_4,19940.9,20032.4,20032.4,20033.5
app_4,20033.5,20122,20122,20123.1
app_4,20123.1,20223.7,20223.7,20225.9
app_4,20225.9,20317.2,20317.2,20321.5
app_5,44.9734,175.418,175.418,176.918
app_5,176.918,301.389,301.389,302.889
app_5,302.889,420.006,420.006,423.006
app_5,423.006,538.483,538.483,539.983
app_5,539.983,651.902,651.902,653.402
app_5,653.402,776.178,776.178,777.678
app_5,777.678,894.803,894.803,896.303
app_5,896.303,1020.02,1020.02,1021.52
app_5,1021.52,1129.83,1129.83,1131.33
app_5,1131.33,1254.11,1254.11,1255.61
app_5,1255.61,1369.12,1369.12,1373.62
app_5,1373.62,1505.15,1505.15,1508.15
app_5,1508.15,1632.57,1632.57,1638.57
app_5,1638.57,1766.42,1766.42,1770.92
app_5,1770.92,1884.07,1884.07,1889.97
app_5,1889.97,2005.84,2005.84,2009.14
app_5,2009.14,2138.51,2138.51,2141.51
app_5,2141.51,2264.13,2264.13,2268.63
app_5,2268.63,2378.55,2378.55,2387.95
app_5,2387.95,2508.72,2508.72,2510.22
app_5,2510.22,2622.92,2622.92,2625.92
app_5,2625.92,2749.18,2749.18,2756.18
app_5,2756.18,2876.25,2876.25,2880.75
app_5,2880.75,2990.67,2990.67,2995.17
app_5,2995.17,3105.83,3105.83,3110.13
app_5,3110.13,3226.82,3226.82,3229.82
app_5,3229.82,3355.09,3355.09,3359.59
app_5,3359.59,3476.44,3476.44,3479.14
app_5,3479.14,3593.09,3593.09,3594.99
app_5,3594.99,3723.51,3723.51,3726.21
app_5,3726.21,3855.4,3855.4,3858.4
app_5,3858.4,3973.67,3973.67,3976.67
app_5,3976.67,4104.86,4104.86,4107.86
app_5,4107.86,4233.01,4233.01,4240.81
app_5,4240.81,4365.76,4365.76,4372.16
app_5,4372.16,4503.89,4503.89,4509.79
app_5,4509.79,4626.61,4626.61,4629.61
app_5,4629.61,4751.06,4751.06,4752.56
app_5,4752.56,4877.35,4877.35,4884.05
app_5,4884.05,4992.09,4992.09,4996.59
app_5,4996.59,5117.96,5117.96,5120.96
app_5,5120.96,5250.7,5250.7,5256.3
app_5,5256.3,5369.81,5369.81,5371.31
app_5,5371.31,5501.65,5501.65,5503.15
app_5,5503.15,5620.41,5620.41,5626.41
app_5,5626.41,5746.02,5746.02,5749.02
app_5,5749.02,5861.49,5861.49,5865.89
app_5,5865.89,5982.18,5982.18,5983.68
app_5,5983.68,6101.14,6101.14,6107.94
app_5,6107.94,6235.41,6235.41,6240.51
app_5,6240.51,6365.8,6365.8,6367.3
app_5,6367.3,6492.8,6492.8,6495.8
app_5,6495.8,6615.99,6615.99,6618.99
app_5,6618.99,6742.88,6742.88,6748.78
app_5,6748.78,6873.99,6873.99,6878.99
app_5,6878.99,7009.52,7009.52,7014.12
app_5,7014.12,7130.39,7130.39,7133.59
app_5,7133.59,7255.14,7255.14,7258.14
app_5,7258.14,7382.02,7382.02,7383.52
app_5,7383.52,7509.85,7509.85,7511.35
app_5,7511.35,7619.77,7619.77,7625.67
app_5,7625.67,7753.75,7753.75,7755.25
app_5,7755.25,7884.01,7884.01,7891.01
app_5,7891.01,8017.48,8017.48,8024.58
app_5,8024.58,8139.58,8139.58,8146.48
app_5,8146.48,8268.68,8268.68,8270.18
app_5,8270.18,8399.02,8399.02,8400.52
app_5,8400.52,8511.58,8511.58,8516.08
app_5,8516.08,8640.65,8640.65,8646.15
app_5,8646.15,8761.4,8761.4,8764.9
app_5,8764.9,8896.58,8896.58,8901.98
app_5,8901.98,9030.31,9030.31,9033.31
app_5,9033.31,9162.97,9162.97,9170.37
app_5,9170.37,9283.89,9283.89,9287.59
app_5,9287.59,9412.16,9412.16,9415.16
app_5,9415.16,9537.35,9537.35,9538.85
app_5,9538.85,9647.61,9647.61,9653.21
app_5,9653.21,9769.46,9769.46,9770.96
app_5,9770.96,9902.02,9902.02,9905.02
app_5,9905.02,10028,10028,10031
app_5,10031,10157.5,10157.5,10164.2
app_5,10164.2,10292.7,10292.7,10300.1
app_5,10300.1,10410.7,10410.7,10415.2
app_5,10415.2,10544.1,10544.1,10545.6
app_5,10545.6,10670.1,10670.1,10673.1
app_5,10673.1,10790.6,10790.6,10794.5
app_5,10794.5,10922.6,10922.6,10927.7
app_5,10927.7,11052.5,11052.5,11057
app_5,11057,11172.7,11172.7,11178.3
app_5,11178.3,11299.3,11299.3,11304.8
app_5,11304.8,11414.9,11414.9,11419.4
app_5,11419.4,11547,11547,11550
app_5,11550,11667.9,11667.9,11671.1
app_5,11671.1,11784.5,11784.5,11786
app_5,11786,11907.1,11907.1,11911.9
app_5,11911.9,12039.5,12039.5,12044
app_5,12044,12160.2,12160.2,12164.7
app_5,12164.7,12274.7,12274.7,12276.2
app_5,12276.2,12406.9,12406.9,12408.4
app_5,12408.4,12526.2,12526.2,12529.2
app_5,12529.2,12660.2,12660.2,12668
app_5,12668,12776.2,12776.2,12785.1
app_5,12785.1,12904.4,12904.4,12910.5
app_5,12910.5,13028.7,13028.7,13030.2
app_5,13030.2,13159.7,13159.7,13162.7
app_5,13162.7,13283.6,13283.6,13285.1
app_5,13285.1,13404.4,13404.4,13407.4
app_5,13407.4,13525,13525,13526.5
app_5,13526.5,13647.1,13647.1,13650.1
app_5,13650.1,13771.9,13771.9,13774.9
app_5,13774.9,13886.4,13886.4,13890.9
app_5,13890.9,14000.4,14000.4,14003.2
app_5,14003.2,14119.9,14119.9,14124.4
app_5,14124.4,14254.8,14254.8,14256.3
app_5,14256.3,14378.8,14378.8,14381.1
app_5,14381.1,14493.5,14493.5,14495
app_5,14495,14612.7,14612.7,14616.8
app_5,14616.8,14743.3,14743.3,14746.3
app_5,14746.3,14870,14870,14874.1
app_5,14874.1,15002,15002,15009.4
app_5,15009.4,15128.9,15128.9,15133.4
app_5,15133.4,15250.8,15250.8,15255.3
app_5,15255.3,15381.7,15381.7,15384
app_5,15384,15494.6,15494.6,15496.1
app_5,15496.1,15611.7,15611.7,15613.2
app_5,15613.2,15724.6,15724.6,15730.1
app_5,15730.1,15850.6,15850.6,15856.5
app_5,15856.5,15983.5,15983.5,15987.2
app_5,15987.2,16116.8,16116.8,16118.3
app_5,16118.3,16239.3,16239.3,16246.7
app_5,16246.7,16365.2,16365.2,16368.2
app_5,16368.2,16479.7,16479.7,16483.2
app_5,16483.2,16607,16607,16608.5
app_5,16608.5,16721.2,16721.2,16722.7
app_5,16722.7,16831.5,16831.5,16836.4
app_5,16836.4,16956,16956,16963.6
app_5,16963.6,17079,17079,17087.9
app_5,17087.9,17219.3,17219.3,17227.2
app_5,17227.2,17353.9,17353.9,17357.6
app_5,17357.6,17470.8,17470.8,17473.8
app_5,17473.8,17591,17591,17592.5
app_5,17592.5,17720.3,17720.3,17721.8
app_5,17721.8,17847.5,17847.5,17849
app_5,17849,17975.6,17975.6,17980.1
app_5,17980.1,18090.1,18090.1,18095.1
app_5,18095.1,18206,18206,18214.9
app_5,18214.9,18330.8,18330.8,18335.3
app_5,18335.3,18458.2,18458.2,18464.1
app_5,18464.1,18588.9,18588.9,18590.4
app_5,18590.4,18709.5,18709.5,18714.1
app_5,18714.1,18842.9,18842.9,18844.4
app_5,18844.4,18972.4,18972.4,18978.1
app_5,18978.1,19108.1,19108.1,19111.1
app_5,19111.1,19234.8,19234.8,19240.3
app_5,19240.3,19364.3,19364.3,19368.1
app_5,19368.1,19488.8,19488.8,19490.3
app_5,19490.3,19604.2,19604.2,19605.7
app_5,19605.7,19726.3,19726.3,19733.7
app_5,19733.7,19857.3,19857.3,19863.2
app_5,19863.2,19981.4,19981.4,19982.9
app_5,19982.9,20112.6,20112.6,20114.1
app_5,20114.1,20237,20237,20238.5
app_5,20238.5,20360.4,20360.4,20366.3
app_5,20366.3,20489.1,20489.1,20493.6
app_5,20493.6,20612,20612,20613.5
app_6,766.325,1819.05,1819.05,1974.35
app_6,1974.35,2985.31,2985.31,3145.21
app_6,3145.21,4088.7,4088.7,4309.1
app_6,4309.1,5388.77,5388.77,5489.37
app_6,5489.37,6477.22,6477.22,6584.02
app_6,6584.02,7538.05,7538.05,7673.25
app_6,7673.25,8761.95,8761.95,8954.75
app_6,8954.75,10030.3,10030.3,10355
app_6,10355,11311.4,11311.4,11437.2
app_6,11437.2,12516.3,12516.3,12643.9
app_6,12643.9,13585.1,13585.1,13721.3
app_6,13721.3,14673.9,14673.9,14781.1
app_6,14781.1,15723.3,15723.3,15882.5
app_6,15882.5,16884.3,16884.3,17249.6
app_6,17249.6,18337.4,18337.4,18498.8
app_6,18498.8,19638.1,19638.1,19804.8
app_6,19804.8,20754.3,20754.3,20913.8
app_6,20913.8,21944.2,21944.2,22030.6
app_7,747.581,1539.46,1539.46,1754.76
app_7,1754.76,2664.13,2664.13,2920.43
app_7,2920.43,3841.88,3841.88,3965.08
app_7,3965.08,4768.27,4768.27,4943.67
app_7,4943.67,5732.42,5732.42,5865.92
app_7,5865.92,6622.29,6622.29,6876.19
app_7,6876.19,7757.88,7757.88,7987.28
app_7,7987.28,8792.04,8792.04,8995.84
app_7,8995.84,9833.38,9833.38,9941.08
app_7,9941.08,10773.2,10773.2,10920.7
app_7,10920.7,11830.9,11830.9,11940.8
app_7,11940.8,12715.8,12715.8,12978.9
app_7,12978.9,13792.9,13792.9,13962.5
app_7,13962.5,14822.5,14822.5,15037.1
app_7,15037.1,15804.9,15804.9,15985.8
app_7,15985.8,16890.6,16890.6,17269.7
app_7,17269.7,18036.1,18036.1,18291.5
app_7,18291.5,19152.6,19152.6,19333.8
app_7,19333.8,20256.5,20256.5,20502.5
app_7,20502.5,21326.9,21326.9,21454.9
app_7,21454.9,22361.6,22361.6,22504.9
app_7,22504.9,23299.2,23299.2,23386.4
app_8,456.933,1431.5,1431.5,1445.5
app_8,1445.5,2347.7,2347.7,2401.4
app_8,2401.4,3293.38,3293.38,3347.08
app_8,3347.08,4288.55,4288.55,4327.95
app_8,4327.95,5319.71,5319.71,5334.11
app_8,5334.11,6330.88,6330.88,6344.68
app_8,6344.68,7226.65,7226.65,7252.05
app_8,7252.05,8280.33,8280.33,8294.03
app_8,8294.03,9282.61,9282.61,9319.61
app_8,9319.61,10337.1,10337.1,10377.1
app_8,10377.1,11339.3,11339.3,11364.7
app_8,11364.7,12337.3,12337.3,12354.7
app_8,12354.7,13230.9,13230.9,13246.2
app_8,13246.2,14118.1,14118.1,14146
app_8,14146,15119.2,15119.2,15152.4
app_8,15152.4,16077.5,16077.5,16109.1
app_8,16109.1,16987.5,16987.5,17057.4
app_8,17057.4,18083.1,18083.1,18126.9
app_8,18126.9,19173.2,19173.2,19225.4
app_8,19225.4,20143.5,20143.5,20156.2
app_8,20156.2,21034.1,21034.1,21046.8
app_9,498.715,1471.28,1471.28,1636.88
app_9,1636.88,2597.19,2597.19,2854.69
app_9,2854.69,3925.57,3925.57,4064.67
app_9,4064.67,4959.81,4959.81,5079.81
app_9,5079.81,6051.38,6051.38,6288.48
app_9,6288.48,7226.26,7226.26,7358.86
app_9,7358.86,8403.47,8403.47,8523.47
app_9,8523.47,9584.97,9584.97,9766.57
app_9,9766.57,10842.8,10842.8,11005.6
app_9,11005.6,12063.9,12063.9,12271.4
app_9,12271.4,13345,13345,13465
app_9,13465,14511,14511,14664.5
app_9,14664.5,15616,15616,15752.2
app_9,15752.2,16732.6,16732.6,16856.8
app_9,16856.8,17876.7,17876.7,18025.1
app_9,18025.1,19038.3,19038.3,19206.9
app_9,19206.9,20283.3,20283.3,20556.2
app_9,20556.2,21610.8,21610.8,21723.1
app_9,21723.1,22627.6,22627.6,22726.8
