app_id,start_exec,end_exec,start_io,end_io
app_1,23.0602,103.768,105.748,112.968
app_1,112.968,200.549,200.549,207.749
app_1,207.749,293.423,293.423,300.623
app_1,300.623,385.625,385.625,392.825
app_1,392.825,470.972,470.972,478.172
app_1,478.172,557.228,568.029,575.228
app_1,575.228,659.922,665.608,672.822
app_1,672.822,755.588,761.819,768.988
app_1,768.988,856.035,860.388,867.535
app_1,867.535,961.383,961.383,968.583
app_1,968.583,1047.31,1047.31,1054.51
app_1,1054.51,1149.06,1149.06,1156.26
app_1,1156.26,1244.23,1244.23,1252.13
app_1,1252.13,1346,1348.62,1355.8
app_1,1355.8,1444.28,1444.28,1452.18
app_1,1452.18,1540.23,1540.23,1547.43
app_1,1547.43,1625.19,1625.19,1633.09
app_1,1633.09,1727.17,1727.17,1735.07
app_1,1735.07,1822.54,1822.86,1830.74
app_1,1830.74,1916.77,1916.77,1924.67
app_1,1924.67,2014.42,2014.42,2021.62
app_1,2021.62,2111.24,2111.24,2118.44
app_1,2118.44,2210.01,2210.01,2217.21
app_1,2217.21,2307.6,2312.93,2320.1
app_1,2320.1,2399.92,2404.64,2412.52
app_1,2412.52,2502.25,2502.25,2510.15
app_1,2510.15,2601.24,2601.24,2609.14
app_1,2609.14,2696.43,2696.43,2704.33
app_1,2704.33,2793.31,2793.31,2801.21
app_1,2801.21,2880.02,2880.02,2887.92
app_1,2887.92,2980.14,2987.5,2995.44
app_1,2995.44,3080.06,3087.02,3094.96
app_1,3094.96,3179.33,3179.33,3186.53
app_1,3186.53,3269.24,3269.24,3276.44
app_1,3276.44,3366.29,3381.42,3389.29
app_1,3389.29,3475.75,3478.51,3486.45
app_1,3486.45,3573.11,3573.11,3581.01
app_1,3581.01,3658.53,3661.31,3669.23
app_1,3669.23,3753.1,3753.1,3761
app_1,3761,3842.59,3851.87,3859.79
app_1,3859.79,3937.83,3937.83,3945.73
app_1,3945.73,4032.54,4032.54,4040.44
app_1,4040.44,4129.3,4129.3,4136.5
app_1,4136.5,4221.71,4221.71,4229.21
app_1,4229.21,4318.13,4318.13,4325.33
app_1,4325.33,4404.61,4404.61,4411.81
app_1,4411.81,4489.61,4489.61,4497.51
app_1,4497.51,4590.86,4590.86,4598.76
app_1,4598.76,4678.96,4678.96,4686.86
app_1,4686.86,4766.26,4766.52,4774.46
app_1,4774.46,4860.74,4860.74,4868.64
app_1,4868.64,4958.99,4958.99,4966.19
app_1,4966.19,5058.8,5058.8,5066.7
app_1,5066.7,5152.94,5152.94,5160.14
app_1,5160.14,5245.58,5245.58,5253.48
app_1,5253.48,5338.57,5338.57,5345.77
app_1,5345.77,5438,5438,5445.9
app_1,5445.9,5527.3,5527.3,5535.2
app_1,5535.2,5623.55,5623.55,5631.45
app_1,5631.45,5723.15,5723.15,5730.85
app_1,5730.85,5824.2,5824.2,5832.1
app_1,5832.1,5911.22,5911.22,5919.12
app_1,5919.12,6004.62,6004.62,6011.82
app_1,6011.82,6095.03,6095.03,6102.23
app_1,6102.23,6185.15,6185.15,6193.05
app_1,6193.05,6272.94,6272.94,6280.84
app_1,6280.84,6362.53,6365.48,6373.33
app_1,6373.33,6454.76,6455.3,6463.16
app_1,6463.16,6547.12,6547.12,6555.02
app_1,6555.02,6636.25,6636.25,6644.15
app_1,6644.15,6732.88,6732.88,6740.78
app_1,6740.78,6819.49,6819.49,6826.69
app_1,6826.69,6907.8,6915.03,6922.9
app_1,6922.9,7002.21,7002.21,7010.11
app_1,7010.11,7103.91,7113.24,7120.41
app_1,7120.41,7203.05,7203.05,7210.95
app_1,7210.95,7294.33,7294.75,7302.63
app_1,7302.63,7382.25,7389.12,7397.05
app_1,7397.05,7480.35,7487.91,7495.05
app_1,7495.05,7573.58,7573.58,7580.78
app_1,7580.78,7669.92,7669.92,7677.82
app_1,7677.82,7769.64,7769.64,7777.54
app_1,7777.54,7865.96,7865.96,7873.16
app_1,7873.16,7960.34,7960.34,7967.54
app_1,7967.54,8061.19,8073.09,8080.99
app_1,8080.99,8165.63,8167.74,8175.63
app_1,8175.63,8262.85,8265.03,8272.25
app_1,8272.25,8360.89,8360.89,8368.79
app_1,8368.79,8460.52,8460.52,8467.72
app_1,8467.72,8546.12,8546.12,8554.02
app_1,8554.02,8631.97,8631.97,8639.67
app_1,8639.67,8718.49,8718.49,8725.69
app_1,8725.69,8812.42,8812.42,8820.32
app_1,8820.32,8912.39,8912.39,8920.29
app_1,8920.29,9014.42,9022.2,9030.02
app_1,9030.02,9121.51,9126.43,9134.31
app_1,9134.31,9211.89,9217.53,9225.39
app_1,9225.39,9308.97,9311.69,9318.87
app_1,9318.87,9403.1,9403.1,9411
app_1,9411,9494.74,9494.74,9502.64
app_1,9502.64,9594.77,9594.77,9602.67
app_1,9602.67,9691.25,9691.25,9698.45
app_1,9698.45,9785.11,9785.11,9792.31
app_1,9792.31,9886.14,9886.14,9893.34
app_1,9893.34,9972.26,9972.26,9980.16
app_1,9980.16,10070.6,10070.6,10078.5
app_1,10078.5,10163.7,10163.7,10171.6
app_1,10171.6,10261.8,10261.8,10269.7
app_1,10269.7,10349.9,10349.9,10357.8
app_1,10357.8,10446.4,10446.4,10454.3
app_1,10454.3,10536,10536,10543.2
app_1,10543.2,10627.1,10627.1,10635
app_1,10635,10720.8,10720.8,10728
app_1,10728,10814.4,10815.6,10822.7
app_1,10822.7,10914.3,10914.3,10921.9
app_1,10921.9,11004.5,11004.5,11012.4
app_1,11012.4,11099.4,11099.4,11107.3
app_1,11107.3,11191.4,11191.4,11199.3
app_1,11199.3,11293,11293,11300.9
app_1,11300.9,11390.9,11390.9,11398.8
app_1,11398.8,11483.5,11483.5,11491.4
app_1,11491.4,11573.6,11573.6,11581.5
app_1,11581.5,11670.7,11671.6,11679.5
app_1,11679.5,11764.9,11764.9,11772.8
app_1,11772.8,11852.5,11852.5,11859.7
app_1,11859.7,11945.9,11945.9,11953.8
app_1,11953.8,12048.2,12048.2,12056.1
app_1,12056.1,12137.9,12137.9,12145.8
app_1,12145.8,12226.5,12226.5,12234.4
app_1,12234.4,12313,12320.1,12327.3
app_1,12327.3,12420.3,12420.3,12428.2
app_1,12428.2,12510,12513.5,12521.5
app_1,12521.5,12616,12616,12623.4
app_1,12623.4,12709.3,12709.3,12717.2
app_1,12717.2,12804.1,12804.1,12812
app_1,12812,12902.9,12902.9,12910.8
app_1,12910.8,12989.9,12993.4,13000.6
app_1,13000.6,13087.8,13087.8,13095
app_1,13095,13181.3,13181.3,13188.5
app_1,13188.5,13273.5,13273.5,13281.4
app_1,13281.4,13365.5,13365.5,13373.4
app_1,13373.4,13463.7,13463.7,13471.6
app_1,13471.6,13556.9,13556.9,13564.8
app_1,13564.8,13655.3,13655.3,13663.2
app_1,13663.2,13742.5,13744.7,13752.6
app_1,13752.6,13841.3,13841.3,13849.2
app_1,13849.2,13937.8,13937.8,13945.7
app_1,13945.7,14034.9,14034.9,14042.1
app_1,14042.1,14129.8,14129.8,14137
app_1,14137,14224.1,14229.4,14236.6
app_1,14236.6,14329.9,14329.9,14337.8
app_1,14337.8,14424.9,14424.9,14432.8
app_1,14432.8,14511.9,14515.2,14523
app_1,14523,14608.2,14608.2,14616.1
app_1,14616.1,14705.5,14705.5,14712.7
app_1,14712.7,14801.6,14801.6,14809.5
app_1,14809.5,14889.2,14889.2,14897.1
app_1,14897.1,14990,14990,14997.9
app_1,14997.9,15087.3,15087.3,15094.5
app_1,15094.5,15181.3,15181.3,15188.5
app_1,15188.5,15282.5,15282.5,15289.7
app_1,15289.7,15370.6,15370.6,15377.8
app_1,15377.8,15463.2,15465,15472.8
app_1,15472.8,15559.6,15559.6,15567.5
app_1,15567.5,15650.3,15650.3,15658.2
app_1,15658.2,15740.4,15740.4,15747.6
app_1,15747.6,15828.3,15828.3,15836.2
app_1,15836.2,15926.5,15926.5,15934.4
app_1,15934.4,16025.8,16025.8,16033.7
app_1,16033.7,16115,16116.7,16124.6
app_1,16124.6,16211.9,16211.9,16219.1
app_1,16219.1,16301.9,16304.2,16311.4
app_1,16311.4,16389.7,16397.5,16404.7
app_1,16404.7,16486.3,16487.2,16494.3
app_1,16494.3,16582.6,16591.9,16599.8
app_1,16599.8,16682,16684.5,16692.4
app_1,16692.4,16779.1,16780.2,16788.2
app_1,16788.2,16870.1,16870.1,16877.3
app_1,16877.3,16957.6,16957.6,16965.5
app_1,16965.5,17046.5,17046.5,17054.4
app_1,17054.4,17148.8,17148.8,17156.7
app_1,17156.7,17247.7,17247.7,17255.6
app_1,17255.6,17345.5,17345.5,17352.7
app_1,17352.7,17447,17447,17454.9
app_1,17454.9,17539.3,17539.3,17547.2
app_1,17547.2,17636.9,17636.9,17644.1
app_1,17644.1,17736.4,17736.4,17743.6
app_1,17743.6,17832.8,17832.8,17840.7
app_1,17840.7,17932.7,17932.7,17940.6
app_1,17940.6,18018.2,18018.2,18026.1
app_1,18026.1,18115.5,18115.5,18123.4
app_1,18123.4,18214.6,18214.6,18221.8
app_1,18221.8,18303,18303,18310.9
app_1,18310.9,18394.6,18399.6,18407.5
app_1,18407.5,18490.9,18494.5,18502.4
app_1,18502.4,18584.1,18586.2,18593.4
app_1,18593.4,18679.2,18679.2,18686.4
app_1,18686.4,18765.2,18765.2,18772.4
app_1,18772.4,18851,18856.7,18864.5
app_1,18864.5,18948.7,18958,18965.8
app_1,18965.8,19046.9,19046.9,19054.1
app_1,19054.1,19143.2,19146,19153.8
app_1,19153.8,19247.9,19247.9,19255.8
app_1,19255.8,19339.6,19339.6,19347.5
app_1,19347.5,19430.7,19430.7,19438.6
app_1,19438.6,19529.6,19529.6,19536.8
app_1,19536.8,19627.1,19627.1,19634.3
app_1,19634.3,19726.7,19726.7,19733.9
app_1,19733.9,19819.8,19819.8,19827
app_1,19827,19906.7,19906.7,19913.9
app_1,19913.9,20008,20008,20015.9
app_1,20015.9,20106.3,20106.3,20113.5
app_1,20113.5,20192.5,20192.5,20200.4
app_10,190.715,976.728,976.728,1023.73
app_10,1023.73,1796.51,1937.47,1989.01
app_10,1989.01,2760.6,2837.29,2904.6
app_10,2904.6,3733.33,3768.8,3813.83
app_10,3813.83,4561.05,4634.5,4696.25
app_10,4696.25,5491.43,5491.43,5540.63
app_10,5540.63,6353.3,6367.21,6424.3
app_10,6424.3,7128.12,7172.87,7235.92
app_10,7235.92,7976.11,7976.11,8029.91
app_10,8029.91,8762.01,8762.01,8810.61
app_10,8810.61,9524.15,9592.65,9653.25
app_10,9653.25,10393.8,10468.2,10530.6
app_10,10530.6,11260.8,11260.8,11327.4
app_10,11327.4,12045.6,12045.6,12105.2
app_10,12105.2,12807.5,12833.9,12881
app_10,12881,13716.8,13716.8,13784.4
app_10,13784.4,14552.7,14552.7,14620.3
app_10,14620.3,15434,15620.5,15683.5
app_10,15683.5,16533.3,16624.9,16692.5
app_10,16692.5,17438.1,17502.5,17563.7
app_10,17563.7,18299.4,18352.2,18415.3
app_10,18415.3,19134.7,19232.5,19302
app_10,19302,20128.6,20128.6,20181
app_10,20181,20942.4,21039.5,21081.6
app_10,21081.6,21850.6,21850.6,21892.7
app_11,727.169,1635.13,1685.69,1802.03
app_11,1802.03,2711.39,2719.06,2837.29
app_11,2837.29,3871.78,3928.5,4072.28
app_11,4072.28,4981.43,4981.43,5113.13
app_11,5113.13,6141.76,6141.76,6271.86
app_11,6271.86,7262.98,7262.98,7400.28
app_11,7400.28,8330.5,8330.5,8455.7
app_11,8455.7,9374.35,9467.39,9592.65
app_11,9592.65,10544.1,10544.1,10663.4
app_11,10663.4,11533.8,11568.9,11695.3
app_11,11695.3,12704,12704,12833.9
app_11,12833.9,13744.7,13784.4,13902.6
app_11,13902.6,14791.3,14855.9,14996
app_11,14996,15988.2,16021.7,16145.2
app_11,16145.2,17133.7,17133.7,17269
app_11,17269,18229.4,18229.4,18352.2
app_11,18352.2,19308.9,19308.9,19428.2
app_11,19428.2,20332.7,20332.7,20421.6
app_11,20421.6,21443.3,21443.3,21532.2
app_11,21532.2,22463.8,22485.9,22574.7
app_12,851.769,1702.3,1802.03,1842.2
app_12,1842.2,2613.06,2677.35,2719.06
app_12,2719.06,3561.21,3596.11,3615.31
app_12,3615.31,4531.5,4604.56,4634.5
app_12,4634.5,5414.42,5414.42,5433.62
app_12,5433.62,6225.01,6335.61,6367.21
app_12,6367.21,7181,7235.92,7261.6
app_12,7261.6,8094.42,8227.89,8250.12
app_12,8250.12,9105.1,9105.1,9148.8
app_12,9148.8,9951.99,10094.3,10115.5
app_12,10115.5,10918,10945.5,10973.6
app_12,10973.6,11762.8,11762.8,11789.2
app_12,11789.2,12620.6,12620.6,12650.8
app_12,12650.8,13425.4,13425.4,13444.6
app_12,13444.6,14254.6,14394.9,14422.6
app_12,14422.6,15221.5,15221.5,15240.7
app_12,15240.7,16076.2,16145.2,16167.4
app_12,16167.4,17061.7,17095.8,17121.5
app_12,17121.5,17940.3,17949.8,17978.5
app_12,17978.5,18806.2,18806.2,18833.9
app_12,18833.9,19636.1,19636.1,19671.8
app_12,19671.8,20503.3,20503.3,20522.5
app_12,20522.5,21362.6,21365.9,21385.1
app_12,21385.1,22185.7,22185.7,22204.9
app_13,719.928,1887.68,1997.26,2012.88
app_13,2012.88,3067.42,3067.42,3108.52
app_13,3108.52,4260.87,4293.71,4309.37
app_13,4309.37,5429.79,5433.62,5459.39
app_13,5459.39,6452.78,6452.78,6479.68
app_13,6479.68,7529.87,7529.87,7552.27
app_13,7552.27,8697.38,8697.38,8714.98
app_13,8714.98,9813.92,9813.92,9831.52
app_13,9831.52,10916.9,10916.9,10945.5
app_13,10945.5,11980.2,11994.3,12013
app_13,12013,13011.3,13011.3,13035.6
app_13,13035.6,14086.8,14086.8,14104.4
app_13,14104.4,15159.4,15159.4,15176
app_13,15176,16248.3,16248.3,16270.4
app_13,16270.4,17259.6,17271.6,17287.2
app_13,17287.2,18388,18513.1,18535.2
app_13,18535.2,19539.5,19539.5,19570.5
app_13,19570.5,20663.7,20663.7,20679.3
app_13,20679.3,21683,21683,21698.6
app_14,575.38,1431.19,1431.19,1499.09
app_14,1499.09,2387.55,2468.88,2540.85
app_14,2540.85,3354.14,3354.14,3424.14
app_14,3424.14,4225.61,4225.61,4293.71
app_14,4293.71,5201.39,5201.39,5257.79
app_14,5257.79,6168.31,6271.86,6333.01
app_14,6333.01,7121.87,7121.87,7172.87
app_14,7172.87,8047.09,8168.3,8227.89
app_14,8227.89,9022.89,9022.89,9085.29
app_14,9085.29,10004.3,10115.5,10179
app_14,10179,10961.5,10973.6,11028.3
app_14,11028.3,11931.6,11931.6,11991.7
app_14,11991.7,12818.4,12881,12950.9
app_14,12950.9,13866.4,13902.6,13972.6
app_14,13972.6,14861,14996,15042.2
app_14,15042.2,15929.4,15956.9,16021.7
app_14,16021.7,16921.9,17030.3,17095.8
app_14,17095.8,17979.4,17979.4,18041.9
app_14,18041.9,18831.3,18833.9,18905.8
app_14,18905.8,19734.9,19734.9,19796.8
app_14,19796.8,20614.4,20614.4,20658.9
app_14,20658.9,21515.1,21532.2,21576.7
app_14,21576.7,22441.4,22441.4,22485.9
app_15,108.284,872.002,872.002,955.402
app_15,955.402,1722.67,1842.2,1937.47
app_15,1937.47,2791.63,2907.5,3002.73
app_15,3002.73,3835.2,3835.2,3928.5
app_15,3928.5,4706.81,4837.64,4932.91
app_15,4932.91,5724.94,5724.94,5818.34
app_15,5818.34,6674.29,6697.35,6792.59
app_15,6792.59,7599.33,7599.33,7697.53
app_15,7697.53,8515.42,8515.42,8612.52
app_15,8612.52,9372.19,9372.19,9467.39
app_15,9467.39,10246.2,10379.4,10468.2
app_15,10468.2,11315.8,11456.5,11551.8
app_15,11551.8,12418.4,12468.3,12563.5
app_15,12563.5,13452.8,13452.8,13553.5
app_15,13553.5,14302.4,14422.6,14522.2
app_15,14522.2,15388.2,15528.4,15620.5
app_15,15620.5,16529.7,16529.7,16624.9
app_15,16624.9,17407.3,17407.3,17502.5
app_15,17502.5,18374,18417.9,18513.1
app_15,18513.1,19373.4,19428.2,19523.4
app_15,19523.4,20336,20421.6,20489.4
app_15,20489.4,21294.7,21298.1,21365.9
app_15,21365.9,22190.1,22204.9,22272.7
app_2,4.62585,103.748,103.748,105.748
app_2,105.748,207.701,207.749,209.801
app_2,209.801,306.394,306.394,308.394
app_2,308.394,396.698,396.698,398.698
app_2,398.698,490.828,490.828,492.828
app_2,492.828,594.443,594.443,596.443
app_2,596.443,702.542,702.542,704.542
app_2,704.542,809.344,809.344,811.344
app_2,811.344,904.975,906.913,909.075
app_2,909.075,1001.17,1001.17,1003.37
app_2,1003.37,1099.81,1099.81,1101.81
app_2,1101.81,1192.24,1192.24,1194.44
app_2,1194.44,1290.17,1290.17,1292.37
app_2,1292.37,1390.68,1390.68,1392.68
app_2,1392.68,1490.87,1495.99,1498.17
app_2,1498.17,1604.44,1604.44,1606.64
app_2,1606.64,1712.83,1712.83,1715.03
app_2,1715.03,1820.66,1820.66,1822.86
app_2,1822.86,1930.23,1934.5,1936.73
app_2,1936.73,2030.13,2030.59,2032.63
app_2,2032.63,2137.25,2137.25,2139.25
app_2,2139.25,2237.55,2237.55,2239.55
app_2,2239.55,2337.04,2337.12,2339.34
app_2,2339.34,2437.86,2437.86,2440.06
app_2,2440.06,2536.95,2536.95,2539.15
app_2,2539.15,2630.02,2630.02,2632.22
app_2,2632.22,2725.07,2725.07,2727.27
app_2,2727.27,2817.85,2817.85,2820.05
app_2,2820.05,2913.38,2913.38,2915.58
app_2,2915.58,3022.94,3022.94,3024.94
app_2,3024.94,3131.59,3131.59,3133.59
app_2,3133.59,3223.11,3223.11,3225.11
app_2,3225.11,3325.51,3325.51,3327.51
app_2,3327.51,3425.12,3425.12,3427.12
app_2,3427.12,3523.12,3523.12,3525.32
app_2,3525.32,3627.7,3627.7,3629.9
app_2,3629.9,3733.16,3733.16,3735.36
app_2,3735.36,3828.82,3828.82,3830.82
app_2,3830.82,3938.49,3955.6,3957.79
app_2,3957.79,4056.67,4057.44,4059.67
app_2,4059.67,4155.84,4158.3,4160.34
app_2,4160.34,4264.31,4264.31,4266.51
app_2,4266.51,4366.28,4366.28,4368.28
app_2,4368.28,4462.67,4462.67,4464.87
app_2,4464.87,4562.75,4562.75,4564.95
app_2,4564.95,4656.51,4656.51,4658.71
app_2,4658.71,4764.32,4764.32,4766.52
app_2,4766.52,4865.54,4871.95,4874.14
app_2,4874.14,4965.53,4966.19,4968.23
app_2,4968.23,5068.13,5068.13,5070.33
app_2,5070.33,5163.06,5163.06,5165.06
app_2,5165.06,5268.26,5268.26,5270.26
app_2,5270.26,5368.5,5368.5,5370.5
app_2,5370.5,5460.68,5460.68,5462.68
app_2,5462.68,5562.3,5566.69,5568.9
app_2,5568.9,5659,5661.73,5663.9
app_2,5663.9,5760.55,5760.55,5762.75
app_2,5762.75,5855.39,5855.39,5857.59
app_2,5857.59,5953.76,5953.76,5955.96
app_2,5955.96,6044.89,6044.89,6046.89
app_2,6046.89,6151.69,6151.69,6153.89
app_2,6153.89,6248.8,6249.88,6252.1
app_2,6252.1,6355.78,6363.27,6365.48
app_2,6365.48,6467.46,6467.46,6469.66
app_2,6469.66,6560.69,6560.69,6562.89
app_2,6562.89,6652.2,6652.2,6654.4
app_2,6654.4,6744.98,6744.98,6747.18
app_2,6747.18,6851.98,6852.81,6854.78
app_2,6854.78,6961.09,6961.09,6963.29
app_2,6963.29,7067.63,7067.63,7069.63
app_2,7069.63,7177.39,7177.39,7179.59
app_2,7179.59,7279.16,7279.16,7281.36
app_2,7281.36,7388.29,7397.05,7399.29
app_2,7399.29,7500.23,7500.23,7502.23
app_2,7502.23,7601.95,7601.95,7604.15
app_2,7604.15,7706.26,7706.26,7708.46
app_2,7708.46,7801.21,7801.21,7803.41
app_2,7803.41,7909.58,7909.58,7911.58
app_2,7911.58,8010.61,8010.61,8012.81
app_2,8012.81,8103.15,8108.04,8110.25
app_2,8110.25,8206.91,8208.01,8210.21
app_2,8210.21,8317.4,8318.47,8320.5
app_2,8320.5,8424.49,8424.49,8426.69
app_2,8426.69,8515.35,8515.35,8517.55
app_2,8517.55,8609.9,8609.9,8612.1
app_2,8612.1,8708.88,8708.88,8711.08
app_2,8711.08,8813.04,8820.32,8822.54
app_2,8822.54,8922.34,8922.34,8924.54
app_2,8924.54,9016.61,9030.02,9032.21
app_2,9032.21,9132.25,9141.46,9143.65
app_2,9143.65,9236.32,9236.32,9238.52
app_2,9238.52,9342.4,9343.56,9345.6
app_2,9345.6,9442.66,9442.66,9444.86
app_2,9444.86,9533.74,9533.74,9535.94
app_2,9535.94,9625.74,9625.74,9627.94
app_2,9627.94,9722.1,9722.1,9724.1
app_2,9724.1,9814.88,9814.88,9817.08
app_2,9817.08,9910.94,9910.94,9912.94
app_2,9912.94,10011,10011,10013.2
app_2,10013.2,10104.1,10104.1,10106.3
app_2,10106.3,10212.3,10212.3,10214.3
app_2,10214.3,10309.3,10309.3,10311.5
app_2,10311.5,10401.2,10401.2,10403.4
app_2,10403.4,10506.9,10507.6,10509.9
app_2,10509.9,10614.8,10614.8,10617
app_2,10617,10714.6,10714.6,10716.6
app_2,10716.6,10813.6,10813.6,10815.6
app_2,10815.6,10921.1,10921.9,10924.2
app_2,10924.2,11031,11035.1,11037.1
app_2,11037.1,11129.6,11129.6,11131.8
app_2,11131.8,11221.2,11221.2,11223.4
app_2,11223.4,11319,11319,11321.2
app_2,11321.2,11423.8,11423.8,11426
app_2,11426,11524.6,11524.6,11526.8
app_2,11526.8,11619,11619,11621.2
app_2,11621.2,11728.2,11728.2,11730.2
app_2,11730.2,11837.9,11837.9,11839.9
app_2,11839.9,11940,11940,11942.2
app_2,11942.2,12044.6,12044.6,12046.7
app_2,12046.7,12135.6,12135.6,12137.8
app_2,12137.8,12231.3,12234.4,12236.6
app_2,12236.6,12340.4,12343.5,12345.6
app_2,12345.6,12450.6,12450.6,12452.8
app_2,12452.8,12554.8,12554.8,12557
app_2,12557,12648.3,12648.3,12650.5
app_2,12650.5,12754.2,12754.2,12756.4
app_2,12756.4,12848.2,12848.7,12851
app_2,12851,12951.8,12951.8,12953.8
app_2,12953.8,13055.7,13055.7,13057.7
app_2,13057.7,13154.3,13154.3,13156.3
app_2,13156.3,13258.1,13258.1,13260.3
app_2,13260.3,13366.3,13373.4,13375.7
app_2,13375.7,13474.5,13474.9,13477.1
app_2,13477.1,13583.2,13583.2,13585.4
app_2,13585.4,13691.7,13691.7,13693.9
app_2,13693.9,13786.6,13786.6,13788.8
app_2,13788.8,13892.6,13892.6,13894.8
app_2,13894.8,13991.8,13991.8,13993.8
app_2,13993.8,14096.6,14096.6,14098.8
app_2,14098.8,14203,14205,14207
app_2,14207,14298.1,14307.1,14309.4
app_2,14309.4,14410.9,14413.4,14415.6
app_2,14415.6,14521.7,14523,14525
app_2,14525,14632.7,14632.7,14634.7
app_2,14634.7,14740.1,14740.1,14742.3
app_2,14742.3,14834.3,14834.3,14836.5
app_2,14836.5,14940.8,14940.8,14943
app_2,14943,15044.8,15044.8,15047
app_2,15047,15144,15151.8,15153.8
app_2,15153.8,15259.8,15259.8,15261.8
app_2,15261.8,15361.8,15361.8,15363.8
app_2,15363.8,15462.8,15462.8,15465
app_2,15465,15571,15571,15573.2
app_2,15573.2,15673.4,15673.4,15675.6
app_2,15675.6,15768.1,15768.1,15770.1
app_2,15770.1,15868.1,15868.1,15870.3
app_2,15870.3,15976.3,15976.3,15978.5
app_2,15978.5,16083.3,16083.3,16085.5
app_2,16085.5,16184.6,16184.6,16186.6
app_2,16186.6,16289.2,16289.2,16291.2
app_2,16291.2,16391.5,16404.7,16406.7
app_2,16406.7,16506.7,16506.7,16508.7
app_2,16508.7,16599.5,16599.8,16602
app_2,16602,16692.6,16692.6,16694.8
app_2,16694.8,16785.7,16788.2,16790.3
app_2,16790.3,16885.8,16885.8,16887.8
app_2,16887.8,16976.5,16976.5,16978.7
app_2,16978.7,17084.5,17086.4,17088.6
app_2,17088.6,17189.7,17189.7,17191.9
app_2,17191.9,17293.1,17298.7,17300.7
app_2,17300.7,17390.7,17393.9,17395.9
app_2,17395.9,17486.2,17486.2,17488.4
app_2,17488.4,17589.1,17589.1,17591.1
app_2,17591.1,17696.9,17696.9,17698.9
app_2,17698.9,17805.8,17805.8,17808
app_2,17808,17905.3,17905.3,17907.5
app_2,17907.5,18004.1,18004.1,18006.3
app_2,18006.3,18094.9,18094.9,18097.1
app_2,18097.1,18188.4,18188.4,18190.6
app_2,18190.6,18296.1,18296.5,18298.7
app_2,18298.7,18388.1,18397.4,18399.6
app_2,18399.6,18501.6,18502.4,18504.6
app_2,18504.6,18599.5,18599.5,18601.5
app_2,18601.5,18706.9,18706.9,18708.9
app_2,18708.9,18800.2,18800.2,18802.2
app_2,18802.2,18893.5,18893.5,18895.7
app_2,18895.7,19001.7,19001.7,19003.9
app_2,19003.9,19100.3,19100.3,19102.3
app_2,19102.3,19196.8,19196.8,19199
app_2,19199,19295.1,19295.1,19297.3
app_2,19297.3,19393.6,19393.6,19395.8
app_2,19395.8,19484.7,19484.7,19486.9
app_2,19486.9,19587.9,19587.9,19589.9
app_2,19589.9,19697,19697,19699
app_2,19699,19799.1,19799.1,19801.1
app_2,19801.1,19894.5,19894.5,19896.5
app_2,19896.5,19993.4,19993.4,19995.6
app_2,19995.6,20097.7,20097.7,20099.7
app_2,20099.7,20199.8,20200.4,20202.6
app_2,20202.6,20304.2,20304.2,20306.2
app_3,76.4765,168.648,168.648,175.148
app_3,175.148,254.779,254.779,261.279
app_3,261.279,350.531,350.531,357.031
app_3,357.031,448.036,448.036,454.536
app_3,454.536,549.495,549.495,555.995
app_3,555.995,643.004,645.406,651.904
app_3,651.904,736.011,736.011,742.511
app_3,742.511,836.452,836.452,842.952
app_3,842.952,937.057,937.057,944.257
app_3,944.257,1027.25,1027.25,1033.75
app_3,1033.75,1125.41,1125.41,1131.91
app_3,1131.91,1217.35,1217.35,1224.55
app_3,1224.55,1309.28,1309.28,1316.48
app_3,1316.48,1394.84,1394.84,1401.34
app_3,1401.34,1488.79,1488.79,1495.99
app_3,1495.99,1575.78,1575.78,1582.98
app_3,1582.98,1677.57,1677.57,1684.77
app_3,1684.77,1770.93,1770.93,1778.13
app_3,1778.13,1857.67,1857.67,1864.87
app_3,1864.87,1956.35,1956.35,1963.55
app_3,1963.55,2053.04,2053.04,2059.54
app_3,2059.54,2155.05,2155.05,2161.55
app_3,2161.55,2244.24,2244.24,2250.74
app_3,2250.74,2339.42,2339.42,2346.62
app_3,2346.62,2425.22,2426.81,2434.02
app_3,2434.02,2517.63,2517.63,2524.83
app_3,2524.83,2620.5,2620.5,2627.7
app_3,2627.7,2710.33,2710.33,2717.53
app_3,2717.53,2802.57,2802.57,2809.77
app_3,2809.77,2895.33,2897.72,2904.93
app_3,2904.93,2994.77,2995.44,3002.57
app_3,3002.57,3087.62,3094.96,3102.12
app_3,3102.12,3192.54,3192.54,3199.04
app_3,3199.04,3278.19,3280.78,3287.29
app_3,3287.29,3366.22,3374.24,3381.42
app_3,3381.42,3471.31,3471.31,3478.51
app_3,3478.51,3565.73,3565.73,3572.93
app_3,3572.93,3654.01,3654.11,3661.31
app_3,3661.31,3755.94,3761,3768.14
app_3,3768.14,3849.49,3859.79,3866.99
app_3,3866.99,3945.69,3957.79,3964.99
app_3,3964.99,4043.84,4050.23,4057.44
app_3,4057.44,4142.36,4148.77,4155.26
app_3,4155.26,4242.01,4242.01,4249.21
app_3,4249.21,4344.79,4344.79,4351.29
app_3,4351.29,4431.92,4436.83,4443.42
app_3,4443.42,4525.36,4525.36,4532.56
app_3,4532.56,4625.88,4625.88,4633.08
app_3,4633.08,4725.73,4725.73,4732.93
app_3,4732.93,4814.34,4814.34,4821.54
app_3,4821.54,4906.21,4906.21,4913.41
app_3,4913.41,5002.44,5002.44,5009.64
app_3,5009.64,5093.11,5093.11,5100.31
app_3,5100.31,5187.76,5187.76,5194.26
app_3,5194.26,5279.07,5279.07,5285.57
app_3,5285.57,5371.97,5374.03,5380.57
app_3,5380.57,5460.75,5462.68,5469.25
app_3,5469.25,5559.49,5559.49,5566.69
app_3,5566.69,5654.53,5654.53,5661.73
app_3,5661.73,5746.98,5746.98,5754.18
app_3,5754.18,5835.56,5835.56,5842.76
app_3,5842.76,5929.1,5929.1,5936.3
app_3,5936.3,6020.81,6020.81,6027.31
app_3,6027.31,6112.55,6112.55,6119.05
app_3,6119.05,6211.05,6211.05,6218.25
app_3,6218.25,6311.6,6311.6,6318.8
app_3,6318.8,6405.26,6405.26,6412.46
app_3,6412.46,6491,6491,6497.5
app_3,6497.5,6581.17,6581.17,6588.37
app_3,6588.37,6681.58,6681.58,6688.78
app_3,6688.78,6770.59,6770.59,6777.79
app_3,6777.79,6858.7,6858.7,6865.2
app_3,6865.2,6949.47,6949.47,6956.67
app_3,6956.67,7051.67,7051.67,7058.17
app_3,7058.17,7145.82,7145.82,7153.02
app_3,7153.02,7248.63,7248.63,7255.83
app_3,7255.83,7341.51,7341.51,7348.71
app_3,7348.71,7440.92,7440.92,7447.42
app_3,7447.42,7528.36,7530.23,7537.46
app_3,7537.46,7628.31,7628.31,7635.51
app_3,7635.51,7721.44,7721.44,7728.64
app_3,7728.64,7816.4,7816.4,7823.6
app_3,7823.6,7918.29,7918.29,7924.79
app_3,7924.79,8010.98,8012.81,8019.98
app_3,8019.98,8100.84,8100.84,8108.04
app_3,8108.04,8200.81,8200.81,8208.01
app_3,8208.01,8297.05,8297.05,8303.55
app_3,8303.55,8385.97,8385.97,8393.17
app_3,8393.17,8483.81,8486.58,8493.11
app_3,8493.11,8575.71,8575.71,8582.91
app_3,8582.91,8666.42,8666.42,8672.92
app_3,8672.92,8767.7,8767.7,8774.9
app_3,8774.9,8861.51,8861.51,8868.71
app_3,8868.71,8948.29,8948.29,8955.49
app_3,8955.49,9035.16,9035.16,9042.36
app_3,9042.36,9123.26,9134.31,9141.46
app_3,9141.46,9224.96,9225.39,9232.56
app_3,9232.56,9314.56,9318.87,9325.36
app_3,9325.36,9410.64,9411,9418.14
app_3,9418.14,9505.89,9505.89,9513.09
app_3,9513.09,9605.87,9607.44,9614.67
app_3,9614.67,9709,9709,9715.5
app_3,9715.5,9797.85,9797.85,9804.35
app_3,9804.35,9890.42,9893.34,9899.82
app_3,9899.82,9985.19,9985.19,9992.39
app_3,9992.39,10082.1,10082.1,10089.3
app_3,10089.3,10181.8,10181.8,10189
app_3,10189,10273.4,10273.4,10280.6
app_3,10280.6,10371.4,10371.4,10378.6
app_3,10378.6,10472.8,10472.8,10480
app_3,10480,10567.9,10567.9,10575.1
app_3,10575.1,10666.3,10666.3,10672.8
app_3,10672.8,10757.3,10757.3,10763.8
app_3,10763.8,10844.3,10844.3,10850.8
app_3,10850.8,10934.2,10934.2,10941.4
app_3,10941.4,11028.6,11028.6,11035.1
app_3,11035.1,11113.9,11113.9,11121.1
app_3,11121.1,11207.7,11207.7,11214.9
app_3,11214.9,11308.1,11308.1,11315.3
app_3,11315.3,11407,11407,11414.2
app_3,11414.2,11499.9,11499.9,11507.1
app_3,11507.1,11595,11595,11602.2
app_3,11602.2,11696.5,11696.5,11703
app_3,11703,11798.2,11798.2,11804.7
app_3,11804.7,11884.5,11884.5,11891
app_3,11891,11975.1,11975.1,11982.3
app_3,11982.3,12062.1,12062.1,12069.3
app_3,12069.3,12151.7,12151.7,12158.9
app_3,12158.9,12253.5,12253.5,12260.7
app_3,12260.7,12343.9,12345.6,12352.8
app_3,12352.8,12433.3,12433.3,12440.5
app_3,12440.5,12530.3,12530.3,12537.5
app_3,12537.5,12619.1,12623.4,12630.6
app_3,12630.6,12720,12720,12727.2
app_3,12727.2,12816.5,12816.5,12823.7
app_3,12823.7,12916.2,12916.2,12923.4
app_3,12923.4,13010.6,13010.6,13017.7
app_3,13017.7,13113,13114.2,13120.7
app_3,13120.7,13201.7,13201.7,13208.2
app_3,13208.2,13290.6,13290.6,13297.8
app_3,13297.8,13381.7,13381.7,13388.9
app_3,13388.9,13479.2,13479.2,13486.4
app_3,13486.4,13567.8,13568.1,13575.3
app_3,13575.3,13666.3,13666.3,13673.5
app_3,13673.5,13758.7,13758.7,13765.9
app_3,13765.9,13859.7,13859.7,13866.9
app_3,13866.9,13959,13959,13966.2
app_3,13966.2,14048.7,14048.7,14055.2
app_3,14055.2,14136.1,14137,14143.5
app_3,14143.5,14222.9,14222.9,14229.4
app_3,14229.4,14316.3,14316.3,14323.5
app_3,14323.5,14406.2,14406.2,14413.4
app_3,14413.4,14508,14508,14515.2
app_3,14515.2,14597.9,14597.9,14605.1
app_3,14605.1,14684,14684,14690.5
app_3,14690.5,14784.7,14784.7,14791.9
app_3,14791.9,14875.7,14876.1,14883.3
app_3,14883.3,14966.3,14966.3,14973.5
app_3,14973.5,15060.3,15060.3,15067.5
app_3,15067.5,15146.7,15153.8,15160.5
app_3,15160.5,15243.2,15243.2,15249.7
app_3,15249.7,15332.8,15332.8,15339.3
app_3,15339.3,15425.5,15425.5,15432.7
app_3,15432.7,15517.7,15517.7,15524.9
app_3,15524.9,15611.8,15611.8,15619
app_3,15619,15698.4,15698.4,15704.9
app_3,15704.9,15795.4,15795.4,15801.9
app_3,15801.9,15880.8,15880.8,15888
app_3,15888,15979.4,15979.4,15986.6
app_3,15986.6,16069.8,16069.8,16077
app_3,16077,16172.2,16172.2,16178.7
app_3,16178.7,16261.5,16261.5,16268.7
app_3,16268.7,16356.2,16356.2,16362.7
app_3,16362.7,16444.3,16444.3,16450.8
app_3,16450.8,16538.4,16538.4,16545.6
app_3,16545.6,16625.2,16625.2,16632.4
app_3,16632.4,16720.1,16720.1,16727.3
app_3,16727.3,16815.7,16815.7,16822.9
app_3,16822.9,16912.6,16912.6,16919.8
app_3,16919.8,17007.5,17007.5,17014.7
app_3,17014.7,17101.5,17101.5,17108.7
app_3,17108.7,17195.5,17195.5,17202.7
app_3,17202.7,17292.2,17292.2,17298.7
app_3,17298.7,17387.4,17387.4,17393.9
app_3,17393.9,17478.3,17478.3,17485.5
app_3,17485.5,17568.9,17568.9,17575.4
app_3,17575.4,17663.2,17663.2,17669.7
app_3,17669.7,17764.7,17764.7,17771.2
app_3,17771.2,17863.3,17863.3,17870.5
app_3,17870.5,17956.1,17956.1,17963.3
app_3,17963.3,18054.8,18054.8,18061.3
app_3,18061.3,18141.4,18141.4,18148.6
app_3,18148.6,18233.6,18233.6,18240.8
app_3,18240.8,18332.7,18332.7,18339.9
app_3,18339.9,18425.2,18425.2,18432.4
app_3,18432.4,18520.5,18520.5,18527.7
app_3,18527.7,18614.9,18614.9,18621.4
app_3,18621.4,18708.9,18708.9,18715.4
app_3,18715.4,18808.3,18808.3,18815.5
app_3,18815.5,18896.5,18896.5,18903.7
app_3,18903.7,18982.1,18982.1,18989.3
app_3,18989.3,19075.3,19075.3,19081.8
app_3,19081.8,19167.8,19167.8,19175
app_3,19175,19255.4,19265.7,19272.8
app_3,19272.8,19360.5,19361.5,19368.8
app_3,19368.8,19462.4,19462.4,19469.6
app_3,19469.6,19551.5,19551.5,19558.7
app_3,19558.7,19646,19646,19653.2
app_3,19653.2,19746.8,19747,19754.1
app_3,19754.1,19848.3,19848.3,19854.8
app_3,19854.8,19938.6,19938.6,19945.8
app_3,19945.8,20033.2,20033.5,20040.7
app_3,20040.7,20119.8,20119.8,20126.3
app_3,20126.3,20220.1,20220.1,20227.3
app_4,38.0983,122.613,122.613,125.613
app_4,125.613,208.7,209.801,212.8
app_4,212.8,293.681,300.623,303.681
app_4,303.681,391.461,392.825,395.861
app_4,395.861,472.817,478.172,481.217
app_4,481.217,556.729,564.977,568.029
app_4,568.029,642.406,642.406,645.406
app_4,645.406,727.746,727.746,730.746
app_4,730.746,820.855,820.855,823.855
app_4,823.855,903.613,903.613,906.913
app_4,906.913,991.047,991.047,994.347
app_4,994.347,1070.5,1070.5,1073.5
app_4,1073.5,1154.69,1165.17,1168.19
app_4,1168.19,1255.67,1261.99,1265.27
app_4,1265.27,1348.73,1355.8,1358.83
app_4,1358.83,1446.41,1452.18,1455.51
app_4,1455.51,1540.43,1547.43,1550.43
app_4,1550.43,1633.59,1642.91,1646.29
app_4,1646.29,1722.43,1722.43,1725.73
app_4,1725.73,1806.73,1806.73,1810.03
app_4,1810.03,1888.01,1888.01,1891.31
app_4,1891.31,1978.81,1978.81,1982.11
app_4,1982.11,2070.13,2070.13,2073.13
app_4,2073.13,2155.47,2161.55,2164.57
app_4,2164.57,2240.91,2240.91,2243.91
app_4,2243.91,2333.82,2333.82,2337.12
app_4,2337.12,2423.51,2423.51,2426.81
app_4,2426.81,2506.9,2510.15,2513.5
app_4,2513.5,2588.96,2588.96,2592.26
app_4,2592.26,2673.73,2673.73,2677.03
app_4,2677.03,2762.47,2762.47,2765.77
app_4,2765.77,2849.47,2849.47,2852.77
app_4,2852.77,2933.26,2933.26,2936.56
app_4,2936.56,3017.36,3017.36,3020.36
app_4,3020.36,3099.23,3102.12,3105.43
app_4,3105.43,3185.41,3186.53,3189.61
app_4,3189.61,3277.78,3277.78,3280.78
app_4,3280.78,3362.34,3370.88,3374.24
app_4,3374.24,3460.54,3460.96,3464.24
app_4,3464.24,3546.33,3546.33,3549.63
app_4,3549.63,3627.86,3629.9,3633.26
app_4,3633.26,3708.04,3708.04,3711.34
app_4,3711.34,3799.1,3799.1,3802.4
app_4,3802.4,3889.85,3889.85,3893.15
app_4,3893.15,3975.16,3975.16,3978.46
app_4,3978.46,4061.73,4061.73,4065.03
app_4,4065.03,4145.2,4155.26,4158.3
app_4,4158.3,4248.15,4249.21,4252.55
app_4,4252.55,4328.36,4334.27,4337.26
app_4,4337.26,4423.03,4423.03,4426.03
app_4,4426.03,4514.33,4514.33,4517.63
app_4,4517.63,4605.31,4605.31,4608.61
app_4,4608.61,4685.23,4686.86,4690.23
app_4,4690.23,4769.65,4774.46,4777.75
app_4,4777.75,4864.85,4868.64,4871.95
app_4,4871.95,4947.05,4947.05,4950.05
app_4,4950.05,5038.67,5038.67,5041.97
app_4,5041.97,5116.88,5116.88,5119.88
app_4,5119.88,5204.43,5204.43,5207.73
app_4,5207.73,5289.86,5289.86,5292.86
app_4,5292.86,5371.03,5371.03,5374.03
app_4,5374.03,5452.9,5452.9,5456.2
app_4,5456.2,5541.15,5541.15,5544.15
app_4,5544.15,5630.36,5631.45,5634.76
app_4,5634.76,5712.38,5712.38,5715.38
app_4,5715.38,5801.3,5801.3,5804.6
app_4,5804.6,5894.03,5894.03,5897.33
app_4,5897.33,5973.88,5973.88,5976.88
app_4,5976.88,6057.61,6066.07,6069.11
app_4,6069.11,6155.89,6165.56,6168.89
app_4,6168.89,6246.58,6246.58,6249.88
app_4,6249.88,6325.03,6325.03,6328.33
app_4,6328.33,6408.79,6412.46,6415.79
app_4,6415.79,6494.69,6497.5,6500.49
app_4,6500.49,6585.82,6588.37,6591.72
app_4,6591.72,6676.87,6676.87,6680.17
app_4,6680.17,6767.14,6767.14,6770.44
app_4,6770.44,6849.81,6849.81,6852.81
app_4,6852.81,6933.73,6933.73,6937.03
app_4,6937.03,7011.19,7019.96,7023.29
app_4,7023.29,7102.84,7110.19,7113.24
app_4,7113.24,7195.67,7199.42,7202.77
app_4,7202.77,7281.64,7281.64,7284.94
app_4,7284.94,7364.35,7364.35,7367.65
app_4,7367.65,7450.08,7450.08,7453.08
app_4,7453.08,7527.13,7527.13,7530.23
app_4,7530.23,7608.6,7608.6,7611.9
app_4,7611.9,7691.18,7691.18,7694.48
app_4,7694.48,7784.57,7787.39,7790.67
app_4,7790.67,7878.61,7883.31,7886.31
app_4,7886.31,7968.79,7976.47,7979.79
app_4,7979.79,8059.96,8059.96,8063.26
app_4,8063.26,8147.79,8147.79,8151.09
app_4,8151.09,8233.54,8233.54,8236.84
app_4,8236.84,8315.47,8315.47,8318.47
app_4,8318.47,8397.47,8397.47,8400.77
app_4,8400.77,8483.58,8483.58,8486.58
app_4,8486.58,8570.48,8570.48,8573.78
app_4,8573.78,8658.21,8658.21,8661.21
app_4,8661.21,8740.59,8743.27,8746.29
app_4,8746.29,8825.85,8825.85,8829.15
app_4,8829.15,8907.37,8907.37,8910.67
app_4,8910.67,8992.6,8992.6,8995.6
app_4,8995.6,9076.97,9076.97,9080.27
app_4,9080.27,9163.08,9163.08,9166.38
app_4,9166.38,9248.06,9248.06,9251.36
app_4,9251.36,9340.56,9340.56,9343.56
app_4,9343.56,9418.7,9418.7,9422
app_4,9422,9511.58,9513.09,9516.38
app_4,9516.38,9604.14,9604.14,9607.44
app_4,9607.44,9695.56,9698.45,9701.46
app_4,9701.46,9780.11,9780.11,9783.11
app_4,9783.11,9872.22,9872.22,9875.22
app_4,9875.22,9959.62,9959.62,9962.92
app_4,9962.92,10050.2,10050.2,10053.5
app_4,10053.5,10131.8,10131.8,10135.1
app_4,10135.1,10218.3,10218.3,10221.3
app_4,10221.3,10299,10299,10302.3
app_4,10302.3,10385.8,10385.8,10389.1
app_4,10389.1,10473.3,10480,10483.3
app_4,10483.3,10570.9,10575.1,10578.4
app_4,10578.4,10656.1,10656.1,10659.4
app_4,10659.4,10744.1,10744.1,10747.1
app_4,10747.1,10831,10831,10834
app_4,10834,10908.3,10908.3,10911.3
app_4,10911.3,10987.6,10987.6,10990.9
app_4,10990.9,11070.6,11074.7,11078.1
app_4,11078.1,11152.2,11152.2,11155.5
app_4,11155.5,11240.3,11240.3,11243.3
app_4,11243.3,11329.5,11329.5,11332.8
app_4,11332.8,11415.3,11415.3,11418.6
app_4,11418.6,11504.4,11507.1,11510.4
app_4,11510.4,11586,11586,11589.3
app_4,11589.3,11668.3,11668.3,11671.6
app_4,11671.6,11750.9,11750.9,11753.9
app_4,11753.9,11829.5,11831.3,11834.4
app_4,11834.4,11909.7,11909.7,11912.7
app_4,11912.7,12002.7,12002.7,12006
app_4,12006,12087.1,12087.1,12090.4
app_4,12090.4,12175.4,12175.4,12178.7
app_4,12178.7,12258.4,12260.7,12264.1
app_4,12264.1,12340.2,12340.2,12343.5
app_4,12343.5,12426.8,12428.2,12431.6
app_4,12431.6,12505.5,12510.1,12513.5
app_4,12513.5,12589.6,12589.6,12592.9
app_4,12592.9,12682.5,12682.5,12685.5
app_4,12685.5,12765.8,12765.8,12769.1
app_4,12769.1,12845.4,12845.4,12848.7
app_4,12848.7,12935.8,12935.8,12939.1
app_4,12939.1,13026.6,13026.6,13029.9
app_4,13029.9,13111.2,13111.2,13114.2
app_4,13114.2,13192.6,13192.6,13195.6
app_4,13195.6,13278.6,13281.4,13284.7
app_4,13284.7,13370.5,13375.7,13379
app_4,13379,13465.4,13471.6,13474.9
app_4,13474.9,13562.1,13564.8,13568.1
app_4,13568.1,13649.6,13649.6,13652.9
app_4,13652.9,13741.4,13741.4,13744.7
app_4,13744.7,13834.6,13834.6,13837.9
app_4,13837.9,13927.6,13927.6,13930.9
app_4,13930.9,14017.1,14021.1,14024.1
app_4,14024.1,14110.7,14118.1,14121.1
app_4,14121.1,14202,14202,14205
app_4,14205,14285.6,14285.6,14288.9
app_4,14288.9,14377.6,14377.6,14380.9
app_4,14380.9,14455.3,14455.3,14458.6
app_4,14458.6,14536.8,14536.8,14539.8
app_4,14539.8,14614.9,14616.1,14619.5
app_4,14619.5,14694.1,14694.1,14697.1
app_4,14697.1,14786.9,14791.9,14795.2
app_4,14795.2,14872.8,14872.8,14876.1
app_4,14876.1,14953.3,14961.5,14964.8
app_4,14964.8,15045.7,15047,15050.3
app_4,15050.3,15139.9,15139.9,15142.9
app_4,15142.9,15218.4,15218.4,15221.4
app_4,15221.4,15304.6,15304.6,15307.6
app_4,15307.6,15381.4,15381.4,15384.7
app_4,15384.7,15469.5,15472.8,15476.2
app_4,15476.2,15552.5,15552.5,15555.8
app_4,15555.8,15642.6,15642.6,15645.9
app_4,15645.9,15730.4,15730.4,15733.4
app_4,15733.4,15819.5,15820.7,15823.9
app_4,15823.9,15903.5,15903.5,15906.8
app_4,15906.8,15981.9,15986.6,15990
app_4,15990,16070.9,16077,16080.3
app_4,16080.3,16156.9,16156.9,16160.2
app_4,16160.2,16241,16241,16244
app_4,16244,16318.3,16318.3,16321.3
app_4,16321.3,16398.7,16406.7,16409.8
app_4,16409.8,16495.1,16495.1,16498.1
app_4,16498.1,16579.1,16588.6,16591.9
app_4,16591.9,16667.8,16667.8,16671.1
app_4,16671.1,16746.4,16746.4,16749.7
app_4,16749.7,16824.4,16824.4,16827.7
app_4,16827.7,16907.5,16907.5,16910.8
app_4,16910.8,16999.9,16999.9,17003.2
app_4,17003.2,17083.1,17083.1,17086.4
app_4,17086.4,17173.3,17173.3,17176.6
app_4,17176.6,17261.8,17261.8,17265.1
app_4,17265.1,17354.1,17354.1,17357.4
app_4,17357.4,17431.9,17431.9,17435.2
app_4,17435.2,17523.3,17526.2,17529.5
app_4,17529.5,17606.2,17612.9,17615.9
app_4,17615.9,17703.9,17703.9,17706.9
app_4,17706.9,17789.8,17789.8,17792.8
app_4,17792.8,17880.4,17880.4,17883.7
app_4,17883.7,17964.8,17964.8,17968.1
app_4,17968.1,18045.9,18045.9,18048.9
app_4,18048.9,18124.1,18124.1,18127.4
app_4,18127.4,18206.5,18206.5,18209.5
app_4,18209.5,18286.5,18293.2,18296.5
app_4,18296.5,18383.3,18383.3,18386.6
app_4,18386.6,18466.3,18466.3,18469.6
app_4,18469.6,18548.4,18548.4,18551.4
app_4,18551.4,18638.2,18638.2,18641.2
app_4,18641.2,18722.9,18722.9,18725.9
app_4,18725.9,18805.1,18805.1,18808.3
app_4,18808.3,18887.8,18887.8,18891.1
app_4,18891.1,18967.3,18967.3,18970.6
app_4,18970.6,19047.4,19054.1,19057.1
app_4,19057.1,19142.7,19142.7,19146
app_4,19146,19235.6,19235.6,19238.9
app_4,19238.9,19318.5,19318.5,19321.8
app_4,19321.8,19395.8,19395.8,19399.1
app_4,19399.1,19486.3,19486.9,19490.2
app_4,19490.2,19579.1,19579.1,19582.1
app_4,19582.1,19664,19664,19667.3
app_4,19667.3,19742.3,19743.6,19747
app_4,19747,19830.6,19837.7,19840.8
app_4,19840.8,19922.4,19922.4,19925.4
app_4,19925.4,19999.2,19999.2,20002.5
app_4,20002.5,20082.6,20082.6,20085.6
app_4,20085.6,20163.7,20163.7,20167
app_4,20167,20252.9,20252.9,20256.2
app_5,7.84058,91.3614,91.3614,100.261
app_5,100.261,179.042,179.042,187.942
app_5,187.942,274.272,274.272,283.172
app_5,283.172,364.192,364.192,373.092
app_5,373.092,455.412,455.412,464.312
app_5,464.312,556.077,556.077,564.977
app_5,564.977,656.708,656.708,665.608
app_5,665.608,752.919,752.919,761.819
app_5,761.819,851.488,851.488,860.388
app_5,860.388,950.756,950.756,960.156
app_5,960.156,1050.4,1054.51,1063.5
app_5,1063.5,1150.97,1156.26,1165.17
app_5,1165.17,1244.29,1252.13,1261.99
app_5,1261.99,1339.72,1339.72,1348.62
app_5,1348.62,1427.15,1427.15,1436.55
app_5,1436.55,1528.14,1528.14,1537.04
app_5,1537.04,1626.01,1633.09,1642.91
app_5,1642.91,1727.94,1735.07,1744.94
app_5,1744.94,1825.26,1830.74,1840.56
app_5,1840.56,1922.7,1924.67,1934.5
app_5,1934.5,2018.59,2021.62,2030.59
app_5,2030.59,2120.98,2120.98,2129.88
app_5,2129.88,2210.61,2217.21,2226.21
app_5,2226.21,2304.03,2304.03,2312.93
app_5,2312.93,2394.84,2394.84,2404.64
app_5,2404.64,2483.15,2483.15,2492.95
app_5,2492.95,2575.42,2575.42,2585.22
app_5,2585.22,2677.96,2677.96,2687.76
app_5,2687.76,2780.62,2780.62,2790.42
app_5,2790.42,2882.32,2887.92,2897.72
app_5,2897.72,2977.7,2977.7,2987.5
app_5,2987.5,3077.22,3077.22,3087.02
app_5,3087.02,3165.77,3165.77,3174.67
app_5,3174.67,3259.33,3259.33,3268.23
app_5,3268.23,3361.08,3361.08,3370.88
app_5,3370.88,3451.16,3451.16,3460.96
app_5,3460.96,3554.32,3554.32,3564.12
app_5,3564.12,3644.31,3644.31,3654.11
app_5,3654.11,3739.12,3739.12,3748.92
app_5,3748.92,3842.07,3842.07,3851.87
app_5,3851.87,3937.9,3945.73,3955.6
app_5,3955.6,4035.73,4040.44,4050.23
app_5,4050.23,4139.87,4139.87,4148.77
app_5,4148.77,4227.07,4229.21,4239.07
app_5,4239.07,4319.07,4325.33,4334.27
app_5,4334.27,4427.93,4427.93,4436.83
app_5,4436.83,4527.76,4532.56,4542.36
app_5,4542.36,4629.68,4633.08,4642.88
app_5,4642.88,4731.53,4732.93,4742.73
app_5,4742.73,4827.1,4827.1,4836.9
app_5,4836.9,4921.51,4921.51,4931.31
app_5,4931.31,5010.74,5010.74,5020.54
app_5,5020.54,5098.46,5100.31,5110.16
app_5,5110.16,5190.21,5194.26,5203.41
app_5,5203.41,5290.14,5292.86,5301.84
app_5,5301.84,5385.31,5385.31,5394.21
app_5,5394.21,5480.77,5480.77,5489.67
app_5,5489.67,5583.5,5583.5,5593.3
app_5,5593.3,5685.95,5685.95,5695.75
app_5,5695.75,5773.64,5773.64,5783.44
app_5,5783.44,5873.17,5873.17,5882.97
app_5,5882.97,5963.3,5963.3,5972.2
app_5,5972.2,6057.17,6057.17,6066.07
app_5,6066.07,6155.76,6155.76,6165.56
app_5,6165.56,6257.76,6257.76,6267.56
app_5,6267.56,6353.47,6353.47,6363.27
app_5,6363.27,6446.1,6446.1,6455.3
app_5,6455.3,6533.58,6533.58,6542.48
app_5,6542.48,6620,6620,6629.8
app_5,6629.8,6707.29,6707.29,6717.09
app_5,6717.09,6807.77,6807.77,6816.67
app_5,6816.67,6905.23,6905.23,6915.03
app_5,6915.03,7003.66,7010.11,7019.96
app_5,7019.96,7101.29,7101.29,7110.19
app_5,7110.19,7189.62,7189.62,7199.42
app_5,7199.42,7283.05,7284.94,7294.75
app_5,7294.75,7379.32,7379.32,7389.12
app_5,7389.12,7479.01,7479.01,7487.91
app_5,7487.91,7578.56,7580.78,7589.76
app_5,7589.76,7670.31,7677.82,7687.61
app_5,7687.61,7776.59,7777.54,7787.39
app_5,7787.39,7874.41,7874.41,7883.31
app_5,7883.31,7965.57,7967.54,7976.47
app_5,7976.47,8060.09,8063.26,8073.09
app_5,8073.09,8157.94,8157.94,8167.74
app_5,8167.74,8256.13,8256.13,8265.03
app_5,8265.03,8347.18,8347.18,8356.98
app_5,8356.98,8445.07,8445.07,8454.87
app_5,8454.87,8536.18,8536.18,8545.98
app_5,8545.98,8634.45,8639.67,8649.45
app_5,8649.45,8734.37,8734.37,8743.27
app_5,8743.27,8828.9,8829.15,8839
app_5,8839,8923.43,8924.54,8934.33
app_5,8934.33,9013.3,9013.3,9022.2
app_5,9022.2,9116.63,9116.63,9126.43
app_5,9126.43,9207.73,9207.73,9217.53
app_5,9217.53,9302.79,9302.79,9311.69
app_5,9311.69,9391.85,9391.85,9401.65
app_5,9401.65,9480.49,9480.49,9490.29
app_5,9490.29,9568.1,9568.1,9577.9
app_5,9577.9,9671.08,9671.08,9679.98
app_5,9679.98,9758.94,9758.94,9768.04
app_5,9768.04,9861.03,9861.03,9869.93
app_5,9869.93,9947.79,9947.79,9957.59
app_5,9957.59,10035.1,10035.1,10044.9
app_5,10044.9,10137.5,10137.5,10147.3
app_5,10147.3,10227.5,10227.5,10236.4
app_5,10236.4,10319,10319,10328.8
app_5,10328.8,10408.2,10408.2,10418
app_5,10418,10497.8,10497.8,10507.6
app_5,10507.6,10589.8,10589.8,10599.6
app_5,10599.6,10684.8,10684.8,10693.7
app_5,10693.7,10773,10773,10781.9
app_5,10781.9,10874.7,10874.7,10883.6
app_5,10883.6,10962.9,10962.9,10972.7
app_5,10972.7,11065.7,11065.7,11074.7
app_5,11074.7,11165.7,11165.7,11175.5
app_5,11175.5,11268.1,11268.1,11277.9
app_5,11277.9,11365.3,11365.3,11375.1
app_5,11375.1,11463.9,11463.9,11473.7
app_5,11473.7,11554.9,11554.9,11564.7
app_5,11564.7,11642.8,11642.8,11652.6
app_5,11652.6,11734,11734,11742.9
app_5,11742.9,11822.4,11822.4,11831.3
app_5,11831.3,11918.7,11918.7,11927.6
app_5,11927.6,12020.7,12020.7,12029.6
app_5,12029.6,12122,12122,12131.8
app_5,12131.8,12210.1,12210.1,12219.9
app_5,12219.9,12311.2,12311.2,12320.1
app_5,12320.1,12398.6,12398.6,12408.4
app_5,12408.4,12500.3,12500.3,12510.1
app_5,12510.1,12599.8,12599.8,12608.7
app_5,12608.7,12690.5,12690.5,12699.4
app_5,12699.4,12780.8,12780.8,12790.6
app_5,12790.6,12883.7,12883.7,12893.5
app_5,12893.5,12984.5,12984.5,12993.4
app_5,12993.4,13071.1,13071.1,13080
app_5,13080,13166.9,13166.9,13175.8
app_5,13175.8,13263.1,13263.1,13272.9
app_5,13272.9,13354.6,13354.6,13364.4
app_5,13364.4,13449.3,13449.3,13458.8
app_5,13458.8,13542.7,13542.7,13552.5
app_5,13552.5,13638.8,13638.8,13648.6
app_5,13648.6,13726,13726,13735.8
app_5,13735.8,13819.3,13819.3,13829.1
app_5,13829.1,13914.9,13914.9,13924.7
app_5,13924.7,14012.2,14012.2,14021.1
app_5,14021.1,14108.3,14108.3,14118.1
app_5,14118.1,14209.6,14209.6,14218.5
app_5,14218.5,14297.3,14297.3,14307.1
app_5,14307.1,14384.7,14384.7,14394.5
app_5,14394.5,14480.2,14480.2,14490
app_5,14490,14568.4,14568.4,14578.2
app_5,14578.2,14671.2,14671.2,14680.1
app_5,14680.1,14759.2,14759.2,14769
app_5,14769,14856,14856,14865.8
app_5,14865.8,14951.7,14951.7,14961.5
app_5,14961.5,15048.3,15050.3,15060.1
app_5,15060.1,15142.4,15142.9,15151.8
app_5,15151.8,15244.4,15249.7,15258.6
app_5,15258.6,15339.7,15339.7,15348.6
app_5,15348.6,15426.7,15432.7,15442.5
app_5,15442.5,15520.1,15524.9,15534.7
app_5,15534.7,15626.2,15626.2,15636
app_5,15636,15719.2,15719.2,15728.1
app_5,15728.1,15811.8,15811.8,15820.7
app_5,15820.7,15904.4,15906.8,15916.6
app_5,15916.6,16003,16003,16012.8
app_5,16012.8,16106.9,16106.9,16116.7
app_5,16116.7,16195.1,16195.1,16204.9
app_5,16204.9,16295.3,16295.3,16304.2
app_5,16304.2,16388.6,16388.6,16397.5
app_5,16397.5,16478.3,16478.3,16487.2
app_5,16487.2,16578.8,16578.8,16588.6
app_5,16588.6,16674.7,16674.7,16684.5
app_5,16684.5,16770.4,16770.4,16780.2
app_5,16780.2,16858,16858,16866.9
app_5,16866.9,16945.7,16945.7,16955.5
app_5,16955.5,17034.1,17034.1,17043.9
app_5,17043.9,17134.1,17134.1,17143.9
app_5,17143.9,17226.6,17226.6,17236.4
app_5,17236.4,17322.4,17322.4,17331.3
app_5,17331.3,17418.7,17418.7,17428.5
app_5,17428.5,17516.4,17516.4,17526.2
app_5,17526.2,17604,17604,17612.9
app_5,17612.9,17705.6,17706.9,17715.9
app_5,17715.9,17796,17796,17805.2
app_5,17805.2,17888.7,17888.7,17898.5
app_5,17898.5,17992.8,17992.8,18002.6
app_5,18002.6,18095.8,18097.1,18106.9
app_5,18106.9,18191.7,18191.7,18201.5
app_5,18201.5,18283.4,18283.4,18293.2
app_5,18293.2,18387.6,18387.6,18397.4
app_5,18397.4,18484.7,18484.7,18494.5
app_5,18494.5,18577.3,18577.3,18586.2
app_5,18586.2,18665.8,18665.8,18674.7
app_5,18674.7,18752.6,18752.6,18761.5
app_5,18761.5,18846.9,18846.9,18856.7
app_5,18856.7,18948.2,18948.2,18958
app_5,18958,19050.6,19057.1,19066
app_5,19066,19148.7,19153.8,19163.7
app_5,19163.7,19254.6,19255.8,19265.7
app_5,19265.7,19351.7,19351.7,19361.5
app_5,19361.5,19442.7,19442.7,19452.5
app_5,19452.5,19540.9,19540.9,19550.7
app_5,19550.7,19631.1,19634.3,19643.9
app_5,19643.9,19731.2,19733.9,19743.6
app_5,19743.6,19828.8,19828.8,19837.7
app_5,19837.7,19925.1,19925.4,19935
app_5,19935,20023.7,20023.7,20033.5
app_5,20033.5,20127,20127,20136.7
app_6,313.02,1188.2,1188.2,1332.4
app_6,1332.4,2321.68,2321.68,2468.88
app_6,2468.88,3434.81,3434.81,3596.11
app_6,3596.11,4459.66,4459.66,4604.56
app_6,4604.56,5544.08,5544.08,5697.28
app_6,5697.28,6543.05,6543.05,6697.35
app_6,6697.35,7624.45,7705.8,7850.05
app_6,7850.05,8762.13,8810.61,8973.83
app_6,8973.83,9932.97,9932.97,10094.3
app_6,10094.3,11074.2,11074.2,11229
app_6,11229,12104.6,12105.2,12268.5
app_6,12268.5,13228.9,13228.9,13392.1
app_6,13392.1,14247.2,14247.2,14394.9
app_6,14394.9,15380.1,15380.1,15528.4
app_6,15528.4,16537.8,16692.5,16839.7
app_6,16839.7,17802.7,17802.7,17949.8
app_6,17949.8,18896.7,18905.8,19041.6
app_6,19041.6,19926.7,19926.7,20076.6
app_6,20076.6,20931.2,20931.2,21039.5
app_6,21039.5,21949.7,21949.7,22058
app_7,589.541,1589.29,1676.55,1685.69
app_7,1685.69,2773.8,2904.6,2907.5
app_7,2907.5,3970.54,4072.28,4074.94
app_7,4074.94,5125.82,5125.82,5128.42
app_7,5128.42,6188.41,6333.01,6335.61
app_7,6335.61,7543.29,7552.27,7554.89
app_7,7554.89,8633.39,8633.39,8650.59
app_7,8650.59,9766.7,9766.7,9770.5
app_7,9770.5,10869.2,10869.2,10871.8
app_7,10871.8,11973.6,11991.7,11994.3
app_7,11994.3,13084.1,13084.1,13086.7
app_7,13086.7,14106.5,14106.5,14117.4
app_7,14117.4,15114.7,15114.7,15117.3
app_7,15117.3,16209.2,16209.2,16211.8
app_7,16211.8,17214.2,17269,17271.6
app_7,17271.6,18354.8,18415.3,18417.9
app_7,18417.9,19428.7,19523.4,19526
app_7,19526,20699.9,20699.9,20702.5
app_7,20702.5,21736.2,21736.2,21738.8
app_8,544.143,1550.45,1550.45,1676.55
app_8,1676.55,2548.35,2548.35,2677.35
app_8,2677.35,3591.3,3615.31,3768.8
app_8,3768.8,4673.44,4696.25,4837.64
app_8,4837.64,5799.91,5818.34,5960.01
app_8,5960.01,6897.54,6897.54,7042.64
app_8,7042.64,8018.7,8029.91,8168.3
app_8,8168.3,9134.1,9148.8,9277.8
app_8,9277.8,10239.7,10239.7,10379.4
app_8,10379.4,11280.3,11327.4,11456.5
app_8,11456.5,12330.8,12330.8,12468.3
app_8,12468.3,13476.2,13553.5,13698.1
app_8,13698.1,14727.9,14727.9,14855.9
app_8,14855.9,15822.2,15822.2,15956.9
app_8,15956.9,16894.8,16894.8,17030.3
app_8,17030.3,18065.8,18065.8,18202.7
app_8,18202.7,19106.4,19106.4,19232.5
app_8,19232.5,20173.3,20181,20298.1
app_8,20298.1,21199.5,21199.5,21298.1
app_8,21298.1,22237.3,22272.7,22371.3
app_9,804.402,1866.86,1989.01,1997.26
app_9,1997.26,3136.89,3136.89,3145.09
app_9,3145.09,4287.86,4309.37,4317.56
app_9,4317.56,5359.57,5359.57,5367.77
app_9,5367.77,6455.33,6479.68,6487.93
app_9,6487.93,7621.6,7697.53,7705.8
app_9,7705.8,8885.01,8973.83,8982.01
app_9,8982.01,10043.4,10179,10193.8
app_9,10193.8,11346.1,11551.8,11568.9
app_9,11568.9,12585.8,12585.8,12597
app_9,12597,13672.2,13698.1,13706.4
app_9,13706.4,14870.9,15042.2,15070.7
app_9,15070.7,16189.7,16189.7,16206.8
app_9,16206.8,17354.9,17354.9,17365.3
app_9,17365.3,18468.8,18535.2,18543.5
app_9,18543.5,19543.7,19570.5,19578.8
app_9,19578.8,20714.4,20714.4,20722.6
app_9,20722.6,21871.5,21892.7,21900.9
app_9,21900.9,23020.8,23020.8,23029
