app_id,Tcomp,Tio,iter,witer,alpha_io,compute_size,io_size,mu,desyn_time
1,16.663689500917748,0.18407634977355838,1188,16.847765850691307,0.010925861114457812,16e9,184076349.77355838,10,11.19779265812799
2,7.400644096584789,0.0719633583326246,2677,7.472607454917413,0.009630287522365236,7e9,71963358.3326246,10,2.962553258915299
3,12.379785035273162,0.09126486834745205,1604,12.471049903620614,0.00731813833259988,12e9,91264868.34745206,10,12.069676364215901
4,8.74013262350786,0.23024035690878408,2230,8.970372980416643,0.025666754037031156,8e9,230240356.9087841,10,2.7957343308313196
5,1.0846738926579138,0.021651543889741186,18078,1.106325436547655,0.019570682526568253,1e9,21651543.889741186,10,1.0751651451775706
6,15.84749179990496,0.30113689012209227,1239,16.148628690027053,0.018647830469225298,15e9,301136890.12209225,10,14.995073976060015
7,5.441528086013161,0.00799065948718404,3671,5.449518745500345,0.00146630553271918,5e9,7990659.48718404,10,1.4221228204736218
8,15.379657171991148,0.30786163896676755,1275,15.687518810957917,0.01962462277665749,15e9,307861638.96676755,10,1.122536364899355
9,12.61188680286144,0.22979357673148654,1558,12.841680379592926,0.017894354160741918,12e9,229793576.73148653,10,7.640968774820498
10,5.506598555491946,0.098288811372091,3569,5.604887366864037,0.017536268784484797,5e9,98288811.372091,10,0.07270129057360805
11,26.15988735469342,0.527429016758319,750,26.68731637145174,0.01976328415406078,26e9,527429016.758319,10,16.812385514492117
12,19.62221914841983,0.28097977053756185,1005,19.903198918957393,0.01411731710473608,19e9,280979770.53756183,10,0.130950950863987
13,8.983412226282889,0.0958232119318024,2203,9.079235438214692,0.010554105858790764,8e9,95823211.9318024,10,8.045581134508941
14,3.2270121272503536,0.027943475965787425,6145,3.254955603216141,0.008584902337278323,3e9,27943475.965787426,10,2.0111484327556535
15,11.15570805770473,0.2742886961318783,1750,11.429996753836608,0.023997268069197848,11e9,274288696.13187826,10,6.914028849411791
16,6.528776017754684,0.05984235996588604,3036,6.58861837772057,0.009082687224417662,6e9,59842359.96588604,10,5.868459237955696
17,17.156885123483256,0.17053275592405817,1155,17.327417879407314,0.00984178699393676,17e9,170532755.92405817,10,13.043878722884568
18,17.047628664227986,0.19057078892407553,1161,17.238199453152063,0.01105514467691282,17e9,190570788.92407554,10,9.37075044520665
19,3.162410976572151,0.004351225107473338,6316,3.1667622016796244,0.0013740296335372085,3e9,4351225.107473338,10,2.3193854060765684
20,11.535602771996984,0.16010624844689833,1711,11.695709020443882,0.013689315300768477,11e9,160106248.44689834,10,7.607200044267156
21,99.99401299181437,1.1097148448895418,198,101.10372783670391,0.010976003245714938,99e9,1109714844.8895419,100,17.14677586494153
22,171.05814043860923,2.347085234876504,116,173.40522567348575,0.013535262422229188,171e9,2347085234.876504,100,84.85305505894874
23,181.24062519012574,2.333742147459637,109,183.5743673375854,0.012712788725933536,181e9,2333742147.459637,100,56.049019220178806
24,177.84495047012246,1.772230910236481,112,179.61718138035894,0.009866711506198224,177e9,1772230910.236481,100,90.33677339266445
25,249.02300794523836,0.31998970357525336,81,249.34299764881362,0.0012833314213457154,249e9,319989703.57525337,100,164.98091164750562
26,166.85126008691452,0.09078516532427695,120,166.94204525223878,0.0005438124660992763,166e9,90785165.32427695,100,65.36332836836475
27,75.19032328538165,0.12569154479214892,266,75.3160148301738,0.0016688554894409152,75e9,125691544.79214892,100,19.793306025986364
28,34.781411319377916,0.9410481030120281,560,35.722459422389946,0.026343317851799494,34e9,941048103.0120281,100,30.042082509481364
29,125.98555789348723,3.462638883416159,155,129.4481967769034,0.026749224551839996,125e9,3462638883.416159,100,5.420074712040428
30,143.64804091478584,1.5682358376761827,138,145.21627675246202,0.010799311707663614,143e9,1568235837.6761827,100,48.31278893200105
31,140.5081454803474,2.5085212095434115,140,143.0166666898908,0.017540062061317273,140e9,2508521209.5434117,100,94.40132471273154
32,135.06930842223537,0.4373342714603483,148,135.5066426936957,0.0032274009802524227,135e9,437334271.4603483,100,48.70930772593595
33,101.45637056692387,0.4020468092478435,197,101.85841737617172,0.00394711423566548,101e9,402046809.24784344,100,75.49545243340447
34,174.0389664311252,1.9008681955362858,114,175.93983462666148,0.010804080835757663,174e9,1900868195.5362859,100,167.0885961093412
35,7.641794042036596,0.13918015222011784,2571,7.780974194256714,0.01788723991950126,7e9,139180152.22011784,100,4.411245003738872
36,217.7428297293739,1.1465265430130118,92,218.88935627238692,0.0052379273370710125,217e9,1146526543.013012,100,35.453693265089555
37,94.62431229546594,1.0615646311889626,210,95.6858769266549,0.011094266628320422,94e9,1061564631.1889626,100,29.951009079087818
38,153.62921107495941,4.09386061246746,127,157.72307168742688,0.025956003574293868,153e9,4093860612.46746,100,33.54987464218884
39,38.55546884716214,0.09755534807338959,518,38.65302419523553,0.0025238736193225085,38e9,97555348.07338959,100,1.1271668436669322
40,21.479574885930187,0.39633860648749397,915,21.87591349241768,0.018117579712722272,21e9,396338606.487494,100,13.98650695960645
41,81.42617069608912,1.7258786434249507,241,83.15204933951406,0.020755695826306098,81e9,1725878643.4249506,1000,77.88530056843855
42,814.1440164298197,21.37571910069303,24,835.5197355305127,0.025583739308228944,814e9,21375719100.693027,1000,391.3325010435736
43,742.3973904652099,3.7938398297474465,27,746.1912302949573,0.005084272872314249,742e9,3793839829.7474465,1000,245.02013081968286
44,542.2019385011865,10.61697685292124,37,552.8189153541077,0.019205162048625893,542e9,10616976852.92124,1000,214.77525230651713
45,1027.5610915372624,18.17118704279239,20,1045.7322785800548,0.01737651922484988,1027e9,18171187042.79239,1000,310.48145891725073
46,495.6675522067086,5.370075587723952,40,501.0376277944325,0.01071790877536089,495e9,5370075587.723952,1000,249.85319162791848
47,1202.0345830686115,33.58668868112848,17,1235.62127174974,0.027182025309071448,1202e9,33586688681.12848,1000,889.1581773226693
48,944.0046704374183,1.1237045524622469,22,945.1283749898806,0.001188943832602929,944e9,1123704552.462247,1000,645.2782939627153
49,627.7655080083973,15.371192059415819,32,643.1367000678132,0.023900349735592852,627e9,15371192059.41582,1000,319.6698906935307
50,2304.178742589819,12.082593874967852,9,2316.261336464787,0.005216420826420654,2304e9,12082593874.967852,1000,144.71865161036442
51,822.092944426081,19.97913743287545,24,842.0720818589564,0.023726160578521442,822e9,19979137432.87545,1000,336.6313127668307
52,93.75197296606964,1.7726297723520201,210,95.52460273842166,0.018556787691711985,93e9,1772629772.35202,1000,82.83193620208355
53,199.9632297525229,5.409847407672982,98,205.37307716019586,0.026341560843698965,199e9,5409847407.672981,1000,72.1358692167608
54,1868.678814797569,23.066358033525464,11,1891.7451728310944,0.01219316341587671,1868e9,23066358033.525463,1000,1724.0268082962205
55,2727.6940457547034,22.77900396114412,8,2750.4730497158475,0.008281849539844583,2727e9,22779003961.14412,1000,1108.4724634767344
56,207.8886038200191,1.0073262351501782,96,208.8959300551693,0.004822143901435245,207e9,1007326235.1501782,1000,135.86479565482242
57,1566.0926685723543,9.79994195233383,13,1575.8926105246883,0.006218661022257711,1566e9,9799941952.33383,1000,587.9759774906445
58,897.6009252024372,1.228700952104029,23,898.8296261545413,0.001367000949179629,897e9,1228700952.1040292,1000,268.76947764164566
59,967.674825968425,19.5818686639459,21,987.2566946323709,0.01983462737747014,967e9,19581868663.9459,1000,208.22510203685266
60,442.69968381495426,9.630975555591498,45,452.33065937054573,0.021291892017653125,442e9,9630975555.591497,1000,403.7616904691573
