app_id,Tcomp,Tio,iter,witer,alpha_io,compute_size,io_size,mu,desyn_time
1,11.159777199935203,0.02231381889943167,1789,11.182091018834635,0.001995496089402888,11e9,22313818.899431672,10,9.54358986044538
2,8.714906120437478,0.000767694380314176,2295,8.715673814817793,8.808204582059903e-05,8e9,767694.380314176,10,6.71367131162225
3,1.6231698511890444,0.013537455790744276,12220,1.6367073069797886,0.008271152534734452,1e9,13537455.790744277,10,0.7464297139436152
4,10.767336842939534,0.12933148782826961,1836,10.896668330767803,0.011868901934281103,10e9,129331487.82826962,10,2.094456198176594
5,7.398174606350595,0.161467863936223,2646,7.559642470286818,0.021359193185507462,7e9,161467863.936223,10,2.1434792181124735
6,21.685785086439928,0.3694974486803773,907,22.055282535120305,0.01675324032199535,21e9,369497448.6803773,10,8.40648754501583
7,1.447319349786015,0.020847865786012013,13623,1.4681672155720271,0.014199925979064497,1e9,20847865.786012013,10,0.4150762613098712
8,17.477603721142717,0.25840450801430254,1128,17.73600822915702,0.014569485121770512,17e9,258404508.01430252,10,3.2445139947226647
9,21.868401683587585,0.31277585259699037,902,22.181177536184574,0.01410095798957261,21e9,312775852.59699035,10,8.473515767226528
10,7.822777644560626,0.08284005174253675,2530,7.905617696303162,0.010478631136093838,7e9,82840051.74253675,10,2.7418625194454247
11,4.549717227248934,0.07325678930492319,4327,4.622974016553857,0.015846247251792175,4e9,73256789.30492319,10,3.2263415304347753
12,6.254885329946893,0.011443188998176894,3192,6.26632851894507,0.0018261393355902993,6e9,11443188.998176893,10,5.85588631610668
13,7.540142460574164,0.15016329485404512,2601,7.690305755428209,0.019526310088263034,7e9,150163294.85404512,10,4.076757523280072
14,18.40678887607159,0.19675683416943784,1076,18.60354571024103,0.010576308260479913,18e9,196756834.16943786,10,16.47696967799064
15,3.6185644053767705,0.040447471612041284,5466,3.659011876988812,0.011054206155058338,3e9,40447471.61204129,10,1.4098505151869878
16,8.70030426818178,0.0008793620464948887,2299,8.701183630228275,0.00010106234782127207,8e9,879362.0464948887,10,5.141877616787939
17,9.292150528115037,0.13245888527099314,2123,9.424609413386031,0.014054575575605091,9e9,132458885.27099314,10,7.925021573476382
18,4.005260882954008,0.022878178847401773,4966,4.028139061801411,0.005679590127449696,4e9,22878178.84740177,10,1.6813508255534477
19,3.8898051243430594,0.0060823172384562784,5134,3.8958874415815155,0.0015612148270862756,3e9,6082317.238456278,10,0.7912099758334601
20,17.822957293533936,0.030594529825644493,1121,17.85355182335958,0.0017136382792814716,17e9,30594529.825644493,10,16.44317875697781
21,245.74805255299788,4.601573165202782,80,250.34962571820066,0.01838058735658914,245e9,4601573165.202783,100,234.21267058571016
22,96.6825338400528,2.0671034040604725,203,98.74963724411327,0.0209327695954012,96e9,2067103404.0604725,100,66.73542385851812
23,112.84782710826046,2.759168098989385,173,115.60699520724985,0.02386679191897511,112e9,2759168098.989385,100,14.159376487210201
24,178.0884240493025,4.638819550726808,110,182.72724360002928,0.025386578702411206,178e9,4638819550.726808,100,76.06929902434491
25,50.26605174036162,1.2697019480199836,389,51.535753688381604,0.024637302399755718,50e9,1269701948.0199835,100,0.4030077490542971
26,272.64641789316136,0.5202077009294928,74,273.1666255940909,0.0019043603873574585,272e9,520207700.9294928,100,228.79424355170252
27,106.25606294463992,0.7680083190100537,187,107.02407126364997,0.007176033484262551,106e9,768008319.0100538,100,76.13554093593208
28,7.530510752048887,0.049168539900588185,2639,7.579679291949475,0.006486889221396353,7e9,49168539.900588185,100,7.410306986730036
29,246.88736997127694,1.1155704330776617,81,248.0029404043546,0.004498214542371102,246e9,1115570433.0776618,100,228.52701370018218
30,93.56080225829096,1.525205929842979,211,95.08600818813395,0.016040277206981476,93e9,1525205929.842979,100,62.386543304547
31,72.23225999315002,1.6941512582858977,271,73.92641125143592,0.022916725289474825,72e9,1694151258.2858977,100,43.08273317140683
32,77.192227823455,1.632447771983905,254,78.8246755954389,0.020709857156435474,77e9,1632447771.983905,100,3.74928847722731
33,32.70771790038811,0.8252071065022419,597,33.53292500689035,0.02460886147965554,32e9,825207106.502242,100,23.74664773933394
34,154.02417261590088,2.1804724846523964,129,156.20464510055328,0.013959075821649,154e9,2180472484.652396,100,125.13282093169745
35,137.1204362529099,1.0625417889628281,145,138.18297804187273,0.007689382614411832,137e9,1062541788.9628282,100,94.61856300570477
36,36.73662191036188,0.33078419045173457,540,37.06740610081362,0.008923855895178863,36e9,330784190.45173454,100,12.24265838469169
37,51.07870187775529,0.35296699062640724,389,51.4316688683817,0.006862833705234838,51e9,352966990.62640727,100,47.48624600772685
38,106.22516958641505,2.7732530781303275,184,108.99842266454537,0.025443056975836417,106e9,2773253078.1303277,100,0.912296602211652
39,172.82314021463404,4.618594405986795,113,177.44173462062082,0.026028794273577058,172e9,4618594405.986795,100,19.137368032111123
40,62.191847153624884,0.8173988804145663,318,63.00924603403945,0.012972681500949613,62e9,817398880.4145663,100,48.72848447206699
41,1437.8781296611887,37.78400104101632,14,1475.662130702205,0.025604777851849128,1437e9,37784001041.01632,1000,795.0485837566886
42,2103.7793830999767,13.257745169708533,10,2117.037128269685,0.006262405601050779,2103e9,13257745169.708534,1000,1041.9388361202475
43,1417.0012422096293,16.198638716559437,14,1433.1998809261886,0.011302428176376387,1417e9,16198638716.559437,1000,435.49795200308233
44,1203.655050802177,1.2102153118070764,17,1204.865266113984,0.00100444036843252,1203e9,1210215311.8070765,1000,1193.6173911735589
45,1328.1668195975217,21.05851367500267,15,1349.2253332725243,0.015607855230471833,1328e9,21058513675.00267,1000,1323.4374010438585
46,538.2913503455267,12.044970350165714,37,550.3363206956924,0.021886562629447024,538e9,12044970350.165714,1000,258.35218925102333
47,2383.813671232425,55.95643192533146,9,2439.7701031577562,0.02293512485168497,2383e9,55956431925.33146,1000,1105.5912340039617
48,1062.8865780542787,21.337930615591443,19,1084.2245086698701,0.019680361811566943,1062e9,21337930615.591442,1000,150.7642583442428
49,1527.015840566964,32.835169194121214,13,1559.8510097610852,0.021050195812708047,1527e9,32835169194.121212,1000,1173.292264055628
50,382.1598564257338,5.422898915096178,52,387.58275534083,0.013991589771137845,382e9,5422898915.096178,1000,204.2267807026278
51,755.7164912292153,8.21695455116485,27,763.9334457803801,0.010756113109789286,755e9,8216954551.16485,1000,370.93193728745814
52,1978.2014189019415,10.22016647751994,11,1988.4215853794615,0.0051398388312957136,1978e9,10220166477.519941,1000,88.75504652440097
53,3437.039179848475,66.34989750345191,6,3503.389077351927,0.018938775008570607,3437e9,66349897503.45191,1000,154.03308627890095
54,513.4307004734305,7.17696189179718,39,520.6076623652277,0.013785740031544608,513e9,7176961891.797179,1000,491.6211459609349
55,1134.2413851571341,18.41449797528554,18,1152.6558831324196,0.01597571161068723,1134e9,18414497975.285538,1000,509.21216407513555
56,1204.9347231187444,4.269874316080134,17,1209.2045974348246,0.003531142972114178,1204e9,4269874316.0801344,1000,759.3500879306699
57,851.3989810624479,22.488708131568075,23,873.8876891940159,0.02573409422017301,851e9,22488708131.568073,1000,538.289573901546
58,499.81354608336966,3.05026046963035,40,502.863806553,0.006065778506787132,499e9,3050260469.63035,1000,385.1390390231862
59,92.79133180613174,0.021406488814866287,216,92.8127382949466,0.00023064171155945534,92e9,21406488.814866286,1000,34.31043028247143
60,1583.6398661272449,41.3847184892558,13,1625.0245846165008,0.025467133778177532,1583e9,41384718489.255806,1000,1550.0852986183017
