app_id,Tcomp,Tio,iter,witer,alpha_io,compute_size,io_size,mu,desyn_time
1,10.370674053712627,0.08634166991032169,1913,10.457015723622948,0.008256817450821205,10e9,86341669.91032168,10,3.192279595742567
2,19.06768704039005,0.3463544602057264,1031,19.41404150059578,0.017840410004021957,19e9,346354460.2057264,10,18.550549170151278
3,8.526666238450703,0.004288187703740965,2345,8.530954426154445,0.0005026621277678048,8e9,4288187.703740966,10,6.429171417022906
4,4.043309558067077,0.09767438469673369,4830,4.14098394276381,0.02358724062850218,4e9,97674384.69673368,10,1.4496472268099523
5,11.906422618978588,0.2968936832510984,1639,12.203316302229688,0.02432893452059851,11e9,296893683.2510984,10,7.991015256656341
6,9.313805534561922,0.12696781936454957,2119,9.440773353926472,0.013448879091217978,9e9,126967819.36454956,10,5.8415293136270385
7,5.249379586516267,0.02488772296110415,3792,5.274267309477371,0.004718707168365018,5e9,24887722.961104147,10,0.8842971861597875
8,11.793101899346603,0.06557663309997386,1687,11.858678532446577,0.005529843221616083,11e9,65576633.09997386,10,9.910668687181476
9,9.70582663762174,0.036618432181429385,2053,9.74244506980317,0.0037586490782410133,9e9,36618432.181429386,10,8.050752446337812
10,14.04132275409963,0.2417715490381282,1401,14.283094303137759,0.016927112844519622,14e9,241771549.0381282,10,3.8024894224308885
11,13.70107076952245,0.1446141253245772,1445,13.845684894847029,0.010444707244377523,13e9,144614125.3245772,10,8.354918886392422
12,8.1708819211405,0.1281613669916013,2410,8.299043288132102,0.015442908603076714,8e9,128161366.9916013,10,3.805865365229005
13,5.678225360668812,0.1202652728273424,3450,5.798490633496154,0.02074078935863166,5e9,120265272.82734239,10,4.7242261827473
14,19.068666550748883,0.2935724122306849,1033,19.362238962979568,0.015162110786463942,19e9,293572412.23068494,10,12.286510266812268
15,19.513234836160677,0.2349786095170784,1013,19.748213445677756,0.011898727455192035,19e9,234978609.5170784,10,18.216811581077277
16,3.4105289456624663,0.055840326408623235,5770,3.4663692720710895,0.016109168419687642,3e9,55840326.40862323,10,1.9869474815632284
17,7.238633844976376,0.133254772102262,2714,7.371888617078638,0.0180760696510725,7e9,133254772.102262,10,4.120919786060028
18,15.103957404501493,0.1519200336625886,1311,15.255877438164081,0.00995813149904742,15e9,151920033.6625886,10,2.2995604633568165
19,19.64046845567472,0.10636488444004989,1013,19.746833340114772,0.005386427413856508,19e9,106364884.44004989,10,9.9168497106115
20,7.375470909338663,0.13707337775328185,2663,7.512544287091945,0.01824593273796753,7e9,137073377.75328186,10,0.8470119476418577
21,23.97329726095938,0.5264787909995801,817,24.49977605195896,0.021489126671322523,23e9,526478790.9995801,100,9.7572383478546
22,49.47550054387777,0.3544279736796943,402,49.82992851755746,0.007112753002541683,49e9,354427973.6796943,100,39.18554292706826
23,97.15245226212026,1.2621410275299252,204,98.41459328965018,0.012824734476270592,97e9,1262141027.529925,100,70.88740108283797
24,76.18445955605608,0.23370540503905285,262,76.41816496109513,0.003058244138131731,76e9,233705405.03905284,100,37.28099212707287
25,114.0384322692885,1.4056050940424039,174,115.4440373633309,0.012175640476074286,114e9,1405605094.042404,100,91.32117217842728
26,163.81823121338837,0.8199338586212324,122,164.6381650720096,0.004980217425665604,163e9,819933858.6212324,100,123.79703992298504
27,262.44287775776985,5.655177472004121,75,268.098055229774,0.021093690766079372,262e9,5655177472.004121,100,156.04275636919888
28,19.632061594844643,0.3068623516632116,1004,19.938923946507856,0.015390115960443096,19e9,306862351.6632116,100,11.0811600542083
29,91.12432126250543,1.3808000234837412,217,92.50512128598918,0.014926741398617863,91e9,1380800023.4837413,100,7.72379346315962
30,261.3729527488418,5.534244718538198,75,266.90719746738,0.0207347151783517,261e9,5534244718.5381975,100,130.4257378276931
31,37.74283802685573,0.7978724756827782,519,38.54071050253851,0.02070206971483377,37e9,797872475.6827782,100,23.506253734589095
32,72.44503621699539,1.506796683502737,271,73.95183290049813,0.020375379816888722,72e9,1506796683.502737,100,47.7355390177488
33,229.41678168277267,3.4768534275559055,86,232.89363511032857,0.014928932797621617,229e9,3476853427.5559053,100,232.84647805218836
34,64.36294636022181,0.10243280399358386,311,64.46537916421539,0.0015889583730307772,64e9,102432803.99358386,100,45.555327908545266
35,152.23993785082345,2.127536469114591,130,154.36747431993805,0.013782284632740142,152e9,2127536469.114591,100,96.3703040447633
36,138.79367779296177,2.0538210430758967,142,140.84749883603766,0.01458187798895013,138e9,2053821043.0758967,100,63.0226534401087
37,71.1935020539167,1.4631967663998215,276,72.65669882031652,0.020138497759420323,71e9,1463196766.3998215,100,2.128315084241524
38,83.17361004453223,0.9965627413472969,238,84.17017278587952,0.01183985619089143,83e9,996562741.347297,100,40.751918879517355
39,12.672298540757904,0.2278900804646357,1551,12.90018862122254,0.017665639406987118,12e9,227890080.4646357,100,10.296300041825795
40,119.45514649526378,0.49186555118431796,167,119.9470120464481,0.0041006903197709395,119e9,491865551.18431795,100,7.317451290893926
41,1191.1381854353178,24.329906492742204,17,1215.46809192806,0.020016902668459537,1191e9,24329906492.742203,1000,673.5319473111389
42,918.0501094661018,12.884545304313146,22,930.934654770415,0.013840440076313094,918e9,12884545304.313147,1000,261.6445064572491
43,477.024958448118,8.245317551282056,42,485.27027599940004,0.016991186064922406,477e9,8245317551.282057,1000,293.60916938484456
44,928.3641850248079,18.727841974292875,22,947.0920269991008,0.019774046703394596,928e9,18727841974.292877,1000,905.7832193978567
45,1196.071250378349,24.00658947506801,17,1220.0778398534171,0.01967627694799556,1196e9,24006589475.068012,1000,1084.2628560320607
46,968.1096337478624,8.064576505871772,21,976.1742102537341,0.00826141115096205,968e9,8064576505.871772,1000,31.76731833125445
47,1774.531697906366,23.235865219334315,12,1797.7675631257002,0.01292484395420681,1774e9,23235865219.334316,1000,318.1278201152781
48,1399.2660775795484,20.409594304743408,15,1419.675671884292,0.01437623726949859,1399e9,20409594304.74341,1000,423.81995978416137
49,722.7553782593508,4.878960288887348,28,727.6343385482381,0.006705236449700483,722e9,4878960288.887348,1000,582.2733245148485
50,1806.2094691338716,42.490259047556236,11,1848.6997281814279,0.022983861792068336,1806e9,42490259047.55624,1000,932.7397517946238
51,1079.2634330459591,8.24656922326822,19,1087.5100022692272,0.007582982414930172,1079e9,8246569223.268221,1000,40.36993703559524
52,460.1979820101966,0.07654528184277862,44,460.27452729203935,0.00016630353691985097,460e9,76545281.84277862,1000,366.6089692593502
53,645.6867446036223,3.9916621712892626,31,649.6784067749115,0.006144058552144891,645e9,3991662171.289263,1000,527.8380732322399
54,127.06363099492607,0.5310176884688244,157,127.5946486833949,0.004161755167228504,127e9,531017688.4688243,1000,126.67326324538647
55,552.0720368053192,13.48749064121151,36,565.5595274465306,0.02384804779455625,552e9,13487490641.21151,1000,357.5619118647325
56,696.7038038018604,14.700305887558885,29,711.4041096894193,0.02066379106802835,696e9,14700305887.558886,1000,151.33790968160508
57,977.8400533050036,6.478543132207261,21,984.3185964372109,0.006581754277178816,977e9,6478543132.207261,1000,607.5397752586281
58,1867.1330104657854,45.80255454507864,11,1912.9355650108641,0.023943595060306445,1867e9,45802554545.07864,1000,888.9426026453044
59,490.47574054945994,8.670487345686528,41,499.14622789514647,0.017370635819986404,490e9,8670487345.686527,1000,426.7478957639904
60,13.496036978416042,0.0017849172986101325,1482,13.497821895714651,0.00013223743152047487,13e9,1784917.2986101324,1000,1.1550555379758707
