app_id,Tcomp,Tio,iter,witer,alpha_io,compute_size,io_size,mu,desyn_time
1,1.7851463668764995,0.025370853124567515,11047,1.810517220001067,0.014013041601754312,1e9,25370853.124567516,10,0.40754241179751344
2,9.109132572916543,0.19041679545196294,2151,9.299549368368506,0.02047591640296537,9e9,190416795.45196295,10,7.122217404279386
3,15.659613830118108,0.060234754372257324,1273,15.719848584490364,0.0038317642850381264,15e9,60234754.37225732,10,7.780180126063762
4,6.588786674357682,0.11230379211690499,2985,6.701090466474588,0.016759032381186086,6e9,112303792.11690499,10,1.6872353235437556
5,8.679880646042678,0.0573720845605368,2290,8.737252730603215,0.006566375762438986,8e9,57372084.5605368,10,6.733419904593359
6,3.911715519652549,0.08003058520069867,5011,3.991746104853248,0.020049016921040098,3e9,80030585.20069867,10,2.124372986120718
7,20.27227420666666,0.07641188786216523,983,20.348686094528823,0.00375512637558993,20e9,76411887.86216523,10,6.573910513481028
8,22.574027882774253,0.5714154974130147,865,23.145443380187267,0.02468803418568996,22e9,571415497.4130147,10,4.441656817627347
9,9.686151631677793,0.1634311784456244,2031,9.849582810123417,0.01659270058399322,9e9,163431178.4456244,10,2.643405417668601
10,14.378226847972082,0.35248478619093304,1358,14.730711634163015,0.023928564684781495,14e9,352484786.19093305,10,3.9513074516503033
11,12.156681049468114,0.306000503797946,1605,12.46268155326606,0.024553343715803547,12e9,306000503.79794604,10,1.964240119269062
12,25.9164527102456,0.14254073570386475,768,26.058993445949465,0.005469924845697402,25e9,142540735.70386475,10,18.09762394210155
13,12.504286811648273,0.23147987901025693,1571,12.73576669065853,0.01817557471275314,12e9,231479879.01025695,10,7.199675687257549
14,7.710689853776863,0.09717939634605821,2562,7.807869250122921,0.012446340125960523,7e9,97179396.3460582,10,4.24881198562517
15,9.453504931513674,0.060781322668128,2103,9.514286254181801,0.00638842694494428,9e9,60781322.668128006,10,5.106399494945427
16,12.935587886057673,0.29317316916877323,1512,13.228761055226446,0.022161800938489684,12e9,293173169.16877323,10,5.133851404749716
17,4.404952591428858,0.11821335787339013,4422,4.523165949302248,0.026135091924192156,4e9,118213357.87339012,10,3.158072752529811
18,7.683381122878794,0.21628864250528834,2532,7.899669765384083,0.027379453689704,7e9,216288642.50528833,10,4.2892425383551895
19,4.020436806363625,0.03492388026181261,4932,4.055360686625438,0.008611781530799818,4e9,34923880.26181261,10,2.9566439634960915
20,5.372191366008454,0.1240659490341598,3639,5.496257315042613,0.022572805806344947,5e9,124065949.0341598,10,1.7081017079836125
21,49.214756773525394,1.003263092026322,399,50.21801986555172,0.019978149172594814,49e9,1003263092.0263219,100,19.861651164771637
22,124.75505568346016,0.1773549018022212,161,124.93241058526237,0.001419606817569426,124e9,177354901.80222118,100,55.90677696736354
23,138.0131266107957,1.6267929152961909,144,139.6399195260919,0.011649913010671871,138e9,1626792915.2961907,100,98.78177273224829
24,181.64632848821643,0.6182234850900126,110,182.26455197330642,0.003391901927153419,181e9,618223485.0900126,100,17.361352499531197
25,382.83184071483987,10.790833604237712,51,393.6226743190776,0.027414156521609497,382e9,10790833604.23771,100,253.1920653517632
26,38.839168693355745,0.5531623936980855,508,39.39233108705383,0.014042387907322413,38e9,553162393.6980855,100,1.8573476851153266
27,21.90633209862492,0.2983152243903474,901,22.204647323015266,0.0134348102922194,21e9,298315224.3903474,100,12.064885426930726
28,139.7273879531782,1.5206151598565725,142,141.24800311303477,0.010765569256506152,139e9,1520615159.8565724,100,95.91081398856983
29,270.44444947550545,2.3623448684424693,74,272.8067943439479,0.008659406281003708,270e9,2362344868.442469,100,65.195526080258
30,13.702077857758164,0.038751134854442155,1456,13.740828992612606,0.002820145340232069,13e9,38751134.85444216,100,7.710082238746881
31,59.69491913494964,0.14437110142944434,335,59.839290236379085,0.0024126472900855775,59e9,144371101.42944434,100,33.83977002891203
32,120.94739524471572,0.0015823825366983728,166,120.94897762725242,1.3083058391572778e-05,120e9,1582382.5366983728,100,0.794916005102115
33,93.72483538218123,1.316777110811486,211,95.04161249299271,0.013854742951763054,93e9,1316777110.811486,100,71.52780687984855
34,114.72873729472506,1.7955770460781464,172,116.52431434080322,0.015409462447696127,114e9,1795577046.0781465,100,4.71466668445645
35,105.31149806835582,1.3150629114502919,188,106.62656097980611,0.012333352021916473,105e9,1315062911.4502919,100,86.63290246335347
36,97.4466479311243,1.498261580341633,203,98.94490951146594,0.015142381631750457,97e9,1498261580.341633,100,42.92593891915664
37,17.72968009183074,0.4505942412759269,1101,18.180274333106667,0.024784787788124034,17e9,450594241.2759269,100,12.286658194760903
38,74.06973847781754,0.5455287201959337,269,74.61526719801347,0.007311221157303014,74e9,545528720.1959337,100,21.475018033705467
39,143.6103403000415,0.2325477778508686,140,143.84288807789238,0.001616679009704961,143e9,232547777.8508686,100,47.82179320712254
40,190.06171412311184,1.2281768995242397,105,191.28989102263608,0.006420500806176447,190e9,1228176899.5242398,100,12.36180543151017
41,1062.3958188992015,18.380530842225856,19,1080.7763497414273,0.017006784841862375,1062e9,18380530842.225857,1000,778.8314830388754
42,470.4927458614634,7.726958367820746,42,478.21970422928416,0.016157758242675898,470e9,7726958367.820746,1000,384.97526246491367
43,1226.2693516664183,21.55518528740155,17,1247.82453695382,0.017274211757385305,1226e9,21555185287.40155,1000,485.94156333238874
44,1877.2093219098817,27.12431463720275,11,1904.3336365470846,0.01424346769738534,1877e9,27124314637.20275,1000,693.7928969987196
45,2064.9240703778905,34.47479035107239,10,2099.398860728963,0.016421267533269928,2064e9,34474790351.072395,1000,1836.9881767525067
46,1398.8068600225408,15.956284177096423,15,1414.7631441996373,0.011278413805530144,1398e9,15956284177.096422,1000,987.2375139744299
47,1667.7740076647833,16.422895730677208,12,1684.1969033954606,0.009751173213516474,1667e9,16422895730.677208,1000,1220.6066596673681
48,738.7307121032075,9.630512995547198,27,748.3612250987546,0.012868802755348989,738e9,9630512995.547197,1000,210.4656560599537
49,1948.911451286147,22.04789781845221,11,1970.9593491045991,0.011186378769541087,1948e9,22047897818.45221,1000,619.2958818168325
50,1082.668628890656,7.042011788310281,19,1089.7106406789662,0.00646227679663898,1082e9,7042011788.310281,1000,856.4379269390298
51,1248.654151535735,11.30108836712582,16,1259.955239902861,0.008969436380928184,1248e9,11301088367.12582,1000,1206.7633491259105
52,1753.7713403354956,45.91710104574638,12,1799.688441381242,0.02551391673689113,1753e9,45917101045.746376,1000,1063.116493119317
53,222.8053929013706,3.8439172794561873,89,226.64931018082677,0.01695975724077611,222e9,3843917279.4561872,1000,79.378870487988
54,1866.1677530734871,6.40028950223522,11,1872.5680425757223,0.003417920928219839,1866e9,6400289502.23522,1000,1104.5018501389306
55,700.8727387473427,11.05317439851803,29,711.9259131458608,0.015525736870113663,700e9,11053174398.51803,1000,189.21816096463223
56,1916.7890816337906,19.89965286615521,11,1936.688734499946,0.010275090938293352,1916e9,19899652866.155212,1000,1357.8019322271257
57,1266.4572961111235,31.865462641344163,16,1298.3227587524677,0.024543560086679097,1266e9,31865462641.344162,1000,75.05768639913475
58,940.7066073351147,7.572564552001351,22,948.279171887116,0.007985585655046736,940e9,7572564552.001351,1000,736.8163267077546
59,1926.8917520098782,13.2764595044149,11,1940.168211514293,0.006842942496234736,1926e9,13276459504.4149,1000,492.4268012912595
60,2467.154030304737,24.63506075033524,9,2491.789091055072,0.009886495144701142,2467e9,24635060750.33524,1000,517.4025759073795
