app_id,Tcomp,Tio,iter,witer,alpha_io,compute_size,io_size,mu,desyn_time
1,1.2603571397915991,0.008948111511794308,15757,1.2693052513033933,0.007049613560336167,1e9,8948111.511794308,10,0.08194724503012299
2,12.838025910104902,0.10419187075301908,1546,12.94221778085792,0.008050542226783048,12e9,104191870.75301908,10,4.236014581171731
3,18.36677361851084,0.5849036683382799,1056,18.951677286849122,0.03086289722462476,18e9,584903668.3382798,10,1.395187624814092
4,9.809807613349541,0.11372854895246907,2016,9.92353616230201,0.011460486170696527,9e9,113728548.95246908,10,7.574521986112328
5,5.11537130040194,0.1115653624139169,3827,5.226936662815858,0.02134431113496875,5e9,111565362.4139169,10,4.96073560050228
6,2.425870207757327,0.002202633973580206,8237,2.4280728417309074,0.0009071531692640685,2e9,2202633.973580206,10,2.1541642782691746
7,6.358685257656792,0.06845390639054022,3112,6.4271391640473325,0.010650758392390722,6e9,68453906.39054023,10,0.8449958520969001
8,19.760674621516554,0.3211682521983426,996,20.081842873714898,0.01599296709062092,19e9,321168252.1983426,10,5.936866652930487
9,9.216920010080653,0.2506354543836897,2113,9.467555464464342,0.02647309068580886,9e9,250635454.38368973,10,7.191935284346763
10,6.232657161373299,0.0009093138518674405,3209,6.2335664752251665,0.00014587377153695865,6e9,909313.8518674405,10,1.3830539806946662
11,9.577030412153915,0.07273784970573562,2073,9.64976826185965,0.00753778202044802,9e9,72737849.70573561,10,3.6433215724628045
12,14.283482797911866,0.13239052926412875,1388,14.415873327175994,0.00918366347008291,14e9,132390529.26412876,10,9.392678411736998
13,7.8691051118895885,0.05293464413614005,2525,7.922039756025729,0.006681946287365757,7e9,52934644.13614005,10,2.624340702669611
14,11.553304171767582,0.2998343821925533,1688,11.853138553960136,0.025295779748763556,11e9,299834382.19255334,10,4.558672460874016
15,4.3572503290227065,0.08187417294938276,4506,4.439124501972089,0.01844376586261773,4e9,81874172.94938277,10,0.29679790955903196
16,2.1231085336600644,0.06341787560652146,9147,2.1865264092665857,0.029003937632655147,2e9,63417875.60652146,10,1.4027837541044117
17,8.69527590676332,0.27620562545065835,2230,8.971481532213977,0.030787069500046834,8e9,276205625.4506584,10,3.106502888407716
18,6.098225708033303,0.11642616300467354,3219,6.214651871037977,0.018734140772591328,6e9,116426163.00467354,10,1.8869827430262283
19,18.43994975909198,0.5416164548669243,1054,18.981566213958907,0.028533812687628668,18e9,541616454.8669243,10,14.526075380179844
20,11.693071965511464,0.09561696965427029,1697,11.788688935165734,0.008110907852445259,11e9,95616969.65427029,10,8.280254223247242
21,56.57514542490968,0.3964046953302962,352,56.971550120239975,0.006957941191589022,56e9,396404695.3302962,100,22.27566517263842
22,97.7071297507283,0.43417322367044897,204,98.14130297439876,0.004423960254366175,97e9,434173223.67044896,100,5.851523440613407
23,60.69646980249085,0.1288565528668074,329,60.82532635535766,0.0021184687462915248,60e9,128856552.86680739,100,19.654275236469058
24,40.871508294861194,0.34527457530970673,486,41.2167828701709,0.008377038460213891,40e9,345274575.30970675,100,19.19780721425994
25,149.63551853998192,2.5846889575189724,132,152.2202074975009,0.016979933216563294,149e9,2584688957.5189724,100,151.18957731605616
26,23.05002526632995,0.6518920320165528,844,23.7019172983465,0.027503767894001985,23e9,651892032.0165528,100,15.209723388309444
27,226.8520473231662,1.5666854406432913,88,228.4187327638095,0.006858830804666455,226e9,1566685440.6432912,100,64.57896339746134
28,136.8535778862078,3.5216206431290424,143,140.37519852933684,0.025087199733456213,136e9,3521620643.1290426,100,31.279288024500904
29,175.55465715010746,1.5525510104914813,113,177.10720816059893,0.008766165006020786,175e9,1552551010.4914813,100,17.332733724774243
30,14.572246981712512,0.03882703107791333,1369,14.611074012790425,0.0026573700909272267,14e9,38827031.07791334,100,1.4645665726876886
31,55.43708974849539,0.1396197406484989,360,55.57670948914389,0.002512198759729948,55e9,139619740.64849892,100,40.04378686538042
32,25.095501391060257,0.004725841140040765,797,25.100227232200297,0.00018827881900519735,25e9,4725841.1400407655,100,21.79007655055682
33,6.344863278638843,0.08057077548307967,3113,6.425434054121922,0.01253935139703028,6e9,80570775.48307967,100,4.061115206970859
34,95.94591444527808,1.0045148725749298,207,96.95042931785301,0.010361118353397045,95e9,1004514872.5749297,100,51.45430275911032
35,179.2875628789105,5.4014831452134615,109,184.68904602412397,0.02924636442438456,179e9,5401483145.213462,100,147.34225925238624
36,55.3687264975428,0.7682075192856528,357,56.136934016828455,0.013684529316392009,55e9,768207519.2856528,100,41.99037136684412
37,39.63835845803629,0.2262098046912746,502,39.864568262727566,0.005674457658751957,39e9,226209804.6912746,100,35.44575159846545
38,127.5215899885199,1.5785646002977152,155,129.10015458881762,0.012227441596219801,127e9,1578564600.2977152,100,50.78053418037215
39,2.921503032048537,0.05358565256038298,6723,2.97508868460892,0.01801144713352533,2e9,53585652.56038298,100,0.022261007745262303
40,149.09159909981332,1.741379158908323,133,150.83297825872165,0.011545082375297,149e9,1741379158.908323,100,148.52608496706833
41,1944.3986249298334,34.60194666145965,11,1979.000571591293,0.01748455617354198,1944e9,34601946661.45965,1000,584.5388644597679
42,238.13368976867991,1.0375773076512904,84,239.17126707633122,0.004338218885298412,238e9,1037577307.6512904,1000,56.4972254203528
43,552.7036335266848,15.551171328478507,36,568.2548048551633,0.027366546126155827,552e9,15551171328.478506,1000,269.56654390631985
44,436.6249452162689,1.840575471616285,46,438.46552068788515,0.004197765581952041,436e9,1840575471.616285,1000,335.2834127961926
45,2085.6673020392973,19.1388409395106,10,2104.8061429788077,0.009092923357029228,2085e9,19138840939.5106,1000,417.2772884473121
46,2036.9918792098006,20.54935286063019,10,2057.541232070431,0.009987334659608306,2036e9,20549352860.63019,1000,1591.6637530331457
47,948.3624790173657,11.536255861283552,21,959.8987348786492,0.012018200922769182,948e9,11536255861.283552,1000,875.8639720093609
48,1504.6063178948089,18.337431389305905,14,1522.9437492841148,0.012040780493649698,1504e9,18337431389.305904,1000,421.7844179164924
49,2159.056767701835,7.875562172599831,10,2166.932329874435,0.003634429217757893,2159e9,7875562172.599831,1000,918.2122186164204
50,322.9691108688358,7.260503434013055,61,330.22961430284886,0.021986227520329388,322e9,7260503434.013055,1000,112.28888654566745
51,639.7432602452603,7.586252874300632,31,647.3295131195609,0.01171930635101363,639e9,7586252874.3006315,1000,443.23266516336696
52,369.3390567945002,6.027792278119415,54,375.36684907261963,0.01605840338061729,369e9,6027792278.119415,1000,173.01185120321193
53,1740.4643381452647,7.998827100184264,12,1748.463165245449,0.004574775871278586,1740e9,7998827100.184264,1000,156.10913815678106
54,917.9836851254619,10.218772881891347,22,928.2024580073532,0.011009206874789804,917e9,10218772881.891348,1000,551.9878774617955
55,1416.336279844125,11.861825794003192,15,1428.1981056381283,0.00830544848587602,1416e9,11861825794.003191,1000,1088.1941305370917
56,307.61746387417577,5.503299473526561,64,313.12076334770234,0.017575645302753264,307e9,5503299473.526561,1000,235.50768145769996
57,2078.2870438642917,24.10532466509181,10,2102.3923685293835,0.011465664081511772,2078e9,24105324665.091812,1000,342.35731717493945
58,1251.1366345697868,35.61262362573482,16,1286.7492581955216,0.0276764283320251,1251e9,35612623625.73482,1000,1238.8242870566748
59,1604.0474929649072,43.958074850689165,13,1648.0055678155964,0.026673498991241187,1604e9,43958074850.68916,1000,1294.0714383824718
60,1093.3858471896208,1.9970965936904888,19,1095.3829437833112,0.001823194897295712,1093e9,1997096593.6904888,1000,995.1093106290039
