app_id,Tcomp,Tio,iter,witer,alpha_io,compute_size,io_size,mu,desyn_time
1,11.903019759968966,0.24270236205440945,1647,12.145722122023376,0.019982538676257586,11e9,242702362.05440944,10,7.046391659701939
2,23.440362264977257,0.15458176545141455,848,23.59494403042867,0.006551478369775396,23e9,154581765.45141456,10,14.328531271431373
3,7.282399891625611,0.20511109385349505,2672,7.487510985479107,0.027393761992640403,7e9,205111093.85349506,10,6.045472804543745
4,20.38783509855804,0.5695594527580262,955,20.957394551316064,0.027177016272867734,20e9,569559452.7580262,10,6.247998981136972
5,7.435415901045352,0.009669480424908448,2687,7.44508538147026,0.0012987736109748836,7e9,9669480.424908448,10,4.121840208294962
6,11.461362226299832,0.049621808264181604,1738,11.510984034564013,0.0043108224383929545,11e9,49621808.26418161,10,3.75696013816125
7,10.356607176229197,0.03239613330471461,1926,10.389003309533912,0.0031183100379788037,10e9,32396133.30471461,10,8.120536020417688
8,20.514478112877715,0.5584404198611117,950,21.072918532738825,0.02650038337089,20e9,558440419.8611118,10,10.828816242119965
9,15.926336429965128,0.4261493927814094,1224,16.352485822746537,0.026060220898563913,15e9,426149392.7814094,10,14.226614339596631
10,17.84792108255958,0.44052984235501164,1094,18.288450924914592,0.024087870764104582,17e9,440529842.35501164,10,0.4864638264650225
11,14.364066051237012,0.3919499011989304,1356,14.756015952435943,0.02656204103210032,14e9,391949901.19893044,10,8.699911761737742
12,10.155636038907232,0.08785981440580111,1953,10.243495853313034,0.00857713183701683,10e9,87859814.4058011,10,3.1097123336435533
13,24.63356025728691,0.24905811319669796,804,24.882618370483605,0.010009320943978188,24e9,249058113.19669795,10,4.469877460162384
14,14.814478004317742,0.016935529584947786,1349,14.83141353390269,0.0011418688816298836,14e9,16935529.584947787,10,7.353216790660521
15,8.30752329400687,0.017880725231900367,2403,8.325404019238771,0.0021477306315201843,8e9,17880725.231900368,10,1.6939361059378417
16,16.204915882537332,0.12366670736313846,1225,16.32858258990047,0.007573633944175204,16e9,123666707.36313847,10,8.269085469525526
17,4.951657848561122,0.05694451350732995,3994,5.008602362068451,0.011369342062086361,4e9,56944513.50732995,10,1.1952095862601664
18,6.552279349012068,0.13940847427901293,2989,6.691687823291081,0.020833080974546954,6e9,139408474.27901292,10,2.3666339607962215
19,3.5438764131280522,0.007337663568507947,5632,3.55121407669656,0.0020662408432818697,3e9,7337663.568507947,10,2.59698625574366
20,13.395343803655779,0.17840508989626028,1474,13.57374889355204,0.0131433910628042,13e9,178405089.8962603,10,3.327035710042736
21,142.72431110427988,3.732826003293036,137,146.45713710757292,0.02548749809680679,142e9,3732826003.293036,100,18.919747685917706
22,126.61455767850141,0.23850387023405945,158,126.85306154873547,0.0018801585655260598,126e9,238503870.23405945,100,17.39551554627022
23,69.29436599778505,0.17572896954450504,288,69.47009496732956,0.0025295628230700847,69e9,175728969.54450503,100,48.9172655641763
24,152.83663315915786,2.454889122243386,129,155.29152228140123,0.015808262332536877,152e9,2454889122.2433863,100,64.35955000343193
25,12.316119650761348,0.1354282114519692,1607,12.451547862213317,0.010876415763774468,12e9,135428211.4519692,100,10.538736770786187
26,96.0349956812554,2.4497770740539573,204,98.48477275530935,0.024874678648450138,96e9,2449777074.0539575,100,28.428070817716105
27,112.78203719546576,0.4177740078066264,177,113.19981120327239,0.0036905892630547895,112e9,417774007.8066264,100,43.356894421079225
28,202.05267207250637,3.180348623527386,98,205.23302069603375,0.015496281313511107,202e9,3180348623.527386,100,165.46782588021642
29,41.911895826039256,0.5417942003813012,472,42.45369002642056,0.012762004905677738,41e9,541794200.3813012,100,11.23198523944047
30,26.95922875507239,0.41008706570465503,731,27.369315820777047,0.01498346061662758,26e9,410087065.70465505,100,8.307311667492911
31,4.6198112252343275,0.08249405742255216,4254,4.70230528265688,0.01754332236292869,4e9,82494057.42255215,100,3.2179855641066477
32,80.51097101477909,1.0170478433127355,246,81.52801885809183,0.012474825925587804,80e9,1017047843.3127354,100,10.85065486433109
33,72.56014718054283,0.4160843756359493,275,72.97623155617877,0.0057016423945601795,72e9,416084375.6359493,100,22.707607256563406
34,18.299889345173813,0.5135974510817618,1064,18.813486796255575,0.027299429215002426,18e9,513597451.0817618,100,13.120748256348389
35,375.4101483933153,7.858790604864223,53,383.2689389981795,0.02050463735831604,375e9,7858790604.864223,100,17.48062796785234
36,95.09987843769886,1.4312638470406587,208,96.53114228473952,0.014826964782192632,95e9,1431263847.0406587,100,86.19984127147444
37,189.0431630985042,3.2842686156070844,104,192.3274317141113,0.01707644399104256,189e9,3284268615.6070843,100,150.57414403944304
38,144.85658576853822,2.04228227148523,137,146.89886804002344,0.013902641311904449,144e9,2042282271.48523,100,133.50359042602787
39,137.4070994045607,2.869548977899197,143,140.2766483824599,0.020456355430416767,137e9,2869548977.899197,100,85.39013802099296
40,142.44944255662892,0.9686239173747622,140,143.4180664740037,0.006753848669061072,142e9,968623917.3747622,100,44.12621610234571
41,1184.3196866458695,3.0926779086824885,17,1187.412364554552,0.0026045525556260157,1184e9,3092677908.6824884,1000,400.2741952321615
42,43.80525120304603,0.06849602956165318,456,43.873747232607684,0.0015612076442548728,43e9,68496029.56165318,1000,37.84019266620998
43,1307.3600615104003,18.93085618355048,16,1326.2909176939509,0.014273532247710741,1307e9,18930856183.55048,1000,305.1835236610823
44,747.0990478729074,17.520964883428796,27,764.6200127563361,0.022914604105467296,747e9,17520964883.428795,1000,198.98356133205428
45,2049.7528129035263,31.33403852060081,10,2081.086851424127,0.015056574164196144,2049e9,31334038520.60081,1000,654.8721992493514
46,1305.6135069970123,4.700407951627219,16,1310.3139149486396,0.0035872380641027235,1305e9,4700407951.627219,1000,624.6307380182066
47,1803.540992773045,29.38358257657341,11,1832.9245753496184,0.016030982928453934,1803e9,29383582576.57341,1000,857.0591869186923
48,301.39776652396563,1.7019360255982197,66,303.09970254956386,0.005615102922510831,301e9,1701936025.5982196,1000,93.38081935683037
49,1885.952615428089,17.892580047854754,11,1903.845195475944,0.009398127584308014,1885e9,17892580047.854755,1000,619.4295401486936
50,1042.0883075985978,27.541419964043445,19,1069.6297275626412,0.025748555088125603,1042e9,27541419964.043446,1000,858.8986911482377
51,833.2217284144392,2.8466890156207376,24,836.06841743006,0.0034048517516915688,833e9,2846689015.6207376,1000,124.8176643327002
52,1977.7610466955884,42.40642922401091,10,2020.1674759195994,0.020991541409064167,1977e9,42406429224.01091,1000,625.917690453656
53,391.7718040222382,0.005642242999715206,52,391.7774462652379,1.440165342212002e-05,391e9,5642242.999715206,1000,115.24003167951157
54,2154.0036014084503,20.101980983360274,10,2174.1055823918105,0.00924609234536134,2154e9,20101980983.360275,1000,2152.5769707770155
55,949.0188389534657,2.9623668571307786,22,951.9812058105964,0.0031117913242923443,949e9,2962366857.130779,1000,127.41137062384948
56,2300.8962217295934,41.489630265020836,9,2342.3858519946143,0.017712551597633297,2300e9,41489630265.020836,1000,1562.4574846701225
57,1378.348345585382,36.18071016271329,15,1414.5290557480953,0.025577919389982814,1378e9,36180710162.71329,1000,882.3001316666408
58,1638.684166586856,14.504821952012259,13,1653.1889885388682,0.008773843796789381,1638e9,14504821952.012259,1000,1634.7222335019324
59,1210.118203866756,20.816433444027847,17,1230.9346373107837,0.01691107944570103,1210e9,20816433444.027847,1000,387.30079224005044
60,1496.8139561801806,34.65949166253936,14,1531.47344784272,0.02263146756567133,1496e9,34659491662.53936,1000,1474.4135579930573
