app_id,Tcomp,Tio,iter,witer,alpha_io,compute_size,io_size,mu,desyn_time
1,5.957297983967128,0.08737711666856961,3309,6.044675100635698,0.014455221366551274,5e9,87377116.66856961,10,1.5945878391286699
2,24.63667642139323,0.6428664598285013,792,25.27954288122173,0.025430303975395002,24e9,642866459.8285013,10,23.006446052983918
3,5.00561530142014,0.015505180225229743,3984,5.02112048164537,0.003087992069082727,5e9,15505180.225229744,10,4.849568161633063
4,8.780257147860954,0.1114632380108105,2250,8.891720385871764,0.012535621136705638,8e9,111463238.0108105,10,1.417710424498699
5,11.822747636084694,0.27901308414337717,1653,12.101760720228071,0.023055577662926957,11e9,279013084.1433772,10,7.4326861952153305
6,4.973352300061182,0.044731602588283695,3986,5.018083902649466,0.00891408024578189,4e9,44731602.588283695,10,0.3957233401074268
7,5.073538164605722,0.049105409002787134,3905,5.122643573608509,0.009585950749291765,5e9,49105409.002787136,10,2.754201148946268
8,10.272035491046005,0.2584419401920617,1900,10.530477431238067,0.024542281380843023,10e9,258441940.1920617,10,3.81991663799983
9,4.859438886046259,0.022405329219844686,4097,4.881844215266104,0.004589521547979875,4e9,22405329.219844684,10,1.3355898326169477
10,19.768869231096776,0.3011684652992105,997,20.070037696395985,0.0150058744211174,19e9,301168465.2992105,10,2.8429092649574055
11,1.0428194477065815,0.003625261456860346,19113,1.046444709163442,0.003464360252495791,1e9,3625261.456860346,10,0.8218113735355764
12,25.767353158079803,0.7036038821749875,756,26.470957040254792,0.02658022077195797,25e9,703603882.1749874,10,16.156874506872047
13,16.043687121486048,0.13817261040008938,1236,16.18185973188614,0.008538734897560761,16e9,138172610.40008938,10,14.923080848861257
14,7.788914247780482,0.10198780470635457,2535,7.890902052486836,0.012924733323006194,7e9,101987804.70635457,10,2.8485843357225447
15,7.588769373797444,0.02693082346237029,2627,7.615700197259814,0.0035362242163970953,7e9,26930823.46237029,10,7.108647786222668
16,4.744617241648259,0.06737912931274281,4157,4.811996370961001,0.01400232338481306,4e9,67379129.31274281,10,1.6739282375789128
17,16.472398368323585,0.425722170122302,1184,16.898120538445887,0.025193462737688313,16e9,425722170.122302,10,11.176018986086136
18,13.319413150027678,0.2744491545179417,1472,13.59386230454562,0.02018919629825655,13e9,274449154.5179417,10,0.5107514880164759
19,8.045997838082306,0.1908542600936777,2429,8.236852098175984,0.02317077662908887,8e9,190854260.0936777,10,3.997074432763631
20,12.233077892144932,0.3276252533595992,1593,12.560703145504531,0.026083352943251117,12e9,327625253.3595992,10,2.7638259807469288
21,247.50168550328243,5.830094952970759,79,253.3317804562532,0.023013673777805124,247e9,5830094952.970759,100,19.246245138625138
22,83.60231053050776,0.4730291710031264,238,84.07533970151088,0.0056262534612705915,83e9,473029171.00312644,100,79.92937028999403
23,38.66329161438207,0.6539136036417217,509,39.31720521802379,0.016631741753148688,38e9,653913603.6417217,100,30.30151707987612
24,153.98057662872492,4.132335454355937,127,158.11291208308086,0.026135344671816493,153e9,4132335454.355937,100,73.11215543450656
25,112.96516771224232,1.163644920117452,176,114.12881263235977,0.010195890882225084,112e9,1163644920.117452,100,92.67170475603199
26,143.35293540116962,1.4719875584462578,139,144.82492295961586,0.010163910522891966,143e9,1471987558.4462578,100,7.33812892054087
27,105.4464267810666,2.588553930263918,186,108.03498071133052,0.023960331303992496,105e9,2588553930.263918,100,71.55738792675906
28,49.7357202429896,0.21212729815083428,401,49.94784754114043,0.004246975767596629,49e9,212127298.1508343,100,27.822728637920605
29,161.30697795230535,0.175493740462156,124,161.4824716927675,0.0010867664993142166,161e9,175493740.462156,100,69.58154397656281
30,38.50543347491049,0.4356201552806037,514,38.94105363019109,0.011186655590203815,38e9,435620155.2806037,100,16.1507716321861
31,38.082662993288416,0.24987040285890413,522,38.33253339614732,0.006518494362911527,38e9,249870402.85890412,100,31.44200590558233
32,43.18331705026022,0.8827069266362987,454,44.06602397689652,0.02003146294975683,43e9,882706926.6362987,100,19.578742384538703
33,107.32713784727109,0.663266693901157,186,107.99040454117224,0.006141903965627623,107e9,663266693.901157,100,79.70617789399219
34,29.14323370243952,0.04902268921734966,686,29.19225639165687,0.001679304558018349,29e9,49022689.21734966,100,19.02521255984404
35,123.30515363765161,3.2872252813228937,158,126.5923789189745,0.025967007725061265,123e9,3287225281.3228936,100,76.8882915428256
36,174.75434846414117,3.231954673623368,113,177.98630313776454,0.01815844599638534,174e9,3231954673.6233683,100,89.53161750608824
37,39.167798382056326,0.0730826584778816,510,39.240881040534205,0.0018624112542832624,39e9,73082658.47788161,100,17.122297313354927
38,111.95748973518697,1.7800414779197828,176,113.73753121310675,0.015650431822584316,111e9,1780041477.9197829,100,72.19868012312155
39,84.73557591667019,0.8877545328710318,234,85.62333044954121,0.0103681383124217,84e9,887754532.8710318,100,65.17454956034136
40,282.16619610247756,2.1391575378749224,71,284.30535364035245,0.007524154963965139,282e9,2139157537.8749223,100,186.12836105178334
41,1166.543692449959,15.446593270679559,17,1181.9902857206387,0.013068291218029802,1166e9,15446593270.67956,1000,903.0249573923348
42,785.1914223612818,19.731997107009587,25,804.9234194682913,0.02451412970446799,785e9,19731997107.009586,1000,39.995241143836715
43,1590.6804644745205,16.6249457402712,13,1607.3054102147917,0.010343364512192822,1590e9,16624945740.2712,1000,410.25009852493594
44,1139.9752908992177,9.100933467650169,18,1149.0762243668678,0.00792021736648908,1139e9,9100933467.65017,1000,34.747764609266376
45,2914.8079729279984,61.89864652292874,7,2976.706619450927,0.020794338991440935,2914e9,61898646522.92874,1000,2686.9380974360793
46,1367.5450632296777,14.479508254040661,15,1382.0245714837183,0.010477026641064497,1367e9,14479508254.04066,1000,1221.4014762121742
47,2536.957629923383,69.49931567223929,8,2606.4569455956225,0.026664286854873577,2536e9,69499315672.23929,1000,2239.310749293527
48,1752.1246091194046,6.870209837097569,12,1758.994818956502,0.0039057589954546996,1752e9,6870209837.097569,1000,1516.9890938081874
49,57.52082827560896,0.21894435581934266,347,57.73977263142831,0.003791915794628002,57e9,218944355.81934264,1000,14.638332464596619
50,1410.1382411902568,4.705332762694947,15,1414.8435739529518,0.0033256911571847127,1410e9,4705332762.694946,1000,372.9928453890482
51,1493.6512582090986,19.148807049369683,14,1512.8000652584683,0.012657857101624351,1493e9,19148807049.369682,1000,158.74614183493708
52,2165.2907957937628,29.577489827734386,10,2194.8682856214973,0.013475747051199131,2165e9,29577489827.734386,1000,2100.2834439765397
53,2302.584440972785,60.80285797695324,9,2363.3872989497386,0.02572699701143918,2302e9,60802857976.95324,1000,1780.7858050986272
54,1286.2948430880924,11.887267532817111,16,1298.1821106209095,0.00915685668101799,1286e9,11887267532.81711,1000,679.1579291969929
55,800.8472235583757,0.1995696887604249,25,801.0467932471362,0.00024913611844252695,800e9,199569688.7604249,1000,748.3996980199026
56,1405.3005968436487,19.577186954930774,15,1424.8777837985795,0.013739555193807557,1405e9,19577186954.930775,1000,177.50219726958807
57,2024.1785316930384,46.40630378148275,10,2070.5848354745212,0.02241217214886426,2024e9,46406303781.48275,1000,1211.3842116016895
58,1662.86755160721,3.0264561227424465,13,1665.8940077299526,0.001816715894708378,1662e9,3026456122.7424464,1000,1600.347133435144
59,990.3523355200285,0.8229784033130472,21,991.1753139233416,0.0008303055894879733,990e9,822978403.3130472,1000,489.33954814046075
60,1615.7781448733951,39.89260155267659,13,1655.6707464260717,0.024094525822110885,1615e9,39892601552.67659,1000,587.4393365263686
