app_id,Tcomp,Tio,iter,witer,alpha_io,compute_size,io_size,mu,desyn_time
1,14.933046675867317,0.4077055473462652,1304,15.340752223213583,0.026576633362823388,14e9,407705547.3462652,10,3.968928947215408
2,10.937402601225271,0.09044694966277499,1814,11.027849550888046,0.008201685128674203,10e9,90446949.66277498,10,2.1673635235327686
3,14.727703702618015,0.13350932752829514,1346,14.86121303014631,0.008983743605415548,14e9,133509327.52829514,10,11.31369093322183
4,10.44107710751941,0.26896023593700563,1868,10.710037343456415,0.025112912991039578,10e9,268960235.93700564,10,10.220258723623207
5,20.123788302472082,0.49694966571047006,970,20.620737968182553,0.024099509264763216,20e9,496949665.7104701,10,9.638383008262831
6,13.042987419505973,0.23026797222092793,1507,13.2732553917269,0.017348266527324702,13e9,230267972.22092792,10,2.2078882364503545
7,1.1848266177338898,0.026539144217201615,16511,1.2113657619510914,0.021908448340537734,1e9,26539144.217201617,10,0.8208529948352213
8,12.098039572449727,0.280516012656316,1616,12.378555585106042,0.02266144953081882,12e9,280516012.656316,10,8.74068829623459
9,14.953722056519398,0.3309398453277576,1309,15.284661901847155,0.02165176092562201,14e9,330939845.3277576,10,15.199638698842865
10,13.313321481737024,0.10317926718430886,1491,13.416500748921333,0.007690475267375834,13e9,103179267.18430887,10,6.701692077294722
11,5.102568393365672,0.10070649754014618,3844,5.203274890905819,0.0193544449700628,5e9,100706497.54014619,10,0.41331092830200084
12,7.702958103923975,0.14234487573146223,2550,7.845302979655437,0.018143961565358687,7e9,142344875.73146224,10,1.335970613812139
13,4.23621416583798,0.03961134366473269,4678,4.275825509502713,0.009264022485646185,4e9,39611343.664732695,10,3.918056886060045
14,1.083466500101262,0.02275626582709049,18080,1.1062227659283526,0.02057114220388804,1e9,22756265.82709049,10,0.7892256327107544
15,10.2798791637808,0.07800812182331528,1931,10.357887285604114,0.007531277341831542,10e9,78008121.82331528,10,3.5312563885144854
16,11.40348777103239,0.05568942250879486,1746,11.459177193541185,0.004859809877116088,11e9,55689422.50879486,10,0.5813508426472234
17,9.813370444671035,0.2491505099382343,1988,10.062520954609269,0.02476024756242695,9e9,249150509.9382343,10,0.0497325874505725
18,22.8860583924724,0.48761140248738805,856,23.37366979495979,0.020861568027821405,22e9,487611402.4873881,10,6.663178614222781
19,22.253816707445292,0.18283506807871935,892,22.436651775524012,0.008148946193396506,22e9,182835068.07871935,10,12.570273098759431
20,6.015635556129234,0.08506265558886084,3279,6.100698211718095,0.013943101697027767,6e9,85062655.58886084,10,1.4047216529851398
21,81.09522077568529,0.19081393562537605,247,81.28603471131066,0.00234743810917898,81e9,190813935.62537605,100,46.900624519202225
22,52.520703110248924,0.9141527187739648,375,53.43485582902289,0.017107797983005824,52e9,914152718.7739648,100,1.5588436023374057
23,169.95060542049174,3.242927999458639,116,173.19353341995037,0.018724301857133207,169e9,3242927999.4586387,100,171.7317601759099
24,250.42414753781995,0.08518378617766123,80,250.5093313239976,0.0003400423677930317,250e9,85183786.17766123,100,201.38230952874835
25,228.0989763847289,2.715951530178385,87,230.8149279149073,0.01176679322569489,228e9,2715951530.1783853,100,167.6794229517243
26,25.126772249732046,0.4770224406644677,782,25.603794690396512,0.018630927424339548,25e9,477022440.6644677,100,8.370580716527845
27,209.1663641466067,5.457756778366635,94,214.62412092497334,0.02542937277900146,209e9,5457756778.366635,100,70.5213564198836
28,252.02877235804314,2.841268062113323,79,254.87004042015647,0.01114790917531718,252e9,2841268062.1133227,100,167.55129875241227
29,153.41777100231366,2.7094792178366403,129,156.1272502201503,0.017354300508182176,153e9,2709479217.8366404,100,38.13330528197652
30,28.838312883212005,0.18015544992970775,690,29.018468333141712,0.006208303204065183,28e9,180155449.92970774,100,26.96456654164168
31,235.5342995728696,2.43385806006239,85,237.968157632932,0.010227662743923234,235e9,2433858060.06239,100,220.6210018427896
32,32.19123446642085,0.04332809997876579,621,32.23456256639962,0.0013441503941464916,32e9,43328099.97876579,100,25.169504587083182
33,186.07294479049983,0.7456314773340719,108,186.8185762678339,0.003991206293452807,186e9,745631477.3340719,100,43.995042648265304
34,280.4702880157497,1.0317374213316188,72,281.50202543708133,0.0036651154453672765,280e9,1031737421.3316188,100,42.48964338121506
35,163.46792613077767,1.7588669622758935,122,165.22679309305357,0.01064516794976056,163e9,1758866962.2758934,100,33.82230360676551
36,196.0009392677331,1.5479155936920375,102,197.54885486142513,0.00783560904353435,196e9,1547915593.6920373,100,32.477865886505384
37,87.2411876899519,1.1488681065061708,227,88.39005579645807,0.0129977076737201,87e9,1148868106.5061707,100,66.61783044211592
38,223.3061432744585,4.915095920677617,88,228.22123919513612,0.02153654032381736,223e9,4915095920.677617,100,170.86955304448693
39,165.08972030742478,1.047581248854073,121,166.13730155627886,0.006305515011023614,165e9,1047581248.854073,100,158.30491172015806
40,90.53948497571214,1.1925506975336846,219,91.73203567324583,0.013000373193304144,90e9,1192550697.5336845,100,45.54893930498678
41,291.8557845031271,1.2434876502990442,69,293.0992721534261,0.004242547725086559,291e9,1243487650.2990441,1000,125.26582169551118
42,205.8172715797753,2.5685611333026914,96,208.385832713078,0.012325987327743572,205e9,2568561133.3026915,1000,48.49578650091487
43,1942.422742693641,3.3314274385423346,11,1945.7541701321834,0.0017121522799131489,1942e9,3331427438.5423346,1000,1340.7649917856645
44,437.1944190648406,2.0447509452249575,46,439.23917001006555,0.00465521083918381,437e9,2044750945.2249575,1000,282.2435163323147
45,1639.9558782702666,27.636705158657584,12,1667.5925834289242,0.016572816066278404,1639e9,27636705158.657585,1000,1475.8214264275566
46,289.9095026651253,6.311572563096103,68,296.22107522822137,0.021306966623605015,289e9,6311572563.096103,1000,295.04593064701544
47,628.41582592628,9.1228565742484,32,637.5386825005285,0.014309494976002242,628e9,9122856574.2484,1000,497.1135842324997
48,1936.4187487268975,19.449625901896006,11,1955.8683746287936,0.009944240703614512,1936e9,19449625901.896008,1000,1119.9655095160686
49,1687.449481381272,40.74326999697603,12,1728.1927513782482,0.023575651480127396,1687e9,40743269996.97603,1000,962.347610568168
50,974.2675544593662,25.387833521408943,21,999.6553879807752,0.025396585490016072,974e9,25387833521.408943,1000,302.89511559554177
51,851.2521992734053,5.532193110029376,24,856.7843923834347,0.006456925638712577,851e9,5532193110.029376,1000,848.0610738261232
52,1145.1097235910268,17.35744201355987,18,1162.4671656045866,0.01493155465129413,1145e9,17357442013.559868,1000,655.2784456456532
53,1023.3839146641158,10.936153231982209,20,1034.320067896098,0.010573277625974471,1023e9,10936153231.982208,1000,971.9487286186602
54,1175.2860725875905,27.535712258395055,17,1202.8217848459856,0.022892595233400138,1175e9,27535712258.395054,1000,769.1407441674663
55,740.0363079185593,6.160544857688538,27,746.1968527762479,0.008255924471897791,740e9,6160544857.688538,1000,476.4256993707327
56,2053.954966783747,22.86515320607698,10,2076.820119989824,0.011009693610917547,2053e9,22865153206.07698,1000,18.41472650882281
57,359.9788299871874,8.991685461463229,55,368.97051544865064,0.024369658509243664,359e9,8991685461.463228,1000,327.91101190822803
58,1298.0345467924367,5.067463040136057,16,1303.1020098325728,0.003888769261269993,1298e9,5067463040.136057,1000,174.15328216374184
59,389.8908963765173,0.009078527548024273,52,389.8999749040653,2.3284247582365297e-05,389e9,9078527.548024273,1000,209.15406784620524
60,1852.9240383074955,21.13379073660256,11,1874.057829044098,0.011277021663404212,1852e9,21133790736.60256,1000,819.1487397451743
