app_id,Tcomp,Tio,iter,witer,alpha_io,compute_size,io_size,mu,desyn_time
1,23.05696290778574,0.4837753343973767,850,23.540738242183114,0.020550559180446182,23e9,483775334.3973767,10,15.899496029630058
2,3.4872127001622815,0.08781905774634696,5595,3.5750317579086284,0.0245645531825207,3e9,87819057.74634697,10,2.113347573185828
3,5.959397704309904,0.15254176088286514,3273,6.111939465192769,0.024957996025906978,5e9,152541760.88286513,10,2.770054640123009
4,13.908563694748954,0.005316598569237411,1438,13.913880293318192,0.0003821075398924181,13e9,5316598.569237411,10,2.085852006484952
5,8.202196357290003,0.1524401393641531,2394,8.354636496654155,0.018246172580363245,8e9,152440139.3641531,10,2.8345098229873913
6,12.686957301954527,0.05373584685508713,1570,12.740693148809614,0.004217654897379564,12e9,53735846.85508713,10,10.321562549973864
7,15.955691714182663,0.17532973810572386,1240,16.131021452288387,0.010869103275592703,15e9,175329738.10572386,10,11.463962480353365
8,21.368091008128662,0.04977312207706152,934,21.417864130205725,0.0023239068926049554,21e9,49773122.07706152,10,11.176059389126214
9,10.930719543481413,0.042004891096016045,1823,10.97272443457743,0.0038281186542559603,10e9,42004891.09601604,10,3.663863077875931
10,8.814346475082669,0.23065771719321748,2212,9.045004192275886,0.025501117776174278,8e9,230657717.1932175,10,0.5966580963739696
11,22.061196092959577,0.4500893910237646,889,22.51128548398334,0.019993944430405843,22e9,450089391.0237646,10,9.883378137045435
12,1.2691245935980242,0.0033270881799593705,15718,1.2724516817779836,0.0026147068903319493,1e9,3327088.1799593703,10,0.9045891527783876
13,20.74243596963747,0.4653098881651657,944,21.207745857802635,0.021940563192573884,20e9,465309888.1651657,10,10.556642230105632
14,10.183349890144477,0.2838444792579199,1911,10.467194369402398,0.027117532095100035,10e9,283844479.2579199,10,7.299883093031593
15,14.890427082965468,0.19896427520598267,1326,15.08939135817145,0.013185705803715956,14e9,198964275.20598269,10,2.964800172888265
16,1.0587207284605975,0.017871999678448287,18578,1.0765927281390457,0.016600520523058982,1e9,17871999.678448286,10,1.0696248043889667
17,11.239664193685453,0.22767725899521601,1745,11.46734145268067,0.019854406527852444,11e9,227677258.995216,10,3.119918766364184
18,22.670525698858246,0.20071981873301084,875,22.871245517591255,0.0087760773053933,22e9,200719818.73301083,10,17.22297564587253
19,1.0824312916785255,0.0013332853876724966,18455,1.0837645770661979,0.0012302352520893083,1e9,1333285.3876724965,10,0.06621269466183839
20,2.2692973644669645,0.019955127109760183,8737,2.2892524915767245,0.008716874693020897,2e9,19955127.109760184,10,0.15704127120523367
21,137.75646552057205,2.178055549166591,143,139.93452106973865,0.015564819406364505,137e9,2178055549.166591,100,96.88435044075926
22,62.66693146006807,0.9891015102373756,315,63.656032970305446,0.015538221030813782,62e9,989101510.2373756,100,39.99494709234136
23,42.910163059438496,0.9408390829594041,457,43.8510021423979,0.021455361040648643,42e9,940839082.9594041,100,8.883010051060316
24,157.81990014152495,0.5891616456827046,127,158.40906178720766,0.0037192420625161635,157e9,589161645.6827046,100,32.011526629381486
25,164.40010839533625,1.799601433039551,121,166.1997098283758,0.010827945697967153,164e9,1799601433.0395508,100,93.7674365547695
26,223.08729285601024,0.7916012905888165,90,223.87889414659907,0.0035358459921213687,223e9,791601290.5888164,100,116.66264772468361
27,158.19966821375618,1.0255286481397172,126,159.2251968618959,0.006440743477486232,158e9,1025528648.1397172,100,11.760000499267683
28,146.2351376216157,2.290524244457982,135,148.52566186607368,0.015421740699081072,146e9,2290524244.457982,100,82.09411715550428
29,232.68181584045016,1.7822720744116316,86,234.46408791486178,0.007601471467386542,232e9,1782272074.4116316,100,151.0462333759886
30,66.44183109996152,1.0311457316224666,297,67.47297683158399,0.015282351247022333,66e9,1031145731.6224666,100,57.73460749613032
31,112.18641796443592,1.3848082342146166,177,113.57122619865054,0.012193301776916722,112e9,1384808234.2146165,100,5.5247526042688095
32,7.703084955225803,0.0048559236914812514,2595,7.7079408789172845,0.000629989742755182,7e9,4855923.691481251,100,6.895816495018006
33,76.95676426181602,2.061603291953402,254,79.01836755376942,0.02609017821774853,76e9,2061603291.9534023,100,15.953058289882298
34,103.7578305550081,2.5810318427460643,189,106.33886239775417,0.02427176466390875,103e9,2581031842.746064,100,14.000179536043488
35,99.57739271764686,0.911616213713052,200,100.4890089313599,0.009071800223801005,99e9,911616213.713052,100,13.111750387103912
36,23.637071337055158,0.5036532116570845,829,24.140724548712242,0.020863218526883498,23e9,503653211.6570845,100,22.093133285347804
37,7.8219579524595595,0.16979936208656105,2503,7.9917573145461205,0.021246811608943927,7e9,169799362.08656105,100,7.355913443282327
38,106.70403396576617,1.9974185238109556,184,108.70145248957712,0.018375269861297196,106e9,1997418523.8109555,100,26.99684126490051
39,194.45746819591787,0.15502042930475274,103,194.61248862522262,0.0007965595137282542,194e9,155020429.30475274,100,122.52065404878327
40,5.384934307564371,0.058499751982801995,3675,5.443434059547172,0.010746846814503061,5e9,58499751.982801996,100,1.9550482285607254
41,1888.4046958757392,6.576215777176202,11,1894.9809116529154,0.0034703335198453446,1888e9,6576215777.176202,1000,187.17413905993752
42,1043.6307988219703,24.0922986075991,19,1067.7230974295694,0.022564182291830874,1043e9,24092298607.599102,1000,867.71754774017
43,1473.1788586243663,13.720855846647455,14,1486.8997144710138,0.009227828691546187,1473e9,13720855846.647455,1000,381.9542262619243
44,545.6793528033958,1.587241820130605,37,547.2665946235264,0.0029003082514519173,545e9,1587241820.1306052,1000,349.2518983994832
45,642.0473896613546,17.218583382235504,31,659.2659730435901,0.0261178099375334,642e9,17218583382.235504,1000,216.01129344994897
46,748.3597019065513,17.573561198793765,27,765.9332631053451,0.02294398486827008,748e9,17573561198.793766,1000,356.2437250789196
47,686.0848322338419,6.718112532831305,29,692.8029447666732,0.009697003431609078,686e9,6718112532.831305,1000,595.0955958874086
48,2176.4055647607706,5.175998407962891,10,2181.5815631687337,0.002372589911534082,2176e9,5175998407.962891,1000,1840.1332932944504
49,759.0531734958541,15.179384690272558,26,774.2325581861267,0.01960571733877331,759e9,15179384690.272558,1000,758.1368943191802
50,1789.0870885297302,25.037505141113915,12,1814.1245936708442,0.01380142534226441,1789e9,25037505141.113914,1000,885.4186739798457
51,1413.4720320208103,24.687721180427797,14,1438.1597532012381,0.01716618833580535,1413e9,24687721180.427795,1000,871.4045105758344
52,23.837826138669065,0.6632464529831814,817,24.501072591652246,0.027070098686583867,23e9,663246452.9831814,1000,10.227232132644277
53,2268.0077990588807,32.93695183927036,9,2300.944750898151,0.014314533987143213,2268e9,32936951839.270355,1000,1809.3658306433663
54,503.0323063611991,3.3141547984683526,40,506.34646115966746,0.006545231482171438,503e9,3314154798.468353,1000,465.1406966593001
55,555.9884235985694,3.4932798016911564,36,559.4817034002606,0.006243778447911134,555e9,3493279801.6911564,1000,98.81070037639789
56,127.93950140910039,1.7033651518712014,155,129.64286656097158,0.013138903798228664,127e9,1703365151.8712015,1000,71.27828846172386
57,1120.5732002381687,2.3361887664364307,18,1122.9093890046051,0.0020804784333554537,1120e9,2336188766.436431,1000,651.1267204570672
58,221.65929129214248,1.116842043120192,90,222.77613333526267,0.0050132930597166885,221e9,1116842043.120192,1000,68.38655479577032
59,1526.7969110164336,35.671533382833445,13,1562.468444399267,0.022830242435102954,1526e9,35671533382.83344,1000,405.21447708725594
60,953.8612615109133,17.237713730530803,21,971.0989752414441,0.017750727958748998,953e9,17237713730.530804,1000,582.079631229063
