app_id,start_app,end_app,effective_cpu,effective_io,effective_iter,total_bytes,stretch,utilization,Tcomp,Tio,iterations,priority,group_id
app_1,16.9975,20703.3,7364,636,431.556,1.58873e+11,1.06342,0.945653,17,0.367762,1126,1,1
app_10,0.551713,20756.9,7440.6,559.4,621.898,1.37724e+11,1.05564,0.945653,12,0.221422,1617,1.00001,1.00001
app_11,2.67128,15525.9,7311.6,688.4,3662.73,1.26316e+11,1.07557,0.945653,2,0.0344937,7117,1.00001,1.00001
app_12,3.21814,18357.2,7862.7,137.3,1121.68,1.84611e+10,1.01508,0.945653,7,0.0164684,2576,1.00001,1.00001
app_13,4.33865,20033.3,7425.5,574.5,1485.54,1.3341e+11,1.05835,0.945653,5,0.0898387,3730,1.00001,1.00001
app_14,1.61216,18259.4,7683.9,316.1,1539.85,6.10647e+10,1.03293,0.945653,5,0.0396781,3510,1.00001,1.00001
app_15,0.572119,20259.8,7747.2,252.8,775.562,5.45108e+10,1.02542,0.945653,10,0.0703366,1963,1.00002,1.00002
app_16,5.28717,20115.7,7259.7,740.3,728.734,1.86054e+11,1.07444,0.945653,10,0.255219,1836,1.00002,1.00002
app_17,4.32104,18576.3,7633.7,366.3,1272.88,7.74937e+10,1.03745,0.945653,6,0.0608748,2959,1.00002,1.00002
app_18,3.87769,19124.2,7478.4,521.6,1499.78,1.17414e+11,1.05321,0.945653,5,0.0782761,3579,1.00002,1.00002
app_19,20.0443,20671.5,7534,466,357.957,1.13526e+11,1.04609,0.945653,21,0.317111,930,1.00002,1.00002
app_2,0.540904,19396,7626.6,373.4,2537.71,6.20467e+10,1.0405,0.945653,3,0.0244471,6164,1,1
app_20,0.989258,20360,7430.4,569.6,743.138,1.36402e+11,1.05725,0.945653,10,0.183583,1898,1.00002,1.00002
app_21,8.12774,20086.2,7578.6,421.4,292.988,1.03358e+11,1.0414,0.945653,26,0.352757,735,1.00002,1.00002
app_22,69,20472.3,7708.07,291.929,107.643,7.33792e+10,1.02809,0.945653,72,0.68099,273,1.00002,1.00002
app_23,149.19,21059.1,7427,573,46.206,1.55614e+11,1.05505,0.945653,159,3.31094,123,1.00002,1.00002
app_24,15.3805,20664.9,7541.6,458.4,418.176,1.14192e+11,1.04496,0.945653,18,0.273187,1083,1.00002,1.00002
app_25,4.1257,18229.6,7128.7,871.3,1781.93,2.04831e+11,1.09088,0.945653,4,0.114944,4069,1.00003,1.00003
app_26,54.1998,20229.9,7804.2,195.8,100.282,4.70706e+10,1.01894,0.945653,78,0.466045,253,1.00003,1.00003
app_27,5.15018,19869.5,7973.1,26.9,71.5668,5.87217e+09,1.00264,0.945653,112,0.0815579,178,1.00003,1.00003
app_28,83.1662,20146.7,7923.8,76.2,86.5046,1.73382e+10,1.00741,0.945653,92,0.201607,217,1.00003,1.00003
app_29,7.14637,20852,7480.2,519.8,130.037,1.27037e+11,1.05163,0.945653,57,0.977211,342,1.00003,1.00003
app_3,0.51466,19906.6,7387.23,612.765,737.147,1.48476e+11,1.06161,0.945653,10,0.201206,1841,1,1
app_30,26.7512,20959.7,7462.3,537.7,146.515,1.4115e+11,1.05215,0.945653,51,0.966781,384,1.00003,1.00003
app_31,20.4758,20828.8,7574.8,425.2,90.8709,1.04272e+11,1.04179,0.945653,83,1.14584,238,1.00003,1.00003
app_32,13.42,19979.9,7808.1,191.9,169.355,4.77205e+10,1.01835,0.945653,46,0.280709,424,1.00003,1.00003
app_33,75.2543,20324.2,7801.5,198.5,80.727,4.77005e+10,1.01921,0.945653,97,0.596256,205,1.00003,1.00003
app_34,1.22967,21234.6,7299.8,700.2,170.843,1.77827e+11,1.06986,0.945653,43,1.03992,455,1.00003,1.00003
app_35,99.9615,20644.1,7694.1,305.9,52.4821,8.25619e+10,1.02872,0.945653,147,1.55777,135,1.00004,1.00004
app_36,119.75,20888.9,7577.2,422.8,24.4042,1.02306e+11,1.04173,0.945653,309,4.26276,64,1.00004,1.00004
app_37,34.5255,20935.8,7501.1,498.9,62.0332,1.22239e+11,1.04941,0.945653,122,1.97159,162,1.00004,1.00004
app_38,23.6467,20843.6,7555.4,444.6,105.921,1.04713e+11,1.04437,0.945653,71,0.98786,278,1.00004,1.00004
app_39,3.12237,18381.8,7351.5,648.5,1227.21,1.53001e+11,1.06603,0.945653,6,0.124695,2822,1.00004,1.00004
app_4,3.90218,20415.4,7778.8,221.2,645.426,4.84022e+10,1.02208,0.945653,12,0.0750422,1652,1,1
app_40,108.073,21198.1,7412.3,587.7,44.8926,1.44445e+11,1.05866,0.945653,165,3.20989,119,1.00004,1.00004
app_41,509.446,22348.2,7681,319,5.46027,6.9902e+10,1.03214,0.945653,1382,11.6503,15,1.00004,1.00004
app_42,1244.46,21571,7944.7,55.3,5.00897,1.23847e+10,1.00539,0.945653,1549,2.47695,13,1.00004,1.00004
app_43,1173.13,23817.3,7424.3,575.7,2.34273,1.09777e+11,1.06184,0.945653,2931,54.8886,7,1.00004,1.00004
app_44,42.6972,21456,7601.9,398.1,6.52281,7.70279e+10,1.04181,0.945653,1156,11.004,18,1.00004,1.00004
app_45,1782.01,24597,7354.2,645.8,3.97301,1.71772e+11,1.06299,0.945653,1853,42.943,11,1.00004,1.00004
app_46,83.958,21712.7,7563.9,436.1,8.57704,1.38651e+11,1.03862,0.945653,889,17.3314,23,1.00005,1.00005
app_47,62.7679,20708.7,7910.4,89.6,10.1034,1.75183e+10,1.00909,0.945653,783,1.75183,26,1.00005,1.00005
app_48,357.32,21614,7378,622,9.8468,1.50644e+11,1.06261,0.945653,737,15.0644,27,1.00005,1.00005
app_49,76.2276,20240,7949.9,50.1,7.93835,1.48999e+10,1.00442,0.945653,999,1.86249,20,1.00005,1.00005
app_5,1.37587,20755.8,7221.7,778.3,1442.86,1.86661e+11,1.07986,0.945653,5,0.129356,3762,1.00001,1.00001
app_50,164.079,20470.3,7841.9,158.1,38.08,4.34662e+10,1.01454,0.945653,204,1.14385,98,1.00005,1.00005
app_51,1214.03,22176,7774.6,225.4,3.8187,4.82353e+10,1.02265,0.945653,2009,12.0588,10,1.00005,1.00005
app_52,188.075,23398.5,7479.7,520.3,4.5209,1.38028e+11,1.05018,0.945653,1608,34.5069,13,1.00005,1.00005
app_53,477.825,21253.5,7772.4,227.6,11.2368,5.41393e+10,1.02216,0.945653,685,4.92176,29,1.00005,1.00005
app_54,510.514,24612.1,7383,617,2.68989,1.96742e+11,1.05544,0.945653,2790,65.5807,8,1.00005,1.00005
app_55,871.215,22434,7431.2,568.8,6.01223,1.47059e+11,1.05565,0.945653,1280,24.5098,16,1.00005,1.00005
app_56,576.57,21170.2,7889.7,110.3,7.84677,2.6345e+10,1.01061,0.945653,1003,3.29312,20,1.00006,1.00006
app_57,264.022,20742.3,7399.6,600.4,6.58741,1.36216e+11,1.0616,0.945653,1161,19.4595,17,1.00006,1.00006
app_58,741.09,21334.6,7907.6,92.4,8.79051,2.26647e+10,1.00879,0.945653,918,2.5183,22,1.00006,1.00006
app_59,476.595,22206.1,7573.4,426.6,7.88822,1.27269e+11,1.03887,0.945653,975,15.9086,21,1.00006,1.00006
app_6,3.71695,20875,7187.2,812.8,1795.34,1.84344e+11,1.08525,0.945653,4,0.102698,4704,1.00001,1.00001
app_60,645.707,21712.1,7558.7,441.3,10.0066,1.22621e+11,1.04149,0.945653,763,12.2621,26,1.00006,1.00006
app_7,6.2826,19815.9,7309.8,690.2,611.845,1.72277e+11,1.06922,0.945653,12,0.281498,1514,1.00001,1.00001
app_8,3.17521,18640,7183.9,816.1,1438.97,1.97455e+11,1.08381,0.945653,5,0.137217,3355,1.00001,1.00001
app_9,0.761904,18777.2,7622.8,377.2,1268.5,7.87351e+10,1.03875,0.945653,6,0.062045,2983,1.00001,1.00001
