app_id,start_app,end_app,effective_cpu,effective_io,effective_iter,total_bytes,stretch,utilization,Tcomp,Tio,iterations,priority,group_id
app_1,8.97117,19793.5,7817.1,182.9,524.639,3.9881e+10,1.0182,0.945929,15,0.0761088,1292,1,1
app_10,5.92448,20118.8,7901.4,98.6,986.205,8.29791e+08,1.01237,0.945929,8,0.000841573,2485,1.00001,1.00001
app_11,5.68938,20282.5,7374.7,625.3,819.326,1.52489e+11,1.06281,0.945929,9,0.186189,2093,1.00001,1.00001
app_12,4.46944,19704.1,7938.6,61.4,613.446,1.73025e+09,1.00751,0.945929,13,0.002818,1503,1.00001,1.00001
app_13,11.7989,20282.7,7329.2,670.8,364.897,1.69647e+11,1.06683,0.945929,20,0.464785,934,1.00001,1.00001
app_14,5.93051,19707.4,7649.3,350.7,639.121,7.90475e+10,1.03515,0.945929,12,0.123705,1579,1.00001,1.00001
app_15,4.87561,20283.7,7336.5,663.5,459.02,1.66358e+11,1.06626,0.945929,16,0.362437,1169,1.00002,1.00002
app_16,2.67055,19118.6,7444.6,555.4,1061.08,1.28849e+11,1.05632,0.945929,7,0.121441,2549,1.00002,1.00002
app_17,0.687597,19851.9,7424.6,575.4,1486.2,1.33011e+11,1.05854,0.945929,5,0.0895091,3710,1.00002,1.00002
app_18,5.47608,20236.6,7554.3,445.7,472.429,1.05896e+11,1.04436,0.945929,16,0.223882,1202,1.00002,1.00002
app_19,3.36167,18129.1,7200.8,799.2,2397.69,1.81137e+11,1.08373,0.945929,3,0.0755366,5469,1.00002,1.00002
app_2,1.35107,15931.7,7026.9,973.1,3513.61,2.11841e+11,1.10516,0.945929,2,0.060285,7049,1,1
app_20,4.63349,19163.8,7168.3,831.7,1431.15,2.03039e+11,1.08528,0.945929,5,0.141886,3454,1.00002,1.00002
app_21,165.375,21513.4,7225.28,774.719,43.8321,1.85571e+11,1.0795,0.945929,166,4.23531,118,1.00002,1.00002
app_22,130.138,20496,7739.9,260.1,39.822,6.53314e+10,1.02495,0.945929,195,1.63328,102,1.00002,1.00002
app_23,16.903,21120.1,7437.1,562.9,153.299,1.3773e+11,1.05613,0.945929,48,0.894353,409,1.00002,1.00002
app_24,55.1893,21043.5,7335,665,65.6628,1.60169e+11,1.06735,0.945929,111,2.46414,175,1.00002,1.00002
app_25,83.9374,20324.1,7874.9,125.1,43.1195,3.86389e+10,1.01093,0.945929,186,0.898579,107,1.00003,1.00003
app_26,43.2604,20820.8,7448.4,551.6,38.7971,1.30705e+11,1.05553,0.945929,193,3.3514,102,1.00003,1.00003
app_27,228.724,20359.8,7874.9,125.1,30.6271,2.74906e+10,1.01235,0.945929,255,0.886795,78,1.00003,1.00003
app_28,43.7141,21105.6,7353.6,646.4,120.478,1.67184e+11,1.06372,0.945929,61,1.38168,320,1.00003,1.00003
app_29,0.980031,20880.6,7263,737.002,234.989,1.92676e+11,1.07301,0.945929,31,0.819383,617,1.00003,1.00003
app_3,9.66748,19532.8,7778.5,221.5,458.703,4.89357e+10,1.02205,0.945929,17,0.106847,1119,1,1
app_30,101.602,20934.1,7523.8,476.2,45.029,1.04037e+11,1.04879,0.945929,166,2.31194,119,1.00003,1.00003
app_31,197.135,21362,7414.5,585.5,33.0409,1.45049e+11,1.05826,0.945929,223,4.39543,88,1.00003,1.00003
app_32,5.37885,20440.6,7694.1,305.9,130.344,7.50006e+10,1.02972,0.945929,59,0.576928,335,1.00003,1.00003
app_33,16.0337,20292.4,7893,107,59.1959,2.59602e+10,1.01023,0.945929,131,0.440004,152,1.00003,1.00003
app_34,62.8034,21346.6,7186.4,813.6,63.2398,2.12007e+11,1.08131,0.945929,115,3.3652,169,1.00003,1.00003
app_35,157.158,20459.2,7864.4,135.6,36.7654,3.8289e+10,1.01231,0.945929,216,1.03484,92,1.00004,1.00004
app_36,45.234,20133.4,7854,146,72.3242,3.55876e+10,1.01399,0.945929,109,0.487501,182,1.00004,1.00004
app_37,41.3803,21215.4,7239.4,760.6,46.4599,1.95564e+11,1.076,0.945929,155,4.16094,125,1.00004,1.00004
app_38,8.45766,20577.5,7607.3,392.7,100.771,1.05686e+11,1.03721,0.945929,76,1.0464,258,1.00004,1.00004
app_39,14.9955,20043.7,7855,145,111.505,3.48669e+10,1.01396,0.945929,71,0.314116,278,1.00004,1.00004
app_4,8.51671,20571.2,7465.1,534.9,621.679,1.28573e+11,1.05351,0.945929,12,0.206709,1607,1,1
app_40,194.147,21260.3,7439.3,560.7,37.8655,1.38407e+11,1.05573,0.945929,197,3.6423,100,1.00004,1.00004
app_41,1039.46,22536.7,7403.24,596.759,7.30287,1.5817e+11,1.058,0.945929,1018,21.4736,20,1.00004,1.00004
app_42,388.146,21477.5,7870.6,129.4,8.23663,2.60297e+10,1.01309,0.945929,936,3.25371,22,1.00004,1.00004
app_43,563.044,21738,7321.22,678.783,11.2025,1.88517e+11,1.06528,0.945929,653,16.1209,30,1.00004,1.00004
app_44,242.246,23694.8,7758.6,241.4,2.63432,6.10977e+10,1.02306,0.945929,2816,30.5488,8,1.00004,1.00004
app_45,1122.6,22027.3,7920.6,79.4,6.80675,2.30623e+10,1.00709,0.945929,1141,3.29461,18,1.00004,1.00004
app_46,503.275,22144,7775,225,7.33526,4.30652e+10,1.02327,0.945929,1038,6.15217,20,1.00005,1.00005
app_47,516.821,21395.6,7476.5,523.5,5.36624,1.61189e+11,1.04744,0.945929,1401,26.8649,14,1.00005,1.00005
app_48,262.434,20846.2,7962.4,37.6,13.5665,1.0218e+10,1.00343,0.945929,582,0.729859,35,1.00005,1.00005
app_49,1950.22,23218,7720.2,279.8,3.72261,7.02489e+10,1.0269,0.945929,2076,17.5622,10,1.00005,1.00005
app_5,1.52543,18128.7,7690.8,309.2,2561.76,4.01887e+10,1.0348,0.945929,3,0.0156865,5813,1.00001,1.00001
app_50,68.1488,21063.1,7605.9,394.1,18.9468,1.06569e+11,1.03728,0.945929,399,5.60888,50,1.00005,1.00005
app_51,791.733,22872.1,7429.1,570.9,3.73406,1.83199e+11,1.05093,0.945929,2127,45.7998,10,1.00005,1.00005
app_52,738.821,21802,7690.8,309.2,4.22873,9.38228e+10,1.02767,0.945929,1890,18.7646,11,1.00005,1.00005
app_53,428.027,21706.7,7117.5,882.5,15.8094,1.91941e+11,1.09447,0.945929,454,11.9963,43,1.00005,1.00005
app_54,353.682,20800.8,7823.9,176.1,21.0087,4.42109e+10,1.01676,0.945929,370,2.10528,54,1.00005,1.00005
app_55,980.657,22712.1,7100.3,899.7,4.06828,2.04657e+11,1.09515,0.945929,1784,51.1642,11,1.00005,1.00005
app_56,507.799,22044.2,7503.1,496.9,9.54582,1.37537e+11,1.04703,0.945929,812,15.2819,25,1.00006,1.00006
app_57,669.196,22111,7830.8,169.2,7.94508,3.1167e+10,1.01756,0.945929,982,3.89587,21,1.00006,1.00006
app_58,179.72,21777.1,7493.8,506.2,8.87942,1.20552e+11,1.05065,0.945929,849,13.3947,24,1.00006,1.00006
app_59,823.629,21679.9,7832.4,167.6,6.09578,6.07332e+10,1.01354,0.945929,1280,8.67617,16,1.00006,1.00006
app_6,3.78317,16168.2,7577.8,422.2,2529.6,7.54281e+10,1.04531,0.945929,3,0.0298135,5116,1.00001,1.00001
app_60,1524.62,23889.3,7421.3,578.7,4.69615,1.46242e+11,1.05715,0.945929,1592,29.2483,13,1.00006,1.00006
app_7,8.74108,19999.6,7707.1,292.9,321.573,6.9526e+10,1.02872,0.945929,24,0.215919,805,1.00001,1.00001
app_8,2.12874,19438.8,7912.2,87.8,877.837,1.5142e+09,1.0109,0.945929,9,0.00172461,2136,1.00001,1.00001
app_9,5.50002,20526.1,7567.7,432.3,473.055,1.03469e+11,1.04287,0.945929,16,0.218751,1219,1.00001,1.00001
