app_id,start_app,end_app,effective_cpu,effective_io,effective_iter,total_bytes,stretch,utilization,Tcomp,Tio,iterations,priority,group_id
app_1,5.83368,21175.1,7333.5,666.5,565.056,1.71515e+11,1.06595,0.950052,13,0.303567,1500,1,1
app_10,3.20235,20199.1,7731.8,268.2,772.613,6.01728e+10,1.0267,0.950052,10,0.0778432,1954,1.00001,1.00001
app_11,10.2559,19941.7,7484.3,515.7,575.029,1.30442e+11,1.05059,0.950052,13,0.226856,1437,1.00001,1.00001
app_12,6.2019,20234,7341.9,658.1,917.558,1.6678e+11,1.06543,0.950052,8,0.181876,2327,1.00001,1.00001
app_13,4.65007,20810.2,7294.8,705.2,455.47,1.87126e+11,1.06924,0.950052,16,0.411267,1189,1.00001,1.00001
app_14,0.867637,20078.7,7713.1,286.9,428.681,6.73361e+10,1.02822,0.950052,18,0.156961,1078,1.00001,1.00001
app_15,0.68582,20792.3,7416.8,583.2,570.472,1.53376e+11,1.05678,0.950052,13,0.268609,1482,1.00002,1.00002
app_16,12.5284,20898.4,7388.9,611.1,349.329,1.61009e+11,1.05962,0.950052,21,0.461345,920,1.00002,1.00002
app_17,3.4863,19701.6,7688.2,311.8,427.177,7.53902e+10,1.03045,0.950052,18,0.176558,1050,1.00002,1.00002
app_18,5.73556,19617.7,7629.3,370.7,1267.83,8.26411e+10,1.03735,0.950052,6,0.0652258,3123,1.00002,1.00002
app_19,7.9882,20735.9,7440.8,559.2,462.862,1.44377e+11,1.05469,0.950052,16,0.311829,1208,1.00002,1.00002
app_2,3.71323,19234.8,7847.7,152.3,561.74,3.0836e+10,1.01542,0.950052,14,0.0548683,1349,1,1
app_20,4.25951,20747.6,7563.5,436.5,946.247,1.00797e+11,1.0438,0.950052,8,0.106551,2454,1.00002,1.00002
app_21,26.4192,21010,7460.6,539.4,53.4209,1.45943e+11,1.05173,0.950052,140,2.70265,140,1.00002,1.00002
app_22,25.7143,19496.4,7974,26,249.488,2.27292e+09,1.00297,0.950052,32,0.00912819,607,1.00002,1.00002
app_23,76.8437,20204.4,7918.6,81.4,76.1444,2.05921e+10,1.00766,0.950052,103,0.270948,193,1.00002,1.00002
app_24,87.0939,20500.9,7747.1,252.9,73.1542,7.37746e+10,1.0229,0.950052,106,1.01061,187,1.00002,1.00002
app_25,6.49493,20916.4,7414.43,585.574,296.05,1.49865e+11,1.0576,0.950052,25,0.506234,777,1.00003,1.00003
app_26,3.20233,20603.4,7562.1,437.9,195.016,1.1574e+11,1.04196,0.950052,39,0.59354,503,1.00003,1.00003
app_27,43.9086,21159.8,7395.3,604.7,39.9556,1.66674e+11,1.05792,0.950052,185,4.16684,106,1.00003,1.00003
app_28,102.791,20649.6,7717.3,282.7,61.0296,8.53759e+10,1.02529,0.950052,126,1.3996,156,1.00003,1.00003
app_29,49.6723,20998.5,7369.81,630.186,75.0956,1.65938e+11,1.06161,0.950052,98,2.20884,198,1.00003,1.00003
app_3,15.557,20384,7697.6,302.4,405.52,7.27738e+10,1.02955,0.950052,19,0.179688,1031,1,1
app_30,35.4341,20939.8,7502.9,497.1,101.776,1.40178e+11,1.0467,0.950052,73,1.3879,267,1.00003,1.00003
app_31,73.1998,21427.7,7349.8,650.2,40.2232,1.82278e+11,1.06212,0.950052,182,4.44581,108,1.00003,1.00003
app_32,51.4132,20643.4,7633.1,366.9,32.9824,1.07313e+11,1.03354,0.950052,232,3.2519,85,1.00003,1.00003
app_33,49.9726,20861,7375.4,624.6,145.026,1.69152e+11,1.06037,0.950052,51,1.16656,378,1.00003,1.00003
app_34,47.7407,20061.8,7961.4,38.6,96.9959,9.26526e+09,1.00368,0.950052,82,0.0955181,242,1.00003,1.00003
app_35,84.7789,20778.5,7628.4,371.6,42.9754,9.78879e+10,1.03543,0.950052,178,2.27646,111,1.00004,1.00004
app_36,70.6787,19918.3,7990.8,9.2,73.6657,1.14184e+09,1.00101,0.950052,110,0.0156416,182,1.00004,1.00004
app_37,4.22335,20771.1,7443.5,556.5,101.396,1.45364e+11,1.05418,0.950052,73,1.42514,266,1.00004,1.00004
app_38,47.1079,21077.3,7386.3,613.7,68.2544,1.68299e+11,1.05896,0.950052,109,2.47498,179,1.00004,1.00004
app_39,137.564,21411.5,7329.1,670.9,46.5015,1.77019e+11,1.0658,0.950052,156,3.84824,125,1.00004,1.00004
app_4,7.11637,20239.8,7512.4,487.6,375.67,1.24481e+11,1.04755,0.950052,20,0.331949,952,1,1
app_40,38.2757,20442,7834.9,165.1,55.3806,4.34944e+10,1.01544,0.950052,140,0.776685,142,1.00004,1.00004
app_41,1500.19,21759,7897.4,102.6,3.9448,2.35365e+10,1.00998,0.950052,2028,5.88413,10,1.00004,1.00004
app_42,295.034,20315.1,7706.3,293.7,6.4591,1.00905e+11,1.02469,0.950052,1241,14.415,16,1.00004,1.00004
app_43,395.472,20624.9,7866.7,133.3,6.28956,2.63451e+10,1.01355,0.950052,1275,4.39085,16,1.00004,1.00004
app_44,106.692,20499.5,7970.1,29.9,20.4683,6.27687e+09,1.00296,0.950052,380,0.313843,53,1.00004,1.00004
app_45,960.384,21569.3,7297.5,702.5,3.83365,1.91253e+11,1.06827,0.950052,1954,47.8131,10,1.00004,1.00004
app_46,1263.87,22295.3,7982.8,17.2,4.41613,5.83646e+09,1.00142,0.950052,1754,1.16729,12,1.00005,1.00005
app_47,855.8,23458.6,7659.3,340.7,4.78112,1.1378e+11,1.02919,0.950052,1626,22.7561,13,1.00005,1.00005
app_48,213.398,21680.1,7328,672,10.857,1.7588e+11,1.06612,0.950052,682,15.9891,29,1.00005,1.00005
app_49,997.242,23950.4,7334.5,665.5,2.80047,1.67818e+11,1.06634,0.950052,2695,55.9393,8,1.00005,1.00005
app_5,4.64884,20798.1,7419.5,580.5,672.94,1.45695e+11,1.05747,0.950052,11,0.216485,1757,1.00001,1.00001
app_50,632.9,21666.7,7710.3,289.7,7.5238,5.26906e+10,1.03053,0.950052,1030,7.52723,20,1.00005,1.00005
app_51,218.642,20989.8,7644.1,355.9,8.36085,9.53133e+10,1.03367,0.950052,897,11.9142,22,1.00005,1.00005
app_52,1206.62,21397.6,7842.3,157.7,5.21701,5.6241e+10,1.01285,0.950052,1560,11.2482,13,1.00005,1.00005
app_53,160.367,21035.7,7623.4,376.6,24.1155,9.17145e+10,1.03693,0.950052,314,3.82144,63,1.00005,1.00005
app_54,417.128,20820.5,7820.5,179.5,11.4124,3.84519e+10,1.01795,0.950052,688,3.20432,29,1.00005,1.00005
app_55,877.042,23053.5,7804.9,195.1,3.03654,3.40615e+10,1.02054,0.950052,2687,11.3538,8,1.00005,1.00005
app_56,542.869,21530.6,7387,613,4.94396,1.29117e+11,1.06438,0.950052,1538,25.8235,13,1.00006,1.00006
app_57,413.122,20589.6,7885.5,114.5,5.12654,3.63483e+10,1.00987,0.950052,1549,7.26965,13,1.00006,1.00006
app_58,718.526,22559.2,7482.9,517.1,9.51499,1.39839e+11,1.04949,0.950052,744,15.5377,27,1.00006,1.00006
app_59,58.3169,20741.8,7688.1,311.9,32.1836,8.4976e+10,1.02919,0.950052,240,2.6555,83,1.00006,1.00006
app_6,7.49438,20653.8,7249,751,557.679,1.97692e+11,1.0743,0.950052,13,0.354287,1443,1.00001,1.00001
app_60,990.139,21847.6,7680.6,319.4,5.13144,5.74042e+10,1.03386,0.950052,1496,11.4808,14,1.00006,1.00006
app_7,12.1952,19984.7,7703.8,296.2,480.83,7.149e+10,1.0289,0.950052,16,0.148628,1201,1.00001,1.00001
app_8,1.36876,20444.2,7436.1,563.9,1485.89,1.37786e+11,1.05626,0.950052,5,0.0927231,3806,1.00001,1.00001
app_9,14.9607,20523.9,7525.1,474.9,375.661,1.19334e+11,1.04651,0.950052,20,0.317379,968,1.00001,1.00001
