app_id,start_app,end_app,effective_cpu,effective_io,effective_iter,total_bytes,stretch,utilization,Tcomp,Tio,iterations,priority,group_id
app_1,15.8995,20105.7,7768.6,194.746,339.033,1.64e+11,1.0085,0.95998,23,0.483775,850,0.1,1
app_10,0.596658,18611.4,7604.7,283.394,949.077,2.18894e+11,1.02255,0.95998,8,0.230658,2212,0.1,1
app_11,9.88338,20145.2,7765,187.368,352.024,1.58431e+11,1.00966,0.95998,22,0.450089,889,0.1,1
app_12,0.904589,17302.7,7264.7,655.2,7263.62,2.4168e+10,1.09756,0.95998,1,0.00332709,15718,1,0
app_13,10.5566,19449.5,7743.3,212.639,388.913,1.81006e+11,1.00955,0.95998,20,0.46531,944,0.1,1
app_14,7.29988,20029.5,7626.7,271.598,759.909,2.15722e+11,1.02009,0.95998,10,0.283844,1911,0.1,1
app_15,2.9648,19131.2,7776.1,152.156,554.472,1.10425e+11,1.01439,0.95998,14,0.198964,1326,0.1,1
app_16,1.06962,20502.7,7242.7,673.418,7248.39,1.29554e+11,1.08515,0.95998,1,0.017872,18578,1,0
app_17,3.11992,19931.7,7699.6,208.358,700.164,1.59374e+11,1.01794,0.95998,11,0.227677,1745,0.1,1
app_18,17.223,19647.9,7857.7,101.342,356.106,7.14563e+10,1.00893,0.95998,22,0.20072,875,0.1,1
app_19,0.0662127,20314.7,7269.1,654.644,7263.64,9.68498e+09,1.09908,0.95998,1,0.00133329,18455,1,0
app_2,2.11335,18174.6,7392.2,317.335,2467.01,2.1665e+11,1.05141,0.95998,3,0.0878191,5595,0.1,1
app_20,0.157041,18421.8,7599.4,351.159,3795.54,7.57297e+10,1.04233,0.95998,2,0.0199551,8737,1,0
app_21,96.8844,20127.3,7745.9,211.652,56.9894,1.24149e+11,1.01651,0.95998,137,2.17806,143,0.01,2
app_22,39.9949,20295.3,7680.8,207.857,123.443,1.21659e+11,1.02532,0.95998,62,0.989102,315,0.01,2
app_23,8.88301,20341.1,7555.8,304.377,179.09,1.6841e+11,1.0357,0.95998,42,0.940839,457,0.01,2
app_24,32.0115,20195.7,7882.3,56.4974,49.8096,2.94581e+10,1.01115,0.95998,157,0.589162,127,0.01,2
app_25,93.7674,20477.6,7834.1,142.677,47.212,8.45813e+10,1.01027,0.95998,164,1.7996,121,0.01,2
app_26,116.663,20342.1,7911.7,52.6369,35.8153,2.84976e+10,1.00753,0.95998,223,0.791601,90,0.01,2
app_27,11.76,20207.3,7850.9,87.6034,49.7645,5.12764e+10,1.01238,0.95998,158,1.02553,126,0.01,2
app_28,82.0941,20458.6,7739.1,209.931,52.7405,1.21398e+11,1.01775,0.95998,146,2.29052,135,0.01,2
app_29,151.046,20541,7866.2,100.375,33.5437,6.05973e+10,1.00923,0.95998,232,1.78227,86,0.01,2
app_3,2.77005,17445,7505.4,309.873,1499.84,2.28813e+11,1.03437,0.95998,5,0.152542,3273,0.1,1
app_30,57.7346,20370,7687.7,207.394,117.149,1.20644e+11,1.02455,0.95998,66,1.03115,297,0.01,2
app_31,5.52475,20315.4,7782.2,168.65,69.4306,9.55518e+10,1.01552,0.95998,112,1.38481,177,0.01,2
app_32,6.89582,18684.9,7762.7,86.9941,1113.7,5.40464e+09,1.02985,0.95998,7,0.00485592,2595,0.1,1
app_33,15.9531,20231.6,7597.76,355.238,100.726,2.07608e+11,1.02494,0.95998,76,2.0616,254,0.01,2
app_34,14.0002,20422.3,7612.66,330.52,74.0581,1.93577e+11,1.02482,0.95998,103,2.58103,189,0.01,2
app_35,13.1118,20416.6,7788.21,129.581,78.3393,7.17621e+10,1.01782,0.95998,99,0.911616,200,0.01,2
app_36,22.0931,19709.9,7761.1,201.797,336.021,1.69227e+11,1.00879,0.95998,23,0.503653,829,0.1,1
app_37,7.35591,18381.3,7615.3,239.576,1088.5,1.84912e+11,1.02561,0.95998,7,0.169799,2503,0.1,1
app_38,26.9968,20200.8,7711.9,235.084,72.5257,1.43814e+11,1.01837,0.95998,106,1.99742,184,0.01,2
app_39,122.521,20287.5,7942.2,12.0075,40.9568,6.35584e+09,1.00647,0.95998,194,0.15502,103,0.01,2
app_4,2.08585,18982.2,7874.3,47.4364,605.131,3.21654e+09,1.01555,0.95998,13,0.0053166,1438,0.1,1
app_40,1.95505,19252.7,7627.2,162.568,1522.19,8.90366e+10,1.03677,0.95998,5,0.0584998,3675,0.1,1
app_41,187.174,21290.4,7916.2,55.4834,4.12068,2.63049e+10,1.00724,0.95998,1888,6.57622,11,0.001,3
app_42,867.718,21872.1,7551.6,404.256,7.22646,1.68646e+11,1.03624,0.95998,1043,24.0923,19,0.001,3
app_43,381.954,21153.9,7800.7,199.3,5.3133,8.23251e+10,1.01484,0.95998,1473,13.7209,14,0.001,3
app_44,349.252,21477.1,7511.7,62.453,13.7381,2.22214e+10,1.06186,0.95998,545,1.58724,37,0.001,3
app_45,216.011,21979,7454.8,461.771,11.421,1.89404e+11,1.04654,0.95998,642,17.2186,31,0.001,3
app_46,356.244,22129.1,7366.3,431.1,10.0256,1.75736e+11,1.06072,0.95998,748,17.5736,27,0.001,3
app_47,595.096,21599.1,7595.7,191.733,11.3329,7.38992e+10,1.04308,0.95998,686,6.71811,29,0.001,3
app_48,1840.13,23687,7843.5,42.291,3.65534,2.0704e+10,1.01727,0.95998,2176,5.176,10,0.001,3
app_49,758.137,21507.4,7555.8,363.11,10.0993,1.51794e+11,1.03794,0.95998,759,15.1794,26,0.001,3
app_5,2.83451,19939.3,7677.5,198.347,960.677,1.46343e+11,1.02252,0.95998,8,0.15244,2394,0.1,1
app_50,885.419,23942,7614.2,248.515,4.09811,1.0015e+11,1.03703,0.95998,1789,25.0375,12,0.001,3
app_51,871.405,21677.8,7621.6,298.87,5.49344,1.23439e+11,1.03292,0.95998,1413,24.6877,14,0.001,3
app_52,10.2272,19509,7706.5,254.306,335.168,2.22188e+11,1.00899,0.95998,23,0.663246,817,0.1,1
app_53,1809.37,23868.6,7706.63,278.109,3.30896,1.11791e+11,1.02322,0.95998,2268,32.937,9,0.001,3
app_54,465.141,21431.1,7643.2,146.643,15.3645,4.97123e+10,1.03992,0.95998,503,3.31415,40,0.001,3
app_55,98.8107,21362.7,7454.4,117.971,13.144,4.54126e+10,1.06669,0.95998,555,3.49328,36,0.001,3
app_56,71.2783,20320.3,7781.1,172.674,61.1554,1.03905e+11,1.01458,0.95998,127,1.70337,155,0.01,2
app_57,651.127,21275.5,7812.1,45.9947,6.87832,1.63533e+10,1.02191,0.95998,1120,2.33619,18,0.001,3
app_58,68.3866,20216.4,7900.7,65.0297,35.5415,4.02063e+10,1.00744,0.95998,221,1.11684,90,0.01,2
app_59,405.214,21359.2,7445.1,432.493,5.02656,1.78358e+11,1.04939,0.95998,1526,35.6715,13,0.001,3
app_6,10.3216,19225.2,7845.6,67.8454,654.943,3.5197e+10,1.01513,0.95998,12,0.0537358,1570,0.1,1
app_60,582.08,21904.5,7487.2,322.753,7.76878,1.37902e+11,1.04917,0.95998,953,17.2377,21,0.001,3
app_7,11.464,19039.2,7818.8,116.791,521.434,9.13468e+10,1.01136,0.95998,15,0.17533,1240,0.1,1
app_8,11.1761,19911.4,7910.3,37.8509,376.279,1.87147e+10,1.00895,0.95998,21,0.0497731,934,0.1,1
app_9,3.66386,18648.1,7823.8,77.5125,783.138,3.28898e+10,1.01824,0.95998,10,0.0420049,1823,0.1,1
