app_id,start_app,end_app,effective_cpu,effective_io,effective_iter,total_bytes,stretch,utilization,Tcomp,Tio,iterations,priority,group_id
app_1,10.2206,19821.7,7884.7,66.4256,606.862,4.07274e+10,1.00941,0.959756,13,0.0670962,1502,0.1,1
app_10,8.71976,19101.7,7849.9,78.1482,872.566,2.04792e+10,1.01647,0.959756,9,0.0234853,2079,0.1,1
app_11,3.91507,19286.2,7692,255.16,700.062,2.0085e+11,1.01358,0.959756,11,0.286929,1685,0.1,1
app_12,15.9934,19183.9,7739.2,219.421,519.314,1.80192e+11,1.01018,0.959756,15,0.347191,1240,0.1,1
app_13,2.88948,16943.4,7647.3,205.852,1913.98,1.25058e+11,1.02929,0.959756,4,0.0653387,4048,0.1,1
app_14,0.0154645,12796.5,6170.89,603.757,6171.57,1.30403e+11,1.26958,0.959756,1,0.0211281,11620,1,0
app_15,5.65291,18525.6,7744.3,184.636,967.188,1.09282e+11,1.01864,0.959756,8,0.113011,2236,0.1,1
app_16,17.9579,20102,7777.9,191.65,371.969,1.61331e+11,1.00765,0.959756,21,0.433686,932,0.1,1
app_17,3.53807,19582.7,7803.6,160.862,408.285,1.27247e+11,1.00872,0.959756,19,0.31188,1005,0.1,1
app_18,11.9614,19923.2,7788.6,184.886,372.408,1.49783e+11,1.00776,0.959756,21,0.402642,925,0.1,1
app_19,4.21491,19571.9,7642.5,252.667,1274.27,1.69046e+11,1.02413,0.959756,6,0.132585,3118,0.1,1
app_2,9.4922,19102.1,7825.7,121.272,601.506,8.42633e+10,1.01138,0.959756,13,0.139972,1437,0.1,1
app_20,0.992349,19320.8,7265.9,712.492,7265.79,1.17307e+11,1.08354,0.959756,1,0.0161446,17551,1,0
app_21,92.4166,20435.1,7806.4,141.782,33.0074,9.49003e+10,1.01249,0.959756,237,2.87577,84,0.01,2
app_22,167.233,20681.2,7776.7,183.489,38.0516,1.17996e+11,1.01334,0.959756,204,3.10517,97,0.01,2
app_23,0.95239,20195.5,7641.3,307.758,47.9632,2.02927e+11,1.01986,0.959756,162,4.22765,120,0.01,2
app_24,29.2801,20436.8,7539.4,300.381,114.026,1.90974e+11,1.03488,0.959756,66,1.67521,292,0.01,2
app_25,3.04448,20331.4,7682.9,163.044,97.9963,1.0494e+11,1.02724,0.959756,79,1.07081,249,0.01,2
app_26,19.8271,20450.3,7774.8,41.2939,95.8973,2.03567e+10,1.02628,0.959756,81,0.212049,247,0.01,2
app_27,21.162,20403.8,7749,188.146,69.6499,1.1913e+11,1.01676,0.959756,110,1.70186,179,0.01,2
app_28,22.8623,20299,7778.4,112.591,80.0368,7.44359e+10,1.01874,0.959756,98,0.930449,202,0.01,2
app_29,38.3849,20397.7,7810,58.4926,103.088,3.15466e+10,1.02021,0.959756,76,0.306277,262,0.01,2
app_3,2.1128,19532.9,7668.2,277.639,698.178,2.20292e+11,1.01414,0.959756,11,0.315604,1707,0.1,1
app_30,18.2723,20343.8,7786.7,64.58,127.071,3.44805e+10,1.02286,0.959756,61,0.2715,325,0.01,2
app_31,36.4396,20274.9,7813.1,156.839,49.7952,1.05022e+11,1.01034,0.959756,157,2.10044,126,0.01,2
app_32,4.54834,20260.1,7562.76,202.543,189.569,1.30368e+11,1.03989,0.959756,40,0.68686,481,0.01,2
app_33,28.9094,20340.9,7493.6,287.454,221.194,1.77915e+11,1.04282,0.959756,34,0.805043,562,0.01,2
app_34,96.7215,20384.1,7859.3,77.1409,47.0737,5.06355e+10,1.01139,0.959756,166,1.07735,120,0.01,2
app_35,27.996,20385.3,7819.4,86.2888,48.0761,5.62096e+10,1.01579,0.959756,162,1.17103,123,0.01,2
app_36,11.7298,20343.5,7757.9,197.662,47.55,1.24925e+11,1.01486,0.959756,166,2.6026,119,0.01,2
app_37,2.57074,19511.1,7836.4,125.213,434.803,8.71755e+10,1.00965,0.959756,18,0.200404,1063,0.1,1
app_38,5.58336,20258.4,7866.7,78.084,56.1433,4.85493e+10,1.01071,0.959756,140,0.866952,142,0.01,2
app_39,9.01231,20263.6,7753.7,140.685,77.7968,8.56618e+10,1.02049,0.959756,99,1.09823,198,0.01,2
app_4,8.5138,19228.4,7754.6,174.526,865.062,1.24561e+11,1.01534,0.959756,9,0.144001,2073,0.1,1
app_40,148.425,20499.3,7659.3,308.169,40.3636,2.02731e+11,1.01755,0.959756,189,5.06828,103,0.01,2
app_41,908.852,23640,7632.9,238.676,3.539,9.33031e+10,1.03544,0.959756,2135,31.101,10,0.001,3
app_42,876.677,22233.8,7614,349.69,3.60838,1.52555e+11,1.03006,0.959756,2054,38.1388,10,0.001,3
app_43,1540.87,22143.6,7773.8,117.99,4.91474,5.74764e+10,1.02154,0.959756,1566,11.4953,13,0.001,3
app_44,489.214,21352.8,7560.3,194.041,8.34323,8.4397e+10,1.04648,0.959756,920,10.5496,22,0.001,3
app_45,387.378,21275.7,7767.7,120.21,8.73148,2.70289e+10,1.02633,0.959756,878,3.37861,23,0.001,3
app_46,593.404,23458.9,7562.4,264.884,4.4917,1.1774e+11,1.04165,0.959756,1628,29.4349,13,0.001,3
app_47,1280.27,22836,7584.1,278.866,5.85852,1.23245e+11,1.03797,0.959756,1276,20.5408,16,0.001,3
app_48,79.6135,21662.5,7524.9,351.694,8.50647,1.49739e+11,1.04239,0.959756,862,18.7174,23,0.001,3
app_49,127.437,20487.3,7720.6,238.975,42.2573,1.58199e+11,1.01538,0.959756,182,3.76665,108,0.01,2
app_5,0.873349,19782.5,7872,94.5033,314.907,7.0774e+10,1.0072,0.959756,25,0.224679,779,0.1,1
app_50,580.935,21824.1,7657.6,14.7576,6.99944,2.57201e+09,1.04436,0.959756,1084,0.36743,19,0.001,3
app_51,89.2319,21234.8,7433.2,366.579,5.98762,1.69533e+11,1.05225,0.959756,1254,28.2556,16,0.001,3
app_52,213.43,21337.2,7507.9,304.388,10.5644,1.33449e+11,1.04694,0.959756,724,12.1317,28,0.001,3
app_53,2002.33,23483,7754.2,161.619,3.68356,5.85606e+10,1.02397,0.959756,2056,14.6401,10,0.001,3
app_54,419.477,21609.3,7837.3,3.59263,6.76271,5.8788e+08,1.02068,0.959756,1120,0.0839828,18,0.001,3
app_55,1008.16,22616.8,7851.7,22.3941,3.74581,1.39808e+10,1.01708,0.959756,2169,3.49519,10,0.001,3
app_56,280.063,21921.9,7525.8,241.785,12.8704,7.24427e+10,1.05288,0.959756,590,5.57251,34,0.001,3
app_57,894.424,21676.8,7747.3,230.426,7.00574,1.0013e+11,1.01944,0.959756,1111,14.3043,18,0.001,3
app_58,281.24,21609.2,7501.8,401.079,4.68151,1.89251e+11,1.04017,0.959756,1704,47.3127,12,0.001,3
app_59,65.2133,21687.7,7398.8,355.813,15.4826,1.62419e+11,1.05803,0.959756,475,10.8279,42,0.001,3
app_6,12.1158,18978.2,7863.6,83.7507,561.656,5.1715e+10,1.0107,0.959756,14,0.0920196,1335,0.1,1
app_60,1073.15,23171.6,7523,236.404,6.29208,9.78394e+10,1.04975,0.959756,1159,16.3066,18,0.001,3
app_7,7.13698,18160,7633.2,285.566,1088.32,2.14866e+11,1.01936,0.959756,7,0.197487,2473,0.1,1
app_8,12.2286,20202.6,7895.2,56.5198,521.965,3.25713e+10,1.00911,0.959756,15,0.0623971,1325,0.1,1
app_9,7.67618,19423,7916.6,40.2246,464.987,5.8207e+09,1.00979,0.959756,17,0.0125176,1130,0.1,1
