app_id,start_app,end_app,effective_cpu,effective_io,effective_iter,total_bytes,stretch,utilization,Tcomp,Tio,iterations,priority,group_id
app_1,9.429,25520.5,5544.54,182.615,556.044,1.59375e+11,1.40255,0.851594,10,0.286345,1917,1,1
app_10,4.13082,25408.6,5592.5,161.182,560.282,1.3119e+11,1.3977,0.851594,10,0.233851,1911,1,1
app_11,10.3649,24933.1,5943.46,92.9033,426.114,7.31774e+10,1.32965,0.851594,14,0.171778,1403,1,1
app_12,10.3756,24237.9,5835.84,161.703,447.995,1.35934e+11,1.33963,0.851594,13,0.303423,1430,1,1
app_13,2.11116,27309.4,4465.1,113.205,1486.01,2.94985e+10,1.77992,0.851594,3,0.0198509,5999,1,1
app_14,9.81682,24563.9,5779.17,160.211,483.002,1.41329e+11,1.35124,0.851594,12,0.292607,1563,1,1
app_15,4.60576,25202.2,5895.57,104.941,453.494,8.6605e+10,1.33731,0.851594,13,0.191181,1515,1,1
app_16,14.1341,23159.4,6381,20.4869,277.983,6.17555e+09,1.25251,0.851594,23,0.0222944,833,1,1
app_17,0.451668,27044,4977.31,107.676,994.96,6.1092e+10,1.5878,0.851594,5,0.0614607,3832,1,1
app_18,5.32684,24915,4973.01,99.5077,993.765,4.7852e+10,1.59335,0.851594,5,0.0481893,3424,1,1
app_19,0.28019,24473.7,5290.68,156.304,755.99,1.2e+11,1.47856,0.851594,7,0.158731,2491,1,1
app_2,0.412516,24991.7,4384.32,245.897,1462.99,1.56754e+11,1.7617,0.851594,3,0.107172,5144,1,1
app_20,1.23402,25682.8,5599.37,101.464,621.356,6.41903e+10,1.41254,0.851594,9,0.103366,2148,1,1
app_21,59.7734,21303,7468,67.9262,64.7013,6.42791e+10,1.0621,0.851594,115,1.00436,172,1,1
app_22,36.7584,22024.4,6969.2,127.905,126.729,1.21667e+11,1.12821,0.851594,55,0.958006,356,1,1
app_23,43.6261,20833.8,7564.7,51.7177,47.6702,4.91905e+10,1.05071,0.851594,158,1.0248,126,1,1
app_24,1.84636,21092.6,7630.8,15.963,59.2961,1.2295e+10,1.0467,0.851594,128,0.208389,156,1,1
app_25,104.716,20867.3,7380.9,215.04,50.6187,2.12684e+11,1.05352,0.851594,147,4.17027,132,1,1
app_26,166.898,20790.1,7521.4,216.039,43.4414,2.13728e+11,1.03424,0.851594,175,4.85746,111,1,1
app_27,8.1724,23080.4,6495.4,152.96,240.745,1.43633e+11,1.20499,0.851594,27,0.59847,712,1,1
app_28,10.0993,21534.4,7326.7,81.3541,118.725,7.52122e+10,1.0808,0.851594,62,0.637391,317,1,1
app_29,47.8565,21498.7,7229.6,165.971,98.0466,1.61487e+11,1.08238,0.851594,73,1.64783,266,1,1
app_3,4.65265,25956.7,5497.6,64.757,685.161,2.96798e+10,1.44737,0.851594,8,0.0433281,2428,1,1
app_30,150.491,20763.6,7744.8,123.355,35.5782,1.21538e+11,1.01699,0.851594,223,3.47251,89,1,1
app_31,81.5945,21035.7,7452.49,116.043,72.1277,1.12383e+11,1.05752,0.851594,104,1.56088,189,1,1
app_32,27.0527,21325.1,7488.5,16.8446,78.7628,1.31367e+10,1.06643,0.851594,95,0.166288,210,1,1
app_33,30.6056,20779,7595,37.9013,54.9176,3.50582e+10,1.04848,0.851594,139,0.637421,143,1,1
app_34,138.436,20975.5,7692.2,54.3268,42.0451,5.23548e+10,1.03298,0.851594,181,1.24654,110,1,1
app_35,19.595,23439.6,6468.6,105.544,247.344,9.51593e+10,1.21881,0.851594,26,0.38526,751,1,1
app_36,22.6953,20962,7572.2,89.9169,58.2735,8.74929e+10,1.04443,0.851594,131,1.48293,151,1,1
app_37,117.2,21166.9,7454.5,143.398,59.8585,1.4049e+11,1.05333,0.851594,124,2.34149,158,1,1
app_38,20.6273,22658.8,6637.9,150.847,214.327,1.39856e+11,1.18033,0.851594,31,0.653532,615,1,1
app_39,30.8958,21173.3,7499.44,92.3338,65.4123,8.92114e+10,1.05421,0.851594,115,1.37248,172,1,1
app_4,2.12217,26091.3,4445.69,160.335,1477.65,8.75245e+10,1.76475,0.851594,3,0.0592583,5567,1,1
app_40,85.418,21075.3,7546.2,22.6746,82.3157,1.82649e+10,1.05758,0.851594,92,0.222742,216,1,1
app_41,355.162,20279.8,7810.7,154.228,6.8389,1.53999e+11,1.00443,0.851594,1163,21.9999,17,1,1
app_42,28.9316,20775.7,7731,127.244,17.5771,1.26248e+11,1.01817,0.851594,436,7.42637,46,1,1
app_43,518.246,21222.8,7844.7,49.6289,12.9036,4.90388e+10,1.01346,0.851594,613,3.77221,33,1,1
app_44,1616.26,22686.7,7898.1,74.4868,4.53557,7.42637e+10,1.00347,0.851594,1733,14.8527,12,1,1
app_45,500.705,20858,7940.7,38.6879,8.56876,3.83623e+10,1.00262,0.851594,914,4.79529,22,1,1
app_46,803.595,21412.6,7817.9,133.78,8.78491,1.33279e+11,1.00614,0.851594,865,14.8088,23,1,1
app_47,407.337,21298.2,7775.7,182.45,8.85593,1.81872e+11,1.00533,0.851594,875,20.208,23,1,1
app_48,540.8,21138.1,7808.6,117.755,12.4215,1.17186e+11,1.00936,0.851594,623,9.76546,32,1,1
app_49,610.668,21368,7783.4,176.909,7.90203,1.76443e+11,1.00504,0.851594,997,22.0554,20,1,1
app_5,0.132099,28812.2,3381.6,256.209,3381.95,4.38196e+10,2.33548,0.851594,1,0.0129567,16016,1,1
app_50,36.2606,22110.8,7157.9,23.9348,137.5,1.61139e+10,1.11514,0.851594,52,0.117619,382,1,1
app_51,666.405,21641.3,7802.6,150.05,8.23918,1.49429e+11,1.00603,0.851594,934,16.6033,22,1,1
app_52,834.064,22198.2,7800.2,161.177,4.51158,1.60984e+11,1.00488,0.851594,1683,32.1967,12,1,1
app_53,444.543,20751.4,7936.7,19.6652,5.11119,1.92602e+10,1.00554,0.851594,1563,3.85203,13,1,1
app_54,311.415,21395.5,7840.2,137.418,5.96434,1.36969e+11,1.00286,0.851594,1284,22.8281,16,1,1
app_55,86.2995,20819.1,7761.1,11.119,35.3698,9.44415e+09,1.02953,0.851594,215,0.269833,93,1,1
app_56,277.874,20696,7865.2,73.158,6.5423,7.27827e+10,1.00781,0.851594,1171,10.3975,17,1,1
app_57,23.3387,21492.9,7390.61,17.6582,100.13,1.21527e+10,1.08068,0.851594,74,0.121527,267,1,1
app_58,319.777,21846,7886.1,80.5748,4.25243,8.0276e+10,1.00422,0.851594,1890,16.0552,11,1,1
app_59,283.797,20943.8,7852.1,25.4424,15.4068,2.46653e+10,1.01565,0.851594,523,1.54158,39,1,1
app_6,2.95549,24129.2,5665.53,159.836,516.994,1.34986e+11,1.37919,0.851594,11,0.261095,1644,1,1
app_60,353.427,21023.2,7762,227.946,6.42216,2.27636e+11,1.0013,0.851594,1178,32.5195,17,1,1
app_7,8.44489,24876.1,5664.3,52.0226,567.046,2.2987e+10,1.40665,0.851594,10,0.0405414,1886,1,1
app_8,0.643194,24637.3,5098.61,179.08,851.099,1.3945e+11,1.52728,0.851594,6,0.163866,2843,1,1
app_9,0.134405,24214.6,6146.01,81.5819,359.006,6.65412e+10,1.28772,0.851594,17,0.185352,1140,1,1
