app_id,start_app,end_app,effective_cpu,effective_io,effective_iter,total_bytes,stretch,utilization,Tcomp,Tio,iterations,priority,group_id
app_1,15.8995,20982.8,7428.9,571.1,322.336,1.55776e+11,1.05476,0.94505,23,0.483775,850,1,1
app_10,0.596658,19527.6,7196.4,803.6,901.598,2.08053e+11,1.08043,0.94505,8,0.230658,2212,1.00001,1.00001
app_11,9.88338,20941.4,7412.7,587.3,337.643,1.5213e+11,1.05753,0.94505,22,0.450089,889,1.00001,1.00001
app_12,0.904589,17286.8,7272.1,727.9,7279.12,2.42179e+10,1.09644,0.94505,1,0.00332709,15718,1.00001,1.00001
app_13,10.5566,20446.6,7335.5,664.5,367.385,1.71234e+11,1.06571,0.94505,20,0.46531,944,1.00001,1.00001
app_14,7.29988,21003.2,7210.7,789.3,723.627,2.05503e+11,1.07872,0.94505,10,0.283844,1911,1.00001,1.00001
app_15,2.9648,19593.9,7555.8,444.2,540.593,1.0764e+11,1.04392,0.94505,14,0.198964,1326,1.00002,1.00002
app_16,1.06962,20781.8,7117.81,882.187,7121.14,1.27282e+11,1.1042,0.94505,1,0.017872,18578,1.00002,1.00002
app_17,3.11992,20678,7396,604,671.836,1.52999e+11,1.05974,0.94505,11,0.227677,1745,1.00002,1.00002
app_18,17.223,19920.6,7706.6,293.4,351.158,7.04527e+10,1.02867,0.94505,22,0.20072,875,1.00002,1.00002
app_19,0.0662127,20311.2,7272.83,727.168,7271.23,9.69523e+09,1.09852,0.94505,1,0.00133329,18455,1.00002,1.00002
app_2,2.11335,18716.3,7143.2,856.8,2380.61,2.09097e+11,1.0881,0.94505,3,0.0878191,5595,1,1
app_20,0.157041,18574.3,7513.3,486.7,3754.43,7.49115e+10,1.05427,0.94505,2,0.0199551,8737,1.00002,1.00002
app_21,96.8844,21035.3,7543.2,456.8,54.6572,1.17615e+11,1.04428,0.94505,137,2.17806,143,1.00002,1.00002
app_22,39.9949,20683.9,7532.9,467.1,121.015,1.19681e+11,1.0454,0.94505,62,0.989102,315,1.00002,1.00002
app_23,8.88301,20754.9,7380.1,619.9,175.816,1.65588e+11,1.06021,0.94505,42,0.940839,457,1.00002,1.00002
app_24,32.0115,20176.7,7861.8,138.2,50.4874,3.00472e+10,1.0137,0.94505,157,0.589162,127,1.00002,1.00002
app_25,93.7674,20686.6,7655.7,344.3,47.3164,8.45813e+10,1.03355,0.94505,164,1.7996,121,1.00003,1.00003
app_26,116.663,20330.6,7898.5,101.5,35.801,2.7706e+10,1.00931,0.94505,223,0.791601,90,1.00003,1.00003
app_27,11.76,20480.6,7812.8,187.2,49.1878,5.02509e+10,1.01742,0.94505,158,1.02553,126,1.00003,1.00003
app_28,82.0941,20930.8,7525.9,474.1,51.1669,1.16817e+11,1.04675,0.94505,146,2.29052,135,1.00003,1.00003
app_29,151.046,20738.6,7768.9,231.1,32.9967,5.8815e+10,1.02201,0.94505,232,1.78227,86,1.00003,1.00003
app_3,2.77005,18246.2,7138.45,861.55,1429.03,2.18097e+11,1.08747,0.94505,5,0.152542,3273,1,1
app_30,57.7346,20738,7526.2,473.8,113.599,1.17551e+11,1.04661,0.94505,66,1.03115,297,1.00003,1.00003
app_31,5.52475,20784.3,7626.5,373.5,67.4079,9.27822e+10,1.03637,0.94505,112,1.38481,177,1.00003,1.00003
app_32,6.89582,18444.7,7887.2,112.8,1127.48,5.47748e+09,1.0136,0.94505,7,0.00485592,2595,1.00003,1.00003
app_33,15.9531,21208,7258.34,741.665,95.1574,1.96521e+11,1.07313,0.94505,76,2.0616,254,1.00003,1.00003
app_34,14.0002,20939.1,7276.2,723.8,70.9233,1.83253e+11,1.07246,0.94505,103,2.58103,189,1.00003,1.00003
app_35,13.1118,20419.6,7720.7,279.3,78.4044,7.20177e+10,1.0266,0.94505,99,0.911616,200,1.00004,1.00004
app_36,22.0931,20537.5,7389.1,610.9,320.495,1.61169e+11,1.05956,0.94505,23,0.503653,829,1.00004,1.00004
app_37,7.35591,19150.7,7294.95,705.055,1039.71,1.76433e+11,1.07075,0.94505,7,0.169799,2503,1.00004,1.00004
app_38,26.9968,20774.9,7448.72,551.276,70.3195,1.40275e+11,1.05416,0.94505,106,1.99742,184,1.00004,1.00004
app_39,122.521,20194.2,7973.9,26.1,41.3111,6.35584e+09,1.00247,0.94505,194,0.15502,103,1.00004,1.00004
app_4,2.08585,18785.4,7938.6,61.4,613.313,3.26439e+09,1.00732,0.94505,13,0.0053166,1438,1,1
app_40,1.95505,19316.8,7589.8,410.2,1517.37,8.87441e+10,1.04186,0.94505,5,0.0584998,3675,1.00004,1.00004
app_41,187.174,21866,7847.1,152.9,4.15692,3.28811e+10,1.01523,0.94505,1888,6.57622,11,1.00004,1.00004
app_42,867.718,21956.2,7423.2,576.8,7.0318,1.68646e+11,1.05376,0.94505,1043,24.0923,19,1.00004,1.00004
app_43,381.954,21466.6,7740.9,259.1,5.09653,6.86043e+10,1.02439,0.94505,1473,13.7209,14,1.00004,1.00004
app_44,349.252,20727.7,7906.5,93.5,14.6602,2.22214e+10,1.00899,0.94505,545,1.58724,37,1.00004,1.00004
app_45,216.011,21859.1,7274.5,725.5,11.3027,1.89404e+11,1.07183,0.94505,642,17.2186,31,1.00004,1.00004
app_46,356.244,21889,7311.3,688.7,10.0905,1.75736e+11,1.06851,0.94505,748,17.5736,27,1.00005,1.00005
app_47,595.096,21610.8,7686.2,313.8,11.0342,7.38992e+10,1.03091,0.94505,686,6.71811,29,1.00005,1.00005
app_48,1840.13,23999.3,7917.6,82.4,3.68827,2.0704e+10,1.00777,0.94505,2176,5.176,10,1.00005,1.00005
app_49,758.137,21375.5,7478.1,521.9,10.0489,1.51794e+11,1.04851,0.94505,759,15.1794,26,1.00005,1.00005
app_5,2.83451,20507,7415.4,584.6,930.91,1.41922e+11,1.05858,0.94505,8,0.15244,2394,1.00001,1.00001
app_50,885.419,23204.5,7547.2,452.8,4.17377,1.25188e+11,1.0427,0.94505,1789,25.0375,12,1.00005,1.00005
app_51,871.405,21959.4,7598.9,401.1,5.38359,1.23439e+11,1.03596,0.94505,1413,24.6877,14,1.00005,1.00005
app_52,10.2272,20676.4,7208.4,791.6,313.255,2.08259e+11,1.07865,0.94505,23,0.663246,817,1.00005,1.00005
app_53,1809.37,22873.9,7680.7,319.3,3.29254,1.31748e+11,1.02401,0.94505,2268,32.937,9,1.00005,1.00005
app_54,465.141,20820.2,7821.1,178.9,15.7608,5.30265e+10,1.01599,0.94505,503,3.31415,40,1.00005,1.00005
app_55,98.8107,20374.1,7781.3,218.7,13.9844,4.89059e+10,1.02168,0.94505,555,3.49328,36,1.00005,1.00005
app_56,71.2783,20848.4,7600.4,399.6,59.2618,1.00499e+11,1.03884,0.94505,127,1.70337,155,1.00006,1.00006
app_57,651.127,21103.7,7917.3,82.7,7.25867,1.63533e+10,1.00836,0.94505,1120,2.33619,18,1.00006,1.00006
app_58,68.3866,20323.1,7835.3,164.7,35.6629,3.90895e+10,1.01595,0.94505,221,1.11684,90,1.00006,1.00006
app_59,405.214,21473.4,7376.1,623.9,4.84911,1.78358e+11,1.05898,0.94505,1526,35.6715,13,1.00006,1.00006
app_6,10.3216,19242.4,7829.5,170.5,653.815,3.51432e+10,1.01721,0.94505,12,0.0537358,1570,1.00001,1.00001
app_60,582.08,22138.4,7446.98,553.015,7.77921,1.22571e+11,1.05687,0.94505,953,17.2377,21,1.00006,1.00006
app_7,11.464,19451.8,7628.1,371.9,508.386,8.90675e+10,1.03665,0.94505,15,0.17533,1240,1.00001,1.00001
app_8,11.1761,19837.6,7909.4,90.6,375.695,1.87147e+10,1.00907,0.94505,21,0.0497731,934,1.00001,1.00001
app_9,3.66386,18608.4,7832.3,167.7,783.36,3.29318e+10,1.01713,0.94505,10,0.0420049,1823,1.00001,1.00001
