app_id,start_app,end_app,effective_cpu,effective_io,effective_iter,total_bytes,stretch,utilization,Tcomp,Tio,iterations,priority,group_id
app_1,0.17901,16708,7510.7,300.705,2505.48,2.05678e+11,1.03676,0.955638,3,0.0820744,5224,0.1,1
app_10,13.7975,19856.9,7798.5,157.163,555.489,1.11724e+11,1.01135,0.955638,14,0.200942,1382,0.1,1
app_11,1.72386,11486.2,4987.85,498.4,4983.35,2.14328e+11,1.53782,0.955638,1,0.0430032,10438,1,0
app_12,3.99883,19212.7,7749.84,217.403,482.294,1.84707e+11,1.00825,0.955638,16,0.383095,1165,0.1,1
app_13,3.60966,15842.3,7601.4,198.274,2535.16,1.54031e+09,1.05222,0.955638,3,0.000607617,5017,0.1,1
app_14,5.21404,18172.5,7716.7,212.352,965.446,1.63316e+11,1.01523,0.955638,8,0.169239,2194,0.1,1
app_15,0.694826,19054,7855,81.9338,712.282,4.7647e+10,1.01232,0.955638,11,0.0669199,1700,0.1,1
app_16,4.41996,20049,7794.7,180.712,354.155,1.49511e+11,1.00702,0.955638,22,0.421159,889,0.1,1
app_17,3.25508,18024.1,7610.5,234.554,1903.32,1.67804e+11,1.0285,0.955638,4,0.0881786,4291,0.1,1
app_18,3.97665,18744.5,7806.8,134.099,709.172,8.31946e+10,1.01394,0.955638,11,0.117341,1664,0.1,1
app_19,2.05255,19561.5,7871.6,101.955,314.479,8.18215e+10,1.00586,0.955638,25,0.259751,771,0.1,1
app_2,0.275839,16291,7547.31,248.027,2515.96,1.07901e+11,1.04504,0.955638,3,0.0428859,5126,0.1,1
app_20,7.86227,19520.2,7715.7,214.88,966.208,1.68802e+11,1.01465,0.955638,8,0.174744,2357,0.1,1
app_21,100.56,20301.2,7727.2,225.042,59.9416,1.38912e+11,1.01702,0.955638,129,2.3152,152,0.01,2
app_22,64.4354,20444.7,7641.3,274.476,96.5995,1.69171e+11,1.02427,0.955638,79,1.7622,248,0.01,2
app_23,4.59162,20402.6,7712.5,140.437,197.735,8.13075e+10,1.02646,0.955638,39,0.412729,505,0.01,2
app_24,16.3937,20257.1,7839.1,79.6155,82.2727,4.60523e+10,1.01457,0.955638,95,0.561614,209,0.01,2
app_25,25.5301,20579.9,7705.4,85.2857,234.147,4.31167e+10,1.03246,0.955638,33,0.18426,602,0.01,2
app_26,29.2983,20034.7,7932.1,17.9381,35.7702,9.68877e+09,1.00733,0.955638,222,0.269133,90,0.01,2
app_27,95.0767,20434.6,7713.2,270.402,41.1619,1.73886e+11,1.01432,0.955638,189,4.24111,104,0.01,2
app_28,17.8564,20389.1,7690.8,247.802,95.8535,1.56379e+11,1.01947,0.955638,79,1.6461,246,0.01,2
app_29,186.064,20374.6,7845.6,121.82,29.3978,7.98815e+10,1.0094,0.955638,269,2.66272,74,0.01,2
app_3,1.68631,18735.3,7661.1,185.848,1917.17,7.23166e+10,1.03447,0.955638,4,0.0377239,4498,0.1,1
app_30,13.8165,20143.9,7907.2,11.9051,103.027,2.57125e+09,1.01141,0.955638,77,0.0249636,260,0.01,2
app_31,39.5124,20291,7821.6,85.1834,125.994,4.66133e+10,1.01675,0.955638,62,0.369947,321,0.01,2
app_32,101.407,20247.9,7753,222.509,30.7859,1.43267e+11,1.01314,0.955638,256,4.62151,77,0.01,2
app_33,88.1132,22448.2,6981.2,266.669,21.0464,1.26557e+11,1.12553,0.955638,330,6.02652,60,0.001,3
app_34,109.18,20043,7728.3,253.317,40.8467,1.62379e+11,1.01385,0.955638,194,3.96046,101,0.01,2
app_35,24.9169,20181.2,7711.9,82.916,193.732,4.33104e+10,1.03156,0.955638,40,0.22325,488,0.01,2
app_36,112.182,20254.4,7864.7,109.26,43.8565,6.96543e+10,1.00827,0.955638,179,1.58305,111,0.01,2
app_37,18.6345,19910.8,7898.1,75.3835,326.956,5.88095e+10,1.00542,0.955638,24,0.179846,814,0.1,1
app_38,2.80658,19724,7751.4,134.388,1547.99,2.87324e+10,1.02826,0.955638,5,0.018561,3820,0.1,1
app_39,43.2011,20333.8,7723.2,253.345,48.2678,1.61731e+11,1.01459,0.955638,159,3.36941,123,0.01,2
app_4,5.11546,17677,7745.4,144.541,1290.75,8.31906e+10,1.0219,0.955638,6,0.0644389,2854,0.1,1
app_40,15.6451,20152.9,7911.3,17.542,88.2161,7.25375e+09,1.01029,0.955638,89,0.082429,223,0.01,2
app_41,53.0193,20219.2,7921.1,8.6704,5.85463,5.49091e+09,1.00926,0.955638,1346,0.915152,15,0.001,3
app_42,1042.78,22856.9,7650.2,285.16,6.43109,1.36397e+11,1.02741,0.955638,1117,22.7328,18,0.001,3
app_43,1463.29,23290.5,7264.2,406.496,3.17336,1.96441e+11,1.07229,0.955638,2268,49.1103,9,0.001,3
app_44,810.989,22060.7,7532.6,349.4,3.67052,1.86339e+11,1.03641,0.955638,2021,46.5847,10,0.001,3
app_45,1034.25,22533.7,7751.5,133.204,7.05748,7.00153e+10,1.02282,0.955638,1091,10.0022,19,0.001,3
app_46,302.246,21671.3,7591.2,290.014,6.75586,1.44479e+11,1.03417,0.955638,1150,20.6399,18,0.001,3
app_47,1226.28,22772,7459.79,459.977,3.42832,2.1217e+11,1.04276,0.955638,2303,54.9102,9,0.001,3
app_48,1039.74,22014.1,7577.8,379.852,7.31694,1.62396e+11,1.03357,0.955638,1033,23.1994,19,0.001,3
app_49,554.608,22658.9,7775.5,68.2188,4.87752,2.52346e+10,1.02554,0.955638,1632,5.04692,13,0.001,3
app_5,11.0728,20110.9,7866.7,100.803,490.678,7.40947e+10,1.00746,0.955638,16,0.151214,1235,0.1,1
app_50,357.91,22192.9,7191.3,323.419,18.3484,1.56674e+11,1.08874,0.955638,390,8.24602,51,0.001,3
app_51,608.352,21824.7,7567.9,259.067,6.6341,1.29363e+11,1.03933,0.955638,1120,18.4804,18,0.001,3
app_52,1018.14,22569.2,7568.4,341.807,4.4915,1.71137e+11,1.03365,0.955638,1719,34.2274,12,0.001,3
app_53,752.396,22094.5,7415.8,363.148,5.23664,1.68107e+11,1.05487,0.955638,1441,33.6215,14,0.001,3
app_54,469.298,21649.6,7794.3,86.2421,5.42728,4.00774e+10,1.02114,0.955638,1438,8.01547,14,0.001,3
app_55,89.3265,20740.7,7647.1,20.6167,10.3991,5.80723e+09,1.04535,0.955638,747,0.52793,27,0.001,3
app_56,308.48,21367.5,7502.1,383.222,8.6079,1.86019e+11,1.04057,0.955638,900,20.6688,22,0.001,3
app_57,715.18,22595.5,7708.3,224.612,6.66089,1.05986e+11,1.02377,0.955638,1156,17.6644,18,0.001,3
app_58,1139.81,23336.5,7810.3,185.317,2.80213,8.84212e+10,1.01282,0.955638,2686,29.4737,8,0.001,3
app_59,1041.08,22834.1,7363.6,240.455,6.66194,1.28054e+11,1.06785,0.955638,1118,18.2935,18,0.001,3
app_6,0.85258,20127.3,7831.5,121.511,601.417,8.56938e+10,1.01046,0.955638,13,0.142348,1515,0.1,1
app_60,802.705,22390.6,7887.5,48.6847,4.45973,3.30635e+10,1.01003,0.955638,1767,6.61269,12,0.001,3
app_7,3.83834,19164.6,7740.9,217.36,554.038,1.71969e+11,1.01101,0.955638,14,0.310413,1326,0.1,1
app_8,1.78095,19596.2,7788.1,156.609,650.792,1.20157e+11,1.0116,0.955638,12,0.184573,1592,0.1,1
app_9,4.49575,20214.2,7666.4,215.923,1535.17,1.41527e+11,1.0246,0.955638,5,0.0921999,3881,0.1,1
