app_id,start_app,end_app,effective_cpu,effective_io,effective_iter,total_bytes,stretch,utilization,Tcomp,Tio,iterations,priority,group_id
app_1,3.94917,19997.1,7883.7,116.3,394.221,2.36687e+10,1.01171,0.947711,20,0.0600728,985,1,1
app_10,10.1888,19383.4,7877.2,122.8,524.215,2.50327e+10,1.01237,0.947711,15,0.0476813,1274,1.00001,1.00001
app_11,0.684473,16856.9,7098.82,901.18,2370.29,2.1892e+11,1.09323,0.947711,3,0.0923557,5020,1.00001,1.00001
app_12,0.621307,19981.7,7395.3,604.705,567.878,1.48832e+11,1.06043,0.947711,13,0.262118,1428,1.00001,1.00001
app_13,2.65888,20210.5,7675.4,324.6,405.049,7.71313e+10,1.03192,0.947711,19,0.189978,1024,1.00001,1.00001
app_14,3.46717,20200.8,7533.3,466.7,444.234,1.14099e+11,1.04611,0.947711,17,0.25698,1124,1.00001,1.00001
app_15,11.7582,20889.9,7311.98,688.016,520.402,1.71116e+11,1.06908,0.947711,14,0.328544,1375,1.00002,1.00002
app_16,1.49305,20463.1,7289.7,710.3,382.587,1.79434e+11,1.07107,0.947711,19,0.468495,987,1.00002,1.00002
app_17,14.6377,19674.9,7902.7,97.3,417.778,1.93312e+10,1.00984,0.947711,19,0.0462469,1026,1.00002,1.00002
app_18,1.39856,17645.5,7389.81,610.19,1845.77,1.37201e+11,1.06284,0.947711,4,0.0743454,4088,1.00002,1.00002
app_19,7.73439,18626.6,7899.6,100.4,986.052,8.16477e+09,1.01166,0.947711,8,0.0082807,2295,1.00002,1.00002
app_2,12.81,20975.3,7218,782,556.357,2.00091e+11,1.07844,0.947711,13,0.359229,1468,1,1
app_20,8.7114,19901.7,7534.1,465.9,397.771,1.13797e+11,1.04604,0.947711,19,0.285922,991,1.00002,1.00002
app_21,31.4728,19916.1,7978.5,21.5,152.849,3.19243e+09,1.00229,0.947711,52,0.0208655,381,1.00002,1.00002
app_22,3.667,20931.5,7501.1,498.9,121.055,1.22077e+11,1.04943,0.947711,62,1.0089,318,1.00002,1.00002
app_23,23.6151,20972.7,7580.1,419.9,43.8402,1.04341e+11,1.04106,0.947711,170,2.42653,116,1.00002,1.00002
app_24,65.3148,20106.5,7892.6,107.4,68.4822,2.65149e+10,1.01021,0.947711,117,0.384274,170,1.00002,1.00002
app_25,110.887,20569.7,7763.5,236.5,44.5495,4.9123e+10,1.02398,0.947711,173,1.09162,115,1.00003,1.00003
app_26,68.3857,20144.9,7856.1,143.9,93.6492,3.48842e+10,1.01382,0.947711,84,0.371109,235,1.00003,1.00003
app_27,21.4439,20183,7849.8,150.2,45.0421,3.42259e+10,1.01471,0.947711,174,0.760576,114,1.00003,1.00003
app_28,94.1463,20579.5,7652.8,347.2,60.0169,9.01172e+10,1.0332,0.947711,127,1.50195,155,1.00003,1.00003
app_29,33.7162,20238.6,7868.5,131.5,103.023,3.18718e+10,1.01261,0.947711,76,0.309435,261,1.00003,1.00003
app_3,1.64322,19831.2,7617.5,382.5,633.757,8.75158e+10,1.03828,0.947711,12,0.138256,1576,1,1
app_30,38.7634,20065.4,7989.3,10.7,107.096,2.71566e+08,1.00131,0.947711,75,0.002538,267,1.00003,1.00003
app_31,71.5492,20967.1,7422.4,577.6,73.208,1.43704e+11,1.05735,0.947711,101,1.96854,194,1.00003,1.00003
app_32,14.0899,20572,7594.9,405.1,166.64,1.03135e+11,1.03923,0.947711,45,0.617576,432,1.00003,1.00003
app_33,37.8417,21109.9,7249.1,750.9,71.7494,1.81947e+11,1.07656,0.947711,100,2.52704,194,1.00003,1.00003
app_34,29.2868,21109.9,7211.5,788.5,129.62,2.00196e+11,1.07938,0.947711,56,1.53997,344,1.00003,1.00003
app_35,68.0108,21148.6,7425,575,73.0651,1.57936e+11,1.055,0.947711,101,2.1635,194,1.00004,1.00004
app_36,51.559,21469.8,7268.7,731.3,44.9994,1.90828e+11,1.07245,0.947711,162,4.24062,120,1.00004,1.00004
app_37,19.0015,21226.8,7226.3,773.7,139.284,1.99763e+11,1.07729,0.947711,52,1.43714,372,1.00004,1.00004
app_38,31.3326,20141.8,7824.7,175.3,107.683,4.24484e+10,1.01689,0.947711,73,0.396714,270,1.00004,1.00004
app_39,37.5189,20217.1,7883.9,116.1,40.3016,3.21327e+10,1.01061,0.947711,196,0.803317,102,1.00004,1.00004
app_4,1.61654,19539.5,7821.7,178.3,652.504,3.54569e+10,1.01818,0.947711,12,0.0542985,1595,1,1
app_40,127.97,20949.5,7493.66,506.337,53.4474,1.42459e+11,1.04765,0.947711,140,2.66625,140,1.00004,1.00004
app_41,55.9479,21437.1,7501.5,498.5,18.5909,1.44182e+11,1.04634,0.947711,390,8.01011,51,1.00004,1.00004
app_42,489.687,22374.7,7558.4,441.6,4.33321,1.1504e+11,1.04256,0.947711,1737,28.7599,12,1.00004,1.00004
app_43,47.8192,21415.7,7386.5,613.5,18.7938,1.76373e+11,1.0578,0.947711,385,9.2828,51,1.00004,1.00004
app_44,745.566,21236.7,7953.8,46.2,4.56649,1.88621e+10,1.00343,0.947711,1728,4.71552,12,1.00004,1.00004
app_45,1032.92,22201.6,7488.4,511.6,5.17187,1.91496e+11,1.04168,0.947711,1414,38.2991,14,1.00004,1.00004
app_46,333.336,21256.5,7574,426,22.8213,9.71175e+10,1.04287,0.947711,333,4.41443,60,1.00005,1.00005
app_47,1119.58,21929.9,7560.7,439.3,5.58116,8.60492e+10,1.0462,0.947711,1361,14.3415,15,1.00005,1.00005
app_48,670.403,22428.7,7236.7,763.3,5.33257,1.93292e+11,1.07672,0.947711,1334,32.2153,15,1.00005,1.00005
app_49,243.137,21656.8,7292,708,5.85368,1.65041e+11,1.07281,0.947711,1237,27.5069,16,1.00005,1.00005
app_5,25.0569,20922.9,7242.9,757.1,301.988,1.95295e+11,1.07553,0.947711,24,0.646673,795,1.00001,1.00001
app_50,43.9142,20523.2,7735.3,264.7,27.0153,5.69901e+10,1.02666,0.947711,289,2.11075,69,1.00005,1.00005
app_51,327.275,23821.3,7574.5,425.5,2.6007,9.48667e+10,1.04311,0.947711,2678,31.6222,8,1.00005,1.00005
app_52,539.124,21206.1,7669.4,330.6,11.2743,1.07496e+11,1.02869,0.947711,682,9.77235,29,1.00005,1.00005
app_53,281.423,22870.5,7333.4,666.6,5.29389,1.03855e+11,1.07567,0.947711,1405,17.3092,15,1.00005,1.00005
app_54,719.643,21874.6,7617.3,382.7,9.35652,8.67513e+10,1.03841,0.947711,821,9.63903,25,1.00005,1.00005
app_55,370.941,21451.2,7512.2,487.8,5.33483,1.0542e+11,1.0502,0.947711,1463,17.57,14,1.00005,1.00005
app_56,103.437,20863,7748.4,251.6,12.3888,5.11412e+10,1.0257,0.947711,626,4.26176,32,1.00006,1.00006
app_57,95.8406,20340.9,7934.4,65.6,50.3801,1.57196e+10,1.00627,0.947711,157,0.314391,128,1.00006,1.00006
app_58,105.483,21363.1,7669.1,330.9,3.4089,8.60015e+10,1.03158,0.947711,2200,28.6672,9,1.00006,1.00006
app_59,464.524,22317.8,7558.8,441.2,5.31177,1.36449e+11,1.0396,0.947711,1370,22.7415,15,1.00006,1.00006
app_6,7.39219,19318.3,7623.3,376.7,691.964,8.78493e+10,1.03746,0.947711,11,0.12695,1677,1.00001,1.00001
app_60,1165.72,21939.5,7786.9,213.1,6.21062,5.38148e+10,1.02032,0.947711,1264,7.68783,16,1.00006,1.00006
app_7,10.0671,20608.8,7647,353,364.66,8.56643e+10,1.03457,0.947711,21,0.234697,941,1.00001,1.00001
app_8,2.84284,20946.4,7365.3,634.7,387.478,1.55833e+11,1.06367,0.947711,19,0.402669,1022,1.00001,1.00001
app_9,4.82934,20565.8,7349.7,650.3,816.637,1.62282e+11,1.06497,0.947711,9,0.198875,2111,1.00001,1.00001
