app_id,start_app,end_app,effective_cpu,effective_io,effective_iter,total_bytes,stretch,utilization,Tcomp,Tio,iterations,priority,group_id
app_1,8.39064,24709.9,5819.29,138.872,339.733,1.23341e+11,1.3462,0.851399,17,0.363838,1118,1,1
app_10,3.79234,24781.4,5819.2,145.913,341.3,1.31083e+11,1.34447,0.851399,17,0.384407,1119,1,1
app_11,10.9983,23921.5,6125.2,35.1057,292.41,2.2482e+10,1.3013,0.851399,21,0.0769932,908,1,1
app_12,1.64286,25318,5697.9,76.4242,407.021,5.44795e+10,1.39073,0.851399,14,0.133856,1381,1,1
app_13,3.93864,25812.8,4466.33,123.697,1113.99,7.44328e+10,1.76182,0.851399,4,0.0668158,4091,1,1
app_14,15.8791,24776.1,5826.42,160.27,324.9,1.43651e+11,1.34002,0.851399,18,0.443368,1064,1,1
app_15,26.1593,24106.6,6234.29,21.8878,239.512,8.21215e+09,1.28154,0.851399,26,0.0343605,753,1,1
app_16,7.37772,25478.4,5421.4,37.7919,539.548,5.5251e+09,1.47413,0.851399,10,0.0102507,1868,1,1
app_17,0.521878,25378.9,4205.13,102.224,1401.96,1.16039e+10,1.89721,0.851399,3,0.00828257,5068,1,1
app_18,1.03349,25307.3,5529.7,154.98,425.583,1.28215e+11,1.41395,0.851399,13,0.300973,1453,1,1
app_19,8.47354,25766.6,5578.82,141.42,429.275,1.25286e+11,1.4025,0.851399,13,0.292043,1495,1,1
app_2,12.4084,24916.4,5855.5,36.5066,343.397,2.00431e+10,1.36158,0.851399,17,0.0584348,1145,1,1
app_20,1.56939,24857.1,5472,52.5475,498.33,2.82598e+10,1.45448,0.851399,11,0.0567466,1662,1,1
app_21,78.1829,21333.1,7235.12,182.199,61.7027,1.79527e+11,1.07895,0.851399,118,2.89758,165,1,1
app_22,45.7574,22690.9,6661.6,110.24,145.398,1.01758e+11,1.18284,0.851399,46,0.701781,423,1,1
app_23,6.78136,21174.1,7347.3,116.043,46.1938,1.13981e+11,1.0722,0.851399,159,2.47784,124,1,1
app_24,47.8417,21171.5,7368.8,72.2274,51.4141,6.9923e+10,1.07545,0.851399,144,1.37104,138,1,1
app_25,50.6874,22378.2,6742.2,176.466,120.371,1.69637e+11,1.15743,0.851399,56,1.41364,344,1,1
app_26,27.9866,23037.4,6610.99,40.6086,154.419,3.11133e+10,1.20444,0.851399,43,0.200731,457,1,1
app_27,20.2775,23248.5,6461.9,158.862,173.79,1.50999e+11,1.20976,0.851399,37,0.872826,521,1,1
app_28,19.1618,21136.9,7448.3,126.811,43.9897,1.24627e+11,1.05639,0.851399,169,2.83244,117,1,1
app_29,81.1114,21697.1,7138.5,173.451,70.1147,1.69421e+11,1.0947,0.851399,102,2.4203,192,1,1
app_3,10.583,24719.2,5685.3,105.006,378.014,8.21034e+10,1.38711,0.851399,15,0.217205,1252,1,1
app_30,57.2935,20994.5,7446.5,125.451,42.618,1.23255e+11,1.05684,0.851399,174,2.86638,113,1,1
app_31,141.298,21309.3,7403.9,99.2582,44.6866,9.68037e+10,1.06657,0.851399,165,2.15119,120,1,1
app_32,37.9389,21945.4,7068,148.696,90.3781,1.45276e+11,1.10907,0.851399,78,1.59643,251,1,1
app_33,55.2083,22566.3,6801,104.638,117.468,9.90487e+10,1.15941,0.851399,58,0.84657,339,1,1
app_34,71.6447,21650.3,7324.7,139.857,52.4403,1.37308e+11,1.0721,0.851399,140,2.64053,141,1,1
app_35,92.9186,21584.2,7144.9,131.061,72.1524,1.27693e+11,1.10002,0.851399,99,1.77351,197,1,1
app_36,91.0945,21223.4,7462.5,167.672,42.8954,1.65263e+11,1.0488,0.851399,172,3.84331,114,1,1
app_37,104.194,21551.9,7419,22.0207,54.8457,1.95728e+10,1.07548,0.851399,134,0.355869,149,1,1
app_38,29.3818,23205.2,6498.5,79.3825,185.648,7.16844e+10,1.21762,0.851399,35,0.3854,553,1,1
app_39,72.3983,21602.8,7225.9,100.526,72.1323,9.73789e+10,1.09241,0.851399,100,1.35248,197,1,1
app_4,3.64505,24045.3,6130.3,47.029,267.161,3.17168e+10,1.29828,0.851399,23,0.11879,838,1,1
app_40,54.8493,22017.8,7042.3,81.3837,100.209,7.73212e+10,1.12366,0.851399,71,0.773212,278,1,1
app_41,219.413,20916.3,7865.4,68.4202,8.23412,6.79926e+10,1.0084,0.851399,951,8.49907,21,1,1
app_42,1797.54,23132.6,7835.9,131.034,3.76514,1.30803e+11,1.00418,0.851399,2036,32.7007,10,1,1
app_43,392.143,22252.5,7916,68.9466,4.73749,6.87689e+10,1.00191,0.851399,1642,17.1922,13,1,1
app_44,1455.15,23450.4,7789,156.897,3.20786,1.56633e+11,1.00684,0.851399,2379,39.1582,9,1,1
app_45,552.524,21387.6,7744.9,144.191,6.0996,1.43909e+11,1.01409,0.851399,1306,23.9848,16,1,1
app_46,272.684,21813.3,7893.2,74.4703,4.06412,7.41417e+10,1.0041,0.851399,1920,18.5354,11,1,1
app_47,21.6725,20704,7742,204.583,6.07094,2.04389e+11,1.00675,0.851399,1245,34.0649,16,1,1
app_48,457.796,20952.5,7740,126.296,16.8535,1.25347e+11,1.01712,0.851399,473,7.37334,42,1,1
app_49,280.727,21154.1,7788.6,97.9844,10.6608,9.73756e+10,1.01446,0.851399,726,8.85233,28,1,1
app_5,0.0659793,25118,5204.9,170.238,577.495,1.4068e+11,1.49656,0.851399,9,0.243813,1973,1,1
app_50,434.868,21523.1,7982,0.342354,6.05087,6.00744e+07,1.00225,0.851399,1285,0.0100124,16,1,1
app_51,796.711,21461.7,7905.2,42.0003,6.55778,4.15998e+10,1.00669,0.851399,1214,6.9333,17,1,1
app_52,673.943,21819.9,7968,6.43818,6.80951,6.23279e+09,1.00323,0.851399,1162,0.890398,18,1,1
app_53,776.452,21999,7841,94.5856,6.67664,9.42113e+10,1.00816,0.851399,1137,13.4588,18,1,1
app_54,250.401,21167.3,7534,203.532,21.13,2.02393e+11,1.03407,0.851399,352,9.63777,56,1,1
app_55,1318.9,24106,7856.3,28.3255,3.42965,2.81658e+10,1.01465,0.851399,2212,9.3886,10,1,1
app_56,628.729,21050.9,7641.2,228.246,5.53712,2.27995e+11,1.01662,0.851399,1404,37.9991,14,1,1
app_57,1794.77,22338.9,7921.2,34.2162,4.34633,3.39851e+10,1.00563,0.851399,1829,8.49628,11,1,1
app_58,608.447,20808.8,7717.4,138.452,8.21416,1.3805e+11,1.0184,0.851399,938,17.2563,21,1,1
app_59,48.5574,20595.6,7825.1,102.295,7.78647,1.01897e+11,1.00921,0.851399,1022,12.7372,20,1,1
app_6,0.201477,25337.2,4796.6,157.424,799.034,1.16872e+11,1.62818,0.851399,6,0.146273,2805,1,1
app_60,776.213,20567,7838.8,111.261,6.44948,1.11076e+11,1.0063,0.851399,1233,18.5127,16,1,1
app_7,0.689423,25870.1,5358.4,63.8171,538.119,4.00759e+10,1.4819,0.851399,10,0.0744905,1903,1,1
app_8,10.2045,24994.8,5388,53.3693,536.869,2.74087e+10,1.47727,0.851399,10,0.0510403,1813,1,1
app_9,11.3042,24856,5859.88,59.7149,341.797,3.93908e+10,1.3561,0.851399,17,0.115205,1136,1,1
