app_id,Tcomp,Tio,iter,witer,alpha_io,compute_size,io_size,mu,desyn_time
1,9.464403961710426,0.02929385138474437,2107,9.49369781309517,0.003085610260770864,9e9,29293851.384744372,10,4.824087020223784
2,9.507398616288397,0.004192217891669971,2103,9.511590834180067,0.0004407483421811169,9e9,4192217.8916699714,10,7.777172479660444
3,10.562150794823419,0.01168970600887392,1892,10.573840500832292,0.0011055307679318405,10e9,11689706.00887392,10,2.901507986507885
4,10.463886064844687,0.06951740462907038,1899,10.533403469473757,0.006599709659896227,10e9,69517404.62907039,10,4.649992398748318
5,11.204820635188705,0.04106288044336947,1779,11.245883515632075,0.0036513698889278894,11e9,41062880.44336947,10,9.826573476980949
6,9.303499558887303,0.020256630187986246,2146,9.32375618907529,0.0021725825705010476,9e9,20256630.187986247,10,4.986429440998952
7,10.556722274645939,0.057310716930252054,1885,10.61403299157619,0.005399523157289657,10e9,57310716.93025205,10,6.123410084090635
8,8.190231662482734,0.03345151832046509,2433,8.2236831808032,0.004067705137103532,8e9,33451518.32046509,10,5.865726016082821
9,11.085636849805615,0.003353140937849921,1804,11.088989990743466,0.0003023847023623392,11e9,3353140.937849921,10,6.706240699611443
10,9.704382596398618,0.0017395911944046753,2061,9.706122187593023,0.00017922617918702182,9e9,1739591.1944046752,10,1.1250596743356562
11,9.81610175640322,0.05153202738455736,2027,9.867633783787777,0.005222328727807361,9e9,51532027.38455736,10,6.666996842413397
12,8.94307268279385,0.043758077653522846,2226,8.986830760447374,0.004869133381938142,8e9,43758077.65352285,10,6.8686511527305
13,10.548514593454929,0.0028999109490140053,1896,10.551414504403942,0.0002748362267261553,10e9,2899910.9490140053,10,1.984079823370312
14,10.455154560202091,0.004635064687757031,1913,10.459789624889849,0.0004431317315147094,10e9,4635064.687757031,10,3.9308408344761077
15,9.31086697033592,0.049303090146566794,2137,9.360170060482488,0.005267328459631146,9e9,49303090.14656679,10,0.23970722282692422
16,9.694061493927725,0.050880408628626944,2053,9.744941902556352,0.005221212105459519,9e9,50880408.62862694,10,1.3825174990528268
17,10.401072688288604,0.02491144372508721,1919,10.42598413201369,0.0023893613695991477,10e9,24911443.72508721,10,0.37119718506607857
18,9.142413382521418,0.029896791663581303,2181,9.172310174185,0.0032594614765344833,9e9,29896791.663581304,10,2.8694503650105285
19,8.585531961249051,0.038282380724535325,2320,8.623814341973587,0.004439147134488784,8e9,38282380.72453532,10,1.6356419640669448
20,8.601268006780176,0.054473023098205085,2311,8.655741029878381,0.006293282448050605,8e9,54473023.09820508,10,0.159158331212293
21,106.47995599659716,0.1043831190132074,188,106.58433911561036,0.0009793476216049403,106e9,104383119.0132074,100,105.06378057183097
22,97.9468846417007,0.19487721238243236,204,98.14176185408314,0.0019856706125999163,97e9,194877212.38243237,100,4.616105377541778
23,96.58452057106336,0.47776690907010955,207,97.06228748013348,0.004922271270063545,96e9,477766909.07010955,100,30.529429394257477
24,92.41135018774376,0.4830593545146152,216,92.89440954225837,0.005200090693238841,92e9,483059354.5146152,100,73.87113448633993
25,94.41686602663674,0.5541345333248845,211,94.97100055996162,0.0058347761954452805,94e9,554134533.3248845,100,68.64291864646529
26,107.26515595814791,0.4852098464567054,186,107.75036580460463,0.004503092336007367,107e9,485209846.4567054,100,75.19242875561565
27,112.21685125500082,0.20197499225127571,178,112.4188262472521,0.0017966296126153752,112e9,201974992.25127572,100,59.90976193280906
28,112.15933243914083,0.7384332428040576,178,112.89776568194489,0.006540725038654606,112e9,738433242.8040576,100,40.59020545359645
29,117.56018420221572,0.04830288932622576,171,117.60848709154195,0.0004107092142816925,117e9,48302889.326225765,100,70.0907463351076
30,102.98046420449623,0.21306262739130086,194,103.19352683188752,0.002064689849571679,102e9,213062627.39130086,100,20.886377989737035
31,95.19553630581744,0.3404807035962454,210,95.53601700941368,0.0035638988755695767,95e9,340480703.5962454,100,45.58419619728891
32,94.2956887842912,0.4243990277158108,212,94.72008781200701,0.0044805599057100185,94e9,424399027.7158108,100,65.39498089506885
33,103.853639919135,0.3002891276140445,193,104.15392904674906,0.0028831281773274344,103e9,300289127.61404455,100,11.208810841198249
34,114.37612443481689,0.17878928294173377,175,114.55491371775862,0.001560729934136534,114e9,178789282.94173378,100,108.29433198988818
35,99.93602825258857,0.14341557235580477,200,100.07944382494438,0.0014330172798188456,99e9,143415572.35580477,100,83.71745846930743
36,89.1715791821374,0.45127478598098975,224,89.62285396811839,0.005035264622810629,89e9,451274785.98098975,100,30.1172171514428
37,96.25445765894963,0.36943812157303074,207,96.62389578052266,0.0038234653921654614,96e9,369438121.57303077,100,40.51185297559785
38,82.06979379010464,0.44940010423514987,243,82.5191938943398,0.005446006959430264,82e9,449400104.23514986,100,28.830869967570788
39,103.16605023421663,0.6314853707092997,193,103.79753560492593,0.006083818532193853,103e9,631485370.7092997,100,7.384025088378468
40,98.11226060247604,0.15930549502720437,204,98.27156609750324,0.0016210741453854963,98e9,159305495.02720436,100,13.227188007505593
41,831.6858551925037,1.759413615278045,24,833.4452688077818,0.002111012781672914,831e9,1759413615.2780452,1000,534.5743218340482
42,1079.1064558496132,7.532926854292097,19,1086.6393827039053,0.006932315333121622,1079e9,7532926854.292097,1000,1081.7219270079643
43,940.9249830668197,3.3999466420865563,22,944.3249297089062,0.0036003991159426554,940e9,3399946642.0865564,1000,929.5795917947095
44,935.4567850833347,4.731627584657173,22,940.1884126679919,0.005032637629759908,935e9,4731627584.657173,1000,327.9340108763785
45,958.7666016702325,5.833855438968949,21,964.6004571092014,0.006047950108226524,958e9,5833855438.968949,1000,719.6442724738257
46,903.3031799219361,2.6597874471905913,23,905.9629673691268,0.0029358677374136904,903e9,2659787447.1905913,1000,719.4794087996383
47,1006.6194440743774,3.66368454512513,20,1010.2831286195025,0.0036263938705294995,1006e9,3663684545.1251297,1000,993.9451219574124
48,802.2525371706148,1.8852195273572296,25,804.137756697972,0.0023443987198145002,802e9,1885219527.3572297,1000,410.6065559609178
49,1012.8146412230044,0.35326784311563386,20,1013.16790906612,0.00034867650263543763,1012e9,353267843.11563385,1000,466.0957205165221
50,1008.4356170809967,3.01871849457059,20,1011.4543355755674,0.002984532655992611,1008e9,3018718494.57059,1000,67.47872239086531
51,1038.8507427010634,4.136435890139502,20,1042.9871785912028,0.003965950852556714,1038e9,4136435890.139502,1000,555.5085731351409
52,1127.7328809035725,5.1619402209464065,18,1132.894821124519,0.004556416116213356,1127e9,5161940220.946406,1000,18.569350247806554
53,885.7697266761899,0.5507395015926696,23,886.3204661777826,0.0006213773940792647,885e9,550739501.5926696,1000,184.46944282744508
54,1013.8958716899109,0.7948057913299141,20,1014.6906774812409,0.0007832986041646254,1013e9,794805791.3299141,1000,861.8350594387357
55,814.1641725421989,2.263487766819063,25,816.4276603090179,0.0027724290550890113,814e9,2263487766.8190627,1000,333.0740911712316
56,1045.8449577919332,0.7197664207779311,20,1046.564724212711,0.0006877419084800346,1045e9,719766420.7779311,1000,769.0412036084355
57,946.6975939894423,5.7283196574553115,21,952.4259136468977,0.006014451702097459,946e9,5728319657.455312,1000,600.1427181995109
58,879.060669175276,0.6903216455034493,23,879.7509908207794,0.000784678451864432,879e9,690321645.5034493,1000,101.13706188530857
59,1042.307802928464,2.4564212700975263,20,1044.7642241985616,0.0023511728418742963,1042e9,2456421270.097526,1000,643.1249820212988
60,875.8558870719829,5.859633252673753,23,881.7155203246567,0.006645718621938486,875e9,5859633252.673753,1000,12.159339543410926
