app_id,Tcomp,Tio,iter,witer,alpha_io,compute_size,io_size,mu,desyn_time
1,9.779506430558186,0.0059974397872819265,2044,9.785503870345467,0.0006128902371043866,9e9,5997439.787281927,10,1.5711996763272549
2,10.151286221735948,0.010023307363382363,1969,10.16130952909933,0.0009864188601555965,10e9,10023307.363382364,10,7.668980028981143
3,10.256570221347776,0.0027533279848240538,1950,10.2593235493326,0.00026837324815661616,10e9,2753327.984824054,10,0.5839221848376245
4,9.547449822752824,0.013940857561366479,2092,9.56139068031419,0.001458036600268736,9e9,13940857.561366478,10,8.381523907513207
5,9.542590468821906,0.02853487109425738,2090,9.571125339916163,0.0029813496408048635,9e9,28534871.09425738,10,5.934108135856084
6,8.42006048010507,0.04778919996586466,2362,8.467849680070934,0.00564360513842569,8e9,47789199.96586466,10,4.669282941719662
7,11.558968841778333,0.006484024842818811,1730,11.56545286662115,0.0005606373496650737,11e9,6484024.842818811,10,9.878538369316912
8,8.896112453230828,0.0009092351392378519,2248,8.897021688370065,0.00010219545046477501,8e9,909235.139237852,10,3.6727183048140577
9,8.80254835601952,0.028885479810924902,2265,8.831433835830444,0.0032707576536136415,8e9,28885479.810924903,10,5.205626570727602
10,10.518931033204597,0.058930307916121284,1891,10.577861341120718,0.005571098543997142,10e9,58930307.91612128,10,10.15502553955296
11,9.8193253876335,0.01148413223560265,2035,9.830809519869103,0.0011681776777784177,9e9,11484132.235602649,10,4.308246752959721
12,9.871181533187753,0.04237658046964608,2018,9.9135581136574,0.004274608569779406,9e9,42376580.46964608,10,7.451366383421967
13,11.497423691984626,0.04704069978370541,1733,11.544464391768331,0.004074740775089343,11e9,47040699.78370541,10,4.253172346706926
14,10.377548498128526,0.012696077712808899,1925,10.390244575841335,0.0012219228931654722,10e9,12696077.7128089,10,1.540166267079469
15,10.581420523753762,0.056977414346051594,1880,10.638397938099814,0.005355826570652673,10e9,56977414.346051596,10,5.76557356171415
16,10.761374614391839,0.0645730245911939,1848,10.825947638983033,0.005964653325929051,10e9,64573024.59119391,10,8.659724770354991
17,11.814338243683737,0.07267503698471937,1683,11.887013280668457,0.006113818102896285,11e9,72675036.98471938,10,1.3628745374891258
18,11.165915420529888,0.013559098572435528,1789,11.179474519102325,0.00121285652105268,11e9,13559098.572435528,10,2.6250534157944387
19,10.09837544857385,0.035657418692812345,1974,10.134032867266663,0.003518581315044601,10e9,35657418.692812346,10,1.782955250683032
20,11.116587999518913,0.06624795735804478,1789,11.182835956876957,0.005924074860215147,11e9,66247957.35804478,10,1.8824333422547899
21,103.13585855418961,0.5918536761761876,193,103.7277122303658,0.005705839485418875,103e9,591853676.1761875,100,46.86736303456179
22,90.52827366926904,0.413950743661572,220,90.94222441293061,0.004551799192660988,90e9,413950743.661572,100,31.27959461130849
23,94.95074375524824,0.12345002700413596,211,95.07419378225238,0.0012984598879362838,94e9,123450027.00413597,100,26.865655149546026
24,93.12136116811784,0.5577955018238906,214,93.67915666994173,0.00595431813919037,93e9,557795501.8238906,100,84.58328495572009
25,87.65427452628384,0.1442428488008888,228,87.79851737508473,0.0016428847902370356,87e9,144242848.8008888,100,18.331052549345706
26,91.14408748252723,0.04972391076248659,220,91.1938113932897,0.0005452553194431504,91e9,49723910.76248659,100,2.3137278591955655
27,96.00317674439175,0.1984107061855399,208,96.20158745057729,0.002062447319671015,96e9,198410706.1855399,100,49.00452159085634
28,85.59749308470266,0.457843060398533,233,86.0553361451012,0.0053203331822043705,85e9,457843060.398533,100,18.98034270533512
29,83.68806848724095,0.2191492592466296,239,83.90721774648759,0.002611804623396696,83e9,219149259.2466296,100,41.33127645285606
30,109.69686455278904,0.5370717139517356,182,110.23393626674077,0.004872108645854263,109e9,537071713.9517356,100,67.68811395356309
31,96.44205729456351,0.42893750488922117,207,96.87099479945273,0.004427925054111702,96e9,428937504.8892212,100,57.53364415695596
32,94.35447983926443,0.5061412154791746,211,94.8606210547436,0.005335630421258605,94e9,506141215.47917455,100,49.67955435173456
33,92.28619121720136,0.29145519329151015,217,92.57764641049287,0.0031482242700272,92e9,291455193.29151016,100,23.55902005084297
34,94.91688604103257,0.41147973899155094,210,95.32836578002411,0.004316445956296628,94e9,411479738.9915509,100,35.633071351734564
35,93.08777157737855,0.13440600014298487,215,93.22217757752153,0.0014417813833110236,93e9,134406000.14298487,100,62.94375294727471
36,98.0757200357856,0.2834431267879534,204,98.35916316257355,0.002881715517642852,98e9,283443126.78795344,100,5.859848287925828
37,89.84463191286622,0.44960944108027795,222,90.2942413539465,0.004979381124847635,89e9,449609441.0802779,100,17.621295380621184
38,96.58379141871735,0.37743314693803015,207,96.96122456565539,0.003892619432445995,96e9,377433146.9380301,100,8.987394566812082
39,102.50620746862317,0.5433215741703697,195,103.04952904279354,0.005272431414458418,102e9,543321574.1703697,100,27.91679299317053
40,96.14690324073459,0.1947444433302623,208,96.34164768406485,0.00202139415311737,96e9,194744443.3302623,100,12.618662905383191
41,926.2515624101273,1.2394801874581043,22,927.4910425975854,0.0013363796851199165,926e9,1239480187.4581044,1000,55.320744309443455
42,945.8619760228207,2.8724697665542887,22,948.7344457893751,0.0030276857547470084,945e9,2872469766.554289,1000,317.30177102721746
43,964.1775799475636,2.3070175212656783,21,966.4845974688293,0.002387019438600089,964e9,2307017521.2656784,1000,105.01545420399117
44,1061.3063178430948,2.0768708293822136,19,1063.383188672477,0.001953078487139683,1061e9,2076870829.3822136,1000,35.441156392833804
45,978.0450139750603,3.1902185525171833,21,981.2352325275775,0.003251227072533316,978e9,3190218552.5171833,1000,951.975060048271
46,981.2919470098662,3.7142285244981097,21,985.0061755343644,0.0037707667390848043,981e9,3714228524.49811,1000,320.27428671933814
47,985.8051104617637,5.532750371978056,21,991.3378608337417,0.005581094590016833,985e9,5532750371.978056,1000,838.7778371885406
48,848.8629349115217,2.753606561040883,24,851.6165414725626,0.0032333878300197377,848e9,2753606561.040883,1000,470.3324612544746
49,1028.7422483565363,2.2856356826346396,20,1031.0278840391709,0.0022168514722224557,1028e9,2285635682.6346397,1000,811.8242783759671
50,1104.8462367028314,2.828074334457088,19,1107.6743110372886,0.002553164144258902,1104e9,2828074334.457088,1000,348.6147048197871
51,991.084887606374,3.9657089892867297,21,995.0505965956607,0.003985434512430323,991e9,3965708989.28673,1000,842.7104325044974
52,1139.7619259650717,6.410725844607732,18,1146.1726518096793,0.005593158966483721,1139e9,6410725844.607733,1000,133.78581346453885
53,860.1635788095788,4.90604360713423,24,865.0696224167131,0.00567127024230535,860e9,4906043607.134231,1000,122.41527397066618
54,848.5399552927856,4.197946196456483,24,852.7379014892421,0.004922903261512228,848e9,4197946196.456483,1000,749.9010795041048
55,1060.1515866672057,0.04743627777563083,19,1060.1990229449814,4.474280465177576e-05,1060e9,47436277.77563083,1000,505.1314202776337
56,952.7834526860884,0.6060111893607415,21,953.3894638754491,0.0006356386475023085,952e9,606011189.3607415,1000,167.4015312036563
57,1102.206495435192,3.0463663830357577,19,1105.2528618182278,0.0027562619272699694,1102e9,3046366383.0357575,1000,403.9248075425046
58,959.1518021982043,4.1495896252652775,21,963.3013918234697,0.004307675313756541,959e9,4149589625.2652774,1000,771.6438307707697
59,981.1348119713494,5.271646104598371,21,986.4064580759479,0.005344293988992196,981e9,5271646104.5983715,1000,7.409391372104898
60,952.4801757578044,4.652182480036329,21,957.1323582378408,0.004860542473562777,952e9,4652182480.036328,1000,600.6018581542512
