app_id,Tcomp,Tio,iter,witer,alpha_io,compute_size,io_size,mu,desyn_time
1,8.703338982550344,0.025252184353736336,2292,8.72859116690408,0.0028930424017892184,8e9,25252184.353736337,10,0.5731361401084578
2,9.472925023642564,0.028955510755381286,2105,9.501880534397944,0.0030473452755545465,9e9,28955510.755381286,10,1.1416044832306467
3,10.909438351485926,0.002470804691343921,1833,10.91190915617727,0.00022643193376891245,10e9,2470804.691343921,10,1.6720610059429517
4,9.062022666234208,0.030614070893432765,2200,9.092636737127641,0.0033669079474414076,9e9,30614070.893432766,10,8.439426200256543
5,8.865412134793472,0.04240060270006901,2246,8.90781273749354,0.004759934222865084,8e9,42400602.70006901,10,4.001742752022421
6,10.453812378343958,0.025676144670056345,1909,10.479488523014014,0.0024501333832914595,10e9,25676144.670056347,10,8.286112383338706
7,7.284402886457032,0.009308506668022404,2743,7.293711393125054,0.001276237318191184,7e9,9308506.668022403,10,3.257292576320238
8,9.253562623778508,0.0627218189901163,2147,9.316284442768625,0.006732492913395477,9e9,62721818.99011629,10,1.8059571694420293
9,11.905735251076425,0.038565167416517235,1675,11.944300418492942,0.0032287506229170303,11e9,38565167.416517235,10,2.158982356719107
10,9.185102714282309,0.05664885990405144,2165,9.24175157418636,0.006129667027869529,9e9,56648859.90405144,10,6.34362769115777
11,10.039420319462785,0.044993551926580964,1984,10.084413871389366,0.004461692320486053,10e9,44993551.926580966,10,7.706085400205977
12,11.229472887040552,0.049526297231876536,1774,11.278999184272429,0.004391018779479707,11e9,49526297.23187654,10,8.75687435810373
13,8.741364143433595,0.021806739415992638,2283,8.763170882849588,0.0024884530619699126,8e9,21806739.41599264,10,1.8231904930735996
14,10.895908077695093,0.06926173965834567,1824,10.96516981735344,0.006316522298517646,10e9,69261739.65834567,10,1.2044426479409525
15,10.241856717161106,0.029666814643345828,1948,10.271523531804451,0.0028882584508020015,10e9,29666814.64334583,10,8.435148321794694
16,9.655140260315655,0.0044355932629768354,2071,9.659575853578632,0.00045919130717665603,9e9,4435593.2629768355,10,0.15469074211163986
17,9.084486297954426,0.06301334816568156,2187,9.147499646120107,0.006888587111605797,9e9,63013348.16568156,10,1.7456729900633596
18,9.094765483654038,0.05546758044960526,2186,9.150233064103643,0.006061876245229701,9e9,55467580.44960526,10,8.720468489955197
19,10.067812593177981,0.0072444709604190935,1986,10.0750570641384,0.0007190501169671168,10e9,7244470.960419093,10,0.9698327585700686
20,10.436474588753407,0.018106161532035106,1914,10.454580750285443,0.0017318878647085635,10e9,18106161.532035105,10,7.747794349182775
21,118.67285499673953,0.5264712382534164,168,119.19932623499295,0.004416729983989305,118e9,526471238.25341636,100,74.79582334509804
22,94.22813247594789,0.2747183251919614,212,94.50285080113984,0.002906984528647128,94e9,274718325.19196135,100,88.88069992163973
23,113.73203176026655,0.26979819378632397,176,114.00182995405288,0.002366612833277001,113e9,269798193.78632396,100,49.24525499764361
24,98.35187531523212,0.08584520874118479,204,98.43772052397331,0.0008720763573581351,98e9,85845208.74118479,100,35.52014457867406
25,92.29196054468513,0.16902517715259266,217,92.46098572183772,0.001828070248581308,92e9,169025177.15259266,100,88.86009522075383
26,103.11343010487187,0.2548308459666963,194,103.36826095083856,0.0024652716764567858,103e9,254830845.9666963,100,97.23589241523158
27,111.3081367620316,0.026074055549586,180,111.33421081758118,0.00023419625789873166,111e9,26074055.549586,100,3.75703346745549
28,113.94975286848477,0.3240566902688945,176,114.27380955875365,0.002835791433926786,113e9,324056690.2688945,100,70.26361533118404
29,88.72188238990852,0.10381541864540662,226,88.82569780855393,0.001168754326807092,88e9,103815418.64540662,100,62.62466534154492
30,97.80013255177283,0.04703295730122341,205,97.84716550907406,0.00048067776983137757,97e9,47032957.301223405,100,85.28826049379067
31,98.21207115252493,0.6505275827926282,203,98.86259873531756,0.006580118175269396,98e9,650527582.7926283,100,21.27782355432824
32,103.10371528934813,0.4403332836430385,194,103.54404857299117,0.004252617989267002,103e9,440333283.64303845,100,71.94120703547667
33,106.93630718909866,0.3959155076950079,187,107.33222269679366,0.003688691967308295,106e9,395915507.69500786,100,9.047656613410412
34,90.59163796431926,0.48982308249826456,220,91.08146104681752,0.005377857105810881,90e9,489823082.49826455,100,22.145839166496508
35,77.38710291075873,0.19564970190908082,258,77.5827526126678,0.0025218195452005,77e9,195649701.90908083,100,67.82503025808006
36,94.9551273884138,0.02124345460070202,211,94.97637084301451,0.0002236709448059993,94e9,21243454.60070202,100,38.17667876994414
37,93.61000412728005,0.6257768349143487,213,94.2357809621944,0.006640543841467165,93e9,625776834.9143486,100,28.402464783261184
38,73.29169507587254,0.4304032114208799,272,73.72209828729342,0.0058381844985421864,73e9,430403211.4208799,100,38.184400171312824
39,96.01591153802799,0.41863471257399804,208,96.434546250602,0.0043411280381420855,96e9,418634712.57399803,100,79.29436159237653
40,103.9321957529098,0.23043340105287788,193,104.16262915396268,0.002212246397047779,103e9,230433401.05287787,100,20.949834617996327
41,955.9627261677206,6.472389598480495,21,962.4351157662011,0.006725013969723852,955e9,6472389598.480495,1000,333.0048899725516
42,1166.3314507534576,6.649193464570091,18,1172.9806442180277,0.005668630166529989,1166e9,6649193464.570091,1000,242.28273420066637
43,1009.0426556680692,0.3201504563836675,20,1009.3628061244528,0.00031718075447312793,1009e9,320150456.3836675,1000,721.3904418575294
44,794.2080218634268,3.9364513238125736,26,798.1444731872393,0.004932003485651035,794e9,3936451323.8125734,1000,109.53152681097963
45,716.0047729086533,0.5029457392807053,28,716.507718647934,0.0007019404344028213,716e9,502945739.2807053,1000,129.645703997324
46,1042.2585970913005,1.5891404359310208,20,1043.8477375272316,0.0015223872015046292,1042e9,1589140435.9310207,1000,523.0359412273159
47,968.2825955547858,5.07099689892983,21,973.3535924537156,0.005209819882768824,968e9,5070996898.929831,1000,938.5416141912976
48,972.345057890428,0.7246643578764402,21,973.0697222483045,0.0007447198708455168,972e9,724664357.8764403,1000,82.63674118639732
49,1083.2845085895503,2.662881186677669,19,1085.947389776228,0.002452127250129849,1083e9,2662881186.677669,1000,403.279447137108
50,941.1028433359618,5.5290300444686205,22,946.6318733804304,0.005840739362308188,941e9,5529030044.46862,1000,355.6526625942786
51,1128.8149720515398,1.9751633375417001,18,1130.7901353890816,0.00174671079604182,1128e9,1975163337.5417001,1000,391.8084929255875
52,1011.0366104245043,2.348075469587113,20,1013.3846858940914,0.0023170623182601656,1011e9,2348075469.587113,1000,337.70283091367133
53,1042.5017606471429,0.9973879854892709,20,1043.4991486326321,0.0009558110198711865,1042e9,997387985.4892709,1000,60.31482561001517
54,894.6585378409613,3.6772719305428914,23,898.3358097715043,0.004093426857244199,894e9,3677271930.5428915,1000,378.7523830830998
55,937.2564442268548,0.16681981692361836,22,937.4232640437784,0.0001779557040263807,937e9,166819816.92361835,1000,387.3665271623749
56,925.6639453134737,5.4949611648836365,22,931.1589064783574,0.005901206686263226,925e9,5494961164.883636,1000,917.7536699839318
57,1011.9937244459801,3.124138609577212,20,1015.1178630555573,0.003077611697397771,1011e9,3124138609.5772123,1000,224.61803110506327
58,1038.6372721420535,6.753654326692237,20,1045.3909264687456,0.006460410317033829,1038e9,6753654326.692237,1000,830.5714521381018
59,886.743688666424,5.615980229918133,23,892.3596688963421,0.0062934043588768395,886e9,5615980229.918133,1000,694.213437396077
60,1170.139429380563,3.6296618223098362,18,1173.7690912028727,0.003092313342984843,1170e9,3629661822.3098364,1000,375.80862474907394
