execution_id,priority,max_stretch,mean_stretch,utilization,noise,noise_seed,x
0,Exclusive-FCFS,1.04905,1.01272,0.984335,0.6,1665488377,0.3333333333333333
0,FairShare,1.01212,1.00342,0.993212,0.6,1665488382,0.3333333333333333
0,Set-10,1.01232,1.00343,0.993167,0.6,1665488385,0.3333333333333333
1,Exclusive-FCFS,1.03941,1.01174,0.985254,0.6,1665488388,0.3333333333333333
1,FairShare,1.01178,1.00336,0.993308,0.6,1665488392,0.3333333333333333
1,Set-10,1.01242,1.0034,0.993216,0.6,1665488395,0.3333333333333333
2,Exclusive-FCFS,1.03046,1.00902,0.987794,0.6,1665488399,0.3333333333333333
2,FairShare,1.01035,1.00308,0.993523,0.6,1665488402,0.3333333333333333
2,Set-10,1.0108,1.00312,0.993551,0.6,1665488405,0.3333333333333333
3,Exclusive-FCFS,1.0415,1.01214,0.984822,0.6,1665488408,0.3333333333333333
3,FairShare,1.01157,1.00299,0.993659,0.6,1665488412,0.3333333333333333
3,Set-10,1.01168,1.00307,0.993548,0.6,1665488416,0.3333333333333333
4,Exclusive-FCFS,1.04298,1.01215,0.984934,0.6,1665488419,0.3333333333333333
4,FairShare,1.0104,1.00324,0.993448,0.6,1665488423,0.3333333333333333
4,Set-10,1.01122,1.00337,0.993249,0.6,1665488426,0.3333333333333333
5,Exclusive-FCFS,1.05863,1.01463,0.982564,0.6,1665488429,0.3333333333333333
5,FairShare,1.01482,1.00358,0.993075,0.6,1665488434,0.3333333333333333
5,Set-10,1.0156,1.00347,0.993177,0.6,1665488437,0.3333333333333333
6,Exclusive-FCFS,1.04434,1.01191,0.98511,0.6,1665488441,0.3333333333333333
6,FairShare,1.01191,1.00336,0.99328,0.6,1665488445,0.3333333333333333
6,Set-10,1.01172,1.00326,0.993468,0.6,1665488448,0.3333333333333333
7,Exclusive-FCFS,1.04268,1.013,0.984001,0.6,1665488451,0.3333333333333333
7,FairShare,1.01231,1.00336,0.993297,0.6,1665488456,0.3333333333333333
7,Set-10,1.01289,1.00336,0.993301,0.6,1665488460,0.3333333333333333
8,Exclusive-FCFS,1.04495,1.01286,0.984144,0.6,1665488463,0.3333333333333333
8,FairShare,1.01188,1.00332,0.993366,0.6,1665488467,0.3333333333333333
8,Set-10,1.01268,1.00342,0.993263,0.6,1665488470,0.3333333333333333
9,Exclusive-FCFS,1.03978,1.01134,0.985664,0.6,1665488473,0.3333333333333333
9,FairShare,1.01236,1.00329,0.99337,0.6,1665488477,0.3333333333333333
9,Set-10,1.01251,1.00328,0.993358,0.6,1665488480,0.3333333333333333
10,Exclusive-FCFS,1.03241,1.01005,0.986809,0.6,1665488483,0.3333333333333333
10,FairShare,1.01059,1.00319,0.99351,0.6,1665488487,0.3333333333333333
10,Set-10,1.01094,1.00314,0.993472,0.6,1665488490,0.3333333333333333
11,Exclusive-FCFS,1.03857,1.01238,0.984626,0.6,1665488493,0.3333333333333333
11,FairShare,1.00983,1.00324,0.993423,0.6,1665488497,0.3333333333333333
11,Set-10,1.01015,1.00332,0.993263,0.6,1665488500,0.3333333333333333
12,Exclusive-FCFS,1.04144,1.01243,0.984573,0.6,1665488504,0.3333333333333333
12,FairShare,1.01081,1.00333,0.993277,0.6,1665488508,0.3333333333333333
12,Set-10,1.01165,1.00335,0.993248,0.6,1665488511,0.3333333333333333
13,Exclusive-FCFS,1.02961,1.00933,0.987499,0.6,1665488514,0.3333333333333333
13,FairShare,1.01095,1.00314,0.993512,0.6,1665488518,0.3333333333333333
13,Set-10,1.01141,1.00307,0.99353,0.6,1665488521,0.3333333333333333
14,Exclusive-FCFS,1.04248,1.01119,0.985755,0.6,1665488524,0.3333333333333333
14,FairShare,1.01223,1.00329,0.993372,0.6,1665488528,0.3333333333333333
14,Set-10,1.013,1.00332,0.993319,0.6,1665488531,0.3333333333333333
15,Exclusive-FCFS,1.04015,1.00969,0.987182,0.6,1665488534,0.3333333333333333
15,FairShare,1.01299,1.00337,0.993229,0.6,1665488538,0.3333333333333333
15,Set-10,1.01332,1.00319,0.993445,0.6,1665488542,0.3333333333333333
16,Exclusive-FCFS,1.04367,1.01253,0.984519,0.6,1665488545,0.3333333333333333
16,FairShare,1.01195,1.00358,0.993126,0.6,1665488549,0.3333333333333333
16,Set-10,1.01299,1.00354,0.993084,0.6,1665488552,0.3333333333333333
17,Exclusive-FCFS,1.04258,1.013,0.983985,0.6,1665488555,0.3333333333333333
17,FairShare,1.01189,1.00332,0.993257,0.6,1665488559,0.3333333333333333
17,Set-10,1.01204,1.00333,0.993349,0.6,1665488562,0.3333333333333333
18,Exclusive-FCFS,1.04016,1.01142,0.985609,0.6,1665488565,0.3333333333333333
18,FairShare,1.01186,1.00342,0.993175,0.6,1665488569,0.3333333333333333
18,Set-10,1.01199,1.00329,0.993354,0.6,1665488573,0.3333333333333333
19,Exclusive-FCFS,1.03628,1.01059,0.986345,0.6,1665488576,0.3333333333333333
19,FairShare,1.01216,1.00317,0.993477,0.6,1665488580,0.3333333333333333
19,Set-10,1.01234,1.0032,0.993399,0.6,1665488583,0.3333333333333333
20,Exclusive-FCFS,1.04209,1.01209,0.984859,0.6,1665488587,0.3333333333333333
20,FairShare,1.01051,1.0031,0.993559,0.6,1665488591,0.3333333333333333
20,Set-10,1.01051,1.0032,0.993546,0.6,1665488594,0.3333333333333333
21,Exclusive-FCFS,1.03794,1.0119,0.985025,0.6,1665488597,0.3333333333333333
21,FairShare,1.0105,1.00342,0.993176,0.6,1665488601,0.3333333333333333
21,Set-10,1.01079,1.00344,0.993201,0.6,1665488604,0.3333333333333333
22,Exclusive-FCFS,1.03947,1.01081,0.98613,0.6,1665488607,0.3333333333333333
22,FairShare,1.01333,1.00323,0.993342,0.6,1665488611,0.3333333333333333
22,Set-10,1.01387,1.00324,0.993404,0.6,1665488614,0.3333333333333333
23,Exclusive-FCFS,1.05973,1.0178,0.979532,0.6,1665488617,0.3333333333333333
23,FairShare,1.01252,1.00348,0.993191,0.6,1665488622,0.3333333333333333
23,Set-10,1.01255,1.00351,0.993118,0.6,1665488625,0.3333333333333333
24,Exclusive-FCFS,1.04703,1.01276,0.984262,0.6,1665488628,0.3333333333333333
24,FairShare,1.01285,1.0033,0.993328,0.6,1665488632,0.3333333333333333
24,Set-10,1.0134,1.00331,0.993376,0.6,1665488636,0.3333333333333333
25,Exclusive-FCFS,1.03645,1.01121,0.985757,0.6,1665488639,0.3333333333333333
25,FairShare,1.0109,1.00288,0.993742,0.6,1665488643,0.3333333333333333
25,Set-10,1.01103,1.00294,0.993682,0.6,1665488646,0.3333333333333333
26,Exclusive-FCFS,1.04293,1.01219,0.984715,0.6,1665488649,0.3333333333333333
26,FairShare,1.01073,1.00316,0.993487,0.6,1665488653,0.3333333333333333
26,Set-10,1.01171,1.00306,0.993577,0.6,1665488656,0.3333333333333333
27,Exclusive-FCFS,1.03909,1.01185,0.985165,0.6,1665488659,0.3333333333333333
27,FairShare,1.01106,1.0033,0.993337,0.6,1665488663,0.3333333333333333
27,Set-10,1.0111,1.00332,0.993241,0.6,1665488666,0.3333333333333333
28,Exclusive-FCFS,1.0368,1.01207,0.984933,0.6,1665488669,0.3333333333333333
28,FairShare,1.01105,1.00342,0.993245,0.6,1665488673,0.3333333333333333
28,Set-10,1.01113,1.00341,0.993258,0.6,1665488676,0.3333333333333333
29,Exclusive-FCFS,1.0405,1.0127,0.984375,0.6,1665488679,0.3333333333333333
29,FairShare,1.01085,1.00344,0.99326,0.6,1665488684,0.3333333333333333
29,Set-10,1.01099,1.00342,0.993229,0.6,1665488687,0.3333333333333333
