app_id,start_app,end_app,effective_cpu,effective_io,effective_iter,total_bytes,stretch,utilization,Tcomp,Tio,iterations,priority,group_id
app_1,4.08623,18514.1,7916.7,83.3,783.079,3.87088e+10,1.00561,0.993372,10,0.0494365,1827,1,1
app_10,1.0706,18817.8,7897.3,102.7,880.343,5.41666e+10,1.0061,0.993372,9,0.0614831,2074,1.00001,1.00001
app_11,1.64004,18600.5,7913,87,867.085,1.96252e+10,1.00849,0.993372,9,0.0226358,2022,1.00001,1.00001
app_12,7.83876,18459.2,7906.3,93.7,778.38,5.26774e+10,1.00515,0.993372,10,0.0677088,1813,1.00001,1.00001
app_13,1.89539,19032.2,7908.4,91.6,882.692,3.17976e+10,1.00753,0.993372,9,0.0360109,2099,1.00001,1.00001
app_14,7.99735,19037.9,7896.4,103.6,874.675,5.15481e+10,1.00655,0.993372,9,0.0589121,2079,1.00001,1.00001
app_15,5.72762,19079.2,7916.1,83.9,726.431,4.1275e+10,1.00536,0.993372,11,0.0567745,1713,1.00002,1.00002
app_16,4.51772,20095.6,7897.6,102.4,984.209,3.84061e+10,1.00806,0.993372,8,0.0389909,2471,1.00002,1.00002
app_17,2.14557,19493.3,7880.1,119.9,1148.69,4.80372e+10,1.00906,0.993372,7,0.0418443,2762,1.00002,1.00002
app_18,1.654,19091.2,7912.2,87.8,877.904,1.12293e+09,1.01095,0.993372,9,0.00127896,2105,1.00002,1.00002
app_19,7.46369,19062.8,7919.5,80.5,797.522,2.25967e+10,1.00729,0.993372,10,0.0283522,1905,1.00002,1.00002
app_2,0.513723,18598.2,7906,94,801.382,4.96467e+10,1.00558,0.993372,10,0.0619809,1867,1,1
app_20,8.73887,19792.9,7897.8,102.2,887.868,5.23542e+10,1.00627,0.993372,9,0.0589574,2199,1.00002,1.00002
app_21,45.0132,20075.8,7981.6,18.4,79.2598,1.13865e+10,1.00088,0.993372,94,0.144133,213,1.00002,1.00002
app_22,1.59724,20444.3,7990.4,9.6,75.1154,6.66741e+09,1.00037,0.993372,102,0.0888988,195,1.00002,1.00002
app_23,9.802,19924.1,7937.8,62.2,72.561,4.94205e+10,1.0016,0.993372,104,0.686396,190,1.00002,1.00002
app_24,73.2191,19944.7,7946.4,53.6,88.6492,3.6871e+10,1.0021,0.993372,88,0.418989,226,1.00002,1.00002
app_25,87.4175,20334.1,7972.2,27.8,77.7867,1.68574e+10,1.00137,0.993372,98,0.216121,204,1.00003,1.00003
app_26,4.24625,20713.4,7990.7,9.3,79.8857,4.36687e+09,1.00062,0.993372,94,0.0545859,212,1.00003,1.00003
app_27,33.1349,19978.4,7974.7,25.3,95.3341,1.78861e+10,1.00093,0.993372,84,0.188275,237,1.00003,1.00003
app_28,88.9475,20411.3,7971.8,28.2,83.1528,1.80925e+10,1.00127,0.993372,90,0.217982,221,1.00003,1.00003
app_29,82.3338,19790.5,7989,11,69.0657,6.71986e+09,1.00054,0.993372,115,0.0973893,173,1.00003,1.00003
app_3,5.82808,19296.5,7920.2,79.8,784.699,2.78341e+10,1.00654,0.993372,10,0.0354575,1923,1,1
app_30,34.0695,19488.8,7925.7,74.3,95.2105,5.37812e+10,1.00257,0.993372,84,0.566118,235,1.00003,1.00003
app_31,18.0598,19701.6,7958,42,71.8623,3.0315e+10,1.00146,0.993372,110,0.421042,180,1.00003,1.00003
app_32,3.0799,18515.7,7972.8,27.2,82.6055,1.69345e+10,1.00128,0.993372,103,0.206518,194,1.00003,1.00003
app_33,40.4531,20441.8,7970.5,29.5,88.6898,1.91816e+10,1.00129,0.993372,83,0.215524,239,1.00003,1.00003
app_34,5.52594,19448.3,7974,26,98.6519,1.87744e+10,1.0009,0.993372,82,0.189641,243,1.00003,1.00003
app_35,94.8526,19972.2,7992.1,7.9,76.4723,2.78672e+09,1.00064,0.993372,107,0.0366674,186,1.00004,1.00004
app_36,54.7881,19362.1,7929.8,70.2,75.5598,5.4785e+10,1.00193,0.993372,112,0.720855,177,1.00004,1.00004
app_37,17.9361,19813.3,7972.9,27.1,73.3256,1.94731e+10,1.00095,0.993372,109,0.266755,182,1.00004,1.00004
app_38,19.7925,20276.9,7965.4,34.6,89.9709,2.41357e+10,1.00131,0.993372,87,0.268174,228,1.00004,1.00004
app_39,66.6116,20368,7933.8,66.2,82.1558,4.74537e+10,1.00235,0.993372,89,0.578704,223,1.00004,1.00004
app_4,1.68277,19897.8,7912.7,87.3,872.762,8.73646e+09,1.00992,0.993372,9,0.0100074,2170,1,1
app_40,13.0154,20704.4,7969.1,30.9,84.4006,2.33739e+10,1.00094,0.993372,88,0.274987,225,1.00004,1.00004
app_41,826.107,21230.3,7973.1,26.9,8.20807,2.17418e+10,1.00065,0.993372,894,2.71773,23,1.00004,1.00004
app_42,749.741,19229,7982,18,9.00119,1.3624e+10,1.00055,0.993372,951,1.51378,21,1.00004,1.00004
app_43,646.863,20634.2,7964,36,6.17,2.37306e+10,1.00154,0.993372,1079,3.9551,19,1.00004,1.00004
app_44,201.72,19929.6,7982.4,17.6,7.0988,1.30568e+10,1.00057,0.993372,1099,1.86526,19,1.00004,1.00004
app_45,329.154,19968.5,7969.5,30.5,8.53516,2.55025e+10,1.00063,0.993372,982,2.83361,21,1.00004,1.00004
app_46,589.324,22063.5,7987.3,12.7,6.76566,9.47694e+09,1.0004,0.993372,1043,1.35385,20,1.00005,1.00005
app_47,681.602,19987.1,7945.8,54.2,9.9102,4.04451e+10,1.00172,0.993372,922,4.4939,22,1.00005,1.00005
app_48,183.904,21433.3,7980.9,19.1,10.4599,1.61475e+10,1.00037,0.993372,821,1.46795,25,1.00005,1.00005
app_49,575.57,19422,7985.2,14.8,7.83489,1.19216e+10,1.00036,0.993372,954,1.70309,21,1.00005,1.00005
app_5,1.34607,18300.5,7888.5,111.5,1110.38,2.45287e+10,1.01099,0.993372,7,0.022078,2566,1.00001,1.00001
app_50,758.433,22798.9,7957,43,9.50613,3.5101e+10,1.00099,0.993372,861,3.5101,24,1.00005,1.00005
app_51,575.819,19503.3,7953.9,46.1,9.33502,3.60722e+10,1.00126,0.993372,959,4.00803,21,1.00005,1.00005
app_52,806.184,22912.4,7953.4,46.6,8.24518,3.89711e+10,1.00095,0.993372,913,4.87139,22,1.00005,1.00005
app_53,1.30739,21166.6,7988.3,11.7,9.17674,6.59113e+09,1.00064,0.993372,1010,0.732347,20,1.00005,1.00005
app_54,872.677,22628.5,7937.3,62.7,6.70992,4.9031e+10,1.00171,0.993372,1054,7.00443,19,1.00005,1.00005
app_55,165.983,18407.5,7962,38,8.03922,2.45078e+10,1.00169,0.993372,1060,3.06348,19,1.00005,1.00005
app_56,838.544,21107.2,7990.4,9.6,7.73643,8.3351e+09,1.00016,0.993372,982,1.04189,21,1.00006,1.00006
app_57,430.742,21253.3,7966.7,33.3,7.79106,2.99777e+10,1.00042,0.993372,1024,4.28252,20,1.00006,1.00006
app_58,513.645,20305.8,7957,43,8.16067,2.94601e+10,1.0017,0.993372,948,3.68251,22,1.00006,1.00006
app_59,1076.39,23370.9,7933.2,66.8,6.76487,5.13617e+10,1.00193,0.993372,1165,7.33739,18,1.00006,1.00006
app_6,9.12871,19921.4,7930.6,69.4,693.97,9.56683e+09,1.00754,0.993372,11,0.0137851,1778,1.00001,1.00001
app_60,602.858,21116.7,7991.9,8.1,5.81321,6.71711e+09,1.00017,0.993372,1255,1.11952,16,1.00006,1.00006
app_7,7.46779,17866.1,7887,113,1130.72,1.63384e+10,1.01223,0.993372,7,0.0144588,2547,1.00001,1.00001
app_8,1.25609,19182.7,7912.4,87.6,872.035,2.05396e+10,1.00845,0.993372,9,0.0235546,2136,1.00001,1.00001
app_9,7.36412,20362.4,7919.8,80.2,778.302,3.07243e+10,1.00622,0.993372,10,0.0394407,1987,1.00001,1.00001
