app_id,start_app,end_app,effective_cpu,effective_io,effective_iter,total_bytes,stretch,utilization,Tcomp,Tio,iterations,priority,group_id
app_1,7.63822,20221.9,7717.42,74.5688,750.849,3.30404e+10,1.0322,0.984001,10,0.0439952,1947,1,1
app_10,6.23121,20001.5,7641.3,103.106,1082.29,3.64643e+10,1.04197,0.984001,7,0.0336697,2735,1,1
app_11,6.47886,20038.3,7724,79.059,775.715,4.38936e+10,1.02988,0.984001,10,0.056564,1952,1,1
app_12,4.9119,19150.1,7703.36,76.4163,853.689,1.48827e+10,1.0365,0.984001,9,0.017427,2028,1,1
app_13,0.661705,20467.8,7708.4,75.13,774.625,3.35425e+10,1.03333,0.984001,10,0.0432807,1981,1,1
app_14,2.59234,20511.8,7702.8,67.9415,780.547,1.16832e+10,1.03701,0.984001,10,0.0149784,1991,1,1
app_15,9.69865,19238,7699.8,70.0885,771.253,2.02963e+10,1.03626,0.984001,10,0.0262905,1870,1,1
app_16,3.27649,19691.6,7679.9,76.9821,855.79,1.87022e+10,1.03915,0.984001,9,0.0218484,2110,1,1
app_17,2.99425,20276,7719.3,78.6947,771.727,4.23555e+10,1.03071,0.984001,10,0.0548647,1958,1,1
app_18,1.52274,20152.4,7648.4,93.0647,951.347,3.89496e+10,1.04067,0.984001,8,0.0409135,2419,1,1
app_19,0.183974,20418.8,7692.97,77.4517,760.166,4.18888e+10,1.03428,0.984001,10,0.0550444,1963,1,1
app_2,7.00269,19742,7701.4,71.0971,854.011,1.15127e+09,1.03862,0.984001,9,0.0013481,2106,1,1
app_20,3.77323,18615.9,7654.2,90.5661,971.561,2.52328e+10,1.04174,0.984001,8,0.0259597,2258,1,1
app_21,55.1086,20446,7929.1,32.0089,82.104,2.68087e+10,1.00554,0.984001,95,0.326936,208,1,1
app_22,73.1713,20215.3,7958.6,15.4959,75.8362,1.2359e+10,1.00364,0.984001,98,0.162618,203,1,1
app_23,41.3216,19809.1,7919.7,52.3345,89.8337,4.54289e+10,1.00438,0.984001,93,0.504765,214,1,1
app_24,20.806,20089.3,7939.7,27.2996,92.938,2.17724e+10,1.00484,0.984001,84,0.234112,237,1,1
app_25,89.001,18932.9,7932.1,50.0635,83.3494,4.56163e+10,1.00279,0.984001,100,0.543051,198,1,1
app_26,62.0281,21190.9,7956.9,17.2102,78.8495,1.54403e+10,1.00347,0.984001,99,0.195447,202,1,1
app_27,36.593,20802.8,7939.4,35.9114,71.8229,3.27723e+10,1.00349,0.984001,103,0.461582,193,1,1
app_28,69.743,19231.2,7931.4,38.8096,92.4816,3.71696e+10,1.00394,0.984001,90,0.399673,220,1,1
app_29,78.9707,20317.3,7955,16.3928,84.1323,1.0833e+10,1.00429,0.984001,92,0.128964,217,1,1
app_3,5.85508,18605.3,7731.5,86.3981,854.288,4.5389e+10,1.02869,0.984001,9,0.0531487,1992,1,1
app_30,68.0944,20336.6,7955.2,22.2421,77.5097,1.67636e+10,1.00352,0.984001,94,0.217709,212,1,1
app_31,44.444,20962.7,7947.7,31.7751,77.8604,3.0514e+10,1.00273,0.984001,98,0.396286,204,1,1
app_32,89.9152,19785.4,7946,32.7698,82.8677,2.71126e+10,1.00337,0.984001,101,0.326658,197,1,1
app_33,41.0592,19672.4,7960.5,23.7663,83.1629,1.69749e+10,1.00282,0.984001,94,0.204517,212,1,1
app_34,30.7315,20044.2,7935.6,47.9314,81.3061,4.287e+10,1.0027,0.984001,99,0.52926,200,1,1
app_35,70.803,19995,7959.7,29.5922,73.0302,2.62417e+10,1.00176,0.984001,109,0.359476,182,1,1
app_36,71.5255,20171.5,7978,7.20666,86.1208,8.58836e+08,1.00265,0.984001,91,0.00998647,220,1,1
app_37,42.5525,20054.5,7941.6,40.2487,69.2208,3.45599e+10,1.00299,0.984001,111,0.500868,179,1,1
app_38,18.1583,20193.8,7939.6,33.4379,64.9438,3.24151e+10,1.00351,0.984001,120,0.498694,166,1,1
app_39,35.4352,20080.5,7962.7,23.1903,77.8807,1.82219e+10,1.00239,0.984001,103,0.233613,193,1,1
app_4,1.56555,19233.3,7764,65.0594,774.306,1.53684e+08,1.03038,0.984001,10,0.000198302,1848,1,1
app_40,23.0777,20174.2,7956.4,23.7122,80.7502,1.91259e+10,1.00307,0.984001,93,0.236122,213,1,1
app_41,48.058,21613.8,7967.7,31.9376,7.75124,3.1343e+10,1.00012,0.984001,909,3.91788,22,1,1
app_42,199.96,21632.8,7960.3,38.3921,7.40025,3.7958e+10,1.00022,0.984001,1024,5.42257,20,1,1
app_43,432,18816.9,7958.7,37.0127,9.99594,3.62192e+10,1.00064,0.984001,937,3.62192,22,1,1
app_44,36.6995,17842.4,7969.7,30.0793,10.5425,2.99917e+10,1.00004,0.984001,810,2.99917,25,1,1
app_45,642.466,22500.4,7962,27.3761,6.69269,2.71539e+10,1.00136,0.984001,1059,3.87913,19,1,1
app_46,721.314,23173.2,7967.98,25.5855,7.10335,2.5144e+10,1.00086,0.984001,978,3.43217,21,1,1
app_47,199.302,21735,7998.4,1.6,7.53481,8.61615e+08,1.00009,0.984001,986,0.107702,21,1,1
app_48,169.273,24031.4,7996.4,3.51639,6.62945,3.15427e+09,1.00006,0.984001,956,0.450611,21,1,1
app_49,732.644,21198.1,7974.2,25.2689,7.04334,2.48451e+10,1.00012,0.984001,1129,3.5493,18,1,1
app_5,4.54523,20231.1,7709.7,74.3738,777.358,2.82542e+10,1.03387,0.984001,10,0.0363164,1962,1,1
app_50,318.791,18552.8,7978.4,21.554,8.92565,2.12775e+10,1.00004,0.984001,1000,2.36417,20,1,1
app_51,994.74,20630,7951.9,45.9727,8.57218,4.56288e+10,1.00031,0.984001,1065,5.06987,19,1,1
app_52,684.059,22032.3,7984.6,15.1467,8.38258,1.4751e+10,1.00008,0.984001,905,1.84388,23,1,1
app_53,878.866,20455.6,7961.4,38.3978,10.6032,3.74109e+10,1.00015,0.984001,938,3.40099,22,1,1
app_54,788.832,22818.2,7955.1,35.2357,8.32571,3.47926e+10,1.00127,0.984001,965,4.34908,21,1,1
app_55,251.683,17809,7929.4,62.051,9.80209,6.15078e+10,1.00114,0.984001,1114,6.15078,18,1,1
app_56,974.064,21444.1,7979.8,16.7491,7.72924,1.62889e+10,1.00049,0.984001,1095,2.03612,19,1,1
app_57,568.017,20299.9,7941.8,50.5468,9.17093,5.03783e+10,1.00098,0.984001,1010,5.59759,20,1,1
app_58,210.143,21112.8,7957.4,41.745,8.15609,4.14854e+10,1.00014,0.984001,984,5.18568,21,1,1
app_59,826.405,20138.4,7963.3,36.0738,9.51152,3.58907e+10,1.0001,0.984001,924,3.58907,22,1,1
app_6,7.28149,20613.4,7742.41,73.3296,767.348,3.09919e+10,1.02915,0.984001,10,0.040354,1978,1,1
app_60,713.866,22008.6,7988.5,8.20031,8.00612,7.89605e+09,1.00045,0.984001,927,0.987006,22,1,1
app_7,0.607794,19607.9,7725.7,80.439,782.854,4.42051e+10,1.02961,0.984001,10,0.056456,1926,1,1
app_8,2.46895,19667.6,7689.4,81.2774,863.159,2.87225e+10,1.03652,0.984001,9,0.0332822,2119,1,1
app_9,0.0410055,18791.7,7672.44,79.6271,947.743,8.42374e+07,1.04268,0.984001,8,8.8858e-05,2253,1,1
