app_id,start_app,end_app,effective_cpu,effective_io,effective_iter,total_bytes,stretch,utilization,Tcomp,Tio,iterations,priority,group_id
app_1,4.81212,19818.4,7723.8,78.8562,844.54,2.5299e+10,1.03238,0.984519,9,0.0299397,2107,1,1
app_10,8.92105,20016.6,7746.7,73.9886,720.022,3.99714e+10,1.0274,0.984519,11,0.0555159,1788,1,1
app_11,0.524269,18711.5,7665,94.9257,1079.49,1.71777e+10,1.04137,0.984519,7,0.0159053,2531,1,1
app_12,8.14862,19717,7740.4,72.1129,771.564,2.60617e+10,1.03007,0.984519,10,0.0338024,1916,1,1
app_13,8.30158,20047.6,7719.5,72.7741,769.241,2.67688e+10,1.03276,0.984519,10,0.0348099,1939,1,1
app_14,2.04336,19795.4,7754.7,74.5516,851.509,1.04048e+10,1.03025,0.984519,9,0.0122122,2091,1,1
app_15,5.72903,20055.7,7733.9,75.0919,778.487,2.86219e+10,1.03059,0.984519,10,0.0367891,1928,1,1
app_16,8.2607,18928.7,7683.3,96.2352,965.123,4.37862e+10,1.03532,0.984519,8,0.0453273,2261,1,1
app_17,8.2305,18557.3,7680.6,82.4744,955.986,8.06003e+09,1.04049,0.984519,8,0.00843099,2232,1,1
app_18,5.67979,19703.1,7649.7,85.7796,966.991,1.55501e+10,1.04367,0.984519,8,0.0160807,2390,1,1
app_19,8.95903,19918.3,7673.5,68.6161,784.331,1.33831e+10,1.04073,0.984519,10,0.0170702,1907,1,1
app_2,2.31416,19109.9,7726.6,75.5887,857.603,1.50533e+10,1.03337,0.984519,9,0.0175446,2044,1,1
app_20,4.41559,19666.4,7698.82,86.001,861.183,4.20708e+10,1.03347,0.984519,9,0.04882,2106,1,1
app_21,50.0659,20864.7,7947.9,39.9771,66.0512,3.71166e+10,1.00188,0.984519,114,0.562373,175,1,1
app_22,16.3969,19193.3,7959.8,8.87536,81.4669,6.51745e+09,1.00423,0.984519,105,0.0804623,190,1,1
app_23,79.4702,19441.6,7933.7,37.2781,77.1378,3.2086e+10,1.0043,0.984519,105,0.416701,189,1,1
app_24,66.0841,19458.4,7930.8,48.3564,82.3992,4.15361e+10,1.00347,0.984519,100,0.500434,198,1,1
app_25,21.5844,19818.8,7944.6,25.3525,89.826,1.909e+10,1.00456,0.984519,89,0.212111,223,1,1
app_26,3.52619,20876.4,7947.8,28.5343,70.4453,2.56411e+10,1.00333,0.984519,107,0.366302,187,1,1
app_27,59.6854,20756.7,7968.6,20.3923,66.9427,1.74786e+10,1.00174,0.984519,117,0.260874,171,1,1
app_28,75.8122,20060.8,7951,25.3312,81.0258,2.39178e+10,1.00315,0.984519,96,0.295282,207,1,1
app_29,40.971,20859.7,7950,27.5097,72.6831,2.27149e+10,1.00342,0.984519,104,0.315485,191,1,1
app_3,5.8183,19307.8,7763.9,67.3905,708.228,2.57345e+10,1.02701,0.984519,11,0.0363482,1691,1,1
app_30,18.5058,20254.1,7942.1,35.65,89.8557,3.12732e+10,1.00334,0.984519,86,0.34748,231,1,1
app_31,43.2624,20275.1,7937.9,50.1232,85.8749,4.31279e+10,1.00238,0.984519,88,0.501487,225,1,1
app_32,32.235,20213.6,7957.6,10.1777,92.5597,7.02418e+09,1.00444,0.984519,82,0.0755288,243,1,1
app_33,34.8169,19938.3,7940.8,37.665,95.8328,3.14928e+10,1.00348,0.984519,84,0.32805,237,1,1
app_34,112.442,20161,7955.9,28.5813,72.1879,2.35435e+10,1.00258,0.984519,114,0.322514,175,1,1
app_35,1.46663,19491.7,7945.1,39.2882,75.4601,3.74499e+10,1.00219,0.984519,109,0.492762,182,1,1
app_36,48.9253,20391.1,7927.3,32.6444,81.242,2.92798e+10,1.00546,0.984519,92,0.361479,217,1,1
app_37,8.05235,19414.6,7928.3,48.5011,81.5317,4.28164e+10,1.00362,0.984519,99,0.522152,199,1,1
app_38,57.9119,19839.8,7958.2,29.3863,99.9767,2.15749e+10,1.00253,0.984519,81,0.215749,245,1,1
app_39,39.6635,21045.2,7939.6,43.281,73.2828,3.86665e+10,1.00272,0.984519,105,0.529679,190,1,1
app_4,6.18655,20698.5,7674.4,84.3872,981.398,8.95681e+09,1.04121,0.984519,8,0.00913028,2493,1,1
app_40,12.5281,19682.8,7933.9,48.3841,83.29,4.20255e+10,1.00302,0.984519,95,0.506331,209,1,1
app_41,296.238,19949.5,7980.9,11.3832,6.92524,1.11745e+10,1.00099,0.984519,1039,1.59636,20,1,1
app_42,50.9644,19228.5,7974.5,24.696,7.37296,2.43146e+10,1.00015,0.984519,1159,3.47351,18,1,1
app_43,1130.13,22773.1,7971.4,28.4905,5.18669,2.81751e+10,1.00005,0.984519,1163,5.63502,18,1,1
app_44,836.129,21222.3,7975.9,23.9995,9.56129,2.39405e+10,1.00002,0.984519,932,2.39405,22,1,1
app_45,768.987,21649.5,7963.4,33.5221,7.78133,3.2916e+10,1.00046,0.984519,1105,4.1145,19,1,1
app_46,1033.16,21360.6,7955.5,43.8773,7.91537,4.33603e+10,1.00014,0.984519,1030,5.42004,20,1,1
app_47,368.798,18795.6,7954.8,44.045,9.13668,4.35373e+10,1.00021,0.984519,865,4.83748,23,1,1
app_48,182.99,19076.4,7966.7,33.2509,9.67973,3.26156e+10,1.00009,0.984519,949,3.62395,21,1,1
app_49,482.656,18120.8,7948.8,47.0442,9.47233,4.65124e+10,1.00059,0.984519,844,4.65124,24,1,1
app_5,7.58118,18631.7,7714.6,78.0402,853.007,2.04416e+10,1.03425,0.984519,9,0.0239644,1997,1,1
app_50,888.166,21723.5,7959.5,33.8908,9.11344,3.34664e+10,1.00088,0.984519,899,3.34664,23,1,1
app_51,772.332,20274.6,7970.2,26.0534,9.14163,2.56247e+10,1.00052,0.984519,986,2.84719,21,1,1
app_52,415.77,20924.2,7960.5,38.8833,7.45831,3.84813e+10,1.00013,0.984519,968,5.49733,21,1,1
app_53,677.61,19253.7,7957.8,41.4213,9.19764,4.08907e+10,1.00016,0.984519,887,4.54341,23,1,1
app_54,892.382,21094.6,7994.9,4.74674,8.37747,4.14967e+09,1.00012,0.984519,988,0.518709,21,1,1
app_55,401.167,23748.8,7964.7,35.135,8.50803,3.4752e+10,1.00007,0.984519,931,3.86133,22,1,1
app_56,955.911,20703.2,7965.8,33.3804,7.82878,3.29312e+10,1.00016,0.984519,978,4.1164,21,1,1
app_57,27.4632,17875.3,7977.3,20.1235,12.5356,1.93094e+10,1.00042,0.984519,774,1.60912,26,1,1
app_58,135.678,17651.8,7964.6,33.5743,8.18625,3.31878e+10,1.00028,0.984519,1041,4.14848,20,1,1
app_59,745.675,23088.9,7988,9.86863,7.324,9.69e+09,1.00029,0.984519,1031,1.38429,20,1,1
app_6,1.13951,19189.5,7735.9,75.7506,859.857,1.24747e+10,1.03247,0.984519,9,0.0145055,2055,1,1
app_60,223.571,20624.1,7975.8,23.4854,5.50401,2.31465e+10,1.00013,0.984519,1083,4.6293,19,1,1
app_7,4.40216,19063.8,7718.5,78.452,854.485,2.2649e+10,1.03344,0.984519,9,0.0265211,2028,1,1
app_8,0.384463,20480.1,7703.1,75.4568,776.753,3.22506e+10,1.03421,0.984519,10,0.0415066,1978,1,1
app_9,0.840975,20843.4,7790.1,60.6315,686.689,9.34471e+09,1.02571,0.984519,11,0.0136022,1805,1,1
