app_id,start_app,end_app,effective_cpu,effective_io,effective_iter,total_bytes,stretch,utilization,Tcomp,Tio,iterations,priority,group_id
app_1,4.1667,20129.7,7879.6,109.299,1113.31,4.47553e+10,1.00955,0.993452,7,0.0402114,2837,0.1,1
app_10,1.7485,19527.8,7922.8,69.0008,736.236,1.16578e+10,1.00826,0.993452,11,0.0158393,1762,0.1,1
app_11,7.77934,18148.9,7889,98.6097,995.576,4.44185e+10,1.00839,0.993452,8,0.0446417,2245,0.1,1
app_12,6.91655,18810,7918.1,72.7217,743.395,2.68566e+10,1.00693,0.993452,11,0.0361461,1692,0.1,1
app_13,7.87441,19568.2,7917.3,74.3623,739.236,3.98274e+10,1.00539,0.993452,11,0.0538937,1776,0.1,1
app_14,0.880112,19304,7911.5,78.5552,805.18,2.95284e+10,1.00743,0.993452,10,0.0366812,1921,0.1,1
app_15,3.40667,18924.9,7910.1,78.2345,866.187,5.38556e+09,1.01068,0.993452,9,0.00621889,2079,0.1,1
app_16,8.27037,18411.8,7907,80.9985,885.894,4.09102e+09,1.01124,0.993452,9,0.00462262,2022,0.1,1
app_17,2.80512,18867.9,7918.1,72.8324,706.898,4.23219e+10,1.00497,0.993452,11,0.0598613,1712,0.1,1
app_18,9.00381,19173.1,7904.4,85.1524,861.743,3.80491e+10,1.00725,0.993452,9,0.0441918,2116,0.1,1
app_19,1.10457,18145.5,7901.4,87.5009,894.167,2.81595e+10,1.00888,0.993452,9,0.0314631,2009,0.1,1
app_2,8.32881,19076.2,7902.6,87.1993,899.719,3.06759e+10,1.00841,0.993452,9,0.0340843,2110,0.1,1
app_20,9.97735,19699.6,7916.7,73.1796,714.451,3.90007e+10,1.00557,0.993452,11,0.0546228,1761,0.1,1
app_21,40.733,20359.5,7973.3,24.8922,77.9828,1.92879e+10,1.00093,0.993452,101,0.247281,196,0.01,2
app_22,76.0107,20414.8,7987.2,9.29883,82.8185,6.48274e+09,1.00079,0.993452,93,0.0781053,214,0.01,2
app_23,19.1835,20801.9,7965.7,31.9529,67.1782,2.66493e+10,1.00096,0.993452,113,0.397751,176,0.01,2
app_24,75.7738,19195.1,7978.6,18.6849,78.1923,1.42665e+10,1.00089,0.993452,103,0.182904,193,0.01,2
app_25,20.056,19711.9,7963,35.6444,77.3236,2.91485e+10,1.00098,0.993452,103,0.378551,193,0.01,2
app_26,65.4429,19559.6,7973.5,25.5431,85.2719,1.7459e+10,1.00113,0.993452,99,0.2054,202,0.01,2
app_27,75.4985,19973.4,7942.9,55.2173,74.9973,4.65848e+10,1.00132,0.993452,106,0.621131,187,0.01,2
app_28,55.9318,18898.3,7948.4,49.1086,83.9001,4.14103e+10,1.00128,0.993452,94,0.49298,211,0.01,2
app_29,38.8334,19675.7,7939.8,58.4945,88.1265,4.93545e+10,1.00136,0.993452,91,0.560847,219,0.01,2
app_3,2.59373,19858.3,7919.2,71.2113,702.238,3.86968e+10,1.00529,0.993452,11,0.0551237,1760,0.1,1
app_30,39.1733,21555,7947.9,50.6952,64.4624,4.31217e+10,1.00112,0.993452,111,0.663411,179,0.01,2
app_31,43.378,20374.4,7978.5,19.4092,88.6243,1.34757e+10,1.001,0.993452,90,0.153133,222,0.01,2
app_32,15.1817,19467.1,7942.4,54.776,79.3672,4.72182e+10,1.0013,0.993452,104,0.597699,190,0.01,2
app_33,51.8424,19545.8,7972.3,25.2402,82.7793,1.82398e+10,1.00118,0.993452,95,0.219756,210,0.01,2
app_34,52.1548,20207.8,7940.9,56.176,83.9945,4.96734e+10,1.00118,0.993452,97,0.59135,205,0.01,2
app_35,3.17294,19406.3,7991.6,7.16762,74.8619,3.96075e+08,1.001,0.993452,107,0.00528101,186,0.01,2
app_36,78.8983,19964,7945.1,53.6132,63.5451,4.65778e+10,1.00104,0.993452,128,0.73933,156,0.01,2
app_37,6.11227,20870.9,7979.5,18.7249,84.225,1.37955e+10,1.00084,0.993452,93,0.164233,214,0.01,2
app_38,89.9159,19930.7,7946,53.6858,86.5258,4.3947e+10,1.00126,0.993452,93,0.511011,214,0.01,2
app_39,5.4182,19932.7,7975.5,21.1217,91.5846,1.6128e+10,1.00105,0.993452,97,0.17723,205,0.01,2
app_4,4.34651,18788,7910.2,78.7332,786.045,3.87145e+10,1.00643,0.993452,10,0.0492551,1856,0.1,1
app_40,9.18755,20328,7945.5,52.0303,74.0212,4.41174e+10,1.0013,0.993452,100,0.596181,198,0.01,2
app_41,127.484,18199.1,7997.2,2.73547,6.43487,2.21372e+09,1.00007,0.993452,1071,0.368953,19,0.001,3
app_42,241.767,21275.5,7954.4,45.6,6.73042,3.80106e+10,1.00095,0.993452,1082,5.43008,19,0.001,3
app_43,52.2308,19368.8,7994.1,5.64918,10.0088,4.19902e+09,1.00021,0.993452,894,0.419902,23,0.001,3
app_44,901.406,16763.8,7929.1,70.9,12.3118,6.01748e+10,1.00134,0.993452,943,5.01457,22,0.001,3
app_45,257.713,21221.1,7964.6,35.4,7.5743,3.09481e+10,1.00056,0.993452,951,3.86851,21,0.001,3
app_46,139.654,21496.6,7983.7,14.8375,10.0374,1.25683e+10,1.00047,0.993452,738,1.25683,28,0.001,3
app_47,119.508,24319.8,7981.4,16.8506,10.9383,1.30578e+10,1.00069,0.993452,859,1.18707,24,0.001,3
app_48,272.531,21444.5,7955.7,43.8983,8.23172,3.50113e+10,1.00116,0.993452,985,4.37641,21,0.001,3
app_49,469.026,21447.1,7979.3,20.7,7.82517,1.76633e+10,1.00038,0.993452,1007,2.52334,20,0.001,3
app_5,10.3119,19187,7911,79.8518,794.905,4.19124e+10,1.00592,0.993452,10,0.05272,1920,0.1,1
app_50,110.986,21064.9,7969.6,29.8398,5.92148,2.50191e+10,1.00067,0.993452,1067,4.16986,19,0.001,3
app_51,621.498,19720,7982.5,17.5,8.19553,1.44547e+10,1.00038,0.993452,955,1.80684,21,0.001,3
app_52,278.238,21735.4,7985.6,13.2243,7.55613,1.10834e+10,1.00041,0.993452,1031,1.38542,20,0.001,3
app_53,57.5582,20920.9,7970.4,29.6,7.79802,2.34718e+10,1.00077,0.993452,1007,2.93398,20,0.001,3
app_54,264.187,20029.1,7978.4,18.2137,8.39419,1.54331e+10,1.00077,0.993452,1023,1.71479,20,0.001,3
app_55,636.347,20812.7,7958.1,41.9,8.29127,3.63439e+10,1.00069,0.993452,991,4.54299,21,0.001,3
app_56,733.561,24541.5,7988.7,4.83876,6.60336,4.41893e+09,1.00086,0.993452,978,0.736488,21,0.001,3
app_57,407.419,22800.9,7942.2,53.9984,7.45395,4.52148e+10,1.00158,0.993452,1107,6.45926,18,0.001,3
app_58,853.986,26764.9,7996.5,0.761649,5.75215,1.56908e+08,1.00042,0.993452,904,0.0313816,23,0.001,3
app_59,575.832,23325.6,7981,19,5.85206,1.60742e+10,1.00037,0.993452,1027,2.67903,20,0.001,3
app_6,2.08916,19790.3,7913,78.7305,789.603,3.44732e+10,1.00661,0.993452,10,0.043637,1966,0.1,1
app_60,960.926,17872.8,7961.5,33.1122,10.3364,2.82104e+10,1.00129,0.993452,1060,2.82104,19,0.001,3
app_7,8.51793,19103.5,7910.9,79.0847,871.968,9.32122e+08,1.01114,0.993452,9,0.00106895,2107,0.1,1
app_8,6.5065,19415.9,7894.9,93.7236,980.456,2.54343e+10,1.01006,0.993452,8,0.0259533,2400,0.1,1
app_9,3.16557,19634.6,7907.8,81.4603,805.718,4.29665e+10,1.00619,0.993452,10,0.0533745,1949,0.1,1
