app_id,start_app,end_app,effective_cpu,effective_io,effective_iter,total_bytes,stretch,utilization,Tcomp,Tio,iterations,priority,group_id
app_1,6.59356,19701.1,7901.1,88.3064,895.084,3.85522e+10,1.0076,0.993114,9,0.0430751,2208,0.1,1
app_10,7.94957,19233.8,7916.07,74.3603,818.626,4.06082e+09,1.01008,0.993114,10,0.00496432,1941,0.1,1
app_11,7.549,19312.4,7914.9,76.2999,806.028,1.94827e+10,1.00827,0.993114,10,0.024172,1911,0.1,1
app_12,5.31472,19200.1,7907.1,83.4302,879.352,1.91534e+10,1.0093,0.993114,9,0.0217652,2076,0.1,1
app_13,7.9556,19186.3,7919.4,71.9702,724.468,3.13519e+10,1.00619,0.993114,11,0.0433037,1712,0.1,1
app_14,5.3354,19928.4,7909.07,82.3737,803.479,4.99093e+10,1.00515,0.993114,10,0.0621287,1987,0.1,1
app_15,3.45438,18699.6,7918.6,72.922,782.206,1.42379e+10,1.00847,0.993114,10,0.018207,1852,0.1,1
app_16,7.25346,18895.7,7917.5,74.3372,809.985,3.61734e+09,1.00996,0.993114,10,0.00446585,1885,0.1,1
app_17,6.39904,18604.6,7909.4,81.9571,793.373,5.74233e+10,1.00416,0.993114,10,0.0724128,1846,0.1,1
app_18,3.015,19714.6,7917.7,74.1427,779.482,1.80699e+10,1.00809,0.993114,10,0.0231666,1945,0.1,1
app_19,4.70046,18139.5,7892.6,96.9547,985.639,3.67574e+10,1.00891,0.993114,8,0.0372793,2248,0.1,1
app_2,4.31227,17750.5,7879.5,108.244,1126.07,3.62522e+10,1.01064,0.993114,7,0.0321956,2496,0.1,1
app_20,0.233164,18400.5,7899.6,89.6241,978.138,1.0274e+10,1.01139,0.993114,8,0.0105051,2253,0.1,1
app_21,63.3951,20871.6,7970.9,25.0806,83.6806,1.69639e+10,1.00152,0.993114,87,0.201951,229,0.01,2
app_22,52.1654,19914.8,7947,48.9946,86.7972,4.21223e+10,1.00136,0.993114,97,0.484165,204,0.01,2
app_23,18.9572,19368.8,7968.2,29.2718,71.1181,2.41634e+10,1.00096,0.993114,118,0.340329,169,0.01,2
app_24,29.9254,20650.8,7973.4,22.3981,97.5146,1.74841e+10,1.00114,0.993114,86,0.180248,232,0.01,2
app_25,18.8178,20661.1,7977.5,21.1974,70.2276,1.48577e+10,1.00096,0.993114,99,0.212252,201,0.01,2
app_26,63.9952,19385.9,7951.2,47.9915,85.8715,4.07837e+10,1.001,0.993114,98,0.474229,203,0.01,2
app_27,87.6724,19500.9,7971.7,27.0387,88.2901,2.03511e+10,1.00099,0.993114,94,0.231262,212,0.01,2
app_28,65.6294,20455.7,7974.7,24.3142,81.7455,1.72266e+10,1.00101,0.993114,99,0.212674,201,0.01,2
app_29,45.1176,20400,7937.3,61.3108,62.9493,5.45556e+10,1.00102,0.993114,129,0.865961,154,0.01,2
app_3,1.9827,18709.9,7893.2,96.229,984.034,3.72854e+10,1.00877,0.993114,8,0.0378916,2285,0.1,1
app_30,17.0617,19419.3,7959,36.5487,80.7568,3.12104e+10,1.00123,0.993114,101,0.385313,196,0.01,2
app_31,102.607,20498.4,7965.4,31.8949,76.3821,2.66713e+10,1.00099,0.993114,103,0.350938,192,0.01,2
app_32,70.9347,18927.4,7959.9,38.9272,67.6607,3.28719e+10,1.0009,0.993114,128,0.490625,156,0.01,2
app_33,102.302,19691.6,7959.6,38.7047,76.6424,3.24503e+10,1.00099,0.993114,108,0.421433,184,0.01,2
app_34,8.35872,19089.8,7988.8,9.25513,92.1417,3.44855e+09,1.00097,0.993114,93,0.0374842,213,0.01,2
app_35,17.0739,19582.9,7934.5,64.6214,79.5829,5.56601e+10,1.00123,0.993114,107,0.695751,186,0.01,2
app_36,16.2219,19925.8,7949.4,48.8932,78.1742,4.10318e+10,1.0012,0.993114,109,0.519389,182,0.01,2
app_37,60.6134,19205,7938.1,60.6174,83.876,5.05013e+10,1.00143,0.993114,94,0.601206,210,0.01,2
app_38,35.9249,19250,7961.8,35.2305,100.167,2.99443e+10,1.00103,0.993114,84,0.299443,236,0.01,2
app_39,43.8063,19124.6,7958,40.1876,96.0867,3.41002e+10,1.00099,0.993114,87,0.35521,229,0.01,2
app_4,9.01954,19221.8,7910.9,80.1644,783.44,4.80738e+10,1.00515,0.993114,10,0.0613969,1896,0.1,1
app_40,6.36229,20366.1,7978.5,16.3131,85.3201,8.87844e+09,1.00158,0.993114,93,0.104452,214,0.01,2
app_41,706.574,20715.9,7977.6,22.4,7.5594,1.85669e+10,1.00048,0.993114,1015,2.32086,20,0.001,3
app_42,42.3205,21960,7951.7,48.3,7.63172,4.1251e+10,1.00088,0.993114,1042,5.15638,20,0.001,3
app_43,866.088,19604.5,7957.6,36.6163,7.67697,2.8501e+10,1.00174,0.993114,957,3.56262,21,0.001,3
app_44,93.3551,19333,7952.5,46.916,9.62582,3.91616e+10,1.00104,0.993114,930,3.91616,22,0.001,3
app_45,174.58,15887.1,7951.9,44.664,9.86273,3.88361e+10,1.00116,0.993114,997,3.88361,20,0.001,3
app_46,270.551,22198.2,7927.7,71.4883,9.48272,6.24097e+10,1.00124,0.993114,1012,6.24097,20,0.001,3
app_47,22.5197,18060.5,7985,9.07335,9.56475,7.05726e+09,1.00099,0.993114,1020,0.78414,20,0.001,3
app_48,537.687,21453.2,7949.5,50.5,6.12218,4.41384e+10,1.0008,0.993114,1134,7.3564,18,0.001,3
app_49,842.247,21779.3,7990.5,9.5,7.8206,7.3542e+09,1.00027,0.993114,1047,0.919275,20,0.001,3
app_5,5.67302,19194.8,7922.1,69.3689,720.363,2.12761e+10,1.00713,0.993114,11,0.0295501,1750,0.1,1
app_50,931.423,19647.5,7942.3,56.6261,7.90765,4.84285e+10,1.00116,0.993114,995,6.05356,20,0.001,3
app_51,21.0753,20706,7955.4,44.6,7.14109,3.94371e+10,1.00065,0.993114,1044,4.92964,20,0.001,3
app_52,326.451,19170.1,7980.5,19.5,8.81428,1.76426e+10,1.00023,0.993114,1028,1.96029,20,0.001,3
app_53,642.985,24285,7951.5,47.6792,7.94468,3.99906e+10,1.00106,0.993114,817,4.99883,25,0.001,3
app_54,112.721,23680.1,7985.9,9.0573,7.46458,7.75143e+09,1.00079,0.993114,950,1.10735,22,0.001,3
app_55,180.091,19416.2,7971.8,20.9901,9.43335,1.7059e+10,1.00139,0.993114,919,1.7059,22,0.001,3
app_56,267.395,21465.4,7973,25.9968,6.48764,2.10183e+10,1.00075,0.993114,993,3.50304,21,0.001,3
app_57,736.718,19025,7949,50.4131,9.85087,4.27436e+10,1.00103,0.993114,971,4.27436,21,0.001,3
app_58,312.834,23711.6,7951.5,42.7544,7.85673,3.55581e+10,1.00162,0.993114,852,4.44476,24,0.001,3
app_59,652.447,23761.5,7991.8,1.57711,7.48311,1.25071e+09,1.00087,0.993114,1098,0.178673,19,0.001,3
app_6,0.467796,18779.5,7904.1,87.4643,891.908,3.83692e+10,1.00724,0.993114,9,0.0430148,2059,0.1,1
app_60,198.895,20279.5,7982.5,13.9329,7.74419,1.11399e+10,1.0008,0.993114,1030,1.39248,20,0.001,3
app_7,5.2003,20081.6,7921.4,69.1149,771.746,8.12141e+08,1.00982,0.993114,10,0.00105336,1955,0.1,1
app_8,4.64954,19179.4,7916.7,75.0676,817.278,7.10693e+09,1.00962,0.993114,10,0.00869882,1912,0.1,1
app_9,7.21768,18856.4,7919.5,71.1514,778.24,4.6747e+09,1.00957,0.993114,10,0.0060009,1830,0.1,1
