app_id,start_app,end_app,effective_cpu,effective_io,effective_iter,total_bytes,stretch,utilization,Tcomp,Tio,iterations,priority,group_id
app_1,3.33768,19554.8,7752.66,61.4545,705.274,9.96287e+09,1.03058,0.984139,11,0.0141317,1700,1,1
app_10,2.774,18626.8,7690.26,87.6989,876.578,4.61769e+10,1.03407,0.984139,9,0.0527133,2023,1,1
app_11,3.88069,19750.9,7688.7,84.9773,847.683,4.44987e+10,1.0345,0.984139,9,0.0525368,2110,1,1
app_12,4.18712,18639.5,7714.2,78.9855,866.101,1.93373e+10,1.03446,0.984139,9,0.0223294,2018,1,1
app_13,0.625266,18741,7693.76,74.105,851.304,1.02399e+10,1.03842,0.984139,9,0.0120328,2010,1,1
app_14,5.71478,19853.1,7713.6,76.6642,867.403,1.08869e+10,1.03567,0.984139,9,0.0125569,2141,1,1
app_15,6.16828,19404.3,7666.6,91.1474,953.599,3.22488e+10,1.03912,0.984139,8,0.0338393,2297,1,1
app_16,7.73774,19481.3,7713.26,70.9667,764.297,2.21533e+10,1.0342,0.984139,10,0.0289965,1846,1,1
app_17,8.33824,19952.3,7694.9,79.82,792.919,3.95046e+10,1.03434,0.984139,10,0.0498166,1971,1,1
app_18,0.548541,20623.6,7782.3,52.9188,634.048,2.2163e+09,1.02768,0.984139,12,0.00349573,1648,1,1
app_19,6.10021,19341.6,7648.3,95.5648,951.126,4.61859e+10,1.03971,0.984139,8,0.0485656,2320,1,1
app_2,5.07404,19846.5,7710.8,68.6232,755.499,1.77762e+10,1.03512,0.984139,10,0.0235136,1898,1,1
app_20,6.42277,19756.6,7716.2,64.7648,715.494,1.53539e+10,1.03472,0.984139,11,0.021474,1757,1,1
app_21,6.77005,19350.4,7932.9,51.9287,85.6618,4.78459e+10,1.00241,0.984139,93,0.556348,213,1,1
app_22,86.2179,19585.7,7958.03,13.992,77.7639,7.71236e+09,1.0043,0.984139,100,0.100161,199,1,1
app_23,30.3854,20105.9,7970.7,8.64755,74.2065,7.32689e+09,1.00275,0.984139,107,0.0976919,187,1,1
app_24,17.7652,19584.2,7920.1,49.6342,80.6025,4.80225e+10,1.004,0.984139,98,0.592871,202,1,1
app_25,65.9242,19792.9,7960.6,17.8257,86.3329,1.52414e+10,1.00303,0.984139,89,0.177226,225,1,1
app_26,17.4873,20013.3,7954.1,28.1597,92.6799,2.39207e+10,1.00275,0.984139,92,0.257211,217,1,1
app_27,111.258,18537.7,7947.6,43.9983,75.5986,3.86883e+10,1.00172,0.984139,111,0.515844,178,1,1
app_28,46.8913,20102.3,7955,19.9528,67.9995,1.46045e+10,1.00381,0.984139,113,0.214772,176,1,1
app_29,0.209272,19448.1,7964.8,11.0114,94.2823,8.62654e+09,1.00333,0.984139,89,0.0917717,222,1,1
app_3,8.45657,20468.1,7697.3,63.647,767.886,3.79604e+09,1.03881,0.984139,10,0.00494276,1992,1,1
app_30,14.2499,20029.7,7953.3,34.6273,70.6794,2.86973e+10,1.00226,0.984139,104,0.404187,191,1,1
app_31,68.2852,20699,7944.6,23.8364,82.9575,1.67157e+10,1.00486,0.984139,90,0.201394,222,1,1
app_32,20.2578,20193.6,7946.1,18.4683,86.0763,1.54578e+10,1.00483,0.984139,91,0.179742,218,1,1
app_33,77.4047,20673.4,7968.9,7.61982,77.5056,2.60382e+09,1.00357,0.984139,103,0.0338158,194,1,1
app_34,63.7992,19995.2,7941.9,26.1334,63.0836,2.46306e+10,1.0042,0.984139,122,0.390962,163,1,1
app_35,10.9246,19161.2,7917.2,50.6398,82.588,4.78605e+10,1.00439,0.984139,96,0.576633,206,1,1
app_36,29.1746,21118.3,7960.7,8.22344,90.8165,1.38736e+09,1.00476,0.984139,86,0.0152457,231,1,1
app_37,65.9836,20020,7923.4,49.4356,85.2028,4.31123e+10,1.0042,0.984139,96,0.507204,208,1,1
app_38,26.1379,20394.4,7930.5,43.0744,84.245,4.16084e+10,1.0035,0.984139,93,0.495338,214,1,1
app_39,1.35191,20501.2,7918.1,45.2096,76.2971,3.9934e+10,1.00527,0.984139,95,0.525448,210,1,1
app_4,7.68687,18657.2,7766,75.9445,718.391,4.8707e+10,1.02371,0.984139,11,0.067837,1670,1,1
app_40,14.7576,19959.8,7946.7,23.6075,82.252,1.82693e+10,1.0044,0.984139,99,0.222796,201,1,1
app_41,35.8452,18151.8,7994.4,5.12773,9.85059,4.90846e+09,1.00009,0.984139,960,0.490846,21,1,1
app_42,714.43,21544.9,7966.1,30.4091,7.72903,3.00619e+10,1.00048,0.984139,952,3.75774,21,1,1
app_43,507.501,19048.8,7948.76,51.0836,7.76719,5.06507e+10,1.00007,0.984139,1092,6.36373,19,1,1
app_44,638.13,20403.6,7955.4,42.682,7.28785,4.24691e+10,1.00027,0.984139,1008,6.06701,20,1,1
app_45,625.37,21669.5,7996.9,3.05684,6.60878,2.91067e+09,1.00002,0.984139,969,0.485112,21,1,1
app_46,214.119,21385.5,7963.8,35.856,8.23146,3.52949e+10,1.00011,0.984139,900,4.41186,23,1,1
app_47,612.108,17633.8,7931.3,68.3613,10.7873,6.80756e+10,1.00008,0.984139,1096,6.18869,19,1,1
app_48,754.481,20926.1,7968.5,30.1262,9.65346,2.96887e+10,1.00023,0.984139,824,2.96887,25,1,1
app_49,586.046,19959.5,7957.5,40.4366,8.37293,3.9712e+10,1.00035,0.984139,954,4.41244,21,1,1
app_5,10.5068,19745.1,7746.4,75.1565,709.289,4.82359e+10,1.02635,0.984139,11,0.0680337,1755,1,1
app_50,965.198,18574.4,7993,6.3519,6.68256,6.02837e+09,1.00012,0.984139,1144,0.861196,18,1,1
app_51,884.124,22787.3,7967.6,32.1069,5.03406,3.19559e+10,1.00006,0.984139,1217,6.39119,17,1,1
app_52,280.582,19076.8,7974.6,25.1232,9.0762,2.45048e+10,1.00011,0.984139,897,2.72276,23,1,1
app_53,65.8118,21040.2,7973.7,25.9614,9.06199,2.5495e+10,1.0001,0.984139,845,2.83278,24,1,1
app_54,1068.16,24795.6,7956.1,41.2537,7.10516,4.09604e+10,1.00037,0.984139,1077,5.85148,19,1,1
app_55,40.0972,21406.8,7965.6,32.3706,9.3475,3.16944e+10,1.00034,0.984139,843,3.5216,24,1,1
app_56,508.999,22005.5,7962.3,37.036,6.86762,3.67117e+10,1.00012,0.984139,1085,5.24453,19,1,1
app_57,407.88,20811.6,7990.3,6.49293,9.0188,6.02196e+09,1.00046,0.984139,947,0.669107,22,1,1
app_58,199.834,20102,7960.2,36.2929,8.12815,3.59931e+10,1.00048,0.984139,1020,4.49914,20,1,1
app_59,669.184,20473.3,7960.2,37.2178,10.0387,3.69129e+10,1.00036,0.984139,835,3.69129,24,1,1
app_6,0.387154,20449.1,7689.28,79.1029,951.848,1.20546e+09,1.04025,0.984139,8,0.00126757,2423,1,1
app_60,164.276,20528.3,7963.1,35.1671,9.00941,3.48729e+10,1.00025,0.984139,852,3.87477,24,1,1
app_7,8.26793,19538.7,7682.3,74.2076,841.987,8.85599e+09,1.04016,0.984139,9,0.0105178,2054,1,1
app_8,6.35048,19236.1,7683.1,86.6809,870.62,4.17364e+10,1.03562,0.984139,9,0.0479728,2060,1,1
app_9,4.79761,18848.2,7672.39,87.7213,866.393,4.53568e+10,1.03657,0.984139,9,0.0523751,2002,1,1
