app_id,start_app,end_app,effective_cpu,effective_io,effective_iter,total_bytes,stretch,utilization,Tcomp,Tio,iterations,priority,group_id
app_1,6.8762,19178.5,7689.6,88.5278,864.02,4.99152e+10,1.03366,0.983804,9,0.0577722,2051,1,1
app_10,0.0454841,19460.3,7650.2,88.8873,860.192,4.94843e+10,1.039,0.983804,9,0.0575399,2117,1,1
app_11,6.85327,19245.2,7685.13,88.2195,873.947,4.32874e+10,1.03514,0.983804,9,0.0495307,2069,1,1
app_12,7.38512,20057.6,7693.3,89.1101,866.172,5.11857e+10,1.03299,0.983804,9,0.0591058,2151,1,1
app_13,8.37616,19531.7,7734.9,72.7345,879.583,2.53754e+09,1.03393,0.983804,9,0.00288685,2139,1,1
app_14,2.11764,18467.6,7656.8,90.2153,956.869,3.15116e+10,1.04054,0.983804,8,0.0329275,2220,1,1
app_15,1.52929,19414,7679.8,76.7764,862.209,1.48802e+10,1.03968,0.983804,9,0.0172624,2082,1,1
app_16,7.35228,20687.8,7730.3,71.4741,736.161,3.00304e+10,1.03088,0.983804,10,0.0408021,1963,1,1
app_17,2.97446,18866.5,7676.2,82.023,968.116,6.67039e+09,1.04128,0.983804,8,0.0068909,2238,1,1
app_18,6.68832,18571.8,7739,73.6499,853.745,8.87273e+09,1.03254,0.983804,9,0.0104018,2025,1,1
app_19,1.92723,19141.5,7724.8,79.5166,775.642,4.23961e+10,1.02997,0.983804,10,0.0546342,1866,1,1
app_2,7.43021,18892.7,7720.1,79.424,867.381,2.04179e+10,1.03352,0.983804,9,0.0235501,2023,1,1
app_20,3.80863,20498.3,7667,83.9873,956.703,1.43418e+10,1.04148,0.983804,8,0.0150019,2494,1,1
app_21,4.35406,20753.4,7912.9,42.065,82.4853,3.85163e+10,1.00611,0.983804,90,0.464052,221,1,1
app_22,71.5994,20121.4,7938.8,44.4132,64.7841,3.97243e+10,1.00269,0.983804,118,0.611143,168,1,1
app_23,4.85827,21312.8,7951,45.2627,64.8374,4.15623e+10,1.00093,0.983804,119,0.639421,167,1,1
app_24,24.5268,19203.7,7896.3,57.6778,98.2217,5.16733e+10,1.00655,0.983804,86,0.527278,231,1,1
app_25,103.754,20309.4,7921.9,53.1278,66.1194,5.028e+10,1.00349,0.983804,119,0.761818,166,1,1
app_26,93.2623,20934.4,7929.2,45.7583,77.8338,3.96625e+10,1.00391,0.983804,102,0.508494,195,1,1
app_27,99.8359,19558.2,7956,31.2447,76.2656,2.87825e+10,1.00191,0.983804,104,0.378718,191,1,1
app_28,80.1613,19914,7933.5,36.3859,94.4762,2.98991e+10,1.0046,0.983804,83,0.318076,239,1,1
app_29,18.7551,20265.2,7959.6,16.5945,85.71,1.06562e+10,1.00373,0.983804,86,0.123909,232,1,1
app_3,5.47771,19233.6,7730.2,62.3449,758.366,2.77009e+09,1.03453,0.983804,10,0.00365447,1882,1,1
app_30,4.32756,20099.1,7930.5,42.4483,104.57,3.91962e+10,1.0038,0.983804,81,0.376887,245,1,1
app_31,64.6663,19998.7,7964.6,20.2707,69.8268,1.4989e+10,1.00256,0.983804,102,0.214128,195,1,1
app_32,50.6154,18345.9,7983.2,8.4342,93.5791,1.96656e+08,1.00208,0.983804,96,0.00209208,209,1,1
app_33,102.811,19988.2,7941.2,44.9658,74.962,4.09489e+10,1.00224,0.983804,108,0.545985,185,1,1
app_34,49.5186,20276.6,7922.4,44.6918,75.2502,4.06801e+10,1.00464,0.983804,104,0.542402,192,1,1
app_35,7.89619,20602.1,7948.7,45.3803,76.4999,4.10685e+10,1.00128,0.983804,99,0.540375,200,1,1
app_36,19.6954,20429.3,7962.7,9.55923,93.1999,4.79351e+09,1.00408,0.983804,93,0.0515431,215,1,1
app_37,90.0451,21472.6,7974.6,7.42964,68.6946,4.62652e+09,1.0026,0.983804,106,0.067051,188,1,1
app_38,6.34284,20322.8,7967.9,23.3102,80.6439,1.80653e+10,1.00176,0.983804,99,0.223028,202,1,1
app_39,34.2125,19820.4,7964.1,24.7166,84.5925,1.94777e+10,1.00206,0.983804,95,0.229149,210,1,1
app_4,6.81969,20189.4,7685.3,72.4333,849.899,8.50178e+09,1.0398,0.983804,9,0.0100021,2164,1,1
app_40,46.4583,18744.2,7938.3,50.6113,71.1716,4.78483e+10,1.00173,0.983804,118,0.67392,169,1,1
app_41,12.1971,19069.9,7998,1.80431,9.36221,1.23191e+09,1.0001,0.983804,1029,0.136879,20,1,1
app_42,575.964,20515.6,7993,5.38917,6.03913,4.83223e+09,1.00027,0.983804,1073,0.805371,19,1,1
app_43,324.991,20254.6,7967.7,28.8978,5.95489,2.86978e+10,1.00045,0.983804,924,4.78297,22,1,1
app_44,339.524,23522.1,7995.7,3.93969,7.90801,3.53304e+09,1.0001,0.983804,1037,0.50472,20,1,1
app_45,781.382,22167.4,7961.1,35.0375,7.6429,3.47362e+10,1.00052,0.983804,1143,4.96232,18,1,1
app_46,107.033,16257.4,7976.5,23.4654,9.852,2.32299e+10,1.00003,0.983804,983,2.5811,21,1,1
app_47,271.658,21213.4,7952,46.9001,8.33905,4.66122e+10,1.00017,0.983804,1031,5.17914,20,1,1
app_48,722.593,20838.5,7983.6,15.964,9.7154,1.55788e+10,1.0001,0.983804,918,1.55788,22,1,1
app_49,719.902,24319.8,7960.8,37.6302,7.29785,3.70679e+10,1.00027,0.983804,1005,4.63348,20,1,1
app_5,5.3292,19711.8,7693.9,84.6493,846.707,4.05854e+10,1.03433,0.983804,9,0.0479166,2087,1,1
app_50,200.139,21403,7970.9,25.1525,9.63559,2.47174e+10,1.00055,0.983804,930,2.47174,22,1,1
app_51,61.4127,21875.1,7983.2,9.04834,6.4673,8.58435e+09,1.00103,0.983804,1016,1.22634,20,1,1
app_52,165.633,19788.6,7977,22.2867,6.44819,2.21896e+10,1.0001,0.983804,1069,3.69827,19,1,1
app_53,135.746,18300.5,7943.7,48.1415,10.4609,4.79234e+10,1.00105,0.983804,837,4.79234,24,1,1
app_54,263.7,18629.5,7961.1,36.0655,9.38948,3.54235e+10,1.00043,0.983804,908,3.93595,22,1,1
app_55,1218.24,19200.1,7965.1,34.355,5.00814,3.40771e+10,1.0001,0.983804,1332,6.81543,15,1,1
app_56,415.471,17856.4,7971.6,24.9194,8.76643,2.43212e+10,1.00051,0.983804,961,2.70236,21,1,1
app_57,878.202,20550.8,7934.8,65.0262,9.97442,6.44661e+10,1.00009,0.983804,1056,6.44661,19,1,1
app_58,455.208,24213.5,7973.8,26.0268,4.76212,2.56305e+10,1.00007,0.983804,1140,5.12609,18,1,1
app_59,963.392,19460.2,7981.9,11.0091,7.65108,1.07021e+10,1.00093,0.983804,1190,1.33777,17,1,1
app_6,2.06089,18272.9,7652.4,99.3259,1097.6,2.58501e+10,1.0419,0.983804,7,0.0235429,2529,1,1
app_60,1128.45,22314,7956.7,42.7637,6.85569,4.25778e+10,1.00009,0.983804,1131,6.08254,18,1,1
app_7,1.09612,18822.5,7686.1,78.9664,843.484,2.65433e+10,1.03726,0.983804,9,0.0314867,2019,1,1
app_8,4.89247,18437.6,7689.1,81.9745,970.945,1.449e+09,1.04024,0.983804,8,0.00149382,2237,1,1
app_9,6.32557,19576,7736,72.5359,870.396,3.08869e+09,1.03371,0.983804,9,0.00355021,2096,1,1
