app_id,start_app,end_app,effective_cpu,effective_io,effective_iter,total_bytes,stretch,utilization,Tcomp,Tio,iterations,priority,group_id
app_1,2.94524,18540.8,7892.3,95.2323,1000.7,2.48036e+10,1.01047,0.993214,8,0.0247788,2271,0.1,1
app_10,0.880291,19006.6,7904.8,85.3571,873.575,2.92946e+10,1.00831,0.993214,9,0.0335179,2038,0.1,1
app_11,6.13243,17936.9,7891.3,94.9087,1012.56,1.90619e+10,1.01133,0.993214,8,0.0188172,2229,0.1,1
app_12,2.43182,19933.8,7899.9,90.2302,888.029,4.89465e+10,1.00644,0.993214,9,0.0551199,2205,0.1,1
app_13,9.63223,19844.2,7912.8,77.2595,799.165,2.32515e+10,1.00806,0.993214,10,0.0291008,1984,0.1,1
app_14,0.718314,19516.7,7900.5,88.6297,979.223,8.31206e+08,1.01249,0.993214,8,0.000848169,2365,0.1,1
app_15,5.23125,19214.8,7907,83.2032,825.167,4.38285e+10,1.00618,0.993214,10,0.0531255,1957,0.1,1
app_16,6.37359,19800.8,7923.7,68.8656,672.614,4.27016e+10,1.00422,0.993214,12,0.0634496,1650,0.1,1
app_17,3.08872,19013.9,7901.3,88.2516,885.21,4.52111e+10,1.00673,0.993214,9,0.051086,2075,0.1,1
app_18,6.31182,19036.6,7903.5,86.0485,882.645,3.17037e+10,1.00817,0.993214,9,0.0359045,2128,0.1,1
app_19,3.23428,19426,7909.3,80.2084,869.743,1.15602e+10,1.00999,0.993214,9,0.0133029,2130,0.1,1
app_2,6.57315,20083.9,7903.9,84.9889,878.19,3.15685e+10,1.00813,0.993214,9,0.035955,2198,0.1,1
app_20,1.49864,19187.3,7905.8,84.7766,853.967,3.76523e+10,1.00712,0.993214,9,0.0440893,2080,0.1,1
app_21,110.959,19085,7961.6,36.2963,71.9172,2.88697e+10,1.00119,0.993214,112,0.400968,178,0.01,2
app_22,22.2065,20489,7989.5,9.53525,90.0422,6.19603e+09,1.00054,0.993214,90,0.0688448,221,0.01,2
app_23,33.2464,20233.6,7991.4,7.57629,77.4819,2.38384e+09,1.00078,0.993214,103,0.0309589,194,0.01,2
app_24,63.4158,20209.7,7952.5,45.9286,71.8224,3.96387e+10,1.00098,0.993214,106,0.558292,187,0.01,2
app_25,95.5656,20643.5,7968.5,29.6131,72.4676,2.35758e+10,1.00099,0.993214,112,0.327441,178,0.01,2
app_26,77.3756,19823.7,7959.8,38.5639,83.2571,3.25129e+10,1.00096,0.993214,97,0.387059,205,0.01,2
app_27,20.313,18771.1,7946.6,51.9187,91.9274,4.46661e+10,1.00109,0.993214,88,0.485501,226,0.01,2
app_28,101.207,19001.3,7928,69.1541,89.741,6.00643e+10,1.00149,0.993214,102,0.67488,195,0.01,2
app_29,20.4451,20467.3,7948.5,50.7457,75.7806,4.37471e+10,1.00097,0.993214,106,0.57562,188,0.01,2
app_3,4.88594,19472.9,7909.6,81.4216,794.684,4.88328e+10,1.00522,0.993214,10,0.0614249,1926,0.1,1
app_30,97.9854,20635.5,7947.2,50.2324,79.0172,4.47482e+10,1.00101,0.993214,98,0.566432,203,0.01,2
app_31,94.9047,19133.3,7941.3,57.1665,85.5686,4.9766e+10,1.00112,0.993214,101,0.585482,196,0.01,2
app_32,71.3063,20502.9,7964.53,33.3273,80.0903,2.71091e+10,1.00105,0.993214,99,0.336022,201,0.01,2
app_33,35.5971,19844.2,7990.7,7.77031,76.9602,3.2081e+09,1.00076,0.993214,103,0.0416636,194,0.01,2
app_34,81.8098,20800.1,7941.5,56.5517,87.3655,4.91951e+10,1.00116,0.993214,89,0.565461,222,0.01,2
app_35,30.8042,19429.4,7952.5,45.5212,101.009,3.7784e+10,1.00122,0.993214,81,0.374099,244,0.01,2
app_36,75.5654,19510.8,7973.6,25.8639,85.4731,1.80852e+10,1.00104,0.993214,102,0.210293,196,0.01,2
app_37,96.084,19351.4,7981.2,16.9223,79.1729,1.18683e+10,1.00087,0.993214,109,0.148353,182,0.01,2
app_38,82.3267,19665.2,7990.1,8.45235,80.2435,4.12818e+09,1.00072,0.993214,97,0.0516022,206,0.01,2
app_39,41.7848,19240,7978.4,18.1443,90.5387,1.2129e+10,1.00119,0.993214,87,0.134766,230,0.01,2
app_4,2.62376,20239.8,7897.8,90.342,979.966,1.18146e+10,1.01143,0.993214,8,0.0120558,2493,0.1,1
app_40,89.5283,19168.4,7941.2,55.889,75.1053,4.83869e+10,1.0013,0.993214,103,0.645159,192,0.01,2
app_41,841.677,19617.9,7962.7,33.1581,8.48255,2.92734e+10,1.001,0.993214,1018,3.65918,20,0.001,3
app_42,173.587,16232.3,7959.9,38.4625,8.47334,3.25991e+10,1.00094,0.993214,1070,4.07488,19,0.001,3
app_43,851.494,20681.2,7940.6,59.4,7.86395,5.10449e+10,1.00105,0.993214,1005,6.38061,20,0.001,3
app_44,206.092,21532.1,7967.5,26.3968,6.99804,2.40486e+10,1.00106,0.993214,1005,3.43552,20,0.001,3
app_45,880.078,22110.1,7973.6,25.3792,10.886,1.93306e+10,1.00088,0.993214,890,1.75733,23,0.001,3
app_46,908.671,19327.5,7977.3,19.5362,9.57383,1.7071e+10,1.0007,0.993214,908,1.89678,22,0.001,3
app_47,358.517,19727.7,7942,52.0919,7.26269,4.49319e+10,1.00164,0.993214,1055,6.41884,19,0.001,3
app_48,565.298,18622.3,7987.6,10.3972,7.89531,8.30677e+09,1.00051,0.993214,978,1.03835,21,0.001,3
app_49,305.226,22619.6,7994.6,5.4,7.15988,4.65389e+09,1.00009,0.993214,1063,0.664841,19,0.001,3
app_5,2.60042,19468.4,7919.8,71.328,777.885,4.07091e+09,1.00961,0.993214,10,0.00523253,1878,0.1,1
app_50,1041.42,19919.6,7957.8,42.2,8.80901,3.77009e+10,1.00056,0.993214,1062,4.18899,19,0.001,3
app_51,643.947,16443.2,7970.9,29.1,8.42758,2.43103e+10,1.0006,0.993214,1037,3.03879,20,0.001,3
app_52,103.183,17287.7,7963.7,32.9847,8.43606,2.83004e+10,1.001,0.993214,1122,3.53755,18,0.001,3
app_53,516.129,21970.5,7988.9,11.1,4.97885,9.30064e+09,1.00022,0.993214,1065,1.86013,19,0.001,3
app_54,265.286,22256.5,7991.8,4.62645,8.69654,2.94847e+09,1.00066,0.993214,1015,0.327608,20,0.001,3
app_55,226.447,21649.4,7977.5,22.5,10.6074,1.81763e+10,1.00054,0.993214,828,1.65239,25,0.001,3
app_56,705.394,21483.4,7976.3,23.7,7.62738,2.06525e+10,1.00038,0.993214,1099,2.95036,19,0.001,3
app_57,326.646,21911.3,7945.7,49.826,7.63015,4.22219e+10,1.00151,0.993214,940,6.03169,22,0.001,3
app_58,571.86,19852.2,7937.7,62.3,8.02388,5.40448e+10,1.00103,0.993214,1001,6.7556,20,0.001,3
app_59,513.778,22615.3,7986.6,12.4271,6.73168,1.01293e+10,1.00041,0.993214,1003,1.44704,20,0.001,3
app_6,1.51159,20476.1,7909.2,80.9927,876.49,9.91181e+09,1.01021,0.993214,9,0.011302,2182,0.1,1
app_60,880.7,21502.2,7960.7,39.3,7.47738,3.38426e+10,1.00068,0.993214,944,4.23033,22,0.001,3
app_7,2.9496,18694.8,7911.1,78.331,862.485,6.56282e+09,1.0104,0.993214,9,0.00760466,2076,0.1,1
app_8,7.88213,20047.4,7918.1,73.2266,718.318,4.06062e+10,1.00519,0.993214,11,0.0565546,1806,0.1,1
app_9,0.47469,20097.6,7909.2,80.7344,865.22,1.39085e+10,1.0097,0.993214,9,0.0160792,2197,0.1,1
