app_id,start_app,end_app,effective_cpu,effective_io,effective_iter,total_bytes,stretch,utilization,Tcomp,Tio,iterations,priority,group_id
app_1,0.310947,19118.9,7889.7,98.388,997.352,4.38254e+10,1.00838,0.99321,8,0.0439132,2373,0.1,1
app_10,4.65647,18329.6,7909.5,80.3185,888.649,5.89691e+07,1.01143,0.99321,9,6.6332e-05,2058,0.1,1
app_11,1.52897,18688.9,7904.9,84.5011,863.893,3.47179e+10,1.00761,0.99321,9,0.0401828,2030,0.1,1
app_12,0.647095,18615.8,7909.1,80.3914,797.176,3.66772e+10,1.00682,0.99321,10,0.0460191,1841,0.1,1
app_13,7.83126,18463.5,7910.9,79.0255,857.491,1.01287e+10,1.00997,0.99321,9,0.0118188,2017,0.1,1
app_14,4.77799,18209.6,7902.7,85.6098,887.347,3.09069e+10,1.00837,0.99321,9,0.0348443,1996,0.1,1
app_15,6.09258,19681.1,7893.7,95.3953,967.077,3.95371e+10,1.00842,0.99321,8,0.0408863,2430,0.1,1
app_16,4.76547,17971,7892.8,96.2596,981.427,4.07078e+10,1.00838,0.99321,8,0.0414963,2225,0.1,1
app_17,0.472819,18969.8,7912.4,76.4662,788.823,2.74721e+10,1.00757,0.99321,10,0.0348189,1872,0.1,1
app_18,9.87582,19023.9,7911.2,77.4672,792.435,2.84214e+10,1.0076,0.99321,10,0.0358403,1898,0.1,1
app_19,0.0323384,19668.3,7874.3,109.982,1142.4,3.865e+10,1.011,0.99321,7,0.0338441,2785,0.1,1
app_2,10.137,18291.4,7904.7,84.4778,806.111,5.46774e+10,1.0051,0.99321,10,0.067838,1817,0.1,1
app_20,4.52213,19595.6,7909.1,78.7857,883.578,1.00186e+09,1.01136,0.99321,9,0.00113333,2176,0.1,1
app_21,22.5923,20013.9,7982.5,16.6662,81.4614,1.03713e+10,1.00089,0.99321,98,0.126479,203,0.01,2
app_22,94.9283,19832.7,7953.7,44.5519,77.873,3.88759e+10,1.00093,0.99321,101,0.498409,196,0.01,2
app_23,42.8321,19804.6,7969.8,27.1208,89.6694,1.98401e+10,1.0013,0.99321,84,0.222923,236,0.01,2
app_24,76.19,21368.9,7972,26.9256,65.1009,2.01489e+10,1.00098,0.99321,104,0.309983,191,0.01,2
app_25,73.9906,21195,7948.9,47.9062,73.2557,4.01401e+10,1.00137,0.99321,107,0.549864,186,0.01,2
app_26,7.62494,20331.9,7991.5,7.43065,75.9589,6.9361e+08,1.00098,0.99321,98,0.00912645,203,0.01,2
app_27,94.2101,20120.9,7974.7,22.41,73.3935,1.67739e+10,1.00107,0.99321,113,0.22978,177,0.01,2
app_28,75.3672,20305.2,7989.9,8.83207,90.4544,6.076e+08,1.00119,0.99321,87,0.00675111,229,0.01,2
app_29,28.0948,19400.6,7947.4,50.3469,79.1622,4.14849e+10,1.00139,0.99321,106,0.518561,188,0.01,2
app_3,5.27136,18448.1,7905,82.7405,889.743,1.61122e+10,1.00996,0.99321,9,0.0181036,2034,0.1,1
app_30,84.736,19245.8,7937.8,60.8403,93.3507,5.08852e+10,1.00142,0.99321,88,0.541331,224,0.01,2
app_31,5.72584,19959.8,7981.9,16.6861,77.3308,1.19468e+10,1.00077,0.99321,97,0.155154,206,0.01,2
app_32,46.9174,19171.7,7953,45.5032,88.2632,3.62167e+10,1.00135,0.99321,105,0.40693,190,0.01,2
app_33,101.786,18871.9,7978.9,18.1028,79.7158,1.29496e+10,1.00102,0.99321,102,0.163918,195,0.01,2
app_34,42.4518,20569.5,7979.6,18.1229,80.2403,1.36122e+10,1.00085,0.99321,93,0.170152,214,0.01,2
app_35,37.2519,19783,7988.6,10.8122,75.8775,7.19488e+09,1.00053,0.99321,114,0.0946694,176,0.01,2
app_36,1.03094,20038.5,7960.6,38.8909,69.4438,3.21483e+10,1.00091,0.99321,113,0.465917,176,0.01,2
app_37,99.0324,20892.7,7965.9,33.4097,71.2965,2.8117e+10,1.00075,0.99321,101,0.390514,197,0.01,2
app_38,39.4259,19308.1,7969.2,29.9681,73.9176,2.26706e+10,1.00102,0.99321,102,0.306359,195,0.01,2
app_39,68.7179,20275.9,7964.7,32.8928,70.7435,2.67545e+10,1.00107,0.99321,112,0.376825,177,0.01,2
app_4,4.92545,19628.7,7903,86.5031,854.632,4.5106e+10,1.00653,0.99321,9,0.0527556,2160,0.1,1
app_40,49.5325,20462,7954.4,45.2867,67.9097,3.79878e+10,1.00095,0.99321,100,0.558644,199,0.01,2
app_41,1095.63,23437.6,7960.4,39.6,7.49089,3.3166e+10,1.0008,0.99321,1135,4.14574,18,0.001,3
app_42,535.691,18067.8,7959.3,38.9335,11.6813,3.32298e+10,1.00093,0.99321,796,2.76915,26,0.001,3
app_43,1056.57,23007.5,7967.3,29.5782,6.91779,2.42727e+10,1.00105,0.99321,1062,3.46752,19,0.001,3
app_44,178.231,16970.2,7979.2,15.8337,11.7739,1.37942e+10,1.00088,0.99321,1032,1.14951,20,0.001,3
app_45,709.061,20788.7,7998.8,1.2,6.15482,5.15274e+08,1.00009,0.99321,1102,0.085879,19,0.001,3
app_46,495.305,26976.9,7985,14.5298,5.56536,1.28431e+10,1.00027,0.99321,1002,2.56861,20,0.001,3
app_47,639.685,17233.6,7960.7,39.3,9.93282,3.2214e+10,1.00089,0.99321,943,3.2214,22,0.001,3
app_48,221.226,21172.5,7954.2,44.8184,7.84469,3.65645e+10,1.00116,0.99321,926,4.57056,22,0.001,3
app_49,831.013,20368.5,7947.5,52.5,10.9027,4.57343e+10,1.00085,0.99321,876,4.15767,23,0.001,3
app_5,10.9445,19565,7921.2,69.2392,723.052,1.74616e+10,1.00773,0.99321,11,0.0241516,1774,0.1,1
app_50,824.858,19155.3,7969.6,30.4,12.1295,2.56328e+10,1.0006,0.99321,855,2.13607,24,0.001,3
app_51,54.5184,21458,7952.5,47.4455,7.09472,3.92818e+10,1.00103,0.99321,1016,5.61169,20,0.001,3
app_52,85.0734,24006.1,7969.3,30.7,6.50859,2.66233e+10,1.00051,0.99321,1073,4.43722,19,0.001,3
app_53,597.01,18222.7,7990.7,9.07677,8.25474,6.54637e+09,1.00034,0.99321,1156,0.818297,18,0.001,3
app_54,784.41,18166.1,7959.5,34.6173,9.37281,2.81132e+10,1.00155,0.99321,976,3.12369,21,0.001,3
app_55,462.13,17952.6,7964,34.7801,10.2129,2.98722e+10,1.00077,0.99321,953,2.98722,21,0.001,3
app_56,410.017,19306.2,7979.6,20.4,10.2394,1.60916e+10,1.00054,0.99321,942,1.60916,22,0.001,3
app_57,413.233,18902.6,7943.4,56.6,9.67715,4.81555e+10,1.00106,0.99321,1071,4.81555,19,0.001,3
app_58,197.497,22575.1,7960.8,39.2,9.96345,3.37779e+10,1.00068,0.99321,890,3.37779,23,0.001,3
app_59,560.75,23021.5,7976.1,23.742,7.2344,2.00203e+10,1.00049,0.99321,1017,2.86004,20,0.001,3
app_6,7.07964,19671.8,7901.1,88.4964,881.96,4.31027e+10,1.00702,0.99321,9,0.0488693,2167,0.1,1
app_60,1014.94,20703.9,7956.6,39.7153,8.35993,3.42749e+10,1.00114,0.99321,1081,4.28437,19,0.001,3
app_7,6.12433,19863.8,7908.5,80.9214,801.105,4.15637e+10,1.00628,0.99321,10,0.0518898,1943,0.1,1
app_8,1.06314,18907.8,7877.1,110.332,1111.8,5.04443e+10,1.00914,0.99321,7,0.0453636,2651,0.1,1
app_9,9.95995,18202.8,7900.4,89.5256,873.964,5.43436e+10,1.00569,0.99321,9,0.062178,1997,0.1,1
