app_id,start_app,end_app,effective_cpu,effective_io,effective_iter,total_bytes,stretch,utilization,Tcomp,Tio,iterations,priority,group_id
app_1,4.68629,19530.3,7918,82,793.791,2.9804e+10,1.00657,0.993388,10,0.0375365,1916,1,1
app_10,8.09107,18332.6,7927.9,72.1,718.694,1.70238e+10,1.00693,0.993388,11,0.0237101,1668,1.00001,1.00001
app_11,1.20015,19295.7,7924.6,75.4,727.927,2.91136e+10,1.00582,0.993388,11,0.0399912,1763,1.00001,1.00001
app_12,8.69665,18344.5,7908.9,91.1,900.389,2.95008e+10,1.00776,0.993388,9,0.0327423,2040,1.00001,1.00001
app_13,5.18917,18336.8,7884.2,115.8,983.757,5.73229e+10,1.00736,0.993388,8,0.058255,2268,1.00001,1.00001
app_14,8.15471,19402.9,7911.9,88.1,878.042,2.35501e+10,1.00813,0.993388,9,0.0268224,2118,1.00001,1.00001
app_15,0.1298,18626.7,7911.8,88.2,882.235,1.17901e+10,1.00964,0.993388,9,0.0133675,2036,1.00002,1.00002
app_16,6.40081,19120.3,7908.1,91.9,883.257,3.59102e+10,1.00705,0.993388,9,0.0406224,2089,1.00002,1.00002
app_17,2.45644,19633.7,7921.1,78.9,772.133,2.59516e+10,1.00666,0.993388,10,0.0336161,1937,1.00002,1.00002
app_18,3.38384,18835,7911.5,88.5,870.736,2.867e+10,1.00754,0.993388,9,0.032954,2052,1.00002,1.00002
app_19,0.0508259,18259.3,7909,91,872.324,3.96141e+10,1.00646,0.993388,9,0.045429,2001,1.00002,1.00002
app_2,5.222,18773.3,7899.2,100.8,970.042,3.78863e+10,1.00793,0.993388,8,0.0390581,2293,1,1
app_20,3.89429,19218.6,7917.1,82.9,710.973,4.58593e+10,1.00465,0.993388,11,0.0644997,1733,1.00002,1.00002
app_21,57.4971,21087.8,7988.9,11.1,85.2218,6.78036e+09,1.00054,0.993388,89,0.079769,225,1.00002,1.00002
app_22,57.7543,21218.4,7985.2,14.8,69.0476,8.46023e+09,1.00079,0.993388,102,0.122612,195,1.00002,1.00002
app_23,85.449,20499.9,7969.9,30.1,89.4292,1.85103e+10,1.00145,0.993388,93,0.20567,214,1.00002,1.00002
app_24,50.3799,19024.7,7935.9,64.1,85.7694,4.38237e+10,1.00254,0.993388,97,0.515573,204,1.00002,1.00002
app_25,67.1284,20157.8,7935,65,94.5265,5.00569e+10,1.00187,0.993388,85,0.53252,232,1.00003,1.00003
app_26,54.1536,19743.9,7934.2,65.8,82.9949,4.82103e+10,1.0022,0.993388,104,0.580847,191,1.00003,1.00003
app_27,29.5992,19711.4,7993.8,6.2,62.0947,9.32193e+08,1.00066,0.993388,132,0.0150354,151,1.00003,1.00003
app_28,2.07867,18586.4,7939.7,60.3,84.6331,4.51988e+10,1.00189,0.993388,100,0.538081,199,1.00003,1.00003
app_29,0.237471,20497.9,7976.7,23.3,93.6058,1.62213e+10,1.00089,0.993388,89,0.172567,223,1.00003,1.00003
app_3,4.02066,18440.4,7914.1,85.9,859.603,5.8745e+09,1.0101,0.993388,9,0.00683877,2001,1,1
app_30,75.808,19217.5,7925.9,74.1,81.3007,5.57602e+10,1.0023,0.993388,100,0.688398,198,1.00003,1.00003
app_31,2.0163,18824.7,7981.6,18.4,85.6669,8.57009e+09,1.00123,0.993388,94,0.100825,211,1.00003,1.00003
app_32,69.2862,19001.8,7977.9,22.1,98.6167,1.317e+10,1.00112,0.993388,86,0.134387,232,1.00003,1.00003
app_33,42.5962,20336.8,7965.5,34.5,92.1479,2.35738e+10,1.00137,0.993388,87,0.256237,229,1.00003,1.00003
app_34,90.2253,20174,7981.4,18.6,81.9927,1.25706e+10,1.00075,0.993388,96,0.1533,208,1.00003,1.00003
app_35,55.7611,20104.3,7973.5,26.5,94.8231,1.86998e+10,1.00098,0.993388,79,0.19684,251,1.00004,1.00004
app_36,73.0046,20055.9,7942.6,57.4,69.2512,4.67115e+10,1.00134,0.993388,109,0.676978,182,1.00004,1.00004
app_37,12.1296,18899.8,7963.5,36.5,95.0042,2.75894e+10,1.00112,0.993388,90,0.290415,221,1.00004,1.00004
app_38,91.6776,18360.2,7960.1,39.9,89.5981,2.93424e+10,1.00132,0.993388,91,0.32969,217,1.00004,1.00004
app_39,90.2569,19511.1,7960,40,71.667,2.78479e+10,1.00152,0.993388,123,0.386777,162,1.00004,1.00004
app_4,3.04327,18556.7,7901.4,98.6,976.651,2.75318e+10,1.00896,0.993388,8,0.0282088,2314,1,1
app_40,9.67157,18525.6,7965,35,106.092,2.3102e+10,1.00149,0.993388,73,0.217943,270,1.00004,1.00004
app_41,403.064,23904.2,7994.9,5.1,6.48968,4.311e+09,1.0001,0.993388,954,0.718501,21,1.00004,1.00004
app_42,265.619,22986,7946.3,53.7,5.90372,3.69891e+10,1.00209,0.993388,927,6.16485,22,1.00004,1.00004
app_43,317.651,21529.5,7933.4,66.6,9.89077,5.48929e+10,1.00147,0.993388,926,5.48929,22,1.00004,1.00004
app_44,504.274,20464.6,7980.4,19.6,7.51769,1.70572e+10,1.00032,0.993388,1046,2.13215,20,1.00004,1.00004
app_45,768.454,23397.7,7997.2,2.8,6.24513,2.08645e+09,1.00009,0.993388,1081,0.347741,19,1.00004,1.00004
app_46,47.2169,22400.9,7943.7,56.3,8.14769,4.51152e+10,1.0014,0.993388,898,5.6394,23,1.00005,1.00005
app_47,447.199,23287.5,7933.2,66.8,8.71103,5.45421e+10,1.00153,0.993388,844,6.06024,24,1.00005,1.00005
app_48,573.961,20148.6,7966.6,33.4,9.98937,2.5181e+10,1.00103,0.993388,938,2.5181,22,1.00005,1.00005
app_49,786.853,17735.5,7958,42,7.68543,3.10498e+10,1.00137,0.993388,1110,4.43569,18,1.00005,1.00005
app_5,3.72049,19660.1,7919.8,80.2,801.47,9.56976e+09,1.00891,0.993388,10,0.0119324,1950,1.00001,1.00001
app_50,818.103,23700.6,7993.4,6.6,7.61183,4.7107e+09,1.00024,0.993388,971,0.588838,21,1.00005,1.00005
app_51,407.067,20244.2,7933.1,66.9,6.83799,4.84255e+10,1.00231,0.993388,1115,6.91793,18,1.00005,1.00005
app_52,465.896,20157.9,7965.2,34.8,10.636,2.84933e+10,1.00079,0.993388,900,2.84933,23,1.00005,1.00005
app_53,49.9039,27142.1,7977.7,22.3,5.51223,1.54627e+10,1.00086,0.993388,1088,3.09253,19,1.00005,1.00005
app_54,689.983,22196.1,7946.2,53.8,6.66868,4.75243e+10,1.00079,0.993388,1037,6.78919,20,1.00005,1.00005
app_55,671.686,24163.8,7999.1,0.9,6.04939,5.63697e+08,1.00004,0.993388,1099,0.0939495,19,1.00005,1.00005
app_56,621.624,23579,7990.8,9.2,7.64986,6.40841e+09,1.00035,0.993388,940,0.801052,22,1.00006,1.00006
app_57,752.605,23394.6,7959.5,40.5,7.18383,3.21554e+10,1.00104,0.993388,975,4.59363,21,1.00006,1.00006
app_58,539.057,26485,7989.9,10.1,7.59945,8.52119e+09,1.0002,0.993388,860,1.21731,24,1.00006,1.00006
app_59,680.323,18945.5,7998.8,1.2,8.87315,6.46435e+08,1.00007,0.993388,1010,0.0718261,20,1.00006,1.00006
app_6,2.2602,18873.9,7910.9,89.1,890.489,8.07161e+09,1.01023,0.993388,9,0.00905905,2094,1.00001,1.00001
app_60,230.397,19415.1,7955.3,44.7,9.88306,3.62832e+10,1.00105,0.993388,865,3.62832,24,1.00006,1.00006
app_7,12.4148,20083.9,7938.3,61.7,599.488,2.31156e+10,1.00485,0.993388,13,0.0385261,1522,1.00001,1.00001
app_8,1.38482,18233.6,7895.56,104.437,895.842,5.06197e+10,1.00677,0.993388,9,0.0565352,2019,1.00001,1.00001
app_9,6.13454,17887.6,7873.7,126.3,1103.34,5.66109e+10,1.00879,0.993388,7,0.0513245,2504,1.00001,1.00001
